1664
-0.247847, 1, 1, 380, 285
-0.306103, 1, 1, 380, 256
-0.439164, 65, 1, 320, 285
-0.561436, 65, 1, 320, 256
-0.841276, 33, 33, 160, 285
-0.847256, 49, 1, 176, 285
-0.854334, 1, 49, 380, 176
-0.85623, 1, 1, 380, 128
-0.858119, 1, 1, 128, 285
-0.859676, 225, 1, 352, 285
-0.862507, 225, 33, 352, 285
-0.863768, 177, 1, 304, 256
-0.864955, 97, 33, 224, 285
-0.872163, 97, 1, 224, 285
-0.874395, 177, 1, 304, 285
-0.884266, 1, 97, 380, 224
-0.895892, 1, 161, 380, 285
-0.908076, 33, 49, 288, 176
-0.909964, 65, 1, 320, 128
-0.918815, 129, 161, 380, 285
-0.922445, 89, 33, 152, 160
-0.926463, 33, 33, 160, 160
-0.929299, 33, 161, 288, 285
-0.930353, 65, 33, 128, 160
-0.935513, 1, 81, 128, 208
-0.936226, 49, 81, 112, 208
-0.936287, 97, 1, 224, 128
-0.939594, 225, 129, 352, 256
-0.939852, 161, 161, 288, 285
-0.939924, 1, 97, 256, 224
-0.940725, 177, 1, 304, 128
-0.942201, 25, 49, 88, 176
-0.942467, 41, 1, 104, 128
-0.943006, 121, 161, 184, 285
-0.943219, 57, 65, 120, 128
-0.943744, 81, 49, 208, 176
-0.943777, 129, 113, 380, 240
-0.944587, 225, 1, 288, 128
-0.94587, 305, 161, 368, 285
-0.946087, 129, 65, 380, 192
-0.949122, 273, 145, 336, 272
-0.949264, 225, 17, 352, 144
-0.949282, 17, 129, 144, 256
-0.949976, 89, 81, 152, 208
-0.950117, 81, 41, 144, 104
-0.95096, 121, 1, 184, 128
-0.952845, 201, 161, 264, 285
-0.952888, 113, 161, 240, 285
-0.953127, 257, 17, 320, 144
-0.953628, 25, 57, 88, 120
-0.95377, 41, 25, 104, 88
-0.954862, 121, 177, 184, 240
-0.955573, 57, 89, 120, 152
-0.955682, 273, 97, 336, 224
-0.95604, 305, 193, 368, 256
-0.956554, 185, 1, 248, 128
-0.956613, 97, 113, 224, 240
-0.958042, 305, 49, 368, 176
-0.958111, 25, 81, 88, 144
-0.958174, 201, 161, 264, 224
-0.958739, 1, 49, 64, 112
-0.959482, 161, 161, 224, 285
-0.959486, 81, 161, 144, 285
-0.959503, 17, 1, 80, 128
-0.960202, 225, 81, 352, 208
-0.96053, 209, 41, 272, 104
-0.960631, 65, 161, 192, 285
-0.960787, 65, 49, 96, 176
-0.961024, 273, 209, 336, 272
-0.961638, 177, 49, 304, 176
-0.96201, 233, 1, 296, 64
-0.962167, 1, 49, 64, 176
-0.962195, 113, 33, 176, 96
-0.962258, 89, 73, 152, 136
-0.963844, 233, 41, 296, 104
-0.964275, 1, 113, 64, 240
-0.964387, 241, 225, 304, 285
-0.964874, 1, 57, 128, 120
-0.965099, 57, 129, 120, 256
-0.965337, 281, 153, 344, 216
-0.965426, 9, 1, 72, 256
-0.965491, 101, 1, 132, 128
-0.965645, 241, 145, 304, 272
-0.96594, 49, 121, 112, 184
-0.966261, 185, 33, 248, 96
-0.966717, 89, 17, 152, 80
-0.966728, 77, 49, 108, 176
-0.966815, 57, 1, 120, 256
-0.966914, 161, 1, 224, 128
-0.966972, 61, 65, 92, 128
-0.967048, 1, 25, 64, 88
-0.967117, 281, 17, 344, 144
-0.967121, 25, 97, 88, 224
-0.967159, 89, 17, 120, 144
-0.967238, 65, 1, 96, 128
-0.967264, 89, 41, 120, 104
-0.967454, 113, 9, 176, 72
-0.967901, 113, 49, 176, 176
-0.967901, 49, 57, 176, 120
-0.968002, 129, 49, 256, 176
-0.968198, 73, 65, 104, 128
-0.968336, 257, 41, 320, 104
-0.968533, 265, 185, 328, 248
-0.968745, 201, 49, 264, 176
-0.96881, 113, 57, 176, 120
-0.968851, 97, 1, 160, 256
-0.968964, 89, 169, 152, 232
-0.969174, 17, 33, 144, 96
-0.970014, 49, 1, 112, 64
-0.970439, 101, 49, 132, 112
-0.970553, 289, 65, 352, 128
-0.970753, 25, 1, 88, 64
-0.970843, 241, 201, 304, 264
-0.970892, 305, 217, 368, 280
-0.971148, 113, 113, 176, 240
-0.971404, 133, 161, 164, 285
-0.971434, 33, 1, 96, 256
-0.971913, 201, 1, 264, 64
-0.972263, 249, 65, 312, 192
-0.972274, 105, 145, 168, 208
-0.972382, 1, 89, 128, 152
-0.972414, 145, 113, 272, 240
-0.972895, 81, 97, 144, 160
-0.972904, 33, 49, 64, 112
-0.972937, 257, 81, 320, 144
-0.972998, 129, 153, 192, 216
-0.973205, 57, 145, 120, 208
-0.97321, 101, 65, 132, 192
-0.973238, 113, 33, 144, 160
-0.973734, 121, 209, 184, 272
-0.973774, 161, 33, 224, 96
-0.97399, 85, 81, 116, 144
-0.974015, 257, 1, 320, 64
-0.974163, 161, 169, 288, 232
-0.974251, 153, 185, 216, 248
-0.974443, 53, 65, 84, 192
-0.974801, 257, 201, 380, 264
-0.974874, 233, 153, 296, 216
-0.974989, 257, 225, 380, 285
-0.975001, 137, 1, 200, 64
-0.975159, 137, 33, 200, 96
-0.975255, 153, 145, 216, 208
-0.975555, 69, 97, 100, 160
-0.975604, 281, 217, 312, 280
-0.975633, 25, 121, 88, 184
-0.975724, 1, 121, 128, 184
-0.975767, 101, 25, 132, 88
-0.975837, 97, 41, 224, 104
-0.975847, 57, 97, 88, 160
-0.975849, 241, 169, 368, 232
-0.975908, 177, 169, 240, 232
-0.975957, 49, 81, 176, 144
-0.976002, 209, 41, 336, 104
-0.976075, 225, 65, 288, 192
-0.97624, 81, 97, 112, 224
-0.976381, 129, 169, 160, 232
-0.976399, 221, 1, 252, 128
-0.976494, 241, 177, 304, 240
-0.976581, 137, 49, 200, 176
-0.976619, 265, 33, 328, 285
-0.976767, 177, 65, 240, 192
-0.976854, 245, 41, 276, 104
-0.976944, 77, 41, 108, 104
-0.976993, 217, 65, 280, 128
-0.977115, 233, 41, 264, 104
-0.97712, 241, 1, 272, 128
-0.977265, 313, 33, 376, 285
-0.977372, 305, 1, 368, 128
-0.977391, 125, 33, 156, 96
-0.977397, 273, 129, 336, 192
-0.977552, 209, 1, 240, 128
-0.977607, 97, 177, 224, 240
-0.977639, 45, 33, 76, 96
-0.977672, 145, 113, 208, 240
-0.977672, 321, 113, 380, 240
-0.977702, 13, 49, 44, 112
-0.977716, 225, 145, 352, 208
-0.977883, 161, 1, 224, 64
-0.977895, 77, 1, 108, 128
-0.977908, 41, 49, 72, 176
-0.978, 305, 169, 368, 232
-0.978123, 77, 121, 108, 184
-0.978149, 169, 57, 232, 120
-0.978164, 89, 193, 152, 256
-0.978252, 317, 161, 348, 285
-0.978305, 225, 33, 288, 285
-0.978414, 281, 41, 344, 104
-0.978485, 89, 1, 152, 285
-0.978616, 97, 145, 224, 208
-0.978843, 153, 33, 216, 285
-0.978944, 253, 1, 284, 128
-0.978977, 53, 1, 84, 128
-0.979078, 49, 1, 112, 285
-0.979261, 97, 121, 160, 184
-0.979269, 129, 33, 192, 285
-0.97927, 205, 33, 236, 96
-0.979331, 145, 57, 208, 120
-0.979388, 193, 1, 224, 128
-0.979602, 209, 185, 272, 248
-0.979662, 17, 9, 144, 72
-0.9798, 1, 121, 64, 184
-0.979845, 65, 225, 192, 285
-0.979845, 105, 73, 136, 136
-0.980057, 209, 225, 336, 285
-0.980127, 45, 81, 76, 144
-0.98014, 193, 113, 256, 240
-0.980317, 29, 49, 60, 176
-0.980325, 1, 33, 32, 96
-0.980432, 265, 1, 296, 128
-0.980523, 117, 1, 148, 64
-0.980567, 193, 1, 256, 256
-0.98058, 17, 65, 48, 192
-0.980693, 269, 41, 300, 104
-0.98086, 97, 217, 160, 280
-0.980899, 317, 185, 348, 248
-0.980998, 113, 33, 144, 96
-0.981034, 193, 65, 256, 128
-0.981094, 161, 49, 288, 112
-0.981097, 209, 201, 336, 264
-0.981304, 1, 81, 64, 144
-0.981587, 129, 1, 160, 128
-0.981617, 21, 17, 52, 80
-0.981657, 289, 33, 320, 160
-0.981803, 81, 145, 144, 208
-0.981818, 61, 33, 92, 96
-0.98187, 305, 153, 336, 216
-0.981937, 141, 1, 172, 128
-0.981967, 145, 209, 208, 272
-0.982038, 265, 105, 328, 168
-0.982069, 273, 49, 304, 176
-0.982078, 177, 17, 304, 80
-0.982099, 37, 1, 68, 128
-0.982175, 217, 33, 248, 96
-0.982381, 281, 17, 344, 80
-0.982441, 69, 97, 100, 224
-0.982611, 193, 73, 320, 136
-0.982672, 317, 161, 348, 224
-0.982765, 97, 65, 224, 128
-0.983037, 269, 225, 300, 285
-0.983052, 65, 169, 128, 232
-0.983093, 97, 17, 224, 80
-0.983118, 265, 161, 296, 285
-0.983124, 49, 1, 80, 64
-0.983139, 301, 225, 332, 285
-0.983174, 277, 1, 308, 128
-0.983212, 105, 161, 136, 285
-0.983273, 313, 1, 376, 285
-0.983286, 305, 161, 336, 285
-0.983295, 257, 57, 380, 120
-0.983309, 313, 57, 376, 120
-0.983331, 237, 9, 268, 72
-0.983391, 33, 17, 64, 80
-0.983411, 117, 57, 148, 120
-0.983435, 229, 169, 260, 232
-0.983484, 33, 145, 160, 208
-0.983579, 161, 193, 288, 256
-0.983591, 93, 145, 124, 272
-0.983605, 269, 193, 300, 256
-0.983679, 49, 169, 176, 232
-0.98371, 145, 161, 176, 285
-0.983754, 301, 201, 332, 264
-0.983763, 109, 201, 140, 264
-0.983836, 17, 1, 80, 285
-0.983883, 285, 161, 316, 285
-0.983905, 305, 89, 368, 152
-0.984027, 5, 81, 36, 208
-0.984031, 293, 97, 324, 224
-0.984044, 313, 121, 376, 184
-0.984082, 265, 1, 328, 285
-0.984084, 225, 161, 256, 285
-0.984123, 297, 113, 360, 240
-0.984136, 85, 145, 116, 208
-0.984141, 265, 1, 296, 64
-0.984207, 1, 1, 64, 64
-0.984223, 49, 105, 176, 168
-0.984342, 225, 9, 256, 72
-0.984363, 181, 1, 212, 128
-0.984379, 217, 113, 280, 240
-0.984467, 289, 49, 320, 112
-0.984543, 257, 41, 288, 104
-0.984592, 145, 1, 208, 285
-0.984716, 253, 17, 284, 80
-0.984757, 49, 57, 80, 120
-0.984764, 201, 1, 264, 285
-0.984796, 289, 33, 352, 285
-0.985007, 257, 33, 380, 96
-0.985025, 309, 49, 340, 176
-0.985052, 193, 137, 256, 200
-0.985091, 97, 169, 128, 232
-0.985138, 193, 161, 224, 285
-0.985225, 185, 33, 216, 96
-0.985354, 145, 177, 176, 240
-0.98542, 117, 169, 148, 232
-0.985446, 105, 1, 136, 64
-0.985594, 169, 113, 232, 240
-0.985614, 281, 193, 312, 256
-0.985646, 65, 121, 96, 184
-0.985671, 81, 1, 112, 64
-0.98571, 145, 145, 272, 208
-0.985787, 113, 1, 176, 285
-0.985795, 129, 193, 160, 256
-0.985855, 1, 57, 32, 120
-0.985967, 117, 225, 148, 285
-0.986022, 205, 145, 236, 272
-0.986069, 277, 81, 308, 144
-0.986119, 313, 33, 376, 96
-0.986303, 113, 225, 240, 285
-0.986309, 177, 1, 240, 285
-0.986516, 169, 161, 200, 285
-0.986644, 9, 1, 40, 128
-0.986685, 253, 145, 284, 272
-0.9869, 241, 193, 272, 256
-0.986901, 201, 225, 264, 285
-0.986991, 165, 41, 196, 104
-0.987068, 141, 1, 172, 64
-0.987068, 25, 193, 88, 256
-0.98707, 205, 153, 236, 216
-0.987083, 21, 113, 52, 240
-0.987084, 193, 161, 224, 224
-0.987112, 329, 33, 360, 160
-0.987125, 225, 1, 352, 64
-0.987197, 305, 113, 336, 240
-0.987262, 17, 81, 48, 144
-0.987302, 61, 1, 92, 64
-0.987424, 237, 161, 268, 285
-0.987474, 57, 73, 120, 104
-0.987517, 57, 113, 88, 240
-0.98759, 161, 217, 288, 280
-0.987611, 81, 57, 144, 88
-0.987692, 181, 177, 212, 240
-0.987731, 97, 201, 224, 264
-0.987755, 257, 217, 288, 280
-0.987784, 257, 185, 288, 248
-0.987865, 249, 161, 280, 224
-0.987872, 169, 177, 200, 240
-0.987883, 121, 161, 152, 285
-0.987925, 189, 9, 220, 72
-0.987977, 205, 1, 236, 64
-0.987977, 301, 65, 332, 128
-0.987984, 257, 121, 380, 184
-0.988099, 145, 217, 176, 280
-0.988182, 217, 161, 248, 224
-0.988238, 125, 49, 156, 176
-0.988241, 241, 81, 368, 144
-0.988246, 17, 169, 80, 232
-0.988386, 137, 41, 168, 104
-0.988622, 233, 129, 296, 192
-0.988643, 33, 201, 160, 264
-0.988651, 105, 65, 168, 96
-0.988717, 261, 49, 292, 176
-0.988752, 205, 57, 236, 120
-0.988771, 341, 33, 372, 160
-0.988822, 129, 225, 160, 285
-0.988828, 181, 161, 212, 285
-0.988836, 57, 61, 120, 92
-0.988844, 113, 177, 176, 208
-0.98892, 153, 153, 184, 216
-0.988939, 293, 113, 324, 176
-0.988952, 57, 85, 120, 116
-0.988958, 229, 49, 260, 176
-0.989001, 25, 57, 88, 88
-0.989025, 113, 145, 144, 208
-0.989059, 81, 45, 144, 76
-0.98909, 153, 33, 184, 96
-0.989149, 25, 1, 56, 128
-0.989185, 157, 185, 188, 248
-0.98924, 241, 1, 304, 285
-0.989312, 157, 161, 188, 285
-0.989396, 73, 121, 136, 184
-0.989461, 329, 185, 360, 248
-0.989494, 209, 65, 240, 192
-0.989515, 17, 81, 80, 112
-0.98963, 321, 145, 380, 208
-0.989706, 49, 121, 112, 152
-0.989752, 273, 229, 336, 260
-0.989761, 73, 225, 136, 285
-0.989811, 1, 89, 32, 152
-0.989824, 105, 165, 168, 196
-0.989882, 221, 57, 252, 120
-0.989899, 1, 41, 64, 72
-0.989922, 25, 69, 88, 100
-0.989927, 281, 241, 344, 272
-0.989927, 1, 41, 256, 104
-0.989932, 305, 197, 368, 228
-0.989944, 249, 65, 280, 128
-0.989946, 113, 113, 144, 240
-0.990044, 41, 37, 104, 68
-0.990102, 1, 129, 32, 256
-0.990142, 97, 77, 160, 108
-0.990143, 57, 97, 120, 128
-0.990169, 137, 57, 200, 88
-0.990177, 129, 253, 192, 284
-0.990183, 113, 193, 176, 224
-0.990185, 201, 165, 264, 196
-0.990187, 65, 65, 320, 128
-0.990232, 317, 113, 348, 240
-0.990255, 1, 53, 64, 84
-0.990294, 281, 25, 312, 88
-0.990326, 113, 41, 176, 72
-0.990362, 237, 65, 268, 128
-0.990362, 49, 121, 80, 184
-0.990386, 105, 53, 168, 84
-0.990411, 33, 73, 64, 136
-0.990491, 273, 209, 336, 240
-0.990507, 249, 189, 312, 220
-0.990515, 233, 61, 296, 92
-0.990531, 33, 93, 96, 124
-0.990552, 225, 21, 288, 52
-0.990637, 209, 45, 272, 76
-0.990697, 33, 109, 96, 140
-0.9907, 97, 121, 224, 184
-0.990721, 13, 105, 44, 168
-0.990721, 305, 221, 368, 252
-0.990733, 289, 1, 352, 285
-0.99076, 321, 1, 380, 64
-0.99077, 305, 209, 368, 240
-0.990787, 125, 113, 156, 240
-0.990824, 89, 185, 152, 216
-0.990831, 161, 1, 192, 128
-0.990841, 189, 57, 220, 120
-0.990849, 265, 65, 296, 128
-0.99086, 137, 45, 200, 76
-0.990902, 329, 161, 360, 285
-0.990908, 33, 113, 64, 240
-0.990915, 57, 49, 120, 80
-0.990923, 233, 49, 296, 80
-0.990954, 1, 65, 64, 96
-0.990958, 153, 253, 216, 284
-0.990965, 209, 57, 272, 88
-0.991001, 289, 177, 352, 208
-0.991014, 177, 61, 240, 92
-0.991046, 129, 161, 380, 224
-0.991069, 305, 237, 368, 268
-0.991091, 1, 57, 380, 120
-0.991114, 241, 5, 304, 36
-0.991123, 113, 13, 176, 44
-0.991125, 301, 1, 332, 128
-0.991126, 129, 241, 192, 272
-0.99113, 281, 253, 344, 284
-0.991142, 169, 217, 232, 280
-0.991152, 233, 249, 296, 280
-0.991172, 129, 205, 192, 236
-0.991176, 281, 153, 344, 184
-0.99118, 57, 133, 120, 164
-0.991206, 97, 29, 160, 60
-0.991207, 233, 37, 296, 68
-0.991218, 65, 109, 128, 140
-0.991223, 89, 129, 152, 160
-0.991246, 241, 225, 304, 256
-0.991251, 289, 1, 320, 64
-0.991258, 209, 69, 272, 100
-0.991263, 257, 253, 320, 284
-0.991309, 233, 209, 296, 240
-0.991311, 137, 173, 200, 204
-0.991316, 257, 41, 320, 72
-0.991321, 257, 241, 320, 272
-0.991327, 97, 253, 160, 284
-0.991331, 185, 49, 248, 80
-0.991346, 57, 145, 120, 176
-0.991357, 209, 121, 336, 184
-0.991381, 121, 121, 184, 184
-0.991382, 257, 65, 320, 96
-0.9914, 241, 177, 304, 208
-0.991402, 313, 185, 376, 216
-0.991408, 273, 197, 336, 228
-0.991442, 349, 25, 380, 88
-0.991457, 73, 169, 136, 200
-0.991458, 65, 1, 128, 32
-0.991471, 201, 177, 264, 208
-0.991474, 97, 153, 160, 184
-0.991491, 289, 165, 352, 196
-0.991499, 233, 161, 296, 192
-0.991512, 201, 5, 264, 36
-0.991523, 121, 29, 184, 60
-0.991533, 1, 121, 32, 184
-0.991554, 337, 33, 368, 96
-0.991583, 289, 69, 352, 100
-0.991586, 257, 81, 320, 112
-0.991588, 49, 225, 112, 285
-0.991663, 81, 89, 144, 120
-0.991664, 9, 121, 72, 152
-0.991677, 9, 29, 72, 60
-0.991692, 201, 253, 264, 284
-0.991703, 73, 21, 136, 52
-0.991714, 33, 57, 160, 88
-0.991719, 33, 121, 64, 184
-0.991721, 25, 1, 88, 32
-0.991732, 145, 185, 208, 216
-0.991741, 177, 73, 240, 104
-0.991746, 97, 105, 128, 168
-0.991753, 289, 89, 320, 152
-0.991755, 129, 69, 192, 100
-0.99176, 265, 25, 328, 56
-0.991775, 209, 33, 272, 64
-0.991783, 265, 13, 328, 44
-0.99184, 273, 141, 336, 172
-0.99186, 77, 65, 108, 96
-0.991878, 161, 173, 224, 204
-0.991885, 65, 157, 128, 188
-0.991886, 149, 113, 180, 240
-0.99189, 105, 213, 168, 244
-0.991891, 145, 161, 208, 192
-0.991899, 173, 49, 204, 176
-0.991912, 293, 177, 324, 240
-0.991916, 269, 169, 300, 232
-0.991928, 161, 37, 224, 68
-0.991934, 265, 1, 328, 32
-0.991945, 109, 61, 140, 92
-0.991952, 225, 193, 288, 224
-0.991952, 137, 17, 200, 48
-0.991954, 25, 17, 88, 48
-0.991974, 185, 17, 248, 48
-0.991977, 233, 73, 296, 104
-0.991982, 89, 197, 152, 228
-0.992006, 93, 45, 124, 76
-0.992009, 185, 37, 248, 68
-0.992009, 105, 1, 168, 32
-0.992025, 1, 169, 128, 232
-0.99204, 89, 141, 152, 172
-0.992054, 289, 57, 352, 88
-0.992057, 45, 113, 76, 240
-0.992061, 161, 5, 224, 36
-0.992065, 273, 117, 336, 148
-0.992077, 305, 249, 368, 280
-0.992077, 65, 1, 320, 64
-0.992083, 329, 113, 360, 240
-0.992112, 129, 193, 380, 256
-0.992129, 297, 93, 360, 124
-0.992141, 77, 77, 108, 108
-0.992163, 329, 209, 360, 272
-0.992166, 73, 253, 136, 284
-0.992168, 57, 69, 88, 100
-0.992174, 321, 65, 352, 128
-0.992197, 161, 241, 224, 272
-0.992201, 89, 117, 152, 148
-0.992213, 97, 25, 352, 88
-0.992214, 105, 241, 168, 272
-0.992236, 33, 45, 160, 76
-0.992238, 1, 225, 128, 285
-0.99225, 129, 1, 192, 32
-0.992255, 65, 85, 96, 116
-0.992256, 257, 53, 320, 84
-0.992278, 305, 109, 368, 140
-0.992288, 321, 161, 380, 192
-0.992291, 121, 225, 184, 256
-0.992304, 33, 57, 64, 88
-0.992305, 89, 81, 120, 112
-0.992311, 97, 41, 112, 104
-0.992333, 313, 141, 376, 172
-0.992334, 89, 65, 120, 96
-0.992355, 201, 153, 264, 184
-0.992364, 173, 9, 204, 72
-0.992391, 121, 65, 152, 96
-0.992391, 281, 225, 312, 256
-0.992391, 161, 25, 224, 56
-0.9924, 233, 149, 296, 180
-0.992423, 9, 93, 72, 124
-0.992433, 65, 109, 96, 140
-0.992439, 289, 81, 352, 112
-0.99245, 321, 173, 380, 204
-0.992456, 101, 73, 132, 104
-0.992471, 153, 1, 184, 64
-0.992499, 133, 169, 164, 200
-0.992509, 17, 225, 80, 285
-0.992527, 77, 121, 108, 152
-0.992538, 17, 41, 48, 72
-0.992546, 317, 189, 348, 220
-0.992555, 105, 49, 136, 80
-0.992587, 145, 73, 272, 136
-0.992588, 177, 153, 208, 216
-0.992605, 245, 49, 276, 80
-0.992613, 217, 113, 248, 240
-0.992621, 57, 97, 88, 128
-0.992655, 45, 57, 76, 88
-0.992673, 69, 97, 100, 128
-0.992674, 157, 225, 188, 285
-0.992677, 33, 45, 64, 76
-0.992678, 37, 69, 68, 100
-0.992698, 269, 113, 300, 240
-0.992713, 301, 233, 332, 264
-0.992726, 101, 29, 132, 60
-0.992736, 121, 53, 152, 84
-0.992742, 21, 57, 52, 88
-0.992747, 197, 49, 228, 176
-0.992783, 81, 97, 112, 128
-0.992799, 125, 41, 156, 72
-0.992799, 81, 133, 112, 164
-0.992813, 241, 5, 272, 36
-0.992815, 269, 49, 300, 80
-0.992826, 5, 57, 36, 88
-0.992836, 25, 69, 56, 100
-0.992848, 5, 45, 36, 76
-0.99286, 269, 249, 300, 280
-0.992861, 113, 169, 144, 200
-0.992862, 1, 73, 128, 104
-0.99287, 113, 209, 144, 240
-0.992874, 289, 49, 320, 80
-0.992874, 63, 65, 78, 128
-0.992879, 137, 57, 168, 88
-0.992883, 233, 45, 264, 76
-0.992887, 133, 249, 164, 280
-0.992889, 97, 225, 352, 285
-0.992892, 73, 53, 104, 84
-0.992903, 41, 81, 72, 112
-0.992913, 45, 45, 76, 76
-0.992913, 33, 169, 288, 232
-0.992916, 233, 57, 264, 88
-0.992921, 285, 249, 316, 280
-0.992924, 1, 81, 380, 144
-0.992931, 117, 185, 148, 216
-0.992965, 257, 189, 288, 220
-0.992972, 87, 57, 102, 120
-0.992977, 53, 1, 84, 32
-0.992997, 161, 253, 192, 284
-0.992998, 129, 185, 160, 216
-0.993001, 121, 29, 152, 60
-0.993004, 189, 57, 220, 88
-0.993009, 85, 145, 116, 176
-0.993014, 249, 61, 280, 92
-0.993015, 245, 37, 276, 68
-0.993016, 269, 201, 300, 232
-0.993016, 73, 1, 104, 32
-0.993017, 57, 125, 88, 156
-0.993019, 45, 93, 76, 124
-0.993019, 301, 221, 332, 252
-0.993019, 265, 65, 296, 96
-0.993019, 281, 213, 312, 244
-0.99302, 313, 173, 344, 204
-0.993024, 121, 17, 152, 48
-0.993028, 217, 53, 248, 84
-0.993028, 109, 197, 140, 228
-0.993034, 1, 33, 380, 96
-0.993036, 225, 29, 256, 60
-0.993042, 101, 17, 132, 48
-0.993042, 257, 45, 288, 76
-0.993045, 53, 113, 84, 144
-0.993056, 61, 57, 92, 88
-0.993057, 153, 181, 184, 212
-0.993059, 113, 249, 144, 280
-0.99306, 129, 1, 160, 64
-0.993066, 33, 29, 64, 60
-0.993068, 49, 33, 80, 64
-0.993074, 285, 237, 316, 268
-0.993083, 133, 69, 164, 100
-0.993085, 257, 33, 288, 64
-0.99309, 9, 69, 40, 100
-0.993093, 225, 177, 256, 208
-0.993097, 273, 85, 304, 116
-0.9931, 301, 149, 332, 180
-0.993104, 157, 37, 188, 68
-0.993104, 77, 109, 108, 140
-0.993108, 1, 1, 32, 64
-0.993114, 201, 57, 232, 88
-0.993117, 89, 161, 120, 192
-0.993118, 25, 81, 56, 112
-0.99313, 309, 161, 340, 192
-0.993137, 229, 17, 260, 48
-0.993137, 101, 185, 132, 216
-0.993138, 221, 165, 252, 196
-0.993141, 93, 173, 124, 204
-0.993157, 237, 193, 268, 224
-0.993163, 53, 13, 84, 44
-0.993166, 73, 33, 104, 64
-0.993167, 185, 37, 216, 68
-0.993167, 145, 233, 176, 264
-0.993168, 1, 105, 380, 168
-0.993168, 209, 157, 240, 188
-0.993173, 261, 229, 292, 260
-0.993174, 21, 25, 52, 56
-0.993175, 245, 17, 276, 48
-0.993176, 265, 9, 296, 40
-0.993177, 205, 5, 236, 36
-0.99318, 285, 65, 316, 96
-0.993182, 293, 209, 324, 240
-0.993186, 197, 169, 228, 200
-0.993192, 113, 5, 144, 36
-0.993193, 229, 1, 260, 32
-0.993194, 125, 209, 156, 240
-0.993194, 1, 137, 380, 200
-0.993199, 181, 177, 212, 208
-0.993204, 125, 197, 156, 228
-0.993217, 49, 69, 176, 100
-0.993218, 209, 17, 240, 48
-0.993222, 249, 177, 280, 208
-0.993224, 161, 57, 192, 88
-0.993228, 285, 1, 316, 32
-0.993228, 281, 97, 312, 224
-0.99323, 349, 37, 380, 68
-0.993232, 13, 121, 44, 152
-0.993236, 309, 201, 340, 232
-0.99324, 245, 205, 276, 236
-0.993241, 133, 5, 164, 36
-0.993242, 325, 177, 356, 208
-0.993247, 205, 45, 236, 76
-0.993248, 221, 41, 252, 72
-0.993248, 137, 45, 168, 76
-0.993252, 193, 17, 224, 48
-0.993263, 269, 33, 300, 64
-0.993271, 53, 81, 84, 112
-0.993401, 77, 65, 92, 128
-0.993499, 137, 49, 168, 176
-0.993549, 129, 137, 380, 200
-0.993567, 129, 145, 160, 208
-0.993617, 185, 113, 216, 240
-0.99366, 103, 41, 118, 104
-0.993693, 97, 49, 224, 80
-0.993801, 1, 161, 380, 224
-0.993835, 329, 153, 360, 216
-0.993878, 117, 41, 132, 104
-0.993889, 1, 89, 256, 152
-0.993901, 83, 97, 98, 160
-0.993919, 71, 81, 86, 144
-0.99394, 313, 113, 344, 176
-0.993951, 149, 57, 180, 120
-0.994053, 217, 137, 248, 200
-0.994104, 137, 113, 168, 240
-0.994129, 349, 225, 380, 285
-0.994142, 111, 41, 126, 104
-0.994144, 1, 85, 128, 116
-0.994152, 257, 225, 380, 256
-0.994154, 89, 89, 104, 152
-0.994219, 31, 41, 46, 104
-0.994285, 301, 33, 332, 96
-0.994296, 37, 49, 52, 112
-0.994318, 241, 189, 368, 220
-0.994335, 69, 57, 84, 120
-0.994408, 137, 81, 200, 144
-0.99443, 1, 125, 128, 156
-0.994496, 193, 97, 320, 160
-0.994635, 97, 61, 224, 92
-0.994641, 333, 57, 364, 120
-0.994672, 1, 33, 128, 64
-0.994677, 233, 113, 264, 240
-0.994735, 81, 145, 112, 272
-0.994739, 323, 169, 338, 232
-0.994774, 243, 41, 258, 104
-0.99478, 165, 153, 196, 216
-0.994819, 177, 49, 304, 80
-0.994824, 61, 97, 76, 160
-0.994868, 317, 161, 332, 224
-0.994869, 93, 65, 108, 128
-0.99489, 229, 193, 260, 256
-0.994904, 97, 169, 224, 200
-0.994909, 321, 41, 352, 104
-0.994931, 49, 81, 176, 112
-0.99494, 29, 97, 60, 160
-0.995053, 257, 201, 380, 232
-0.995068, 317, 1, 348, 128
-0.995071, 93, 1, 124, 64
-0.995091, 101, 65, 116, 128
-0.995099, 257, 213, 380, 244
-0.995111, 289, 217, 304, 280
-0.995118, 145, 173, 272, 204
-0.995145, 125, 41, 140, 104
-0.995152, 77, 105, 92, 168
-0.99516, 1, 145, 256, 208
-0.995199, 225, 177, 352, 208
-0.995221, 245, 217, 276, 280
-0.995223, 305, 209, 320, 272
-0.995227, 273, 145, 304, 208
-0.995243, 57, 33, 72, 96
-0.995256, 45, 33, 60, 96
-0.995269, 85, 1, 116, 256
-0.99528, 241, 49, 368, 80
-0.995295, 1, 9, 380, 72
-0.995309, 279, 217, 294, 280
-0.99532, 209, 33, 224, 96
-0.995324, 25, 41, 40, 104
-0.995324, 15, 33, 30, 96
-0.99535, 241, 49, 272, 176
-0.995418, 97, 1, 128, 256
-0.995429, 161, 61, 288, 92
-0.995462, 109, 73, 124, 136
-0.995474, 55, 89, 70, 152
-0.995477, 169, 121, 232, 184
-0.995487, 225, 157, 352, 188
-0.995499, 257, 17, 272, 80
-0.99551, 67, 105, 82, 168
-0.99552, 285, 41, 300, 104
-0.995522, 1, 97, 128, 128
-0.995544, 97, 37, 224, 68
-0.995567, 237, 9, 252, 72
-0.995567, 161, 189, 288, 220
-0.995589, 185, 49, 216, 176
-0.995593, 33, 121, 288, 184
-0.99564, 257, 41, 272, 104
-0.99564, 277, 1, 308, 64
-0.995656, 189, 137, 220, 200
-0.995672, 33, 145, 96, 272
-0.995689, 145, 121, 272, 184
-0.995697, 123, 209, 138, 272
-0.995707, 49, 93, 176, 124
-0.995713, 249, 41, 264, 104
-0.995723, 93, 129, 108, 192
-0.99574, 49, 193, 112, 256
-0.995745, 53, 57, 68, 120
-0.995746, 215, 41, 230, 104
-0.99575, 257, 237, 380, 268
-0.995759, 39, 25, 54, 88
-0.995762, 177, 37, 304, 68
-0.995775, 253, 97, 284, 224
-0.995799, 69, 1, 100, 256
-0.995825, 109, 17, 124, 80
-0.99585, 91, 33, 106, 96
-0.995858, 1, 193, 64, 256
-0.995859, 221, 41, 236, 104
-0.995866, 65, 33, 80, 96
-0.995872, 231, 49, 246, 112
-0.995878, 279, 41, 294, 104
-0.995888, 97, 73, 224, 104
-0.9959, 161, 49, 192, 176
-0.995902, 113, 253, 240, 284
-0.995909, 51, 33, 66, 96
-0.99592, 209, 221, 336, 252
-0.995922, 85, 121, 100, 184
-0.995929, 145, 161, 272, 192
-0.99593, 115, 73, 130, 136
-0.99594, 287, 65, 302, 128
-0.995943, 1, 49, 16, 112
-0.995944, 145, 169, 160, 232
-0.995953, 311, 201, 326, 264
-0.995979, 97, 181, 224, 212
-0.995981, 1, 185, 380, 248
-0.995996, 329, 177, 344, 240
-0.996005, 107, 169, 122, 232
-0.996015, 263, 41, 278, 104
-0.996018, 97, 89, 352, 152
-0.99603, 119, 1, 134, 64
-0.99604, 113, 81, 176, 144
-0.996082, 257, 65, 380, 96
-0.996118, 65, 253, 192, 284
-0.996119, 71, 25, 86, 88
-0.996143, 33, 161, 160, 192
-0.996144, 177, 25, 304, 56
-0.996157, 1, 113, 128, 144
-0.99618, 67, 1, 82, 64
-0.996183, 9, 57, 24, 120
-0.996186, 81, 41, 96, 104
-0.996213, 95, 89, 110, 152
-0.996217, 249, 193, 264, 256
-0.99622, 97, 17, 112, 80
-0.996224, 349, 161, 380, 285
-0.996231, 237, 41, 252, 104
-0.996235, 101, 145, 116, 208
-0.996242, 241, 177, 256, 240
-0.996242, 295, 65, 310, 128
-0.99625, 29, 65, 44, 128
-0.996275, 41, 169, 104, 232
-0.996281, 125, 9, 140, 72
-0.996285, 253, 1, 284, 256
-0.996289, 97, 157, 224, 188
-0.996297, 103, 17, 118, 80
-0.996299, 151, 177, 166, 240
-0.996322, 49, 121, 176, 152
-0.99633, 113, 185, 128, 248
-0.996331, 229, 25, 244, 88
-0.996338, 235, 161, 250, 224
-0.996339, 317, 193, 332, 256
-0.99634, 177, 193, 240, 256
-0.99636, 81, 137, 208, 168
-0.996371, 157, 185, 172, 248
-0.996376, 25, 17, 40, 80
-0.996395, 209, 61, 336, 92
-0.996416, 51, 1, 66, 64
-0.996428, 129, 225, 144, 285
-0.996438, 29, 1, 60, 256
-0.996445, 243, 1, 258, 64
-0.996445, 129, 113, 380, 176
-0.996447, 203, 49, 218, 112
-0.996455, 33, 17, 48, 80
-0.996468, 129, 185, 144, 248
-0.996469, 285, 193, 300, 256
-0.996477, 271, 41, 286, 104
-0.996487, 133, 1, 148, 64
-0.99649, 49, 33, 176, 64
-0.996491, 177, 73, 304, 104
-0.996493, 17, 9, 144, 40
-0.996505, 209, 205, 336, 236
-0.996516, 53, 1, 84, 256
-0.996529, 297, 225, 312, 285
-0.99655, 131, 33, 146, 96
-0.996561, 241, 33, 368, 64
-0.996568, 275, 193, 290, 256
-0.996584, 177, 13, 304, 44
-0.996616, 297, 41, 312, 104
-0.99662, 13, 1, 44, 256
-0.996642, 207, 161, 222, 224
-0.996657, 121, 65, 136, 128
-0.996669, 275, 1, 290, 64
-0.996686, 113, 1, 144, 256
-0.996687, 1, 137, 128, 168
-0.996704, 309, 121, 324, 184
-0.996709, 119, 57, 134, 88
-0.996712, 23, 65, 38, 128
-0.996714, 153, 225, 168, 285
-0.996735, 33, 21, 160, 52
-0.996783, 139, 169, 154, 232
-0.996783, 137, 25, 152, 88
-0.996795, 249, 1, 264, 64
-0.996808, 289, 17, 304, 80
-0.996808, 41, 1, 72, 256
-0.996832, 97, 21, 224, 52
-0.996834, 199, 169, 214, 232
-0.996835, 97, 213, 224, 244
-0.996843, 43, 57, 58, 120
-0.996857, 269, 193, 284, 256
-0.996868, 123, 177, 138, 240
-0.996869, 33, 193, 288, 256
-0.996876, 143, 1, 158, 64
-0.996881, 105, 65, 120, 96
-0.996891, 209, 57, 224, 120
-0.996898, 257, 153, 320, 216
-0.996915, 15, 89, 30, 152
-0.996936, 31, 89, 46, 152
-0.996945, 113, 9, 240, 40
-0.996957, 9, 33, 24, 96
-0.996958, 273, 225, 288, 285
-0.996974, 241, 1, 368, 32
-0.996974, 49, 173, 176, 204
-0.996981, 197, 33, 212, 96
-0.996992, 183, 177, 198, 240
-0.996993, 85, 65, 100, 96
-0.996997, 177, 1, 304, 32
-0.996998, 225, 249, 352, 280
-0.997004, 3, 97, 18, 160
-0.997006, 97, 193, 224, 224
-0.997008, 65, 241, 192, 272
-0.997014, 203, 9, 218, 72
-0.997016, 1, 225, 256, 285
-0.997025, 35, 57, 50, 88
-0.997038, 113, 61, 128, 92
-0.997054, 291, 41, 306, 104
-0.997098, 1, 1, 32, 256
-0.9971, 125, 61, 140, 92
-0.997111, 97, 45, 112, 76
-0.997112, 213, 9, 228, 72
-0.997114, 161, 249, 288, 280
-0.997114, 229, 161, 244, 224
-0.997114, 321, 33, 352, 285
-0.997149, 301, 73, 316, 136
-0.997151, 95, 81, 110, 112
-0.997169, 323, 193, 338, 256
-0.997173, 61, 1, 76, 64
-0.99718, 113, 49, 128, 80
-0.997191, 341, 1, 372, 256
-0.997191, 73, 1, 88, 64
-0.997195, 181, 41, 196, 104
-0.997201, 241, 1, 272, 256
-0.997205, 79, 69, 94, 100
-0.997207, 309, 65, 324, 128
-0.997209, 161, 201, 288, 232
-0.997232, 1, 25, 16, 88
-0.997235, 57, 121, 72, 184
-0.997235, 79, 129, 94, 192
-0.997237, 49, 109, 176, 140
-0.997241, 67, 65, 82, 96
-0.997244, 257, 209, 272, 272
-0.997272, 55, 61, 70, 92
-0.997285, 73, 89, 88, 120
-0.997304, 81, 105, 96, 136
-0.997333, 209, 233, 336, 264
-0.997382, 71, 109, 86, 140
-0.997387, 131, 65, 146, 96
-0.997389, 99, 69, 114, 100
-0.997389, 209, 85, 336, 116
-0.9974, 297, 33, 328, 285
-0.997403, 79, 81, 94, 112
-0.997408, 45, 49, 60, 80
-0.997413, 27, 45, 42, 76
-0.997416, 91, 65, 106, 96
-0.997419, 153, 33, 184, 285
-0.997436, 241, 21, 368, 52
-0.997449, 309, 33, 340, 285
-0.997452, 341, 113, 372, 240
-0.997483, 63, 77, 78, 108
-0.997486, 105, 49, 120, 80
-0.997499, 49, 225, 176, 256
-0.997511, 65, 1, 192, 32
-0.997525, 257, 113, 380, 144
-0.997526, 225, 145, 352, 176
-0.99754, 265, 1, 296, 256
-0.997551, 89, 89, 104, 120
-0.997558, 67, 93, 82, 124
-0.997566, 245, 45, 260, 76
-0.997578, 81, 121, 96, 152
-0.997592, 61, 97, 76, 128
-0.997625, 105, 77, 120, 108
-0.997631, 89, 77, 104, 108
-0.997667, 247, 1, 262, 32
-0.997675, 221, 1, 252, 256
-0.997676, 65, 109, 80, 140
-0.997678, 209, 1, 240, 256
-0.997679, 173, 113, 204, 240
-0.997681, 137, 65, 152, 96
-0.997698, 1, 149, 128, 180
-0.997702, 61, 65, 76, 96
-0.997706, 17, 37, 32, 68
-0.997709, 39, 45, 54, 76
-0.997709, 49, 149, 176, 180
-0.997718, 33, 41, 48, 72
-0.997728, 17, 249, 144, 280
-0.99773, 169, 1, 200, 256
-0.997745, 181, 1, 212, 256
-0.997752, 87, 53, 102, 84
-0.997767, 327, 177, 342, 208
-0.997772, 113, 241, 240, 272
-0.997784, 29, 57, 44, 88
-0.997786, 17, 197, 144, 228
-0.997795, 281, 253, 296, 284
-0.997802, 41, 61, 56, 92
-0.997803, 33, 69, 48, 100
-0.997835, 285, 1, 316, 256
-0.997872, 133, 1, 164, 256
-0.997893, 283, 49, 298, 80
-0.9979, 111, 73, 126, 104
-0.997904, 5, 53, 20, 84
-0.997926, 73, 65, 88, 96
-0.997926, 119, 69, 134, 100
-0.997938, 109, 177, 124, 208
-0.997945, 299, 245, 314, 276
-0.997951, 295, 225, 310, 256
-0.99797, 133, 53, 148, 84
-0.997987, 123, 209, 138, 240
-0.998, 17, 145, 80, 208
-0.998002, 95, 133, 110, 164
-0.998007, 323, 189, 338, 220
-0.998019, 115, 37, 130, 68
-0.99802, 231, 53, 246, 84
-0.998031, 241, 181, 256, 212
-0.998031, 257, 129, 380, 160
-0.998043, 103, 29, 118, 60
-0.998048, 147, 169, 162, 200
-0.998051, 279, 241, 294, 272
-0.998054, 289, 241, 304, 272
-0.998064, 293, 253, 308, 284
-0.998069, 1, 209, 380, 272
-0.998072, 303, 233, 318, 264
-0.998072, 17, 213, 144, 244
-0.998074, 27, 69, 42, 100
-0.998075, 209, 121, 336, 152
-0.998075, 291, 53, 306, 84
-0.998094, 49, 61, 64, 92
-0.998099, 103, 165, 118, 196
-0.998101, 9, 37, 24, 68
-0.998103, 283, 225, 298, 256
-0.998107, 235, 165, 250, 196
-0.998107, 143, 57, 158, 88
-0.998112, 235, 41, 250, 72
-0.998118, 129, 97, 256, 160
-0.998118, 55, 89, 70, 120
-0.998123, 87, 101, 102, 132
-0.99813, 81, 93, 96, 124
-0.998132, 73, 77, 88, 108
-0.998143, 287, 69, 302, 100
-0.998149, 257, 17, 272, 48
-0.998161, 125, 49, 140, 80
-0.998163, 125, 193, 140, 224
-0.998171, 97, 225, 224, 256
-0.998179, 279, 209, 294, 240
-0.99818, 71, 1, 86, 32
-0.998181, 317, 157, 332, 188
-0.998195, 355, 33, 370, 64
-0.998199, 41, 33, 56, 64
-0.998201, 125, 253, 140, 284
-0.998204, 269, 65, 284, 96
-0.998209, 253, 33, 268, 64
-0.998213, 167, 253, 182, 284
-0.998214, 79, 57, 94, 88
-0.998218, 255, 45, 270, 76
-0.99822, 317, 193, 332, 224
-0.998223, 109, 33, 124, 64
-0.998226, 161, 225, 288, 256
-0.99823, 73, 53, 88, 84
-0.998239, 113, 189, 128, 220
-0.998243, 239, 57, 254, 88
-0.998248, 161, 253, 176, 284
-0.998251, 273, 249, 288, 280
-0.998255, 125, 73, 140, 104
-0.998263, 281, 65, 296, 96
-0.99827, 51, 45, 66, 76
-0.99827, 275, 65, 290, 96
-0.998272, 17, 49, 32, 80
-0.998285, 287, 85, 302, 116
-0.998288, 255, 57, 270, 88
-0.998288, 201, 57, 216, 88
-0.998288, 119, 253, 134, 284
-0.99829, 305, 217, 320, 248
-0.998293, 155, 181, 170, 212
-0.998301, 71, 121, 86, 152
-0.998305, 207, 57, 222, 88
-0.998305, 117, 201, 132, 232
-0.998306, 57, 77, 72, 108
-0.998306, 195, 253, 210, 284
-0.99831, 257, 85, 380, 116
-0.99831, 49, 73, 64, 104
-0.998314, 23, 57, 38, 88
-0.998322, 197, 33, 228, 285
-0.998331, 249, 197, 264, 228
-0.998332, 181, 253, 196, 284
-0.998334, 311, 201, 326, 232
-0.998339, 17, 185, 144, 216
-0.998339, 137, 253, 152, 284
-0.99834, 299, 49, 314, 80
-0.998341, 55, 33, 70, 64
-0.998347, 121, 37, 136, 68
-0.998348, 97, 33, 112, 64
-0.99835, 87, 49, 102, 176
-0.998351, 181, 49, 196, 80
-0.998354, 225, 53, 240, 84
-0.998354, 29, 81, 44, 112
-0.998354, 323, 57, 338, 88
-0.998355, 209, 109, 336, 140
-0.998355, 81, 49, 96, 176
-0.998356, 333, 181, 348, 212
-0.998358, 161, 113, 192, 240
-0.998361, 101, 31, 132, 46
-0.998361, 233, 55, 264, 70
-0.998361, 85, 155, 116, 170
-0.998362, 129, 195, 160, 210
-0.998362, 237, 265, 268, 280
-0.998363, 9, 73, 40, 88
-0.998364, 185, 71, 216, 86
-0.998365, 229, 189, 260, 204
-0.998365, 133, 17, 164, 32
-0.998366, 133, 263, 164, 278
-0.998366, 177, 53, 208, 68
-0.998367, 45, 57, 76, 72
-0.998367, 49, 37, 80, 52
-0.998367, 125, 217, 156, 232
-0.998368, 93, 179, 124, 194
-0.998368, 281, 269, 312, 284
-0.998369, 297, 153, 328, 168
-0.99837, 157, 43, 188, 58
-0.998371, 269, 57, 300, 72
-0.998371, 57, 77, 120, 92
-0.998372, 37, 87, 68, 102
-0.998372, 285, 217, 316, 232
-0.998372, 49, 85, 112, 100
-0.998373, 109, 13, 140, 28
-0.998374, 273, 87, 304, 102
-0.998374, 289, 211, 320, 226
-0.998374, 121, 53, 152, 68
-0.998376, 125, 211, 156, 226
-0.998376, 285, 247, 316, 262
-0.998377, 133, 203, 164, 218
-0.998377, 265, 23, 296, 38
-0.998378, 97, 187, 128, 202
-0.998378, 141, 63, 172, 78
-0.998381, 33, 43, 64, 58
-0.998381, 63, 49, 78, 176
-0.998383, 81, 45, 112, 60
-0.998383, 5, 57, 36, 72
-0.998384, 81, 51, 144, 66
-0.998384, 25, 75, 56, 90
-0.998384, 245, 55, 276, 70
-0.998385, 229, 69, 260, 84
-0.998385, 121, 31, 152, 46
-0.998386, 261, 205, 292, 220
-0.998386, 81, 65, 144, 80
-0.998387, 253, 45, 284, 60
-0.998387, 225, 259, 256, 274
-0.998388, 101, 193, 132, 208
-0.998391, 117, 265, 148, 280
-0.998391, 121, 201, 152, 216
-0.998394, 301, 229, 332, 244
-0.998394, 289, 53, 320, 68
-0.998394, 229, 47, 260, 62
-0.998395, 253, 29, 284, 44
-0.998396, 61, 63, 92, 78
-0.998399, 61, 1, 92, 16
-0.9984, 109, 171, 140, 186
-0.998403, 121, 25, 152, 40
-0.998406, 29, 69, 60, 84
-0.998407, 109, 19, 140, 34
-0.998407, 113, 255, 144, 270
-0.998408, 249, 263, 280, 278
-0.998408, 109, 201, 140, 216
-0.998409, 85, 149, 116, 164
-0.99841, 241, 61, 272, 76
-0.998414, 129, 189, 160, 204
-0.998415, 53, 103, 84, 118
-0.998415, 269, 51, 300, 66
-0.998416, 17, 63, 48, 78
-0.99842, 111, 1, 126, 128
-0.99842, 281, 223, 312, 238
-0.99842, 77, 121, 108, 136
-0.99842, 61, 127, 92, 142
-0.998422, 41, 71, 72, 86
-0.998422, 9, 51, 40, 66
-0.998423, 81, 139, 112, 154
-0.998424, 117, 195, 148, 210
-0.998425, 41, 51, 72, 66
-0.998426, 105, 41, 136, 56
-0.998427, 133, 257, 164, 272
-0.998427, 113, 211, 144, 226
-0.998429, 85, 97, 116, 112
-0.998432, 49, 95, 112, 110
-0.998433, 157, 257, 188, 272
-0.998433, 269, 259, 300, 274
-0.998435, 281, 241, 312, 256
-0.998436, 73, 57, 104, 72
-0.998436, 81, 57, 144, 72
-0.998436, 281, 263, 312, 278
-0.998437, 97, 33, 112, 160
-0.99844, 45, 97, 76, 112
-0.998441, 137, 69, 168, 84
-0.998441, 113, 181, 176, 196
-0.998443, 301, 241, 332, 256
-0.998448, 105, 175, 168, 190
-0.99845, 77, 105, 108, 120
-0.998452, 65, 119, 96, 134
-0.998455, 65, 71, 128, 86
-0.998455, 65, 103, 96, 118
-0.998457, 197, 97, 228, 224
-0.998458, 117, 189, 148, 204
-0.998459, 69, 49, 84, 176
-0.998461, 61, 109, 92, 124
-0.998461, 133, 179, 164, 194
-0.998462, 77, 133, 108, 148
-0.998463, 113, 183, 144, 198
-0.998464, 105, 53, 136, 68
-0.998466, 93, 53, 124, 68
-0.998467, 105, 73, 168, 88
-0.998468, 97, 125, 224, 156
-0.998468, 301, 235, 332, 250
-0.998471, 89, 91, 120, 106
-0.998471, 113, 177, 144, 192
-0.998472, 21, 47, 52, 62
-0.998473, 41, 81, 72, 96
-0.998473, 209, 97, 336, 128
-0.998474, 29, 63, 60, 78
-0.998475, 273, 231, 336, 246
-0.998476, 241, 49, 272, 64
-0.998477, 121, 59, 152, 74
-0.998479, 25, 85, 88, 100
-0.998481, 265, 265, 296, 280
-0.998482, 17, 79, 80, 94
-0.998482, 9, 39, 40, 54
-0.998483, 41, 51, 104, 66
-0.998484, 49, 127, 112, 142
-0.998488, 321, 193, 352, 208
-0.998489, 117, 75, 148, 90
-0.99849, 45, 63, 76, 78
-0.998491, 105, 67, 168, 82
-0.998495, 89, 63, 120, 78
-0.998496, 17, 57, 48, 72
-0.998499, 281, 235, 312, 250
-0.998501, 1, 49, 64, 64
-0.998501, 113, 187, 176, 202
-0.998503, 105, 169, 168, 184
-0.998504, 89, 83, 120, 98
-0.99851, 133, 173, 164, 188
-0.99851, 177, 149, 304, 180
-0.998513, 97, 69, 128, 84
-0.998516, 113, 57, 176, 72
-0.998517, 281, 229, 312, 244
-0.998519, 103, 17, 118, 144
-0.998519, 281, 241, 344, 256
-0.99852, 105, 61, 136, 76
-0.998521, 49, 59, 112, 74
-0.998524, 273, 225, 336, 240
-0.998529, 73, 87, 104, 102
-0.998529, 9, 57, 72, 72
-0.99853, 257, 101, 380, 132
-0.99853, 101, 79, 132, 94
-0.998532, 25, 65, 88, 80
-0.998533, 161, 237, 288, 268
-0.99854, 113, 47, 176, 62
-0.99854, 121, 261, 184, 276
-0.99854, 75, 49, 90, 176
-0.998541, 281, 247, 344, 262
-0.998542, 33, 73, 96, 88
-0.998543, 77, 75, 108, 90
-0.998543, 77, 127, 108, 142
-0.998544, 57, 103, 120, 118
-0.998547, 121, 255, 184, 270
-0.998548, 305, 199, 368, 214
-0.998548, 249, 201, 312, 216
-0.998549, 61, 75, 92, 90
-0.998553, 113, 193, 176, 208
-0.998553, 249, 193, 312, 208
-0.998558, 1, 43, 64, 58
-0.998558, 137, 63, 200, 78
-0.998558, 249, 261, 312, 276
-0.998558, 129, 175, 192, 190
-0.998559, 225, 31, 288, 46
-0.998559, 305, 207, 368, 222
-0.998561, 57, 89, 88, 104
-0.998561, 89, 189, 152, 204
-0.998562, 113, 199, 176, 214
-0.998562, 273, 201, 336, 216
-0.998562, 77, 67, 108, 82
-0.998563, 89, 183, 152, 198
-0.998564, 25, 101, 88, 116
-0.998565, 305, 235, 368, 250
-0.998567, 57, 65, 120, 80
-0.998568, 201, 173, 264, 188
-0.998568, 89, 45, 152, 60
-0.998569, 17, 91, 80, 106
-0.998572, 117, 1, 132, 128
-0.998573, 113, 205, 176, 220
-0.998575, 129, 71, 192, 86
-0.998575, 273, 263, 336, 278
-0.998575, 89, 75, 120, 90
-0.998576, 209, 73, 272, 88
-0.998577, 265, 211, 328, 226
-0.998579, 241, 5, 304, 20
-0.998579, 233, 65, 296, 80
-0.998579, 97, 79, 160, 94
-0.99858, 49, 121, 112, 136
-0.998581, 145, 213, 272, 244
-0.998587, 273, 191, 336, 206
-0.998587, 41, 45, 104, 60
-0.998589, 65, 97, 96, 112
-0.998589, 305, 241, 368, 256
-0.99859, 257, 243, 320, 258
-0.99859, 201, 167, 264, 182
-0.998592, 125, 69, 156, 84
-0.998594, 201, 57, 264, 72
-0.998595, 73, 91, 136, 106
-0.998595, 73, 85, 136, 100
-0.998596, 201, 261, 264, 276
-0.998596, 305, 229, 368, 244
-0.998597, 241, 187, 304, 202
-0.998597, 89, 259, 152, 274
-0.998598, 305, 213, 368, 228
-0.998598, 153, 259, 216, 274
-0.9986, 225, 25, 288, 40
-0.9986, 75, 1, 90, 128
-0.9986, 233, 59, 296, 74
-0.998605, 225, 263, 288, 278
-0.998605, 33, 57, 64, 72
-0.998605, 233, 49, 296, 64
-0.998605, 1, 69, 64, 84
-0.998605, 89, 195, 152, 210
-0.998605, 109, 67, 140, 82
-0.998607, 297, 253, 360, 268
-0.998607, 241, 181, 304, 196
-0.998607, 201, 5, 264, 20
-0.998608, 89, 265, 152, 280
-0.998608, 313, 193, 376, 208
-0.998609, 273, 151, 336, 166
-0.99861, 201, 179, 264, 194
-0.998611, 305, 223, 368, 238
-0.998611, 105, 163, 168, 178
-0.998611, 57, 83, 88, 98
-0.998611, 281, 159, 344, 174
-0.998611, 61, 69, 92, 84
-0.998611, 193, 51, 256, 66
-0.998614, 41, 109, 104, 124
-0.998614, 233, 175, 296, 190
-0.998615, 121, 37, 184, 52
-0.998615, 57, 145, 120, 160
-0.998616, 49, 133, 112, 148
-0.998616, 241, 233, 304, 248
-0.998617, 93, 47, 124, 62
-0.998618, 265, 219, 328, 234
-0.998619, 77, 81, 108, 96
-0.99862, 265, 25, 328, 40
-0.998622, 153, 175, 216, 190
-0.998624, 225, 37, 288, 52
-0.998625, 113, 15, 176, 30
-0.998626, 105, 25, 168, 40
-0.998626, 153, 69, 216, 84
-0.998626, 113, 211, 176, 226
-0.998628, 257, 255, 320, 270
-0.998628, 289, 177, 352, 192
-0.998629, 193, 65, 256, 80
-0.998629, 81, 99, 144, 114
-0.998632, 89, 137, 152, 152
-0.998632, 297, 259, 360, 274
-0.998633, 137, 49, 200, 64
-0.998634, 129, 249, 192, 264
-0.998636, 9, 127, 72, 142
-0.998636, 249, 83, 312, 98
-0.998636, 249, 267, 312, 282
-0.998636, 89, 129, 152, 144
-0.998637, 233, 169, 296, 184
-0.998637, 217, 11, 280, 26
-0.998638, 305, 247, 368, 262
-0.998638, 65, 165, 128, 180
-0.998639, 25, 117, 88, 132
-0.998639, 209, 45, 272, 60
-0.99864, 137, 181, 200, 196
-0.99864, 273, 145, 336, 160
-0.998642, 73, 27, 136, 42
-0.998642, 89, 143, 152, 158
-0.998643, 201, 33, 264, 48
-0.998644, 89, 253, 152, 268
-0.998644, 121, 31, 184, 46
-0.998676, 69, 1, 84, 128
-0.998715, 177, 133, 304, 164
-0.998737, 93, 81, 108, 208
-0.998794, 315, 145, 330, 272
-0.998798, 129, 137, 256, 168
-0.998817, 127, 33, 142, 160
-0.99882, 81, 1, 96, 128
-0.998833, 223, 1, 238, 128
-0.998851, 87, 1, 102, 128
-0.998872, 257, 1, 272, 128
-0.99888, 235, 1, 250, 128
-0.998888, 31, 65, 46, 192
-0.998901, 63, 1, 78, 128
-0.998915, 55, 81, 70, 208
-0.998929, 103, 65, 118, 192
-0.998953, 321, 161, 336, 285
-0.998954, 209, 1, 224, 128
-0.998972, 1, 233, 128, 264
-0.999001, 87, 97, 102, 224
-0.999011, 23, 33, 38, 160
-0.999019, 291, 49, 306, 176
-0.999032, 277, 1, 292, 128
-0.999041, 133, 33, 148, 160
-0.999047, 149, 161, 164, 285
-0.999048, 283, 33, 298, 160
-0.999055, 241, 1, 256, 128
-0.999057, 111, 65, 126, 192
-0.999061, 1, 173, 128, 204
-0.999071, 263, 1, 278, 128
-0.999082, 63, 97, 78, 224
-0.999088, 133, 161, 148, 285
-0.999104, 143, 1, 158, 128
-0.999106, 37, 65, 52, 192
-0.999122, 81, 97, 96, 224
-0.999126, 199, 1, 214, 128
-0.999128, 229, 1, 244, 128
-0.999142, 97, 85, 224, 116
-0.999144, 139, 161, 154, 285
-0.99915, 105, 161, 120, 285
-0.999155, 53, 33, 68, 160
-0.99916, 117, 49, 132, 176
-0.99916, 289, 1, 304, 128
-0.999165, 269, 1, 284, 128
-0.99917, 235, 161, 250, 285
-0.999171, 99, 145, 114, 272
-0.999179, 19, 81, 34, 208
-0.999185, 215, 1, 230, 128
-0.999188, 1, 49, 16, 176
-0.999189, 297, 33, 312, 160
-0.999194, 327, 161, 342, 285
-0.999197, 37, 1, 52, 128
-0.999206, 251, 1, 266, 128
-0.999209, 279, 161, 294, 285
-0.999217, 69, 97, 84, 224
-0.999221, 111, 161, 126, 285
-0.999234, 309, 113, 324, 240
-0.999235, 203, 161, 218, 285
-0.999243, 47, 33, 62, 160
-0.999244, 7, 81, 22, 208
-0.999251, 303, 49, 318, 176
-0.999264, 93, 129, 108, 256
-0.999272, 209, 145, 224, 272
-0.999273, 197, 161, 212, 285
-0.999273, 13, 81, 28, 208
-0.999277, 289, 161, 304, 285
-0.999282, 25, 81, 40, 208
-0.999295, 285, 81, 300, 208
-0.999307, 217, 65, 232, 192
-0.999307, 31, 113, 46, 240
-0.999314, 9, 1, 24, 128
-0.99932, 269, 145, 284, 272
-0.999324, 309, 49, 324, 176
-0.999336, 155, 161, 170, 285
-0.999345, 349, 33, 364, 160
-0.999347, 359, 17, 374, 144
-0.999351, 75, 97, 90, 224
-0.999351, 135, 81, 150, 208
-0.999352, 317, 65, 332, 192
-0.999357, 241, 161, 256, 285
-0.999361, 321, 113, 336, 240
-0.999361, 229, 145, 244, 272
-0.999363, 161, 161, 176, 285
-0.999366, 185, 1, 200, 128
-0.999369, 1, 1, 16, 128
-0.999374, 343, 33, 358, 160
-0.999377, 179, 1, 194, 128
-0.999379, 215, 145, 230, 272
-0.99938, 179, 161, 194, 285
-0.999383, 193, 1, 208, 128
-0.999384, 223, 65, 238, 192
-0.999387, 323, 49, 338, 176
-0.999389, 127, 161, 142, 285
-0.999399, 149, 1, 164, 128
-0.999408, 1, 129, 16, 256
-0.999411, 119, 161, 134, 285
-0.999418, 185, 161, 200, 285
-0.999421, 273, 49, 288, 176
-0.999422, 31, 1, 46, 128
-0.999427, 43, 81, 58, 208
-0.999427, 249, 161, 264, 285
-0.999433, 191, 161, 206, 285
-0.999446, 211, 65, 226, 192
-0.999451, 335, 33, 350, 160
-0.999455, 329, 113, 344, 240
-0.999455, 173, 161, 188, 285
-0.999457, 145, 113, 160, 240
-0.999466, 17, 129, 32, 256
-0.999467, 37, 113, 52, 240
-0.999472, 23, 129, 38, 256
-0.999476, 329, 1, 344, 128
-0.999482, 221, 145, 236, 272
-0.999485, 231, 49, 246, 176
-0.99949, 17, 33, 32, 160
-0.999491, 257, 161, 272, 285
-0.999492, 267, 65, 282, 192
-0.999492, 309, 161, 324, 285
-0.999493, 11, 129, 26, 256
-0.999499, 263, 161, 278, 285
-0.999499, 365, 17, 380, 144
-0.99951, 107, 113, 122, 240
-0.999513, 293, 97, 308, 224
-0.999518, 205, 65, 220, 192
-0.999523, 167, 161, 182, 285
-0.999525, 279, 113, 294, 240
-0.999533, 303, 161, 318, 285
-0.999568, 121, 215, 136, 230
-0.999568, 75, 93, 90, 108
-0.999568, 149, 179, 164, 194
-0.999568, 25, 39, 40, 54
-0.999569, 291, 263, 306, 278
-0.999569, 5, 55, 20, 70
-0.999569, 99, 261, 114, 276
-0.999569, 235, 55, 250, 70
-0.99957, 329, 187, 344, 202
-0.99957, 111, 45, 126, 60
-0.99957, 299, 251, 314, 266
-0.99957, 93, 59, 108, 74
-0.99957, 289, 55, 304, 70
-0.999571, 195, 259, 210, 274
-0.999571, 117, 207, 132, 222
-0.999571, 291, 249, 306, 264
-0.999573, 51, 75, 66, 90
-0.999574, 181, 53, 196, 68
-0.999575, 109, 183, 124, 198
-0.999575, 111, 259, 126, 274
-0.999576, 29, 69, 44, 84
-0.999576, 87, 125, 102, 140
-0.999577, 239, 183, 254, 198
-0.999577, 9, 47, 24, 62
-0.999578, 259, 263, 274, 278
-0.999579, 243, 191, 258, 206
-0.99958, 71, 125, 86, 140
-0.999582, 247, 5, 262, 20
-0.999582, 295, 239, 310, 254
-0.999582, 113, 199, 128, 214
-0.999583, 61, 75, 76, 90
-0.999583, 105, 175, 120, 190
-0.999583, 145, 169, 160, 184
-0.999585, 89, 75, 104, 90
-0.999585, 73, 81, 88, 96
-0.999586, 93, 135, 108, 150
-0.999586, 101, 69, 116, 84
-0.999587, 125, 203, 140, 218
-0.999587, 17, 51, 32, 66
-0.99959, 201, 261, 216, 276
-0.99959, 75, 1, 90, 16
-0.99959, 305, 235, 320, 250
-0.999592, 83, 93, 98, 108
-0.999593, 73, 119, 88, 134
-0.999593, 127, 211, 142, 226
-0.999593, 287, 87, 302, 102
-0.999594, 57, 69, 72, 84
-0.999594, 181, 259, 196, 274
-0.999594, 81, 117, 96, 132
-0.999595, 33, 77, 48, 92
-0.999595, 167, 257, 182, 272
-0.999595, 137, 63, 152, 78
-0.999596, 283, 49, 298, 64
-0.999597, 85, 103, 100, 118
-0.999597, 299, 245, 314, 260
-0.999598, 323, 191, 338, 206
-0.999599, 91, 65, 106, 80
-0.9996, 13, 35, 28, 50
-0.9996, 123, 197, 138, 212
-0.999601, 291, 257, 306, 272
-0.999602, 143, 69, 158, 84
-0.999602, 107, 51, 122, 66
-0.999603, 245, 53, 260, 68
-0.999604, 125, 259, 140, 274
-0.999605, 69, 93, 84, 108
-0.999607, 295, 231, 310, 246
-0.999609, 109, 77, 124, 92
-0.99961, 95, 73, 110, 88
-0.999612, 275, 269, 290, 284
-0.999612, 73, 63, 88, 78
-0.999613, 243, 263, 258, 278
-0.999615, 117, 259, 132, 274
-0.999615, 113, 61, 128, 76
-0.999615, 31, 51, 46, 66
-0.999616, 265, 263, 280, 278
-0.999617, 235, 49, 250, 64
-0.99962, 89, 97, 104, 112
-0.999621, 49, 59, 64, 74
-0.999621, 27, 45, 42, 60
-0.999622, 283, 267, 298, 282
-0.999624, 121, 75, 136, 90
-0.999627, 61, 81, 76, 96
-0.99963, 225, 261, 240, 276
-0.999631, 65, 109, 80, 124
-0.999634, 79, 107, 94, 122
-0.999635, 251, 265, 266, 280
-0.999635, 271, 263, 286, 278
-0.999636, 71, 87, 86, 102
-0.999636, 25, 61, 40, 76
-0.999638, 85, 59, 100, 74
-0.999638, 117, 67, 132, 82
-0.999639, 39, 63, 54, 78
-0.99964, 161, 259, 176, 274
-0.999641, 129, 73, 144, 88
-0.999643, 281, 261, 296, 276
-0.999643, 245, 47, 260, 62
-0.999644, 115, 77, 130, 92
-0.999644, 17, 41, 32, 56
-0.999648, 231, 261, 246, 276
-0.999649, 79, 67, 94, 82
-0.99965, 81, 87, 96, 102
-0.999651, 73, 69, 88, 84
-0.999652, 25, 51, 40, 66
-0.999656, 81, 123, 96, 138
-0.999656, 33, 63, 48, 78
-0.999658, 125, 59, 140, 74
-0.999658, 67, 99, 82, 114
-0.999658, 73, 109, 88, 124
-0.999661, 119, 61, 134, 76
-0.999664, 79, 77, 94, 92
-0.999666, 57, 99, 72, 114
-0.999675, 61, 89, 76, 104
-0.999675, 55, 63, 70, 78
-0.999679, 45, 53, 60, 68
-0.999682, 103, 81, 118, 96
-0.999686, 87, 81, 102, 96
-0.999693, 115, 53, 130, 68
-0.999695, 109, 71, 124, 86
-0.999699, 95, 79, 110, 94
-0.999712, 85, 65, 100, 80
-0.999722, 31, 57, 46, 72
-0.999723, 137, 69, 152, 84
-0.999727, 91, 91, 106, 106
-0.999732, 67, 67, 82, 82
-0.999737, 123, 67, 138, 82
-0.999749, 97, 85, 112, 100
-0.999759, 101, 75, 116, 90
-0.999762, 145, 121, 272, 152
-0.999765, 131, 67, 146, 82
-0.999767, 37, 57, 52, 72
-0.999772, 97, 45, 112, 60
-0.999863, 149, 49, 180, 176
-0.999947, 69, 145, 100, 272
-1.00022, 161, 81, 224, 144
-1.00027, 1, 161, 64, 285
-1.00032, 97, 113, 224, 144
-1.00063, 145, 109, 272, 140
-1.00064, 145, 85, 272, 116
-1.00072, 97, 97, 224, 128
-1.00078, 209, 113, 272, 176
-1.001, 145, 97, 272, 128
-1.00118, 233, 89, 296, 152
-1.00132, 145, 105, 208, 168
-1.00204, 13, 161, 44, 285
-1.00208, 29, 161, 60, 285
-1.00357, 53, 161, 84, 285
-1.00552, 209, 89, 272, 152
-1.00596, 41, 161, 72, 285
-1.007, 185, 97, 248, 160
