1965
-0.49072, 1, 129, 500, 375
-0.512879, 1, 1, 256, 375
-0.519109, 1, 1, 500, 375
-0.557927, 1, 1, 500, 256
-0.580892, 97, 129, 352, 375
-0.583307, 97, 1, 352, 375
-0.628995, 1, 129, 256, 375
-0.64482, 193, 1, 448, 375
-0.733336, 65, 33, 320, 288
-0.765842, 225, 129, 480, 375
-0.804577, 225, 33, 480, 288
-0.853239, 113, 129, 240, 375
-0.856013, 33, 129, 160, 375
-0.879075, 161, 129, 288, 375
-0.880539, 129, 1, 256, 375
-0.882049, 1, 225, 500, 352
-0.882904, 97, 33, 224, 288
-0.896986, 177, 1, 304, 375
-0.897877, 49, 1, 176, 375
-0.903715, 369, 1, 496, 375
-0.908107, 97, 241, 352, 368
-0.909587, 241, 129, 368, 375
-0.910571, 1, 225, 256, 352
-0.911095, 161, 33, 288, 288
-0.913165, 1, 1, 128, 375
-0.915508, 1, 129, 500, 256
-0.915569, 65, 145, 320, 272
-0.917565, 97, 193, 352, 320
-0.919706, 49, 33, 176, 288
-0.923515, 1, 81, 500, 208
-0.928276, 65, 97, 320, 224
-0.928546, 353, 129, 480, 375
-0.929501, 241, 1, 368, 375
-0.930972, 289, 129, 416, 375
-0.931412, 121, 209, 184, 336
-0.933129, 1, 33, 128, 288
-0.933427, 257, 241, 500, 368
-0.93365, 129, 193, 256, 320
-0.935249, 153, 177, 216, 304
-0.935494, 97, 145, 224, 272
-0.936517, 65, 209, 192, 336
-0.937448, 225, 177, 480, 304
-0.937924, 113, 241, 240, 368
-0.938954, 321, 1, 448, 375
-0.939929, 1, 177, 500, 304
-0.942074, 1, 17, 500, 144
-0.943057, 145, 129, 272, 256
-0.944138, 65, 97, 192, 224
-0.94497, 97, 209, 160, 336
-0.945872, 209, 33, 336, 288
-0.947106, 129, 217, 192, 280
-0.947145, 177, 209, 304, 336
-0.947995, 49, 145, 176, 272
-0.948135, 321, 313, 384, 375
-0.94876, 121, 161, 184, 288
-0.950104, 73, 145, 136, 272
-0.951413, 369, 1, 496, 256
-0.951448, 185, 129, 248, 256
-0.952087, 153, 241, 216, 368
-0.952311, 49, 129, 112, 256
-0.952723, 145, 193, 208, 256
-0.95341, 105, 97, 168, 224
-0.953801, 1, 49, 256, 176
-0.95483, 257, 241, 384, 368
-0.954915, 273, 177, 400, 304
-0.955956, 337, 241, 464, 368
-0.956165, 145, 129, 208, 256
-0.9564, 9, 289, 72, 352
-0.95648, 225, 113, 480, 240
-0.957209, 1, 129, 128, 256
-0.957723, 329, 241, 392, 368
-0.958111, 1, 265, 64, 328
-0.958451, 353, 241, 416, 368
-0.958753, 321, 1, 448, 256
-0.960394, 193, 161, 320, 288
-0.960709, 73, 129, 136, 192
-0.961019, 177, 193, 240, 320
-0.961205, 121, 193, 184, 256
-0.961216, 345, 257, 408, 320
-0.961471, 9, 193, 72, 320
-0.961488, 17, 193, 144, 320
-0.964157, 121, 265, 184, 328
-0.964417, 129, 65, 256, 192
-0.964808, 145, 241, 208, 304
-0.964822, 225, 65, 480, 192
-0.965633, 113, 145, 176, 208
-0.965775, 1, 241, 64, 368
-0.966111, 257, 33, 384, 288
-0.966181, 133, 209, 164, 336
-0.966308, 153, 265, 216, 328
-0.966369, 153, 217, 216, 280
-0.966599, 73, 153, 136, 216
-0.966672, 105, 105, 168, 168
-0.966778, 49, 121, 112, 184
-0.967399, 161, 177, 192, 304
-0.967408, 241, 177, 304, 304
-0.96758, 97, 17, 352, 144
-0.967827, 1, 265, 32, 328
-0.967857, 149, 209, 180, 336
-0.968057, 97, 145, 160, 272
-0.968376, 105, 169, 168, 232
-0.969129, 289, 313, 352, 375
-0.969319, 81, 97, 144, 224
-0.969358, 145, 169, 208, 232
-0.969489, 105, 49, 168, 176
-0.969669, 25, 129, 88, 256
-0.970309, 105, 289, 168, 352
-0.97053, 201, 193, 264, 320
-0.970539, 97, 201, 224, 264
-0.970609, 369, 193, 432, 320
-0.970774, 409, 161, 472, 288
-0.971257, 425, 65, 488, 192
-0.97134, 257, 305, 384, 368
-0.971505, 185, 129, 248, 192
-0.97152, 345, 281, 408, 344
-0.971586, 1, 113, 64, 240
-0.971765, 153, 201, 184, 264
-0.971767, 1, 241, 128, 368
-0.972006, 265, 161, 328, 288
-0.972248, 121, 209, 152, 336
-0.972299, 129, 129, 192, 375
-0.972328, 249, 225, 312, 352
-0.972506, 361, 233, 424, 296
-0.972637, 169, 201, 200, 264
-0.972895, 105, 81, 168, 144
-0.972945, 333, 313, 364, 375
-0.973078, 81, 49, 208, 176
-0.973112, 89, 129, 152, 375
-0.973294, 113, 225, 240, 288
-0.973351, 257, 185, 320, 248
-0.97338, 145, 81, 208, 208
-0.973428, 361, 257, 392, 320
-0.97354, 337, 113, 464, 240
-0.973636, 21, 281, 52, 344
-0.973662, 337, 193, 464, 320
-0.973697, 33, 289, 96, 352
-0.973948, 89, 193, 152, 256
-0.974082, 289, 161, 352, 288
-0.974107, 321, 289, 384, 352
-0.974158, 249, 313, 312, 375
-0.974208, 217, 145, 280, 272
-0.974228, 133, 217, 164, 280
-0.974383, 257, 153, 320, 216
-0.974465, 433, 17, 496, 144
-0.974566, 97, 177, 224, 240
-0.974733, 433, 305, 496, 368
-0.974841, 349, 305, 380, 368
-0.974858, 1, 1, 256, 128
-0.974952, 145, 113, 208, 176
-0.975043, 385, 113, 448, 240
-0.975273, 105, 33, 168, 288
-0.9754, 145, 265, 176, 328
-0.975606, 185, 97, 248, 352
-0.975632, 145, 161, 176, 288
-0.975654, 153, 233, 184, 296
-0.975709, 1, 289, 128, 352
-0.975886, 129, 17, 256, 144
-0.975914, 153, 129, 216, 375
-0.975936, 97, 121, 128, 184
-0.976008, 177, 177, 208, 304
-0.97634, 49, 145, 112, 208
-0.976398, 81, 105, 144, 168
-0.976411, 177, 209, 304, 272
-0.976497, 169, 185, 232, 248
-0.976569, 105, 225, 168, 288
-0.976618, 73, 193, 136, 320
-0.976782, 385, 241, 448, 304
-0.976833, 417, 113, 480, 240
-0.976933, 133, 265, 164, 328
-0.97715, 161, 241, 192, 368
-0.97728, 65, 153, 192, 216
-0.977628, 17, 129, 144, 192
-0.977637, 329, 177, 392, 304
-0.977659, 289, 241, 352, 368
-0.977785, 177, 265, 240, 328
-0.977797, 65, 121, 192, 184
-0.977839, 1, 145, 64, 208
-0.977846, 425, 89, 488, 152
-0.977883, 177, 209, 240, 272
-0.978143, 169, 241, 232, 304
-0.978149, 81, 297, 144, 360
-0.978242, 153, 289, 216, 352
-0.978278, 1, 81, 128, 208
-0.978318, 145, 137, 208, 200
-0.978325, 93, 113, 124, 240
-0.978585, 297, 169, 360, 232
-0.978602, 193, 113, 320, 240
-0.978603, 465, 305, 496, 368
-0.978711, 233, 177, 296, 240
-0.97905, 241, 129, 368, 256
-0.979124, 1, 241, 64, 304
-0.979135, 129, 265, 256, 328
-0.97917, 1, 313, 64, 375
-0.979262, 225, 1, 480, 128
-0.979305, 201, 241, 264, 368
-0.979339, 129, 289, 192, 352
-0.979352, 249, 209, 312, 272
-0.97937, 41, 169, 104, 232
-0.979417, 57, 281, 120, 344
-0.979521, 369, 265, 432, 328
-0.979602, 9, 289, 40, 352
-0.979643, 129, 129, 256, 192
-0.979735, 417, 121, 480, 184
-0.9798, 433, 25, 496, 88
-0.980106, 177, 241, 240, 368
-0.980117, 65, 129, 128, 375
-0.980145, 257, 113, 320, 240
-0.980236, 373, 257, 404, 320
-0.980275, 289, 289, 352, 352
-0.980341, 97, 289, 224, 352
-0.980441, 433, 241, 496, 368
-0.980519, 49, 177, 176, 240
-0.980538, 97, 265, 160, 328
-0.980545, 81, 121, 112, 184
-0.980606, 177, 177, 304, 240
-0.98061, 321, 249, 384, 312
-0.980642, 257, 233, 384, 296
-0.980728, 25, 241, 88, 368
-0.980747, 165, 225, 196, 288
-0.980823, 249, 281, 312, 344
-0.980852, 1, 241, 32, 304
-0.980953, 417, 161, 480, 224
-0.98099, 77, 113, 108, 240
-0.981054, 93, 153, 124, 216
-0.981224, 109, 121, 140, 184
-0.981224, 25, 137, 88, 200
-0.981255, 165, 249, 196, 312
-0.981416, 349, 241, 380, 368
-0.981487, 65, 241, 192, 304
-0.981577, 257, 177, 384, 240
-0.981581, 409, 185, 472, 248
-0.981627, 65, 185, 128, 248
-0.981673, 201, 209, 264, 272
-0.981685, 49, 81, 112, 208
-0.9817, 189, 209, 220, 336
-0.98177, 33, 129, 96, 375
-0.982083, 273, 257, 400, 320
-0.982098, 157, 169, 188, 232
-0.982116, 361, 241, 392, 368
-0.982184, 273, 193, 304, 256
-0.982295, 145, 177, 176, 240
-0.982366, 345, 313, 408, 375
-0.982402, 1, 225, 32, 352
-0.98242, 49, 201, 176, 264
-0.982473, 157, 273, 188, 336
-0.982552, 177, 265, 304, 328
-0.982597, 57, 241, 120, 368
-0.982603, 369, 209, 432, 272
-0.98268, 421, 113, 452, 240
-0.982716, 349, 257, 380, 320
-0.982729, 433, 1, 496, 256
-0.982845, 17, 153, 144, 216
-0.98287, 145, 73, 208, 136
-0.982877, 193, 313, 320, 375
-0.982883, 393, 121, 456, 184
-0.983094, 353, 305, 480, 368
-0.983095, 433, 281, 496, 344
-0.983141, 185, 209, 216, 272
-0.98315, 145, 153, 272, 216
-0.983206, 49, 297, 176, 360
-0.983303, 305, 313, 432, 375
-0.983553, 321, 265, 448, 328
-0.983591, 193, 129, 224, 256
-0.983597, 117, 225, 148, 288
-0.983769, 209, 169, 272, 232
-0.98377, 269, 169, 300, 232
-0.983783, 217, 129, 280, 375
-0.983825, 273, 281, 400, 344
-0.98389, 9, 193, 72, 256
-0.983895, 1, 313, 128, 375
-0.983976, 177, 241, 304, 304
-0.984029, 353, 281, 384, 344
-0.984048, 281, 209, 344, 272
-0.984225, 57, 313, 120, 375
-0.98427, 81, 265, 208, 328
-0.984348, 41, 129, 72, 256
-0.984358, 145, 33, 208, 160
-0.984377, 49, 1, 176, 128
-0.984393, 145, 289, 272, 352
-0.984527, 369, 177, 432, 240
-0.984565, 257, 145, 288, 272
-0.98467, 285, 193, 316, 256
-0.984734, 41, 289, 72, 352
-0.984774, 433, 49, 496, 112
-0.984839, 105, 145, 136, 272
-0.985131, 97, 89, 224, 152
-0.985133, 401, 209, 464, 272
-0.985148, 9, 129, 72, 375
-0.985194, 449, 289, 480, 352
-0.985211, 193, 289, 320, 352
-0.985247, 249, 257, 312, 320
-0.985261, 1, 265, 128, 328
-0.985263, 241, 129, 304, 375
-0.985282, 377, 241, 440, 368
-0.985383, 225, 201, 288, 264
-0.98539, 337, 193, 400, 256
-0.985408, 1, 113, 64, 176
-0.985488, 129, 49, 160, 176
-0.985519, 81, 217, 144, 280
-0.985542, 57, 129, 88, 256
-0.985636, 289, 193, 320, 320
-0.985648, 157, 129, 188, 256
-0.98565, 173, 177, 204, 240
-0.985729, 5, 313, 36, 375
-0.985741, 13, 257, 44, 320
-0.985788, 185, 161, 248, 224
-0.985816, 225, 145, 288, 208
-0.985856, 17, 193, 48, 320
-0.985872, 129, 313, 192, 375
-0.985948, 57, 137, 88, 200
-0.985954, 353, 49, 480, 176
-0.986003, 133, 289, 164, 352
-0.986041, 133, 161, 164, 288
-0.986044, 189, 233, 220, 296
-0.986214, 153, 33, 216, 288
-0.986286, 25, 129, 56, 256
-0.986428, 109, 193, 140, 320
-0.986508, 313, 305, 344, 368
-0.986563, 373, 233, 404, 296
-0.986574, 49, 177, 112, 304
-0.986574, 129, 73, 160, 136
-0.986583, 409, 241, 472, 368
-0.986688, 141, 241, 172, 304
-0.986697, 217, 121, 280, 184
-0.98675, 201, 265, 264, 328
-0.986768, 137, 41, 200, 104
-0.986778, 53, 289, 84, 352
-0.986998, 45, 169, 76, 232
-0.987047, 169, 313, 232, 375
-0.987059, 201, 193, 232, 320
-0.987143, 409, 305, 472, 368
-0.987156, 369, 313, 400, 375
-0.987157, 177, 33, 304, 160
-0.987165, 81, 153, 112, 216
-0.987188, 289, 129, 416, 256
-0.987188, 89, 1, 152, 128
-0.987214, 121, 249, 152, 312
-0.987227, 117, 129, 148, 256
-0.987364, 361, 193, 392, 320
-0.987393, 353, 129, 416, 256
-0.987473, 173, 225, 204, 352
-0.987537, 45, 129, 76, 192
-0.987582, 121, 1, 184, 375
-0.987589, 25, 145, 56, 208
-0.987603, 209, 289, 272, 352
-0.987643, 321, 329, 384, 360
-0.987646, 105, 297, 136, 360
-0.987693, 1, 169, 64, 232
-0.987697, 125, 193, 156, 256
-0.987812, 353, 233, 480, 296
-0.987844, 329, 289, 360, 352
-0.987942, 177, 233, 208, 296
-0.987958, 225, 97, 288, 224
-0.987979, 65, 33, 128, 288
-0.98808, 373, 241, 404, 368
-0.988085, 429, 105, 460, 168
-0.988099, 225, 265, 352, 328
-0.988164, 241, 161, 272, 288
-0.988197, 121, 289, 152, 352
-0.988219, 273, 201, 400, 264
-0.988221, 257, 161, 288, 224
-0.988249, 129, 225, 192, 256
-0.988308, 369, 313, 432, 375
-0.988312, 49, 97, 176, 160
-0.988326, 257, 185, 288, 248
-0.988329, 461, 17, 492, 144
-0.988352, 145, 1, 208, 375
-0.988463, 33, 313, 96, 375
-0.988465, 457, 25, 488, 88
-0.9885, 385, 89, 448, 152
-0.988534, 441, 49, 472, 176
-0.988545, 73, 49, 136, 176
-0.988577, 433, 1, 496, 375
-0.988586, 9, 217, 72, 280
-0.988598, 361, 233, 392, 296
-0.9886, 1, 185, 128, 248
-0.988626, 69, 145, 100, 208
-0.98865, 321, 185, 448, 248
-0.988654, 441, 113, 472, 176
-0.988671, 369, 185, 496, 248
-0.988841, 365, 281, 396, 344
-0.988843, 185, 105, 248, 168
-0.988877, 9, 65, 72, 192
-0.988933, 373, 193, 404, 320
-0.988956, 177, 129, 208, 256
-0.988989, 385, 265, 416, 328
-0.989027, 129, 65, 256, 128
-0.98905, 73, 125, 136, 156
-0.989069, 145, 105, 272, 168
-0.989071, 193, 241, 256, 304
-0.989088, 141, 153, 172, 216
-0.989096, 305, 161, 336, 288
-0.989135, 145, 205, 208, 236
-0.989159, 353, 261, 416, 292
-0.989201, 177, 129, 304, 192
-0.98921, 129, 237, 192, 268
-0.989228, 269, 161, 300, 288
-0.989236, 369, 257, 496, 320
-0.989256, 225, 201, 352, 264
-0.98926, 97, 217, 352, 280
-0.989334, 209, 153, 336, 216
-0.989347, 153, 217, 216, 248
-0.989355, 305, 169, 336, 232
-0.989396, 393, 153, 456, 216
-0.98941, 217, 129, 248, 256
-0.989421, 281, 233, 344, 296
-0.989447, 185, 1, 248, 375
-0.989578, 97, 57, 160, 120
-0.989635, 13, 241, 44, 368
-0.98967, 97, 1, 160, 375
-0.989736, 385, 233, 416, 296
-0.989821, 49, 73, 176, 136
-0.98983, 113, 153, 176, 184
-0.989879, 137, 129, 168, 192
-0.989883, 161, 229, 224, 260
-0.989935, 313, 129, 376, 375
-0.989942, 329, 317, 392, 348
-0.989944, 177, 257, 208, 320
-0.990041, 33, 169, 64, 232
-0.990049, 121, 213, 184, 244
-0.990059, 289, 337, 352, 368
-0.990082, 409, 281, 472, 344
-0.990083, 337, 161, 464, 224
-0.990118, 9, 285, 72, 316
-0.990163, 321, 169, 384, 232
-0.990167, 1, 33, 128, 160
-0.990176, 113, 185, 144, 248
-0.990201, 49, 125, 112, 156
-0.990238, 353, 129, 416, 375
-0.990243, 1, 105, 128, 168
-0.990255, 193, 257, 224, 320
-0.99027, 113, 33, 240, 96
-0.990274, 185, 81, 248, 208
-0.990309, 321, 345, 384, 375
-0.99031, 145, 113, 176, 240
-0.990382, 281, 265, 344, 328
-0.990438, 97, 281, 352, 344
-0.990441, 353, 273, 416, 304
-0.990485, 105, 117, 168, 148
-0.990489, 169, 205, 232, 236
-0.990495, 69, 121, 100, 184
-0.990539, 145, 193, 208, 224
-0.990539, 129, 273, 192, 304
-0.99054, 369, 1, 496, 128
-0.990549, 17, 305, 80, 336
-0.990551, 129, 33, 192, 288
-0.990569, 281, 325, 344, 356
-0.990602, 33, 137, 96, 168
-0.990638, 73, 153, 136, 184
-0.990653, 137, 257, 200, 288
-0.990714, 145, 297, 176, 360
-0.990715, 433, 305, 496, 336
-0.990727, 417, 145, 448, 208
-0.990755, 57, 97, 120, 160
-0.990758, 289, 169, 320, 232
-0.99077, 145, 313, 272, 375
-0.990793, 41, 301, 104, 332
-0.990811, 225, 193, 256, 320
-0.990818, 329, 257, 392, 288
-0.99082, 113, 161, 144, 224
-0.990832, 1, 273, 64, 304
-0.990843, 409, 257, 472, 320
-0.990868, 105, 105, 168, 136
-0.990882, 113, 197, 176, 228
-0.990886, 81, 113, 144, 144
-0.990908, 73, 177, 104, 240
-0.990908, 369, 1, 496, 64
-0.99092, 217, 313, 280, 375
-0.990932, 25, 113, 88, 176
-0.990957, 401, 65, 464, 192
-0.99098, 33, 193, 96, 256
-0.990997, 257, 161, 320, 192
-0.990999, 105, 297, 168, 328
-0.991025, 241, 169, 272, 232
-0.991027, 437, 97, 468, 224
-0.991032, 145, 181, 208, 212
-0.991047, 161, 269, 224, 300
-0.991053, 369, 289, 432, 352
-0.991059, 377, 253, 440, 284
-0.991079, 89, 97, 120, 160
-0.991081, 441, 81, 472, 144
-0.991112, 81, 141, 144, 172
-0.99113, 213, 193, 244, 320
-0.991143, 409, 97, 472, 352
-0.991159, 161, 241, 224, 272
-0.991172, 409, 157, 472, 188
-0.991181, 209, 209, 240, 272
-0.991185, 145, 285, 208, 316
-0.99121, 113, 165, 176, 196
-0.99121, 145, 169, 208, 200
-0.991236, 397, 233, 428, 296
-0.991245, 281, 313, 344, 344
-0.991275, 113, 141, 176, 172
-0.991275, 113, 177, 176, 208
-0.991281, 41, 185, 104, 216
-0.991305, 193, 129, 224, 192
-0.991317, 185, 129, 248, 160
-0.991333, 105, 225, 168, 256
-0.991364, 329, 273, 392, 304
-0.991367, 205, 129, 236, 256
-0.991367, 1, 241, 256, 304
-0.99139, 161, 257, 224, 288
-0.991391, 1, 321, 64, 352
-0.991395, 241, 197, 304, 228
-0.9914, 333, 241, 364, 368
-0.991418, 5, 129, 36, 256
-0.991444, 65, 129, 320, 192
-0.991452, 249, 233, 312, 296
-0.991458, 257, 325, 320, 356
-0.991465, 93, 161, 124, 288
-0.991476, 449, 265, 480, 328
-0.991484, 289, 129, 352, 375
-0.991496, 145, 133, 208, 164
-0.991521, 97, 177, 128, 240
-0.991525, 229, 129, 260, 256
-0.991583, 197, 209, 228, 272
-0.991584, 269, 313, 300, 375
-0.991588, 433, 225, 496, 288
-0.991592, 417, 109, 480, 140
-0.991597, 337, 105, 464, 168
-0.991601, 321, 305, 384, 336
-0.991622, 425, 89, 488, 120
-0.991631, 193, 185, 224, 248
-0.991638, 433, 317, 496, 348
-0.991645, 153, 157, 216, 188
-0.991654, 193, 141, 256, 172
-0.991665, 341, 281, 372, 344
-0.991703, 257, 185, 320, 216
-0.991734, 1, 261, 64, 292
-0.991734, 425, 161, 456, 288
-0.991755, 297, 177, 360, 208
-0.991757, 73, 169, 136, 200
-0.99176, 445, 313, 476, 375
-0.991763, 265, 209, 328, 240
-0.991774, 97, 253, 160, 284
-0.991792, 29, 177, 60, 304
-0.991793, 57, 313, 120, 344
-0.9918, 97, 257, 352, 320
-0.991844, 193, 213, 256, 244
-0.991859, 1, 193, 256, 256
-0.991865, 249, 313, 312, 344
-0.991868, 105, 129, 168, 160
-0.991874, 185, 193, 248, 224
-0.991892, 409, 145, 472, 176
-0.99191, 469, 241, 500, 368
-0.991924, 89, 185, 152, 216
-0.991929, 377, 269, 440, 300
-0.991939, 161, 313, 416, 375
-0.991946, 77, 161, 108, 288
-0.991948, 233, 1, 296, 375
-0.991951, 233, 157, 296, 188
-0.991957, 257, 173, 320, 204
-0.991985, 93, 297, 124, 360
-0.991997, 185, 269, 248, 300
-0.992003, 353, 249, 416, 280
-0.992003, 57, 137, 120, 168
-0.992005, 241, 341, 304, 372
-0.992008, 361, 209, 424, 240
-0.992009, 433, 69, 496, 100
-0.99201, 1, 297, 256, 360
-0.992015, 409, 205, 472, 236
-0.992032, 361, 329, 424, 360
-0.992038, 257, 153, 384, 216
-0.992045, 65, 293, 128, 324
-0.992062, 1, 145, 64, 176
-0.992065, 345, 345, 408, 375
-0.992069, 65, 185, 128, 216
-0.992105, 93, 121, 124, 152
-0.992108, 433, 49, 496, 80
-0.99211, 89, 209, 152, 240
-0.99211, 265, 221, 328, 252
-0.992112, 121, 285, 184, 316
-0.992117, 361, 257, 392, 288
-0.992121, 41, 149, 104, 180
-0.992125, 249, 285, 312, 316
-0.992144, 33, 241, 64, 368
-0.992145, 409, 65, 472, 128
-0.992151, 1, 269, 32, 300
-0.992171, 269, 217, 300, 280
-0.992175, 289, 229, 352, 260
-0.992179, 409, 193, 472, 224
-0.992186, 25, 317, 88, 348
-0.992195, 249, 297, 312, 328
-0.992209, 129, 225, 160, 256
-0.992216, 81, 305, 144, 336
-0.992217, 369, 129, 496, 192
-0.992227, 65, 153, 320, 216
-0.992241, 133, 105, 164, 168
-0.992241, 57, 113, 88, 176
-0.992243, 49, 173, 112, 204
-0.992248, 157, 197, 188, 228
-0.992248, 145, 117, 208, 148
-0.99226, 89, 237, 152, 268
-0.992262, 417, 169, 448, 232
-0.992274, 433, 217, 496, 248
-0.992276, 129, 329, 192, 360
-0.992278, 377, 197, 440, 228
-0.992278, 105, 269, 168, 300
-0.99231, 401, 81, 464, 112
-0.992327, 257, 297, 500, 360
-0.992329, 169, 201, 200, 232
-0.992332, 153, 145, 216, 176
-0.992344, 1, 249, 64, 280
-0.992349, 409, 181, 472, 212
-0.992359, 17, 193, 80, 224
-0.992359, 249, 265, 312, 296
-0.99237, 465, 305, 496, 336
-0.992403, 321, 293, 384, 324
-0.992409, 369, 237, 432, 268
-0.992409, 81, 125, 112, 156
-0.992409, 217, 173, 280, 204
-0.992423, 369, 113, 432, 176
-0.992426, 469, 281, 500, 344
-0.992429, 305, 317, 368, 348
-0.992434, 149, 209, 180, 240
-0.99244, 113, 97, 144, 160
-0.992471, 409, 317, 472, 348
-0.992482, 445, 145, 476, 208
-0.992486, 433, 33, 496, 64
-0.992497, 177, 213, 208, 244
-0.992523, 373, 265, 404, 296
-0.992523, 121, 313, 184, 344
-0.992534, 281, 301, 344, 332
-0.992546, 437, 145, 468, 272
-0.992552, 329, 325, 360, 356
-0.992553, 289, 205, 352, 236
-0.992561, 105, 93, 168, 124
-0.992569, 17, 273, 48, 304
-0.992574, 165, 269, 196, 300
-0.992574, 9, 129, 72, 160
-0.992585, 81, 221, 144, 252
-0.992599, 273, 333, 400, 364
-0.992601, 137, 61, 200, 92
-0.992602, 209, 269, 272, 300
-0.992604, 145, 93, 208, 124
-0.992604, 217, 129, 248, 192
-0.992608, 1, 177, 64, 208
-0.992612, 425, 1, 488, 64
-0.992622, 97, 69, 160, 100
-0.992631, 49, 297, 80, 328
-0.992637, 377, 129, 440, 375
-0.992648, 293, 217, 324, 280
-0.992666, 93, 109, 124, 140
-0.992668, 1, 33, 64, 288
-0.992673, 97, 33, 160, 96
-0.992678, 169, 229, 200, 260
-0.99269, 21, 285, 52, 316
-0.992696, 149, 273, 180, 304
-0.992705, 469, 317, 500, 348
-0.992706, 17, 305, 48, 336
-0.992722, 105, 125, 136, 156
-0.992739, 413, 161, 444, 288
-0.992756, 349, 329, 380, 360
-0.99276, 361, 269, 392, 300
-0.992787, 157, 221, 188, 252
-0.992809, 337, 345, 368, 375
-0.992814, 81, 81, 144, 144
-0.992825, 37, 293, 68, 324
-0.992837, 105, 209, 136, 272
-0.992855, 45, 181, 76, 212
-0.992856, 277, 205, 308, 236
-0.992864, 137, 269, 168, 300
-0.992866, 453, 305, 484, 336
-0.992885, 101, 149, 132, 180
-0.992887, 5, 285, 36, 316
-0.992893, 145, 197, 176, 228
-0.992899, 141, 225, 172, 256
-0.992906, 433, 113, 464, 144
-0.992914, 253, 193, 284, 320
-0.992919, 1, 209, 128, 272
-0.992926, 29, 305, 60, 336
-0.992936, 337, 209, 464, 272
-0.992941, 361, 317, 392, 348
-0.992941, 153, 237, 184, 268
-0.992942, 97, 193, 352, 256
-0.992954, 69, 129, 100, 160
-0.992965, 1, 309, 32, 340
-0.99297, 157, 185, 188, 216
-0.992975, 1, 257, 32, 288
-0.99298, 209, 1, 272, 375
-0.992983, 129, 49, 160, 112
-0.992988, 165, 257, 196, 288
-0.992994, 369, 281, 496, 344
-0.993007, 49, 49, 176, 112
-0.993008, 113, 81, 144, 208
-0.993013, 189, 233, 220, 264
-0.993014, 265, 161, 296, 192
-0.993026, 457, 29, 488, 60
-0.993028, 161, 169, 416, 232
-0.993032, 369, 329, 400, 360
-0.993034, 57, 137, 88, 168
-0.993035, 173, 189, 204, 220
-0.993042, 1, 265, 256, 328
-0.993046, 377, 253, 408, 284
-0.993048, 69, 141, 100, 172
-0.993049, 353, 73, 480, 136
-0.993051, 41, 141, 72, 172
-0.993051, 313, 329, 344, 360
-0.993054, 21, 193, 52, 256
-0.993059, 289, 217, 320, 248
-0.993061, 89, 141, 120, 172
-0.993063, 349, 305, 380, 336
-0.993063, 1, 217, 32, 280
-0.993064, 333, 309, 364, 340
-0.993065, 349, 341, 380, 372
-0.993065, 457, 317, 488, 348
-0.993074, 113, 9, 240, 72
-0.993075, 349, 317, 380, 348
-0.993084, 97, 205, 224, 236
-0.993091, 285, 193, 316, 224
-0.993093, 217, 33, 280, 288
-0.993098, 65, 297, 96, 360
-0.993103, 385, 269, 416, 300
-0.993103, 129, 81, 160, 112
-0.993107, 105, 301, 136, 332
-0.993112, 1, 177, 32, 304
-0.993117, 117, 249, 148, 280
-0.993133, 445, 317, 476, 348
-0.993135, 269, 189, 300, 220
-0.99314, 349, 277, 380, 308
-0.993143, 349, 261, 380, 292
-0.993151, 129, 213, 160, 244
-0.993155, 417, 181, 448, 212
-0.993158, 461, 1, 492, 64
-0.993159, 105, 109, 136, 140
-0.993161, 289, 205, 320, 236
-0.993165, 5, 297, 36, 328
-0.993175, 129, 289, 160, 320
-0.993177, 313, 317, 344, 348
-0.993186, 469, 329, 500, 360
-0.993187, 61, 297, 92, 328
-0.993189, 133, 137, 164, 168
-0.993191, 257, 193, 288, 224
-0.993192, 25, 257, 56, 320
-0.993193, 129, 69, 160, 100
-0.993206, 333, 293, 364, 324
-0.993208, 177, 249, 208, 280
-0.99321, 1, 217, 256, 280
-0.993212, 361, 345, 392, 375
-0.993212, 1, 1, 64, 375
-0.993215, 13, 321, 44, 352
-0.99322, 49, 165, 80, 196
-0.993224, 137, 257, 168, 288
-0.993225, 29, 149, 60, 180
-0.993227, 349, 293, 380, 324
-0.993229, 153, 249, 184, 280
-0.993236, 145, 153, 176, 184
-0.993237, 189, 213, 220, 244
-0.993238, 81, 153, 112, 184
-0.993241, 193, 201, 224, 232
-0.993241, 173, 281, 204, 312
-0.993243, 157, 173, 188, 204
-0.993245, 73, 185, 104, 216
-0.993247, 141, 185, 172, 216
-0.993253, 201, 213, 232, 244
-0.993259, 101, 137, 132, 168
-0.993259, 325, 345, 356, 375
-0.993265, 305, 177, 336, 208
-0.993266, 289, 329, 320, 360
-0.99327, 109, 229, 140, 260
-0.993271, 117, 293, 148, 324
-0.993274, 121, 153, 152, 184
-0.993284, 293, 229, 324, 260
-0.993289, 189, 261, 220, 292
-0.99329, 125, 261, 156, 292
-0.993292, 445, 105, 476, 136
-0.993293, 117, 117, 148, 148
-0.993293, 113, 137, 144, 168
-0.993293, 69, 117, 100, 148
-0.993294, 221, 125, 252, 156
-0.993295, 29, 173, 60, 204
-0.993297, 1, 325, 32, 356
-0.993298, 149, 285, 180, 316
-0.9933, 373, 277, 404, 308
-0.993303, 25, 257, 88, 320
-0.993308, 433, 101, 464, 132
-0.99331, 193, 129, 224, 160
-0.993311, 337, 161, 368, 288
-0.993317, 181, 201, 212, 232
-0.993317, 29, 137, 60, 168
-0.993319, 93, 309, 124, 340
-0.993319, 421, 193, 452, 224
-0.993329, 393, 237, 424, 268
-0.993331, 81, 113, 112, 144
-0.993334, 117, 217, 148, 248
-0.993338, 97, 189, 128, 220
-0.993339, 469, 205, 500, 236
-0.993351, 225, 241, 480, 304
-0.993395, 433, 161, 496, 288
-0.9934, 225, 129, 352, 192
-0.993438, 225, 273, 480, 336
-0.993439, 1, 265, 16, 328
-0.993455, 163, 209, 178, 272
-0.993502, 349, 177, 380, 304
-0.993545, 433, 145, 464, 208
-0.993585, 329, 225, 392, 288
-0.993692, 97, 313, 224, 375
-0.993731, 385, 209, 416, 336
-0.99377, 321, 137, 448, 200
-0.993774, 369, 33, 496, 96
-0.993811, 273, 345, 400, 375
-0.993833, 361, 257, 376, 320
-0.993856, 9, 145, 40, 208
-0.993857, 13, 257, 28, 320
-0.993865, 101, 65, 132, 192
-0.993889, 17, 313, 48, 375
-0.993901, 109, 121, 124, 184
-0.993902, 1, 241, 128, 304
-0.993903, 23, 273, 38, 336
-0.993905, 1, 281, 500, 344
-0.993932, 225, 65, 352, 192
-0.994016, 335, 313, 350, 375
-0.994021, 61, 241, 92, 368
-0.994036, 5, 185, 36, 248
-0.994042, 285, 145, 316, 272
-0.994048, 273, 321, 400, 352
-0.994111, 369, 249, 384, 312
-0.994121, 81, 289, 112, 352
-0.994136, 143, 265, 158, 328
-0.994138, 1, 121, 32, 184
-0.994142, 7, 265, 22, 328
-0.994147, 149, 265, 164, 328
-0.994181, 241, 113, 272, 240
-0.994198, 113, 225, 240, 256
-0.994202, 453, 241, 484, 368
-0.994226, 185, 41, 248, 104
-0.994366, 65, 1, 128, 375
-0.994372, 169, 153, 200, 216
-0.994384, 1, 105, 256, 168
-0.994419, 133, 217, 148, 280
-0.994436, 177, 33, 304, 96
-0.994448, 409, 41, 472, 104
-0.994485, 101, 241, 132, 368
-0.994501, 97, 193, 224, 224
-0.994527, 113, 237, 240, 268
-0.994529, 163, 169, 178, 232
-0.994539, 269, 145, 300, 208
-0.994542, 13, 289, 28, 352
-0.994551, 167, 241, 182, 304
-0.994571, 169, 201, 184, 264
-0.994588, 409, 1, 472, 375
-0.994602, 369, 153, 432, 216
-0.994604, 269, 209, 300, 336
-0.994608, 289, 313, 320, 375
-0.994608, 155, 233, 170, 296
-0.994687, 169, 281, 200, 344
-0.994713, 225, 241, 288, 368
-0.994715, 1, 81, 128, 144
-0.994719, 81, 65, 112, 192
-0.994751, 445, 25, 476, 88
-0.994765, 125, 1, 156, 128
-0.994774, 409, 1, 472, 256
-0.994776, 49, 125, 176, 156
-0.994776, 161, 265, 176, 328
-0.994797, 409, 209, 440, 272
-0.994802, 161, 241, 176, 304
-0.994808, 49, 9, 176, 72
-0.99488, 375, 249, 390, 312
-0.994882, 1, 293, 128, 324
-0.994893, 297, 113, 360, 240
-0.994899, 1, 305, 500, 368
-0.994902, 465, 217, 496, 280
-0.994918, 401, 1, 464, 64
-0.994925, 453, 121, 484, 184
-0.994927, 153, 145, 184, 208
-0.994933, 257, 1, 320, 375
-0.994957, 97, 157, 224, 188
-0.994967, 97, 169, 224, 200
-0.995004, 465, 121, 496, 184
-0.995016, 397, 257, 428, 320
-0.995024, 1, 257, 500, 320
-0.995037, 141, 217, 156, 280
-0.995051, 397, 161, 428, 288
-0.995058, 225, 121, 480, 184
-0.995068, 133, 249, 148, 312
-0.99507, 469, 305, 484, 368
-0.995071, 1, 233, 500, 296
-0.995081, 257, 309, 384, 340
-0.995082, 155, 265, 170, 328
-0.995102, 1, 161, 500, 224
-0.995122, 241, 201, 272, 264
-0.995134, 367, 273, 382, 336
-0.995136, 205, 233, 236, 296
-0.995137, 145, 205, 272, 236
-0.995168, 363, 313, 378, 375
-0.995192, 177, 217, 304, 248
-0.995197, 257, 177, 500, 240
-0.995209, 449, 1, 480, 128
-0.99522, 369, 1, 432, 375
-0.995223, 1, 241, 16, 304
-0.995224, 429, 49, 460, 176
-0.995238, 1, 305, 16, 368
-0.995244, 321, 325, 448, 356
-0.99529, 7, 241, 22, 304
-0.99531, 317, 161, 348, 288
-0.99538, 25, 1, 88, 375
-0.995385, 29, 305, 60, 368
-0.995396, 73, 241, 104, 368
-0.995402, 1, 113, 500, 176
-0.995404, 253, 209, 284, 272
-0.99543, 91, 113, 106, 176
-0.995433, 337, 169, 368, 232
-0.995439, 103, 113, 118, 176
-0.995441, 157, 201, 172, 264
-0.995446, 257, 265, 384, 296
-0.995472, 97, 1, 160, 64
-0.995474, 7, 305, 22, 368
-0.995478, 193, 209, 208, 272
-0.995484, 265, 129, 328, 375
-0.995503, 57, 81, 88, 208
-0.995525, 49, 153, 176, 184
-0.995558, 225, 201, 480, 264
-0.995575, 1, 317, 128, 348
-0.995585, 177, 9, 304, 72
-0.995593, 337, 261, 464, 292
-0.995616, 225, 329, 352, 360
-0.995628, 33, 141, 160, 172
-0.995643, 21, 297, 36, 360
-0.995646, 149, 225, 164, 288
-0.995694, 97, 181, 224, 212
-0.995719, 409, 233, 472, 296
-0.995719, 85, 121, 100, 184
-0.99573, 173, 241, 188, 304
-0.995755, 177, 65, 304, 128
-0.995762, 389, 257, 404, 320
-0.995765, 145, 193, 272, 224
-0.995776, 433, 129, 496, 375
-0.99578, 161, 145, 416, 208
-0.99579, 145, 145, 272, 176
-0.995793, 353, 297, 368, 360
-0.995797, 345, 305, 360, 368
-0.995808, 129, 17, 192, 80
-0.995809, 49, 301, 176, 332
-0.995823, 257, 129, 320, 192
-0.995845, 169, 177, 184, 240
-0.995871, 185, 1, 248, 256
-0.995873, 97, 113, 224, 144
-0.995882, 97, 121, 112, 184
-0.995884, 97, 145, 224, 176
-0.995898, 113, 253, 240, 284
-0.995939, 209, 105, 336, 168
-0.995941, 97, 129, 224, 160
-0.995972, 297, 145, 360, 208
-0.996001, 31, 281, 46, 344
-0.996006, 257, 177, 384, 208
-0.996019, 41, 177, 72, 304
-0.996062, 89, 241, 120, 368
-0.996069, 177, 269, 304, 300
-0.996085, 33, 33, 96, 288
-0.996089, 39, 281, 54, 344
-0.996103, 177, 193, 192, 256
-0.996111, 57, 289, 72, 352
-0.996111, 1, 209, 500, 272
-0.996129, 393, 1, 456, 128
-0.996164, 199, 225, 214, 288
-0.996167, 257, 253, 384, 284
-0.996182, 125, 225, 140, 288
-0.996207, 97, 293, 224, 324
-0.996245, 205, 241, 236, 368
-0.996247, 1, 305, 128, 336
-0.996254, 465, 1, 480, 64
-0.996262, 115, 129, 130, 192
-0.996279, 45, 169, 60, 232
-0.996308, 289, 185, 304, 248
-0.996318, 1, 137, 500, 200
-0.996326, 477, 305, 492, 368
-0.996333, 133, 97, 164, 224
-0.996337, 177, 165, 304, 196
-0.996352, 373, 313, 388, 375
-0.996358, 321, 345, 448, 375
-0.996378, 129, 281, 256, 312
-0.996378, 405, 209, 436, 336
-0.996386, 97, 265, 224, 296
-0.996401, 193, 317, 320, 348
-0.996405, 363, 233, 378, 296
-0.996415, 153, 129, 184, 375
-0.99642, 49, 145, 64, 208
-0.996465, 49, 281, 64, 344
-0.996472, 193, 297, 320, 328
-0.996477, 273, 277, 400, 308
-0.996491, 381, 257, 396, 320
-0.996498, 361, 281, 376, 344
-0.996505, 439, 113, 454, 176
-0.99652, 39, 153, 54, 216
-0.996523, 355, 265, 370, 328
-0.996546, 281, 1, 344, 375
-0.996549, 469, 25, 484, 88
-0.996555, 157, 153, 172, 216
-0.996579, 49, 241, 80, 368
-0.996579, 447, 89, 462, 152
-0.996595, 49, 189, 176, 220
-0.996611, 283, 185, 298, 248
-0.996615, 433, 241, 464, 368
-0.996616, 83, 153, 98, 216
-0.996619, 345, 1, 408, 375
-0.996619, 13, 313, 28, 375
-0.996621, 151, 193, 166, 256
-0.996623, 99, 117, 114, 148
-0.996624, 109, 145, 124, 208
-0.996641, 225, 201, 352, 232
-0.996648, 307, 169, 322, 232
-0.996658, 93, 153, 108, 216
-0.996669, 161, 181, 288, 212
-0.996692, 435, 161, 450, 224
-0.996703, 49, 229, 176, 260
-0.996703, 323, 305, 338, 368
-0.996718, 187, 201, 202, 264
-0.996723, 373, 273, 388, 336
-0.996747, 257, 293, 384, 324
-0.996763, 185, 241, 200, 304
-0.996765, 49, 173, 176, 204
-0.996787, 167, 273, 182, 336
-0.996804, 433, 201, 496, 264
-0.996804, 463, 305, 478, 368
-0.996805, 263, 153, 278, 216
-0.996806, 485, 297, 500, 360
-0.996811, 29, 81, 60, 208
-0.996812, 151, 145, 166, 208
-0.996813, 177, 257, 304, 288
-0.99682, 49, 201, 176, 232
-0.996825, 21, 273, 36, 304
-0.996855, 179, 257, 194, 320
-0.996857, 195, 185, 210, 248
-0.996858, 77, 145, 92, 208
-0.996863, 1, 81, 256, 144
-0.996879, 103, 137, 118, 200
-0.996889, 1, 57, 128, 120
-0.996903, 145, 125, 272, 156
-0.996907, 1, 41, 256, 104
-0.996908, 175, 217, 190, 280
-0.996918, 177, 289, 240, 352
-0.996941, 65, 217, 192, 248
-0.996972, 97, 65, 352, 128
-0.99698, 435, 137, 450, 200
-0.996985, 107, 121, 122, 152
-0.99699, 439, 89, 454, 152
-0.996996, 299, 209, 314, 272
-0.99701, 133, 193, 148, 256
-0.997012, 275, 169, 290, 232
-0.997012, 169, 201, 184, 232
-0.997022, 105, 129, 136, 375
-0.997028, 273, 189, 400, 220
-0.997029, 463, 25, 478, 88
-0.997038, 143, 65, 158, 128
-0.997038, 413, 209, 428, 272
-0.997053, 49, 241, 176, 272
-0.997061, 205, 209, 220, 272
-0.997066, 107, 297, 122, 360
-0.997067, 321, 273, 448, 304
-0.99709, 369, 257, 384, 288
-0.997095, 139, 289, 154, 352
-0.997096, 335, 289, 350, 352
-0.997099, 293, 209, 308, 272
-0.997099, 155, 289, 170, 352
-0.997103, 305, 233, 432, 296
-0.997107, 241, 209, 272, 336
-0.997113, 477, 185, 492, 248
-0.997115, 191, 233, 206, 296
-0.997115, 329, 305, 344, 368
-0.997116, 15, 269, 30, 300
-0.997117, 89, 121, 104, 152
-0.99712, 273, 209, 400, 240
-0.997123, 285, 209, 300, 272
-0.997124, 265, 185, 280, 248
-0.997127, 305, 1, 368, 375
-0.997133, 65, 313, 192, 344
-0.997156, 229, 241, 260, 368
-0.997158, 193, 285, 320, 316
-0.997161, 137, 97, 168, 352
-0.997173, 97, 41, 352, 104
-0.997177, 363, 257, 378, 288
-0.997178, 387, 233, 402, 296
-0.997178, 161, 289, 176, 352
-0.99718, 455, 297, 470, 360
-0.99719, 161, 197, 176, 228
-0.997191, 157, 177, 172, 240
-0.997198, 119, 153, 134, 216
-0.997208, 141, 185, 156, 248
-0.997211, 205, 233, 220, 296
-0.997232, 143, 241, 158, 304
-0.997244, 129, 289, 144, 352
-0.997251, 273, 193, 288, 256
-0.997252, 427, 129, 442, 192
-0.997269, 257, 241, 384, 272
-0.997282, 333, 325, 348, 356
-0.997286, 49, 285, 176, 316
-0.997301, 49, 113, 176, 144
-0.997302, 97, 81, 224, 112
-0.997305, 63, 289, 78, 352
-0.997311, 195, 257, 210, 320
-0.997324, 113, 297, 128, 360
-0.997332, 1, 129, 128, 160
-0.997346, 97, 97, 224, 128
-0.997346, 375, 257, 390, 288
-0.997348, 449, 129, 480, 256
-0.997359, 289, 241, 320, 368
-0.997359, 375, 269, 390, 300
-0.997361, 193, 65, 224, 192
-0.997361, 55, 137, 70, 200
-0.997365, 1, 33, 128, 96
-0.997377, 123, 201, 138, 264
-0.997379, 49, 253, 176, 284
-0.99738, 253, 169, 268, 232
-0.997383, 9, 273, 24, 304
-0.997384, 19, 249, 34, 312
-0.997387, 455, 25, 470, 88
-0.997404, 1, 269, 16, 300
-0.997408, 177, 245, 304, 276
-0.997412, 469, 309, 484, 340
-0.997413, 93, 129, 124, 375
-0.997424, 123, 289, 138, 352
-0.997428, 469, 281, 484, 344
-0.997452, 337, 185, 464, 216
-0.997458, 145, 309, 272, 340
-0.997469, 225, 341, 352, 372
-0.997469, 1, 113, 128, 144
-0.997477, 51, 169, 66, 232
-0.997482, 145, 297, 272, 328
-0.997487, 145, 289, 160, 352
-0.997498, 369, 201, 496, 232
-0.997499, 133, 225, 148, 256
-0.997523, 5, 81, 36, 208
-0.997538, 97, 97, 352, 160
-0.997572, 163, 213, 178, 244
-0.997582, 353, 249, 480, 280
-0.997585, 157, 273, 172, 304
-0.997597, 289, 221, 416, 252
-0.997599, 353, 313, 480, 344
-0.997601, 321, 201, 448, 232
-0.997603, 177, 233, 304, 264
-0.997619, 193, 97, 224, 352
-0.997641, 1, 97, 32, 352
-0.997649, 181, 97, 212, 352
-0.997651, 97, 1, 352, 64
-0.997658, 321, 173, 448, 204
-0.99767, 161, 345, 288, 375
-0.997693, 385, 265, 400, 296
-0.997695, 1, 201, 128, 232
-0.997696, 1, 153, 128, 184
-0.997698, 27, 277, 42, 308
-0.997715, 167, 269, 182, 300
-0.997716, 105, 109, 120, 140
-0.99772, 225, 97, 480, 160
-0.997725, 57, 297, 72, 328
-0.997729, 117, 97, 148, 352
-0.997733, 305, 305, 432, 336
-0.997736, 1, 189, 128, 220
-0.997739, 21, 129, 52, 375
-0.997744, 171, 233, 186, 264
-0.997744, 353, 289, 480, 320
-0.99775, 253, 129, 284, 375
-0.99775, 145, 321, 272, 352
-0.997751, 1, 73, 500, 136
-0.997754, 313, 241, 344, 368
-0.997766, 145, 221, 160, 252
-0.997769, 145, 113, 272, 144
-0.997774, 171, 213, 186, 244
-0.997788, 113, 125, 128, 156
-0.997789, 1, 265, 128, 296
-0.99779, 369, 33, 432, 288
-0.997807, 63, 297, 78, 328
-0.997808, 165, 229, 180, 260
-0.997815, 365, 269, 380, 300
-0.997821, 485, 309, 500, 340
-0.997822, 477, 305, 492, 336
-0.997828, 13, 309, 28, 340
-0.997844, 33, 129, 64, 375
-0.997858, 51, 293, 66, 324
-0.997867, 385, 161, 416, 288
-0.997911, 165, 241, 180, 272
-0.997913, 221, 129, 252, 375
-0.997913, 365, 317, 380, 348
-0.99792, 1, 177, 128, 208
-0.997926, 49, 81, 176, 112
-0.997933, 305, 293, 432, 324
-0.997941, 11, 285, 26, 316
-0.997946, 91, 109, 106, 140
-0.997954, 113, 61, 240, 92
-0.997954, 205, 97, 236, 352
-0.997958, 163, 185, 178, 216
-0.997967, 29, 305, 44, 336
-0.997979, 83, 121, 98, 152
-0.99798, 305, 65, 432, 192
-0.997996, 225, 161, 352, 192
-0.997997, 43, 305, 58, 336
-0.998001, 145, 101, 272, 132
-0.998022, 375, 321, 390, 352
-0.998024, 417, 241, 448, 368
-0.998028, 483, 205, 498, 236
-0.998034, 9, 261, 24, 292
-0.998035, 189, 213, 204, 244
-0.998041, 481, 325, 496, 356
-0.998041, 209, 177, 336, 208
-0.998043, 339, 345, 354, 375
-0.998045, 1, 277, 128, 308
-0.998054, 19, 309, 34, 340
-0.998056, 73, 129, 104, 375
-0.998057, 465, 1, 496, 256
-0.998057, 179, 201, 194, 232
-0.998057, 225, 217, 352, 248
-0.998059, 125, 229, 140, 260
-0.998065, 191, 233, 206, 264
-0.99807, 107, 133, 122, 164
-0.998072, 453, 1, 484, 256
-0.998074, 209, 189, 336, 220
-0.998079, 359, 273, 374, 304
-0.998085, 21, 285, 36, 316
-0.998089, 169, 189, 184, 220
-0.998091, 131, 249, 146, 280
-0.998092, 393, 113, 424, 240
-0.998093, 305, 81, 432, 144
-0.9981, 169, 129, 200, 375
-0.9981, 369, 301, 496, 332
-0.99811, 157, 209, 172, 240
-0.998114, 1, 253, 16, 284
-0.998117, 161, 165, 176, 196
-0.998119, 375, 333, 390, 364
-0.998136, 351, 305, 366, 336
-0.998139, 299, 217, 314, 248
-0.998148, 291, 205, 306, 236
-0.998158, 257, 65, 500, 128
-0.998162, 465, 9, 480, 40
-0.998163, 5, 309, 20, 340
-0.998164, 151, 273, 166, 304
-0.998166, 365, 329, 380, 360
-0.998167, 37, 309, 52, 340
-0.998168, 203, 237, 218, 268
-0.998168, 35, 285, 50, 316
-0.998171, 41, 81, 72, 208
-0.998173, 257, 153, 500, 216
-0.998174, 393, 269, 408, 300
-0.998176, 151, 229, 166, 260
-0.998182, 443, 89, 458, 120
-0.998187, 353, 113, 480, 144
-0.99819, 181, 269, 196, 300
-0.998191, 133, 213, 148, 244
-0.998194, 175, 253, 190, 284
-0.998207, 369, 69, 496, 100
-0.99821, 465, 297, 480, 328
-0.99821, 17, 213, 144, 244
-0.998211, 45, 141, 60, 172
-0.998214, 195, 221, 210, 252
-0.99822, 451, 313, 466, 344
-0.998225, 45, 293, 60, 324
-0.99825, 429, 193, 444, 224
-0.998254, 113, 49, 240, 80
-0.998257, 1, 17, 500, 80
-0.998258, 1, 253, 128, 284
-0.99826, 49, 273, 176, 304
-0.998261, 475, 317, 490, 348
-0.998262, 141, 269, 156, 300
-0.99827, 91, 153, 106, 184
-0.998271, 113, 145, 128, 176
-0.998273, 453, 97, 468, 128
-0.998278, 417, 209, 432, 240
-0.998278, 369, 273, 496, 304
-0.99828, 447, 109, 462, 140
-0.998284, 463, 321, 478, 352
-0.998285, 333, 337, 348, 368
-0.998289, 155, 153, 170, 184
-0.998294, 445, 77, 460, 108
-0.998296, 81, 325, 208, 356
-0.998296, 185, 33, 248, 160
-0.998298, 283, 205, 298, 236
-0.998302, 381, 253, 396, 284
-0.998307, 145, 89, 272, 120
-0.99832, 265, 157, 280, 188
-0.99832, 305, 217, 320, 248
-0.998321, 83, 133, 98, 164
-0.998324, 113, 37, 240, 68
-0.99833, 51, 181, 66, 212
-0.998331, 353, 81, 480, 112
-0.998335, 307, 177, 322, 208
-0.998336, 471, 297, 486, 328
-0.998336, 161, 333, 288, 364
-0.998338, 49, 129, 80, 375
-0.998341, 93, 133, 108, 164
-0.998341, 99, 137, 114, 168
-0.998345, 457, 313, 488, 328
-0.998346, 281, 233, 312, 248
-0.998346, 49, 151, 80, 166
-0.998346, 137, 221, 168, 236
-0.998347, 385, 277, 416, 292
-0.998348, 37, 145, 68, 160
-0.998348, 117, 253, 148, 268
-0.998348, 101, 305, 132, 320
-0.998349, 281, 189, 296, 220
-0.998349, 137, 261, 168, 276
-0.99835, 417, 185, 448, 200
-0.99835, 129, 241, 160, 256
-0.998351, 1, 309, 32, 324
-0.998352, 153, 177, 184, 192
-0.998352, 429, 117, 460, 132
-0.998352, 437, 95, 468, 110
-0.998353, 313, 323, 344, 338
-0.998353, 345, 267, 376, 282
-0.998353, 289, 215, 320, 230
-0.998354, 369, 345, 384, 375
-0.998355, 45, 307, 76, 322
-0.998355, 349, 321, 380, 336
-0.998357, 169, 245, 200, 260
-0.998357, 17, 273, 48, 288
-0.998358, 117, 227, 148, 242
-0.998358, 441, 321, 472, 336
-0.998358, 295, 333, 310, 364
-0.998359, 397, 271, 428, 286
-0.998359, 145, 213, 176, 228
-0.998361, 139, 221, 154, 252
-0.998362, 333, 303, 364, 318
-0.998363, 353, 97, 480, 128
-0.998363, 1, 41, 500, 104
-0.998363, 465, 301, 496, 316
-0.998363, 353, 213, 480, 244
-0.998364, 117, 121, 148, 136
-0.998364, 189, 239, 220, 254
-0.998365, 449, 307, 480, 322
-0.998367, 29, 309, 60, 324
-0.998367, 281, 193, 312, 208
-0.998368, 143, 253, 158, 284
-0.998369, 129, 267, 160, 282
-0.99837, 21, 151, 52, 166
-0.998371, 121, 299, 152, 314
-0.998371, 349, 297, 380, 312
-0.998371, 461, 333, 492, 348
-0.998371, 309, 335, 340, 350
-0.998372, 349, 303, 380, 318
-0.998373, 137, 57, 152, 88
-0.998374, 157, 243, 188, 258
-0.998374, 361, 341, 376, 372
-0.998375, 233, 129, 264, 375
-0.998377, 45, 179, 76, 194
-0.998377, 21, 279, 52, 294
-0.998379, 45, 191, 76, 206
-0.99838, 341, 361, 372, 375
-0.99838, 45, 177, 60, 208
-0.998381, 81, 155, 112, 170
-0.998381, 129, 81, 160, 96
-0.998384, 37, 297, 68, 312
-0.998384, 289, 333, 320, 348
-0.998384, 269, 191, 300, 206
-0.998385, 369, 325, 496, 356
-0.998385, 15, 257, 30, 288
-0.998385, 433, 111, 464, 126
-0.998385, 155, 197, 170, 228
-0.998387, 329, 343, 360, 358
-0.998387, 193, 215, 224, 230
-0.998388, 89, 147, 120, 162
-0.998388, 29, 287, 60, 302
-0.998388, 337, 355, 368, 370
-0.998388, 53, 137, 84, 152
-0.998388, 101, 151, 132, 166
-0.998389, 165, 277, 196, 292
-0.998389, 157, 233, 172, 264
-0.99839, 333, 313, 348, 344
-0.998391, 145, 201, 176, 216
-0.998393, 225, 1, 352, 128
-0.998394, 373, 281, 404, 296
-0.998394, 329, 337, 360, 352
-0.998394, 275, 157, 290, 188
-0.998394, 369, 331, 400, 346
-0.998395, 445, 111, 476, 126
-0.998395, 197, 233, 212, 264
-0.998396, 45, 185, 76, 200
-0.998396, 137, 257, 152, 288
-0.998397, 469, 209, 500, 224
-0.998397, 353, 275, 384, 290
-0.998398, 21, 297, 36, 328
-0.998398, 149, 209, 164, 336
-0.998399, 141, 209, 156, 336
-0.9984, 17, 309, 48, 324
-0.9984, 137, 233, 168, 248
-0.998401, 457, 309, 472, 340
-0.998404, 157, 215, 188, 230
-0.998405, 129, 231, 192, 246
-0.998406, 329, 323, 360, 338
-0.998406, 261, 159, 292, 174
-0.998407, 169, 197, 200, 212
-0.998408, 313, 329, 344, 344
-0.998409, 293, 225, 324, 240
-0.998409, 281, 201, 312, 216
-0.99841, 129, 237, 192, 252
-0.99841, 129, 223, 192, 238
-0.998411, 107, 305, 122, 336
-0.998411, 145, 207, 176, 222
-0.998411, 477, 205, 492, 236
-0.998413, 321, 329, 384, 344
-0.998414, 73, 129, 104, 144
-0.998414, 427, 181, 442, 212
-0.998415, 463, 25, 478, 56
-0.998418, 281, 209, 312, 224
-0.998421, 349, 355, 380, 370
-0.998421, 1, 1, 256, 64
-0.998422, 165, 209, 180, 336
-0.998422, 353, 329, 384, 344
-0.998422, 177, 227, 208, 242
-0.998425, 49, 305, 64, 336
-0.998425, 141, 227, 172, 242
-0.998426, 469, 29, 484, 60
-0.998427, 437, 97, 452, 128
-0.998428, 257, 33, 320, 288
-0.998429, 9, 249, 24, 280
-0.99843, 141, 267, 172, 282
-0.998431, 457, 29, 488, 44
-0.998432, 49, 299, 80, 314
-0.998438, 149, 237, 180, 252
-0.998439, 73, 123, 136, 138
-0.998441, 159, 193, 174, 320
-0.998442, 169, 233, 200, 248
-0.998442, 61, 129, 92, 375
-0.998444, 361, 255, 392, 270
-0.998444, 185, 201, 200, 232
-0.998446, 97, 129, 128, 144
-0.998446, 5, 273, 36, 288
-0.998446, 49, 101, 176, 132
-0.998447, 321, 337, 384, 352
-0.998448, 353, 269, 416, 284
-0.998448, 125, 221, 156, 236
-0.99845, 145, 273, 176, 288
-0.998451, 1, 1, 128, 64
-0.998453, 1, 285, 32, 300
-0.998454, 85, 117, 116, 132
-0.998454, 453, 325, 484, 340
-0.998463, 293, 231, 324, 246
-0.998467, 353, 345, 384, 360
-0.998467, 337, 133, 464, 164
-0.998468, 97, 117, 128, 132
-0.99847, 373, 265, 404, 280
-0.998474, 469, 317, 500, 332
-0.998474, 173, 215, 204, 230
-0.998474, 145, 1, 176, 128
-0.998478, 165, 269, 196, 284
-0.99848, 169, 239, 200, 254
-0.998484, 1, 267, 32, 282
-0.998487, 153, 221, 184, 236
-0.998487, 361, 321, 392, 336
-0.998489, 329, 349, 360, 364
-0.998491, 85, 129, 116, 144
-0.998495, 145, 209, 208, 224
-0.998496, 145, 203, 208, 218
-0.998497, 353, 275, 416, 290
-0.998498, 105, 123, 136, 138
-0.998498, 153, 231, 216, 246
-0.998501, 329, 329, 360, 344
-0.998501, 153, 237, 216, 252
-0.998504, 157, 197, 188, 212
-0.998505, 177, 221, 208, 236
-0.998506, 321, 343, 384, 358
-0.998507, 445, 315, 476, 330
-0.99851, 345, 263, 408, 278
-0.998517, 129, 245, 192, 260
-0.998517, 469, 327, 500, 342
-0.998523, 157, 229, 188, 244
-0.998524, 157, 209, 188, 224
-0.998527, 365, 273, 396, 288
-0.998528, 461, 307, 492, 322
-0.998528, 49, 69, 176, 100
-0.998531, 81, 341, 208, 372
-0.998531, 321, 349, 384, 364
-0.998531, 329, 323, 392, 338
-0.998532, 145, 217, 208, 232
-0.998532, 289, 347, 352, 362
-0.998532, 145, 77, 272, 108
-0.998534, 133, 209, 148, 336
-0.998541, 113, 121, 176, 136
-0.998541, 169, 209, 200, 224
-0.998543, 153, 269, 216, 284
-0.998546, 377, 271, 408, 286
-0.998546, 289, 341, 352, 356
-0.99855, 73, 155, 136, 170
-0.998551, 153, 223, 216, 238
-0.998552, 73, 129, 136, 144
-0.998553, 129, 263, 192, 278
-0.998554, 281, 327, 344, 342
-0.998556, 257, 25, 500, 88
-0.998558, 433, 307, 496, 322
-0.998563, 357, 267, 388, 282
-0.998564, 49, 123, 112, 138
-0.998566, 113, 155, 176, 170
-0.998567, 81, 123, 112, 138
-0.998568, 9, 293, 72, 308
-0.99857, 169, 203, 200, 218
-0.99857, 321, 355, 384, 370
-0.998575, 113, 25, 240, 56
-0.998578, 129, 257, 192, 272
-0.998578, 145, 197, 208, 212
-0.99858, 1, 309, 64, 324
-0.998582, 433, 313, 496, 328
-0.998582, 113, 207, 176, 222
-0.998583, 361, 261, 392, 276
-0.998584, 169, 215, 232, 230
-0.998585, 105, 225, 168, 240
-0.998585, 281, 333, 344, 348
-0.998585, 113, 165, 176, 180
-0.998587, 17, 299, 80, 314
-0.998591, 41, 145, 104, 160
-0.998592, 329, 273, 392, 288
-0.998593, 105, 147, 168, 162
-0.998596, 433, 325, 496, 340
-0.998597, 81, 117, 144, 132
-0.998597, 9, 283, 72, 298
-0.998601, 169, 205, 232, 220
-0.998604, 145, 179, 208, 194
-0.998604, 369, 257, 432, 272
-0.998604, 121, 217, 184, 232
-0.998605, 385, 269, 448, 284
-0.998605, 17, 285, 48, 300
-0.998607, 9, 279, 40, 294
-0.998607, 257, 193, 320, 208
-0.998607, 105, 231, 168, 246
-0.998608, 113, 173, 176, 188
-0.998609, 185, 139, 248, 154
-0.998611, 145, 187, 208, 202
-0.998613, 113, 115, 176, 130
-0.998614, 153, 243, 216, 258
-0.998614, 105, 305, 168, 320
-0.998616, 49, 187, 112, 202
-0.998616, 1, 277, 64, 292
-0.998618, 49, 137, 112, 152
-0.998619, 153, 159, 216, 174
-0.99862, 105, 127, 168, 142
-0.99862, 289, 321, 352, 336
-0.99862, 81, 147, 144, 162
-0.99862, 193, 145, 256, 160
-0.998621, 157, 203, 188, 218
-0.998624, 225, 229, 352, 260
-0.998624, 329, 257, 392, 272
-0.998624, 129, 251, 192, 266
-0.998624, 49, 129, 112, 144
-0.998625, 409, 151, 472, 166
-0.998626, 137, 275, 200, 290
-0.998626, 153, 285, 216, 300
-0.998627, 17, 319, 80, 334
-0.998628, 185, 129, 248, 144
-0.998629, 145, 169, 208, 184
-0.99863, 49, 151, 112, 166
-0.998632, 265, 231, 328, 246
-0.998632, 129, 227, 160, 242
-0.998632, 425, 99, 488, 114
-0.998632, 105, 189, 168, 204
-0.998632, 73, 191, 136, 206
-0.998633, 233, 161, 296, 176
-0.998634, 121, 293, 184, 308
-0.998634, 57, 315, 120, 330
-0.998635, 41, 195, 104, 210
-0.998635, 425, 113, 488, 128
-0.998636, 409, 169, 472, 184
-0.998638, 369, 263, 432, 278
-0.998638, 313, 267, 376, 282
-0.998639, 9, 143, 72, 158
-0.998639, 9, 269, 72, 284
-0.998639, 153, 149, 216, 164
-0.998639, 73, 171, 136, 186
-0.998641, 73, 141, 136, 156
-0.998644, 105, 195, 168, 210
-0.998644, 113, 299, 176, 314
-0.998645, 49, 303, 112, 318
-0.998646, 297, 179, 360, 194
-0.998647, 377, 275, 440, 290
-0.998647, 257, 329, 320, 344
-0.998647, 161, 249, 224, 264
-0.998647, 129, 269, 192, 284
-0.998647, 257, 179, 320, 194
-0.998649, 257, 187, 320, 202
-0.998649, 249, 323, 312, 338
-0.99865, 361, 333, 424, 348
-0.99865, 289, 231, 352, 246
-0.99865, 369, 215, 432, 230
-0.998651, 409, 317, 472, 332
-0.998651, 113, 179, 176, 194
-0.998651, 361, 347, 424, 362
-0.998652, 89, 253, 152, 268
-0.998652, 369, 251, 432, 266
-0.998655, 257, 173, 320, 188
-0.998655, 249, 307, 312, 322
-0.998657, 241, 209, 304, 224
-0.998658, 105, 133, 168, 148
-0.998659, 105, 201, 168, 216
-0.998659, 25, 307, 88, 322
-0.998659, 145, 135, 208, 150
-0.99866, 193, 215, 256, 230
-0.998662, 73, 181, 136, 196
-0.998662, 249, 315, 312, 330
-0.998662, 281, 311, 344, 326
-0.998664, 105, 109, 168, 124
-0.998664, 89, 219, 152, 234
-0.998664, 145, 123, 208, 138
-0.998664, 361, 339, 424, 354
-0.99868, 321, 157, 448, 188
-0.998688, 225, 81, 352, 144
-0.998691, 369, 57, 496, 88
-0.998696, 153, 49, 184, 176
-0.998699, 93, 123, 124, 138
-0.99872, 361, 129, 392, 375
-0.998752, 441, 193, 472, 320
-0.998757, 225, 57, 352, 120
-0.998765, 305, 113, 336, 240
-0.998772, 165, 161, 180, 288
-0.998786, 159, 241, 174, 368
-0.998811, 337, 145, 464, 176
-0.998824, 225, 137, 352, 168
-0.998827, 273, 129, 304, 375
-0.998843, 171, 193, 186, 320
-0.998866, 99, 113, 114, 240
-0.998872, 127, 209, 142, 336
-0.998877, 369, 173, 496, 204
-0.998887, 153, 161, 168, 288
-0.998908, 405, 113, 436, 240
-0.998913, 113, 9, 240, 40
-0.998925, 421, 65, 452, 320
-0.998926, 365, 225, 380, 352
-0.99893, 409, 129, 440, 375
-0.998945, 125, 1, 156, 256
-0.998953, 197, 209, 212, 336
-0.998971, 257, 1, 500, 64
-0.998984, 49, 37, 176, 68
-0.999005, 169, 33, 200, 288
-0.999021, 345, 129, 376, 375
-0.999023, 77, 33, 108, 288
-0.99904, 159, 145, 174, 272
-0.999049, 441, 1, 472, 256
-0.999049, 1, 329, 128, 360
-0.999068, 107, 129, 122, 256
-0.999085, 161, 37, 288, 68
-0.999085, 161, 61, 288, 92
-0.999086, 177, 177, 192, 304
-0.999087, 225, 33, 352, 96
-0.999089, 203, 209, 218, 336
-0.999093, 93, 113, 108, 240
-0.999104, 333, 129, 364, 375
-0.99911, 49, 57, 176, 88
-0.999116, 141, 161, 156, 288
-0.999119, 187, 193, 202, 320
-0.999131, 373, 241, 388, 368
-0.99916, 97, 33, 128, 288
-0.999183, 373, 193, 388, 320
-0.999187, 1, 225, 16, 352
-0.999188, 173, 81, 204, 208
-0.999192, 85, 113, 100, 240
-0.99921, 21, 193, 36, 320
-0.99922, 359, 241, 374, 368
-0.999226, 373, 129, 404, 256
-0.999229, 11, 225, 26, 352
-0.999233, 241, 33, 272, 288
-0.999252, 269, 113, 300, 240
-0.999254, 147, 161, 162, 288
-0.999257, 113, 145, 128, 272
-0.999259, 39, 129, 54, 256
-0.999267, 197, 129, 212, 256
-0.999288, 307, 161, 322, 288
-0.999288, 131, 161, 146, 288
-0.999291, 427, 113, 442, 240
-0.999291, 45, 129, 60, 256
-0.999294, 373, 129, 404, 375
-0.999297, 289, 105, 416, 168
-0.999301, 75, 129, 90, 256
-0.999304, 259, 145, 274, 272
-0.999311, 53, 129, 68, 256
-0.999314, 33, 129, 48, 256
-0.999316, 209, 193, 224, 320
-0.999342, 153, 113, 168, 240
-0.999344, 175, 241, 190, 368
-0.99935, 121, 209, 136, 336
-0.999355, 23, 241, 38, 368
-0.999355, 153, 33, 184, 288
-0.99936, 467, 1, 482, 128
-0.999374, 365, 177, 380, 304
-0.999375, 253, 161, 268, 288
-0.99938, 435, 145, 450, 272
-0.999384, 293, 193, 308, 320
-0.999389, 437, 97, 452, 224
-0.999399, 353, 241, 368, 368
-0.999402, 445, 49, 460, 176
-0.999404, 379, 193, 394, 320
-0.999406, 119, 145, 134, 272
-0.999409, 283, 177, 298, 304
-0.999412, 137, 1, 168, 256
-0.999418, 241, 1, 368, 64
-0.999423, 221, 129, 236, 256
-0.999425, 17, 241, 32, 368
-0.999427, 483, 241, 498, 368
-0.999429, 141, 49, 156, 176
-0.999436, 27, 129, 42, 256
-0.999437, 231, 113, 246, 240
-0.999443, 265, 145, 280, 272
-0.999446, 243, 193, 258, 320
-0.99945, 7, 177, 22, 304
-0.999452, 31, 193, 46, 320
-0.99946, 59, 129, 74, 256
-0.999461, 215, 193, 230, 320
-0.999461, 11, 129, 26, 256
-0.999469, 217, 33, 248, 288
-0.999472, 233, 193, 248, 320
-0.999483, 69, 129, 84, 256
-0.999485, 419, 129, 434, 256
-0.999489, 147, 65, 162, 192
-0.999489, 215, 129, 230, 256
-0.999491, 359, 177, 374, 304
-0.999491, 193, 1, 224, 256
-0.999497, 385, 193, 400, 320
-0.999498, 321, 129, 384, 256
-0.999504, 107, 81, 122, 208
-0.999505, 171, 145, 186, 272
-0.999506, 221, 193, 236, 320
-0.999509, 187, 145, 202, 272
-0.999513, 135, 1, 150, 128
-0.999513, 33, 241, 48, 368
-0.999516, 459, 17, 474, 144
-0.999518, 453, 81, 468, 208
-0.99952, 1, 113, 16, 240
-0.999523, 189, 241, 204, 368
-0.999525, 97, 161, 112, 288
-0.999533, 445, 129, 460, 256
-0.999536, 335, 241, 350, 368
-0.999537, 243, 145, 258, 272
-0.999539, 433, 97, 464, 352
-0.99954, 237, 129, 252, 256
-0.99954, 207, 129, 222, 256
-0.999542, 379, 241, 394, 368
-0.999543, 301, 161, 316, 288
-0.999545, 413, 161, 428, 288
-0.999546, 21, 129, 36, 256
-0.99955, 89, 161, 104, 288
-0.999551, 471, 241, 486, 368
-0.999552, 473, 17, 488, 144
-0.999556, 119, 97, 134, 224
-0.999564, 227, 193, 242, 320
-0.999566, 125, 229, 140, 244
-0.999566, 103, 131, 118, 146
-0.999566, 1, 309, 16, 324
-0.999566, 163, 167, 178, 182
-0.999568, 333, 333, 348, 348
-0.999569, 107, 117, 122, 132
-0.99957, 371, 353, 386, 368
-0.99957, 467, 21, 482, 36
-0.99957, 141, 259, 156, 274
-0.99957, 175, 217, 190, 232
-0.99957, 27, 277, 42, 292
-0.99957, 479, 209, 494, 224
-0.999571, 97, 131, 112, 146
-0.999571, 95, 147, 110, 162
-0.999571, 131, 253, 146, 268
-0.999572, 161, 195, 176, 210
-0.999573, 183, 277, 198, 292
-0.999574, 429, 161, 444, 288
-0.999574, 199, 235, 214, 250
-0.999575, 93, 65, 108, 192
-0.999575, 171, 243, 186, 258
-0.999576, 327, 303, 342, 318
-0.999576, 101, 113, 116, 128
-0.999576, 293, 217, 308, 232
-0.999577, 49, 295, 64, 310
-0.999577, 455, 317, 470, 332
-0.999577, 283, 209, 298, 224
-0.999578, 277, 161, 292, 288
-0.999578, 365, 331, 380, 346
-0.999578, 351, 305, 366, 320
-0.999578, 437, 111, 452, 126
-0.999579, 281, 201, 296, 216
-0.999579, 333, 321, 348, 336
-0.999579, 153, 235, 168, 250
-0.99958, 361, 275, 376, 290
-0.999581, 293, 129, 324, 375
-0.999581, 477, 241, 492, 368
-0.999582, 289, 209, 304, 224
-0.999582, 135, 217, 150, 232
-0.999582, 125, 161, 140, 288
-0.999582, 461, 29, 476, 44
-0.999583, 485, 315, 500, 330
-0.999584, 115, 125, 130, 140
-0.999584, 333, 343, 348, 358
-0.999585, 367, 321, 382, 336
-0.999585, 365, 359, 380, 374
-0.999585, 115, 155, 130, 170
-0.999586, 181, 241, 196, 368
-0.999586, 301, 225, 316, 240
-0.999586, 479, 317, 494, 332
-0.999587, 39, 311, 54, 326
-0.999588, 125, 221, 140, 236
-0.99959, 11, 263, 26, 278
-0.99959, 53, 33, 84, 288
-0.99959, 375, 255, 390, 270
-0.999591, 307, 231, 322, 246
-0.999592, 287, 203, 302, 218
-0.999592, 91, 155, 106, 170
-0.999597, 63, 241, 78, 368
-0.999597, 175, 263, 190, 278
-0.999597, 163, 231, 178, 246
-0.999598, 171, 237, 186, 252
-0.999598, 295, 229, 310, 244
-0.999598, 447, 115, 462, 130
-0.999599, 143, 273, 158, 288
-0.999599, 421, 155, 436, 170
-0.9996, 259, 193, 274, 320
-0.9996, 313, 161, 328, 288
-0.9996, 477, 309, 492, 324
-0.999601, 37, 177, 52, 304
-0.999602, 467, 29, 482, 44
-0.999602, 451, 89, 466, 104
-0.999603, 365, 257, 380, 272
-0.999603, 193, 235, 208, 250
-0.999603, 301, 231, 316, 246
-0.999603, 83, 127, 98, 142
-0.999604, 157, 213, 172, 228
-0.999604, 375, 321, 390, 336
-0.999605, 251, 113, 266, 240
-0.999605, 469, 317, 484, 332
-0.999605, 35, 287, 50, 302
-0.999606, 89, 117, 104, 132
-0.999606, 439, 49, 454, 176
-0.999607, 377, 263, 392, 278
-0.999608, 357, 357, 372, 372
-0.999609, 395, 273, 410, 288
-0.999609, 387, 273, 402, 288
-0.999612, 345, 241, 360, 368
-0.999612, 1, 185, 500, 248
-0.999612, 295, 235, 310, 250
-0.999613, 481, 333, 496, 348
-0.999614, 335, 349, 350, 364
-0.999616, 299, 209, 314, 336
-0.999618, 115, 209, 130, 336
-0.99962, 143, 265, 158, 280
-0.99962, 271, 145, 286, 272
-0.99962, 165, 245, 180, 260
-0.999621, 375, 331, 390, 346
-0.999621, 485, 209, 500, 224
-0.999621, 179, 203, 194, 218
-0.999622, 169, 223, 184, 238
-0.999623, 141, 1, 156, 128
-0.999623, 353, 161, 368, 288
-0.999624, 369, 267, 384, 282
-0.999624, 387, 267, 402, 282
-0.999625, 447, 109, 462, 124
-0.999626, 9, 275, 24, 290
-0.999627, 333, 327, 348, 342
-0.999628, 11, 285, 26, 300
-0.999629, 463, 323, 478, 338
-0.99963, 125, 81, 140, 208
-0.999631, 149, 267, 164, 282
-0.999632, 481, 33, 496, 160
-0.999632, 133, 229, 148, 244
-0.999633, 95, 119, 110, 134
-0.999634, 465, 303, 480, 318
-0.999634, 157, 273, 172, 288
-0.999635, 167, 271, 182, 286
-0.99964, 99, 65, 114, 192
-0.999643, 173, 231, 188, 246
-0.999644, 449, 315, 464, 330
-0.999645, 79, 81, 94, 208
-0.999647, 89, 131, 104, 146
-0.99965, 197, 65, 212, 192
-0.99965, 249, 209, 264, 336
-0.999651, 371, 261, 386, 276
-0.999652, 57, 241, 72, 368
-0.999654, 63, 299, 78, 314
-0.999654, 1, 177, 16, 304
-0.999654, 459, 145, 474, 272
-0.999656, 15, 279, 30, 294
-0.999656, 29, 283, 44, 298
-0.999657, 369, 275, 384, 290
-0.999659, 55, 297, 70, 312
-0.999662, 171, 199, 186, 214
-0.999662, 469, 309, 484, 324
-0.999665, 109, 131, 124, 146
-0.999671, 135, 223, 150, 238
-0.999673, 361, 263, 376, 278
-0.999674, 163, 207, 178, 222
-0.999674, 479, 327, 494, 342
-0.999674, 483, 309, 498, 324
-0.99968, 75, 241, 90, 368
-0.999683, 283, 225, 298, 352
-0.999684, 15, 177, 30, 304
-0.999688, 101, 119, 116, 134
-0.999689, 171, 205, 186, 220
-0.99969, 15, 269, 30, 284
-0.99969, 169, 211, 184, 226
-0.999695, 313, 129, 344, 375
-0.999698, 361, 269, 376, 284
-0.999699, 163, 213, 178, 228
-0.999699, 169, 217, 184, 232
-0.999701, 21, 277, 36, 292
-0.999704, 473, 303, 488, 318
-0.99971, 375, 271, 390, 286
-0.999716, 165, 237, 180, 252
-0.999719, 485, 327, 500, 342
-0.99972, 257, 241, 288, 368
-0.999727, 145, 225, 160, 240
-0.999731, 21, 283, 36, 298
-0.99976, 161, 201, 176, 216
-0.999776, 99, 125, 114, 140
-0.999788, 321, 1, 448, 64
-0.999817, 445, 97, 476, 352
-0.999828, 89, 123, 104, 138
-0.999835, 109, 123, 124, 138
-0.999838, 261, 33, 292, 288
-0.999853, 17, 33, 48, 288
-0.999893, 229, 33, 260, 288
-0.9999, 41, 33, 72, 288
-0.999918, 397, 129, 428, 375
-0.999928, 29, 33, 60, 288
-0.999955, 377, 49, 440, 176
-1.00007, 65, 33, 96, 288
-1.00016, 17, 81, 48, 208
-1.00017, 385, 129, 416, 375
-1.00019, 353, 129, 384, 256
-1.00023, 273, 33, 304, 288
-1.00025, 181, 1, 212, 256
-1.00026, 5, 1, 36, 256
-1.00028, 453, 193, 484, 320
-1.00031, 465, 129, 496, 375
-1.00036, 113, 1, 144, 256
-1.00042, 393, 33, 424, 288
-1.00044, 461, 129, 492, 256
-1.00045, 53, 177, 84, 304
-1.00047, 109, 17, 140, 144
-1.00052, 205, 1, 236, 256
-1.0006, 209, 49, 272, 176
-1.00062, 285, 33, 316, 288
-1.00065, 373, 33, 404, 288
-1.00065, 305, 33, 336, 288
-1.00071, 205, 65, 236, 192
-1.00074, 409, 1, 440, 256
-1.00076, 461, 81, 492, 208
-1.00077, 273, 129, 400, 192
-1.00085, 353, 33, 384, 288
-1.00091, 321, 33, 352, 288
-1.00095, 341, 33, 372, 288
-1.001, 321, 33, 448, 96
-1.0012, 301, 241, 332, 368
-1.00126, 421, 1, 452, 128
-1.00128, 237, 65, 268, 192
-1.0014, 221, 81, 252, 208
-1.0014, 177, 33, 208, 160
-1.00142, 113, 1, 176, 128
-1.00148, 321, 1, 448, 128
-1.00157, 193, 1, 224, 128
-1.00158, 305, 57, 432, 120
-1.00169, 285, 97, 316, 224
-1.00175, 321, 113, 352, 240
-1.00176, 217, 241, 248, 368
-1.00177, 141, 49, 172, 176
-1.0018, 405, 65, 436, 192
-1.00188, 469, 193, 500, 320
-1.0019, 253, 97, 284, 224
-1.00213, 345, 81, 408, 208
-1.00223, 333, 113, 364, 240
-1.0023, 437, 1, 468, 128
-1.00242, 417, 49, 448, 176
-1.00278, 9, 17, 72, 144
-1.00297, 273, 33, 400, 96
-1.00316, 65, 177, 96, 304
-1.00353, 345, 33, 408, 288
-1.00357, 313, 33, 376, 288
-1.00474, 49, 33, 112, 160
-1.00523, 289, 33, 352, 288
-1.00575, 249, 1, 312, 128
-1.00598, 217, 1, 280, 128
-1.00866, 233, 49, 296, 176
-1.0094, 257, 65, 320, 192
-1.00989, 273, 1, 400, 128
-1.01054, 321, 81, 384, 208
-1.01094, 345, 33, 408, 160
-1.01244, 273, 1, 336, 128
-1.01247, 305, 33, 368, 160
-1.0134, 281, 65, 344, 192
-1.01415, 369, 1, 432, 128
