1902
-0.139182, 1, 1, 332, 500
-0.309029, 1, 225, 332, 480
-0.360257, 1, 129, 332, 384
-0.383331, 33, 1, 288, 500
-0.449133, 1, 1, 332, 256
-0.557401, 65, 257, 320, 500
-0.563918, 1, 129, 256, 384
-0.652534, 65, 1, 320, 256
-0.814244, 193, 193, 320, 448
-0.825769, 113, 1, 240, 500
-0.837791, 81, 193, 208, 448
-0.838465, 33, 1, 160, 500
-0.850936, 33, 257, 160, 500
-0.855832, 161, 1, 288, 500
-0.860442, 129, 193, 256, 448
-0.862947, 1, 353, 332, 480
-0.864567, 129, 97, 256, 352
-0.868285, 17, 161, 144, 416
-0.870997, 1, 241, 332, 368
-0.876762, 1, 177, 332, 304
-0.87855, 193, 97, 320, 352
-0.880147, 17, 1, 144, 256
-0.881266, 1, 129, 332, 256
-0.881364, 65, 97, 192, 352
-0.883737, 129, 1, 256, 256
-0.887294, 209, 1, 332, 500
-0.889199, 1, 1, 332, 128
-0.892164, 1, 305, 332, 432
-0.893993, 81, 1, 208, 256
-0.898162, 1, 81, 332, 208
-0.902588, 65, 209, 320, 336
-0.910255, 33, 353, 288, 480
-0.913412, 1, 305, 256, 432
-0.913571, 65, 113, 320, 240
-0.914214, 193, 1, 320, 256
-0.914448, 33, 257, 288, 384
-0.920602, 1, 161, 256, 288
-0.923129, 81, 225, 208, 352
-0.927062, 65, 65, 320, 192
-0.928105, 193, 209, 320, 336
-0.92863, 1, 273, 128, 400
-0.933221, 17, 321, 144, 448
-0.933282, 113, 177, 240, 304
-0.934101, 49, 145, 176, 272
-0.934828, 65, 353, 192, 480
-0.935274, 129, 81, 256, 208
-0.937556, 113, 353, 240, 480
-0.938928, 65, 1, 320, 128
-0.939124, 153, 289, 216, 416
-0.940286, 73, 353, 136, 480
-0.9403, 209, 193, 272, 320
-0.9405, 65, 257, 128, 384
-0.940666, 177, 257, 240, 384
-0.941565, 49, 273, 176, 400
-0.941578, 41, 305, 104, 432
-0.941783, 113, 273, 240, 400
-0.942544, 161, 337, 224, 464
-0.942723, 137, 209, 200, 336
-0.943085, 97, 177, 160, 304
-0.943097, 1, 369, 128, 496
-0.943605, 1, 321, 64, 448
-0.943612, 241, 161, 304, 288
-0.944028, 129, 33, 256, 160
-0.944312, 193, 161, 320, 288
-0.94552, 129, 129, 256, 256
-0.946282, 145, 225, 272, 352
-0.946852, 193, 337, 320, 464
-0.946906, 113, 129, 176, 256
-0.947081, 273, 353, 332, 480
-0.947142, 137, 97, 200, 224
-0.948061, 113, 225, 176, 352
-0.948317, 49, 369, 112, 496
-0.948569, 121, 369, 184, 496
-0.948648, 201, 129, 264, 256
-0.948674, 193, 1, 256, 128
-0.94887, 177, 1, 304, 128
-0.949114, 33, 193, 160, 320
-0.949501, 65, 33, 192, 160
-0.950284, 217, 217, 280, 280
-0.952052, 129, 49, 192, 176
-0.952226, 81, 81, 208, 208
-0.952617, 241, 97, 304, 224
-0.952665, 73, 161, 136, 288
-0.952843, 81, 305, 144, 432
-0.953212, 73, 409, 136, 472
-0.953284, 257, 241, 320, 368
-0.953414, 161, 81, 224, 208
-0.95344, 97, 65, 160, 192
-0.953575, 41, 257, 104, 384
-0.954657, 193, 65, 320, 192
-0.955189, 193, 113, 320, 240
-0.955521, 57, 81, 120, 208
-0.955597, 1, 145, 128, 272
-0.955642, 169, 209, 232, 336
-0.955883, 121, 209, 184, 272
-0.955942, 17, 81, 144, 208
-0.955994, 137, 161, 200, 288
-0.956335, 9, 161, 72, 288
-0.9564, 193, 49, 256, 176
-0.956637, 273, 369, 332, 432
-0.956715, 161, 337, 224, 400
-0.956909, 89, 225, 152, 352
-0.958236, 273, 305, 332, 432
-0.958679, 193, 257, 320, 384
-0.959141, 233, 49, 296, 176
-0.959515, 241, 185, 304, 248
-0.959866, 161, 377, 224, 440
-0.960221, 9, 273, 72, 400
-0.960723, 105, 273, 168, 400
-0.96087, 161, 33, 224, 160
-0.961216, 153, 305, 216, 368
-0.96188, 177, 161, 240, 288
-0.961919, 33, 161, 96, 288
-0.962156, 57, 305, 120, 368
-0.962245, 249, 209, 312, 272
-0.962447, 185, 337, 248, 400
-0.962545, 97, 177, 160, 240
-0.96257, 121, 241, 184, 304
-0.962596, 1, 369, 64, 496
-0.962709, 1, 185, 64, 248
-0.96282, 201, 257, 264, 384
-0.96282, 129, 289, 192, 416
-0.962827, 33, 297, 96, 360
-0.962843, 265, 17, 328, 144
-0.962987, 273, 393, 332, 456
-0.963639, 185, 321, 248, 448
-0.963902, 169, 265, 232, 328
-0.964076, 177, 401, 240, 464
-0.964348, 193, 1, 256, 64
-0.964474, 17, 225, 80, 352
-0.964637, 17, 1, 80, 128
-0.964768, 145, 105, 208, 168
-0.964787, 49, 385, 112, 448
-0.964923, 73, 281, 136, 344
-0.965065, 113, 145, 176, 208
-0.965167, 217, 1, 280, 128
-0.965185, 265, 97, 328, 224
-0.965334, 145, 233, 208, 296
-0.96547, 41, 209, 104, 336
-0.965741, 121, 185, 184, 248
-0.965758, 201, 193, 264, 448
-0.965955, 169, 217, 232, 280
-0.966097, 233, 209, 296, 336
-0.966132, 89, 113, 152, 240
-0.966137, 25, 369, 88, 496
-0.966414, 81, 257, 144, 500
-0.966747, 81, 201, 144, 264
-0.966836, 193, 217, 320, 280
-0.966898, 41, 257, 104, 500
-0.96699, 89, 145, 152, 208
-0.96712, 217, 185, 280, 248
-0.967158, 241, 145, 304, 208
-0.967315, 25, 273, 88, 336
-0.967347, 105, 297, 168, 360
-0.967414, 25, 201, 88, 264
-0.967882, 201, 361, 264, 424
-0.967925, 201, 105, 264, 168
-0.968011, 1, 321, 64, 384
-0.968173, 1, 1, 128, 128
-0.968188, 33, 65, 96, 192
-0.968253, 25, 113, 88, 240
-0.968332, 81, 345, 144, 408
-0.968379, 97, 369, 160, 496
-0.968392, 113, 225, 176, 480
-0.968536, 145, 281, 208, 344
-0.968619, 73, 161, 136, 416
-0.968685, 25, 321, 88, 384
-0.968883, 241, 225, 304, 480
-0.968955, 265, 177, 328, 304
-0.968997, 49, 265, 112, 328
-0.969047, 273, 425, 332, 488
-0.969118, 121, 273, 184, 336
-0.96929, 73, 369, 136, 432
-0.969303, 1, 241, 64, 304
-0.969371, 97, 409, 160, 472
-0.969779, 25, 225, 88, 288
-0.969792, 1, 217, 64, 280
-0.969807, 129, 161, 160, 288
-0.969845, 1, 377, 64, 440
-0.970056, 73, 1, 136, 128
-0.970136, 193, 241, 320, 304
-0.970284, 25, 393, 88, 456
-0.970309, 249, 233, 312, 296
-0.970405, 129, 193, 256, 256
-0.970415, 137, 1, 200, 128
-0.970472, 73, 169, 136, 232
-0.970499, 241, 369, 304, 496
-0.970695, 121, 385, 184, 448
-0.970726, 105, 1, 168, 128
-0.970747, 241, 321, 304, 448
-0.970775, 25, 161, 88, 224
-0.970929, 33, 353, 96, 416
-0.971036, 169, 289, 200, 416
-0.97105, 241, 121, 304, 184
-0.971069, 65, 409, 192, 472
-0.971099, 97, 121, 160, 184
-0.971295, 89, 257, 152, 320
-0.971305, 169, 257, 232, 500
-0.971374, 73, 353, 104, 480
-0.971691, 105, 321, 168, 448
-0.971948, 49, 409, 112, 472
-0.971981, 89, 225, 152, 288
-0.971999, 217, 145, 280, 208
-0.972148, 137, 257, 200, 500
-0.972327, 177, 89, 240, 152
-0.972502, 125, 177, 156, 240
-0.972543, 177, 129, 240, 384
-0.972623, 185, 257, 216, 384
-0.972677, 57, 121, 120, 184
-0.972713, 145, 177, 208, 240
-0.97272, 193, 209, 256, 272
-0.972738, 293, 321, 324, 448
-0.972759, 129, 217, 256, 280
-0.972856, 209, 193, 332, 256
-0.972892, 173, 273, 204, 336
-0.972916, 33, 161, 96, 416
-0.973059, 193, 257, 256, 320
-0.973174, 89, 321, 152, 384
-0.973233, 185, 369, 248, 496
-0.973258, 257, 41, 320, 104
-0.973359, 65, 233, 128, 296
-0.973483, 269, 177, 300, 304
-0.973585, 241, 97, 304, 160
-0.973623, 77, 409, 108, 472
-0.973709, 129, 1, 192, 64
-0.973752, 169, 1, 232, 64
-0.973774, 249, 17, 312, 80
-0.973984, 257, 329, 320, 392
-0.974077, 193, 129, 256, 192
-0.974177, 173, 313, 204, 376
-0.974291, 9, 305, 40, 432
-0.974367, 65, 209, 128, 336
-0.974383, 25, 321, 56, 448
-0.974384, 129, 97, 192, 352
-0.974407, 185, 313, 248, 376
-0.974448, 153, 73, 216, 136
-0.974458, 217, 41, 280, 104
-0.974873, 49, 385, 176, 448
-0.974877, 65, 201, 192, 264
-0.974937, 57, 201, 120, 264
-0.974965, 57, 337, 120, 400
-0.975116, 9, 225, 72, 480
-0.975132, 97, 1, 160, 256
-0.975139, 181, 321, 212, 448
-0.975159, 5, 201, 36, 264
-0.975328, 1, 161, 64, 224
-0.975447, 1, 289, 64, 352
-0.975505, 33, 1, 96, 256
-0.975551, 161, 289, 192, 352
-0.975571, 73, 273, 104, 400
-0.975572, 181, 337, 212, 400
-0.975638, 1, 345, 128, 408
-0.975684, 121, 361, 184, 424
-0.975699, 105, 97, 168, 352
-0.975795, 129, 433, 192, 496
-0.97584, 241, 433, 304, 496
-0.975973, 65, 345, 192, 408
-0.97601, 113, 241, 240, 304
-0.976022, 1, 265, 64, 328
-0.976101, 217, 97, 280, 352
-0.976114, 97, 409, 128, 472
-0.976166, 193, 345, 224, 408
-0.976231, 65, 313, 192, 376
-0.976489, 293, 337, 324, 400
-0.976517, 61, 353, 92, 480
-0.976548, 129, 169, 256, 232
-0.976621, 9, 129, 72, 384
-0.976693, 137, 49, 200, 112
-0.976816, 113, 369, 240, 432
-0.976825, 89, 433, 152, 496
-0.976865, 97, 73, 160, 136
-0.976918, 49, 33, 112, 96
-0.976919, 269, 97, 300, 224
-0.97697, 137, 129, 200, 192
-0.976976, 217, 1, 280, 64
-0.977021, 33, 65, 96, 128
-0.977035, 193, 361, 320, 424
-0.977123, 97, 289, 224, 352
-0.977147, 193, 25, 256, 88
-0.977167, 153, 161, 216, 416
-0.977172, 113, 33, 176, 96
-0.9772, 129, 113, 256, 176
-0.977219, 133, 241, 164, 368
-0.977233, 133, 209, 164, 272
-0.977304, 129, 329, 192, 392
-0.977361, 241, 353, 304, 416
-0.977385, 209, 321, 272, 448
-0.977405, 65, 265, 192, 328
-0.977473, 49, 289, 176, 352
-0.977548, 193, 369, 224, 432
-0.977579, 65, 385, 96, 448
-0.977584, 161, 1, 224, 256
-0.977585, 57, 305, 88, 368
-0.977589, 73, 65, 136, 128
-0.977649, 241, 1, 304, 128
-0.977669, 201, 241, 232, 368
-0.977759, 193, 169, 320, 232
-0.977767, 89, 273, 120, 400
-0.97778, 141, 113, 172, 240
-0.977788, 109, 409, 140, 472
-0.977798, 57, 273, 88, 336
-0.977896, 217, 193, 248, 320
-0.978061, 17, 201, 144, 264
-0.978132, 113, 345, 240, 408
-0.978155, 297, 313, 328, 376
-0.978163, 169, 241, 232, 304
-0.978192, 93, 321, 124, 448
-0.978222, 185, 177, 248, 240
-0.978232, 153, 25, 216, 88
-0.978254, 57, 145, 120, 208
-0.978255, 249, 129, 312, 384
-0.978274, 257, 257, 320, 320
-0.978275, 25, 249, 88, 312
-0.978283, 169, 337, 200, 464
-0.978417, 249, 161, 280, 288
-0.978497, 129, 409, 192, 472
-0.978582, 249, 65, 312, 128
-0.978595, 193, 385, 320, 448
-0.978646, 145, 209, 208, 272
-0.978666, 217, 1, 280, 256
-0.978693, 273, 225, 332, 288
-0.978732, 17, 161, 144, 224
-0.978796, 81, 433, 208, 496
-0.978928, 57, 433, 120, 496
-0.978973, 57, 65, 120, 320
-0.979034, 225, 209, 256, 272
-0.97906, 1, 321, 128, 384
-0.979094, 129, 9, 256, 72
-0.979221, 169, 129, 232, 192
-0.979233, 233, 409, 296, 472
-0.979237, 45, 297, 76, 360
-0.979249, 265, 89, 328, 152
-0.979259, 57, 89, 120, 152
-0.979274, 209, 1, 332, 64
-0.979277, 269, 209, 300, 272
-0.979296, 41, 17, 104, 144
-0.979307, 189, 273, 220, 336
-0.979315, 129, 57, 256, 120
-0.979326, 177, 289, 240, 352
-0.979377, 265, 113, 328, 176
-0.979422, 89, 41, 152, 104
-0.979473, 1, 289, 128, 352
-0.979527, 77, 321, 108, 384
-0.979537, 269, 177, 300, 240
-0.979561, 65, 225, 192, 288
-0.979657, 1, 369, 128, 432
-0.979678, 161, 1, 224, 500
-0.979712, 177, 65, 240, 128
-0.979732, 17, 409, 144, 472
-0.979744, 153, 161, 184, 288
-0.979782, 41, 305, 72, 432
-0.979788, 129, 145, 256, 208
-0.979804, 65, 177, 192, 240
-0.979823, 129, 1, 192, 256
-0.979833, 45, 145, 76, 272
-0.979873, 33, 1, 96, 500
-0.979898, 49, 33, 176, 96
-0.979907, 145, 209, 176, 336
-0.980028, 137, 153, 200, 216
-0.980077, 121, 369, 152, 496
-0.980122, 241, 33, 304, 288
-0.980161, 217, 81, 280, 144
-0.980165, 117, 153, 148, 216
-0.980171, 9, 25, 72, 88
-0.980174, 289, 361, 320, 424
-0.980188, 113, 393, 240, 456
-0.980201, 205, 193, 236, 320
-0.980261, 61, 305, 92, 432
-0.980353, 273, 1, 332, 64
-0.980364, 113, 265, 240, 328
-0.980387, 65, 73, 192, 136
-0.980406, 17, 225, 144, 288
-0.98044, 221, 177, 252, 240
-0.980452, 53, 257, 84, 384
-0.980557, 217, 241, 280, 304
-0.980586, 137, 145, 168, 208
-0.980601, 145, 289, 272, 352
-0.980603, 121, 105, 184, 168
-0.980628, 185, 209, 216, 336
-0.98065, 193, 153, 256, 216
-0.980657, 93, 113, 124, 240
-0.980687, 225, 145, 256, 272
-0.980753, 113, 89, 240, 152
-0.980818, 97, 1, 160, 500
-0.980864, 281, 353, 312, 480
-0.980865, 209, 1, 240, 64
-0.980889, 221, 1, 252, 128
-0.980909, 121, 113, 152, 240
-0.980926, 193, 321, 224, 448
-0.980985, 17, 193, 48, 256
-0.981086, 193, 105, 320, 168
-0.981128, 209, 337, 272, 400
-0.981188, 193, 233, 256, 296
-0.98127, 61, 337, 92, 400
-0.98128, 145, 169, 176, 232
-0.981315, 149, 225, 180, 288
-0.981356, 13, 169, 44, 232
-0.981364, 65, 145, 192, 208
-0.981367, 245, 225, 276, 288
-0.981451, 17, 265, 144, 328
-0.981452, 185, 369, 216, 496
-0.981485, 193, 1, 256, 256
-0.981499, 161, 81, 192, 208
-0.98153, 121, 1, 184, 500
-0.981555, 57, 1, 120, 500
-0.981582, 1, 1, 64, 500
-0.981597, 265, 233, 296, 296
-0.981616, 73, 281, 104, 344
-0.981679, 209, 145, 332, 208
-0.981682, 129, 81, 192, 144
-0.981728, 49, 177, 112, 240
-0.981758, 185, 305, 216, 368
-0.981777, 293, 1, 324, 128
-0.981797, 105, 177, 136, 304
-0.981875, 197, 209, 228, 272
-0.981934, 33, 89, 96, 152
-0.98197, 237, 145, 268, 272
-0.981988, 181, 33, 212, 160
-0.982056, 9, 345, 72, 408
-0.982096, 269, 153, 300, 216
-0.982146, 169, 225, 200, 352
-0.982177, 241, 385, 304, 448
-0.982242, 193, 337, 320, 400
-0.982288, 1, 353, 32, 480
-0.982293, 33, 177, 64, 304
-0.982301, 177, 33, 304, 96
-0.982378, 257, 201, 288, 264
-0.982438, 1, 113, 64, 240
-0.982519, 29, 265, 60, 328
-0.982542, 145, 313, 272, 376
-0.982565, 65, 145, 96, 272
-0.9826, 77, 377, 108, 440
-0.982741, 81, 89, 112, 152
-0.982761, 129, 33, 256, 96
-0.982782, 145, 33, 176, 160
-0.982786, 9, 1, 72, 256
-0.982802, 193, 81, 320, 144
-0.982812, 49, 121, 176, 184
-0.982813, 29, 201, 60, 264
-0.982847, 105, 193, 136, 256
-0.982874, 201, 129, 232, 256
-0.982935, 93, 145, 124, 208
-0.982961, 257, 241, 288, 368
-0.982972, 109, 369, 140, 496
-0.983002, 249, 113, 280, 240
-0.983054, 289, 33, 320, 96
-0.983071, 281, 225, 312, 352
-0.98309, 21, 273, 52, 400
-0.983105, 109, 305, 140, 432
-0.983238, 161, 265, 288, 328
-0.983254, 41, 273, 72, 336
-0.983281, 273, 257, 332, 500
-0.983346, 301, 377, 332, 440
-0.98335, 213, 209, 244, 272
-0.983382, 277, 233, 308, 296
-0.983386, 53, 17, 84, 144
-0.983403, 1, 49, 128, 112
-0.983487, 177, 57, 304, 120
-0.983515, 133, 33, 164, 160
-0.983555, 209, 337, 240, 400
-0.983557, 197, 1, 228, 64
-0.983578, 5, 361, 36, 424
-0.983599, 113, 225, 144, 352
-0.983619, 1, 49, 64, 176
-0.983636, 117, 225, 148, 288
-0.983663, 157, 273, 188, 400
-0.983749, 89, 121, 120, 184
-0.983756, 53, 393, 84, 456
-0.983823, 205, 241, 236, 304
-0.983825, 85, 369, 116, 496
-0.983826, 261, 49, 292, 176
-0.98394, 237, 177, 268, 240
-0.984008, 101, 257, 132, 384
-0.984117, 29, 289, 60, 352
-0.984119, 273, 1, 332, 256
-0.984259, 97, 369, 128, 496
-0.984321, 17, 145, 48, 272
-0.984541, 1, 321, 32, 384
-0.984574, 33, 153, 64, 216
-0.984583, 177, 105, 208, 168
-0.984616, 269, 129, 300, 192
-0.984649, 169, 337, 200, 400
-0.984697, 89, 273, 120, 336
-0.984706, 177, 409, 304, 472
-0.98474, 65, 409, 96, 472
-0.984764, 1, 193, 32, 320
-0.984836, 133, 113, 164, 176
-0.984836, 213, 113, 244, 240
-0.984843, 145, 289, 176, 416
-0.984935, 185, 393, 216, 456
-0.98495, 85, 433, 116, 496
-0.984993, 273, 49, 304, 112
-0.985007, 65, 209, 96, 336
-0.985022, 237, 1, 268, 128
-0.985066, 33, 97, 160, 160
-0.985134, 97, 169, 128, 232
-0.985134, 137, 241, 168, 304
-0.985148, 281, 17, 312, 144
-0.98515, 269, 257, 300, 320
-0.985161, 221, 145, 252, 208
-0.98518, 293, 1, 324, 64
-0.985265, 117, 161, 148, 288
-0.985277, 81, 97, 112, 224
-0.985304, 205, 185, 236, 248
-0.985314, 269, 105, 300, 168
-0.985343, 5, 225, 36, 288
-0.985362, 285, 433, 316, 496
-0.985364, 109, 65, 140, 192
-0.985379, 241, 201, 272, 264
-0.98544, 89, 337, 120, 400
-0.985472, 121, 433, 152, 496
-0.985488, 13, 353, 44, 480
-0.985522, 53, 193, 84, 320
-0.985627, 237, 137, 268, 200
-0.985638, 273, 129, 332, 384
-0.985652, 33, 177, 64, 240
-0.985665, 85, 225, 116, 352
-0.985702, 85, 297, 116, 360
-0.985768, 233, 193, 264, 320
-0.985838, 225, 1, 256, 64
-0.985849, 65, 1, 96, 128
-0.985871, 269, 257, 300, 384
-0.985886, 33, 433, 160, 496
-0.985903, 17, 225, 48, 288
-0.985953, 49, 369, 80, 496
-0.985974, 105, 313, 136, 376
-0.986065, 141, 161, 172, 288
-0.9861, 17, 377, 48, 440
-0.986118, 249, 145, 280, 208
-0.986141, 185, 1, 248, 500
-0.986189, 53, 33, 84, 96
-0.98623, 265, 1, 328, 500
-0.986255, 121, 409, 152, 472
-0.986257, 225, 97, 256, 224
-0.986277, 129, 417, 256, 480
-0.986282, 165, 105, 196, 168
-0.986289, 65, 9, 192, 72
-0.986311, 277, 385, 308, 448
-0.986331, 9, 257, 40, 384
-0.9864, 197, 97, 228, 160
-0.986405, 17, 249, 48, 312
-0.986426, 281, 97, 312, 224
-0.986503, 209, 33, 240, 160
-0.986511, 29, 97, 60, 224
-0.986558, 149, 105, 180, 168
-0.98657, 285, 313, 316, 376
-0.986588, 185, 241, 216, 304
-0.986666, 189, 81, 220, 208
-0.98676, 209, 313, 332, 376
-0.986771, 217, 113, 248, 176
-0.986818, 29, 393, 60, 456
-0.98685, 241, 25, 272, 88
-0.98685, 81, 161, 112, 224
-0.98685, 17, 321, 48, 384
-0.986883, 81, 161, 112, 288
-0.987061, 33, 225, 64, 288
-0.987071, 217, 1, 280, 500
-0.987103, 169, 17, 200, 144
-0.98713, 149, 313, 180, 376
-0.98714, 205, 321, 236, 448
-0.987236, 193, 1, 224, 128
-0.987243, 113, 129, 144, 192
-0.987387, 297, 369, 328, 496
-0.987484, 133, 49, 164, 112
-0.987496, 33, 313, 64, 376
-0.987518, 33, 241, 64, 368
-0.987522, 173, 81, 204, 208
-0.987611, 245, 225, 276, 352
-0.987619, 233, 49, 264, 176
-0.987633, 61, 9, 92, 72
-0.987637, 145, 81, 176, 144
-0.987731, 273, 81, 304, 144
-0.987792, 209, 433, 332, 496
-0.987807, 105, 257, 136, 320
-0.98785, 157, 201, 188, 264
-0.987871, 61, 65, 92, 192
-0.987932, 221, 33, 252, 96
-0.987979, 237, 1, 268, 64
-0.988049, 21, 225, 52, 352
-0.988188, 233, 257, 296, 384
-0.98819, 221, 89, 252, 152
-0.988209, 45, 153, 76, 216
-0.988226, 129, 369, 160, 432
-0.988267, 45, 225, 76, 288
-0.988332, 133, 353, 164, 480
-0.988403, 249, 17, 280, 144
-0.988403, 49, 249, 80, 312
-0.98841, 209, 89, 240, 152
-0.988422, 81, 241, 112, 304
-0.988451, 237, 97, 268, 224
-0.988549, 173, 81, 204, 144
-0.988562, 217, 225, 280, 256
-0.988563, 41, 393, 72, 456
-0.988594, 181, 369, 212, 432
-0.988611, 133, 25, 164, 88
-0.988614, 157, 225, 188, 352
-0.988626, 117, 249, 148, 312
-0.988644, 41, 201, 72, 264
-0.988684, 1, 73, 128, 136
-0.988961, 25, 369, 56, 496
-0.989013, 17, 1, 144, 64
-0.989218, 269, 1, 300, 128
-0.989242, 65, 309, 128, 340
-0.989269, 201, 353, 264, 384
-0.989277, 121, 225, 184, 256
-0.989332, 209, 265, 332, 328
-0.989348, 37, 353, 68, 480
-0.989371, 121, 273, 152, 400
-0.989418, 221, 49, 252, 176
-0.989457, 289, 177, 320, 304
-0.989542, 105, 193, 168, 224
-0.989565, 261, 337, 292, 464
-0.989583, 1, 233, 256, 296
-0.989598, 241, 201, 304, 232
-0.989648, 217, 237, 280, 268
-0.989653, 241, 1, 304, 500
-0.989677, 33, 321, 96, 352
-0.989729, 33, 409, 288, 472
-0.989741, 249, 221, 312, 252
-0.989748, 1, 137, 128, 200
-0.989758, 41, 281, 104, 312
-0.989759, 65, 177, 320, 240
-0.9898, 217, 369, 280, 496
-0.989807, 41, 17, 72, 144
-0.989847, 169, 293, 232, 324
-0.98989, 217, 213, 280, 244
-0.989904, 161, 353, 224, 384
-0.989959, 121, 245, 184, 276
-0.989981, 161, 377, 224, 408
-0.99005, 65, 209, 320, 272
-0.990052, 81, 413, 144, 444
-0.990084, 281, 273, 312, 400
-0.990085, 105, 205, 168, 236
-0.9901, 273, 401, 332, 432
-0.990104, 301, 273, 332, 400
-0.990113, 161, 365, 224, 396
-0.990146, 193, 289, 320, 352
-0.990183, 97, 181, 160, 212
-0.990189, 241, 153, 304, 184
-0.99021, 189, 161, 220, 288
-0.990217, 241, 185, 304, 216
-0.990222, 185, 277, 248, 308
-0.990255, 153, 305, 216, 336
-0.990258, 1, 281, 256, 344
-0.990259, 153, 317, 216, 348
-0.990262, 241, 141, 304, 172
-0.990287, 177, 341, 240, 372
-0.990296, 17, 193, 80, 224
-0.990335, 161, 397, 224, 428
-0.990406, 129, 173, 192, 204
-0.990414, 41, 309, 104, 340
-0.990418, 49, 397, 112, 428
-0.990446, 25, 1, 56, 128
-0.99045, 45, 97, 76, 224
-0.990471, 81, 209, 144, 240
-0.990479, 249, 65, 280, 192
-0.990518, 249, 233, 312, 264
-0.990526, 273, 389, 332, 420
-0.99054, 1, 221, 64, 252
-0.9906, 73, 297, 136, 328
-0.990632, 241, 129, 304, 160
-0.990654, 177, 413, 240, 444
-0.990692, 249, 249, 312, 280
-0.990704, 25, 205, 88, 236
-0.990708, 25, 381, 88, 412
-0.990713, 173, 129, 204, 256
-0.990731, 1, 209, 64, 240
-0.990734, 273, 329, 332, 360
-0.990743, 273, 461, 332, 492
-0.990746, 241, 169, 304, 200
-0.99078, 25, 225, 88, 256
-0.990791, 161, 281, 224, 312
-0.990803, 25, 405, 88, 436
-0.99081, 145, 237, 208, 268
-0.990812, 137, 189, 200, 220
-0.990817, 193, 9, 256, 40
-0.990822, 105, 313, 168, 344
-0.990823, 273, 373, 332, 404
-0.990831, 201, 365, 264, 396
-0.990832, 129, 133, 192, 164
-0.990929, 249, 97, 312, 128
-0.990931, 41, 297, 104, 328
-0.990934, 97, 149, 160, 180
-0.990979, 89, 237, 152, 268
-0.990995, 249, 41, 312, 72
-0.990999, 193, 33, 256, 64
-0.991005, 273, 413, 332, 444
-0.991008, 121, 381, 184, 412
-0.991035, 129, 297, 192, 328
-0.991048, 57, 321, 120, 352
-0.991052, 121, 401, 184, 432
-0.991058, 217, 181, 280, 212
-0.991061, 149, 369, 180, 496
-0.991069, 9, 277, 72, 308
-0.991084, 81, 49, 112, 176
-0.991084, 145, 113, 208, 144
-0.991103, 33, 329, 288, 392
-0.99111, 101, 17, 132, 144
-0.991119, 65, 341, 128, 372
-0.991125, 73, 445, 136, 476
-0.991142, 193, 133, 256, 164
-0.991173, 193, 213, 256, 244
-0.991177, 249, 53, 312, 84
-0.991187, 145, 329, 208, 360
-0.991189, 81, 193, 144, 224
-0.991192, 217, 153, 280, 184
-0.991201, 129, 53, 192, 84
-0.991204, 185, 393, 248, 424
-0.991214, 49, 353, 112, 384
-0.991215, 177, 225, 240, 256
-0.991224, 57, 417, 120, 448
-0.991226, 25, 237, 88, 268
-0.991226, 129, 445, 192, 476
-0.991248, 81, 221, 144, 252
-0.991259, 73, 181, 136, 212
-0.991262, 257, 25, 320, 56
-0.991265, 41, 269, 104, 300
-0.991265, 273, 425, 332, 456
-0.991279, 97, 457, 160, 488
-0.991288, 145, 201, 208, 232
-0.991291, 249, 109, 312, 140
-0.991292, 81, 369, 144, 400
-0.991298, 209, 49, 272, 80
-0.991313, 89, 137, 152, 168
-0.991313, 201, 81, 232, 208
-0.991319, 193, 109, 256, 140
-0.991325, 121, 369, 184, 400
-0.991326, 157, 17, 188, 144
-0.991333, 41, 69, 104, 100
-0.991348, 169, 17, 232, 48
-0.991361, 97, 333, 160, 364
-0.991372, 129, 65, 192, 96
-0.991387, 273, 361, 332, 392
-0.9914, 177, 169, 240, 200
-0.991403, 201, 369, 232, 496
-0.991412, 177, 245, 240, 276
-0.991414, 65, 113, 320, 176
-0.991415, 177, 265, 240, 296
-0.991425, 89, 161, 152, 192
-0.991428, 169, 1, 232, 32
-0.991431, 1, 325, 64, 356
-0.991436, 57, 201, 120, 232
-0.991445, 105, 257, 168, 288
-0.991455, 217, 141, 280, 172
-0.991455, 177, 65, 240, 96
-0.991459, 137, 285, 200, 316
-0.991475, 89, 349, 152, 380
-0.991476, 137, 21, 200, 52
-0.991497, 1, 241, 64, 272
-0.991499, 129, 161, 192, 192
-0.9915, 57, 429, 120, 460
-0.991502, 49, 217, 112, 248
-0.991502, 65, 25, 320, 88
-0.99151, 161, 129, 224, 160
-0.991517, 217, 197, 280, 228
-0.991517, 193, 289, 256, 320
-0.991561, 129, 5, 192, 36
-0.991575, 1, 361, 256, 424
-0.991577, 249, 357, 312, 388
-0.991585, 73, 269, 136, 300
-0.991585, 185, 121, 248, 152
-0.99159, 265, 341, 328, 372
-0.991609, 217, 169, 280, 200
-0.991616, 97, 445, 160, 476
-0.991616, 93, 161, 124, 288
-0.991772, 1, 25, 128, 88
-0.991802, 121, 65, 152, 192
-0.991927, 117, 17, 148, 144
-0.992003, 1, 257, 256, 320
-0.992097, 297, 329, 328, 360
-0.992107, 233, 289, 264, 416
-0.992121, 65, 137, 320, 200
-0.9922, 1, 305, 332, 368
-0.992287, 189, 397, 220, 428
-0.992295, 177, 285, 208, 316
-0.9923, 77, 1, 108, 128
-0.992326, 1, 1, 32, 128
-0.992328, 1, 385, 256, 448
-0.992329, 1, 49, 32, 176
-0.992365, 33, 305, 288, 368
-0.992374, 225, 217, 256, 248
-0.992419, 269, 241, 300, 272
-0.992473, 269, 189, 300, 220
-0.992473, 65, 433, 320, 496
-0.992484, 125, 193, 156, 224
-0.992484, 173, 297, 204, 328
-0.99251, 213, 241, 244, 368
-0.992529, 193, 365, 224, 396
-0.992549, 293, 49, 324, 176
-0.992566, 301, 457, 332, 488
-0.992592, 173, 333, 204, 364
-0.992592, 133, 177, 164, 208
-0.992637, 121, 177, 152, 208
-0.992655, 289, 341, 320, 372
-0.992656, 1, 193, 332, 256
-0.992656, 53, 33, 84, 64
-0.992676, 53, 281, 84, 312
-0.992676, 193, 377, 224, 408
-0.99268, 289, 37, 320, 68
-0.992682, 189, 341, 220, 372
-0.992685, 189, 277, 220, 308
-0.99269, 161, 301, 192, 332
-0.992707, 249, 241, 280, 272
-0.99271, 1, 361, 332, 424
-0.99272, 5, 209, 36, 240
-0.992723, 57, 305, 88, 336
-0.992724, 205, 353, 236, 384
-0.992754, 73, 281, 104, 312
-0.992758, 257, 189, 288, 220
-0.992761, 269, 201, 300, 232
-0.992768, 269, 173, 300, 204
-0.99277, 61, 321, 92, 352
-0.992772, 157, 237, 188, 268
-0.992772, 145, 241, 176, 272
-0.992773, 1, 409, 332, 472
-0.992774, 193, 233, 320, 264
-0.992778, 205, 209, 236, 240
-0.992808, 173, 349, 204, 380
-0.992811, 221, 353, 252, 384
-0.992811, 289, 353, 320, 384
-0.992813, 129, 209, 160, 240
-0.992817, 89, 313, 120, 344
-0.992826, 69, 421, 100, 452
-0.992831, 257, 225, 288, 256
-0.992831, 53, 405, 84, 436
-0.992838, 245, 209, 276, 240
-0.992839, 269, 137, 300, 168
-0.99284, 269, 229, 300, 260
-0.992846, 1, 365, 32, 396
-0.992857, 193, 265, 224, 296
-0.99286, 81, 329, 112, 360
-0.992868, 193, 353, 224, 384
-0.99287, 221, 177, 252, 208
-0.992877, 301, 397, 332, 428
-0.992883, 217, 201, 248, 232
-0.992886, 77, 305, 108, 336
-0.992894, 1, 217, 332, 280
-0.992896, 145, 181, 176, 212
-0.992898, 265, 253, 296, 284
-0.992898, 1, 249, 332, 312
-0.992899, 5, 197, 36, 228
-0.992909, 173, 321, 204, 352
-0.992912, 33, 193, 64, 224
-0.992913, 185, 297, 216, 328
-0.99292, 289, 25, 320, 56
-0.992922, 41, 325, 72, 356
-0.992923, 269, 157, 300, 188
-0.992924, 13, 221, 44, 252
-0.992931, 285, 469, 316, 500
-0.992932, 269, 53, 300, 84
-0.992935, 181, 409, 212, 440
-0.992937, 41, 281, 72, 312
-0.992941, 289, 9, 320, 40
-0.992944, 201, 9, 232, 40
-0.992945, 117, 453, 148, 484
-0.992951, 237, 141, 268, 172
-0.992952, 177, 309, 208, 340
-0.992952, 129, 133, 160, 164
-0.992958, 53, 293, 84, 324
-0.992962, 193, 409, 224, 440
-0.992963, 129, 249, 160, 280
-0.992963, 25, 225, 56, 256
-0.992966, 273, 105, 304, 136
-0.992967, 85, 413, 116, 444
-0.99297, 29, 277, 60, 308
-0.992975, 285, 325, 316, 356
-0.992979, 25, 213, 56, 244
-0.992983, 137, 165, 168, 196
-0.99299, 73, 345, 104, 376
-0.992994, 17, 197, 48, 228
-0.992995, 65, 37, 96, 68
-0.992997, 105, 193, 136, 224
-0.992999, 113, 237, 144, 268
-0.992999, 245, 185, 276, 216
-0.993002, 221, 161, 252, 192
-0.993005, 249, 161, 280, 192
-0.993009, 9, 381, 40, 412
-0.993009, 233, 177, 264, 208
-0.99301, 221, 189, 252, 220
-0.993013, 237, 229, 268, 260
-0.993016, 81, 265, 112, 296
-0.99302, 269, 89, 300, 120
-0.993027, 65, 57, 96, 88
-0.993028, 85, 121, 116, 152
-0.993028, 117, 165, 148, 196
-0.993029, 61, 349, 92, 380
-0.993036, 133, 229, 164, 260
-0.993037, 241, 33, 272, 64
-0.993037, 121, 441, 152, 472
-0.993038, 105, 213, 136, 244
-0.993038, 1, 229, 32, 260
-0.993044, 253, 253, 284, 284
-0.993046, 205, 341, 236, 372
-0.993047, 113, 149, 144, 180
-0.993048, 257, 177, 288, 208
-0.99305, 109, 413, 140, 444
-0.993051, 301, 341, 332, 372
-0.993051, 281, 389, 312, 420
-0.993054, 73, 293, 104, 324
-0.993054, 289, 369, 320, 400
-0.993055, 133, 61, 164, 92
-0.993066, 229, 1, 260, 32
-0.993066, 89, 137, 120, 168
-0.993072, 241, 45, 272, 76
-0.993073, 269, 213, 300, 244
-0.993073, 209, 169, 240, 200
-0.993077, 161, 313, 192, 344
-0.993079, 65, 405, 96, 436
-0.993086, 29, 397, 60, 428
-0.993091, 49, 53, 80, 84
-0.993097, 177, 273, 208, 304
-0.993099, 221, 13, 252, 44
-0.993101, 13, 181, 44, 212
-0.993103, 277, 253, 308, 284
-0.993105, 217, 229, 248, 260
-0.993107, 145, 229, 176, 260
-0.993107, 65, 1, 320, 64
-0.993283, 197, 337, 212, 400
-0.993352, 1, 337, 332, 400
-0.993388, 1, 33, 332, 96
-0.993463, 209, 245, 332, 276
-0.993488, 209, 221, 332, 252
-0.993543, 1, 161, 332, 224
-0.993544, 65, 89, 320, 152
-0.993566, 1, 281, 332, 344
-0.993608, 1, 385, 332, 448
-0.993665, 1, 1, 332, 64
-0.993677, 145, 217, 272, 248
-0.993713, 65, 49, 320, 112
-0.99372, 187, 273, 202, 336
-0.993834, 185, 305, 200, 368
-0.993957, 181, 281, 196, 344
-0.99408, 203, 369, 218, 432
-0.994086, 129, 177, 256, 208
-0.99414, 113, 237, 240, 268
-0.99421, 65, 417, 192, 448
-0.994252, 301, 313, 316, 376
-0.994327, 295, 337, 310, 400
-0.994332, 33, 285, 160, 316
-0.99442, 185, 329, 200, 392
-0.994441, 1, 137, 332, 200
-0.994517, 65, 229, 192, 260
-0.99453, 193, 257, 320, 288
-0.994649, 113, 249, 240, 280
-0.994653, 113, 373, 240, 404
-0.994674, 87, 409, 102, 472
-0.994684, 97, 293, 224, 324
-0.994715, 193, 393, 320, 424
-0.994722, 27, 201, 42, 264
-0.994733, 209, 209, 332, 240
-0.994747, 65, 349, 192, 380
-0.994759, 149, 217, 164, 280
-0.994762, 197, 361, 212, 424
-0.994763, 193, 365, 320, 396
-0.994765, 157, 225, 172, 288
-0.994767, 315, 377, 330, 440
-0.994781, 1, 113, 332, 176
-0.994783, 177, 381, 304, 412
-0.994814, 175, 281, 190, 344
-0.994845, 77, 377, 92, 440
-0.994855, 119, 409, 134, 472
-0.994881, 1, 369, 128, 400
-0.994888, 65, 317, 192, 348
-0.994902, 65, 373, 192, 404
-0.994922, 65, 361, 192, 392
-0.994925, 81, 265, 208, 296
-0.994929, 113, 277, 240, 308
-0.994942, 295, 1, 310, 64
-0.994943, 17, 321, 144, 352
-0.994973, 203, 345, 218, 408
-0.994983, 191, 297, 206, 360
-0.995003, 97, 213, 224, 244
-0.99502, 33, 389, 160, 420
-0.995022, 113, 357, 240, 388
-0.99505, 211, 209, 226, 272
-0.99507, 65, 289, 80, 352
-0.995073, 99, 113, 114, 176
-0.995099, 295, 33, 310, 96
-0.995106, 129, 53, 256, 84
-0.995109, 75, 409, 90, 472
-0.995112, 113, 129, 240, 160
-0.995114, 105, 137, 120, 200
-0.995129, 69, 393, 84, 456
-0.995131, 49, 217, 176, 248
-0.995132, 113, 401, 240, 432
-0.995147, 1, 353, 128, 384
-0.995154, 209, 17, 332, 48
-0.995202, 281, 217, 296, 280
-0.995228, 55, 273, 70, 336
-0.995248, 177, 313, 192, 376
-0.99525, 125, 409, 140, 472
-0.995257, 1, 433, 332, 496
-0.995301, 81, 321, 96, 384
-0.995313, 49, 57, 176, 88
-0.995322, 49, 429, 176, 460
-0.995334, 49, 181, 176, 212
-0.995343, 139, 177, 154, 240
-0.995375, 17, 201, 144, 232
-0.995388, 113, 409, 128, 472
-0.995394, 49, 45, 176, 76
-0.995396, 77, 273, 92, 336
-0.995416, 55, 33, 70, 96
-0.995428, 49, 305, 176, 336
-0.995459, 97, 409, 112, 472
-0.995459, 97, 201, 224, 232
-0.995461, 177, 269, 304, 300
-0.995462, 209, 193, 332, 224
-0.995462, 17, 229, 144, 260
-0.995477, 217, 177, 232, 240
-0.99549, 193, 1, 320, 32
-0.995494, 283, 377, 298, 440
-0.995494, 193, 273, 208, 336
-0.99551, 129, 21, 256, 52
-0.995512, 205, 225, 236, 480
-0.995519, 27, 161, 42, 224
-0.995551, 193, 405, 320, 436
-0.995551, 91, 81, 106, 144
-0.995557, 7, 201, 22, 264
-0.99556, 3, 321, 18, 384
-0.995564, 209, 177, 332, 208
-0.995605, 301, 9, 316, 72
-0.995607, 55, 297, 70, 360
-0.995608, 145, 305, 272, 336
-0.995621, 255, 201, 270, 264
-0.995628, 193, 385, 208, 448
-0.995636, 47, 289, 62, 352
-0.995642, 71, 305, 86, 368
-0.995646, 145, 109, 272, 140
-0.995651, 75, 329, 90, 392
-0.995668, 213, 241, 228, 304
-0.995674, 17, 401, 144, 432
-0.995693, 65, 337, 192, 368
-0.995698, 143, 201, 158, 264
-0.995705, 33, 273, 160, 304
-0.995716, 231, 185, 246, 248
-0.995721, 289, 345, 304, 408
-0.99576, 37, 201, 52, 264
-0.995764, 317, 409, 332, 472
-0.995789, 261, 209, 276, 272
-0.995791, 189, 105, 204, 168
-0.995797, 283, 185, 298, 248
-0.995798, 115, 177, 130, 240
-0.995818, 73, 353, 88, 416
-0.995822, 127, 225, 142, 288
-0.995839, 81, 441, 208, 472
-0.995845, 261, 153, 276, 216
-0.995862, 213, 1, 228, 64
-0.995865, 81, 409, 96, 472
-0.995884, 145, 177, 160, 240
-0.99589, 151, 241, 166, 304
-0.995897, 209, 165, 332, 196
-0.995903, 129, 165, 256, 196
-0.995907, 129, 33, 256, 64
-0.995927, 193, 129, 320, 160
-0.995932, 237, 177, 252, 240
-0.995941, 63, 265, 78, 328
-0.995944, 103, 409, 118, 472
-0.995949, 177, 41, 304, 72
-0.995987, 35, 169, 50, 232
-0.996005, 21, 369, 36, 432
-0.996009, 309, 337, 324, 400
-0.996014, 207, 257, 222, 320
-0.996021, 25, 233, 40, 296
-0.996031, 19, 209, 34, 272
-0.996044, 129, 189, 256, 220
-0.996059, 81, 345, 96, 408
-0.996067, 57, 321, 72, 384
-0.996073, 177, 353, 304, 384
-0.996081, 125, 161, 156, 416
-0.996083, 49, 69, 176, 100
-0.996085, 145, 205, 272, 236
-0.9961, 211, 329, 226, 392
-0.996103, 13, 201, 28, 264
-0.996105, 113, 141, 240, 172
-0.996112, 275, 225, 290, 288
-0.996127, 209, 29, 332, 60
-0.996129, 97, 305, 224, 336
-0.996129, 313, 433, 328, 496
-0.996137, 61, 393, 76, 456
-0.996138, 221, 9, 236, 72
-0.99614, 221, 201, 236, 264
-0.996143, 267, 217, 282, 280
-0.996145, 57, 225, 88, 480
-0.996149, 129, 9, 256, 40
-0.996156, 185, 225, 216, 480
-0.99616, 221, 225, 236, 288
-0.996173, 173, 257, 204, 500
-0.996184, 105, 257, 136, 500
-0.996189, 121, 217, 136, 280
-0.996209, 243, 185, 258, 248
-0.996215, 145, 289, 272, 320
-0.996229, 131, 153, 146, 216
-0.996235, 129, 89, 256, 120
-0.996239, 17, 225, 48, 480
-0.996271, 19, 185, 34, 248
-0.996272, 177, 257, 192, 320
-0.996282, 101, 329, 116, 392
-0.996284, 255, 145, 270, 208
-0.996285, 243, 217, 258, 280
-0.996288, 87, 153, 102, 216
-0.996292, 45, 257, 76, 500
-0.996295, 113, 337, 240, 368
-0.996295, 193, 117, 320, 148
-0.996298, 129, 65, 256, 96
-0.996301, 29, 385, 44, 448
-0.996305, 193, 53, 320, 84
-0.996308, 277, 409, 292, 472
-0.996311, 301, 337, 316, 400
-0.996312, 265, 241, 280, 304
-0.996317, 193, 105, 320, 136
-0.996318, 141, 153, 156, 216
-0.996319, 65, 321, 80, 384
-0.996322, 33, 261, 160, 292
-0.996327, 3, 361, 18, 424
-0.996343, 129, 413, 256, 444
-0.996349, 49, 165, 176, 196
-0.99635, 81, 257, 112, 500
-0.996359, 249, 201, 264, 264
-0.996365, 309, 369, 324, 432
-0.996375, 1, 209, 16, 272
-0.996382, 113, 385, 240, 416
-0.99639, 1, 89, 332, 152
-0.996406, 255, 233, 270, 296
-0.996409, 5, 225, 36, 480
-0.996414, 269, 225, 300, 480
-0.996422, 271, 153, 286, 216
-0.996425, 41, 393, 56, 456
-0.996437, 235, 209, 250, 272
-0.996443, 265, 177, 280, 240
-0.996446, 191, 329, 206, 392
-0.996448, 223, 177, 238, 240
-0.996459, 89, 433, 104, 496
-0.996461, 93, 129, 124, 384
-0.996465, 129, 77, 256, 108
-0.996466, 15, 361, 30, 424
-0.996477, 65, 461, 192, 492
-0.996485, 43, 185, 58, 248
-0.996486, 23, 321, 38, 384
-0.996492, 283, 129, 298, 192
-0.996494, 227, 1, 242, 64
-0.996498, 81, 161, 112, 416
-0.996505, 41, 289, 56, 352
-0.996517, 285, 89, 300, 152
-0.996519, 249, 225, 264, 288
-0.99652, 93, 161, 108, 224
-0.996521, 295, 313, 310, 376
-0.996528, 209, 369, 224, 432
-0.996528, 307, 313, 322, 376
-0.996531, 35, 321, 50, 384
-0.99654, 137, 193, 168, 448
-0.996544, 209, 149, 332, 180
-0.99655, 307, 1, 322, 64
-0.996551, 137, 97, 168, 352
-0.996554, 189, 97, 220, 352
-0.996554, 69, 257, 100, 500
-0.996557, 41, 313, 56, 376
-0.996597, 129, 265, 256, 296
-0.996619, 177, 417, 304, 448
-0.996641, 33, 241, 160, 272
-0.996655, 209, 85, 332, 116
-0.996671, 81, 1, 208, 32
-0.996673, 161, 245, 288, 276
-0.996682, 113, 161, 144, 416
-0.996711, 1, 189, 128, 220
-0.996715, 1, 65, 332, 128
-0.996766, 187, 297, 202, 328
-0.996778, 113, 65, 144, 320
-0.996789, 49, 29, 176, 60
-0.996796, 113, 429, 240, 460
-0.996829, 97, 113, 224, 144
-0.99685, 65, 97, 192, 128
-0.996854, 33, 225, 64, 480
-0.996859, 209, 453, 332, 484
-0.996876, 1, 309, 128, 340
-0.996898, 153, 161, 184, 416
-0.9969, 281, 193, 312, 448
-0.996903, 161, 141, 288, 172
-0.996915, 301, 325, 316, 356
-0.996919, 191, 281, 206, 312
-0.996923, 1, 217, 128, 248
-0.99694, 65, 145, 192, 176
-0.996965, 145, 317, 272, 348
-0.996965, 65, 401, 192, 432
-0.997039, 17, 445, 144, 476
-0.997047, 257, 129, 288, 384
-0.997055, 193, 69, 320, 100
-0.997056, 293, 1, 324, 256
-0.997063, 17, 333, 144, 364
-0.997069, 17, 417, 144, 448
-0.997095, 65, 81, 192, 112
-0.997119, 201, 129, 232, 384
-0.997122, 135, 185, 150, 216
-0.997129, 297, 341, 312, 372
-0.99715, 93, 257, 124, 500
-0.997155, 45, 1, 76, 256
-0.997158, 129, 153, 256, 184
-0.997166, 117, 257, 148, 500
-0.997167, 1, 57, 128, 88
-0.997171, 203, 373, 218, 404
-0.997175, 57, 1, 88, 256
-0.997187, 1, 169, 128, 200
-0.997189, 185, 317, 200, 348
-0.99719, 273, 65, 304, 320
-0.997213, 183, 281, 198, 312
-0.997224, 193, 341, 320, 372
-0.997242, 125, 65, 156, 320
-0.997245, 193, 397, 208, 428
-0.997267, 65, 125, 192, 156
-0.997286, 77, 65, 108, 320
-0.997287, 177, 289, 192, 320
-0.9973, 45, 161, 76, 416
-0.99732, 317, 397, 332, 428
-0.997326, 309, 329, 324, 360
-0.997343, 317, 385, 332, 416
-0.997374, 209, 465, 332, 496
-0.997393, 1, 297, 128, 328
-0.997414, 181, 329, 196, 360
-0.997436, 185, 341, 200, 372
-0.997437, 197, 369, 212, 400
-0.997446, 209, 325, 332, 356
-0.997455, 221, 161, 252, 416
-0.997462, 197, 341, 212, 372
-0.997469, 295, 29, 310, 60
-0.997478, 137, 1, 168, 256
-0.997484, 69, 161, 100, 416
-0.997495, 81, 13, 208, 44
-0.997497, 29, 129, 60, 384
-0.997508, 217, 1, 248, 256
-0.997514, 159, 237, 174, 268
-0.997519, 311, 457, 326, 488
-0.997522, 187, 397, 202, 428
-0.997527, 161, 465, 288, 496
-0.997536, 237, 65, 268, 320
-0.997543, 177, 429, 304, 460
-0.997558, 197, 285, 212, 316
-0.99758, 145, 181, 160, 212
-0.99759, 33, 1, 64, 256
-0.997612, 315, 333, 330, 364
-0.997613, 189, 1, 220, 256
-0.997639, 177, 1, 208, 256
-0.997667, 191, 333, 206, 364
-0.997669, 203, 277, 218, 308
-0.997678, 253, 225, 284, 480
-0.997681, 303, 337, 318, 368
-0.997683, 139, 169, 154, 200
-0.997696, 35, 201, 50, 232
-0.997705, 165, 1, 196, 256
-0.99771, 101, 1, 132, 256
-0.99772, 193, 297, 208, 328
-0.997724, 237, 193, 268, 448
-0.997736, 177, 441, 304, 472
-0.99774, 49, 317, 64, 348
-0.997751, 295, 353, 310, 384
-0.997753, 113, 453, 240, 484
-0.997765, 25, 201, 40, 232
-0.997769, 17, 85, 144, 116
-0.997771, 27, 221, 42, 252
-0.997774, 233, 213, 248, 244
-0.997791, 55, 37, 70, 68
-0.997793, 269, 193, 284, 224
-0.997802, 1, 45, 128, 76
-0.997804, 221, 205, 236, 236
-0.997808, 259, 225, 274, 256
-0.997817, 179, 313, 194, 344
-0.997828, 203, 361, 218, 392
-0.997837, 1, 429, 128, 460
-0.997843, 261, 181, 276, 212
-0.997844, 1, 109, 128, 140
-0.99785, 125, 189, 140, 220
-0.997853, 73, 325, 88, 356
-0.997856, 77, 345, 92, 376
-0.997868, 17, 1, 144, 32
-0.99787, 263, 237, 278, 268
-0.99788, 207, 409, 222, 440
-0.997887, 49, 109, 176, 140
-0.997889, 153, 233, 168, 264
-0.997895, 75, 281, 90, 312
-0.997904, 283, 229, 298, 260
-0.997913, 65, 405, 80, 436
-0.997915, 301, 17, 316, 48
-0.997916, 281, 253, 296, 284
-0.997917, 193, 269, 208, 300
-0.997921, 261, 153, 276, 184
-0.997921, 1, 157, 128, 188
-0.997925, 43, 193, 58, 224
-0.997931, 283, 189, 298, 220
-0.997934, 177, 129, 208, 384
-0.997941, 161, 257, 192, 500
-0.997942, 223, 225, 238, 256
-0.997943, 211, 341, 226, 372
-0.99795, 215, 213, 230, 244
-0.997951, 257, 241, 272, 272
-0.997953, 17, 145, 144, 176
-0.997953, 283, 217, 298, 248
-0.997955, 21, 1, 52, 256
-0.997963, 55, 281, 70, 312
-0.997964, 149, 257, 180, 500
-0.997967, 297, 257, 328, 500
-0.997968, 87, 77, 102, 108
-0.997985, 251, 233, 266, 264
-0.997991, 67, 285, 82, 316
-0.998005, 17, 129, 48, 384
-0.998008, 193, 385, 208, 416
-0.998012, 81, 333, 96, 364
-0.998018, 61, 281, 76, 312
-0.998036, 65, 33, 80, 64
-0.998039, 213, 413, 228, 444
-0.998041, 267, 253, 282, 284
-0.998043, 105, 153, 120, 184
-0.998057, 215, 169, 230, 200
-0.998059, 91, 413, 106, 444
-0.99806, 57, 129, 88, 384
-0.998066, 175, 325, 190, 356
-0.998067, 191, 309, 206, 340
-0.998067, 97, 121, 112, 152
-0.99807, 115, 413, 130, 444
-0.998072, 243, 221, 258, 252
-0.998075, 283, 149, 298, 180
-0.998078, 131, 249, 146, 280
-0.998079, 57, 405, 72, 436
-0.998081, 85, 417, 100, 448
-0.998082, 153, 1, 184, 256
-0.998087, 203, 349, 218, 380
-0.998093, 221, 193, 236, 224
-0.998093, 115, 193, 130, 224
-0.998094, 205, 17, 220, 48
-0.998097, 35, 329, 50, 360
-0.998098, 185, 409, 200, 440
-0.998105, 15, 365, 30, 396
-0.998111, 7, 217, 22, 248
-0.998117, 199, 385, 214, 416
-0.998117, 17, 13, 144, 44
-0.998119, 133, 173, 148, 204
-0.99812, 43, 325, 58, 356
-0.998126, 283, 397, 298, 428
-0.998126, 201, 33, 232, 288
-0.998128, 125, 245, 140, 276
-0.998139, 79, 417, 94, 448
-0.998141, 45, 281, 60, 312
-0.998141, 1, 69, 128, 100
-0.998145, 239, 173, 254, 204
-0.998146, 285, 137, 300, 168
-0.998148, 249, 185, 264, 216
-0.998148, 71, 41, 86, 72
-0.998149, 53, 305, 68, 336
-0.998149, 221, 181, 236, 212
-0.998153, 67, 297, 82, 328
-0.998157, 187, 269, 202, 300
-0.998158, 291, 365, 306, 396
-0.998159, 29, 389, 44, 420
-0.998159, 41, 401, 56, 432
-0.998159, 267, 169, 282, 200
-0.99816, 17, 121, 144, 152
-0.99816, 79, 301, 94, 332
-0.99816, 59, 305, 74, 336
-0.998161, 151, 245, 166, 276
-0.998166, 21, 213, 36, 244
-0.99817, 1, 361, 16, 392
-0.99817, 229, 353, 244, 384
-0.998171, 27, 233, 42, 264
-0.998172, 65, 349, 80, 380
-0.998178, 295, 9, 310, 40
-0.998179, 35, 185, 50, 216
-0.998185, 165, 161, 196, 416
-0.998188, 73, 53, 88, 84
-0.998189, 79, 57, 94, 88
-0.998192, 77, 357, 92, 388
-0.998196, 311, 385, 326, 416
-0.998197, 91, 89, 106, 120
-0.998199, 105, 141, 120, 172
-0.998199, 35, 397, 50, 428
-0.998204, 67, 53, 82, 84
-0.99821, 35, 213, 50, 244
-0.998243, 193, 289, 320, 320
-0.998255, 113, 469, 240, 500
-0.998396, 141, 235, 172, 250
-0.998396, 61, 423, 92, 438
-0.998397, 241, 213, 272, 228
-0.998398, 173, 319, 204, 334
-0.998399, 105, 417, 136, 432
-0.998399, 269, 235, 300, 250
-0.998399, 217, 171, 248, 186
-0.998399, 269, 73, 300, 88
-0.998399, 89, 459, 120, 474
-0.998399, 25, 237, 56, 252
-0.9984, 269, 113, 300, 128
-0.9984, 149, 177, 180, 192
-0.9984, 237, 147, 268, 162
-0.9984, 65, 37, 96, 52
-0.9984, 201, 35, 232, 50
-0.998402, 301, 471, 332, 486
-0.998402, 221, 191, 252, 206
-0.998403, 29, 403, 60, 418
-0.998403, 141, 195, 172, 210
-0.998403, 77, 307, 108, 322
-0.998404, 57, 321, 88, 336
-0.998404, 249, 177, 280, 192
-0.998404, 29, 229, 60, 244
-0.998408, 129, 217, 160, 232
-0.998409, 269, 135, 300, 150
-0.99841, 173, 281, 204, 296
-0.99841, 269, 179, 300, 194
-0.99841, 269, 263, 300, 278
-0.99841, 289, 359, 320, 374
-0.99841, 133, 171, 164, 186
-0.99841, 5, 207, 36, 222
-0.998411, 273, 99, 304, 114
-0.998411, 209, 9, 240, 24
-0.998412, 125, 211, 156, 226
-0.998412, 21, 329, 52, 344
-0.998413, 145, 247, 176, 262
-0.998414, 225, 227, 256, 242
-0.998414, 277, 241, 308, 256
-0.998414, 193, 361, 224, 376
-0.998414, 185, 301, 216, 316
-0.998415, 117, 457, 148, 472
-0.998416, 249, 225, 280, 240
-0.998417, 25, 193, 56, 208
-0.998419, 109, 231, 140, 246
-0.998422, 269, 205, 300, 220
-0.998423, 273, 91, 304, 106
-0.998423, 193, 393, 224, 408
-0.998423, 121, 175, 152, 190
-0.998424, 241, 35, 272, 50
-0.998424, 285, 325, 316, 340
-0.998425, 289, 39, 320, 54
-0.998426, 57, 307, 88, 322
-0.998426, 241, 153, 272, 168
-0.998426, 25, 273, 56, 288
-0.998426, 213, 209, 244, 224
-0.998427, 45, 283, 76, 298
-0.998427, 245, 219, 276, 234
-0.998427, 205, 353, 236, 368
-0.998428, 269, 143, 300, 158
-0.998428, 269, 159, 300, 174
-0.998429, 25, 223, 56, 238
-0.99843, 301, 459, 332, 474
-0.998431, 253, 239, 284, 254
-0.998432, 53, 405, 84, 420
-0.998432, 221, 177, 252, 192
-0.998433, 133, 249, 164, 264
-0.998433, 157, 239, 188, 254
-0.998434, 273, 107, 304, 122
-0.998434, 73, 349, 104, 364
-0.998435, 193, 371, 224, 386
-0.998436, 173, 313, 204, 328
-0.998437, 217, 233, 280, 248
-0.998437, 269, 217, 300, 232
-0.998437, 269, 211, 300, 226
-0.998437, 73, 419, 104, 434
-0.998438, 257, 185, 288, 200
-0.998438, 181, 413, 212, 428
-0.998438, 269, 185, 300, 200
-0.998438, 269, 257, 300, 272
-0.998439, 181, 307, 212, 322
-0.99844, 257, 195, 288, 210
-0.998442, 9, 219, 40, 234
-0.998443, 173, 333, 204, 348
-0.998444, 5, 383, 36, 398
-0.998445, 285, 475, 316, 490
-0.998446, 13, 201, 44, 216
-0.998448, 61, 327, 92, 342
-0.998449, 45, 399, 76, 414
-0.99845, 69, 285, 100, 300
-0.99845, 121, 199, 152, 214
-0.998457, 117, 181, 148, 196
-0.998458, 189, 343, 220, 358
-0.998458, 121, 233, 184, 248
-0.998459, 205, 359, 236, 374
-0.998462, 177, 341, 208, 356
-0.998464, 241, 221, 304, 236
-0.998466, 105, 205, 168, 220
-0.998466, 41, 327, 72, 342
-0.998468, 193, 411, 224, 426
-0.998473, 217, 225, 280, 240
-0.998473, 189, 277, 220, 292
-0.998475, 85, 417, 116, 432
-0.998477, 249, 227, 312, 242
-0.998478, 193, 355, 256, 370
-0.998479, 173, 351, 204, 366
-0.998479, 197, 417, 228, 432
-0.99848, 53, 37, 84, 52
-0.998484, 269, 149, 300, 164
-0.998485, 193, 355, 224, 370
-0.998487, 293, 343, 324, 358
-0.998488, 289, 33, 320, 48
-0.998488, 213, 215, 244, 230
-0.998488, 161, 383, 224, 398
-0.998492, 241, 153, 304, 168
-0.998492, 269, 199, 300, 214
-0.998492, 297, 325, 328, 340
-0.998498, 269, 191, 300, 206
-0.998499, 221, 355, 252, 370
-0.998499, 33, 321, 96, 336
-0.998499, 241, 211, 304, 226
-0.998499, 249, 233, 312, 248
-0.9985, 9, 213, 40, 228
-0.998501, 217, 239, 280, 254
-0.998502, 125, 205, 156, 220
-0.998502, 137, 177, 168, 192
-0.998504, 225, 215, 256, 230
-0.998508, 193, 383, 224, 398
-0.99851, 81, 417, 144, 432
-0.998512, 249, 239, 312, 254
-0.998517, 241, 147, 304, 162
-0.998519, 249, 189, 312, 204
-0.998519, 265, 243, 296, 258
-0.99852, 169, 297, 232, 312
-0.998521, 161, 359, 224, 374
-0.998522, 129, 179, 192, 194
-0.998522, 33, 395, 96, 410
-0.998523, 165, 307, 196, 322
-0.998524, 217, 215, 280, 230
-0.998525, 173, 295, 204, 310
-0.998529, 9, 1, 40, 256
-0.99853, 153, 313, 216, 328
-0.99853, 97, 187, 160, 202
-0.998531, 289, 353, 320, 368
-0.998532, 185, 349, 216, 364
-0.998532, 273, 395, 332, 410
-0.998533, 113, 193, 176, 208
-0.998535, 97, 199, 160, 214
-0.998535, 33, 327, 96, 342
-0.998536, 121, 251, 184, 266
-0.998536, 185, 405, 216, 420
-0.998536, 161, 389, 224, 404
-0.998537, 169, 413, 232, 428
-0.998538, 121, 227, 184, 242
-0.998538, 201, 363, 264, 378
-0.998539, 65, 319, 128, 334
-0.998544, 73, 313, 136, 328
-0.998544, 105, 217, 168, 232
-0.998544, 273, 403, 332, 418
-0.998545, 241, 183, 304, 198
-0.998545, 181, 289, 212, 304
-0.998545, 161, 377, 224, 392
-0.998546, 217, 245, 280, 260
-0.998546, 257, 245, 320, 260
-0.998547, 269, 249, 300, 264
-0.998549, 161, 345, 224, 360
-0.998553, 297, 331, 328, 346
-0.998553, 137, 183, 168, 198
-0.998553, 153, 307, 216, 322
-0.998555, 177, 283, 240, 298
-0.998557, 161, 365, 224, 380
-0.998561, 225, 221, 256, 236
-0.998561, 65, 325, 128, 340
-0.998562, 153, 323, 216, 338
-0.998562, 105, 211, 168, 226
-0.998563, 25, 237, 88, 252
-0.998565, 121, 245, 184, 260
-0.998566, 17, 211, 80, 226
-0.998567, 25, 205, 88, 220
-0.998567, 25, 243, 88, 258
-0.998567, 1, 225, 64, 240
-0.998568, 273, 409, 332, 424
-0.99857, 241, 159, 304, 174
-0.998571, 145, 243, 208, 258
-0.998571, 137, 199, 200, 214
-0.998571, 289, 97, 320, 352
-0.998571, 161, 353, 224, 368
-0.998572, 161, 407, 224, 422
-0.998572, 193, 377, 224, 392
-0.998572, 185, 283, 216, 298
-0.998573, 97, 155, 160, 170
-0.998574, 183, 273, 198, 400
-0.998574, 121, 383, 184, 398
-0.998574, 65, 207, 128, 222
-0.998575, 161, 291, 224, 306
-0.998575, 121, 189, 152, 204
-0.998575, 73, 307, 136, 322
-0.998576, 81, 215, 144, 230
-0.998578, 9, 197, 72, 212
-0.998578, 201, 35, 264, 50
-0.998578, 25, 389, 88, 404
-0.998578, 241, 139, 304, 154
-0.998578, 9, 323, 72, 338
-0.998578, 249, 259, 312, 274
-0.998579, 201, 349, 264, 364
-0.998579, 137, 185, 200, 200
-0.99858, 253, 33, 284, 288
-0.998582, 177, 251, 240, 266
-0.998583, 161, 371, 224, 386
-0.998585, 121, 239, 184, 254
-0.998585, 201, 9, 264, 24
-0.998586, 177, 29, 240, 44
-0.998586, 105, 327, 168, 342
-0.998587, 41, 307, 104, 322
-0.998587, 249, 205, 312, 220
-0.998587, 273, 377, 332, 392
-0.998588, 41, 285, 104, 300
-0.998589, 273, 459, 332, 474
-0.998589, 89, 181, 152, 196
-0.998589, 241, 199, 304, 214
-0.99859, 217, 145, 280, 160
-0.99859, 1, 399, 64, 414
-0.998591, 273, 329, 332, 344
-0.998591, 249, 41, 312, 56
-0.998593, 49, 363, 112, 378
-0.998593, 97, 149, 160, 164
-0.998594, 89, 233, 152, 248
-0.998594, 121, 409, 184, 424
-0.998595, 177, 245, 240, 260
-0.998595, 129, 301, 192, 316
-0.998595, 241, 251, 304, 266
-0.998596, 121, 389, 184, 404
-0.998596, 273, 429, 332, 444
-0.998596, 249, 101, 312, 116
-0.998597, 273, 473, 332, 488
-0.998597, 273, 415, 332, 430
-0.998597, 73, 455, 136, 470
-0.998598, 173, 301, 204, 316
-0.998598, 201, 1, 264, 16
-0.998599, 137, 289, 200, 304
-0.998599, 249, 51, 312, 66
-0.998599, 129, 131, 192, 146
-0.9986, 41, 313, 104, 328
-0.9986, 265, 251, 328, 266
-0.9986, 33, 401, 96, 416
-0.9986, 161, 11, 224, 26
-0.998601, 33, 217, 96, 232
-0.998601, 185, 225, 248, 240
-0.998601, 1, 329, 64, 344
-0.998602, 1, 239, 64, 254
-0.998603, 113, 317, 176, 332
-0.998605, 25, 229, 88, 244
-0.998605, 137, 207, 200, 222
-0.998605, 65, 347, 128, 362
-0.998605, 241, 171, 304, 186
-0.998606, 145, 225, 208, 240
-0.998606, 217, 189, 280, 204
-0.998607, 249, 67, 312, 82
-0.998607, 97, 143, 160, 158
-0.998607, 249, 111, 312, 126
-0.998607, 97, 457, 160, 472
-0.998608, 81, 221, 144, 236
-0.998609, 89, 227, 152, 242
-0.998609, 177, 237, 240, 252
-0.998617, 297, 337, 328, 352
-0.998628, 73, 353, 88, 480
-0.998645, 189, 257, 204, 384
-0.998735, 197, 321, 212, 448
-0.998755, 143, 193, 158, 320
-0.998793, 79, 257, 94, 384
-0.9988, 79, 353, 94, 480
-0.998803, 27, 321, 42, 448
-0.998822, 19, 305, 34, 432
-0.998828, 13, 321, 28, 448
-0.998831, 211, 193, 226, 320
-0.998835, 87, 353, 102, 480
-0.998837, 177, 257, 192, 384
-0.998856, 33, 321, 48, 448
-0.99887, 201, 273, 216, 400
-0.998874, 7, 321, 22, 448
-0.998881, 301, 305, 316, 432
-0.998891, 5, 129, 36, 384
-0.998898, 183, 321, 198, 448
-0.998903, 293, 321, 308, 448
-0.998917, 295, 1, 310, 128
-0.998921, 283, 97, 298, 224
-0.998929, 133, 161, 148, 288
-0.998932, 39, 321, 54, 448
-0.998938, 217, 257, 248, 500
-0.998956, 183, 225, 198, 352
-0.998957, 9, 273, 24, 400
-0.998959, 139, 97, 154, 224
-0.998965, 275, 177, 290, 304
-0.998965, 267, 161, 282, 288
-0.998967, 75, 305, 90, 432
-0.998971, 195, 257, 210, 384
-0.998973, 239, 129, 254, 256
-0.998981, 281, 193, 296, 320
-0.998981, 1, 321, 16, 448
-0.998988, 97, 97, 112, 224
-0.998996, 205, 209, 220, 336
-0.998997, 217, 177, 232, 304
-0.998997, 127, 225, 142, 352
-0.999001, 191, 321, 206, 448
-0.999008, 259, 177, 274, 304
-0.999009, 125, 369, 140, 496
-0.999027, 285, 353, 300, 480
-0.999028, 105, 321, 120, 448
-0.999036, 115, 369, 130, 496
-0.999052, 85, 273, 100, 400
-0.999052, 203, 353, 218, 480
-0.999053, 73, 257, 88, 384
-0.999053, 305, 1, 320, 128
-0.999053, 91, 65, 106, 192
-0.999056, 63, 369, 78, 496
-0.999059, 223, 1, 238, 128
-0.99906, 149, 177, 164, 304
-0.999061, 53, 161, 68, 288
-0.999065, 3, 273, 18, 400
-0.999074, 103, 257, 118, 384
-0.999074, 47, 305, 62, 432
-0.999078, 269, 97, 284, 224
-0.99909, 147, 241, 162, 368
-0.999091, 285, 49, 300, 176
-0.999092, 163, 81, 178, 208
-0.999093, 223, 161, 238, 288
-0.999108, 45, 129, 60, 256
-0.999111, 269, 241, 284, 368
-0.999113, 197, 209, 212, 336
-0.999115, 157, 97, 172, 224
-0.99912, 133, 353, 148, 480
-0.999121, 171, 273, 186, 400
-0.999123, 139, 241, 154, 368
-0.999127, 61, 145, 76, 272
-0.999127, 103, 129, 118, 256
-0.999128, 207, 257, 222, 384
-0.999131, 149, 81, 164, 208
-0.999132, 93, 353, 108, 480
-0.99914, 155, 161, 170, 288
-0.999146, 85, 113, 100, 240
-0.999147, 37, 177, 52, 304
-0.999148, 53, 305, 68, 432
-0.999151, 239, 1, 254, 128
-0.999153, 317, 353, 332, 480
-0.999154, 189, 33, 204, 160
-0.999158, 193, 369, 208, 496
-0.999158, 89, 33, 120, 288
-0.999162, 249, 161, 264, 288
-0.999165, 277, 97, 292, 224
-0.999169, 139, 33, 154, 160
-0.99917, 109, 145, 124, 272
-0.99918, 177, 321, 192, 448
-0.999184, 95, 257, 110, 384
-0.999184, 25, 369, 40, 496
-0.999186, 27, 241, 42, 368
-0.999186, 145, 129, 160, 256
-0.999187, 99, 321, 114, 448
-0.999187, 81, 209, 96, 336
-0.999188, 209, 145, 224, 272
-0.999193, 69, 305, 84, 432
-0.999193, 229, 129, 244, 256
-0.999194, 109, 369, 124, 496
-0.999195, 171, 81, 186, 208
-0.999197, 199, 1, 214, 128
-0.999202, 217, 225, 232, 352
-0.999207, 75, 161, 90, 288
-0.99921, 133, 241, 148, 368
-0.999216, 67, 1, 82, 128
-0.999216, 275, 241, 290, 368
-0.999217, 119, 177, 134, 304
-0.999219, 55, 17, 70, 144
-0.99922, 311, 369, 326, 496
-0.99922, 177, 209, 192, 336
-0.999221, 9, 193, 24, 320
-0.999221, 3, 193, 18, 320
-0.999224, 283, 257, 298, 384
-0.999227, 67, 145, 82, 272
-0.999231, 31, 145, 46, 272
-0.999232, 191, 209, 206, 336
-0.999237, 309, 321, 324, 448
-0.999238, 67, 209, 82, 336
-0.99924, 47, 241, 62, 368
-0.999242, 59, 321, 74, 448
-0.999243, 217, 129, 232, 256
-0.999245, 33, 273, 48, 400
-0.999247, 67, 257, 82, 384
-0.999247, 283, 145, 298, 272
-0.999249, 273, 49, 288, 176
-0.999249, 19, 353, 34, 480
-0.99925, 267, 49, 282, 176
-0.999252, 75, 209, 90, 336
-0.999255, 145, 17, 160, 144
-0.99926, 235, 193, 250, 320
-0.999262, 233, 81, 248, 208
-0.999263, 47, 177, 62, 304
-0.999265, 259, 113, 274, 240
-0.999268, 253, 225, 268, 352
-0.999592, 7, 203, 22, 218
-0.999593, 25, 203, 40, 218
-0.999593, 257, 245, 272, 260
-0.999593, 75, 355, 90, 370
-0.999593, 53, 321, 68, 336
-0.999593, 217, 171, 232, 186
-0.999594, 7, 215, 22, 230
-0.999594, 271, 261, 286, 276
-0.999594, 25, 229, 40, 244
-0.999595, 263, 251, 278, 266
-0.999595, 193, 387, 208, 402
-0.999595, 197, 291, 212, 306
-0.999596, 123, 187, 138, 202
-0.999596, 37, 227, 52, 242
-0.999596, 291, 241, 306, 256
-0.999597, 259, 187, 274, 202
-0.999597, 87, 87, 102, 102
-0.999598, 259, 147, 274, 162
-0.999598, 127, 249, 142, 264
-0.999599, 185, 295, 200, 310
-0.999599, 247, 217, 262, 232
-0.999599, 283, 187, 298, 202
-0.999601, 263, 241, 278, 256
-0.999602, 129, 189, 144, 204
-0.999602, 271, 195, 286, 210
-0.999603, 25, 213, 40, 228
-0.999604, 113, 415, 128, 430
-0.999604, 205, 385, 220, 400
-0.999606, 119, 415, 134, 430
-0.999607, 37, 205, 52, 220
-0.999607, 249, 235, 264, 250
-0.999607, 79, 361, 94, 376
-0.999609, 181, 333, 196, 348
-0.999609, 283, 211, 298, 226
-0.99961, 165, 237, 180, 252
-0.99961, 193, 299, 208, 314
-0.99961, 283, 225, 298, 240
-0.99961, 253, 225, 268, 240
-0.99961, 31, 237, 46, 252
-0.999611, 199, 391, 214, 406
-0.999612, 31, 211, 46, 226
-0.999613, 261, 153, 276, 168
-0.999613, 153, 245, 168, 260
-0.999613, 283, 247, 298, 262
-0.999613, 57, 409, 72, 424
-0.999613, 65, 405, 80, 420
-0.999614, 201, 279, 216, 294
-0.999614, 283, 231, 298, 246
-0.999616, 77, 421, 92, 436
-0.999617, 39, 329, 54, 344
-0.999617, 85, 131, 100, 146
-0.999617, 79, 331, 94, 346
-0.999618, 89, 417, 104, 432
-0.999619, 29, 393, 44, 408
-0.999619, 223, 355, 238, 370
-0.999621, 67, 37, 82, 52
-0.999621, 133, 253, 148, 268
-0.999622, 177, 319, 192, 334
-0.999622, 265, 195, 280, 210
-0.999623, 281, 259, 296, 274
-0.999623, 195, 371, 210, 386
-0.999623, 317, 343, 332, 358
-0.999624, 159, 243, 174, 258
-0.999625, 221, 209, 236, 224
-0.999626, 75, 281, 90, 296
-0.999629, 283, 219, 298, 234
-0.999629, 267, 157, 282, 172
-0.999629, 187, 353, 202, 368
-0.99963, 37, 399, 52, 414
-0.99963, 293, 359, 308, 374
-0.999632, 213, 419, 228, 434
-0.999632, 293, 33, 308, 48
-0.999633, 315, 333, 330, 348
-0.999633, 203, 371, 218, 386
-0.999633, 215, 181, 230, 196
-0.999636, 145, 189, 160, 204
-0.999636, 283, 147, 298, 162
-0.999636, 197, 349, 212, 364
-0.999637, 143, 179, 158, 194
-0.999638, 201, 285, 216, 300
-0.99964, 55, 37, 70, 52
-0.999641, 43, 405, 58, 420
-0.999641, 183, 347, 198, 362
-0.999642, 139, 173, 154, 188
-0.999642, 71, 325, 86, 340
-0.999642, 185, 307, 200, 322
-0.999643, 185, 313, 200, 328
-0.999644, 187, 333, 202, 348
-0.999646, 301, 31, 316, 46
-0.999648, 125, 195, 140, 210
-0.999649, 311, 339, 326, 354
-0.999651, 281, 241, 296, 256
-0.999651, 193, 279, 208, 294
-0.999652, 137, 183, 152, 198
-0.999652, 203, 409, 218, 424
-0.999652, 181, 327, 196, 342
-0.999655, 177, 297, 192, 312
-0.999655, 185, 289, 200, 304
-0.999661, 305, 351, 320, 366
-0.999664, 145, 195, 160, 210
-0.999665, 311, 457, 326, 472
-0.999665, 227, 225, 242, 240
-0.999667, 295, 39, 310, 54
-0.99967, 197, 377, 212, 392
-0.999672, 193, 397, 208, 412
-0.999673, 301, 335, 316, 350
-0.999675, 199, 383, 214, 398
-0.999678, 231, 215, 246, 230
-0.999679, 237, 217, 252, 232
-0.999679, 159, 237, 174, 252
-0.999682, 187, 281, 202, 296
-0.999683, 187, 405, 202, 420
-0.999688, 193, 343, 208, 358
-0.999689, 27, 223, 42, 238
-0.99969, 179, 291, 194, 306
-0.999694, 183, 319, 198, 334
-0.999694, 47, 323, 62, 338
-0.999695, 297, 347, 312, 362
-0.999699, 209, 413, 224, 428
-0.999701, 309, 333, 324, 348
-0.999709, 295, 353, 310, 368
-0.999718, 135, 189, 150, 204
-0.99972, 181, 341, 196, 356
-0.999728, 193, 285, 208, 300
-0.999734, 191, 293, 206, 308
-0.999743, 317, 399, 332, 414
-0.999751, 203, 377, 218, 392
-0.999771, 301, 325, 316, 340
-0.999773, 187, 301, 202, 316
-0.999781, 299, 341, 314, 356
-1.00023, 301, 161, 332, 416
