1969
-0.432398, 129, 1, 384, 375
-0.491114, 1, 1, 500, 375
-0.5021, 1, 1, 500, 256
-0.546859, 33, 1, 288, 375
-0.570039, 257, 1, 500, 375
-0.573312, 1, 129, 500, 375
-0.663197, 33, 33, 288, 288
-0.67263, 257, 33, 500, 288
-0.699389, 129, 1, 384, 256
-0.775594, 97, 129, 352, 375
-0.783328, 193, 129, 448, 375
-0.802624, 1, 129, 256, 375
-0.871714, 225, 1, 352, 375
-0.876805, 81, 1, 208, 375
-0.88851, 225, 1, 352, 256
-0.891673, 65, 1, 192, 256
-0.897295, 177, 1, 304, 375
-0.898318, 129, 1, 256, 375
-0.905158, 33, 1, 160, 375
-0.907373, 273, 1, 400, 375
-0.908052, 1, 17, 500, 144
-0.909392, 113, 33, 240, 288
-0.910824, 1, 193, 500, 320
-0.913146, 289, 1, 416, 256
-0.913746, 65, 129, 192, 375
-0.9142, 17, 97, 144, 352
-0.915502, 289, 97, 416, 352
-0.917064, 337, 1, 464, 375
-0.919878, 193, 129, 320, 375
-0.919904, 17, 1, 144, 256
-0.922482, 1, 241, 500, 368
-0.923804, 113, 129, 240, 375
-0.932529, 241, 129, 368, 375
-0.932882, 177, 1, 304, 256
-0.933035, 97, 177, 352, 304
-0.933905, 337, 1, 464, 256
-0.93461, 1, 65, 500, 192
-0.934715, 1, 145, 500, 272
-0.937111, 97, 17, 352, 144
-0.941159, 97, 129, 352, 256
-0.942355, 257, 145, 500, 272
-0.943486, 353, 97, 480, 352
-0.944711, 193, 193, 448, 320
-0.945054, 1, 177, 256, 304
-0.94681, 257, 33, 500, 160
-0.947181, 257, 97, 500, 224
-0.947401, 241, 177, 368, 304
-0.951322, 281, 193, 344, 320
-0.953924, 97, 225, 352, 352
-0.9546, 97, 161, 224, 288
-0.956697, 33, 81, 288, 208
-0.956937, 105, 177, 168, 304
-0.958441, 161, 81, 416, 208
-0.958447, 65, 209, 192, 336
-0.958681, 265, 25, 328, 88
-0.959402, 289, 145, 416, 272
-0.959963, 17, 145, 144, 272
-0.960333, 161, 225, 288, 352
-0.960359, 257, 177, 320, 304
-0.960648, 1, 241, 256, 368
-0.961334, 89, 33, 152, 160
-0.961803, 81, 193, 144, 320
-0.962008, 105, 33, 168, 96
-0.96244, 193, 177, 320, 304
-0.962702, 273, 185, 336, 248
-0.963552, 289, 145, 352, 272
-0.963652, 241, 49, 368, 176
-0.963844, 257, 241, 500, 368
-0.964098, 281, 49, 344, 176
-0.964183, 65, 33, 192, 160
-0.964752, 97, 185, 160, 248
-0.965386, 265, 1, 328, 128
-0.965481, 113, 1, 176, 128
-0.965582, 233, 177, 296, 304
-0.9657, 145, 177, 272, 304
-0.966029, 241, 1, 368, 128
-0.966155, 1, 17, 256, 144
-0.966291, 129, 177, 192, 304
-0.96672, 153, 209, 216, 336
-0.966955, 1, 129, 256, 256
-0.96802, 289, 33, 416, 160
-0.968074, 233, 201, 296, 264
-0.96861, 313, 161, 376, 288
-0.968637, 193, 1, 320, 128
-0.968689, 305, 33, 368, 160
-0.969608, 209, 129, 336, 256
-0.96981, 209, 225, 336, 352
-0.970265, 17, 1, 144, 128
-0.970541, 273, 225, 336, 288
-0.970565, 65, 33, 128, 160
-0.970594, 209, 201, 272, 264
-0.97107, 113, 225, 240, 352
-0.971211, 17, 97, 144, 224
-0.971257, 73, 145, 136, 272
-0.971514, 257, 225, 320, 352
-0.971539, 17, 193, 144, 320
-0.971741, 129, 201, 192, 264
-0.971969, 289, 33, 352, 96
-0.972398, 209, 177, 272, 304
-0.972571, 129, 241, 192, 368
-0.972711, 105, 225, 168, 352
-0.972874, 309, 129, 340, 256
-0.973163, 385, 241, 448, 368
-0.973273, 113, 17, 240, 144
-0.973631, 289, 193, 416, 320
-0.973644, 297, 193, 360, 256
-0.973725, 153, 201, 216, 264
-0.973793, 289, 97, 416, 224
-0.973907, 345, 225, 408, 352
-0.973924, 265, 129, 328, 256
-0.974029, 185, 201, 248, 264
-0.974037, 241, 225, 304, 288
-0.974164, 225, 225, 288, 352
-0.974622, 97, 225, 160, 288
-0.975075, 209, 193, 336, 256
-0.975076, 241, 1, 304, 64
-0.975193, 177, 177, 240, 304
-0.97522, 17, 241, 144, 368
-0.975225, 145, 17, 208, 80
-0.975333, 297, 161, 360, 224
-0.975493, 241, 25, 304, 88
-0.975683, 105, 129, 168, 256
-0.975805, 265, 1, 328, 64
-0.975848, 297, 97, 360, 224
-0.975878, 309, 33, 340, 96
-0.975881, 353, 97, 480, 224
-0.975962, 321, 113, 384, 240
-0.976015, 97, 161, 128, 224
-0.976257, 321, 169, 384, 232
-0.976333, 137, 1, 200, 128
-0.976384, 289, 25, 320, 88
-0.976471, 97, 193, 224, 256
-0.976643, 65, 97, 192, 224
-0.976821, 293, 193, 324, 256
-0.97685, 309, 161, 340, 224
-0.976922, 73, 193, 136, 256
-0.977134, 241, 33, 368, 96
-0.9772, 121, 225, 184, 288
-0.977413, 369, 193, 496, 320
-0.977422, 17, 49, 144, 176
-0.977453, 65, 41, 128, 104
-0.977525, 145, 225, 208, 288
-0.977718, 97, 145, 128, 272
-0.977735, 169, 225, 232, 288
-0.977772, 337, 17, 464, 144
-0.977838, 309, 17, 340, 144
-0.977853, 309, 81, 340, 208
-0.977857, 241, 1, 304, 128
-0.977982, 89, 161, 152, 224
-0.978041, 109, 193, 140, 256
-0.978124, 217, 225, 280, 288
-0.978125, 297, 177, 328, 304
-0.978142, 109, 177, 140, 304
-0.978275, 385, 257, 448, 320
-0.978375, 281, 33, 344, 288
-0.978417, 49, 241, 112, 368
-0.978459, 89, 1, 152, 256
-0.978515, 289, 241, 416, 368
-0.97852, 321, 97, 384, 160
-0.97859, 65, 41, 192, 104
-0.97861, 217, 1, 280, 64
-0.978814, 97, 97, 128, 224
-0.978824, 97, 41, 128, 104
-0.978963, 281, 57, 344, 120
-0.979045, 161, 129, 288, 256
-0.979152, 89, 57, 152, 120
-0.979257, 97, 33, 128, 160
-0.979528, 201, 313, 264, 375
-0.979556, 309, 89, 340, 152
-0.979642, 297, 217, 360, 280
-0.979685, 309, 177, 340, 304
-0.979793, 209, 1, 272, 128
-0.979932, 401, 313, 464, 375
-0.98001, 377, 233, 440, 296
-0.980026, 49, 201, 176, 264
-0.980035, 297, 49, 328, 176
-0.980066, 185, 1, 248, 64
-0.980098, 89, 81, 152, 208
-0.980128, 113, 313, 176, 375
-0.980461, 233, 305, 296, 368
-0.980489, 153, 313, 216, 375
-0.980597, 309, 137, 340, 200
-0.980653, 393, 281, 456, 344
-0.980688, 177, 313, 240, 375
-0.980717, 297, 137, 360, 200
-0.980867, 73, 217, 136, 280
-0.980956, 417, 289, 480, 352
-0.980989, 241, 225, 368, 288
-0.981106, 81, 225, 208, 288
-0.981163, 433, 217, 496, 280
-0.981164, 289, 185, 416, 248
-0.981197, 309, 57, 340, 120
-0.981224, 305, 1, 368, 64
-0.98126, 433, 129, 496, 256
-0.981372, 1, 241, 64, 368
-0.981392, 361, 209, 424, 272
-0.981412, 321, 225, 384, 352
-0.981426, 337, 241, 464, 368
-0.98146, 65, 297, 128, 360
-0.981536, 273, 161, 336, 224
-0.981577, 337, 177, 400, 304
-0.981603, 113, 25, 240, 88
-0.981623, 281, 201, 312, 264
-0.981677, 321, 121, 384, 184
-0.981778, 193, 129, 256, 256
-0.981809, 65, 153, 128, 216
-0.981883, 193, 25, 320, 88
-0.981925, 261, 201, 292, 264
-0.981949, 113, 33, 176, 288
-0.981955, 25, 209, 88, 336
-0.981969, 417, 225, 480, 352
-0.98201, 105, 9, 168, 72
-0.982035, 257, 33, 320, 288
-0.982066, 345, 249, 408, 312
-0.982095, 49, 161, 112, 288
-0.982141, 305, 185, 336, 248
-0.982174, 97, 65, 128, 128
-0.982265, 129, 41, 192, 104
-0.982291, 409, 81, 472, 208
-0.982401, 281, 129, 344, 375
-0.982416, 305, 57, 368, 120
-0.982418, 281, 177, 312, 304
-0.982447, 89, 81, 152, 144
-0.982507, 161, 201, 288, 264
-0.982605, 281, 81, 344, 144
-0.982617, 309, 113, 340, 176
-0.982646, 17, 161, 144, 224
-0.982757, 109, 49, 140, 176
-0.98288, 277, 25, 308, 88
-0.982897, 297, 49, 328, 112
-0.982898, 149, 241, 180, 368
-0.982915, 109, 49, 140, 112
-0.982957, 313, 209, 344, 272
-0.983033, 161, 225, 288, 288
-0.983087, 193, 225, 256, 288
-0.983131, 49, 113, 112, 240
-0.983312, 377, 1, 440, 64
-0.983383, 153, 161, 216, 288
-0.983427, 409, 177, 472, 304
-0.983433, 281, 113, 344, 176
-0.983455, 1, 313, 64, 375
-0.983516, 409, 121, 472, 184
-0.983608, 261, 177, 292, 304
-0.983612, 137, 201, 168, 264
-0.983754, 361, 177, 424, 304
-0.983817, 121, 201, 152, 264
-0.983875, 185, 225, 248, 352
-0.983912, 25, 305, 88, 368
-0.98393, 97, 137, 128, 200
-0.983958, 89, 313, 152, 375
-0.983968, 161, 201, 192, 264
-0.983971, 289, 33, 416, 96
-0.984008, 41, 241, 104, 304
-0.984011, 89, 137, 152, 200
-0.98416, 117, 25, 148, 88
-0.984283, 385, 33, 448, 96
-0.984345, 73, 97, 136, 352
-0.984463, 81, 241, 144, 368
-0.984498, 321, 193, 384, 256
-0.984507, 161, 1, 224, 128
-0.984509, 233, 201, 264, 264
-0.984522, 89, 105, 152, 168
-0.984551, 321, 233, 384, 296
-0.984591, 241, 281, 304, 344
-0.984598, 153, 289, 216, 352
-0.984644, 161, 1, 288, 64
-0.984657, 65, 169, 192, 232
-0.984672, 65, 97, 128, 160
-0.984736, 17, 41, 144, 104
-0.984789, 249, 201, 280, 264
-0.984829, 385, 1, 448, 128
-0.98487, 321, 145, 384, 208
-0.984898, 241, 169, 368, 232
-0.984936, 209, 25, 272, 88
-0.984967, 281, 313, 344, 375
-0.985002, 97, 89, 128, 152
-0.985012, 433, 129, 496, 192
-0.985094, 289, 161, 416, 224
-0.985223, 305, 209, 432, 272
-0.985342, 185, 1, 248, 128
-0.985405, 85, 17, 116, 144
-0.985423, 313, 33, 376, 96
-0.98544, 133, 33, 164, 96
-0.985471, 109, 1, 140, 128
-0.985565, 161, 313, 288, 375
-0.985593, 1, 201, 128, 264
-0.985621, 289, 1, 320, 128
-0.985632, 285, 225, 316, 288
-0.985661, 1, 305, 128, 368
-0.985676, 361, 313, 424, 375
-0.985767, 113, 313, 240, 375
-0.985842, 213, 201, 244, 264
-0.985872, 145, 249, 208, 312
-0.986076, 65, 73, 128, 136
-0.986117, 257, 313, 320, 375
-0.986169, 121, 265, 184, 328
-0.986208, 241, 57, 368, 120
-0.986215, 433, 169, 496, 232
-0.986246, 297, 241, 360, 304
-0.986266, 141, 313, 172, 375
-0.986391, 193, 289, 256, 352
-0.98641, 169, 25, 232, 88
-0.986505, 285, 225, 316, 352
-0.986551, 289, 1, 416, 64
-0.986636, 121, 177, 152, 304
-0.986711, 149, 225, 180, 288
-0.986714, 257, 49, 320, 176
-0.986756, 385, 161, 448, 288
-0.986772, 97, 193, 128, 320
-0.986804, 209, 1, 336, 64
-0.986808, 49, 201, 112, 264
-0.986815, 409, 257, 472, 320
-0.986916, 149, 201, 180, 264
-0.986929, 97, 1, 160, 375
-0.986994, 113, 161, 176, 224
-0.987001, 433, 177, 496, 304
-0.987015, 321, 97, 352, 160
-0.987024, 97, 113, 128, 176
-0.987047, 185, 201, 216, 264
-0.987062, 217, 129, 280, 256
-0.987076, 85, 129, 116, 256
-0.987099, 85, 81, 116, 144
-0.987113, 145, 25, 176, 88
-0.987181, 305, 97, 368, 352
-0.987242, 89, 209, 120, 272
-0.987304, 153, 313, 184, 375
-0.987305, 133, 177, 164, 304
-0.987325, 49, 313, 176, 375
-0.987356, 201, 201, 232, 264
-0.987357, 165, 209, 196, 336
-0.9874, 401, 97, 464, 160
-0.987424, 273, 1, 304, 64
-0.987461, 385, 169, 448, 232
-0.987469, 97, 289, 160, 352
-0.987501, 321, 113, 352, 240
-0.98753, 65, 17, 192, 80
-0.98754, 97, 185, 128, 248
-0.987554, 321, 137, 352, 200
-0.987608, 265, 25, 296, 88
-0.987611, 257, 1, 288, 64
-0.987671, 297, 129, 328, 256
-0.98768, 425, 313, 488, 375
-0.987714, 65, 121, 128, 184
-0.987718, 273, 1, 336, 375
-0.987764, 65, 313, 96, 375
-0.987768, 105, 225, 136, 288
-0.987797, 129, 225, 160, 288
-0.9878, 65, 1, 128, 256
-0.987956, 149, 177, 180, 304
-0.98801, 201, 1, 264, 375
-0.988013, 321, 97, 448, 160
-0.988017, 301, 225, 332, 288
-0.988018, 257, 49, 320, 112
-0.988054, 329, 313, 392, 375
-0.988055, 97, 129, 160, 375
-0.988063, 369, 145, 496, 272
-0.988085, 85, 81, 116, 208
-0.9881, 321, 193, 352, 320
-0.988156, 241, 305, 368, 368
-0.988196, 133, 225, 164, 352
-0.988218, 369, 281, 432, 344
-0.988293, 409, 193, 472, 256
-0.988314, 129, 289, 192, 352
-0.988338, 337, 33, 464, 96
-0.988393, 241, 177, 272, 304
-0.988403, 113, 49, 176, 176
-0.988417, 209, 313, 240, 375
-0.988503, 261, 225, 292, 288
-0.988526, 321, 57, 448, 120
-0.98866, 345, 273, 408, 336
-0.988675, 241, 1, 304, 375
-0.988677, 241, 97, 368, 160
-0.988693, 65, 65, 192, 128
-0.988697, 325, 65, 356, 192
-0.988697, 137, 1, 200, 375
-0.988719, 325, 169, 356, 232
-0.988725, 209, 129, 272, 375
-0.988793, 85, 137, 116, 200
-0.988796, 17, 97, 144, 160
-0.988806, 33, 225, 160, 288
-0.988806, 353, 265, 480, 328
-0.988828, 321, 265, 384, 328
-0.988842, 41, 1, 104, 128
-0.988871, 393, 57, 456, 120
-0.988899, 257, 257, 320, 320
-0.989003, 97, 193, 352, 256
-0.989082, 397, 225, 428, 352
-0.989084, 321, 121, 448, 184
-0.989093, 305, 1, 368, 375
-0.989115, 157, 17, 188, 80
-0.989121, 209, 29, 272, 60
-0.989185, 369, 297, 496, 360
-0.989229, 281, 241, 344, 368
-0.989273, 193, 121, 256, 184
-0.989289, 249, 225, 280, 352
-0.989297, 329, 241, 360, 304
-0.989327, 65, 89, 192, 152
-0.989335, 305, 1, 368, 256
-0.989348, 113, 113, 240, 240
-0.989379, 113, 1, 240, 64
-0.989393, 49, 177, 112, 240
-0.989463, 273, 193, 336, 224
-0.989502, 113, 289, 240, 352
-0.989532, 173, 201, 204, 264
-0.989534, 241, 249, 368, 312
-0.989547, 241, 177, 304, 240
-0.989554, 217, 273, 280, 336
-0.989556, 73, 1, 136, 375
-0.989564, 185, 29, 248, 60
-0.989568, 233, 29, 296, 60
-0.989573, 81, 265, 208, 328
-0.989607, 305, 9, 336, 72
-0.989667, 161, 29, 224, 60
-0.989678, 49, 265, 112, 328
-0.989679, 89, 33, 152, 64
-0.989712, 17, 137, 144, 200
-0.989741, 117, 225, 148, 352
-0.989747, 281, 33, 344, 64
-0.989755, 89, 193, 152, 224
-0.989792, 1, 177, 64, 240
-0.989873, 121, 37, 184, 68
-0.989892, 185, 33, 248, 288
-0.989946, 305, 313, 432, 375
-0.989999, 233, 249, 296, 312
-0.990007, 369, 201, 496, 264
-0.990014, 409, 145, 472, 208
-0.990014, 217, 33, 280, 288
-0.990021, 265, 1, 296, 128
-0.990062, 161, 1, 224, 375
-0.990075, 257, 33, 320, 64
-0.990088, 49, 97, 112, 352
-0.990091, 177, 289, 304, 352
-0.990131, 65, 121, 192, 184
-0.99015, 241, 145, 368, 208
-0.990182, 277, 1, 308, 128
-0.990209, 241, 225, 272, 288
-0.990215, 325, 57, 356, 120
-0.990253, 9, 225, 72, 288
-0.990267, 65, 289, 192, 352
-0.990299, 65, 145, 192, 208
-0.99032, 85, 57, 116, 120
-0.990329, 85, 105, 116, 168
-0.990345, 65, 241, 128, 304
-0.99035, 197, 1, 228, 64
-0.990363, 33, 265, 160, 328
-0.990366, 369, 121, 496, 184
-0.990444, 289, 249, 416, 312
-0.990449, 325, 193, 356, 256
-0.990463, 229, 305, 260, 368
-0.990531, 257, 45, 320, 76
-0.990549, 217, 1, 248, 64
-0.990574, 369, 145, 432, 208
-0.990602, 337, 233, 464, 296
-0.990629, 89, 49, 152, 80
-0.990675, 229, 177, 260, 304
-0.990705, 249, 1, 280, 128
-0.990737, 181, 177, 212, 304
-0.990743, 181, 313, 212, 375
-0.990775, 97, 25, 352, 88
-0.990798, 369, 169, 496, 232
-0.990801, 121, 1, 152, 128
-0.990833, 65, 41, 128, 72
-0.990845, 109, 129, 140, 256
-0.990846, 217, 129, 248, 256
-0.99088, 193, 313, 224, 375
-0.990884, 149, 273, 180, 336
-0.990925, 297, 189, 360, 220
-0.990961, 433, 97, 496, 352
-0.991006, 281, 49, 344, 80
-0.991013, 273, 225, 304, 288
-0.991073, 65, 177, 128, 208
-0.991106, 233, 41, 296, 72
-0.991123, 177, 1, 208, 64
-0.991171, 113, 225, 176, 256
-0.991183, 153, 129, 216, 375
-0.991184, 129, 249, 256, 312
-0.991202, 153, 229, 216, 260
-0.991207, 305, 313, 368, 375
-0.991219, 369, 97, 432, 224
-0.991225, 273, 233, 336, 264
-0.991241, 461, 129, 492, 256
-0.991253, 297, 137, 328, 200
-0.991256, 305, 41, 368, 72
-0.991258, 217, 229, 280, 260
-0.99126, 229, 1, 260, 64
-0.991277, 425, 49, 456, 176
-0.991337, 321, 121, 384, 152
-0.991358, 393, 1, 456, 256
-0.991386, 245, 17, 276, 80
-0.991387, 113, 205, 176, 236
-0.991469, 193, 169, 320, 232
-0.991475, 353, 241, 384, 304
-0.991482, 237, 1, 268, 128
-0.991489, 257, 221, 320, 252
-0.991502, 297, 73, 328, 136
-0.991506, 85, 305, 116, 368
-0.991528, 17, 73, 144, 136
-0.991567, 337, 1, 464, 64
-0.991571, 229, 225, 260, 288
-0.991576, 353, 225, 384, 352
-0.991578, 113, 49, 176, 80
-0.991591, 305, 177, 368, 208
-0.991595, 249, 201, 312, 232
-0.991598, 225, 205, 288, 236
-0.991606, 433, 265, 496, 328
-0.991614, 321, 17, 352, 144
-0.991615, 9, 161, 72, 288
-0.991616, 113, 169, 240, 232
-0.991622, 137, 25, 200, 56
-0.991652, 217, 113, 248, 176
-0.991662, 209, 177, 240, 304
-0.991666, 145, 197, 208, 228
-0.991668, 89, 229, 152, 260
-0.991676, 233, 329, 296, 360
-0.991678, 117, 225, 148, 288
-0.991692, 193, 345, 256, 375
-0.991693, 5, 305, 36, 368
-0.991694, 281, 333, 344, 364
-0.991701, 389, 233, 420, 296
-0.991722, 177, 229, 240, 260
-0.991725, 273, 313, 304, 375
-0.991745, 265, 241, 296, 368
-0.991749, 305, 213, 368, 244
-0.991751, 241, 121, 368, 184
-0.991764, 449, 113, 480, 240
-0.99177, 89, 181, 152, 212
-0.991773, 285, 1, 316, 64
-0.991773, 241, 233, 304, 264
-0.991786, 101, 305, 132, 368
-0.991801, 89, 217, 152, 248
-0.991803, 145, 41, 208, 72
-0.991823, 161, 1, 192, 128
-0.991823, 193, 49, 320, 176
-0.991848, 125, 313, 156, 375
-0.991848, 17, 249, 80, 312
-0.991851, 281, 345, 344, 375
-0.99186, 173, 225, 204, 288
-0.991861, 145, 341, 208, 372
-0.991868, 193, 321, 256, 352
-0.991889, 409, 1, 440, 64
-0.991906, 193, 197, 256, 228
-0.991913, 249, 189, 312, 220
-0.991914, 417, 293, 480, 324
-0.991925, 281, 141, 344, 172
-0.991929, 65, 189, 128, 220
-0.991931, 73, 9, 136, 72
-0.991935, 429, 273, 460, 336
-0.991935, 89, 169, 152, 200
-0.991942, 17, 17, 144, 80
-0.991968, 305, 337, 368, 368
-0.991969, 297, 117, 360, 148
-0.99197, 337, 265, 368, 328
-0.991972, 169, 197, 232, 228
-0.991977, 225, 193, 288, 224
-0.991979, 57, 209, 120, 240
-0.991992, 305, 53, 368, 84
-0.991996, 185, 333, 248, 364
-0.991997, 53, 305, 84, 368
-0.992007, 169, 321, 232, 352
-0.992009, 109, 145, 140, 208
-0.992022, 281, 173, 344, 204
-0.992031, 321, 105, 384, 136
-0.992044, 433, 185, 496, 216
-0.992055, 321, 161, 384, 192
-0.99206, 209, 41, 272, 72
-0.992077, 121, 189, 184, 220
-0.992081, 281, 61, 344, 92
-0.992096, 369, 253, 432, 284
-0.992105, 249, 345, 312, 375
-0.992108, 273, 205, 336, 236
-0.99211, 89, 61, 152, 92
-0.992112, 281, 221, 344, 252
-0.99213, 273, 21, 336, 52
-0.992131, 257, 329, 320, 360
-0.992132, 65, 225, 128, 256
-0.992134, 217, 345, 280, 375
-0.992137, 361, 337, 424, 368
-0.992139, 369, 97, 496, 160
-0.992148, 297, 105, 360, 136
-0.992152, 89, 145, 152, 176
-0.992155, 113, 25, 176, 56
-0.992158, 137, 1, 168, 128
-0.992159, 17, 313, 48, 375
-0.992164, 297, 225, 328, 352
-0.992177, 385, 209, 416, 336
-0.992179, 413, 241, 444, 368
-0.99218, 169, 41, 232, 72
-0.992188, 89, 157, 152, 188
-0.992194, 85, 241, 116, 368
-0.992196, 145, 317, 208, 348
-0.992205, 49, 313, 112, 344
-0.992216, 57, 337, 120, 368
-0.992216, 217, 113, 280, 176
-0.99222, 197, 177, 228, 304
-0.992222, 261, 313, 292, 375
-0.992223, 33, 337, 96, 368
-0.992231, 305, 141, 368, 172
-0.992237, 121, 129, 184, 375
-0.992263, 401, 305, 464, 336
-0.992268, 177, 129, 240, 375
-0.992273, 65, 57, 128, 88
-0.992274, 185, 17, 248, 48
-0.992276, 297, 129, 360, 160
-0.992279, 49, 105, 112, 136
-0.992279, 281, 161, 344, 192
-0.992285, 385, 345, 448, 375
-0.992288, 85, 193, 116, 320
-0.992292, 385, 281, 448, 312
-0.992293, 177, 249, 304, 312
-0.992301, 149, 1, 180, 128
-0.992302, 49, 121, 112, 152
-0.992311, 321, 189, 384, 220
-0.992319, 17, 313, 80, 344
-0.992323, 417, 125, 480, 156
-0.992323, 209, 333, 272, 364
-0.992337, 377, 265, 440, 296
-0.992354, 433, 137, 496, 168
-0.992359, 113, 337, 176, 368
-0.992364, 393, 293, 456, 324
-0.992366, 109, 169, 140, 232
-0.992366, 233, 217, 296, 248
-0.99237, 385, 193, 448, 256
-0.992373, 129, 237, 192, 268
-0.992391, 73, 101, 136, 132
-0.992402, 65, 161, 128, 192
-0.992405, 361, 237, 424, 268
-0.992407, 249, 305, 280, 368
-0.99241, 153, 209, 216, 240
-0.992415, 281, 85, 344, 116
-0.992422, 337, 269, 400, 300
-0.992441, 89, 85, 152, 116
-0.992446, 425, 305, 488, 336
-0.992447, 105, 313, 168, 344
-0.992449, 337, 249, 400, 280
-0.992453, 417, 169, 480, 200
-0.992461, 281, 73, 344, 104
-0.992473, 313, 201, 376, 232
-0.992474, 237, 29, 268, 60
-0.992474, 257, 129, 320, 375
-0.99249, 249, 29, 280, 60
-0.992496, 217, 29, 248, 60
-0.992515, 261, 29, 292, 60
-0.992524, 89, 73, 152, 104
-0.99253, 277, 33, 308, 64
-0.992534, 305, 33, 336, 64
-0.992534, 185, 121, 248, 152
-0.992539, 409, 157, 472, 188
-0.992543, 81, 313, 144, 344
-0.992548, 137, 329, 200, 360
-0.992559, 321, 93, 384, 124
-0.992565, 17, 17, 80, 144
-0.992566, 89, 113, 152, 144
-0.992566, 309, 177, 340, 208
-0.992567, 1, 329, 64, 360
-0.992568, 385, 41, 448, 72
-0.992572, 197, 29, 228, 60
-0.992583, 409, 281, 472, 312
-0.99259, 89, 241, 120, 304
-0.992591, 25, 241, 56, 368
-0.992594, 401, 97, 464, 352
-0.992595, 201, 209, 264, 240
-0.992595, 305, 189, 336, 220
-0.992595, 25, 325, 88, 356
-0.992602, 209, 121, 272, 152
-0.992605, 97, 181, 128, 212
-0.992611, 145, 33, 176, 64
-0.99262, 1, 289, 64, 352
-0.992621, 173, 29, 204, 60
-0.992622, 321, 289, 448, 352
-0.992631, 101, 33, 132, 64
-0.992662, 133, 33, 164, 64
-0.992672, 289, 161, 320, 224
-0.992674, 309, 141, 340, 172
-0.992679, 157, 29, 188, 60
-0.992696, 121, 33, 152, 64
-0.9927, 97, 169, 128, 200
-0.992706, 113, 49, 240, 112
-0.992722, 189, 289, 220, 352
-0.992723, 309, 85, 340, 116
-0.992734, 185, 29, 216, 60
-0.992742, 257, 33, 500, 96
-0.992755, 169, 313, 200, 375
-0.992761, 225, 49, 288, 176
-0.992779, 97, 53, 128, 84
-0.992779, 117, 45, 148, 76
-0.992785, 309, 153, 340, 184
-0.99279, 309, 97, 340, 128
-0.992791, 97, 145, 128, 176
-0.992793, 393, 1, 456, 375
-0.992806, 317, 213, 348, 244
-0.992812, 97, 77, 128, 108
-0.992813, 37, 241, 68, 368
-0.992816, 101, 193, 132, 224
-0.992827, 309, 125, 340, 156
-0.992833, 289, 33, 320, 64
-0.992838, 101, 17, 132, 80
-0.992838, 285, 45, 316, 76
-0.992845, 97, 65, 128, 96
-0.992856, 73, 265, 136, 328
-0.992859, 49, 17, 112, 80
-0.992861, 309, 73, 340, 104
-0.992863, 309, 113, 340, 144
-0.99288, 97, 157, 128, 188
-0.992889, 317, 165, 348, 196
-0.992892, 265, 281, 328, 344
-0.992896, 309, 61, 340, 92
-0.992909, 73, 241, 104, 368
-0.992915, 265, 41, 296, 72
-0.992916, 97, 89, 128, 120
-0.992919, 301, 225, 332, 256
-0.992932, 217, 225, 248, 288
-0.992937, 297, 49, 328, 80
-0.992944, 449, 209, 480, 272
-0.992957, 157, 229, 188, 260
-0.992961, 449, 129, 480, 192
-0.992962, 297, 313, 328, 375
-0.992963, 321, 117, 352, 148
-0.992967, 329, 313, 360, 375
-0.992971, 177, 225, 208, 352
-0.992974, 233, 129, 296, 375
-0.992988, 281, 233, 312, 264
-0.993005, 321, 101, 352, 132
-0.993017, 289, 201, 320, 232
-0.993021, 253, 41, 284, 72
-0.993032, 321, 129, 352, 160
-0.993037, 105, 229, 136, 260
-0.993038, 265, 257, 296, 320
-0.993057, 137, 221, 168, 252
-0.993065, 89, 213, 120, 244
-0.993069, 461, 137, 492, 200
-0.993069, 433, 81, 496, 144
-0.993071, 197, 225, 228, 288
-0.993071, 93, 101, 124, 132
-0.99308, 321, 141, 352, 172
-0.993081, 109, 57, 140, 88
-0.993085, 241, 229, 272, 260
-0.993095, 97, 133, 128, 164
-0.993108, 193, 341, 224, 372
-0.993119, 1, 209, 500, 272
-0.99312, 297, 113, 328, 176
-0.993123, 309, 337, 340, 368
-0.993128, 249, 205, 280, 236
-0.993129, 417, 33, 448, 96
-0.99313, 217, 121, 248, 152
-0.99313, 309, 45, 340, 76
-0.993132, 1, 241, 32, 368
-0.993136, 177, 229, 208, 260
-0.993138, 261, 229, 292, 260
-0.993142, 237, 197, 268, 228
-0.993145, 277, 197, 308, 228
-0.993147, 161, 161, 192, 288
-0.993164, 281, 221, 312, 252
-0.993171, 117, 201, 148, 232
-0.993175, 173, 1, 204, 128
-0.993176, 85, 89, 116, 120
-0.993176, 297, 61, 328, 92
-0.993177, 361, 97, 424, 160
-0.993182, 157, 41, 188, 72
-0.993183, 89, 41, 120, 72
-0.993188, 133, 233, 164, 264
-0.993199, 229, 229, 260, 260
-0.9932, 129, 201, 160, 232
-0.993203, 305, 165, 336, 196
-0.993206, 85, 145, 116, 176
-0.993207, 253, 193, 284, 224
-0.993212, 165, 197, 196, 228
-0.993216, 269, 333, 300, 364
-0.993216, 97, 113, 128, 144
-0.99322, 305, 213, 336, 244
-0.993223, 25, 281, 88, 344
-0.993224, 213, 325, 244, 356
-0.993225, 321, 89, 352, 120
-0.993225, 385, 337, 416, 368
-0.993226, 301, 201, 332, 232
-0.993228, 129, 45, 160, 76
-0.993233, 85, 161, 116, 192
-0.993233, 1, 121, 64, 184
-0.993233, 153, 197, 184, 228
-0.993234, 193, 49, 320, 112
-0.993236, 313, 225, 344, 256
-0.993237, 241, 41, 272, 72
-0.993237, 225, 197, 256, 228
-0.993238, 325, 41, 356, 72
-0.99324, 181, 317, 212, 348
-0.993242, 117, 233, 148, 264
-0.993244, 297, 73, 328, 104
-0.993245, 177, 197, 208, 228
-0.993248, 321, 153, 352, 184
-0.99325, 213, 229, 244, 260
-0.993254, 265, 201, 296, 232
-0.993256, 141, 205, 172, 236
-0.99326, 77, 313, 108, 344
-0.993267, 321, 333, 352, 364
-0.993269, 237, 329, 268, 360
-0.993271, 41, 313, 72, 344
-0.993272, 289, 185, 320, 216
-0.993278, 57, 241, 88, 272
-0.99328, 85, 133, 116, 164
-0.993281, 197, 229, 228, 260
-0.993291, 81, 253, 112, 284
-0.993293, 293, 213, 324, 244
-0.993294, 281, 329, 312, 360
-0.993298, 109, 181, 140, 212
-0.9933, 61, 313, 92, 344
-0.993301, 109, 69, 140, 100
-0.993303, 461, 181, 492, 212
-0.993308, 173, 337, 204, 368
-0.993308, 193, 317, 224, 348
-0.993309, 141, 1, 172, 64
-0.993311, 45, 249, 76, 280
-0.993313, 85, 121, 116, 152
-0.993314, 85, 77, 116, 108
-0.993322, 121, 313, 152, 344
-0.993325, 145, 1, 208, 256
-0.993325, 81, 177, 112, 208
-0.993329, 357, 253, 388, 284
-0.993331, 213, 197, 244, 228
-0.993332, 189, 197, 220, 228
-0.993334, 325, 177, 356, 208
-0.99334, 109, 157, 140, 188
-0.99334, 449, 297, 480, 328
-0.99334, 129, 9, 160, 72
-0.993341, 249, 325, 280, 356
-0.993343, 77, 333, 108, 364
-0.993363, 33, 305, 64, 368
-0.993369, 257, 201, 500, 264
-0.993397, 85, 33, 116, 96
-0.993402, 161, 29, 288, 60
-0.993473, 113, 313, 144, 375
-0.993504, 241, 281, 368, 344
-0.993512, 161, 289, 192, 352
-0.993564, 365, 257, 396, 320
-0.99357, 1, 33, 500, 96
-0.993576, 317, 233, 348, 296
-0.993584, 317, 313, 348, 375
-0.993595, 193, 225, 224, 352
-0.993598, 57, 209, 88, 336
-0.993598, 353, 313, 384, 375
-0.993615, 365, 225, 396, 352
-0.993624, 469, 233, 500, 296
-0.993632, 269, 281, 300, 344
-0.993691, 345, 113, 408, 240
-0.993696, 257, 97, 500, 160
-0.993754, 209, 33, 336, 64
-0.993754, 1, 201, 256, 264
-0.993767, 185, 225, 216, 288
-0.993774, 193, 121, 320, 184
-0.993813, 161, 121, 416, 184
-0.993829, 169, 25, 200, 88
-0.993835, 221, 225, 252, 352
-0.993889, 429, 97, 460, 160
-0.993915, 257, 1, 500, 64
-0.993962, 417, 257, 448, 320
-0.993985, 233, 25, 264, 88
-0.99399, 401, 257, 432, 320
-0.994007, 97, 1, 352, 64
-0.994027, 333, 225, 364, 352
-0.994029, 461, 209, 492, 336
-0.994034, 209, 289, 240, 352
-0.994038, 257, 161, 500, 224
-0.994121, 129, 129, 192, 256
-0.994151, 225, 197, 352, 228
-0.994256, 337, 177, 368, 304
-0.994422, 33, 113, 288, 176
-0.994446, 353, 129, 416, 375
-0.994451, 319, 33, 334, 96
-0.994457, 353, 145, 480, 208
-0.994462, 97, 33, 224, 64
-0.994519, 257, 121, 500, 184
-0.99453, 413, 1, 444, 128
-0.994531, 409, 129, 472, 256
-0.994538, 373, 177, 404, 304
-0.994539, 97, 225, 352, 288
-0.994546, 121, 129, 152, 256
-0.994569, 369, 57, 496, 120
-0.994586, 417, 1, 480, 375
-0.994611, 97, 49, 352, 112
-0.994627, 409, 33, 472, 160
-0.994629, 97, 313, 352, 375
-0.994646, 1, 33, 256, 96
-0.994649, 101, 33, 116, 96
-0.994694, 241, 45, 368, 76
-0.994701, 385, 49, 448, 176
-0.994719, 1, 313, 500, 375
-0.994776, 41, 1, 104, 375
-0.994873, 321, 137, 336, 200
-0.99495, 299, 25, 314, 88
-0.99508, 81, 197, 208, 228
-0.995085, 185, 1, 216, 128
-0.995089, 257, 57, 500, 120
-0.995119, 1, 225, 256, 288
-0.995123, 101, 145, 116, 208
-0.99513, 161, 97, 416, 160
-0.995171, 33, 89, 288, 152
-0.995181, 193, 225, 448, 288
-0.995203, 97, 169, 352, 232
-0.995321, 305, 25, 320, 88
-0.99534, 65, 45, 192, 76
-0.995404, 321, 57, 336, 120
-0.995417, 293, 25, 308, 88
-0.995427, 241, 129, 304, 256
-0.995452, 1, 305, 256, 368
-0.995456, 145, 121, 272, 184
-0.995458, 193, 305, 448, 368
-0.99548, 113, 193, 128, 256
-0.995496, 311, 185, 326, 248
-0.995508, 99, 97, 114, 160
-0.995508, 405, 161, 436, 288
-0.995587, 99, 121, 114, 184
-0.995596, 297, 193, 312, 256
-0.995618, 287, 25, 302, 88
-0.99562, 113, 49, 128, 112
-0.995621, 233, 225, 264, 352
-0.995638, 229, 129, 260, 256
-0.995653, 225, 1, 256, 128
-0.995677, 309, 49, 324, 112
-0.995683, 285, 201, 300, 264
-0.995689, 147, 201, 162, 264
-0.995697, 433, 81, 496, 208
-0.995703, 257, 33, 384, 64
-0.995718, 437, 97, 468, 224
-0.99572, 321, 209, 336, 272
-0.995769, 323, 105, 338, 168
-0.995779, 303, 193, 318, 256
-0.995796, 321, 81, 336, 144
-0.995802, 249, 201, 264, 264
-0.995817, 1, 233, 500, 296
-0.995841, 13, 241, 44, 368
-0.99588, 261, 201, 276, 264
-0.9959, 319, 161, 334, 224
-0.99594, 429, 241, 460, 368
-0.995974, 205, 129, 236, 256
-0.995999, 275, 201, 290, 264
-0.996, 353, 1, 416, 375
-0.996012, 127, 201, 142, 264
-0.996018, 177, 345, 304, 375
-0.996024, 311, 25, 326, 88
-0.996045, 255, 201, 270, 264
-0.996053, 49, 33, 176, 64
-0.996053, 1, 81, 500, 144
-0.996058, 161, 229, 288, 260
-0.996059, 281, 25, 296, 88
-0.996098, 209, 225, 240, 352
-0.996143, 273, 185, 400, 216
-0.996147, 73, 1, 104, 128
-0.996154, 157, 201, 172, 264
-0.996154, 99, 73, 114, 136
-0.996155, 291, 201, 306, 264
-0.996156, 119, 193, 134, 256
-0.996176, 137, 201, 152, 264
-0.996205, 305, 209, 432, 240
-0.996235, 141, 25, 156, 88
-0.996238, 65, 185, 192, 216
-0.99624, 113, 45, 240, 76
-0.996264, 235, 201, 250, 264
-0.996288, 101, 209, 116, 272
-0.996299, 103, 169, 118, 232
-0.996309, 161, 73, 416, 136
-0.996313, 225, 201, 240, 264
-0.996344, 309, 65, 340, 320
-0.996347, 313, 81, 328, 144
-0.996359, 109, 73, 124, 136
-0.996389, 243, 201, 258, 264
-0.996403, 429, 193, 460, 320
-0.996421, 287, 225, 302, 288
-0.996441, 285, 129, 316, 256
-0.996443, 161, 41, 288, 72
-0.996445, 257, 281, 500, 344
-0.996448, 33, 137, 288, 200
-0.996455, 449, 161, 480, 288
-0.99648, 269, 201, 284, 264
-0.99648, 1, 57, 500, 120
-0.99649, 119, 33, 134, 96
-0.996497, 135, 25, 150, 88
-0.996505, 313, 105, 328, 168
-0.996509, 193, 325, 320, 356
-0.99651, 97, 241, 128, 368
-0.996529, 161, 145, 416, 208
-0.996532, 217, 201, 232, 264
-0.996542, 147, 25, 162, 88
-0.996551, 321, 41, 448, 72
-0.996579, 225, 229, 352, 260
-0.996586, 305, 337, 432, 368
-0.996588, 167, 201, 182, 264
-0.996589, 195, 201, 210, 264
-0.996594, 153, 17, 168, 80
-0.996602, 209, 201, 224, 264
-0.996641, 203, 201, 218, 264
-0.996659, 113, 25, 128, 88
-0.996668, 187, 201, 202, 264
-0.996682, 225, 217, 352, 248
-0.9967, 275, 17, 290, 80
-0.996705, 283, 1, 298, 64
-0.996708, 225, 113, 240, 176
-0.996723, 321, 53, 448, 84
-0.996726, 129, 317, 256, 348
-0.996735, 329, 97, 392, 352
-0.996758, 113, 97, 240, 160
-0.996758, 97, 225, 224, 256
-0.996758, 97, 65, 128, 320
-0.996759, 97, 289, 352, 352
-0.996766, 241, 333, 368, 364
-0.996774, 181, 201, 196, 264
-0.996778, 107, 33, 122, 96
-0.9968, 109, 97, 124, 160
-0.996828, 129, 25, 144, 88
-0.996833, 1, 317, 128, 348
-0.996839, 309, 1, 324, 64
-0.996856, 129, 197, 256, 228
-0.996859, 313, 161, 328, 224
-0.996862, 1, 185, 500, 248
-0.996866, 289, 1, 304, 64
-0.996868, 173, 201, 188, 264
-0.996872, 109, 169, 124, 232
-0.996892, 273, 197, 400, 228
-0.996919, 177, 205, 304, 236
-0.996922, 253, 225, 268, 288
-0.996964, 17, 181, 144, 212
-0.996973, 297, 1, 328, 256
-0.996976, 441, 209, 472, 336
-0.996985, 69, 313, 84, 375
-0.99699, 33, 201, 160, 232
-0.996994, 153, 313, 168, 375
-0.996995, 269, 1, 284, 64
-0.996998, 149, 225, 164, 288
-0.996998, 209, 313, 224, 375
-0.997004, 1, 169, 256, 232
-0.99701, 213, 17, 244, 144
-0.997011, 305, 225, 320, 288
-0.997018, 109, 121, 124, 184
-0.997035, 321, 121, 448, 152
-0.997061, 109, 1, 140, 256
-0.997065, 97, 209, 224, 240
-0.997068, 341, 241, 356, 304
-0.997086, 139, 225, 154, 288
-0.997089, 353, 345, 480, 375
-0.997089, 331, 169, 346, 232
-0.997108, 321, 161, 448, 192
-0.997117, 305, 161, 320, 224
-0.997126, 121, 225, 136, 288
-0.997134, 361, 161, 392, 288
-0.997139, 241, 345, 368, 375
-0.997181, 417, 177, 448, 304
-0.997181, 33, 193, 64, 320
-0.997182, 313, 129, 328, 192
-0.997195, 193, 97, 320, 160
-0.997201, 189, 313, 204, 375
-0.997207, 321, 189, 448, 220
-0.997212, 81, 313, 208, 344
-0.997213, 331, 145, 346, 208
-0.997222, 225, 185, 352, 216
-0.997226, 315, 217, 330, 280
-0.997227, 159, 17, 174, 80
-0.997242, 83, 313, 98, 375
-0.997269, 201, 1, 216, 64
-0.99727, 17, 65, 80, 192
-0.997284, 215, 313, 230, 375
-0.997285, 157, 225, 172, 288
-0.99729, 385, 265, 400, 328
-0.997293, 177, 193, 304, 224
-0.997295, 115, 161, 130, 224
-0.997304, 223, 305, 238, 368
-0.997306, 329, 1, 392, 256
-0.997307, 385, 161, 416, 288
-0.997317, 129, 337, 256, 368
-0.997324, 289, 221, 416, 252
-0.997339, 207, 1, 222, 64
-0.997342, 173, 313, 188, 375
-0.997349, 75, 305, 90, 368
-0.997354, 263, 1, 278, 64
-0.99736, 303, 49, 318, 112
-0.997363, 299, 225, 314, 288
-0.997365, 243, 313, 258, 375
-0.997371, 17, 45, 144, 76
-0.997372, 321, 177, 448, 208
-0.997376, 209, 21, 336, 52
-0.997379, 17, 213, 144, 244
-0.997384, 257, 1, 272, 64
-0.997385, 273, 57, 400, 88
-0.997392, 329, 1, 392, 375
-0.997396, 17, 113, 80, 240
-0.997398, 327, 201, 342, 264
-0.997398, 321, 149, 448, 180
-0.997405, 217, 1, 232, 64
-0.997427, 167, 17, 182, 80
-0.997429, 161, 313, 176, 375
-0.997434, 267, 313, 282, 375
-0.997436, 235, 1, 250, 64
-0.997436, 133, 225, 148, 288
-0.997436, 167, 313, 182, 375
-0.997436, 425, 17, 440, 80
-0.997436, 111, 225, 126, 288
-0.997438, 229, 305, 244, 368
-0.997441, 145, 313, 160, 375
-0.997446, 217, 29, 232, 60
-0.997446, 447, 313, 462, 375
-0.99745, 273, 173, 400, 204
-0.997457, 227, 1, 242, 64
-0.997459, 405, 113, 436, 240
-0.997465, 267, 281, 282, 344
-0.997468, 263, 29, 278, 60
-0.997471, 201, 313, 216, 375
-0.997486, 225, 29, 240, 60
-0.997498, 253, 29, 268, 60
-0.997499, 45, 193, 76, 320
-0.997501, 135, 297, 150, 360
-0.997503, 195, 1, 210, 64
-0.997503, 469, 217, 484, 280
-0.997503, 109, 305, 124, 368
-0.997514, 237, 313, 252, 375
-0.997516, 289, 33, 304, 64
-0.997519, 17, 225, 144, 256
-0.997519, 1, 289, 500, 352
-0.997521, 235, 29, 250, 60
-0.997522, 295, 1, 310, 64
-0.997529, 245, 29, 260, 60
-0.99753, 13, 305, 28, 368
-0.997536, 189, 1, 204, 64
-0.997537, 245, 225, 260, 288
-0.997538, 203, 29, 218, 60
-0.997548, 17, 101, 144, 132
-0.997549, 161, 249, 416, 312
-0.997554, 161, 273, 176, 336
-0.997557, 271, 29, 286, 60
-0.997563, 233, 225, 248, 288
-0.997573, 1, 105, 500, 168
-0.997575, 439, 297, 454, 360
-0.997614, 321, 137, 448, 168
-0.997614, 283, 33, 298, 64
-0.997618, 321, 109, 448, 140
-0.997622, 277, 33, 292, 64
-0.997627, 241, 245, 368, 276
-0.99763, 97, 21, 224, 52
-0.997633, 321, 145, 336, 176
-0.997636, 241, 113, 368, 144
-0.997636, 149, 33, 164, 64
-0.997638, 155, 33, 170, 64
-0.997649, 197, 1, 228, 128
-0.997652, 191, 29, 206, 60
-0.997674, 65, 325, 192, 356
-0.99768, 295, 33, 310, 64
-0.997687, 129, 33, 144, 64
-0.997689, 321, 133, 336, 164
-0.997692, 113, 185, 240, 216
-0.997694, 321, 85, 336, 116
-0.997701, 165, 29, 180, 60
-0.997713, 17, 121, 144, 152
-0.997721, 143, 33, 158, 64
-0.997722, 121, 33, 136, 64
-0.997723, 171, 29, 186, 60
-0.997735, 211, 29, 226, 60
-0.99774, 85, 129, 116, 375
-0.997747, 135, 33, 150, 64
-0.997757, 65, 173, 192, 204
-0.997762, 197, 29, 212, 60
-0.997767, 81, 237, 208, 268
-0.997771, 321, 209, 336, 240
-0.997773, 353, 293, 480, 324
-0.997782, 323, 121, 338, 152
-0.997785, 321, 29, 448, 60
-0.997788, 323, 105, 338, 136
-0.997789, 99, 133, 114, 164
-0.997797, 1, 1, 64, 375
-0.997799, 301, 33, 316, 64
-0.997802, 99, 145, 114, 176
-0.997815, 185, 29, 200, 60
-0.997818, 369, 125, 496, 156
-0.997829, 101, 157, 116, 188
-0.99783, 321, 73, 336, 104
-0.997832, 179, 29, 194, 60
-0.997835, 65, 57, 192, 88
-0.997849, 17, 333, 144, 364
-0.997854, 377, 113, 408, 240
-0.997865, 297, 129, 328, 375
-0.997872, 1, 273, 256, 336
-0.997874, 321, 157, 336, 188
-0.997882, 99, 105, 114, 136
-0.997889, 85, 33, 116, 288
-0.997891, 99, 117, 114, 148
-0.997902, 241, 69, 368, 100
-0.997907, 305, 249, 432, 280
-0.997918, 433, 1, 496, 128
-0.997922, 257, 257, 500, 320
-0.997923, 17, 153, 144, 184
-0.997928, 309, 53, 324, 84
-0.997936, 65, 257, 192, 288
-0.997966, 81, 337, 208, 368
-0.997972, 101, 169, 116, 200
-0.997978, 309, 225, 340, 352
-0.997979, 99, 89, 114, 120
-0.997984, 129, 257, 256, 288
-0.997988, 319, 169, 334, 200
-0.997988, 273, 161, 400, 192
-0.998004, 65, 85, 192, 116
-0.998008, 113, 53, 128, 84
-0.99801, 65, 113, 192, 144
-0.998017, 65, 69, 192, 100
-0.998018, 299, 45, 314, 76
-0.99802, 65, 149, 192, 180
-0.998025, 17, 57, 144, 88
-0.998043, 145, 217, 272, 248
-0.99805, 1, 301, 128, 332
-0.998057, 17, 193, 48, 320
-0.998059, 123, 45, 138, 76
-0.99806, 1, 1, 500, 64
-0.998066, 241, 125, 368, 156
-0.998068, 1, 249, 256, 312
-0.99807, 241, 149, 368, 180
-0.998074, 241, 261, 368, 292
-0.998087, 305, 325, 432, 356
-0.998093, 41, 1, 104, 256
-0.998116, 99, 77, 114, 108
-0.998127, 161, 241, 288, 272
-0.99813, 307, 193, 322, 224
-0.998145, 273, 233, 400, 264
-0.998155, 1, 145, 500, 208
-0.998155, 17, 165, 144, 196
-0.998155, 271, 41, 286, 72
-0.998159, 115, 33, 130, 64
-0.998178, 65, 101, 192, 132
-0.998182, 65, 161, 192, 192
-0.998201, 65, 129, 192, 160
-0.998215, 265, 41, 280, 72
-0.998229, 307, 33, 322, 64
-0.998231, 321, 61, 336, 92
-0.998254, 241, 137, 368, 168
-0.998258, 311, 65, 326, 96
-0.998267, 101, 209, 116, 240
-0.998269, 101, 65, 116, 96
-0.998273, 313, 85, 328, 116
-0.998278, 253, 229, 268, 260
-0.998279, 111, 69, 126, 100
-0.998279, 109, 85, 124, 116
-0.998281, 321, 33, 352, 288
-0.998283, 257, 21, 384, 52
-0.998291, 259, 41, 274, 72
-0.998299, 223, 121, 238, 152
-0.9983, 161, 41, 176, 72
-0.998309, 293, 201, 308, 232
-0.99831, 103, 37, 118, 68
-0.998317, 369, 237, 496, 268
-0.998323, 241, 101, 368, 132
-0.998324, 315, 33, 330, 64
-0.998328, 313, 97, 328, 128
-0.998338, 33, 1, 64, 128
-0.998341, 61, 349, 92, 364
-0.998341, 141, 205, 172, 220
-0.998341, 93, 123, 124, 138
-0.998341, 113, 187, 144, 202
-0.998341, 325, 189, 356, 204
-0.998341, 325, 181, 356, 196
-0.998342, 269, 331, 300, 346
-0.998342, 85, 143, 116, 158
-0.998342, 85, 149, 116, 164
-0.998343, 125, 231, 156, 246
-0.998343, 85, 93, 116, 108
-0.998344, 247, 197, 262, 228
-0.998344, 109, 33, 124, 64
-0.998346, 213, 323, 244, 338
-0.998347, 185, 209, 216, 224
-0.998347, 293, 35, 324, 50
-0.998347, 329, 159, 360, 174
-0.998349, 89, 215, 120, 230
-0.99835, 137, 199, 168, 214
-0.99835, 425, 97, 456, 224
-0.998351, 85, 107, 116, 122
-0.998353, 93, 117, 124, 132
-0.998353, 93, 129, 124, 144
-0.998353, 109, 65, 140, 80
-0.998356, 321, 213, 352, 228
-0.998357, 261, 199, 292, 214
-0.998358, 149, 199, 180, 214
-0.998358, 109, 49, 140, 64
-0.998358, 259, 197, 274, 228
-0.99836, 97, 43, 128, 58
-0.998363, 85, 99, 116, 114
-0.998364, 321, 115, 352, 130
-0.998365, 153, 207, 184, 222
-0.998365, 293, 225, 308, 256
-0.998365, 17, 133, 144, 164
-0.998366, 293, 195, 324, 210
-0.998367, 97, 135, 128, 150
-0.998367, 165, 207, 196, 222
-0.998367, 321, 99, 352, 114
-0.998367, 313, 141, 328, 172
-0.998367, 389, 357, 420, 372
-0.998369, 217, 209, 248, 224
-0.99837, 197, 209, 228, 224
-0.998371, 129, 205, 160, 220
-0.998371, 321, 153, 352, 168
-0.998372, 193, 121, 320, 152
-0.998373, 105, 231, 136, 246
-0.998373, 261, 231, 292, 246
-0.998374, 369, 209, 496, 240
-0.998374, 321, 93, 448, 124
-0.998375, 277, 197, 308, 212
-0.998376, 97, 105, 128, 120
-0.998376, 305, 163, 336, 178
-0.998377, 249, 199, 280, 214
-0.998378, 265, 205, 296, 220
-0.998379, 285, 203, 316, 218
-0.99838, 121, 35, 152, 50
-0.99838, 321, 143, 352, 158
-0.99838, 217, 123, 248, 138
-0.99838, 321, 105, 352, 120
-0.998381, 141, 231, 172, 246
-0.998381, 193, 341, 208, 372
-0.998382, 309, 47, 340, 62
-0.998382, 113, 55, 144, 70
-0.998382, 97, 141, 128, 156
-0.998385, 321, 129, 352, 144
-0.998386, 433, 359, 464, 374
-0.998387, 131, 201, 146, 232
-0.998387, 125, 197, 156, 212
-0.998388, 103, 181, 118, 212
-0.998389, 85, 155, 116, 170
-0.998389, 321, 121, 352, 136
-0.99839, 189, 41, 220, 56
-0.998391, 317, 221, 348, 236
-0.998395, 293, 55, 324, 70
-0.998398, 309, 109, 340, 124
-0.998399, 305, 35, 336, 50
-0.9984, 253, 197, 268, 228
-0.9984, 309, 215, 340, 230
-0.998401, 293, 223, 324, 238
-0.998402, 309, 53, 340, 68
-0.998403, 265, 33, 296, 48
-0.998404, 201, 39, 232, 54
-0.998405, 321, 137, 352, 152
-0.998405, 233, 207, 264, 222
-0.998406, 369, 177, 496, 208
-0.998408, 89, 221, 120, 236
-0.998409, 109, 145, 124, 176
-0.998409, 153, 33, 184, 48
-0.99841, 137, 35, 168, 50
-0.99841, 169, 49, 232, 176
-0.998411, 121, 201, 136, 232
-0.998411, 245, 207, 276, 222
-0.998411, 301, 231, 332, 246
-0.998411, 97, 99, 128, 114
-0.998412, 153, 41, 184, 56
-0.998415, 107, 225, 122, 256
-0.998419, 107, 101, 122, 132
-0.99842, 309, 115, 340, 130
-0.998421, 213, 39, 244, 54
-0.998421, 213, 33, 244, 48
-0.998422, 101, 197, 132, 212
-0.998422, 309, 185, 340, 200
-0.998424, 309, 67, 340, 82
-0.998425, 97, 147, 128, 162
-0.998428, 309, 73, 340, 88
-0.998429, 313, 59, 344, 74
-0.998431, 233, 41, 264, 56
-0.998431, 107, 113, 122, 144
-0.998431, 369, 325, 496, 356
-0.998432, 229, 33, 260, 48
-0.998433, 309, 173, 340, 188
-0.998433, 165, 41, 196, 56
-0.998433, 309, 181, 324, 212
-0.998434, 165, 33, 196, 48
-0.998436, 277, 231, 308, 246
-0.998436, 241, 81, 368, 112
-0.998437, 97, 71, 128, 86
-0.998439, 97, 185, 128, 200
-0.998441, 309, 103, 340, 118
-0.998441, 309, 83, 340, 98
-0.998441, 141, 43, 172, 58
-0.998441, 97, 153, 128, 168
-0.998443, 167, 41, 182, 72
-0.998443, 313, 125, 328, 156
-0.998444, 265, 43, 296, 58
-0.998444, 97, 93, 128, 108
-0.998444, 313, 225, 328, 256
-0.998444, 129, 305, 256, 336
-0.998445, 101, 37, 132, 52
-0.998446, 197, 33, 228, 48
-0.998446, 309, 197, 340, 212
-0.998447, 101, 53, 116, 84
-0.998447, 377, 129, 440, 375
-0.998447, 177, 33, 208, 48
-0.998448, 265, 197, 280, 228
-0.998449, 97, 177, 128, 192
-0.998449, 129, 45, 144, 76
-0.99845, 97, 163, 128, 178
-0.99845, 317, 165, 348, 180
-0.998451, 97, 87, 128, 102
-0.998451, 97, 171, 128, 186
-0.998453, 97, 63, 128, 78
-0.998453, 177, 41, 208, 56
-0.998454, 97, 55, 128, 70
-0.998455, 309, 127, 340, 142
-0.998456, 309, 121, 340, 136
-0.998458, 241, 197, 256, 228
-0.998458, 97, 79, 128, 94
-0.99846, 253, 33, 284, 48
-0.998461, 245, 41, 276, 56
-0.998462, 121, 45, 152, 60
-0.998464, 253, 41, 268, 72
-0.998464, 57, 1, 88, 128
-0.998464, 313, 179, 344, 194
-0.998464, 321, 333, 336, 364
-0.998464, 309, 91, 340, 106
-0.998465, 111, 165, 126, 196
-0.998465, 285, 33, 316, 288
-0.998466, 317, 159, 348, 174
-0.998467, 273, 201, 288, 232
-0.998469, 313, 113, 328, 144
-0.998473, 309, 97, 340, 112
-0.998473, 241, 33, 272, 48
-0.998474, 309, 137, 340, 152
-0.998477, 175, 197, 190, 228
-0.998479, 153, 197, 168, 228
-0.998482, 287, 201, 302, 232
-0.998484, 181, 197, 196, 228
-0.998489, 97, 191, 128, 206
-0.99849, 309, 153, 340, 168
-0.99849, 285, 45, 316, 60
-0.998493, 301, 201, 316, 232
-0.998497, 157, 229, 172, 260
-0.998497, 309, 143, 340, 158
-0.998503, 327, 333, 342, 364
-0.998505, 293, 45, 308, 76
-0.998505, 273, 35, 336, 50
-0.998509, 181, 229, 196, 260
-0.99851, 321, 237, 448, 268
-0.998511, 163, 197, 178, 228
-0.998511, 283, 229, 298, 260
-0.998512, 309, 191, 340, 206
-0.998517, 281, 199, 344, 214
-0.998517, 33, 245, 160, 276
-0.998518, 97, 37, 160, 52
-0.998519, 201, 341, 216, 372
-0.998519, 301, 221, 316, 252
-0.998519, 245, 229, 260, 260
-0.99852, 153, 41, 216, 56
-0.99852, 169, 197, 184, 228
-0.998522, 235, 197, 250, 228
-0.998523, 89, 197, 152, 212
-0.998526, 121, 189, 136, 220
-0.998529, 113, 189, 128, 220
-0.998533, 249, 43, 312, 58
-0.998534, 107, 125, 122, 156
-0.998534, 209, 41, 272, 56
-0.998535, 309, 333, 324, 364
-0.998535, 307, 225, 322, 256
-0.998537, 237, 229, 252, 260
-0.998539, 333, 337, 348, 368
-0.99854, 145, 17, 272, 48
-0.998541, 227, 229, 242, 260
-0.998543, 297, 193, 360, 208
-0.998543, 149, 221, 164, 252
-0.998545, 161, 33, 224, 48
-0.998549, 113, 45, 176, 60
-0.998549, 241, 313, 368, 344
-0.998552, 177, 301, 304, 332
-0.998555, 209, 33, 272, 48
-0.998556, 321, 261, 448, 292
-0.998558, 185, 33, 248, 48
-0.99856, 121, 229, 136, 260
-0.998563, 17, 89, 144, 120
-0.998563, 281, 21, 296, 52
-0.998565, 91, 313, 106, 344
-0.998566, 337, 277, 464, 308
-0.998567, 129, 229, 144, 260
-0.998567, 263, 229, 278, 260
-0.998567, 337, 5, 464, 36
-0.99857, 245, 325, 260, 356
-0.998571, 151, 337, 166, 368
-0.998575, 97, 203, 160, 218
-0.998576, 319, 49, 334, 80
-0.998581, 185, 39, 248, 54
-0.998581, 321, 221, 336, 252
-0.998582, 281, 47, 344, 62
-0.998582, 233, 33, 296, 48
-0.998582, 187, 197, 202, 228
-0.998583, 197, 229, 212, 260
-0.998585, 113, 129, 144, 375
-0.998591, 89, 47, 152, 62
-0.998594, 249, 205, 312, 220
-0.998594, 305, 313, 432, 344
-0.998597, 281, 53, 344, 68
-0.998598, 89, 55, 152, 70
-0.998598, 121, 33, 184, 48
-0.998601, 129, 231, 192, 246
-0.99861, 289, 41, 352, 56
-0.998611, 273, 193, 336, 208
-0.998612, 249, 197, 312, 212
-0.998613, 225, 207, 288, 222
-0.998613, 1, 1, 256, 64
-0.998614, 129, 199, 192, 214
-0.998615, 97, 221, 160, 236
-0.998617, 137, 207, 200, 222
-0.998619, 281, 231, 344, 246
-0.998619, 305, 187, 368, 202
-0.99862, 249, 231, 312, 246
-0.99862, 281, 357, 344, 372
-0.998625, 273, 205, 336, 220
-0.998626, 265, 223, 328, 238
-0.99863, 225, 199, 288, 214
-0.998631, 201, 209, 264, 224
-0.998632, 65, 45, 128, 60
-0.998634, 297, 159, 360, 174
-0.998634, 65, 193, 128, 208
-0.998636, 193, 253, 320, 284
-0.998637, 89, 191, 152, 206
-0.998637, 425, 361, 488, 375
-0.998638, 177, 209, 240, 224
-0.998639, 193, 345, 256, 360
-0.998639, 433, 297, 496, 312
-0.998641, 57, 211, 120, 226
-0.998642, 65, 181, 128, 196
-0.998642, 73, 227, 136, 242
-0.998643, 105, 231, 168, 246
-0.998643, 161, 319, 224, 334
-0.998644, 209, 231, 272, 246
-0.998644, 321, 121, 384, 136
-0.998644, 305, 57, 368, 72
-0.998646, 65, 51, 128, 66
-0.998648, 281, 187, 344, 202
-0.998648, 281, 181, 344, 196
-0.998648, 281, 59, 344, 74
-0.998649, 305, 181, 368, 196
-0.99865, 361, 337, 424, 352
-0.99865, 153, 201, 216, 216
-0.99865, 265, 333, 328, 348
-0.998651, 305, 51, 368, 66
-0.998651, 305, 215, 368, 230
-0.998652, 193, 201, 256, 216
-0.998652, 153, 231, 216, 246
-0.998653, 361, 357, 424, 372
-0.998654, 321, 131, 384, 146
-0.998654, 257, 49, 320, 64
-0.998656, 421, 1, 452, 256
-0.998656, 297, 335, 360, 350
-0.998657, 409, 293, 472, 308
-0.998657, 369, 189, 496, 220
-0.998659, 193, 321, 256, 336
-0.998659, 65, 57, 128, 72
-0.99866, 321, 161, 384, 176
-0.998661, 177, 231, 240, 246
-0.998661, 65, 301, 192, 332
-0.998662, 49, 121, 112, 136
-0.998662, 281, 143, 344, 158
-0.998662, 281, 137, 344, 152
-0.998663, 297, 105, 360, 120
-0.998663, 281, 149, 344, 164
-0.998666, 289, 73, 416, 104
-0.998666, 313, 351, 376, 366
-0.998666, 297, 117, 360, 132
-0.998667, 257, 237, 320, 252
-0.998667, 65, 187, 128, 202
-0.998668, 17, 77, 144, 108
-0.998668, 313, 209, 376, 224
-0.998668, 97, 215, 160, 230
-0.998668, 73, 39, 136, 54
-0.998668, 161, 341, 224, 356
-0.998669, 385, 355, 448, 370
-0.998671, 417, 313, 480, 328
-0.998672, 233, 329, 296, 344
-0.998672, 113, 51, 176, 66
-0.998672, 89, 153, 152, 168
-0.998673, 201, 339, 264, 354
-0.998673, 305, 141, 368, 156
-0.998674, 89, 61, 152, 76
-0.998674, 289, 349, 352, 364
-0.998675, 89, 177, 152, 192
-0.998676, 153, 359, 216, 374
-0.998676, 321, 155, 384, 170
-0.998676, 281, 173, 344, 188
-0.998676, 297, 129, 360, 144
-0.998677, 129, 225, 192, 240
-0.998677, 321, 175, 384, 190
-0.99868, 257, 353, 320, 368
-0.99868, 129, 237, 192, 252
-0.998681, 65, 157, 128, 172
-0.998681, 209, 125, 272, 140
-0.998681, 401, 361, 464, 375
-0.998681, 281, 73, 344, 88
-0.998681, 89, 159, 152, 174
-0.998681, 321, 197, 384, 212
-0.998681, 393, 299, 456, 314
-0.998682, 297, 165, 360, 180
-0.998682, 273, 215, 336, 230
-0.998682, 241, 225, 304, 240
-0.998683, 297, 111, 360, 126
-0.998683, 89, 171, 152, 186
-0.998683, 417, 305, 480, 320
-0.998683, 89, 147, 152, 162
-0.998683, 65, 269, 192, 300
-0.998684, 361, 351, 424, 366
-0.998684, 233, 343, 296, 358
-0.998686, 257, 347, 320, 362
-0.998686, 233, 349, 296, 364
-0.998686, 89, 91, 152, 106
-0.998687, 89, 99, 152, 114
-0.998687, 377, 1, 440, 16
-0.998687, 89, 183, 152, 198
-0.998687, 385, 279, 448, 294
-0.998687, 33, 349, 96, 364
-0.998687, 377, 265, 440, 280
-0.998691, 217, 129, 248, 375
-0.998692, 121, 1, 152, 256
-0.998695, 145, 121, 272, 152
-0.998698, 177, 313, 304, 344
-0.998699, 1, 265, 500, 328
-0.998728, 353, 309, 480, 340
-0.998733, 1, 1, 128, 32
-0.99875, 365, 113, 396, 240
-0.998753, 321, 129, 352, 375
-0.998761, 225, 33, 256, 288
-0.998762, 313, 145, 328, 272
-0.998785, 321, 33, 336, 160
-0.998785, 369, 137, 496, 168
-0.998815, 213, 33, 244, 288
-0.998822, 281, 129, 312, 375
-0.998822, 17, 129, 80, 375
-0.998842, 101, 17, 116, 144
-0.998855, 321, 81, 336, 208
-0.998858, 361, 49, 424, 176
-0.998861, 353, 113, 384, 240
-0.998862, 289, 289, 416, 320
-0.998878, 389, 81, 420, 208
-0.998888, 17, 257, 144, 288
-0.998902, 311, 49, 326, 176
-0.998909, 111, 161, 126, 288
-0.998933, 101, 81, 116, 208
-0.998941, 369, 265, 496, 296
-0.998954, 369, 1, 432, 256
-0.998958, 353, 65, 480, 96
-0.998981, 307, 177, 322, 304
-0.998982, 321, 129, 336, 256
-0.998984, 109, 49, 124, 176
-0.998992, 369, 105, 496, 136
-0.999003, 209, 57, 336, 88
-0.999005, 101, 129, 116, 256
-0.999008, 129, 269, 256, 300
-0.999021, 457, 97, 488, 352
-0.999054, 1, 57, 256, 120
-0.999062, 119, 177, 134, 304
-0.999069, 237, 33, 268, 288
-0.999082, 321, 193, 336, 320
-0.999124, 445, 97, 476, 352
-0.999131, 301, 177, 316, 304
-0.999132, 201, 33, 232, 288
-0.999136, 41, 49, 104, 176
-0.999148, 417, 1, 480, 256
-0.999153, 193, 145, 320, 208
-0.999194, 307, 1, 322, 128
-0.999197, 329, 49, 392, 176
-0.999203, 115, 1, 130, 128
-0.999204, 433, 65, 464, 320
-0.999213, 245, 129, 276, 375
-0.999216, 17, 1, 48, 128
-0.99925, 307, 129, 322, 256
-0.999251, 129, 129, 160, 375
-0.999261, 461, 81, 492, 208
-0.999264, 313, 1, 328, 128
-0.99927, 201, 129, 232, 375
-0.999287, 253, 33, 284, 288
-0.99929, 125, 209, 140, 336
-0.9993, 173, 241, 188, 368
-0.9993, 329, 145, 344, 272
-0.999301, 287, 177, 302, 304
-0.999303, 147, 225, 162, 352
-0.999303, 349, 161, 380, 288
-0.999303, 321, 241, 352, 368
-0.999306, 163, 241, 178, 368
-0.999311, 293, 177, 308, 304
-0.999313, 295, 225, 310, 352
-0.999314, 265, 177, 280, 304
-0.999315, 101, 193, 116, 320
-0.999321, 315, 193, 330, 320
-0.999325, 45, 1, 76, 128
-0.999325, 185, 33, 216, 288
-0.999335, 273, 177, 288, 304
-0.99935, 315, 97, 330, 224
-0.999357, 109, 97, 124, 224
-0.999365, 255, 177, 270, 304
-0.999386, 185, 129, 216, 375
-0.99939, 301, 1, 316, 128
-0.999391, 135, 177, 150, 304
-0.999394, 109, 1, 124, 128
-0.999394, 155, 241, 170, 368
-0.999401, 295, 1, 310, 128
-0.999408, 165, 177, 180, 304
-0.999408, 155, 177, 170, 304
-0.999409, 109, 209, 124, 336
-0.999411, 229, 129, 260, 375
-0.999412, 249, 1, 264, 128
-0.999414, 257, 1, 272, 128
-0.999416, 279, 177, 294, 304
-0.999417, 173, 177, 188, 304
-0.999426, 227, 129, 242, 256
-0.999428, 235, 177, 250, 304
-0.999429, 119, 225, 134, 352
-0.999434, 243, 177, 258, 304
-0.999436, 263, 1, 278, 128
-0.999438, 437, 49, 452, 176
-0.999442, 123, 1, 138, 128
-0.999446, 173, 129, 204, 256
-0.999448, 141, 177, 156, 304
-0.999449, 165, 33, 196, 288
-0.99945, 183, 177, 198, 304
-0.999458, 141, 129, 172, 375
-0.999462, 259, 225, 274, 352
-0.999463, 149, 177, 164, 304
-0.999469, 279, 225, 294, 352
-0.999471, 81, 241, 96, 368
-0.999471, 301, 225, 316, 352
-0.999473, 145, 1, 160, 128
-0.999476, 331, 17, 346, 144
-0.999476, 249, 177, 264, 304
-0.999477, 225, 177, 240, 304
-0.999479, 289, 1, 304, 128
-0.999481, 271, 1, 286, 128
-0.999485, 125, 161, 140, 288
-0.999486, 253, 225, 268, 352
-0.999488, 171, 1, 186, 128
-0.999488, 117, 129, 132, 256
-0.999489, 279, 1, 294, 128
-0.999492, 195, 177, 210, 304
-0.999492, 163, 1, 178, 128
-0.999494, 221, 129, 236, 256
-0.999498, 93, 145, 108, 272
-0.999498, 427, 1, 442, 128
-0.999499, 161, 129, 192, 375
-0.9995, 347, 241, 362, 368
-0.999501, 305, 49, 320, 176
-0.999501, 209, 177, 224, 304
-0.999503, 129, 1, 144, 128
-0.999503, 483, 129, 498, 256
-0.99951, 203, 177, 218, 304
-0.999511, 11, 241, 26, 368
-0.999514, 179, 241, 194, 368
-0.999515, 133, 225, 148, 352
-0.999517, 157, 1, 172, 128
-0.999517, 285, 225, 300, 352
-0.99952, 151, 1, 166, 128
-0.999527, 189, 177, 204, 304
-0.999527, 243, 1, 258, 128
-0.999527, 49, 209, 64, 336
-0.999529, 177, 1, 192, 128
-0.999529, 39, 241, 54, 368
-0.99953, 117, 49, 132, 176
-0.999533, 139, 1, 154, 128
-0.999541, 475, 129, 490, 256
-0.999541, 91, 65, 106, 192
-0.999545, 331, 97, 346, 224
-0.999546, 265, 241, 280, 368
-0.999548, 91, 1, 106, 128
-0.999551, 261, 129, 292, 375
-0.999552, 273, 1, 304, 256
-0.999553, 401, 241, 416, 368
-0.999554, 129, 231, 144, 246
-0.999555, 123, 203, 138, 218
-0.999555, 159, 207, 174, 222
-0.999555, 107, 123, 122, 138
-0.999556, 457, 113, 472, 240
-0.999557, 219, 177, 234, 304
-0.999557, 299, 225, 314, 240
-0.999558, 365, 225, 380, 352
-0.999558, 465, 129, 480, 256
-0.999558, 319, 63, 334, 78
-0.999559, 293, 203, 308, 218
-0.999559, 109, 81, 124, 96
-0.999559, 311, 69, 326, 84
-0.999559, 311, 81, 326, 96
-0.999559, 109, 93, 124, 108
-0.999559, 87, 241, 102, 368
-0.999559, 119, 233, 134, 248
-0.99956, 207, 41, 222, 56
-0.99956, 321, 221, 336, 236
-0.99956, 301, 201, 316, 216
-0.99956, 167, 207, 182, 222
-0.99956, 123, 195, 138, 210
-0.999562, 313, 147, 328, 162
-0.999562, 319, 177, 334, 192
-0.999562, 313, 87, 328, 102
-0.999562, 313, 93, 328, 108
-0.999562, 109, 153, 124, 168
-0.999562, 269, 361, 284, 375
-0.999562, 313, 99, 328, 114
-0.999563, 213, 209, 228, 224
-0.999564, 261, 207, 276, 222
-0.999564, 275, 205, 290, 220
-0.999565, 313, 135, 328, 150
-0.999565, 311, 75, 326, 90
-0.999566, 223, 209, 238, 224
-0.999567, 451, 113, 466, 240
-0.999567, 111, 71, 126, 86
-0.999568, 109, 87, 124, 102
-0.999568, 137, 35, 152, 50
-0.999569, 227, 39, 242, 54
-0.999569, 427, 225, 442, 352
-0.999569, 309, 61, 324, 76
-0.99957, 297, 195, 312, 210
-0.999571, 355, 225, 370, 352
-0.999572, 219, 39, 234, 54
-0.999572, 197, 41, 212, 56
-0.999572, 241, 129, 272, 256
-0.999573, 149, 35, 164, 50
-0.999573, 335, 209, 350, 336
-0.999574, 289, 231, 304, 246
-0.999574, 237, 41, 252, 56
-0.999574, 103, 175, 118, 190
-0.999574, 113, 183, 128, 198
-0.999575, 101, 69, 116, 84
-0.999575, 143, 43, 158, 58
-0.999577, 103, 37, 118, 52
-0.999578, 395, 225, 410, 352
-0.999579, 307, 55, 322, 70
-0.999579, 243, 207, 258, 222
-0.999579, 305, 231, 320, 246
-0.99958, 185, 225, 200, 352
-0.999581, 275, 33, 290, 48
-0.999581, 113, 61, 128, 76
-0.999582, 313, 141, 328, 156
-0.999583, 113, 65, 240, 192
-0.999583, 143, 35, 158, 50
-0.999585, 319, 69, 334, 84
-0.999586, 317, 35, 332, 50
-0.999586, 199, 225, 214, 352
-0.999586, 155, 43, 170, 58
-0.999587, 181, 41, 196, 56
-0.999588, 165, 41, 180, 56
-0.999588, 223, 33, 238, 48
-0.999589, 183, 1, 198, 128
-0.99959, 287, 45, 302, 60
-0.99959, 255, 207, 270, 222
-0.99959, 135, 45, 150, 60
-0.99959, 209, 33, 224, 48
-0.999591, 159, 33, 174, 48
-0.999592, 125, 47, 140, 62
-0.999592, 141, 225, 156, 352
-0.999592, 269, 43, 284, 58
-0.999592, 327, 193, 342, 320
-0.999592, 225, 225, 240, 352
-0.999593, 197, 33, 212, 48
-0.999593, 263, 41, 278, 56
-0.999593, 281, 43, 296, 58
-0.999594, 213, 39, 228, 54
-0.999594, 319, 171, 334, 186
-0.999594, 101, 87, 116, 102
-0.999594, 323, 107, 338, 122
-0.999596, 25, 241, 40, 368
-0.999596, 231, 33, 246, 48
-0.999597, 409, 225, 424, 352
-0.999598, 113, 53, 128, 68
-0.999598, 171, 41, 186, 56
-0.999599, 101, 157, 116, 172
-0.999601, 99, 111, 114, 126
-0.999601, 271, 241, 286, 368
-0.999601, 165, 33, 180, 48
-0.999601, 149, 43, 164, 58
-0.999602, 415, 241, 430, 368
-0.999602, 101, 75, 116, 90
-0.999603, 101, 215, 116, 230
-0.999604, 249, 207, 264, 222
-0.999604, 341, 225, 356, 352
-0.999604, 189, 1, 204, 128
-0.999605, 215, 33, 230, 48
-0.999605, 233, 129, 248, 256
-0.999606, 245, 41, 260, 56
-0.999607, 103, 183, 118, 198
-0.999608, 191, 41, 206, 56
-0.999608, 191, 225, 206, 352
-0.999608, 323, 101, 338, 116
-0.999608, 237, 33, 252, 48
-0.999608, 203, 33, 218, 48
-0.999608, 443, 65, 458, 192
-0.99961, 171, 33, 186, 48
-0.99961, 185, 33, 200, 48
-0.99961, 321, 165, 336, 180
-0.99961, 275, 43, 290, 58
-0.99961, 101, 81, 116, 96
-0.999612, 269, 33, 284, 48
-0.999612, 321, 75, 336, 90
-0.999614, 485, 225, 500, 352
-0.999614, 475, 177, 490, 304
-0.999616, 177, 33, 192, 48
-0.999616, 293, 45, 308, 60
-0.999617, 101, 169, 116, 184
-0.999617, 137, 33, 168, 288
-0.999617, 301, 129, 316, 256
-0.999618, 245, 225, 260, 352
-0.999619, 257, 41, 272, 56
-0.999619, 323, 113, 338, 128
-0.99962, 191, 33, 206, 48
-0.999622, 99, 151, 114, 166
-0.999622, 195, 1, 210, 128
-0.999623, 119, 49, 134, 64
-0.999623, 99, 105, 114, 120
-0.999625, 321, 215, 336, 230
-0.999626, 99, 99, 114, 114
-0.999627, 263, 33, 278, 48
-0.999628, 99, 93, 114, 108
-0.999628, 251, 41, 266, 56
-0.999628, 321, 159, 336, 174
-0.999629, 101, 163, 116, 178
-0.99963, 245, 33, 260, 48
-0.999631, 99, 139, 114, 154
-0.999634, 99, 117, 114, 132
-0.999636, 321, 81, 336, 96
-0.999637, 321, 153, 336, 168
-0.999638, 99, 129, 114, 144
-0.99964, 321, 93, 336, 108
-0.99964, 303, 49, 318, 64
-0.999641, 99, 123, 114, 138
-0.999641, 323, 121, 338, 136
-0.999642, 257, 33, 272, 48
-0.999643, 99, 145, 114, 160
-0.999644, 321, 87, 336, 102
-0.999647, 73, 1, 104, 256
-0.999649, 323, 127, 338, 142
-0.999654, 251, 33, 266, 48
-0.999672, 323, 137, 338, 152
-0.999674, 321, 147, 336, 162
-0.999746, 401, 129, 432, 375
-0.999761, 149, 1, 180, 256
-0.999795, 469, 129, 500, 375
-0.999823, 417, 129, 448, 375
-0.999827, 73, 193, 104, 320
-0.999829, 145, 129, 176, 256
-0.999844, 193, 73, 320, 136
-0.999868, 173, 129, 204, 375
-0.999894, 365, 97, 396, 352
-0.999925, 193, 129, 224, 256
-0.999937, 341, 129, 372, 375
-0.999947, 61, 97, 92, 352
-0.999959, 389, 1, 420, 256
-0.999983, 333, 1, 364, 256
-0.999995, 49, 129, 80, 375
-0.999996, 229, 49, 260, 176
-1.00001, 29, 145, 60, 272
-1.00005, 73, 97, 104, 352
-1.00009, 409, 1, 440, 256
-1.0001, 113, 145, 240, 208
-1.00011, 353, 97, 384, 352
-1.00013, 437, 145, 468, 272
-1.00016, 357, 1, 388, 256
-1.00017, 29, 129, 60, 375
-1.00018, 377, 97, 408, 352
-1.00019, 269, 129, 300, 256
-1.00021, 377, 1, 408, 256
-1.00023, 345, 1, 376, 256
-1.00026, 73, 49, 104, 176
-1.00029, 253, 129, 284, 256
-1.0003, 445, 1, 476, 256
-1.00031, 437, 49, 468, 176
-1.00034, 9, 97, 40, 352
-1.00041, 389, 129, 420, 375
-1.00048, 113, 73, 240, 136
-1.00053, 57, 161, 88, 288
-1.0006, 469, 33, 500, 288
-1.00063, 449, 49, 480, 176
-1.00076, 361, 49, 392, 176
-1.00077, 457, 1, 488, 256
-1.00078, 45, 129, 76, 256
-1.00085, 61, 1, 92, 256
-1.00087, 45, 1, 76, 256
-1.00094, 17, 1, 48, 256
-1.00118, 33, 1, 64, 256
-1.00125, 5, 1, 36, 256
-1.00131, 169, 113, 232, 240
-1.00224, 17, 1, 80, 256
-1.00247, 329, 1, 392, 128
-1.00413, 137, 49, 200, 176
-1.00624, 193, 81, 256, 208
-1.00879, 353, 1, 416, 128
