1955
-0.614453, 1, 129, 500, 375
-0.644874, 1, 33, 500, 288
-0.803197, 1, 1, 500, 375
-0.837575, 193, 1, 448, 375
-0.838553, 97, 1, 352, 375
-0.841648, 1, 1, 256, 375
-0.909847, 129, 97, 384, 352
-0.912696, 129, 97, 256, 352
-0.92658, 33, 97, 288, 352
-0.945213, 113, 1, 240, 375
-0.946746, 177, 65, 304, 320
-0.947668, 97, 1, 224, 256
-0.949349, 1, 129, 500, 256
-0.953003, 33, 1, 160, 375
-0.955901, 321, 1, 448, 375
-0.956559, 209, 1, 336, 375
-0.957263, 161, 1, 288, 375
-0.958914, 1, 177, 500, 304
-0.959559, 273, 1, 400, 375
-0.960604, 65, 145, 320, 272
-0.960666, 153, 137, 216, 200
-0.961364, 49, 97, 176, 352
-0.961534, 145, 129, 272, 256
-0.963755, 369, 1, 496, 375
-0.964257, 1, 65, 500, 192
-0.965342, 169, 113, 232, 240
-0.968806, 337, 129, 464, 375
-0.96901, 177, 129, 240, 192
-0.969594, 137, 129, 200, 256
-0.971078, 289, 33, 416, 288
-0.97127, 121, 145, 184, 208
-0.971505, 1, 65, 128, 320
-0.972476, 289, 129, 416, 375
-0.972744, 161, 81, 416, 208
-0.973102, 241, 129, 368, 375
-0.973446, 49, 1, 176, 256
-0.973611, 1, 1, 256, 256
-0.975431, 161, 129, 416, 256
-0.976558, 1, 241, 500, 368
-0.977526, 1, 1, 500, 128
-0.977646, 225, 33, 352, 288
-0.977816, 1, 81, 256, 208
-0.97849, 129, 137, 256, 200
-0.978616, 353, 33, 480, 288
-0.979028, 177, 161, 240, 288
-0.980496, 169, 97, 232, 352
-0.98123, 113, 145, 176, 272
-0.981351, 193, 113, 256, 240
-0.981497, 113, 81, 240, 208
-0.981791, 129, 169, 192, 232
-0.981806, 153, 145, 184, 208
-0.982354, 181, 129, 212, 192
-0.982366, 153, 161, 216, 224
-0.982487, 193, 81, 320, 208
-0.982745, 97, 129, 224, 256
-0.98321, 137, 177, 200, 304
-0.983538, 201, 129, 232, 192
-0.984255, 113, 177, 240, 304
-0.984306, 153, 113, 216, 176
-0.984742, 225, 225, 480, 352
-0.984768, 97, 161, 160, 224
-0.98484, 201, 145, 264, 208
-0.985065, 193, 129, 320, 256
-0.985251, 177, 161, 240, 224
-0.985271, 165, 137, 196, 200
-0.985656, 49, 145, 176, 272
-0.985699, 145, 81, 208, 208
-0.985735, 141, 145, 172, 208
-0.985963, 153, 129, 184, 256
-0.986544, 185, 113, 216, 240
-0.986694, 129, 1, 384, 256
-0.987021, 173, 113, 204, 240
-0.987331, 213, 137, 244, 200
-0.987413, 137, 129, 200, 375
-0.987857, 129, 193, 192, 256
-0.988134, 205, 113, 236, 240
-0.988234, 65, 81, 192, 208
-0.988359, 169, 65, 232, 192
-0.9884, 201, 121, 264, 184
-0.988626, 177, 105, 240, 168
-0.988916, 257, 97, 500, 224
-0.9892, 153, 169, 184, 232
-0.989299, 129, 225, 384, 352
-0.989384, 169, 137, 232, 168
-0.989417, 81, 145, 208, 208
-0.989471, 33, 225, 288, 352
-0.98953, 121, 81, 184, 208
-0.989559, 177, 129, 304, 192
-0.989573, 129, 225, 256, 352
-0.989897, 241, 225, 368, 352
-0.989915, 121, 121, 184, 184
-0.990027, 409, 241, 472, 368
-0.990033, 129, 161, 256, 224
-0.990063, 177, 193, 304, 320
-0.990068, 65, 193, 192, 320
-0.990296, 129, 161, 160, 224
-0.990425, 141, 169, 172, 232
-0.990467, 129, 113, 256, 176
-0.990488, 369, 241, 496, 368
-0.990545, 141, 145, 172, 272
-0.990781, 337, 161, 464, 288
-0.990847, 257, 161, 384, 288
-0.991129, 257, 49, 500, 176
-0.991424, 121, 157, 184, 188
-0.991456, 153, 193, 216, 256
-0.991461, 65, 113, 192, 176
-0.991608, 353, 233, 480, 296
-0.991687, 153, 153, 216, 184
-0.991695, 137, 141, 200, 172
-0.991786, 193, 145, 256, 176
-0.991797, 161, 33, 416, 160
-0.991901, 161, 177, 416, 304
-0.991914, 113, 169, 176, 200
-0.991925, 193, 129, 256, 375
-0.992072, 113, 33, 240, 160
-0.99217, 113, 145, 176, 176
-0.992213, 193, 133, 256, 164
-0.992218, 153, 165, 216, 196
-0.992286, 137, 193, 200, 224
-0.992309, 113, 193, 240, 256
-0.992319, 161, 125, 224, 156
-0.992328, 193, 157, 256, 188
-0.992656, 169, 209, 232, 336
-0.992702, 177, 153, 304, 216
-0.992724, 197, 133, 228, 164
-0.992766, 225, 129, 288, 192
-0.992779, 209, 145, 240, 176
-0.992795, 321, 65, 384, 192
-0.992873, 161, 141, 192, 172
-0.992923, 185, 137, 216, 168
-0.992934, 149, 153, 180, 184
-0.992951, 193, 33, 320, 160
-0.992959, 113, 133, 176, 164
-0.99297, 81, 169, 208, 232
-0.993004, 89, 157, 152, 188
-0.993007, 177, 105, 304, 168
-0.993007, 369, 257, 496, 320
-0.993011, 129, 181, 192, 212
-0.993024, 173, 137, 204, 168
-0.993059, 209, 133, 240, 164
-0.993065, 169, 1, 232, 256
-0.993073, 433, 193, 496, 320
-0.993078, 209, 65, 272, 192
-0.993109, 137, 205, 200, 236
-0.993133, 217, 133, 280, 164
-0.99314, 129, 161, 160, 192
-0.99314, 169, 193, 232, 224
-0.993162, 321, 225, 448, 352
-0.993178, 157, 193, 188, 224
-0.993183, 201, 121, 264, 152
-0.993184, 161, 177, 224, 208
-0.993187, 149, 181, 180, 212
-0.993195, 197, 145, 228, 176
-0.993226, 289, 253, 352, 284
-0.993238, 149, 141, 180, 172
-0.993246, 133, 173, 164, 204
-0.993269, 161, 153, 192, 184
-0.99327, 185, 125, 216, 156
-0.993275, 137, 33, 200, 288
-0.993289, 137, 149, 168, 180
-0.993312, 425, 253, 488, 284
-0.993351, 149, 169, 180, 200
-0.993359, 89, 173, 152, 204
-0.993364, 185, 169, 248, 200
-0.993385, 113, 193, 176, 224
-0.993404, 217, 209, 280, 336
-0.993427, 417, 265, 480, 296
-0.99345, 249, 249, 312, 280
-0.993464, 197, 105, 228, 168
-0.993478, 393, 253, 456, 284
-0.993495, 417, 233, 480, 264
-0.993502, 9, 313, 72, 344
-0.993513, 393, 269, 456, 300
-0.993519, 201, 121, 232, 152
-0.993526, 217, 157, 280, 188
-0.993526, 137, 129, 200, 160
-0.993533, 197, 161, 228, 192
-0.99354, 217, 157, 248, 188
-0.993544, 169, 237, 232, 268
-0.993551, 177, 189, 208, 220
-0.993553, 221, 133, 252, 164
-0.993554, 121, 173, 152, 204
-0.993572, 393, 241, 456, 272
-0.993573, 161, 165, 192, 196
-0.993577, 169, 205, 200, 236
-0.993578, 177, 149, 208, 180
-0.993583, 221, 145, 252, 176
-0.993585, 289, 241, 352, 272
-0.993591, 313, 69, 376, 100
-0.993592, 161, 129, 192, 160
-0.993598, 173, 125, 204, 156
-0.993599, 257, 161, 500, 288
-0.993605, 425, 265, 456, 296
-0.993627, 145, 249, 208, 280
-0.99363, 137, 133, 168, 164
-0.993634, 217, 145, 280, 176
-0.993635, 217, 121, 248, 152
-0.993645, 145, 217, 208, 248
-0.993648, 169, 205, 232, 236
-0.993648, 185, 161, 216, 192
-0.993651, 125, 149, 156, 180
-0.993654, 181, 201, 212, 232
-0.993658, 149, 129, 180, 160
-0.993663, 209, 241, 272, 272
-0.993671, 225, 257, 288, 288
-0.993672, 425, 241, 488, 304
-0.993674, 425, 217, 488, 248
-0.993674, 249, 237, 312, 268
-0.993681, 113, 161, 144, 192
-0.993683, 229, 157, 260, 188
-0.993684, 425, 141, 488, 172
-0.993693, 49, 309, 112, 340
-0.993706, 105, 209, 168, 240
-0.993708, 57, 269, 120, 300
-0.99371, 9, 301, 72, 332
-0.993713, 429, 229, 460, 260
-0.993713, 289, 301, 352, 332
-0.993713, 177, 249, 240, 280
-0.993717, 381, 249, 412, 280
-0.993718, 321, 233, 384, 264
-0.993725, 393, 261, 424, 292
-0.993728, 33, 1, 160, 128
-0.99373, 161, 181, 192, 212
-0.993735, 141, 197, 172, 228
-0.993741, 417, 249, 448, 280
-0.993741, 173, 173, 204, 204
-0.993741, 245, 245, 276, 276
-0.993742, 49, 253, 112, 284
-0.993749, 189, 325, 220, 356
-0.993752, 441, 249, 472, 280
-0.993755, 233, 145, 264, 176
-0.99376, 329, 249, 392, 280
-0.993765, 365, 297, 396, 328
-0.993771, 137, 97, 168, 224
-0.993776, 121, 249, 184, 280
-0.993777, 361, 285, 392, 316
-0.993779, 469, 245, 500, 276
-0.993779, 397, 245, 428, 276
-0.993781, 137, 261, 200, 292
-0.993781, 153, 329, 216, 360
-0.993787, 129, 197, 160, 228
-0.99379, 245, 257, 276, 288
-0.993791, 417, 161, 480, 192
-0.993792, 461, 213, 492, 244
-0.993795, 437, 265, 468, 296
-0.993799, 193, 205, 256, 236
-0.9938, 173, 161, 204, 192
-0.9938, 365, 261, 396, 292
-0.993801, 465, 229, 496, 260
-0.993802, 297, 57, 360, 88
-0.993807, 361, 249, 392, 280
-0.99381, 445, 213, 476, 244
-0.993812, 41, 281, 104, 312
-0.993815, 349, 245, 380, 276
-0.993818, 265, 249, 296, 280
-0.993819, 189, 173, 220, 204
-0.99382, 401, 173, 464, 204
-0.99382, 193, 321, 256, 352
-0.993824, 381, 261, 412, 292
-0.993825, 137, 185, 168, 216
-0.993829, 233, 241, 264, 272
-0.993831, 313, 265, 376, 296
-0.993831, 113, 297, 144, 328
-0.993832, 417, 237, 448, 268
-0.993833, 89, 257, 152, 288
-0.993833, 225, 253, 256, 284
-0.993838, 205, 237, 236, 268
-0.993838, 25, 253, 88, 284
-0.993841, 417, 205, 448, 236
-0.993843, 305, 209, 368, 240
-0.993846, 225, 177, 288, 208
-0.993847, 377, 129, 408, 160
-0.993848, 353, 133, 416, 164
-0.993849, 201, 253, 264, 284
-0.993851, 401, 317, 464, 348
-0.993852, 421, 277, 452, 308
-0.993854, 313, 313, 376, 344
-0.993856, 145, 209, 176, 240
-0.993856, 201, 321, 232, 352
-0.993856, 321, 301, 384, 332
-0.993856, 401, 129, 464, 160
-0.993857, 401, 229, 432, 260
-0.993857, 433, 213, 464, 244
-0.993859, 405, 261, 436, 292
-0.993859, 49, 133, 112, 164
-0.993859, 385, 281, 416, 312
-0.99386, 321, 297, 352, 328
-0.993863, 469, 265, 500, 296
-0.993863, 437, 201, 468, 232
-0.993863, 21, 317, 52, 348
-0.993866, 209, 249, 240, 280
-0.993867, 189, 237, 220, 268
-0.993868, 421, 189, 452, 220
-0.99387, 405, 193, 436, 224
-0.99387, 1, 313, 32, 344
-0.99387, 345, 341, 376, 372
-0.993872, 89, 317, 152, 348
-0.993872, 197, 193, 228, 224
-0.993873, 181, 313, 212, 344
-0.993873, 365, 273, 396, 304
-0.993874, 49, 273, 80, 304
-0.993874, 41, 297, 104, 328
-0.993874, 449, 233, 480, 264
-0.993874, 317, 265, 348, 296
-0.993875, 353, 245, 416, 276
-0.993875, 169, 289, 232, 320
-0.993875, 437, 141, 468, 172
-0.993876, 225, 265, 256, 296
-0.993877, 385, 153, 448, 184
-0.993878, 133, 209, 164, 240
-0.993879, 153, 245, 184, 276
-0.993881, 377, 237, 408, 268
-0.993882, 73, 265, 104, 296
-0.993883, 113, 149, 144, 180
-0.993883, 297, 253, 328, 284
-0.993886, 181, 253, 212, 284
-0.993886, 421, 217, 452, 248
-0.993886, 213, 269, 244, 300
-0.993886, 205, 209, 236, 240
-0.993887, 373, 285, 404, 316
-0.993887, 265, 261, 328, 292
-0.993889, 429, 245, 460, 276
-0.993889, 65, 285, 96, 316
-0.993889, 329, 253, 360, 284
-0.99389, 253, 329, 284, 360
-0.993891, 445, 129, 476, 160
-0.993891, 409, 333, 440, 364
-0.993893, 189, 113, 220, 144
-0.993894, 337, 297, 368, 328
-0.993894, 33, 169, 160, 232
-0.993895, 229, 169, 260, 200
-0.993896, 217, 209, 248, 240
-0.993897, 165, 265, 196, 296
-0.993898, 425, 137, 456, 168
-0.993898, 201, 173, 232, 204
-0.993898, 353, 297, 384, 328
-0.993901, 393, 281, 456, 312
-0.993902, 249, 173, 280, 204
-0.993902, 465, 333, 496, 364
-0.993903, 241, 225, 272, 256
-0.993904, 349, 233, 380, 264
-0.993904, 453, 245, 484, 276
-0.993904, 365, 229, 396, 260
-0.993906, 65, 193, 192, 256
-0.993908, 89, 301, 152, 332
-0.993908, 249, 321, 312, 352
-0.993916, 113, 321, 176, 352
-0.993919, 25, 105, 88, 136
-0.993921, 265, 301, 328, 332
-0.993924, 401, 201, 464, 232
-0.993924, 9, 325, 72, 356
-0.993927, 65, 117, 128, 148
-0.993927, 417, 329, 480, 360
-0.993929, 393, 229, 456, 260
-0.993934, 89, 189, 152, 220
-0.993937, 353, 233, 416, 264
-0.993937, 425, 317, 488, 348
-0.99394, 73, 209, 136, 240
-0.993942, 329, 289, 392, 320
-0.993942, 313, 197, 376, 228
-0.993945, 337, 69, 400, 100
-0.993947, 177, 221, 240, 252
-0.993948, 345, 261, 408, 292
-0.99395, 321, 113, 448, 240
-0.993953, 225, 189, 288, 220
-0.993958, 209, 225, 272, 256
-0.993958, 217, 305, 280, 336
-0.993958, 321, 277, 384, 308
-0.993963, 17, 265, 80, 296
-0.993968, 137, 233, 200, 264
-0.993968, 353, 189, 416, 220
-0.993971, 89, 141, 152, 172
-0.993971, 17, 289, 80, 320
-0.993971, 225, 325, 288, 356
-0.993976, 433, 281, 496, 312
-0.993976, 289, 341, 352, 372
-0.993981, 329, 209, 392, 240
-0.993984, 153, 273, 216, 304
-0.993984, 57, 321, 120, 352
-0.993984, 417, 69, 480, 100
-0.993987, 345, 117, 408, 148
-0.993991, 249, 221, 312, 252
-0.993992, 425, 129, 488, 160
-0.993994, 401, 117, 464, 148
-0.993994, 281, 217, 344, 248
-0.993995, 361, 325, 424, 356
-0.994, 145, 313, 208, 344
-0.994002, 433, 205, 496, 236
-0.994005, 1, 141, 64, 172
-0.994007, 377, 181, 440, 212
-0.99401, 289, 313, 352, 344
-0.994012, 361, 297, 424, 328
-0.994027, 193, 65, 224, 192
-0.994037, 273, 233, 400, 296
-0.99404, 401, 257, 464, 320
-0.994043, 105, 129, 168, 375
-0.994082, 17, 97, 144, 224
-0.994164, 129, 141, 256, 172
-0.994212, 1, 1, 256, 128
-0.994309, 89, 145, 152, 272
-0.994318, 185, 105, 216, 168
-0.994416, 141, 193, 172, 256
-0.994476, 177, 177, 208, 240
-0.994521, 117, 169, 148, 232
-0.994544, 177, 185, 240, 248
-0.994547, 233, 161, 296, 224
-0.994594, 177, 193, 304, 256
-0.994637, 401, 161, 464, 224
-0.994659, 97, 145, 352, 208
-0.994664, 177, 241, 304, 368
-0.994778, 97, 305, 224, 368
-0.994837, 97, 137, 160, 200
-0.994857, 185, 153, 216, 216
-0.99487, 369, 137, 496, 200
-0.994918, 169, 217, 232, 280
-0.994939, 321, 257, 448, 320
-0.995008, 321, 265, 384, 328
-0.995031, 33, 281, 160, 344
-0.995097, 353, 289, 480, 352
-0.995108, 161, 81, 192, 208
-0.995189, 193, 209, 256, 336
-0.995283, 161, 113, 192, 176
-0.995329, 305, 241, 368, 304
-0.995332, 305, 209, 432, 272
-0.995376, 281, 241, 344, 304
-0.995401, 193, 241, 320, 304
-0.99547, 129, 161, 160, 288
-0.995517, 49, 241, 176, 368
-0.995534, 33, 305, 160, 368
-0.995551, 163, 137, 178, 200
-0.995571, 113, 281, 240, 344
-0.995614, 241, 113, 368, 240
-0.995632, 217, 113, 280, 240
-0.995654, 209, 249, 272, 312
-0.995665, 81, 257, 208, 320
-0.995692, 169, 161, 200, 288
-0.995711, 233, 161, 296, 288
-0.995716, 273, 265, 400, 328
-0.995737, 217, 129, 248, 256
-0.995774, 155, 145, 170, 208
-0.995793, 129, 137, 160, 200
-0.995807, 129, 225, 192, 352
-0.995818, 185, 161, 216, 288
-0.995823, 49, 217, 176, 280
-0.995841, 17, 49, 144, 176
-0.995848, 201, 1, 264, 256
-0.995855, 433, 209, 496, 272
-0.995858, 361, 241, 424, 304
-0.995861, 393, 233, 456, 296
-0.996054, 369, 209, 496, 272
-0.996076, 161, 297, 288, 360
-0.996101, 17, 137, 144, 200
-0.996115, 249, 137, 312, 200
-0.996158, 321, 209, 384, 272
-0.996161, 281, 281, 344, 344
-0.996162, 169, 201, 200, 264
-0.996169, 321, 65, 448, 192
-0.996193, 97, 217, 224, 280
-0.996206, 197, 161, 228, 224
-0.996217, 199, 129, 214, 192
-0.996244, 337, 313, 464, 375
-0.996255, 129, 89, 256, 152
-0.996275, 337, 233, 400, 296
-0.996377, 289, 145, 416, 208
-0.996389, 241, 209, 368, 272
-0.996404, 33, 257, 160, 320
-0.996418, 161, 265, 288, 328
-0.996442, 225, 121, 352, 184
-0.996463, 1, 241, 128, 368
-0.996504, 193, 209, 256, 272
-0.996548, 209, 121, 224, 184
-0.996556, 1, 137, 256, 200
-0.996575, 257, 169, 384, 232
-0.996582, 189, 129, 204, 192
-0.996616, 221, 113, 252, 176
-0.99662, 171, 137, 186, 200
-0.996629, 353, 177, 480, 240
-0.996636, 225, 1, 288, 375
-0.996643, 129, 217, 192, 280
-0.996659, 113, 153, 240, 184
-0.996662, 157, 177, 188, 304
-0.996668, 377, 265, 440, 328
-0.99668, 201, 97, 264, 160
-0.996702, 145, 1, 208, 375
-0.996709, 145, 169, 160, 232
-0.996736, 105, 185, 168, 248
-0.996747, 161, 217, 288, 280
-0.996747, 257, 225, 320, 352
-0.996749, 183, 129, 198, 192
-0.996832, 425, 265, 488, 328
-0.996843, 97, 97, 160, 224
-0.99685, 177, 241, 240, 304
-0.996854, 249, 257, 312, 320
-0.996854, 161, 121, 416, 184
-0.996883, 145, 89, 208, 152
-0.996904, 393, 193, 456, 320
-0.996921, 209, 273, 336, 336
-0.996947, 241, 305, 368, 368
-0.996958, 369, 113, 496, 240
-0.996959, 173, 193, 188, 256
-0.996965, 141, 121, 172, 184
-0.996968, 273, 137, 336, 200
-0.99697, 321, 121, 448, 184
-0.996992, 165, 161, 180, 224
-0.997011, 1, 233, 128, 296
-0.997049, 241, 65, 368, 192
-0.997104, 305, 17, 368, 144
-0.997118, 129, 185, 160, 248
-0.997152, 223, 137, 238, 200
-0.997183, 145, 241, 272, 304
-0.997206, 173, 105, 204, 168
-0.997218, 321, 297, 384, 360
-0.997236, 17, 193, 144, 256
-0.997243, 377, 145, 440, 208
-0.997246, 265, 105, 328, 168
-0.997255, 177, 129, 192, 192
-0.997256, 205, 145, 220, 208
-0.997262, 209, 65, 240, 192
-0.997289, 361, 209, 424, 272
-0.997289, 249, 225, 312, 288
-0.997301, 289, 297, 416, 360
-0.997336, 133, 169, 148, 232
-0.997336, 201, 289, 264, 352
-0.997338, 215, 129, 230, 192
-0.997341, 297, 1, 360, 375
-0.997357, 209, 105, 240, 168
-0.99737, 345, 17, 408, 144
-0.997382, 49, 281, 112, 344
-0.997427, 193, 1, 256, 375
-0.997431, 369, 129, 432, 256
-0.997441, 1, 113, 256, 176
-0.99745, 97, 313, 160, 375
-0.997479, 177, 133, 304, 164
-0.997488, 429, 257, 460, 320
-0.997492, 149, 145, 164, 208
-0.997512, 153, 177, 168, 240
-0.997518, 9, 273, 72, 336
-0.997521, 177, 265, 240, 328
-0.997535, 179, 169, 194, 232
-0.997541, 17, 89, 144, 152
-0.997568, 9, 297, 72, 360
-0.997596, 297, 65, 360, 192
-0.997614, 409, 121, 472, 184
-0.997658, 181, 201, 212, 264
-0.99766, 65, 257, 128, 320
-0.997701, 197, 161, 228, 288
-0.997724, 143, 193, 158, 256
-0.997746, 65, 89, 192, 152
-0.997746, 209, 133, 224, 164
-0.997747, 65, 145, 192, 176
-0.997762, 305, 185, 432, 248
-0.997775, 425, 289, 488, 352
-0.997776, 17, 113, 144, 176
-0.997792, 97, 65, 224, 128
-0.997796, 385, 193, 448, 256
-0.997821, 345, 297, 408, 360
-0.997848, 265, 161, 328, 288
-0.997851, 141, 145, 156, 208
-0.997856, 199, 105, 214, 168
-0.99787, 273, 121, 400, 184
-0.997872, 165, 113, 180, 176
-0.997904, 165, 141, 180, 172
-0.997922, 199, 153, 214, 216
-0.997937, 113, 129, 240, 160
-0.997942, 171, 161, 186, 224
-0.997951, 215, 137, 230, 168
-0.997957, 225, 225, 288, 288
-0.997976, 369, 105, 496, 168
-0.997979, 73, 137, 136, 200
-0.997982, 409, 185, 472, 248
-0.998, 113, 201, 240, 232
-0.998001, 49, 65, 176, 128
-0.998013, 65, 157, 192, 188
-0.998029, 221, 141, 236, 172
-0.998032, 289, 305, 352, 368
-0.998046, 225, 145, 256, 208
-0.998048, 105, 1, 168, 375
-0.998049, 105, 193, 168, 320
-0.998064, 159, 169, 174, 232
-0.99807, 369, 65, 496, 128
-0.998075, 289, 241, 352, 368
-0.998076, 135, 145, 150, 208
-0.998093, 409, 209, 472, 272
-0.998103, 189, 105, 204, 168
-0.998113, 151, 149, 166, 180
-0.998114, 199, 137, 214, 168
-0.998127, 1, 161, 256, 224
-0.998146, 241, 145, 368, 208
-0.998153, 113, 165, 240, 196
-0.998184, 417, 209, 448, 224
-0.998184, 429, 287, 460, 302
-0.998184, 121, 181, 152, 196
-0.998184, 325, 209, 356, 224
-0.998185, 181, 319, 212, 334
-0.998185, 413, 241, 444, 256
-0.998185, 429, 231, 460, 246
-0.998185, 461, 211, 492, 226
-0.998185, 197, 355, 228, 370
-0.998185, 457, 269, 488, 284
-0.998186, 329, 253, 360, 268
-0.998186, 341, 71, 372, 86
-0.998186, 449, 247, 480, 262
-0.998186, 417, 285, 448, 300
-0.998186, 257, 173, 288, 188
-0.998187, 457, 239, 488, 254
-0.998187, 425, 237, 456, 252
-0.998187, 181, 191, 212, 206
-0.998187, 365, 293, 396, 308
-0.998188, 449, 283, 480, 298
-0.998189, 441, 273, 472, 288
-0.998189, 273, 169, 304, 184
-0.998189, 213, 169, 244, 184
-0.99819, 469, 235, 500, 250
-0.99819, 193, 175, 224, 190
-0.99819, 193, 157, 224, 172
-0.99819, 413, 275, 444, 290
-0.998191, 461, 275, 492, 290
-0.998191, 185, 333, 216, 348
-0.998192, 401, 243, 432, 258
-0.998192, 365, 267, 396, 282
-0.998193, 317, 269, 348, 284
-0.998194, 377, 259, 408, 274
-0.998195, 405, 199, 436, 214
-0.998195, 193, 321, 224, 336
-0.998196, 377, 273, 408, 288
-0.998196, 117, 157, 148, 172
-0.998197, 441, 255, 472, 270
-0.998197, 165, 267, 196, 282
-0.998199, 469, 243, 500, 258
-0.998199, 129, 195, 160, 210
-0.998199, 409, 261, 440, 276
-0.998201, 253, 247, 284, 262
-0.998202, 169, 213, 200, 228
-0.998202, 177, 265, 208, 280
-0.998202, 233, 153, 264, 168
-0.998203, 129, 149, 160, 164
-0.998203, 177, 185, 208, 200
-0.998203, 161, 171, 192, 186
-0.998203, 441, 267, 472, 282
-0.998203, 397, 265, 428, 280
-0.998203, 425, 243, 456, 258
-0.998204, 417, 267, 448, 282
-0.998204, 441, 289, 472, 304
-0.998204, 245, 261, 276, 276
-0.998204, 441, 261, 472, 276
-0.998205, 469, 229, 500, 244
-0.998205, 349, 259, 380, 274
-0.998205, 193, 327, 224, 342
-0.998207, 377, 265, 408, 280
-0.998209, 441, 213, 472, 228
-0.99821, 437, 239, 468, 254
-0.998211, 109, 163, 140, 178
-0.998212, 229, 145, 260, 160
-0.998212, 213, 127, 244, 142
-0.998213, 181, 159, 212, 174
-0.998214, 177, 207, 208, 222
-0.998215, 181, 327, 212, 342
-0.99822, 369, 253, 400, 268
-0.998221, 349, 251, 380, 266
-0.998222, 137, 185, 168, 200
-0.998222, 421, 259, 452, 274
-0.998222, 173, 153, 204, 168
-0.998223, 153, 135, 184, 150
-0.998225, 109, 175, 140, 190
-0.998226, 181, 171, 212, 186
-0.998229, 389, 271, 420, 286
-0.99823, 217, 133, 248, 148
-0.998232, 173, 199, 204, 214
-0.998234, 229, 159, 260, 174
-0.998234, 193, 169, 224, 184
-0.998234, 227, 153, 242, 184
-0.998234, 179, 193, 194, 256
-0.998235, 141, 137, 172, 152
-0.998237, 141, 195, 172, 210
-0.998239, 217, 163, 248, 178
-0.998239, 193, 151, 224, 166
-0.99824, 329, 225, 392, 352
-0.99824, 165, 205, 196, 220
-0.998241, 161, 177, 192, 192
-0.998242, 153, 203, 184, 218
-0.998244, 169, 193, 200, 208
-0.998246, 133, 207, 164, 222
-0.998247, 161, 153, 288, 184
-0.99825, 201, 163, 232, 178
-0.998251, 225, 139, 256, 154
-0.998253, 173, 131, 204, 146
-0.998255, 177, 147, 208, 162
-0.998255, 129, 201, 160, 216
-0.998259, 221, 151, 252, 166
-0.998261, 129, 155, 160, 170
-0.998261, 361, 259, 392, 274
-0.998263, 133, 179, 164, 194
-0.998267, 161, 159, 192, 174
-0.998267, 157, 165, 188, 180
-0.998272, 157, 191, 188, 206
-0.998273, 429, 265, 460, 280
-0.998274, 141, 201, 172, 216
-0.998278, 109, 169, 140, 184
-0.998282, 289, 217, 352, 280
-0.998291, 157, 197, 188, 212
-0.998296, 197, 129, 228, 144
-0.998302, 121, 175, 152, 190
-0.998305, 145, 145, 176, 160
-0.998306, 149, 173, 180, 188
-0.998307, 105, 249, 168, 312
-0.998309, 149, 183, 180, 198
-0.998311, 217, 145, 248, 160
-0.998321, 213, 157, 244, 172
-0.998321, 209, 161, 240, 224
-0.998324, 129, 161, 160, 176
-0.998333, 213, 139, 244, 154
-0.998333, 321, 1, 384, 375
-0.998334, 49, 1, 176, 64
-0.998338, 129, 167, 160, 182
-0.998345, 141, 167, 172, 182
-0.998347, 149, 157, 180, 172
-0.998351, 161, 153, 192, 168
-0.998356, 65, 173, 192, 204
-0.998361, 209, 151, 240, 166
-0.998362, 185, 131, 216, 146
-0.998371, 133, 173, 164, 188
-0.998372, 173, 137, 188, 168
-0.998373, 155, 121, 170, 184
-0.998375, 73, 281, 136, 344
-0.998375, 161, 153, 176, 184
-0.998377, 157, 147, 188, 162
-0.998379, 193, 143, 224, 158
-0.998389, 257, 1, 384, 64
-0.998393, 173, 65, 204, 192
-0.998394, 141, 151, 172, 166
-0.998394, 173, 137, 204, 152
-0.998399, 289, 113, 352, 176
-0.998411, 127, 161, 142, 224
-0.998415, 209, 145, 224, 176
-0.998429, 165, 161, 196, 224
-0.998431, 161, 141, 192, 156
-0.998441, 33, 65, 96, 192
-0.998446, 413, 225, 444, 288
-0.998446, 393, 289, 456, 352
-0.998447, 117, 145, 148, 272
-0.99845, 185, 137, 216, 152
-0.998464, 425, 161, 488, 224
-0.998465, 169, 139, 232, 154
-0.998466, 159, 141, 174, 172
-0.998475, 139, 169, 154, 232
-0.998479, 145, 65, 272, 128
-0.998481, 429, 225, 460, 352
-0.998487, 137, 201, 152, 264
-0.998493, 183, 133, 198, 164
-0.998493, 201, 135, 232, 150
-0.998493, 205, 145, 236, 160
-0.998493, 193, 1, 320, 64
-0.998522, 65, 133, 192, 164
-0.998541, 73, 1, 136, 128
-0.998557, 321, 161, 384, 224
-0.99856, 189, 133, 204, 164
-0.99856, 137, 57, 200, 120
-0.998568, 171, 113, 186, 176
-0.998568, 177, 97, 208, 352
-0.998569, 167, 185, 182, 248
-0.998573, 113, 1, 240, 64
-0.998576, 113, 33, 176, 288
-0.998581, 185, 153, 200, 216
-0.998581, 185, 177, 200, 240
-0.998582, 153, 145, 216, 160
-0.998583, 177, 145, 240, 160
-0.998584, 229, 145, 244, 208
-0.998586, 155, 181, 170, 212
-0.998592, 193, 137, 256, 152
-0.998595, 169, 133, 232, 148
-0.998597, 73, 241, 136, 368
-0.998602, 345, 129, 408, 256
-0.998602, 149, 81, 180, 208
-0.998617, 191, 153, 206, 216
-0.99862, 221, 113, 236, 176
-0.998631, 17, 193, 80, 256
-0.998639, 199, 125, 214, 156
-0.998642, 153, 153, 216, 168
-0.998649, 113, 149, 176, 164
-0.99865, 57, 233, 120, 296
-0.998652, 145, 139, 208, 154
-0.998652, 137, 197, 200, 212
-0.998653, 345, 153, 408, 216
-0.998654, 121, 171, 184, 186
-0.998655, 207, 121, 222, 152
-0.99866, 417, 1, 480, 375
-0.998663, 157, 193, 188, 256
-0.998665, 65, 201, 192, 232
-0.998665, 153, 159, 216, 174
-0.99867, 145, 169, 160, 200
-0.99867, 201, 143, 264, 158
-0.998671, 129, 155, 192, 170
-0.998672, 133, 157, 148, 188
-0.998674, 305, 81, 368, 144
-0.998675, 227, 113, 242, 176
-0.998675, 113, 163, 176, 178
-0.998675, 193, 161, 256, 176
-0.998684, 175, 201, 190, 232
-0.998685, 171, 189, 186, 220
-0.998693, 97, 173, 160, 188
-0.998696, 137, 165, 200, 180
-0.9987, 137, 191, 200, 206
-0.998704, 121, 177, 184, 192
-0.998706, 177, 151, 240, 166
-0.998708, 193, 167, 256, 182
-0.998711, 193, 131, 256, 146
-0.998711, 137, 203, 200, 218
-0.998712, 153, 171, 216, 186
-0.998713, 127, 169, 142, 200
-0.998715, 161, 201, 288, 232
-0.998717, 113, 139, 176, 154
-0.998718, 161, 197, 224, 212
-0.998723, 149, 201, 164, 232
-0.998725, 209, 149, 272, 164
-0.998725, 169, 1, 232, 375
-0.998726, 217, 159, 280, 174
-0.998726, 145, 133, 208, 148
-0.998728, 433, 241, 496, 368
-0.998738, 161, 173, 176, 204
-0.998739, 183, 105, 198, 168
-0.998742, 89, 167, 152, 182
-0.998742, 137, 185, 200, 200
-0.998745, 113, 193, 176, 208
-0.998746, 417, 267, 480, 282
-0.998748, 143, 197, 158, 228
-0.998751, 235, 153, 250, 216
-0.998751, 9, 321, 72, 336
-0.998751, 289, 257, 352, 272
-0.998754, 105, 201, 168, 216
-0.998755, 409, 255, 472, 270
-0.998757, 161, 165, 224, 180
-0.998757, 177, 191, 240, 206
-0.998758, 97, 169, 352, 232
-0.998759, 401, 239, 464, 254
-0.99876, 217, 135, 280, 150
-0.998762, 433, 261, 496, 276
-0.998763, 377, 155, 440, 170
-0.998764, 97, 157, 160, 172
-0.998764, 153, 177, 216, 192
-0.998764, 385, 259, 448, 274
-0.998765, 151, 161, 166, 192
-0.998765, 1, 153, 500, 216
-0.998765, 207, 157, 222, 188
-0.998765, 393, 269, 456, 284
-0.998766, 145, 209, 208, 224
-0.998766, 369, 241, 496, 272
-0.998766, 105, 209, 168, 224
-0.998766, 161, 185, 224, 200
-0.998767, 425, 243, 488, 258
-0.998767, 177, 173, 240, 188
-0.998767, 145, 217, 208, 232
-0.998767, 217, 185, 280, 248
-0.998767, 153, 297, 216, 360
-0.998767, 313, 257, 376, 272
-0.998768, 177, 203, 240, 218
-0.998769, 121, 133, 184, 148
-0.998769, 289, 263, 352, 278
-0.998773, 289, 309, 352, 324
-0.998773, 313, 71, 376, 86
-0.998774, 113, 183, 176, 198
-0.998774, 329, 251, 392, 266
-0.998774, 393, 289, 456, 304
-0.998774, 233, 153, 296, 168
-0.998774, 433, 249, 496, 264
-0.998775, 345, 259, 408, 274
-0.998775, 217, 265, 280, 280
-0.998776, 401, 249, 464, 264
-0.998777, 217, 165, 280, 180
-0.998778, 57, 255, 120, 270
-0.998778, 241, 265, 304, 280
-0.998778, 265, 269, 328, 284
-0.998778, 89, 151, 152, 166
-0.998779, 169, 245, 232, 260
-0.998779, 257, 253, 320, 268
-0.998779, 9, 315, 72, 330
-0.998779, 177, 211, 240, 226
-0.998779, 257, 275, 320, 290
-0.998779, 193, 323, 256, 338
-0.998779, 425, 225, 488, 240
-0.99878, 169, 127, 232, 142
-0.99878, 281, 175, 344, 190
-0.998782, 169, 219, 232, 234
-0.998783, 425, 237, 488, 252
-0.998783, 233, 257, 296, 272
-0.998783, 17, 123, 80, 138
-0.998783, 297, 303, 360, 318
-0.998783, 289, 269, 352, 284
-0.998783, 369, 247, 432, 262
-0.998783, 65, 207, 128, 222
-0.998784, 153, 327, 216, 342
-0.998784, 49, 313, 112, 328
-0.998785, 201, 251, 264, 266
-0.998785, 401, 139, 464, 154
-0.998785, 369, 147, 432, 162
-0.998786, 369, 295, 432, 310
-0.998786, 257, 169, 320, 184
-0.998786, 177, 239, 240, 254
-0.998787, 233, 271, 296, 286
-0.998787, 329, 267, 392, 282
-0.998787, 97, 265, 160, 280
-0.998788, 169, 263, 232, 278
-0.998788, 177, 329, 240, 344
-0.998788, 33, 133, 96, 148
-0.998788, 129, 261, 192, 276
-0.998788, 33, 255, 96, 270
-0.998788, 337, 291, 400, 306
-0.998789, 401, 197, 464, 212
-0.998789, 305, 211, 368, 226
-0.998789, 273, 359, 336, 374
-0.998789, 337, 153, 400, 168
-0.998789, 385, 203, 448, 218
-0.998789, 393, 233, 456, 248
-0.998789, 345, 67, 408, 82
-0.998789, 377, 227, 440, 242
-0.998789, 89, 195, 152, 210
-0.998789, 97, 319, 160, 334
-0.99879, 225, 245, 288, 260
-0.99879, 177, 257, 240, 272
-0.99879, 33, 323, 96, 338
-0.99879, 273, 247, 336, 262
-0.99879, 57, 265, 120, 280
-0.998791, 401, 179, 464, 194
-0.998791, 361, 203, 424, 218
-0.998791, 201, 257, 264, 272
-0.998791, 401, 149, 464, 164
-0.998791, 177, 179, 240, 194
-0.998791, 257, 307, 320, 322
-0.998791, 377, 359, 440, 374
-0.998792, 297, 195, 360, 210
-0.998792, 217, 201, 280, 216
-0.998794, 193, 121, 320, 152
-0.998794, 441, 249, 456, 312
-0.998794, 369, 1, 432, 375
-0.998805, 201, 97, 232, 352
-0.998814, 177, 185, 192, 216
-0.998825, 189, 97, 220, 352
-0.998831, 149, 189, 164, 220
-0.998848, 361, 249, 392, 312
-0.998851, 121, 153, 136, 216
-0.998857, 435, 233, 450, 296
-0.998858, 235, 145, 250, 176
-0.998858, 113, 177, 240, 208
-0.998868, 177, 105, 192, 168
-0.99889, 149, 121, 164, 184
-0.998891, 221, 129, 236, 160
-0.998893, 133, 173, 148, 204
-0.998894, 353, 265, 480, 296
-0.9989, 149, 201, 164, 264
-0.998901, 141, 153, 156, 184
-0.998908, 209, 193, 240, 320
-0.998913, 161, 165, 288, 196
-0.998919, 193, 145, 448, 208
-0.998925, 215, 149, 230, 180
-0.998927, 201, 161, 216, 192
-0.998928, 261, 225, 292, 352
-0.998928, 369, 289, 432, 352
-0.998929, 321, 225, 448, 256
-0.99895, 49, 305, 112, 368
-0.998964, 377, 257, 392, 320
-0.998967, 427, 225, 442, 288
-0.998974, 385, 121, 448, 184
-0.998974, 89, 209, 152, 272
-0.998987, 153, 137, 168, 168
-0.998996, 227, 141, 242, 172
-0.998997, 437, 261, 452, 292
-0.999002, 321, 253, 448, 284
-0.999009, 435, 257, 450, 320
-0.999015, 129, 137, 144, 200
-0.999016, 367, 225, 382, 288
-0.999017, 257, 281, 320, 344
-0.999042, 163, 129, 178, 160
-0.999042, 153, 241, 216, 304
-0.99905, 177, 125, 192, 156
-0.999051, 233, 121, 248, 184
-0.999052, 371, 257, 386, 320
-0.999053, 97, 213, 224, 244
-0.999057, 143, 213, 158, 244
-0.999061, 429, 249, 444, 312
-0.999067, 433, 137, 496, 200
-0.999067, 375, 233, 390, 296
-0.999077, 175, 149, 190, 180
-0.999078, 233, 157, 248, 188
-0.99908, 113, 117, 240, 148
-0.999081, 145, 189, 272, 220
-0.999085, 361, 81, 424, 208
-0.999088, 145, 241, 272, 272
-0.999093, 167, 169, 182, 200
-0.99911, 217, 153, 232, 216
-0.999111, 273, 17, 400, 144
-0.999115, 393, 129, 456, 256
-0.999117, 57, 113, 120, 176
-0.999128, 193, 121, 208, 152
-0.999131, 181, 217, 196, 280
-0.999132, 169, 157, 184, 188
-0.999137, 225, 193, 256, 320
-0.99914, 257, 269, 384, 300
-0.999141, 211, 161, 226, 224
-0.999144, 407, 249, 422, 312
-0.999145, 181, 145, 196, 176
-0.999148, 209, 149, 336, 180
-0.99915, 97, 105, 160, 168
-0.999153, 433, 185, 496, 248
-0.999157, 345, 273, 408, 336
-0.999158, 157, 97, 188, 352
-0.999163, 215, 125, 230, 156
-0.999167, 181, 209, 196, 240
-0.999171, 121, 165, 136, 196
-0.999173, 373, 249, 388, 280
-0.999174, 417, 241, 432, 304
-0.999177, 469, 233, 484, 296
-0.99918, 369, 213, 496, 244
-0.999182, 361, 185, 424, 248
-0.999182, 195, 153, 210, 184
-0.999182, 433, 249, 448, 280
-0.999187, 65, 341, 192, 372
-0.999192, 369, 229, 496, 260
-0.999193, 445, 249, 460, 280
-0.999195, 139, 169, 154, 200
-0.999198, 397, 257, 412, 288
-0.999205, 17, 33, 144, 96
-0.999207, 325, 217, 340, 280
-0.999212, 257, 1, 320, 375
-0.999216, 225, 97, 352, 160
-0.999216, 221, 153, 236, 184
-0.999219, 155, 193, 170, 224
-0.99922, 257, 65, 384, 128
-0.999225, 65, 257, 192, 288
-0.999228, 97, 329, 224, 360
-0.999236, 65, 257, 320, 320
-0.999241, 477, 249, 492, 312
-0.999248, 189, 113, 204, 240
-0.999248, 187, 145, 202, 176
-0.999249, 145, 273, 208, 336
-0.999254, 443, 261, 458, 292
-0.999255, 195, 165, 210, 196
-0.999259, 9, 309, 24, 340
-0.999259, 199, 321, 214, 352
-0.999259, 33, 209, 48, 272
-0.99926, 227, 129, 242, 160
-0.999264, 215, 105, 230, 168
-0.999265, 181, 197, 196, 228
-0.999266, 1, 201, 256, 264
-0.999269, 137, 209, 152, 240
-0.999271, 169, 201, 184, 232
-0.999272, 369, 285, 496, 316
-0.999279, 225, 253, 352, 284
-0.99928, 41, 1, 104, 375
-0.999282, 273, 237, 400, 268
-0.999283, 273, 97, 400, 160
-0.999285, 233, 169, 248, 200
-0.999289, 337, 157, 464, 188
-0.999296, 141, 141, 156, 172
-0.999296, 165, 185, 180, 216
-0.999301, 177, 173, 192, 204
-0.999302, 321, 341, 448, 372
-0.999303, 205, 321, 220, 352
-0.999304, 171, 125, 186, 156
-0.999313, 175, 217, 190, 280
-0.999316, 185, 1, 216, 256
-0.999319, 121, 153, 136, 184
-0.99932, 97, 309, 224, 340
-0.99932, 209, 97, 224, 160
-0.999321, 225, 273, 288, 336
-0.999321, 479, 229, 494, 260
-0.999323, 155, 145, 170, 272
-0.999323, 479, 225, 494, 288
-0.999323, 97, 265, 112, 328
-0.999323, 167, 129, 182, 256
-0.999325, 427, 237, 442, 268
-0.999326, 233, 249, 248, 312
-0.999326, 145, 213, 272, 244
-0.999328, 201, 313, 216, 375
-0.99933, 183, 185, 198, 216
-0.99933, 463, 213, 478, 244
-0.999332, 191, 177, 206, 240
-0.999335, 117, 297, 132, 360
-0.999335, 187, 197, 202, 228
-0.999337, 445, 209, 460, 272
-0.999338, 127, 157, 142, 188
-0.999338, 469, 257, 484, 320
-0.999342, 189, 165, 204, 196
-0.999342, 1, 325, 128, 356
-0.999345, 169, 65, 232, 128
-0.999346, 181, 129, 196, 256
-0.999347, 417, 185, 432, 248
-0.999347, 249, 201, 264, 264
-0.999349, 145, 253, 272, 284
-0.999349, 33, 293, 160, 324
-0.999351, 193, 49, 320, 112
-0.999352, 393, 245, 408, 276
-0.999352, 209, 197, 336, 228
-0.999356, 329, 177, 344, 240
-0.999356, 331, 241, 346, 304
-0.999357, 363, 237, 378, 268
-0.999359, 367, 257, 382, 288
-0.999362, 255, 257, 270, 320
-0.999362, 145, 33, 208, 160
-0.999363, 193, 329, 208, 360
-0.999364, 11, 321, 26, 352
-0.999365, 415, 209, 430, 272
-0.999368, 243, 233, 258, 296
-0.999369, 337, 129, 464, 160
-0.999369, 141, 181, 156, 212
-0.99937, 17, 121, 80, 184
-0.999373, 387, 249, 402, 280
-0.999373, 137, 129, 168, 375
-0.999377, 209, 113, 224, 240
-0.999377, 233, 133, 248, 164
-0.999379, 125, 129, 156, 375
-0.999381, 149, 213, 164, 244
-0.999383, 401, 225, 416, 288
-0.999384, 381, 281, 396, 344
-0.999387, 185, 121, 200, 152
-0.999389, 485, 209, 500, 272
-0.999389, 423, 257, 438, 320
-0.99939, 437, 233, 452, 264
-0.99939, 49, 237, 176, 268
-0.999395, 1, 129, 500, 192
-0.999396, 49, 281, 64, 344
-0.999399, 255, 225, 270, 288
-0.999399, 175, 249, 190, 312
-0.9994, 485, 209, 500, 240
-0.999401, 147, 137, 162, 168
-0.999402, 245, 241, 260, 272
-0.999402, 467, 245, 482, 276
-0.999403, 369, 289, 384, 320
-0.999404, 441, 273, 456, 304
-0.999405, 449, 249, 464, 312
-0.999405, 345, 1, 408, 375
-0.999407, 49, 241, 112, 368
-0.999409, 391, 261, 406, 292
-0.999409, 341, 265, 356, 296
-0.999413, 95, 269, 110, 300
-0.999414, 461, 225, 476, 288
-0.999414, 69, 281, 84, 344
-0.999415, 183, 161, 198, 192
-0.999416, 435, 273, 450, 304
-0.999416, 353, 321, 480, 352
-0.999417, 57, 257, 72, 320
-0.999418, 473, 213, 488, 244
-0.99942, 223, 161, 238, 224
-0.999422, 239, 157, 254, 188
-0.999422, 227, 165, 242, 196
-0.999422, 349, 69, 364, 100
-0.999423, 387, 265, 402, 328
-0.999424, 483, 241, 498, 272
-0.999425, 187, 161, 202, 176
-0.999426, 255, 245, 270, 260
-0.999426, 447, 247, 462, 262
-0.999426, 423, 261, 438, 276
-0.999426, 175, 271, 190, 286
-0.999426, 425, 269, 440, 284
-0.999426, 179, 257, 194, 288
-0.999427, 131, 157, 146, 172
-0.999428, 89, 257, 104, 288
-0.999428, 225, 181, 240, 196
-0.999428, 415, 241, 430, 256
-0.999428, 417, 191, 432, 206
-0.999428, 485, 243, 500, 258
-0.999428, 453, 217, 468, 232
-0.999428, 363, 251, 378, 266
-0.999428, 371, 251, 386, 266
-0.999428, 1, 305, 256, 368
-0.999429, 143, 179, 158, 194
-0.999429, 439, 251, 454, 266
-0.999429, 361, 233, 376, 296
-0.999429, 193, 273, 448, 336
-0.99943, 403, 245, 418, 276
-0.99943, 143, 161, 158, 176
-0.999431, 341, 69, 356, 84
-0.999431, 213, 161, 228, 192
-0.999434, 187, 213, 202, 244
-0.999434, 137, 207, 152, 222
-0.999434, 257, 217, 500, 280
-0.999434, 351, 65, 366, 80
-0.999435, 145, 129, 160, 256
-0.999436, 177, 151, 192, 166
-0.999436, 181, 185, 196, 200
-0.999436, 413, 249, 444, 312
-0.999436, 187, 215, 202, 230
-0.999436, 397, 265, 412, 280
-0.999437, 197, 325, 212, 340
-0.999437, 65, 121, 192, 152
-0.999438, 179, 265, 194, 280
-0.999438, 167, 179, 182, 194
-0.999438, 153, 211, 168, 226
-0.999438, 195, 161, 210, 176
-0.999438, 441, 273, 456, 336
-0.999438, 181, 191, 196, 206
-0.999438, 201, 113, 216, 240
-0.999438, 473, 185, 488, 248
-0.999439, 391, 267, 406, 282
-0.999439, 129, 269, 256, 300
-0.999439, 139, 195, 154, 210
-0.999439, 161, 113, 176, 240
-0.999439, 19, 309, 34, 340
-0.99944, 169, 147, 184, 162
-0.99944, 89, 277, 104, 308
-0.99944, 201, 161, 216, 176
-0.999441, 223, 161, 238, 176
-0.999442, 327, 259, 342, 274
-0.999443, 209, 151, 224, 166
-0.999443, 431, 261, 446, 292
-0.999443, 197, 169, 212, 184
-0.999443, 429, 261, 444, 276
-0.999443, 435, 209, 450, 272
-0.999444, 149, 185, 164, 200
-0.999444, 445, 259, 460, 274
-0.999444, 153, 139, 168, 154
-0.999445, 177, 317, 304, 348
-0.999445, 197, 155, 212, 170
-0.999447, 187, 145, 202, 160
-0.999447, 373, 237, 388, 268
-0.999447, 229, 167, 244, 182
-0.999447, 305, 265, 432, 296
-0.999448, 143, 167, 158, 182
-0.999449, 201, 149, 216, 180
-0.999449, 181, 221, 196, 252
-0.99945, 173, 133, 188, 148
-0.99945, 473, 265, 488, 296
-0.99945, 443, 289, 458, 320
-0.99945, 167, 153, 182, 168
-0.99945, 229, 169, 244, 232
-0.999451, 405, 289, 420, 352
-0.999452, 137, 157, 152, 172
-0.999452, 421, 225, 436, 256
-0.999452, 269, 249, 284, 280
-0.999453, 431, 225, 446, 256
-0.999454, 231, 197, 246, 228
-0.999455, 135, 121, 150, 184
-0.999457, 321, 73, 448, 136
-0.999457, 367, 257, 382, 272
-0.999457, 205, 173, 220, 204
-0.999458, 199, 113, 214, 144
-0.999458, 145, 213, 160, 228
-0.999458, 183, 207, 198, 222
-0.999458, 175, 161, 190, 192
-0.999459, 145, 151, 160, 166
-0.999459, 173, 265, 188, 296
-0.999459, 163, 139, 178, 154
-0.99946, 167, 199, 182, 214
-0.99946, 9, 241, 24, 304
-0.99946, 181, 213, 196, 228
-0.999461, 203, 147, 218, 162
-0.999461, 193, 221, 320, 252
-0.999461, 255, 241, 270, 272
-0.999462, 169, 193, 184, 208
-0.999462, 485, 221, 500, 252
-0.999462, 347, 71, 362, 86
-0.999463, 171, 177, 186, 304
-0.999463, 151, 145, 166, 160
-0.999463, 137, 201, 152, 216
-0.999464, 233, 145, 248, 160
-0.999464, 373, 257, 388, 272
-0.999465, 161, 165, 176, 180
-0.999465, 435, 259, 450, 274
-0.999466, 123, 165, 138, 180
-0.999467, 161, 183, 176, 198
-0.999468, 155, 157, 170, 172
-0.999468, 345, 297, 360, 360
-0.999469, 133, 163, 148, 178
-0.999469, 39, 209, 54, 272
-0.99947, 221, 137, 236, 152
-0.99947, 219, 129, 234, 144
-0.99947, 369, 193, 496, 224
-0.99947, 139, 151, 154, 166
-0.999471, 125, 177, 140, 192
-0.999472, 179, 131, 194, 146
-0.999472, 195, 113, 210, 240
-0.999473, 179, 197, 194, 212
-0.999474, 195, 313, 210, 375
-0.999475, 233, 151, 248, 166
-0.999476, 201, 129, 216, 144
-0.999476, 147, 193, 162, 208
-0.999476, 149, 157, 164, 172
-0.999476, 33, 281, 288, 344
-0.999477, 175, 185, 190, 200
-0.999477, 169, 187, 184, 202
-0.999478, 175, 113, 190, 240
-0.999478, 199, 177, 214, 240
-0.999478, 207, 159, 222, 174
-0.999478, 153, 191, 168, 206
-0.999479, 441, 265, 456, 280
-0.999479, 139, 213, 154, 228
-0.99948, 33, 309, 160, 340
-0.999482, 161, 193, 416, 256
-0.999482, 193, 241, 448, 304
-0.999484, 149, 205, 164, 220
-0.999487, 447, 289, 462, 352
-0.999489, 149, 199, 164, 214
-0.999489, 177, 301, 304, 332
-0.99949, 139, 173, 154, 188
-0.99949, 151, 163, 166, 178
-0.99949, 235, 163, 250, 178
-0.999492, 227, 139, 242, 154
-0.999492, 161, 177, 176, 192
-0.999496, 239, 209, 254, 272
-0.999496, 297, 241, 312, 304
-0.999497, 149, 179, 164, 194
-0.999501, 145, 173, 160, 188
-0.999501, 235, 157, 250, 172
-0.999502, 81, 189, 208, 220
-0.999502, 145, 329, 272, 360
-0.999502, 43, 273, 58, 336
-0.999502, 209, 209, 336, 240
-0.999504, 227, 147, 242, 162
-0.999505, 75, 297, 90, 360
-0.999506, 435, 265, 450, 280
-0.999506, 177, 207, 192, 222
-0.999507, 161, 159, 176, 174
-0.999509, 155, 173, 170, 188
-0.999511, 33, 189, 160, 220
-0.999511, 133, 249, 148, 312
-0.999512, 289, 309, 416, 340
-0.999514, 195, 289, 210, 352
-0.999515, 189, 131, 204, 146
-0.999515, 207, 129, 222, 144
-0.999517, 259, 201, 274, 264
-0.999517, 369, 297, 496, 328
-0.99952, 413, 265, 428, 328
-0.99952, 353, 273, 368, 336
-0.999521, 215, 135, 230, 150
-0.999521, 369, 141, 496, 172
-0.999523, 193, 201, 208, 264
-0.999523, 475, 273, 490, 336
-0.999524, 229, 161, 244, 176
-0.999526, 123, 129, 138, 192
-0.999526, 161, 153, 176, 168
-0.999526, 279, 129, 294, 192
-0.999527, 193, 265, 320, 296
-0.999528, 215, 147, 230, 162
-0.999528, 155, 183, 170, 198
-0.999529, 195, 139, 210, 154
-0.999529, 395, 241, 410, 304
-0.999529, 127, 305, 142, 368
-0.999532, 485, 249, 500, 312
-0.999534, 179, 139, 194, 154
-0.999534, 175, 191, 190, 206
-0.999535, 355, 313, 370, 375
-0.999536, 373, 161, 388, 224
-0.999536, 173, 201, 188, 216
-0.999538, 247, 265, 262, 328
-0.999539, 133, 169, 148, 184
-0.999539, 203, 135, 218, 150
-0.999541, 189, 137, 204, 152
-0.999543, 125, 171, 140, 186
-0.999544, 195, 131, 210, 146
-0.999545, 107, 313, 122, 375
-0.999547, 305, 277, 432, 308
-0.999548, 177, 177, 192, 304
-0.999549, 297, 145, 360, 208
-0.999553, 157, 145, 172, 160
-0.999556, 169, 141, 184, 156
-0.999556, 131, 175, 146, 190
-0.999559, 143, 201, 158, 216
-0.999559, 273, 249, 400, 280
-0.999559, 143, 207, 158, 222
-0.999564, 33, 89, 288, 152
-0.999565, 197, 1, 228, 256
-0.999571, 337, 185, 400, 248
-0.999574, 201, 313, 264, 375
-0.999575, 321, 41, 448, 104
-0.999578, 33, 109, 160, 140
-0.99958, 149, 177, 164, 304
-0.999585, 321, 205, 448, 236
-0.999585, 241, 221, 368, 252
-0.999589, 215, 141, 230, 156
-0.999591, 225, 155, 240, 170
-0.999594, 193, 241, 320, 272
-0.999595, 153, 151, 168, 166
-0.999596, 265, 305, 328, 368
-0.999597, 209, 145, 224, 160
-0.9996, 225, 137, 352, 168
-0.999602, 9, 209, 72, 336
-0.999604, 201, 141, 216, 156
-0.999612, 221, 143, 236, 158
-0.999616, 113, 137, 144, 200
-0.999623, 373, 233, 404, 296
-0.999624, 163, 145, 178, 160
-0.999626, 1, 253, 128, 284
-0.999633, 221, 149, 236, 164
-0.999633, 257, 185, 500, 248
-0.999634, 209, 135, 224, 150
-0.999635, 17, 149, 144, 180
-0.999635, 129, 297, 256, 328
-0.999639, 241, 333, 368, 364
-0.99964, 215, 113, 230, 240
-0.999641, 369, 25, 496, 88
-0.999643, 133, 129, 148, 256
-0.999645, 161, 177, 288, 208
-0.999645, 305, 297, 432, 328
-0.999646, 241, 297, 368, 328
-0.999653, 167, 81, 182, 208
-0.999655, 273, 321, 400, 352
-0.999656, 161, 97, 416, 160
-0.999664, 17, 345, 144, 375
-0.999667, 257, 169, 320, 232
-0.999667, 273, 133, 400, 164
-0.999668, 113, 97, 240, 128
-0.99967, 257, 285, 384, 316
-0.999672, 143, 177, 158, 304
-0.999674, 49, 213, 176, 244
-0.999674, 207, 65, 222, 192
-0.999678, 321, 241, 352, 368
-0.999681, 199, 161, 214, 288
-0.999684, 161, 161, 176, 288
-0.999686, 195, 65, 210, 192
-0.999692, 1, 193, 500, 256
-0.999696, 305, 185, 432, 216
-0.999696, 321, 237, 448, 268
-0.999697, 225, 129, 240, 256
-0.999705, 369, 117, 496, 148
-0.999706, 273, 209, 400, 240
-0.999707, 97, 313, 352, 375
-0.999708, 193, 25, 320, 88
-0.999709, 289, 57, 416, 88
-0.999713, 155, 97, 170, 224
-0.999714, 139, 129, 154, 256
-0.999718, 17, 169, 144, 200
-0.999725, 97, 241, 224, 272
-0.999725, 135, 177, 150, 304
-0.999725, 187, 161, 202, 288
-0.999731, 369, 173, 496, 204
-0.999731, 97, 225, 224, 256
-0.999735, 1, 9, 128, 72
-0.999737, 189, 65, 204, 192
-0.99974, 1, 233, 128, 264
-0.999746, 221, 81, 236, 208
-0.999751, 369, 65, 496, 96
-0.999753, 49, 329, 176, 360
-0.999754, 209, 57, 336, 88
-0.999755, 231, 145, 246, 272
-0.999755, 181, 81, 196, 208
-0.999763, 201, 65, 216, 192
-0.999763, 161, 345, 288, 375
-0.999769, 113, 345, 240, 375
-0.999772, 209, 161, 336, 192
-0.999773, 209, 285, 336, 316
-0.999778, 177, 289, 240, 352
-0.999781, 97, 73, 160, 136
-0.999782, 353, 49, 368, 176
-0.999784, 147, 81, 162, 208
-0.999792, 193, 161, 208, 288
-0.999804, 257, 189, 384, 220
-0.99981, 369, 253, 496, 284
-0.999811, 273, 345, 400, 375
-0.999813, 435, 241, 450, 368
-0.999815, 157, 1, 188, 256
-0.999818, 205, 161, 220, 288
-0.999829, 255, 1, 270, 128
-0.999829, 129, 285, 256, 316
-0.999837, 347, 49, 362, 176
-0.999838, 133, 81, 148, 208
-0.999838, 243, 193, 258, 320
-0.999838, 125, 161, 140, 288
-0.999839, 457, 225, 472, 352
-0.999842, 237, 193, 252, 320
-0.999844, 213, 97, 244, 352
-0.999845, 441, 225, 456, 352
-0.999845, 145, 225, 272, 256
-0.99985, 275, 209, 290, 336
-0.999852, 65, 269, 192, 300
-0.999852, 209, 181, 336, 212
-0.999853, 227, 193, 242, 320
-0.999856, 213, 161, 228, 288
-0.999858, 225, 321, 352, 352
-0.999859, 197, 209, 212, 336
-0.999863, 231, 65, 246, 192
-0.999864, 213, 1, 244, 256
-0.999865, 427, 225, 442, 352
-0.999868, 321, 145, 448, 176
-0.999869, 221, 209, 236, 336
-0.99987, 11, 241, 26, 368
-0.99987, 369, 309, 496, 340
-0.999871, 49, 281, 176, 312
-0.999871, 465, 209, 480, 336
-0.999873, 215, 65, 230, 192
-0.999873, 179, 225, 194, 352
-0.999874, 263, 193, 278, 320
-0.999877, 369, 337, 496, 368
-0.99988, 249, 145, 264, 272
-0.999883, 249, 177, 280, 304
-0.999883, 177, 209, 208, 336
-0.999883, 175, 65, 190, 192
-0.999884, 305, 109, 432, 140
-0.999884, 1, 129, 128, 160
-0.999884, 265, 241, 280, 368
-0.999887, 413, 97, 428, 224
-0.999888, 447, 193, 462, 320
-0.999888, 255, 177, 270, 304
-0.999888, 249, 1, 264, 128
-0.999889, 189, 225, 204, 352
-0.999892, 173, 1, 204, 256
-0.999896, 1, 209, 128, 240
-0.999897, 399, 177, 414, 304
-0.9999, 333, 225, 348, 352
-0.999901, 253, 241, 268, 368
-0.999902, 435, 177, 450, 304
-0.999904, 347, 1, 362, 128
-0.999908, 79, 241, 94, 368
-0.999909, 171, 225, 186, 352
-0.999912, 141, 81, 156, 208
-0.999912, 257, 313, 500, 375
-0.999913, 233, 121, 264, 184
-0.999915, 409, 225, 424, 352
-0.999916, 289, 169, 416, 200
-0.999919, 123, 97, 138, 224
-0.999919, 1, 273, 128, 304
-0.999919, 323, 241, 338, 368
-0.999922, 65, 97, 192, 128
-0.999922, 151, 225, 166, 352
-0.999923, 203, 241, 218, 368
-0.999923, 269, 193, 284, 320
-0.999924, 415, 225, 430, 352
-0.999925, 81, 293, 208, 324
-0.999925, 259, 113, 274, 240
-0.999926, 407, 145, 422, 272
-0.999928, 209, 209, 224, 336
-0.99993, 471, 241, 486, 368
-0.999931, 129, 41, 256, 104
-0.999932, 409, 193, 440, 320
-0.999932, 97, 225, 352, 288
-0.999932, 415, 145, 430, 272
-0.999932, 359, 1, 374, 128
-0.999933, 243, 241, 258, 368
-0.999933, 249, 193, 264, 320
-0.999934, 69, 241, 84, 368
-0.999934, 227, 241, 242, 368
-0.999937, 133, 225, 148, 352
-0.999938, 225, 309, 352, 340
-0.999939, 455, 177, 470, 304
-0.999941, 87, 97, 102, 224
-0.999941, 341, 241, 356, 368
-0.999941, 273, 145, 400, 176
-0.999941, 373, 145, 388, 272
-0.999942, 379, 241, 394, 368
-0.999942, 41, 257, 104, 320
-0.999943, 63, 1, 78, 128
-0.999943, 119, 1, 134, 128
-0.999944, 257, 113, 500, 176
-0.999944, 359, 113, 374, 240
-0.999946, 369, 1, 496, 64
-0.999946, 447, 241, 462, 368
-0.999946, 421, 225, 436, 352
-0.999948, 269, 145, 284, 272
-0.999948, 125, 225, 140, 352
-0.999949, 369, 241, 384, 368
-0.999949, 241, 145, 256, 272
-0.99995, 357, 225, 372, 352
-0.99995, 225, 345, 352, 375
-0.999951, 367, 177, 382, 304
-0.999952, 79, 129, 94, 256
-0.999952, 479, 177, 494, 304
-0.999954, 129, 65, 256, 96
-0.999955, 327, 177, 342, 304
-0.999956, 51, 1, 66, 128
-0.999956, 57, 17, 72, 144
-0.999958, 343, 193, 358, 320
-0.999958, 397, 225, 412, 352
-0.999958, 215, 225, 230, 352
-0.999959, 115, 225, 130, 352
-0.99996, 139, 225, 154, 352
-0.99996, 423, 177, 438, 304
-0.99996, 377, 193, 392, 320
-0.99996, 145, 225, 160, 352
-0.999961, 165, 225, 180, 352
-0.999962, 321, 193, 336, 320
-0.999962, 485, 209, 500, 336
-0.999963, 83, 193, 98, 320
-0.999963, 183, 33, 198, 160
-0.999963, 95, 1, 110, 128
-0.999964, 161, 65, 176, 192
-0.999965, 399, 97, 414, 224
-0.999968, 379, 129, 394, 256
-0.999969, 391, 177, 406, 304
-0.999969, 297, 225, 312, 352
-0.999969, 233, 1, 296, 128
-0.999979, 1, 89, 128, 120
-0.999986, 33, 77, 160, 108
-0.999989, 321, 73, 448, 104
-0.999992, 193, 333, 320, 364
-0.999994, 273, 81, 336, 208
-1.00001, 229, 97, 260, 224
-1.00001, 257, 69, 384, 100
-1.00001, 241, 45, 368, 76
-1.00003, 265, 1, 328, 128
-1.00004, 405, 97, 436, 224
-1.00004, 133, 33, 164, 288
-1.00005, 321, 93, 448, 124
-1.00005, 49, 225, 176, 256
-1.00006, 257, 117, 384, 148
-1.00006, 1, 217, 64, 280
-1.00006, 17, 1, 80, 375
-1.00007, 65, 1, 128, 375
-1.00011, 113, 289, 176, 352
-1.00012, 9, 249, 72, 312
-1.00014, 425, 233, 456, 296
-1.00015, 461, 265, 492, 328
-1.00015, 377, 313, 440, 375
-1.00015, 449, 209, 480, 336
-1.00018, 441, 233, 472, 296
-1.00018, 1, 145, 128, 272
-1.0002, 241, 41, 368, 104
-1.0002, 169, 1, 232, 64
-1.00021, 321, 97, 448, 160
-1.00022, 305, 49, 368, 112
-1.00023, 121, 33, 152, 288
-1.00025, 1, 225, 256, 288
-1.00027, 73, 185, 136, 248
-1.00028, 357, 241, 388, 368
-1.00029, 1, 65, 128, 128
-1.00029, 193, 49, 448, 112
-1.00029, 393, 1, 456, 375
-1.00031, 33, 17, 288, 80
-1.00031, 193, 73, 320, 136
-1.00032, 369, 225, 432, 352
-1.00033, 413, 193, 444, 256
-1.00033, 33, 65, 288, 128
-1.00035, 241, 241, 272, 368
-1.00035, 381, 265, 412, 328
-1.00036, 393, 241, 424, 304
-1.00038, 441, 129, 472, 375
-1.00038, 241, 313, 304, 375
-1.00038, 33, 89, 96, 152
-1.00039, 137, 209, 168, 336
-1.0004, 265, 81, 328, 144
-1.00041, 237, 193, 268, 320
-1.00041, 89, 33, 152, 288
-1.00043, 161, 1, 416, 64
-1.00043, 57, 81, 120, 144
-1.00044, 1, 241, 500, 304
-1.00044, 145, 33, 176, 288
-1.00044, 405, 97, 436, 352
-1.00045, 105, 241, 168, 368
-1.00047, 253, 257, 284, 320
-1.00049, 49, 1, 112, 128
-1.0005, 193, 193, 224, 256
-1.0005, 109, 97, 140, 352
-1.00051, 305, 1, 432, 64
-1.00053, 109, 1, 140, 256
-1.00054, 121, 97, 184, 160
-1.00054, 381, 129, 412, 375
-1.00054, 345, 121, 408, 184
-1.00056, 425, 129, 456, 375
-1.00057, 177, 25, 240, 88
-1.00057, 57, 209, 120, 272
-1.00058, 401, 49, 464, 176
-1.00059, 417, 313, 480, 375
-1.00059, 229, 129, 260, 375
-1.00059, 41, 9, 104, 72
-1.00059, 45, 1, 76, 256
-1.00062, 365, 129, 396, 375
-1.00062, 461, 97, 492, 352
-1.00065, 81, 41, 208, 104
-1.00065, 225, 105, 288, 168
-1.00066, 309, 97, 340, 352
-1.00066, 193, 73, 448, 136
-1.00067, 393, 129, 456, 375
-1.00068, 369, 177, 432, 304
-1.00069, 97, 41, 352, 104
-1.0007, 297, 193, 360, 256
-1.00071, 13, 65, 44, 320
-1.00073, 241, 57, 304, 120
-1.00074, 257, 129, 288, 375
-1.00074, 285, 129, 316, 375
-1.00075, 297, 129, 328, 375
-1.00076, 1, 105, 500, 168
-1.00077, 1, 217, 500, 280
-1.00077, 1, 41, 256, 104
-1.00077, 289, 193, 352, 320
-1.00078, 77, 129, 108, 375
-1.00078, 241, 1, 272, 128
-1.00078, 273, 233, 304, 296
-1.00079, 57, 1, 88, 256
-1.0008, 449, 1, 480, 256
-1.00081, 257, 1, 500, 64
-1.00081, 325, 33, 356, 288
-1.00081, 25, 65, 56, 320
-1.00082, 129, 241, 192, 304
-1.00082, 333, 225, 364, 352
-1.00083, 1, 305, 500, 368
-1.00083, 241, 129, 272, 375
-1.00083, 73, 297, 104, 360
-1.00085, 269, 129, 300, 375
-1.00086, 249, 201, 312, 264
-1.00087, 393, 129, 424, 375
-1.00087, 261, 33, 292, 288
-1.00087, 93, 1, 124, 256
-1.00088, 345, 1, 376, 256
-1.00089, 1, 1, 32, 256
-1.0009, 297, 33, 328, 288
-1.00091, 405, 137, 436, 200
-1.00091, 233, 1, 264, 256
-1.00091, 1, 161, 64, 224
-1.00093, 325, 129, 356, 375
-1.00094, 285, 33, 316, 288
-1.00094, 1, 129, 32, 375
-1.00094, 257, 1, 500, 128
-1.00094, 417, 33, 448, 288
-1.00095, 65, 129, 96, 375
-1.00095, 353, 129, 384, 375
-1.00096, 97, 129, 128, 375
-1.00096, 281, 169, 344, 232
-1.00096, 357, 33, 388, 288
-1.00097, 185, 313, 216, 375
-1.00097, 369, 33, 400, 288
-1.00097, 373, 289, 404, 352
-1.00097, 257, 25, 500, 88
-1.00097, 393, 177, 424, 304
-1.00097, 173, 225, 204, 288
-1.00098, 313, 1, 344, 256
-1.00098, 389, 1, 420, 256
-1.00099, 341, 49, 372, 176
-1.00099, 429, 33, 460, 288
-1.001, 469, 1, 500, 256
-1.00102, 193, 241, 224, 368
-1.00102, 73, 33, 104, 288
-1.00103, 337, 97, 368, 352
-1.00105, 345, 97, 408, 160
-1.00105, 401, 97, 464, 160
-1.00108, 417, 241, 448, 368
-1.00108, 53, 97, 84, 352
-1.00109, 249, 1, 280, 256
-1.00109, 117, 225, 148, 352
-1.0011, 37, 97, 68, 352
-1.00111, 333, 233, 364, 296
-1.00112, 237, 161, 268, 224
-1.00112, 41, 137, 104, 200
-1.00112, 129, 209, 160, 272
-1.00113, 321, 177, 384, 304
-1.00114, 33, 233, 96, 296
-1.00115, 121, 97, 152, 224
-1.00115, 405, 1, 436, 256
-1.00115, 273, 33, 304, 288
-1.00118, 421, 177, 452, 304
-1.00118, 417, 145, 480, 272
-1.0012, 401, 265, 432, 328
-1.00121, 165, 241, 196, 368
-1.00122, 417, 97, 480, 352
-1.00124, 257, 225, 288, 288
-1.00125, 281, 265, 312, 328
-1.00126, 241, 113, 304, 240
-1.00127, 253, 1, 284, 128
-1.00133, 225, 241, 256, 368
-1.00136, 17, 193, 144, 320
-1.00137, 269, 137, 300, 200
-1.0014, 317, 209, 348, 272
-1.00144, 105, 313, 136, 375
-1.00149, 441, 265, 472, 328
-1.00149, 137, 297, 168, 360
-1.00151, 209, 161, 272, 288
-1.00152, 77, 257, 108, 320
-1.00156, 49, 225, 80, 352
-1.00158, 81, 1, 112, 128
-1.00159, 349, 257, 380, 320
-1.00159, 469, 241, 500, 368
-1.0016, 233, 241, 264, 304
-1.00162, 173, 249, 204, 312
-1.00162, 317, 249, 348, 312
-1.00162, 405, 145, 436, 272
-1.00162, 321, 1, 448, 128
-1.00163, 217, 249, 248, 312
-1.00163, 361, 289, 392, 352
-1.00165, 93, 289, 124, 352
-1.00165, 1, 273, 500, 336
-1.00166, 201, 313, 232, 375
-1.00166, 345, 233, 376, 296
-1.00168, 25, 17, 88, 144
-1.00169, 1, 25, 500, 88
-1.00172, 249, 129, 312, 375
-1.00172, 53, 281, 84, 344
-1.00173, 13, 185, 44, 248
-1.00175, 309, 209, 340, 336
-1.00176, 257, 169, 288, 232
-1.00176, 233, 145, 264, 272
-1.00178, 1, 73, 500, 136
-1.0018, 437, 289, 468, 352
-1.00182, 329, 185, 360, 248
-1.00184, 357, 33, 388, 160
-1.00187, 261, 177, 292, 304
-1.00192, 221, 201, 252, 264
-1.00194, 277, 161, 308, 288
-1.00194, 49, 249, 80, 312
-1.00195, 1, 49, 500, 112
-1.00195, 369, 65, 496, 192
-1.00196, 149, 225, 180, 352
-1.00197, 149, 217, 180, 280
-1.00199, 337, 177, 368, 304
-1.00199, 101, 225, 132, 352
-1.002, 397, 169, 428, 232
-1.002, 453, 241, 484, 304
-1.00202, 457, 209, 488, 272
-1.00205, 273, 225, 304, 352
-1.00207, 97, 49, 160, 176
-1.00209, 109, 1, 140, 128
-1.00209, 297, 249, 328, 312
-1.0021, 253, 129, 284, 256
-1.00211, 469, 209, 500, 272
-1.00214, 461, 297, 492, 360
-1.00216, 425, 193, 456, 256
-1.00217, 133, 249, 164, 312
-1.0022, 173, 305, 204, 368
-1.00223, 437, 193, 468, 256
-1.00225, 93, 257, 124, 320
-1.00226, 1, 1, 500, 64
-1.00226, 113, 289, 144, 352
-1.00227, 205, 241, 236, 368
-1.00228, 393, 113, 424, 240
-1.00228, 469, 233, 500, 296
-1.00228, 101, 177, 132, 240
-1.00229, 285, 241, 316, 368
-1.00229, 461, 177, 492, 304
-1.00231, 369, 129, 432, 375
-1.00234, 357, 225, 388, 288
-1.00234, 401, 209, 432, 272
-1.00234, 25, 289, 56, 352
-1.00235, 293, 145, 324, 208
-1.00237, 201, 233, 232, 296
-1.00239, 9, 121, 40, 184
-1.00239, 37, 193, 68, 256
-1.00242, 409, 161, 440, 224
-1.00242, 309, 129, 340, 192
-1.00242, 237, 265, 268, 328
-1.00243, 345, 225, 376, 352
-1.00243, 321, 193, 352, 320
-1.00247, 373, 153, 404, 216
-1.00247, 9, 81, 72, 208
-1.00248, 381, 121, 412, 184
-1.00248, 449, 289, 480, 352
-1.00248, 353, 161, 384, 224
-1.0025, 125, 305, 156, 368
-1.00251, 337, 289, 368, 352
-1.00251, 241, 217, 272, 280
-1.00251, 77, 113, 108, 240
-1.00254, 377, 241, 408, 368
-1.00256, 189, 225, 220, 288
-1.00256, 5, 241, 36, 368
-1.00257, 97, 225, 128, 288
-1.00259, 389, 217, 420, 280
-1.00259, 229, 49, 260, 176
-1.00259, 149, 97, 180, 160
-1.00259, 97, 65, 128, 192
-1.0026, 425, 169, 456, 232
-1.0026, 193, 265, 224, 328
-1.0026, 205, 289, 236, 352
-1.00261, 453, 129, 484, 192
-1.00262, 29, 217, 60, 280
-1.00263, 61, 65, 92, 192
-1.00263, 57, 65, 120, 192
-1.00266, 269, 1, 300, 128
-1.00268, 313, 161, 344, 224
-1.00269, 73, 193, 136, 320
-1.00269, 273, 113, 304, 240
-1.0027, 345, 97, 408, 352
-1.00271, 41, 49, 72, 176
-1.00271, 421, 289, 452, 352
-1.00272, 313, 129, 376, 256
-1.00273, 377, 129, 408, 256
-1.00279, 81, 129, 144, 375
-1.00279, 209, 209, 240, 272
-1.00279, 281, 137, 312, 200
-1.00279, 437, 161, 468, 288
-1.0028, 21, 225, 52, 352
-1.00281, 13, 217, 44, 280
-1.00281, 153, 273, 184, 336
-1.00282, 225, 97, 288, 352
-1.00283, 121, 49, 152, 176
-1.00284, 257, 201, 288, 264
-1.00284, 181, 281, 212, 344
-1.00285, 401, 289, 432, 352
-1.00288, 129, 113, 160, 176
-1.00288, 457, 169, 488, 232
-1.00288, 97, 1, 128, 128
-1.00296, 397, 225, 428, 352
-1.00305, 273, 129, 336, 375
-1.00306, 25, 97, 56, 224
-1.00311, 353, 113, 384, 240
-1.00311, 313, 129, 376, 375
-1.00311, 33, 161, 96, 288
-1.00312, 421, 129, 452, 256
-1.00312, 349, 161, 380, 288
-1.00314, 81, 241, 112, 368
-1.00315, 369, 193, 400, 320
-1.00315, 289, 193, 320, 320
-1.00318, 9, 161, 40, 288
-1.00321, 61, 241, 92, 368
-1.00325, 105, 129, 136, 256
-1.00326, 49, 1, 112, 256
-1.00329, 389, 65, 420, 192
-1.0033, 329, 33, 360, 160
-1.00333, 461, 97, 492, 224
-1.00334, 345, 177, 408, 304
-1.00336, 289, 129, 320, 256
-1.00336, 321, 33, 384, 288
-1.00341, 253, 65, 284, 192
-1.00346, 301, 145, 332, 272
-1.00352, 65, 1, 96, 128
-1.00357, 121, 1, 184, 128
-1.00359, 249, 49, 312, 176
-1.00363, 365, 97, 396, 224
-1.00368, 285, 1, 316, 128
-1.0037, 201, 1, 264, 128
-1.0037, 289, 129, 352, 256
-1.00374, 89, 113, 120, 240
-1.00376, 169, 1, 232, 128
-1.00377, 37, 145, 68, 272
-1.00377, 97, 177, 128, 304
-1.00382, 297, 241, 328, 368
-1.00389, 9, 113, 40, 240
-1.00389, 25, 177, 56, 304
-1.0039, 241, 97, 272, 224
-1.0039, 65, 145, 96, 272
-1.0039, 69, 193, 100, 320
-1.00391, 109, 65, 140, 192
-1.00394, 369, 1, 496, 128
-1.00396, 425, 65, 488, 192
-1.00397, 9, 65, 72, 320
-1.00403, 421, 81, 452, 208
-1.00403, 137, 1, 168, 128
-1.00406, 57, 97, 120, 352
-1.00408, 449, 129, 480, 256
-1.00408, 133, 49, 164, 176
-1.00412, 81, 65, 112, 192
-1.00414, 53, 1, 84, 128
-1.00416, 225, 1, 288, 256
-1.0042, 317, 145, 348, 272
-1.00422, 297, 33, 360, 288
-1.00427, 285, 81, 316, 208
-1.00428, 229, 1, 260, 128
-1.00428, 301, 65, 332, 192
-1.0043, 213, 17, 244, 144
-1.00431, 265, 33, 328, 288
-1.00436, 417, 1, 480, 256
-1.00436, 273, 65, 304, 192
-1.00438, 345, 1, 376, 128
-1.00438, 425, 17, 488, 144
-1.00441, 329, 129, 360, 256
-1.00445, 153, 33, 184, 160
-1.00446, 241, 49, 272, 176
-1.00446, 377, 81, 408, 208
-1.00449, 381, 177, 412, 304
-1.00451, 37, 97, 68, 224
-1.00452, 441, 65, 472, 192
-1.0046, 225, 33, 480, 288
-1.00475, 385, 33, 448, 288
-1.00484, 1, 33, 64, 160
-1.00497, 369, 17, 432, 144
-1.00503, 57, 113, 120, 240
-1.00511, 33, 129, 96, 375
-1.00529, 393, 1, 456, 128
-1.00574, 9, 129, 72, 256
-1.00584, 361, 1, 424, 256
-1.00629, 33, 113, 96, 240
-1.00646, 97, 1, 160, 128
-1.02258, 257, 129, 500, 375
