1887
-0.332848, 257, 1, 500, 333
-0.37923, 1, 1, 500, 256
-0.380178, 1, 1, 500, 333
-0.491831, 1, 1, 256, 333
-0.542796, 257, 33, 500, 288
-0.618075, 161, 1, 416, 333
-0.703103, 1, 1, 256, 256
-0.705793, 129, 65, 384, 320
-0.835728, 353, 1, 480, 333
-0.837945, 337, 65, 464, 320
-0.850006, 17, 1, 144, 333
-0.852755, 305, 1, 432, 333
-0.869415, 1, 1, 500, 128
-0.869711, 65, 1, 192, 333
-0.874196, 289, 1, 416, 256
-0.874346, 49, 1, 176, 256
-0.882121, 1, 49, 500, 176
-0.884714, 241, 1, 368, 333
-0.885737, 1, 129, 500, 256
-0.886618, 1, 1, 128, 256
-0.896807, 241, 65, 368, 320
-0.900389, 145, 65, 272, 320
-0.904776, 113, 1, 240, 333
-0.908803, 257, 129, 500, 256
-0.917782, 1, 177, 500, 304
-0.918422, 97, 1, 224, 256
-0.919344, 193, 65, 320, 320
-0.920893, 257, 193, 500, 320
-0.92149, 161, 1, 288, 333
-0.928818, 257, 49, 500, 176
-0.930284, 353, 113, 480, 240
-0.932247, 385, 97, 448, 224
-0.932338, 417, 145, 480, 272
-0.932931, 257, 1, 500, 128
-0.934053, 41, 1, 104, 128
-0.934706, 1, 17, 128, 144
-0.935741, 89, 1, 152, 128
-0.935909, 369, 209, 496, 333
-0.936636, 1, 49, 256, 176
-0.938832, 369, 1, 496, 128
-0.939257, 353, 161, 480, 288
-0.939397, 321, 33, 448, 160
-0.939428, 369, 49, 496, 176
-0.940059, 369, 49, 432, 176
-0.941235, 361, 97, 424, 224
-0.942044, 409, 81, 472, 208
-0.942427, 385, 1, 448, 128
-0.942471, 401, 209, 464, 333
-0.942802, 1, 1, 256, 128
-0.943976, 289, 81, 416, 208
-0.944261, 65, 33, 128, 160
-0.945398, 97, 97, 352, 224
-0.946185, 425, 1, 488, 128
-0.946281, 17, 1, 80, 128
-0.946547, 425, 193, 488, 320
-0.947408, 65, 33, 192, 160
-0.948033, 161, 161, 416, 288
-0.949136, 89, 49, 152, 176
-0.949196, 25, 1, 88, 64
-0.949399, 409, 233, 472, 296
-0.950461, 377, 209, 440, 333
-0.950951, 377, 161, 440, 288
-0.952113, 89, 33, 152, 96
-0.952445, 393, 121, 456, 184
-0.952485, 81, 57, 144, 120
-0.953261, 241, 97, 368, 224
-0.953436, 97, 1, 352, 128
-0.953855, 417, 145, 480, 208
-0.953944, 1, 1, 64, 64
-0.95472, 49, 25, 112, 88
-0.955536, 417, 209, 480, 272
-0.955588, 321, 209, 448, 333
-0.956068, 361, 121, 424, 184
-0.956183, 385, 241, 448, 304
-0.956235, 329, 65, 392, 192
-0.95631, 273, 33, 400, 160
-0.957051, 377, 273, 440, 333
-0.957439, 89, 89, 152, 152
-0.957983, 305, 129, 432, 256
-0.958159, 113, 97, 240, 224
-0.958159, 113, 1, 176, 128
-0.958328, 401, 1, 464, 64
-0.958368, 369, 97, 432, 160
-0.95873, 289, 49, 352, 176
-0.958988, 409, 265, 472, 328
-0.959029, 273, 177, 400, 304
-0.959051, 161, 49, 416, 176
-0.959594, 17, 65, 144, 192
-0.961082, 385, 41, 448, 104
-0.961314, 209, 49, 336, 176
-0.961398, 161, 209, 416, 333
-0.961413, 433, 1, 496, 64
-0.961558, 345, 17, 408, 144
-0.961775, 89, 9, 152, 72
-0.96193, 25, 25, 88, 88
-0.962029, 121, 49, 184, 176
-0.962747, 65, 145, 320, 272
-0.963569, 345, 209, 408, 333
-0.963744, 337, 113, 400, 240
-0.963986, 409, 81, 472, 144
-0.964084, 57, 49, 120, 112
-0.964348, 337, 129, 400, 192
-0.964936, 313, 17, 376, 144
-0.965055, 105, 97, 168, 224
-0.965128, 417, 81, 448, 208
-0.965135, 49, 1, 112, 64
-0.966768, 1, 97, 256, 224
-0.967136, 105, 57, 168, 120
-0.967456, 433, 241, 496, 304
-0.967486, 121, 81, 184, 144
-0.967607, 369, 153, 432, 216
-0.967643, 369, 209, 432, 272
-0.967661, 361, 57, 424, 120
-0.967869, 329, 73, 392, 136
-0.96811, 305, 33, 368, 96
-0.968661, 369, 33, 432, 288
-0.968673, 41, 1, 72, 64
-0.96884, 353, 233, 480, 296
-0.968865, 33, 113, 160, 240
-0.968936, 65, 81, 128, 144
-0.969003, 329, 97, 392, 160
-0.969075, 289, 57, 352, 120
-0.969207, 385, 65, 448, 128
-0.969705, 113, 33, 240, 160
-0.969919, 449, 193, 480, 320
-0.970368, 445, 225, 476, 288
-0.970404, 321, 97, 448, 160
-0.970429, 433, 81, 496, 208
-0.970506, 345, 33, 408, 96
-0.970656, 89, 33, 120, 96
-0.970666, 449, 145, 480, 272
-0.970888, 425, 233, 456, 296
-0.970931, 289, 97, 352, 224
-0.970992, 353, 257, 416, 320
-0.971088, 425, 49, 488, 112
-0.97122, 425, 169, 488, 232
-0.971257, 1, 33, 128, 96
-0.971429, 353, 137, 480, 200
-0.971531, 1, 1, 128, 64
-0.97192, 369, 161, 496, 224
-0.972331, 393, 65, 456, 320
-0.972429, 413, 233, 444, 296
-0.972559, 81, 145, 144, 272
-0.97266, 429, 209, 460, 333
-0.972858, 413, 209, 444, 333
-0.973185, 405, 81, 436, 208
-0.973337, 57, 1, 120, 256
-0.973404, 81, 1, 144, 256
-0.973406, 41, 1, 72, 128
-0.973556, 353, 33, 480, 96
-0.973565, 85, 17, 116, 144
-0.973596, 429, 209, 460, 272
-0.973643, 441, 1, 472, 128
-0.973941, 305, 105, 368, 168
-0.973969, 49, 161, 176, 288
-0.974148, 113, 1, 176, 64
-0.974299, 313, 129, 376, 256
-0.974313, 109, 1, 140, 128
-0.974318, 433, 129, 464, 256
-0.974374, 77, 17, 108, 80
-0.974553, 409, 113, 440, 176
-0.97457, 97, 65, 128, 128
-0.974705, 449, 201, 480, 264
-0.974705, 265, 193, 328, 320
-0.975038, 65, 17, 192, 80
-0.975147, 289, 81, 352, 144
-0.975199, 57, 1, 88, 64
-0.975316, 453, 161, 484, 224
-0.975349, 145, 97, 208, 224
-0.975401, 345, 153, 408, 216
-0.975422, 417, 1, 480, 256
-0.975505, 65, 81, 128, 208
-0.97578, 421, 121, 452, 184
-0.975782, 413, 273, 444, 333
-0.975799, 33, 65, 160, 128
-0.975924, 113, 81, 144, 144
-0.975953, 41, 49, 104, 176
-0.976014, 369, 81, 496, 144
-0.976048, 417, 89, 448, 152
-0.976085, 113, 17, 144, 80
-0.976118, 65, 193, 320, 320
-0.97614, 281, 1, 344, 128
-0.976223, 289, 65, 416, 128
-0.976251, 369, 265, 496, 328
-0.976438, 65, 33, 96, 96
-0.976529, 453, 1, 484, 64
-0.976675, 397, 33, 428, 160
-0.976686, 105, 161, 168, 288
-0.97681, 97, 33, 128, 160
-0.976866, 105, 1, 168, 256
-0.976925, 273, 217, 336, 280
-0.976932, 161, 97, 288, 224
-0.976955, 377, 9, 440, 72
-0.976958, 17, 9, 48, 72
-0.977225, 265, 97, 328, 224
-0.977236, 409, 25, 472, 88
-0.977252, 425, 265, 456, 328
-0.977278, 369, 209, 496, 272
-0.977316, 33, 1, 96, 256
-0.977381, 453, 1, 484, 128
-0.977462, 401, 169, 464, 232
-0.977465, 433, 49, 464, 176
-0.977507, 321, 65, 384, 320
-0.977725, 29, 1, 60, 128
-0.977726, 353, 1, 480, 64
-0.977929, 441, 137, 472, 200
-0.977953, 73, 17, 104, 144
-0.978004, 225, 1, 352, 128
-0.978022, 65, 41, 192, 104
-0.978133, 381, 33, 412, 96
-0.978139, 353, 161, 416, 288
-0.978454, 289, 33, 416, 96
-0.978574, 225, 209, 352, 333
-0.978635, 417, 1, 480, 333
-0.978661, 29, 9, 60, 72
-0.978727, 177, 97, 240, 224
-0.978802, 81, 89, 208, 152
-0.978923, 177, 161, 304, 288
-0.978964, 389, 81, 420, 208
-0.979067, 85, 65, 116, 192
-0.97909, 57, 1, 88, 128
-0.9791, 421, 1, 452, 128
-0.979162, 85, 57, 116, 120
-0.97918, 345, 1, 408, 256
-0.97934, 109, 49, 140, 112
-0.979361, 393, 209, 456, 272
-0.979519, 97, 177, 224, 304
-0.979676, 397, 273, 428, 333
-0.979726, 405, 89, 436, 152
-0.97976, 257, 41, 320, 104
-0.979887, 397, 129, 428, 256
-0.979947, 353, 57, 480, 120
-0.98002, 361, 129, 392, 192
-0.980075, 397, 113, 428, 176
-0.980105, 321, 257, 448, 320
-0.980119, 225, 161, 288, 288
-0.980406, 169, 97, 232, 160
-0.980463, 9, 1, 72, 256
-0.980532, 393, 1, 456, 333
-0.980571, 373, 121, 404, 184
-0.980581, 9, 49, 72, 176
-0.980588, 369, 113, 496, 176
-0.980752, 421, 129, 452, 256
-0.980939, 369, 17, 400, 144
-0.980948, 33, 97, 160, 160
-0.981025, 265, 49, 328, 176
-0.981025, 305, 121, 432, 184
-0.981095, 97, 113, 160, 176
-0.981114, 101, 89, 132, 152
-0.98115, 49, 25, 80, 88
-0.981159, 369, 1, 432, 333
-0.981235, 89, 1, 152, 333
-0.981277, 1, 25, 64, 88
-0.981303, 65, 1, 128, 333
-0.981354, 417, 121, 480, 184
-0.981359, 369, 57, 400, 120
-0.981376, 273, 97, 400, 160
-0.981448, 409, 33, 440, 160
-0.981466, 225, 145, 352, 272
-0.981523, 465, 1, 496, 128
-0.981593, 409, 1, 440, 64
-0.98166, 345, 9, 408, 72
-0.981725, 393, 145, 456, 208
-0.981756, 433, 25, 496, 88
-0.981819, 117, 81, 148, 208
-0.981833, 389, 209, 420, 333
-0.981874, 161, 209, 288, 333
-0.981889, 129, 57, 192, 120
-0.981906, 425, 49, 456, 112
-0.982069, 389, 89, 420, 152
-0.982071, 133, 1, 164, 64
-0.982095, 281, 1, 344, 256
-0.982161, 113, 33, 176, 96
-0.982188, 465, 1, 496, 64
-0.982194, 393, 41, 424, 104
-0.982238, 1, 177, 128, 304
-0.982383, 377, 81, 408, 208
-0.982477, 321, 153, 384, 216
-0.982575, 385, 121, 416, 184
-0.982616, 305, 145, 432, 208
-0.982633, 461, 177, 492, 304
-0.982636, 17, 1, 48, 128
-0.982667, 353, 185, 480, 248
-0.982752, 329, 1, 392, 333
-0.982832, 389, 145, 420, 208
-0.982999, 433, 97, 496, 160
-0.983068, 81, 65, 208, 128
-0.983122, 321, 177, 384, 304
-0.98317, 337, 225, 400, 288
-0.983203, 305, 201, 432, 264
-0.983229, 445, 257, 476, 320
-0.983245, 129, 177, 192, 304
-0.98339, 401, 145, 432, 208
-0.983406, 309, 33, 340, 160
-0.983409, 409, 129, 440, 256
-0.983442, 89, 9, 120, 72
-0.983504, 37, 33, 68, 96
-0.983531, 305, 9, 432, 72
-0.983556, 33, 1, 96, 333
-0.983718, 389, 9, 420, 72
-0.983857, 413, 209, 444, 272
-0.98394, 289, 161, 352, 288
-0.983954, 457, 241, 488, 304
-0.984008, 249, 241, 312, 304
-0.984013, 145, 65, 208, 320
-0.984088, 385, 33, 416, 160
-0.984114, 133, 33, 164, 160
-0.984119, 73, 145, 136, 208
-0.984144, 361, 81, 392, 208
-0.98415, 209, 73, 336, 136
-0.984202, 313, 129, 376, 192
-0.984258, 17, 49, 80, 112
-0.984259, 401, 241, 432, 304
-0.984352, 209, 97, 336, 160
-0.984459, 281, 17, 344, 80
-0.984467, 289, 225, 416, 288
-0.984467, 305, 9, 368, 72
-0.984512, 49, 105, 112, 168
-0.984512, 145, 49, 208, 176
-0.984528, 305, 1, 368, 333
-0.984605, 321, 1, 352, 128
-0.984644, 361, 185, 424, 248
-0.984761, 441, 17, 472, 80
-0.984785, 361, 233, 424, 296
-0.984799, 289, 209, 352, 333
-0.984809, 437, 49, 468, 112
-0.984945, 241, 49, 368, 112
-0.98495, 257, 65, 320, 320
-0.98501, 97, 81, 128, 208
-0.985097, 121, 1, 152, 128
-0.985099, 125, 81, 156, 144
-0.985138, 385, 273, 416, 333
-0.985212, 57, 129, 120, 256
-0.985217, 161, 49, 288, 176
-0.985315, 241, 121, 368, 184
-0.985411, 17, 121, 144, 184
-0.985517, 461, 193, 492, 256
-0.985713, 201, 129, 264, 256
-0.985818, 401, 209, 432, 333
-0.985847, 313, 177, 376, 240
-0.986003, 449, 81, 480, 208
-0.986111, 81, 113, 208, 176
-0.986148, 321, 49, 352, 176
-0.986171, 57, 177, 120, 304
-0.986222, 333, 33, 364, 96
-0.98629, 425, 1, 456, 64
-0.986372, 41, 73, 104, 136
-0.986404, 41, 185, 104, 248
-0.986407, 145, 97, 208, 160
-0.986427, 241, 209, 304, 333
-0.986454, 337, 17, 368, 144
-0.986551, 297, 25, 328, 88
-0.98657, 433, 161, 464, 224
-0.986608, 121, 105, 184, 168
-0.986657, 405, 25, 436, 88
-0.986685, 105, 169, 168, 232
-0.986728, 317, 57, 348, 120
-0.986745, 297, 17, 328, 144
-0.986795, 113, 1, 176, 333
-0.986823, 113, 105, 144, 168
-0.986826, 113, 1, 240, 64
-0.986882, 433, 185, 464, 248
-0.98693, 381, 145, 412, 272
-0.986937, 133, 57, 164, 120
-0.98701, 25, 145, 88, 272
-0.987154, 317, 25, 348, 88
-0.987214, 369, 81, 400, 144
-0.987226, 297, 65, 328, 192
-0.987257, 289, 129, 352, 192
-0.987294, 257, 193, 320, 256
-0.987329, 133, 25, 164, 88
-0.98742, 465, 169, 496, 232
-0.987482, 241, 217, 304, 280
-0.987484, 413, 145, 444, 208
-0.987556, 49, 209, 176, 333
-0.987589, 129, 89, 256, 152
-0.987613, 301, 65, 332, 128
-0.987709, 5, 1, 36, 64
-0.98773, 341, 65, 372, 192
-0.987755, 101, 17, 132, 80
-0.987898, 361, 105, 392, 168
-0.987937, 129, 81, 160, 208
-0.988023, 73, 57, 104, 120
-0.988088, 289, 169, 416, 232
-0.988138, 193, 81, 256, 144
-0.988215, 405, 49, 436, 112
-0.988276, 33, 145, 160, 208
-0.988321, 265, 73, 328, 136
-0.988357, 329, 273, 392, 333
-0.988376, 73, 25, 136, 56
-0.988381, 373, 249, 404, 312
-0.988436, 129, 113, 256, 176
-0.988453, 1, 1, 64, 333
-0.988487, 169, 65, 232, 320
-0.988518, 85, 81, 116, 144
-0.988533, 281, 1, 344, 333
-0.988547, 377, 153, 408, 216
-0.988564, 337, 201, 400, 264
-0.988567, 41, 33, 104, 64
-0.988599, 417, 237, 480, 268
-0.988629, 81, 45, 144, 76
-0.988646, 429, 73, 460, 136
-0.988711, 325, 97, 356, 224
-0.988733, 349, 129, 380, 192
-0.988734, 417, 153, 480, 184
-0.988771, 25, 33, 56, 96
-0.988784, 369, 209, 400, 333
-0.988797, 265, 145, 328, 272
-0.988829, 257, 145, 384, 208
-0.988947, 177, 49, 240, 176
-0.988994, 417, 225, 480, 256
-0.989042, 401, 209, 432, 272
-0.989112, 369, 129, 400, 256
-0.989125, 377, 301, 440, 332
-0.989128, 121, 161, 152, 288
-0.989152, 297, 153, 360, 216
-0.989164, 73, 113, 136, 176
-0.989178, 81, 89, 144, 120
-0.989197, 273, 249, 400, 312
-0.989229, 393, 121, 456, 152
-0.989248, 1, 17, 64, 48
-0.989281, 25, 1, 88, 32
-0.989295, 177, 193, 240, 256
-0.989307, 49, 169, 176, 232
-0.989309, 89, 57, 152, 88
-0.989385, 401, 9, 464, 40
-0.989401, 345, 57, 376, 120
-0.989461, 353, 25, 384, 88
-0.989487, 389, 65, 420, 128
-0.989506, 345, 129, 376, 256
-0.98951, 313, 201, 376, 264
-0.989531, 121, 57, 152, 120
-0.989576, 369, 25, 400, 88
-0.989581, 385, 69, 448, 100
-0.989589, 385, 41, 448, 72
-0.989613, 25, 13, 88, 44
-0.989693, 1, 1, 64, 32
-0.989709, 469, 113, 500, 240
-0.989831, 401, 269, 464, 300
-0.989871, 361, 117, 424, 148
-0.989886, 273, 273, 400, 333
-0.989913, 265, 97, 328, 160
-0.989918, 421, 25, 452, 88
-0.989936, 105, 33, 168, 64
-0.989948, 393, 29, 456, 60
-0.989991, 113, 33, 240, 96
-0.989991, 57, 53, 120, 84
-0.989994, 225, 249, 352, 312
-0.990029, 89, 69, 152, 100
-0.990043, 369, 105, 432, 136
-0.990051, 329, 121, 360, 184
-0.990072, 105, 21, 168, 52
-0.990088, 21, 49, 52, 176
-0.990097, 361, 285, 424, 316
-0.990109, 225, 25, 352, 88
-0.990111, 193, 193, 320, 256
-0.990148, 353, 45, 416, 76
-0.990196, 49, 21, 112, 52
-0.990202, 401, 137, 464, 168
-0.99021, 233, 177, 296, 240
-0.990245, 377, 233, 440, 264
-0.990288, 1, 97, 64, 224
-0.990311, 329, 249, 392, 312
-0.990344, 201, 65, 264, 192
-0.99035, 101, 145, 132, 272
-0.990376, 453, 137, 484, 200
-0.990407, 385, 57, 448, 88
-0.990407, 65, 77, 128, 108
-0.99041, 257, 25, 500, 88
-0.990464, 17, 29, 80, 60
-0.990493, 329, 105, 392, 136
-0.990506, 17, 89, 80, 152
-0.990514, 105, 93, 168, 124
-0.990533, 105, 45, 168, 76
-0.990542, 425, 165, 488, 196
-0.990542, 273, 217, 304, 280
-0.990545, 149, 49, 180, 176
-0.990546, 313, 57, 376, 88
-0.990552, 369, 153, 432, 184
-0.990613, 425, 261, 488, 292
-0.990618, 121, 77, 184, 108
-0.990627, 193, 113, 256, 176
-0.990659, 377, 273, 440, 304
-0.990713, 201, 153, 264, 216
-0.990719, 65, 65, 128, 96
-0.990799, 425, 177, 488, 208
-0.990821, 257, 233, 500, 296
-0.990852, 321, 125, 384, 156
-0.990899, 361, 137, 424, 168
-0.990903, 425, 61, 488, 92
-0.990923, 249, 1, 312, 333
-0.990933, 313, 41, 376, 72
-0.990939, 425, 213, 488, 244
-0.990954, 409, 85, 472, 116
-0.990969, 369, 221, 432, 252
-0.990972, 269, 177, 300, 304
-0.990982, 257, 201, 384, 264
-0.99099, 389, 217, 420, 280
-0.990997, 377, 261, 440, 292
-0.990999, 361, 85, 424, 116
-0.991035, 385, 245, 448, 276
-0.991038, 369, 25, 432, 56
-0.991069, 257, 129, 500, 192
-0.991087, 345, 33, 408, 64
-0.991103, 89, 9, 152, 40
-0.991111, 361, 57, 424, 88
-0.991118, 225, 49, 288, 176
-0.991135, 385, 85, 448, 116
-0.991146, 49, 1, 112, 32
-0.991198, 273, 45, 336, 76
-0.991235, 377, 165, 440, 196
-0.991243, 353, 273, 416, 304
-0.991269, 289, 61, 352, 92
-0.991272, 337, 149, 400, 180
-0.991297, 273, 241, 304, 304
-0.991315, 121, 9, 184, 40
-0.991315, 177, 169, 304, 232
-0.991321, 393, 149, 456, 180
-0.991336, 257, 57, 500, 120
-0.991387, 337, 57, 400, 88
-0.991394, 377, 209, 440, 240
-0.991409, 177, 233, 304, 296
-0.991446, 425, 141, 488, 172
-0.991446, 225, 225, 352, 288
-0.991451, 97, 105, 160, 136
-0.991459, 97, 193, 224, 256
-0.991465, 425, 49, 488, 80
-0.991467, 273, 161, 336, 224
-0.991467, 193, 49, 320, 112
-0.991475, 285, 41, 316, 104
-0.991482, 289, 109, 352, 140
-0.991493, 385, 289, 448, 320
-0.991525, 33, 45, 96, 76
-0.991529, 393, 221, 456, 252
-0.991538, 373, 273, 404, 333
-0.991555, 433, 201, 496, 232
-0.991601, 385, 249, 416, 312
-0.991604, 9, 41, 72, 72
-0.991605, 329, 9, 360, 72
-0.991628, 97, 113, 128, 176
-0.991631, 425, 5, 488, 36
-0.991653, 425, 189, 488, 220
-0.99166, 57, 89, 120, 120
-0.991666, 409, 73, 472, 104
-0.991685, 1, 17, 500, 80
-0.991686, 357, 57, 388, 120
-0.991694, 437, 113, 468, 176
-0.9917, 97, 161, 224, 224
-0.991704, 361, 9, 424, 40
-0.991711, 273, 213, 336, 244
-0.991777, 257, 1, 500, 64
-0.991779, 129, 65, 256, 128
-0.991784, 257, 177, 288, 304
-0.99179, 329, 93, 392, 124
-0.991816, 301, 113, 332, 240
-0.991816, 129, 93, 192, 124
-0.991817, 257, 1, 384, 64
-0.991819, 181, 97, 212, 160
-0.991823, 153, 161, 216, 224
-0.991824, 73, 101, 136, 132
-0.991828, 145, 1, 208, 128
-0.991845, 401, 209, 464, 240
-0.991882, 433, 249, 496, 280
-0.99189, 329, 137, 392, 168
-0.991906, 121, 57, 184, 88
-0.99191, 337, 69, 400, 100
-0.991911, 161, 145, 288, 208
-0.991913, 289, 93, 352, 124
-0.991938, 25, 121, 88, 184
-0.991966, 345, 161, 408, 192
-0.991977, 217, 209, 280, 333
-0.991984, 433, 265, 496, 328
-0.992023, 401, 165, 464, 196
-0.992027, 129, 201, 192, 264
-0.992053, 357, 145, 388, 272
-0.992074, 77, 25, 108, 56
-0.992084, 393, 97, 456, 128
-0.99209, 361, 153, 392, 216
-0.992095, 65, 169, 128, 232
-0.992097, 433, 117, 496, 148
-0.992097, 1, 129, 500, 192
-0.992099, 413, 229, 444, 260
-0.992114, 353, 201, 416, 232
-0.992114, 29, 1, 60, 32
-0.99212, 25, 153, 88, 216
-0.992123, 393, 109, 456, 140
-0.992132, 289, 73, 352, 104
-0.992134, 313, 29, 376, 60
-0.992151, 169, 109, 232, 140
-0.992153, 345, 301, 408, 332
-0.992162, 349, 1, 380, 128
-0.992174, 241, 221, 304, 252
-0.992181, 433, 21, 496, 52
-0.992195, 65, 137, 128, 168
-0.992198, 273, 225, 336, 256
-0.992203, 97, 117, 160, 148
-0.992209, 393, 197, 456, 228
-0.992233, 425, 221, 456, 252
-0.992236, 333, 153, 364, 216
-0.992236, 89, 37, 120, 68
-0.992248, 241, 169, 368, 232
-0.992258, 313, 153, 376, 184
-0.992266, 49, 209, 112, 272
-0.992273, 121, 105, 184, 136
-0.992273, 345, 249, 408, 280
-0.992287, 1, 129, 64, 192
-0.992288, 285, 1, 316, 128
-0.992291, 145, 1, 208, 64
-0.992295, 329, 81, 392, 112
-0.992296, 113, 85, 144, 116
-0.992365, 425, 129, 488, 160
-0.992373, 185, 81, 216, 208
-0.99238, 33, 17, 64, 48
-0.992388, 361, 73, 424, 104
-0.99241, 433, 33, 496, 64
-0.992417, 409, 273, 440, 304
-0.992418, 345, 21, 408, 52
-0.992429, 49, 29, 80, 60
-0.992434, 445, 237, 476, 268
-0.992437, 381, 45, 412, 76
-0.992474, 401, 181, 464, 212
-0.992476, 417, 121, 448, 152
-0.992487, 353, 261, 416, 292
-0.99249, 113, 21, 144, 52
-0.992499, 145, 105, 208, 136
-0.992502, 45, 9, 76, 40
-0.992505, 61, 33, 92, 64
-0.992508, 453, 181, 484, 212
-0.992514, 289, 33, 352, 64
-0.992523, 297, 121, 360, 152
-0.992541, 57, 125, 120, 156
-0.992543, 417, 301, 480, 332
-0.992549, 337, 237, 400, 268
-0.992549, 313, 113, 344, 240
-0.992561, 409, 297, 440, 328
-0.992562, 353, 237, 480, 268
-0.992567, 461, 217, 492, 280
-0.992568, 89, 53, 120, 84
-0.99257, 129, 29, 192, 60
-0.992574, 41, 65, 104, 96
-0.992576, 257, 1, 320, 128
-0.992578, 113, 33, 144, 64
-0.992584, 257, 261, 320, 292
-0.992604, 193, 89, 256, 120
-0.992641, 121, 117, 184, 148
-0.992644, 137, 1, 200, 333
-0.992652, 393, 285, 424, 316
-0.992655, 441, 137, 472, 168
-0.992655, 281, 241, 344, 304
-0.99268, 69, 45, 100, 76
-0.992681, 109, 49, 140, 80
-0.99269, 453, 193, 484, 224
-0.992696, 445, 257, 476, 288
-0.992698, 397, 149, 428, 180
-0.992701, 129, 177, 192, 240
-0.992703, 449, 205, 480, 236
-0.992716, 169, 161, 232, 288
-0.992727, 81, 105, 112, 168
-0.992746, 97, 77, 128, 108
-0.992747, 33, 97, 96, 224
-0.992748, 449, 149, 480, 180
-0.992753, 389, 29, 420, 60
-0.992753, 317, 113, 348, 176
-0.992763, 113, 97, 144, 128
-0.992766, 377, 117, 408, 148
-0.992775, 425, 265, 456, 296
-0.992779, 21, 21, 52, 52
-0.992788, 257, 193, 500, 256
-0.99279, 37, 33, 68, 64
-0.992794, 469, 145, 500, 208
-0.992797, 425, 241, 456, 272
-0.9928, 93, 13, 124, 44
-0.992803, 421, 65, 452, 96
-0.992803, 429, 133, 460, 164
-0.992803, 149, 81, 180, 144
-0.992804, 417, 85, 448, 116
-0.992816, 97, 209, 160, 272
-0.992823, 453, 161, 484, 192
-0.992827, 317, 57, 348, 88
-0.992832, 133, 17, 164, 48
-0.992833, 409, 9, 440, 40
-0.992841, 225, 273, 352, 333
-0.992848, 389, 109, 420, 140
-0.992858, 301, 45, 332, 76
-0.992865, 101, 25, 132, 56
-0.992883, 257, 153, 500, 216
-0.992886, 57, 1, 88, 32
-0.992888, 85, 69, 116, 100
-0.992889, 385, 273, 416, 304
-0.99289, 241, 265, 304, 328
-0.992896, 449, 225, 480, 256
-0.992904, 9, 1, 40, 32
-0.992907, 393, 41, 424, 72
-0.992907, 365, 129, 396, 160
-0.992909, 373, 33, 404, 64
-0.992919, 173, 97, 204, 224
-0.992921, 413, 241, 444, 272
-0.992924, 281, 193, 344, 256
-0.992932, 113, 61, 144, 92
-0.992941, 417, 145, 448, 176
-0.992941, 101, 65, 132, 96
-0.992944, 437, 217, 468, 248
-0.992947, 113, 73, 144, 104
-0.992952, 265, 121, 328, 184
-0.992952, 405, 117, 436, 148
-0.992956, 365, 65, 396, 96
-0.992974, 133, 29, 164, 60
-0.992995, 133, 1, 164, 32
-0.992996, 325, 45, 356, 76
-0.992998, 305, 249, 368, 312
-0.993005, 457, 249, 488, 280
-0.993006, 129, 89, 160, 120
-0.993007, 433, 65, 464, 96
-0.993018, 89, 89, 120, 120
-0.99302, 97, 145, 160, 208
-0.99302, 217, 233, 280, 296
-0.99302, 433, 205, 464, 236
-0.993026, 217, 57, 280, 120
-0.993026, 133, 77, 164, 108
-0.993033, 409, 33, 440, 64
-0.993033, 313, 41, 344, 72
-0.993033, 429, 53, 460, 84
-0.99304, 133, 41, 164, 72
-0.993042, 273, 221, 304, 252
-0.993046, 457, 5, 488, 36
-0.993056, 401, 233, 432, 264
-0.993059, 433, 77, 464, 108
-0.993068, 289, 209, 320, 240
-0.993073, 129, 101, 160, 132
-0.993074, 353, 125, 384, 156
-0.993086, 73, 57, 104, 88
-0.993088, 9, 13, 40, 44
-0.99309, 377, 57, 408, 88
-0.99311, 269, 193, 300, 256
-0.993115, 445, 5, 476, 36
-0.993116, 409, 157, 440, 188
-0.993117, 1, 9, 256, 72
-0.993121, 441, 45, 472, 76
-0.993122, 401, 105, 432, 136
-0.993124, 401, 53, 432, 84
-0.993125, 409, 69, 440, 100
-0.993125, 409, 21, 440, 52
-0.993137, 433, 1, 464, 32
-0.993138, 101, 89, 132, 120
-0.993138, 25, 37, 56, 68
-0.993141, 389, 57, 420, 88
-0.993147, 61, 21, 92, 52
-0.993152, 373, 77, 404, 108
-0.993155, 469, 9, 500, 40
-0.993164, 469, 169, 500, 200
-0.993168, 381, 157, 412, 188
-0.993173, 257, 105, 500, 168
-0.993178, 133, 53, 164, 84
-0.993179, 421, 37, 452, 68
-0.993183, 401, 137, 432, 168
-0.993186, 389, 17, 420, 48
-0.993196, 353, 141, 384, 172
-0.993198, 429, 13, 460, 44
-0.993205, 149, 113, 180, 240
-0.993208, 365, 117, 396, 148
-0.993212, 447, 225, 462, 288
-0.993213, 389, 133, 420, 164
-0.993218, 357, 53, 388, 84
-0.993221, 89, 25, 120, 56
-0.993221, 433, 253, 464, 284
-0.993227, 389, 89, 420, 120
-0.993228, 393, 261, 424, 292
-0.993229, 87, 17, 102, 80
-0.993233, 409, 209, 440, 240
-0.993236, 305, 61, 336, 92
-0.993238, 341, 57, 372, 88
-0.993249, 73, 13, 104, 44
-0.993258, 117, 9, 148, 40
-0.993258, 405, 89, 436, 120
-0.993261, 317, 29, 348, 60
-0.993263, 461, 205, 492, 236
-0.993266, 365, 141, 396, 172
-0.993268, 429, 225, 444, 288
-0.993271, 441, 177, 472, 208
-0.993276, 369, 153, 400, 184
-0.993278, 377, 97, 408, 128
-0.993278, 397, 273, 428, 304
-0.99328, 413, 261, 444, 292
-0.993283, 389, 121, 420, 152
-0.993284, 97, 145, 128, 208
-0.993305, 33, 41, 288, 104
-0.993326, 225, 153, 288, 216
-0.993345, 1, 41, 500, 104
-0.993351, 201, 89, 232, 152
-0.993414, 413, 177, 444, 240
-0.993452, 253, 217, 284, 280
-0.993471, 201, 65, 264, 320
-0.993505, 17, 185, 80, 248
-0.993512, 137, 81, 168, 144
-0.993538, 133, 161, 164, 288
-0.993563, 357, 209, 388, 333
-0.99357, 415, 273, 430, 333
-0.993595, 337, 177, 400, 240
-0.993599, 1, 33, 128, 64
-0.993599, 257, 81, 500, 144
-0.993605, 333, 145, 364, 272
-0.993605, 453, 233, 468, 296
-0.993643, 423, 225, 438, 288
-0.993675, 1, 65, 256, 128
-0.993746, 361, 217, 392, 280
-0.993761, 435, 241, 450, 304
-0.993767, 1, 73, 500, 136
-0.993786, 49, 25, 176, 56
-0.99379, 129, 217, 256, 280
-0.993813, 153, 73, 216, 136
-0.99382, 439, 217, 454, 280
-0.993835, 377, 201, 408, 264
-0.99385, 73, 65, 104, 192
-0.993861, 1, 13, 128, 44
-0.993879, 465, 169, 480, 232
-0.993891, 85, 145, 116, 272
-0.993954, 97, 137, 224, 200
-0.993976, 17, 217, 144, 280
-0.993995, 353, 25, 480, 56
-0.994015, 5, 1, 36, 128
-0.994021, 145, 177, 176, 304
-0.994036, 1, 97, 500, 160
-0.994037, 49, 193, 176, 256
-0.994045, 225, 1, 288, 333
-0.994057, 345, 153, 376, 216
-0.994075, 193, 265, 448, 328
-0.994083, 425, 265, 440, 328
-0.994095, 47, 1, 62, 64
-0.9941, 369, 145, 496, 176
-0.994108, 301, 1, 332, 64
-0.994117, 1, 25, 32, 88
-0.994118, 289, 273, 352, 333
-0.994125, 341, 105, 372, 168
-0.994161, 41, 9, 56, 72
-0.994183, 1, 185, 128, 248
-0.994185, 177, 1, 240, 333
-0.994226, 417, 113, 432, 176
-0.994262, 95, 33, 110, 96
-0.994269, 421, 81, 436, 144
-0.994271, 33, 1, 160, 32
-0.994302, 353, 125, 480, 156
-0.994313, 459, 233, 474, 296
-0.994338, 457, 145, 472, 208
-0.994361, 97, 65, 352, 128
-0.99441, 89, 209, 152, 333
-0.994413, 353, 41, 480, 72
-0.994441, 289, 209, 320, 333
-0.994451, 65, 45, 192, 76
-0.994481, 221, 65, 252, 192
-0.994486, 417, 233, 432, 296
-0.994491, 453, 193, 468, 256
-0.9945, 193, 121, 320, 184
-0.994504, 369, 161, 496, 192
-0.994513, 429, 121, 444, 184
-0.994541, 63, 1, 78, 64
-0.994562, 29, 17, 44, 80
-0.99461, 145, 257, 272, 320
-0.99462, 459, 209, 474, 272
-0.994627, 121, 169, 152, 232
-0.994633, 169, 105, 200, 168
-0.994633, 129, 129, 192, 192
-0.994639, 65, 129, 96, 256
-0.994658, 129, 105, 160, 168
-0.994664, 125, 81, 140, 144
-0.994669, 17, 45, 144, 76
-0.99467, 1, 153, 500, 216
-0.994679, 337, 301, 464, 332
-0.994685, 427, 81, 442, 144
-0.994689, 57, 1, 72, 64
-0.994705, 57, 177, 88, 240
-0.994716, 257, 17, 320, 80
-0.994733, 321, 105, 448, 136
-0.994765, 245, 161, 276, 288
-0.99478, 369, 225, 496, 256
-0.994803, 441, 241, 456, 304
-0.994805, 447, 201, 462, 264
-0.994811, 409, 273, 424, 333
-0.994819, 87, 49, 102, 112
-0.994825, 407, 121, 422, 184
-0.994842, 97, 1, 352, 64
-0.994854, 285, 209, 316, 272
-0.994869, 73, 193, 136, 256
-0.994876, 285, 49, 316, 176
-0.994908, 289, 41, 416, 72
-0.994935, 119, 81, 134, 144
-0.994952, 49, 137, 112, 200
-0.994954, 321, 153, 352, 216
-0.994971, 435, 121, 450, 184
-0.994976, 65, 57, 192, 88
-0.994994, 97, 249, 224, 312
-0.994996, 369, 85, 496, 116
-0.99501, 397, 169, 428, 232
-0.995042, 321, 93, 448, 124
-0.995063, 33, 193, 96, 320
-0.995068, 209, 145, 336, 208
-0.99507, 69, 177, 100, 304
-0.995075, 65, 121, 320, 184
-0.995132, 81, 17, 96, 80
-0.995139, 69, 185, 100, 248
-0.995152, 33, 49, 64, 176
-0.995169, 65, 89, 320, 152
-0.995172, 193, 273, 256, 333
-0.995175, 161, 97, 192, 224
-0.995184, 289, 73, 320, 136
-0.995193, 423, 113, 438, 176
-0.995198, 161, 209, 224, 333
-0.995207, 391, 33, 406, 96
-0.995212, 103, 41, 118, 104
-0.995229, 321, 73, 448, 104
-0.995237, 313, 1, 344, 64
-0.99526, 233, 33, 296, 288
-0.995333, 145, 25, 208, 88
-0.995336, 457, 1, 472, 64
-0.995376, 103, 65, 118, 128
-0.995391, 369, 249, 496, 280
-0.995398, 337, 289, 464, 320
-0.995423, 447, 137, 462, 200
-0.995423, 415, 81, 430, 144
-0.995426, 369, 269, 496, 300
-0.995455, 305, 53, 432, 84
-0.995466, 35, 17, 50, 80
-0.995478, 33, 69, 160, 100
-0.99548, 161, 177, 416, 240
-0.995507, 49, 93, 176, 124
-0.99551, 353, 213, 480, 244
-0.995521, 161, 241, 416, 304
-0.995536, 353, 53, 480, 84
-0.995543, 81, 41, 96, 104
-0.995563, 353, 5, 480, 36
-0.995585, 461, 49, 492, 176
-0.995593, 109, 41, 124, 104
-0.995614, 369, 173, 496, 204
-0.995628, 205, 65, 236, 192
-0.995629, 467, 193, 482, 256
-0.995639, 383, 25, 398, 88
-0.995659, 305, 261, 432, 292
-0.995666, 411, 145, 426, 208
-0.995689, 61, 25, 76, 88
-0.995732, 241, 97, 304, 224
-0.995739, 433, 201, 448, 264
-0.995741, 337, 201, 464, 232
-0.995742, 97, 65, 112, 128
-0.995746, 65, 145, 320, 208
-0.995752, 369, 189, 496, 220
-0.995765, 465, 241, 480, 304
-0.995769, 49, 49, 80, 176
-0.995773, 1, 193, 500, 256
-0.995782, 463, 1, 478, 64
-0.99579, 431, 265, 446, 328
-0.995793, 321, 149, 448, 180
-0.995813, 161, 1, 288, 128
-0.995828, 367, 129, 382, 192
-0.995855, 411, 1, 426, 64
-0.99586, 321, 277, 448, 308
-0.99586, 485, 1, 500, 64
-0.995865, 81, 225, 208, 288
-0.995883, 305, 117, 432, 148
-0.9959, 113, 17, 128, 80
-0.99595, 477, 1, 492, 64
-0.995972, 441, 129, 456, 192
-0.995972, 161, 129, 416, 192
-0.995974, 425, 201, 440, 264
-0.995975, 131, 89, 146, 152
-0.995977, 469, 1, 484, 64
-0.995991, 401, 121, 416, 184
-0.995999, 97, 97, 224, 128
-0.996019, 241, 65, 304, 128
-0.99603, 209, 1, 336, 64
-0.996045, 53, 161, 84, 288
-0.996053, 381, 1, 412, 256
-0.996055, 423, 57, 438, 120
-0.996057, 321, 161, 448, 192
-0.996091, 33, 81, 160, 112
-0.996099, 145, 193, 272, 256
-0.996104, 451, 1, 466, 64
-0.996106, 397, 41, 412, 104
-0.996111, 55, 25, 70, 88
-0.996123, 447, 257, 462, 320
-0.996141, 69, 1, 84, 64
-0.996156, 213, 113, 244, 240
-0.996158, 17, 57, 144, 88
-0.996178, 75, 33, 90, 96
-0.996182, 161, 153, 416, 216
-0.9962, 273, 105, 400, 136
-0.9962, 41, 33, 56, 96
-0.996219, 417, 137, 432, 200
-0.996237, 369, 97, 496, 128
-0.996241, 405, 145, 420, 208
-0.99625, 385, 113, 400, 176
-0.99627, 455, 257, 470, 320
-0.996285, 417, 209, 432, 272
-0.996296, 421, 65, 452, 320
-0.996297, 439, 265, 454, 328
-0.996302, 113, 85, 240, 116
-0.996307, 265, 265, 328, 328
-0.996316, 127, 9, 142, 72
-0.996318, 409, 97, 424, 160
-0.996324, 305, 29, 432, 60
-0.996342, 109, 65, 124, 128
-0.99636, 1, 1, 16, 64
-0.996363, 305, 13, 432, 44
-0.996383, 23, 1, 38, 64
-0.996387, 403, 49, 418, 112
-0.996407, 305, 129, 432, 160
-0.996411, 169, 217, 232, 280
-0.996418, 441, 41, 456, 104
-0.996418, 137, 225, 200, 288
-0.996434, 411, 249, 426, 312
-0.996448, 321, 225, 448, 256
-0.99645, 305, 1, 432, 32
-0.99645, 273, 93, 400, 124
-0.996451, 89, 1, 120, 256
-0.996458, 249, 145, 312, 208
-0.996459, 393, 1, 424, 256
-0.996469, 201, 1, 264, 333
-0.99647, 301, 193, 332, 320
-0.996473, 429, 49, 444, 112
-0.996475, 49, 13, 176, 44
-0.996484, 373, 129, 388, 192
-0.996485, 393, 129, 408, 192
-0.996487, 319, 25, 334, 88
-0.996503, 1, 249, 500, 312
-0.996508, 403, 17, 418, 80
-0.996509, 309, 41, 324, 104
-0.996541, 225, 53, 352, 84
-0.996544, 373, 105, 388, 168
-0.996553, 463, 145, 478, 208
-0.99657, 67, 25, 82, 88
-0.99657, 161, 89, 416, 152
-0.996574, 403, 273, 418, 333
-0.996577, 273, 81, 400, 112
-0.99659, 391, 89, 406, 152
-0.996592, 129, 33, 384, 96
-0.996615, 435, 49, 450, 112
-0.996717, 433, 33, 464, 288
-0.996721, 113, 89, 128, 152
-0.996726, 445, 1, 460, 64
-0.996727, 373, 57, 388, 120
-0.996731, 273, 217, 400, 248
-0.996739, 49, 25, 64, 88
-0.996746, 81, 121, 208, 152
-0.996755, 125, 57, 140, 120
-0.996764, 161, 217, 416, 280
-0.996785, 317, 49, 332, 112
-0.99679, 439, 193, 454, 256
-0.996799, 1, 217, 500, 280
-0.996819, 273, 65, 400, 96
-0.996826, 447, 161, 462, 224
-0.996829, 113, 9, 240, 40
-0.996833, 149, 1, 180, 128
-0.996833, 433, 81, 448, 144
-0.996841, 379, 129, 394, 192
-0.996845, 105, 1, 136, 256
-0.996847, 403, 89, 418, 152
-0.996858, 281, 217, 296, 280
-0.996861, 361, 121, 376, 184
-0.996872, 289, 205, 416, 236
-0.996874, 225, 129, 256, 256
-0.996881, 75, 9, 90, 72
-0.996884, 289, 113, 320, 240
-0.996888, 369, 65, 496, 96
-0.996888, 449, 65, 480, 320
-0.996895, 419, 229, 434, 260
-0.996898, 115, 41, 130, 104
-0.996899, 381, 73, 396, 136
-0.996907, 61, 1, 92, 256
-0.996907, 103, 17, 118, 80
-0.996912, 391, 57, 406, 120
-0.996947, 447, 25, 462, 88
-0.996949, 399, 145, 414, 208
-0.996954, 1, 105, 128, 136
-0.996955, 119, 17, 134, 80
-0.996959, 459, 177, 474, 240
-0.99696, 435, 9, 450, 72
-0.996974, 453, 169, 468, 232
-0.996982, 427, 225, 442, 256
-0.996994, 97, 21, 224, 52
-0.996997, 49, 105, 176, 136
-0.997001, 347, 25, 362, 88
-0.997018, 209, 77, 336, 108
-0.997025, 7, 1, 22, 64
-0.997045, 17, 125, 144, 156
-0.997045, 317, 161, 348, 288
-0.997079, 289, 249, 416, 280
-0.997088, 409, 25, 424, 88
-0.997098, 409, 277, 424, 308
-0.997119, 383, 49, 398, 112
-0.997127, 465, 217, 480, 280
-0.997128, 397, 273, 412, 333
-0.997151, 61, 49, 92, 176
-0.997156, 339, 25, 354, 88
-0.997159, 85, 21, 100, 52
-0.99716, 335, 113, 350, 176
-0.997165, 393, 153, 408, 216
-0.997238, 1, 177, 256, 240
-0.997258, 409, 65, 440, 320
-0.997264, 433, 221, 448, 252
-0.997282, 273, 17, 304, 144
-0.997289, 447, 137, 462, 168
-0.997304, 423, 301, 438, 332
-0.997312, 321, 173, 448, 204
-0.997314, 193, 89, 320, 120
-0.997329, 117, 1, 148, 256
-0.997359, 81, 69, 208, 100
-0.997382, 17, 137, 144, 168
-0.997383, 25, 1, 56, 256
-0.997389, 49, 1, 64, 32
-0.99739, 431, 121, 446, 152
-0.997394, 289, 301, 416, 332
-0.997425, 97, 33, 224, 64
-0.997426, 209, 121, 336, 152
-0.99744, 391, 41, 406, 72
-0.997447, 245, 209, 276, 333
-0.997456, 233, 1, 296, 128
-0.99749, 129, 113, 256, 144
-0.997496, 443, 217, 458, 248
-0.997498, 157, 193, 188, 320
-0.997509, 461, 237, 476, 268
-0.997512, 465, 177, 480, 208
-0.997514, 209, 109, 336, 140
-0.997522, 37, 21, 52, 52
-0.997547, 241, 165, 368, 196
-0.997552, 125, 81, 140, 112
-0.997557, 49, 177, 176, 208
-0.997582, 415, 273, 430, 304
-0.997594, 305, 237, 432, 268
-0.9976, 345, 209, 376, 333
-0.99761, 73, 1, 104, 256
-0.997614, 113, 57, 240, 88
-0.997615, 413, 233, 428, 264
-0.997616, 257, 117, 384, 148
-0.997627, 397, 45, 412, 76
-0.997661, 45, 13, 60, 44
-0.997669, 369, 113, 496, 144
-0.997669, 41, 1, 72, 256
-0.99768, 65, 201, 320, 264
-0.997684, 417, 145, 432, 176
-0.997685, 43, 1, 58, 32
-0.99769, 385, 37, 400, 68
-0.997692, 403, 281, 418, 312
-0.997713, 75, 33, 90, 64
-0.99773, 333, 1, 364, 256
-0.997735, 89, 53, 104, 84
-0.997737, 1, 93, 128, 124
-0.997738, 439, 133, 454, 164
-0.997739, 81, 45, 96, 76
-0.997745, 133, 1, 164, 256
-0.997779, 455, 145, 470, 176
-0.997802, 461, 157, 476, 188
-0.997817, 225, 65, 352, 96
-0.997817, 117, 89, 132, 120
-0.997822, 451, 201, 466, 232
-0.997822, 37, 1, 52, 32
-0.997827, 317, 49, 332, 80
-0.99783, 225, 133, 352, 164
-0.997835, 289, 289, 416, 320
-0.997843, 423, 121, 438, 152
-0.997865, 91, 33, 106, 64
-0.997865, 257, 149, 384, 180
-0.997866, 45, 33, 60, 64
-0.997873, 461, 253, 476, 284
-0.997886, 357, 65, 388, 320
-0.997889, 323, 53, 338, 84
-0.997898, 129, 17, 144, 48
-0.99791, 225, 269, 352, 300
-0.997922, 127, 29, 142, 60
-0.997925, 113, 45, 240, 76
-0.997938, 429, 241, 444, 272
-0.997963, 57, 29, 72, 60
-0.997969, 289, 193, 416, 224
-0.997974, 103, 41, 118, 72
-0.998012, 369, 65, 400, 320
-0.998012, 453, 225, 468, 256
-0.998014, 257, 29, 384, 60
-0.998014, 115, 21, 130, 52
-0.998016, 29, 21, 44, 52
-0.998017, 413, 293, 428, 324
-0.99802, 225, 41, 352, 72
-0.998021, 55, 13, 70, 44
-0.998041, 51, 29, 66, 60
-0.998042, 281, 161, 312, 288
-0.998044, 193, 193, 256, 320
-0.998047, 455, 257, 470, 288
-0.99805, 33, 153, 160, 184
-0.998051, 423, 141, 438, 172
-0.998059, 417, 121, 432, 152
-0.998069, 63, 29, 78, 60
-0.99807, 37, 41, 52, 72
-0.998087, 421, 85, 436, 116
-0.998092, 423, 241, 438, 272
-0.998102, 431, 265, 446, 296
-0.998103, 257, 237, 384, 268
-0.998106, 309, 1, 340, 256
-0.998109, 411, 1, 426, 32
-0.998109, 129, 97, 144, 128
-0.998114, 461, 205, 476, 236
-0.998127, 367, 125, 382, 156
-0.998127, 177, 249, 304, 280
-0.998131, 443, 237, 458, 268
-0.998137, 455, 213, 470, 244
-0.998138, 427, 73, 442, 104
-0.998144, 421, 273, 436, 304
-0.998155, 149, 65, 180, 320
-0.998155, 445, 261, 460, 292
-0.998156, 317, 61, 332, 92
-0.998159, 469, 65, 500, 320
-0.998169, 345, 1, 376, 256
-0.99817, 375, 57, 390, 88
-0.998171, 457, 5, 472, 36
-0.99818, 29, 5, 44, 36
-0.998188, 409, 153, 424, 184
-0.998195, 467, 165, 482, 196
-0.998203, 403, 49, 418, 80
-0.998207, 467, 249, 482, 280
-0.998208, 113, 49, 128, 80
-0.998211, 443, 205, 458, 236
-0.998212, 99, 69, 114, 100
-0.998222, 437, 265, 452, 296
-0.998225, 289, 65, 320, 320
-0.998227, 103, 29, 118, 60
-0.998231, 33, 165, 160, 196
-0.998237, 69, 33, 84, 64
-0.998244, 113, 209, 144, 333
-0.998244, 285, 213, 300, 244
-0.99825, 407, 293, 422, 324
-0.998255, 427, 85, 442, 116
-0.998259, 435, 241, 450, 272
-0.998261, 329, 49, 344, 80
-0.998263, 97, 37, 112, 68
-0.998264, 359, 129, 374, 160
-0.998272, 177, 65, 208, 320
-0.998272, 107, 61, 122, 92
-0.998272, 127, 41, 142, 72
-0.998282, 113, 33, 128, 64
-0.998286, 73, 21, 88, 52
-0.998293, 121, 21, 136, 52
-0.998299, 225, 217, 352, 248
-0.998303, 421, 69, 436, 100
-0.998306, 465, 189, 480, 220
-0.998307, 435, 65, 450, 96
-0.998311, 459, 225, 474, 256
-0.998314, 369, 137, 384, 168
-0.998318, 467, 201, 482, 232
-0.998318, 411, 141, 426, 172
-0.998319, 411, 29, 426, 60
-0.99832, 403, 149, 418, 180
-0.998328, 401, 29, 416, 60
-0.99833, 411, 117, 426, 148
-0.99834, 443, 153, 458, 184
-0.998345, 127, 65, 142, 96
-0.998349, 111, 77, 126, 108
-0.99835, 373, 121, 388, 152
-0.998357, 311, 53, 326, 84
-0.998357, 41, 33, 104, 48
-0.998359, 385, 49, 400, 80
-0.998361, 257, 181, 384, 212
-0.998364, 33, 41, 64, 56
-0.998365, 9, 7, 40, 22
-0.998365, 401, 41, 432, 56
-0.998365, 377, 117, 408, 132
-0.998366, 73, 55, 104, 70
-0.998366, 453, 7, 484, 22
-0.998367, 93, 69, 108, 100
-0.998369, 433, 65, 464, 80
-0.998369, 449, 243, 480, 258
-0.998369, 373, 65, 404, 80
-0.998369, 85, 73, 116, 88
-0.99837, 421, 147, 452, 162
-0.99837, 389, 115, 420, 130
-0.998373, 93, 89, 124, 104
-0.998373, 421, 81, 436, 208
-0.998375, 101, 45, 132, 60
-0.998375, 461, 253, 492, 268
-0.998376, 421, 61, 452, 76
-0.998377, 437, 267, 468, 282
-0.998377, 137, 3, 168, 18
-0.998377, 133, 57, 164, 72
-0.998378, 133, 83, 164, 98
-0.998379, 101, 69, 132, 84
-0.998379, 361, 67, 392, 82
-0.99838, 425, 317, 456, 332
-0.998384, 385, 275, 416, 290
-0.998386, 401, 239, 432, 254
-0.998386, 409, 1, 440, 16
-0.998389, 409, 13, 440, 28
-0.998389, 375, 133, 390, 164
-0.99839, 321, 1, 352, 256
-0.99839, 23, 5, 38, 36
-0.998391, 317, 37, 332, 68
-0.998391, 369, 137, 400, 152
-0.998393, 421, 67, 452, 82
-0.998393, 409, 33, 440, 48
-0.998396, 113, 103, 144, 118
-0.998396, 57, 7, 88, 22
-0.998398, 397, 159, 428, 174
-0.998398, 93, 21, 124, 36
-0.998398, 133, 39, 164, 54
-0.9984, 161, 49, 192, 176
-0.9984, 415, 157, 430, 188
-0.998401, 113, 65, 144, 80
-0.998401, 313, 51, 344, 66
-0.998403, 133, 89, 164, 104
-0.998403, 421, 87, 452, 102
-0.998404, 449, 163, 480, 178
-0.998404, 17, 37, 48, 52
-0.998405, 65, 29, 128, 44
-0.998406, 97, 95, 128, 110
-0.998406, 409, 299, 440, 314
-0.998407, 389, 281, 420, 296
-0.998408, 381, 65, 396, 96
-0.998408, 321, 63, 352, 78
-0.998408, 97, 33, 128, 48
-0.998409, 9, 1, 40, 16
-0.99841, 441, 143, 472, 158
-0.99841, 309, 59, 340, 74
-0.998411, 133, 27, 164, 42
-0.998411, 455, 245, 470, 276
-0.998411, 373, 35, 404, 50
-0.998413, 409, 145, 440, 160
-0.998413, 413, 155, 444, 170
-0.998414, 109, 57, 140, 72
-0.998414, 301, 53, 332, 68
-0.998414, 49, 97, 80, 224
-0.998415, 433, 81, 464, 96
-0.998416, 449, 213, 464, 244
-0.998416, 361, 61, 392, 76
-0.998416, 449, 237, 464, 268
-0.998418, 65, 39, 128, 54
-0.998418, 133, 13, 164, 28
-0.998419, 57, 1, 88, 16
-0.998419, 405, 121, 436, 136
-0.99842, 417, 239, 480, 254
-0.998422, 55, 1, 70, 32
-0.998423, 89, 93, 152, 108
-0.998425, 391, 57, 406, 88
-0.998425, 445, 213, 476, 228
-0.998426, 413, 305, 444, 320
-0.998427, 129, 95, 160, 110
-0.998427, 453, 173, 484, 188
-0.998428, 433, 77, 448, 108
-0.99843, 89, 67, 120, 82
-0.99843, 421, 129, 452, 144
-0.998431, 133, 33, 164, 48
-0.998432, 65, 39, 96, 54
-0.998435, 397, 293, 428, 308
-0.998436, 37, 35, 68, 50
-0.998437, 293, 213, 324, 228
-0.998437, 453, 201, 484, 216
-0.998439, 445, 261, 476, 276
-0.998441, 393, 47, 424, 62
-0.998442, 25, 1, 88, 16
-0.998442, 393, 33, 424, 48
-0.998443, 9, 15, 40, 30
-0.998443, 373, 59, 404, 74
-0.998443, 77, 23, 108, 38
-0.998444, 33, 39, 96, 54
-0.998446, 385, 315, 448, 330
-0.998446, 445, 231, 476, 246
-0.998446, 425, 267, 456, 282
-0.998446, 391, 113, 406, 144
-0.998447, 33, 23, 64, 38
-0.998449, 81, 45, 144, 60
-0.99845, 273, 277, 400, 308
-0.998451, 417, 75, 448, 90
-0.998454, 413, 273, 444, 288
-0.998454, 323, 37, 338, 68
-0.998455, 81, 57, 144, 72
-0.998455, 113, 23, 144, 38
-0.998455, 65, 27, 96, 42
-0.998455, 357, 127, 388, 142
-0.998457, 453, 185, 484, 200
-0.998458, 45, 15, 76, 30
-0.998459, 435, 53, 450, 84
-0.998459, 69, 49, 100, 64
-0.998459, 423, 153, 438, 184
-0.99846, 109, 51, 140, 66
-0.99846, 381, 49, 412, 64
-0.998463, 451, 5, 466, 36
-0.998463, 421, 229, 452, 244
-0.998464, 409, 7, 440, 22
-0.998464, 81, 51, 144, 66
-0.998464, 113, 33, 144, 48
-0.998466, 429, 135, 460, 150
-0.998469, 385, 121, 448, 136
-0.998471, 415, 245, 430, 276
-0.998473, 413, 243, 444, 258
-0.998474, 321, 57, 352, 72
-0.998477, 377, 41, 408, 56
-0.998477, 425, 261, 440, 292
-0.998478, 113, 41, 144, 56
-0.998479, 89, 63, 152, 78
-0.998479, 449, 207, 480, 222
-0.998479, 425, 209, 440, 240
-0.99848, 131, 85, 146, 116
-0.998482, 29, 17, 60, 32
-0.998482, 389, 287, 420, 302
-0.998483, 93, 27, 124, 42
-0.998483, 441, 149, 472, 164
-0.998484, 453, 195, 484, 210
-0.998484, 117, 85, 148, 100
-0.998485, 405, 281, 436, 296
-0.998485, 417, 157, 480, 172
-0.998486, 445, 157, 476, 172
-0.998487, 89, 33, 152, 48
-0.998487, 433, 239, 464, 254
-0.998488, 397, 153, 428, 168
-0.99849, 401, 233, 464, 248
-0.99849, 385, 309, 448, 324
-0.998493, 1, 3, 64, 18
-0.998494, 89, 99, 152, 114
-0.998498, 427, 65, 442, 192
-0.9985, 145, 137, 272, 168
-0.9985, 389, 41, 420, 56
-0.9985, 433, 217, 464, 232
-0.998501, 1, 9, 64, 24
-0.998502, 89, 61, 120, 76
-0.998503, 61, 33, 92, 48
-0.998504, 453, 179, 484, 194
-0.998505, 89, 87, 152, 102
-0.998508, 385, 41, 448, 56
-0.998509, 89, 27, 152, 42
-0.99851, 57, 45, 120, 60
-0.998518, 25, 9, 88, 24
-0.998522, 65, 63, 128, 78
-0.998523, 1, 15, 64, 30
-0.998524, 89, 53, 120, 68
-0.998524, 393, 55, 456, 70
-0.998524, 177, 185, 304, 216
-0.998526, 417, 123, 448, 138
-0.998526, 377, 301, 440, 316
-0.998526, 369, 239, 432, 254
-0.998527, 393, 127, 456, 142
-0.998528, 345, 39, 408, 54
-0.998528, 113, 97, 144, 112
-0.998529, 105, 21, 168, 36
-0.99853, 417, 151, 480, 166
-0.998531, 105, 41, 168, 56
-0.998533, 401, 15, 464, 30
-0.998536, 449, 237, 480, 252
-0.998536, 313, 59, 376, 74
-0.998537, 105, 49, 168, 64
-0.998538, 385, 75, 448, 90
-0.998539, 25, 19, 88, 34
-0.998541, 429, 223, 460, 238
-0.998541, 89, 69, 152, 84
-0.998542, 393, 35, 456, 50
-0.998543, 45, 9, 76, 24
-0.998544, 113, 91, 176, 106
-0.998545, 87, 1, 102, 128
-0.998546, 369, 33, 432, 48
-0.998547, 369, 155, 432, 170
-0.998547, 57, 55, 120, 70
-0.998549, 65, 91, 128, 106
-0.998549, 361, 291, 424, 306
-0.998552, 105, 57, 168, 72
-0.998554, 425, 175, 488, 190
-0.998556, 393, 47, 456, 62
-0.998557, 401, 27, 464, 42
-0.998559, 17, 33, 80, 48
-0.998559, 417, 225, 480, 240
-0.998562, 385, 61, 448, 76
-0.998562, 89, 43, 120, 58
-0.998563, 425, 169, 488, 184
-0.998563, 377, 273, 440, 288
-0.998566, 417, 269, 480, 284
-0.998566, 401, 3, 464, 18
-0.998566, 385, 81, 448, 96
-0.998567, 377, 279, 440, 294
-0.998568, 361, 125, 424, 140
-0.99857, 77, 29, 108, 44
-0.998571, 417, 245, 480, 260
-0.998571, 385, 161, 448, 176
-0.998572, 369, 233, 432, 248
-0.998573, 33, 45, 96, 60
-0.998574, 65, 23, 128, 38
-0.998576, 45, 1, 76, 16
-0.998576, 361, 285, 424, 300
-0.998576, 65, 69, 128, 84
-0.998577, 33, 27, 96, 42
-0.998577, 65, 97, 128, 112
-0.998578, 385, 69, 448, 84
-0.998578, 361, 119, 424, 134
-0.998578, 393, 133, 456, 148
-0.99858, 1, 25, 64, 40
-0.99858, 29, 11, 60, 26
-0.99858, 305, 53, 368, 68
-0.998582, 425, 163, 488, 178
-0.998583, 113, 85, 176, 100
-0.998584, 425, 263, 488, 278
-0.998584, 417, 219, 480, 234
-0.998587, 409, 139, 472, 154
-0.998588, 193, 201, 320, 232
-0.998589, 129, 189, 256, 220
-0.99859, 453, 193, 468, 320
-0.99859, 413, 235, 444, 250
-0.99859, 401, 21, 464, 36
-0.998591, 401, 275, 464, 290
-0.998591, 353, 47, 416, 62
-0.998594, 393, 243, 456, 258
-0.998595, 417, 145, 480, 160
-0.998597, 361, 101, 424, 116
-0.998598, 121, 97, 184, 112
-0.998598, 385, 89, 448, 104
-0.9986, 425, 61, 488, 76
-0.9986, 445, 193, 460, 320
-0.998604, 393, 9, 456, 24
-0.998605, 393, 215, 456, 230
-0.998605, 369, 113, 432, 128
-0.998605, 273, 217, 336, 232
-0.998605, 49, 31, 80, 46
-0.998607, 385, 263, 448, 278
-0.998608, 361, 59, 424, 74
-0.998609, 273, 51, 336, 66
-0.998609, 369, 133, 432, 148
-0.998611, 113, 91, 144, 106
-0.998611, 201, 113, 232, 240
-0.998612, 161, 65, 192, 320
-0.998613, 369, 227, 432, 242
-0.998614, 305, 65, 368, 80
-0.998614, 377, 167, 440, 182
-0.998614, 425, 181, 488, 196
-0.998615, 393, 149, 456, 164
-0.998615, 425, 67, 488, 82
-0.998616, 409, 85, 472, 100
-0.998616, 89, 75, 152, 90
-0.998617, 9, 41, 72, 56
-0.998617, 81, 35, 112, 50
-0.998618, 329, 33, 392, 48
-0.998618, 433, 211, 496, 226
-0.998619, 385, 295, 448, 310
-0.998619, 361, 95, 424, 110
-0.99862, 337, 61, 400, 76
-0.998621, 329, 107, 392, 122
-0.998622, 89, 81, 152, 96
-0.998623, 361, 161, 424, 176
-0.998623, 337, 129, 400, 144
-0.998626, 361, 89, 424, 104
-0.998626, 145, 97, 272, 128
-0.998626, 121, 15, 184, 30
-0.998628, 289, 59, 352, 74
-0.998628, 417, 9, 480, 24
-0.998628, 417, 309, 480, 324
-0.998628, 329, 101, 392, 116
-0.99863, 65, 85, 128, 100
-0.99863, 425, 55, 488, 70
-0.998632, 369, 245, 432, 260
-0.998633, 97, 169, 224, 200
-0.998635, 463, 145, 478, 272
-0.998636, 361, 25, 424, 40
-0.998636, 417, 315, 480, 330
-0.998637, 425, 205, 488, 220
-0.998639, 361, 139, 424, 154
-0.99864, 425, 187, 488, 202
-0.998645, 97, 149, 224, 180
-0.998652, 65, 233, 320, 296
-0.998661, 49, 189, 176, 220
-0.998661, 433, 65, 448, 192
-0.998668, 29, 1, 60, 16
-0.998677, 455, 129, 470, 256
-0.998689, 93, 17, 108, 144
-0.99873, 145, 73, 272, 104
-0.998733, 43, 1, 58, 128
-0.998735, 81, 205, 208, 236
-0.998749, 439, 193, 454, 320
-0.998749, 449, 129, 464, 256
-0.998762, 455, 1, 470, 128
-0.998762, 415, 81, 430, 208
-0.998777, 433, 193, 448, 320
-0.998779, 435, 113, 450, 240
-0.998785, 129, 125, 256, 156
-0.998786, 161, 149, 288, 180
-0.998789, 225, 1, 352, 32
-0.998812, 449, 1, 464, 128
-0.998816, 29, 1, 44, 128
-0.998816, 459, 209, 474, 333
-0.998819, 9, 49, 40, 176
-0.998819, 177, 25, 304, 88
-0.998821, 57, 1, 72, 128
-0.998834, 1, 181, 128, 212
-0.998837, 177, 173, 304, 204
-0.998856, 443, 145, 458, 272
-0.998856, 425, 209, 440, 333
-0.998858, 241, 17, 368, 48
-0.998863, 409, 97, 424, 224
-0.998884, 13, 1, 44, 256
-0.9989, 193, 229, 320, 260
-0.998906, 429, 113, 444, 240
-0.998911, 37, 1, 52, 128
-0.998915, 461, 1, 476, 128
-0.998916, 145, 237, 272, 268
-0.998931, 415, 209, 430, 333
-0.998957, 99, 33, 114, 160
-0.99896, 125, 209, 156, 333
-0.998964, 87, 49, 102, 176
-0.998975, 49, 1, 64, 128
-0.998996, 169, 209, 200, 333
-0.998998, 277, 1, 308, 256
-0.998998, 81, 133, 208, 164
-0.999008, 225, 249, 352, 280
-0.999021, 467, 193, 482, 320
-0.999021, 125, 1, 140, 128
-0.999024, 431, 1, 446, 128
-0.999024, 209, 149, 336, 180
-0.999031, 403, 97, 418, 224
-0.999033, 467, 1, 482, 128
-0.999042, 105, 65, 120, 192
-0.999044, 399, 49, 414, 176
-0.999048, 81, 1, 96, 128
-0.999051, 1, 273, 500, 333
-0.999059, 115, 17, 130, 144
-0.999073, 93, 65, 108, 192
-0.999073, 97, 265, 352, 328
-0.99908, 63, 1, 78, 128
-0.999088, 421, 33, 436, 160
-0.999089, 49, 249, 176, 312
-0.999089, 393, 49, 408, 176
-0.999113, 407, 1, 422, 128
-0.999129, 443, 1, 458, 128
-0.99913, 125, 97, 140, 224
-0.999142, 439, 65, 454, 192
-0.999143, 225, 281, 352, 312
-0.99915, 413, 145, 428, 272
-0.999153, 473, 1, 488, 128
-0.999166, 405, 49, 420, 176
-0.999174, 311, 17, 326, 144
-0.999179, 189, 65, 220, 320
-0.99918, 383, 17, 398, 144
-0.999182, 317, 209, 348, 333
-0.999186, 413, 33, 428, 160
-0.999196, 409, 209, 424, 333
-0.999207, 421, 129, 436, 256
-0.999212, 479, 1, 494, 128
-0.999241, 1, 209, 128, 240
-0.999242, 315, 65, 330, 192
-0.999247, 113, 225, 240, 256
-0.999251, 119, 81, 134, 208
-0.999252, 397, 129, 412, 256
-0.999252, 241, 193, 368, 224
-0.999254, 1, 221, 128, 252
-0.999256, 131, 33, 146, 160
-0.999262, 177, 161, 304, 192
-0.999264, 455, 81, 470, 208
-0.99927, 485, 1, 500, 128
-0.999272, 437, 1, 452, 128
-0.999275, 387, 81, 402, 208
-0.999278, 261, 17, 292, 144
-0.99928, 37, 129, 68, 256
-0.99929, 309, 65, 324, 192
-0.999291, 363, 65, 378, 192
-0.999293, 469, 145, 484, 272
-0.999294, 23, 1, 38, 128
-0.999295, 145, 21, 272, 52
-0.999304, 337, 1, 352, 128
-0.999305, 105, 17, 120, 144
-0.999308, 181, 33, 212, 160
-0.999311, 305, 17, 320, 144
-0.999317, 125, 49, 140, 176
-0.999328, 343, 1, 358, 128
-0.99933, 111, 65, 126, 192
-0.99933, 69, 17, 84, 144
-0.999331, 337, 97, 352, 224
-0.999331, 447, 81, 462, 208
-0.999333, 145, 261, 272, 292
-0.999337, 65, 241, 192, 272
-0.999345, 329, 1, 344, 128
-0.99935, 461, 81, 476, 208
-0.999355, 317, 17, 332, 144
-0.999367, 125, 161, 140, 288
-0.999368, 131, 81, 146, 208
-0.999373, 397, 209, 412, 333
-0.999377, 381, 113, 396, 240
-0.999378, 1, 197, 128, 228
-0.999392, 401, 1, 416, 128
-0.999395, 81, 49, 96, 176
-0.999395, 99, 81, 114, 208
-0.999397, 303, 65, 318, 192
-0.999397, 405, 145, 420, 272
-0.999398, 145, 277, 272, 308
-0.999403, 375, 97, 390, 224
-0.999409, 323, 17, 338, 144
-0.999411, 369, 81, 384, 208
-0.999415, 271, 177, 286, 304
-0.999416, 75, 1, 90, 128
-0.99942, 357, 65, 372, 192
-0.999432, 1, 1, 32, 256
-0.999434, 241, 205, 368, 236
-0.999435, 403, 209, 418, 333
-0.999444, 379, 177, 394, 304
-0.999452, 381, 65, 396, 192
-0.999461, 321, 65, 336, 192
-0.999467, 389, 1, 404, 128
-0.999474, 391, 209, 406, 333
-0.999476, 131, 161, 146, 288
-0.999477, 357, 129, 372, 256
-0.999481, 331, 97, 346, 224
-0.999484, 337, 49, 352, 176
-0.999487, 1, 1, 16, 128
-0.99949, 467, 97, 482, 224
-0.999493, 391, 161, 406, 288
-0.999494, 377, 17, 392, 144
-0.999497, 117, 145, 132, 272
-0.999497, 177, 213, 304, 244
-0.999498, 153, 1, 168, 128
-0.999515, 299, 17, 314, 144
-0.999527, 151, 113, 166, 240
-0.999532, 363, 145, 378, 272
-0.999532, 265, 177, 280, 304
-0.999537, 331, 49, 346, 176
-0.999539, 137, 161, 152, 288
-0.999541, 385, 209, 400, 333
-0.999546, 411, 33, 426, 48
-0.999547, 185, 177, 216, 304
-0.999547, 403, 45, 418, 60
-0.999548, 409, 275, 424, 290
-0.999548, 373, 161, 388, 288
-0.999548, 121, 23, 136, 38
-0.999549, 407, 287, 422, 302
-0.999549, 115, 97, 130, 112
-0.999549, 377, 35, 392, 50
-0.99955, 127, 79, 142, 94
-0.99955, 453, 225, 468, 240
-0.99955, 105, 51, 120, 66
-0.99955, 37, 33, 52, 48
-0.999552, 35, 49, 50, 176
-0.999552, 77, 45, 92, 60
-0.999553, 113, 27, 128, 42
-0.999553, 431, 311, 446, 326
-0.999554, 457, 177, 472, 192
-0.999555, 325, 63, 340, 78
-0.999556, 349, 1, 364, 128
-0.999557, 421, 149, 436, 164
-0.999558, 403, 39, 418, 54
-0.999558, 197, 81, 212, 208
-0.999558, 389, 51, 404, 66
-0.999558, 85, 55, 100, 70
-0.999558, 403, 53, 418, 68
-0.999559, 91, 33, 106, 48
-0.999559, 311, 113, 326, 240
-0.999559, 373, 135, 388, 150
-0.999559, 159, 65, 174, 192
-0.99956, 105, 67, 120, 82
-0.999561, 277, 177, 292, 304
-0.999561, 451, 219, 466, 234
-0.999565, 409, 241, 424, 256
-0.999566, 29, 9, 44, 24
-0.999566, 473, 193, 488, 320
-0.999567, 433, 235, 448, 250
-0.999567, 451, 237, 466, 252
-0.999567, 453, 199, 468, 214
-0.999568, 129, 99, 144, 114
-0.999568, 463, 243, 478, 258
-0.999569, 137, 1, 152, 128
-0.999569, 153, 49, 168, 176
-0.99957, 145, 97, 160, 224
-0.99957, 471, 167, 486, 182
-0.999571, 331, 53, 346, 68
-0.999571, 449, 261, 464, 276
-0.999571, 363, 1, 378, 128
-0.999572, 77, 27, 92, 42
-0.999572, 401, 291, 416, 306
-0.999573, 367, 127, 382, 142
-0.999574, 461, 207, 476, 222
-0.999574, 423, 89, 438, 104
-0.999574, 409, 145, 424, 160
-0.999576, 455, 145, 470, 160
-0.999577, 411, 7, 426, 22
-0.999578, 443, 211, 458, 226
-0.999578, 429, 85, 444, 100
-0.999579, 421, 237, 436, 252
-0.99958, 113, 47, 128, 62
-0.99958, 445, 231, 460, 246
-0.999581, 33, 15, 48, 30
-0.999583, 27, 21, 42, 36
-0.999583, 67, 33, 82, 48
-0.999583, 465, 183, 480, 198
-0.999583, 465, 253, 480, 268
-0.999585, 39, 19, 54, 34
-0.999586, 415, 245, 430, 260
-0.999586, 439, 265, 454, 280
-0.999586, 39, 41, 54, 56
-0.999587, 285, 217, 300, 232
-0.999587, 323, 51, 338, 66
-0.999587, 417, 121, 432, 136
-0.999587, 391, 45, 406, 60
-0.999588, 461, 159, 476, 174
-0.999589, 417, 231, 432, 246
-0.99959, 91, 55, 106, 70
-0.99959, 373, 61, 388, 76
-0.99959, 421, 157, 436, 172
-0.999591, 413, 159, 428, 174
-0.999591, 307, 213, 322, 228
-0.999592, 447, 151, 462, 166
-0.999593, 317, 63, 332, 78
-0.999593, 459, 257, 474, 272
-0.999594, 453, 231, 468, 246
-0.999594, 445, 239, 460, 254
-0.999595, 433, 267, 448, 282
-0.999597, 421, 299, 436, 314
-0.999598, 465, 171, 480, 186
-0.9996, 45, 1, 60, 16
-0.999602, 409, 153, 424, 168
-0.999602, 423, 271, 438, 286
-0.999603, 443, 139, 458, 154
-0.999603, 395, 51, 410, 66
-0.999603, 437, 131, 452, 146
-0.999606, 383, 35, 398, 50
-0.999607, 125, 85, 140, 100
-0.999607, 423, 227, 438, 242
-0.999608, 451, 213, 466, 228
-0.99961, 431, 317, 446, 332
-0.999614, 401, 285, 416, 300
-0.999614, 435, 241, 450, 256
-0.999614, 129, 31, 144, 46
-0.999616, 85, 209, 116, 333
-0.999617, 443, 223, 458, 238
-0.999618, 73, 33, 88, 48
-0.999618, 429, 243, 444, 258
-0.999618, 103, 43, 118, 58
-0.999619, 433, 223, 448, 238
-0.999621, 57, 1, 72, 16
-0.999622, 423, 243, 438, 258
-0.999623, 127, 91, 142, 106
-0.999623, 57, 29, 72, 44
-0.999623, 119, 91, 134, 106
-0.999624, 451, 207, 466, 222
-0.999627, 415, 275, 430, 290
-0.999628, 45, 15, 60, 30
-0.99963, 47, 35, 62, 50
-0.99963, 317, 53, 332, 68
-0.999631, 83, 49, 98, 64
-0.999631, 439, 235, 454, 250
-0.999632, 449, 141, 464, 156
-0.999632, 423, 121, 438, 136
-0.999635, 407, 293, 422, 308
-0.999637, 39, 1, 54, 16
-0.999644, 75, 39, 90, 54
-0.999649, 415, 153, 430, 168
-0.99965, 415, 297, 430, 312
-0.999652, 407, 281, 422, 296
-0.999654, 397, 45, 412, 60
-0.999664, 461, 237, 476, 252
-0.999666, 437, 217, 452, 232
-0.999667, 51, 1, 66, 16
-0.99967, 415, 147, 430, 162
-0.999673, 85, 25, 100, 40
-0.999676, 455, 151, 470, 166
-0.99968, 429, 123, 444, 138
-0.999685, 445, 217, 460, 232
-0.999685, 389, 39, 404, 54
-0.999689, 465, 177, 480, 192
-0.99969, 233, 65, 264, 192
-0.999703, 425, 305, 440, 320
-0.999712, 205, 65, 236, 320
-0.999712, 323, 57, 338, 72
-0.999717, 415, 237, 430, 252
-0.999725, 225, 33, 256, 288
-0.999731, 49, 7, 64, 22
-0.99974, 261, 65, 292, 320
-0.999932, 193, 33, 224, 160
-0.99997, 249, 65, 280, 320
-1, 237, 33, 268, 288
-1.00002, 1, 257, 256, 320
-1.00009, 97, 273, 224, 333
-1.00016, 1, 177, 64, 304
-1.00052, 97, 209, 128, 333
-1.00062, 5, 97, 36, 224
-1.00099, 41, 177, 72, 304
-1.00112, 269, 129, 300, 256
-1.00114, 329, 209, 360, 333
-1.00126, 209, 1, 272, 128
-1.0013, 1, 241, 128, 304
-1.00143, 17, 97, 48, 224
-1.00162, 237, 113, 268, 240
-1.00169, 57, 209, 88, 333
-1.00173, 253, 113, 284, 240
-1.00173, 209, 193, 240, 320
-1.00178, 161, 1, 288, 64
-1.00182, 49, 273, 176, 333
-1.00196, 29, 177, 60, 304
-1.00208, 169, 161, 200, 288
-1.00223, 197, 161, 228, 288
-1.00227, 233, 193, 264, 320
-1.0023, 221, 17, 252, 144
-1.00233, 205, 17, 236, 144
-1.00236, 241, 1, 272, 128
-1.00256, 1, 265, 128, 328
-1.00528, 185, 1, 248, 128
