1968
-0.413099, 97, 1, 352, 375
-0.503162, 1, 1, 500, 375
-0.514519, 1, 1, 500, 256
-0.569025, 225, 1, 480, 375
-0.583277, 1, 129, 500, 375
-0.597672, 97, 33, 352, 288
-0.607586, 1, 1, 256, 375
-0.665055, 193, 65, 448, 320
-0.700861, 1, 1, 256, 256
-0.742734, 97, 129, 352, 375
-0.841875, 193, 33, 320, 288
-0.843458, 193, 1, 320, 375
-0.861827, 145, 1, 272, 375
-0.866574, 145, 1, 272, 256
-0.885242, 193, 129, 320, 375
-0.891096, 241, 1, 368, 375
-0.896957, 241, 65, 368, 320
-0.909435, 97, 1, 224, 375
-0.909767, 33, 1, 160, 256
-0.909959, 1, 129, 256, 375
-0.911607, 145, 97, 272, 352
-0.91366, 97, 81, 352, 208
-0.915616, 97, 1, 224, 256
-0.920506, 193, 81, 448, 208
-0.921048, 289, 1, 416, 375
-0.923044, 33, 1, 288, 128
-0.924293, 289, 65, 416, 320
-0.925745, 193, 81, 320, 208
-0.929207, 1, 81, 500, 208
-0.935482, 1, 129, 500, 256
-0.937696, 97, 129, 352, 256
-0.938309, 49, 1, 176, 375
-0.938987, 193, 129, 320, 256
-0.939538, 129, 1, 256, 128
-0.939551, 1, 17, 500, 144
-0.940215, 161, 33, 416, 160
-0.944627, 1, 1, 128, 375
-0.945474, 225, 81, 288, 208
-0.945839, 193, 129, 448, 256
-0.946446, 241, 129, 304, 256
-0.94712, 161, 1, 224, 128
-0.947321, 217, 161, 280, 288
-0.947718, 265, 161, 328, 288
-0.948199, 209, 33, 336, 160
-0.948683, 201, 1, 264, 128
-0.950779, 129, 81, 256, 208
-0.952462, 161, 177, 416, 304
-0.952508, 257, 113, 384, 240
-0.952693, 201, 113, 264, 240
-0.95354, 281, 97, 344, 224
-0.953547, 209, 177, 336, 304
-0.954426, 81, 97, 208, 352
-0.955084, 241, 145, 304, 208
-0.956627, 1, 81, 256, 208
-0.958388, 201, 153, 264, 216
-0.959559, 337, 1, 464, 375
-0.95971, 257, 33, 500, 160
-0.959954, 249, 177, 312, 240
-0.960452, 225, 33, 288, 160
-0.960973, 161, 1, 224, 64
-0.961927, 1, 225, 500, 352
-0.962946, 249, 65, 312, 192
-0.963082, 145, 129, 272, 256
-0.963149, 241, 177, 304, 304
-0.96316, 1, 129, 128, 375
-0.963352, 201, 49, 264, 176
-0.963493, 273, 65, 400, 192
-0.963783, 185, 1, 248, 64
-0.964558, 1, 177, 500, 304
-0.964728, 225, 33, 288, 288
-0.965433, 177, 97, 240, 224
-0.965514, 161, 25, 224, 88
-0.967665, 217, 121, 280, 184
-0.968578, 225, 185, 288, 248
-0.968806, 337, 1, 464, 256
-0.968989, 33, 113, 160, 240
-0.969456, 233, 225, 296, 288
-0.9695, 81, 81, 208, 208
-0.970042, 217, 313, 280, 375
-0.970065, 209, 217, 272, 280
-0.970228, 185, 105, 248, 168
-0.970402, 265, 153, 328, 216
-0.970571, 65, 177, 320, 304
-0.970683, 137, 17, 200, 144
-0.970738, 193, 137, 320, 200
-0.970855, 249, 33, 312, 288
-0.970995, 201, 81, 264, 144
-0.971023, 229, 153, 260, 216
-0.971105, 161, 1, 224, 256
-0.971358, 193, 161, 256, 288
-0.971499, 49, 1, 176, 128
-0.972005, 65, 225, 320, 352
-0.972256, 193, 81, 320, 144
-0.972711, 137, 1, 200, 64
-0.972726, 257, 161, 384, 288
-0.973126, 193, 161, 320, 224
-0.973687, 201, 25, 264, 88
-0.974262, 273, 113, 336, 176
-0.974299, 273, 145, 304, 272
-0.974395, 225, 81, 288, 144
-0.974615, 201, 57, 264, 120
-0.97473, 225, 57, 288, 120
-0.975069, 201, 177, 264, 240
-0.9754, 229, 113, 260, 240
-0.975742, 113, 1, 240, 64
-0.975872, 97, 1, 160, 128
-0.975979, 273, 49, 336, 176
-0.976152, 193, 241, 448, 368
-0.976407, 201, 33, 264, 288
-0.976525, 273, 169, 304, 232
-0.976776, 241, 313, 304, 375
-0.976834, 241, 121, 304, 184
-0.977241, 225, 129, 288, 375
-0.97725, 229, 49, 260, 176
-0.977381, 241, 225, 304, 352
-0.977465, 209, 113, 336, 176
-0.977589, 289, 89, 352, 152
-0.977664, 161, 177, 288, 304
-0.977749, 201, 1, 232, 64
-0.978125, 229, 161, 260, 288
-0.978181, 129, 97, 192, 160
-0.978318, 273, 65, 336, 320
-0.978321, 213, 1, 244, 64
-0.978439, 129, 25, 256, 88
-0.978608, 217, 113, 248, 240
-0.978707, 249, 185, 280, 248
-0.97875, 145, 121, 272, 184
-0.978752, 409, 289, 472, 352
-0.978936, 233, 1, 296, 375
-0.978965, 129, 97, 256, 160
-0.979002, 65, 113, 128, 240
-0.979126, 237, 177, 268, 240
-0.979159, 129, 49, 256, 112
-0.979167, 1, 1, 128, 128
-0.979189, 129, 97, 192, 224
-0.979503, 249, 129, 312, 375
-0.979544, 145, 145, 272, 208
-0.979627, 137, 25, 200, 88
-0.979713, 1, 129, 256, 256
-0.979717, 285, 113, 316, 240
-0.979902, 253, 313, 284, 375
-0.980048, 241, 161, 272, 288
-0.980071, 177, 81, 240, 144
-0.980183, 1, 49, 128, 176
-0.980305, 377, 305, 440, 368
-0.980358, 217, 145, 248, 208
-0.980513, 253, 153, 284, 216
-0.980515, 241, 145, 272, 208
-0.980539, 209, 185, 336, 248
-0.980578, 209, 1, 272, 64
-0.980582, 177, 145, 240, 208
-0.980585, 253, 177, 284, 304
-0.98074, 169, 1, 200, 64
-0.980768, 225, 1, 256, 128
-0.981289, 209, 57, 336, 120
-0.981384, 169, 17, 200, 144
-0.981391, 185, 1, 216, 64
-0.981466, 257, 1, 320, 375
-0.981768, 265, 145, 296, 208
-0.981824, 405, 305, 436, 368
-0.982037, 129, 73, 256, 136
-0.982209, 289, 161, 352, 224
-0.982255, 241, 161, 368, 224
-0.982372, 161, 225, 288, 352
-0.982423, 257, 121, 384, 184
-0.982474, 161, 105, 224, 168
-0.982514, 177, 241, 304, 304
-0.982586, 193, 241, 256, 304
-0.98259, 177, 49, 240, 176
-0.982604, 257, 17, 384, 144
-0.982648, 265, 201, 328, 264
-0.982721, 249, 17, 312, 144
-0.982761, 229, 121, 260, 184
-0.982783, 289, 145, 352, 272
-0.98296, 241, 313, 272, 375
-0.983033, 285, 153, 316, 216
-0.983049, 161, 1, 288, 64
-0.983063, 253, 129, 284, 256
-0.98309, 241, 217, 272, 280
-0.98309, 97, 17, 160, 80
-0.983492, 193, 1, 224, 128
-0.983518, 297, 33, 360, 160
-0.983608, 177, 313, 304, 375
-0.983612, 193, 25, 224, 88
-0.983788, 257, 81, 320, 144
-0.983981, 285, 161, 316, 288
-0.984016, 241, 113, 272, 240
-0.984099, 337, 97, 464, 352
-0.984196, 213, 1, 244, 128
-0.984632, 193, 25, 320, 88
-0.98465, 209, 217, 336, 280
-0.984654, 273, 97, 304, 224
-0.984751, 81, 97, 208, 160
-0.984819, 261, 177, 292, 240
-0.98507, 209, 1, 272, 375
-0.985278, 145, 169, 272, 232
-0.985323, 33, 121, 160, 184
-0.985335, 221, 177, 252, 240
-0.985411, 177, 169, 240, 232
-0.985508, 41, 97, 104, 224
-0.985575, 217, 65, 248, 192
-0.985582, 169, 233, 232, 296
-0.985594, 229, 81, 260, 144
-0.985646, 209, 97, 240, 160
-0.985663, 201, 129, 264, 375
-0.985677, 241, 225, 368, 352
-0.985696, 213, 25, 244, 88
-0.98584, 217, 121, 248, 184
-0.985886, 81, 97, 112, 224
-0.985905, 289, 137, 352, 200
-0.985963, 277, 121, 308, 184
-0.986017, 257, 225, 288, 288
-0.986083, 169, 1, 232, 375
-0.986158, 273, 97, 400, 160
-0.986488, 41, 1, 104, 128
-0.986704, 41, 105, 104, 168
-0.986736, 297, 97, 328, 224
-0.986815, 249, 289, 312, 352
-0.98683, 129, 1, 192, 256
-0.986866, 89, 81, 152, 208
-0.986876, 289, 65, 352, 128
-0.986907, 89, 105, 152, 168
-0.986966, 169, 25, 200, 88
-0.98702, 229, 57, 260, 120
-0.987118, 201, 225, 264, 352
-0.987227, 225, 9, 256, 72
-0.987323, 81, 113, 112, 176
-0.987395, 33, 17, 160, 80
-0.987424, 129, 145, 192, 208
-0.987584, 225, 313, 352, 375
-0.987704, 225, 33, 288, 96
-0.987958, 261, 81, 292, 208
-0.987968, 121, 73, 184, 136
-0.988006, 81, 145, 208, 272
-0.988041, 41, 49, 104, 176
-0.988047, 81, 25, 208, 88
-0.988091, 177, 57, 240, 120
-0.988138, 321, 49, 448, 176
-0.988138, 265, 313, 296, 375
-0.988167, 241, 49, 272, 176
-0.988227, 97, 1, 160, 256
-0.988254, 265, 209, 328, 336
-0.988314, 257, 225, 320, 288
-0.988438, 1, 97, 64, 224
-0.988503, 277, 49, 308, 176
-0.988553, 209, 169, 240, 232
-0.988655, 181, 1, 212, 128
-0.988662, 217, 161, 248, 288
-0.98875, 297, 113, 360, 176
-0.988889, 153, 81, 216, 144
-0.988901, 297, 97, 360, 352
-0.988971, 217, 173, 280, 204
-0.989063, 265, 241, 296, 368
-0.989081, 257, 177, 500, 304
-0.989103, 129, 121, 192, 184
-0.989167, 241, 177, 304, 208
-0.989219, 161, 217, 288, 280
-0.989238, 169, 161, 232, 288
-0.9893, 149, 1, 180, 64
-0.98933, 289, 73, 416, 136
-0.989375, 281, 1, 344, 375
-0.989412, 241, 273, 368, 336
-0.989507, 81, 121, 208, 184
-0.989653, 369, 281, 432, 344
-0.989694, 137, 1, 200, 375
-0.98972, 1, 97, 128, 160
-0.989742, 153, 313, 216, 375
-0.989761, 193, 313, 256, 375
-0.989839, 161, 29, 224, 60
-0.990027, 65, 113, 128, 176
-0.990118, 305, 81, 368, 208
-0.99017, 233, 149, 296, 180
-0.990185, 193, 169, 256, 200
-0.990206, 1, 137, 64, 200
-0.990314, 249, 57, 312, 120
-0.990327, 265, 181, 328, 212
-0.990331, 185, 109, 248, 140
-0.990448, 225, 317, 288, 348
-0.990487, 129, 1, 160, 128
-0.990488, 209, 73, 240, 136
-0.990531, 289, 185, 352, 248
-0.990548, 217, 125, 280, 156
-0.990556, 161, 89, 416, 152
-0.990563, 225, 229, 288, 260
-0.99057, 221, 225, 252, 288
-0.990579, 209, 157, 272, 188
-0.990604, 409, 297, 472, 328
-0.99062, 129, 241, 256, 304
-0.990636, 293, 113, 324, 176
-0.990716, 209, 185, 272, 216
-0.990738, 289, 49, 320, 176
-0.990809, 313, 81, 376, 144
-0.990813, 201, 25, 264, 56
-0.990843, 257, 201, 384, 264
-0.990867, 185, 209, 248, 272
-0.990901, 249, 161, 312, 192
-0.990902, 41, 1, 104, 256
-0.990956, 97, 145, 352, 208
-0.990968, 217, 137, 280, 168
-0.990969, 169, 9, 232, 40
-0.990983, 273, 1, 336, 128
-0.990998, 201, 237, 264, 268
-0.991011, 137, 29, 200, 60
-0.991034, 185, 97, 248, 128
-0.991094, 41, 17, 104, 80
-0.991099, 241, 189, 304, 220
-0.991116, 377, 305, 440, 336
-0.991152, 297, 1, 360, 256
-0.991228, 129, 145, 192, 272
-0.99123, 225, 249, 288, 312
-0.991303, 265, 313, 328, 375
-0.991349, 201, 13, 264, 44
-0.991386, 241, 133, 304, 164
-0.991392, 273, 233, 304, 296
-0.991403, 337, 305, 464, 368
-0.99145, 201, 65, 264, 96
-0.991495, 201, 77, 264, 108
-0.991497, 137, 1, 200, 32
-0.991521, 97, 121, 352, 184
-0.991524, 273, 169, 336, 200
-0.991565, 305, 129, 432, 256
-0.991567, 201, 317, 264, 348
-0.991589, 161, 105, 224, 136
-0.991666, 1, 81, 64, 144
-0.991676, 249, 233, 312, 264
-0.991692, 225, 77, 288, 108
-0.991713, 253, 241, 284, 368
-0.991729, 201, 53, 264, 84
-0.991732, 129, 105, 192, 136
-0.991765, 209, 97, 272, 128
-0.991803, 177, 241, 240, 272
-0.991811, 289, 105, 352, 136
-0.991857, 229, 169, 260, 200
-0.991871, 253, 33, 284, 160
-0.991875, 201, 41, 264, 72
-0.991889, 217, 113, 280, 144
-0.991903, 265, 33, 296, 160
-0.991913, 137, 17, 200, 48
-0.991946, 225, 341, 288, 372
-0.991948, 289, 117, 352, 148
-0.991958, 69, 113, 100, 176
-0.991999, 289, 153, 416, 216
-0.992018, 193, 145, 448, 208
-0.992018, 265, 125, 328, 156
-0.992024, 201, 225, 264, 256
-0.992027, 249, 269, 312, 300
-0.99208, 193, 121, 256, 152
-0.992085, 249, 321, 312, 352
-0.992099, 225, 217, 288, 248
-0.99212, 185, 157, 248, 188
-0.992123, 97, 117, 160, 148
-0.992125, 241, 121, 272, 184
-0.992166, 273, 137, 336, 168
-0.992181, 205, 145, 236, 208
-0.992184, 169, 173, 232, 204
-0.992187, 193, 137, 256, 168
-0.992189, 205, 81, 236, 208
-0.992191, 137, 49, 200, 112
-0.992221, 241, 121, 304, 152
-0.992223, 129, 169, 192, 232
-0.992236, 209, 225, 240, 288
-0.99225, 417, 297, 448, 360
-0.992258, 65, 117, 128, 148
-0.99226, 289, 181, 352, 212
-0.992298, 257, 345, 320, 375
-0.992301, 225, 65, 288, 96
-0.992322, 273, 181, 304, 212
-0.99233, 161, 193, 288, 256
-0.992337, 289, 93, 352, 124
-0.992338, 153, 113, 216, 240
-0.992363, 249, 309, 312, 340
-0.992382, 221, 313, 252, 375
-0.992399, 33, 121, 96, 152
-0.992409, 153, 333, 216, 364
-0.992424, 249, 313, 280, 344
-0.992443, 249, 177, 280, 208
-0.992448, 237, 181, 268, 212
-0.992452, 161, 93, 224, 124
-0.992454, 273, 157, 336, 188
-0.992478, 257, 221, 320, 252
-0.992493, 401, 309, 464, 340
-0.992541, 153, 169, 216, 232
-0.992542, 285, 185, 316, 248
-0.992557, 249, 225, 280, 256
-0.992559, 281, 225, 344, 288
-0.992561, 193, 337, 256, 368
-0.992561, 261, 289, 292, 352
-0.992562, 129, 313, 256, 375
-0.992565, 97, 65, 352, 128
-0.992572, 401, 313, 464, 375
-0.992578, 97, 169, 352, 232
-0.99259, 177, 209, 240, 336
-0.992598, 217, 329, 280, 360
-0.992601, 241, 241, 368, 304
-0.992636, 405, 305, 436, 336
-0.99266, 169, 29, 200, 60
-0.992677, 1, 33, 64, 96
-0.992681, 401, 285, 464, 316
-0.992685, 197, 97, 228, 160
-0.992687, 265, 113, 328, 144
-0.992691, 217, 173, 248, 204
-0.992692, 257, 265, 320, 328
-0.992695, 265, 193, 328, 224
-0.992706, 229, 153, 260, 184
-0.992735, 129, 169, 192, 200
-0.99274, 225, 241, 288, 272
-0.992755, 177, 81, 240, 112
-0.99276, 81, 117, 112, 148
-0.992764, 193, 1, 256, 32
-0.992767, 113, 17, 176, 48
-0.992778, 193, 113, 448, 176
-0.992784, 129, 129, 192, 160
-0.992791, 113, 41, 176, 104
-0.992793, 217, 161, 248, 192
-0.992795, 209, 109, 240, 140
-0.992801, 225, 53, 288, 84
-0.99284, 261, 229, 292, 260
-0.992844, 129, 117, 192, 148
-0.992848, 33, 109, 96, 140
-0.992866, 237, 313, 268, 344
-0.992872, 237, 221, 268, 252
-0.992874, 261, 317, 292, 348
-0.992884, 281, 81, 344, 112
-0.992885, 161, 117, 224, 148
-0.992886, 289, 209, 352, 336
-0.992892, 129, 93, 192, 124
-0.9929, 113, 1, 176, 32
-0.992914, 129, 145, 192, 176
-0.992916, 261, 177, 292, 208
-0.992924, 265, 253, 328, 284
-0.992925, 121, 41, 184, 72
-0.992926, 153, 321, 216, 352
-0.992928, 65, 105, 128, 136
-0.992951, 229, 125, 260, 156
-0.992952, 277, 169, 308, 200
-0.992954, 245, 325, 276, 356
-0.992957, 253, 165, 284, 196
-0.99296, 137, 345, 200, 375
-0.992963, 161, 45, 224, 76
-0.992987, 221, 237, 252, 268
-0.993007, 1, 145, 64, 176
-0.993013, 181, 25, 212, 88
-0.993018, 193, 33, 224, 64
-0.99302, 277, 269, 308, 300
-0.99302, 193, 157, 320, 188
-0.993021, 97, 105, 160, 136
-0.99303, 257, 49, 384, 112
-0.993033, 197, 105, 228, 136
-0.993033, 129, 157, 192, 188
-0.993033, 289, 177, 416, 240
-0.993037, 245, 193, 276, 224
-0.993037, 201, 213, 264, 244
-0.993045, 177, 229, 240, 260
-0.993045, 65, 129, 128, 160
-0.99305, 177, 325, 240, 356
-0.99305, 161, 161, 224, 192
-0.993052, 225, 185, 256, 216
-0.993056, 161, 61, 224, 92
-0.993073, 209, 97, 240, 128
-0.993073, 1, 1, 64, 128
-0.993077, 69, 97, 100, 224
-0.993082, 153, 237, 216, 268
-0.993083, 289, 197, 352, 228
-0.993087, 249, 333, 312, 364
-0.993096, 249, 209, 312, 240
-0.993103, 377, 293, 440, 324
-0.993103, 105, 341, 168, 372
-0.993108, 257, 189, 288, 220
-0.993113, 249, 345, 280, 375
-0.993117, 121, 53, 184, 84
-0.993117, 289, 261, 352, 292
-0.993118, 65, 73, 192, 136
-0.99312, 217, 305, 280, 336
-0.993121, 169, 345, 232, 375
-0.993127, 221, 9, 252, 40
-0.993129, 241, 1, 272, 128
-0.993132, 213, 25, 244, 56
-0.993138, 149, 17, 180, 144
-0.99315, 273, 157, 304, 188
-0.993151, 217, 121, 248, 152
-0.993156, 289, 173, 320, 204
-0.993158, 257, 93, 320, 124
-0.993158, 241, 149, 272, 180
-0.993163, 237, 233, 268, 264
-0.993168, 273, 297, 400, 360
-0.993171, 313, 85, 376, 116
-0.993177, 273, 309, 336, 340
-0.993181, 205, 241, 236, 272
-0.993185, 185, 17, 216, 48
-0.993188, 169, 145, 232, 176
-0.993193, 229, 141, 260, 172
-0.993204, 377, 317, 440, 348
-0.993208, 217, 149, 248, 180
-0.993219, 121, 65, 184, 96
-0.993221, 121, 77, 184, 108
-0.993224, 225, 77, 256, 108
-0.993226, 149, 1, 180, 32
-0.993229, 205, 165, 236, 196
-0.993234, 417, 305, 448, 336
-0.993242, 177, 185, 240, 216
-0.993245, 97, 129, 160, 160
-0.993261, 265, 281, 328, 312
-0.993266, 197, 9, 228, 40
-0.993266, 217, 137, 248, 168
-0.993267, 169, 17, 200, 48
-0.993268, 269, 329, 300, 360
-0.993273, 1, 101, 64, 132
-0.993275, 185, 105, 216, 136
-0.993284, 149, 17, 180, 48
-0.993288, 285, 157, 316, 188
-0.993303, 249, 237, 280, 268
-0.993304, 289, 69, 352, 100
-0.993306, 253, 133, 284, 164
-0.99331, 169, 129, 232, 160
-0.993315, 209, 9, 240, 40
-0.993315, 85, 105, 116, 136
-0.993324, 197, 21, 228, 52
-0.993324, 97, 241, 224, 368
-0.993328, 213, 185, 244, 216
-0.993329, 209, 85, 240, 116
-0.993332, 85, 129, 116, 160
-0.993336, 277, 253, 308, 284
-0.993338, 161, 1, 192, 32
-0.993338, 225, 65, 256, 96
-0.993339, 277, 125, 308, 156
-0.993339, 225, 89, 256, 120
-0.99334, 193, 241, 224, 272
-0.993345, 273, 145, 304, 176
-0.993348, 241, 165, 272, 196
-0.993352, 201, 249, 264, 280
-0.993355, 209, 1, 336, 64
-0.993356, 225, 41, 288, 72
-0.993357, 65, 117, 96, 148
-0.993357, 289, 185, 320, 216
-0.993361, 253, 121, 284, 152
-0.993371, 265, 341, 296, 372
-0.993371, 113, 29, 176, 60
-0.993372, 229, 345, 260, 375
-0.993377, 225, 13, 288, 44
-0.993386, 261, 305, 292, 336
-0.993387, 97, 153, 224, 216
-0.993387, 225, 109, 256, 140
-0.993392, 257, 81, 320, 112
-0.9934, 113, 49, 176, 176
-0.993401, 409, 317, 440, 348
-0.993401, 181, 33, 212, 64
-0.993407, 297, 169, 360, 200
-0.993409, 41, 21, 104, 52
-0.993423, 217, 321, 248, 352
-0.993426, 185, 5, 216, 36
-0.993426, 225, 225, 256, 256
-0.993434, 225, 53, 256, 84
-0.993434, 265, 269, 296, 300
-0.993435, 241, 49, 272, 112
-0.993436, 97, 117, 128, 148
-0.993441, 213, 73, 244, 104
-0.993443, 149, 341, 180, 372
-0.993447, 137, 1, 168, 32
-0.993458, 149, 29, 180, 60
-0.993458, 193, 177, 224, 208
-0.99346, 241, 137, 272, 168
-0.993463, 293, 117, 324, 148
-0.993464, 149, 49, 180, 80
-0.993477, 169, 105, 200, 136
-0.993484, 209, 337, 240, 368
-0.993485, 225, 21, 256, 52
-0.993491, 201, 325, 232, 356
-0.993493, 197, 93, 228, 124
-0.993502, 261, 145, 292, 176
-0.993503, 149, 61, 180, 92
-0.993503, 213, 61, 244, 92
-0.993506, 197, 117, 228, 148
-0.993508, 149, 65, 180, 192
-0.993517, 289, 269, 320, 300
-0.993518, 197, 229, 228, 260
-0.993524, 197, 337, 228, 368
-0.993528, 33, 97, 288, 160
-0.99353, 233, 245, 264, 276
-0.993532, 153, 105, 184, 136
-0.993536, 297, 145, 328, 272
-0.993536, 193, 169, 320, 200
-0.993538, 173, 5, 204, 36
-0.993538, 225, 297, 480, 360
-0.993543, 249, 213, 280, 244
-0.993543, 193, 145, 320, 176
-0.993548, 273, 237, 304, 268
-0.993561, 149, 73, 180, 104
-0.993562, 197, 217, 228, 280
-0.993564, 257, 329, 288, 360
-0.993565, 241, 125, 272, 156
-0.993574, 213, 45, 244, 76
-0.993578, 97, 129, 128, 160
-0.993586, 225, 41, 256, 72
-0.993591, 181, 241, 212, 272
-0.993593, 285, 141, 316, 172
-0.993598, 289, 249, 320, 280
-0.993601, 297, 105, 328, 136
-0.993604, 41, 129, 104, 192
-0.993607, 149, 85, 180, 116
-0.99361, 205, 153, 236, 184
-0.993611, 269, 217, 300, 248
-0.993612, 269, 193, 300, 224
-0.993614, 173, 117, 204, 148
-0.993615, 193, 65, 448, 128
-0.99362, 277, 281, 308, 312
-0.99362, 169, 93, 200, 124
-0.993621, 405, 293, 436, 324
-0.993623, 145, 325, 176, 356
-0.993626, 189, 325, 220, 356
-0.993633, 181, 177, 212, 208
-0.993639, 113, 217, 240, 280
-0.993717, 241, 153, 256, 216
-0.99373, 1, 113, 64, 176
-0.993805, 1, 57, 64, 120
-0.993819, 49, 241, 176, 368
-0.993866, 41, 1, 72, 128
-0.993978, 297, 169, 328, 232
-0.993985, 417, 297, 432, 360
-0.993998, 85, 89, 116, 152
-0.994, 281, 81, 312, 144
-0.994067, 279, 169, 294, 232
-0.99413, 73, 1, 136, 256
-0.994152, 149, 41, 180, 104
-0.994165, 193, 273, 320, 336
-0.994173, 301, 49, 332, 176
-0.99419, 97, 25, 352, 88
-0.994197, 93, 113, 124, 240
-0.994241, 201, 289, 264, 352
-0.994274, 1, 49, 64, 176
-0.994294, 73, 1, 136, 64
-0.994299, 209, 49, 240, 112
-0.994303, 33, 145, 160, 208
-0.994303, 193, 125, 320, 156
-0.994314, 225, 33, 256, 96
-0.994395, 321, 281, 448, 344
-0.994405, 265, 121, 296, 184
-0.994408, 153, 145, 216, 208
-0.994409, 193, 101, 320, 132
-0.994412, 97, 1, 352, 64
-0.994451, 117, 1, 148, 128
-0.994454, 145, 233, 208, 296
-0.994478, 169, 97, 200, 160
-0.99448, 321, 241, 448, 368
-0.994541, 273, 289, 336, 352
-0.994559, 209, 85, 336, 116
-0.994567, 145, 289, 272, 352
-0.994648, 197, 241, 228, 304
-0.994658, 231, 153, 246, 216
-0.994679, 193, 169, 448, 232
-0.994734, 17, 177, 144, 304
-0.994748, 41, 81, 104, 144
-0.994763, 249, 289, 280, 352
-0.994775, 257, 89, 500, 152
-0.994794, 81, 177, 208, 240
-0.994815, 149, 81, 180, 144
-0.994842, 207, 1, 222, 64
-0.994844, 1, 1, 64, 64
-0.994865, 113, 193, 240, 320
-0.994906, 265, 193, 296, 320
-0.994969, 215, 1, 230, 64
-0.994971, 177, 97, 240, 352
-0.994989, 305, 1, 368, 375
-0.995036, 9, 161, 72, 224
-0.995041, 253, 105, 284, 168
-0.995044, 97, 241, 352, 304
-0.995125, 201, 1, 216, 64
-0.995128, 329, 65, 392, 192
-0.995129, 247, 169, 262, 232
-0.995137, 97, 81, 160, 144
-0.99515, 129, 105, 256, 136
-0.995175, 253, 185, 268, 248
-0.995184, 161, 209, 224, 272
-0.9952, 193, 41, 448, 104
-0.995201, 321, 97, 448, 160
-0.995201, 1, 1, 256, 64
-0.995227, 281, 41, 344, 104
-0.99528, 281, 273, 312, 336
-0.995287, 129, 117, 256, 148
-0.995325, 81, 49, 112, 176
-0.995325, 129, 85, 256, 116
-0.995357, 259, 185, 274, 248
-0.995363, 205, 129, 236, 256
-0.995393, 289, 153, 304, 216
-0.995416, 281, 241, 312, 368
-0.995436, 1, 57, 128, 120
-0.995441, 193, 321, 320, 352
-0.995443, 209, 113, 336, 144
-0.995465, 193, 1, 208, 64
-0.995473, 257, 313, 272, 375
-0.995562, 265, 313, 280, 375
-0.995571, 129, 29, 256, 60
-0.995573, 129, 5, 256, 36
-0.995596, 293, 81, 324, 144
-0.995599, 129, 73, 256, 104
-0.995641, 185, 97, 216, 160
-0.995658, 305, 49, 432, 112
-0.995706, 421, 273, 452, 336
-0.995715, 401, 265, 464, 328
-0.995734, 233, 1, 296, 64
-0.995748, 171, 1, 186, 64
-0.995754, 401, 281, 432, 344
-0.995782, 265, 185, 280, 248
-0.995782, 145, 161, 272, 192
-0.995785, 187, 1, 202, 64
-0.995805, 279, 145, 294, 208
-0.995823, 249, 145, 264, 208
-0.995826, 269, 145, 284, 208
-0.995844, 411, 297, 426, 360
-0.995849, 1, 169, 128, 232
-0.995899, 231, 185, 246, 248
-0.995904, 241, 177, 368, 208
-0.995906, 161, 181, 288, 212
-0.995913, 129, 149, 256, 180
-0.995937, 209, 73, 336, 104
-0.995954, 231, 121, 246, 184
-0.995955, 1, 117, 128, 148
-0.995968, 81, 249, 208, 312
-0.996016, 229, 33, 260, 288
-0.996026, 221, 1, 236, 64
-0.996052, 113, 1, 176, 375
-0.996055, 181, 1, 196, 64
-0.996058, 193, 229, 320, 260
-0.996072, 105, 249, 168, 312
-0.996099, 321, 1, 448, 128
-0.996101, 129, 137, 256, 168
-0.99611, 81, 121, 208, 152
-0.996117, 185, 233, 216, 296
-0.996123, 261, 201, 292, 264
-0.996151, 269, 81, 300, 144
-0.996176, 225, 289, 288, 352
-0.996186, 273, 177, 288, 240
-0.996194, 117, 17, 148, 80
-0.996197, 129, 61, 256, 92
-0.996233, 193, 217, 448, 280
-0.996233, 271, 313, 286, 375
-0.996235, 1, 1, 64, 375
-0.996279, 1, 145, 256, 208
-0.996309, 85, 113, 100, 176
-0.996318, 225, 273, 480, 336
-0.996318, 255, 153, 270, 216
-0.99634, 1, 25, 256, 88
-0.996342, 273, 193, 304, 256
-0.996347, 253, 33, 284, 288
-0.996359, 251, 313, 266, 375
-0.996361, 33, 1, 96, 375
-0.996367, 121, 97, 184, 352
-0.996435, 97, 313, 352, 375
-0.996444, 193, 193, 320, 224
-0.996494, 227, 1, 242, 64
-0.996504, 297, 193, 328, 320
-0.996514, 305, 97, 336, 160
-0.996516, 169, 1, 200, 256
-0.996528, 171, 25, 186, 88
-0.996533, 263, 153, 278, 216
-0.996568, 255, 217, 270, 280
-0.996579, 1, 65, 256, 128
-0.99659, 279, 177, 294, 208
-0.996601, 241, 177, 256, 240
-0.996603, 237, 289, 268, 352
-0.996626, 247, 121, 262, 184
-0.996627, 241, 169, 256, 200
-0.996628, 237, 121, 252, 184
-0.996629, 241, 65, 272, 320
-0.996629, 273, 33, 304, 288
-0.996637, 257, 121, 384, 152
-0.996668, 207, 25, 222, 88
-0.996672, 1, 121, 256, 184
-0.996673, 193, 193, 448, 256
-0.996678, 129, 49, 256, 80
-0.996705, 81, 109, 208, 140
-0.996713, 285, 177, 300, 240
-0.99674, 245, 81, 276, 144
-0.996751, 81, 1, 144, 375
-0.996761, 193, 9, 448, 72
-0.996767, 1, 249, 64, 312
-0.996786, 81, 49, 208, 112
-0.9968, 113, 173, 240, 204
-0.996811, 129, 17, 160, 80
-0.99684, 317, 89, 348, 152
-0.996844, 257, 161, 384, 192
-0.996846, 273, 109, 400, 140
-0.996864, 145, 241, 208, 368
-0.99693, 161, 17, 288, 48
-0.996931, 225, 169, 240, 232
-0.99694, 257, 141, 384, 172
-0.99695, 295, 161, 310, 224
-0.996965, 291, 185, 306, 248
-0.996967, 255, 313, 270, 344
-0.996971, 297, 297, 360, 360
-0.996996, 81, 1, 208, 32
-0.997023, 145, 237, 272, 268
-0.997029, 33, 133, 160, 164
-0.997077, 423, 297, 438, 360
-0.997088, 193, 61, 320, 92
-0.997091, 201, 25, 216, 88
-0.997092, 1, 113, 500, 176
-0.997099, 419, 305, 434, 336
-0.997108, 217, 25, 232, 88
-0.997111, 79, 113, 94, 176
-0.997114, 145, 321, 272, 352
-0.997122, 73, 81, 136, 144
-0.997132, 257, 57, 288, 120
-0.997135, 193, 241, 320, 272
-0.99715, 81, 21, 208, 52
-0.997161, 91, 105, 106, 168
-0.997172, 205, 1, 236, 256
-0.997175, 97, 137, 160, 200
-0.997186, 1, 81, 500, 144
-0.997188, 233, 49, 248, 112
-0.997216, 263, 289, 278, 352
-0.997218, 305, 129, 432, 192
-0.997236, 161, 1, 176, 64
-0.997248, 247, 193, 262, 256
-0.997264, 33, 257, 160, 320
-0.997275, 287, 129, 302, 192
-0.997276, 65, 217, 320, 280
-0.997278, 337, 309, 464, 340
-0.997281, 229, 129, 260, 375
-0.997289, 251, 177, 266, 208
-0.997292, 221, 145, 236, 208
-0.997305, 273, 89, 400, 120
-0.997324, 225, 225, 240, 288
-0.997341, 283, 241, 298, 304
-0.997358, 241, 309, 368, 340
-0.997365, 401, 241, 464, 368
-0.997365, 285, 33, 316, 288
-0.99737, 231, 81, 246, 144
-0.997374, 241, 25, 368, 88
-0.997376, 313, 57, 376, 120
-0.99738, 253, 129, 284, 375
-0.997386, 1, 1, 64, 256
-0.997386, 221, 201, 252, 264
-0.9974, 245, 241, 276, 304
-0.997401, 233, 1, 248, 64
-0.997423, 297, 185, 312, 248
-0.997429, 145, 345, 272, 375
-0.997429, 223, 97, 238, 160
-0.997439, 279, 121, 294, 184
-0.997446, 205, 121, 236, 184
-0.997463, 295, 121, 310, 184
-0.997497, 253, 129, 284, 192
-0.997504, 261, 217, 276, 280
-0.997507, 97, 97, 128, 160
-0.997513, 241, 25, 272, 88
-0.997519, 245, 305, 260, 368
-0.997539, 245, 49, 260, 112
-0.997542, 277, 241, 292, 304
-0.997574, 231, 161, 246, 192
-0.997587, 251, 221, 266, 252
-0.997591, 261, 313, 276, 344
-0.997595, 241, 217, 368, 248
-0.997616, 195, 25, 210, 88
-0.997621, 165, 73, 196, 136
-0.997621, 259, 225, 274, 256
-0.997625, 1, 161, 500, 224
-0.997651, 105, 313, 168, 375
-0.997657, 255, 289, 270, 352
-0.997663, 57, 97, 88, 160
-0.997667, 73, 257, 136, 320
-0.997668, 273, 177, 288, 208
-0.997668, 193, 1, 224, 256
-0.997672, 277, 129, 308, 375
-0.997681, 271, 225, 286, 288
-0.997708, 57, 1, 120, 375
-0.997728, 277, 313, 308, 375
-0.99775, 1, 17, 500, 80
-0.997753, 217, 33, 248, 288
-0.997755, 219, 225, 234, 288
-0.997764, 413, 301, 428, 332
-0.99777, 241, 189, 368, 220
-0.99778, 305, 201, 432, 264
-0.997787, 41, 17, 72, 80
-0.997789, 209, 97, 224, 160
-0.997792, 237, 225, 252, 288
-0.997803, 241, 273, 368, 304
-0.997806, 193, 333, 320, 364
-0.997821, 193, 49, 320, 80
-0.997848, 73, 17, 136, 144
-0.99785, 33, 21, 160, 52
-0.997851, 171, 29, 186, 60
-0.997856, 247, 217, 262, 280
-0.997859, 313, 49, 344, 176
-0.997861, 81, 97, 208, 128
-0.997865, 249, 313, 264, 344
-0.997872, 285, 265, 300, 296
-0.997877, 267, 317, 282, 348
-0.997878, 337, 81, 368, 144
-0.997891, 1, 129, 64, 375
-0.997892, 231, 173, 246, 204
-0.997893, 259, 325, 274, 356
-0.997905, 161, 309, 288, 340
-0.997919, 297, 193, 328, 256
-0.997932, 267, 229, 282, 260
-0.997935, 231, 225, 246, 288
-0.997935, 189, 25, 204, 88
-0.997939, 329, 105, 392, 168
-0.997956, 419, 273, 434, 336
-0.99798, 239, 153, 254, 184
-0.997989, 289, 233, 416, 296
-0.998, 81, 117, 96, 148
-0.998009, 411, 273, 426, 336
-0.998028, 241, 229, 368, 260
-0.998038, 1, 105, 128, 136
-0.998053, 1, 177, 64, 304
-0.998058, 291, 265, 306, 328
-0.998058, 249, 33, 312, 96
-0.99806, 245, 229, 260, 260
-0.998066, 169, 161, 200, 288
-0.998071, 161, 97, 192, 224
-0.998071, 163, 97, 178, 160
-0.998086, 239, 181, 254, 212
-0.998088, 297, 65, 328, 320
-0.998094, 237, 313, 252, 375
-0.998095, 193, 29, 320, 60
-0.998096, 291, 269, 306, 300
-0.998104, 251, 189, 266, 220
-0.998106, 197, 169, 228, 232
-0.998117, 239, 57, 254, 120
-0.998125, 169, 121, 200, 184
-0.998128, 263, 181, 278, 212
-0.998139, 273, 77, 400, 108
-0.998142, 97, 193, 352, 256
-0.998148, 183, 25, 198, 88
-0.99815, 81, 133, 208, 164
-0.998152, 289, 241, 304, 304
-0.99816, 223, 121, 238, 184
-0.998165, 223, 25, 238, 88
-0.998167, 297, 81, 312, 144
-0.998168, 269, 189, 284, 220
-0.998181, 213, 233, 228, 296
-0.998188, 201, 97, 216, 160
-0.998195, 289, 89, 304, 152
-0.998207, 161, 25, 176, 88
-0.998209, 241, 81, 256, 144
-0.99821, 277, 281, 292, 344
-0.998218, 233, 241, 264, 368
-0.998225, 321, 65, 384, 320
-0.998236, 177, 25, 192, 88
-0.998238, 257, 177, 272, 208
-0.998241, 285, 177, 300, 208
-0.998252, 301, 113, 316, 176
-0.998257, 313, 185, 376, 248
-0.998259, 209, 345, 336, 375
-0.998269, 99, 105, 114, 168
-0.998279, 85, 89, 100, 152
-0.998279, 277, 1, 308, 128
-0.998283, 271, 289, 286, 352
-0.998286, 265, 129, 296, 375
-0.998288, 257, 241, 272, 304
-0.998288, 209, 9, 240, 24
-0.998288, 245, 165, 276, 180
-0.998288, 217, 137, 248, 152
-0.998289, 305, 297, 432, 328
-0.998289, 149, 55, 180, 70
-0.99829, 209, 153, 240, 168
-0.998291, 417, 301, 448, 316
-0.998291, 189, 245, 220, 260
-0.998291, 225, 107, 256, 122
-0.998291, 149, 41, 180, 56
-0.998291, 221, 105, 236, 136
-0.998292, 289, 273, 320, 288
-0.998293, 197, 117, 228, 132
-0.998295, 229, 361, 260, 375
-0.998296, 149, 47, 180, 62
-0.998297, 185, 7, 216, 22
-0.998297, 225, 97, 256, 112
-0.998298, 213, 47, 244, 62
-0.998298, 177, 243, 208, 258
-0.998299, 225, 67, 256, 82
-0.998299, 209, 93, 240, 108
-0.998299, 273, 159, 304, 174
-0.9983, 285, 247, 316, 262
-0.998301, 229, 231, 260, 246
-0.998302, 77, 137, 108, 152
-0.998303, 421, 313, 452, 328
-0.998303, 213, 87, 244, 102
-0.998304, 257, 243, 288, 258
-0.998304, 231, 185, 246, 216
-0.998304, 291, 173, 306, 204
-0.998304, 281, 279, 312, 294
-0.998306, 221, 119, 252, 134
-0.998306, 197, 9, 228, 24
-0.998307, 217, 143, 248, 158
-0.998308, 245, 181, 260, 212
-0.998309, 405, 301, 436, 316
-0.99831, 205, 23, 236, 38
-0.998311, 277, 129, 308, 144
-0.998311, 209, 99, 240, 114
-0.998312, 225, 91, 256, 106
-0.998313, 229, 143, 260, 158
-0.998314, 269, 239, 300, 254
-0.998314, 225, 23, 256, 38
-0.998317, 225, 321, 256, 336
-0.998318, 157, 31, 188, 46
-0.99832, 145, 345, 176, 360
-0.99832, 171, 97, 186, 160
-0.998321, 253, 233, 268, 264
-0.998322, 231, 125, 246, 156
-0.998322, 225, 85, 256, 100
-0.998322, 87, 121, 102, 152
-0.998323, 247, 153, 262, 184
-0.998325, 225, 79, 256, 94
-0.998325, 409, 319, 440, 334
-0.998327, 225, 73, 256, 88
-0.998327, 193, 179, 224, 194
-0.998328, 245, 241, 276, 256
-0.998329, 241, 147, 272, 162
-0.998329, 261, 317, 292, 332
-0.99833, 169, 111, 200, 126
-0.99833, 149, 25, 180, 40
-0.998331, 181, 23, 212, 38
-0.998332, 253, 147, 284, 162
-0.998333, 61, 113, 92, 128
-0.998333, 261, 361, 292, 375
-0.998336, 221, 11, 252, 26
-0.998336, 209, 105, 224, 136
-0.998338, 223, 173, 238, 204
-0.998338, 237, 225, 268, 240
-0.998338, 201, 243, 232, 258
-0.998338, 93, 133, 124, 148
-0.998341, 105, 113, 136, 128
-0.998341, 213, 185, 244, 200
-0.998341, 213, 167, 244, 182
-0.998344, 265, 353, 296, 368
-0.998348, 197, 105, 228, 120
-0.998349, 249, 355, 280, 370
-0.998349, 253, 125, 284, 140
-0.99835, 269, 329, 300, 344
-0.998351, 241, 171, 272, 186
-0.998352, 257, 171, 288, 186
-0.998355, 241, 153, 272, 168
-0.998355, 279, 313, 294, 375
-0.998357, 269, 153, 300, 168
-0.998359, 285, 171, 316, 186
-0.998359, 301, 161, 316, 224
-0.99836, 225, 161, 256, 176
-0.99836, 209, 159, 240, 174
-0.998364, 225, 149, 256, 164
-0.998364, 217, 125, 248, 140
-0.998365, 169, 23, 200, 38
-0.998366, 193, 269, 320, 300
-0.998366, 233, 239, 264, 254
-0.998368, 217, 81, 232, 144
-0.99837, 193, 33, 224, 48
-0.998371, 181, 33, 212, 48
-0.998371, 193, 253, 320, 284
-0.998376, 193, 25, 224, 40
-0.998377, 241, 233, 272, 248
-0.998378, 233, 355, 264, 370
-0.998378, 205, 29, 236, 44
-0.998381, 161, 57, 176, 120
-0.998381, 245, 193, 276, 208
-0.998383, 145, 129, 208, 375
-0.998384, 65, 119, 96, 134
-0.998387, 229, 155, 260, 170
-0.998388, 281, 189, 312, 204
-0.998388, 229, 127, 260, 142
-0.998388, 417, 307, 448, 322
-0.99839, 221, 237, 252, 252
-0.998398, 89, 119, 120, 134
-0.998398, 207, 29, 222, 60
-0.9984, 197, 105, 212, 136
-0.998402, 205, 177, 236, 192
-0.998404, 209, 117, 240, 132
-0.998404, 249, 327, 280, 342
-0.998406, 185, 109, 216, 124
-0.99841, 281, 177, 312, 192
-0.99841, 289, 257, 416, 320
-0.998412, 329, 1, 392, 375
-0.998413, 241, 177, 272, 192
-0.998415, 269, 57, 300, 120
-0.998415, 233, 191, 264, 206
-0.998417, 237, 319, 268, 334
-0.998418, 283, 81, 298, 144
-0.998419, 231, 313, 246, 375
-0.998423, 285, 183, 316, 198
-0.998425, 181, 1, 212, 256
-0.998429, 77, 121, 108, 136
-0.998429, 233, 185, 296, 200
-0.998429, 409, 313, 440, 328
-0.998429, 201, 217, 216, 280
-0.998432, 257, 237, 288, 252
-0.998435, 81, 131, 112, 146
-0.998435, 273, 233, 288, 264
-0.99844, 195, 97, 210, 160
-0.99844, 225, 167, 256, 182
-0.998442, 141, 17, 156, 80
-0.998443, 241, 177, 304, 192
-0.998445, 99, 121, 114, 152
-0.998446, 263, 193, 278, 224
-0.998447, 279, 237, 294, 268
-0.998447, 145, 225, 272, 256
-0.998451, 209, 105, 240, 120
-0.998452, 201, 175, 264, 190
-0.998453, 85, 113, 116, 128
-0.998454, 171, 17, 186, 48
-0.998454, 207, 233, 222, 296
-0.998455, 225, 233, 240, 264
-0.998456, 257, 191, 288, 206
-0.998456, 287, 157, 302, 188
-0.998459, 249, 225, 280, 240
-0.99846, 239, 237, 254, 268
-0.998462, 185, 177, 216, 240
-0.998463, 169, 33, 200, 48
-0.998465, 277, 271, 308, 286
-0.998468, 225, 185, 256, 200
-0.998472, 253, 231, 284, 246
-0.998475, 75, 89, 90, 152
-0.998475, 261, 65, 276, 128
-0.998477, 217, 173, 248, 188
-0.998478, 409, 1, 472, 375
-0.99848, 279, 265, 294, 296
-0.998485, 269, 191, 300, 206
-0.998488, 129, 333, 256, 364
-0.998489, 177, 111, 240, 126
-0.99849, 233, 149, 248, 180
-0.998492, 17, 233, 144, 296
-0.998493, 285, 273, 300, 336
-0.998495, 161, 33, 224, 48
-0.998495, 241, 191, 304, 206
-0.998496, 233, 241, 264, 304
-0.998498, 219, 237, 234, 268
-0.998504, 253, 177, 284, 192
-0.998504, 243, 317, 258, 348
-0.998509, 93, 117, 108, 148
-0.998511, 261, 323, 292, 338
-0.998514, 303, 185, 318, 248
-0.998514, 181, 29, 196, 60
-0.998515, 209, 185, 272, 200
-0.998517, 335, 89, 350, 152
-0.998518, 257, 193, 272, 224
-0.998518, 425, 309, 440, 340
-0.998522, 217, 25, 232, 56
-0.998522, 209, 237, 272, 252
-0.998525, 209, 111, 240, 126
-0.998531, 223, 73, 238, 136
-0.998532, 197, 111, 228, 126
-0.998533, 265, 185, 328, 200
-0.998539, 25, 249, 88, 312
-0.998544, 225, 319, 288, 334
-0.998545, 225, 229, 288, 244
-0.998545, 269, 179, 300, 194
-0.998545, 217, 179, 248, 194
-0.998545, 131, 17, 146, 80
-0.998545, 97, 265, 352, 328
-0.998546, 245, 217, 260, 248
-0.998547, 377, 307, 440, 322
-0.998551, 241, 361, 304, 375
-0.998553, 293, 225, 324, 288
-0.998554, 265, 179, 328, 194
-0.99856, 185, 105, 248, 120
-0.998561, 217, 153, 280, 168
-0.998562, 201, 169, 264, 184
-0.998564, 191, 105, 206, 136
-0.998565, 171, 73, 186, 136
-0.998567, 177, 179, 240, 194
-0.998568, 193, 313, 224, 375
-0.998568, 233, 233, 248, 264
-0.998569, 421, 293, 436, 324
-0.998569, 249, 317, 280, 332
-0.998571, 241, 171, 304, 186
-0.998571, 209, 17, 336, 48
-0.998573, 241, 151, 304, 166
-0.998576, 185, 117, 248, 132
-0.998576, 217, 129, 280, 144
-0.998578, 275, 189, 290, 220
-0.998579, 287, 189, 302, 220
-0.998579, 201, 33, 216, 64
-0.998582, 263, 241, 278, 304
-0.998584, 217, 147, 280, 162
-0.998585, 285, 253, 300, 284
-0.998585, 161, 23, 224, 38
-0.998587, 189, 21, 204, 52
-0.998589, 225, 205, 352, 236
-0.998592, 249, 185, 280, 200
-0.998595, 409, 299, 472, 314
-0.998598, 137, 31, 200, 46
-0.998601, 237, 185, 268, 200
-0.998604, 217, 361, 280, 375
-0.998605, 405, 307, 436, 322
-0.998605, 265, 191, 328, 206
-0.998606, 229, 179, 260, 194
-0.998606, 401, 311, 464, 326
-0.998607, 217, 141, 280, 156
-0.998607, 201, 29, 264, 44
-0.998608, 233, 235, 296, 250
-0.998612, 271, 57, 286, 120
-0.998613, 217, 121, 280, 136
-0.998615, 217, 159, 280, 174
-0.998619, 401, 305, 464, 320
-0.998624, 203, 105, 218, 136
-0.998625, 269, 185, 300, 200
-0.998626, 257, 321, 384, 352
-0.998626, 249, 271, 312, 286
-0.998627, 185, 99, 248, 114
-0.998627, 201, 77, 264, 92
-0.998627, 241, 145, 304, 160
-0.998628, 217, 355, 280, 370
-0.998628, 249, 361, 280, 375
-0.998629, 201, 67, 264, 82
-0.99863, 217, 135, 280, 150
-0.99863, 241, 243, 304, 258
-0.998631, 193, 11, 256, 26
-0.998632, 201, 321, 264, 336
-0.998632, 241, 131, 304, 146
-0.998633, 293, 189, 308, 220
-0.998634, 137, 23, 200, 38
-0.998634, 309, 113, 340, 240
-0.998634, 251, 325, 266, 356
-0.998635, 177, 173, 240, 188
-0.998635, 201, 83, 264, 98
-0.998638, 215, 9, 230, 40
-0.998639, 185, 243, 248, 258
-0.998639, 249, 321, 312, 336
-0.998639, 201, 61, 264, 76
-0.998639, 209, 107, 272, 122
-0.99864, 97, 117, 160, 132
-0.998641, 217, 249, 248, 312
-0.998641, 225, 313, 240, 375
-0.998642, 377, 313, 440, 328
-0.998644, 185, 91, 248, 106
-0.998644, 153, 111, 216, 126
-0.998645, 97, 133, 112, 164
-0.998645, 213, 241, 228, 272
-0.998646, 247, 81, 262, 144
-0.998646, 201, 53, 264, 68
-0.998649, 97, 129, 112, 192
-0.998649, 129, 109, 192, 124
-0.99865, 65, 113, 128, 128
-0.998652, 205, 241, 220, 272
-0.998652, 193, 359, 256, 374
-0.998653, 265, 173, 328, 188
-0.998653, 209, 191, 272, 206
-0.998653, 195, 33, 210, 64
-0.998654, 161, 105, 224, 120
-0.998654, 161, 1, 176, 32
-0.998654, 185, 123, 248, 138
-0.998654, 233, 327, 296, 342
-0.998655, 249, 157, 312, 172
-0.998656, 229, 173, 260, 188
-0.998656, 249, 227, 312, 242
-0.998658, 201, 45, 264, 60
-0.998658, 257, 345, 384, 375
-0.998658, 65, 121, 128, 136
-0.998658, 241, 139, 304, 154
-0.998659, 249, 125, 312, 140
-0.998659, 193, 23, 256, 38
-0.99866, 209, 223, 272, 238
-0.998662, 217, 89, 280, 104
-0.998663, 153, 1, 168, 32
-0.998664, 201, 39, 264, 54
-0.998664, 199, 17, 214, 48
-0.998665, 289, 119, 352, 134
-0.998667, 169, 7, 232, 22
-0.998667, 145, 213, 272, 244
-0.998668, 273, 121, 288, 184
-0.998668, 75, 121, 90, 152
-0.998669, 217, 95, 280, 110
-0.998669, 217, 115, 280, 130
-0.99867, 185, 159, 248, 174
-0.998671, 185, 151, 248, 166
-0.998673, 167, 1, 182, 32
-0.998674, 267, 169, 282, 200
-0.998674, 297, 105, 360, 120
-0.998675, 87, 109, 102, 140
-0.998676, 211, 153, 226, 216
-0.998678, 293, 265, 324, 328
-0.998679, 273, 129, 336, 144
-0.998679, 241, 355, 304, 370
-0.998681, 225, 9, 240, 40
-0.998681, 241, 165, 304, 180
-0.998681, 225, 79, 288, 94
-0.998683, 201, 17, 264, 32
-0.998684, 289, 99, 352, 114
-0.998685, 289, 185, 352, 200
-0.998685, 177, 17, 192, 48
-0.998685, 257, 237, 320, 252
-0.998686, 279, 165, 294, 196
-0.998686, 177, 165, 240, 180
-0.998687, 265, 143, 328, 158
-0.998688, 249, 221, 312, 236
-0.998689, 89, 131, 152, 146
-0.99869, 233, 9, 248, 40
-0.998691, 209, 327, 272, 342
-0.998692, 245, 125, 260, 156
-0.998692, 205, 5, 220, 36
-0.998693, 225, 73, 288, 88
-0.998693, 265, 167, 328, 182
-0.998693, 321, 85, 448, 116
-0.998693, 33, 119, 96, 134
-0.998694, 289, 113, 352, 128
-0.998694, 257, 279, 320, 294
-0.998694, 235, 25, 250, 88
-0.998695, 121, 1, 184, 16
-0.998695, 193, 145, 256, 160
-0.998696, 253, 73, 268, 136
-0.998696, 41, 129, 104, 144
-0.998697, 97, 111, 160, 126
-0.998697, 249, 315, 312, 330
-0.998699, 113, 21, 176, 36
-0.998701, 265, 149, 328, 164
-0.998701, 65, 133, 128, 148
-0.998701, 257, 335, 320, 350
-0.998702, 273, 321, 288, 352
-0.998702, 225, 347, 288, 362
-0.998702, 193, 129, 256, 144
-0.998702, 209, 101, 272, 116
-0.998703, 281, 157, 344, 172
-0.998704, 145, 5, 208, 20
-0.998704, 245, 25, 260, 88
-0.998705, 281, 93, 344, 108
-0.998706, 185, 353, 248, 368
-0.998707, 41, 113, 104, 128
-0.998708, 145, 325, 208, 340
-0.998708, 65, 127, 128, 142
-0.998708, 177, 137, 240, 152
-0.99871, 161, 17, 224, 32
-0.99871, 265, 135, 328, 150
-0.998711, 209, 243, 272, 258
-0.998711, 271, 81, 286, 144
-0.998711, 377, 301, 440, 316
-0.998711, 129, 123, 192, 138
-0.998711, 225, 185, 240, 216
-0.998712, 225, 67, 288, 82
-0.998712, 117, 1, 148, 256
-0.998713, 129, 129, 192, 144
-0.998713, 289, 163, 352, 178
-0.998713, 185, 97, 200, 160
-0.998714, 233, 249, 296, 264
-0.998718, 321, 101, 448, 132
-0.998721, 151, 313, 166, 375
-0.998724, 105, 97, 120, 160
-0.998735, 209, 17, 224, 48
-0.998735, 273, 261, 400, 292
-0.998744, 261, 345, 276, 375
-0.998745, 233, 73, 248, 104
-0.998747, 291, 253, 306, 284
-0.998748, 257, 81, 288, 144
-0.998751, 245, 193, 260, 224
-0.998755, 449, 293, 464, 324
-0.998757, 151, 341, 166, 372
-0.998757, 353, 49, 480, 112
-0.998758, 81, 57, 208, 88
-0.998762, 97, 345, 224, 375
-0.998763, 147, 1, 162, 32
-0.998768, 353, 73, 480, 136
-0.998769, 105, 117, 120, 148
-0.998771, 189, 33, 204, 64
-0.998777, 297, 269, 312, 300
-0.998779, 279, 161, 294, 288
-0.998782, 221, 117, 236, 148
-0.998782, 193, 161, 224, 288
-0.998786, 213, 129, 244, 375
-0.99879, 231, 137, 246, 168
-0.998798, 97, 129, 160, 256
-0.998801, 207, 173, 222, 204
-0.998805, 277, 153, 292, 184
-0.998805, 183, 17, 198, 48
-0.998809, 353, 17, 480, 80
-0.998812, 81, 41, 208, 72
-0.998817, 73, 137, 136, 200
-0.998818, 243, 137, 258, 168
-0.998826, 193, 241, 208, 272
-0.998828, 105, 177, 168, 304
-0.998833, 215, 173, 230, 204
-0.998833, 289, 25, 416, 88
-0.998834, 233, 113, 248, 240
-0.998837, 231, 113, 246, 144
-0.998845, 267, 337, 282, 368
-0.99885, 233, 1, 248, 128
-0.998852, 211, 117, 226, 148
-0.998859, 415, 317, 430, 348
-0.998859, 239, 225, 254, 256
-0.99886, 215, 325, 230, 356
-0.99886, 233, 61, 248, 92
-0.998862, 1, 173, 128, 204
-0.998862, 199, 5, 214, 36
-0.998862, 277, 141, 292, 172
-0.998866, 97, 161, 224, 192
-0.998872, 221, 145, 236, 176
-0.998879, 245, 241, 260, 272
-0.99888, 99, 109, 114, 140
-0.998881, 289, 177, 416, 208
-0.998881, 309, 209, 340, 336
-0.998885, 425, 81, 488, 144
-0.998892, 267, 305, 282, 336
-0.998897, 241, 345, 256, 375
-0.998898, 225, 241, 480, 304
-0.998899, 247, 165, 262, 196
-0.9989, 237, 125, 252, 156
-0.998901, 81, 69, 208, 100
-0.998907, 221, 161, 236, 192
-0.998909, 199, 241, 214, 272
-0.998909, 259, 237, 274, 268
-0.99891, 239, 145, 254, 272
-0.998911, 193, 217, 320, 248
-0.998912, 209, 325, 224, 356
-0.998912, 265, 217, 280, 248
-0.998915, 75, 109, 90, 140
-0.99892, 265, 161, 280, 288
-0.998927, 1, 169, 256, 232
-0.998937, 209, 5, 336, 36
-0.99895, 291, 113, 306, 240
-0.998956, 137, 257, 200, 320
-0.99896, 157, 1, 188, 256
-0.99897, 269, 257, 300, 320
-0.998975, 273, 161, 288, 288
-0.998988, 285, 113, 300, 240
-0.999014, 97, 321, 224, 352
-0.99902, 241, 297, 368, 328
-0.99903, 321, 73, 448, 104
-0.999047, 243, 97, 258, 224
-0.999049, 291, 177, 306, 304
-0.999063, 171, 1, 186, 128
-0.999068, 289, 189, 416, 220
-0.999073, 233, 65, 248, 192
-0.999078, 165, 49, 196, 112
-0.99908, 259, 161, 274, 288
-0.999082, 285, 161, 300, 288
-0.999083, 229, 161, 244, 288
-0.999083, 49, 313, 176, 375
-0.999092, 285, 57, 316, 120
-0.999124, 65, 217, 192, 280
-0.999126, 145, 253, 272, 284
-0.999127, 273, 201, 400, 232
-0.999135, 309, 161, 340, 288
-0.999141, 251, 113, 266, 240
-0.999142, 273, 65, 400, 96
-0.999148, 297, 113, 312, 240
-0.99915, 1, 241, 256, 304
-0.999153, 1, 57, 500, 120
-0.999163, 309, 65, 340, 320
-0.999165, 105, 17, 136, 80
-0.999167, 227, 97, 242, 224
-0.999179, 297, 145, 328, 208
-0.999183, 321, 113, 448, 144
-0.999186, 279, 113, 294, 240
-0.99919, 153, 105, 184, 168
-0.99919, 245, 161, 260, 288
-0.99919, 253, 161, 268, 288
-0.999202, 97, 249, 224, 280
-0.999204, 273, 113, 288, 240
-0.999217, 85, 97, 100, 224
-0.999218, 113, 309, 240, 340
-0.99924, 109, 97, 140, 160
-0.99924, 33, 89, 160, 120
-0.99924, 265, 113, 280, 240
-0.999243, 305, 73, 336, 136
-0.999252, 393, 305, 424, 368
-0.999255, 361, 241, 424, 368
-0.999256, 121, 97, 152, 160
-0.999263, 195, 1, 210, 128
-0.999263, 329, 65, 360, 192
-0.999278, 105, 177, 168, 240
-0.999279, 243, 49, 258, 176
-0.999285, 1, 53, 128, 84
-0.999288, 33, 289, 288, 352
-0.999295, 221, 1, 236, 128
-0.999298, 207, 1, 222, 128
-0.999301, 141, 1, 172, 256
-0.999302, 289, 65, 304, 192
-0.999305, 97, 185, 224, 216
-0.999305, 17, 257, 144, 288
-0.999307, 197, 73, 228, 136
-0.999335, 33, 9, 160, 40
-0.999339, 1, 41, 128, 72
-0.999339, 129, 1, 160, 256
-0.99934, 189, 1, 204, 128
-0.999348, 283, 241, 298, 368
-0.999353, 209, 313, 240, 375
-0.999361, 295, 65, 310, 192
-0.999362, 197, 49, 228, 112
-0.999363, 201, 1, 216, 128
-0.999368, 281, 65, 296, 192
-0.99937, 239, 1, 254, 128
-0.999371, 227, 1, 242, 128
-0.999375, 45, 1, 76, 256
-0.999377, 369, 105, 496, 168
-0.999384, 241, 333, 368, 364
-0.999398, 141, 1, 156, 128
-0.999406, 305, 129, 432, 160
-0.999413, 81, 81, 208, 112
-0.999415, 221, 97, 236, 224
-0.999417, 297, 161, 312, 288
-0.999419, 257, 113, 272, 240
-0.999419, 181, 161, 212, 288
-0.999419, 91, 97, 106, 224
-0.999433, 79, 97, 94, 224
-0.999436, 33, 185, 160, 216
-0.999437, 1, 65, 128, 96
-0.999441, 97, 289, 224, 352
-0.999441, 303, 113, 318, 240
-0.999447, 269, 49, 284, 176
-0.999449, 217, 225, 248, 352
-0.999456, 33, 161, 160, 192
-0.999458, 257, 49, 272, 176
-0.999464, 81, 145, 208, 176
-0.999473, 269, 241, 284, 368
-0.999475, 275, 65, 290, 192
-0.999479, 249, 65, 264, 192
-0.999481, 223, 161, 238, 288
-0.999486, 183, 17, 198, 144
-0.999494, 263, 49, 278, 176
-0.999497, 301, 49, 316, 176
-0.999498, 33, 77, 160, 108
-0.9995, 97, 237, 224, 268
-0.999507, 231, 149, 246, 164
-0.999508, 243, 147, 258, 162
-0.999508, 177, 111, 192, 126
-0.999508, 201, 33, 216, 48
-0.999508, 289, 253, 304, 268
-0.999509, 187, 25, 202, 40
-0.999511, 235, 11, 250, 26
-0.999511, 237, 237, 252, 252
-0.999511, 97, 97, 112, 224
-0.999512, 257, 243, 272, 258
-0.999512, 293, 193, 308, 208
-0.999513, 221, 173, 236, 188
-0.999514, 217, 23, 232, 38
-0.999514, 241, 319, 256, 334
-0.999514, 263, 237, 278, 252
-0.999516, 177, 31, 192, 46
-0.999517, 253, 327, 268, 342
-0.999518, 215, 177, 230, 192
-0.999518, 321, 57, 448, 88
-0.999519, 207, 33, 222, 48
-0.999519, 249, 361, 264, 375
-0.99952, 93, 111, 108, 126
-0.999521, 109, 113, 124, 128
-0.999521, 93, 119, 108, 134
-0.999522, 221, 117, 236, 132
-0.999522, 275, 271, 290, 286
-0.999522, 257, 177, 272, 192
-0.999522, 269, 153, 284, 168
-0.999523, 241, 153, 256, 168
-0.999523, 275, 153, 290, 168
-0.999524, 209, 27, 224, 42
-0.999525, 81, 1, 112, 256
-0.999526, 241, 53, 368, 84
-0.999528, 281, 241, 296, 256
-0.999528, 203, 105, 218, 120
-0.999529, 277, 225, 292, 352
-0.99953, 285, 275, 300, 290
-0.99953, 407, 307, 422, 322
-0.99953, 171, 23, 186, 38
-0.999532, 247, 223, 262, 238
-0.999532, 337, 321, 464, 352
-0.999532, 231, 155, 246, 170
-0.999532, 171, 111, 186, 126
-0.999533, 245, 231, 260, 246
-0.999533, 195, 33, 210, 48
-0.999533, 243, 127, 258, 142
-0.999534, 289, 175, 304, 190
-0.999535, 449, 295, 464, 310
-0.999535, 183, 33, 198, 48
-0.999537, 243, 357, 258, 372
-0.999538, 101, 1, 132, 256
-0.999539, 91, 135, 106, 150
-0.99954, 189, 109, 204, 124
-0.999541, 215, 1, 230, 128
-0.999542, 193, 25, 208, 40
-0.999543, 87, 49, 102, 176
-0.999544, 99, 113, 114, 128
-0.999544, 97, 261, 224, 292
-0.999544, 75, 113, 90, 128
-0.999545, 217, 29, 232, 44
-0.999545, 257, 235, 272, 250
-0.999548, 263, 241, 278, 368
-0.999548, 245, 1, 260, 128
-0.999551, 443, 295, 458, 310
-0.999551, 221, 105, 236, 120
-0.999553, 199, 25, 214, 40
-0.999554, 291, 279, 306, 294
-0.999555, 245, 191, 260, 206
-0.999555, 289, 187, 304, 202
-0.999555, 209, 105, 224, 120
-0.999556, 285, 247, 300, 262
-0.999557, 81, 135, 96, 150
-0.999558, 209, 179, 224, 194
-0.999558, 189, 33, 204, 48
-0.999558, 231, 125, 246, 140
-0.999559, 263, 355, 278, 370
-0.999559, 257, 241, 272, 368
-0.999559, 273, 235, 288, 250
-0.999561, 131, 1, 146, 128
-0.999562, 251, 233, 266, 248
-0.999564, 257, 193, 272, 208
-0.999565, 85, 113, 100, 128
-0.999566, 413, 313, 428, 328
-0.999566, 177, 17, 192, 144
-0.999566, 271, 355, 286, 370
-0.999567, 245, 167, 260, 182
-0.999568, 245, 239, 260, 254
-0.999569, 225, 185, 240, 200
-0.999571, 99, 121, 114, 136
-0.999574, 251, 241, 266, 256
-0.999575, 265, 325, 280, 340
-0.999576, 259, 329, 274, 344
-0.999577, 223, 49, 238, 176
-0.999579, 251, 191, 266, 206
-0.999581, 269, 179, 284, 194
-0.999583, 215, 111, 230, 126
-0.999584, 271, 321, 286, 336
-0.999584, 241, 179, 256, 194
-0.999584, 221, 179, 236, 194
-0.999585, 239, 165, 254, 180
-0.999588, 165, 17, 180, 144
-0.999589, 89, 129, 104, 144
-0.999593, 231, 165, 246, 180
-0.999593, 421, 315, 436, 330
-0.999593, 247, 317, 262, 332
-0.999594, 221, 111, 236, 126
-0.999595, 289, 181, 304, 196
-0.999595, 229, 171, 244, 186
-0.999595, 231, 189, 246, 204
-0.999597, 195, 109, 210, 124
-0.999597, 77, 119, 92, 134
-0.999598, 419, 301, 434, 316
-0.999599, 283, 269, 298, 284
-0.9996, 263, 193, 278, 208
-0.999603, 293, 273, 308, 288
-0.999606, 163, 81, 178, 208
-0.999608, 247, 185, 262, 200
-0.999609, 305, 161, 432, 192
-0.999609, 99, 131, 114, 146
-0.99961, 231, 183, 246, 198
-0.999611, 275, 189, 290, 204
-0.999612, 251, 17, 266, 144
-0.999613, 259, 323, 274, 338
-0.999615, 251, 177, 266, 192
-0.999617, 261, 227, 276, 242
-0.999622, 275, 17, 290, 144
-0.999622, 241, 245, 368, 276
-0.999625, 269, 193, 284, 208
-0.999626, 283, 189, 298, 204
-0.999626, 83, 119, 98, 134
-0.999627, 267, 231, 282, 246
-0.999629, 263, 1, 278, 128
-0.999629, 425, 309, 440, 324
-0.999629, 283, 17, 298, 144
-0.999633, 261, 187, 276, 202
-0.999636, 307, 49, 322, 176
-0.999638, 81, 125, 96, 140
-0.999639, 253, 223, 268, 238
-0.99964, 171, 31, 186, 46
-0.99964, 303, 161, 318, 288
-0.999648, 203, 111, 218, 126
-0.999654, 173, 225, 204, 288
-0.999656, 239, 185, 254, 200
-0.99966, 261, 361, 276, 375
-0.99966, 33, 149, 160, 180
-0.999661, 45, 1, 60, 128
-0.999662, 103, 97, 118, 224
-0.999666, 291, 17, 306, 144
-0.999667, 257, 1, 272, 128
-0.999667, 245, 173, 260, 188
-0.99967, 269, 1, 284, 128
-0.999688, 209, 111, 224, 126
-0.999689, 255, 361, 270, 375
-0.999689, 329, 105, 360, 168
-0.999693, 253, 185, 268, 200
-0.999696, 251, 241, 266, 368
-0.999706, 265, 319, 280, 334
-0.999708, 279, 183, 294, 198
-0.999713, 145, 265, 272, 328
-0.999714, 413, 305, 428, 320
-0.999716, 17, 273, 144, 304
-0.999716, 215, 161, 230, 288
-0.999721, 289, 225, 304, 352
-0.999721, 49, 345, 176, 375
-0.999723, 1, 137, 500, 200
-0.999724, 231, 177, 246, 192
-0.999729, 257, 315, 272, 330
-0.999733, 125, 1, 140, 128
-0.999733, 257, 1, 384, 64
-0.999734, 309, 97, 324, 224
-0.999738, 41, 153, 104, 216
-0.999739, 205, 177, 236, 304
-0.999742, 93, 49, 108, 176
-0.999749, 269, 185, 284, 200
-0.999756, 105, 225, 168, 288
-0.999757, 311, 193, 326, 320
-0.999763, 321, 305, 384, 368
-0.999768, 211, 81, 226, 208
-0.999769, 69, 1, 100, 256
-0.999772, 17, 245, 144, 276
-0.999772, 209, 161, 224, 288
-0.999775, 219, 209, 234, 336
-0.999775, 415, 241, 430, 368
-0.999778, 337, 73, 400, 136
-0.99978, 119, 1, 134, 128
-0.99978, 97, 121, 128, 184
-0.999782, 147, 1, 162, 128
-0.999782, 75, 49, 90, 176
-0.999783, 313, 33, 328, 160
-0.999785, 171, 49, 186, 176
-0.999785, 321, 45, 448, 76
-0.999786, 239, 171, 254, 186
-0.999789, 189, 161, 204, 288
-0.999791, 1, 313, 500, 375
-0.999792, 201, 161, 216, 288
-0.999803, 321, 285, 448, 316
-0.999803, 169, 97, 184, 224
-0.999809, 289, 1, 320, 128
-0.999813, 419, 307, 434, 322
-0.999815, 195, 161, 210, 288
-0.999824, 257, 41, 384, 72
-0.999829, 309, 145, 324, 272
-0.999831, 39, 97, 54, 224
-0.999833, 369, 1, 432, 375
-0.999834, 59, 1, 74, 128
-0.999834, 433, 289, 496, 352
-0.999838, 245, 241, 260, 368
-0.99984, 227, 241, 242, 368
-0.999841, 279, 177, 294, 192
-0.999842, 159, 17, 174, 144
-0.999844, 421, 241, 436, 368
-0.999846, 65, 173, 192, 204
-0.999846, 211, 241, 226, 368
-0.99985, 179, 161, 194, 288
-0.999855, 289, 305, 320, 368
-0.99986, 113, 1, 128, 128
-0.99986, 235, 193, 250, 320
-0.999861, 81, 49, 96, 176
-0.999861, 305, 209, 320, 336
-0.999863, 169, 161, 184, 288
-0.999863, 107, 1, 122, 128
-0.999867, 99, 49, 114, 176
-0.999869, 345, 65, 360, 192
-0.999869, 169, 169, 200, 232
-0.999877, 65, 1, 80, 128
-0.999881, 335, 65, 350, 192
-0.999881, 53, 1, 68, 128
-0.999886, 297, 1, 312, 128
-0.99989, 155, 241, 170, 368
-0.999896, 319, 49, 334, 176
-0.999897, 321, 225, 336, 352
-0.999898, 315, 97, 330, 224
-0.999899, 369, 17, 496, 144
-0.999902, 3, 97, 18, 224
-0.999902, 35, 17, 50, 144
-0.999904, 193, 281, 320, 312
-0.999908, 217, 49, 232, 176
-0.999912, 197, 241, 212, 368
-0.999913, 149, 313, 180, 375
-0.999913, 409, 241, 424, 368
-0.999913, 161, 297, 288, 328
-0.999915, 299, 209, 314, 336
-0.999917, 205, 209, 220, 336
-0.999917, 25, 97, 56, 224
-0.999919, 303, 1, 318, 128
-0.999922, 353, 29, 480, 60
-0.999925, 75, 1, 90, 128
-0.999926, 329, 97, 344, 224
-0.999958, 309, 185, 340, 248
-0.99996, 65, 333, 192, 364
-0.99996, 281, 249, 344, 312
-0.999966, 289, 217, 416, 248
-0.999973, 65, 309, 192, 340
-0.999978, 305, 149, 432, 180
-0.999979, 101, 17, 132, 144
-0.999996, 161, 97, 192, 352
-1, 149, 97, 180, 352
-1, 317, 65, 348, 128
-1.00002, 57, 1, 88, 256
-1.00002, 81, 273, 208, 304
-1.00005, 1, 281, 128, 344
-1.00006, 93, 9, 124, 72
-1.00006, 33, 41, 96, 104
-1.00006, 145, 193, 272, 224
-1.00007, 153, 137, 184, 200
-1.0001, 289, 229, 416, 260
-1.00011, 1, 241, 500, 304
-1.00011, 369, 113, 496, 144
-1.00015, 313, 153, 376, 216
-1.00015, 45, 97, 76, 160
-1.00018, 433, 1, 496, 375
-1.00019, 405, 241, 436, 368
-1.0002, 337, 177, 464, 240
-1.00021, 17, 209, 144, 272
-1.00021, 305, 193, 432, 320
-1.00028, 321, 97, 352, 352
-1.00029, 425, 57, 488, 120
-1.0003, 125, 161, 156, 288
-1.0003, 161, 241, 192, 304
-1.0003, 333, 97, 364, 352
-1.00032, 197, 97, 228, 352
-1.00033, 29, 129, 60, 375
-1.00034, 133, 241, 164, 304
-1.00034, 205, 225, 236, 352
-1.00034, 89, 1, 120, 128
-1.00037, 49, 281, 176, 344
-1.0004, 321, 1, 352, 256
-1.00041, 61, 1, 92, 128
-1.00041, 149, 113, 180, 240
-1.00041, 341, 65, 372, 192
-1.00042, 41, 129, 72, 375
-1.00046, 61, 49, 92, 176
-1.00047, 137, 97, 168, 352
-1.0005, 25, 1, 56, 256
-1.00052, 33, 177, 96, 240
-1.00053, 169, 145, 200, 208
-1.00053, 317, 113, 348, 176
-1.00054, 181, 97, 212, 352
-1.00055, 389, 281, 420, 344
-1.00057, 401, 97, 464, 160
-1.0006, 429, 297, 460, 360
-1.0006, 1, 265, 256, 328
-1.00064, 121, 97, 152, 352
-1.00065, 437, 1, 468, 256
-1.00067, 425, 241, 456, 368
-1.00067, 321, 17, 384, 144
-1.00072, 337, 257, 464, 320
-1.00073, 353, 129, 480, 192
-1.00073, 1, 129, 32, 375
-1.00074, 97, 129, 128, 375
-1.00077, 129, 289, 384, 352
-1.00078, 369, 281, 496, 344
-1.00078, 345, 65, 376, 320
-1.00078, 1, 225, 128, 352
-1.00079, 337, 153, 464, 216
-1.0008, 73, 185, 136, 248
-1.00082, 9, 1, 40, 256
-1.00082, 1, 185, 64, 248
-1.00085, 429, 97, 460, 352
-1.00087, 313, 145, 376, 272
-1.00087, 157, 161, 188, 288
-1.00091, 69, 129, 100, 375
-1.00092, 333, 1, 364, 256
-1.00092, 425, 1, 456, 256
-1.00094, 17, 129, 48, 375
-1.00094, 425, 81, 488, 208
-1.00096, 141, 241, 172, 368
-1.00097, 305, 1, 432, 64
-1.00099, 85, 129, 116, 375
-1.00101, 425, 33, 488, 96
-1.00104, 357, 65, 388, 320
-1.00105, 177, 289, 240, 352
-1.00107, 1, 273, 500, 336
-1.00107, 109, 129, 140, 375
-1.00108, 53, 129, 84, 375
-1.00108, 173, 113, 204, 240
-1.00111, 1, 313, 256, 375
-1.00111, 1, 185, 500, 248
-1.00114, 137, 49, 168, 176
-1.00118, 449, 97, 480, 352
-1.00119, 169, 257, 232, 320
-1.00121, 1, 193, 256, 256
-1.00125, 189, 241, 220, 368
-1.00125, 461, 65, 492, 320
-1.00128, 65, 233, 128, 296
-1.00128, 313, 209, 376, 272
-1.0013, 33, 177, 96, 304
-1.00132, 449, 1, 480, 256
-1.00132, 369, 65, 400, 320
-1.00132, 113, 241, 176, 368
-1.00138, 413, 1, 444, 256
-1.0014, 65, 193, 192, 320
-1.00141, 385, 1, 416, 256
-1.00142, 425, 105, 488, 168
-1.00143, 33, 273, 96, 336
-1.00143, 417, 97, 448, 352
-1.00144, 329, 129, 392, 192
-1.00147, 397, 129, 428, 375
-1.00151, 305, 33, 368, 96
-1.00151, 137, 201, 200, 264
-1.00158, 33, 225, 96, 288
-1.00161, 137, 97, 168, 224
-1.00161, 381, 97, 412, 352
-1.00162, 401, 1, 432, 256
-1.00163, 153, 65, 216, 192
-1.00165, 33, 129, 96, 375
-1.00165, 169, 241, 200, 368
-1.00165, 105, 81, 136, 208
-1.00165, 81, 177, 144, 304
-1.00166, 157, 241, 188, 368
-1.00172, 9, 177, 40, 304
-1.00178, 21, 17, 52, 144
-1.00179, 353, 97, 480, 224
-1.00184, 1, 217, 500, 280
-1.00188, 93, 65, 124, 192
-1.00189, 33, 177, 64, 304
-1.00193, 77, 1, 108, 128
-1.00194, 89, 241, 152, 368
-1.00199, 321, 193, 352, 320
-1.002, 325, 113, 356, 240
-1.00201, 425, 33, 488, 160
-1.00211, 193, 81, 224, 208
-1.00221, 337, 225, 464, 288
-1.00225, 97, 129, 160, 375
-1.00226, 113, 177, 144, 304
-1.00232, 1, 313, 128, 375
-1.00234, 437, 33, 468, 160
-1.00253, 325, 17, 356, 144
-1.00254, 65, 129, 128, 375
-1.0026, 1, 225, 64, 352
-1.00263, 13, 225, 44, 352
-1.00266, 41, 49, 72, 176
-1.00271, 45, 97, 76, 224
-1.00273, 301, 1, 332, 128
-1.00283, 353, 201, 480, 264
-1.00285, 101, 177, 132, 304
-1.0029, 457, 97, 488, 224
-1.00296, 117, 241, 148, 368
-1.00298, 1, 113, 32, 240
-1.00306, 81, 145, 112, 272
-1.00309, 445, 81, 476, 208
-1.00321, 137, 161, 168, 288
-1.00325, 393, 241, 424, 368
-1.00329, 401, 97, 464, 352
-1.00334, 121, 81, 152, 208
-1.00339, 293, 241, 324, 368
-1.00341, 137, 193, 200, 320
-1.00343, 429, 81, 460, 208
-1.00348, 129, 241, 160, 368
-1.00362, 25, 225, 56, 352
-1.00363, 321, 241, 352, 368
-1.00373, 45, 177, 76, 304
-1.0039, 469, 49, 500, 176
-1.00392, 357, 65, 388, 192
-1.00393, 173, 65, 204, 192
-1.00394, 425, 1, 488, 256
-1.00398, 1, 225, 32, 352
-1.00409, 425, 33, 456, 160
-1.00411, 337, 113, 368, 240
-1.00412, 313, 193, 376, 320
-1.00425, 401, 81, 464, 208
-1.00439, 449, 33, 480, 160
-1.0044, 417, 97, 448, 224
-1.00444, 57, 177, 120, 304
-1.00446, 437, 129, 468, 256
-1.00447, 337, 17, 368, 144
-1.00449, 21, 177, 52, 304
-1.00451, 345, 65, 408, 320
-1.00477, 353, 161, 480, 288
-1.00484, 349, 17, 380, 144
-1.00491, 313, 1, 344, 128
-1.00498, 101, 241, 132, 368
-1.005, 333, 161, 364, 288
-1.00506, 69, 177, 100, 304
-1.00513, 5, 65, 36, 192
-1.00523, 25, 225, 88, 352
-1.00524, 85, 193, 116, 320
-1.00529, 73, 225, 104, 352
-1.00535, 401, 1, 464, 256
-1.00536, 409, 129, 472, 256
-1.0054, 105, 129, 136, 256
-1.00542, 345, 17, 408, 144
-1.00545, 5, 1, 36, 128
-1.00549, 433, 129, 496, 375
-1.00552, 313, 241, 376, 368
-1.00568, 57, 225, 120, 352
-1.00605, 401, 193, 464, 320
-1.00652, 401, 33, 464, 160
-1.00675, 369, 1, 432, 256
-1.00685, 337, 241, 400, 368
-1.00695, 369, 241, 496, 368
-1.00754, 433, 129, 496, 256
-1.00766, 377, 113, 440, 240
-1.00802, 425, 241, 488, 368
-1.00803, 369, 129, 432, 375
-1.0088, 369, 49, 432, 176
-1.00899, 65, 65, 128, 192
-1.00974, 433, 177, 496, 304
-1.01026, 377, 177, 440, 304
-1.01065, 353, 97, 416, 224
-1.01113, 377, 1, 440, 128
-1.01159, 337, 177, 400, 304
