1947
-0.57346, 1, 129, 500, 375
-0.636541, 1, 33, 500, 288
-0.668205, 1, 1, 500, 375
-0.687891, 193, 1, 448, 375
-0.705371, 97, 1, 352, 375
-0.827556, 193, 1, 448, 256
-0.840975, 97, 97, 352, 352
-0.848677, 257, 129, 500, 375
-0.851822, 1, 1, 256, 375
-0.865683, 97, 1, 352, 256
-0.907975, 177, 1, 304, 375
-0.924294, 129, 1, 256, 375
-0.926926, 177, 1, 304, 256
-0.927963, 369, 129, 496, 375
-0.931015, 289, 1, 416, 375
-0.934324, 177, 129, 304, 375
-0.935055, 225, 1, 352, 375
-0.935206, 225, 33, 352, 288
-0.935444, 129, 1, 256, 256
-0.936867, 353, 1, 480, 375
-0.94032, 1, 65, 256, 320
-0.942235, 1, 241, 500, 368
-0.944655, 289, 1, 416, 256
-0.946035, 1, 113, 500, 240
-0.946194, 129, 97, 256, 352
-0.946958, 257, 129, 384, 375
-0.947088, 81, 1, 208, 375
-0.948104, 1, 193, 500, 320
-0.950063, 353, 33, 480, 288
-0.955508, 225, 177, 480, 304
-0.956583, 81, 129, 208, 375
-0.960253, 81, 1, 208, 256
-0.96054, 97, 241, 352, 368
-0.961086, 17, 1, 144, 375
-0.962653, 209, 241, 336, 368
-0.963389, 33, 129, 160, 375
-0.964465, 305, 129, 432, 375
-0.964984, 1, 65, 500, 192
-0.965223, 225, 241, 480, 368
-0.966424, 193, 1, 448, 128
-0.968941, 249, 241, 312, 368
-0.969363, 193, 49, 448, 176
-0.970617, 65, 65, 320, 192
-0.970828, 65, 129, 320, 256
-0.972915, 33, 193, 288, 320
-0.973801, 193, 97, 448, 224
-0.974015, 257, 289, 320, 352
-0.974183, 201, 33, 264, 160
-0.974354, 161, 225, 288, 352
-0.976433, 249, 265, 312, 328
-0.97655, 225, 225, 288, 352
-0.976706, 33, 33, 160, 288
-0.977361, 369, 145, 496, 272
-0.978736, 161, 49, 288, 176
-0.979268, 241, 161, 368, 288
-0.97931, 1, 17, 500, 144
-0.979574, 233, 297, 296, 360
-0.98011, 289, 1, 416, 128
-0.981016, 289, 225, 416, 352
-0.981576, 161, 113, 288, 240
-0.981996, 337, 97, 464, 224
-0.98207, 129, 177, 384, 304
-0.982325, 113, 81, 240, 208
-0.98282, 1, 241, 128, 368
-0.983082, 225, 65, 352, 192
-0.983243, 193, 265, 320, 328
-0.983312, 265, 313, 328, 375
-0.983589, 161, 177, 288, 304
-0.983847, 289, 177, 416, 304
-0.983945, 209, 297, 336, 360
-0.984089, 225, 17, 352, 144
-0.984759, 25, 225, 88, 352
-0.985069, 305, 49, 432, 176
-0.985159, 65, 17, 320, 144
-0.985587, 337, 1, 400, 128
-0.985627, 241, 241, 304, 304
-0.985699, 249, 145, 312, 272
-0.986187, 249, 193, 312, 320
-0.986289, 201, 49, 264, 112
-0.986429, 269, 241, 300, 368
-0.986793, 369, 193, 496, 320
-0.986929, 113, 297, 176, 360
-0.987455, 225, 113, 352, 240
-0.987485, 113, 193, 240, 320
-0.98764, 201, 241, 264, 368
-0.987645, 201, 1, 264, 256
-0.987696, 201, 257, 264, 320
-0.987699, 161, 297, 224, 360
-0.987713, 113, 129, 240, 256
-0.987734, 193, 241, 320, 304
-0.98784, 209, 1, 272, 375
-0.987965, 285, 281, 316, 344
-0.988071, 345, 177, 408, 240
-0.988212, 345, 161, 408, 288
-0.988492, 145, 1, 272, 128
-0.988503, 201, 289, 264, 352
-0.988571, 209, 313, 272, 375
-0.988845, 145, 289, 272, 352
-0.988952, 33, 193, 160, 320
-0.988986, 209, 97, 272, 224
-0.988991, 385, 97, 448, 224
-0.989262, 249, 289, 280, 352
-0.989356, 65, 313, 128, 375
-0.989674, 289, 129, 416, 256
-0.989892, 113, 241, 240, 368
-0.989941, 337, 1, 464, 128
-0.989946, 249, 241, 280, 368
-0.989981, 281, 289, 344, 352
-0.990027, 25, 305, 88, 368
-0.990127, 1, 241, 256, 368
-0.990484, 185, 113, 248, 240
-0.990506, 89, 289, 152, 352
-0.990509, 97, 33, 224, 160
-0.990538, 369, 201, 496, 264
-0.99059, 185, 1, 248, 375
-0.990825, 161, 313, 288, 375
-0.990939, 209, 233, 272, 296
-0.990947, 145, 65, 272, 128
-0.990957, 177, 241, 240, 368
-0.990987, 265, 313, 328, 344
-0.990998, 241, 273, 368, 336
-0.991044, 49, 241, 176, 368
-0.991093, 73, 241, 136, 368
-0.991128, 177, 49, 240, 176
-0.991149, 217, 177, 280, 304
-0.991171, 225, 273, 288, 336
-0.991293, 257, 305, 384, 368
-0.991382, 273, 257, 304, 320
-0.991409, 113, 249, 240, 312
-0.991411, 289, 185, 416, 248
-0.991477, 65, 281, 128, 344
-0.99152, 177, 273, 240, 336
-0.991611, 257, 297, 320, 328
-0.991653, 249, 277, 312, 308
-0.991728, 225, 73, 352, 136
-0.991753, 353, 169, 480, 232
-0.991818, 229, 33, 260, 160
-0.991827, 89, 185, 152, 248
-0.991849, 225, 169, 352, 232
-0.991872, 177, 161, 240, 288
-0.991908, 293, 313, 324, 375
-0.991911, 241, 321, 304, 352
-0.991932, 281, 177, 344, 304
-0.991981, 417, 145, 480, 272
-0.992031, 193, 49, 320, 112
-0.992176, 65, 297, 192, 360
-0.992185, 289, 273, 416, 336
-0.992224, 1, 241, 64, 368
-0.992228, 1, 249, 128, 312
-0.992229, 33, 313, 96, 344
-0.992299, 265, 325, 328, 356
-0.992336, 145, 41, 272, 104
-0.992346, 9, 301, 72, 332
-0.992352, 1, 289, 64, 352
-0.992372, 193, 277, 256, 308
-0.992423, 209, 105, 272, 168
-0.992431, 113, 321, 176, 352
-0.992435, 209, 289, 272, 320
-0.992476, 73, 281, 136, 312
-0.992543, 225, 305, 288, 336
-0.992581, 241, 265, 304, 296
-0.992596, 153, 317, 216, 348
-0.992598, 145, 89, 272, 152
-0.992611, 169, 293, 232, 324
-0.992612, 249, 169, 312, 232
-0.99265, 265, 337, 328, 368
-0.992661, 129, 301, 192, 332
-0.992679, 281, 301, 344, 332
-0.992685, 345, 181, 408, 212
-0.992686, 361, 81, 424, 208
-0.9927, 105, 293, 168, 324
-0.992731, 89, 305, 152, 336
-0.992732, 225, 113, 352, 176
-0.992739, 49, 301, 112, 332
-0.99274, 153, 329, 216, 360
-0.99276, 241, 253, 304, 284
-0.992765, 233, 333, 296, 364
-0.992769, 137, 313, 200, 375
-0.992815, 169, 305, 232, 336
-0.992819, 289, 305, 320, 336
-0.99283, 113, 333, 176, 364
-0.992834, 97, 265, 160, 328
-0.992839, 65, 145, 192, 272
-0.99285, 177, 1, 240, 256
-0.992862, 81, 293, 144, 324
-0.992872, 57, 321, 120, 352
-0.99288, 201, 57, 264, 88
-0.99289, 201, 265, 264, 296
-0.992891, 241, 1, 304, 128
-0.992931, 233, 293, 296, 324
-0.992968, 169, 277, 232, 308
-0.992969, 9, 317, 72, 348
-0.992981, 201, 329, 264, 360
-0.992982, 377, 33, 440, 160
-0.99299, 237, 297, 268, 360
-0.993023, 17, 241, 80, 304
-0.993023, 161, 313, 192, 375
-0.993028, 33, 269, 96, 300
-0.993033, 161, 137, 288, 200
-0.993035, 1, 305, 128, 368
-0.993044, 277, 317, 308, 348
-0.99305, 81, 333, 144, 364
-0.993062, 201, 69, 264, 100
-0.993067, 201, 45, 264, 76
-0.993073, 129, 185, 192, 248
-0.993089, 265, 321, 296, 352
-0.993132, 201, 317, 264, 348
-0.993134, 225, 277, 288, 308
-0.99314, 57, 269, 120, 300
-0.993148, 81, 261, 144, 292
-0.993154, 249, 173, 312, 204
-0.993173, 153, 161, 216, 288
-0.993181, 17, 289, 80, 320
-0.993185, 177, 325, 240, 356
-0.993189, 253, 249, 284, 312
-0.993208, 97, 281, 160, 312
-0.993237, 253, 281, 284, 312
-0.993244, 241, 345, 304, 375
-0.993254, 289, 285, 352, 316
-0.993257, 281, 285, 312, 316
-0.993258, 153, 185, 216, 248
-0.993283, 253, 329, 284, 360
-0.993284, 345, 193, 408, 224
-0.993285, 289, 73, 416, 136
-0.993307, 297, 317, 328, 348
-0.993307, 289, 317, 352, 348
-0.993319, 201, 301, 264, 332
-0.993325, 241, 289, 272, 320
-0.993328, 209, 109, 272, 140
-0.993329, 313, 161, 376, 224
-0.993333, 217, 241, 280, 272
-0.993335, 89, 317, 152, 348
-0.993367, 29, 305, 60, 336
-0.993368, 265, 253, 296, 284
-0.993369, 225, 49, 288, 176
-0.99337, 305, 337, 368, 368
-0.993372, 289, 273, 352, 304
-0.993397, 345, 73, 408, 136
-0.993402, 249, 129, 312, 375
-0.993402, 137, 289, 200, 320
-0.993409, 201, 73, 264, 136
-0.99341, 273, 305, 304, 336
-0.993436, 45, 309, 76, 340
-0.993436, 161, 317, 192, 348
-0.993444, 245, 305, 276, 336
-0.99345, 233, 333, 264, 364
-0.993452, 177, 265, 240, 296
-0.993455, 201, 85, 264, 116
-0.993455, 17, 253, 80, 284
-0.993459, 269, 265, 300, 296
-0.993462, 65, 257, 128, 320
-0.993464, 245, 317, 276, 348
-0.993468, 125, 293, 156, 324
-0.99347, 41, 285, 104, 316
-0.993471, 229, 277, 260, 308
-0.993471, 241, 61, 304, 92
-0.993474, 145, 181, 208, 212
-0.993476, 225, 65, 288, 320
-0.993484, 345, 81, 408, 112
-0.993487, 265, 265, 328, 296
-0.993489, 177, 297, 208, 328
-0.993497, 105, 209, 168, 240
-0.993499, 205, 273, 236, 304
-0.993499, 145, 309, 176, 340
-0.993499, 193, 293, 224, 324
-0.993504, 213, 285, 244, 316
-0.993507, 69, 277, 100, 308
-0.993508, 161, 241, 224, 304
-0.993515, 249, 341, 280, 372
-0.993518, 193, 277, 224, 308
-0.993528, 17, 301, 48, 332
-0.993534, 113, 313, 240, 375
-0.993536, 289, 17, 416, 80
-0.993549, 145, 341, 208, 372
-0.99355, 269, 333, 300, 364
-0.993551, 25, 265, 88, 328
-0.993559, 121, 277, 152, 308
-0.993559, 369, 177, 400, 208
-0.993562, 89, 177, 152, 208
-0.993562, 41, 297, 72, 328
-0.993565, 81, 177, 208, 240
-0.993568, 57, 269, 88, 300
-0.993569, 109, 293, 140, 324
-0.993572, 49, 345, 112, 375
-0.993573, 433, 317, 496, 348
-0.993576, 73, 233, 136, 296
-0.993583, 261, 301, 292, 332
-0.99359, 253, 269, 284, 300
-0.99359, 281, 273, 312, 304
-0.993591, 305, 69, 368, 100
-0.993593, 385, 85, 448, 116
-0.993593, 293, 293, 324, 324
-0.993599, 141, 333, 172, 364
-0.9936, 225, 289, 256, 320
-0.9936, 241, 265, 272, 296
-0.993601, 201, 253, 264, 284
-0.993601, 177, 81, 240, 144
-0.993601, 177, 105, 240, 136
-0.993606, 109, 277, 140, 308
-0.993607, 13, 289, 44, 320
-0.993607, 301, 305, 332, 336
-0.993608, 81, 277, 112, 308
-0.993612, 225, 49, 256, 80
-0.993612, 233, 313, 264, 344
-0.993613, 293, 337, 324, 368
-0.993614, 177, 173, 240, 204
-0.993622, 153, 333, 184, 364
-0.993623, 253, 249, 284, 280
-0.993623, 113, 333, 144, 364
-0.993624, 241, 277, 272, 308
-0.993627, 93, 281, 124, 312
-0.993634, 57, 309, 88, 340
-0.993637, 165, 329, 196, 360
-0.993639, 97, 325, 128, 356
-0.99364, 233, 49, 296, 80
-0.993644, 109, 265, 140, 296
-0.993644, 261, 165, 292, 196
-0.993648, 241, 57, 304, 120
-0.993651, 49, 265, 176, 328
-0.993655, 137, 321, 168, 352
-0.993656, 209, 201, 272, 232
-0.993661, 173, 313, 204, 344
-0.993664, 57, 297, 88, 328
-0.993666, 313, 337, 344, 368
-0.993668, 85, 321, 116, 352
-0.99367, 125, 321, 156, 352
-0.993671, 113, 169, 176, 200
-0.993672, 209, 257, 240, 288
-0.993672, 161, 301, 192, 332
-0.993674, 201, 229, 264, 260
-0.993677, 133, 305, 164, 336
-0.993682, 233, 161, 296, 192
-0.993682, 313, 113, 376, 144
-0.993682, 145, 193, 208, 224
-0.993683, 149, 321, 180, 352
-0.993685, 177, 113, 304, 176
-0.993687, 97, 229, 160, 260
-0.99369, 221, 37, 252, 68
-0.993692, 113, 269, 176, 300
-0.993693, 97, 309, 128, 340
-0.993694, 69, 265, 100, 296
-0.993696, 25, 289, 56, 320
-0.993696, 393, 313, 456, 344
-0.9937, 185, 185, 248, 216
-0.9937, 161, 249, 224, 280
-0.9937, 9, 329, 72, 360
-0.993705, 241, 81, 304, 112
-0.993705, 189, 265, 220, 296
-0.993711, 177, 125, 240, 156
-0.993711, 241, 193, 272, 320
-0.993714, 177, 329, 208, 360
-0.993724, 229, 61, 260, 92
-0.993725, 125, 337, 156, 368
-0.993728, 73, 317, 104, 348
-0.993729, 217, 345, 280, 375
-0.993734, 249, 185, 312, 216
-0.993737, 409, 325, 472, 356
-0.993739, 9, 277, 40, 308
-0.993739, 185, 317, 216, 348
-0.99374, 313, 73, 344, 104
-0.993742, 5, 265, 36, 296
-0.993744, 185, 33, 248, 64
-0.993744, 377, 73, 440, 104
-0.993745, 357, 185, 388, 216
-0.993746, 37, 285, 68, 316
-0.993749, 85, 305, 116, 336
-0.99375, 305, 305, 368, 336
-0.993752, 265, 345, 296, 375
-0.993753, 193, 117, 224, 148
-0.993754, 113, 317, 144, 348
-0.993754, 29, 269, 60, 300
-0.993754, 29, 317, 60, 348
-0.993754, 297, 61, 328, 92
-0.993755, 233, 229, 264, 260
-0.993758, 241, 137, 272, 168
-0.993759, 229, 301, 260, 332
-0.99376, 241, 241, 272, 272
-0.99376, 209, 297, 240, 328
-0.993763, 69, 297, 100, 328
-0.993763, 13, 253, 44, 284
-0.993765, 181, 173, 212, 204
-0.993768, 229, 265, 260, 296
-0.993768, 137, 293, 168, 324
-0.993769, 213, 317, 244, 348
-0.99377, 305, 181, 368, 212
-0.993773, 89, 189, 152, 220
-0.993773, 57, 285, 88, 316
-0.993774, 237, 101, 268, 132
-0.993775, 297, 269, 328, 300
-0.993777, 193, 25, 256, 88
-0.993778, 181, 281, 212, 312
-0.99378, 209, 121, 272, 152
-0.993782, 137, 277, 200, 308
-0.993783, 241, 153, 272, 184
-0.993786, 269, 289, 300, 320
-0.993788, 133, 281, 164, 312
-0.993788, 197, 305, 228, 336
-0.993793, 201, 97, 264, 128
-0.993794, 321, 169, 384, 200
-0.993794, 257, 1, 320, 375
-0.993795, 149, 297, 180, 328
-0.993796, 221, 329, 252, 360
-0.993799, 5, 301, 36, 332
-0.9938, 193, 133, 224, 164
-0.993801, 305, 293, 336, 324
-0.993801, 129, 265, 160, 296
-0.993802, 177, 185, 208, 216
-0.993804, 345, 193, 376, 224
-0.993804, 237, 117, 268, 148
-0.993804, 201, 325, 232, 356
-0.99381, 221, 141, 252, 172
-0.993813, 309, 325, 340, 356
-0.993814, 1, 317, 32, 348
-0.993815, 169, 85, 232, 116
-0.993817, 237, 345, 268, 375
-0.993817, 217, 185, 280, 216
-0.993818, 193, 105, 224, 136
-0.993819, 249, 217, 280, 248
-0.993825, 433, 149, 496, 180
-0.993825, 121, 305, 152, 336
-0.993826, 281, 329, 312, 360
-0.993827, 33, 325, 96, 356
-0.993828, 209, 213, 272, 244
-0.993829, 221, 153, 252, 184
-0.99383, 161, 73, 224, 104
-0.993831, 41, 321, 72, 352
-0.993834, 13, 313, 44, 344
-0.993836, 241, 101, 304, 132
-0.993836, 321, 193, 384, 224
-0.993838, 249, 201, 312, 232
-0.993846, 209, 173, 272, 204
-0.993876, 145, 169, 208, 200
-0.993887, 233, 37, 296, 68
-0.993887, 393, 97, 456, 128
-0.993887, 9, 341, 72, 372
-0.99389, 345, 69, 408, 100
-0.993898, 121, 345, 184, 375
-0.993901, 273, 185, 336, 216
-0.993901, 137, 217, 200, 248
-0.993906, 281, 73, 344, 104
-0.993908, 1, 265, 64, 296
-0.993913, 209, 161, 272, 192
-0.993921, 121, 189, 184, 220
-0.993921, 153, 261, 216, 292
-0.993927, 401, 141, 464, 172
-0.993931, 1, 277, 64, 308
-0.993945, 289, 41, 416, 104
-0.993947, 161, 61, 224, 92
-0.993953, 313, 97, 376, 224
-0.993958, 393, 129, 456, 160
-0.993995, 277, 305, 308, 368
-0.993997, 225, 41, 256, 104
-0.994048, 209, 25, 336, 88
-0.994108, 233, 1, 296, 375
-0.994158, 177, 161, 240, 224
-0.994176, 105, 209, 168, 272
-0.994194, 289, 257, 352, 320
-0.99422, 281, 241, 312, 368
-0.994262, 145, 201, 272, 264
-0.9943, 153, 49, 216, 176
-0.994315, 217, 137, 280, 200
-0.994328, 353, 145, 480, 208
-0.994354, 225, 201, 352, 264
-0.994461, 213, 33, 244, 160
-0.994471, 113, 225, 240, 288
-0.994473, 249, 201, 312, 264
-0.994492, 145, 1, 208, 375
-0.99451, 193, 65, 224, 192
-0.994565, 201, 201, 264, 264
-0.99459, 129, 161, 192, 224
-0.994608, 261, 281, 292, 344
-0.994608, 97, 121, 224, 184
-0.994616, 305, 297, 432, 360
-0.994634, 257, 161, 288, 288
-0.994637, 225, 161, 288, 224
-0.99468, 385, 97, 448, 352
-0.994708, 393, 121, 456, 184
-0.99472, 297, 313, 360, 375
-0.994726, 161, 177, 288, 240
-0.994735, 289, 161, 416, 224
-0.994782, 297, 289, 328, 352
-0.994792, 65, 209, 192, 272
-0.994794, 337, 105, 464, 168
-0.994794, 377, 49, 440, 112
-0.994817, 369, 225, 496, 288
-0.994819, 353, 49, 480, 112
-0.99483, 265, 313, 296, 375
-0.994886, 129, 1, 256, 64
-0.9949, 321, 185, 384, 248
-0.994979, 289, 1, 352, 375
-0.994988, 257, 297, 500, 360
-0.995044, 369, 281, 496, 344
-0.995044, 137, 273, 200, 336
-0.995051, 105, 161, 168, 224
-0.995056, 129, 273, 384, 336
-0.995079, 345, 9, 408, 72
-0.995081, 237, 217, 268, 280
-0.995156, 129, 313, 384, 375
-0.995212, 241, 33, 304, 96
-0.995223, 237, 273, 268, 336
-0.995289, 161, 1, 224, 128
-0.995329, 373, 1, 404, 128
-0.995419, 185, 313, 248, 375
-0.995453, 49, 233, 176, 296
-0.995477, 353, 49, 480, 176
-0.995541, 49, 241, 112, 368
-0.995577, 229, 225, 260, 352
-0.995578, 65, 97, 192, 224
-0.995613, 241, 65, 272, 192
-0.995651, 89, 313, 152, 375
-0.995672, 97, 273, 224, 336
-0.995725, 273, 249, 400, 312
-0.995732, 137, 241, 200, 368
-0.995775, 273, 177, 336, 240
-0.995818, 49, 241, 80, 368
-0.99583, 257, 273, 500, 336
-0.995865, 273, 65, 336, 320
-0.995913, 81, 153, 208, 216
-0.995917, 249, 33, 312, 288
-0.995928, 113, 241, 176, 368
-0.995954, 97, 97, 224, 160
-0.996043, 241, 81, 304, 144
-0.996072, 1, 273, 128, 336
-0.996087, 209, 1, 336, 64
-0.996088, 369, 1, 432, 256
-0.99609, 97, 249, 352, 312
-0.996115, 177, 121, 240, 184
-0.996115, 81, 49, 208, 112
-0.996159, 257, 137, 384, 200
-0.996173, 241, 225, 368, 288
-0.996201, 241, 49, 368, 112
-0.99624, 369, 241, 496, 368
-0.99626, 409, 65, 472, 192
-0.99629, 1, 265, 64, 328
-0.996292, 193, 269, 320, 300
-0.996299, 273, 113, 336, 240
-0.996306, 209, 281, 336, 312
-0.996316, 73, 193, 136, 320
-0.99632, 433, 209, 496, 336
-0.996325, 369, 97, 432, 160
-0.996365, 321, 161, 384, 288
-0.996386, 361, 1, 424, 375
-0.99639, 385, 73, 448, 136
-0.996418, 305, 73, 368, 136
-0.996436, 225, 289, 256, 352
-0.996437, 273, 225, 336, 352
-0.996483, 337, 81, 464, 144
-0.996526, 161, 57, 224, 120
-0.996536, 81, 73, 208, 136
-0.996586, 209, 309, 336, 340
-0.996625, 169, 217, 232, 280
-0.996635, 153, 33, 216, 288
-0.99666, 385, 1, 448, 375
-0.996673, 193, 185, 448, 248
-0.996694, 21, 241, 52, 368
-0.996699, 249, 313, 280, 375
-0.996739, 305, 49, 368, 112
-0.99674, 225, 249, 480, 312
-0.996773, 249, 49, 312, 176
-0.9968, 369, 17, 496, 80
-0.996847, 209, 297, 336, 328
-0.996854, 249, 145, 312, 208
-0.996886, 293, 281, 308, 344
-0.996887, 33, 289, 288, 352
-0.996903, 193, 81, 448, 144
-0.996957, 121, 1, 184, 375
-0.996961, 197, 241, 228, 368
-0.996999, 337, 1, 400, 375
-0.997003, 1, 273, 500, 336
-0.997054, 305, 217, 432, 280
-0.997067, 425, 313, 488, 375
-0.997077, 209, 325, 336, 356
-0.997089, 281, 65, 344, 128
-0.997107, 401, 289, 464, 352
-0.99712, 141, 305, 172, 368
-0.997136, 365, 169, 396, 232
-0.997153, 433, 145, 496, 208
-0.99719, 241, 241, 272, 304
-0.997193, 65, 89, 320, 152
-0.9972, 137, 73, 200, 136
-0.9972, 409, 145, 472, 208
-0.997203, 193, 105, 448, 168
-0.997204, 305, 49, 368, 176
-0.997222, 1, 225, 128, 288
-0.997251, 301, 289, 316, 352
-0.997259, 233, 73, 264, 136
-0.997273, 173, 297, 204, 360
-0.997279, 369, 313, 496, 375
-0.997284, 269, 193, 300, 320
-0.997308, 97, 241, 160, 304
-0.997318, 33, 161, 160, 224
-0.997333, 193, 105, 224, 168
-0.997364, 433, 217, 496, 280
-0.997364, 193, 273, 224, 336
-0.997378, 113, 257, 144, 320
-0.997381, 65, 65, 320, 128
-0.997395, 201, 129, 264, 375
-0.9974, 469, 225, 500, 352
-0.997447, 241, 289, 256, 352
-0.997479, 161, 313, 288, 344
-0.997491, 273, 65, 336, 192
-0.997494, 201, 113, 232, 240
-0.997502, 97, 137, 352, 200
-0.997541, 205, 257, 236, 320
-0.997572, 249, 297, 264, 360
-0.997586, 225, 209, 480, 272
-0.99759, 193, 41, 448, 104
-0.997594, 287, 265, 302, 328
-0.997627, 13, 249, 44, 312
-0.997649, 193, 1, 448, 64
-0.997668, 417, 129, 480, 375
-0.997668, 161, 325, 288, 356
-0.997672, 97, 25, 224, 88
-0.997675, 33, 185, 160, 248
-0.997684, 193, 257, 320, 288
-0.997718, 89, 129, 152, 375
-0.997722, 153, 97, 216, 224
-0.997723, 97, 113, 352, 176
-0.99776, 209, 137, 336, 200
-0.99778, 65, 225, 320, 288
-0.99778, 161, 293, 288, 324
-0.997793, 321, 137, 384, 200
-0.997795, 181, 161, 212, 288
-0.997801, 33, 177, 288, 240
-0.997804, 49, 121, 176, 184
-0.997811, 1, 297, 500, 360
-0.997812, 33, 241, 64, 368
-0.997824, 417, 185, 480, 248
-0.997888, 163, 313, 178, 375
-0.997891, 307, 305, 322, 368
-0.997908, 61, 241, 92, 368
-0.99791, 113, 277, 240, 308
-0.997921, 113, 1, 176, 256
-0.997936, 393, 97, 456, 160
-0.997953, 257, 161, 288, 224
-0.997953, 221, 313, 252, 375
-0.997968, 189, 113, 220, 240
-0.997978, 257, 313, 384, 344
-0.998003, 257, 289, 272, 352
-0.998017, 33, 313, 288, 375
-0.998025, 209, 337, 336, 368
-0.998032, 9, 241, 40, 368
-0.998043, 267, 249, 282, 312
-0.998043, 97, 317, 224, 348
-0.998044, 249, 97, 312, 224
-0.998045, 97, 1, 160, 375
-0.998048, 257, 241, 272, 304
-0.998073, 279, 249, 294, 312
-0.998079, 113, 333, 240, 364
-0.998084, 105, 17, 168, 144
-0.998111, 33, 201, 288, 264
-0.998114, 1, 317, 128, 348
-0.998121, 225, 185, 288, 248
-0.998123, 49, 297, 80, 360
-0.998145, 313, 1, 376, 375
-0.99815, 369, 161, 400, 288
-0.998151, 113, 305, 240, 336
-0.998151, 33, 265, 64, 328
-0.998168, 217, 121, 248, 184
-0.998175, 297, 225, 360, 352
-0.998185, 129, 305, 160, 368
-0.998186, 169, 305, 184, 368
-0.998189, 305, 33, 368, 288
-0.998209, 251, 273, 266, 336
-0.99821, 105, 335, 136, 350
-0.99821, 169, 321, 200, 336
-0.998211, 85, 287, 116, 302
-0.998211, 97, 291, 128, 306
-0.998211, 41, 269, 72, 284
-0.998211, 73, 283, 104, 298
-0.998212, 241, 147, 272, 162
-0.998212, 369, 213, 496, 244
-0.998213, 65, 343, 96, 358
-0.998213, 245, 347, 276, 362
-0.998214, 197, 331, 228, 346
-0.998214, 25, 293, 56, 308
-0.998215, 229, 307, 260, 322
-0.998215, 229, 63, 260, 78
-0.998215, 149, 303, 180, 318
-0.998216, 365, 185, 396, 200
-0.998216, 33, 337, 64, 352
-0.998216, 265, 281, 296, 296
-0.998217, 293, 331, 324, 346
-0.998217, 277, 305, 308, 320
-0.998217, 205, 265, 236, 280
-0.998217, 225, 49, 256, 64
-0.998218, 85, 275, 116, 290
-0.998218, 173, 297, 204, 312
-0.99822, 257, 305, 288, 320
-0.998221, 297, 283, 328, 298
-0.998221, 233, 295, 264, 310
-0.998221, 225, 55, 256, 70
-0.998221, 201, 279, 232, 294
-0.998223, 297, 355, 328, 370
-0.998224, 301, 361, 332, 375
-0.998224, 97, 279, 128, 294
-0.998224, 61, 281, 92, 296
-0.998224, 41, 313, 72, 328
-0.998224, 261, 171, 292, 186
-0.998225, 165, 339, 196, 354
-0.998226, 301, 293, 332, 308
-0.998226, 161, 303, 192, 318
-0.998226, 141, 325, 172, 340
-0.998226, 293, 343, 324, 358
-0.998228, 65, 315, 96, 330
-0.998228, 65, 269, 96, 284
-0.998228, 45, 301, 76, 316
-0.998229, 249, 311, 280, 326
-0.99823, 285, 295, 316, 310
-0.99823, 189, 273, 220, 288
-0.99823, 117, 337, 148, 352
-0.99823, 181, 185, 212, 200
-0.998231, 263, 273, 278, 336
-0.998231, 49, 343, 80, 358
-0.998234, 9, 297, 40, 312
-0.998236, 237, 301, 268, 316
-0.998236, 293, 349, 324, 364
-0.998236, 109, 281, 140, 296
-0.998237, 125, 303, 156, 318
-0.998237, 85, 321, 116, 336
-0.998237, 105, 329, 136, 344
-0.998237, 245, 243, 276, 258
-0.998239, 185, 287, 216, 302
-0.998242, 297, 325, 328, 340
-0.998243, 369, 179, 400, 194
-0.998244, 169, 313, 200, 328
-0.998244, 213, 81, 244, 208
-0.998244, 237, 313, 252, 375
-0.998245, 221, 283, 252, 298
-0.998246, 269, 257, 300, 272
-0.998247, 121, 287, 152, 302
-0.998247, 241, 341, 272, 356
-0.998247, 265, 337, 296, 352
-0.998249, 241, 327, 272, 342
-0.998249, 301, 307, 332, 322
-0.998249, 181, 333, 212, 348
-0.99825, 25, 311, 56, 326
-0.998251, 209, 329, 240, 344
-0.998253, 217, 295, 248, 310
-0.998253, 141, 339, 172, 354
-0.998255, 205, 271, 236, 286
-0.998256, 261, 271, 292, 286
-0.998256, 253, 321, 284, 336
-0.998256, 277, 329, 308, 344
-0.99826, 245, 295, 276, 310
-0.99826, 253, 249, 284, 264
-0.998261, 141, 311, 172, 326
-0.998262, 173, 305, 204, 320
-0.998263, 245, 277, 276, 292
-0.998263, 221, 329, 252, 344
-0.998264, 29, 305, 60, 368
-0.998264, 33, 301, 64, 316
-0.998264, 281, 283, 312, 298
-0.998265, 157, 315, 188, 330
-0.998265, 197, 297, 228, 312
-0.998265, 133, 333, 164, 348
-0.998267, 21, 299, 52, 314
-0.998267, 153, 309, 184, 324
-0.998269, 265, 313, 296, 328
-0.998272, 273, 275, 304, 290
-0.998272, 197, 285, 228, 300
-0.998273, 85, 281, 116, 296
-0.998274, 155, 305, 170, 368
-0.998274, 185, 303, 216, 318
-0.998275, 273, 267, 304, 282
-0.998275, 345, 1, 408, 256
-0.998275, 53, 311, 84, 326
-0.998279, 153, 337, 184, 352
-0.99828, 233, 333, 264, 348
-0.998281, 53, 269, 84, 284
-0.998286, 161, 329, 192, 344
-0.998287, 185, 295, 216, 310
-0.998288, 257, 265, 272, 328
-0.998289, 253, 339, 284, 354
-0.998291, 137, 305, 168, 320
-0.998291, 113, 295, 144, 310
-0.998293, 293, 319, 324, 334
-0.998295, 193, 129, 448, 192
-0.998296, 73, 277, 104, 292
-0.998298, 129, 297, 160, 312
-0.998299, 253, 289, 284, 304
-0.998299, 61, 275, 92, 290
-0.9983, 97, 285, 128, 300
-0.998301, 289, 301, 320, 316
-0.998305, 253, 283, 284, 298
-0.998305, 233, 283, 264, 298
-0.998305, 97, 161, 160, 288
-0.998307, 225, 209, 288, 272
-0.998308, 41, 307, 72, 322
-0.998309, 217, 289, 248, 304
-0.99831, 217, 1, 248, 256
-0.998311, 1, 209, 500, 272
-0.998311, 109, 289, 140, 304
-0.998316, 253, 327, 284, 342
-0.998316, 253, 333, 284, 348
-0.998316, 197, 291, 228, 306
-0.998317, 281, 289, 312, 304
-0.998317, 277, 311, 308, 326
-0.99832, 21, 305, 52, 320
-0.998332, 305, 137, 432, 200
-0.998333, 265, 331, 296, 346
-0.998335, 1, 265, 256, 328
-0.998338, 265, 319, 296, 334
-0.998361, 233, 289, 264, 304
-0.998362, 269, 297, 284, 360
-0.998364, 289, 307, 320, 322
-0.998368, 251, 241, 266, 304
-0.998371, 277, 323, 308, 338
-0.998378, 265, 325, 296, 340
-0.99838, 289, 293, 416, 324
-0.998385, 1, 241, 500, 304
-0.998388, 225, 101, 352, 132
-0.998391, 277, 317, 308, 332
-0.998394, 369, 201, 496, 232
-0.998396, 153, 161, 216, 224
-0.998397, 49, 297, 176, 328
-0.998402, 243, 313, 258, 375
-0.99841, 293, 313, 324, 328
-0.998418, 207, 257, 222, 320
-0.998418, 303, 305, 318, 336
-0.998421, 249, 105, 312, 168
-0.998429, 237, 113, 268, 240
-0.99843, 161, 89, 288, 120
-0.998433, 225, 85, 352, 116
-0.998436, 241, 49, 256, 112
-0.998444, 249, 289, 264, 320
-0.998444, 181, 65, 212, 192
-0.998455, 225, 73, 352, 104
-0.998465, 225, 113, 352, 144
-0.998468, 299, 293, 314, 324
-0.998504, 281, 313, 296, 344
-0.998514, 137, 97, 200, 160
-0.998517, 177, 245, 304, 276
-0.998518, 161, 281, 288, 312
-0.998521, 353, 177, 480, 208
-0.998529, 137, 249, 200, 312
-0.998535, 345, 153, 408, 216
-0.998543, 369, 249, 496, 312
-0.998544, 161, 173, 288, 204
-0.998545, 293, 281, 308, 312
-0.998547, 235, 289, 250, 352
-0.998557, 81, 161, 144, 224
-0.998569, 273, 317, 288, 348
-0.998569, 289, 97, 416, 160
-0.998575, 235, 41, 250, 104
-0.998579, 289, 193, 416, 224
-0.998583, 1, 305, 128, 336
-0.998585, 49, 325, 176, 356
-0.998586, 321, 249, 448, 312
-0.998599, 267, 321, 282, 352
-0.9986, 273, 277, 400, 308
-0.998609, 249, 217, 264, 280
-0.998612, 265, 317, 328, 332
-0.998613, 289, 313, 304, 344
-0.998616, 1, 269, 128, 300
-0.99862, 273, 249, 288, 312
-0.99863, 213, 25, 244, 88
-0.998632, 21, 281, 52, 344
-0.998634, 257, 301, 320, 316
-0.998634, 345, 129, 408, 375
-0.998642, 225, 185, 352, 216
-0.998646, 409, 1, 472, 375
-0.998647, 249, 283, 312, 298
-0.998647, 1, 265, 32, 328
-0.998651, 129, 161, 384, 224
-0.998654, 213, 249, 228, 312
-0.998657, 281, 289, 296, 352
-0.998657, 231, 313, 246, 375
-0.998657, 265, 323, 328, 338
-0.998658, 145, 221, 272, 252
-0.998661, 81, 181, 208, 212
-0.998662, 201, 289, 264, 304
-0.998663, 265, 311, 328, 326
-0.998667, 97, 289, 224, 320
-0.998671, 233, 329, 296, 344
-0.998671, 255, 201, 270, 264
-0.998674, 177, 293, 240, 308
-0.998677, 245, 277, 260, 308
-0.998679, 265, 329, 328, 344
-0.998683, 257, 293, 320, 308
-0.998689, 153, 333, 216, 348
-0.998689, 369, 225, 496, 256
-0.99869, 273, 361, 336, 375
-0.99869, 73, 289, 136, 304
-0.998692, 33, 317, 96, 332
-0.998692, 255, 281, 270, 312
-0.998692, 225, 289, 288, 304
-0.998695, 233, 321, 296, 336
-0.998697, 241, 311, 304, 326
-0.998697, 145, 303, 208, 318
-0.998702, 249, 277, 312, 292
-0.998703, 193, 283, 256, 298
-0.998703, 113, 333, 176, 348
-0.998706, 121, 339, 184, 354
-0.998707, 9, 307, 72, 322
-0.998707, 193, 329, 256, 344
-0.998709, 73, 283, 136, 298
-0.998709, 65, 41, 320, 104
-0.998711, 249, 271, 312, 286
-0.998712, 185, 299, 248, 314
-0.998712, 97, 295, 160, 310
-0.998712, 217, 295, 280, 310
-0.998712, 33, 275, 96, 290
-0.998715, 49, 323, 112, 338
-0.998715, 273, 355, 336, 370
-0.998718, 265, 335, 328, 350
-0.998719, 33, 303, 96, 318
-0.998722, 49, 309, 112, 324
-0.998723, 193, 271, 256, 286
-0.998723, 265, 341, 328, 356
-0.998723, 137, 313, 200, 328
-0.998724, 345, 193, 408, 208
-0.998724, 57, 277, 120, 292
-0.998726, 113, 307, 176, 322
-0.998728, 201, 57, 264, 72
-0.998728, 121, 161, 184, 288
-0.998728, 73, 333, 136, 348
-0.998728, 177, 117, 304, 148
-0.998729, 145, 339, 208, 354
-0.99873, 233, 335, 296, 350
-0.99873, 201, 67, 264, 82
-0.998731, 265, 349, 328, 364
-0.998733, 233, 359, 296, 374
-0.998733, 113, 327, 176, 342
-0.998736, 153, 321, 216, 336
-0.998737, 193, 47, 256, 62
-0.998738, 217, 281, 280, 296
-0.998738, 289, 289, 352, 304
-0.998739, 153, 187, 216, 202
-0.99874, 233, 351, 296, 366
-0.99874, 281, 303, 344, 318
-0.99874, 97, 287, 160, 302
-0.998742, 169, 279, 232, 294
-0.998742, 229, 33, 244, 96
-0.998743, 145, 327, 208, 342
-0.998744, 353, 185, 416, 200
-0.998744, 89, 339, 152, 354
-0.998744, 209, 335, 272, 350
-0.998744, 169, 311, 232, 326
-0.998745, 209, 301, 272, 316
-0.998745, 137, 297, 200, 312
-0.998745, 233, 305, 296, 320
-0.998746, 249, 265, 312, 280
-0.998747, 233, 251, 296, 266
-0.998747, 1, 281, 128, 312
-0.998747, 241, 259, 304, 274
-0.998748, 209, 241, 272, 256
-0.998749, 273, 89, 336, 152
-0.998749, 9, 313, 72, 328
-0.99875, 193, 359, 256, 374
-0.99875, 81, 323, 144, 338
-0.998751, 81, 271, 144, 286
-0.998752, 257, 329, 384, 360
-0.998753, 129, 319, 192, 334
-0.998753, 289, 181, 416, 212
-0.998753, 97, 277, 160, 292
-0.998753, 217, 315, 280, 330
-0.998754, 297, 309, 360, 324
-0.998754, 289, 283, 352, 298
-0.998754, 97, 301, 160, 316
-0.998755, 73, 295, 136, 310
-0.998756, 81, 313, 144, 328
-0.998756, 9, 319, 72, 334
-0.998757, 193, 353, 256, 368
-0.998757, 297, 295, 360, 310
-0.998757, 161, 265, 224, 280
-0.998758, 201, 263, 264, 278
-0.998758, 49, 329, 112, 344
-0.998758, 261, 325, 276, 356
-0.998759, 201, 73, 264, 88
-0.99876, 177, 305, 240, 320
-0.99876, 161, 273, 224, 288
-0.998761, 169, 285, 232, 300
-0.998761, 113, 313, 176, 328
-0.998761, 233, 51, 296, 66
-0.998761, 105, 209, 168, 224
-0.998761, 9, 361, 72, 375
-0.998762, 97, 231, 160, 246
-0.998762, 249, 183, 312, 198
-0.998762, 105, 321, 168, 336
-0.998764, 217, 269, 280, 284
-0.998765, 289, 277, 352, 292
-0.998765, 209, 321, 272, 336
-0.998765, 201, 79, 264, 94
-0.998765, 33, 343, 96, 358
-0.998766, 193, 277, 256, 292
-0.998766, 201, 225, 264, 240
-0.998766, 201, 235, 264, 250
-0.998766, 9, 301, 72, 316
-0.998766, 241, 63, 304, 78
-0.998766, 49, 357, 112, 372
-0.998766, 393, 321, 456, 336
-0.998766, 249, 175, 312, 190
-0.998767, 209, 97, 272, 112
-0.998767, 33, 269, 96, 284
-0.998767, 49, 283, 112, 298
-0.998767, 209, 309, 272, 324
-0.998768, 209, 209, 272, 224
-0.998769, 241, 343, 304, 358
-0.998769, 305, 355, 368, 370
-0.99877, 57, 317, 120, 332
-0.99877, 361, 179, 424, 194
-0.99877, 225, 57, 352, 88
-0.99877, 49, 257, 176, 288
-0.99877, 153, 291, 216, 306
-0.998771, 209, 85, 272, 100
-0.998771, 105, 359, 168, 374
-0.998772, 345, 199, 408, 214
-0.998772, 129, 185, 192, 200
-0.998772, 289, 319, 352, 334
-0.998773, 129, 345, 192, 360
-0.998773, 209, 121, 272, 136
-0.998773, 241, 77, 304, 92
-0.998779, 41, 305, 56, 336
-0.998781, 257, 313, 272, 375
-0.998788, 241, 113, 272, 176
-0.998788, 257, 261, 384, 292
-0.998792, 281, 233, 344, 296
-0.998792, 257, 161, 500, 224
-0.998798, 113, 257, 240, 288
-0.998802, 161, 185, 288, 216
-0.998805, 161, 101, 288, 132
-0.998805, 369, 301, 496, 332
-0.998805, 305, 101, 432, 132
-0.998815, 145, 61, 272, 92
-0.99882, 281, 257, 296, 288
-0.99882, 237, 33, 268, 288
-0.998827, 369, 189, 496, 220
-0.998827, 265, 249, 280, 280
-0.99883, 145, 77, 272, 108
-0.998832, 305, 281, 368, 344
-0.998846, 247, 65, 262, 128
-0.998847, 35, 301, 50, 332
-0.998847, 295, 309, 310, 340
-0.998849, 33, 97, 160, 160
-0.998858, 175, 297, 190, 360
-0.99886, 245, 265, 260, 328
-0.998867, 221, 313, 236, 375
-0.99887, 217, 153, 232, 216
-0.998873, 309, 317, 324, 348
-0.998875, 65, 337, 192, 368
-0.998878, 305, 29, 432, 60
-0.998884, 125, 257, 140, 320
-0.998887, 247, 333, 262, 364
-0.99889, 1, 257, 128, 288
-0.998896, 279, 325, 294, 356
-0.998897, 19, 257, 34, 320
-0.998907, 71, 269, 86, 300
-0.998909, 229, 113, 244, 176
-0.998914, 305, 89, 432, 120
-0.998916, 257, 337, 272, 368
-0.998921, 187, 297, 202, 328
-0.998925, 163, 325, 178, 356
-0.998928, 41, 241, 104, 304
-0.998931, 243, 293, 258, 324
-0.998931, 145, 209, 272, 240
-0.998932, 29, 289, 44, 320
-0.998934, 293, 313, 308, 375
-0.998936, 185, 241, 216, 368
-0.998942, 225, 45, 352, 76
-0.99895, 305, 309, 432, 340
-0.998954, 149, 297, 164, 360
-0.998959, 289, 269, 304, 300
-0.998968, 253, 209, 284, 272
-0.998972, 127, 277, 142, 308
-0.998976, 191, 129, 206, 192
-0.998978, 305, 113, 368, 176
-0.998983, 289, 73, 416, 104
-0.998985, 117, 249, 132, 312
-0.998986, 49, 281, 176, 312
-0.99899, 225, 129, 352, 160
-0.998991, 279, 313, 294, 375
-0.998993, 271, 333, 286, 364
-0.998999, 287, 301, 302, 332
-0.998999, 157, 333, 172, 364
-0.999, 275, 273, 290, 336
-0.999001, 193, 73, 208, 136
-0.999001, 201, 257, 216, 320
-0.999004, 285, 325, 300, 356
-0.999007, 9, 265, 24, 328
-0.999009, 223, 25, 238, 88
-0.99901, 251, 345, 266, 375
-0.999012, 255, 269, 270, 300
-0.999014, 125, 185, 140, 248
-0.999015, 57, 281, 72, 344
-0.999018, 145, 49, 272, 80
-0.999021, 161, 161, 288, 192
-0.999022, 235, 289, 250, 320
-0.999025, 47, 301, 62, 332
-0.999031, 237, 325, 252, 356
-0.999037, 241, 173, 368, 204
-0.999039, 225, 113, 256, 240
-0.99904, 353, 165, 480, 196
-0.999042, 1, 293, 128, 324
-0.999046, 285, 313, 300, 375
-0.999047, 305, 321, 432, 352
-0.999049, 315, 329, 330, 360
-0.99905, 63, 265, 78, 296
-0.999051, 65, 305, 96, 368
-0.999054, 263, 273, 278, 304
-0.999056, 145, 197, 272, 228
-0.999066, 269, 273, 284, 336
-0.999072, 259, 249, 274, 280
-0.999075, 299, 257, 314, 320
-0.999075, 241, 225, 256, 256
-0.999075, 271, 253, 286, 284
-0.999076, 161, 337, 288, 368
-0.999077, 129, 293, 144, 324
-0.999081, 1, 153, 500, 216
-0.999082, 245, 193, 260, 256
-0.999082, 199, 73, 214, 136
-0.999082, 135, 281, 150, 344
-0.99909, 57, 305, 72, 336
-0.999095, 181, 81, 196, 144
-0.999095, 381, 169, 396, 232
-0.999101, 177, 129, 304, 160
-0.999105, 133, 281, 148, 312
-0.999105, 241, 337, 256, 368
-0.999109, 203, 273, 218, 304
-0.999111, 137, 297, 152, 328
-0.999114, 199, 289, 214, 320
-0.999114, 243, 313, 258, 344
-0.999114, 81, 209, 208, 240
-0.999115, 121, 333, 136, 364
-0.999122, 195, 273, 210, 336
-0.999125, 253, 325, 268, 356
-0.999125, 233, 153, 248, 216
-0.999129, 209, 33, 336, 64
-0.999135, 281, 41, 344, 104
-0.999139, 17, 245, 144, 276
-0.999141, 265, 337, 280, 368
-0.999144, 261, 285, 276, 316
-0.999145, 293, 257, 308, 320
-0.999146, 177, 141, 304, 172
-0.999146, 81, 193, 208, 224
-0.999147, 239, 277, 254, 308
-0.999148, 49, 309, 176, 340
-0.999148, 1, 333, 128, 364
-0.999151, 145, 233, 272, 264
-0.999156, 209, 281, 224, 344
-0.999156, 145, 305, 160, 336
-0.999157, 81, 277, 96, 308
-0.999158, 227, 289, 242, 352
-0.999159, 235, 45, 250, 76
-0.999161, 241, 137, 272, 200
-0.999164, 213, 105, 228, 168
-0.999164, 23, 285, 38, 316
-0.999164, 25, 241, 40, 304
-0.999164, 193, 289, 208, 320
-0.999169, 157, 305, 172, 336
-0.99917, 231, 277, 246, 308
-0.99917, 209, 281, 224, 312
-0.999171, 289, 345, 416, 375
-0.999171, 123, 289, 138, 320
-0.999171, 97, 105, 224, 136
-0.999173, 239, 265, 254, 328
-0.999175, 183, 169, 198, 232
-0.999177, 253, 309, 268, 340
-0.999181, 151, 325, 166, 356
-0.999182, 129, 225, 192, 288
-0.999183, 169, 325, 184, 356
-0.999183, 273, 281, 304, 344
-0.999184, 225, 205, 352, 236
-0.999186, 225, 193, 240, 256
-0.999186, 63, 241, 78, 304
-0.99919, 117, 285, 132, 316
-0.999191, 121, 269, 136, 300
-0.999192, 219, 285, 234, 316
-0.999197, 305, 53, 432, 84
-0.999198, 263, 297, 278, 360
-0.999198, 251, 105, 266, 168
-0.9992, 313, 313, 328, 375
-0.999202, 365, 177, 380, 240
-0.999203, 97, 1, 352, 64
-0.999203, 175, 309, 190, 340
-0.999204, 241, 217, 256, 280
-0.999205, 309, 337, 324, 368
-0.999207, 27, 301, 42, 332
-0.999208, 35, 285, 50, 316
-0.999208, 131, 185, 146, 248
-0.999208, 209, 261, 224, 292
-0.99921, 193, 329, 208, 360
-0.999216, 163, 313, 178, 344
-0.999216, 385, 81, 416, 208
-0.999217, 131, 161, 146, 224
-0.999217, 157, 317, 172, 348
-0.999218, 87, 277, 102, 308
-0.999218, 273, 297, 288, 328
-0.999219, 57, 265, 88, 328
-0.99922, 259, 305, 274, 336
-0.99922, 245, 209, 260, 240
-0.99922, 447, 153, 462, 216
-0.999222, 73, 1, 136, 375
-0.999224, 293, 297, 308, 328
-0.999227, 7, 265, 22, 296
-0.999229, 35, 297, 50, 360
-0.999229, 151, 305, 166, 336
-0.999231, 35, 257, 50, 320
-0.999235, 183, 273, 198, 336
-0.999237, 253, 241, 268, 272
-0.999237, 143, 293, 158, 324
-0.999243, 265, 233, 296, 296
-0.999247, 225, 169, 240, 232
-0.999248, 305, 113, 432, 144
-0.99925, 263, 153, 278, 216
-0.99925, 129, 337, 144, 368
-0.99925, 87, 305, 102, 368
-0.999253, 369, 237, 496, 268
-0.999254, 353, 69, 480, 100
-0.999255, 193, 301, 208, 332
-0.999256, 207, 293, 222, 324
-0.999258, 211, 65, 226, 128
-0.999259, 215, 313, 230, 375
-0.999259, 363, 185, 378, 216
-0.999261, 205, 233, 220, 296
-0.999263, 415, 89, 430, 152
-0.999264, 199, 97, 214, 160
-0.999266, 209, 313, 240, 375
-0.999268, 241, 53, 256, 84
-0.999269, 255, 293, 270, 324
-0.99927, 257, 129, 288, 375
-0.999272, 77, 265, 92, 296
-0.999276, 113, 133, 240, 164
-0.999276, 169, 65, 200, 192
-0.999277, 235, 313, 250, 344
-0.999277, 57, 293, 72, 324
-0.999277, 203, 121, 218, 184
-0.999279, 213, 281, 244, 344
-0.99928, 63, 273, 78, 336
-0.999281, 225, 285, 240, 316
-0.999282, 337, 137, 464, 168
-0.999282, 229, 37, 244, 68
-0.999282, 289, 17, 416, 48
-0.999282, 441, 145, 472, 272
-0.999283, 213, 129, 228, 192
-0.999283, 253, 129, 268, 192
-0.999284, 115, 329, 130, 360
-0.999288, 189, 185, 204, 216
-0.999289, 195, 153, 210, 216
-0.99929, 265, 301, 280, 332
-0.999292, 273, 153, 336, 216
-0.999293, 185, 81, 216, 144
-0.999294, 105, 281, 120, 312
-0.999295, 145, 37, 272, 68
-0.999295, 49, 269, 176, 300
-0.999299, 179, 329, 194, 360
-0.999301, 63, 309, 78, 340
-0.999301, 249, 265, 264, 296
-0.999306, 213, 297, 228, 328
-0.999307, 129, 121, 256, 152
-0.999311, 51, 297, 66, 360
-0.999311, 93, 313, 108, 375
-0.999314, 65, 297, 80, 360
-0.999318, 181, 301, 196, 332
-0.999319, 185, 329, 200, 360
-0.999319, 225, 137, 240, 200
-0.999319, 119, 177, 134, 240
-0.99932, 81, 233, 208, 264
-0.999325, 49, 313, 64, 344
-0.999326, 129, 325, 144, 356
-0.999328, 199, 329, 214, 360
-0.999329, 197, 277, 212, 308
-0.999329, 13, 265, 28, 296
-0.999329, 231, 193, 246, 256
-0.99933, 379, 173, 394, 204
-0.999331, 187, 89, 202, 152
-0.999332, 235, 129, 250, 192
-0.999334, 63, 297, 78, 328
-0.999335, 219, 177, 234, 240
-0.999338, 371, 145, 386, 208
-0.999341, 25, 273, 40, 336
-0.999343, 91, 317, 106, 348
-0.999348, 453, 169, 468, 232
-0.999348, 29, 277, 44, 308
-0.99935, 185, 305, 200, 368
-0.999351, 459, 185, 474, 248
-0.999351, 85, 317, 100, 348
-0.999352, 111, 285, 126, 316
-0.999352, 63, 277, 78, 308
-0.999353, 369, 181, 384, 212
-0.999353, 129, 281, 144, 344
-0.999354, 371, 177, 386, 240
-0.999355, 183, 173, 198, 204
-0.999357, 93, 277, 108, 308
-0.99936, 247, 225, 262, 256
-0.99936, 233, 145, 248, 176
-0.999362, 225, 317, 240, 348
-0.999363, 201, 317, 216, 348
-0.999364, 69, 249, 100, 312
-0.999365, 353, 57, 480, 88
-0.999366, 423, 113, 438, 176
-0.999366, 351, 169, 366, 232
-0.999368, 223, 29, 238, 60
-0.999368, 269, 269, 284, 300
-0.999371, 193, 33, 224, 288
-0.999372, 359, 185, 374, 248
-0.999374, 377, 297, 440, 360
-0.999374, 253, 225, 268, 256
-0.999382, 161, 289, 176, 352
-0.999384, 317, 65, 332, 128
-0.999384, 113, 245, 240, 276
-0.999384, 465, 201, 480, 264
-0.99939, 1, 185, 500, 248
-0.99939, 81, 169, 208, 200
-0.999392, 187, 65, 202, 128
-0.999393, 261, 129, 276, 192
-0.999394, 319, 313, 334, 375
-0.999394, 81, 221, 208, 252
-0.999396, 193, 297, 208, 360
-0.999401, 265, 225, 280, 288
-0.999401, 233, 257, 248, 320
-0.999403, 113, 281, 144, 344
-0.999405, 203, 281, 218, 344
-0.999406, 279, 169, 294, 232
-0.999407, 201, 177, 264, 240
-0.999407, 205, 57, 220, 120
-0.999407, 205, 89, 220, 152
-0.999408, 1, 273, 16, 336
-0.999409, 285, 241, 300, 304
-0.999411, 219, 201, 234, 264
-0.999422, 305, 41, 432, 72
-0.999424, 405, 81, 436, 144
-0.99943, 369, 321, 496, 352
-0.999437, 257, 161, 384, 192
-0.999438, 369, 25, 432, 88
-0.999441, 155, 303, 170, 318
-0.999442, 65, 277, 80, 292
-0.999442, 143, 307, 158, 322
-0.999442, 275, 313, 290, 328
-0.999443, 149, 311, 164, 326
-0.999443, 311, 355, 326, 370
-0.999443, 85, 319, 100, 334
-0.999443, 201, 331, 216, 346
-0.999443, 293, 303, 308, 318
-0.999444, 187, 187, 202, 202
-0.999444, 105, 327, 120, 342
-0.999444, 113, 331, 128, 346
-0.999446, 227, 283, 242, 298
-0.999446, 33, 295, 48, 310
-0.999447, 281, 241, 296, 368
-0.999447, 253, 295, 268, 310
-0.999448, 257, 289, 272, 304
-0.999448, 257, 269, 272, 284
-0.999448, 379, 177, 394, 192
-0.999448, 97, 323, 112, 338
-0.999448, 313, 361, 328, 375
-0.999449, 219, 329, 234, 344
-0.999449, 57, 265, 72, 280
-0.999449, 167, 311, 182, 326
-0.999449, 63, 311, 78, 326
-0.999449, 197, 287, 212, 302
-0.99945, 181, 311, 196, 326
-0.99945, 129, 281, 144, 296
-0.999451, 153, 337, 168, 352
-0.999451, 247, 295, 262, 310
-0.999452, 129, 339, 144, 354
-0.999452, 33, 307, 48, 322
-0.999452, 241, 337, 256, 352
-0.999452, 91, 321, 106, 336
-0.999452, 185, 333, 200, 348
-0.999453, 315, 337, 330, 352
-0.999453, 275, 257, 290, 272
-0.999454, 249, 277, 264, 292
-0.999454, 161, 315, 176, 330
-0.999454, 161, 329, 176, 344
-0.999455, 119, 283, 134, 298
-0.999455, 265, 279, 280, 294
-0.999455, 135, 291, 150, 306
-0.999455, 241, 307, 256, 322
-0.999456, 247, 347, 262, 362
-0.999456, 27, 291, 42, 306
-0.999456, 195, 303, 210, 318
-0.999457, 243, 223, 258, 238
-0.999458, 305, 341, 320, 356
-0.999458, 311, 323, 326, 338
-0.999459, 167, 339, 182, 354
-0.999459, 203, 277, 218, 292
-0.99946, 119, 333, 134, 348
-0.999461, 39, 299, 54, 314
-0.999462, 241, 229, 256, 244
-0.999463, 287, 307, 302, 322
-0.999463, 183, 303, 198, 318
-0.999463, 337, 149, 464, 180
-0.999465, 227, 329, 242, 344
-0.999465, 273, 241, 288, 368
-0.999466, 39, 311, 54, 326
-0.999466, 257, 333, 272, 348
-0.999467, 235, 295, 250, 310
-0.999467, 213, 285, 228, 300
-0.999467, 27, 299, 42, 314
-0.999467, 287, 273, 302, 288
-0.999467, 89, 313, 120, 375
-0.999468, 267, 253, 282, 268
-0.999469, 105, 285, 120, 300
-0.99947, 115, 289, 130, 304
-0.999471, 203, 283, 218, 298
-0.999472, 291, 279, 306, 294
-0.999473, 289, 5, 416, 36
-0.999474, 207, 291, 222, 306
-0.999475, 81, 277, 96, 292
-0.999475, 273, 331, 288, 346
-0.999476, 57, 309, 72, 324
-0.999476, 89, 279, 104, 294
-0.999477, 159, 337, 174, 352
-0.999478, 247, 333, 262, 348
-0.999478, 233, 283, 248, 298
-0.999478, 129, 287, 144, 302
-0.999478, 299, 295, 314, 310
-0.999478, 69, 269, 84, 284
-0.999479, 143, 301, 158, 316
-0.99948, 293, 309, 308, 324
-0.99948, 219, 285, 234, 300
-0.99948, 47, 309, 62, 324
-0.99948, 95, 283, 110, 298
-0.999482, 281, 259, 296, 274
-0.999482, 255, 245, 270, 260
-0.999482, 267, 273, 282, 288
-0.999483, 189, 297, 204, 312
-0.999483, 283, 267, 298, 282
-0.999483, 47, 303, 62, 318
-0.999484, 265, 323, 280, 338
-0.999484, 219, 291, 234, 306
-0.999486, 205, 1, 236, 256
-0.999487, 263, 335, 278, 350
-0.999488, 123, 291, 138, 306
-0.999488, 197, 293, 212, 308
-0.999489, 225, 141, 352, 172
-0.999489, 155, 309, 170, 324
-0.999489, 213, 291, 228, 306
-0.999489, 289, 205, 416, 236
-0.99949, 75, 275, 90, 290
-0.999491, 271, 319, 286, 334
-0.999493, 237, 329, 252, 344
-0.999493, 225, 289, 240, 304
-0.999494, 257, 339, 272, 354
-0.999495, 261, 249, 276, 264
-0.999495, 305, 313, 320, 328
-0.999496, 63, 267, 78, 282
-0.999496, 293, 225, 324, 352
-0.999496, 287, 313, 302, 328
-0.999497, 281, 315, 296, 330
-0.999498, 137, 299, 152, 314
-0.999498, 247, 341, 262, 356
-0.999499, 33, 301, 48, 316
-0.999499, 81, 89, 208, 120
-0.9995, 129, 295, 144, 310
-0.999502, 251, 289, 266, 304
-0.999502, 189, 303, 204, 318
-0.999502, 245, 283, 260, 298
-0.999503, 279, 327, 294, 342
-0.999504, 261, 225, 276, 352
-0.99951, 239, 289, 254, 304
-0.999514, 299, 301, 314, 316
-0.999514, 233, 289, 248, 304
-0.999515, 267, 329, 282, 344
-0.999515, 39, 305, 54, 320
-0.999515, 149, 305, 164, 320
-0.999516, 293, 285, 308, 300
-0.999523, 239, 283, 254, 298
-0.999528, 293, 315, 308, 330
-0.999529, 253, 193, 268, 320
-0.999535, 255, 283, 270, 298
-0.999536, 279, 321, 294, 336
-0.99954, 273, 325, 288, 340
-0.99954, 129, 25, 256, 56
-0.999541, 287, 319, 302, 334
-0.999542, 267, 241, 282, 368
-0.999544, 69, 281, 100, 344
-0.999547, 225, 225, 352, 256
-0.999548, 1, 113, 500, 176
-0.99955, 303, 307, 318, 322
-0.999558, 255, 241, 270, 368
-0.999559, 369, 41, 496, 72
-0.999561, 1, 121, 256, 184
-0.999569, 369, 13, 496, 44
-0.999571, 81, 209, 144, 272
-0.999577, 245, 289, 260, 304
-0.999577, 217, 225, 248, 352
-0.999582, 233, 33, 248, 160
-0.999587, 125, 281, 156, 344
-0.999594, 353, 1, 480, 32
-0.999596, 177, 1, 240, 64
-0.999597, 245, 225, 260, 352
-0.999599, 145, 281, 176, 344
-0.999606, 297, 193, 360, 256
-0.999614, 369, 89, 496, 120
-0.99963, 129, 9, 256, 40
-0.999631, 191, 65, 206, 192
-0.999636, 201, 65, 216, 192
-0.999636, 33, 193, 160, 224
-0.999642, 369, 25, 496, 56
-0.999647, 241, 49, 256, 176
-0.999648, 257, 249, 384, 280
-0.999648, 113, 345, 240, 375
-0.999648, 129, 145, 256, 176
-0.99965, 289, 241, 304, 368
-0.999659, 259, 161, 274, 288
-0.999663, 385, 1, 400, 128
-0.999667, 369, 257, 496, 288
-0.999669, 49, 17, 176, 80
-0.999673, 27, 241, 42, 368
-0.999674, 209, 21, 336, 52
-0.999678, 305, 221, 432, 252
-0.999684, 61, 241, 76, 368
-0.999696, 209, 241, 224, 368
-0.9997, 381, 1, 412, 256
-0.999702, 97, 65, 224, 96
-0.999703, 113, 129, 176, 375
-0.999707, 385, 241, 448, 368
-0.999713, 345, 49, 408, 112
-0.999714, 227, 33, 242, 160
-0.999718, 273, 129, 304, 375
-0.99972, 379, 1, 394, 128
-0.999721, 219, 17, 234, 144
-0.999726, 213, 97, 244, 160
-0.999728, 305, 241, 432, 272
-0.999729, 247, 49, 262, 176
-0.999731, 33, 209, 160, 240
-0.999737, 203, 241, 218, 368
-0.999742, 271, 193, 286, 320
-0.999744, 337, 125, 464, 156
-0.999747, 295, 241, 310, 368
-0.999749, 245, 129, 276, 375
-0.99975, 193, 129, 208, 256
-0.999754, 433, 1, 496, 375
-0.999755, 231, 113, 246, 240
-0.999756, 213, 33, 228, 160
-0.99976, 181, 65, 212, 320
-0.99976, 185, 81, 200, 208
-0.999766, 391, 1, 406, 128
-0.999769, 207, 81, 222, 208
-0.999773, 183, 145, 198, 272
-0.999776, 369, 269, 496, 300
-0.999779, 239, 225, 254, 352
-0.999781, 253, 81, 268, 208
-0.999791, 179, 65, 194, 192
-0.999792, 481, 225, 496, 352
-0.999794, 51, 241, 66, 368
-0.999796, 217, 161, 232, 288
-0.999797, 247, 161, 262, 288
-0.9998, 33, 241, 48, 368
-0.999803, 13, 241, 28, 368
-0.999803, 401, 313, 464, 375
-0.999806, 421, 81, 452, 208
-0.999806, 169, 145, 200, 272
-0.999807, 413, 65, 428, 192
-0.999807, 97, 49, 224, 80
-0.999809, 283, 193, 298, 320
-0.99981, 373, 1, 388, 128
-0.999817, 225, 161, 240, 288
-0.99982, 305, 265, 432, 296
-0.99982, 67, 241, 82, 368
-0.999821, 177, 1, 208, 128
-0.999822, 191, 17, 206, 144
-0.999826, 183, 1, 198, 128
-0.999828, 289, 193, 304, 320
-0.99983, 197, 209, 212, 336
-0.999833, 65, 157, 192, 188
-0.999833, 473, 209, 488, 336
-0.999839, 205, 17, 220, 144
-0.999839, 239, 161, 254, 288
-0.999853, 109, 177, 140, 240
-0.999853, 125, 241, 140, 368
-0.999854, 233, 225, 248, 352
-0.999859, 203, 193, 218, 320
-0.999864, 451, 161, 466, 288
-0.999865, 21, 241, 36, 368
-0.999866, 457, 129, 472, 256
-0.999867, 125, 257, 156, 320
-0.999868, 73, 241, 104, 368
-0.99987, 225, 81, 240, 208
-0.999871, 433, 137, 464, 200
-0.999872, 173, 65, 188, 192
-0.999872, 253, 145, 268, 272
-0.999872, 361, 1, 392, 128
-0.999873, 237, 113, 252, 240
-0.999875, 457, 177, 472, 304
-0.999875, 425, 97, 440, 224
-0.999876, 191, 177, 206, 304
-0.999876, 199, 145, 214, 272
-0.999877, 295, 193, 310, 320
-0.999879, 207, 129, 222, 256
-0.999879, 277, 193, 292, 320
-0.99988, 1, 153, 256, 216
-0.99988, 217, 113, 232, 240
-0.99988, 39, 225, 54, 352
-0.999882, 193, 241, 224, 304
-0.999885, 463, 145, 478, 272
-0.999885, 389, 33, 420, 160
-0.999886, 419, 97, 434, 224
-0.999888, 445, 145, 460, 272
-0.999889, 371, 161, 386, 288
-0.999891, 261, 113, 276, 240
-0.999892, 381, 161, 396, 288
-0.999893, 177, 145, 192, 272
-0.9999, 7, 241, 22, 368
-0.9999, 215, 241, 230, 368
-0.9999, 191, 225, 206, 352
-0.999902, 365, 161, 380, 288
-0.999904, 301, 225, 316, 352
-0.999906, 399, 33, 414, 160
-0.999906, 359, 129, 374, 256
-0.999908, 233, 161, 248, 288
-0.999908, 385, 81, 400, 208
-0.999909, 433, 81, 448, 208
-0.99991, 259, 49, 274, 176
-0.99991, 73, 225, 88, 352
-0.99991, 319, 113, 334, 240
-0.999912, 45, 241, 60, 368
-0.999914, 325, 161, 340, 288
-0.999917, 239, 1, 254, 128
-0.99992, 395, 81, 410, 208
-0.999923, 477, 161, 492, 288
-0.999923, 269, 145, 284, 272
-0.999924, 197, 17, 212, 144
-0.999924, 131, 193, 146, 320
-0.999924, 183, 193, 198, 320
-0.999926, 467, 193, 482, 320
-0.999926, 89, 241, 104, 368
-0.999928, 421, 49, 436, 176
-0.999934, 451, 97, 466, 224
-0.999935, 217, 1, 280, 64
-0.999937, 355, 177, 370, 304
-0.999938, 221, 209, 236, 336
-0.999939, 313, 113, 328, 240
-0.999939, 387, 161, 402, 288
-0.999941, 327, 113, 342, 240
-0.999944, 205, 129, 236, 375
-0.999946, 205, 73, 236, 136
-0.999947, 307, 65, 322, 192
-0.999954, 1, 241, 16, 368
-0.999954, 317, 65, 332, 192
-0.999955, 53, 193, 68, 320
-0.999956, 353, 113, 368, 240
-0.999956, 209, 193, 224, 320
-0.999956, 167, 49, 182, 176
-0.999957, 245, 1, 260, 128
-0.999959, 349, 177, 364, 304
-0.999959, 469, 145, 484, 272
-0.999959, 129, 65, 192, 192
-0.99996, 333, 177, 348, 304
-0.999962, 115, 225, 130, 352
-0.999962, 441, 65, 456, 192
-0.999963, 367, 1, 382, 128
-0.999964, 27, 193, 42, 320
-0.999964, 265, 1, 328, 128
-0.999964, 227, 225, 242, 352
-0.999964, 83, 225, 98, 352
-0.999967, 119, 161, 134, 288
-0.999967, 109, 161, 124, 288
-0.999967, 343, 177, 358, 304
-0.999968, 97, 241, 112, 368
-0.999968, 257, 1, 288, 256
-0.999976, 1, 81, 500, 144
-0.999977, 169, 177, 200, 240
-1.00001, 57, 201, 120, 264
-1.00003, 349, 185, 380, 248
-1.00003, 297, 129, 360, 375
-1.00004, 257, 113, 288, 240
-1.00004, 301, 129, 332, 375
-1.00006, 433, 121, 496, 184
-1.00006, 177, 185, 240, 248
-1.00006, 453, 129, 484, 375
-1.00007, 189, 17, 220, 144
-1.00007, 105, 137, 168, 200
-1.00008, 309, 33, 340, 288
-1.00008, 133, 169, 164, 232
-1.00009, 285, 129, 316, 375
-1.0001, 105, 129, 136, 375
-1.00011, 345, 97, 408, 160
-1.00012, 205, 153, 236, 216
-1.00013, 193, 129, 224, 375
-1.00013, 337, 113, 400, 240
-1.00015, 161, 33, 192, 288
-1.00018, 401, 65, 432, 192
-1.00024, 393, 65, 424, 320
-1.00024, 201, 129, 232, 192
-1.00025, 401, 1, 464, 64
-1.00026, 369, 1, 400, 256
-1.00026, 217, 129, 248, 375
-1.00027, 373, 129, 404, 375
-1.00034, 353, 225, 416, 288
-1.00035, 49, 17, 176, 144
-1.00037, 453, 177, 484, 304
-1.00037, 117, 1, 148, 256
-1.00038, 257, 33, 288, 160
-1.00039, 301, 257, 332, 320
-1.00039, 125, 129, 156, 375
-1.0004, 17, 41, 144, 104
-1.0004, 33, 65, 160, 128
-1.0004, 285, 257, 316, 320
-1.00041, 125, 241, 156, 368
-1.00041, 465, 129, 496, 375
-1.00041, 93, 289, 124, 352
-1.00042, 85, 129, 116, 375
-1.00042, 361, 225, 424, 352
-1.00042, 1, 17, 256, 80
-1.00042, 433, 33, 464, 288
-1.00042, 209, 225, 240, 288
-1.00043, 321, 33, 352, 288
-1.00044, 357, 65, 388, 320
-1.00046, 277, 33, 308, 288
-1.00046, 437, 129, 468, 375
-1.00047, 153, 137, 216, 200
-1.00048, 233, 129, 264, 375
-1.00049, 413, 65, 444, 320
-1.0005, 385, 209, 448, 272
-1.00051, 377, 17, 408, 80
-1.00051, 189, 297, 220, 360
-1.00053, 297, 33, 328, 288
-1.00053, 181, 249, 212, 312
-1.00054, 225, 265, 256, 328
-1.00055, 425, 289, 488, 352
-1.00055, 53, 241, 84, 304
-1.00056, 177, 97, 240, 352
-1.00057, 337, 65, 368, 320
-1.0006, 145, 65, 176, 320
-1.00061, 137, 49, 200, 112
-1.00061, 385, 49, 416, 112
-1.00062, 469, 161, 500, 288
-1.00062, 129, 1, 160, 256
-1.00063, 445, 33, 476, 288
-1.00066, 113, 65, 176, 128
-1.00066, 229, 161, 260, 288
-1.0007, 237, 49, 268, 112
-1.00072, 249, 41, 280, 104
-1.00076, 213, 177, 244, 304
-1.00077, 1, 313, 64, 375
-1.00077, 273, 129, 336, 192
-1.00077, 161, 289, 192, 352
-1.00078, 425, 129, 456, 375
-1.00079, 45, 265, 76, 328
-1.00081, 25, 1, 88, 375
-1.00081, 305, 73, 336, 136
-1.00083, 281, 193, 312, 320
-1.00083, 105, 113, 168, 240
-1.00084, 305, 49, 336, 176
-1.00084, 257, 137, 288, 200
-1.00086, 313, 129, 344, 375
-1.00087, 293, 177, 324, 304
-1.00089, 417, 81, 480, 144
-1.00089, 105, 1, 136, 256
-1.0009, 49, 177, 112, 304
-1.00092, 89, 257, 120, 320
-1.00096, 369, 161, 432, 224
-1.00097, 445, 177, 476, 240
-1.00098, 413, 105, 444, 168
-1.001, 181, 273, 212, 336
-1.001, 121, 185, 152, 248
-1.001, 217, 25, 280, 88
-1.00101, 93, 233, 124, 296
-1.00102, 357, 161, 388, 288
-1.00104, 309, 313, 340, 375
-1.00104, 293, 49, 324, 112
-1.00105, 73, 129, 104, 375
-1.00105, 393, 25, 456, 88
-1.00106, 465, 169, 496, 232
-1.00106, 9, 297, 40, 360
-1.00106, 17, 129, 144, 256
-1.00107, 137, 1, 200, 128
-1.00108, 409, 33, 472, 288
-1.0011, 53, 129, 84, 375
-1.0011, 93, 33, 124, 288
-1.00111, 221, 145, 252, 208
-1.00111, 25, 129, 56, 375
-1.00111, 325, 129, 356, 375
-1.00114, 109, 313, 140, 375
-1.00116, 41, 129, 72, 375
-1.00117, 181, 129, 212, 192
-1.00117, 181, 169, 212, 232
-1.0012, 345, 113, 376, 240
-1.0012, 205, 49, 236, 112
-1.00121, 49, 1, 112, 375
-1.00123, 453, 145, 484, 208
-1.00123, 169, 97, 200, 160
-1.00128, 457, 209, 488, 272
-1.00129, 1, 137, 128, 200
-1.00129, 461, 33, 492, 288
-1.0013, 325, 193, 356, 256
-1.00131, 201, 17, 232, 144
-1.00132, 429, 129, 460, 256
-1.00135, 81, 89, 144, 152
-1.00135, 361, 257, 424, 320
-1.00137, 169, 129, 200, 375
-1.00139, 273, 169, 304, 232
-1.0014, 241, 177, 272, 240
-1.00142, 385, 185, 448, 248
-1.00142, 385, 249, 448, 312
-1.00142, 157, 129, 188, 375
-1.00142, 5, 129, 36, 375
-1.00143, 253, 185, 284, 248
-1.00144, 1, 49, 500, 112
-1.00145, 81, 33, 112, 288
-1.00149, 101, 225, 132, 352
-1.0015, 305, 113, 336, 240
-1.00154, 41, 193, 72, 320
-1.00154, 217, 201, 248, 264
-1.00157, 85, 241, 116, 368
-1.00158, 25, 241, 56, 304
-1.00161, 365, 113, 396, 240
-1.00162, 305, 1, 368, 128
-1.00165, 345, 161, 376, 224
-1.00165, 105, 161, 136, 288
-1.00167, 469, 225, 500, 288
-1.0017, 377, 81, 408, 144
-1.00172, 69, 1, 100, 256
-1.00173, 377, 169, 408, 232
-1.00174, 245, 73, 276, 136
-1.00175, 113, 217, 144, 280
-1.00179, 57, 161, 120, 224
-1.00181, 113, 241, 144, 368
-1.00181, 1, 17, 128, 80
-1.00182, 53, 33, 84, 288
-1.00185, 293, 33, 324, 160
-1.00186, 353, 201, 416, 264
-1.00186, 77, 305, 108, 368
-1.00188, 137, 241, 168, 368
-1.00188, 17, 217, 80, 280
-1.00188, 9, 33, 40, 288
-1.00189, 25, 33, 56, 288
-1.00192, 177, 57, 208, 120
-1.00193, 289, 233, 320, 296
-1.00195, 273, 1, 336, 64
-1.00196, 37, 33, 68, 288
-1.00197, 453, 129, 484, 256
-1.00199, 121, 161, 152, 224
-1.002, 309, 281, 340, 344
-1.00201, 325, 145, 356, 272
-1.00202, 65, 129, 128, 375
-1.00204, 137, 257, 168, 320
-1.00207, 157, 49, 188, 176
-1.00207, 69, 193, 100, 320
-1.00209, 229, 121, 260, 184
-1.0021, 449, 313, 480, 375
-1.0021, 245, 1, 276, 128
-1.00211, 321, 161, 352, 224
-1.00212, 221, 241, 252, 304
-1.00214, 397, 57, 428, 120
-1.00214, 225, 97, 256, 160
-1.00216, 125, 193, 156, 320
-1.00219, 365, 145, 396, 208
-1.00219, 101, 257, 132, 320
-1.0022, 193, 49, 224, 112
-1.00222, 461, 305, 492, 368
-1.00226, 161, 241, 192, 368
-1.00226, 193, 161, 224, 288
-1.00228, 365, 1, 396, 64
-1.00229, 125, 233, 156, 296
-1.00231, 433, 81, 464, 208
-1.00233, 145, 129, 208, 375
-1.00234, 1, 25, 500, 88
-1.00234, 193, 153, 224, 216
-1.00234, 181, 193, 212, 256
-1.00237, 381, 177, 412, 304
-1.00241, 345, 177, 376, 304
-1.00245, 433, 1, 496, 256
-1.00258, 169, 193, 200, 320
-1.00258, 433, 81, 496, 208
-1.0026, 1, 1, 64, 375
-1.00267, 373, 49, 404, 176
-1.00269, 137, 129, 168, 256
-1.00271, 1, 1, 500, 64
-1.00272, 293, 81, 324, 208
-1.00273, 409, 113, 440, 240
-1.00274, 397, 241, 428, 368
-1.00275, 409, 17, 472, 144
-1.00286, 89, 1, 152, 256
-1.00289, 417, 33, 448, 160
-1.00293, 317, 97, 348, 224
-1.00298, 157, 145, 188, 272
-1.00299, 313, 161, 344, 288
-1.00303, 325, 33, 356, 160
-1.00311, 129, 113, 192, 240
-1.00317, 313, 1, 344, 128
-1.00318, 137, 1, 168, 128
-1.00329, 213, 129, 244, 256
-1.00331, 337, 49, 400, 176
-1.00341, 93, 161, 124, 288
-1.00345, 17, 81, 144, 208
-1.00345, 145, 193, 176, 320
-1.00353, 81, 193, 112, 320
-1.00355, 173, 241, 204, 368
-1.00356, 13, 193, 44, 320
-1.0036, 165, 1, 196, 128
-1.00363, 457, 225, 488, 352
-1.00374, 269, 1, 300, 128
-1.00384, 349, 1, 380, 128
-1.00387, 157, 97, 188, 224
-1.00387, 385, 225, 416, 352
-1.00388, 29, 193, 60, 320
-1.00389, 269, 145, 300, 272
-1.00392, 125, 17, 156, 144
-1.00398, 117, 129, 148, 256
-1.00399, 393, 145, 456, 272
-1.00399, 309, 241, 340, 368
-1.00401, 389, 129, 420, 256
-1.00402, 329, 97, 360, 224
-1.00411, 321, 129, 384, 375
-1.00422, 401, 17, 432, 144
-1.00424, 449, 81, 480, 208
-1.00434, 433, 33, 464, 160
-1.0045, 17, 177, 80, 304
-1.00459, 277, 81, 308, 208
-1.0046, 153, 1, 184, 128
-1.0046, 137, 65, 168, 192
-1.00471, 97, 97, 128, 224
-1.00476, 105, 65, 168, 192
-1.00477, 409, 241, 472, 368
-1.00486, 397, 177, 428, 304
-1.00497, 73, 97, 136, 224
-1.00499, 337, 49, 368, 176
-1.00506, 53, 193, 84, 320
-1.00509, 41, 97, 104, 352
-1.0051, 413, 241, 444, 368
-1.00523, 425, 241, 456, 368
-1.00523, 281, 145, 312, 272
-1.00527, 105, 17, 136, 144
-1.0054, 465, 113, 496, 240
-1.0054, 121, 81, 152, 208
-1.0055, 85, 113, 116, 240
-1.00551, 157, 193, 188, 320
-1.00558, 385, 193, 448, 320
-1.00561, 433, 33, 496, 160
-1.0057, 437, 241, 468, 368
-1.00574, 293, 129, 324, 256
-1.00586, 281, 1, 312, 128
-1.00588, 333, 193, 364, 320
-1.00592, 149, 241, 180, 368
-1.00594, 65, 33, 128, 288
-1.00604, 73, 49, 136, 176
-1.00612, 73, 145, 136, 272
-1.00619, 9, 129, 72, 375
-1.00642, 369, 145, 432, 272
-1.00669, 81, 1, 144, 128
-1.00705, 1, 33, 128, 160
-1.00782, 49, 129, 112, 256
-1.00966, 41, 1, 104, 256
-1.01039, 57, 1, 120, 128
-1.01043, 17, 1, 80, 256
-1.01117, 49, 81, 112, 208
-1.01309, 33, 33, 96, 160
-1.01327, 409, 193, 472, 320
-1.01344, 337, 209, 400, 336
-1.01395, 17, 129, 80, 256
-1.01422, 25, 81, 88, 208
-1.01478, 9, 33, 72, 160
-1.01478, 1, 81, 64, 208
