1957
-0.301322, 1, 1, 500, 375
-0.320166, 1, 1, 500, 256
-0.386827, 193, 1, 448, 375
-0.421141, 1, 1, 256, 375
-0.471112, 1, 97, 500, 352
-0.477043, 97, 1, 352, 375
-0.538137, 1, 65, 256, 320
-0.540298, 129, 1, 384, 256
-0.549953, 161, 97, 416, 352
-0.590035, 257, 1, 500, 256
-0.813721, 257, 97, 500, 352
-0.832277, 337, 1, 464, 256
-0.835223, 65, 1, 192, 375
-0.839339, 65, 1, 192, 256
-0.841422, 1, 1, 128, 375
-0.842365, 209, 1, 336, 256
-0.846172, 17, 33, 144, 288
-0.849314, 193, 1, 320, 375
-0.849437, 337, 1, 464, 375
-0.855009, 1, 17, 500, 144
-0.859608, 113, 1, 240, 375
-0.863441, 177, 97, 304, 352
-0.866776, 161, 1, 288, 256
-0.868148, 257, 65, 384, 320
-0.869705, 129, 97, 256, 352
-0.874722, 273, 1, 400, 375
-0.89165, 1, 33, 256, 160
-0.895713, 81, 97, 208, 352
-0.897535, 1, 65, 500, 192
-0.899385, 161, 1, 416, 128
-0.901836, 113, 1, 240, 256
-0.907725, 353, 97, 480, 352
-0.908334, 1, 129, 128, 375
-0.913464, 1, 81, 256, 208
-0.919045, 65, 1, 192, 128
-0.921148, 1, 161, 500, 288
-0.922501, 121, 17, 184, 144
-0.923406, 9, 17, 72, 144
-0.925876, 129, 113, 384, 240
-0.927633, 89, 1, 152, 128
-0.928749, 1, 113, 500, 240
-0.929002, 57, 33, 120, 160
-0.929348, 81, 49, 208, 176
-0.929437, 257, 81, 500, 208
-0.930684, 161, 161, 416, 288
-0.93247, 337, 17, 464, 144
-0.935081, 17, 1, 144, 128
-0.936124, 433, 33, 496, 160
-0.936579, 377, 17, 440, 144
-0.936733, 17, 81, 144, 208
-0.936794, 305, 97, 432, 352
-0.93852, 193, 113, 256, 240
-0.939205, 113, 97, 240, 224
-0.939777, 81, 49, 144, 176
-0.939924, 257, 1, 500, 128
-0.940162, 33, 49, 96, 176
-0.941345, 249, 97, 312, 224
-0.941688, 1, 209, 500, 336
-0.943424, 97, 49, 352, 176
-0.943784, 225, 97, 352, 224
-0.943784, 113, 25, 176, 88
-0.945203, 177, 113, 304, 240
-0.945658, 241, 1, 368, 128
-0.946994, 65, 41, 128, 104
-0.949187, 145, 81, 208, 208
-0.949686, 273, 113, 336, 240
-0.949703, 217, 113, 280, 240
-0.949863, 1, 129, 256, 256
-0.94988, 169, 97, 232, 224
-0.950456, 313, 65, 376, 192
-0.950654, 81, 9, 144, 72
-0.951623, 409, 65, 472, 192
-0.951696, 41, 57, 104, 120
-0.952089, 1, 33, 64, 96
-0.952376, 369, 65, 496, 192
-0.952803, 425, 73, 488, 136
-0.952859, 97, 49, 160, 112
-0.953225, 353, 33, 416, 160
-0.953388, 105, 1, 168, 64
-0.953389, 105, 65, 168, 192
-0.953492, 65, 65, 128, 128
-0.953694, 25, 97, 88, 224
-0.953851, 129, 57, 192, 120
-0.953969, 65, 97, 192, 224
-0.954319, 433, 81, 496, 208
-0.954446, 257, 105, 320, 168
-0.95452, 401, 1, 464, 128
-0.955052, 153, 161, 216, 288
-0.955309, 65, 209, 320, 336
-0.955453, 49, 97, 112, 224
-0.955528, 345, 41, 408, 104
-0.955845, 249, 1, 312, 64
-0.956334, 97, 177, 224, 304
-0.956449, 81, 97, 144, 224
-0.957011, 105, 73, 168, 136
-0.957026, 433, 49, 496, 112
-0.957047, 289, 49, 416, 176
-0.957664, 201, 177, 264, 304
-0.957921, 17, 73, 80, 136
-0.958647, 273, 17, 336, 144
-0.959325, 145, 17, 208, 144
-0.959771, 401, 65, 464, 128
-0.959794, 161, 1, 288, 128
-0.960251, 353, 177, 480, 304
-0.960615, 305, 177, 432, 304
-0.960621, 41, 33, 104, 96
-0.960681, 369, 33, 432, 96
-0.960896, 257, 193, 500, 320
-0.961159, 1, 97, 64, 224
-0.961199, 129, 161, 192, 288
-0.961551, 161, 161, 288, 288
-0.961896, 129, 49, 256, 176
-0.963052, 177, 105, 240, 168
-0.963055, 425, 97, 488, 160
-0.963063, 73, 1, 136, 256
-0.96309, 321, 65, 384, 128
-0.963148, 81, 89, 144, 152
-0.963244, 361, 177, 424, 304
-0.963326, 337, 161, 400, 288
-0.96335, 225, 1, 288, 64
-0.963408, 153, 97, 216, 160
-0.963412, 65, 17, 192, 80
-0.963614, 1, 1, 64, 64
-0.96415, 289, 97, 416, 224
-0.964755, 49, 161, 176, 288
-0.965225, 153, 209, 216, 336
-0.96531, 281, 1, 344, 64
-0.965373, 73, 33, 104, 160
-0.965442, 233, 17, 296, 144
-0.965703, 457, 33, 488, 160
-0.966482, 329, 17, 392, 144
-0.96683, 125, 25, 156, 88
-0.966835, 149, 33, 180, 96
-0.967038, 265, 1, 328, 256
-0.9671, 89, 1, 120, 128
-0.967403, 233, 105, 296, 168
-0.967482, 1, 73, 128, 136
-0.967691, 401, 41, 464, 104
-0.967817, 201, 97, 264, 352
-0.967854, 33, 97, 96, 160
-0.96796, 217, 129, 280, 192
-0.967966, 177, 161, 240, 288
-0.968183, 117, 1, 148, 128
-0.968206, 153, 201, 216, 264
-0.968297, 313, 161, 376, 288
-0.968601, 121, 1, 184, 256
-0.968936, 53, 33, 84, 160
-0.968944, 81, 57, 208, 120
-0.969051, 105, 161, 168, 288
-0.969062, 257, 161, 384, 288
-0.96922, 117, 1, 148, 64
-0.96951, 109, 65, 140, 192
-0.969636, 113, 225, 240, 352
-0.96966, 81, 113, 144, 176
-0.969666, 149, 17, 180, 144
-0.97031, 437, 57, 468, 120
-0.970373, 385, 161, 448, 288
-0.970411, 113, 65, 144, 128
-0.970468, 97, 1, 160, 256
-0.970485, 129, 81, 192, 144
-0.970519, 201, 1, 264, 64
-0.970557, 97, 81, 128, 144
-0.97062, 277, 1, 308, 64
-0.970654, 33, 49, 160, 112
-0.970775, 393, 17, 456, 80
-0.970886, 161, 65, 224, 320
-0.97099, 69, 41, 100, 104
-0.970992, 209, 49, 336, 176
-0.971007, 53, 49, 84, 112
-0.971033, 457, 41, 488, 104
-0.971164, 385, 1, 448, 256
-0.971359, 129, 177, 192, 240
-0.971368, 433, 25, 496, 88
-0.971417, 209, 161, 336, 288
-0.971535, 137, 33, 200, 96
-0.971665, 129, 33, 160, 160
-0.97171, 225, 161, 288, 288
-0.971749, 153, 73, 216, 136
-0.971767, 353, 25, 480, 88
-0.971794, 465, 97, 496, 160
-0.972048, 97, 57, 128, 120
-0.972115, 161, 225, 416, 352
-0.972148, 337, 193, 400, 256
-0.972197, 1, 25, 128, 88
-0.972398, 237, 1, 268, 64
-0.972399, 49, 33, 112, 288
-0.972783, 1, 25, 32, 88
-0.972806, 297, 1, 360, 128
-0.973013, 269, 105, 300, 168
-0.973045, 161, 225, 224, 288
-0.973364, 297, 113, 360, 240
-0.973419, 97, 81, 128, 208
-0.973809, 257, 97, 320, 352
-0.973825, 233, 1, 296, 256
-0.973977, 281, 81, 344, 144
-0.97406, 281, 97, 344, 352
-0.974122, 1, 129, 128, 256
-0.974133, 377, 201, 440, 264
-0.974144, 49, 73, 80, 136
-0.974164, 313, 89, 376, 152
-0.974194, 105, 113, 168, 240
-0.974262, 57, 105, 120, 168
-0.974269, 193, 129, 256, 192
-0.974305, 109, 41, 140, 104
-0.974395, 89, 1, 120, 64
-0.974423, 469, 49, 500, 176
-0.974501, 265, 1, 296, 64
-0.974546, 137, 41, 168, 104
-0.97456, 209, 1, 272, 128
-0.974618, 389, 25, 420, 88
-0.974623, 49, 81, 176, 144
-0.974729, 313, 33, 376, 288
-0.974756, 289, 161, 352, 288
-0.974758, 289, 105, 352, 168
-0.974796, 425, 177, 488, 304
-0.9748, 369, 129, 496, 256
-0.974865, 469, 1, 500, 128
-0.974875, 177, 209, 304, 336
-0.974904, 257, 145, 500, 272
-0.97491, 129, 209, 192, 336
-0.974936, 97, 89, 224, 152
-0.974937, 17, 1, 144, 64
-0.975037, 345, 33, 408, 288
-0.9751, 321, 49, 448, 112
-0.975223, 41, 1, 104, 64
-0.975321, 385, 89, 448, 152
-0.975398, 437, 49, 468, 176
-0.975475, 177, 209, 240, 336
-0.975618, 241, 113, 368, 176
-0.975692, 197, 97, 228, 224
-0.9758, 241, 113, 272, 240
-0.97581, 161, 33, 192, 160
-0.975876, 357, 33, 388, 96
-0.975908, 17, 65, 80, 320
-0.975947, 329, 73, 360, 136
-0.976038, 13, 17, 44, 144
-0.976062, 289, 225, 416, 352
-0.976165, 265, 97, 296, 224
-0.97617, 357, 33, 388, 160
-0.976184, 241, 25, 304, 88
-0.9763, 397, 17, 428, 144
-0.976373, 321, 33, 384, 96
-0.976479, 173, 89, 204, 152
-0.976503, 225, 97, 288, 352
-0.976542, 85, 49, 116, 176
-0.976577, 421, 73, 452, 136
-0.976588, 345, 65, 408, 128
-0.976658, 369, 9, 432, 72
-0.976684, 9, 1, 40, 64
-0.976705, 377, 177, 440, 240
-0.976754, 193, 185, 256, 248
-0.976754, 85, 33, 116, 96
-0.976786, 125, 81, 156, 208
-0.976796, 125, 49, 156, 112
-0.976866, 369, 89, 496, 152
-0.976953, 209, 1, 272, 256
-0.97698, 129, 105, 192, 168
-0.977003, 289, 65, 352, 192
-0.977066, 105, 17, 136, 144
-0.977101, 81, 137, 144, 200
-0.977107, 201, 217, 264, 280
-0.97712, 41, 33, 72, 160
-0.977457, 273, 129, 336, 192
-0.977526, 169, 177, 232, 240
-0.977592, 61, 73, 92, 136
-0.97771, 153, 145, 216, 208
-0.977794, 193, 65, 256, 192
-0.977814, 57, 81, 88, 208
-0.977846, 289, 1, 352, 256
-0.977871, 77, 65, 108, 128
-0.977954, 425, 33, 488, 288
-0.977968, 469, 25, 500, 88
-0.977973, 101, 1, 132, 64
-0.978035, 105, 113, 168, 176
-0.978061, 173, 81, 204, 208
-0.978067, 129, 113, 256, 176
-0.97809, 221, 113, 252, 240
-0.9782, 249, 161, 312, 288
-0.978298, 1, 105, 64, 168
-0.978465, 193, 113, 224, 176
-0.978524, 81, 97, 112, 224
-0.978743, 161, 73, 192, 136
-0.978813, 305, 1, 336, 64
-0.978826, 97, 25, 128, 88
-0.978863, 417, 193, 480, 256
-0.978868, 305, 97, 336, 224
-0.978967, 469, 73, 500, 136
-0.978983, 81, 161, 144, 288
-0.979078, 257, 1, 384, 64
-0.97919, 161, 1, 288, 64
-0.979245, 1, 73, 32, 136
-0.979287, 209, 113, 240, 240
-0.979349, 313, 177, 376, 240
-0.979446, 257, 241, 500, 368
-0.979487, 169, 49, 232, 176
-0.979534, 113, 1, 240, 128
-0.979539, 121, 1, 184, 375
-0.979683, 437, 81, 468, 144
-0.979712, 49, 209, 176, 336
-0.979758, 293, 113, 324, 240
-0.979761, 457, 65, 488, 128
-0.979856, 129, 217, 192, 280
-0.979877, 141, 65, 172, 128
-0.979985, 401, 1, 432, 64
-0.980017, 369, 1, 496, 64
-0.98006, 81, 1, 144, 375
-0.980108, 381, 17, 412, 144
-0.98035, 209, 97, 272, 160
-0.980417, 69, 97, 100, 224
-0.980437, 5, 97, 36, 224
-0.980546, 41, 161, 104, 288
-0.980562, 17, 105, 144, 168
-0.980642, 177, 121, 304, 184
-0.980669, 97, 105, 128, 168
-0.98068, 137, 1, 168, 64
-0.980691, 57, 145, 120, 208
-0.980702, 353, 193, 480, 256
-0.980719, 253, 97, 284, 224
-0.980753, 345, 1, 408, 375
-0.980802, 129, 1, 192, 64
-0.98082, 125, 73, 156, 136
-0.980851, 321, 73, 448, 136
-0.980863, 249, 1, 312, 375
-0.980888, 1, 169, 64, 232
-0.980958, 277, 97, 308, 224
-0.981014, 17, 97, 48, 224
-0.981029, 141, 161, 172, 288
-0.981118, 81, 97, 144, 352
-0.981244, 185, 97, 216, 224
-0.981245, 85, 89, 116, 152
-0.981345, 369, 161, 400, 288
-0.981354, 113, 33, 240, 96
-0.981506, 369, 41, 400, 104
-0.981518, 329, 65, 360, 192
-0.981591, 113, 217, 240, 280
-0.981672, 145, 177, 176, 240
-0.981748, 433, 129, 496, 192
-0.981783, 413, 1, 444, 128
-0.981846, 321, 1, 384, 375
-0.981863, 1, 1, 32, 128
-0.98189, 337, 113, 400, 240
-0.981953, 273, 89, 400, 152
-0.981957, 29, 97, 60, 224
-0.982053, 433, 1, 496, 64
-0.982064, 29, 17, 60, 144
-0.982126, 289, 1, 320, 64
-0.98215, 109, 89, 140, 152
-0.982151, 1, 145, 64, 272
-0.982167, 345, 49, 376, 112
-0.982193, 161, 89, 288, 152
-0.982308, 217, 65, 280, 192
-0.982331, 253, 1, 284, 64
-0.982474, 377, 57, 440, 120
-0.982495, 137, 97, 200, 352
-0.98278, 105, 177, 168, 240
-0.982784, 225, 177, 288, 240
-0.982791, 169, 1, 232, 128
-0.982857, 289, 1, 352, 375
-0.982884, 177, 201, 208, 264
-0.982954, 413, 1, 444, 64
-0.983038, 305, 113, 336, 176
-0.983054, 217, 1, 248, 64
-0.983102, 345, 169, 408, 232
-0.983108, 1, 177, 128, 304
-0.983123, 469, 49, 500, 112
-0.983126, 365, 193, 396, 256
-0.98313, 209, 1, 336, 64
-0.98315, 253, 17, 284, 144
-0.983196, 385, 65, 448, 192
-0.983262, 369, 65, 496, 128
-0.983307, 97, 177, 224, 240
-0.983316, 41, 1, 104, 375
-0.983406, 41, 81, 72, 208
-0.983407, 345, 17, 408, 80
-0.983407, 377, 1, 440, 375
-0.983452, 189, 177, 220, 304
-0.983477, 177, 177, 208, 304
-0.983512, 409, 65, 440, 128
-0.983603, 401, 25, 432, 88
-0.983652, 185, 153, 248, 216
-0.983685, 1, 49, 32, 176
-0.983765, 213, 121, 244, 184
-0.983889, 37, 81, 68, 144
-0.984024, 337, 209, 400, 336
-0.984045, 161, 177, 288, 240
-0.984144, 201, 249, 264, 312
-0.984248, 425, 169, 488, 232
-0.984297, 465, 1, 496, 64
-0.984298, 153, 121, 216, 184
-0.984345, 233, 129, 264, 192
-0.984348, 129, 161, 160, 288
-0.984486, 281, 113, 312, 176
-0.984498, 81, 113, 112, 176
-0.984515, 29, 25, 60, 88
-0.984549, 385, 113, 448, 240
-0.984639, 129, 153, 256, 216
-0.984642, 305, 1, 336, 128
-0.984695, 273, 193, 400, 256
-0.984703, 257, 105, 288, 168
-0.984722, 189, 209, 220, 272
-0.984734, 201, 225, 264, 352
-0.984842, 241, 209, 368, 336
-0.984858, 225, 153, 288, 216
-0.984912, 13, 25, 44, 88
-0.984934, 141, 65, 172, 192
-0.985034, 105, 153, 168, 216
-0.985058, 461, 121, 492, 184
-0.985065, 265, 17, 296, 144
-0.985067, 433, 129, 496, 256
-0.985088, 81, 113, 208, 176
-0.985121, 145, 1, 208, 375
-0.985126, 241, 129, 304, 192
-0.985166, 177, 81, 240, 144
-0.985185, 357, 161, 388, 288
-0.985297, 337, 225, 464, 352
-0.985304, 105, 97, 168, 352
-0.98532, 369, 33, 400, 160
-0.985354, 49, 97, 80, 160
-0.985359, 225, 1, 288, 375
-0.985375, 397, 57, 428, 120
-0.98548, 417, 41, 448, 104
-0.985504, 5, 105, 36, 168
-0.985513, 225, 225, 288, 352
-0.985524, 69, 113, 100, 176
-0.985564, 265, 25, 328, 88
-0.985599, 161, 41, 224, 104
-0.985643, 281, 225, 344, 352
-0.985652, 173, 129, 204, 256
-0.985671, 13, 73, 44, 136
-0.985671, 345, 217, 408, 280
-0.985686, 313, 201, 376, 264
-0.985696, 205, 177, 236, 304
-0.985711, 185, 89, 216, 152
-0.985726, 129, 145, 192, 208
-0.985753, 161, 81, 192, 208
-0.985779, 17, 1, 80, 375
-0.985856, 293, 129, 324, 192
-0.985938, 377, 17, 408, 80
-0.98601, 285, 1, 316, 128
-0.986084, 129, 177, 160, 240
-0.986103, 57, 129, 120, 375
-0.986123, 337, 169, 464, 232
-0.98613, 465, 113, 496, 240
-0.986273, 341, 65, 372, 192
-0.986318, 421, 65, 452, 192
-0.986377, 317, 81, 348, 208
-0.986471, 25, 89, 56, 152
-0.986508, 245, 129, 276, 192
-0.986553, 97, 209, 160, 336
-0.986675, 49, 177, 176, 240
-0.986869, 165, 193, 196, 256
-0.986884, 193, 225, 224, 352
-0.986886, 273, 177, 336, 240
-0.986895, 181, 113, 212, 176
-0.986922, 193, 185, 224, 248
-0.987075, 433, 217, 496, 280
-0.98719, 129, 105, 160, 168
-0.987194, 317, 89, 348, 152
-0.987207, 81, 161, 144, 224
-0.987218, 305, 1, 432, 64
-0.987236, 153, 145, 184, 272
-0.987283, 157, 97, 188, 160
-0.987284, 33, 1, 96, 128
-0.987371, 65, 17, 96, 80
-0.987482, 21, 1, 52, 64
-0.987603, 105, 209, 168, 272
-0.987627, 189, 233, 220, 296
-0.987663, 49, 57, 112, 88
-0.987675, 145, 89, 176, 152
-0.987679, 65, 153, 192, 216
-0.987707, 233, 1, 264, 128
-0.987778, 381, 193, 412, 320
-0.987783, 161, 217, 192, 280
-0.987787, 417, 97, 448, 160
-0.987872, 249, 169, 312, 232
-0.987876, 85, 145, 116, 208
-0.987918, 5, 49, 36, 112
-0.987946, 401, 169, 464, 232
-0.987961, 129, 241, 256, 304
-0.987965, 421, 193, 452, 256
-0.988003, 257, 25, 288, 88
-0.988006, 225, 161, 256, 288
-0.988028, 445, 33, 476, 96
-0.988061, 445, 1, 476, 128
-0.98811, 81, 13, 144, 44
-0.988135, 313, 9, 376, 72
-0.988163, 361, 129, 424, 256
-0.988207, 313, 209, 376, 336
-0.988209, 257, 25, 384, 88
-0.988242, 17, 37, 80, 68
-0.988244, 209, 89, 336, 152
-0.98826, 1, 57, 256, 120
-0.988264, 337, 161, 368, 288
-0.988326, 161, 201, 288, 264
-0.988337, 233, 1, 296, 32
-0.9884, 1, 225, 128, 352
-0.988412, 41, 49, 72, 112
-0.988481, 169, 249, 232, 312
-0.988484, 117, 129, 148, 256
-0.988492, 49, 69, 112, 100
-0.988528, 105, 241, 168, 304
-0.988528, 177, 145, 304, 208
-0.988549, 321, 225, 384, 288
-0.988552, 285, 25, 316, 88
-0.988563, 417, 85, 480, 116
-0.988582, 73, 61, 136, 92
-0.988599, 65, 45, 128, 76
-0.988636, 353, 217, 480, 280
-0.988684, 129, 41, 192, 72
-0.988739, 1, 81, 256, 144
-0.988756, 161, 33, 192, 96
-0.988822, 181, 177, 212, 240
-0.988847, 141, 113, 172, 240
-0.988862, 65, 1, 320, 64
-0.988914, 165, 177, 196, 304
-0.988921, 257, 241, 320, 368
-0.988929, 113, 65, 176, 96
-0.988986, 289, 169, 416, 232
-0.988999, 81, 1, 144, 32
-0.989102, 257, 109, 320, 140
-0.989106, 401, 113, 464, 176
-0.989112, 105, 41, 168, 72
-0.989173, 409, 113, 472, 240
-0.989185, 317, 161, 348, 288
-0.989186, 89, 25, 152, 56
-0.989187, 401, 209, 464, 336
-0.989191, 433, 69, 496, 100
-0.989218, 113, 29, 176, 60
-0.989228, 209, 9, 272, 40
-0.989266, 385, 49, 416, 112
-0.989285, 113, 9, 240, 72
-0.989323, 305, 129, 368, 375
-0.98935, 281, 249, 344, 312
-0.989423, 433, 53, 496, 84
-0.989446, 273, 153, 336, 216
-0.989459, 437, 177, 468, 304
-0.989464, 249, 121, 312, 152
-0.989466, 77, 1, 108, 64
-0.989467, 209, 177, 336, 240
-0.989481, 225, 1, 480, 64
-0.989486, 341, 73, 372, 136
-0.989499, 249, 13, 312, 44
-0.989524, 1, 21, 64, 52
-0.989571, 433, 193, 464, 256
-0.989576, 97, 53, 160, 84
-0.989576, 1, 81, 64, 112
-0.989582, 257, 1, 320, 32
-0.989607, 41, 29, 104, 60
-0.989619, 185, 1, 248, 256
-0.989624, 273, 65, 400, 128
-0.989632, 93, 129, 124, 256
-0.989636, 17, 145, 144, 208
-0.989679, 345, 69, 408, 100
-0.989704, 353, 49, 416, 80
-0.989707, 73, 89, 104, 152
-0.989718, 417, 97, 480, 128
-0.989724, 1, 9, 500, 72
-0.989728, 449, 97, 480, 160
-0.98974, 161, 65, 288, 128
-0.989742, 409, 73, 472, 104
-0.98975, 89, 73, 152, 104
-0.989772, 393, 177, 424, 240
-0.989861, 65, 209, 128, 336
-0.989879, 105, 13, 168, 44
-0.98991, 293, 89, 324, 152
-0.989924, 129, 53, 192, 84
-0.989931, 145, 93, 208, 124
-0.989953, 385, 33, 448, 64
-0.989991, 377, 209, 408, 272
-0.990031, 453, 113, 484, 240
-0.990046, 1, 161, 32, 288
-0.990071, 433, 1, 496, 375
-0.990071, 9, 93, 72, 124
-0.990088, 345, 129, 408, 375
-0.99011, 321, 77, 384, 108
-0.990112, 9, 65, 72, 96
-0.990203, 33, 121, 96, 184
-0.990261, 353, 37, 416, 68
-0.990274, 153, 105, 216, 136
-0.990278, 425, 109, 488, 140
-0.990283, 433, 121, 496, 152
-0.990293, 105, 97, 168, 128
-0.990303, 41, 109, 104, 140
-0.990304, 433, 41, 496, 72
-0.99031, 385, 81, 448, 112
-0.990313, 245, 25, 276, 88
-0.990352, 49, 201, 176, 264
-0.990359, 289, 1, 416, 128
-0.990361, 177, 241, 304, 304
-0.990391, 177, 117, 240, 148
-0.990403, 273, 17, 336, 48
-0.990406, 81, 105, 144, 136
-0.990424, 257, 89, 500, 152
-0.990427, 345, 17, 376, 144
-0.990457, 1, 177, 128, 240
-0.990462, 201, 1, 264, 375
-0.990475, 273, 25, 304, 88
-0.990481, 137, 65, 200, 96
-0.990487, 305, 217, 432, 280
-0.990534, 405, 89, 436, 152
-0.990548, 225, 21, 288, 52
-0.990557, 165, 161, 196, 224
-0.990587, 393, 93, 456, 124
-0.990607, 353, 201, 384, 264
-0.990652, 1, 49, 64, 80
-0.990652, 281, 5, 344, 36
-0.990654, 281, 113, 344, 144
-0.990668, 41, 45, 104, 76
-0.990673, 281, 101, 344, 132
-0.990688, 173, 225, 204, 288
-0.990718, 377, 61, 440, 92
-0.990738, 233, 257, 296, 320
-0.990739, 181, 137, 212, 200
-0.990743, 57, 93, 120, 124
-0.990797, 365, 9, 396, 72
-0.990814, 217, 133, 280, 164
-0.990836, 17, 109, 80, 140
-0.990846, 237, 161, 268, 288
-0.990851, 145, 205, 208, 236
-0.990852, 209, 25, 336, 88
-0.990878, 333, 49, 364, 112
-0.990878, 433, 197, 496, 228
-0.990893, 321, 65, 384, 96
-0.990898, 273, 257, 400, 320
-0.990918, 357, 57, 388, 120
-0.990927, 377, 205, 440, 236
-0.990937, 125, 153, 156, 216
-0.990947, 105, 1, 168, 32
-0.990961, 49, 241, 176, 304
-0.990973, 25, 177, 88, 240
-0.990979, 217, 113, 280, 144
-0.991011, 449, 201, 480, 264
-0.991033, 65, 33, 128, 64
-0.991061, 161, 217, 224, 248
-0.991064, 161, 25, 288, 88
-0.991083, 409, 1, 472, 375
-0.99113, 193, 129, 256, 160
-0.99114, 137, 29, 200, 60
-0.99115, 177, 1, 240, 375
-0.991152, 409, 49, 472, 80
-0.99116, 137, 81, 200, 112
-0.991197, 109, 113, 140, 176
-0.991205, 361, 81, 424, 208
-0.991212, 377, 169, 408, 232
-0.991231, 333, 17, 364, 144
-0.991234, 409, 13, 472, 44
-0.991242, 173, 17, 204, 144
-0.99125, 401, 193, 464, 224
-0.9913, 185, 1, 248, 32
-0.9913, 393, 161, 424, 288
-0.991323, 81, 93, 144, 124
-0.991353, 57, 1, 120, 32
-0.991356, 297, 153, 360, 216
-0.991363, 345, 249, 408, 312
-0.991389, 305, 117, 368, 148
-0.991399, 73, 145, 104, 272
-0.991404, 41, 17, 104, 48
-0.991438, 409, 1, 472, 32
-0.991442, 153, 173, 216, 204
-0.991474, 289, 225, 352, 288
-0.991489, 329, 53, 392, 84
-0.991492, 129, 109, 192, 140
-0.991526, 1, 1, 64, 32
-0.991526, 313, 105, 376, 136
-0.991528, 65, 117, 128, 148
-0.991531, 369, 5, 432, 36
-0.991537, 89, 117, 152, 148
-0.991543, 149, 153, 180, 216
-0.991545, 433, 9, 496, 40
-0.991569, 65, 81, 128, 112
-0.991585, 33, 81, 96, 112
-0.991587, 201, 241, 232, 304
-0.991592, 257, 217, 384, 280
-0.991599, 225, 105, 256, 168
-0.991601, 1, 177, 64, 208
-0.991604, 153, 53, 216, 84
-0.991609, 81, 145, 144, 176
-0.991612, 353, 201, 416, 232
-0.991622, 105, 85, 168, 116
-0.991624, 353, 185, 416, 216
-0.991634, 337, 241, 464, 304
-0.991704, 129, 1, 192, 32
-0.991712, 81, 249, 144, 312
-0.991722, 253, 161, 284, 288
-0.991734, 153, 185, 216, 216
-0.991738, 273, 129, 336, 160
-0.991764, 149, 29, 180, 60
-0.991777, 1, 25, 32, 56
-0.991789, 249, 25, 312, 56
-0.991793, 377, 193, 440, 224
-0.991819, 313, 93, 376, 124
-0.991826, 185, 49, 216, 176
-0.991827, 153, 153, 216, 184
-0.991837, 33, 105, 288, 168
-0.991846, 1, 33, 256, 96
-0.991883, 457, 57, 488, 88
-0.991893, 273, 89, 336, 120
-0.991898, 185, 281, 248, 344
-0.991899, 33, 97, 96, 128
-0.991903, 233, 9, 264, 40
-0.991913, 425, 129, 488, 375
-0.991914, 151, 33, 166, 96
-0.991914, 437, 65, 468, 96
-0.99192, 81, 133, 144, 164
-0.991924, 141, 45, 172, 76
-0.991949, 17, 25, 48, 56
-0.991955, 425, 77, 456, 108
-0.991966, 121, 265, 184, 328
-0.991979, 409, 205, 472, 236
-0.991982, 129, 217, 192, 248
-0.991982, 53, 57, 84, 88
-0.991983, 153, 209, 184, 336
-0.992021, 313, 185, 376, 216
-0.992027, 65, 29, 192, 60
-0.992033, 153, 49, 184, 80
-0.992034, 393, 33, 424, 64
-0.992046, 177, 165, 240, 196
-0.992051, 161, 229, 224, 260
-0.992062, 65, 49, 96, 80
-0.992062, 177, 189, 240, 220
-0.99207, 409, 125, 472, 156
-0.992074, 161, 41, 224, 72
-0.992086, 29, 29, 60, 60
-0.992099, 345, 221, 408, 252
-0.992105, 129, 169, 192, 200
-0.992124, 449, 177, 480, 304
-0.992125, 97, 85, 128, 116
-0.992127, 233, 233, 296, 296
-0.992132, 201, 229, 264, 260
-0.992156, 449, 73, 480, 104
-0.992161, 293, 1, 324, 32
-0.992165, 465, 117, 496, 148
-0.99218, 273, 5, 304, 36
-0.9922, 169, 65, 232, 96
-0.992225, 185, 217, 248, 248
-0.992243, 141, 61, 172, 92
-0.992256, 253, 5, 284, 36
-0.992259, 49, 169, 112, 232
-0.992263, 105, 189, 168, 220
-0.992264, 105, 73, 136, 104
-0.992272, 161, 25, 176, 88
-0.992277, 225, 137, 352, 200
-0.992278, 85, 21, 116, 52
-0.992285, 117, 33, 148, 64
-0.992289, 133, 33, 164, 64
-0.992315, 65, 45, 192, 76
-0.992321, 269, 109, 300, 140
-0.992324, 469, 69, 500, 100
-0.992326, 105, 61, 136, 92
-0.99233, 81, 217, 144, 280
-0.992333, 97, 1, 128, 32
-0.992337, 469, 97, 500, 128
-0.992342, 105, 169, 168, 200
-0.992342, 1, 145, 64, 208
-0.992346, 193, 177, 256, 208
-0.992349, 113, 21, 144, 52
-0.99235, 209, 1, 336, 32
-0.992352, 469, 57, 500, 88
-0.992353, 401, 61, 464, 92
-0.992356, 385, 21, 448, 52
-0.992359, 49, 69, 80, 100
-0.99236, 433, 185, 496, 216
-0.992361, 129, 13, 192, 44
-0.992374, 81, 157, 144, 188
-0.992375, 77, 61, 108, 92
-0.992385, 153, 117, 216, 148
-0.992391, 121, 73, 152, 104
-0.992392, 169, 93, 232, 124
-0.992451, 285, 17, 316, 48
-0.99246, 129, 45, 160, 76
-0.99247, 265, 273, 328, 336
-0.992475, 433, 89, 464, 120
-0.99248, 357, 41, 388, 72
-0.99248, 253, 17, 284, 48
-0.992481, 5, 37, 36, 68
-0.992484, 85, 5, 116, 36
-0.992489, 265, 17, 296, 48
-0.992489, 113, 9, 144, 40
-0.992495, 113, 265, 240, 328
-0.9925, 469, 21, 500, 52
-0.992502, 121, 57, 152, 88
-0.992509, 413, 85, 444, 116
-0.992512, 221, 1, 252, 32
-0.992521, 109, 101, 140, 132
-0.992522, 321, 73, 448, 104
-0.992527, 1, 81, 32, 112
-0.992529, 89, 65, 120, 96
-0.992534, 157, 69, 188, 100
-0.992534, 93, 109, 124, 140
-0.992539, 421, 205, 452, 236
-0.992543, 241, 21, 272, 52
-0.992554, 129, 73, 384, 136
-0.992568, 137, 33, 152, 96
-0.992572, 1, 1, 32, 32
-0.992574, 305, 13, 336, 44
-0.992588, 181, 225, 212, 352
-0.992597, 441, 57, 456, 120
-0.992597, 5, 65, 20, 128
-0.992603, 457, 85, 488, 116
-0.992603, 105, 41, 136, 72
-0.992608, 457, 105, 488, 136
-0.992616, 77, 41, 108, 72
-0.992619, 329, 81, 360, 112
-0.992623, 465, 33, 496, 64
-0.992625, 101, 17, 132, 48
-0.992628, 65, 61, 96, 92
-0.992631, 441, 53, 472, 84
-0.992643, 417, 13, 448, 44
-0.992645, 53, 81, 84, 112
-0.992658, 381, 33, 412, 64
-0.992662, 301, 177, 332, 304
-0.99268, 309, 1, 340, 32
-0.992684, 437, 77, 468, 108
-0.9927, 1, 65, 32, 96
-0.992704, 289, 113, 416, 176
-0.992707, 105, 129, 136, 256
-0.992707, 105, 57, 120, 120
-0.992708, 469, 1, 500, 32
-0.992708, 173, 101, 204, 132
-0.992738, 297, 129, 360, 192
-0.992739, 57, 49, 72, 112
-0.992744, 405, 21, 436, 52
-0.992749, 333, 69, 364, 100
-0.992754, 81, 65, 208, 96
-0.992771, 81, 117, 112, 148
-0.992773, 77, 73, 108, 104
-0.992783, 413, 193, 444, 224
-0.99279, 117, 45, 148, 76
-0.992793, 465, 45, 496, 76
-0.992799, 193, 117, 224, 148
-0.992803, 425, 177, 456, 304
-0.992804, 397, 197, 428, 228
-0.992829, 33, 13, 160, 44
-0.992842, 9, 93, 40, 124
-0.992845, 1, 29, 128, 60
-0.992849, 153, 9, 216, 72
-0.992855, 373, 45, 404, 76
-0.992857, 209, 225, 240, 352
-0.99286, 253, 29, 284, 60
-0.992862, 113, 85, 144, 116
-0.992862, 133, 21, 164, 52
-0.992865, 115, 33, 130, 96
-0.992868, 463, 49, 478, 112
-0.992872, 129, 25, 384, 88
-0.992875, 165, 89, 196, 120
-0.99288, 161, 37, 192, 68
-0.992886, 465, 129, 496, 160
-0.99289, 233, 289, 296, 352
-0.992892, 249, 125, 280, 156
-0.992895, 417, 97, 448, 128
-0.992897, 353, 61, 384, 92
-0.992898, 81, 33, 96, 96
-0.992901, 181, 209, 212, 240
-0.992901, 433, 197, 464, 228
-0.992903, 13, 13, 44, 44
-0.992903, 73, 105, 104, 136
-0.992908, 65, 37, 96, 68
-0.992915, 385, 45, 416, 76
-0.992916, 265, 29, 296, 60
-0.992927, 229, 133, 260, 164
-0.99293, 221, 13, 252, 44
-0.992933, 293, 109, 324, 140
-0.99294, 281, 121, 312, 152
-0.992954, 449, 125, 480, 156
-0.992956, 41, 81, 72, 112
-0.992957, 85, 93, 116, 124
-0.992961, 209, 5, 240, 36
-0.992963, 125, 1, 156, 32
-0.992964, 89, 49, 120, 80
-0.992973, 209, 121, 240, 152
-0.992985, 373, 197, 404, 228
-0.992985, 401, 85, 432, 116
-0.992986, 73, 5, 104, 36
-0.992987, 97, 29, 128, 60
-0.992988, 305, 121, 336, 152
-0.992991, 97, 97, 128, 128
-0.993003, 29, 17, 60, 48
-0.993005, 409, 217, 472, 280
-0.993007, 161, 193, 416, 256
-0.993009, 405, 33, 436, 64
-0.993011, 325, 93, 356, 124
-0.993015, 1, 33, 500, 96
-0.993016, 121, 97, 152, 128
-0.993029, 425, 65, 456, 96
-0.993029, 185, 221, 216, 252
-0.99303, 185, 105, 216, 136
-0.993034, 405, 1, 436, 32
-0.993035, 21, 1, 36, 64
-0.993038, 445, 97, 476, 128
-0.993038, 33, 93, 64, 124
-0.993042, 81, 157, 112, 188
-0.993044, 369, 29, 400, 60
-0.993051, 133, 105, 164, 136
-0.993058, 369, 113, 496, 176
-0.993072, 241, 65, 272, 192
-0.993078, 1, 209, 64, 336
-0.993092, 265, 161, 296, 288
-0.993114, 3, 1, 18, 64
-0.993129, 217, 25, 280, 88
-0.993173, 25, 209, 88, 336
-0.993179, 67, 41, 82, 104
-0.993222, 137, 209, 168, 336
-0.993224, 225, 57, 352, 120
-0.993255, 289, 1, 304, 64
-0.993325, 33, 65, 160, 96
-0.993354, 473, 97, 488, 160
-0.993401, 473, 41, 488, 104
-0.99341, 447, 57, 462, 120
-0.993414, 369, 209, 400, 336
-0.993457, 225, 65, 256, 192
-0.993474, 213, 65, 244, 192
-0.993487, 1, 85, 128, 116
-0.993507, 29, 17, 44, 80
-0.993519, 81, 77, 208, 108
-0.993534, 225, 241, 352, 304
-0.99355, 473, 73, 488, 136
-0.993584, 9, 1, 24, 64
-0.993612, 123, 1, 138, 64
-0.993619, 289, 177, 320, 304
-0.993647, 1, 97, 500, 160
-0.993674, 59, 73, 74, 136
-0.993694, 129, 49, 144, 112
-0.993697, 369, 225, 432, 288
-0.993711, 129, 113, 384, 176
-0.993731, 217, 1, 248, 128
-0.993744, 479, 25, 494, 88
-0.993766, 177, 81, 192, 144
-0.993768, 479, 1, 494, 64
-0.993778, 289, 65, 320, 192
-0.993783, 11, 73, 26, 136
-0.993819, 1, 97, 128, 128
-0.993895, 305, 25, 432, 88
-0.993897, 257, 57, 500, 120
-0.993925, 101, 177, 132, 304
-0.993936, 337, 57, 464, 88
-0.993939, 123, 57, 138, 120
-0.993941, 241, 209, 304, 272
-0.993948, 381, 145, 412, 272
-0.99398, 197, 49, 228, 176
-0.994004, 479, 89, 494, 152
-0.994005, 1, 41, 16, 104
-0.994018, 433, 65, 448, 128
-0.994029, 257, 81, 320, 144
-0.99404, 409, 241, 472, 304
-0.994055, 321, 249, 384, 312
-0.994057, 109, 81, 124, 144
-0.994088, 273, 1, 288, 64
-0.9941, 159, 49, 174, 112
-0.994108, 57, 249, 120, 312
-0.994112, 295, 1, 310, 64
-0.994116, 283, 1, 298, 64
-0.994132, 209, 113, 336, 144
-0.994136, 101, 81, 116, 144
-0.994148, 87, 25, 102, 88
-0.994151, 289, 201, 352, 264
-0.994181, 187, 89, 202, 152
-0.994185, 209, 281, 336, 344
-0.994193, 485, 105, 500, 168
-0.994202, 129, 49, 384, 112
-0.99421, 479, 57, 494, 120
-0.994223, 89, 1, 104, 64
-0.994225, 7, 25, 22, 88
-0.994263, 423, 73, 438, 136
-0.994286, 413, 145, 444, 272
-0.994309, 117, 57, 132, 120
-0.994321, 405, 33, 420, 96
-0.994324, 129, 1, 144, 64
-0.994331, 467, 17, 482, 80
-0.994336, 257, 193, 500, 256
-0.994351, 413, 57, 428, 120
-0.994383, 113, 113, 240, 144
-0.9944, 467, 89, 482, 152
-0.994431, 363, 33, 378, 96
-0.994463, 247, 1, 262, 64
-0.994485, 95, 65, 110, 128
-0.994493, 485, 65, 500, 128
-0.994511, 145, 41, 160, 104
-0.994572, 455, 65, 470, 128
-0.994583, 373, 41, 388, 104
-0.994585, 67, 81, 82, 144
-0.994587, 49, 73, 64, 136
-0.994594, 65, 265, 192, 328
-0.994603, 415, 1, 430, 64
-0.994641, 361, 241, 424, 368
-0.994659, 369, 113, 400, 240
-0.994682, 113, 1, 128, 64
-0.994709, 369, 73, 496, 104
-0.994715, 13, 161, 44, 288
-0.994743, 1, 73, 500, 136
-0.994752, 73, 41, 88, 104
-0.994782, 469, 161, 500, 288
-0.994793, 165, 57, 180, 120
-0.994805, 81, 89, 208, 120
-0.994826, 335, 65, 350, 128
-0.994835, 433, 1, 464, 128
-0.994838, 209, 209, 336, 272
-0.99487, 65, 1, 192, 32
-0.994871, 73, 73, 88, 136
-0.994885, 131, 73, 146, 136
-0.994886, 473, 1, 488, 64
-0.994886, 81, 101, 208, 132
-0.994888, 437, 97, 468, 224
-0.994935, 229, 1, 244, 64
-0.994936, 15, 25, 30, 88
-0.994937, 273, 281, 400, 344
-0.994943, 115, 89, 130, 152
-0.994953, 321, 45, 448, 76
-0.994963, 123, 25, 138, 88
-0.994972, 113, 177, 144, 304
-0.995018, 97, 9, 112, 72
-0.995036, 369, 93, 496, 124
-0.995045, 391, 25, 406, 88
-0.995046, 95, 89, 110, 152
-0.995053, 111, 57, 126, 120
-0.995053, 277, 177, 308, 304
-0.995057, 239, 1, 254, 64
-0.995058, 433, 225, 496, 352
-0.995068, 107, 17, 122, 80
-0.995107, 161, 117, 288, 148
-0.995127, 369, 33, 496, 64
-0.995128, 301, 49, 332, 176
-0.995141, 269, 1, 300, 256
-0.995142, 123, 81, 138, 144
-0.995169, 197, 113, 212, 176
-0.995199, 209, 125, 336, 156
-0.995203, 441, 81, 456, 144
-0.995205, 171, 73, 186, 136
-0.995213, 161, 273, 288, 336
-0.995218, 305, 1, 320, 64
-0.995251, 101, 33, 116, 96
-0.995255, 77, 1, 108, 256
-0.995261, 237, 225, 268, 352
-0.995273, 301, 1, 332, 256
-0.995316, 305, 97, 432, 128
-0.995316, 113, 1, 240, 32
-0.995325, 409, 49, 440, 176
-0.995326, 161, 17, 288, 48
-0.995347, 273, 97, 288, 160
-0.995359, 89, 57, 104, 120
-0.99536, 415, 25, 430, 88
-0.995367, 311, 113, 326, 176
-0.995392, 353, 197, 480, 228
-0.995417, 257, 113, 500, 176
-0.995418, 21, 25, 36, 88
-0.995421, 95, 113, 110, 176
-0.995455, 137, 57, 152, 120
-0.995463, 241, 13, 368, 44
-0.995501, 1, 177, 500, 240
-0.995512, 467, 113, 482, 176
-0.995512, 321, 17, 352, 144
-0.995519, 353, 57, 368, 120
-0.995539, 379, 41, 394, 104
-0.995559, 377, 129, 440, 375
-0.995562, 309, 225, 340, 352
-0.995565, 81, 17, 208, 48
-0.995573, 485, 25, 500, 88
-0.995603, 17, 73, 32, 136
-0.995609, 433, 89, 448, 152
-0.995615, 193, 169, 448, 232
-0.995615, 321, 85, 448, 116
-0.995619, 459, 97, 474, 160
-0.995637, 81, 113, 96, 176
-0.995642, 473, 121, 488, 184
-0.995643, 285, 1, 316, 256
-0.995645, 285, 225, 316, 352
-0.995648, 239, 129, 254, 192
-0.995666, 101, 105, 116, 168
-0.995667, 413, 81, 428, 144
-0.995668, 109, 1, 140, 256
-0.995671, 97, 225, 352, 288
-0.995674, 283, 105, 298, 168
-0.995687, 369, 105, 496, 136
-0.995692, 353, 209, 384, 336
-0.995704, 17, 53, 144, 84
-0.995719, 447, 81, 462, 144
-0.995736, 209, 97, 240, 352
-0.995739, 153, 65, 168, 128
-0.995739, 1, 225, 256, 288
-0.995754, 129, 25, 144, 88
-0.995754, 61, 161, 92, 288
-0.995756, 125, 209, 156, 336
-0.995766, 125, 1, 156, 256
-0.995767, 51, 49, 66, 112
-0.995788, 457, 33, 472, 96
-0.995789, 397, 25, 412, 88
-0.995798, 1, 41, 128, 72
-0.995806, 241, 1, 272, 256
-0.995822, 213, 113, 228, 176
-0.995856, 95, 33, 110, 96
-0.995869, 289, 109, 416, 140
-0.99587, 469, 1, 500, 256
-0.995871, 329, 81, 344, 144
-0.995877, 321, 97, 336, 160
-0.995888, 1, 177, 256, 240
-0.995894, 87, 113, 102, 176
-0.995897, 147, 73, 162, 136
-0.995909, 167, 33, 182, 96
-0.995922, 5, 89, 20, 152
-0.995937, 165, 81, 180, 144
-0.995942, 257, 1, 288, 256
-0.995943, 81, 57, 96, 120
-0.995954, 1, 217, 128, 280
-0.995979, 41, 161, 72, 288
-0.995979, 135, 9, 150, 72
-0.99598, 1, 249, 128, 312
-0.995996, 109, 105, 124, 168
-0.996001, 357, 33, 372, 96
-0.996012, 263, 17, 278, 80
-0.996012, 253, 121, 268, 184
-0.996014, 5, 73, 20, 104
-0.996019, 203, 113, 218, 176
-0.996023, 187, 201, 202, 264
-0.996045, 145, 1, 176, 256
-0.996062, 233, 129, 248, 192
-0.996075, 253, 1, 268, 64
-0.996077, 145, 177, 160, 240
-0.996077, 223, 121, 238, 184
-0.996095, 273, 137, 400, 200
-0.996107, 369, 13, 496, 44
-0.996113, 225, 25, 480, 88
-0.996128, 173, 65, 204, 320
-0.99613, 1, 201, 256, 264
-0.99613, 17, 109, 144, 140
-0.996131, 437, 33, 468, 288
-0.996134, 89, 33, 120, 288
-0.996137, 165, 49, 180, 80
-0.996157, 225, 1, 256, 256
-0.996181, 321, 297, 448, 360
-0.996184, 225, 97, 256, 352
-0.996199, 103, 61, 118, 92
-0.996221, 113, 289, 240, 352
-0.996232, 245, 1, 260, 32
-0.99627, 197, 97, 228, 352
-0.996276, 453, 1, 484, 256
-0.996291, 113, 29, 240, 60
-0.996298, 281, 97, 312, 352
-0.996303, 301, 97, 332, 352
-0.996307, 475, 1, 490, 32
-0.996314, 337, 145, 464, 208
-0.996319, 321, 5, 448, 36
-0.996324, 65, 113, 192, 144
-0.996334, 97, 209, 224, 240
-0.996342, 59, 53, 74, 84
-0.996344, 325, 65, 356, 320
-0.996361, 97, 169, 352, 232
-0.996365, 65, 33, 96, 288
-0.996396, 257, 121, 384, 152
-0.996414, 53, 33, 84, 288
-0.996434, 193, 217, 448, 280
-0.996438, 249, 97, 280, 352
-0.996456, 485, 61, 500, 92
-0.996471, 257, 1, 384, 32
-0.99648, 353, 113, 384, 240
-0.996499, 479, 21, 494, 52
-0.996503, 265, 97, 296, 352
-0.996506, 185, 97, 216, 352
-0.996516, 161, 5, 288, 36
-0.996517, 357, 1, 388, 256
-0.996523, 27, 21, 42, 52
-0.996531, 117, 61, 132, 92
-0.996538, 17, 273, 144, 336
-0.99655, 159, 41, 174, 72
-0.996562, 25, 145, 56, 272
-0.996565, 321, 265, 448, 328
-0.996577, 433, 77, 448, 108
-0.996611, 119, 1, 134, 32
-0.996633, 257, 225, 288, 352
-0.996634, 239, 1, 254, 32
-0.996634, 1, 145, 256, 208
-0.996638, 471, 109, 486, 140
-0.996652, 77, 45, 92, 76
-0.996658, 137, 33, 152, 64
-0.996664, 109, 73, 124, 104
-0.996686, 421, 85, 436, 116
-0.996687, 13, 97, 44, 352
-0.99669, 369, 185, 496, 216
-0.996701, 241, 101, 368, 132
-0.996712, 247, 13, 262, 44
-0.996727, 417, 1, 448, 256
-0.996737, 397, 113, 428, 240
-0.996741, 161, 29, 176, 60
-0.996749, 483, 5, 498, 36
-0.996757, 7, 25, 22, 56
-0.996758, 129, 177, 256, 208
-0.996758, 149, 37, 164, 68
-0.996761, 397, 33, 412, 64
-0.996761, 289, 197, 416, 228
-0.996774, 161, 129, 288, 160
-0.996776, 337, 209, 368, 336
-0.996781, 93, 1, 108, 32
-0.996783, 237, 97, 268, 352
-0.996796, 13, 1, 44, 256
-0.996817, 155, 29, 170, 60
-0.996839, 209, 305, 336, 368
-0.996842, 161, 101, 288, 132
-0.996845, 481, 113, 496, 144
-0.996855, 1, 33, 32, 288
-0.996856, 77, 97, 108, 352
-0.996861, 393, 1, 424, 256
-0.996873, 155, 53, 170, 84
-0.996874, 85, 225, 116, 352
-0.996887, 321, 185, 448, 216
-0.996888, 157, 33, 188, 288
-0.996888, 345, 33, 376, 288
-0.99689, 161, 313, 288, 375
-0.996894, 427, 85, 442, 116
-0.996914, 93, 13, 108, 44
-0.99692, 113, 229, 240, 260
-0.996929, 145, 41, 272, 72
-0.996956, 127, 1, 142, 32
-0.996957, 311, 1, 326, 32
-0.996959, 17, 21, 32, 52
-0.996961, 445, 65, 460, 96
-0.996965, 129, 137, 384, 200
-0.996973, 481, 97, 496, 128
-0.996975, 313, 65, 344, 320
-0.996983, 71, 49, 86, 80
-0.996983, 461, 65, 476, 96
-0.996986, 113, 53, 240, 84
-0.996991, 373, 33, 404, 288
-0.996992, 63, 73, 78, 104
-0.996993, 161, 213, 288, 244
-0.996994, 127, 69, 142, 100
-0.996995, 137, 45, 152, 76
-0.996996, 277, 49, 308, 176
-0.996999, 451, 65, 466, 96
-0.997002, 143, 41, 158, 72
-0.997003, 193, 241, 448, 304
-0.997005, 441, 85, 456, 116
-0.997008, 479, 53, 494, 84
-0.997017, 485, 17, 500, 48
-0.997034, 115, 49, 130, 80
-0.997034, 407, 33, 422, 64
-0.997048, 471, 69, 486, 100
-0.997056, 439, 69, 454, 100
-0.997057, 1, 25, 16, 56
-0.997058, 369, 45, 496, 76
-0.997066, 435, 89, 450, 120
-0.997073, 321, 33, 448, 64
-0.997097, 467, 97, 482, 128
-0.9971, 461, 53, 476, 84
-0.997101, 83, 33, 98, 64
-0.997101, 17, 1, 144, 32
-0.99711, 101, 73, 116, 104
-0.997116, 279, 1, 294, 32
-0.997122, 1, 1, 16, 32
-0.997133, 37, 65, 68, 320
-0.997137, 57, 73, 72, 104
-0.997158, 107, 1, 122, 32
-0.997168, 485, 49, 500, 80
-0.997169, 321, 209, 448, 240
-0.997172, 417, 21, 432, 52
-0.997176, 9, 89, 24, 120
-0.99719, 453, 77, 468, 108
-0.997211, 475, 121, 490, 152
-0.997225, 87, 45, 102, 76
-0.997226, 119, 73, 134, 104
-0.99723, 475, 93, 490, 124
-0.997239, 233, 1, 248, 32
-0.997242, 129, 241, 256, 272
-0.997242, 65, 57, 80, 88
-0.99725, 257, 9, 272, 40
-0.997254, 33, 29, 48, 60
-0.997263, 185, 97, 200, 128
-0.997278, 107, 85, 122, 116
-0.997282, 287, 5, 302, 36
-0.997283, 425, 73, 440, 104
-0.997285, 113, 165, 240, 196
-0.99729, 149, 49, 164, 80
-0.997293, 271, 21, 286, 52
-0.9973, 113, 313, 240, 375
-0.997305, 65, 257, 320, 320
-0.997317, 19, 33, 34, 64
-0.997317, 401, 97, 464, 352
-0.99732, 227, 9, 242, 40
-0.99732, 25, 33, 40, 64
-0.997321, 87, 21, 102, 52
-0.997321, 413, 85, 428, 116
-0.997322, 171, 69, 186, 100
-0.997326, 167, 37, 182, 68
-0.997328, 241, 13, 256, 44
-0.997334, 379, 49, 394, 80
-0.997336, 475, 81, 490, 112
-0.997342, 117, 89, 132, 120
-0.99735, 369, 1, 496, 32
-0.99735, 467, 125, 482, 156
-0.997354, 461, 41, 476, 72
-0.997374, 299, 1, 314, 32
-0.997382, 99, 93, 114, 124
-0.997384, 145, 189, 272, 220
-0.997386, 53, 61, 68, 92
-0.997391, 269, 105, 284, 136
-0.997398, 291, 17, 306, 48
-0.997398, 447, 77, 462, 108
-0.997405, 25, 97, 56, 352
-0.997409, 99, 109, 114, 140
-0.99741, 177, 173, 304, 204
-0.997413, 193, 229, 320, 260
-0.997414, 405, 1, 436, 256
-0.997417, 115, 101, 130, 132
-0.997419, 263, 25, 278, 56
-0.99743, 461, 101, 476, 132
-0.997438, 99, 1, 114, 32
-0.99744, 109, 97, 140, 352
-0.997447, 81, 57, 96, 88
-0.997447, 133, 57, 148, 88
-0.997452, 477, 69, 492, 100
-0.997465, 143, 29, 158, 60
-0.997466, 113, 125, 240, 156
-0.997471, 65, 133, 192, 164
-0.997476, 273, 185, 400, 216
-0.997495, 123, 57, 138, 88
-0.997495, 51, 37, 66, 68
-0.997498, 305, 1, 320, 32
-0.997501, 1, 121, 128, 152
-0.997501, 3, 85, 18, 116
-0.997502, 251, 1, 266, 32
-0.99751, 131, 21, 146, 52
-0.997532, 71, 61, 86, 92
-0.997536, 469, 85, 484, 116
-0.997549, 273, 313, 400, 375
-0.997552, 429, 97, 444, 128
-0.997558, 133, 1, 148, 32
-0.997569, 171, 57, 186, 88
-0.997574, 159, 65, 174, 96
-0.997579, 109, 57, 124, 88
-0.997586, 241, 89, 368, 120
-0.997588, 209, 25, 336, 56
-0.997592, 17, 133, 144, 164
-0.997597, 455, 53, 470, 84
-0.997598, 17, 77, 32, 108
-0.997612, 11, 73, 26, 104
-0.997616, 125, 13, 140, 44
-0.997618, 1, 13, 16, 44
-0.99763, 453, 97, 484, 352
-0.997632, 95, 49, 110, 80
-0.997645, 367, 33, 382, 64
-0.997646, 273, 213, 400, 244
-0.99766, 95, 69, 110, 100
-0.997661, 131, 33, 146, 64
-0.997663, 467, 57, 482, 88
-0.997666, 391, 33, 406, 64
-0.997678, 273, 237, 400, 268
-0.997701, 113, 265, 240, 296
-0.997735, 257, 61, 384, 92
-0.997769, 81, 189, 208, 220
-0.997773, 125, 97, 156, 352
-0.997777, 33, 173, 160, 204
-0.997795, 89, 129, 120, 375
-0.997795, 193, 245, 320, 276
-0.997796, 1, 153, 500, 216
-0.997802, 353, 229, 480, 260
-0.997849, 25, 1, 56, 256
-0.997864, 81, 177, 208, 208
-0.997866, 49, 213, 176, 244
-0.997881, 97, 145, 224, 176
-0.997906, 177, 265, 304, 296
-0.997926, 241, 77, 368, 108
-0.997934, 209, 1, 240, 256
-0.997934, 141, 97, 172, 352
-0.997976, 1, 217, 500, 280
-0.997982, 289, 225, 416, 256
-0.997984, 369, 209, 496, 240
-0.998042, 129, 253, 256, 284
-0.998065, 321, 21, 448, 52
-0.998075, 225, 177, 352, 208
-0.998109, 369, 265, 496, 328
-0.998135, 369, 117, 496, 148
-0.998164, 257, 49, 384, 80
-0.99818, 49, 249, 176, 280
-0.998195, 177, 201, 304, 232
-0.998197, 65, 261, 192, 292
-0.998267, 369, 305, 496, 368
-0.998275, 1, 121, 500, 184
-0.998296, 1, 185, 128, 216
-0.998318, 209, 1, 272, 16
-0.99834, 425, 71, 488, 86
-0.998345, 161, 145, 288, 176
-0.998349, 57, 33, 72, 160
-0.998355, 89, 1, 152, 16
-0.998359, 113, 65, 176, 80
-0.998368, 65, 63, 128, 78
-0.998371, 65, 161, 192, 192
-0.998371, 121, 33, 184, 48
-0.998372, 425, 97, 456, 352
-0.998376, 41, 61, 104, 76
-0.998387, 81, 23, 144, 38
-0.998387, 177, 161, 304, 192
-0.998392, 101, 17, 116, 144
-0.998394, 165, 17, 180, 144
-0.998394, 249, 21, 312, 36
-0.998394, 129, 57, 192, 72
-0.998396, 73, 43, 136, 58
-0.998399, 401, 87, 464, 102
-0.9984, 233, 3, 296, 18
-0.998401, 129, 81, 256, 112
-0.998403, 135, 17, 150, 144
-0.998404, 105, 41, 168, 56
-0.998413, 65, 57, 128, 72
-0.998415, 241, 15, 304, 30
-0.998416, 49, 225, 176, 256
-0.998419, 469, 17, 484, 144
-0.998431, 209, 7, 272, 22
-0.998431, 81, 17, 144, 32
-0.998432, 353, 37, 416, 52
-0.998434, 89, 63, 152, 78
-0.998437, 257, 1, 320, 16
-0.998441, 25, 41, 88, 56
-0.998444, 89, 69, 152, 84
-0.998445, 161, 65, 288, 96
-0.998451, 425, 81, 488, 96
-0.998453, 417, 97, 480, 112
-0.998454, 9, 33, 72, 48
-0.998456, 345, 73, 408, 88
-0.998457, 65, 71, 128, 86
-0.998457, 249, 127, 312, 142
-0.998461, 289, 249, 416, 280
-0.998464, 193, 277, 320, 308
-0.998465, 9, 81, 72, 96
-0.998465, 89, 9, 152, 24
-0.998468, 121, 47, 184, 62
-0.99847, 461, 33, 476, 160
-0.99847, 129, 41, 192, 56
-0.998471, 475, 1, 490, 128
-0.998473, 41, 55, 104, 70
-0.998474, 265, 7, 328, 22
-0.998474, 65, 49, 128, 64
-0.998476, 105, 57, 168, 72
-0.998478, 461, 41, 492, 56
-0.998478, 61, 75, 92, 90
-0.998479, 425, 95, 456, 110
-0.998479, 361, 203, 424, 218
-0.99848, 457, 65, 488, 80
-0.99848, 89, 31, 152, 46
-0.998482, 469, 17, 500, 32
-0.998482, 345, 65, 408, 80
-0.998485, 57, 77, 120, 92
-0.998485, 157, 69, 188, 84
-0.998486, 465, 47, 496, 62
-0.998486, 257, 121, 320, 136
-0.998488, 117, 89, 148, 104
-0.998489, 197, 119, 228, 134
-0.998489, 121, 107, 184, 122
-0.99849, 353, 47, 416, 62
-0.998491, 373, 201, 404, 216
-0.998492, 309, 13, 340, 28
-0.998493, 421, 101, 452, 116
-0.998494, 249, 129, 280, 144
-0.998494, 81, 117, 112, 132
-0.998495, 121, 47, 152, 62
-0.998495, 433, 65, 496, 80
-0.998496, 93, 81, 124, 96
-0.998499, 265, 29, 296, 44
-0.998501, 433, 107, 496, 122
-0.998502, 65, 63, 96, 78
-0.998502, 333, 69, 364, 84
-0.998503, 377, 35, 440, 50
-0.998504, 173, 101, 204, 116
-0.998504, 97, 75, 160, 90
-0.998505, 253, 1, 284, 16
-0.998505, 121, 71, 184, 86
-0.998506, 401, 197, 432, 212
-0.998507, 409, 91, 440, 106
-0.998507, 1, 97, 64, 112
-0.998508, 101, 19, 132, 34
-0.998508, 89, 81, 152, 96
-0.998508, 93, 61, 124, 76
-0.998508, 469, 25, 500, 40
-0.998508, 241, 197, 368, 228
-0.998509, 265, 115, 328, 130
-0.998509, 477, 49, 492, 176
-0.99851, 145, 99, 208, 114
-0.99851, 425, 125, 488, 140
-0.998511, 433, 57, 496, 72
-0.998511, 125, 75, 156, 90
-0.998511, 105, 61, 136, 76
-0.998512, 417, 207, 448, 222
-0.998512, 105, 23, 168, 38
-0.998512, 41, 33, 104, 48
-0.998514, 113, 35, 144, 50
-0.998514, 33, 35, 64, 50
-0.998515, 101, 11, 132, 26
-0.998515, 129, 277, 256, 308
-0.998515, 281, 1, 344, 16
-0.998516, 53, 81, 84, 96
-0.998516, 1, 103, 64, 118
-0.998516, 89, 111, 152, 126
-0.998516, 457, 109, 488, 124
-0.998517, 377, 197, 440, 212
-0.998517, 385, 65, 448, 80
-0.998518, 401, 81, 464, 96
-0.998519, 41, 71, 104, 86
-0.99852, 121, 63, 152, 78
-0.99852, 65, 69, 96, 84
-0.99852, 297, 17, 328, 32
-0.998521, 137, 91, 200, 106
-0.998522, 385, 93, 448, 108
-0.998522, 209, 137, 336, 168
-0.998524, 433, 89, 496, 104
-0.998524, 53, 55, 84, 70
-0.998524, 113, 7, 144, 22
-0.998525, 353, 249, 480, 280
-0.998526, 465, 35, 496, 50
-0.998527, 265, 13, 328, 28
-0.998528, 453, 103, 484, 118
-0.998528, 469, 105, 500, 120
-0.998528, 117, 23, 148, 38
-0.998529, 385, 43, 416, 58
-0.998529, 109, 105, 140, 120
-0.99853, 169, 119, 232, 134
-0.998531, 357, 129, 388, 375
-0.998531, 253, 25, 284, 40
-0.998533, 81, 37, 144, 52
-0.998533, 97, 43, 128, 58
-0.998533, 137, 65, 200, 80
-0.998534, 469, 5, 500, 20
-0.998535, 241, 27, 304, 42
-0.998535, 145, 109, 208, 124
-0.998536, 77, 43, 108, 58
-0.99854, 53, 69, 84, 84
-0.99854, 437, 93, 468, 108
-0.998541, 159, 17, 174, 144
-0.998543, 469, 59, 500, 74
-0.998543, 409, 53, 472, 68
-0.998543, 321, 81, 384, 96
-0.998543, 285, 27, 316, 42
-0.998543, 217, 3, 248, 18
-0.998544, 465, 53, 496, 68
-0.998544, 105, 97, 168, 112
-0.998545, 1, 27, 64, 42
-0.998545, 329, 75, 360, 90
-0.998545, 129, 27, 192, 42
-0.998546, 273, 109, 336, 124
-0.998547, 273, 25, 336, 40
-0.998547, 1, 39, 64, 54
-0.998547, 297, 11, 328, 26
-0.998547, 401, 71, 464, 86
-0.998548, 345, 55, 408, 70
-0.998548, 83, 33, 98, 160
-0.998549, 409, 3, 472, 18
-0.998549, 253, 31, 284, 46
-0.998551, 5, 93, 36, 108
-0.998551, 1, 241, 500, 304
-0.998552, 41, 109, 104, 124
-0.998552, 385, 203, 448, 218
-0.998552, 17, 109, 80, 124
-0.998553, 101, 111, 132, 126
-0.998553, 289, 13, 352, 28
-0.998554, 265, 3, 296, 18
-0.998555, 401, 197, 464, 212
-0.998556, 233, 9, 296, 24
-0.998557, 129, 77, 192, 92
-0.998558, 217, 119, 280, 134
-0.998559, 281, 121, 344, 136
-0.99856, 97, 49, 160, 64
-0.99856, 281, 1, 312, 16
-0.998561, 241, 113, 304, 128
-0.998561, 429, 77, 460, 92
-0.998562, 1, 69, 64, 84
-0.998562, 161, 29, 288, 60
-0.998565, 41, 27, 104, 42
-0.998565, 125, 57, 156, 72
-0.998568, 377, 41, 440, 56
-0.998569, 441, 63, 472, 78
-0.998569, 161, 129, 192, 375
-0.998569, 433, 113, 496, 128
-0.99857, 281, 103, 344, 118
-0.998571, 433, 41, 496, 56
-0.998571, 85, 33, 116, 48
-0.998572, 361, 47, 392, 62
-0.998573, 157, 63, 188, 78
-0.998573, 413, 197, 444, 212
-0.998574, 145, 55, 176, 70
-0.998574, 425, 11, 488, 26
-0.998575, 433, 203, 464, 218
-0.998576, 461, 129, 492, 144
-0.998576, 9, 75, 72, 90
-0.998577, 193, 129, 256, 144
-0.998578, 113, 89, 176, 104
-0.998578, 245, 7, 276, 22
-0.998578, 321, 69, 384, 84
-0.998578, 81, 117, 144, 132
-0.998579, 77, 61, 108, 76
-0.998579, 99, 65, 114, 192
-0.998579, 89, 11, 120, 26
-0.99858, 1, 63, 64, 78
-0.99858, 33, 115, 96, 130
-0.998581, 127, 1, 142, 128
-0.998581, 65, 57, 96, 72
-0.998582, 233, 21, 264, 36
-0.998584, 373, 39, 404, 54
-0.998585, 385, 209, 448, 224
-0.998585, 117, 49, 132, 176
-0.998586, 265, 109, 296, 124
-0.998586, 89, 87, 152, 102
-0.998586, 41, 49, 104, 64
-0.998587, 17, 25, 48, 40
-0.998587, 273, 19, 336, 34
-0.998587, 105, 15, 168, 30
-0.998588, 65, 111, 128, 126
-0.998588, 417, 203, 480, 218
-0.998589, 185, 7, 248, 22
-0.99859, 133, 47, 164, 62
-0.99859, 145, 205, 208, 220
-0.998591, 85, 21, 116, 36
-0.998591, 105, 73, 136, 88
-0.998591, 209, 13, 272, 28
-0.998592, 321, 75, 384, 90
-0.998593, 469, 71, 500, 86
-0.998595, 77, 67, 108, 82
-0.998595, 297, 7, 360, 22
-0.998598, 1, 79, 32, 94
-0.998599, 469, 111, 500, 126
-0.9986, 49, 39, 112, 54
-0.9986, 225, 125, 288, 140
-0.9986, 1, 91, 64, 106
-0.998601, 33, 77, 96, 92
-0.998601, 273, 129, 336, 144
-0.998602, 113, 3, 176, 18
-0.998604, 101, 5, 132, 20
-0.998604, 217, 131, 280, 146
-0.998604, 321, 87, 384, 102
-0.998605, 65, 129, 96, 375
-0.998605, 321, 63, 384, 78
-0.998606, 457, 77, 488, 92
-0.998608, 149, 43, 180, 58
-0.998608, 105, 79, 136, 94
-0.99861, 465, 99, 496, 114
-0.998613, 425, 83, 456, 98
-0.998613, 91, 49, 106, 176
-0.998614, 5, 1, 36, 16
-0.998617, 445, 79, 476, 94
-0.998617, 13, 17, 28, 144
-0.998622, 133, 31, 164, 46
-0.998625, 113, 13, 144, 28
-0.998627, 469, 11, 500, 26
-0.998628, 305, 1, 336, 16
-0.99863, 1, 85, 32, 100
-0.998631, 21, 33, 52, 48
-0.998636, 141, 63, 172, 78
-0.998638, 121, 69, 152, 84
-0.998639, 117, 41, 148, 56
-0.998639, 23, 17, 38, 144
-0.99864, 233, 1, 264, 16
-0.998642, 67, 33, 82, 160
-0.998642, 89, 1, 120, 16
-0.998644, 117, 1, 148, 16
-0.998644, 101, 67, 132, 82
-0.998645, 293, 3, 324, 18
-0.998645, 149, 37, 180, 52
-0.998647, 253, 15, 284, 30
-0.998647, 465, 123, 496, 138
-0.998649, 49, 75, 80, 90
-0.998649, 65, 305, 192, 368
-0.99865, 73, 49, 88, 176
-0.998652, 65, 51, 96, 66
-0.998653, 421, 89, 452, 104
-0.998654, 1, 37, 32, 52
-0.998655, 265, 23, 296, 38
-0.998661, 137, 39, 168, 54
-0.998661, 145, 33, 160, 160
-0.998671, 285, 19, 316, 34
-0.998671, 145, 49, 176, 64
-0.998675, 33, 145, 160, 176
-0.998678, 3, 1, 18, 128
-0.998681, 457, 71, 488, 86
-0.998686, 233, 15, 264, 30
-0.998697, 1, 29, 32, 44
-0.998697, 149, 31, 180, 46
-0.998697, 97, 87, 128, 102
-0.9987, 393, 35, 424, 50
-0.9987, 233, 9, 264, 24
-0.998704, 157, 57, 188, 72
-0.998709, 305, 121, 432, 152
-0.998714, 51, 17, 66, 144
-0.998728, 89, 1, 104, 128
-0.998729, 437, 69, 468, 84
-0.998732, 411, 17, 426, 144
-0.998734, 53, 61, 84, 76
-0.998742, 151, 17, 166, 144
-0.998747, 123, 49, 138, 176
-0.998749, 109, 49, 124, 176
-0.99875, 225, 213, 352, 244
-0.998754, 107, 1, 122, 128
-0.998763, 235, 113, 250, 240
-0.998764, 241, 249, 368, 280
-0.998765, 483, 49, 498, 176
-0.998779, 245, 113, 260, 240
-0.998785, 117, 1, 132, 128
-0.998786, 483, 1, 498, 128
-0.998797, 171, 33, 186, 160
-0.998797, 289, 169, 416, 200
-0.998817, 273, 285, 400, 316
-0.998821, 95, 1, 110, 128
-0.998831, 209, 305, 336, 336
-0.998833, 373, 129, 404, 375
-0.998844, 1, 129, 32, 375
-0.998855, 267, 97, 282, 224
-0.998856, 65, 273, 192, 304
-0.998862, 207, 97, 222, 224
-0.998867, 197, 97, 212, 224
-0.998871, 49, 237, 176, 268
-0.998876, 471, 65, 486, 192
-0.998878, 129, 281, 384, 344
-0.99888, 389, 17, 404, 144
-0.998881, 229, 113, 244, 240
-0.998884, 433, 65, 448, 192
-0.998886, 49, 201, 176, 232
-0.998889, 129, 49, 144, 176
-0.998891, 455, 33, 470, 160
-0.998894, 443, 33, 458, 160
-0.998896, 257, 25, 384, 56
-0.998899, 193, 189, 320, 220
-0.998903, 319, 97, 334, 224
-0.998903, 309, 113, 324, 240
-0.99891, 225, 145, 480, 208
-0.998911, 221, 113, 236, 240
-0.998916, 185, 81, 200, 208
-0.998921, 273, 37, 400, 68
-0.998925, 7, 65, 22, 192
-0.998927, 269, 17, 284, 144
-0.998931, 253, 113, 268, 240
-0.998931, 17, 157, 144, 188
-0.998932, 209, 289, 336, 320
-0.998935, 257, 297, 384, 328
-0.998941, 241, 225, 368, 256
-0.998942, 295, 113, 310, 240
-0.998951, 279, 97, 294, 224
-0.998959, 29, 17, 44, 144
-0.998969, 303, 113, 318, 240
-0.998971, 273, 97, 288, 224
-0.998977, 261, 113, 276, 240
-0.998981, 53, 129, 84, 375
-0.998983, 403, 17, 418, 144
-0.998984, 363, 17, 378, 144
-0.998991, 465, 97, 496, 352
-0.998999, 83, 97, 98, 224
-0.999007, 189, 1, 220, 256
-0.999018, 1, 241, 128, 272
-0.999022, 75, 97, 90, 224
-0.999022, 19, 97, 34, 224
-0.999027, 89, 97, 104, 224
-0.999033, 241, 165, 368, 196
-0.999036, 417, 1, 432, 128
-0.999037, 213, 97, 228, 224
-0.999045, 143, 161, 158, 288
-0.999047, 289, 261, 416, 292
-0.999054, 397, 17, 412, 144
-0.999058, 203, 177, 218, 304
-0.999058, 379, 33, 394, 160
-0.999063, 107, 97, 122, 224
-0.999069, 289, 345, 416, 375
-0.999072, 43, 81, 58, 208
-0.999076, 29, 97, 44, 224
-0.999076, 275, 17, 290, 144
-0.999078, 137, 65, 152, 192
-0.999081, 261, 17, 276, 144
-0.999082, 289, 113, 304, 240
-0.999084, 357, 33, 372, 160
-0.999089, 57, 81, 72, 208
-0.999096, 197, 161, 212, 288
-0.999102, 51, 65, 66, 192
-0.999104, 191, 81, 206, 208
-0.999107, 345, 129, 376, 375
-0.999109, 381, 161, 396, 288
-0.999124, 163, 65, 178, 192
-0.999131, 467, 113, 482, 240
-0.999133, 477, 97, 492, 224
-0.999134, 69, 97, 84, 224
-0.999135, 331, 65, 346, 192
-0.999136, 161, 289, 288, 320
-0.999137, 177, 65, 192, 192
-0.999141, 121, 97, 136, 224
-0.999148, 147, 97, 162, 224
-0.99915, 369, 17, 384, 144
-0.999152, 373, 161, 388, 288
-0.999158, 345, 65, 360, 192
-0.999159, 13, 97, 28, 224
-0.999159, 483, 97, 498, 224
-0.999161, 325, 81, 340, 208
-0.999171, 45, 17, 60, 144
-0.999176, 449, 49, 464, 176
-0.999177, 37, 81, 52, 208
-0.999179, 461, 81, 476, 208
-0.999179, 63, 81, 78, 208
-0.999187, 127, 97, 142, 224
-0.999197, 149, 161, 164, 288
-0.999211, 387, 161, 402, 288
-0.999211, 1, 81, 16, 208
-0.999224, 77, 1, 92, 128
-0.999234, 153, 97, 168, 224
-0.99924, 363, 161, 378, 288
-0.999244, 337, 49, 352, 176
-0.999244, 191, 177, 206, 304
-0.999245, 239, 161, 254, 288
-0.999254, 303, 1, 318, 128
-0.99927, 423, 17, 438, 144
-0.999274, 351, 65, 366, 192
-0.999278, 213, 177, 228, 304
-0.999291, 289, 1, 304, 128
-0.999306, 1, 161, 16, 288
-0.999308, 113, 97, 128, 224
-0.99932, 137, 113, 152, 240
-0.999329, 257, 265, 500, 328
-0.999331, 169, 177, 184, 304
-0.999334, 191, 129, 206, 256
-0.99934, 317, 1, 332, 128
-0.999342, 205, 225, 220, 352
-0.999347, 177, 161, 192, 288
-0.999353, 197, 225, 212, 352
-0.999353, 95, 113, 110, 240
-0.999356, 161, 161, 176, 288
-0.99936, 255, 17, 270, 144
-0.999361, 417, 81, 432, 208
-0.999379, 345, 161, 360, 288
-0.999481, 385, 129, 416, 375
-0.999616, 413, 97, 444, 352
-0.999649, 257, 289, 500, 352
-0.999721, 109, 69, 124, 84
-0.999722, 443, 87, 458, 102
-0.999723, 97, 19, 112, 34
-0.999724, 439, 93, 454, 108
-0.999724, 299, 19, 314, 34
-0.999725, 317, 1, 332, 16
-0.999726, 115, 43, 130, 58
-0.999727, 115, 9, 130, 24
-0.999727, 485, 63, 500, 78
-0.999727, 115, 71, 130, 86
-0.999729, 465, 41, 480, 56
-0.999729, 229, 13, 244, 28
-0.999734, 261, 29, 276, 44
-0.999734, 83, 37, 98, 52
-0.999734, 279, 21, 294, 36
-0.999735, 7, 37, 22, 52
-0.999735, 415, 33, 430, 48
-0.999736, 445, 65, 460, 80
-0.999736, 225, 7, 240, 22
-0.999736, 23, 33, 38, 48
-0.999736, 471, 113, 486, 128
-0.999737, 469, 35, 484, 50
-0.999737, 135, 65, 150, 80
-0.999737, 461, 51, 476, 66
-0.999738, 463, 57, 478, 72
-0.999738, 255, 7, 270, 22
-0.999738, 11, 27, 26, 42
-0.999738, 219, 1, 234, 16
-0.999738, 163, 59, 178, 74
-0.999739, 69, 53, 84, 68
-0.99974, 157, 57, 172, 72
-0.999743, 9, 79, 24, 94
-0.999745, 141, 55, 156, 70
-0.999745, 237, 5, 252, 20
-0.999747, 431, 87, 446, 102
-0.999747, 17, 305, 144, 368
-0.999748, 147, 55, 162, 70
-0.999751, 455, 69, 470, 84
-0.999751, 41, 31, 56, 46
-0.999751, 145, 39, 160, 54
-0.999752, 417, 23, 432, 38
-0.999752, 79, 61, 94, 76
-0.999755, 123, 11, 138, 26
-0.999755, 165, 43, 180, 58
-0.999756, 481, 101, 496, 116
-0.999757, 91, 19, 106, 34
-0.999757, 167, 71, 182, 86
-0.999759, 431, 75, 446, 90
-0.999762, 407, 37, 422, 52
-0.999762, 29, 27, 44, 42
-0.999763, 77, 55, 92, 70
-0.999764, 5, 71, 20, 86
-0.999765, 475, 121, 490, 136
-0.999765, 137, 49, 152, 64
-0.999765, 99, 85, 114, 100
-0.999765, 479, 67, 494, 82
-0.999766, 461, 101, 476, 116
-0.999766, 269, 25, 284, 40
-0.999766, 105, 17, 120, 32
-0.999766, 71, 65, 86, 80
-0.999766, 315, 7, 330, 22
-0.999767, 23, 39, 38, 54
-0.999767, 419, 89, 434, 104
-0.999768, 117, 3, 132, 18
-0.999769, 289, 19, 304, 34
-0.999769, 397, 35, 412, 50
-0.99977, 281, 3, 296, 18
-0.99977, 485, 23, 500, 38
-0.999772, 451, 79, 466, 94
-0.999774, 477, 15, 492, 30
-0.999774, 117, 77, 132, 92
-0.999776, 431, 101, 446, 116
-0.999776, 123, 1, 138, 16
-0.999776, 83, 43, 98, 58
-0.999777, 129, 5, 144, 20
-0.999779, 247, 13, 262, 28
-0.999779, 95, 7, 110, 22
-0.99978, 133, 25, 148, 40
-0.999782, 467, 103, 482, 118
-0.999783, 103, 71, 118, 86
-0.999783, 467, 129, 482, 144
-0.999784, 1, 21, 16, 36
-0.999784, 411, 91, 426, 106
-0.999784, 311, 1, 326, 16
-0.999784, 245, 19, 260, 34
-0.999785, 425, 91, 440, 106
-0.999786, 63, 77, 78, 92
-0.999788, 463, 71, 478, 86
-0.999788, 247, 7, 262, 22
-0.999789, 3, 81, 18, 96
-0.99979, 479, 1, 494, 16
-0.999792, 475, 127, 490, 142
-0.999796, 483, 57, 498, 72
-0.999797, 53, 73, 68, 88
-0.999797, 139, 35, 154, 50
-0.999803, 473, 9, 488, 24
-0.999803, 1, 31, 16, 46
-0.999804, 105, 1, 120, 16
-0.999805, 441, 71, 456, 86
-0.999805, 161, 31, 176, 46
-0.999806, 473, 77, 488, 92
-0.999806, 483, 15, 498, 30
-0.999806, 157, 45, 172, 60
-0.999807, 117, 63, 132, 78
-0.999807, 151, 49, 166, 64
-0.999807, 129, 305, 384, 368
-0.999808, 105, 63, 120, 78
-0.999811, 483, 7, 498, 22
-0.999811, 109, 83, 124, 98
-0.999812, 143, 45, 158, 60
-0.999812, 479, 23, 494, 38
-0.999813, 7, 89, 22, 104
-0.999818, 73, 47, 88, 62
-0.999819, 481, 31, 496, 46
-0.99982, 471, 71, 486, 86
-0.999821, 167, 53, 182, 68
-0.999822, 245, 1, 260, 16
-0.999823, 305, 3, 320, 18
-0.999826, 125, 69, 140, 84
-0.999826, 5, 1, 20, 16
-0.999828, 67, 71, 82, 86
-0.999834, 157, 51, 172, 66
-0.999837, 59, 55, 74, 70
-0.999838, 151, 35, 166, 50
-0.999839, 435, 81, 450, 96
-0.999839, 231, 5, 246, 20
-0.999845, 91, 1, 106, 16
-0.999848, 469, 123, 484, 138
-0.999848, 135, 41, 150, 56
-0.999848, 485, 71, 500, 86
-0.99985, 93, 13, 108, 28
-0.999851, 239, 11, 254, 26
-0.999859, 1, 281, 256, 344
-1.00003, 397, 129, 428, 375
-1.00007, 437, 129, 468, 375
-1.00035, 257, 313, 500, 375
-1.00039, 1, 273, 500, 336
-1.00048, 33, 313, 288, 375
-1.00185, 1, 297, 500, 360
