1967
-0.336305, 1, 1, 500, 375
-0.365421, 1, 129, 500, 375
-0.380638, 65, 1, 320, 375
-0.468349, 1, 33, 500, 288
-0.476678, 1, 97, 256, 352
-0.498386, 161, 1, 416, 375
-0.503084, 257, 129, 500, 375
-0.6203, 161, 97, 416, 352
-0.624438, 257, 1, 500, 375
-0.697867, 33, 1, 288, 256
-0.712327, 257, 33, 500, 288
-0.796588, 129, 1, 384, 256
-0.836838, 17, 97, 144, 352
-0.843599, 177, 1, 304, 375
-0.843808, 353, 129, 480, 375
-0.847464, 81, 129, 208, 375
-0.850574, 273, 129, 400, 375
-0.852072, 65, 1, 192, 375
-0.859507, 193, 97, 320, 352
-0.86268, 225, 1, 352, 375
-0.866815, 1, 145, 500, 272
-0.866839, 1, 193, 500, 320
-0.867326, 129, 1, 256, 375
-0.871095, 81, 1, 208, 256
-0.873027, 145, 97, 272, 352
-0.882171, 33, 1, 160, 256
-0.883857, 289, 1, 416, 375
-0.886552, 273, 1, 400, 256
-0.88799, 353, 1, 480, 375
-0.892717, 17, 1, 144, 375
-0.894056, 1, 81, 500, 208
-0.897183, 145, 1, 272, 256
-0.89799, 193, 1, 320, 256
-0.898459, 1, 145, 256, 272
-0.899044, 337, 33, 464, 288
-0.903571, 193, 129, 448, 256
-0.913099, 97, 145, 352, 272
-0.917393, 97, 65, 352, 192
-0.919103, 161, 193, 416, 320
-0.922471, 257, 177, 500, 304
-0.924353, 1, 225, 256, 352
-0.926052, 257, 129, 384, 256
-0.9262, 145, 129, 272, 256
-0.926467, 1, 241, 500, 368
-0.926501, 81, 113, 144, 240
-0.926772, 145, 145, 208, 272
-0.927317, 33, 113, 160, 240
-0.927668, 1, 33, 500, 160
-0.929035, 225, 145, 288, 272
-0.932672, 65, 177, 192, 304
-0.933814, 257, 129, 320, 256
-0.93384, 209, 129, 336, 256
-0.936639, 57, 145, 120, 272
-0.936657, 225, 81, 480, 208
-0.938564, 313, 129, 376, 256
-0.940008, 17, 177, 80, 304
-0.940194, 257, 241, 500, 368
-0.940558, 177, 177, 304, 304
-0.941082, 81, 129, 208, 256
-0.941358, 337, 161, 464, 288
-0.941917, 1, 97, 256, 224
-0.942506, 337, 129, 400, 256
-0.9444, 289, 129, 352, 256
-0.944403, 177, 113, 240, 240
-0.944589, 129, 241, 384, 368
-0.944966, 73, 129, 136, 192
-0.945341, 121, 161, 184, 288
-0.945747, 145, 65, 272, 192
-0.946211, 201, 129, 264, 256
-0.946327, 57, 97, 120, 224
-0.94711, 17, 177, 144, 304
-0.947171, 273, 177, 400, 304
-0.947519, 257, 1, 500, 128
-0.947666, 1, 33, 256, 160
-0.948795, 209, 81, 336, 208
-0.949236, 433, 209, 496, 336
-0.949616, 81, 169, 144, 232
-0.950148, 217, 65, 280, 192
-0.95019, 9, 129, 72, 256
-0.950433, 361, 97, 424, 224
-0.950652, 353, 241, 480, 368
-0.95079, 185, 177, 248, 304
-0.951443, 361, 161, 424, 288
-0.952644, 385, 161, 448, 288
-0.953409, 105, 169, 168, 232
-0.953552, 33, 97, 96, 224
-0.953702, 57, 169, 120, 232
-0.953736, 329, 177, 392, 304
-0.954109, 105, 97, 168, 224
-0.954206, 113, 1, 240, 128
-0.954378, 41, 193, 104, 320
-0.954665, 281, 193, 344, 256
-0.954722, 81, 81, 208, 208
-0.955103, 161, 193, 224, 320
-0.955391, 305, 113, 432, 240
-0.955405, 1, 65, 128, 192
-0.955677, 9, 81, 72, 208
-0.95571, 17, 185, 80, 248
-0.955871, 361, 137, 424, 200
-0.955903, 185, 49, 248, 176
-0.955917, 249, 81, 312, 208
-0.955926, 225, 193, 352, 320
-0.956214, 257, 193, 320, 320
-0.956579, 361, 169, 424, 232
-0.957077, 129, 177, 256, 304
-0.957276, 161, 177, 224, 240
-0.957293, 241, 185, 304, 248
-0.957348, 105, 129, 168, 192
-0.957382, 369, 113, 496, 240
-0.958033, 81, 161, 144, 288
-0.958103, 153, 225, 216, 288
-0.958115, 145, 145, 208, 208
-0.958418, 185, 73, 248, 136
-0.958433, 177, 129, 240, 192
-0.958733, 217, 177, 280, 240
-0.959904, 257, 65, 384, 192
-0.959944, 217, 193, 280, 320
-0.960053, 393, 129, 456, 192
-0.960287, 137, 97, 200, 224
-0.960446, 17, 137, 80, 200
-0.960505, 337, 193, 400, 256
-0.960531, 177, 1, 240, 128
-0.960563, 225, 105, 288, 168
-0.9606, 41, 121, 104, 184
-0.960878, 25, 89, 88, 152
-0.960925, 129, 177, 192, 240
-0.960963, 393, 241, 456, 368
-0.961014, 409, 129, 472, 256
-0.961095, 89, 105, 152, 168
-0.961274, 177, 225, 304, 352
-0.961427, 257, 121, 320, 184
-0.961538, 393, 161, 456, 224
-0.961639, 225, 153, 288, 216
-0.96176, 161, 201, 224, 264
-0.962079, 185, 201, 248, 264
-0.962134, 225, 65, 288, 128
-0.962154, 321, 65, 448, 192
-0.962241, 401, 65, 464, 192
-0.962267, 193, 313, 256, 375
-0.962292, 417, 249, 480, 312
-0.962641, 249, 65, 312, 128
-0.963069, 297, 193, 360, 320
-0.963107, 337, 81, 400, 208
-0.963191, 145, 97, 208, 160
-0.963247, 385, 257, 448, 320
-0.963447, 417, 1, 480, 128
-0.963669, 273, 81, 336, 208
-0.963803, 257, 153, 320, 216
-0.963821, 369, 1, 496, 128
-0.964154, 257, 209, 320, 272
-0.964173, 17, 225, 144, 352
-0.964397, 185, 161, 248, 224
-0.964805, 209, 129, 272, 192
-0.964994, 345, 113, 408, 176
-0.965025, 129, 225, 256, 352
-0.965047, 9, 113, 72, 176
-0.965241, 345, 241, 408, 368
-0.965271, 49, 145, 112, 208
-0.965836, 49, 129, 176, 192
-0.966227, 33, 97, 96, 352
-0.966843, 129, 217, 192, 280
-0.967004, 105, 193, 168, 256
-0.96732, 161, 49, 224, 176
-0.967347, 297, 129, 360, 192
-0.967413, 185, 225, 248, 352
-0.967515, 49, 153, 176, 216
-0.967535, 169, 105, 232, 168
-0.96761, 361, 193, 424, 256
-0.967647, 289, 241, 416, 368
-0.967775, 297, 65, 360, 192
-0.967921, 369, 97, 432, 352
-0.967937, 89, 121, 120, 184
-0.96795, 273, 65, 336, 128
-0.968113, 161, 241, 224, 368
-0.968308, 17, 105, 144, 168
-0.968321, 65, 193, 128, 256
-0.968367, 137, 209, 200, 336
-0.968456, 81, 65, 144, 192
-0.968617, 321, 113, 384, 176
-0.96876, 417, 137, 480, 200
-0.968901, 233, 129, 296, 192
-0.968952, 177, 17, 304, 144
-0.969411, 249, 89, 312, 152
-0.96964, 337, 169, 400, 232
-0.969765, 273, 129, 336, 375
-0.969767, 233, 97, 296, 352
-0.969816, 145, 1, 208, 128
-0.969903, 401, 105, 464, 168
-0.969923, 65, 105, 128, 168
-0.969939, 89, 145, 120, 208
-0.969971, 313, 97, 376, 352
-0.96998, 113, 153, 240, 216
-0.970138, 193, 185, 320, 248
-0.970226, 261, 129, 292, 256
-0.970233, 209, 241, 272, 368
-0.970419, 97, 113, 128, 240
-0.970555, 433, 113, 496, 240
-0.970566, 241, 241, 368, 368
-0.970569, 377, 1, 440, 128
-0.970673, 393, 129, 456, 375
-0.970796, 113, 97, 176, 160
-0.970904, 201, 97, 264, 160
-0.970998, 237, 129, 268, 256
-0.971069, 49, 177, 176, 240
-0.971175, 97, 17, 352, 144
-0.971288, 209, 201, 272, 264
-0.971375, 77, 129, 108, 192
-0.971478, 305, 17, 432, 144
-0.97155, 161, 137, 288, 200
-0.971678, 73, 65, 136, 320
-0.971733, 177, 33, 240, 288
-0.971806, 17, 241, 80, 368
-0.97187, 1, 89, 64, 152
-0.971885, 177, 225, 240, 288
-0.971915, 137, 121, 200, 184
-0.972003, 9, 97, 72, 352
-0.972039, 321, 137, 384, 200
-0.972242, 41, 241, 104, 368
-0.97248, 353, 113, 384, 240
-0.972637, 353, 273, 416, 336
-0.972681, 129, 177, 256, 240
-0.972745, 169, 49, 232, 112
-0.972924, 41, 193, 104, 256
-0.972936, 353, 129, 480, 192
-0.972948, 217, 313, 280, 375
-0.973237, 301, 113, 332, 240
-0.973246, 337, 97, 400, 352
-0.973246, 109, 169, 140, 232
-0.973302, 165, 217, 196, 280
-0.973395, 373, 177, 404, 240
-0.973591, 57, 169, 88, 232
-0.973711, 209, 1, 272, 128
-0.973713, 373, 129, 404, 256
-0.973734, 313, 185, 376, 248
-0.973905, 225, 129, 256, 256
-0.97391, 69, 113, 100, 240
-0.973932, 69, 153, 100, 216
-0.973979, 281, 129, 312, 256
-0.974044, 137, 129, 200, 375
-0.974169, 385, 113, 448, 240
-0.974268, 337, 129, 368, 256
-0.974365, 425, 49, 488, 112
-0.974397, 41, 49, 104, 176
-0.974411, 369, 49, 432, 176
-0.974451, 257, 297, 320, 360
-0.974461, 165, 129, 196, 256
-0.974467, 249, 185, 280, 248
-0.974468, 153, 129, 184, 256
-0.974498, 233, 209, 296, 272
-0.974516, 65, 225, 192, 352
-0.974639, 245, 65, 276, 128
-0.974654, 209, 97, 272, 352
-0.974816, 85, 97, 116, 224
-0.97488, 161, 73, 224, 136
-0.974941, 145, 201, 272, 264
-0.975133, 97, 129, 224, 192
-0.97516, 417, 297, 480, 360
-0.975321, 41, 105, 72, 168
-0.975333, 417, 273, 480, 336
-0.975339, 1, 145, 128, 208
-0.975354, 313, 113, 344, 240
-0.975386, 1, 201, 128, 264
-0.975427, 65, 129, 96, 192
-0.975571, 101, 129, 132, 192
-0.975598, 161, 313, 224, 375
-0.975747, 157, 193, 188, 256
-0.975764, 257, 33, 320, 160
-0.975795, 153, 33, 216, 288
-0.975906, 101, 105, 132, 168
-0.975947, 273, 177, 400, 240
-0.976062, 49, 217, 112, 280
-0.976076, 65, 201, 192, 264
-0.97611, 121, 169, 152, 232
-0.97613, 49, 1, 176, 128
-0.976133, 325, 129, 356, 256
-0.976149, 273, 73, 304, 136
-0.976355, 209, 65, 336, 128
-0.976365, 385, 185, 448, 248
-0.976517, 249, 129, 280, 256
-0.976554, 169, 249, 232, 312
-0.976613, 273, 185, 304, 248
-0.976701, 209, 161, 336, 224
-0.976702, 433, 49, 496, 176
-0.976705, 281, 105, 344, 168
-0.976743, 257, 145, 384, 208
-0.976763, 49, 113, 80, 240
-0.976809, 137, 73, 200, 136
-0.976836, 353, 265, 480, 328
-0.976856, 357, 193, 388, 320
-0.976893, 409, 17, 472, 80
-0.976897, 253, 49, 284, 176
-0.976914, 305, 137, 432, 200
-0.976951, 209, 121, 336, 184
-0.977061, 389, 137, 420, 200
-0.977064, 145, 9, 208, 72
-0.977071, 321, 241, 384, 368
-0.977076, 305, 265, 368, 328
-0.977107, 169, 1, 232, 64
-0.977135, 41, 249, 104, 312
-0.977165, 273, 33, 336, 288
-0.977222, 113, 49, 176, 176
-0.977438, 177, 313, 304, 375
-0.977453, 1, 209, 64, 272
-0.977583, 369, 137, 400, 200
-0.9776, 385, 169, 416, 232
-0.977656, 437, 137, 468, 200
-0.977712, 177, 129, 240, 375
-0.977712, 85, 161, 116, 288
-0.977728, 237, 137, 268, 200
-0.977881, 377, 177, 408, 304
-0.977944, 177, 225, 208, 288
-0.977966, 261, 177, 292, 240
-0.97806, 369, 65, 496, 192
-0.978096, 1, 177, 128, 240
-0.978105, 53, 177, 84, 304
-0.978115, 281, 281, 344, 344
-0.978177, 109, 129, 140, 256
-0.978182, 37, 193, 68, 256
-0.978196, 305, 209, 368, 272
-0.978229, 249, 89, 280, 152
-0.978367, 209, 177, 240, 240
-0.978368, 145, 225, 272, 288
-0.978389, 33, 113, 64, 240
-0.97839, 425, 225, 488, 288
-0.978415, 213, 49, 244, 176
-0.978463, 149, 169, 180, 232
-0.978486, 353, 193, 480, 256
-0.978631, 173, 1, 204, 128
-0.978683, 281, 153, 344, 216
-0.978771, 401, 169, 432, 232
-0.978791, 401, 129, 432, 192
-0.978802, 289, 273, 416, 336
-0.978808, 261, 97, 292, 160
-0.978819, 385, 193, 416, 256
-0.978867, 337, 17, 400, 80
-0.979009, 321, 1, 384, 128
-0.979011, 233, 65, 264, 128
-0.979056, 9, 33, 72, 160
-0.979065, 397, 161, 428, 288
-0.97913, 417, 129, 480, 375
-0.979132, 369, 49, 432, 112
-0.979162, 25, 161, 88, 224
-0.979176, 241, 297, 368, 360
-0.979196, 209, 225, 272, 288
-0.979226, 121, 1, 184, 128
-0.979229, 49, 129, 80, 192
-0.979341, 249, 41, 312, 104
-0.97937, 17, 273, 80, 336
-0.979374, 393, 297, 456, 360
-0.979398, 89, 169, 120, 232
-0.979444, 289, 57, 320, 120
-0.979539, 105, 1, 168, 256
-0.979572, 113, 129, 144, 192
-0.979583, 281, 305, 344, 368
-0.979599, 305, 33, 368, 96
-0.9797, 369, 113, 432, 176
-0.979705, 357, 161, 388, 224
-0.979713, 97, 105, 224, 168
-0.979753, 233, 289, 296, 352
-0.979804, 241, 201, 368, 264
-0.979882, 301, 185, 332, 248
-0.979911, 369, 73, 432, 136
-0.979923, 133, 177, 164, 240
-0.979937, 25, 105, 56, 168
-0.980035, 145, 249, 208, 312
-0.980153, 49, 241, 176, 304
-0.980183, 433, 225, 464, 352
-0.980208, 197, 33, 228, 160
-0.980266, 353, 153, 480, 216
-0.980301, 161, 57, 288, 120
-0.980426, 253, 153, 284, 216
-0.980438, 213, 113, 244, 240
-0.980479, 173, 177, 204, 304
-0.980505, 169, 185, 200, 248
-0.980521, 41, 81, 72, 144
-0.98056, 97, 225, 224, 288
-0.980585, 329, 273, 392, 336
-0.980588, 361, 1, 424, 256
-0.980626, 261, 201, 292, 264
-0.980671, 241, 49, 272, 176
-0.980687, 41, 177, 72, 304
-0.980732, 209, 41, 272, 104
-0.980743, 137, 145, 168, 272
-0.980818, 337, 1, 400, 256
-0.98086, 145, 49, 208, 112
-0.9809, 257, 121, 384, 184
-0.980977, 97, 97, 160, 352
-0.980992, 361, 193, 392, 256
-0.981004, 121, 145, 152, 272
-0.981082, 385, 97, 416, 224
-0.981123, 89, 9, 152, 72
-0.981143, 425, 241, 456, 304
-0.981153, 293, 65, 324, 192
-0.98123, 49, 81, 112, 144
-0.981315, 193, 217, 320, 280
-0.981355, 249, 177, 280, 304
-0.981361, 221, 161, 252, 224
-0.981468, 173, 113, 204, 176
-0.981529, 369, 241, 432, 368
-0.981565, 225, 1, 288, 375
-0.981595, 273, 193, 304, 320
-0.981624, 141, 137, 172, 200
-0.981653, 257, 89, 384, 152
-0.981773, 113, 33, 176, 96
-0.981825, 49, 1, 112, 256
-0.981858, 13, 105, 44, 168
-0.981858, 281, 121, 312, 184
-0.981886, 257, 1, 384, 128
-0.981889, 261, 121, 292, 184
-0.98191, 289, 201, 320, 264
-0.981956, 177, 129, 208, 256
-0.98198, 349, 129, 380, 192
-0.981985, 345, 297, 408, 360
-0.982026, 5, 193, 36, 320
-0.982038, 113, 1, 176, 64
-0.982046, 273, 241, 336, 368
-0.982047, 97, 81, 224, 144
-0.982067, 141, 97, 172, 224
-0.98215, 373, 201, 404, 264
-0.982152, 453, 209, 484, 336
-0.982165, 61, 201, 92, 264
-0.98217, 161, 105, 288, 168
-0.982174, 353, 249, 416, 312
-0.982299, 181, 177, 212, 240
-0.982322, 173, 1, 204, 64
-0.982401, 65, 193, 96, 320
-0.982451, 209, 97, 336, 160
-0.982502, 249, 113, 280, 176
-0.98253, 205, 177, 236, 304
-0.982573, 13, 97, 44, 224
-0.982614, 129, 313, 256, 375
-0.982674, 413, 153, 444, 216
-0.98269, 233, 241, 296, 368
-0.982737, 173, 73, 204, 136
-0.982745, 233, 177, 264, 304
-0.982802, 261, 177, 292, 304
-0.982826, 149, 177, 180, 304
-0.982848, 305, 113, 432, 176
-0.982862, 257, 57, 288, 120
-0.982948, 197, 137, 228, 200
-0.983018, 353, 297, 480, 360
-0.983045, 189, 313, 220, 375
-0.983105, 269, 81, 300, 208
-0.983122, 345, 1, 408, 128
-0.983132, 169, 137, 200, 200
-0.983166, 265, 257, 328, 320
-0.98317, 377, 9, 440, 72
-0.983176, 353, 217, 416, 280
-0.983203, 377, 233, 440, 296
-0.983209, 409, 33, 472, 288
-0.983216, 9, 249, 72, 312
-0.98323, 153, 225, 184, 288
-0.983284, 369, 113, 400, 176
-0.983313, 337, 113, 368, 176
-0.983362, 45, 153, 76, 216
-0.983417, 305, 201, 432, 264
-0.983481, 1, 161, 64, 224
-0.983582, 321, 1, 384, 375
-0.98367, 465, 209, 496, 336
-0.983677, 237, 185, 268, 248
-0.983697, 337, 177, 368, 304
-0.983707, 81, 209, 144, 336
-0.98372, 41, 57, 104, 120
-0.983744, 257, 65, 384, 128
-0.983752, 29, 177, 60, 304
-0.983823, 297, 177, 328, 304
-0.983831, 337, 89, 400, 152
-0.983877, 133, 1, 164, 128
-0.983895, 193, 201, 224, 264
-0.983934, 29, 65, 60, 192
-0.983937, 193, 1, 256, 375
-0.984017, 225, 137, 256, 200
-0.984021, 193, 105, 224, 168
-0.984044, 269, 145, 300, 208
-0.984055, 129, 1, 256, 64
-0.984107, 205, 201, 236, 264
-0.984177, 241, 161, 272, 224
-0.984211, 417, 129, 448, 192
-0.984225, 49, 193, 80, 256
-0.98427, 225, 193, 256, 256
-0.984316, 329, 249, 392, 312
-0.984392, 313, 161, 376, 224
-0.984402, 193, 161, 224, 224
-0.984403, 97, 33, 224, 96
-0.984415, 441, 249, 472, 312
-0.98445, 213, 129, 244, 192
-0.984452, 305, 305, 368, 368
-0.984459, 233, 265, 296, 328
-0.984462, 193, 193, 224, 320
-0.98451, 249, 1, 312, 375
-0.984527, 145, 113, 176, 176
-0.984548, 169, 25, 232, 88
-0.984586, 185, 81, 216, 208
-0.984606, 33, 129, 64, 192
-0.984609, 77, 105, 108, 168
-0.984667, 225, 81, 256, 208
-0.984732, 449, 113, 480, 176
-0.984828, 137, 313, 200, 375
-0.984838, 89, 1, 152, 375
-0.984853, 173, 65, 204, 192
-0.98486, 281, 65, 312, 192
-0.984871, 217, 65, 248, 128
-0.984917, 129, 17, 160, 80
-0.98492, 237, 89, 268, 152
-0.98504, 105, 217, 168, 280
-0.985065, 121, 89, 152, 152
-0.985068, 329, 41, 392, 104
-0.985095, 161, 81, 192, 208
-0.985101, 369, 241, 496, 304
-0.985127, 1, 113, 32, 240
-0.985135, 17, 65, 80, 128
-0.985149, 301, 145, 332, 208
-0.985155, 293, 121, 324, 184
-0.985161, 157, 145, 188, 208
-0.985165, 201, 313, 232, 375
-0.985165, 33, 81, 160, 144
-0.985199, 413, 257, 444, 320
-0.985223, 161, 81, 288, 144
-0.985241, 417, 81, 480, 144
-0.985251, 437, 97, 468, 224
-0.985271, 369, 265, 400, 328
-0.985291, 161, 177, 192, 304
-0.985293, 29, 81, 60, 144
-0.985307, 297, 1, 360, 128
-0.985401, 25, 1, 88, 256
-0.985428, 185, 1, 216, 64
-0.985498, 381, 105, 412, 168
-0.985501, 17, 193, 48, 320
-0.985509, 57, 105, 88, 168
-0.985565, 381, 1, 412, 128
-0.985578, 201, 129, 232, 256
-0.985591, 369, 1, 496, 64
-0.985596, 85, 193, 116, 256
-0.985663, 49, 17, 176, 80
-0.985692, 345, 185, 376, 248
-0.985695, 1, 257, 128, 320
-0.985731, 157, 105, 188, 168
-0.985826, 113, 1, 176, 375
-0.985922, 317, 129, 348, 192
-0.985982, 89, 1, 152, 128
-0.985987, 281, 153, 312, 216
-0.985992, 129, 33, 192, 288
-0.986028, 217, 1, 280, 256
-0.986034, 69, 177, 100, 240
-0.98605, 45, 65, 76, 192
-0.98605, 81, 57, 208, 120
-0.986078, 305, 1, 368, 256
-0.986119, 137, 49, 200, 176
-0.986128, 125, 145, 156, 208
-0.986161, 365, 65, 396, 192
-0.986172, 173, 249, 204, 312
-0.986236, 221, 193, 252, 320
-0.986276, 309, 177, 340, 304
-0.986313, 285, 193, 316, 320
-0.98632, 297, 241, 360, 368
-0.986331, 357, 105, 388, 168
-0.986355, 113, 81, 144, 208
-0.986356, 289, 313, 416, 375
-0.986367, 225, 305, 256, 368
-0.986425, 201, 57, 232, 120
-0.986433, 41, 241, 72, 368
-0.986445, 153, 1, 216, 375
-0.986452, 145, 193, 176, 256
-0.986464, 181, 225, 212, 352
-0.986532, 177, 49, 208, 112
-0.986544, 353, 25, 480, 88
-0.98659, 89, 97, 120, 160
-0.986614, 281, 1, 344, 375
-0.986674, 385, 1, 448, 256
-0.986702, 433, 1, 496, 256
-0.986709, 177, 289, 304, 352
-0.986751, 25, 1, 88, 375
-0.986764, 161, 73, 192, 136
-0.986767, 409, 129, 440, 256
-0.986768, 433, 297, 464, 360
-0.986804, 217, 105, 248, 168
-0.986911, 397, 81, 428, 208
-0.986964, 141, 217, 172, 280
-0.987063, 189, 225, 220, 288
-0.987088, 97, 249, 224, 312
-0.987121, 289, 41, 416, 104
-0.987142, 321, 177, 352, 240
-0.987149, 17, 193, 48, 256
-0.987219, 425, 265, 456, 328
-0.987253, 325, 193, 356, 320
-0.987269, 185, 73, 216, 136
-0.987316, 241, 41, 368, 104
-0.987346, 145, 33, 272, 96
-0.98735, 13, 129, 44, 192
-0.987407, 349, 1, 380, 64
-0.987461, 285, 177, 316, 240
-0.987478, 261, 225, 292, 352
-0.987478, 397, 193, 428, 256
-0.987543, 289, 249, 416, 312
-0.987592, 457, 57, 488, 120
-0.987623, 1, 153, 500, 216
-0.987721, 125, 97, 156, 224
-0.987762, 373, 241, 404, 368
-0.987909, 369, 97, 496, 160
-0.987919, 145, 257, 272, 320
-0.987937, 193, 241, 320, 304
-0.987971, 305, 65, 336, 192
-0.988069, 17, 49, 144, 112
-0.988122, 97, 65, 128, 192
-0.988226, 161, 33, 192, 160
-0.988239, 105, 193, 136, 320
-0.988322, 325, 65, 356, 192
-0.98836, 377, 1, 440, 375
-0.988391, 49, 137, 112, 168
-0.988407, 1, 233, 128, 296
-0.988416, 417, 81, 448, 208
-0.98842, 369, 1, 400, 128
-0.988494, 1, 17, 128, 144
-0.988504, 73, 129, 136, 160
-0.988514, 457, 1, 488, 128
-0.988621, 157, 225, 188, 352
-0.98863, 421, 241, 452, 368
-0.988684, 257, 129, 320, 160
-0.988748, 249, 1, 312, 256
-0.988766, 189, 129, 220, 256
-0.988773, 225, 65, 288, 96
-0.988779, 337, 73, 464, 136
-0.988798, 161, 217, 224, 248
-0.988813, 369, 49, 496, 112
-0.988863, 65, 177, 320, 240
-0.988889, 193, 69, 256, 100
-0.988907, 425, 145, 456, 272
-0.988913, 57, 169, 120, 200
-0.988965, 345, 1, 408, 375
-0.989098, 177, 133, 240, 164
-0.989124, 81, 189, 144, 220
-0.989144, 185, 17, 216, 144
-0.98917, 257, 201, 500, 264
-0.989183, 41, 189, 104, 220
-0.989191, 1, 145, 256, 208
-0.989203, 193, 153, 448, 216
-0.989216, 57, 65, 88, 192
-0.989255, 337, 81, 368, 208
-0.989285, 249, 193, 312, 224
-0.989301, 273, 201, 336, 232
-0.989332, 369, 177, 432, 208
-0.989353, 177, 185, 240, 216
-0.98938, 81, 153, 144, 184
-0.989402, 33, 125, 96, 156
-0.98941, 241, 225, 368, 288
-0.989451, 193, 149, 256, 180
-0.989466, 209, 133, 272, 164
-0.98949, 409, 177, 472, 304
-0.989502, 185, 81, 248, 112
-0.989515, 41, 149, 104, 180
-0.989524, 137, 189, 200, 220
-0.989569, 161, 241, 224, 272
-0.989615, 161, 153, 224, 184
-0.989673, 153, 169, 216, 200
-0.989673, 241, 265, 368, 328
-0.989685, 129, 117, 192, 148
-0.989686, 145, 201, 208, 232
-0.989695, 393, 165, 456, 196
-0.989712, 249, 141, 312, 172
-0.989715, 73, 141, 136, 172
-0.989716, 297, 137, 360, 168
-0.989778, 169, 225, 200, 352
-0.98983, 225, 193, 288, 224
-0.989845, 357, 241, 388, 368
-0.989849, 225, 149, 288, 180
-0.989851, 249, 217, 312, 248
-0.989856, 249, 205, 312, 236
-0.989895, 9, 113, 72, 144
-0.989896, 105, 173, 168, 204
-0.989908, 9, 201, 72, 232
-0.989927, 161, 185, 416, 248
-0.989934, 97, 133, 160, 164
-0.98994, 1, 1, 64, 375
-0.989957, 193, 201, 256, 232
-0.989968, 433, 161, 496, 288
-0.989992, 289, 1, 416, 64
-0.989997, 393, 265, 456, 296
-0.990017, 249, 65, 312, 96
-0.990025, 81, 177, 144, 208
-0.990059, 225, 121, 480, 184
-0.990074, 369, 165, 432, 196
-0.990087, 353, 189, 416, 220
-0.990121, 105, 193, 168, 224
-0.990137, 377, 141, 440, 172
-0.990147, 177, 165, 240, 196
-0.990174, 129, 173, 192, 204
-0.990177, 321, 225, 448, 288
-0.990188, 193, 241, 224, 368
-0.990238, 121, 133, 184, 164
-0.990246, 169, 229, 232, 260
-0.990259, 353, 65, 384, 192
-0.990262, 17, 49, 48, 176
-0.990271, 405, 1, 436, 128
-0.99033, 329, 201, 392, 232
-0.990339, 353, 145, 416, 176
-0.990352, 233, 129, 296, 160
-0.990358, 9, 101, 72, 132
-0.990375, 169, 65, 232, 96
-0.99038, 121, 33, 152, 160
-0.990396, 225, 93, 288, 124
-0.990417, 1, 129, 64, 160
-0.99042, 17, 189, 80, 220
-0.99044, 33, 113, 96, 144
-0.990445, 353, 277, 416, 308
-0.990466, 297, 205, 360, 236
-0.990475, 153, 133, 216, 164
-0.990493, 57, 201, 120, 232
-0.990502, 153, 117, 216, 148
-0.990503, 417, 157, 480, 188
-0.990507, 201, 189, 264, 220
-0.990538, 209, 81, 272, 112
-0.990559, 417, 249, 480, 280
-0.99056, 201, 229, 264, 260
-0.990569, 137, 157, 200, 188
-0.99058, 209, 1, 240, 128
-0.990591, 425, 273, 488, 304
-0.99061, 137, 25, 200, 56
-0.990623, 97, 345, 160, 375
-0.990631, 105, 205, 168, 236
-0.990632, 225, 217, 288, 248
-0.990634, 413, 177, 444, 304
-0.990667, 345, 133, 408, 164
-0.990707, 137, 193, 168, 320
-0.990713, 137, 213, 200, 244
-0.990722, 169, 201, 232, 232
-0.990738, 89, 113, 152, 144
-0.990744, 1, 105, 256, 168
-0.990756, 25, 137, 88, 168
-0.990814, 105, 161, 168, 192
-0.990826, 81, 165, 144, 196
-0.990827, 217, 173, 280, 204
-0.990869, 289, 189, 352, 220
-0.990872, 193, 313, 256, 344
-0.990882, 409, 129, 472, 160
-0.990883, 185, 53, 248, 84
-0.990887, 161, 253, 224, 284
-0.99089, 121, 337, 184, 368
-0.990898, 137, 229, 200, 260
-0.990924, 97, 129, 352, 192
-0.990946, 257, 153, 320, 184
-0.990978, 345, 241, 376, 368
-0.990979, 433, 65, 496, 96
-0.990986, 385, 153, 448, 184
-0.991003, 273, 141, 336, 172
-0.991013, 249, 93, 312, 124
-0.991023, 113, 209, 176, 336
-0.991032, 345, 165, 408, 196
-0.991037, 161, 21, 224, 52
-0.991041, 393, 177, 456, 208
-0.991066, 249, 77, 312, 108
-0.991106, 1, 209, 500, 272
-0.991114, 33, 177, 96, 208
-0.991122, 353, 213, 416, 244
-0.991126, 217, 205, 280, 236
-0.991127, 41, 265, 104, 296
-0.99113, 17, 265, 80, 296
-0.99113, 353, 201, 416, 232
-0.991148, 33, 93, 96, 124
-0.991153, 153, 333, 216, 364
-0.991171, 177, 101, 240, 132
-0.991177, 385, 193, 448, 224
-0.991188, 9, 89, 72, 120
-0.991218, 17, 149, 80, 180
-0.991222, 185, 217, 248, 248
-0.991249, 385, 285, 448, 316
-0.991252, 117, 193, 148, 320
-0.991254, 369, 121, 432, 152
-0.991255, 273, 61, 336, 92
-0.99127, 257, 181, 320, 212
-0.991271, 281, 121, 344, 152
-0.991289, 137, 105, 200, 136
-0.991319, 161, 77, 224, 108
-0.991327, 273, 213, 336, 244
-0.991342, 65, 117, 128, 148
-0.991363, 433, 1, 496, 375
-0.991378, 229, 33, 260, 160
-0.991385, 305, 269, 368, 300
-0.991387, 225, 325, 288, 356
-0.99139, 377, 101, 440, 132
-0.991421, 49, 233, 112, 264
-0.991423, 225, 309, 288, 340
-0.991431, 249, 309, 312, 340
-0.991433, 345, 177, 408, 208
-0.991441, 137, 253, 200, 284
-0.991444, 129, 37, 192, 68
-0.991584, 217, 241, 248, 368
-0.991717, 385, 241, 416, 368
-0.991827, 1, 129, 500, 192
-0.991875, 453, 145, 484, 272
-0.991899, 161, 313, 416, 375
-0.991901, 409, 1, 472, 375
-0.991927, 177, 1, 304, 64
-0.99193, 33, 217, 288, 280
-0.991931, 65, 1, 128, 375
-0.992048, 129, 217, 384, 280
-0.992061, 1, 281, 128, 344
-0.992068, 249, 241, 280, 368
-0.992078, 441, 145, 472, 272
-0.99209, 89, 129, 120, 160
-0.99214, 1, 185, 500, 248
-0.992143, 97, 105, 352, 168
-0.992213, 53, 225, 84, 352
-0.992218, 93, 149, 124, 180
-0.992241, 81, 313, 208, 375
-0.992266, 101, 133, 132, 164
-0.992313, 77, 145, 108, 176
-0.992329, 129, 165, 256, 196
-0.992345, 69, 161, 100, 192
-0.992347, 97, 153, 352, 216
-0.992355, 213, 69, 244, 100
-0.992383, 201, 137, 232, 168
-0.992395, 113, 125, 144, 156
-0.992395, 77, 133, 108, 164
-0.992402, 277, 197, 308, 228
-0.992404, 145, 117, 176, 148
-0.992413, 377, 197, 408, 228
-0.992418, 13, 117, 44, 148
-0.992429, 185, 141, 216, 172
-0.992463, 257, 177, 500, 240
-0.992465, 5, 241, 36, 368
-0.992474, 33, 257, 288, 320
-0.992487, 201, 73, 232, 104
-0.992496, 53, 133, 84, 164
-0.99251, 417, 157, 448, 188
-0.992511, 37, 193, 68, 224
-0.992512, 405, 165, 436, 196
-0.992542, 221, 129, 252, 160
-0.992542, 149, 1, 180, 128
-0.992547, 65, 137, 96, 168
-0.992553, 385, 177, 416, 208
-0.992561, 169, 149, 200, 180
-0.992563, 245, 73, 276, 104
-0.992574, 169, 129, 200, 160
-0.992578, 253, 61, 284, 92
-0.992579, 217, 185, 248, 216
-0.992583, 169, 225, 200, 256
-0.992585, 189, 129, 220, 160
-0.992586, 105, 193, 136, 224
-0.992588, 173, 213, 204, 244
-0.992593, 373, 173, 404, 204
-0.992595, 157, 209, 188, 240
-0.992596, 61, 173, 92, 204
-0.992604, 261, 213, 292, 244
-0.99261, 25, 125, 56, 156
-0.992613, 185, 221, 216, 252
-0.992623, 233, 61, 264, 92
-0.992628, 449, 81, 480, 208
-0.992634, 153, 161, 184, 192
-0.992635, 397, 177, 428, 208
-0.992636, 205, 189, 236, 220
-0.992641, 153, 225, 184, 256
-0.992649, 105, 173, 136, 204
-0.992651, 125, 193, 156, 224
-0.992653, 249, 217, 280, 248
-0.992653, 169, 253, 200, 284
-0.99266, 261, 189, 292, 220
-0.992661, 197, 149, 228, 180
-0.992661, 429, 49, 460, 176
-0.992661, 181, 73, 212, 104
-0.992668, 85, 173, 116, 204
-0.992672, 377, 125, 408, 156
-0.992672, 269, 145, 300, 176
-0.992675, 49, 189, 80, 220
-0.992678, 165, 237, 196, 268
-0.992695, 69, 185, 100, 216
-0.992697, 437, 153, 468, 184
-0.992701, 185, 157, 216, 188
-0.992706, 53, 149, 84, 180
-0.992707, 253, 93, 284, 124
-0.992709, 233, 73, 264, 104
-0.992709, 21, 105, 52, 136
-0.992711, 201, 85, 232, 116
-0.992717, 113, 137, 144, 168
-0.992717, 153, 173, 184, 204
-0.99272, 193, 201, 224, 232
-0.99272, 273, 129, 304, 160
-0.992721, 213, 141, 244, 172
-0.992724, 37, 121, 68, 152
-0.992728, 373, 185, 404, 216
-0.992735, 297, 129, 328, 160
-0.992741, 365, 197, 396, 228
-0.992747, 57, 201, 88, 232
-0.992747, 313, 133, 344, 164
-0.992748, 169, 113, 200, 144
-0.992753, 29, 137, 60, 168
-0.992756, 149, 29, 180, 60
-0.992758, 165, 173, 196, 204
-0.992776, 41, 133, 72, 164
-0.992778, 89, 189, 120, 220
-0.992781, 133, 117, 164, 148
-0.992781, 33, 105, 64, 136
-0.992783, 133, 49, 164, 176
-0.992788, 121, 173, 152, 204
-0.992789, 225, 85, 256, 116
-0.992792, 441, 129, 472, 160
-0.992798, 65, 125, 96, 156
-0.992799, 105, 157, 136, 188
-0.992804, 257, 137, 288, 168
-0.992808, 233, 129, 264, 160
-0.992809, 257, 73, 288, 104
-0.992813, 365, 213, 396, 244
-0.992814, 65, 149, 96, 180
-0.992817, 285, 137, 316, 168
-0.992817, 173, 21, 204, 52
-0.992822, 241, 141, 272, 172
-0.992822, 265, 201, 296, 232
-0.992822, 213, 81, 244, 112
-0.992824, 257, 149, 288, 180
-0.992825, 193, 61, 224, 92
-0.992827, 33, 133, 160, 164
-0.992837, 169, 189, 200, 220
-0.992837, 329, 137, 360, 168
-0.99284, 289, 69, 320, 100
-0.992841, 249, 193, 280, 224
-0.992845, 133, 129, 164, 160
-0.992846, 385, 157, 416, 188
-0.992848, 89, 161, 120, 192
-0.99285, 389, 125, 420, 156
-0.992853, 233, 189, 264, 220
-0.992857, 297, 145, 328, 176
-0.992859, 269, 77, 300, 108
-0.992861, 369, 137, 400, 168
-0.992862, 221, 173, 252, 204
-0.992864, 85, 49, 116, 176
-0.992868, 117, 157, 148, 188
-0.992869, 249, 205, 280, 236
-0.992869, 425, 253, 456, 284
-0.992875, 133, 169, 164, 200
-0.992877, 1, 117, 32, 148
-0.992889, 273, 93, 304, 124
-0.992893, 293, 197, 324, 228
-0.992896, 389, 145, 420, 176
-0.992901, 305, 197, 336, 228
-0.992903, 205, 201, 236, 232
-0.992903, 41, 89, 72, 120
-0.992904, 177, 241, 208, 272
-0.992904, 181, 113, 212, 144
-0.992906, 41, 265, 72, 296
-0.992916, 273, 217, 304, 248
-0.992917, 1, 209, 32, 240
-0.992919, 425, 265, 456, 296
-0.992921, 201, 165, 232, 196
-0.992922, 185, 169, 216, 200
-0.992941, 229, 241, 260, 368
-0.992988, 97, 81, 352, 144
-0.992997, 377, 49, 408, 176
-0.993015, 29, 225, 60, 352
-0.993046, 81, 129, 208, 160
-0.993083, 97, 121, 112, 184
-0.993127, 49, 173, 176, 204
-0.993155, 233, 17, 296, 144
-0.993156, 13, 145, 44, 272
-0.993218, 91, 121, 106, 184
-0.993219, 205, 241, 236, 368
-0.993228, 441, 1, 472, 128
-0.993288, 193, 265, 320, 328
-0.993308, 161, 221, 288, 252
-0.99337, 83, 137, 98, 200
-0.993393, 193, 73, 448, 136
-0.993428, 201, 81, 232, 208
-0.9935, 257, 273, 500, 336
-0.993509, 177, 205, 304, 236
-0.993679, 161, 141, 288, 172
-0.993683, 41, 17, 72, 144
-0.993713, 369, 217, 496, 280
-0.993717, 193, 69, 320, 100
-0.993843, 61, 177, 76, 240
-0.993881, 225, 97, 480, 160
-0.993882, 49, 265, 176, 328
-0.993944, 107, 121, 122, 184
-0.994006, 381, 193, 396, 256
-0.994009, 209, 129, 336, 160
-0.994013, 267, 89, 282, 152
-0.994044, 33, 185, 160, 216
-0.994053, 193, 189, 320, 220
-0.994083, 1, 233, 500, 296
-0.994091, 129, 185, 256, 216
-0.994097, 97, 289, 224, 352
-0.994113, 129, 153, 256, 184
-0.994185, 241, 205, 368, 236
-0.994227, 129, 241, 384, 304
-0.994236, 123, 169, 138, 232
-0.994255, 81, 145, 208, 176
-0.994262, 77, 129, 92, 192
-0.994264, 65, 313, 320, 375
-0.994344, 1, 105, 500, 168
-0.994405, 381, 169, 396, 232
-0.994423, 193, 33, 320, 96
-0.994425, 1, 205, 128, 236
-0.994442, 97, 145, 112, 208
-0.994486, 35, 113, 50, 176
-0.994497, 129, 205, 256, 236
-0.994507, 137, 169, 152, 232
-0.994536, 49, 161, 176, 192
-0.994541, 17, 121, 144, 152
-0.994567, 113, 129, 128, 192
-0.994624, 115, 169, 130, 232
-0.994641, 375, 193, 390, 256
-0.994641, 241, 17, 368, 80
-0.994661, 253, 65, 268, 128
-0.994685, 389, 169, 404, 232
-0.994727, 273, 193, 400, 224
-0.994734, 67, 169, 82, 232
-0.994742, 337, 141, 464, 172
-0.994746, 353, 165, 480, 196
-0.994757, 273, 105, 288, 168
-0.994786, 97, 57, 352, 120
-0.994802, 181, 225, 196, 288
-0.994814, 101, 97, 116, 160
-0.994828, 259, 185, 274, 248
-0.994838, 129, 169, 144, 232
-0.994882, 161, 193, 176, 256
-0.994892, 257, 149, 384, 180
-0.994917, 27, 105, 42, 168
-0.994925, 81, 217, 208, 248
-0.994931, 105, 145, 120, 208
-0.994949, 161, 325, 288, 356
-0.994951, 71, 129, 86, 192
-0.994959, 161, 81, 288, 112
-0.994972, 387, 193, 402, 256
-0.994999, 259, 65, 274, 128
-0.995005, 219, 177, 234, 240
-0.995006, 367, 169, 382, 232
-0.995008, 409, 121, 424, 184
-0.995011, 375, 169, 390, 232
-0.995016, 209, 89, 336, 120
-0.995025, 17, 145, 144, 176
-0.995035, 65, 1, 128, 128
-0.995039, 81, 189, 208, 220
-0.995039, 17, 109, 144, 140
-0.995046, 63, 129, 78, 192
-0.995052, 265, 185, 280, 248
-0.995057, 161, 289, 416, 352
-0.995058, 109, 169, 124, 232
-0.995062, 271, 193, 286, 256
-0.995072, 89, 145, 104, 208
-0.995102, 273, 137, 400, 168
-0.995105, 369, 265, 496, 296
-0.995107, 49, 205, 176, 236
-0.995107, 145, 233, 272, 264
-0.995122, 169, 193, 184, 256
-0.995123, 41, 113, 56, 176
-0.995136, 97, 333, 224, 364
-0.995147, 169, 217, 184, 280
-0.995226, 395, 177, 410, 240
-0.99525, 187, 225, 202, 288
-0.99525, 145, 253, 272, 284
-0.995257, 365, 129, 380, 192
-0.995263, 163, 225, 178, 288
-0.995289, 45, 73, 60, 136
-0.995292, 57, 129, 72, 192
-0.995298, 65, 97, 96, 352
-0.995299, 277, 193, 292, 256
-0.995309, 369, 205, 496, 236
-0.995318, 1, 17, 128, 80
-0.995323, 267, 113, 282, 176
-0.995333, 59, 153, 74, 216
-0.995348, 51, 193, 66, 256
-0.995355, 37, 97, 68, 352
-0.995362, 161, 129, 288, 160
-0.995379, 265, 65, 280, 128
-0.995386, 17, 93, 144, 124
-0.995459, 161, 93, 288, 124
-0.995471, 401, 161, 416, 224
-0.995474, 353, 153, 480, 184
-0.995483, 209, 145, 336, 176
-0.995487, 199, 313, 214, 375
-0.995489, 337, 281, 464, 312
-0.99549, 289, 65, 304, 128
-0.995492, 113, 29, 240, 60
-0.995496, 225, 161, 240, 224
-0.995501, 115, 97, 130, 160
-0.995502, 429, 257, 444, 320
-0.995512, 403, 129, 418, 192
-0.995519, 289, 205, 416, 236
-0.995568, 241, 217, 368, 248
-0.995571, 175, 217, 190, 280
-0.995577, 257, 153, 272, 216
-0.995578, 143, 177, 158, 240
-0.995605, 261, 105, 276, 168
-0.99562, 257, 225, 500, 288
-0.995621, 371, 137, 386, 200
-0.995652, 51, 89, 66, 152
-0.995667, 289, 125, 416, 156
-0.995691, 287, 201, 302, 264
-0.995717, 219, 65, 234, 128
-0.995725, 257, 297, 500, 360
-0.995725, 257, 89, 384, 120
-0.995731, 257, 49, 500, 112
-0.995736, 291, 113, 306, 176
-0.995736, 353, 113, 368, 176
-0.995752, 413, 161, 428, 224
-0.995762, 1, 257, 500, 320
-0.995763, 51, 113, 66, 176
-0.995768, 257, 249, 500, 312
-0.995773, 289, 273, 416, 304
-0.995794, 281, 129, 312, 375
-0.995805, 247, 65, 262, 128
-0.995813, 107, 97, 122, 160
-0.995814, 381, 105, 396, 168
-0.995819, 149, 113, 164, 176
-0.995827, 189, 1, 204, 64
-0.995833, 175, 137, 190, 200
-0.995835, 425, 153, 440, 216
-0.995843, 369, 193, 384, 256
-0.995851, 289, 177, 416, 208
-0.995863, 177, 313, 304, 344
-0.995884, 177, 185, 192, 248
-0.995885, 33, 33, 288, 96
-0.995888, 81, 229, 208, 260
-0.995893, 61, 201, 76, 264
-0.995905, 241, 129, 256, 192
-0.995908, 283, 177, 298, 240
-0.995914, 57, 89, 72, 152
-0.995915, 177, 157, 304, 188
-0.995915, 305, 157, 432, 188
-0.99592, 1, 313, 500, 375
-0.99593, 251, 161, 266, 224
-0.995941, 113, 77, 240, 108
-0.995949, 281, 137, 296, 200
-0.99596, 175, 241, 190, 304
-0.995983, 1, 1, 500, 64
-0.99599, 79, 161, 94, 224
-0.996003, 119, 145, 134, 208
-0.996005, 37, 89, 52, 152
-0.996028, 407, 161, 422, 224
-0.996034, 213, 65, 228, 128
-0.996037, 313, 185, 328, 248
-0.996038, 279, 73, 294, 136
-0.99604, 213, 185, 228, 248
-0.996048, 53, 153, 68, 216
-0.996058, 231, 185, 246, 248
-0.99606, 177, 177, 304, 208
-0.996077, 377, 145, 392, 208
-0.996084, 415, 121, 430, 184
-0.996085, 197, 73, 212, 136
-0.99609, 337, 253, 464, 284
-0.996093, 263, 153, 278, 216
-0.996097, 337, 97, 368, 352
-0.996102, 97, 345, 224, 375
-0.996107, 445, 129, 460, 192
-0.996115, 435, 249, 450, 312
-0.996123, 299, 121, 314, 184
-0.996125, 439, 129, 454, 192
-0.996135, 131, 145, 146, 208
-0.996144, 463, 33, 478, 96
-0.996148, 193, 241, 320, 272
-0.996151, 47, 49, 62, 112
-0.996165, 285, 113, 300, 176
-0.996167, 193, 225, 208, 288
-0.996184, 161, 57, 288, 88
-0.996185, 205, 313, 220, 375
-0.996188, 353, 181, 480, 212
-0.99619, 225, 345, 352, 375
-0.99619, 97, 89, 224, 120
-0.996197, 253, 185, 268, 248
-0.996198, 231, 97, 246, 160
-0.996199, 1, 273, 128, 304
-0.996207, 443, 241, 458, 304
-0.996213, 461, 1, 476, 64
-0.996216, 183, 57, 198, 120
-0.99622, 431, 153, 446, 216
-0.996228, 169, 137, 184, 200
-0.996235, 303, 57, 318, 120
-0.996236, 401, 97, 432, 352
-0.996245, 257, 333, 384, 364
-0.996252, 297, 57, 312, 120
-0.996268, 155, 137, 170, 200
-0.996272, 153, 217, 168, 280
-0.996275, 257, 129, 272, 192
-0.996279, 19, 105, 34, 168
-0.996279, 225, 309, 352, 340
-0.996285, 383, 145, 398, 208
-0.996286, 251, 137, 266, 200
-0.996302, 419, 153, 434, 216
-0.996305, 181, 249, 196, 312
-0.996315, 29, 129, 44, 192
-0.99633, 241, 61, 368, 92
-0.996348, 1, 173, 128, 204
-0.996352, 49, 253, 176, 284
-0.996354, 289, 345, 416, 375
-0.996359, 33, 313, 160, 375
-0.996376, 53, 97, 84, 352
-0.996379, 289, 217, 416, 248
-0.996381, 1, 161, 128, 192
-0.996411, 25, 97, 56, 352
-0.99643, 241, 77, 368, 108
-0.996466, 265, 65, 296, 320
-0.99648, 101, 65, 132, 320
-0.996482, 161, 109, 288, 140
-0.996511, 81, 117, 208, 148
-0.996515, 89, 65, 120, 320
-0.996518, 289, 285, 416, 316
-0.996529, 353, 129, 384, 375
-0.99653, 413, 97, 444, 352
-0.996532, 321, 97, 352, 352
-0.996544, 257, 9, 500, 72
-0.996567, 1, 289, 500, 352
-0.996579, 369, 297, 496, 328
-0.996617, 293, 97, 324, 352
-0.996617, 369, 13, 496, 44
-0.99664, 33, 233, 160, 264
-0.996647, 1, 217, 128, 248
-0.996662, 1, 81, 256, 144
-0.996673, 169, 129, 200, 375
-0.996712, 145, 345, 272, 375
-0.996771, 369, 1, 496, 32
-0.996775, 209, 333, 336, 364
-0.996776, 157, 129, 188, 375
-0.99678, 369, 193, 496, 224
-0.996788, 365, 97, 396, 352
-0.996811, 369, 129, 496, 160
-0.996818, 241, 269, 368, 300
-0.99683, 129, 265, 384, 328
-0.996867, 81, 101, 208, 132
-0.996884, 77, 97, 108, 352
-0.996895, 321, 21, 448, 52
-0.996907, 241, 297, 368, 328
-0.996922, 309, 97, 340, 352
-0.996924, 225, 165, 352, 196
-0.99693, 225, 97, 256, 352
-0.99694, 349, 33, 380, 288
-0.996946, 389, 97, 420, 352
-0.996951, 241, 229, 368, 260
-0.996957, 289, 261, 416, 292
-0.99697, 253, 97, 284, 352
-0.996975, 93, 129, 108, 160
-0.996991, 321, 1, 448, 32
-0.996999, 369, 233, 496, 264
-0.997011, 21, 113, 36, 144
-0.997014, 113, 65, 240, 96
-0.997047, 237, 97, 268, 352
-0.997063, 193, 257, 320, 288
-0.997073, 31, 121, 46, 152
-0.997084, 401, 1, 432, 256
-0.997087, 113, 17, 240, 48
-0.99709, 97, 261, 224, 292
-0.997096, 321, 193, 448, 224
-0.997113, 225, 321, 352, 352
-0.997126, 13, 97, 44, 352
-0.997132, 129, 17, 384, 80
-0.99714, 99, 129, 114, 160
-0.997143, 369, 117, 496, 148
-0.997151, 91, 145, 106, 176
-0.997164, 105, 129, 120, 160
-0.997177, 215, 69, 230, 100
-0.99718, 209, 65, 240, 320
-0.997186, 37, 125, 52, 156
-0.997238, 289, 321, 416, 352
-0.997243, 277, 33, 308, 288
-0.997262, 449, 129, 480, 375
-0.997272, 377, 201, 392, 232
-0.997274, 113, 129, 128, 160
-0.997275, 81, 137, 96, 168
-0.997277, 1, 129, 32, 375
-0.997288, 425, 129, 456, 375
-0.997291, 109, 141, 124, 172
-0.997293, 99, 145, 114, 176
-0.997313, 1, 281, 256, 344
-0.997313, 193, 297, 320, 328
-0.997318, 1, 261, 128, 292
-0.997321, 209, 105, 336, 136
-0.997341, 255, 61, 270, 92
-0.997353, 199, 129, 214, 160
-0.997373, 97, 241, 224, 272
-0.997378, 271, 205, 286, 236
-0.997379, 427, 153, 442, 184
-0.997385, 289, 297, 416, 328
-0.997388, 215, 133, 230, 164
-0.997407, 337, 329, 464, 360
-0.997421, 1, 73, 500, 136
-0.997421, 205, 73, 220, 104
-0.997423, 369, 101, 496, 132
-0.997439, 189, 97, 220, 352
-0.997446, 17, 81, 144, 112
-0.997467, 387, 177, 402, 208
-0.99747, 65, 173, 80, 204
-0.997477, 337, 217, 464, 248
-0.997479, 61, 137, 76, 168
-0.99748, 195, 145, 210, 176
-0.997482, 57, 185, 72, 216
-0.997486, 71, 165, 86, 196
-0.997489, 289, 73, 416, 104
-0.997491, 145, 265, 272, 296
-0.997508, 71, 133, 86, 164
-0.997509, 377, 129, 408, 375
-0.99751, 261, 61, 276, 92
-0.997512, 353, 309, 480, 340
-0.997518, 125, 125, 140, 156
-0.99752, 385, 197, 400, 228
-0.997524, 33, 37, 160, 68
-0.997531, 1, 1, 64, 256
-0.997533, 117, 117, 132, 148
-0.997534, 45, 1, 76, 256
-0.997542, 273, 113, 400, 144
-0.997548, 185, 1, 216, 256
-0.997557, 49, 269, 176, 300
-0.99756, 55, 137, 70, 168
-0.997564, 269, 93, 284, 124
-0.997564, 15, 117, 30, 148
-0.997565, 69, 145, 84, 176
-0.997571, 87, 133, 102, 164
-0.997572, 221, 61, 236, 92
-0.997577, 265, 209, 280, 240
-0.99761, 261, 89, 276, 120
-0.997613, 113, 321, 240, 352
-0.997618, 115, 157, 130, 188
-0.997626, 151, 117, 166, 148
-0.997639, 177, 213, 192, 244
-0.997683, 49, 21, 176, 52
-0.997688, 443, 129, 458, 160
-0.997694, 261, 73, 276, 104
-0.9977, 45, 81, 60, 112
-0.997701, 115, 141, 130, 172
-0.997706, 237, 129, 252, 160
-0.997707, 417, 165, 432, 196
-0.99772, 127, 189, 142, 220
-0.997723, 411, 165, 426, 196
-0.997725, 393, 177, 408, 208
-0.997728, 163, 225, 178, 256
-0.997728, 345, 137, 360, 168
-0.997734, 157, 113, 172, 144
-0.997742, 281, 129, 296, 160
-0.997747, 43, 125, 58, 156
-0.997757, 27, 109, 42, 140
-0.997757, 369, 65, 496, 96
-0.997767, 77, 1, 108, 256
-0.997767, 217, 185, 232, 216
-0.997771, 189, 145, 204, 176
-0.997772, 205, 61, 220, 92
-0.997773, 81, 157, 96, 188
-0.997774, 109, 157, 124, 188
-0.997778, 41, 137, 56, 168
-0.99778, 213, 81, 228, 112
-0.997781, 171, 229, 186, 260
-0.997781, 199, 69, 214, 100
-0.997783, 367, 213, 382, 244
-0.997784, 227, 137, 242, 168
-0.997785, 49, 345, 176, 375
-0.997786, 381, 177, 396, 208
-0.997788, 409, 1, 424, 32
-0.997795, 225, 81, 240, 112
-0.997796, 433, 1, 448, 32
-0.997804, 25, 125, 40, 156
-0.99781, 391, 197, 406, 228
-0.997811, 185, 157, 200, 188
-0.997813, 205, 145, 220, 176
-0.997816, 177, 173, 192, 204
-0.997816, 199, 57, 214, 88
-0.997817, 289, 125, 304, 156
-0.997823, 55, 265, 70, 296
-0.997833, 369, 25, 496, 56
-0.997839, 47, 193, 62, 224
-0.997846, 47, 137, 62, 168
-0.997847, 337, 341, 464, 372
-0.997852, 183, 17, 198, 48
-0.997854, 255, 73, 270, 104
-0.997854, 107, 177, 122, 208
-0.997856, 437, 129, 468, 375
-0.997856, 51, 149, 66, 180
-0.997859, 177, 225, 192, 256
-0.997866, 119, 193, 134, 224
-0.997867, 101, 157, 116, 188
-0.997868, 59, 153, 74, 184
-0.997868, 253, 141, 268, 172
-0.99787, 297, 73, 312, 104
-0.997875, 161, 165, 176, 196
-0.997877, 281, 145, 296, 176
-0.99788, 113, 1, 144, 256
-0.997881, 333, 1, 364, 256
-0.997882, 177, 149, 192, 180
-0.99789, 91, 161, 106, 192
-0.99789, 265, 189, 280, 220
-0.997891, 161, 21, 288, 52
-0.997892, 227, 61, 242, 92
-0.997896, 35, 105, 50, 136
-0.997898, 271, 133, 286, 164
-0.9979, 203, 201, 218, 232
-0.997904, 225, 177, 352, 208
-0.997905, 193, 125, 208, 156
-0.997905, 163, 241, 178, 272
-0.997909, 259, 217, 274, 248
-0.997917, 157, 209, 172, 240
-0.997918, 233, 189, 248, 220
-0.99792, 157, 225, 172, 256
-0.997922, 319, 133, 334, 164
-0.997922, 225, 181, 240, 212
-0.997923, 399, 177, 414, 208
-0.997927, 405, 165, 420, 196
-0.997935, 469, 129, 500, 375
-0.997935, 365, 165, 380, 196
-0.997938, 187, 217, 202, 248
-0.99794, 199, 157, 214, 188
-0.997943, 375, 173, 390, 204
-0.997945, 139, 193, 154, 224
-0.997949, 183, 113, 198, 144
-0.997949, 237, 61, 252, 92
-0.997953, 119, 129, 134, 160
-0.997954, 197, 81, 212, 112
-0.997957, 379, 161, 394, 192
-0.997958, 387, 129, 402, 160
-0.997958, 225, 49, 352, 80
-0.997958, 33, 9, 288, 72
-0.997961, 291, 137, 306, 168
-0.997964, 371, 193, 386, 224
-0.997976, 207, 33, 222, 64
-0.997978, 71, 121, 86, 152
-0.997982, 289, 249, 416, 280
-0.997982, 167, 161, 182, 192
-0.997984, 139, 125, 154, 156
-0.997986, 113, 1, 240, 32
-0.997988, 85, 233, 100, 264
-0.997988, 433, 253, 448, 284
-0.99799, 247, 61, 262, 92
-0.998025, 241, 241, 368, 272
-0.998047, 305, 37, 432, 68
-0.998117, 369, 1, 400, 256
-0.998135, 173, 33, 204, 288
-0.99814, 1, 57, 256, 120
-0.998226, 413, 1, 444, 256
-0.998269, 321, 1, 352, 256
-0.998333, 57, 1, 88, 256
-0.998367, 81, 131, 144, 146
-0.998388, 41, 139, 104, 154
-0.998411, 121, 131, 184, 146
-0.998412, 149, 33, 180, 288
-0.998425, 161, 237, 224, 252
-0.998436, 65, 169, 128, 184
-0.998437, 217, 67, 280, 82
-0.998437, 65, 155, 128, 170
-0.998445, 389, 1, 420, 256
-0.998447, 369, 187, 432, 202
-0.998447, 241, 187, 272, 202
-0.998447, 109, 155, 140, 170
-0.998448, 173, 83, 204, 98
-0.998448, 245, 193, 276, 208
-0.998448, 181, 21, 212, 36
-0.998448, 425, 135, 456, 150
-0.998449, 9, 119, 72, 134
-0.99845, 145, 205, 176, 220
-0.99845, 221, 141, 252, 156
-0.998451, 33, 145, 64, 160
-0.998451, 345, 139, 376, 154
-0.998452, 185, 223, 216, 238
-0.998453, 385, 173, 416, 188
-0.998453, 177, 147, 240, 162
-0.998453, 89, 143, 120, 158
-0.998453, 209, 147, 240, 162
-0.998453, 185, 143, 216, 158
-0.998455, 233, 191, 296, 206
-0.998456, 197, 1, 228, 256
-0.998456, 185, 185, 216, 200
-0.998456, 153, 219, 184, 234
-0.998457, 161, 223, 224, 238
-0.998458, 165, 239, 196, 254
-0.998458, 29, 109, 60, 124
-0.998459, 361, 137, 392, 152
-0.998459, 117, 193, 148, 208
-0.99846, 245, 147, 276, 162
-0.99846, 49, 185, 112, 200
-0.99846, 441, 127, 472, 142
-0.99846, 261, 141, 292, 156
-0.998461, 33, 131, 64, 146
-0.998462, 369, 207, 400, 222
-0.998462, 237, 133, 268, 148
-0.998463, 57, 205, 88, 220
-0.998463, 153, 211, 184, 226
-0.998463, 365, 215, 396, 230
-0.998463, 21, 133, 52, 148
-0.998464, 257, 107, 288, 122
-0.998464, 177, 77, 240, 92
-0.998465, 89, 205, 120, 220
-0.998465, 89, 171, 120, 186
-0.998466, 177, 185, 240, 200
-0.998466, 65, 139, 96, 154
-0.998466, 317, 135, 348, 150
-0.998466, 337, 149, 400, 164
-0.998467, 221, 183, 252, 198
-0.998467, 169, 129, 200, 144
-0.998468, 41, 101, 72, 116
-0.998468, 149, 123, 180, 138
-0.998469, 145, 215, 208, 230
-0.99847, 81, 131, 112, 146
-0.998472, 173, 157, 204, 172
-0.998472, 189, 165, 220, 180
-0.998473, 233, 73, 264, 88
-0.998473, 269, 103, 300, 118
-0.998473, 285, 195, 316, 210
-0.998473, 205, 185, 236, 200
-0.998473, 185, 163, 248, 178
-0.998473, 65, 177, 96, 192
-0.998475, 285, 73, 316, 88
-0.998475, 417, 163, 448, 178
-0.998475, 197, 157, 228, 172
-0.998476, 361, 173, 424, 188
-0.998476, 209, 135, 272, 150
-0.998477, 65, 131, 96, 146
-0.998478, 357, 149, 388, 164
-0.998479, 201, 141, 264, 156
-0.99848, 377, 197, 408, 212
-0.99848, 57, 175, 120, 190
-0.99848, 173, 151, 204, 166
-0.99848, 225, 197, 288, 212
-0.998481, 197, 179, 228, 194
-0.998481, 13, 127, 44, 142
-0.998482, 145, 175, 208, 190
-0.998484, 385, 167, 448, 182
-0.998486, 41, 91, 72, 106
-0.998487, 109, 207, 140, 222
-0.998488, 185, 79, 216, 94
-0.998488, 385, 135, 416, 150
-0.998488, 41, 191, 104, 206
-0.998489, 269, 191, 300, 206
-0.998489, 361, 161, 424, 176
-0.99849, 381, 167, 412, 182
-0.998491, 209, 187, 272, 202
-0.998491, 277, 91, 308, 106
-0.998491, 153, 153, 216, 168
-0.998491, 161, 165, 192, 180
-0.998492, 217, 73, 280, 88
-0.998492, 389, 123, 420, 138
-0.998493, 145, 169, 176, 184
-0.998493, 65, 149, 128, 164
-0.998493, 185, 83, 248, 98
-0.998493, 33, 159, 96, 174
-0.998494, 397, 179, 428, 194
-0.998494, 369, 145, 400, 160
-0.998495, 181, 127, 212, 142
-0.998495, 225, 133, 256, 148
-0.998495, 185, 205, 248, 220
-0.998496, 217, 147, 280, 162
-0.998497, 273, 129, 304, 144
-0.998497, 257, 101, 288, 116
-0.998499, 377, 189, 408, 204
-0.9985, 81, 161, 144, 176
-0.998501, 373, 179, 404, 194
-0.998502, 161, 151, 192, 166
-0.998502, 249, 209, 312, 224
-0.998502, 89, 137, 120, 152
-0.998504, 25, 125, 56, 140
-0.998505, 45, 151, 76, 166
-0.998505, 49, 205, 112, 220
-0.998505, 121, 37, 184, 52
-0.998505, 277, 201, 308, 216
-0.998506, 117, 137, 148, 152
-0.998506, 233, 131, 296, 146
-0.998509, 273, 201, 336, 216
-0.998509, 401, 127, 464, 142
-0.998509, 105, 211, 168, 226
-0.998511, 105, 141, 136, 156
-0.998511, 245, 209, 276, 224
-0.998511, 25, 131, 88, 146
-0.998511, 81, 193, 144, 208
-0.998512, 253, 71, 284, 86
-0.998512, 257, 143, 320, 158
-0.998513, 153, 167, 216, 182
-0.998514, 253, 95, 284, 110
-0.998514, 257, 97, 320, 112
-0.998516, 69, 147, 100, 162
-0.998516, 97, 151, 128, 166
-0.998516, 289, 209, 352, 224
-0.998517, 369, 135, 432, 150
-0.998517, 241, 69, 304, 84
-0.998519, 321, 207, 384, 222
-0.998519, 145, 31, 208, 46
-0.998519, 37, 197, 68, 212
-0.99852, 269, 149, 300, 164
-0.99852, 9, 209, 72, 224
-0.998521, 345, 143, 408, 158
-0.998521, 41, 149, 104, 164
-0.998523, 133, 37, 164, 52
-0.998523, 145, 185, 208, 200
-0.998523, 213, 135, 244, 150
-0.998523, 145, 207, 208, 222
-0.998524, 385, 141, 448, 156
-0.998524, 209, 141, 240, 156
-0.998524, 73, 137, 136, 152
-0.998524, 189, 149, 220, 164
-0.998525, 361, 179, 424, 194
-0.998525, 269, 97, 300, 112
-0.998525, 417, 127, 448, 142
-0.998526, 197, 137, 228, 152
-0.998526, 257, 193, 320, 208
-0.998526, 173, 215, 204, 230
-0.998528, 169, 129, 232, 144
-0.998528, 113, 201, 176, 216
-0.998529, 105, 175, 168, 190
-0.998529, 177, 141, 240, 156
-0.99853, 273, 131, 336, 146
-0.998531, 249, 225, 312, 240
-0.998533, 217, 91, 280, 106
-0.998533, 401, 133, 432, 148
-0.998534, 353, 195, 416, 210
-0.998534, 41, 197, 104, 212
-0.998536, 9, 91, 72, 106
-0.998537, 185, 191, 248, 206
-0.998538, 261, 217, 292, 232
-0.998539, 425, 33, 456, 288
-0.998539, 229, 189, 260, 204
-0.998539, 169, 229, 232, 244
-0.99854, 129, 167, 192, 182
-0.99854, 249, 219, 312, 234
-0.998542, 369, 161, 400, 176
-0.998542, 213, 73, 244, 88
-0.998542, 193, 69, 256, 84
-0.998543, 257, 105, 320, 120
-0.998544, 213, 81, 244, 96
-0.998544, 161, 253, 224, 268
-0.998545, 289, 87, 320, 102
-0.998545, 153, 135, 216, 150
-0.998546, 409, 133, 472, 148
-0.998547, 161, 263, 224, 278
-0.998547, 225, 105, 288, 120
-0.998548, 281, 215, 344, 230
-0.998549, 145, 243, 208, 258
-0.998549, 353, 201, 416, 216
-0.998549, 193, 179, 256, 194
-0.99855, 69, 155, 100, 170
-0.99855, 17, 203, 80, 218
-0.99855, 81, 207, 144, 222
-0.998551, 265, 149, 328, 164
-0.998552, 405, 167, 436, 182
-0.998552, 237, 1, 268, 256
-0.998552, 201, 73, 232, 88
-0.998553, 385, 265, 448, 280
-0.998553, 73, 187, 136, 202
-0.998555, 61, 183, 92, 198
-0.998556, 153, 161, 216, 176
-0.998557, 241, 155, 304, 170
-0.998557, 389, 189, 420, 204
-0.998558, 217, 153, 280, 168
-0.998558, 129, 223, 192, 238
-0.998559, 25, 125, 88, 140
-0.998559, 113, 157, 176, 172
-0.998559, 353, 167, 416, 182
-0.99856, 97, 125, 160, 140
-0.99856, 257, 91, 320, 106
-0.998561, 25, 111, 88, 126
-0.998562, 113, 191, 176, 206
-0.998563, 57, 149, 88, 164
-0.998564, 177, 169, 240, 184
-0.998564, 17, 97, 80, 112
-0.998565, 289, 145, 352, 160
-0.998566, 201, 79, 232, 94
-0.998566, 145, 129, 176, 144
-0.998567, 77, 139, 108, 154
-0.998567, 377, 155, 440, 170
-0.998567, 157, 129, 188, 144
-0.998567, 193, 157, 256, 172
-0.998567, 153, 199, 216, 214
-0.998568, 225, 215, 288, 230
-0.998569, 313, 139, 376, 154
-0.998569, 49, 277, 112, 292
-0.998569, 85, 149, 116, 164
-0.99857, 145, 83, 208, 98
-0.99857, 169, 215, 232, 230
-0.998571, 45, 139, 76, 154
-0.998572, 81, 143, 144, 158
-0.998573, 57, 131, 120, 146
-0.998573, 81, 175, 144, 190
-0.998573, 197, 143, 228, 158
-0.998574, 57, 157, 88, 172
-0.998575, 145, 123, 208, 138
-0.998576, 41, 165, 104, 180
-0.998576, 257, 63, 320, 78
-0.998576, 145, 129, 176, 375
-0.998577, 89, 167, 152, 182
-0.998577, 97, 137, 160, 152
-0.998578, 353, 155, 416, 170
-0.998578, 257, 111, 320, 126
-0.998579, 409, 121, 472, 136
-0.998579, 153, 225, 184, 240
-0.998579, 145, 193, 208, 208
-0.998579, 1, 131, 64, 146
-0.99858, 209, 225, 272, 240
-0.99858, 233, 141, 296, 156
-0.998581, 225, 231, 288, 246
-0.998583, 89, 157, 120, 172
-0.998584, 265, 69, 296, 84
-0.998594, 221, 67, 252, 82
-0.9986, 149, 31, 180, 46
-0.998605, 133, 129, 164, 144
-0.998609, 113, 131, 144, 146
-0.998614, 253, 65, 284, 80
-0.99862, 73, 165, 104, 180
-0.998651, 267, 129, 282, 256
-0.998656, 13, 119, 44, 134
-0.998658, 241, 65, 272, 80
-0.998663, 93, 131, 124, 146
-0.998671, 249, 1, 280, 256
-0.998698, 289, 1, 320, 256
-0.998724, 243, 129, 258, 256
-0.99876, 219, 49, 234, 176
-0.998762, 161, 1, 192, 256
-0.998764, 107, 113, 122, 240
-0.998767, 367, 113, 382, 240
-0.998784, 315, 113, 330, 240
-0.998785, 1, 25, 500, 88
-0.99879, 129, 97, 160, 352
-0.998795, 261, 129, 276, 256
-0.998801, 33, 1, 64, 256
-0.998803, 341, 129, 356, 256
-0.998816, 357, 129, 372, 256
-0.998817, 237, 129, 252, 256
-0.998818, 167, 129, 182, 256
-0.998834, 275, 129, 290, 256
-0.998843, 77, 129, 92, 256
-0.99885, 249, 129, 264, 256
-0.998861, 117, 113, 132, 240
-0.998863, 177, 1, 192, 128
-0.998863, 255, 49, 270, 176
-0.998864, 469, 33, 500, 288
-0.998869, 255, 145, 270, 272
-0.998869, 113, 97, 144, 352
-0.998875, 377, 129, 392, 256
-0.998877, 377, 177, 392, 304
-0.998892, 335, 129, 350, 256
-0.998895, 367, 161, 382, 288
-0.998902, 159, 145, 174, 272
-0.998905, 173, 129, 188, 256
-0.998911, 303, 113, 318, 240
-0.998928, 347, 129, 362, 256
-0.998932, 309, 113, 324, 240
-0.998938, 297, 129, 312, 256
-0.998946, 221, 1, 252, 256
-0.998947, 55, 177, 70, 304
-0.998957, 291, 129, 306, 256
-0.998962, 83, 113, 98, 240
-0.998964, 283, 129, 298, 256
-0.998967, 329, 113, 344, 240
-0.998975, 227, 129, 242, 256
-0.998978, 97, 97, 112, 224
-0.998993, 65, 161, 80, 288
-0.998996, 179, 129, 194, 256
-0.999004, 213, 49, 228, 176
-0.999005, 125, 1, 156, 256
-0.999005, 43, 113, 58, 240
-0.99901, 321, 113, 336, 240
-0.999023, 99, 145, 114, 272
-0.999025, 267, 81, 282, 208
-0.999026, 89, 97, 104, 224
-0.999027, 183, 1, 198, 128
-0.999028, 255, 97, 270, 224
-0.999032, 131, 145, 146, 272
-0.999035, 301, 1, 332, 256
-0.999048, 217, 113, 232, 240
-0.999053, 71, 129, 86, 256
-0.999057, 61, 113, 76, 240
-0.999058, 137, 1, 168, 256
-0.999072, 35, 113, 50, 240
-0.999081, 153, 145, 168, 272
-0.999083, 383, 129, 398, 256
-0.999084, 299, 49, 314, 176
-0.999084, 387, 17, 402, 144
-0.999092, 53, 97, 68, 224
-0.999098, 7, 193, 22, 320
-0.999098, 401, 161, 416, 288
-0.999102, 137, 145, 152, 272
-0.999103, 225, 49, 240, 176
-0.999103, 457, 33, 488, 288
-0.999106, 249, 65, 264, 192
-0.999113, 209, 1, 224, 128
-0.999118, 165, 177, 180, 304
-0.999119, 479, 193, 494, 320
-0.999122, 275, 81, 290, 208
-0.999126, 123, 145, 138, 272
-0.999126, 473, 209, 488, 336
-0.999136, 435, 225, 450, 352
-0.999144, 23, 193, 38, 320
-0.999146, 49, 177, 64, 304
-0.999147, 361, 177, 376, 304
-0.999148, 261, 65, 276, 192
-0.999149, 15, 193, 30, 320
-0.999151, 73, 193, 88, 320
-0.999153, 465, 209, 480, 336
-0.999163, 283, 193, 298, 320
-0.999174, 261, 177, 276, 304
-0.999174, 19, 81, 34, 208
-0.999176, 187, 177, 202, 304
-0.999179, 353, 177, 368, 304
-0.999187, 441, 225, 456, 352
-0.999188, 389, 161, 404, 288
-0.999199, 447, 65, 462, 192
-0.999199, 305, 65, 320, 192
-0.999201, 485, 193, 500, 320
-0.999202, 153, 97, 168, 224
-0.999203, 231, 65, 246, 192
-0.999209, 289, 193, 304, 320
-0.999212, 455, 209, 470, 336
-0.999214, 143, 145, 158, 272
-0.999214, 111, 65, 126, 192
-0.999215, 45, 65, 60, 192
-0.999216, 1, 209, 16, 336
-0.999217, 189, 1, 204, 128
-0.999218, 185, 129, 200, 256
-0.999222, 11, 113, 26, 240
-0.999227, 173, 81, 188, 208
-0.999228, 141, 1, 156, 128
-0.999234, 93, 145, 108, 272
-0.999236, 237, 177, 252, 304
-0.999238, 25, 81, 40, 208
-0.999244, 453, 81, 468, 208
-0.999245, 291, 65, 306, 192
-0.999246, 191, 225, 206, 352
-0.999248, 399, 81, 414, 208
-0.999251, 221, 177, 236, 304
-0.999255, 197, 33, 212, 160
-0.999255, 411, 129, 426, 256
-0.999257, 365, 65, 380, 192
-0.99926, 267, 177, 282, 304
-0.999264, 17, 129, 32, 256
-0.999264, 447, 225, 462, 352
-0.999271, 311, 177, 326, 304
-0.999272, 187, 81, 202, 208
-0.999276, 457, 17, 472, 144
-0.999277, 383, 193, 398, 320
-0.999279, 237, 81, 252, 208
-0.999282, 319, 193, 334, 320
-0.999282, 23, 129, 38, 256
-0.999282, 391, 97, 406, 224
-0.999283, 395, 177, 410, 304
-0.999289, 295, 193, 310, 320
-0.99929, 29, 193, 44, 320
-0.999295, 123, 97, 138, 224
-0.999297, 469, 1, 484, 128
-0.9993, 79, 193, 94, 320
-0.9993, 347, 177, 362, 304
-0.9993, 371, 209, 386, 336
-0.999301, 339, 81, 354, 208
-0.999302, 29, 129, 44, 256
-0.999305, 43, 177, 58, 304
-0.999369, 437, 33, 468, 288
-0.999453, 21, 1, 52, 256
-0.999627, 285, 193, 300, 208
-0.999627, 255, 151, 270, 166
-0.999628, 279, 129, 294, 144
-0.999628, 191, 163, 206, 178
-0.999628, 387, 179, 402, 194
-0.999628, 103, 105, 118, 120
-0.999628, 373, 161, 388, 176
-0.999628, 403, 131, 418, 146
-0.999629, 273, 143, 288, 158
-0.999629, 417, 131, 432, 146
-0.999629, 157, 227, 172, 242
-0.99963, 379, 167, 394, 182
-0.99963, 37, 121, 52, 136
-0.999631, 197, 93, 212, 108
-0.999631, 293, 149, 308, 164
-0.999632, 225, 179, 240, 194
-0.999632, 317, 137, 332, 152
-0.999632, 147, 209, 162, 224
-0.999634, 203, 73, 218, 88
-0.999634, 155, 129, 170, 144
-0.999635, 257, 221, 272, 236
-0.999636, 207, 89, 222, 104
-0.999636, 299, 71, 314, 86
-0.999637, 235, 191, 250, 206
-0.999638, 71, 169, 86, 184
-0.999638, 249, 187, 264, 202
-0.999638, 47, 149, 62, 164
-0.999638, 139, 37, 154, 52
-0.999639, 217, 141, 232, 156
-0.99964, 271, 131, 286, 146
-0.99964, 403, 187, 418, 202
-0.99964, 115, 143, 130, 158
-0.999641, 47, 139, 62, 154
-0.999641, 125, 137, 140, 152
-0.999642, 107, 209, 122, 224
-0.999642, 79, 149, 94, 164
-0.999642, 71, 139, 86, 154
-0.999642, 195, 85, 210, 100
-0.999643, 279, 149, 294, 164
-0.999644, 429, 159, 444, 174
-0.999644, 179, 21, 194, 36
-0.999644, 389, 185, 404, 200
-0.999644, 165, 151, 180, 166
-0.999645, 155, 121, 170, 136
-0.999645, 65, 157, 80, 172
-0.999645, 207, 37, 222, 52
-0.999646, 87, 141, 102, 156
-0.999648, 131, 41, 146, 56
-0.999648, 39, 143, 54, 158
-0.999648, 167, 237, 182, 252
-0.999648, 165, 225, 180, 240
-0.999648, 275, 69, 290, 84
-0.999649, 231, 135, 246, 150
-0.99965, 373, 149, 388, 164
-0.99965, 379, 193, 394, 208
-0.99965, 183, 131, 198, 146
-0.99965, 165, 29, 180, 44
-0.999651, 191, 143, 206, 158
-0.999651, 59, 151, 74, 166
-0.999651, 325, 135, 340, 150
-0.999651, 185, 21, 200, 36
-0.999652, 385, 169, 400, 184
-0.999653, 111, 137, 126, 152
-0.999655, 149, 123, 164, 138
-0.999655, 163, 129, 178, 144
-0.999656, 279, 95, 294, 110
-0.999656, 223, 73, 238, 88
-0.999657, 147, 31, 162, 46
-0.999658, 69, 149, 84, 164
-0.999659, 57, 187, 72, 202
-0.999662, 259, 209, 274, 224
-0.999662, 193, 149, 208, 164
-0.999663, 261, 71, 276, 86
-0.999664, 447, 127, 462, 142
-0.999664, 261, 65, 276, 80
-0.999665, 395, 189, 410, 204
-0.999665, 239, 131, 254, 146
-0.999668, 265, 95, 280, 110
-0.999668, 155, 31, 170, 46
-0.999668, 223, 81, 238, 96
-0.99967, 211, 141, 226, 156
-0.99967, 93, 131, 108, 146
-0.999672, 291, 73, 306, 88
-0.999673, 367, 215, 382, 230
-0.999675, 215, 135, 230, 150
-0.999675, 53, 151, 68, 166
-0.999675, 197, 143, 212, 158
-0.999676, 129, 131, 144, 146
-0.999677, 175, 151, 190, 166
-0.999677, 409, 133, 424, 148
-0.999677, 209, 77, 224, 92
-0.999678, 243, 189, 258, 204
-0.999679, 153, 113, 168, 128
-0.999679, 287, 129, 302, 144
-0.999679, 199, 157, 214, 172
-0.999681, 71, 133, 86, 148
-0.999682, 85, 135, 100, 150
-0.999686, 399, 181, 414, 196
-0.999687, 385, 197, 400, 212
-0.999687, 271, 99, 286, 114
-0.999687, 109, 151, 124, 166
-0.99969, 119, 133, 134, 148
-0.99969, 93, 147, 108, 162
-0.999691, 139, 129, 154, 144
-0.999692, 81, 155, 96, 170
-0.999693, 249, 65, 264, 80
-0.999694, 65, 179, 80, 194
-0.999694, 99, 151, 114, 166
-0.999695, 105, 129, 120, 144
-0.999696, 15, 119, 30, 134
-0.9997, 25, 125, 40, 140
-0.999706, 223, 67, 238, 82
-0.999706, 79, 139, 94, 154
-0.999708, 199, 79, 214, 94
-0.99971, 31, 121, 46, 136
-0.999718, 215, 79, 230, 94
-0.999719, 99, 129, 114, 144
-0.999719, 265, 105, 280, 120
-0.999722, 21, 117, 36, 132
-0.999725, 71, 155, 86, 170
-0.999729, 173, 129, 188, 144
-0.999733, 237, 67, 252, 82
-0.999737, 271, 105, 286, 120
-0.999741, 267, 67, 282, 82
-0.999741, 243, 67, 258, 82
-0.999744, 35, 127, 50, 142
-0.999748, 215, 73, 230, 88
-0.999769, 149, 129, 164, 144
-0.999783, 113, 131, 128, 146
-0.999866, 255, 65, 270, 80
-1.00011, 1, 33, 32, 288
-1.0002, 41, 1, 104, 128
-1.00039, 1, 49, 500, 112
-1.00046, 49, 289, 176, 352
