1965
-0.335229, 1, 129, 375, 384
-0.335613, 1, 1, 375, 500
-0.403976, 65, 1, 320, 500
-0.458343, 1, 225, 375, 480
-0.491731, 97, 129, 352, 384
-0.562053, 1, 33, 375, 288
-0.632357, 97, 225, 352, 480
-0.654375, 1, 193, 256, 448
-0.738236, 33, 33, 288, 288
-0.822881, 129, 33, 375, 288
-0.835087, 177, 65, 304, 320
-0.846798, 177, 1, 304, 500
-0.852837, 209, 161, 336, 416
-0.854871, 97, 129, 224, 384
-0.872701, 33, 129, 160, 384
-0.873809, 1, 145, 375, 272
-0.882665, 161, 161, 288, 416
-0.882848, 1, 209, 375, 336
-0.887959, 225, 65, 352, 320
-0.890111, 97, 209, 352, 336
-0.890159, 129, 1, 256, 500
-0.897491, 1, 321, 375, 448
-0.897575, 113, 225, 240, 480
-0.898742, 225, 1, 352, 500
-0.899838, 17, 225, 144, 480
-0.90189, 1, 97, 375, 224
-0.902795, 17, 1, 144, 500
-0.904823, 129, 33, 256, 288
-0.906079, 65, 225, 192, 480
-0.909221, 1, 257, 375, 384
-0.917549, 81, 33, 208, 288
-0.919762, 65, 161, 320, 288
-0.922655, 97, 97, 352, 224
-0.924939, 65, 1, 192, 500
-0.925237, 241, 257, 368, 500
-0.9294, 177, 81, 304, 208
-0.930571, 97, 321, 352, 448
-0.933165, 177, 129, 304, 256
-0.934821, 97, 209, 224, 336
-0.936271, 97, 257, 352, 384
-0.936317, 209, 193, 336, 320
-0.936385, 1, 241, 256, 368
-0.936796, 97, 161, 224, 288
-0.936909, 33, 33, 160, 288
-0.939215, 185, 129, 248, 256
-0.939579, 121, 209, 184, 336
-0.941811, 217, 81, 280, 208
-0.942952, 121, 161, 184, 288
-0.945221, 145, 161, 208, 288
-0.945775, 225, 145, 352, 272
-0.946415, 1, 289, 256, 416
-0.946686, 49, 129, 176, 256
-0.948202, 161, 257, 288, 500
-0.948539, 225, 129, 288, 256
-0.94901, 193, 81, 256, 208
-0.950925, 241, 81, 304, 208
-0.951246, 129, 113, 256, 240
-0.951429, 249, 129, 312, 256
-0.952382, 1, 369, 375, 496
-0.952954, 17, 209, 144, 336
-0.953667, 113, 217, 176, 280
-0.953901, 97, 321, 224, 448
-0.954025, 1, 49, 375, 176
-0.955313, 33, 257, 160, 384
-0.956299, 145, 177, 272, 304
-0.957605, 225, 97, 352, 224
-0.958068, 113, 305, 176, 432
-0.958682, 265, 193, 328, 320
-0.959099, 273, 145, 336, 272
-0.959909, 73, 129, 136, 256
-0.960359, 193, 177, 256, 304
-0.961079, 225, 321, 352, 448
-0.962084, 241, 177, 304, 240
-0.962471, 33, 49, 288, 176
-0.963339, 1, 113, 256, 240
-0.963451, 217, 81, 280, 144
-0.963884, 97, 145, 160, 272
-0.964588, 1, 305, 128, 432
-0.964904, 193, 129, 256, 192
-0.965015, 313, 177, 375, 304
-0.965386, 89, 257, 152, 384
-0.965446, 17, 305, 80, 368
-0.965476, 233, 65, 296, 320
-0.965477, 25, 289, 88, 416
-0.966582, 241, 177, 304, 304
-0.968306, 1, 337, 256, 464
-0.968321, 177, 153, 240, 216
-0.968385, 217, 129, 280, 192
-0.968417, 113, 193, 176, 256
-0.968506, 201, 185, 264, 248
-0.968533, 217, 177, 280, 304
-0.969174, 265, 209, 328, 272
-0.970148, 113, 153, 176, 216
-0.970436, 121, 161, 184, 416
-0.970609, 281, 289, 344, 416
-0.97088, 177, 89, 304, 152
-0.970957, 161, 305, 288, 432
-0.971165, 97, 369, 352, 496
-0.97121, 225, 153, 288, 216
-0.971276, 97, 273, 224, 400
-0.971286, 209, 65, 272, 320
-0.971422, 121, 321, 184, 384
-0.971456, 281, 177, 344, 240
-0.972246, 97, 217, 224, 280
-0.972352, 185, 65, 248, 320
-0.972498, 169, 209, 232, 336
-0.972615, 1, 273, 64, 400
-0.972841, 241, 201, 304, 264
-0.972874, 161, 113, 224, 240
-0.972973, 241, 105, 304, 168
-0.973388, 209, 201, 336, 264
-0.973391, 257, 145, 320, 208
-0.973545, 193, 89, 256, 152
-0.973545, 145, 177, 208, 240
-0.973841, 145, 177, 272, 240
-0.974103, 81, 81, 208, 208
-0.974394, 49, 321, 176, 448
-0.974577, 201, 81, 232, 208
-0.974769, 229, 129, 260, 256
-0.975004, 281, 97, 344, 224
-0.975177, 225, 273, 352, 400
-0.975349, 89, 209, 152, 336
-0.975357, 217, 209, 280, 272
-0.975517, 1, 129, 128, 256
-0.975522, 221, 81, 252, 208
-0.975566, 25, 241, 88, 368
-0.975816, 209, 161, 336, 224
-0.975841, 145, 209, 208, 336
-0.976083, 17, 369, 144, 496
-0.976338, 89, 337, 152, 464
-0.97635, 89, 289, 152, 352
-0.976608, 153, 161, 184, 288
-0.976856, 249, 321, 312, 448
-0.976912, 201, 97, 232, 160
-0.97693, 33, 289, 160, 352
-0.977055, 217, 1, 280, 500
-0.977058, 121, 217, 152, 280
-0.97725, 305, 241, 368, 368
-0.977288, 265, 193, 328, 448
-0.977387, 233, 201, 264, 264
-0.977624, 265, 81, 296, 208
-0.977741, 201, 129, 232, 256
-0.977926, 241, 81, 304, 144
-0.978005, 145, 217, 208, 280
-0.97823, 217, 177, 248, 304
-0.978307, 281, 313, 344, 376
-0.978418, 265, 97, 328, 352
-0.978459, 177, 161, 208, 288
-0.978601, 253, 81, 284, 208
-0.97862, 145, 161, 208, 416
-0.978694, 185, 217, 248, 280
-0.978824, 165, 161, 196, 288
-0.979007, 213, 129, 244, 256
-0.979079, 161, 129, 224, 192
-0.979101, 177, 137, 304, 200
-0.979114, 105, 345, 168, 408
-0.9793, 125, 145, 156, 272
-0.979351, 293, 161, 324, 288
-0.979475, 121, 193, 152, 320
-0.979613, 197, 145, 228, 208
-0.979741, 221, 185, 252, 248
-0.979959, 17, 233, 144, 296
-0.980035, 81, 137, 144, 200
-0.980229, 225, 321, 288, 448
-0.980254, 73, 129, 136, 384
-0.980286, 169, 193, 232, 448
-0.980292, 81, 257, 144, 320
-0.980296, 129, 65, 256, 192
-0.980563, 129, 257, 192, 384
-0.980581, 189, 129, 220, 256
-0.980695, 277, 129, 308, 256
-0.980736, 97, 153, 224, 216
-0.980792, 49, 177, 176, 240
-0.980821, 193, 193, 256, 448
-0.980889, 29, 297, 60, 360
-0.980896, 9, 281, 72, 344
-0.98098, 257, 145, 288, 272
-0.980999, 305, 177, 368, 240
-0.981104, 17, 129, 80, 256
-0.981129, 49, 129, 112, 256
-0.981138, 293, 209, 324, 336
-0.98121, 233, 161, 296, 416
-0.981325, 305, 289, 368, 416
-0.981549, 281, 153, 344, 216
-0.98163, 81, 225, 144, 288
-0.981927, 313, 161, 375, 416
-0.981928, 233, 81, 264, 208
-0.981944, 293, 217, 324, 280
-0.981958, 89, 393, 152, 456
-0.982078, 89, 177, 152, 240
-0.982195, 97, 193, 224, 256
-0.982224, 305, 201, 368, 264
-0.982242, 217, 33, 280, 160
-0.982267, 313, 289, 375, 352
-0.9823, 177, 177, 240, 240
-0.982482, 113, 321, 240, 384
-0.982682, 285, 169, 316, 232
-0.982683, 177, 113, 304, 176
-0.982749, 29, 289, 60, 416
-0.982849, 193, 305, 256, 432
-0.982969, 265, 121, 328, 184
-0.983173, 129, 297, 192, 360
-0.983231, 241, 1, 304, 500
-0.983232, 265, 177, 296, 240
-0.983249, 217, 121, 248, 184
-0.983282, 141, 161, 172, 288
-0.983373, 269, 105, 300, 168
-0.983411, 17, 257, 144, 320
-0.983541, 1, 321, 64, 448
-0.983562, 57, 129, 120, 192
-0.983835, 225, 81, 256, 144
-0.98393, 273, 289, 336, 352
-0.983938, 269, 153, 300, 216
-0.984094, 305, 225, 368, 288
-0.984125, 105, 129, 136, 256
-0.984136, 209, 33, 336, 160
-0.984163, 129, 305, 160, 432
-0.984311, 241, 321, 304, 384
-0.984316, 213, 81, 244, 144
-0.984392, 1, 1, 375, 128
-0.984442, 33, 209, 160, 272
-0.984454, 273, 241, 336, 368
-0.984474, 109, 209, 140, 336
-0.984672, 121, 249, 184, 312
-0.984765, 65, 169, 128, 232
-0.984799, 105, 65, 168, 320
-0.984811, 113, 97, 176, 224
-0.984824, 229, 177, 260, 304
-0.985025, 25, 241, 56, 368
-0.985162, 241, 145, 272, 272
-0.985184, 253, 81, 284, 144
-0.985186, 149, 185, 180, 248
-0.985238, 145, 217, 272, 280
-0.985304, 253, 137, 284, 200
-0.985343, 201, 153, 264, 216
-0.985398, 153, 153, 216, 216
-0.985411, 97, 241, 224, 304
-0.985416, 113, 337, 144, 464
-0.985452, 281, 337, 344, 464
-0.985478, 97, 161, 160, 416
-0.985501, 169, 105, 232, 168
-0.985572, 97, 129, 224, 192
-0.985574, 185, 137, 216, 200
-0.985609, 49, 153, 176, 216
-0.985654, 289, 225, 352, 480
-0.985663, 105, 257, 168, 500
-0.9857, 17, 313, 144, 376
-0.985715, 41, 305, 72, 368
-0.98573, 273, 177, 304, 304
-0.985774, 169, 305, 232, 432
-0.985838, 193, 1, 256, 500
-0.985962, 17, 129, 144, 192
-0.985971, 65, 369, 128, 432
-0.985996, 225, 321, 352, 384
-0.986012, 1, 225, 64, 352
-0.986014, 313, 161, 344, 288
-0.986111, 145, 257, 272, 384
-0.986113, 37, 241, 68, 368
-0.986172, 113, 345, 144, 408
-0.986222, 313, 353, 375, 480
-0.986357, 137, 321, 200, 448
-0.986379, 305, 249, 368, 312
-0.986521, 133, 321, 164, 384
-0.986525, 121, 193, 152, 256
-0.986525, 33, 129, 96, 192
-0.986548, 65, 305, 128, 432
-0.986552, 145, 65, 208, 320
-0.986644, 129, 273, 192, 336
-0.986681, 133, 209, 164, 336
-0.98669, 1, 257, 64, 320
-0.986823, 209, 153, 240, 216
-0.986826, 33, 193, 96, 320
-0.986849, 217, 321, 280, 384
-0.986878, 117, 273, 148, 400
-0.986916, 49, 129, 112, 384
-0.986949, 209, 177, 240, 240
-0.987207, 281, 89, 344, 152
-0.987294, 33, 281, 96, 344
-0.987329, 293, 193, 324, 256
-0.987417, 269, 129, 300, 192
-0.987465, 17, 225, 80, 480
-0.987516, 209, 369, 336, 496
-0.987541, 113, 281, 240, 344
-0.987567, 241, 81, 272, 144
-0.987655, 141, 217, 172, 280
-0.987706, 97, 217, 352, 280
-0.98774, 97, 345, 224, 408
-0.987839, 157, 217, 188, 280
-0.988087, 17, 289, 48, 416
-0.988116, 229, 137, 260, 200
-0.988135, 305, 313, 368, 376
-0.988172, 9, 273, 40, 336
-0.988192, 105, 177, 136, 240
-0.98821, 193, 321, 256, 384
-0.988241, 177, 321, 304, 384
-0.988298, 237, 177, 268, 240
-0.988334, 117, 289, 148, 352
-0.988419, 305, 129, 368, 256
-0.988472, 17, 297, 48, 360
-0.988512, 277, 193, 308, 256
-0.988572, 109, 385, 140, 448
-0.988599, 17, 329, 80, 392
-0.988609, 249, 177, 280, 240
-0.988624, 133, 193, 164, 256
-0.988675, 201, 121, 232, 184
-0.988689, 129, 369, 256, 496
-0.988725, 313, 313, 344, 376
-0.988738, 273, 233, 336, 296
-0.988751, 241, 105, 368, 168
-0.988783, 9, 97, 72, 352
-0.98889, 169, 217, 200, 280
-0.988891, 65, 369, 192, 496
-0.988937, 285, 145, 316, 208
-0.988988, 41, 305, 104, 368
-0.989049, 245, 209, 276, 272
-0.989098, 153, 209, 184, 336
-0.989112, 65, 177, 128, 304
-0.989136, 225, 137, 352, 200
-0.989137, 17, 361, 144, 424
-0.989141, 205, 209, 236, 336
-0.989153, 65, 313, 192, 376
-0.989158, 273, 1, 336, 500
-0.989202, 189, 177, 220, 304
-0.989213, 197, 217, 228, 280
-0.989338, 289, 193, 352, 320
-0.989407, 41, 289, 72, 416
-0.989444, 225, 225, 352, 288
-0.989462, 181, 217, 212, 280
-0.9895, 113, 221, 176, 252
-0.989659, 313, 257, 344, 384
-0.989671, 109, 265, 140, 328
-0.989692, 209, 217, 240, 280
-0.989703, 165, 209, 196, 336
-0.989711, 313, 305, 344, 432
-0.989769, 217, 105, 280, 168
-0.989793, 217, 89, 280, 120
-0.989799, 193, 129, 256, 160
-0.989818, 249, 205, 312, 236
-0.989877, 273, 49, 336, 176
-0.98994, 177, 209, 208, 336
-0.989989, 113, 105, 240, 168
-0.990023, 225, 297, 352, 360
-0.99012, 97, 313, 160, 376
-0.99015, 1, 81, 128, 208
-0.99016, 89, 129, 120, 256
-0.99018, 101, 233, 132, 296
-0.990193, 73, 225, 136, 480
-0.990231, 65, 329, 128, 392
-0.990274, 25, 257, 88, 320
-0.990297, 241, 273, 304, 400
-0.990352, 105, 369, 168, 432
-0.990359, 297, 321, 328, 448
-0.990372, 137, 113, 200, 240
-0.990427, 93, 137, 124, 200
-0.990461, 305, 65, 368, 320
-0.990496, 221, 217, 252, 280
-0.990503, 121, 313, 152, 376
-0.990506, 17, 337, 144, 400
-0.990513, 273, 257, 336, 320
-0.990609, 169, 321, 232, 384
-0.990682, 273, 217, 336, 248
-0.990685, 313, 345, 375, 408
-0.99069, 209, 205, 272, 236
-0.990727, 21, 257, 52, 320
-0.990745, 321, 353, 352, 480
-0.990795, 289, 113, 320, 240
-0.990796, 201, 141, 264, 172
-0.990854, 161, 1, 224, 500
-0.990915, 273, 1, 336, 256
-0.99093, 17, 305, 80, 336
-0.99101, 313, 369, 375, 432
-0.99102, 233, 189, 296, 220
-0.991039, 177, 157, 240, 188
-0.991094, 113, 433, 176, 496
-0.991107, 33, 393, 160, 456
-0.991107, 261, 321, 292, 448
-0.991131, 129, 329, 192, 360
-0.991135, 153, 65, 216, 192
-0.991146, 177, 169, 240, 200
-0.991207, 5, 257, 36, 384
-0.991234, 241, 65, 368, 128
-0.991263, 69, 129, 100, 256
-0.991339, 1, 293, 64, 324
-0.991342, 333, 369, 364, 496
-0.991389, 81, 1, 144, 500
-0.991401, 201, 157, 264, 188
-0.991434, 53, 305, 84, 368
-0.991449, 217, 57, 280, 120
-0.991466, 281, 329, 344, 360
-0.991509, 33, 177, 288, 240
-0.991545, 209, 225, 272, 352
-0.991553, 249, 217, 312, 248
-0.991556, 145, 221, 208, 252
-0.991568, 217, 217, 280, 248
-0.991578, 241, 137, 304, 168
-0.991609, 121, 209, 184, 240
-0.991612, 97, 317, 160, 348
-0.991624, 273, 189, 336, 220
-0.991655, 249, 153, 312, 184
-0.99166, 225, 177, 288, 208
-0.991707, 193, 117, 256, 148
-0.991731, 177, 221, 240, 252
-0.991762, 1, 129, 64, 192
-0.991763, 25, 293, 88, 324
-0.991788, 281, 201, 344, 232
-0.991798, 241, 121, 304, 152
-0.991799, 17, 321, 80, 352
-0.991815, 73, 173, 136, 204
-0.991849, 129, 1, 192, 500
-0.991864, 81, 269, 144, 300
-0.991867, 113, 165, 176, 196
-0.991876, 161, 145, 224, 176
-0.99188, 73, 237, 136, 268
-0.991901, 89, 301, 152, 332
-0.991903, 121, 285, 184, 316
-0.991914, 113, 253, 176, 284
-0.991949, 193, 105, 256, 136
-0.991952, 297, 289, 328, 352
-0.991957, 161, 177, 192, 240
-0.991985, 277, 321, 308, 448
-0.991995, 241, 137, 272, 200
-0.991999, 273, 173, 336, 204
-0.992022, 313, 1, 375, 500
-0.992035, 129, 313, 192, 344
-0.992057, 65, 113, 320, 176
-0.992079, 241, 93, 304, 124
-0.992115, 89, 281, 152, 312
-0.992135, 241, 105, 304, 136
-0.992138, 81, 249, 144, 280
-0.992184, 273, 313, 336, 344
-0.992209, 229, 33, 260, 160
-0.992221, 241, 165, 304, 196
-0.99223, 217, 129, 280, 160
-0.992239, 97, 321, 352, 384
-0.992258, 97, 281, 352, 344
-0.992261, 313, 213, 375, 244
-0.992269, 241, 321, 272, 448
-0.992273, 217, 273, 280, 400
-0.992275, 305, 229, 368, 260
-0.992276, 313, 257, 375, 500
-0.9923, 81, 33, 144, 288
-0.992302, 313, 313, 375, 344
-0.99231, 313, 201, 344, 264
-0.992322, 169, 153, 200, 216
-0.992331, 1, 217, 375, 280
-0.992333, 1, 281, 64, 312
-0.992355, 145, 321, 208, 384
-0.992356, 129, 297, 192, 328
-0.99237, 193, 189, 256, 220
-0.992374, 113, 233, 176, 264
-0.992383, 281, 113, 344, 144
-0.992402, 89, 153, 152, 184
-0.992403, 121, 265, 184, 296
-0.992421, 305, 241, 368, 272
-0.992425, 121, 369, 184, 496
-0.992458, 273, 101, 336, 132
-0.992458, 117, 225, 148, 256
-0.992472, 145, 209, 208, 240
-0.992511, 73, 141, 136, 172
-0.992516, 193, 89, 256, 120
-0.992526, 321, 377, 352, 440
-0.992528, 109, 137, 140, 200
-0.992534, 105, 369, 168, 400
-0.992552, 233, 205, 264, 236
-0.992555, 281, 125, 344, 156
-0.992577, 305, 297, 368, 328
-0.992591, 273, 229, 336, 260
-0.992598, 241, 249, 368, 312
-0.992609, 305, 253, 368, 284
-0.992611, 169, 117, 232, 148
-0.992622, 305, 265, 368, 296
-0.992623, 153, 177, 216, 208
-0.992625, 233, 329, 296, 360
-0.99263, 89, 397, 152, 428
-0.992635, 225, 149, 288, 180
-0.99264, 113, 345, 176, 376
-0.992646, 29, 297, 60, 328
-0.992678, 97, 205, 160, 236
-0.99269, 305, 285, 368, 316
-0.992696, 101, 353, 132, 480
-0.992698, 297, 177, 360, 208
-0.992732, 281, 145, 344, 176
-0.992733, 313, 325, 375, 356
-0.992736, 153, 165, 216, 196
-0.992746, 293, 217, 324, 248
-0.992767, 89, 225, 152, 256
-0.99277, 273, 89, 336, 120
-0.992777, 57, 81, 120, 208
-0.992798, 225, 77, 288, 108
-0.992805, 25, 333, 88, 364
-0.99281, 105, 357, 168, 388
-0.992818, 121, 153, 152, 216
-0.992823, 121, 185, 184, 216
-0.992837, 273, 161, 336, 192
-0.992842, 57, 129, 88, 256
-0.99285, 197, 153, 228, 184
-0.992854, 57, 1, 120, 500
-0.992857, 201, 117, 232, 148
-0.992859, 169, 133, 232, 164
-0.992903, 225, 85, 256, 116
-0.992908, 253, 89, 284, 120
-0.992909, 273, 241, 336, 272
-0.992917, 81, 201, 144, 264
-0.992926, 73, 385, 136, 416
-0.992944, 33, 153, 288, 216
-0.992945, 265, 65, 328, 128
-0.992947, 213, 89, 244, 120
-0.992949, 137, 329, 168, 360
-0.992964, 273, 253, 336, 284
-0.99297, 257, 333, 320, 364
-0.992977, 169, 209, 232, 240
-0.99301, 201, 169, 264, 200
-0.993011, 313, 369, 375, 400
-0.993012, 249, 177, 312, 208
-0.993017, 41, 313, 104, 344
-0.993032, 129, 213, 160, 244
-0.993034, 129, 177, 375, 240
-0.993037, 9, 285, 40, 316
-0.993038, 177, 65, 304, 128
-0.993047, 245, 213, 276, 244
-0.993047, 1, 333, 64, 364
-0.993057, 201, 165, 232, 196
-0.99306, 81, 129, 112, 192
-0.993063, 269, 141, 300, 172
-0.993071, 269, 161, 300, 192
-0.993071, 201, 129, 232, 160
-0.993074, 113, 129, 176, 192
-0.993077, 269, 201, 300, 232
-0.993077, 217, 129, 248, 160
-0.993092, 1, 137, 64, 168
-0.993097, 109, 397, 140, 428
-0.993099, 273, 265, 336, 296
-0.993106, 121, 317, 152, 348
-0.993119, 205, 105, 236, 136
-0.99312, 309, 321, 340, 352
-0.993121, 129, 137, 375, 200
-0.993125, 105, 381, 168, 412
-0.993133, 49, 137, 112, 168
-0.99314, 73, 337, 136, 368
-0.993141, 153, 153, 184, 216
-0.993144, 185, 153, 216, 184
-0.993144, 41, 217, 104, 280
-0.993145, 193, 325, 256, 356
-0.993148, 221, 205, 252, 236
-0.993148, 273, 293, 336, 324
-0.993159, 105, 433, 168, 464
-0.993164, 209, 153, 240, 184
-0.993164, 113, 401, 240, 464
-0.993173, 209, 141, 240, 172
-0.993174, 153, 221, 184, 252
-0.993175, 141, 221, 172, 252
-0.993177, 265, 101, 296, 132
-0.993177, 113, 293, 144, 324
-0.993179, 145, 209, 176, 240
-0.993183, 253, 153, 284, 184
-0.993185, 273, 281, 336, 312
-0.993188, 105, 261, 136, 292
-0.993192, 165, 221, 196, 252
-0.993193, 241, 369, 368, 432
-0.993194, 41, 309, 72, 340
-0.993212, 197, 221, 228, 252
-0.993217, 261, 181, 292, 212
-0.993219, 181, 221, 212, 252
-0.993222, 233, 221, 264, 252
-0.993222, 241, 85, 272, 116
-0.993227, 281, 173, 312, 204
-0.993228, 101, 245, 132, 276
-0.993231, 281, 209, 312, 240
-0.993236, 269, 129, 300, 160
-0.993239, 209, 221, 240, 252
-0.993244, 109, 277, 140, 308
-0.993244, 221, 221, 252, 252
-0.993245, 53, 313, 84, 344
-0.993253, 233, 137, 264, 168
-0.993259, 117, 213, 148, 244
-0.993264, 197, 141, 228, 172
-0.993265, 313, 381, 375, 412
-0.993267, 29, 309, 60, 340
-0.993268, 269, 113, 300, 144
-0.993274, 117, 305, 148, 336
-0.993278, 285, 185, 316, 216
-0.993286, 125, 337, 156, 368
-0.993292, 101, 229, 132, 260
-0.993296, 169, 85, 232, 116
-0.993301, 169, 105, 232, 136
-0.993301, 97, 369, 224, 432
-0.993311, 105, 329, 168, 360
-0.993315, 73, 213, 136, 244
-0.99332, 217, 189, 248, 220
-0.993325, 153, 325, 216, 356
-0.993346, 37, 321, 68, 352
-0.993351, 253, 201, 284, 232
-0.993353, 253, 141, 284, 172
-0.993363, 137, 309, 168, 340
-0.993369, 313, 225, 344, 256
-0.993372, 189, 165, 220, 196
-0.993373, 305, 201, 368, 232
-0.993378, 297, 317, 328, 348
-0.99338, 333, 389, 364, 420
-0.993382, 173, 165, 204, 196
-0.99339, 321, 393, 352, 424
-0.993391, 129, 273, 160, 304
-0.993391, 113, 345, 144, 376
-0.993395, 253, 165, 284, 196
-0.9934, 217, 117, 280, 148
-0.993402, 133, 289, 164, 320
-0.993403, 89, 409, 152, 440
-0.993407, 285, 157, 316, 188
-0.993408, 313, 189, 375, 220
-0.99341, 17, 309, 48, 340
-0.99341, 21, 321, 52, 352
-0.993414, 225, 165, 256, 196
-0.993414, 313, 345, 375, 376
-0.993416, 313, 213, 344, 244
-0.993419, 1, 269, 32, 300
-0.993421, 285, 121, 316, 152
-0.993423, 141, 153, 172, 216
-0.993426, 233, 185, 264, 216
-0.993427, 313, 237, 344, 268
-0.993428, 121, 241, 152, 272
-0.993431, 285, 121, 316, 184
-0.993434, 109, 373, 140, 404
-0.993436, 121, 197, 184, 228
-0.993437, 45, 193, 76, 320
-0.993439, 125, 257, 156, 288
-0.993445, 109, 157, 140, 188
-0.993445, 113, 445, 176, 476
-0.993446, 181, 133, 212, 164
-0.993447, 297, 329, 328, 360
-0.993447, 65, 373, 128, 404
-0.993451, 233, 149, 264, 180
-0.993452, 205, 177, 236, 208
-0.993452, 1, 233, 64, 296
-0.993457, 161, 165, 192, 196
-0.993457, 17, 269, 80, 300
-0.993458, 113, 357, 144, 388
-0.99346, 57, 33, 120, 288
-0.993462, 97, 173, 128, 204
-0.993464, 25, 137, 88, 168
-0.993466, 21, 277, 52, 308
-0.993473, 65, 265, 192, 328
-0.993473, 293, 321, 324, 384
-0.993476, 229, 121, 260, 152
-0.993484, 313, 357, 375, 388
-0.99349, 321, 381, 352, 412
-0.993491, 129, 201, 160, 232
-0.993491, 97, 185, 160, 216
-0.993495, 53, 301, 84, 332
-0.993497, 281, 329, 312, 360
-0.993497, 293, 201, 324, 232
-0.993503, 297, 229, 328, 260
-0.993508, 97, 389, 128, 420
-0.993511, 245, 129, 276, 160
-0.993512, 113, 145, 176, 176
-0.993514, 281, 221, 312, 252
-0.993514, 5, 297, 36, 328
-0.993514, 97, 257, 352, 320
-0.993515, 313, 249, 344, 280
-0.993518, 145, 189, 208, 220
-0.993523, 261, 329, 292, 360
-0.993523, 149, 161, 180, 192
-0.993524, 105, 141, 136, 172
-0.993527, 285, 145, 316, 176
-0.993533, 313, 225, 344, 288
-0.993542, 157, 177, 188, 208
-0.993544, 221, 141, 252, 172
-0.993551, 5, 329, 36, 360
-0.993553, 317, 309, 348, 340
-0.993557, 313, 261, 344, 292
-0.993557, 321, 369, 352, 400
-0.993559, 313, 297, 344, 328
-0.993559, 93, 377, 124, 408
-0.993562, 285, 101, 316, 132
-0.993567, 221, 153, 252, 184
-0.993567, 33, 237, 96, 268
-0.993569, 45, 289, 76, 320
-0.993576, 309, 177, 340, 208
-0.993577, 273, 185, 304, 216
-0.993577, 297, 245, 328, 276
-0.99358, 89, 421, 152, 452
-0.993582, 313, 333, 344, 364
-0.993584, 181, 121, 212, 152
-0.993589, 169, 209, 200, 240
-0.993593, 289, 133, 320, 164
-0.993595, 125, 433, 156, 464
-0.993596, 65, 369, 128, 496
-0.993596, 341, 373, 372, 404
-0.993624, 17, 321, 48, 384
-0.993649, 97, 221, 224, 252
-0.993655, 5, 313, 36, 376
-0.993696, 225, 305, 256, 432
-0.993721, 229, 113, 260, 176
-0.993725, 225, 273, 352, 336
-0.993778, 177, 93, 304, 124
-0.993812, 297, 169, 328, 232
-0.993834, 193, 33, 256, 160
-0.993851, 1, 1, 64, 500
-0.993887, 9, 369, 72, 496
-0.993891, 265, 321, 296, 384
-0.994017, 185, 113, 216, 176
-0.994028, 281, 321, 312, 384
-0.994033, 1, 169, 375, 232
-0.994068, 33, 1, 96, 500
-0.994079, 81, 81, 144, 208
-0.994119, 225, 409, 352, 472
-0.994149, 1, 297, 256, 360
-0.994165, 133, 297, 164, 360
-0.994173, 129, 385, 192, 448
-0.994247, 289, 337, 352, 400
-0.994252, 49, 433, 176, 496
-0.994254, 97, 177, 128, 304
-0.994319, 113, 65, 240, 128
-0.994384, 57, 289, 88, 416
-0.994393, 1, 113, 375, 176
-0.994475, 185, 257, 248, 384
-0.994478, 177, 105, 304, 136
-0.994483, 309, 169, 340, 232
-0.9945, 97, 89, 352, 152
-0.994504, 209, 213, 336, 244
-0.994551, 233, 297, 296, 360
-0.994557, 253, 321, 284, 384
-0.994592, 297, 257, 328, 384
-0.994596, 321, 353, 352, 416
-0.994614, 65, 129, 96, 192
-0.994653, 241, 33, 304, 160
-0.994665, 243, 201, 258, 264
-0.994673, 41, 129, 72, 256
-0.994678, 1, 217, 256, 280
-0.994703, 321, 401, 352, 464
-0.994708, 161, 73, 224, 136
-0.994726, 57, 281, 120, 344
-0.994746, 1, 321, 256, 384
-0.994849, 93, 369, 124, 432
-0.994861, 241, 193, 272, 320
-0.994871, 123, 209, 138, 272
-0.994873, 109, 209, 140, 272
-0.994884, 313, 209, 344, 336
-0.99491, 177, 305, 208, 432
-0.994923, 105, 1, 168, 500
-0.99495, 241, 33, 272, 160
-0.994964, 177, 297, 304, 360
-0.99498, 1, 321, 375, 384
-0.994986, 49, 193, 112, 256
-0.995007, 33, 301, 160, 332
-0.995009, 173, 193, 204, 256
-0.995042, 281, 217, 312, 280
-0.99505, 229, 193, 244, 256
-0.99506, 235, 201, 250, 264
-0.995173, 209, 201, 336, 232
-0.995199, 201, 305, 232, 432
-0.995217, 177, 81, 208, 208
-0.99522, 321, 433, 352, 496
-0.995231, 41, 281, 72, 344
-0.995267, 241, 321, 272, 384
-0.995273, 289, 113, 352, 176
-0.995318, 341, 305, 372, 432
-0.995325, 333, 377, 364, 440
-0.995331, 209, 173, 336, 204
-0.995334, 129, 177, 256, 208
-0.995346, 1, 297, 375, 360
-0.995354, 257, 201, 288, 264
-0.995371, 277, 81, 308, 208
-0.995411, 17, 233, 144, 264
-0.995445, 285, 89, 316, 152
-0.995447, 1, 169, 128, 232
-0.995451, 137, 257, 168, 384
-0.995457, 245, 113, 276, 176
-0.995464, 313, 249, 344, 312
-0.995476, 1, 257, 256, 320
-0.995481, 33, 81, 96, 208
-0.995484, 209, 189, 336, 220
-0.995518, 185, 193, 216, 256
-0.995519, 205, 105, 220, 168
-0.995542, 129, 49, 375, 176
-0.995544, 1, 257, 375, 320
-0.995579, 313, 393, 375, 456
-0.995596, 213, 305, 244, 432
-0.995606, 345, 369, 375, 496
-0.995609, 257, 33, 288, 160
-0.995609, 121, 185, 136, 248
-0.995624, 113, 425, 240, 488
-0.995636, 177, 121, 304, 152
-0.995667, 321, 177, 352, 240
-0.995676, 281, 361, 344, 424
-0.995706, 261, 65, 292, 320
-0.995713, 223, 177, 238, 240
-0.995714, 249, 201, 264, 264
-0.995741, 309, 217, 324, 280
-0.995782, 225, 345, 352, 408
-0.995785, 201, 145, 216, 208
-0.995785, 313, 289, 344, 352
-0.995813, 1, 145, 375, 208
-0.995818, 89, 417, 152, 480
-0.995829, 105, 257, 136, 384
-0.995854, 209, 321, 240, 384
-0.995856, 177, 157, 304, 188
-0.995873, 137, 129, 200, 192
-0.995885, 189, 305, 220, 432
-0.995943, 33, 289, 48, 352
-0.995973, 225, 161, 256, 224
-0.995977, 215, 89, 230, 152
-0.99599, 237, 177, 252, 240
-0.995994, 265, 81, 296, 144
-0.996013, 49, 317, 176, 348
-0.996019, 177, 137, 304, 168
-0.996025, 189, 169, 220, 232
-0.996026, 151, 185, 166, 248
-0.996028, 41, 225, 104, 480
-0.996037, 291, 177, 306, 240
-0.996055, 221, 321, 252, 384
-0.996059, 197, 193, 228, 256
-0.996065, 229, 81, 244, 144
-0.996073, 97, 165, 224, 196
-0.996115, 283, 193, 298, 256
-0.99612, 33, 289, 160, 320
-0.996134, 129, 189, 256, 220
-0.996141, 281, 105, 296, 168
-0.996155, 201, 65, 232, 320
-0.996173, 33, 245, 160, 276
-0.996189, 131, 297, 146, 360
-0.99621, 113, 325, 240, 356
-0.996241, 125, 425, 156, 488
-0.996254, 333, 345, 364, 408
-0.996267, 145, 205, 272, 236
-0.996273, 223, 81, 238, 144
-0.996299, 141, 321, 172, 448
-0.996308, 113, 353, 128, 416
-0.996311, 1, 417, 128, 480
-0.996332, 27, 297, 42, 360
-0.996348, 217, 65, 248, 320
-0.996361, 253, 193, 284, 320
-0.996366, 39, 289, 54, 352
-0.99637, 137, 313, 152, 376
-0.996379, 65, 361, 320, 424
-0.996408, 29, 129, 60, 256
-0.996412, 115, 217, 130, 280
-0.996422, 117, 193, 148, 448
-0.99644, 17, 265, 144, 296
-0.996444, 285, 145, 300, 208
-0.996452, 161, 113, 192, 240
-0.996455, 233, 65, 264, 320
-0.99647, 165, 305, 196, 432
-0.996486, 145, 321, 176, 384
-0.996496, 249, 65, 280, 320
-0.996497, 257, 81, 272, 144
-0.996502, 297, 241, 328, 304
-0.996508, 129, 257, 160, 320
-0.996508, 53, 281, 84, 344
-0.996519, 241, 57, 272, 120
-0.996571, 221, 121, 236, 184
-0.996579, 113, 309, 240, 340
-0.996588, 269, 89, 284, 152
-0.99661, 53, 129, 84, 192
-0.99662, 145, 221, 272, 252
-0.996638, 147, 209, 162, 272
-0.99665, 201, 297, 264, 360
-0.996676, 97, 209, 128, 272
-0.996683, 213, 145, 228, 208
-0.996685, 301, 113, 332, 240
-0.996688, 329, 305, 360, 432
-0.996695, 277, 169, 292, 232
-0.996713, 49, 177, 176, 208
-0.996715, 243, 81, 258, 144
-0.996737, 241, 257, 304, 500
-0.996748, 161, 217, 176, 280
-0.996764, 213, 33, 244, 160
-0.996774, 137, 193, 168, 448
-0.996781, 155, 217, 170, 280
-0.99679, 57, 305, 72, 368
-0.996798, 97, 133, 224, 164
-0.996812, 265, 137, 280, 200
-0.996813, 189, 321, 220, 384
-0.996816, 291, 209, 306, 272
-0.996818, 1, 89, 375, 152
-0.996819, 275, 97, 290, 160
-0.996819, 243, 137, 258, 200
-0.996827, 241, 433, 368, 496
-0.996848, 169, 217, 184, 280
-0.996878, 17, 105, 144, 168
-0.996881, 149, 113, 180, 240
-0.996883, 1, 193, 375, 256
-0.996886, 17, 221, 144, 252
-0.996888, 333, 401, 364, 464
-0.996891, 45, 297, 60, 360
-0.996904, 97, 281, 224, 312
-0.996908, 241, 57, 304, 120
-0.996925, 153, 297, 216, 360
-0.996925, 285, 169, 300, 232
-0.996936, 97, 261, 224, 292
-0.996955, 175, 217, 190, 280
-0.996968, 297, 433, 360, 496
-0.996969, 243, 177, 258, 240
-0.996969, 33, 33, 96, 288
-0.996975, 195, 129, 210, 192
-0.996986, 157, 177, 172, 240
-0.996998, 235, 81, 250, 144
-0.997, 181, 217, 196, 280
-0.997002, 153, 321, 184, 448
-0.99701, 121, 249, 136, 312
-0.997021, 345, 257, 375, 384
-0.997034, 33, 277, 160, 308
-0.997048, 225, 217, 240, 280
-0.997057, 65, 105, 128, 168
-0.997058, 209, 217, 224, 280
-0.997067, 187, 217, 202, 280
-0.997075, 219, 217, 234, 280
-0.997077, 21, 305, 36, 368
-0.997082, 203, 217, 218, 280
-0.997087, 309, 193, 324, 256
-0.997099, 297, 177, 312, 240
-0.997099, 115, 177, 130, 240
-0.9971, 195, 217, 210, 280
-0.997103, 141, 209, 156, 272
-0.997125, 345, 289, 375, 352
-0.997139, 85, 81, 116, 208
-0.99714, 97, 249, 224, 280
-0.997151, 333, 425, 364, 488
-0.997154, 51, 305, 66, 368
-0.997164, 121, 225, 136, 256
-0.997178, 105, 161, 136, 416
-0.997181, 1, 137, 128, 168
-0.997184, 229, 57, 260, 120
-0.997191, 65, 385, 320, 448
-0.997193, 251, 81, 266, 144
-0.997196, 217, 57, 248, 120
-0.9972, 273, 145, 288, 208
-0.997212, 251, 177, 266, 240
-0.997216, 249, 121, 264, 184
-0.997216, 49, 189, 176, 220
-0.997232, 129, 257, 192, 500
-0.997249, 121, 401, 152, 464
-0.99725, 145, 369, 272, 432
-0.997252, 185, 129, 216, 384
-0.997261, 97, 209, 224, 240
-0.997271, 263, 81, 278, 144
-0.997274, 17, 377, 80, 440
-0.997289, 17, 201, 80, 264
-0.997296, 303, 185, 318, 248
-0.997306, 125, 273, 140, 336
-0.997314, 129, 217, 144, 280
-0.997314, 1, 353, 64, 416
-0.997315, 225, 329, 352, 360
-0.997316, 273, 65, 304, 320
-0.997324, 33, 209, 160, 240
-0.997339, 163, 177, 178, 240
-0.997361, 207, 153, 222, 216
-0.997362, 329, 369, 344, 432
-0.997374, 293, 161, 324, 416
-0.997378, 333, 409, 348, 472
-0.99738, 97, 153, 224, 184
-0.997385, 149, 161, 180, 416
-0.997412, 253, 57, 284, 120
-0.997416, 245, 209, 260, 240
-0.997449, 1, 89, 256, 152
-0.997452, 111, 385, 126, 448
-0.997455, 315, 305, 330, 368
-0.99746, 257, 145, 272, 208
-0.997464, 227, 153, 242, 216
-0.997472, 21, 273, 36, 336
-0.99748, 197, 193, 228, 448
-0.99748, 119, 345, 134, 408
-0.997482, 289, 65, 320, 192
-0.997482, 189, 81, 220, 208
-0.997487, 17, 341, 144, 372
-0.997493, 303, 209, 318, 272
-0.997496, 113, 293, 240, 324
-0.997502, 159, 153, 174, 216
-0.997508, 161, 129, 192, 384
-0.997519, 129, 97, 160, 352
-0.997533, 217, 177, 232, 240
-0.997551, 45, 209, 76, 272
-0.997554, 317, 201, 332, 264
-0.99758, 237, 129, 252, 192
-0.997588, 255, 201, 270, 264
-0.997594, 143, 321, 158, 384
-0.997596, 161, 433, 288, 496
-0.997627, 217, 257, 280, 500
-0.997628, 291, 129, 306, 192
-0.997629, 313, 81, 375, 208
-0.997634, 113, 337, 240, 368
-0.997634, 251, 213, 266, 244
-0.997647, 65, 1, 320, 128
-0.997648, 177, 321, 208, 384
-0.997654, 265, 177, 280, 240
-0.99766, 185, 57, 248, 120
-0.997666, 237, 205, 252, 236
-0.997669, 173, 161, 204, 416
-0.997672, 123, 385, 138, 448
-0.997672, 225, 225, 352, 256
-0.997679, 209, 161, 240, 416
-0.99769, 269, 161, 300, 416
-0.997691, 99, 137, 114, 200
-0.997699, 13, 337, 44, 464
-0.997703, 107, 137, 122, 200
-0.997708, 35, 257, 50, 320
-0.997708, 137, 433, 168, 496
-0.997709, 327, 321, 342, 384
-0.997718, 333, 337, 348, 400
-0.997755, 161, 329, 288, 360
-0.997761, 333, 433, 348, 496
-0.997766, 97, 233, 224, 264
-0.997779, 241, 161, 368, 192
-0.99778, 339, 401, 354, 464
-0.997798, 201, 153, 216, 184
-0.997799, 53, 185, 84, 248
-0.9978, 173, 153, 188, 216
-0.9978, 297, 209, 312, 272
-0.997803, 65, 289, 80, 352
-0.997804, 69, 169, 100, 232
-0.997814, 91, 129, 106, 192
-0.997815, 231, 121, 246, 184
-0.997834, 225, 317, 352, 348
-0.997836, 165, 153, 180, 216
-0.997839, 129, 409, 192, 472
-0.99785, 281, 193, 312, 448
-0.99786, 127, 153, 142, 216
-0.997861, 221, 161, 252, 416
-0.99787, 131, 393, 146, 456
-0.997891, 33, 389, 160, 420
-0.997907, 169, 177, 184, 240
-0.997909, 183, 153, 198, 216
-0.997913, 277, 193, 292, 256
-0.997914, 9, 177, 72, 240
-0.997915, 53, 337, 84, 464
-0.997932, 115, 241, 130, 304
-0.997941, 307, 321, 322, 384
-0.997941, 309, 221, 324, 252
-0.997948, 81, 129, 96, 192
-0.997953, 29, 321, 60, 384
-0.997957, 29, 233, 60, 296
-0.997962, 129, 193, 144, 256
-0.997963, 153, 153, 168, 216
-0.997964, 177, 297, 240, 360
-0.997972, 271, 169, 286, 232
-0.997973, 33, 329, 160, 360
-0.997979, 129, 417, 375, 480
-0.997994, 35, 293, 50, 324
-0.998017, 161, 345, 288, 408
-0.998017, 221, 145, 236, 208
-0.998026, 137, 113, 168, 240
-0.998027, 119, 137, 134, 200
-0.998029, 113, 101, 240, 132
-0.998035, 97, 349, 224, 380
-0.998035, 313, 169, 328, 232
-0.998049, 325, 161, 356, 288
-0.998053, 127, 337, 142, 400
-0.998062, 211, 153, 226, 184
-0.998071, 107, 361, 122, 424
-0.998073, 145, 185, 160, 248
-0.998074, 279, 321, 294, 384
-0.998076, 177, 81, 304, 112
-0.998077, 317, 225, 332, 288
-0.998079, 309, 289, 324, 352
-0.998081, 25, 105, 88, 168
-0.998082, 205, 105, 220, 136
-0.998098, 17, 365, 144, 396
-0.998099, 271, 321, 286, 384
-0.9981, 113, 137, 128, 200
-0.998108, 285, 321, 300, 384
-0.998109, 207, 129, 222, 192
-0.998118, 113, 241, 144, 304
-0.998121, 1, 425, 256, 488
-0.998121, 201, 33, 232, 160
-0.998125, 277, 101, 292, 132
-0.998125, 13, 281, 28, 344
-0.998127, 257, 161, 288, 416
-0.998133, 141, 289, 156, 352
-0.998135, 9, 129, 40, 256
-0.998137, 215, 93, 230, 124
-0.998141, 141, 329, 156, 360
-0.998142, 241, 145, 368, 176
-0.998143, 1, 321, 32, 448
-0.998149, 285, 65, 316, 320
-0.998158, 225, 225, 256, 352
-0.998167, 191, 153, 206, 216
-0.998179, 241, 85, 368, 116
-0.998181, 269, 93, 284, 124
-0.998193, 33, 65, 288, 128
-0.998203, 221, 89, 236, 120
-0.998208, 227, 85, 242, 116
-0.998232, 21, 193, 52, 320
-0.998234, 281, 165, 296, 196
-0.998235, 1, 353, 375, 416
-0.998243, 145, 17, 272, 144
-0.998257, 17, 377, 144, 408
-0.998264, 285, 205, 300, 236
-0.99827, 313, 161, 344, 416
-0.998275, 1, 385, 375, 448
-0.998276, 297, 265, 328, 328
-0.998279, 231, 201, 246, 232
-0.998285, 181, 131, 212, 146
-0.998286, 233, 89, 264, 104
-0.998286, 221, 171, 252, 186
-0.998287, 233, 133, 264, 148
-0.998287, 221, 179, 252, 194
-0.998287, 129, 205, 160, 220
-0.998288, 213, 191, 244, 206
-0.998288, 181, 137, 212, 152
-0.998289, 229, 83, 260, 98
-0.998289, 245, 223, 276, 238
-0.998289, 321, 397, 352, 412
-0.99829, 301, 323, 332, 338
-0.998291, 269, 333, 300, 348
-0.998293, 249, 205, 280, 220
-0.998293, 285, 113, 316, 128
-0.998293, 41, 317, 72, 332
-0.998294, 25, 317, 56, 332
-0.998294, 21, 323, 52, 338
-0.998296, 313, 243, 344, 258
-0.998298, 33, 323, 64, 338
-0.998299, 313, 219, 344, 234
-0.998301, 269, 203, 300, 218
-0.998301, 125, 269, 156, 284
-0.998301, 241, 97, 368, 128
-0.998301, 85, 173, 116, 188
-0.998302, 285, 119, 316, 134
-0.998302, 233, 199, 264, 214
-0.998302, 253, 149, 284, 164
-0.998303, 241, 83, 272, 98
-0.998305, 269, 127, 300, 142
-0.998305, 277, 161, 308, 176
-0.998306, 137, 313, 168, 328
-0.998306, 13, 289, 44, 304
-0.998306, 133, 337, 164, 352
-0.998307, 269, 119, 300, 134
-0.998307, 217, 147, 248, 162
-0.998307, 133, 297, 164, 312
-0.998308, 257, 173, 288, 188
-0.998309, 201, 175, 232, 190
-0.998309, 121, 247, 152, 262
-0.99831, 233, 147, 264, 162
-0.99831, 125, 263, 156, 278
-0.998311, 321, 391, 352, 406
-0.998312, 217, 199, 248, 214
-0.998312, 129, 281, 160, 296
-0.998314, 269, 135, 300, 150
-0.998315, 229, 139, 260, 154
-0.998315, 313, 233, 344, 248
-0.998316, 281, 189, 312, 204
-0.998316, 117, 231, 148, 246
-0.998317, 277, 167, 308, 182
-0.998317, 261, 89, 276, 120
-0.998318, 129, 225, 160, 240
-0.998318, 293, 215, 324, 230
-0.99832, 233, 221, 264, 236
-0.998321, 261, 103, 292, 118
-0.998321, 313, 225, 344, 240
-0.998321, 41, 311, 72, 326
-0.998322, 281, 219, 312, 234
-0.998322, 9, 301, 40, 316
-0.998322, 197, 161, 228, 176
-0.998323, 253, 155, 284, 170
-0.998324, 145, 217, 176, 232
-0.998324, 217, 223, 248, 238
-0.998326, 225, 185, 256, 200
-0.998327, 113, 401, 144, 416
-0.998327, 333, 393, 364, 408
-0.998327, 233, 85, 248, 116
-0.998329, 105, 255, 136, 270
-0.998329, 105, 261, 136, 276
-0.99833, 109, 273, 140, 288
-0.998331, 225, 125, 240, 156
-0.998332, 45, 299, 76, 314
-0.998332, 117, 305, 148, 320
-0.998333, 205, 109, 236, 124
-0.998333, 193, 225, 224, 352
-0.998334, 265, 113, 296, 128
-0.998334, 53, 319, 84, 334
-0.998335, 29, 309, 60, 324
-0.998335, 221, 129, 252, 144
-0.998335, 135, 321, 150, 352
-0.998335, 113, 289, 144, 304
-0.998336, 269, 175, 300, 190
-0.998337, 101, 239, 132, 254
-0.998339, 129, 305, 144, 336
-0.99834, 225, 117, 352, 148
-0.998341, 201, 117, 232, 132
-0.998342, 205, 223, 236, 238
-0.998342, 269, 155, 300, 170
-0.998342, 273, 213, 304, 228
-0.998342, 57, 177, 88, 304
-0.998343, 265, 161, 296, 176
-0.998344, 269, 147, 300, 162
-0.998345, 161, 223, 192, 238
-0.998345, 125, 275, 156, 290
-0.998346, 181, 223, 212, 238
-0.998346, 313, 323, 344, 338
-0.998346, 117, 241, 148, 256
-0.998346, 121, 257, 152, 272
-0.998346, 129, 291, 160, 306
-0.998346, 133, 307, 164, 322
-0.998346, 209, 159, 240, 174
-0.998346, 213, 97, 244, 112
-0.998346, 137, 321, 168, 336
-0.998348, 193, 223, 224, 238
-0.998348, 117, 315, 148, 330
-0.99835, 101, 249, 132, 264
-0.998352, 257, 95, 288, 110
-0.998353, 113, 299, 144, 314
-0.998355, 209, 103, 240, 118
-0.998355, 109, 283, 140, 298
-0.998356, 125, 289, 140, 320
-0.998356, 217, 139, 248, 154
-0.998356, 105, 267, 136, 282
-0.998357, 65, 105, 192, 168
-0.998358, 141, 225, 172, 240
-0.99836, 197, 155, 228, 170
-0.998361, 97, 233, 128, 248
-0.998362, 249, 217, 280, 232
-0.998362, 41, 193, 72, 448
-0.998363, 121, 325, 152, 340
-0.998366, 201, 135, 232, 150
-0.998367, 265, 167, 296, 182
-0.998368, 269, 141, 300, 156
-0.998371, 119, 265, 134, 296
-0.998377, 201, 141, 232, 156
-0.998378, 17, 353, 144, 384
-0.998378, 41, 329, 104, 392
-0.998379, 209, 153, 240, 168
-0.998379, 117, 97, 148, 352
-0.998381, 261, 183, 292, 198
-0.998382, 201, 169, 232, 184
-0.998383, 313, 153, 375, 216
-0.998386, 229, 207, 260, 222
-0.998387, 281, 113, 296, 144
-0.99839, 33, 129, 64, 192
-0.998392, 281, 273, 312, 400
-0.998392, 201, 123, 232, 138
-0.998393, 345, 177, 375, 304
-0.998393, 309, 329, 340, 344
-0.998396, 141, 331, 172, 346
-0.998407, 201, 147, 232, 162
-0.99841, 201, 129, 232, 144
-0.998411, 49, 165, 176, 196
-0.998417, 125, 219, 156, 234
-0.998421, 53, 329, 84, 392
-0.998423, 237, 213, 268, 228
-0.99843, 245, 89, 276, 104
-0.998432, 253, 85, 268, 116
-0.998439, 57, 309, 72, 340
-0.998444, 73, 81, 104, 208
-0.998449, 29, 297, 60, 312
-0.998449, 147, 209, 162, 240
-0.99845, 291, 213, 306, 244
-0.998452, 155, 221, 170, 252
-0.998453, 1, 177, 64, 304
-0.998453, 275, 173, 290, 204
-0.998454, 29, 303, 60, 318
-0.998455, 147, 221, 162, 252
-0.998458, 221, 89, 252, 104
-0.998459, 217, 89, 280, 104
-0.998465, 313, 257, 344, 500
-0.998466, 203, 221, 218, 252
-0.998467, 257, 217, 272, 248
-0.99847, 161, 221, 176, 252
-0.998474, 181, 221, 196, 252
-0.998475, 117, 253, 132, 284
-0.998482, 171, 221, 186, 252
-0.998482, 113, 225, 176, 240
-0.998482, 217, 221, 232, 252
-0.998483, 209, 221, 224, 252
-0.998487, 97, 381, 224, 412
-0.99849, 225, 237, 352, 268
-0.99849, 197, 221, 212, 252
-0.99849, 223, 221, 238, 252
-0.998491, 293, 221, 324, 236
-0.998493, 113, 237, 128, 268
-0.998505, 1, 317, 128, 348
-0.998505, 129, 121, 256, 152
-0.998508, 189, 221, 204, 252
-0.998509, 249, 215, 312, 230
-0.998513, 327, 333, 342, 364
-0.998514, 119, 349, 134, 380
-0.998515, 123, 277, 138, 308
-0.998518, 193, 129, 256, 144
-0.998521, 225, 129, 352, 160
-0.998525, 117, 225, 148, 240
-0.998525, 81, 365, 208, 396
-0.99853, 173, 65, 204, 320
-0.998535, 229, 221, 244, 252
-0.998538, 239, 221, 254, 252
-0.998538, 97, 81, 128, 208
-0.998541, 33, 337, 96, 464
-0.998543, 65, 97, 96, 352
-0.998543, 193, 139, 256, 154
-0.998546, 29, 301, 44, 332
-0.998546, 301, 257, 332, 500
-0.998547, 241, 273, 272, 400
-0.998549, 241, 205, 304, 220
-0.99855, 249, 137, 264, 168
-0.998556, 303, 217, 318, 248
-0.99856, 239, 141, 254, 172
-0.998563, 33, 401, 160, 432
-0.998564, 45, 305, 60, 336
-0.998564, 261, 273, 292, 400
-0.998566, 113, 81, 240, 112
-0.998567, 273, 221, 336, 236
-0.998568, 219, 173, 234, 204
-0.998569, 245, 221, 260, 252
-0.99857, 213, 165, 228, 196
-0.998571, 193, 385, 320, 448
-0.998572, 237, 161, 268, 416
-0.998573, 41, 293, 56, 324
-0.998576, 1, 303, 64, 318
-0.998578, 233, 129, 248, 160
-0.998579, 233, 199, 296, 214
-0.998585, 193, 149, 256, 164
-0.998586, 205, 117, 220, 148
-0.998592, 239, 85, 254, 116
-0.998592, 317, 321, 332, 352
-0.998603, 225, 189, 240, 220
-0.998609, 177, 175, 240, 190
-0.998609, 209, 213, 272, 228
-0.99861, 225, 269, 352, 300
-0.998611, 141, 221, 156, 252
-0.998616, 17, 309, 80, 324
-0.998617, 1, 297, 64, 312
-0.99862, 121, 219, 184, 234
-0.998624, 217, 221, 280, 236
-0.998624, 113, 357, 128, 388
-0.998624, 93, 129, 124, 384
-0.998629, 3, 289, 18, 320
-0.99863, 225, 257, 352, 288
-0.99863, 219, 141, 234, 172
-0.99863, 193, 123, 256, 138
-0.998631, 217, 175, 280, 190
-0.998632, 25, 301, 88, 316
-0.998632, 129, 321, 192, 336
-0.998634, 33, 149, 160, 180
-0.998634, 115, 225, 130, 256
-0.998635, 233, 193, 296, 208
-0.998636, 177, 223, 240, 238
-0.998638, 201, 157, 264, 172
-0.99864, 97, 325, 160, 340
-0.99864, 145, 223, 208, 238
-0.998641, 129, 331, 192, 346
-0.998643, 73, 175, 136, 190
-0.998644, 249, 155, 312, 170
-0.998644, 281, 209, 344, 224
-0.998644, 225, 187, 288, 202
-0.998645, 115, 397, 130, 428
-0.998646, 177, 169, 240, 184
-0.998646, 273, 195, 336, 210
-0.998646, 249, 143, 312, 158
-0.998646, 105, 231, 168, 246
-0.998646, 217, 181, 280, 196
-0.998646, 81, 275, 144, 290
-0.998647, 281, 125, 296, 156
-0.998649, 297, 217, 312, 248
-0.998651, 121, 299, 184, 314
-0.998652, 233, 103, 296, 118
-0.998652, 73, 241, 136, 256
-0.998652, 149, 65, 180, 320
-0.998652, 89, 307, 152, 322
-0.998652, 237, 189, 252, 220
-0.998656, 121, 293, 184, 308
-0.998656, 121, 283, 184, 298
-0.998656, 113, 263, 176, 278
-0.998657, 113, 257, 176, 272
-0.998659, 113, 251, 176, 266
-0.998659, 11, 289, 26, 320
-0.998659, 81, 247, 144, 262
-0.99866, 313, 325, 375, 340
-0.99866, 249, 221, 312, 236
-0.998661, 97, 313, 160, 328
-0.998661, 177, 157, 240, 172
-0.998661, 241, 137, 304, 152
-0.998662, 17, 321, 80, 336
-0.998662, 281, 331, 344, 346
-0.998662, 81, 261, 144, 276
-0.998663, 305, 227, 368, 242
-0.998663, 73, 231, 136, 246
-0.998664, 129, 315, 192, 330
-0.998665, 201, 107, 264, 122
-0.998665, 241, 123, 304, 138
-0.998667, 249, 149, 312, 164
-0.998667, 209, 95, 272, 110
-0.998667, 89, 287, 152, 302
-0.998667, 121, 213, 136, 244
-0.998668, 113, 369, 128, 400
-0.998669, 17, 315, 80, 330
-0.998669, 81, 253, 144, 268
-0.998669, 89, 281, 152, 296
-0.998669, 89, 295, 152, 310
-0.998669, 233, 97, 296, 112
-0.998671, 81, 267, 144, 282
-0.998672, 273, 109, 336, 124
-0.998672, 281, 215, 344, 230
-0.998673, 273, 189, 336, 204
-0.998673, 89, 301, 152, 316
-0.998674, 313, 315, 375, 330
-0.998674, 113, 269, 176, 284
-0.998676, 305, 233, 368, 248
-0.998676, 113, 237, 176, 252
-0.998677, 193, 117, 256, 132
-0.998678, 265, 337, 328, 400
-0.998678, 217, 131, 280, 146
-0.998678, 209, 207, 272, 222
-0.998679, 121, 401, 136, 432
-0.998679, 113, 245, 176, 260
-0.998679, 201, 101, 264, 116
-0.998679, 97, 319, 160, 334
-0.99868, 25, 295, 88, 310
-0.99868, 217, 147, 280, 162
-0.998681, 281, 203, 344, 218
-0.998681, 131, 213, 146, 244
-0.998683, 313, 219, 375, 234
-0.998685, 113, 187, 176, 202
-0.998685, 129, 305, 192, 320
-0.998686, 241, 169, 304, 184
-0.998687, 217, 169, 280, 184
-0.998687, 233, 161, 296, 176
-0.998687, 17, 327, 80, 342
-0.998688, 305, 239, 368, 254
-0.998688, 273, 101, 336, 116
-0.998689, 121, 277, 184, 292
-0.998689, 241, 109, 304, 124
-0.998689, 251, 201, 266, 232
-0.998689, 273, 323, 336, 338
-0.99869, 241, 117, 304, 132
-0.998691, 127, 341, 142, 372
-0.998691, 281, 117, 344, 132
-0.998691, 305, 247, 368, 262
-0.998692, 249, 129, 312, 144
-0.998693, 273, 175, 336, 190
-0.998694, 145, 217, 208, 232
-0.998694, 273, 229, 336, 244
-0.998695, 177, 163, 240, 178
-0.998695, 247, 85, 262, 116
-0.998696, 281, 127, 344, 142
-0.998696, 169, 143, 232, 158
-0.998696, 279, 189, 294, 220
-0.998697, 193, 201, 256, 216
-0.998698, 193, 195, 256, 210
-0.998698, 201, 163, 264, 178
-0.998698, 203, 165, 218, 196
-0.998698, 169, 131, 232, 146
-0.998698, 305, 253, 368, 268
-0.998699, 161, 151, 224, 166
-0.998701, 109, 389, 124, 420
-0.998702, 281, 133, 344, 148
-0.998703, 217, 137, 280, 152
-0.998703, 113, 177, 176, 192
-0.998703, 305, 295, 368, 310
-0.998703, 129, 337, 192, 352
-0.998704, 249, 175, 312, 190
-0.998705, 249, 333, 312, 348
-0.998705, 305, 305, 368, 320
-0.998706, 97, 217, 160, 232
-0.998707, 287, 157, 302, 188
-0.998707, 265, 95, 328, 110
-0.998709, 305, 267, 368, 282
-0.998709, 9, 333, 72, 348
-0.998709, 305, 261, 368, 276
-0.99871, 305, 289, 368, 304
-0.998711, 241, 181, 304, 196
-0.998711, 305, 273, 368, 288
-0.998712, 185, 189, 248, 204
-0.998724, 141, 209, 156, 240
-0.998727, 203, 141, 218, 172
-0.998728, 153, 257, 216, 384
-0.998734, 287, 173, 302, 204
-0.99875, 279, 201, 294, 232
-0.998752, 333, 393, 348, 424
-0.998754, 133, 337, 148, 368
-0.998756, 275, 161, 290, 192
-0.99876, 225, 281, 352, 312
-0.998769, 123, 193, 138, 320
-0.99877, 257, 205, 272, 236
-0.998771, 1, 105, 64, 168
-0.998777, 163, 165, 178, 196
-0.998785, 335, 445, 350, 476
-0.998789, 21, 257, 52, 500
-0.99879, 141, 317, 156, 348
-0.998795, 219, 129, 234, 160
-0.998797, 339, 401, 354, 432
-0.998799, 269, 169, 284, 200
-0.998805, 289, 185, 304, 216
-0.998805, 283, 141, 298, 172
-0.998808, 333, 433, 348, 464
-0.99881, 33, 97, 64, 352
-0.998819, 267, 157, 282, 188
-0.998821, 211, 141, 226, 172
-0.998822, 317, 213, 332, 244
-0.998822, 323, 321, 338, 352
-0.998822, 189, 165, 204, 196
-0.998825, 195, 133, 210, 164
-0.998839, 331, 361, 346, 392
-0.998839, 311, 317, 326, 348
-0.998841, 225, 305, 352, 336
-0.998844, 255, 153, 270, 184
-0.998849, 223, 81, 238, 208
-0.998851, 47, 317, 62, 348
-0.998853, 329, 381, 344, 412
-0.998855, 333, 409, 348, 440
-0.998859, 213, 81, 228, 208
-0.998864, 177, 165, 192, 196
-0.998865, 195, 165, 210, 196
-0.998867, 309, 329, 324, 360
-0.998868, 159, 161, 174, 288
-0.998871, 225, 177, 240, 304
-0.998873, 183, 165, 198, 196
-0.998886, 295, 201, 310, 232
-0.998886, 115, 181, 130, 212
-0.998888, 23, 309, 38, 340
-0.99889, 169, 165, 184, 196
-0.998891, 291, 125, 306, 156
-0.998892, 203, 129, 218, 160
-0.998893, 339, 425, 354, 456
-0.998899, 219, 129, 234, 256
-0.998899, 221, 153, 236, 184
-0.9989, 229, 173, 244, 204
-0.998901, 249, 153, 264, 184
-0.998904, 53, 129, 84, 384
-0.998906, 317, 225, 332, 256
-0.998908, 147, 329, 162, 360
-0.998909, 165, 161, 180, 288
-0.99891, 97, 401, 224, 432
-0.998918, 153, 145, 168, 272
-0.998919, 225, 401, 352, 432
-0.998932, 131, 289, 146, 416
-0.998932, 241, 293, 368, 324
-0.998937, 279, 97, 294, 224
-0.998944, 297, 65, 328, 320
-0.998945, 93, 305, 124, 432
-0.998949, 173, 161, 188, 288
-0.99895, 191, 161, 206, 288
-0.998958, 129, 433, 256, 464
-0.998959, 235, 129, 250, 256
-0.998961, 121, 145, 136, 272
-0.998963, 123, 257, 138, 384
-0.998966, 77, 129, 108, 384
-0.998969, 181, 161, 196, 288
-0.998972, 295, 161, 310, 288
-0.998974, 197, 129, 212, 256
-0.998977, 287, 129, 302, 256
-0.99898, 185, 225, 216, 480
-0.998987, 265, 81, 280, 208
-0.99899, 345, 161, 375, 416
-0.998991, 247, 81, 262, 208
-0.998994, 225, 129, 240, 256
-0.998997, 161, 225, 192, 480
-0.999002, 177, 317, 304, 348
-0.999002, 189, 33, 220, 288
-0.999005, 271, 81, 286, 208
-0.999005, 313, 65, 344, 320
-0.999007, 207, 81, 222, 208
-0.99902, 1, 173, 128, 204
-0.999042, 1, 401, 64, 464
-0.999043, 231, 177, 246, 304
-0.999047, 301, 161, 316, 288
-0.999059, 259, 81, 274, 208
-0.99906, 117, 209, 132, 336
-0.999072, 129, 209, 144, 336
-0.999073, 209, 257, 240, 384
-0.999081, 233, 81, 248, 208
-0.999099, 161, 409, 288, 472
-0.9991, 253, 81, 268, 208
-0.999103, 309, 177, 324, 304
-0.999113, 147, 145, 162, 272
-0.999128, 243, 145, 258, 272
-0.999131, 161, 33, 192, 288
-0.999139, 241, 65, 256, 192
-0.999142, 213, 129, 228, 256
-0.999148, 35, 257, 50, 384
-0.999158, 105, 257, 136, 500
-0.999161, 129, 449, 256, 480
-0.999163, 113, 161, 128, 288
-0.999165, 141, 145, 156, 272
-0.99917, 117, 337, 132, 464
-0.999171, 113, 417, 240, 448
-0.999179, 49, 241, 80, 368
-0.999188, 203, 129, 218, 256
-0.9992, 49, 437, 176, 468
-0.999205, 129, 145, 144, 272
-0.999214, 257, 145, 272, 272
-0.999222, 225, 417, 352, 448
-0.999223, 1, 433, 375, 496
-0.999226, 149, 193, 164, 320
-0.99923, 329, 337, 344, 464
-0.999231, 289, 409, 352, 472
-0.999241, 289, 177, 304, 304
-0.999241, 117, 97, 148, 224
-0.999242, 219, 177, 234, 304
-0.999255, 225, 73, 352, 104
-0.999256, 217, 409, 280, 472
-0.999272, 279, 161, 294, 288
-0.999272, 273, 145, 288, 272
-0.999282, 241, 389, 368, 420
-0.999283, 105, 65, 136, 320
-0.999284, 21, 129, 52, 384
-0.999295, 225, 369, 352, 400
-0.999297, 137, 305, 152, 432
-0.999302, 29, 289, 44, 416
-0.999306, 249, 129, 264, 256
-0.999307, 341, 257, 372, 500
-0.999312, 41, 241, 56, 368
-0.999323, 265, 129, 280, 256
-0.999324, 123, 337, 138, 464
-0.999331, 325, 161, 356, 416
-0.999333, 33, 417, 160, 448
-0.999334, 317, 161, 332, 288
-0.999339, 135, 145, 150, 272
-0.999342, 23, 273, 38, 400
-0.999345, 209, 377, 272, 440
-0.999355, 225, 353, 352, 384
-0.999359, 211, 209, 226, 336
-0.999383, 173, 209, 188, 336
-0.999383, 309, 225, 324, 352
-0.999389, 165, 209, 180, 336
-0.999393, 155, 209, 170, 336
-0.999402, 179, 209, 194, 336
-0.999402, 205, 209, 220, 336
-0.999404, 29, 241, 44, 368
-0.999412, 199, 209, 214, 336
-0.999414, 191, 209, 206, 336
-0.999416, 185, 209, 200, 336
-0.99942, 49, 401, 112, 464
-0.999421, 57, 81, 88, 208
-0.999426, 137, 209, 152, 336
-0.999428, 1, 125, 128, 156
-0.999428, 237, 177, 252, 304
-0.999434, 201, 81, 216, 208
-0.999457, 209, 433, 336, 464
-0.999464, 99, 129, 114, 256
-0.99948, 105, 129, 120, 256
-0.999481, 75, 129, 90, 256
-0.999484, 279, 321, 294, 448
-0.99949, 93, 129, 108, 256
-0.999492, 303, 209, 318, 336
-0.999495, 137, 331, 152, 346
-0.999496, 283, 143, 298, 158
-0.999497, 289, 333, 304, 348
-0.999497, 119, 221, 134, 236
-0.999497, 131, 225, 146, 240
-0.999497, 279, 197, 294, 212
-0.999497, 335, 451, 350, 466
-0.999497, 47, 225, 62, 352
-0.999497, 149, 329, 164, 344
-0.999498, 247, 157, 262, 172
-0.999498, 229, 183, 244, 198
-0.999499, 291, 135, 306, 150
-0.999499, 249, 177, 264, 304
-0.9995, 277, 333, 292, 348
-0.999501, 201, 151, 216, 166
-0.999501, 213, 171, 228, 186
-0.999501, 203, 131, 218, 146
-0.999501, 41, 289, 56, 416
-0.999501, 203, 167, 218, 182
-0.999502, 261, 321, 276, 448
-0.999502, 119, 353, 134, 368
-0.999503, 125, 219, 140, 234
-0.999504, 343, 399, 358, 414
-0.999504, 317, 217, 332, 232
-0.999505, 65, 129, 80, 256
-0.999505, 205, 145, 220, 160
-0.999505, 309, 321, 324, 448
-0.999505, 139, 311, 154, 326
-0.999506, 111, 395, 126, 410
-0.999506, 237, 195, 252, 210
-0.999507, 229, 201, 244, 216
-0.999508, 141, 319, 156, 334
-0.999508, 143, 209, 158, 336
-0.999508, 317, 225, 332, 240
-0.999508, 329, 393, 344, 408
-0.999509, 139, 219, 154, 234
-0.999509, 131, 277, 146, 292
-0.999509, 127, 261, 142, 276
-0.999509, 135, 295, 150, 310
-0.99951, 123, 245, 138, 260
-0.99951, 295, 215, 310, 230
-0.99951, 195, 137, 210, 152
-0.99951, 285, 321, 300, 448
-0.99951, 133, 287, 148, 302
-0.99951, 137, 303, 152, 318
-0.999511, 281, 175, 296, 190
-0.999511, 121, 235, 136, 250
-0.999511, 129, 269, 144, 284
-0.999511, 247, 89, 262, 104
-0.999511, 125, 253, 140, 268
-0.999512, 247, 135, 262, 150
-0.999512, 281, 203, 296, 218
-0.999512, 55, 315, 70, 330
-0.999513, 283, 163, 298, 178
-0.999515, 203, 125, 218, 140
-0.999515, 235, 133, 250, 148
-0.999515, 281, 125, 296, 140
-0.999515, 33, 301, 48, 316
-0.999516, 83, 129, 98, 256
-0.999517, 289, 219, 304, 234
-0.999517, 295, 209, 310, 336
-0.999517, 239, 89, 254, 104
-0.999518, 239, 221, 254, 236
-0.999519, 273, 181, 288, 196
-0.999519, 111, 353, 126, 480
-0.999519, 123, 405, 138, 420
-0.99952, 249, 321, 264, 448
-0.99952, 315, 329, 330, 344
-0.99952, 277, 159, 292, 174
-0.99952, 315, 323, 330, 338
-0.999521, 307, 129, 322, 256
-0.999521, 133, 339, 148, 354
-0.999522, 219, 147, 234, 162
-0.999523, 131, 219, 146, 234
-0.999524, 123, 347, 138, 362
-0.999524, 247, 221, 262, 236
-0.999524, 229, 223, 244, 238
-0.999524, 301, 221, 316, 236
-0.999525, 225, 127, 240, 142
-0.999526, 223, 223, 238, 238
-0.999527, 281, 119, 296, 134
-0.999528, 239, 143, 254, 158
-0.999528, 313, 97, 375, 160
-0.999528, 141, 225, 156, 240
-0.999529, 147, 217, 162, 232
-0.999529, 129, 337, 144, 464
-0.99953, 159, 225, 174, 240
-0.99953, 237, 207, 252, 222
-0.99953, 325, 331, 340, 346
-0.999531, 59, 129, 74, 256
-0.999532, 205, 115, 220, 130
-0.999532, 189, 223, 204, 238
-0.999533, 217, 223, 232, 238
-0.999533, 291, 321, 306, 448
-0.999533, 335, 369, 350, 496
-0.999533, 169, 223, 184, 238
-0.999534, 197, 223, 212, 238
-0.999534, 203, 223, 218, 238
-0.999535, 177, 223, 192, 238
-0.999535, 209, 223, 224, 238
-0.999536, 273, 321, 288, 448
-0.999536, 295, 221, 310, 236
-0.999537, 237, 201, 252, 216
-0.999538, 183, 223, 198, 238
-0.999539, 57, 305, 72, 432
-0.99954, 299, 321, 314, 448
-0.99954, 153, 225, 168, 240
-0.99954, 47, 309, 62, 324
-0.999541, 111, 231, 126, 246
-0.999542, 273, 169, 288, 184
-0.999543, 287, 213, 302, 228
-0.999545, 343, 369, 358, 496
-0.999545, 213, 157, 228, 172
-0.999546, 243, 211, 258, 226
-0.999546, 275, 175, 290, 190
-0.999546, 121, 277, 136, 292
-0.999547, 113, 245, 128, 260
-0.999547, 117, 261, 132, 276
-0.999547, 361, 177, 375, 304
-0.999548, 127, 303, 142, 318
-0.999548, 129, 311, 144, 326
-0.999549, 279, 113, 294, 128
-0.99955, 115, 253, 130, 268
-0.99955, 207, 109, 222, 124
-0.99955, 111, 237, 126, 252
-0.999551, 147, 225, 162, 240
-0.999551, 125, 293, 140, 308
-0.999551, 267, 321, 282, 448
-0.999552, 123, 287, 138, 302
-0.999552, 119, 269, 134, 284
-0.999553, 125, 225, 140, 240
-0.999553, 231, 87, 246, 102
-0.999556, 223, 33, 238, 160
-0.999561, 227, 195, 242, 210
-0.999562, 275, 107, 290, 122
-0.999562, 131, 319, 146, 334
-0.999563, 211, 165, 226, 180
-0.999564, 255, 321, 270, 448
-0.999566, 209, 151, 224, 166
-0.999567, 279, 169, 294, 184
-0.999572, 135, 325, 150, 340
-0.999572, 313, 97, 344, 224
-0.999572, 111, 113, 126, 240
-0.999574, 255, 87, 270, 102
-0.999574, 317, 273, 332, 400
-0.999575, 203, 157, 218, 172
-0.999575, 63, 273, 78, 400
-0.999578, 211, 101, 226, 116
-0.999579, 113, 461, 240, 492
-0.99958, 231, 33, 246, 160
-0.999585, 53, 257, 84, 500
-0.999586, 225, 89, 240, 104
-0.999587, 49, 137, 176, 168
-0.999588, 77, 33, 108, 288
-0.999588, 263, 91, 278, 106
-0.999589, 255, 33, 270, 160
-0.99959, 321, 325, 336, 340
-0.999592, 273, 101, 288, 116
-0.999595, 217, 33, 232, 160
-0.999599, 25, 337, 56, 464
-0.999599, 237, 305, 252, 432
-0.9996, 243, 321, 258, 448
-0.999602, 47, 289, 62, 416
-0.999606, 217, 95, 232, 110
-0.999607, 143, 331, 158, 346
-0.999608, 53, 129, 68, 256
-0.999614, 241, 341, 368, 372
-0.999615, 9, 257, 40, 500
-0.999618, 225, 305, 240, 432
-0.99962, 89, 33, 120, 288
-0.999624, 269, 95, 284, 110
-0.999628, 35, 321, 50, 448
-0.999629, 255, 217, 270, 232
-0.999629, 37, 295, 52, 310
-0.999632, 89, 113, 152, 176
-0.999636, 337, 321, 352, 448
-0.999637, 307, 221, 322, 236
-0.99964, 317, 225, 332, 352
-0.999641, 137, 257, 152, 384
-0.999644, 15, 289, 30, 416
-0.999646, 309, 273, 324, 400
-0.999664, 249, 213, 264, 228
-0.999664, 143, 321, 158, 448
-0.999664, 231, 305, 246, 432
-0.999665, 277, 49, 292, 176
-0.999669, 267, 33, 282, 160
-0.999674, 243, 193, 258, 320
-0.999675, 65, 305, 128, 368
-0.999676, 217, 305, 232, 432
-0.999678, 211, 305, 226, 432
-0.999678, 1, 409, 375, 472
-0.999678, 293, 113, 308, 240
-0.999688, 187, 305, 202, 432
-0.99969, 193, 305, 208, 432
-0.999693, 65, 449, 192, 480
-0.999694, 5, 129, 36, 384
-0.999706, 249, 257, 280, 500
-0.999709, 119, 227, 134, 242
-0.999715, 1, 437, 128, 468
-0.999747, 1, 189, 128, 220
-0.999759, 149, 273, 180, 400
-0.99976, 193, 453, 320, 484
-0.999769, 229, 257, 260, 500
-0.999782, 53, 33, 84, 288
-0.999798, 81, 121, 208, 152
-0.999832, 129, 69, 256, 100
-0.999839, 145, 385, 272, 416
-0.999846, 241, 449, 368, 480
-0.999862, 177, 341, 304, 372
-0.999874, 169, 433, 232, 496
-0.999899, 41, 169, 104, 232
-0.999899, 289, 385, 352, 448
-0.999904, 269, 257, 300, 500
-0.999915, 65, 257, 96, 500
-0.999923, 161, 397, 288, 428
-0.999935, 1, 449, 128, 480
-0.99997, 193, 385, 320, 416
-1, 337, 65, 368, 320
-1.00002, 225, 41, 352, 104
-1.00003, 217, 257, 248, 500
-1.00004, 145, 369, 272, 400
-1.00005, 65, 1, 96, 256
-1.00005, 1, 161, 128, 192
-1.00007, 161, 417, 288, 448
-1.00008, 145, 353, 272, 384
-1.00008, 193, 465, 320, 496
-1.00009, 341, 97, 372, 224
-1.00011, 325, 65, 356, 320
-1.00015, 65, 461, 192, 492
-1.00016, 17, 461, 144, 492
-1.00023, 269, 33, 300, 160
-1.00023, 129, 353, 160, 480
-1.00028, 329, 257, 360, 500
-1.00028, 125, 1, 156, 256
-1.0003, 149, 257, 180, 500
-1.00037, 41, 1, 72, 256
-1.00038, 9, 209, 40, 336
-1.00043, 1, 65, 375, 128
-1.00044, 241, 469, 368, 500
-1.00045, 9, 1, 72, 256
-1.0005, 1, 369, 32, 496
-1.00053, 173, 257, 204, 500
-1.00054, 17, 33, 48, 288
-1.00056, 129, 41, 256, 104
-1.00061, 93, 225, 124, 480
-1.00064, 137, 1, 168, 256
-1.00065, 29, 1, 60, 256
-1.00065, 225, 369, 288, 496
-1.00068, 177, 69, 304, 100
-1.00071, 1, 1, 32, 256
-1.00074, 177, 277, 304, 308
-1.00078, 193, 293, 320, 324
-1.00079, 309, 369, 340, 496
-1.00082, 241, 1, 368, 32
-1.00089, 193, 249, 320, 312
-1.00091, 33, 113, 160, 144
-1.00092, 329, 97, 360, 224
-1.00093, 177, 233, 304, 264
-1.00095, 177, 265, 304, 296
-1.00096, 241, 13, 368, 44
-1.00098, 129, 361, 192, 424
-1.00099, 1, 25, 128, 56
-1.001, 129, 65, 375, 128
-1.001, 161, 57, 288, 88
-1.001, 209, 57, 336, 88
-1.00101, 177, 253, 304, 284
-1.00101, 241, 33, 368, 64
-1.00102, 1, 13, 128, 44
-1.00102, 77, 257, 108, 500
-1.00103, 17, 1, 144, 32
-1.00103, 17, 53, 144, 84
-1.00103, 1, 65, 128, 96
-1.00103, 1, 97, 128, 128
-1.00106, 209, 433, 272, 496
-1.00106, 1, 85, 128, 116
-1.00106, 49, 101, 176, 132
-1.00112, 137, 433, 200, 496
-1.00115, 33, 41, 288, 104
-1.00127, 37, 369, 68, 496
-1.00128, 233, 353, 296, 416
-1.00139, 1, 9, 256, 72
-1.00154, 41, 377, 104, 440
-1.00154, 233, 385, 296, 448
-1.00154, 225, 369, 256, 496
-1.00161, 17, 153, 80, 216
-1.00165, 45, 81, 76, 208
-1.00169, 129, 1, 375, 64
-1.00171, 129, 25, 375, 88
-1.00178, 181, 257, 212, 384
-1.00179, 25, 401, 88, 464
-1.00188, 241, 1, 368, 64
-1.00196, 177, 41, 304, 104
-1.00198, 1, 81, 64, 208
-1.00205, 1, 49, 128, 112
-1.00207, 169, 257, 200, 384
-1.00207, 141, 369, 172, 496
-1.00211, 49, 241, 112, 368
-1.00212, 333, 257, 364, 384
-1.00219, 1, 73, 128, 136
-1.00234, 213, 369, 244, 496
-1.00239, 17, 425, 80, 488
-1.00242, 1, 25, 128, 88
-1.00242, 65, 337, 96, 464
-1.00244, 193, 409, 256, 472
-1.00254, 1, 1, 128, 64
-1.00258, 169, 345, 232, 408
-1.00259, 49, 49, 176, 112
-1.00271, 49, 25, 176, 88
-1.00275, 177, 273, 304, 336
-1.00276, 1, 41, 375, 104
-1.00288, 65, 1, 192, 64
-1.00291, 145, 17, 272, 80
-1.00291, 193, 17, 320, 80
-1.00294, 49, 81, 176, 144
-1.00296, 145, 241, 272, 304
-1.00311, 177, 369, 240, 496
-1.00313, 233, 225, 296, 352
-1.00318, 1, 17, 375, 80
-1.0036, 249, 369, 312, 496
-1.00432, 201, 353, 264, 480
-1.00551, 1, 1, 128, 128
-1.00618, 169, 17, 232, 144
-1.00624, 97, 17, 224, 144
-1.00673, 265, 1, 328, 128
-1.0073, 313, 33, 375, 160
-1.00762, 145, 369, 208, 496
-1.00819, 49, 1, 176, 128
-1.01328, 17, 1, 80, 128
-1.01377, 105, 49, 168, 176
-1.01393, 49, 1, 112, 128
-1.01406, 121, 1, 184, 128
-1.01471, 89, 1, 152, 128
-1.01678, 289, 1, 352, 128
-1.01706, 129, 49, 192, 176
-1.01942, 145, 1, 208, 128
