1968
-0.292064, 1, 1, 500, 375
-0.398336, 1, 129, 500, 375
-0.459678, 1, 1, 500, 256
-0.485452, 161, 1, 416, 375
-0.530533, 33, 1, 288, 375
-0.627025, 97, 97, 352, 352
-0.643134, 257, 1, 500, 256
-0.666897, 129, 1, 384, 256
-0.681755, 257, 1, 500, 375
-0.693303, 1, 129, 256, 375
-0.69343, 193, 129, 448, 375
-0.733672, 33, 1, 288, 256
-0.854897, 273, 129, 400, 375
-0.861263, 209, 1, 336, 375
-0.864161, 17, 1, 144, 375
-0.871973, 209, 1, 336, 256
-0.880169, 1, 161, 500, 288
-0.88042, 129, 1, 256, 256
-0.88424, 33, 1, 160, 256
-0.885665, 353, 1, 480, 256
-0.886825, 1, 113, 500, 240
-0.886847, 97, 129, 224, 375
-0.888045, 97, 1, 224, 375
-0.890116, 177, 129, 304, 375
-0.893226, 225, 129, 352, 375
-0.894758, 161, 1, 288, 375
-0.894884, 1, 225, 500, 352
-0.896082, 257, 1, 384, 375
-0.897152, 273, 33, 400, 288
-0.908131, 49, 129, 176, 375
-0.908149, 81, 1, 208, 256
-0.910958, 353, 97, 480, 352
-0.911501, 337, 1, 464, 375
-0.916909, 33, 1, 288, 128
-0.924334, 1, 1, 500, 128
-0.928644, 97, 145, 224, 272
-0.929353, 1, 97, 128, 352
-0.931215, 97, 113, 352, 240
-0.932863, 193, 161, 448, 288
-0.933629, 33, 225, 288, 352
-0.934451, 65, 161, 320, 288
-0.936535, 273, 161, 400, 288
-0.936706, 161, 1, 416, 128
-0.937814, 161, 113, 288, 240
-0.938827, 257, 1, 500, 128
-0.93925, 1, 65, 500, 192
-0.939734, 193, 97, 448, 224
-0.945806, 209, 145, 336, 272
-0.946629, 257, 209, 384, 336
-0.947028, 49, 225, 176, 352
-0.948846, 209, 97, 336, 224
-0.94896, 337, 185, 400, 248
-0.949654, 193, 113, 256, 240
-0.95049, 177, 1, 304, 128
-0.950723, 257, 1, 384, 128
-0.951212, 233, 49, 296, 176
-0.951819, 353, 145, 416, 272
-0.951973, 105, 129, 168, 256
-0.952117, 329, 161, 392, 288
-0.953656, 161, 145, 224, 208
-0.953758, 129, 225, 384, 352
-0.954058, 97, 1, 224, 128
-0.954137, 217, 1, 280, 128
-0.954161, 249, 1, 312, 128
-0.954455, 281, 129, 344, 256
-0.954678, 49, 145, 176, 272
-0.954986, 145, 113, 208, 240
-0.955544, 73, 161, 136, 288
-0.955686, 337, 129, 464, 256
-0.956115, 353, 161, 416, 224
-0.956153, 65, 241, 128, 368
-0.956414, 281, 1, 344, 128
-0.9572, 1, 113, 256, 240
-0.957631, 97, 97, 224, 224
-0.95765, 193, 1, 256, 128
-0.958534, 257, 113, 384, 240
-0.958661, 33, 17, 96, 80
-0.958913, 137, 161, 200, 224
-0.959078, 169, 113, 232, 240
-0.959481, 209, 137, 272, 200
-0.959675, 121, 1, 184, 128
-0.959722, 217, 129, 280, 256
-0.959921, 281, 177, 344, 240
-0.96008, 145, 161, 272, 288
-0.960133, 1, 49, 256, 176
-0.960184, 97, 1, 160, 128
-0.960949, 97, 193, 160, 320
-0.960997, 193, 49, 448, 176
-0.961025, 225, 49, 352, 176
-0.961037, 97, 49, 352, 176
-0.961206, 273, 1, 336, 64
-0.961813, 1, 161, 128, 288
-0.961874, 105, 153, 168, 216
-0.962668, 305, 145, 368, 272
-0.963018, 57, 17, 120, 144
-0.963306, 1, 25, 64, 88
-0.963369, 17, 17, 144, 144
-0.963605, 321, 1, 448, 128
-0.963614, 169, 121, 232, 184
-0.963634, 321, 225, 384, 288
-0.963905, 273, 177, 336, 304
-0.964292, 97, 153, 224, 216
-0.964813, 337, 137, 400, 200
-0.964898, 313, 145, 376, 208
-0.964931, 241, 1, 304, 64
-0.965093, 385, 153, 448, 216
-0.96533, 305, 225, 368, 352
-0.965493, 257, 209, 500, 336
-0.965539, 209, 225, 336, 352
-0.965554, 201, 17, 264, 80
-0.965605, 121, 121, 184, 184
-0.965632, 433, 1, 496, 64
-0.965647, 265, 225, 328, 352
-0.965728, 273, 177, 400, 240
-0.965758, 185, 153, 248, 216
-0.965776, 193, 113, 256, 176
-0.966011, 241, 113, 304, 240
-0.966026, 305, 257, 368, 320
-0.966235, 33, 17, 96, 144
-0.96627, 297, 217, 360, 280
-0.966283, 97, 201, 160, 264
-0.96655, 81, 225, 144, 288
-0.966722, 153, 1, 216, 128
-0.966936, 49, 41, 112, 104
-0.967261, 393, 113, 456, 240
-0.967431, 369, 1, 432, 64
-0.968254, 365, 169, 396, 232
-0.968337, 361, 137, 424, 200
-0.968492, 177, 49, 304, 176
-0.968516, 409, 1, 472, 64
-0.968581, 161, 9, 224, 72
-0.96881, 73, 25, 136, 88
-0.96908, 305, 169, 368, 232
-0.969247, 329, 209, 392, 336
-0.969359, 41, 177, 104, 304
-0.969525, 353, 185, 384, 248
-0.969599, 9, 1, 72, 128
-0.969678, 329, 1, 392, 128
-0.970231, 241, 273, 304, 336
-0.970735, 313, 193, 376, 256
-0.970806, 185, 177, 248, 240
-0.971078, 265, 201, 328, 264
-0.971113, 89, 241, 152, 368
-0.97131, 273, 265, 336, 328
-0.971339, 241, 177, 304, 304
-0.971436, 305, 225, 432, 352
-0.971449, 65, 177, 128, 240
-0.971523, 353, 193, 416, 320
-0.971527, 25, 41, 88, 104
-0.971598, 377, 1, 440, 128
-0.97161, 297, 1, 360, 64
-0.971624, 433, 1, 496, 128
-0.971802, 161, 169, 224, 232
-0.972322, 129, 225, 256, 352
-0.972524, 185, 161, 248, 288
-0.972561, 49, 129, 112, 256
-0.972755, 361, 185, 424, 248
-0.972812, 193, 161, 320, 224
-0.973211, 369, 1, 496, 128
-0.973294, 201, 153, 232, 216
-0.973409, 233, 41, 296, 104
-0.973428, 373, 145, 404, 208
-0.973742, 145, 129, 272, 192
-0.973888, 385, 129, 448, 192
-0.973969, 1, 49, 64, 112
-0.973987, 161, 161, 224, 288
-0.974137, 285, 177, 316, 240
-0.974155, 353, 97, 416, 224
-0.974217, 353, 25, 416, 88
-0.974304, 113, 241, 176, 368
-0.97433, 121, 81, 184, 208
-0.974693, 209, 177, 240, 240
-0.97484, 209, 9, 336, 72
-0.974956, 273, 153, 400, 216
-0.974993, 57, 265, 120, 328
-0.975067, 1, 225, 128, 352
-0.975113, 353, 161, 384, 288
-0.975119, 225, 177, 288, 240
-0.975149, 129, 49, 256, 176
-0.975336, 137, 225, 200, 288
-0.975361, 177, 49, 240, 176
-0.975543, 161, 193, 224, 256
-0.975611, 217, 281, 280, 344
-0.975676, 241, 1, 304, 256
-0.975805, 17, 25, 144, 88
-0.975864, 345, 209, 408, 272
-0.975894, 97, 177, 160, 240
-0.975902, 49, 97, 176, 224
-0.975904, 201, 65, 264, 192
-0.975908, 49, 209, 112, 272
-0.975936, 273, 201, 400, 264
-0.976003, 277, 177, 308, 304
-0.976004, 273, 121, 336, 184
-0.976018, 201, 1, 264, 256
-0.97603, 329, 113, 392, 240
-0.976078, 209, 185, 336, 248
-0.976147, 257, 1, 384, 64
-0.976174, 57, 297, 120, 360
-0.976175, 273, 1, 336, 256
-0.976228, 341, 193, 372, 256
-0.976251, 189, 169, 220, 232
-0.976529, 273, 241, 336, 304
-0.976607, 245, 1, 276, 128
-0.976671, 193, 41, 256, 104
-0.97668, 269, 1, 300, 64
-0.97669, 257, 177, 320, 240
-0.976784, 321, 177, 448, 304
-0.976811, 97, 9, 224, 72
-0.976982, 113, 153, 144, 216
-0.977042, 377, 161, 440, 288
-0.977049, 337, 169, 464, 232
-0.977102, 273, 225, 400, 288
-0.977103, 129, 161, 192, 288
-0.977193, 233, 153, 296, 216
-0.977269, 41, 241, 104, 368
-0.977311, 241, 265, 368, 328
-0.977327, 265, 81, 328, 208
-0.977474, 17, 209, 80, 336
-0.977595, 401, 1, 464, 128
-0.977652, 377, 169, 408, 232
-0.977727, 177, 1, 240, 256
-0.977764, 81, 25, 112, 88
-0.977815, 273, 97, 336, 352
-0.977846, 125, 129, 156, 192
-0.977899, 145, 297, 208, 360
-0.977902, 417, 145, 480, 208
-0.978038, 321, 25, 384, 88
-0.978131, 17, 177, 144, 240
-0.978132, 417, 1, 480, 256
-0.978207, 345, 1, 408, 64
-0.978217, 337, 145, 464, 208
-0.978279, 297, 129, 360, 375
-0.978366, 97, 185, 224, 248
-0.97837, 357, 145, 388, 208
-0.978475, 425, 113, 488, 240
-0.978517, 437, 1, 468, 64
-0.978572, 369, 1, 496, 64
-0.978596, 193, 137, 320, 200
-0.978597, 233, 89, 296, 152
-0.978688, 81, 297, 144, 360
-0.978774, 129, 9, 192, 72
-0.978785, 157, 153, 188, 216
-0.978815, 289, 1, 320, 128
-0.978848, 273, 185, 304, 248
-0.978964, 109, 145, 140, 272
-0.979195, 225, 1, 256, 128
-0.97921, 177, 289, 304, 352
-0.979264, 105, 193, 136, 256
-0.979308, 145, 121, 208, 184
-0.979337, 169, 297, 232, 360
-0.979487, 305, 81, 432, 208
-0.979528, 209, 129, 240, 192
-0.979638, 61, 17, 92, 80
-0.979679, 81, 153, 144, 216
-0.979728, 217, 241, 280, 368
-0.979834, 57, 1, 120, 256
-0.979834, 145, 177, 272, 240
-0.979917, 253, 281, 284, 344
-0.979956, 97, 129, 224, 192
-0.980003, 125, 145, 156, 272
-0.980098, 353, 1, 416, 128
-0.980205, 329, 201, 360, 264
-0.980249, 369, 81, 496, 208
-0.980275, 49, 145, 176, 208
-0.9803, 97, 129, 160, 192
-0.980307, 369, 177, 496, 304
-0.980313, 73, 49, 136, 112
-0.980354, 169, 137, 200, 200
-0.980356, 209, 97, 336, 160
-0.98045, 145, 153, 272, 216
-0.980471, 57, 241, 120, 304
-0.98054, 221, 145, 252, 208
-0.980553, 97, 81, 160, 208
-0.980556, 81, 209, 208, 272
-0.980626, 225, 17, 256, 80
-0.980634, 321, 129, 384, 375
-0.980646, 29, 25, 60, 88
-0.980656, 73, 201, 136, 264
-0.98074, 137, 1, 200, 256
-0.980749, 129, 185, 192, 248
-0.980785, 229, 129, 260, 256
-0.980789, 137, 225, 200, 352
-0.980807, 353, 225, 480, 352
-0.980808, 65, 289, 192, 352
-0.980888, 281, 41, 344, 104
-0.980904, 49, 257, 176, 320
-0.980977, 97, 177, 128, 304
-0.98098, 61, 41, 92, 104
-0.981087, 393, 1, 456, 256
-0.981174, 89, 177, 120, 240
-0.981213, 241, 113, 304, 176
-0.981215, 289, 145, 352, 208
-0.981225, 17, 161, 80, 288
-0.981382, 145, 153, 176, 216
-0.981398, 257, 25, 320, 88
-0.981408, 17, 25, 48, 88
-0.98144, 353, 129, 416, 375
-0.981476, 273, 297, 336, 360
-0.981485, 305, 1, 336, 64
-0.981501, 373, 145, 404, 272
-0.981602, 233, 65, 296, 128
-0.981705, 157, 1, 188, 128
-0.981756, 257, 1, 288, 64
-0.981806, 81, 49, 208, 176
-0.98195, 129, 1, 160, 128
-0.981996, 189, 129, 220, 192
-0.982028, 289, 129, 416, 192
-0.982041, 121, 289, 184, 352
-0.982074, 1, 1, 64, 64
-0.982101, 9, 185, 72, 248
-0.982103, 289, 249, 416, 312
-0.982179, 385, 145, 416, 208
-0.982212, 177, 113, 208, 240
-0.982229, 213, 113, 244, 240
-0.982273, 329, 257, 392, 320
-0.982277, 5, 25, 36, 88
-0.982294, 301, 233, 332, 296
-0.982423, 33, 201, 160, 264
-0.982625, 65, 233, 192, 296
-0.982633, 205, 17, 236, 80
-0.982633, 109, 193, 140, 320
-0.982646, 301, 265, 332, 328
-0.982691, 241, 209, 304, 272
-0.982751, 1, 1, 32, 128
-0.982828, 133, 153, 164, 216
-0.982929, 81, 1, 144, 256
-0.982932, 97, 97, 160, 352
-0.982947, 121, 97, 152, 224
-0.982985, 105, 1, 168, 256
-0.983043, 177, 161, 208, 224
-0.983073, 201, 129, 264, 375
-0.983075, 361, 1, 424, 256
-0.983093, 313, 233, 344, 296
-0.983161, 313, 289, 376, 352
-0.983211, 425, 169, 488, 232
-0.983219, 97, 273, 160, 336
-0.983228, 217, 113, 280, 176
-0.983234, 401, 1, 432, 64
-0.983259, 121, 249, 184, 312
-0.983276, 25, 65, 88, 128
-0.983298, 145, 9, 272, 72
-0.983308, 1, 113, 128, 240
-0.983395, 73, 113, 136, 240
-0.983437, 377, 193, 408, 256
-0.983472, 305, 1, 368, 128
-0.983523, 289, 49, 352, 176
-0.983532, 341, 169, 372, 232
-0.983567, 305, 1, 432, 64
-0.983577, 49, 153, 112, 216
-0.983608, 41, 17, 72, 80
-0.983667, 241, 241, 304, 368
-0.98367, 257, 153, 320, 216
-0.983702, 189, 113, 220, 240
-0.983719, 225, 1, 288, 375
-0.98372, 9, 161, 72, 224
-0.983748, 1, 49, 128, 112
-0.983777, 113, 297, 240, 360
-0.983786, 261, 1, 292, 128
-0.983796, 225, 81, 256, 208
-0.983806, 97, 17, 160, 80
-0.983873, 305, 145, 336, 272
-0.983875, 197, 193, 228, 256
-0.983909, 297, 169, 328, 232
-0.983939, 69, 241, 100, 368
-0.983978, 93, 217, 124, 280
-0.983991, 321, 1, 384, 64
-0.984168, 129, 241, 160, 368
-0.984187, 313, 225, 344, 352
-0.98422, 281, 9, 312, 72
-0.984241, 357, 209, 388, 272
-0.984305, 305, 97, 368, 224
-0.984341, 277, 129, 308, 256
-0.984384, 237, 1, 268, 64
-0.984393, 153, 65, 216, 192
-0.984429, 241, 129, 304, 375
-0.984441, 105, 1, 168, 375
-0.984469, 129, 249, 160, 312
-0.984498, 137, 129, 200, 375
-0.984565, 169, 41, 232, 104
-0.984612, 165, 129, 196, 256
-0.98465, 341, 177, 372, 304
-0.984908, 321, 193, 448, 256
-0.984935, 389, 169, 420, 232
-0.984942, 149, 289, 180, 352
-0.984967, 385, 129, 416, 256
-0.984983, 333, 225, 364, 288
-0.985015, 329, 177, 360, 240
-0.985033, 73, 49, 104, 112
-0.985062, 117, 193, 148, 256
-0.985082, 293, 161, 324, 288
-0.985112, 65, 1, 128, 375
-0.985162, 33, 1, 160, 64
-0.985182, 65, 257, 96, 320
-0.985183, 257, 49, 320, 112
-0.985208, 289, 273, 416, 336
-0.985214, 409, 25, 472, 88
-0.985246, 189, 9, 220, 72
-0.985249, 277, 1, 308, 128
-0.985265, 369, 1, 400, 64
-0.985356, 297, 209, 328, 336
-0.985364, 113, 105, 240, 168
-0.985385, 65, 33, 192, 96
-0.985413, 177, 41, 304, 104
-0.985453, 289, 265, 320, 328
-0.985503, 221, 105, 252, 168
-0.98555, 77, 177, 108, 304
-0.9856, 73, 129, 136, 375
-0.985609, 257, 25, 384, 88
-0.985617, 49, 49, 80, 112
-0.985683, 161, 1, 224, 375
-0.985699, 257, 297, 384, 360
-0.985739, 289, 241, 320, 304
-0.985753, 209, 209, 336, 272
-0.985804, 433, 25, 496, 88
-0.98583, 241, 41, 272, 104
-0.98587, 457, 1, 488, 64
-0.985886, 153, 121, 184, 184
-0.985903, 241, 305, 304, 368
-0.985918, 25, 209, 88, 272
-0.985965, 269, 273, 300, 336
-0.985967, 193, 161, 224, 288
-0.986022, 109, 1, 140, 128
-0.986044, 309, 153, 340, 216
-0.986088, 81, 297, 112, 360
-0.986102, 337, 225, 368, 352
-0.986142, 321, 145, 352, 272
-0.986147, 61, 17, 92, 144
-0.986205, 433, 121, 496, 184
-0.986214, 293, 1, 324, 64
-0.98626, 177, 129, 240, 375
-0.986312, 305, 1, 368, 256
-0.986339, 217, 177, 280, 304
-0.986355, 293, 113, 324, 240
-0.986406, 313, 257, 344, 320
-0.986436, 225, 233, 352, 296
-0.986447, 41, 185, 104, 248
-0.986457, 385, 177, 448, 240
-0.986458, 329, 33, 392, 288
-0.986469, 381, 1, 412, 64
-0.986477, 233, 129, 264, 192
-0.986487, 113, 225, 176, 288
-0.986535, 73, 65, 136, 192
-0.986536, 265, 97, 328, 160
-0.986668, 145, 217, 176, 280
-0.986675, 185, 1, 248, 375
-0.986758, 169, 1, 200, 128
-0.986769, 321, 145, 352, 208
-0.986805, 305, 25, 432, 88
-0.986898, 133, 193, 164, 256
-0.986933, 93, 33, 124, 96
-0.986969, 153, 145, 184, 272
-0.986984, 121, 193, 152, 320
-0.986989, 285, 225, 316, 352
-0.987012, 29, 57, 60, 120
-0.987039, 425, 1, 456, 64
-0.987045, 469, 1, 500, 64
-0.987086, 241, 281, 272, 344
-0.987098, 313, 121, 376, 184
-0.98713, 249, 241, 312, 304
-0.987156, 285, 201, 316, 264
-0.987262, 9, 49, 72, 176
-0.987302, 241, 49, 272, 176
-0.987313, 141, 129, 172, 256
-0.987315, 81, 249, 144, 312
-0.987368, 41, 1, 104, 375
-0.987384, 397, 113, 428, 240
-0.987396, 193, 289, 256, 352
-0.987418, 121, 313, 184, 375
-0.987525, 265, 193, 296, 320
-0.987531, 325, 225, 356, 352
-0.987553, 89, 17, 120, 144
-0.98756, 33, 297, 96, 360
-0.987654, 241, 129, 368, 192
-0.987748, 337, 189, 400, 220
-0.987758, 145, 1, 176, 128
-0.98779, 129, 33, 256, 96
-0.987795, 141, 241, 172, 304
-0.987809, 213, 1, 244, 128
-0.987921, 73, 1, 136, 64
-0.987934, 369, 121, 496, 184
-0.987974, 161, 201, 288, 264
-0.987994, 353, 25, 480, 88
-0.988065, 49, 121, 176, 184
-0.988068, 105, 217, 136, 280
-0.988107, 185, 201, 248, 264
-0.988144, 65, 177, 96, 304
-0.988199, 233, 153, 264, 216
-0.988215, 49, 177, 80, 304
-0.988284, 373, 1, 404, 128
-0.988298, 193, 225, 256, 352
-0.9883, 133, 193, 164, 320
-0.988302, 201, 113, 232, 240
-0.988307, 81, 225, 112, 288
-0.988309, 41, 1, 72, 128
-0.988314, 13, 17, 44, 144
-0.988375, 397, 129, 428, 192
-0.988489, 249, 145, 280, 272
-0.988495, 361, 113, 392, 240
-0.988496, 89, 105, 152, 168
-0.988517, 33, 1, 96, 256
-0.98853, 265, 25, 296, 88
-0.98853, 121, 105, 152, 168
-0.988534, 353, 265, 416, 328
-0.988562, 137, 305, 168, 368
-0.988578, 261, 129, 292, 256
-0.988594, 169, 97, 232, 160
-0.988613, 345, 177, 408, 208
-0.988625, 89, 225, 120, 352
-0.988657, 265, 161, 296, 224
-0.988667, 49, 65, 112, 128
-0.988683, 333, 129, 364, 256
-0.988698, 317, 185, 348, 248
-0.988704, 345, 225, 376, 288
-0.988879, 281, 181, 344, 212
-0.98894, 177, 177, 240, 208
-0.988947, 141, 121, 172, 184
-0.988949, 209, 73, 336, 136
-0.988964, 217, 305, 280, 368
-0.988978, 257, 49, 384, 112
-0.989003, 393, 65, 456, 192
-0.989008, 265, 1, 328, 32
-0.989034, 1, 153, 128, 216
-0.98904, 17, 305, 144, 368
-0.989045, 17, 225, 144, 288
-0.989098, 101, 169, 132, 232
-0.989103, 193, 65, 256, 128
-0.989126, 209, 105, 240, 168
-0.989152, 25, 273, 88, 336
-0.989169, 221, 169, 252, 232
-0.989199, 377, 97, 440, 352
-0.989202, 73, 1, 104, 128
-0.989235, 265, 197, 328, 228
-0.989247, 357, 17, 388, 80
-0.989257, 109, 97, 140, 224
-0.989257, 153, 97, 184, 224
-0.989276, 13, 1, 44, 64
-0.989283, 257, 201, 288, 264
-0.989286, 189, 1, 220, 128
-0.989286, 321, 225, 448, 288
-0.989289, 117, 225, 148, 288
-0.989317, 321, 201, 384, 232
-0.989329, 169, 185, 200, 248
-0.989346, 353, 1, 384, 128
-0.989365, 205, 161, 236, 288
-0.989367, 129, 273, 256, 336
-0.989458, 425, 1, 488, 32
-0.989502, 89, 129, 120, 256
-0.989529, 245, 137, 276, 200
-0.989533, 269, 49, 300, 176
-0.989551, 137, 189, 200, 220
-0.989559, 113, 233, 240, 296
-0.989577, 433, 145, 464, 208
-0.98958, 161, 189, 224, 220
-0.989601, 169, 129, 232, 160
-0.989631, 1, 1, 32, 64
-0.989672, 117, 241, 148, 368
-0.989736, 209, 89, 272, 152
-0.989756, 377, 25, 440, 88
-0.989788, 17, 49, 48, 112
-0.989796, 305, 189, 368, 220
-0.989811, 277, 153, 308, 216
-0.989814, 469, 145, 500, 208
-0.989815, 49, 57, 112, 88
-0.989866, 249, 1, 312, 375
-0.989871, 49, 97, 112, 352
-0.989894, 209, 157, 272, 188
-0.989903, 161, 9, 192, 72
-0.989918, 325, 257, 356, 320
-0.989925, 69, 201, 100, 264
-0.989926, 169, 241, 232, 368
-0.989933, 73, 129, 136, 192
-0.989959, 273, 1, 336, 375
-0.98996, 337, 1, 400, 375
-0.989971, 97, 153, 160, 184
-0.990008, 333, 25, 364, 88
-0.990011, 329, 229, 392, 260
-0.990027, 177, 161, 240, 192
-0.990034, 333, 1, 364, 128
-0.990097, 409, 121, 472, 184
-0.990101, 177, 289, 208, 352
-0.990103, 193, 265, 320, 328
-0.990125, 161, 145, 224, 176
-0.990128, 241, 5, 304, 36
-0.99013, 233, 297, 296, 328
-0.990143, 301, 1, 332, 128
-0.990149, 201, 133, 264, 164
-0.990161, 377, 173, 440, 204
-0.99017, 193, 313, 256, 375
-0.99018, 121, 97, 184, 160
-0.99019, 273, 209, 304, 272
-0.990214, 129, 129, 192, 160
-0.990216, 57, 305, 88, 368
-0.990225, 113, 129, 144, 192
-0.99026, 209, 45, 272, 76
-0.99026, 49, 41, 112, 72
-0.990263, 345, 233, 408, 296
-0.990263, 113, 197, 176, 228
-0.990267, 97, 173, 160, 204
-0.990284, 305, 225, 368, 256
-0.990304, 73, 201, 136, 232
-0.990313, 137, 1, 200, 375
-0.990317, 105, 217, 168, 248
-0.990322, 157, 177, 188, 240
-0.990348, 289, 105, 320, 168
-0.99036, 209, 313, 336, 375
-0.99036, 321, 173, 384, 204
-0.990363, 225, 1, 480, 64
-0.990391, 81, 201, 112, 264
-0.990395, 361, 189, 424, 220
-0.990397, 29, 1, 60, 128
-0.990401, 389, 1, 420, 128
-0.990403, 201, 33, 264, 64
-0.99046, 353, 165, 416, 196
-0.990469, 281, 13, 344, 44
-0.990475, 413, 9, 444, 72
-0.990475, 445, 145, 476, 208
-0.990484, 129, 153, 192, 184
-0.990494, 129, 65, 256, 128
-0.990512, 201, 173, 264, 204
-0.990516, 133, 1, 164, 64
-0.990518, 165, 289, 196, 352
-0.990518, 69, 129, 100, 256
-0.990521, 301, 129, 332, 192
-0.990527, 129, 13, 192, 44
-0.990528, 313, 1, 376, 375
-0.990542, 37, 145, 68, 272
-0.990544, 185, 193, 216, 256
-0.990564, 121, 141, 184, 172
-0.99057, 249, 285, 312, 316
-0.99057, 329, 213, 392, 244
-0.990572, 337, 145, 400, 176
-0.990606, 161, 13, 224, 44
-0.99062, 297, 1, 360, 32
-0.990629, 49, 29, 112, 60
-0.99065, 17, 41, 80, 72
-0.990651, 217, 177, 248, 304
-0.990657, 109, 25, 140, 88
-0.990666, 217, 13, 280, 44
-0.990668, 153, 177, 216, 208
-0.990731, 249, 41, 312, 72
-0.990736, 225, 145, 288, 176
-0.990743, 257, 105, 384, 168
-0.990754, 417, 1, 448, 128
-0.990784, 1, 1, 64, 256
-0.990789, 337, 1, 368, 64
-0.990793, 337, 257, 368, 320
-0.990818, 185, 49, 248, 80
-0.990825, 89, 25, 152, 56
-0.990888, 153, 305, 216, 336
-0.990912, 185, 21, 248, 52
-0.990931, 337, 257, 464, 320
-0.990934, 193, 185, 448, 248
-0.990985, 81, 189, 144, 220
-0.991008, 233, 205, 296, 236
-0.991017, 273, 133, 336, 164
-0.99102, 385, 9, 448, 40
-0.99104, 129, 173, 192, 204
-0.991041, 273, 49, 336, 80
-0.991048, 361, 201, 424, 232
-0.991053, 369, 153, 432, 184
-0.991063, 101, 241, 132, 368
-0.991132, 433, 113, 464, 240
-0.991132, 353, 209, 384, 336
-0.991138, 25, 53, 88, 84
-0.991154, 289, 205, 352, 236
-0.991162, 241, 185, 304, 216
-0.991185, 161, 105, 288, 168
-0.991192, 73, 45, 136, 76
-0.991194, 185, 117, 248, 148
-0.991202, 161, 313, 288, 375
-0.991204, 1, 25, 64, 56
-0.991209, 65, 57, 192, 120
-0.991235, 425, 25, 488, 56
-0.991244, 297, 237, 360, 268
-0.991245, 201, 145, 264, 176
-0.991292, 449, 1, 480, 128
-0.991296, 233, 57, 296, 88
-0.991323, 433, 169, 496, 200
-0.991329, 161, 205, 224, 236
-0.991347, 129, 137, 384, 200
-0.99135, 177, 33, 240, 64
-0.991357, 297, 169, 360, 200
-0.991377, 81, 233, 144, 264
-0.991379, 369, 141, 432, 172
-0.991384, 1, 161, 500, 224
-0.991385, 241, 17, 304, 48
-0.991395, 1, 53, 64, 84
-0.991406, 337, 1, 400, 32
-0.991414, 49, 213, 112, 244
-0.991443, 25, 25, 88, 56
-0.991456, 273, 293, 336, 324
-0.991466, 185, 197, 248, 228
-0.991476, 433, 157, 496, 188
-0.991499, 65, 173, 128, 204
-0.9915, 177, 161, 208, 288
-0.991524, 57, 277, 120, 308
-0.991538, 153, 157, 216, 188
-0.991541, 121, 1, 184, 32
-0.991547, 313, 37, 376, 68
-0.991553, 9, 65, 72, 96
-0.991566, 313, 145, 376, 176
-0.991579, 65, 313, 192, 375
-0.991593, 233, 77, 296, 108
-0.991599, 321, 257, 384, 288
-0.991606, 241, 169, 304, 200
-0.991626, 193, 301, 256, 332
-0.991635, 129, 309, 192, 340
-0.991638, 257, 217, 320, 248
-0.99164, 313, 133, 376, 164
-0.991648, 57, 297, 120, 328
-0.99166, 289, 253, 352, 284
-0.991673, 81, 213, 144, 244
-0.991675, 1, 193, 500, 256
-0.991676, 409, 13, 472, 44
-0.991687, 257, 49, 288, 176
-0.991689, 281, 269, 344, 300
-0.99169, 273, 241, 304, 368
-0.991709, 201, 185, 264, 216
-0.991715, 201, 1, 232, 128
-0.991731, 249, 149, 312, 180
-0.991751, 425, 37, 488, 68
-0.991757, 105, 13, 168, 44
-0.99176, 281, 145, 344, 176
-0.991776, 9, 1, 72, 375
-0.991781, 185, 5, 248, 36
-0.991785, 353, 241, 416, 368
-0.991786, 273, 233, 336, 264
-0.991798, 281, 37, 344, 68
-0.991799, 329, 241, 392, 272
-0.991801, 393, 157, 456, 188
-0.991814, 433, 13, 496, 44
-0.991823, 365, 225, 396, 352
-0.99183, 113, 185, 176, 216
-0.991841, 133, 65, 164, 192
-0.991848, 233, 89, 296, 120
-0.991861, 241, 133, 304, 164
-0.991889, 65, 161, 128, 192
-0.991894, 401, 173, 464, 204
-0.991902, 193, 61, 256, 92
-0.99191, 445, 97, 476, 224
-0.991924, 145, 1, 208, 32
-0.991935, 57, 317, 120, 348
-0.991947, 361, 1, 424, 375
-0.991967, 1, 265, 128, 328
-0.991976, 345, 25, 408, 56
-0.991987, 81, 277, 144, 308
-0.991988, 137, 213, 200, 244
-0.992004, 65, 257, 128, 288
-0.992025, 225, 145, 480, 208
-0.992031, 113, 293, 176, 324
-0.992031, 385, 33, 448, 64
-0.992132, 281, 49, 312, 176
-0.992134, 201, 177, 232, 208
-0.992164, 1, 9, 500, 72
-0.992183, 57, 241, 88, 368
-0.99219, 401, 1, 432, 128
-0.992194, 57, 129, 88, 256
-0.992208, 365, 189, 396, 220
-0.992214, 1, 17, 256, 80
-0.992267, 289, 181, 320, 212
-0.992268, 345, 113, 376, 240
-0.992268, 353, 177, 384, 208
-0.99229, 349, 189, 380, 220
-0.992295, 189, 173, 220, 204
-0.992298, 305, 97, 336, 224
-0.992307, 365, 177, 396, 208
-0.992335, 277, 193, 308, 224
-0.992369, 333, 225, 364, 256
-0.992374, 209, 161, 240, 192
-0.992379, 373, 97, 404, 224
-0.992466, 385, 1, 448, 375
-0.992482, 213, 177, 244, 208
-0.992522, 1, 65, 128, 192
-0.992535, 173, 169, 204, 200
-0.992536, 269, 1, 300, 32
-0.992548, 161, 149, 192, 180
-0.99255, 377, 173, 408, 204
-0.992564, 121, 145, 152, 176
-0.992579, 297, 233, 328, 264
-0.99259, 57, 53, 88, 84
-0.992597, 125, 201, 156, 232
-0.992603, 185, 185, 216, 216
-0.992627, 433, 1, 464, 32
-0.992629, 321, 225, 352, 256
-0.992632, 337, 189, 368, 220
-0.992632, 345, 201, 376, 232
-0.992637, 285, 1, 316, 32
-0.992639, 117, 189, 148, 220
-0.992646, 209, 189, 240, 220
-0.992664, 301, 1, 332, 32
-0.992664, 77, 41, 108, 72
-0.992682, 173, 185, 204, 216
-0.992684, 377, 193, 408, 320
-0.992705, 145, 157, 176, 188
-0.992736, 177, 137, 208, 168
-0.992738, 301, 177, 332, 208
-0.992739, 373, 209, 404, 240
-0.992741, 105, 205, 136, 236
-0.992744, 97, 177, 352, 240
-0.992749, 13, 25, 44, 56
-0.992753, 93, 225, 124, 256
-0.992762, 273, 205, 304, 236
-0.992766, 377, 145, 408, 176
-0.992776, 133, 149, 164, 180
-0.992779, 289, 13, 320, 44
-0.992779, 125, 133, 156, 164
-0.992802, 205, 25, 236, 56
-0.992806, 197, 189, 228, 220
-0.992815, 157, 185, 188, 216
-0.992829, 229, 157, 260, 188
-0.992843, 217, 21, 248, 52
-0.992843, 229, 133, 260, 164
-0.992846, 257, 1, 288, 32
-0.992849, 365, 145, 396, 176
-0.992852, 77, 29, 108, 60
-0.992854, 65, 25, 96, 56
-0.992865, 113, 157, 144, 188
-0.99287, 177, 233, 304, 296
-0.992881, 261, 205, 292, 236
-0.992893, 161, 173, 192, 204
-0.992894, 17, 73, 144, 136
-0.992894, 109, 217, 140, 248
-0.992904, 241, 45, 272, 76
-0.992911, 277, 277, 308, 308
-0.992911, 277, 293, 308, 324
-0.992915, 133, 13, 164, 44
-0.992918, 149, 301, 180, 332
-0.99292, 105, 189, 136, 220
-0.992921, 277, 181, 308, 212
-0.992925, 29, 45, 60, 76
-0.992926, 105, 169, 136, 200
-0.99293, 213, 45, 244, 76
-0.992932, 353, 213, 384, 244
-0.992935, 193, 21, 224, 52
-0.992935, 229, 169, 260, 200
-0.992936, 189, 153, 220, 184
-0.992938, 197, 129, 228, 160
-0.992944, 197, 141, 228, 172
-0.992946, 249, 153, 280, 184
-0.992948, 457, 25, 488, 56
-0.992954, 273, 13, 304, 44
-0.992957, 65, 37, 96, 68
-0.992957, 417, 13, 448, 44
-0.992958, 73, 57, 104, 88
-0.992959, 225, 37, 256, 68
-0.992961, 353, 145, 384, 176
-0.992961, 365, 161, 396, 192
-0.992961, 201, 41, 232, 72
-0.992971, 329, 209, 360, 240
-0.992979, 153, 13, 184, 44
-0.992979, 413, 1, 444, 32
-0.992981, 37, 65, 68, 96
-0.992983, 469, 1, 500, 128
-0.992992, 29, 25, 60, 56
-0.992993, 449, 1, 480, 32
-0.993008, 325, 185, 356, 216
-0.993013, 133, 245, 164, 276
-0.993015, 245, 297, 276, 328
-0.993015, 265, 41, 296, 72
-0.993019, 145, 145, 176, 176
-0.993019, 389, 153, 420, 184
-0.993025, 365, 133, 396, 164
-0.993027, 133, 189, 164, 220
-0.993028, 237, 145, 268, 176
-0.993029, 133, 257, 164, 288
-0.993038, 309, 257, 340, 288
-0.993042, 1, 137, 500, 200
-0.993047, 289, 265, 320, 296
-0.993052, 161, 129, 192, 160
-0.993058, 309, 225, 340, 256
-0.993062, 265, 281, 296, 312
-0.993066, 437, 25, 468, 56
-0.993067, 213, 137, 244, 168
-0.993068, 337, 237, 368, 268
-0.993069, 53, 41, 84, 72
-0.993071, 213, 149, 244, 180
-0.993074, 377, 161, 408, 192
-0.993075, 389, 137, 420, 168
-0.993077, 209, 201, 240, 232
-0.993077, 165, 197, 196, 228
-0.993078, 233, 13, 264, 44
-0.993081, 97, 25, 128, 56
-0.993082, 213, 221, 244, 252
-0.993085, 289, 293, 320, 324
-0.993092, 309, 237, 340, 268
-0.993095, 357, 225, 388, 256
-0.993095, 233, 297, 264, 328
-0.993096, 461, 113, 492, 240
-0.993098, 421, 129, 452, 256
-0.993101, 409, 129, 440, 256
-0.993104, 17, 129, 80, 375
-0.993104, 401, 1, 432, 32
-0.993106, 469, 1, 500, 32
-0.993108, 145, 1, 176, 32
-0.993109, 93, 201, 124, 232
-0.993113, 181, 125, 212, 156
-0.993113, 285, 49, 316, 80
-0.993114, 313, 41, 344, 72
-0.993114, 1, 17, 32, 48
-0.993114, 61, 317, 92, 348
-0.993115, 145, 233, 176, 264
-0.993118, 45, 53, 76, 84
-0.993273, 305, 105, 432, 168
-0.993283, 257, 193, 384, 224
-0.993283, 129, 9, 384, 72
-0.993294, 149, 225, 180, 352
-0.993318, 375, 169, 390, 232
-0.99338, 433, 1, 464, 128
-0.99338, 365, 177, 380, 240
-0.993416, 1, 161, 256, 224
-0.99343, 129, 113, 384, 176
-0.993441, 273, 181, 400, 212
-0.993505, 97, 201, 352, 264
-0.993531, 97, 193, 224, 224
-0.993543, 373, 145, 388, 208
-0.993545, 25, 161, 56, 288
-0.993564, 409, 1, 472, 375
-0.993666, 33, 289, 288, 352
-0.9937, 385, 145, 400, 208
-0.993724, 353, 185, 368, 248
-0.993743, 129, 149, 256, 180
-0.993751, 249, 97, 280, 224
-0.993873, 353, 49, 416, 176
-0.99394, 253, 225, 284, 352
-0.993949, 129, 233, 384, 296
-0.993977, 193, 181, 320, 212
-0.993981, 379, 145, 394, 208
-0.993993, 207, 153, 222, 216
-0.994013, 161, 297, 416, 360
-0.994064, 217, 225, 248, 352
-0.994084, 337, 281, 464, 344
-0.99412, 1, 129, 128, 192
-0.994185, 161, 33, 416, 96
-0.994216, 213, 161, 228, 224
-0.994271, 401, 97, 464, 352
-0.994315, 97, 169, 224, 200
-0.994386, 1, 249, 500, 312
-0.99439, 233, 177, 264, 304
-0.994395, 347, 193, 362, 256
-0.994473, 285, 185, 300, 248
-0.994492, 305, 141, 432, 172
-0.994503, 129, 137, 256, 168
-0.994516, 205, 65, 236, 192
-0.99453, 257, 1, 384, 32
-0.994579, 1, 225, 500, 288
-0.994624, 125, 121, 140, 184
-0.994633, 173, 153, 188, 216
-0.994666, 129, 265, 384, 328
-0.99468, 389, 169, 404, 232
-0.994701, 113, 13, 240, 44
-0.994715, 45, 49, 76, 176
-0.994738, 111, 161, 126, 224
-0.994743, 25, 113, 88, 240
-0.994749, 1, 297, 500, 360
-0.994775, 33, 249, 288, 312
-0.994801, 209, 1, 336, 32
-0.994806, 193, 13, 320, 44
-0.994812, 337, 177, 464, 208
-0.99482, 169, 65, 200, 192
-0.994873, 225, 273, 480, 336
-0.994912, 321, 233, 336, 296
-0.994916, 109, 201, 124, 264
-0.994957, 241, 205, 368, 236
-0.994975, 449, 1, 464, 64
-0.994982, 213, 137, 228, 200
-0.994995, 291, 177, 306, 240
-0.995007, 161, 197, 288, 228
-0.995018, 33, 225, 288, 288
-0.995022, 225, 141, 352, 172
-0.995031, 383, 169, 398, 232
-0.995047, 277, 193, 292, 256
-0.995052, 289, 169, 416, 200
-0.995055, 289, 233, 416, 264
-0.995076, 129, 181, 256, 212
-0.995077, 201, 169, 216, 232
-0.995085, 127, 145, 142, 208
-0.995088, 359, 169, 374, 232
-0.995108, 241, 129, 256, 192
-0.99511, 273, 1, 288, 64
-0.995143, 33, 49, 288, 112
-0.995168, 409, 161, 472, 288
-0.99517, 177, 301, 304, 332
-0.995171, 33, 97, 160, 160
-0.99518, 417, 65, 480, 192
-0.995196, 237, 225, 268, 352
-0.995208, 193, 165, 320, 196
-0.995225, 83, 25, 98, 88
-0.995234, 177, 133, 304, 164
-0.99525, 13, 161, 44, 288
-0.995261, 33, 25, 48, 88
-0.995292, 257, 25, 500, 88
-0.995297, 21, 25, 36, 88
-0.995312, 49, 309, 176, 340
-0.995314, 207, 177, 222, 240
-0.99532, 279, 1, 294, 64
-0.995325, 25, 49, 56, 176
-0.995381, 185, 169, 200, 232
-0.995382, 119, 193, 134, 256
-0.995387, 381, 1, 396, 64
-0.995395, 17, 205, 144, 236
-0.995452, 219, 169, 234, 232
-0.995465, 133, 137, 148, 200
-0.995471, 17, 25, 144, 56
-0.995485, 321, 1, 352, 128
-0.995502, 81, 157, 208, 188
-0.995506, 365, 145, 380, 208
-0.995508, 121, 153, 136, 216
-0.995531, 97, 205, 224, 236
-0.995542, 219, 129, 234, 192
-0.995548, 1, 193, 256, 256
-0.995553, 369, 193, 496, 256
-0.995595, 109, 49, 140, 176
-0.995601, 193, 209, 448, 272
-0.995607, 257, 121, 500, 184
-0.995612, 103, 193, 118, 256
-0.995619, 27, 17, 42, 80
-0.995649, 305, 153, 432, 184
-0.995658, 369, 9, 496, 40
-0.995666, 305, 193, 432, 224
-0.99567, 359, 193, 374, 256
-0.995671, 443, 1, 458, 64
-0.995683, 225, 289, 352, 320
-0.995693, 337, 201, 352, 264
-0.995699, 167, 145, 182, 208
-0.995721, 285, 1, 300, 64
-0.995731, 33, 121, 288, 184
-0.995731, 395, 153, 410, 216
-0.995737, 345, 225, 360, 288
-0.995757, 151, 289, 166, 352
-0.995757, 243, 9, 258, 72
-0.995765, 267, 281, 282, 344
-0.99577, 17, 181, 144, 212
-0.995782, 93, 25, 108, 88
-0.99579, 189, 65, 220, 192
-0.995791, 299, 169, 314, 232
-0.995819, 323, 153, 338, 216
-0.995828, 41, 65, 104, 192
-0.99584, 141, 161, 156, 224
-0.995858, 321, 1, 336, 64
-0.995859, 255, 281, 270, 344
-0.99588, 125, 97, 140, 160
-0.995895, 207, 129, 222, 192
-0.995899, 1, 41, 128, 72
-0.995911, 231, 129, 246, 192
-0.995914, 161, 241, 192, 368
-0.995926, 209, 109, 336, 140
-0.995932, 407, 1, 422, 64
-0.995959, 145, 161, 272, 192
-0.995987, 39, 25, 54, 88
-0.99599, 267, 1, 282, 64
-0.995992, 113, 125, 240, 156
-0.995993, 157, 289, 172, 352
-0.995994, 177, 129, 192, 192
-0.995995, 235, 17, 250, 80
-0.996007, 33, 53, 160, 84
-0.99601, 289, 221, 416, 252
-0.99601, 211, 17, 226, 80
-0.996016, 11, 25, 26, 88
-0.996023, 339, 233, 354, 296
-0.996026, 257, 273, 384, 304
-0.996037, 209, 217, 336, 248
-0.996049, 385, 81, 416, 208
-0.996056, 1, 25, 16, 88
-0.996075, 77, 17, 92, 80
-0.996078, 45, 57, 60, 120
-0.996113, 369, 233, 496, 296
-0.996136, 259, 9, 274, 72
-0.996138, 231, 153, 246, 216
-0.996144, 353, 25, 480, 56
-0.996162, 71, 25, 86, 88
-0.996179, 49, 297, 176, 328
-0.996183, 257, 241, 500, 304
-0.996185, 437, 1, 452, 64
-0.9962, 261, 273, 276, 336
-0.996209, 353, 157, 480, 188
-0.996239, 129, 305, 256, 336
-0.996245, 193, 45, 320, 76
-0.996259, 81, 49, 96, 112
-0.996264, 27, 41, 42, 104
-0.996287, 305, 1, 320, 64
-0.996291, 395, 129, 410, 192
-0.996297, 49, 257, 176, 288
-0.996303, 433, 97, 496, 352
-0.996305, 101, 217, 116, 280
-0.996309, 249, 281, 264, 344
-0.996309, 225, 153, 352, 184
-0.996327, 317, 257, 332, 320
-0.99633, 213, 193, 228, 256
-0.99633, 81, 181, 208, 212
-0.996333, 81, 217, 208, 248
-0.996345, 311, 241, 326, 304
-0.996351, 353, 161, 368, 224
-0.996359, 233, 105, 248, 168
-0.996364, 455, 1, 470, 64
-0.996365, 311, 273, 326, 336
-0.996373, 273, 261, 400, 292
-0.996377, 473, 1, 488, 64
-0.996387, 131, 113, 146, 176
-0.996389, 199, 121, 214, 184
-0.996397, 305, 1, 432, 32
-0.996399, 65, 233, 192, 264
-0.996417, 377, 193, 392, 256
-0.996423, 225, 113, 240, 176
-0.996428, 1, 165, 128, 196
-0.996441, 341, 177, 356, 240
-0.99646, 369, 49, 496, 112
-0.996463, 151, 153, 166, 216
-0.996464, 273, 249, 400, 280
-0.996465, 241, 13, 368, 44
-0.996476, 177, 145, 304, 176
-0.996493, 225, 169, 240, 232
-0.996497, 229, 17, 244, 80
-0.9965, 95, 201, 110, 264
-0.996506, 75, 49, 90, 112
-0.996532, 33, 313, 288, 375
-0.996535, 201, 9, 216, 72
-0.996537, 201, 145, 216, 208
-0.996543, 273, 281, 288, 344
-0.996548, 63, 41, 78, 104
-0.996551, 415, 1, 430, 64
-0.996564, 327, 225, 342, 288
-0.996565, 301, 265, 316, 328
-0.996574, 53, 33, 68, 96
-0.996582, 193, 89, 448, 152
-0.996585, 253, 9, 268, 72
-0.996586, 59, 17, 74, 80
-0.996588, 387, 1, 402, 64
-0.996591, 93, 225, 108, 288
-0.996592, 303, 233, 318, 296
-0.996599, 179, 153, 194, 216
-0.996608, 65, 17, 80, 80
-0.996609, 297, 9, 312, 72
-0.996612, 161, 153, 176, 216
-0.996618, 347, 169, 362, 232
-0.996631, 51, 57, 66, 120
-0.996633, 359, 145, 374, 208
-0.996642, 217, 9, 232, 72
-0.996646, 369, 217, 384, 280
-0.996649, 273, 81, 400, 144
-0.99666, 311, 1, 326, 64
-0.996664, 371, 193, 386, 256
-0.996669, 145, 137, 160, 200
-0.996686, 483, 1, 498, 64
-0.9967, 293, 241, 308, 304
-0.99671, 105, 169, 120, 232
-0.996711, 33, 193, 160, 224
-0.996713, 39, 57, 54, 120
-0.996721, 209, 97, 336, 128
-0.996724, 321, 49, 448, 112
-0.99673, 193, 25, 320, 56
-0.996736, 81, 145, 208, 176
-0.996769, 207, 173, 222, 204
-0.996792, 353, 137, 480, 168
-0.996798, 1, 217, 128, 248
-0.996825, 257, 49, 500, 112
-0.996826, 157, 49, 188, 176
-0.996857, 161, 1, 288, 32
-0.996877, 225, 129, 352, 160
-0.996892, 353, 129, 384, 375
-0.996899, 257, 301, 384, 332
-0.996905, 121, 49, 152, 176
-0.996937, 17, 13, 144, 44
-0.99696, 283, 189, 298, 220
-0.996999, 65, 1, 192, 32
-0.99702, 33, 73, 288, 136
-0.997038, 241, 169, 368, 200
-0.997041, 201, 181, 216, 212
-0.997061, 129, 57, 384, 120
-0.997066, 241, 233, 368, 264
-0.997072, 173, 185, 188, 216
-0.997082, 289, 205, 416, 236
-0.997087, 65, 133, 192, 164
-0.997089, 355, 185, 370, 216
-0.997092, 113, 1, 144, 256
-0.997097, 1, 41, 500, 104
-0.997102, 209, 193, 336, 224
-0.99711, 213, 177, 228, 208
-0.997112, 369, 173, 384, 204
-0.997117, 363, 177, 378, 208
-0.997122, 379, 173, 394, 204
-0.997123, 33, 285, 160, 316
-0.997133, 289, 181, 304, 212
-0.997159, 49, 269, 176, 300
-0.997185, 125, 145, 140, 176
-0.997195, 281, 1, 312, 256
-0.9972, 433, 1, 496, 375
-0.997205, 349, 189, 364, 220
-0.997213, 257, 41, 384, 72
-0.997223, 277, 201, 292, 232
-0.997227, 361, 193, 376, 224
-0.997235, 49, 245, 176, 276
-0.997256, 1, 113, 64, 240
-0.997269, 367, 189, 382, 220
-0.997282, 297, 177, 312, 208
-0.997284, 209, 1, 240, 256
-0.997298, 305, 33, 432, 64
-0.99731, 177, 289, 304, 320
-0.997315, 225, 253, 352, 284
-0.997325, 369, 37, 496, 68
-0.99733, 305, 1, 320, 32
-0.997346, 77, 49, 108, 176
-0.997359, 417, 81, 448, 208
-0.99736, 161, 121, 288, 152
-0.997369, 65, 17, 192, 48
-0.99738, 1, 273, 500, 336
-0.997398, 177, 1, 208, 256
-0.997414, 49, 169, 176, 200
-0.99742, 245, 1, 276, 256
-0.997423, 297, 49, 328, 176
-0.997426, 207, 189, 222, 220
-0.997432, 177, 57, 304, 88
-0.997448, 353, 189, 480, 220
-0.997451, 337, 205, 464, 236
-0.997456, 117, 201, 132, 232
-0.997479, 175, 169, 190, 200
-0.997489, 177, 317, 304, 348
-0.997513, 81, 33, 208, 64
-0.997515, 305, 129, 432, 160
-0.997522, 133, 1, 164, 256
-0.997524, 273, 285, 400, 316
-0.997532, 111, 169, 126, 200
-0.99754, 115, 157, 130, 188
-0.99755, 211, 161, 226, 192
-0.997563, 257, 53, 384, 84
-0.997567, 345, 225, 360, 256
-0.997608, 97, 289, 224, 320
-0.997613, 385, 161, 400, 192
-0.997619, 283, 281, 298, 312
-0.997634, 17, 65, 144, 96
-0.997643, 119, 189, 134, 220
-0.997647, 321, 233, 336, 264
-0.997651, 125, 189, 140, 220
-0.997655, 289, 13, 416, 44
-0.997657, 257, 297, 500, 360
-0.99766, 241, 25, 368, 56
-0.997665, 421, 1, 452, 256
-0.997667, 209, 85, 336, 116
-0.997677, 391, 173, 406, 204
-0.997678, 33, 149, 160, 180
-0.99768, 77, 45, 92, 76
-0.997684, 309, 1, 340, 256
-0.997687, 317, 97, 348, 224
-0.997704, 113, 1, 240, 32
-0.997706, 379, 145, 394, 176
-0.997707, 271, 1, 286, 32
-0.99771, 179, 185, 194, 216
-0.997711, 45, 225, 76, 352
-0.997717, 129, 201, 144, 232
-0.997729, 49, 321, 176, 352
-0.997733, 311, 1, 326, 32
-0.997739, 145, 1, 176, 256
-0.997745, 201, 169, 216, 200
-0.997748, 185, 177, 200, 208
-0.997757, 217, 165, 232, 196
-0.997758, 283, 201, 298, 232
-0.997759, 373, 185, 388, 216
-0.997763, 303, 177, 318, 208
-0.997765, 133, 133, 148, 164
-0.997769, 189, 1, 220, 256
-0.997771, 147, 149, 162, 180
-0.997783, 297, 1, 328, 256
-0.997789, 241, 157, 256, 188
-0.997793, 373, 161, 388, 192
-0.997807, 277, 129, 308, 375
-0.997808, 219, 21, 234, 52
-0.997808, 153, 293, 168, 324
-0.997813, 213, 193, 228, 224
-0.997817, 125, 101, 140, 132
-0.997826, 233, 1, 264, 256
-0.997827, 355, 197, 370, 228
-0.997828, 449, 1, 480, 256
-0.997832, 113, 325, 240, 356
-0.997838, 167, 173, 182, 204
-0.997849, 219, 181, 234, 212
-0.997854, 173, 149, 188, 180
-0.997857, 289, 97, 320, 352
-0.99786, 209, 21, 224, 52
-0.997867, 205, 225, 236, 352
-0.997868, 349, 201, 364, 232
-0.997876, 339, 221, 354, 252
-0.997876, 337, 281, 464, 312
-0.997879, 381, 185, 396, 216
-0.997894, 129, 61, 256, 92
-0.997896, 183, 129, 198, 160
-0.997906, 145, 245, 160, 276
-0.997906, 315, 225, 330, 256
-0.997915, 137, 189, 152, 220
-0.997918, 325, 129, 356, 375
-0.99792, 127, 133, 142, 164
-0.997921, 321, 261, 448, 292
-0.997922, 441, 1, 456, 32
-0.997929, 195, 177, 210, 208
-0.997938, 333, 225, 348, 256
-0.997942, 271, 201, 286, 232
-0.997943, 483, 1, 498, 32
-0.997955, 387, 193, 402, 224
-0.997963, 29, 25, 44, 56
-0.997964, 299, 1, 314, 32
-0.997968, 223, 157, 238, 188
-0.997969, 67, 53, 82, 84
-0.997971, 111, 205, 126, 236
-0.997987, 343, 209, 358, 240
-0.997996, 117, 97, 148, 352
-0.997997, 287, 9, 302, 40
-0.998, 137, 153, 152, 184
-0.998001, 209, 129, 240, 375
-0.998011, 235, 153, 250, 184
-0.998011, 55, 61, 70, 92
-0.998012, 199, 153, 214, 184
-0.998018, 343, 193, 358, 224
-0.99802, 145, 41, 272, 72
-0.998023, 293, 17, 308, 48
-0.998023, 389, 149, 404, 180
-0.998027, 81, 49, 208, 80
-0.998039, 83, 41, 98, 72
-0.998039, 225, 177, 240, 208
-0.998043, 181, 165, 196, 196
-0.998045, 23, 25, 38, 56
-0.998047, 111, 193, 126, 224
-0.998048, 393, 1, 424, 256
-0.99805, 251, 145, 266, 176
-0.998053, 61, 1, 92, 256
-0.998063, 205, 141, 220, 172
-0.998064, 77, 57, 92, 88
-0.998065, 95, 225, 110, 256
-0.998082, 107, 221, 122, 252
-0.998084, 165, 149, 180, 180
-0.998087, 167, 185, 182, 216
-0.998092, 377, 209, 392, 240
-0.998095, 219, 41, 234, 72
-0.998102, 469, 1, 500, 256
-0.99811, 279, 5, 294, 36
-0.998111, 371, 133, 386, 164
-0.998113, 379, 161, 394, 192
-0.998114, 159, 153, 174, 184
-0.99812, 101, 225, 116, 256
-0.998125, 101, 1, 132, 256
-0.998126, 145, 209, 272, 240
-0.99813, 365, 97, 396, 352
-0.998131, 177, 133, 192, 164
-0.998135, 89, 29, 104, 60
-0.998135, 341, 237, 356, 268
-0.998137, 201, 197, 216, 228
-0.998144, 435, 1, 450, 32
-0.998145, 129, 97, 256, 128
-0.998147, 199, 129, 214, 160
-0.998148, 311, 257, 326, 288
-0.998149, 113, 221, 128, 252
-0.99815, 69, 317, 84, 348
-0.998152, 223, 217, 238, 248
-0.998153, 215, 205, 230, 236
-0.99816, 177, 197, 192, 228
-0.99816, 71, 33, 86, 64
-0.998161, 365, 145, 380, 176
-0.998162, 123, 201, 138, 232
-0.998162, 157, 1, 188, 256
-0.998162, 121, 157, 136, 188
-0.998167, 145, 29, 272, 60
-0.998168, 131, 145, 146, 176
-0.998169, 131, 189, 146, 220
-0.99817, 193, 237, 320, 268
-0.998172, 225, 21, 240, 52
-0.998174, 129, 225, 256, 256
-0.998179, 423, 13, 438, 44
-0.99818, 179, 149, 194, 180
-0.998183, 121, 213, 136, 244
-0.998187, 289, 293, 304, 324
-0.998187, 277, 189, 292, 220
-0.998188, 35, 25, 50, 56
-0.998188, 309, 173, 324, 204
-0.998191, 433, 1, 464, 256
-0.998193, 405, 1, 436, 256
-0.998195, 385, 173, 400, 204
-0.9982, 371, 205, 386, 236
-0.998229, 113, 113, 240, 144
-0.998231, 33, 97, 288, 160
-0.998233, 221, 1, 252, 256
-0.998234, 353, 97, 480, 160
-0.998238, 97, 129, 128, 375
-0.998242, 269, 1, 300, 256
-0.998253, 193, 129, 224, 375
-0.998263, 113, 237, 240, 268
-0.998279, 377, 1, 408, 256
-0.998292, 209, 265, 336, 296
-0.998313, 225, 313, 352, 344
-0.998326, 193, 73, 320, 104
-0.998334, 365, 1, 396, 256
-0.998351, 341, 129, 372, 375
-0.998382, 321, 45, 448, 76
-0.998383, 337, 193, 400, 208
-0.998398, 173, 209, 204, 224
-0.998398, 257, 211, 288, 226
-0.998398, 221, 159, 252, 174
-0.998399, 289, 275, 320, 290
-0.9984, 381, 205, 412, 220
-0.9984, 245, 55, 276, 70
-0.998401, 321, 227, 352, 242
-0.998401, 345, 209, 376, 224
-0.998401, 97, 27, 128, 42
-0.998402, 85, 1, 116, 256
-0.998403, 289, 19, 320, 34
-0.998403, 229, 135, 260, 150
-0.998404, 157, 15, 188, 30
-0.998404, 449, 27, 480, 42
-0.998404, 45, 47, 76, 62
-0.998405, 17, 69, 48, 84
-0.998405, 181, 195, 212, 210
-0.998406, 149, 151, 180, 166
-0.998406, 377, 157, 408, 172
-0.998406, 381, 169, 412, 184
-0.998407, 269, 189, 300, 204
-0.998408, 145, 163, 176, 178
-0.998409, 77, 29, 108, 44
-0.998409, 269, 147, 300, 162
-0.998409, 357, 201, 388, 216
-0.99841, 353, 225, 480, 256
-0.998411, 405, 5, 436, 20
-0.998411, 81, 43, 112, 58
-0.998411, 285, 53, 316, 68
-0.998411, 1, 321, 128, 352
-0.998413, 205, 163, 236, 178
-0.998414, 109, 161, 140, 176
-0.998415, 45, 57, 76, 72
-0.998415, 181, 135, 212, 150
-0.998415, 105, 223, 136, 238
-0.998416, 61, 39, 92, 54
-0.998417, 17, 29, 48, 44
-0.998417, 413, 11, 444, 26
-0.998417, 57, 49, 88, 64
-0.998417, 109, 199, 140, 214
-0.998417, 73, 59, 104, 74
-0.998417, 325, 203, 356, 218
-0.998417, 161, 137, 192, 152
-0.998418, 241, 297, 272, 312
-0.998418, 161, 191, 224, 206
-0.998419, 441, 1, 472, 16
-0.998419, 93, 207, 124, 222
-0.99842, 285, 5, 316, 20
-0.99842, 189, 171, 220, 186
-0.99842, 41, 65, 72, 80
-0.998422, 197, 155, 228, 170
-0.998424, 325, 147, 356, 162
-0.998425, 213, 21, 244, 36
-0.998425, 245, 153, 276, 168
-0.998426, 309, 231, 340, 246
-0.998426, 273, 89, 400, 120
-0.998426, 125, 141, 156, 156
-0.998427, 321, 293, 448, 324
-0.998427, 301, 239, 332, 254
-0.998428, 57, 61, 88, 76
-0.998428, 89, 235, 120, 250
-0.998428, 305, 179, 336, 194
-0.998429, 169, 193, 200, 208
-0.99843, 209, 169, 240, 184
-0.99843, 133, 21, 164, 36
-0.998432, 273, 291, 304, 306
-0.998435, 249, 13, 280, 28
-0.998437, 221, 301, 252, 316
-0.998438, 357, 149, 388, 164
-0.998438, 29, 67, 60, 82
-0.998438, 281, 181, 312, 196
-0.998443, 369, 171, 400, 186
-0.998444, 309, 129, 340, 375
-0.998445, 169, 173, 200, 188
-0.998445, 129, 159, 160, 174
-0.99845, 369, 193, 400, 208
-0.99845, 225, 21, 256, 36
-0.998451, 33, 333, 160, 364
-0.998453, 177, 129, 240, 144
-0.998454, 229, 129, 260, 375
-0.998455, 357, 187, 388, 202
-0.998456, 345, 203, 376, 218
-0.998456, 177, 143, 208, 158
-0.998457, 213, 221, 244, 236
-0.998457, 221, 179, 252, 194
-0.998458, 345, 199, 408, 214
-0.998458, 353, 249, 480, 280
-0.998458, 253, 289, 284, 304
-0.998459, 121, 203, 152, 218
-0.998459, 205, 43, 236, 58
-0.99846, 337, 185, 400, 200
-0.99846, 157, 157, 188, 172
-0.998463, 373, 149, 404, 164
-0.998463, 281, 183, 344, 198
-0.998463, 221, 153, 252, 168
-0.998463, 269, 283, 300, 298
-0.998464, 357, 195, 388, 210
-0.998465, 265, 51, 296, 66
-0.998467, 433, 7, 464, 22
-0.998467, 277, 15, 308, 30
-0.998469, 121, 153, 152, 168
-0.99847, 93, 229, 124, 244
-0.998475, 149, 303, 180, 318
-0.998475, 181, 183, 212, 198
-0.998475, 177, 185, 240, 200
-0.998478, 193, 177, 224, 192
-0.998478, 173, 165, 204, 180
-0.998478, 169, 187, 200, 202
-0.998479, 209, 195, 240, 210
-0.99848, 269, 5, 300, 20
-0.998482, 245, 49, 276, 64
-0.998482, 157, 189, 188, 204
-0.998483, 233, 15, 296, 30
-0.998483, 77, 49, 108, 64
-0.998483, 233, 155, 264, 170
-0.998489, 301, 5, 332, 20
-0.998491, 337, 145, 400, 160
-0.998493, 177, 129, 208, 375
-0.998493, 353, 179, 416, 194
-0.998494, 257, 9, 320, 24
-0.998497, 105, 209, 136, 224
-0.998497, 121, 193, 152, 208
-0.998501, 305, 233, 368, 248
-0.998502, 161, 129, 192, 375
-0.998505, 313, 187, 376, 202
-0.998506, 409, 3, 472, 18
-0.998507, 137, 153, 168, 168
-0.998507, 377, 181, 408, 196
-0.998509, 61, 55, 92, 70
-0.998509, 365, 207, 396, 222
-0.99851, 225, 151, 288, 166
-0.998512, 193, 179, 256, 194
-0.998515, 265, 199, 328, 214
-0.998515, 161, 149, 224, 164
-0.998516, 185, 199, 248, 214
-0.998518, 233, 55, 296, 70
-0.998519, 209, 189, 240, 204
-0.998519, 289, 11, 320, 26
-0.99852, 273, 189, 336, 204
-0.998521, 49, 59, 112, 74
-0.998521, 129, 147, 160, 162
-0.998523, 373, 199, 404, 214
-0.998525, 321, 201, 384, 216
-0.998526, 381, 175, 412, 190
-0.998526, 49, 47, 112, 62
-0.998527, 305, 227, 368, 242
-0.998527, 241, 293, 304, 308
-0.998527, 137, 305, 200, 320
-0.998528, 321, 233, 352, 248
-0.998529, 181, 189, 212, 204
-0.998531, 285, 187, 316, 202
-0.998531, 333, 197, 364, 212
-0.998532, 397, 161, 428, 288
-0.998533, 377, 97, 408, 352
-0.998533, 357, 143, 388, 158
-0.998533, 161, 179, 224, 194
-0.998534, 273, 205, 304, 220
-0.998535, 281, 193, 312, 208
-0.998535, 105, 167, 168, 182
-0.998536, 113, 151, 176, 166
-0.998536, 333, 227, 364, 242
-0.998539, 329, 225, 392, 240
-0.998539, 433, 1, 496, 16
-0.998541, 129, 141, 192, 156
-0.998543, 329, 233, 392, 248
-0.998543, 217, 47, 280, 62
-0.998544, 281, 15, 344, 30
-0.998544, 345, 197, 376, 212
-0.998545, 81, 213, 144, 228
-0.998546, 201, 187, 264, 202
-0.998547, 169, 155, 232, 170
-0.998549, 265, 205, 328, 220
-0.99855, 305, 193, 368, 208
-0.998551, 353, 181, 384, 196
-0.998553, 297, 3, 360, 18
-0.998553, 121, 157, 184, 172
-0.998554, 113, 205, 176, 220
-0.998555, 153, 15, 216, 30
-0.998555, 137, 189, 200, 204
-0.998555, 277, 199, 308, 214
-0.998561, 129, 131, 192, 146
-0.998561, 345, 205, 408, 220
-0.998562, 257, 47, 320, 62
-0.998563, 257, 3, 320, 18
-0.998563, 201, 157, 264, 172
-0.998564, 345, 189, 376, 204
-0.998565, 169, 135, 232, 150
-0.998566, 69, 129, 100, 375
-0.998568, 369, 173, 432, 188
-0.998568, 297, 257, 360, 272
-0.998569, 57, 53, 120, 68
-0.99857, 313, 141, 376, 156
-0.998574, 9, 1, 40, 256
-0.998574, 113, 219, 176, 234
-0.998576, 197, 197, 228, 212
-0.998577, 369, 143, 400, 158
-0.998578, 249, 287, 312, 302
-0.998578, 97, 161, 160, 176
-0.998579, 169, 141, 232, 156
-0.998579, 281, 149, 344, 164
-0.99858, 281, 55, 344, 70
-0.99858, 329, 179, 392, 194
-0.998581, 289, 241, 352, 256
-0.998581, 81, 207, 144, 222
-0.998581, 201, 299, 264, 314
-0.998583, 321, 207, 384, 222
-0.998584, 9, 67, 72, 82
-0.998584, 193, 43, 256, 58
-0.998585, 257, 53, 320, 68
-0.998585, 33, 65, 96, 80
-0.998585, 329, 239, 392, 254
-0.998586, 257, 15, 320, 30
-0.998587, 337, 151, 400, 166
-0.998589, 361, 185, 424, 200
-0.99859, 33, 41, 96, 56
-0.99859, 241, 145, 304, 160
-0.99859, 305, 179, 368, 194
-0.998591, 201, 149, 264, 164
-0.998591, 361, 191, 424, 206
-0.998592, 201, 137, 264, 152
-0.998593, 233, 9, 296, 24
-0.998594, 217, 39, 280, 54
-0.998595, 97, 173, 160, 188
-0.998597, 241, 185, 304, 200
-0.998597, 145, 163, 208, 178
-0.998597, 297, 201, 360, 216
-0.998598, 137, 195, 200, 210
-0.9986, 17, 55, 80, 70
-0.9986, 353, 3, 416, 18
-0.9986, 57, 299, 120, 314
-0.998602, 89, 27, 152, 42
-0.998603, 185, 193, 248, 208
-0.998603, 169, 163, 232, 178
-0.998603, 313, 147, 376, 162
-0.998604, 293, 179, 324, 194
-0.998604, 369, 187, 400, 202
-0.998605, 197, 187, 228, 202
-0.998606, 425, 37, 488, 52
-0.998607, 273, 143, 336, 158
-0.998607, 281, 9, 344, 24
-0.998607, 185, 21, 248, 36
-0.998607, 313, 173, 376, 188
-0.998608, 129, 15, 192, 30
-0.998609, 209, 61, 272, 76
-0.998609, 33, 27, 96, 42
-0.99861, 177, 303, 240, 318
-0.998611, 281, 177, 344, 192
-0.998612, 121, 213, 184, 228
-0.998613, 369, 157, 432, 172
-0.998613, 65, 167, 128, 182
-0.998613, 25, 47, 88, 62
-0.998615, 385, 1, 448, 16
-0.998615, 425, 11, 488, 26
-0.998616, 361, 143, 424, 158
-0.998616, 153, 173, 216, 188
-0.998617, 137, 147, 200, 162
-0.998617, 41, 325, 104, 340
-0.998618, 185, 51, 248, 66
-0.998619, 249, 151, 312, 166
-0.998619, 97, 191, 160, 206
-0.998619, 281, 49, 344, 64
-0.99862, 205, 179, 236, 194
-0.99862, 201, 163, 264, 178
-0.99862, 209, 55, 272, 70
-0.99862, 17, 229, 144, 260
-0.998621, 273, 131, 336, 146
-0.998622, 393, 13, 456, 28
-0.998622, 209, 31, 272, 46
-0.998622, 57, 27, 120, 42
-0.998622, 137, 125, 200, 140
-0.998623, 1, 217, 64, 232
-0.998624, 9, 27, 72, 42
-0.998625, 201, 173, 264, 188
-0.998625, 417, 27, 480, 42
-0.998634, 1, 297, 128, 328
-0.998638, 365, 177, 396, 192
-0.998651, 133, 129, 164, 375
-0.998661, 113, 249, 240, 280
-0.998693, 257, 33, 288, 288
-0.998696, 1, 245, 128, 276
-0.998732, 273, 101, 400, 132
-0.99874, 1, 161, 32, 288
-0.998758, 369, 125, 496, 156
-0.998784, 261, 129, 292, 375
-0.998819, 81, 97, 112, 352
-0.998819, 257, 117, 384, 148
-0.998827, 1, 309, 128, 340
-0.9989, 117, 145, 132, 272
-0.99891, 111, 161, 126, 288
-0.998924, 259, 1, 274, 128
-0.998946, 253, 1, 268, 128
-0.998954, 73, 1, 104, 256
-0.998963, 241, 113, 256, 240
-0.998993, 235, 1, 250, 128
-0.999007, 241, 129, 272, 375
-0.999035, 389, 129, 404, 256
-0.999039, 355, 177, 370, 304
-0.999044, 289, 1, 304, 128
-0.999055, 121, 193, 136, 320
-0.999056, 49, 1, 80, 256
-0.999067, 143, 145, 158, 272
-0.999069, 103, 177, 118, 304
-0.999085, 183, 113, 198, 240
-0.999086, 285, 177, 300, 304
-0.999094, 367, 177, 382, 304
-0.999104, 5, 1, 20, 128
-0.999104, 157, 1, 172, 128
-0.999119, 291, 161, 306, 288
-0.99912, 125, 145, 140, 272
-0.999137, 247, 1, 262, 128
-0.999141, 125, 97, 140, 224
-0.999143, 383, 145, 398, 272
-0.999148, 375, 129, 390, 256
-0.999149, 321, 1, 352, 256
-0.999164, 173, 113, 188, 240
-0.999166, 361, 145, 376, 272
-0.999168, 279, 177, 294, 304
-0.999173, 231, 129, 246, 256
-0.999176, 21, 1, 52, 256
-0.999177, 67, 1, 82, 128
-0.999191, 325, 145, 340, 272
-0.999192, 209, 113, 224, 240
-0.999197, 91, 225, 106, 352
-0.999201, 301, 113, 316, 240
-0.999201, 91, 177, 106, 304
-0.999201, 321, 49, 384, 176
-0.999214, 83, 177, 98, 304
-0.999215, 223, 145, 238, 272
-0.999223, 243, 49, 258, 176
-0.999224, 325, 225, 340, 352
-0.99923, 203, 145, 218, 272
-0.999232, 283, 129, 298, 256
-0.999233, 231, 81, 246, 208
-0.999234, 241, 1, 256, 128
-0.999235, 179, 1, 194, 128
-0.999237, 33, 1, 64, 256
-0.999237, 225, 1, 240, 128
-0.999239, 247, 129, 262, 256
-0.999244, 21, 1, 36, 128
-0.999256, 295, 113, 310, 240
-0.999257, 165, 1, 180, 128
-0.999258, 299, 177, 314, 304
-0.999261, 97, 177, 112, 304
-0.999261, 69, 241, 84, 368
-0.999265, 383, 1, 398, 128
-0.999269, 265, 1, 280, 128
-0.999275, 185, 1, 200, 128
-0.999275, 101, 17, 116, 144
-0.999277, 171, 1, 186, 128
-0.999283, 345, 225, 360, 352
-0.999284, 309, 225, 324, 352
-0.999284, 273, 193, 288, 320
-0.99929, 191, 113, 206, 240
-0.999291, 217, 97, 232, 224
-0.999293, 133, 1, 148, 128
-0.999294, 295, 1, 310, 128
-0.999296, 11, 1, 26, 128
-0.999296, 151, 145, 166, 272
-0.999298, 133, 113, 148, 240
-0.999301, 319, 145, 334, 272
-0.999309, 113, 209, 128, 336
-0.999313, 61, 17, 76, 144
-0.999322, 377, 1, 392, 128
-0.999322, 353, 225, 368, 352
-0.999326, 143, 1, 158, 128
-0.999328, 283, 17, 298, 144
-0.999331, 143, 225, 158, 352
-0.999333, 99, 225, 114, 352
-0.999334, 333, 33, 364, 288
-0.999334, 95, 17, 110, 144
-0.999336, 315, 225, 330, 352
-0.999337, 77, 17, 92, 144
-0.999337, 109, 17, 124, 144
-0.999338, 395, 129, 410, 256
-0.999338, 237, 161, 252, 288
-0.999339, 289, 113, 304, 240
-0.999344, 277, 1, 292, 128
-0.999345, 81, 81, 208, 144
-0.999346, 163, 129, 178, 256
-0.999347, 123, 17, 138, 144
-0.999351, 45, 129, 76, 375
-0.999353, 271, 129, 286, 256
-0.999354, 197, 113, 212, 240
-0.999356, 337, 209, 352, 336
-0.999362, 77, 241, 92, 368
-0.999375, 71, 177, 86, 304
-0.999377, 117, 17, 132, 144
-0.999385, 61, 177, 76, 304
-0.999391, 125, 241, 140, 368
-0.999396, 271, 1, 286, 128
-0.999398, 341, 1, 356, 128
-0.999399, 301, 225, 316, 352
-0.999416, 485, 1, 500, 128
-0.999417, 369, 129, 384, 256
-0.999425, 151, 1, 166, 128
-0.999425, 149, 225, 164, 352
-0.999426, 337, 145, 352, 272
-0.999426, 377, 177, 392, 304
-0.999426, 401, 113, 416, 240
-0.999433, 207, 1, 222, 128
-0.999435, 133, 241, 148, 368
-0.999435, 237, 65, 252, 192
-0.999436, 191, 1, 206, 128
-0.999436, 209, 177, 224, 304
-0.999439, 331, 225, 346, 352
-0.999439, 127, 193, 142, 320
-0.999442, 31, 1, 46, 128
-0.999445, 157, 129, 172, 256
-0.999448, 277, 129, 292, 256
-0.99945, 219, 1, 234, 128
-0.999452, 361, 193, 376, 320
-0.999452, 313, 129, 328, 256
-0.999458, 77, 161, 92, 288
-0.99946, 133, 65, 148, 192
-0.999461, 97, 129, 112, 256
-0.999462, 353, 1, 384, 256
-0.999464, 83, 225, 98, 352
-0.999465, 301, 1, 316, 128
-0.99947, 55, 1, 70, 128
-0.999474, 441, 113, 456, 240
-0.999475, 107, 225, 122, 352
-0.999476, 217, 145, 232, 272
-0.999481, 37, 1, 52, 128
-0.999481, 175, 161, 190, 288
-0.999483, 53, 145, 68, 272
-0.999483, 137, 161, 152, 288
-0.999486, 349, 145, 364, 272
-0.999486, 389, 1, 404, 128
-0.999488, 1, 105, 500, 168
-0.9995, 397, 97, 428, 352
-0.999571, 145, 97, 176, 352
-0.999596, 437, 7, 452, 22
-0.999597, 137, 153, 152, 168
-0.999597, 289, 53, 304, 68
-0.999597, 131, 157, 146, 172
-0.999598, 115, 207, 130, 222
-0.999599, 175, 149, 190, 164
-0.999599, 283, 201, 298, 216
-0.9996, 185, 191, 200, 206
-0.9996, 429, 11, 444, 26
-0.999601, 107, 165, 122, 180
-0.999601, 243, 159, 258, 174
-0.999601, 243, 297, 258, 312
-0.999602, 111, 201, 126, 216
-0.999603, 217, 219, 232, 234
-0.999603, 309, 267, 324, 282
-0.999604, 143, 147, 158, 162
-0.999605, 271, 205, 286, 220
-0.999605, 161, 151, 176, 166
-0.999606, 301, 13, 316, 28
-0.999607, 137, 147, 152, 162
-0.999608, 147, 165, 162, 180
-0.999609, 279, 217, 294, 232
-0.999609, 253, 151, 268, 166
-0.99961, 109, 207, 124, 222
-0.99961, 215, 171, 230, 186
-0.999611, 393, 171, 408, 186
-0.999611, 383, 191, 398, 206
-0.999613, 241, 151, 256, 166
-0.999613, 129, 133, 144, 148
-0.999613, 193, 193, 208, 208
-0.999616, 175, 195, 190, 210
-0.999616, 383, 159, 398, 174
-0.999616, 31, 69, 46, 84
-0.999617, 167, 155, 182, 170
-0.999617, 275, 283, 290, 298
-0.999618, 63, 55, 78, 70
-0.999618, 153, 299, 168, 314
-0.999618, 197, 187, 212, 202
-0.999619, 175, 183, 190, 198
-0.999619, 109, 177, 124, 192
-0.999619, 389, 149, 404, 164
-0.999621, 307, 179, 322, 194
-0.999622, 229, 21, 244, 36
-0.999623, 23, 29, 38, 44
-0.999623, 373, 149, 388, 164
-0.999623, 129, 195, 144, 210
-0.999625, 167, 189, 182, 204
-0.999626, 377, 187, 392, 202
-0.999627, 375, 173, 390, 188
-0.999628, 371, 187, 386, 202
-0.999631, 101, 27, 116, 42
-0.999631, 383, 153, 398, 168
-0.999632, 387, 179, 402, 194
-0.999633, 277, 197, 292, 212
-0.999633, 221, 23, 236, 38
-0.999633, 289, 277, 304, 292
-0.999633, 305, 5, 320, 20
-0.999633, 361, 181, 376, 196
-0.999633, 295, 9, 310, 24
-0.999634, 291, 19, 306, 34
-0.999634, 335, 233, 350, 248
-0.999635, 323, 233, 338, 248
-0.999635, 339, 225, 354, 240
-0.999635, 387, 199, 402, 214
-0.999637, 255, 47, 270, 62
-0.999638, 391, 161, 406, 176
-0.999639, 317, 239, 332, 254
-0.999642, 273, 211, 288, 226
-0.999643, 95, 229, 110, 244
-0.999644, 365, 191, 380, 206
-0.999645, 309, 237, 324, 252
-0.999646, 247, 153, 262, 168
-0.999646, 211, 155, 226, 170
-0.999647, 177, 139, 192, 154
-0.999647, 127, 203, 142, 218
-0.999648, 377, 167, 392, 182
-0.999648, 369, 205, 384, 220
-0.999649, 345, 227, 360, 242
-0.999652, 283, 283, 298, 298
-0.999652, 183, 163, 198, 178
-0.999654, 217, 197, 232, 212
-0.999654, 223, 217, 238, 232
-0.999655, 175, 167, 190, 182
-0.999656, 203, 171, 218, 186
-0.999657, 355, 185, 370, 200
-0.99966, 179, 189, 194, 204
-0.999662, 187, 185, 202, 200
-0.999662, 125, 107, 140, 122
-0.999663, 131, 147, 146, 162
-0.999663, 265, 287, 280, 302
-0.999664, 121, 205, 136, 220
-0.999665, 361, 197, 376, 212
-0.999666, 115, 163, 130, 178
-0.999667, 425, 97, 456, 352
-0.999668, 345, 197, 360, 212
-0.99967, 111, 171, 126, 186
-0.99967, 325, 239, 340, 254
-0.999671, 199, 193, 214, 208
-0.999671, 119, 213, 134, 228
-0.999673, 235, 155, 250, 170
-0.999675, 135, 193, 150, 208
-0.999676, 217, 189, 232, 204
-0.99968, 283, 195, 298, 210
-0.99968, 301, 179, 316, 194
-0.999681, 177, 161, 192, 176
-0.999683, 199, 181, 214, 196
-0.999686, 211, 195, 226, 210
-0.999689, 363, 145, 378, 160
-0.999689, 387, 169, 402, 184
-0.999691, 121, 155, 136, 170
-0.999692, 355, 201, 370, 216
-0.999693, 379, 145, 394, 160
-0.999695, 391, 205, 406, 220
-0.999705, 289, 183, 304, 198
-0.999705, 369, 177, 384, 192
-0.999714, 277, 205, 292, 220
-0.999726, 377, 181, 392, 196
-0.999726, 295, 179, 310, 194
-0.999728, 221, 179, 236, 194
-0.999731, 125, 149, 140, 164
-0.999731, 205, 193, 220, 208
-0.999734, 351, 191, 366, 206
-0.999736, 285, 189, 300, 204
-0.999742, 381, 175, 396, 190
-0.999746, 173, 189, 188, 204
-0.999752, 213, 181, 228, 196
-0.999758, 203, 187, 218, 202
-0.99976, 211, 189, 226, 204
-0.999769, 207, 177, 222, 192
-0.999773, 373, 143, 388, 158
-0.999808, 317, 231, 332, 246
-0.999814, 57, 97, 88, 352
-0.999822, 437, 97, 468, 352
-0.999878, 465, 97, 496, 352
-0.999908, 433, 161, 496, 288
-0.999911, 409, 97, 440, 352
-1.00009, 33, 97, 64, 352
-1.00022, 21, 129, 52, 375
-1.00032, 449, 97, 480, 352
-1.00041, 1, 65, 500, 128
-1.00054, 9, 129, 40, 375
-1.00058, 305, 305, 432, 368
-1.0016, 337, 73, 464, 136
-1.00263, 353, 313, 480, 375
-1.01159, 377, 209, 440, 336
-1.01358, 425, 225, 488, 352
-1.01406, 401, 225, 464, 352
