1950
-0.453462, 1, 97, 500, 352
-0.580378, 1, 1, 500, 256
-0.621736, 1, 1, 500, 356
-0.625663, 97, 97, 352, 352
-0.655518, 97, 1, 352, 356
-0.658105, 1, 1, 256, 356
-0.70102, 193, 1, 448, 356
-0.712518, 1, 97, 256, 352
-0.737996, 193, 97, 448, 352
-0.849189, 177, 97, 304, 352
-0.861216, 1, 1, 256, 256
-0.880464, 193, 1, 448, 256
-0.884509, 81, 97, 208, 352
-0.885339, 129, 33, 256, 288
-0.895061, 225, 97, 352, 352
-0.898076, 177, 1, 304, 356
-0.898542, 97, 1, 352, 256
-0.905586, 97, 1, 224, 356
-0.914196, 225, 1, 352, 356
-0.914267, 1, 209, 500, 336
-0.918347, 289, 97, 416, 352
-0.91944, 129, 225, 384, 352
-0.919648, 33, 65, 160, 320
-0.921277, 49, 1, 176, 356
-0.922281, 1, 145, 500, 272
-0.924898, 177, 1, 304, 256
-0.930228, 129, 209, 256, 336
-0.930923, 33, 209, 288, 336
-0.93214, 129, 161, 384, 288
-0.933264, 1, 1, 128, 356
-0.9358, 161, 209, 224, 336
-0.936208, 225, 1, 352, 256
-0.938479, 305, 1, 432, 356
-0.940246, 225, 225, 480, 352
-0.940619, 81, 209, 208, 336
-0.941009, 137, 209, 200, 336
-0.942091, 185, 193, 248, 320
-0.94252, 97, 113, 352, 240
-0.943942, 1, 97, 500, 224
-0.944152, 353, 97, 480, 352
-0.944767, 369, 1, 496, 356
-0.945009, 225, 209, 288, 336
-0.945578, 225, 225, 352, 352
-0.946271, 113, 225, 176, 352
-0.946302, 249, 209, 312, 336
-0.947424, 137, 161, 200, 288
-0.947712, 81, 1, 208, 256
-0.948628, 97, 65, 352, 192
-0.949022, 177, 209, 304, 336
-0.949557, 145, 161, 272, 288
-0.950074, 1, 129, 256, 256
-0.952376, 113, 65, 240, 192
-0.952436, 81, 257, 144, 320
-0.952585, 97, 161, 224, 288
-0.952778, 161, 161, 224, 288
-0.953401, 161, 273, 224, 336
-0.955259, 273, 209, 336, 336
-0.955278, 161, 97, 288, 224
-0.955465, 121, 241, 184, 304
-0.955874, 17, 209, 144, 336
-0.956569, 97, 225, 160, 288
-0.957205, 201, 97, 264, 224
-0.957321, 201, 273, 264, 336
-0.95832, 73, 209, 136, 336
-0.958404, 225, 177, 480, 304
-0.958553, 185, 145, 248, 272
-0.959155, 1, 81, 256, 208
-0.959698, 49, 145, 176, 272
-0.959848, 113, 113, 240, 240
-0.959896, 145, 201, 208, 264
-0.959944, 193, 145, 320, 272
-0.960499, 169, 201, 232, 264
-0.960583, 233, 161, 296, 288
-0.960666, 273, 225, 400, 352
-0.960704, 161, 113, 224, 240
-0.960943, 145, 233, 208, 296
-0.961014, 193, 225, 256, 288
-0.961123, 137, 273, 200, 336
-0.961214, 273, 1, 400, 256
-0.963844, 225, 113, 480, 240
-0.96398, 241, 241, 304, 304
-0.964371, 177, 49, 240, 176
-0.965097, 1, 49, 500, 176
-0.965577, 369, 1, 496, 256
-0.965779, 209, 105, 272, 168
-0.966369, 209, 249, 272, 312
-0.96669, 225, 113, 288, 240
-0.966776, 209, 161, 272, 288
-0.966804, 129, 65, 192, 192
-0.967025, 113, 265, 176, 328
-0.967318, 281, 225, 344, 288
-0.967622, 121, 81, 184, 144
-0.967948, 169, 225, 232, 288
-0.968066, 121, 201, 184, 264
-0.968418, 161, 225, 192, 352
-0.968997, 153, 65, 216, 192
-0.969507, 225, 289, 288, 352
-0.969839, 225, 209, 288, 272
-0.970299, 265, 161, 328, 288
-0.970345, 281, 289, 344, 352
-0.970813, 145, 241, 176, 304
-0.970881, 49, 233, 112, 296
-0.971003, 73, 209, 136, 272
-0.97112, 113, 177, 176, 304
-0.971138, 297, 193, 360, 320
-0.971395, 33, 193, 96, 320
-0.971867, 161, 33, 288, 160
-0.971899, 121, 113, 184, 240
-0.972036, 65, 225, 192, 288
-0.972182, 241, 177, 368, 304
-0.972731, 353, 193, 480, 320
-0.972998, 233, 129, 296, 192
-0.973, 133, 209, 164, 336
-0.97306, 129, 249, 160, 312
-0.973131, 249, 289, 312, 352
-0.973167, 129, 17, 384, 144
-0.973276, 185, 209, 216, 336
-0.973457, 169, 177, 200, 304
-0.973743, 225, 193, 256, 320
-0.973804, 237, 249, 268, 312
-0.974141, 193, 193, 256, 256
-0.974185, 65, 185, 128, 248
-0.974461, 25, 201, 88, 264
-0.974803, 65, 249, 192, 312
-0.975114, 145, 265, 272, 328
-0.97514, 289, 177, 416, 304
-0.975171, 145, 225, 176, 352
-0.975396, 321, 1, 448, 256
-0.975462, 289, 257, 352, 320
-0.975565, 129, 65, 192, 320
-0.975769, 201, 177, 232, 304
-0.975787, 129, 57, 192, 120
-0.975817, 161, 177, 224, 240
-0.975997, 345, 193, 408, 320
-0.976106, 129, 201, 256, 264
-0.976225, 177, 97, 240, 352
-0.976436, 201, 49, 264, 176
-0.976597, 249, 217, 312, 280
-0.976814, 189, 265, 220, 328
-0.976983, 185, 73, 248, 136
-0.976994, 133, 225, 164, 288
-0.977098, 65, 81, 192, 208
-0.977115, 113, 17, 240, 144
-0.977142, 157, 265, 188, 328
-0.977157, 213, 209, 244, 336
-0.977192, 217, 265, 248, 328
-0.977262, 81, 249, 112, 312
-0.977293, 113, 289, 176, 352
-0.97732, 377, 177, 440, 304
-0.977393, 177, 289, 304, 352
-0.977495, 81, 273, 208, 336
-0.977526, 1, 1, 500, 128
-0.977762, 113, 225, 144, 288
-0.977886, 225, 265, 352, 328
-0.978093, 221, 233, 252, 296
-0.978187, 1, 33, 256, 160
-0.978257, 201, 137, 264, 200
-0.978296, 157, 201, 188, 264
-0.978302, 201, 193, 232, 256
-0.978421, 185, 97, 248, 160
-0.978431, 113, 73, 240, 136
-0.978442, 153, 161, 184, 288
-0.978465, 105, 65, 168, 192
-0.978484, 193, 65, 448, 192
-0.978515, 113, 241, 240, 304
-0.97859, 1, 161, 128, 288
-0.978603, 89, 161, 152, 288
-0.978616, 141, 265, 172, 328
-0.978757, 289, 201, 352, 264
-0.978857, 177, 33, 240, 96
-0.978955, 209, 241, 336, 304
-0.97909, 65, 233, 96, 296
-0.979095, 65, 161, 128, 288
-0.979111, 49, 201, 176, 264
-0.979131, 169, 265, 200, 328
-0.979152, 205, 273, 236, 336
-0.979199, 233, 97, 296, 352
-0.979314, 241, 265, 304, 328
-0.979627, 241, 129, 368, 256
-0.979707, 105, 65, 168, 320
-0.979896, 305, 281, 368, 344
-0.980016, 229, 281, 260, 344
-0.980239, 161, 113, 224, 176
-0.980294, 57, 209, 88, 336
-0.980376, 137, 177, 200, 240
-0.98042, 157, 241, 188, 304
-0.98056, 257, 233, 384, 296
-0.9806, 161, 57, 224, 120
-0.980701, 185, 249, 248, 312
-0.980761, 269, 209, 300, 336
-0.980785, 201, 169, 264, 232
-0.98079, 241, 289, 368, 352
-0.980859, 173, 225, 204, 288
-0.980873, 153, 65, 216, 320
-0.980894, 145, 209, 176, 272
-0.980915, 173, 201, 204, 264
-0.980975, 113, 209, 144, 336
-0.981046, 221, 97, 252, 160
-0.981447, 241, 209, 272, 336
-0.981484, 309, 209, 340, 336
-0.981521, 109, 257, 140, 320
-0.98155, 113, 105, 240, 168
-0.981669, 201, 33, 264, 288
-0.981827, 173, 225, 204, 352
-0.981988, 189, 161, 220, 288
-0.98213, 53, 209, 84, 272
-0.982149, 265, 265, 328, 328
-0.982156, 177, 209, 304, 272
-0.982164, 1, 217, 128, 280
-0.982182, 73, 193, 104, 320
-0.982423, 65, 193, 96, 256
-0.982431, 297, 225, 328, 352
-0.982595, 145, 81, 208, 144
-0.982618, 33, 145, 96, 272
-0.982691, 221, 65, 252, 128
-0.982792, 265, 193, 328, 256
-0.98287, 49, 209, 112, 272
-0.982892, 297, 225, 328, 288
-0.983081, 161, 233, 288, 296
-0.983154, 145, 177, 272, 240
-0.983287, 221, 193, 252, 256
-0.983309, 313, 209, 376, 272
-0.983313, 129, 273, 160, 336
-0.983494, 121, 121, 184, 184
-0.983541, 329, 257, 392, 320
-0.983582, 93, 249, 124, 312
-0.9837, 253, 209, 284, 336
-0.983766, 225, 169, 288, 232
-0.983775, 321, 193, 384, 320
-0.983804, 281, 233, 312, 296
-0.983887, 185, 193, 216, 256
-0.984, 209, 217, 240, 280
-0.984049, 177, 129, 304, 192
-0.984256, 125, 81, 156, 144
-0.984398, 225, 65, 352, 192
-0.984408, 17, 249, 144, 312
-0.984481, 253, 281, 284, 344
-0.984596, 233, 105, 264, 168
-0.984611, 81, 281, 144, 344
-0.984641, 249, 129, 280, 192
-0.984678, 81, 225, 112, 288
-0.984704, 225, 209, 352, 272
-0.984741, 133, 65, 164, 192
-0.984776, 145, 17, 208, 144
-0.984843, 85, 193, 116, 320
-0.984855, 9, 177, 72, 304
-0.984904, 201, 33, 264, 96
-0.984945, 209, 17, 336, 144
-0.985051, 233, 217, 264, 280
-0.985114, 73, 273, 104, 336
-0.985116, 401, 177, 464, 304
-0.985138, 161, 153, 224, 216
-0.985154, 285, 209, 316, 336
-0.985163, 277, 209, 308, 272
-0.985169, 257, 97, 320, 352
-0.985186, 161, 97, 288, 160
-0.985199, 81, 97, 144, 352
-0.985201, 193, 289, 224, 352
-0.985237, 305, 249, 432, 312
-0.985309, 241, 97, 272, 224
-0.985314, 145, 1, 208, 356
-0.985431, 73, 233, 136, 296
-0.985522, 265, 161, 328, 224
-0.985637, 305, 233, 368, 296
-0.985738, 209, 81, 240, 208
-0.98589, 57, 257, 120, 320
-0.985892, 129, 33, 256, 96
-0.985903, 149, 289, 180, 352
-0.985919, 201, 65, 232, 128
-0.985965, 225, 1, 480, 128
-0.985986, 233, 105, 296, 168
-0.986186, 97, 177, 224, 240
-0.986203, 249, 113, 312, 240
-0.986219, 289, 129, 416, 256
-0.986252, 169, 289, 200, 352
-0.986373, 101, 225, 132, 288
-0.98645, 289, 281, 416, 344
-0.986471, 329, 281, 360, 344
-0.986529, 309, 217, 340, 280
-0.986532, 157, 177, 188, 240
-0.986579, 193, 169, 320, 232
-0.986581, 97, 201, 160, 264
-0.986606, 281, 289, 312, 352
-0.986614, 253, 113, 284, 240
-0.986711, 137, 73, 168, 136
-0.98679, 273, 209, 400, 272
-0.986793, 257, 121, 320, 184
-0.98682, 105, 169, 168, 232
-0.986936, 433, 177, 496, 304
-0.987034, 209, 89, 240, 152
-0.987051, 257, 161, 288, 288
-0.987142, 289, 265, 320, 328
-0.987332, 49, 281, 112, 344
-0.987362, 325, 257, 356, 320
-0.987363, 313, 145, 376, 272
-0.987381, 129, 289, 256, 352
-0.987532, 253, 233, 284, 296
-0.98756, 281, 97, 344, 352
-0.987599, 133, 145, 164, 272
-0.987614, 277, 161, 308, 288
-0.987652, 97, 113, 160, 240
-0.987741, 249, 257, 280, 320
-0.987797, 169, 1, 232, 128
-0.987809, 1, 193, 128, 256
-0.987809, 309, 289, 340, 352
-0.98789, 209, 65, 272, 128
-0.98791, 57, 97, 120, 352
-0.987917, 241, 161, 272, 288
-0.987961, 177, 1, 240, 256
-0.988116, 217, 289, 248, 352
-0.988136, 101, 225, 132, 352
-0.988147, 329, 233, 392, 296
-0.988204, 49, 177, 176, 240
-0.988212, 201, 129, 232, 256
-0.988249, 201, 1, 264, 356
-0.98827, 33, 273, 160, 336
-0.988421, 369, 145, 496, 272
-0.988552, 105, 261, 168, 292
-0.988567, 145, 113, 176, 240
-0.988581, 189, 49, 220, 176
-0.988592, 213, 33, 244, 96
-0.988609, 269, 241, 300, 304
-0.988632, 221, 49, 252, 176
-0.988679, 133, 201, 164, 264
-0.98869, 161, 57, 192, 120
-0.988719, 201, 41, 232, 104
-0.988737, 305, 97, 368, 352
-0.988794, 137, 213, 200, 244
-0.988833, 65, 81, 192, 144
-0.98887, 189, 113, 220, 240
-0.988882, 153, 33, 216, 96
-0.988913, 173, 129, 204, 256
-0.98896, 129, 153, 192, 216
-0.989078, 369, 193, 432, 256
-0.989107, 229, 145, 260, 272
-0.989142, 181, 289, 212, 352
-0.989148, 325, 233, 356, 296
-0.989172, 201, 169, 232, 232
-0.989232, 153, 277, 216, 308
-0.989251, 233, 257, 296, 288
-0.989324, 157, 49, 188, 176
-0.989424, 353, 233, 416, 296
-0.989427, 81, 269, 144, 300
-0.98956, 297, 193, 328, 256
-0.989565, 121, 81, 152, 208
-0.989583, 145, 153, 272, 216
-0.989585, 45, 193, 76, 320
-0.989597, 209, 297, 272, 328
-0.989612, 145, 65, 176, 192
-0.989619, 161, 217, 224, 248
-0.989625, 57, 253, 120, 284
-0.989654, 257, 245, 320, 276
-0.989674, 337, 209, 400, 272
-0.989689, 201, 277, 264, 308
-0.989716, 121, 17, 184, 144
-0.989763, 185, 225, 216, 288
-0.989766, 169, 201, 232, 232
-0.989774, 313, 257, 344, 320
-0.98982, 169, 297, 232, 328
-0.989836, 145, 241, 208, 272
-0.989893, 77, 201, 108, 264
-0.989994, 321, 201, 448, 264
-0.990014, 65, 233, 320, 296
-0.990018, 145, 301, 208, 332
-0.990049, 185, 229, 248, 260
-0.990057, 129, 253, 192, 284
-0.990079, 113, 225, 176, 256
-0.990095, 213, 161, 244, 288
-0.990114, 89, 249, 152, 280
-0.990121, 177, 277, 240, 308
-0.990138, 65, 153, 192, 216
-0.990143, 237, 129, 268, 192
-0.990148, 129, 129, 256, 192
-0.990167, 229, 169, 260, 232
-0.990184, 245, 209, 276, 272
-0.990189, 177, 73, 304, 136
-0.990191, 129, 273, 192, 304
-0.990215, 313, 185, 376, 248
-0.99023, 241, 293, 304, 324
-0.990247, 97, 209, 352, 272
-0.990255, 245, 105, 276, 168
-0.990263, 1, 113, 128, 240
-0.990297, 209, 245, 272, 276
-0.990319, 201, 109, 264, 140
-0.990332, 145, 185, 176, 248
-0.990352, 177, 41, 304, 104
-0.990373, 221, 97, 252, 224
-0.990373, 25, 97, 88, 352
-0.990381, 185, 217, 248, 248
-0.990465, 225, 33, 288, 160
-0.990508, 113, 297, 176, 328
-0.990581, 401, 185, 464, 248
-0.99061, 201, 33, 232, 160
-0.99063, 121, 85, 184, 116
-0.990649, 97, 89, 160, 152
-0.990696, 201, 225, 232, 352
-0.990698, 1, 201, 64, 264
-0.990708, 65, 145, 96, 272
-0.99071, 281, 241, 344, 272
-0.990733, 209, 105, 336, 168
-0.990747, 241, 317, 304, 348
-0.99075, 41, 177, 104, 240
-0.990828, 193, 9, 256, 72
-0.990852, 325, 225, 356, 352
-0.990853, 321, 225, 448, 288
-0.990866, 289, 229, 352, 260
-0.990884, 73, 229, 136, 260
-0.990889, 265, 297, 328, 328
-0.990893, 289, 257, 352, 288
-0.990922, 129, 313, 192, 344
-0.990947, 193, 197, 256, 228
-0.990964, 113, 237, 176, 268
-0.990975, 145, 229, 208, 260
-0.990986, 209, 121, 272, 152
-0.991046, 225, 281, 288, 312
-0.991053, 113, 213, 176, 244
-0.991056, 345, 249, 376, 312
-0.991088, 61, 273, 92, 336
-0.991099, 233, 245, 296, 276
-0.991117, 33, 237, 96, 268
-0.991154, 265, 321, 328, 352
-0.991179, 121, 285, 184, 316
-0.991188, 201, 309, 264, 340
-0.991213, 177, 309, 240, 340
-0.991224, 97, 121, 160, 184
-0.991236, 129, 273, 384, 336
-0.991246, 137, 201, 200, 232
-0.991248, 233, 233, 296, 264
-0.991317, 209, 113, 240, 176
-0.991345, 1, 129, 64, 256
-0.991348, 185, 265, 248, 296
-0.991352, 137, 69, 200, 100
-0.991355, 65, 217, 128, 248
-0.991361, 273, 113, 336, 240
-0.991363, 153, 181, 216, 212
-0.991428, 225, 1, 288, 356
-0.991459, 425, 185, 488, 248
-0.991471, 305, 289, 368, 320
-0.991473, 289, 317, 352, 348
-0.991483, 269, 289, 300, 352
-0.991488, 81, 281, 144, 312
-0.991515, 105, 1, 168, 356
-0.991521, 169, 113, 232, 144
-0.991542, 105, 145, 168, 208
-0.99155, 201, 97, 264, 128
-0.991613, 25, 225, 88, 288
-0.991615, 369, 225, 432, 352
-0.991649, 289, 177, 352, 240
-0.991664, 145, 289, 208, 320
-0.991665, 73, 309, 136, 340
-0.991737, 329, 273, 392, 304
-0.991789, 265, 309, 328, 340
-0.991794, 81, 293, 144, 324
-0.9918, 189, 113, 220, 176
-0.991857, 369, 193, 496, 256
-0.991868, 161, 265, 224, 296
-0.991882, 209, 213, 272, 244
-0.991886, 265, 113, 296, 240
-0.991888, 293, 161, 324, 288
-0.991897, 337, 145, 400, 272
-0.991923, 57, 241, 120, 272
-0.991929, 177, 81, 240, 112
-0.99193, 241, 113, 304, 144
-0.991959, 241, 305, 304, 336
-0.991961, 225, 269, 288, 300
-0.991984, 193, 185, 256, 216
-0.992012, 289, 277, 352, 308
-0.992013, 201, 249, 232, 312
-0.992015, 233, 145, 296, 176
-0.992035, 121, 125, 184, 156
-0.992037, 257, 217, 320, 248
-0.992071, 49, 301, 112, 332
-0.992081, 113, 97, 176, 128
-0.992081, 117, 201, 148, 264
-0.992091, 105, 313, 168, 344
-0.992098, 329, 281, 392, 344
-0.992103, 261, 209, 292, 272
-0.992139, 377, 193, 408, 320
-0.992151, 1, 201, 256, 264
-0.992154, 233, 129, 296, 160
-0.992192, 177, 53, 240, 84
-0.992195, 33, 213, 96, 244
-0.992198, 217, 325, 280, 356
-0.992202, 33, 225, 96, 256
-0.992221, 117, 281, 148, 344
-0.992241, 225, 169, 288, 200
-0.992248, 193, 173, 256, 204
-0.992258, 89, 213, 152, 244
-0.99226, 297, 305, 360, 336
-0.992263, 161, 325, 224, 356
-0.992265, 97, 257, 128, 288
-0.992268, 169, 1, 232, 356
-0.992277, 209, 133, 272, 164
-0.992282, 241, 281, 272, 344
-0.992283, 1, 97, 64, 352
-0.992284, 257, 169, 320, 200
-0.99233, 305, 209, 368, 240
-0.992336, 329, 285, 392, 316
-0.99235, 249, 273, 312, 304
-0.992351, 129, 165, 192, 196
-0.992375, 193, 33, 256, 64
-0.992388, 137, 257, 168, 288
-0.992409, 77, 253, 108, 284
-0.99241, 285, 241, 316, 272
-0.992411, 145, 117, 208, 148
-0.992418, 209, 273, 240, 304
-0.992423, 129, 189, 192, 220
-0.992429, 329, 257, 392, 288
-0.992434, 153, 57, 216, 88
-0.992435, 201, 217, 232, 248
-0.992442, 189, 277, 220, 308
-0.992447, 41, 201, 72, 264
-0.99246, 249, 157, 312, 188
-0.992465, 265, 205, 328, 236
-0.992471, 161, 153, 224, 184
-0.992475, 257, 257, 320, 288
-0.992479, 265, 285, 328, 316
-0.992482, 177, 93, 240, 124
-0.992485, 265, 249, 296, 280
-0.99249, 193, 161, 256, 192
-0.992499, 241, 245, 272, 276
-0.99251, 225, 241, 256, 272
-0.992521, 53, 185, 84, 248
-0.992523, 201, 293, 232, 324
-0.992527, 217, 181, 280, 212
-0.992531, 117, 261, 148, 292
-0.992538, 149, 57, 180, 120
-0.992539, 41, 281, 104, 312
-0.99255, 189, 289, 220, 320
-0.992554, 341, 273, 372, 336
-0.992557, 1, 257, 256, 320
-0.992568, 209, 225, 272, 256
-0.992574, 149, 249, 180, 280
-0.992596, 77, 177, 108, 240
-0.992596, 369, 249, 496, 312
-0.992596, 153, 169, 216, 200
-0.992602, 241, 261, 272, 292
-0.992603, 161, 277, 192, 308
-0.992606, 185, 241, 248, 272
-0.992609, 297, 237, 328, 268
-0.992612, 161, 97, 192, 224
-0.992622, 137, 105, 200, 136
-0.992636, 213, 229, 244, 260
-0.992655, 169, 69, 232, 100
-0.992666, 225, 293, 256, 324
-0.992667, 241, 289, 272, 320
-0.992669, 113, 109, 176, 140
-0.992673, 77, 277, 108, 308
-0.992678, 61, 237, 92, 268
-0.992684, 97, 173, 160, 204
-0.992686, 105, 273, 168, 304
-0.992694, 257, 233, 320, 264
-0.992698, 225, 33, 256, 96
-0.992702, 65, 129, 192, 192
-0.992706, 313, 193, 344, 256
-0.99271, 201, 145, 264, 176
-0.992714, 137, 237, 168, 268
-0.992719, 225, 269, 256, 300
-0.992734, 113, 201, 176, 232
-0.992734, 185, 169, 216, 232
-0.992741, 181, 217, 212, 248
-0.992745, 253, 293, 284, 324
-0.992748, 229, 281, 260, 312
-0.992757, 129, 221, 160, 252
-0.992767, 253, 249, 284, 280
-0.992774, 169, 97, 200, 160
-0.992779, 133, 81, 164, 112
-0.992781, 177, 277, 208, 308
-0.992786, 153, 229, 184, 260
-0.992792, 193, 65, 256, 96
-0.992795, 121, 121, 152, 184
-0.992804, 53, 217, 84, 248
-0.992805, 149, 269, 180, 300
-0.992815, 313, 245, 376, 276
-0.992822, 225, 197, 288, 228
-0.992822, 173, 229, 204, 260
-0.992828, 329, 269, 360, 300
-0.99283, 153, 313, 216, 344
-0.992839, 57, 205, 120, 236
-0.992841, 57, 1, 120, 356
-0.992841, 149, 301, 180, 332
-0.992855, 85, 265, 116, 296
-0.992869, 105, 269, 136, 300
-0.99287, 169, 125, 232, 156
-0.992874, 305, 225, 336, 256
-0.99288, 233, 213, 296, 244
-0.992887, 173, 201, 204, 232
-0.992891, 73, 241, 104, 272
-0.992901, 189, 305, 220, 336
-0.992917, 193, 17, 320, 80
-0.992931, 137, 269, 168, 300
-0.992931, 257, 125, 320, 156
-0.992932, 221, 97, 252, 128
-0.992939, 65, 293, 96, 324
-0.99294, 201, 45, 264, 76
-0.992944, 329, 289, 360, 320
-0.99295, 277, 265, 308, 328
-0.992952, 189, 197, 220, 228
-0.992959, 225, 213, 256, 244
-0.992959, 249, 129, 280, 160
-0.99296, 137, 281, 168, 312
-0.99296, 65, 213, 96, 244
-0.992962, 265, 297, 296, 328
-0.992963, 165, 309, 196, 340
-0.992966, 257, 177, 384, 240
-0.992976, 65, 265, 192, 296
-0.992978, 225, 129, 352, 192
-0.992978, 117, 217, 148, 248
-0.992995, 141, 209, 172, 240
-0.993006, 209, 257, 272, 288
-0.993017, 341, 273, 372, 304
-0.993022, 229, 225, 260, 256
-0.993026, 209, 197, 240, 228
-0.993026, 65, 33, 192, 160
-0.993027, 57, 265, 120, 296
-0.993036, 233, 109, 264, 140
-0.993044, 141, 69, 172, 100
-0.993046, 77, 301, 108, 332
-0.993048, 169, 213, 200, 244
-0.993051, 249, 313, 280, 344
-0.993069, 233, 305, 264, 336
-0.993075, 173, 293, 204, 324
-0.993076, 149, 281, 180, 312
-0.993078, 73, 229, 104, 260
-0.993078, 321, 321, 384, 352
-0.993078, 153, 81, 216, 112
-0.993079, 249, 117, 280, 148
-0.993081, 89, 305, 120, 336
-0.993082, 161, 241, 192, 272
-0.993084, 297, 321, 328, 352
-0.993085, 53, 145, 84, 272
-0.9931, 157, 189, 188, 220
-0.993101, 233, 121, 264, 152
-0.993102, 109, 249, 140, 280
-0.993103, 161, 65, 192, 96
-0.993111, 321, 257, 352, 288
-0.993114, 125, 289, 156, 320
-0.993116, 293, 221, 324, 252
-0.993119, 273, 237, 304, 268
-0.993123, 213, 285, 244, 316
-0.993124, 305, 293, 336, 324
-0.993126, 281, 305, 312, 336
-0.993131, 161, 297, 192, 328
-0.993136, 337, 281, 464, 344
-0.993137, 141, 225, 172, 256
-0.993139, 213, 297, 244, 328
-0.993142, 185, 229, 216, 260
-0.993144, 137, 297, 168, 328
-0.993155, 237, 325, 268, 356
-0.993156, 161, 241, 416, 304
-0.993156, 281, 293, 312, 324
-0.993171, 261, 237, 292, 268
-0.993173, 233, 193, 264, 256
-0.993175, 121, 101, 152, 132
-0.993179, 113, 161, 144, 288
-0.993186, 229, 253, 260, 284
-0.99319, 269, 321, 300, 352
-0.99321, 125, 249, 156, 280
-0.993215, 161, 265, 192, 296
-0.993233, 201, 305, 232, 336
-0.993238, 301, 305, 332, 336
-0.993238, 297, 253, 328, 284
-0.993243, 213, 57, 244, 88
-0.993245, 153, 201, 184, 232
-0.993249, 201, 229, 232, 260
-0.993251, 149, 121, 180, 184
-0.993253, 217, 69, 248, 100
-0.993259, 121, 89, 152, 120
-0.993259, 101, 309, 132, 340
-0.993261, 201, 185, 232, 216
-0.993264, 317, 313, 348, 344
-0.993267, 65, 201, 96, 232
-0.993268, 313, 213, 344, 244
-0.993269, 197, 217, 228, 280
-0.99327, 89, 245, 120, 276
-0.993275, 401, 97, 464, 352
-0.993282, 145, 153, 176, 216
-0.993286, 221, 193, 252, 224
-0.993291, 229, 181, 260, 212
-0.993292, 169, 325, 200, 356
-0.993301, 277, 273, 308, 304
-0.993302, 241, 169, 272, 200
-0.993302, 153, 217, 184, 248
-0.993304, 153, 169, 184, 200
-0.993305, 105, 221, 136, 252
-0.993307, 177, 117, 208, 148
-0.993313, 17, 169, 80, 232
-0.993317, 213, 209, 244, 240
-0.993319, 317, 289, 348, 320
-0.99332, 277, 253, 308, 284
-0.993324, 193, 113, 224, 144
-0.993331, 309, 257, 340, 288
-0.993335, 153, 313, 184, 344
-0.993341, 65, 281, 96, 312
-0.993346, 213, 113, 244, 144
-0.993353, 125, 273, 156, 304
-0.993362, 141, 185, 172, 216
-0.993364, 81, 289, 112, 320
-0.993404, 261, 137, 292, 200
-0.993428, 257, 1, 320, 356
-0.99346, 33, 105, 160, 168
-0.993463, 97, 185, 352, 248
-0.993658, 297, 289, 328, 352
-0.993725, 1, 225, 500, 288
-0.993808, 377, 249, 440, 312
-0.993809, 97, 201, 128, 264
-0.993813, 137, 121, 168, 184
-0.993822, 369, 129, 432, 256
-0.99383, 193, 201, 448, 264
-0.993878, 205, 145, 236, 208
-0.993902, 345, 97, 408, 352
-0.993916, 181, 33, 212, 96
-0.993916, 177, 33, 208, 160
-0.99397, 365, 193, 396, 320
-0.993993, 221, 121, 252, 184
-0.994131, 147, 225, 162, 288
-0.994175, 409, 177, 440, 304
-0.994185, 113, 277, 240, 308
-0.994207, 65, 229, 192, 260
-0.994256, 57, 113, 120, 240
-0.99429, 213, 169, 244, 232
-0.994299, 97, 145, 128, 272
-0.994309, 33, 1, 96, 356
-0.99434, 25, 257, 88, 320
-0.99436, 173, 81, 204, 208
-0.994395, 1, 281, 256, 344
-0.994432, 157, 97, 188, 160
-0.994443, 161, 237, 288, 268
-0.994461, 425, 177, 456, 304
-0.994483, 397, 193, 428, 320
-0.994484, 129, 221, 256, 252
-0.994484, 65, 97, 320, 160
-0.994496, 33, 193, 64, 320
-0.994538, 257, 249, 500, 312
-0.994539, 257, 105, 384, 168
-0.994572, 233, 49, 264, 176
-0.994587, 171, 265, 186, 328
-0.994651, 143, 249, 158, 312
-0.994658, 241, 245, 368, 276
-0.994676, 137, 249, 152, 312
-0.994686, 129, 289, 256, 320
-0.994709, 181, 193, 196, 256
-0.99471, 113, 97, 144, 160
-0.994716, 1, 177, 256, 240
-0.994738, 77, 145, 108, 272
-0.994765, 33, 57, 160, 120
-0.994782, 141, 225, 156, 288
-0.994813, 205, 265, 220, 328
-0.994817, 229, 225, 244, 288
-0.994896, 241, 1, 304, 256
-0.994904, 221, 265, 236, 328
-0.994908, 121, 33, 184, 96
-0.994952, 345, 185, 408, 248
-0.994959, 187, 193, 202, 256
-0.994964, 247, 249, 262, 312
-0.994965, 233, 25, 296, 88
-0.994972, 131, 265, 146, 328
-0.994995, 377, 65, 440, 320
-0.995021, 195, 265, 210, 328
-0.995037, 223, 201, 238, 264
-0.995054, 1, 201, 500, 264
-0.995057, 177, 225, 192, 288
-0.995091, 169, 169, 200, 232
-0.995098, 305, 161, 336, 288
-0.99511, 69, 201, 84, 264
-0.995138, 225, 325, 352, 356
-0.995179, 341, 193, 372, 320
-0.995184, 401, 113, 464, 240
-0.995202, 137, 17, 168, 144
-0.995204, 145, 305, 272, 336
-0.995211, 163, 241, 178, 304
-0.995237, 81, 313, 208, 344
-0.995242, 97, 301, 224, 332
-0.995256, 239, 257, 254, 320
-0.995279, 79, 249, 94, 312
-0.995293, 353, 193, 384, 320
-0.995316, 301, 257, 332, 320
-0.995341, 163, 273, 178, 336
-0.995356, 175, 201, 190, 264
-0.995357, 41, 145, 72, 272
-0.995366, 241, 169, 272, 232
-0.995378, 75, 209, 90, 272
-0.995379, 77, 273, 92, 336
-0.995398, 161, 277, 288, 308
-0.995398, 155, 241, 170, 304
-0.995434, 153, 209, 168, 272
-0.995436, 211, 273, 226, 336
-0.995441, 257, 121, 272, 184
-0.995455, 225, 257, 352, 288
-0.995481, 65, 65, 320, 128
-0.995506, 321, 177, 352, 304
-0.995515, 81, 57, 144, 120
-0.995535, 49, 217, 176, 248
-0.99554, 401, 265, 464, 328
-0.99555, 177, 265, 192, 328
-0.995574, 85, 273, 116, 336
-0.995576, 281, 1, 344, 356
-0.995578, 209, 225, 336, 256
-0.995587, 103, 249, 118, 312
-0.995593, 135, 225, 150, 288
-0.995601, 225, 313, 352, 344
-0.995609, 273, 81, 400, 208
-0.995615, 187, 265, 202, 328
-0.995619, 223, 225, 238, 288
-0.995633, 297, 169, 328, 232
-0.995643, 129, 9, 256, 72
-0.995657, 177, 289, 192, 352
-0.995664, 113, 225, 128, 288
-0.995668, 65, 121, 320, 184
-0.995672, 81, 1, 144, 356
-0.995675, 225, 89, 240, 152
-0.995676, 113, 121, 240, 152
-0.995706, 65, 285, 192, 316
-0.995707, 257, 65, 320, 192
-0.99571, 67, 225, 82, 288
-0.995725, 257, 273, 500, 336
-0.995768, 353, 257, 416, 320
-0.995773, 73, 233, 88, 296
-0.995778, 147, 201, 162, 264
-0.99579, 9, 1, 72, 356
-0.995792, 183, 225, 198, 288
-0.995798, 393, 225, 456, 352
-0.995802, 145, 325, 272, 356
-0.995811, 151, 273, 166, 336
-0.995834, 225, 301, 352, 332
-0.995842, 229, 201, 244, 264
-0.995843, 113, 81, 240, 112
-0.995846, 193, 201, 208, 264
-0.995848, 241, 81, 304, 144
-0.995849, 125, 89, 140, 152
-0.99585, 21, 193, 52, 320
-0.995867, 85, 257, 100, 320
-0.99588, 265, 169, 296, 232
-0.995896, 129, 249, 256, 280
-0.995901, 201, 193, 216, 256
-0.995906, 133, 177, 164, 240
-0.995916, 209, 273, 336, 304
-0.995924, 33, 249, 160, 280
-0.995936, 81, 25, 208, 88
-0.995944, 433, 1, 496, 356
-0.99595, 171, 233, 186, 296
-0.995966, 225, 65, 240, 128
-0.995968, 129, 197, 256, 228
-0.995979, 9, 193, 40, 320
-0.995991, 441, 177, 472, 304
-0.995992, 133, 81, 148, 144
-0.996022, 177, 293, 304, 324
-0.996024, 193, 177, 448, 240
-0.996025, 241, 233, 256, 296
-0.996032, 161, 113, 288, 144
-0.996049, 97, 209, 224, 240
-0.996059, 191, 225, 206, 288
-0.99607, 393, 1, 456, 356
-0.996092, 425, 97, 488, 352
-0.996101, 193, 289, 208, 352
-0.996104, 225, 289, 352, 320
-0.996113, 233, 257, 248, 320
-0.996123, 313, 217, 328, 280
-0.996138, 235, 97, 250, 160
-0.996166, 235, 233, 250, 296
-0.996186, 425, 273, 488, 336
-0.996204, 91, 241, 106, 304
-0.996213, 217, 193, 232, 256
-0.996214, 113, 261, 240, 292
-0.996214, 345, 225, 376, 288
-0.996219, 243, 97, 258, 160
-0.996262, 73, 161, 136, 224
-0.996265, 97, 145, 352, 208
-0.99627, 97, 273, 128, 336
-0.996272, 137, 273, 152, 336
-0.996277, 169, 177, 184, 240
-0.996279, 225, 73, 352, 136
-0.996285, 81, 65, 144, 192
-0.996292, 129, 65, 256, 96
-0.9963, 193, 213, 320, 244
-0.996312, 149, 249, 164, 312
-0.996333, 295, 233, 310, 296
-0.996362, 83, 209, 98, 272
-0.996373, 161, 121, 192, 184
-0.996378, 369, 97, 496, 224
-0.996387, 369, 217, 496, 280
-0.996388, 169, 201, 184, 264
-0.996408, 109, 249, 124, 312
-0.996414, 337, 169, 464, 232
-0.996424, 49, 297, 176, 328
-0.996438, 305, 1, 368, 356
-0.996447, 125, 225, 140, 288
-0.996454, 305, 153, 368, 216
-0.996479, 251, 121, 266, 184
-0.996482, 73, 97, 136, 160
-0.996513, 201, 289, 216, 352
-0.996513, 239, 281, 254, 344
-0.996566, 1, 169, 128, 232
-0.996591, 425, 129, 488, 256
-0.996591, 341, 257, 356, 320
-0.996599, 103, 225, 118, 288
-0.996601, 177, 257, 304, 288
-0.996612, 119, 225, 134, 288
-0.996618, 1, 257, 500, 320
-0.996692, 109, 97, 140, 224
-0.996709, 231, 289, 246, 352
-0.996718, 289, 281, 304, 344
-0.996721, 159, 201, 174, 264
-0.996723, 303, 225, 318, 288
-0.996732, 187, 289, 202, 352
-0.996751, 263, 129, 278, 192
-0.996763, 357, 201, 388, 264
-0.996768, 235, 201, 250, 264
-0.996778, 397, 193, 428, 256
-0.996779, 63, 201, 78, 264
-0.996791, 253, 233, 268, 296
-0.996794, 273, 233, 400, 264
-0.996813, 85, 233, 100, 296
-0.996826, 143, 273, 158, 336
-0.996834, 177, 97, 208, 352
-0.996852, 253, 257, 268, 320
-0.996852, 453, 177, 484, 304
-0.996855, 113, 93, 240, 124
-0.99686, 245, 281, 260, 344
-0.996862, 161, 97, 416, 160
-0.996863, 81, 241, 208, 272
-0.996871, 181, 81, 212, 144
-0.996877, 97, 249, 112, 312
-0.996879, 177, 129, 304, 160
-0.996882, 293, 209, 308, 272
-0.996888, 145, 165, 272, 196
-0.996894, 211, 185, 226, 248
-0.996935, 201, 97, 232, 352
-0.996938, 133, 65, 164, 320
-0.996952, 223, 177, 238, 240
-0.996954, 235, 57, 250, 120
-0.996962, 145, 177, 272, 208
-0.996972, 233, 65, 264, 128
-0.996975, 257, 225, 500, 288
-0.996979, 145, 97, 176, 160
-0.997001, 1, 281, 500, 344
-0.997007, 83, 281, 98, 344
-0.997018, 139, 73, 154, 136
-0.997025, 319, 209, 334, 272
-0.997037, 215, 81, 230, 144
-0.997041, 75, 185, 90, 248
-0.997047, 197, 225, 212, 288
-0.997054, 1, 129, 128, 192
-0.997062, 353, 1, 416, 356
-0.997066, 305, 285, 432, 316
-0.99708, 215, 105, 230, 168
-0.997094, 265, 265, 296, 328
-0.997107, 301, 201, 316, 264
-0.997112, 285, 209, 300, 272
-0.997113, 97, 225, 112, 288
-0.997117, 157, 265, 172, 328
-0.997124, 257, 269, 384, 300
-0.997131, 301, 237, 316, 268
-0.997131, 293, 257, 308, 320
-0.99714, 273, 209, 288, 272
-0.997149, 169, 57, 184, 120
-0.99715, 91, 253, 106, 284
-0.997154, 273, 153, 400, 216
-0.99716, 249, 209, 264, 272
-0.997161, 313, 281, 328, 344
-0.997166, 1, 301, 128, 332
-0.997171, 77, 277, 92, 308
-0.997174, 287, 241, 302, 304
-0.997178, 243, 209, 258, 272
-0.997198, 285, 113, 316, 240
-0.997206, 193, 173, 320, 204
-0.997213, 243, 129, 258, 192
-0.99722, 81, 49, 208, 112
-0.99723, 241, 245, 256, 276
-0.997237, 113, 105, 240, 136
-0.99724, 227, 265, 242, 328
-0.997253, 125, 273, 140, 336
-0.997253, 273, 289, 288, 352
-0.997258, 101, 257, 116, 288
-0.997262, 213, 41, 228, 104
-0.997272, 1, 145, 32, 272
-0.997272, 141, 201, 156, 264
-0.997277, 193, 1, 256, 128
-0.997288, 125, 249, 140, 312
-0.997289, 25, 289, 88, 352
-0.9973, 205, 169, 220, 232
-0.997302, 203, 289, 218, 320
-0.997313, 17, 273, 144, 304
-0.997316, 133, 145, 164, 208
-0.997319, 315, 185, 330, 248
-0.99732, 217, 289, 232, 352
-0.997321, 289, 257, 416, 288
-0.997328, 1, 209, 128, 240
-0.997336, 185, 277, 200, 308
-0.997342, 193, 277, 208, 308
-0.997349, 161, 101, 288, 132
-0.997352, 217, 1, 248, 128
-0.997357, 193, 217, 208, 248
-0.99738, 469, 177, 500, 304
-0.997395, 147, 233, 162, 264
-0.997406, 217, 217, 232, 280
-0.997411, 159, 161, 174, 224
-0.997413, 233, 177, 248, 240
-0.997415, 21, 145, 52, 272
-0.99742, 71, 273, 86, 336
-0.997426, 153, 65, 184, 320
-0.997427, 255, 97, 270, 160
-0.997429, 193, 145, 320, 176
-0.997429, 329, 1, 392, 356
-0.997431, 9, 201, 40, 264
-0.997432, 107, 257, 122, 288
-0.997436, 173, 57, 204, 120
-0.997443, 65, 177, 192, 208
-0.997451, 259, 233, 274, 296
-0.997462, 155, 249, 170, 280
-0.997463, 289, 245, 416, 276
-0.997467, 307, 233, 322, 264
-0.997475, 433, 161, 496, 224
-0.997477, 267, 249, 282, 280
-0.997481, 79, 241, 94, 272
-0.997496, 235, 273, 250, 304
-0.997504, 309, 185, 324, 248
-0.997505, 223, 41, 238, 104
-0.997514, 295, 289, 310, 352
-0.997528, 295, 241, 310, 272
-0.997541, 157, 289, 172, 352
-0.997565, 277, 249, 292, 280
-0.997572, 85, 249, 100, 280
-0.997581, 323, 257, 338, 320
-0.997584, 163, 65, 178, 128
-0.997609, 193, 289, 208, 320
-0.997628, 157, 153, 188, 216
-0.997642, 147, 253, 162, 284
-0.997647, 121, 65, 152, 320
-0.997648, 141, 257, 156, 288
-0.997649, 251, 245, 266, 276
-0.997653, 189, 97, 220, 352
-0.997653, 129, 33, 384, 96
-0.997654, 73, 241, 88, 272
-0.997679, 113, 261, 128, 292
-0.997681, 245, 261, 260, 292
-0.997693, 225, 233, 240, 264
-0.997697, 193, 129, 448, 192
-0.997699, 231, 233, 246, 264
-0.997706, 1, 225, 128, 256
-0.997719, 49, 201, 176, 232
-0.997724, 85, 273, 100, 304
-0.99773, 341, 273, 356, 304
-0.997736, 213, 293, 228, 324
-0.997744, 33, 25, 288, 88
-0.997748, 185, 221, 200, 252
-0.99775, 129, 257, 144, 288
-0.997751, 145, 209, 272, 240
-0.997752, 237, 65, 268, 320
-0.997754, 287, 245, 302, 276
-0.99776, 289, 221, 416, 252
-0.997763, 305, 297, 432, 328
-0.997771, 1, 169, 500, 232
-0.99778, 253, 289, 268, 320
-0.997788, 259, 133, 274, 164
-0.997808, 245, 49, 276, 176
-0.997814, 123, 261, 138, 292
-0.997817, 119, 221, 134, 252
-0.997823, 67, 233, 82, 264
-0.997823, 273, 313, 400, 344
-0.997827, 199, 277, 214, 308
-0.997832, 261, 249, 276, 280
-0.997833, 247, 109, 262, 140
-0.997846, 223, 221, 238, 252
-0.997856, 221, 273, 236, 304
-0.997857, 249, 97, 280, 352
-0.997867, 171, 273, 186, 304
-0.997878, 97, 165, 224, 196
-0.997883, 135, 81, 150, 112
-0.997893, 305, 269, 432, 300
-0.997895, 313, 225, 328, 256
-0.997896, 129, 281, 144, 312
-0.997897, 235, 249, 250, 280
-0.997898, 141, 221, 156, 252
-0.997905, 157, 301, 172, 332
-0.997911, 165, 97, 196, 352
-0.997912, 245, 289, 260, 320
-0.997913, 155, 237, 170, 268
-0.997916, 161, 49, 288, 80
-0.997929, 193, 161, 320, 192
-0.997945, 225, 121, 352, 152
-0.997949, 209, 277, 224, 308
-0.997951, 289, 209, 416, 240
-0.997956, 273, 325, 400, 356
-0.997965, 177, 217, 192, 248
-0.997967, 129, 137, 256, 168
-0.99797, 289, 97, 320, 352
-0.997982, 193, 201, 320, 232
-0.997993, 219, 197, 234, 228
-0.997994, 171, 229, 186, 260
-0.997995, 67, 217, 82, 248
-0.997998, 193, 153, 448, 216
-0.998001, 307, 221, 322, 252
-0.998009, 159, 269, 174, 300
-0.998012, 153, 9, 216, 72
-0.998025, 17, 65, 144, 192
-0.998029, 229, 269, 244, 300
-0.998029, 223, 209, 238, 240
-0.998033, 95, 265, 110, 296
-0.99804, 129, 269, 144, 300
-0.998043, 161, 281, 176, 312
-0.998048, 235, 261, 250, 292
-0.998051, 179, 309, 194, 340
-0.998052, 251, 129, 266, 160
-0.998055, 147, 217, 162, 248
-0.998062, 261, 97, 292, 352
-0.998063, 17, 261, 144, 292
-0.998073, 125, 97, 140, 128
-0.998073, 73, 229, 88, 260
-0.998073, 77, 289, 92, 320
-0.998074, 169, 209, 184, 240
-0.998077, 65, 89, 192, 120
-0.998082, 179, 197, 194, 228
-0.998088, 161, 65, 416, 128
-0.998089, 255, 117, 270, 148
-0.998093, 177, 229, 192, 260
-0.998101, 135, 257, 150, 288
-0.998125, 183, 233, 198, 264
-0.998126, 187, 201, 202, 232
-0.998133, 151, 289, 166, 320
-0.998134, 165, 269, 180, 300
-0.998135, 239, 285, 254, 316
-0.998138, 1, 153, 256, 216
-0.998141, 183, 293, 198, 324
-0.998147, 141, 73, 156, 104
-0.998153, 249, 309, 264, 340
-0.998156, 195, 229, 210, 260
-0.998156, 165, 301, 180, 332
-0.998166, 227, 97, 242, 128
-0.998176, 209, 109, 336, 140
-0.998177, 219, 301, 234, 332
-0.998188, 135, 269, 150, 300
-0.998191, 83, 297, 98, 328
-0.998203, 265, 65, 296, 192
-0.998205, 213, 213, 228, 244
-0.998209, 227, 293, 242, 324
-0.998212, 125, 217, 140, 248
-0.998215, 241, 9, 368, 72
-0.998234, 237, 105, 252, 136
-0.998234, 225, 33, 256, 288
-0.998236, 67, 205, 82, 236
-0.998238, 293, 293, 308, 324
-0.998239, 361, 281, 424, 344
-0.99824, 233, 285, 248, 316
-0.998262, 193, 205, 208, 236
-0.998277, 203, 217, 218, 248
-0.998283, 305, 97, 432, 160
-0.998285, 129, 85, 144, 116
-0.998286, 75, 213, 90, 244
-0.998289, 341, 285, 356, 316
-0.998289, 161, 77, 288, 108
-0.99829, 215, 273, 230, 304
-0.998294, 259, 293, 274, 324
-0.998296, 335, 285, 350, 316
-0.998298, 201, 197, 216, 228
-0.998302, 193, 301, 208, 332
-0.998305, 335, 269, 350, 300
-0.998308, 229, 221, 244, 252
-0.998313, 73, 97, 104, 352
-0.998314, 83, 285, 98, 316
-0.99833, 161, 249, 176, 280
-0.998337, 317, 213, 332, 244
-0.99834, 275, 237, 290, 268
-0.998345, 167, 61, 182, 92
-0.998349, 267, 297, 282, 328
-0.998353, 57, 1, 120, 256
-0.998354, 237, 233, 252, 264
-0.998354, 185, 309, 200, 340
-0.998356, 109, 97, 140, 352
-0.998357, 153, 265, 168, 296
-0.998363, 99, 245, 114, 276
-0.998373, 253, 169, 284, 184
-0.998375, 141, 75, 172, 90
-0.998376, 301, 303, 332, 318
-0.998376, 133, 87, 164, 102
-0.998378, 341, 285, 372, 300
-0.998378, 177, 277, 192, 308
-0.998379, 289, 231, 320, 246
-0.998379, 117, 313, 148, 328
-0.998379, 273, 243, 304, 258
-0.99838, 153, 69, 184, 84
-0.998384, 105, 263, 168, 278
-0.998385, 65, 217, 96, 232
-0.998386, 209, 311, 240, 326
-0.998386, 113, 249, 128, 280
-0.998386, 109, 231, 140, 246
-0.998387, 237, 123, 268, 138
-0.998387, 301, 321, 332, 336
-0.998388, 197, 213, 228, 228
-0.998388, 77, 241, 108, 256
-0.998388, 177, 313, 208, 328
-0.99839, 289, 237, 320, 252
-0.99839, 289, 249, 320, 264
-0.99839, 249, 293, 280, 308
-0.99839, 261, 257, 292, 272
-0.998391, 93, 273, 124, 288
-0.998392, 173, 207, 204, 222
-0.998392, 209, 305, 240, 320
-0.998393, 141, 245, 172, 260
-0.998394, 201, 279, 232, 294
-0.998394, 53, 223, 84, 238
-0.998395, 309, 293, 340, 308
-0.998395, 65, 223, 96, 238
-0.998396, 61, 297, 92, 312
-0.998396, 249, 137, 280, 152
-0.998397, 217, 219, 248, 234
-0.998397, 265, 121, 280, 152
-0.998397, 173, 271, 204, 286
-0.998398, 189, 277, 220, 292
-0.998398, 189, 231, 220, 246
-0.998401, 129, 219, 160, 234
-0.998403, 211, 201, 226, 232
-0.998404, 233, 239, 264, 254
-0.998404, 69, 235, 100, 250
-0.998404, 189, 237, 220, 252
-0.998405, 157, 291, 188, 306
-0.998405, 309, 225, 340, 240
-0.998406, 189, 233, 204, 264
-0.998406, 249, 251, 312, 266
-0.998406, 141, 313, 172, 328
-0.998407, 221, 103, 252, 118
-0.998409, 113, 225, 144, 240
-0.998411, 221, 229, 252, 244
-0.998411, 149, 227, 180, 242
-0.998412, 295, 229, 310, 260
-0.998412, 285, 303, 316, 318
-0.998412, 85, 251, 116, 266
-0.998412, 229, 267, 260, 282
-0.998413, 289, 269, 304, 300
-0.998414, 329, 291, 360, 306
-0.998414, 209, 213, 240, 228
-0.998415, 289, 255, 320, 270
-0.998417, 93, 309, 124, 324
-0.998418, 141, 261, 172, 276
-0.998418, 197, 197, 228, 212
-0.998418, 145, 153, 272, 184
-0.998418, 173, 297, 204, 312
-0.998421, 289, 281, 304, 312
-0.998422, 113, 269, 144, 284
-0.998424, 165, 67, 196, 82
-0.998424, 229, 303, 260, 318
-0.998425, 273, 97, 304, 352
-0.998425, 181, 225, 212, 240
-0.998425, 177, 277, 208, 292
-0.998427, 267, 237, 282, 268
-0.998429, 281, 297, 312, 312
-0.998429, 73, 283, 104, 298
-0.998429, 149, 301, 180, 316
-0.99843, 329, 267, 360, 282
-0.998431, 157, 205, 172, 236
-0.998431, 153, 245, 184, 260
-0.998432, 185, 303, 216, 318
-0.998433, 173, 243, 204, 258
-0.998433, 265, 297, 296, 312
-0.998436, 153, 313, 184, 328
-0.998437, 73, 247, 104, 262
-0.998438, 141, 219, 172, 234
-0.99844, 249, 301, 280, 316
-0.998441, 181, 287, 212, 302
-0.998442, 117, 219, 148, 234
-0.998447, 201, 299, 232, 314
-0.998447, 233, 245, 264, 260
-0.998448, 249, 121, 280, 136
-0.99845, 157, 283, 188, 298
-0.99845, 209, 227, 240, 242
-0.998451, 137, 269, 168, 284
-0.998452, 69, 303, 100, 318
-0.998453, 305, 231, 336, 246
-0.998455, 105, 313, 136, 328
-0.998456, 305, 257, 336, 272
-0.998457, 125, 257, 156, 272
-0.998458, 201, 219, 232, 234
-0.99846, 337, 257, 464, 288
-0.998463, 61, 243, 92, 258
-0.998466, 261, 313, 292, 328
-0.998466, 113, 287, 176, 302
-0.998468, 177, 307, 240, 322
-0.998468, 81, 309, 112, 324
-0.998468, 145, 237, 208, 252
-0.998469, 137, 291, 168, 306
-0.99847, 233, 251, 264, 266
-0.99847, 221, 295, 252, 310
-0.998471, 133, 235, 164, 250
-0.998471, 85, 259, 116, 274
-0.998474, 137, 219, 200, 234
-0.998475, 213, 235, 244, 250
-0.998476, 57, 237, 88, 252
-0.998477, 193, 293, 224, 308
-0.998477, 153, 239, 184, 254
-0.998478, 153, 307, 184, 322
-0.998478, 137, 81, 168, 96
-0.998482, 221, 243, 252, 258
-0.998487, 213, 289, 244, 304
-0.998487, 89, 269, 152, 284
-0.998489, 185, 291, 248, 306
-0.998489, 153, 281, 216, 296
-0.99849, 191, 209, 206, 336
-0.998492, 137, 313, 200, 328
-0.998492, 209, 291, 272, 306
-0.998493, 97, 257, 160, 272
-0.998495, 177, 231, 208, 246
-0.998496, 145, 33, 272, 64
-0.998497, 145, 287, 208, 302
-0.998498, 153, 303, 216, 318
-0.998499, 73, 253, 104, 268
-0.998506, 317, 263, 348, 278
-0.998506, 141, 285, 172, 300
-0.998507, 289, 243, 320, 258
-0.998507, 241, 245, 304, 260
-0.998507, 221, 275, 252, 290
-0.998508, 153, 251, 184, 266
-0.998512, 177, 233, 240, 248
-0.998512, 97, 267, 128, 282
-0.998517, 265, 249, 296, 264
-0.998519, 125, 287, 156, 302
-0.998521, 177, 279, 240, 294
-0.998524, 85, 97, 116, 352
-0.998525, 241, 257, 304, 272
-0.998526, 217, 301, 280, 316
-0.998527, 105, 223, 168, 238
-0.998528, 65, 259, 128, 274
-0.99853, 177, 189, 304, 220
-0.998532, 193, 297, 256, 312
-0.998533, 249, 257, 280, 272
-0.998534, 301, 237, 332, 252
-0.998535, 121, 271, 184, 286
-0.998536, 273, 257, 336, 272
-0.998536, 281, 243, 344, 258
-0.998539, 81, 275, 112, 290
-0.998539, 165, 277, 196, 292
-0.99854, 141, 255, 172, 270
-0.998541, 169, 227, 232, 242
-0.998546, 153, 243, 216, 258
-0.998546, 125, 225, 156, 240
-0.998548, 173, 237, 204, 252
-0.998548, 137, 227, 200, 242
-0.998548, 145, 213, 208, 228
-0.998552, 129, 259, 192, 274
-0.998555, 229, 285, 260, 300
-0.998555, 273, 129, 400, 192
-0.998555, 185, 219, 248, 234
-0.998555, 185, 285, 248, 300
-0.998556, 233, 293, 296, 308
-0.998557, 241, 301, 304, 316
-0.998559, 225, 251, 288, 266
-0.99856, 249, 251, 280, 266
-0.998561, 189, 1, 220, 256
-0.998562, 217, 307, 280, 322
-0.998563, 241, 263, 272, 278
-0.998563, 153, 275, 216, 290
-0.998564, 193, 239, 256, 254
-0.998565, 105, 231, 168, 246
-0.998565, 161, 219, 224, 234
-0.998566, 137, 293, 200, 308
-0.998566, 249, 317, 312, 332
-0.998568, 73, 313, 136, 328
-0.998569, 165, 309, 196, 324
-0.99857, 201, 247, 264, 262
-0.998571, 149, 273, 180, 288
-0.998571, 169, 199, 232, 214
-0.998575, 389, 145, 420, 272
-0.998577, 137, 253, 200, 268
-0.998577, 105, 307, 168, 322
-0.998578, 337, 201, 464, 232
-0.99858, 113, 261, 144, 276
-0.998582, 273, 249, 336, 264
-0.998584, 105, 217, 168, 232
-0.998585, 265, 307, 328, 322
-0.998587, 57, 307, 120, 322
-0.998588, 129, 81, 192, 96
-0.998592, 129, 263, 160, 278
-0.998592, 113, 297, 176, 312
-0.998593, 257, 295, 320, 310
-0.998594, 97, 313, 160, 328
-0.998595, 49, 253, 112, 268
-0.998601, 209, 129, 272, 144
-0.998602, 101, 261, 132, 276
-0.998603, 237, 291, 268, 306
-0.998607, 169, 213, 232, 228
-0.998607, 121, 237, 184, 252
-0.998608, 265, 325, 328, 340
-0.998608, 129, 307, 192, 322
-0.998608, 281, 293, 344, 308
-0.998609, 273, 301, 336, 316
-0.99861, 145, 69, 208, 84
-0.998611, 277, 249, 308, 264
-0.998614, 167, 225, 182, 352
-0.998614, 193, 227, 256, 242
-0.998614, 241, 323, 304, 338
-0.998614, 289, 263, 352, 278
-0.998616, 289, 235, 352, 250
-0.998616, 209, 109, 272, 124
-0.998617, 89, 251, 152, 266
-0.998617, 153, 191, 216, 206
-0.998617, 145, 207, 208, 222
-0.998618, 73, 275, 136, 290
-0.998618, 161, 123, 224, 138
-0.998621, 225, 333, 288, 348
-0.998621, 121, 87, 184, 102
-0.998623, 337, 313, 464, 344
-0.998623, 209, 285, 272, 300
-0.998626, 169, 297, 232, 312
-0.998627, 201, 277, 264, 292
-0.998627, 81, 17, 144, 144
-0.998628, 57, 265, 120, 280
-0.99863, 225, 313, 288, 328
-0.998631, 121, 281, 184, 296
-0.998633, 41, 243, 104, 258
-0.998634, 201, 121, 264, 136
-0.998635, 121, 211, 184, 226
-0.998635, 73, 225, 136, 240
-0.998638, 161, 63, 224, 78
-0.998639, 137, 75, 200, 90
-0.998642, 281, 333, 344, 348
-0.998643, 209, 115, 272, 130
-0.998644, 321, 289, 384, 304
-0.998644, 113, 93, 176, 108
-0.998645, 225, 269, 288, 284
-0.998645, 161, 225, 176, 352
-0.998645, 121, 243, 184, 258
-0.998646, 193, 33, 256, 48
-0.998646, 225, 215, 288, 230
-0.998647, 1, 105, 500, 168
-0.998648, 217, 135, 280, 150
-0.998648, 193, 271, 256, 286
-0.998649, 89, 175, 152, 190
-0.99865, 393, 209, 456, 272
-0.99865, 213, 65, 244, 320
-0.998651, 161, 269, 224, 284
-0.998651, 289, 327, 352, 342
-0.998652, 241, 121, 304, 136
-0.998653, 81, 189, 208, 220
-0.998653, 289, 321, 352, 336
-0.998653, 233, 263, 296, 278
-0.998654, 193, 199, 256, 214
-0.998655, 201, 253, 264, 268
-0.998656, 193, 155, 256, 170
-0.998656, 177, 313, 240, 328
-0.998656, 273, 313, 336, 328
-0.998657, 233, 239, 296, 254
-0.998657, 65, 245, 128, 260
-0.998657, 169, 205, 232, 220
-0.998657, 81, 285, 144, 300
-0.998658, 289, 287, 352, 302
-0.998658, 177, 117, 240, 132
-0.998659, 321, 257, 384, 272
-0.998662, 193, 185, 256, 200
-0.998663, 241, 307, 304, 322
-0.998667, 193, 43, 256, 58
-0.998668, 305, 295, 368, 310
-0.998668, 169, 129, 232, 144
-0.99867, 177, 57, 240, 72
-0.998671, 145, 201, 208, 216
-0.998671, 129, 171, 192, 186
-0.998671, 257, 331, 320, 346
-0.998671, 233, 287, 296, 302
-0.998672, 193, 213, 256, 228
-0.998672, 265, 233, 328, 248
-0.998673, 193, 103, 256, 118
-0.998673, 137, 123, 200, 138
-0.998676, 49, 77, 176, 108
-0.998706, 241, 169, 368, 200
-0.998719, 65, 105, 192, 136
-0.998731, 353, 81, 480, 144
-0.998756, 1, 237, 128, 268
-0.998783, 321, 97, 352, 352
-0.998787, 185, 193, 200, 320
-0.998788, 173, 193, 188, 320
-0.998789, 161, 9, 416, 72
-0.998792, 151, 225, 166, 352
-0.998802, 17, 313, 144, 344
-0.998814, 65, 325, 192, 356
-0.998817, 321, 233, 448, 264
-0.998865, 353, 269, 480, 300
-0.998878, 233, 193, 248, 320
-0.998891, 179, 193, 194, 320
-0.998891, 223, 225, 238, 352
-0.998893, 65, 125, 192, 156
-0.998896, 161, 89, 288, 120
-0.998896, 45, 97, 76, 352
-0.998934, 301, 97, 332, 352
-0.998945, 145, 209, 160, 336
-0.998954, 197, 209, 212, 336
-0.998955, 217, 177, 232, 304
-0.998955, 57, 97, 88, 352
-0.998957, 97, 153, 224, 184
-0.998957, 321, 325, 448, 356
-0.998968, 281, 137, 344, 200
-0.998971, 369, 169, 432, 232
-0.998974, 369, 281, 496, 312
-0.998974, 239, 209, 254, 336
-0.998988, 79, 193, 94, 320
-0.999007, 361, 145, 392, 272
-0.99901, 241, 213, 368, 244
-0.999013, 69, 225, 84, 352
-0.999043, 369, 189, 496, 220
-0.999044, 81, 65, 208, 96
-0.999064, 315, 209, 330, 336
-0.999065, 249, 1, 280, 256
-0.999073, 227, 177, 242, 304
-0.999088, 167, 145, 182, 272
-0.999088, 203, 177, 218, 304
-0.99909, 119, 225, 134, 352
-0.999104, 283, 193, 298, 320
-0.999117, 157, 177, 172, 304
-0.999129, 127, 193, 142, 320
-0.999131, 247, 225, 262, 352
-0.999146, 113, 225, 128, 352
-0.999165, 201, 1, 232, 256
-0.999171, 209, 61, 336, 92
-0.999173, 241, 201, 368, 232
-0.999178, 97, 97, 128, 352
-0.999182, 1, 81, 500, 144
-0.999185, 209, 97, 336, 128
-0.999189, 257, 157, 384, 188
-0.99919, 257, 113, 272, 240
-0.999196, 241, 137, 368, 168
-0.999199, 137, 65, 152, 192
-0.999222, 309, 209, 324, 336
-0.999222, 265, 113, 280, 240
-0.999235, 271, 209, 286, 336
-0.999236, 135, 193, 150, 320
-0.999236, 337, 245, 464, 276
-0.999241, 131, 65, 146, 192
-0.999242, 211, 177, 226, 304
-0.999243, 69, 177, 84, 304
-0.999247, 193, 33, 320, 64
-0.999254, 277, 209, 292, 336
-0.999265, 87, 193, 102, 320
-0.999266, 197, 161, 212, 288
-0.999267, 299, 209, 314, 336
-0.999287, 253, 209, 268, 336
-0.999288, 239, 161, 254, 288
-0.999295, 153, 65, 168, 192
-0.999299, 265, 209, 280, 336
-0.9993, 25, 97, 56, 352
-0.999306, 225, 49, 352, 112
-0.999307, 321, 209, 336, 336
-0.999309, 207, 129, 222, 256
-0.99931, 293, 209, 308, 336
-0.999311, 193, 17, 320, 48
-0.999312, 151, 145, 166, 272
-0.999327, 49, 145, 176, 176
-0.999329, 107, 225, 122, 352
-0.99934, 159, 81, 174, 208
-0.999342, 63, 193, 78, 320
-0.999346, 235, 97, 250, 224
-0.999346, 213, 65, 228, 192
-0.999353, 233, 49, 248, 176
-0.999357, 225, 129, 240, 256
-0.999358, 337, 213, 464, 244
-0.999359, 145, 145, 160, 272
-0.999371, 177, 1, 208, 256
-0.999373, 217, 225, 232, 352
-0.999378, 209, 81, 336, 112
-0.999381, 97, 29, 224, 60
-0.99939, 227, 49, 242, 176
-0.999399, 421, 97, 452, 352
-0.9994, 191, 145, 206, 272
-0.999403, 219, 49, 234, 176
-0.999407, 277, 161, 292, 288
-0.999426, 203, 225, 218, 352
-0.999431, 147, 65, 162, 192
-0.999437, 397, 97, 428, 352
-0.999438, 159, 129, 174, 256
-0.99944, 77, 145, 92, 272
-0.999444, 241, 97, 256, 224
-0.999447, 283, 145, 298, 272
-0.999451, 259, 193, 274, 320
-0.999457, 205, 49, 220, 176
-0.999465, 271, 161, 286, 288
-0.999465, 101, 193, 116, 320
-0.999469, 245, 177, 260, 304
-0.999474, 125, 97, 140, 224
-0.999491, 177, 145, 192, 272
-0.999497, 251, 113, 266, 240
-0.999497, 139, 129, 154, 256
-0.999502, 57, 193, 72, 320
-0.999506, 13, 97, 44, 352
-0.999507, 1, 197, 128, 228
-0.999507, 165, 81, 180, 208
-0.99951, 81, 1, 208, 64
-0.999513, 183, 113, 198, 240
-0.999528, 63, 145, 78, 272
-0.999528, 1, 97, 32, 352
-0.99953, 197, 65, 212, 192
-0.999531, 1, 121, 64, 184
-0.999537, 389, 193, 404, 320
-0.999537, 417, 225, 480, 352
-0.999538, 233, 145, 248, 272
-0.999542, 433, 65, 464, 320
-0.999551, 201, 113, 216, 240
-0.999551, 191, 49, 206, 176
-0.999551, 309, 161, 324, 288
-0.99956, 297, 161, 312, 288
-0.999561, 383, 193, 398, 320
-0.999563, 217, 113, 232, 240
-0.999568, 161, 33, 176, 160
-0.99957, 177, 97, 192, 224
-0.999571, 289, 129, 304, 256
-0.999572, 117, 177, 132, 304
-0.999574, 133, 129, 148, 256
-0.99958, 395, 193, 410, 320
-0.999584, 265, 161, 280, 288
-0.999586, 127, 145, 142, 272
-0.999589, 1, 289, 128, 320
-0.999591, 241, 49, 256, 176
-0.999591, 165, 247, 180, 262
-0.999591, 369, 325, 496, 356
-0.999591, 77, 277, 92, 292
-0.999592, 151, 311, 166, 326
-0.999592, 199, 235, 214, 250
-0.999594, 165, 283, 180, 298
-0.999595, 145, 291, 160, 306
-0.999595, 257, 129, 272, 144
-0.999596, 263, 127, 278, 142
-0.999597, 159, 249, 174, 264
-0.999597, 173, 237, 188, 252
-0.999597, 307, 227, 322, 242
-0.999597, 227, 239, 242, 254
-0.999597, 87, 145, 102, 272
-0.999597, 153, 295, 168, 310
-0.999598, 155, 301, 170, 316
-0.999599, 115, 313, 130, 328
-0.999599, 249, 111, 264, 126
-0.9996, 271, 113, 286, 240
-0.999601, 109, 313, 124, 328
-0.999601, 213, 199, 228, 214
-0.999601, 169, 217, 184, 232
-0.999601, 427, 177, 442, 304
-0.999602, 209, 225, 224, 352
-0.999602, 203, 291, 218, 306
-0.999602, 259, 117, 274, 132
-0.999603, 409, 65, 440, 320
-0.999604, 123, 225, 138, 240
-0.999604, 17, 161, 144, 192
-0.999604, 173, 307, 188, 322
-0.999605, 313, 227, 328, 242
-0.999606, 331, 209, 346, 336
-0.999606, 77, 247, 92, 262
-0.999606, 131, 91, 146, 106
-0.999606, 251, 123, 266, 138
-0.999608, 335, 287, 350, 302
-0.999608, 319, 259, 334, 274
-0.999609, 343, 269, 358, 284
-0.999609, 257, 293, 272, 308
-0.99961, 81, 299, 96, 314
-0.99961, 159, 241, 174, 256
-0.99961, 185, 227, 200, 242
-0.99961, 223, 95, 238, 110
-0.999612, 315, 145, 330, 272
-0.999614, 449, 97, 480, 352
-0.999614, 75, 289, 90, 304
-0.999614, 257, 259, 272, 274
-0.999615, 221, 275, 236, 290
-0.999619, 135, 225, 150, 240
-0.999619, 93, 193, 108, 320
-0.999619, 67, 219, 82, 234
-0.99962, 185, 311, 200, 326
-0.99962, 41, 193, 56, 320
-0.999621, 221, 219, 236, 234
-0.999621, 181, 279, 196, 294
-0.999621, 47, 193, 62, 320
-0.999622, 71, 237, 86, 252
-0.999622, 341, 225, 356, 352
-0.999622, 153, 251, 168, 266
-0.999622, 377, 193, 392, 320
-0.999622, 235, 273, 250, 288
-0.999626, 257, 65, 272, 192
-0.999626, 421, 177, 436, 304
-0.999626, 193, 295, 208, 310
-0.999627, 145, 77, 160, 92
-0.999627, 331, 263, 346, 278
-0.999627, 337, 265, 352, 280
-0.999628, 111, 177, 126, 304
-0.999628, 147, 233, 162, 248
-0.999629, 301, 233, 316, 248
-0.99963, 95, 309, 110, 324
-0.99963, 185, 49, 200, 176
-0.999632, 137, 79, 152, 94
-0.999632, 249, 289, 264, 304
-0.999633, 219, 305, 234, 320
-0.999633, 159, 291, 174, 306
-0.999634, 195, 277, 210, 292
-0.999636, 105, 57, 168, 120
-0.999636, 161, 301, 176, 316
-0.999636, 235, 243, 250, 258
-0.999637, 289, 197, 416, 228
-0.999638, 101, 311, 116, 326
-0.999638, 171, 81, 186, 208
-0.999638, 237, 265, 252, 280
-0.99964, 87, 303, 102, 318
-0.99964, 325, 261, 340, 276
-0.99964, 113, 49, 240, 80
-0.999641, 35, 193, 50, 320
-0.999642, 193, 217, 208, 232
-0.999643, 167, 65, 182, 80
-0.999643, 117, 223, 132, 238
-0.999643, 157, 309, 172, 324
-0.999644, 153, 269, 168, 284
-0.999644, 177, 231, 192, 246
-0.999644, 121, 261, 136, 276
-0.999644, 145, 221, 160, 236
-0.999645, 413, 177, 428, 304
-0.999646, 67, 225, 82, 240
-0.999646, 193, 287, 208, 302
-0.999647, 439, 177, 454, 304
-0.999647, 153, 245, 168, 260
-0.999648, 241, 293, 256, 308
-0.999648, 295, 239, 310, 254
-0.99965, 77, 283, 92, 298
-0.999651, 229, 233, 244, 248
-0.999651, 289, 273, 304, 288
-0.999652, 193, 237, 208, 252
-0.999652, 141, 229, 156, 244
-0.999652, 83, 277, 98, 292
-0.999654, 149, 261, 164, 276
-0.999655, 303, 239, 318, 254
-0.999656, 211, 17, 226, 144
-0.999657, 139, 289, 154, 304
-0.999657, 433, 177, 448, 304
-0.999658, 69, 231, 84, 246
-0.999658, 183, 289, 198, 304
-0.999659, 247, 263, 262, 278
-0.99966, 265, 251, 280, 266
-0.99966, 17, 81, 144, 144
-0.999661, 307, 233, 322, 248
-0.999662, 293, 249, 308, 264
-0.999663, 77, 241, 92, 256
-0.999666, 403, 193, 418, 320
-0.999667, 223, 227, 238, 242
-0.999669, 83, 249, 98, 264
-0.99967, 179, 237, 194, 252
-0.999671, 105, 267, 120, 282
-0.999671, 137, 265, 152, 280
-0.999672, 113, 261, 128, 276
-0.999673, 271, 251, 286, 266
-0.999674, 179, 309, 194, 324
-0.999675, 19, 193, 34, 320
-0.999678, 191, 97, 206, 224
-0.99968, 29, 193, 44, 320
-0.99968, 337, 97, 368, 352
-0.999682, 167, 305, 182, 320
-0.999684, 97, 271, 112, 286
-0.999685, 93, 263, 108, 278
-0.999686, 239, 287, 254, 302
-0.999686, 173, 275, 188, 290
-0.999687, 69, 129, 84, 256
-0.99969, 127, 17, 142, 144
-0.99969, 289, 243, 304, 258
-0.999693, 89, 273, 104, 288
-0.999694, 241, 245, 256, 260
-0.999694, 445, 177, 460, 304
-0.999696, 57, 145, 72, 272
-0.999696, 287, 249, 302, 264
-0.999697, 247, 249, 262, 264
-0.999698, 129, 285, 144, 300
-0.999698, 231, 285, 246, 300
-0.9997, 371, 193, 386, 320
-0.999701, 167, 33, 182, 160
-0.999702, 225, 185, 352, 216
-0.999703, 17, 133, 144, 164
-0.999703, 9, 193, 24, 320
-0.999707, 247, 65, 262, 192
-0.999707, 193, 225, 208, 240
-0.999708, 127, 261, 142, 276
-0.999708, 147, 253, 162, 268
-0.999709, 159, 271, 174, 286
-0.999714, 185, 237, 200, 252
-0.999714, 179, 33, 194, 160
-0.999716, 97, 257, 112, 272
-0.999716, 89, 253, 104, 268
-0.999717, 251, 257, 266, 272
-0.999722, 143, 263, 158, 278
-0.999723, 191, 231, 206, 246
-0.999725, 369, 293, 496, 324
-0.999725, 255, 251, 270, 266
-0.99973, 99, 265, 114, 280
-0.999731, 281, 249, 296, 264
-0.999731, 137, 259, 152, 274
-0.999735, 245, 255, 260, 270
-0.999736, 165, 273, 180, 288
-0.99974, 33, 65, 160, 96
-0.999745, 107, 261, 122, 276
-0.999767, 1, 1, 64, 256
-0.999775, 17, 93, 144, 124
-0.99979, 1, 17, 128, 80
-0.999792, 297, 113, 328, 240
-0.9998, 209, 49, 336, 80
-0.999801, 377, 65, 408, 320
-0.999805, 261, 1, 292, 256
-0.999813, 369, 229, 496, 260
-0.99982, 305, 97, 368, 224
-0.999843, 461, 97, 492, 352
-0.999851, 373, 145, 404, 272
-0.999858, 41, 153, 104, 216
-0.999858, 65, 53, 192, 84
-0.999864, 353, 65, 384, 320
-0.999887, 17, 117, 144, 148
-0.999897, 17, 173, 144, 204
-0.9999, 101, 1, 132, 256
-0.999917, 257, 105, 500, 168
-0.999918, 289, 185, 416, 216
-0.999925, 165, 1, 196, 128
-0.999928, 273, 125, 400, 156
-0.99995, 1, 185, 128, 216
-0.99996, 281, 113, 344, 176
-0.999968, 365, 97, 396, 352
-0.999988, 385, 289, 448, 352
-1, 289, 1, 416, 64
-1.00001, 125, 17, 156, 144
-1.00001, 145, 21, 272, 52
-1.00003, 257, 9, 384, 40
-1.00006, 401, 233, 464, 296
-1.00009, 277, 1, 308, 256
-1.00012, 369, 85, 496, 116
-1.00012, 401, 161, 464, 224
-1.00014, 289, 113, 416, 144
-1.00015, 17, 105, 144, 136
-1.00019, 417, 1, 480, 256
-1.00022, 165, 1, 196, 256
-1.00026, 81, 1, 144, 256
-1.00027, 57, 129, 120, 192
-1.00027, 445, 1, 476, 256
-1.00029, 65, 1, 96, 256
-1.0003, 33, 1, 96, 256
-1.0003, 441, 129, 472, 256
-1.00031, 257, 81, 500, 144
-1.00032, 289, 1, 320, 256
-1.00033, 317, 129, 348, 256
-1.0004, 397, 1, 428, 256
-1.00041, 33, 1, 64, 256
-1.00041, 465, 1, 496, 256
-1.00043, 153, 1, 184, 128
-1.00044, 1, 1, 256, 64
-1.00048, 25, 129, 88, 192
-1.00048, 1, 145, 500, 208
-1.00049, 409, 113, 440, 240
-1.0005, 17, 1, 48, 256
-1.00055, 421, 1, 452, 256
-1.00055, 353, 121, 480, 184
-1.00057, 409, 225, 440, 352
-1.00061, 45, 1, 76, 256
-1.00062, 81, 1, 112, 256
-1.00067, 5, 1, 36, 256
-1.00068, 225, 41, 480, 104
-1.00074, 425, 113, 456, 240
-1.00078, 369, 57, 496, 120
-1.0008, 1, 57, 500, 120
-1.00081, 369, 49, 496, 176
-1.00082, 365, 1, 396, 256
-1.00087, 453, 129, 484, 256
-1.00093, 109, 33, 140, 160
-1.00096, 341, 145, 372, 272
-1.00098, 257, 1, 500, 64
-1.001, 321, 1, 352, 256
-1.00106, 265, 1, 328, 256
-1.00111, 369, 25, 496, 88
-1.00112, 333, 1, 364, 256
-1.00113, 321, 65, 448, 192
-1.00119, 469, 129, 500, 256
-1.0012, 233, 57, 296, 120
-1.00122, 289, 1, 352, 64
-1.00126, 309, 1, 340, 256
-1.0013, 217, 1, 280, 64
-1.0013, 321, 145, 448, 208
-1.0013, 425, 249, 488, 312
-1.00136, 17, 17, 144, 144
-1.00145, 321, 49, 448, 112
-1.00153, 289, 73, 416, 136
-1.00161, 189, 1, 220, 128
-1.00195, 321, 105, 384, 168
-1.00196, 237, 1, 268, 128
-1.00201, 1, 33, 500, 96
-1.00202, 433, 57, 496, 120
-1.00214, 377, 89, 440, 152
-1.00222, 369, 145, 496, 208
-1.00226, 461, 225, 492, 352
-1.00232, 345, 97, 408, 224
-1.00232, 401, 81, 464, 144
-1.00241, 421, 225, 452, 352
-1.00244, 265, 9, 328, 72
-1.00258, 313, 1, 376, 64
-1.00265, 1, 1, 500, 64
-1.00267, 425, 209, 488, 272
-1.00268, 353, 1, 416, 256
-1.00276, 273, 33, 400, 96
-1.00281, 369, 1, 496, 64
-1.00283, 441, 225, 472, 352
-1.00284, 97, 33, 160, 96
-1.0029, 353, 97, 416, 160
-1.00304, 321, 25, 448, 88
-1.00322, 1, 289, 64, 352
-1.00353, 345, 161, 408, 224
-1.00358, 281, 1, 344, 128
-1.00368, 253, 1, 284, 128
-1.00383, 353, 97, 384, 224
-1.00385, 337, 97, 368, 224
-1.00393, 433, 49, 496, 176
-1.00394, 1, 225, 64, 288
-1.00402, 1, 225, 64, 352
-1.00404, 365, 97, 396, 224
-1.00411, 273, 1, 400, 128
-1.00424, 305, 1, 336, 128
-1.00428, 377, 97, 408, 224
-1.00445, 285, 1, 316, 128
-1.00449, 297, 1, 360, 256
-1.00451, 389, 97, 420, 224
-1.00451, 409, 49, 472, 176
-1.00452, 25, 97, 88, 224
-1.00459, 73, 97, 104, 224
-1.0046, 313, 81, 344, 208
-1.00466, 369, 1, 496, 128
-1.00469, 1, 97, 32, 224
-1.00471, 97, 65, 128, 192
-1.0048, 249, 1, 312, 128
-1.00481, 61, 97, 92, 224
-1.00506, 325, 81, 356, 208
-1.00507, 85, 97, 116, 224
-1.00519, 377, 65, 440, 192
-1.00521, 285, 65, 316, 192
-1.00531, 453, 49, 484, 176
-1.00531, 21, 97, 52, 224
-1.00534, 393, 49, 424, 176
-1.00535, 301, 65, 332, 192
-1.00539, 441, 49, 472, 176
-1.0054, 329, 1, 392, 256
-1.00543, 429, 49, 460, 176
-1.00544, 49, 97, 80, 224
-1.00549, 33, 97, 64, 224
-1.00551, 273, 1, 304, 128
-1.00572, 413, 49, 444, 176
-1.00572, 469, 33, 500, 160
-1.00577, 37, 1, 68, 128
-1.00639, 321, 17, 448, 144
-1.00668, 281, 65, 344, 192
-1.00734, 9, 1, 72, 128
-1.00792, 49, 65, 112, 192
-1.00818, 1, 65, 64, 192
-1.00828, 329, 49, 392, 176
-1.00893, 33, 1, 96, 128
-1.00938, 353, 49, 416, 176
-1.00984, 385, 17, 448, 144
-1.01003, 425, 1, 488, 128
-1.01045, 305, 49, 368, 176
-1.01116, 25, 49, 88, 176
-1.01117, 57, 17, 120, 144
-1.01143, 305, 1, 368, 128
-1.01263, 353, 1, 416, 128
-1.01454, 329, 1, 392, 128
