1962
-0.448108, 1, 129, 500, 375
-0.514533, 1, 33, 500, 288
-0.569903, 1, 1, 500, 375
-0.630291, 129, 65, 384, 320
-0.63566, 129, 1, 384, 375
-0.660621, 225, 1, 480, 375
-0.756187, 33, 1, 288, 375
-0.783696, 225, 65, 480, 320
-0.789845, 1, 129, 256, 375
-0.875259, 241, 33, 368, 288
-0.879915, 1, 145, 500, 272
-0.893994, 257, 1, 384, 375
-0.895713, 97, 129, 224, 375
-0.895771, 177, 65, 304, 320
-0.899706, 305, 33, 432, 288
-0.9006, 1, 81, 500, 208
-0.900932, 273, 129, 400, 375
-0.901033, 321, 1, 448, 375
-0.907627, 193, 1, 320, 375
-0.912551, 161, 97, 416, 224
-0.915683, 321, 129, 448, 375
-0.917681, 49, 129, 176, 375
-0.920176, 33, 1, 288, 256
-0.923409, 241, 65, 368, 192
-0.924158, 145, 1, 272, 375
-0.927572, 1, 209, 500, 336
-0.928506, 97, 1, 224, 256
-0.931064, 225, 129, 352, 375
-0.933485, 65, 1, 192, 375
-0.93674, 33, 161, 288, 288
-0.938747, 161, 145, 416, 272
-0.942185, 353, 1, 480, 256
-0.94363, 65, 97, 320, 224
-0.943642, 257, 1, 500, 128
-0.944963, 1, 1, 500, 128
-0.945231, 297, 65, 360, 192
-0.945294, 257, 65, 500, 192
-0.945295, 177, 97, 304, 224
-0.945493, 161, 49, 416, 176
-0.94975, 49, 33, 176, 288
-0.95016, 369, 1, 496, 375
-0.952036, 17, 1, 144, 375
-0.952276, 225, 81, 288, 208
-0.953067, 369, 129, 496, 375
-0.953232, 305, 1, 368, 128
-0.953275, 81, 145, 208, 272
-0.954417, 1, 65, 128, 320
-0.954652, 257, 113, 384, 240
-0.955726, 257, 113, 500, 240
-0.95632, 257, 161, 500, 288
-0.956465, 337, 49, 400, 176
-0.958495, 273, 65, 336, 192
-0.958628, 305, 1, 432, 128
-0.959484, 361, 1, 424, 128
-0.960149, 249, 65, 312, 192
-0.96034, 305, 145, 368, 272
-0.960938, 297, 65, 360, 128
-0.961259, 257, 129, 320, 256
-0.961459, 257, 161, 384, 288
-0.961558, 161, 241, 416, 368
-0.961996, 321, 49, 448, 176
-0.96216, 201, 81, 264, 208
-0.963678, 257, 1, 384, 128
-0.964034, 1, 241, 256, 368
-0.965045, 161, 1, 416, 128
-0.965266, 321, 97, 448, 224
-0.965508, 209, 145, 336, 272
-0.965533, 337, 97, 400, 224
-0.965733, 169, 97, 232, 224
-0.966235, 97, 145, 160, 272
-0.966335, 129, 145, 192, 272
-0.967285, 193, 105, 256, 168
-0.967661, 161, 145, 288, 272
-0.96787, 297, 193, 360, 320
-0.968082, 257, 209, 500, 336
-0.968524, 161, 193, 416, 320
-0.968677, 417, 1, 480, 128
-0.969081, 321, 65, 384, 128
-0.969364, 321, 161, 448, 288
-0.969514, 241, 81, 304, 144
-0.97017, 217, 121, 280, 184
-0.970467, 113, 97, 240, 224
-0.971089, 289, 209, 416, 336
-0.971098, 353, 1, 480, 128
-0.971435, 337, 1, 400, 128
-0.971745, 73, 161, 136, 288
-0.971981, 313, 169, 376, 232
-0.972017, 65, 33, 320, 160
-0.972306, 193, 129, 256, 192
-0.97241, 217, 97, 280, 160
-0.972773, 337, 89, 400, 152
-0.973247, 97, 161, 160, 224
-0.973625, 329, 145, 392, 272
-0.973725, 145, 161, 208, 224
-0.974012, 273, 1, 336, 128
-0.97403, 33, 161, 160, 288
-0.974257, 393, 1, 456, 128
-0.974773, 337, 129, 400, 192
-0.974779, 297, 33, 360, 288
-0.974812, 297, 113, 360, 176
-0.975127, 153, 145, 216, 272
-0.975669, 297, 137, 360, 200
-0.975715, 257, 241, 320, 368
-0.97576, 97, 161, 224, 224
-0.975809, 281, 145, 344, 272
-0.975993, 49, 225, 112, 352
-0.976045, 241, 81, 368, 144
-0.976261, 201, 33, 264, 160
-0.976362, 169, 129, 232, 192
-0.976381, 265, 81, 328, 144
-0.976705, 345, 57, 408, 120
-0.976887, 177, 129, 304, 192
-0.976996, 241, 121, 304, 184
-0.977203, 257, 145, 320, 208
-0.977225, 233, 129, 296, 256
-0.977231, 257, 129, 384, 192
-0.977234, 1, 113, 128, 240
-0.977521, 313, 193, 376, 256
-0.977967, 177, 49, 304, 176
-0.978109, 209, 241, 336, 368
-0.978862, 193, 129, 256, 256
-0.978947, 325, 49, 356, 176
-0.97916, 49, 209, 176, 336
-0.979275, 129, 97, 192, 224
-0.97934, 25, 161, 88, 288
-0.979361, 273, 65, 336, 320
-0.979395, 417, 1, 480, 64
-0.979457, 337, 153, 400, 216
-0.979697, 273, 193, 336, 320
-0.979926, 257, 153, 384, 216
-0.979945, 345, 49, 376, 176
-0.980006, 333, 65, 364, 128
-0.980188, 209, 1, 336, 128
-0.980328, 313, 41, 376, 104
-0.980585, 297, 297, 360, 360
-0.980593, 225, 33, 288, 160
-0.98065, 257, 105, 384, 168
-0.980684, 345, 185, 408, 248
-0.98121, 249, 65, 280, 192
-0.981327, 73, 177, 136, 240
-0.981385, 113, 129, 176, 375
-0.98141, 169, 105, 232, 168
-0.981456, 177, 89, 304, 152
-0.981556, 33, 185, 96, 248
-0.981566, 121, 161, 184, 224
-0.981663, 337, 1, 368, 128
-0.981677, 257, 249, 320, 312
-0.981796, 337, 161, 368, 224
-0.98196, 249, 17, 312, 144
-0.982081, 297, 273, 360, 336
-0.982088, 17, 217, 80, 280
-0.982142, 337, 145, 368, 272
-0.982273, 145, 137, 208, 200
-0.982315, 1, 241, 128, 368
-0.982351, 137, 129, 200, 375
-0.982366, 321, 65, 448, 128
-0.98238, 321, 33, 384, 288
-0.982607, 305, 129, 368, 375
-0.982651, 169, 169, 232, 232
-0.982683, 317, 1, 348, 128
-0.982687, 49, 153, 112, 216
-0.982715, 261, 65, 292, 192
-0.982972, 265, 57, 328, 120
-0.983241, 321, 193, 384, 320
-0.983247, 257, 273, 320, 336
-0.983251, 65, 97, 192, 224
-0.983262, 113, 129, 176, 192
-0.983337, 393, 1, 456, 64
-0.983344, 237, 97, 268, 160
-0.983346, 321, 129, 448, 192
-0.983388, 305, 1, 336, 128
-0.98351, 221, 105, 252, 168
-0.983552, 297, 89, 360, 152
-0.983592, 297, 1, 360, 375
-0.983614, 317, 73, 348, 136
-0.983622, 289, 1, 352, 64
-0.983685, 193, 73, 256, 136
-0.983724, 233, 65, 296, 320
-0.983748, 289, 225, 352, 288
-0.983791, 289, 201, 352, 264
-0.983831, 81, 129, 144, 375
-0.984008, 233, 81, 264, 208
-0.984146, 25, 241, 88, 368
-0.9842, 249, 1, 312, 64
-0.984205, 129, 105, 256, 168
-0.984231, 321, 161, 448, 224
-0.984261, 193, 153, 256, 216
-0.984309, 269, 113, 300, 240
-0.98444, 337, 209, 400, 272
-0.984442, 425, 209, 488, 336
-0.984572, 161, 145, 192, 272
-0.984633, 385, 225, 448, 352
-0.984644, 257, 57, 384, 120
-0.984704, 221, 65, 252, 192
-0.9848, 321, 105, 448, 168
-0.984861, 25, 257, 88, 320
-0.984863, 209, 193, 336, 320
-0.984867, 349, 1, 380, 128
-0.984927, 345, 49, 376, 112
-0.98496, 97, 97, 160, 224
-0.985054, 273, 65, 304, 192
-0.985244, 49, 249, 112, 312
-0.985278, 209, 153, 336, 216
-0.985303, 305, 241, 368, 368
-0.98534, 345, 89, 376, 152
-0.985381, 201, 97, 232, 160
-0.985414, 269, 145, 300, 208
-0.985424, 353, 209, 480, 336
-0.985478, 345, 193, 408, 320
-0.985655, 297, 249, 360, 312
-0.985663, 257, 193, 384, 256
-0.985664, 285, 65, 316, 192
-0.985682, 369, 129, 496, 256
-0.985736, 9, 289, 72, 352
-0.985754, 433, 209, 496, 272
-0.985835, 49, 129, 112, 256
-0.985928, 169, 161, 200, 224
-0.985933, 169, 97, 232, 352
-0.985981, 129, 129, 256, 192
-0.986169, 49, 313, 112, 375
-0.986192, 49, 177, 112, 304
-0.986347, 281, 129, 312, 256
-0.986429, 329, 1, 392, 64
-0.986493, 129, 49, 256, 176
-0.98654, 57, 225, 120, 288
-0.98654, 209, 65, 272, 320
-0.986579, 185, 113, 216, 240
-0.986619, 305, 193, 336, 320
-0.98673, 205, 81, 236, 208
-0.986743, 289, 177, 352, 240
-0.986796, 265, 121, 328, 184
-0.986804, 345, 97, 376, 224
-0.986824, 17, 177, 144, 240
-0.986824, 289, 217, 416, 280
-0.986839, 333, 97, 364, 224
-0.986868, 73, 201, 136, 264
-0.986972, 1, 257, 64, 320
-0.98701, 185, 137, 216, 200
-0.987035, 369, 1, 496, 64
-0.987037, 1, 153, 128, 216
-0.987042, 365, 1, 396, 128
-0.987176, 161, 153, 288, 216
-0.987263, 329, 1, 392, 375
-0.987359, 121, 145, 152, 272
-0.987441, 301, 73, 332, 136
-0.987546, 297, 65, 328, 192
-0.987556, 305, 1, 432, 64
-0.987566, 209, 273, 336, 336
-0.987708, 105, 161, 136, 224
-0.987723, 277, 81, 308, 144
-0.987736, 325, 161, 356, 288
-0.987875, 401, 201, 464, 264
-0.988057, 273, 313, 336, 375
-0.988107, 49, 273, 112, 336
-0.988254, 381, 1, 412, 128
-0.98826, 337, 185, 464, 248
-0.988273, 257, 1, 320, 375
-0.988378, 173, 145, 204, 272
-0.98845, 89, 177, 120, 240
-0.988489, 357, 185, 388, 248
-0.988525, 361, 1, 424, 64
-0.988551, 257, 81, 288, 144
-0.988606, 273, 297, 400, 360
-0.988618, 289, 273, 416, 336
-0.988659, 337, 193, 368, 256
-0.98868, 209, 129, 240, 192
-0.98871, 73, 137, 136, 200
-0.988736, 137, 129, 168, 256
-0.988753, 137, 305, 200, 368
-0.988829, 269, 121, 300, 184
-0.988886, 281, 241, 344, 368
-0.988902, 217, 1, 280, 64
-0.988903, 109, 145, 140, 272
-0.988959, 225, 1, 352, 64
-0.988965, 209, 297, 336, 360
-0.988973, 161, 1, 288, 128
-0.988998, 329, 129, 392, 375
-0.989029, 273, 241, 400, 304
-0.989089, 57, 225, 88, 352
-0.9891, 233, 145, 296, 208
-0.989107, 73, 97, 136, 224
-0.989108, 285, 241, 316, 368
-0.989162, 453, 1, 484, 128
-0.989181, 149, 129, 180, 256
-0.989335, 401, 225, 464, 288
-0.989337, 397, 1, 428, 128
-0.989346, 9, 313, 72, 375
-0.989373, 425, 161, 488, 288
-0.989375, 233, 57, 296, 120
-0.989441, 121, 161, 152, 224
-0.989464, 241, 225, 304, 288
-0.989529, 353, 33, 416, 96
-0.989612, 65, 185, 192, 248
-0.989652, 305, 73, 368, 104
-0.989755, 209, 225, 336, 288
-0.989821, 1, 217, 128, 280
-0.989822, 289, 41, 352, 104
-0.989842, 249, 193, 312, 320
-0.989859, 313, 65, 344, 192
-0.989863, 425, 1, 456, 128
-0.989879, 325, 113, 356, 176
-0.989888, 253, 113, 284, 240
-0.990019, 33, 273, 160, 336
-0.990023, 337, 217, 464, 280
-0.990024, 425, 233, 488, 296
-0.990035, 49, 217, 176, 280
-0.990036, 193, 125, 256, 156
-0.990038, 17, 313, 144, 375
-0.990042, 385, 177, 448, 240
-0.990083, 69, 193, 100, 320
-0.990153, 385, 161, 448, 288
-0.99021, 153, 81, 216, 144
-0.990254, 321, 41, 448, 104
-0.990307, 409, 1, 440, 128
-0.990312, 325, 185, 356, 248
-0.990367, 221, 129, 252, 192
-0.99037, 345, 121, 376, 184
-0.990472, 461, 1, 492, 64
-0.990488, 313, 217, 376, 280
-0.990554, 129, 193, 256, 320
-0.99056, 321, 61, 384, 92
-0.99057, 361, 145, 424, 272
-0.990579, 441, 1, 472, 128
-0.990688, 265, 161, 296, 288
-0.990717, 209, 249, 336, 312
-0.990743, 153, 49, 216, 176
-0.990752, 161, 89, 416, 152
-0.990757, 193, 105, 256, 136
-0.990775, 49, 241, 176, 304
-0.990785, 121, 161, 184, 192
-0.990802, 185, 169, 216, 232
-0.990803, 121, 33, 184, 288
-0.990863, 85, 161, 116, 288
-0.990884, 329, 137, 360, 200
-0.990886, 241, 149, 304, 180
-0.990899, 265, 177, 328, 240
-0.990929, 145, 113, 208, 176
-0.990933, 369, 241, 496, 304
-0.990966, 81, 137, 208, 200
-0.990976, 225, 137, 288, 168
-0.991071, 289, 257, 320, 320
-0.991149, 97, 305, 160, 368
-0.991154, 209, 57, 336, 120
-0.991154, 33, 129, 160, 192
-0.991171, 433, 185, 496, 248
-0.991171, 217, 117, 280, 148
-0.991174, 169, 1, 232, 256
-0.991197, 161, 177, 288, 240
-0.991198, 313, 205, 376, 236
-0.991233, 157, 161, 188, 224
-0.991291, 233, 89, 296, 120
-0.99132, 201, 137, 264, 168
-0.99132, 265, 149, 328, 180
-0.991336, 337, 129, 400, 160
-0.991394, 357, 57, 388, 120
-0.991404, 377, 1, 440, 32
-0.99142, 161, 149, 224, 180
-0.991423, 465, 1, 496, 128
-0.991442, 337, 141, 400, 172
-0.991453, 261, 1, 292, 64
-0.99146, 345, 61, 408, 92
-0.991463, 197, 145, 228, 208
-0.991483, 417, 1, 480, 32
-0.991506, 349, 209, 380, 272
-0.99153, 161, 129, 416, 192
-0.991541, 97, 165, 160, 196
-0.991547, 301, 313, 332, 375
-0.991583, 233, 121, 264, 184
-0.991588, 305, 137, 368, 168
-0.991591, 401, 113, 464, 176
-0.991604, 289, 81, 320, 144
-0.991619, 169, 121, 232, 152
-0.991619, 345, 193, 408, 224
-0.991633, 257, 85, 320, 116
-0.991638, 233, 33, 264, 160
-0.991648, 313, 173, 376, 204
-0.991651, 305, 153, 368, 184
-0.991653, 305, 121, 368, 152
-0.991663, 337, 97, 400, 128
-0.991674, 349, 161, 380, 224
-0.99168, 345, 157, 408, 188
-0.99168, 145, 165, 208, 196
-0.991687, 369, 81, 496, 208
-0.991708, 337, 117, 400, 148
-0.991718, 297, 109, 360, 140
-0.991722, 433, 1, 464, 64
-0.991726, 345, 1, 408, 256
-0.991793, 345, 209, 408, 240
-0.991815, 281, 121, 312, 184
-0.99185, 201, 129, 232, 256
-0.991856, 145, 65, 272, 128
-0.991869, 353, 1, 416, 32
-0.991877, 321, 185, 384, 216
-0.991897, 1, 225, 64, 352
-0.991901, 9, 289, 72, 320
-0.991967, 241, 121, 304, 152
-0.992006, 409, 177, 472, 240
-0.992027, 161, 161, 416, 224
-0.992043, 1, 241, 128, 304
-0.992051, 337, 85, 400, 116
-0.992129, 273, 137, 336, 168
-0.99213, 25, 229, 88, 260
-0.992138, 281, 153, 312, 216
-0.992163, 297, 85, 360, 116
-0.992166, 161, 281, 224, 344
-0.992181, 377, 305, 440, 336
-0.992186, 125, 97, 156, 224
-0.992197, 33, 201, 96, 232
-0.992198, 289, 333, 352, 364
-0.992198, 217, 105, 280, 136
-0.992199, 65, 313, 192, 375
-0.992216, 289, 237, 352, 268
-0.992224, 321, 217, 384, 248
-0.992234, 445, 1, 476, 64
-0.992238, 337, 297, 400, 360
-0.992244, 297, 289, 360, 320
-0.99225, 97, 81, 224, 144
-0.992262, 297, 97, 360, 128
-0.992264, 329, 73, 392, 104
-0.992265, 289, 345, 352, 375
-0.992273, 425, 213, 488, 244
-0.992277, 293, 1, 324, 128
-0.992289, 289, 321, 352, 352
-0.992299, 257, 161, 320, 192
-0.992299, 9, 309, 72, 340
-0.992302, 417, 233, 480, 264
-0.992317, 121, 149, 184, 180
-0.992333, 265, 277, 328, 308
-0.992334, 97, 241, 224, 368
-0.992336, 265, 69, 328, 100
-0.992341, 177, 49, 240, 176
-0.992344, 209, 177, 336, 240
-0.992352, 361, 113, 424, 176
-0.992352, 265, 225, 328, 288
-0.992364, 81, 181, 144, 212
-0.992371, 285, 177, 316, 304
-0.992377, 9, 321, 72, 352
-0.992385, 337, 241, 400, 368
-0.992393, 185, 161, 248, 192
-0.99241, 309, 1, 340, 64
-0.992413, 301, 233, 332, 296
-0.992422, 233, 1, 296, 375
-0.992423, 297, 273, 360, 304
-0.992425, 201, 93, 264, 124
-0.992432, 281, 233, 312, 296
-0.992439, 297, 193, 360, 224
-0.99247, 377, 209, 440, 272
-0.992474, 33, 217, 96, 248
-0.992479, 257, 341, 320, 372
-0.99249, 137, 225, 200, 352
-0.992491, 65, 213, 128, 244
-0.992497, 337, 173, 400, 204
-0.992499, 57, 185, 120, 216
-0.992507, 49, 337, 112, 368
-0.992518, 169, 105, 232, 136
-0.992518, 145, 33, 208, 288
-0.992531, 97, 333, 160, 364
-0.992536, 49, 305, 112, 336
-0.992536, 49, 325, 112, 356
-0.992537, 193, 289, 256, 352
-0.992551, 17, 253, 80, 284
-0.992568, 97, 161, 128, 288
-0.992596, 173, 97, 204, 224
-0.992606, 393, 225, 456, 256
-0.992612, 169, 129, 200, 192
-0.992622, 113, 305, 240, 368
-0.99263, 329, 1, 392, 32
-0.992637, 297, 301, 360, 332
-0.992642, 249, 137, 312, 168
-0.992647, 17, 241, 80, 272
-0.992651, 257, 253, 320, 284
-0.992651, 345, 57, 376, 88
-0.992659, 393, 321, 456, 352
-0.992666, 353, 73, 416, 104
-0.992672, 269, 145, 300, 176
-0.992677, 133, 153, 164, 216
-0.992677, 313, 49, 376, 80
-0.992687, 265, 289, 328, 320
-0.992692, 57, 165, 120, 196
-0.9927, 401, 201, 464, 232
-0.99271, 289, 225, 352, 256
-0.992711, 49, 229, 112, 260
-0.992714, 369, 209, 432, 240
-0.992731, 161, 133, 224, 164
-0.992732, 49, 277, 112, 308
-0.992733, 281, 1, 312, 64
-0.992748, 145, 137, 176, 200
-0.992759, 81, 49, 208, 176
-0.99277, 345, 221, 408, 252
-0.992773, 393, 249, 456, 280
-0.992773, 9, 341, 72, 372
-0.992778, 289, 253, 352, 284
-0.992778, 81, 153, 144, 184
-0.992778, 257, 313, 320, 344
-0.992781, 81, 193, 144, 224
-0.992794, 425, 341, 488, 372
-0.9928, 217, 1, 280, 32
-0.992801, 257, 265, 320, 296
-0.992808, 169, 173, 232, 204
-0.992809, 97, 345, 160, 375
-0.992814, 145, 121, 208, 152
-0.992816, 353, 49, 416, 80
-0.992824, 185, 149, 248, 180
-0.992835, 417, 317, 480, 348
-0.992842, 9, 273, 72, 304
-0.992847, 33, 189, 96, 220
-0.992849, 305, 289, 336, 352
-0.992861, 329, 41, 360, 104
-0.992865, 333, 65, 364, 96
-0.99287, 289, 1, 352, 32
-0.992871, 377, 193, 440, 224
-0.992871, 321, 341, 384, 372
-0.992872, 369, 221, 432, 252
-0.992879, 217, 149, 280, 180
-0.992882, 273, 301, 336, 332
-0.992883, 57, 253, 120, 284
-0.992885, 1, 225, 64, 256
-0.99289, 249, 241, 312, 272
-0.992895, 369, 321, 432, 352
-0.992902, 185, 265, 248, 328
-0.992904, 289, 61, 352, 92
-0.992904, 129, 265, 256, 328
-0.992909, 245, 121, 276, 184
-0.992913, 69, 217, 100, 280
-0.99292, 361, 145, 424, 208
-0.992935, 137, 325, 200, 356
-0.99294, 225, 113, 256, 144
-0.992945, 433, 281, 496, 344
-0.992946, 425, 245, 488, 276
-0.99296, 49, 265, 112, 296
-0.992976, 345, 213, 376, 244
-0.992979, 433, 261, 496, 292
-0.99298, 193, 81, 256, 112
-0.992982, 177, 177, 240, 304
-0.99299, 57, 241, 88, 304
-0.992992, 241, 109, 304, 140
-0.993007, 265, 1, 328, 32
-0.993007, 409, 269, 472, 300
-0.993008, 317, 73, 348, 104
-0.99301, 197, 105, 228, 136
-0.993011, 337, 177, 368, 208
-0.993012, 257, 329, 320, 360
-0.993025, 153, 1, 216, 375
-0.993031, 145, 241, 272, 368
-0.993032, 89, 33, 152, 288
-0.993044, 425, 129, 488, 192
-0.99305, 241, 93, 272, 124
-0.99305, 281, 149, 312, 180
-0.993085, 341, 97, 372, 128
-0.993101, 229, 125, 260, 156
-0.993102, 213, 117, 244, 148
-0.993106, 337, 201, 368, 232
-0.993108, 201, 125, 232, 156
-0.993109, 161, 97, 192, 224
-0.993112, 341, 165, 372, 196
-0.993124, 337, 153, 368, 184
-0.993127, 353, 1, 416, 375
-0.993132, 221, 101, 252, 132
-0.993137, 161, 313, 224, 375
-0.993138, 433, 1, 464, 32
-0.993143, 385, 65, 448, 192
-0.993143, 105, 169, 136, 200
-0.993164, 305, 77, 336, 108
-0.993167, 217, 129, 248, 160
-0.993182, 345, 189, 376, 220
-0.993184, 117, 165, 148, 196
-0.993185, 145, 161, 176, 192
-0.993196, 345, 125, 376, 156
-0.993199, 393, 1, 424, 32
-0.993199, 169, 165, 200, 196
-0.993203, 381, 1, 412, 32
-0.993208, 33, 129, 96, 192
-0.993226, 265, 157, 296, 188
-0.993229, 357, 197, 388, 228
-0.99323, 349, 149, 380, 180
-0.993243, 345, 137, 376, 168
-0.993245, 157, 149, 188, 180
-0.993252, 257, 145, 288, 176
-0.993252, 93, 177, 124, 208
-0.993253, 133, 161, 164, 192
-0.993254, 337, 313, 464, 375
-0.993258, 269, 133, 300, 164
-0.993262, 369, 1, 400, 32
-0.993264, 325, 113, 356, 144
-0.993266, 445, 1, 476, 32
-0.993282, 325, 201, 356, 232
-0.993285, 337, 265, 464, 328
-0.993285, 353, 73, 384, 104
-0.99329, 345, 109, 376, 140
-0.993292, 413, 1, 444, 32
-0.993294, 321, 189, 352, 220
-0.993294, 257, 85, 288, 116
-0.993298, 393, 289, 456, 352
-0.993298, 65, 169, 320, 232
-0.993304, 145, 145, 176, 176
-0.993308, 185, 173, 216, 204
-0.993314, 457, 1, 488, 32
-0.993331, 157, 161, 188, 192
-0.993335, 297, 325, 328, 356
-0.993338, 357, 1, 388, 32
-0.993342, 293, 85, 324, 116
-0.993343, 353, 161, 384, 192
-0.993351, 357, 213, 388, 244
-0.993352, 229, 137, 260, 168
-0.993353, 185, 149, 216, 180
-0.993354, 329, 137, 360, 168
-0.993354, 357, 57, 388, 88
-0.993355, 301, 345, 332, 375
-0.993357, 281, 161, 312, 192
-0.993362, 37, 337, 68, 368
-0.993363, 281, 137, 312, 168
-0.993366, 417, 313, 480, 375
-0.993382, 325, 101, 356, 132
-0.993383, 241, 117, 272, 148
-0.993386, 269, 81, 300, 112
-0.993386, 177, 113, 208, 144
-0.993393, 193, 161, 224, 192
-0.993397, 169, 153, 200, 184
-0.993403, 305, 289, 336, 320
-0.993412, 37, 309, 68, 340
-0.993419, 345, 85, 376, 116
-0.993423, 329, 125, 360, 156
-0.993425, 73, 209, 136, 336
-0.993432, 301, 313, 332, 344
-0.993437, 1, 161, 64, 224
-0.993445, 1, 161, 500, 224
-0.993447, 469, 1, 500, 32
-0.99345, 297, 1, 328, 32
-0.99345, 1, 113, 500, 176
-0.993453, 257, 125, 288, 156
-0.993457, 241, 133, 272, 164
-0.993461, 289, 57, 320, 120
-0.993465, 161, 193, 224, 256
-0.993467, 305, 265, 336, 296
-0.993469, 125, 149, 156, 180
-0.993469, 289, 269, 320, 300
-0.993474, 301, 65, 332, 96
-0.993475, 281, 337, 312, 368
-0.993476, 181, 125, 212, 156
-0.993479, 369, 317, 400, 348
-0.993479, 125, 345, 156, 375
-0.99348, 289, 73, 320, 104
-0.993483, 357, 173, 388, 204
-0.993483, 317, 61, 348, 92
-0.993486, 97, 1, 224, 128
-0.993487, 57, 209, 88, 240
-0.993489, 277, 241, 308, 272
-0.99349, 65, 245, 96, 276
-0.993491, 1, 17, 128, 144
-0.993491, 217, 89, 248, 120
-0.993491, 45, 237, 76, 268
-0.993493, 301, 245, 332, 276
-0.993494, 309, 277, 340, 308
-0.993495, 285, 253, 316, 284
-0.993497, 329, 77, 360, 108
-0.993498, 113, 153, 144, 184
-0.993499, 77, 173, 108, 204
-0.9935, 37, 325, 68, 356
-0.993501, 281, 125, 312, 156
-0.993501, 357, 305, 388, 336
-0.993505, 69, 185, 100, 216
-0.993516, 81, 113, 208, 176
-0.993518, 85, 197, 116, 228
-0.993518, 33, 293, 64, 324
-0.993519, 297, 229, 328, 260
-0.993521, 337, 5, 368, 36
-0.993523, 389, 301, 420, 332
-0.993524, 281, 85, 312, 116
-0.993526, 173, 97, 204, 128
-0.993532, 81, 185, 112, 216
-0.993533, 329, 213, 360, 244
-0.993534, 81, 213, 112, 244
-0.993536, 293, 145, 324, 176
-0.993538, 281, 325, 312, 356
-0.993538, 249, 1, 280, 32
-0.993538, 209, 101, 240, 132
-0.99354, 41, 253, 72, 284
-0.993545, 217, 141, 248, 172
-0.993545, 329, 53, 360, 84
-0.993546, 241, 73, 272, 136
-0.993552, 237, 105, 268, 136
-0.993554, 357, 333, 388, 364
-0.993557, 369, 161, 496, 224
-0.993557, 189, 105, 220, 168
-0.993558, 301, 301, 332, 332
-0.993561, 61, 197, 92, 228
-0.993561, 377, 305, 408, 336
-0.993563, 425, 229, 456, 260
-0.993563, 97, 345, 128, 375
-0.993564, 261, 1, 292, 32
-0.993666, 241, 33, 368, 96
-0.993709, 97, 165, 224, 196
-0.993717, 97, 241, 160, 368
-0.993719, 1, 89, 500, 152
-0.993726, 409, 49, 472, 176
-0.993775, 37, 313, 68, 375
-0.993839, 345, 193, 376, 320
-0.99386, 249, 1, 280, 64
-0.993868, 161, 297, 288, 360
-0.993882, 113, 185, 240, 248
-0.993891, 145, 161, 176, 224
-0.993892, 129, 1, 192, 375
-0.993951, 121, 137, 152, 200
-0.993954, 209, 201, 336, 264
-0.994007, 185, 161, 216, 288
-0.994027, 273, 1, 304, 128
-0.994063, 17, 65, 144, 192
-0.994076, 157, 137, 188, 200
-0.994103, 257, 137, 288, 200
-0.994108, 233, 201, 296, 264
-0.994113, 221, 113, 252, 240
-0.994117, 77, 193, 108, 256
-0.994131, 313, 185, 344, 248
-0.994135, 177, 1, 304, 64
-0.994148, 393, 137, 456, 200
-0.994162, 89, 113, 120, 240
-0.994165, 365, 1, 396, 64
-0.994173, 321, 273, 384, 336
-0.994179, 353, 1, 384, 64
-0.994223, 321, 241, 384, 304
-0.994233, 241, 81, 368, 112
-0.994236, 353, 289, 480, 352
-0.994244, 393, 81, 456, 144
-0.99426, 321, 241, 448, 304
-0.994262, 361, 313, 424, 375
-0.994273, 209, 1, 272, 375
-0.994287, 265, 201, 328, 264
-0.994301, 357, 113, 388, 240
-0.994305, 101, 97, 132, 224
-0.994362, 425, 257, 488, 320
-0.994399, 37, 209, 68, 336
-0.994416, 257, 81, 500, 144
-0.994435, 433, 113, 496, 240
-0.994462, 257, 129, 500, 192
-0.994487, 1, 137, 500, 200
-0.994623, 257, 149, 384, 180
-0.994639, 113, 97, 144, 224
-0.994702, 185, 1, 248, 375
-0.994713, 137, 81, 168, 208
-0.994716, 257, 153, 500, 216
-0.994765, 61, 185, 92, 248
-0.994773, 209, 257, 272, 320
-0.994827, 217, 81, 248, 144
-0.994843, 369, 49, 496, 112
-0.994878, 257, 57, 288, 120
-0.994918, 161, 185, 416, 248
-0.994961, 249, 17, 280, 144
-0.994974, 369, 137, 496, 200
-0.994983, 433, 49, 496, 112
-0.994995, 33, 249, 64, 312
-0.995014, 65, 121, 320, 184
-0.995017, 313, 145, 344, 272
-0.995019, 277, 57, 308, 120
-0.995019, 1, 177, 64, 304
-0.995024, 357, 137, 388, 200
-0.995069, 73, 297, 136, 360
-0.995079, 217, 281, 280, 344
-0.99508, 257, 133, 384, 164
-0.995101, 193, 1, 256, 64
-0.99512, 133, 129, 164, 192
-0.995126, 65, 145, 320, 208
-0.99514, 393, 313, 456, 375
-0.995153, 49, 217, 80, 280
-0.995167, 317, 41, 348, 104
-0.995172, 333, 89, 364, 152
-0.995207, 233, 1, 264, 64
-0.995215, 401, 249, 464, 312
-0.995233, 129, 89, 192, 152
-0.99529, 305, 265, 336, 328
-0.995302, 369, 305, 400, 368
-0.995331, 325, 161, 356, 224
-0.995337, 401, 249, 432, 312
-0.99534, 109, 137, 140, 200
-0.995344, 177, 129, 304, 160
-0.995345, 193, 241, 256, 368
-0.995351, 361, 249, 424, 312
-0.995368, 301, 49, 332, 112
-0.995373, 369, 105, 496, 168
-0.995377, 193, 65, 224, 192
-0.995379, 153, 1, 216, 64
-0.995394, 417, 153, 480, 216
-0.995462, 125, 305, 156, 368
-0.995507, 413, 225, 444, 288
-0.995511, 65, 97, 320, 160
-0.995513, 161, 65, 416, 128
-0.99552, 209, 141, 336, 172
-0.995536, 401, 49, 464, 112
-0.995558, 257, 105, 500, 168
-0.995568, 57, 129, 120, 375
-0.995571, 89, 1, 152, 375
-0.995572, 305, 73, 432, 104
-0.995586, 417, 89, 480, 152
-0.995609, 257, 69, 384, 100
-0.995612, 343, 65, 358, 128
-0.995621, 25, 129, 88, 375
-0.995632, 341, 305, 372, 368
-0.995675, 347, 153, 362, 216
-0.995675, 257, 113, 288, 176
-0.995694, 243, 89, 258, 152
-0.99571, 421, 1, 452, 64
-0.995715, 161, 241, 288, 304
-0.995722, 129, 297, 384, 360
-0.995728, 351, 57, 366, 120
-0.995742, 225, 177, 288, 304
-0.995773, 249, 313, 312, 375
-0.99578, 1, 193, 500, 256
-0.995781, 293, 209, 324, 272
-0.995812, 369, 177, 400, 240
-0.995833, 361, 97, 424, 224
-0.99584, 65, 1, 128, 375
-0.995847, 33, 97, 160, 160
-0.995851, 97, 217, 224, 280
-0.995863, 33, 193, 288, 256
-0.995901, 257, 161, 384, 192
-0.995904, 97, 97, 160, 160
-0.995907, 389, 297, 420, 360
-0.995907, 129, 273, 384, 336
-0.995908, 257, 249, 500, 312
-0.995936, 33, 289, 64, 352
-0.995955, 357, 49, 388, 176
-0.99597, 237, 89, 252, 152
-0.99603, 257, 121, 384, 152
-0.99604, 9, 193, 72, 256
-0.996063, 393, 1, 424, 64
-0.996068, 185, 193, 248, 256
-0.996113, 161, 201, 288, 264
-0.996126, 333, 65, 348, 128
-0.996129, 321, 33, 352, 288
-0.996137, 225, 209, 480, 272
-0.996141, 257, 297, 500, 360
-0.996147, 161, 153, 288, 184
-0.996152, 317, 73, 332, 136
-0.996152, 33, 217, 288, 280
-0.996158, 33, 97, 96, 160
-0.996158, 53, 265, 84, 328
-0.996165, 347, 89, 362, 152
-0.996172, 301, 241, 332, 368
-0.996173, 353, 1, 480, 32
-0.996179, 377, 9, 408, 72
-0.996181, 53, 161, 84, 288
-0.996199, 249, 89, 264, 152
-0.996225, 177, 109, 304, 140
-0.996226, 351, 177, 366, 240
-0.996226, 261, 17, 292, 144
-0.99625, 229, 73, 260, 136
-0.996254, 293, 1, 324, 64
-0.996271, 161, 141, 288, 172
-0.996288, 257, 185, 500, 248
-0.996311, 321, 117, 448, 148
-0.996314, 405, 1, 436, 64
-0.996325, 241, 109, 368, 140
-0.996356, 321, 141, 448, 172
-0.996358, 189, 169, 204, 232
-0.996359, 81, 281, 208, 344
-0.996361, 321, 97, 448, 128
-0.996365, 231, 105, 246, 168
-0.996373, 273, 137, 288, 200
-0.996376, 437, 217, 468, 280
-0.996393, 241, 129, 272, 256
-0.996426, 257, 1, 500, 64
-0.996436, 321, 61, 448, 92
-0.996445, 357, 177, 372, 240
-0.996481, 1, 129, 64, 256
-0.996512, 129, 121, 256, 152
-0.996533, 1, 65, 500, 128
-0.996546, 129, 233, 384, 296
-0.99655, 353, 273, 416, 336
-0.996564, 321, 1, 352, 64
-0.996572, 149, 65, 180, 192
-0.996574, 323, 73, 338, 136
-0.996574, 405, 289, 436, 352
-0.99659, 129, 1, 256, 64
-0.996591, 293, 129, 324, 256
-0.996606, 293, 129, 324, 192
-0.996612, 137, 281, 200, 344
-0.996618, 369, 73, 432, 136
-0.996629, 49, 73, 176, 136
-0.996639, 289, 313, 320, 375
-0.996639, 113, 241, 240, 304
-0.996657, 339, 113, 354, 176
-0.996661, 237, 113, 252, 176
-0.996667, 311, 73, 326, 136
-0.996671, 177, 161, 192, 224
-0.996673, 193, 49, 256, 112
-0.996684, 365, 217, 396, 280
-0.996686, 279, 121, 294, 184
-0.996699, 321, 129, 448, 160
-0.996708, 257, 57, 500, 120
-0.996709, 1, 289, 256, 352
-0.996709, 33, 1, 96, 375
-0.996732, 321, 165, 448, 196
-0.996733, 1, 65, 128, 128
-0.996759, 305, 1, 432, 32
-0.996774, 33, 333, 160, 364
-0.996784, 357, 49, 372, 112
-0.996785, 341, 169, 356, 232
-0.996806, 161, 1, 416, 64
-0.99681, 421, 241, 452, 368
-0.996821, 97, 177, 224, 208
-0.996825, 341, 137, 356, 200
-0.996834, 353, 201, 368, 264
-0.996837, 321, 85, 448, 116
-0.996845, 1, 257, 256, 320
-0.996854, 389, 225, 420, 288
-0.996861, 1, 313, 256, 375
-0.996882, 357, 241, 388, 368
-0.996912, 69, 161, 100, 224
-0.996913, 301, 305, 316, 368
-0.996919, 177, 97, 304, 128
-0.996939, 301, 257, 316, 320
-0.996941, 93, 153, 124, 216
-0.996943, 9, 113, 72, 176
-0.996946, 259, 81, 274, 144
-0.996947, 393, 1, 456, 375
-0.996953, 401, 65, 464, 320
-0.996959, 65, 145, 96, 272
-0.996968, 223, 113, 238, 176
-0.997003, 285, 121, 300, 184
-0.997004, 161, 241, 224, 368
-0.997032, 119, 161, 134, 224
-0.997034, 409, 113, 472, 240
-0.997053, 305, 209, 336, 272
-0.997071, 275, 81, 290, 144
-0.997071, 243, 113, 258, 176
-0.997073, 161, 41, 288, 104
-0.997078, 321, 153, 448, 184
-0.9971, 417, 1, 480, 375
-0.997111, 177, 97, 208, 160
-0.997111, 289, 281, 320, 344
-0.997112, 225, 93, 352, 124
-0.997122, 283, 145, 298, 208
-0.997128, 417, 313, 448, 375
-0.997136, 21, 241, 52, 368
-0.997141, 289, 81, 304, 144
-0.997151, 377, 129, 440, 375
-0.997155, 333, 1, 364, 256
-0.997163, 129, 109, 256, 140
-0.997167, 199, 137, 214, 200
-0.997177, 295, 241, 310, 304
-0.997201, 309, 281, 324, 344
-0.997206, 433, 1, 496, 256
-0.997211, 361, 209, 376, 272
-0.997213, 81, 153, 112, 216
-0.99722, 303, 81, 318, 144
-0.997221, 425, 209, 456, 272
-0.997224, 83, 201, 98, 264
-0.997225, 49, 1, 176, 64
-0.99726, 209, 33, 240, 160
-0.997262, 333, 185, 348, 248
-0.997276, 183, 169, 198, 232
-0.997277, 209, 153, 336, 184
-0.997285, 357, 297, 388, 360
-0.997289, 1, 189, 128, 220
-0.997289, 289, 229, 416, 260
-0.997308, 349, 129, 364, 192
-0.997309, 171, 161, 186, 224
-0.997316, 425, 233, 456, 296
-0.99732, 129, 41, 384, 104
-0.997321, 33, 321, 160, 352
-0.997333, 321, 193, 448, 224
-0.997343, 257, 177, 384, 208
-0.997346, 273, 205, 400, 236
-0.997346, 301, 65, 332, 320
-0.997349, 33, 345, 160, 375
-0.997354, 93, 177, 108, 240
-0.997358, 137, 161, 152, 224
-0.997363, 281, 81, 296, 144
-0.997365, 113, 149, 240, 180
-0.997368, 201, 97, 216, 160
-0.997372, 289, 325, 416, 356
-0.997381, 353, 97, 416, 352
-0.997388, 157, 161, 172, 224
-0.99739, 453, 1, 468, 64
-0.997391, 385, 113, 448, 240
-0.997395, 65, 65, 320, 128
-0.997396, 1, 165, 128, 196
-0.997396, 273, 341, 400, 372
-0.997403, 265, 81, 280, 144
-0.997412, 67, 241, 82, 304
-0.997435, 273, 217, 400, 248
-0.997436, 329, 289, 360, 352
-0.997439, 295, 81, 310, 144
-0.997442, 447, 1, 462, 64
-0.997445, 359, 73, 374, 136
-0.997456, 109, 161, 124, 224
-0.997462, 257, 57, 384, 88
-0.997464, 275, 145, 290, 176
-0.99747, 385, 185, 416, 248
-0.997473, 357, 57, 372, 88
-0.997476, 69, 241, 100, 304
-0.997478, 475, 1, 490, 64
-0.997484, 187, 145, 202, 208
-0.99749, 465, 1, 480, 64
-0.9975, 103, 169, 118, 232
-0.997505, 321, 209, 448, 240
-0.997517, 333, 161, 348, 224
-0.997525, 271, 1, 286, 64
-0.997533, 353, 81, 368, 144
-0.997536, 113, 133, 240, 164
-0.997541, 363, 185, 378, 248
-0.997555, 337, 97, 368, 352
-0.997572, 1, 217, 500, 280
-0.997577, 393, 273, 424, 336
-0.997579, 357, 81, 388, 144
-0.99758, 209, 329, 336, 360
-0.997582, 197, 169, 228, 232
-0.997596, 337, 217, 368, 280
-0.997607, 281, 1, 296, 64
-0.99761, 305, 181, 432, 212
-0.997634, 319, 1, 334, 64
-0.997637, 257, 273, 500, 336
-0.997642, 321, 49, 336, 112
-0.997653, 291, 1, 306, 64
-0.997653, 165, 153, 180, 216
-0.997658, 49, 217, 176, 248
-0.997667, 129, 161, 144, 224
-0.997668, 49, 181, 176, 212
-0.997671, 377, 209, 408, 272
-0.997672, 1, 25, 128, 88
-0.997675, 323, 193, 338, 256
-0.997687, 307, 305, 322, 368
-0.997691, 341, 41, 356, 104
-0.997702, 49, 201, 176, 232
-0.997704, 317, 217, 348, 280
-0.997704, 141, 137, 156, 200
-0.997713, 233, 241, 296, 368
-0.997716, 293, 153, 324, 216
-0.997722, 143, 161, 158, 224
-0.997731, 289, 313, 416, 344
-0.99774, 365, 57, 380, 120
-0.997741, 193, 165, 320, 196
-0.997754, 343, 193, 358, 256
-0.997761, 301, 225, 316, 288
-0.997762, 1, 177, 128, 208
-0.997762, 263, 1, 278, 64
-0.997767, 49, 165, 176, 196
-0.997773, 289, 293, 416, 324
-0.997777, 59, 257, 74, 320
-0.997783, 21, 225, 52, 288
-0.997783, 135, 137, 150, 200
-0.997787, 311, 257, 326, 320
-0.997794, 267, 121, 282, 184
-0.997795, 77, 217, 92, 280
-0.997801, 429, 1, 444, 64
-0.997802, 195, 105, 210, 168
-0.997804, 49, 81, 112, 208
-0.997805, 209, 345, 336, 375
-0.997812, 195, 169, 210, 232
-0.997827, 113, 337, 240, 368
-0.997828, 213, 129, 228, 192
-0.997831, 337, 221, 464, 252
-0.99784, 145, 81, 272, 112
-0.997841, 1, 273, 500, 336
-0.997845, 459, 1, 474, 64
-0.997852, 369, 25, 496, 88
-0.997854, 209, 97, 224, 160
-0.997874, 361, 49, 424, 176
-0.997875, 257, 1, 384, 32
-0.997881, 313, 1, 328, 64
-0.997887, 361, 177, 392, 304
-0.997891, 289, 265, 416, 296
-0.997898, 349, 161, 364, 192
-0.997901, 225, 89, 240, 152
-0.997901, 357, 153, 372, 216
-0.997908, 307, 233, 322, 296
-0.997908, 49, 145, 176, 176
-0.99791, 129, 209, 384, 272
-0.997911, 147, 137, 162, 200
-0.997913, 201, 169, 216, 232
-0.997918, 289, 145, 304, 208
-0.997919, 155, 137, 170, 200
-0.997931, 327, 49, 342, 112
-0.997936, 21, 249, 52, 312
-0.997938, 213, 265, 244, 328
-0.997941, 33, 285, 160, 316
-0.997945, 369, 313, 384, 375
-0.997954, 209, 257, 336, 288
-0.997959, 315, 201, 330, 264
-0.997962, 151, 161, 166, 224
-0.997966, 341, 25, 372, 88
-0.997967, 273, 245, 400, 276
-0.997967, 87, 177, 102, 240
-0.997968, 129, 137, 144, 200
-0.997971, 209, 285, 336, 316
-0.997985, 441, 1, 456, 64
-0.997987, 351, 61, 366, 92
-0.997989, 1, 217, 128, 248
-0.997992, 179, 137, 194, 200
-0.997995, 335, 41, 350, 104
-0.997995, 1, 201, 128, 232
-0.998006, 165, 129, 196, 375
-0.998013, 367, 1, 382, 64
-0.998013, 283, 149, 298, 180
-0.998015, 289, 65, 320, 320
-0.998017, 271, 57, 286, 120
-0.998018, 253, 113, 268, 176
-0.998022, 111, 137, 126, 200
-0.998037, 311, 49, 326, 112
-0.998044, 193, 137, 208, 200
-0.998047, 33, 265, 160, 296
-0.998048, 215, 97, 230, 160
-0.998052, 117, 129, 148, 375
-0.998067, 353, 205, 368, 236
-0.998068, 281, 57, 296, 120
-0.998078, 171, 137, 186, 200
-0.99809, 325, 1, 340, 64
-0.998093, 1, 305, 500, 368
-0.998097, 209, 65, 336, 96
-0.998109, 345, 97, 360, 128
-0.998113, 267, 153, 282, 216
-0.998117, 261, 137, 276, 200
-0.998118, 193, 1, 320, 32
-0.998126, 325, 129, 356, 375
-0.998126, 269, 145, 284, 176
-0.998127, 49, 229, 176, 260
-0.998143, 93, 153, 108, 216
-0.998149, 235, 101, 250, 132
-0.998153, 375, 1, 390, 64
-0.998162, 1, 249, 500, 312
-0.998169, 293, 57, 308, 120
-0.998177, 435, 1, 450, 64
-0.998183, 309, 201, 324, 264
-0.998187, 305, 57, 320, 120
-0.998193, 289, 277, 416, 308
-0.998194, 177, 177, 304, 208
-0.998198, 81, 169, 96, 232
-0.998198, 289, 225, 304, 288
-0.998206, 343, 69, 358, 100
-0.998208, 273, 193, 400, 224
-0.998213, 35, 289, 50, 352
-0.998214, 229, 129, 244, 192
-0.998223, 277, 161, 292, 224
-0.998229, 229, 121, 244, 152
-0.998236, 361, 209, 376, 240
-0.998251, 209, 305, 336, 336
-0.998258, 311, 81, 326, 112
-0.998279, 353, 257, 480, 288
-0.99828, 441, 5, 472, 20
-0.998281, 317, 361, 348, 375
-0.998281, 329, 127, 360, 142
-0.998281, 65, 209, 96, 224
-0.998281, 305, 305, 336, 320
-0.998282, 353, 77, 384, 92
-0.998282, 349, 89, 380, 104
-0.998283, 413, 5, 444, 20
-0.998283, 361, 185, 392, 200
-0.998284, 285, 261, 316, 276
-0.998284, 345, 359, 376, 374
-0.998284, 249, 155, 280, 170
-0.998284, 393, 3, 424, 18
-0.998284, 301, 315, 332, 330
-0.998285, 97, 165, 128, 180
-0.998285, 365, 61, 396, 76
-0.998285, 329, 135, 360, 150
-0.998286, 57, 229, 88, 244
-0.998286, 409, 309, 440, 324
-0.998286, 101, 183, 132, 198
-0.998287, 73, 185, 104, 200
-0.998287, 297, 349, 328, 364
-0.998287, 361, 69, 392, 84
-0.998287, 357, 175, 388, 190
-0.998288, 281, 361, 312, 375
-0.998288, 317, 77, 332, 108
-0.998288, 329, 61, 360, 76
-0.998289, 297, 343, 328, 358
-0.99829, 33, 313, 64, 328
-0.99829, 361, 205, 392, 220
-0.998292, 209, 245, 336, 276
-0.998293, 217, 137, 248, 152
-0.998293, 301, 261, 332, 276
-0.998293, 381, 313, 412, 328
-0.998293, 353, 227, 384, 242
-0.998293, 249, 147, 280, 162
-0.998294, 33, 293, 64, 308
-0.998295, 301, 329, 332, 344
-0.998295, 337, 317, 464, 348
-0.998296, 41, 259, 72, 274
-0.998297, 177, 175, 208, 190
-0.998297, 325, 201, 356, 216
-0.998297, 257, 85, 288, 100
-0.998297, 289, 275, 320, 290
-0.998298, 337, 101, 368, 116
-0.998298, 133, 157, 164, 172
-0.998298, 337, 7, 368, 22
-0.998298, 337, 1, 368, 16
-0.998298, 289, 79, 320, 94
-0.998299, 269, 161, 300, 176
-0.998299, 357, 83, 388, 98
-0.998299, 217, 107, 248, 122
-0.9983, 229, 125, 260, 140
-0.998301, 37, 345, 68, 360
-0.998302, 233, 101, 264, 116
-0.998303, 309, 279, 340, 294
-0.998303, 397, 225, 428, 352
-0.998303, 305, 267, 336, 282
-0.998304, 289, 87, 320, 102
-0.998304, 37, 339, 68, 354
-0.998304, 209, 317, 336, 348
-0.998307, 461, 5, 492, 20
-0.998308, 265, 143, 296, 158
-0.998309, 105, 177, 136, 192
-0.998309, 329, 121, 360, 136
-0.99831, 333, 67, 364, 82
-0.998311, 281, 149, 312, 164
-0.998312, 293, 243, 324, 258
-0.998313, 329, 143, 360, 158
-0.998315, 149, 157, 180, 172
-0.998315, 277, 143, 308, 158
-0.998316, 37, 319, 68, 334
-0.998317, 241, 93, 272, 108
-0.998317, 221, 101, 252, 116
-0.998318, 321, 109, 352, 124
-0.998318, 353, 169, 384, 184
-0.998318, 221, 115, 252, 130
-0.998319, 337, 201, 368, 216
-0.99832, 429, 5, 460, 20
-0.998321, 281, 161, 312, 176
-0.998321, 269, 83, 300, 98
-0.998321, 343, 153, 358, 184
-0.998322, 349, 219, 380, 234
-0.998322, 81, 177, 112, 192
-0.998322, 297, 1, 328, 16
-0.998322, 301, 255, 332, 270
-0.998323, 301, 321, 332, 336
-0.998324, 273, 97, 400, 128
-0.998324, 33, 305, 160, 336
-0.998325, 309, 289, 340, 304
-0.998328, 197, 105, 228, 120
-0.99833, 193, 171, 224, 186
-0.998331, 329, 149, 360, 164
-0.998331, 345, 131, 376, 146
-0.998334, 105, 171, 136, 186
-0.998334, 233, 131, 264, 146
-0.998334, 297, 355, 328, 370
-0.998335, 229, 137, 260, 152
-0.998335, 345, 121, 376, 136
-0.998336, 337, 73, 368, 88
-0.998336, 349, 161, 380, 176
-0.998336, 193, 111, 224, 126
-0.998337, 353, 1, 384, 16
-0.99834, 297, 361, 328, 375
-0.998342, 329, 73, 344, 104
-0.998342, 201, 123, 232, 138
-0.998344, 325, 115, 356, 130
-0.998347, 209, 101, 240, 116
-0.99835, 133, 129, 164, 375
-0.998352, 149, 163, 180, 178
-0.998354, 337, 181, 368, 196
-0.998356, 333, 159, 364, 174
-0.998356, 345, 137, 376, 152
-0.998357, 205, 129, 236, 144
-0.998357, 355, 217, 370, 248
-0.998357, 369, 81, 496, 144
-0.998357, 185, 165, 216, 180
-0.998358, 365, 1, 396, 16
-0.998358, 345, 213, 376, 228
-0.998358, 65, 1, 128, 256
-0.998362, 301, 83, 332, 98
-0.998363, 357, 211, 388, 226
-0.998365, 353, 181, 480, 212
-0.998367, 345, 115, 376, 130
-0.998367, 243, 93, 258, 124
-0.998367, 349, 155, 380, 170
-0.998369, 209, 233, 336, 264
-0.998369, 173, 169, 204, 184
-0.998371, 225, 201, 352, 232
-0.998372, 349, 33, 380, 288
-0.998373, 273, 65, 304, 320
-0.998373, 345, 143, 376, 158
-0.998373, 333, 209, 364, 224
-0.998375, 129, 163, 160, 178
-0.998376, 161, 165, 192, 180
-0.99838, 347, 205, 362, 236
-0.998384, 289, 145, 304, 176
-0.998387, 217, 125, 248, 140
-0.998387, 337, 175, 368, 190
-0.998389, 341, 107, 372, 122
-0.998394, 349, 149, 380, 164
-0.998395, 349, 137, 364, 168
-0.998396, 323, 73, 338, 104
-0.998396, 277, 155, 308, 170
-0.998398, 279, 129, 294, 160
-0.9984, 313, 77, 344, 92
-0.9984, 221, 131, 252, 146
-0.998406, 97, 93, 224, 124
-0.998406, 209, 269, 336, 300
-0.998409, 103, 177, 118, 208
-0.998412, 333, 165, 364, 180
-0.998414, 189, 173, 204, 204
-0.998415, 157, 161, 172, 192
-0.998416, 117, 167, 148, 182
-0.998419, 345, 207, 376, 222
-0.99844, 345, 67, 376, 82
-0.99844, 337, 13, 464, 44
-0.998446, 145, 129, 176, 375
-0.998453, 395, 1, 410, 32
-0.998454, 169, 153, 184, 184
-0.998458, 325, 73, 356, 88
-0.998471, 195, 109, 210, 140
-0.998474, 239, 113, 254, 144
-0.998475, 435, 1, 450, 32
-0.998477, 369, 129, 496, 160
-0.998482, 441, 1, 456, 32
-0.998487, 339, 113, 354, 144
-0.998489, 33, 129, 160, 160
-0.998489, 49, 1, 176, 128
-0.998493, 237, 129, 252, 160
-0.998496, 369, 305, 496, 336
-0.998497, 433, 65, 496, 192
-0.998498, 269, 149, 300, 164
-0.998498, 365, 61, 380, 92
-0.998505, 355, 153, 370, 184
-0.998505, 49, 249, 176, 280
-0.998507, 389, 1, 404, 32
-0.998508, 429, 1, 444, 32
-0.998511, 325, 209, 356, 336
-0.998514, 341, 201, 356, 232
-0.998514, 305, 79, 368, 94
-0.998517, 369, 245, 496, 276
-0.998518, 381, 1, 396, 32
-0.998523, 119, 165, 134, 196
-0.998526, 407, 1, 422, 32
-0.998528, 349, 61, 380, 76
-0.998531, 193, 127, 256, 142
-0.998533, 313, 73, 376, 88
-0.998533, 109, 173, 124, 204
-0.998534, 181, 169, 196, 200
-0.998541, 121, 163, 184, 178
-0.998541, 401, 1, 416, 32
-0.998542, 277, 157, 292, 188
-0.998543, 1, 229, 128, 260
-0.998543, 351, 173, 366, 204
-0.998545, 1, 1, 128, 64
-0.998551, 175, 165, 190, 196
-0.998551, 245, 65, 276, 320
-0.998552, 337, 341, 464, 372
-0.998553, 227, 133, 242, 164
-0.998553, 249, 151, 312, 166
-0.998556, 363, 197, 378, 228
-0.998558, 413, 145, 444, 272
-0.998558, 355, 193, 370, 224
-0.998559, 373, 1, 388, 32
-0.998559, 337, 69, 352, 100
-0.99856, 9, 1, 72, 375
-0.99856, 253, 161, 284, 288
-0.998561, 449, 1, 464, 32
-0.998561, 221, 117, 236, 148
-0.998564, 135, 161, 150, 192
-0.998566, 193, 105, 256, 120
-0.998571, 163, 161, 178, 192
-0.998574, 257, 157, 320, 172
-0.998575, 377, 145, 408, 272
-0.998578, 97, 57, 224, 120
-0.99858, 161, 149, 176, 180
-0.998583, 95, 185, 110, 216
-0.998583, 97, 49, 160, 176
-0.998587, 321, 67, 384, 82
-0.998588, 193, 133, 256, 148
-0.99859, 313, 211, 376, 226
-0.998594, 337, 233, 464, 264
-0.998594, 433, 241, 464, 368
-0.998594, 337, 141, 400, 156
-0.998596, 105, 129, 136, 375
-0.998603, 305, 81, 320, 112
-0.998607, 217, 131, 280, 146
-0.998608, 193, 121, 256, 136
-0.99861, 113, 325, 240, 356
-0.998611, 161, 159, 224, 174
-0.998612, 195, 177, 210, 208
-0.998614, 143, 161, 158, 192
-0.998615, 337, 133, 400, 148
-0.998622, 377, 225, 408, 352
-0.998623, 265, 85, 328, 100
-0.998624, 345, 61, 408, 76
-0.998624, 49, 25, 176, 88
-0.998629, 337, 147, 400, 162
-0.99863, 185, 139, 248, 154
-0.99863, 305, 141, 368, 156
-0.99863, 225, 143, 288, 158
-0.99863, 337, 125, 400, 140
-0.998631, 345, 207, 408, 222
-0.998631, 305, 155, 368, 170
-0.998632, 191, 121, 206, 152
-0.998634, 297, 357, 360, 372
-0.998634, 301, 325, 316, 356
-0.998635, 297, 351, 360, 366
-0.998637, 337, 115, 400, 130
-0.998637, 125, 165, 140, 196
-0.998639, 273, 209, 304, 336
-0.998639, 341, 141, 356, 172
-0.99864, 457, 1, 472, 32
-0.99864, 313, 61, 376, 76
-0.99864, 225, 153, 288, 168
-0.99864, 305, 165, 368, 180
-0.99864, 297, 115, 360, 130
-0.998643, 217, 137, 280, 152
-0.998643, 217, 125, 280, 140
-0.998645, 201, 65, 232, 320
-0.998645, 345, 167, 408, 182
-0.998646, 337, 155, 400, 170
-0.998648, 467, 1, 482, 32
-0.998648, 297, 205, 360, 220
-0.998648, 305, 135, 368, 150
-0.998649, 305, 149, 368, 164
-0.998649, 151, 161, 166, 192
-0.998649, 177, 165, 240, 180
-0.99865, 305, 309, 320, 340
-0.99865, 169, 123, 232, 138
-0.998652, 249, 145, 312, 160
-0.998652, 297, 271, 360, 286
-0.998652, 329, 173, 392, 188
-0.998652, 305, 85, 368, 100
-0.998653, 361, 3, 424, 18
-0.998653, 273, 133, 288, 164
-0.998654, 281, 153, 344, 168
-0.998654, 297, 109, 360, 124
-0.998655, 329, 103, 392, 118
-0.998655, 289, 327, 352, 342
-0.998657, 289, 341, 352, 356
-0.998659, 331, 189, 346, 220
-0.998661, 417, 5, 480, 20
-0.998661, 185, 111, 248, 126
-0.998661, 329, 109, 392, 124
-0.998661, 345, 67, 408, 82
-0.998661, 345, 75, 408, 90
-0.998663, 217, 101, 280, 116
-0.998664, 169, 129, 232, 144
-0.998664, 145, 167, 208, 182
-0.998665, 273, 359, 336, 374
-0.998665, 281, 287, 344, 302
-0.998665, 337, 49, 464, 80
-0.998666, 281, 147, 344, 162
-0.998668, 209, 115, 272, 130
-0.998668, 265, 277, 328, 292
-0.998669, 233, 119, 296, 134
-0.998669, 297, 121, 360, 136
-0.998669, 297, 279, 360, 294
-0.998669, 305, 171, 368, 186
-0.998669, 337, 95, 400, 110
-0.998669, 289, 245, 352, 260
-0.998669, 33, 211, 96, 226
-0.99867, 345, 201, 408, 216
-0.99867, 345, 161, 408, 176
-0.998671, 293, 157, 308, 188
-0.998672, 321, 1, 384, 16
-0.998674, 137, 157, 200, 172
-0.998674, 97, 167, 160, 182
-0.998674, 417, 231, 480, 246
-0.998675, 289, 321, 352, 336
-0.998675, 241, 127, 304, 142
-0.998676, 233, 93, 296, 108
-0.998677, 289, 237, 352, 252
-0.998677, 329, 179, 392, 194
-0.998679, 305, 291, 368, 306
-0.99868, 17, 255, 80, 270
-0.998681, 9, 295, 72, 310
-0.998681, 57, 181, 120, 196
-0.998681, 321, 189, 384, 204
-0.998682, 281, 79, 344, 94
-0.998682, 297, 103, 360, 118
-0.998683, 33, 225, 96, 240
-0.998683, 345, 85, 408, 100
-0.998684, 353, 177, 416, 192
-0.998684, 393, 231, 456, 246
-0.998685, 289, 335, 352, 350
-0.998685, 9, 271, 72, 286
-0.998686, 201, 105, 216, 136
-0.998686, 289, 253, 352, 268
-0.998686, 297, 301, 360, 316
-0.998687, 349, 125, 364, 156
-0.998688, 353, 213, 416, 228
-0.998689, 321, 205, 384, 220
-0.998689, 473, 1, 488, 32
-0.998689, 97, 173, 160, 188
-0.99869, 17, 265, 80, 280
-0.99869, 353, 183, 416, 198
-0.998691, 305, 127, 368, 142
-0.998691, 353, 85, 368, 116
-0.998692, 257, 163, 320, 178
-0.998692, 65, 167, 128, 182
-0.998692, 161, 153, 224, 168
-0.998692, 193, 99, 256, 114
-0.998692, 297, 265, 360, 280
-0.998692, 25, 241, 88, 256
-0.998693, 329, 217, 392, 232
-0.998693, 201, 145, 264, 160
-0.998693, 9, 319, 72, 334
-0.998694, 9, 309, 72, 324
-0.998694, 89, 183, 152, 198
-0.998695, 273, 73, 336, 88
-0.998696, 153, 173, 216, 188
-0.998696, 401, 249, 464, 264
-0.998697, 33, 217, 96, 232
-0.998698, 345, 11, 408, 26
-0.998698, 265, 293, 328, 308
-0.998698, 241, 87, 304, 102
-0.998699, 433, 225, 496, 240
-0.998699, 257, 353, 320, 368
-0.9987, 57, 173, 120, 188
-0.9987, 25, 249, 88, 264
-0.9987, 49, 193, 112, 208
-0.998701, 257, 253, 320, 268
-0.998701, 257, 79, 320, 94
-0.998702, 285, 129, 300, 160
-0.998703, 265, 327, 328, 342
-0.998703, 9, 339, 72, 354
-0.998703, 257, 137, 320, 152
-0.998708, 221, 129, 236, 160
-0.998713, 271, 81, 286, 112
-0.998719, 145, 1, 272, 32
-0.998724, 423, 1, 438, 32
-0.998724, 229, 109, 244, 140
-0.998725, 277, 81, 292, 112
-0.998726, 263, 149, 278, 180
-0.998729, 195, 161, 210, 192
-0.99873, 353, 73, 480, 104
-0.998732, 259, 85, 274, 116
-0.998734, 337, 269, 464, 300
-0.998744, 179, 153, 194, 184
-0.998745, 201, 169, 216, 200
-0.998747, 81, 185, 96, 216
-0.998753, 337, 181, 352, 212
-0.998755, 81, 117, 208, 148
-0.998756, 305, 249, 320, 280
-0.998761, 185, 157, 200, 188
-0.998762, 369, 205, 496, 236
-0.998762, 89, 193, 104, 224
-0.998763, 1, 241, 128, 272
-0.998764, 73, 205, 88, 236
-0.998764, 299, 261, 314, 292
-0.998768, 357, 181, 372, 212
-0.998773, 249, 93, 264, 124
-0.998777, 243, 125, 258, 156
-0.998778, 291, 241, 306, 272
-0.998779, 361, 241, 424, 368
-0.99878, 299, 85, 314, 116
-0.998782, 331, 57, 346, 88
-0.998785, 337, 289, 464, 320
-0.998791, 349, 149, 364, 180
-0.9988, 269, 157, 284, 188
-0.998803, 61, 261, 76, 292
-0.998803, 151, 149, 166, 180
-0.998807, 97, 193, 224, 224
-0.998808, 325, 61, 340, 92
-0.998812, 361, 73, 376, 104
-0.998815, 345, 53, 360, 84
-0.998818, 445, 217, 460, 248
-0.998819, 81, 213, 96, 244
-0.998821, 347, 193, 362, 224
-0.998832, 293, 85, 308, 116
-0.998833, 129, 277, 256, 308
-0.998835, 309, 289, 324, 320
-0.998837, 343, 1, 358, 32
-0.998842, 229, 97, 244, 128
-0.998843, 145, 297, 272, 328
-0.998845, 301, 237, 316, 268
-0.998846, 125, 241, 156, 368
-0.998846, 177, 189, 304, 220
-0.99886, 315, 65, 330, 96
-0.998862, 265, 85, 280, 116
-0.998864, 141, 149, 156, 180
-0.998865, 285, 81, 300, 112
-0.998867, 367, 1, 382, 32
-0.998868, 111, 157, 126, 188
-0.998869, 347, 217, 362, 248
-0.998872, 339, 57, 354, 88
-0.998877, 125, 153, 140, 184
-0.998883, 349, 109, 364, 140
-0.998884, 169, 165, 184, 196
-0.998884, 351, 317, 366, 348
-0.998887, 69, 241, 84, 272
-0.99889, 413, 1, 428, 32
-0.998897, 233, 33, 264, 288
-0.9989, 193, 221, 320, 252
-0.99891, 349, 81, 364, 208
-0.998913, 49, 49, 176, 112
-0.998916, 433, 129, 496, 375
-0.998929, 225, 189, 352, 220
-0.998932, 257, 65, 288, 320
-0.998936, 353, 1, 368, 128
-0.998967, 185, 65, 216, 320
-0.998969, 161, 69, 288, 100
-0.998975, 339, 49, 354, 176
-0.998977, 145, 165, 272, 196
-0.999019, 345, 129, 360, 256
-0.999045, 193, 81, 320, 112
-0.999049, 337, 329, 464, 360
-0.999052, 241, 45, 368, 76
-0.99906, 153, 33, 184, 288
-0.99906, 113, 25, 240, 88
-0.999062, 321, 245, 448, 276
-0.999064, 221, 33, 252, 288
-0.999075, 347, 33, 362, 160
-0.999081, 277, 65, 292, 192
-0.999087, 221, 17, 252, 144
-0.999088, 333, 1, 348, 128
-0.999097, 315, 1, 330, 128
-0.999119, 81, 313, 208, 344
-0.999123, 243, 65, 258, 192
-0.999123, 161, 265, 288, 296
-0.999128, 369, 193, 496, 224
-0.99913, 113, 261, 240, 292
-0.999135, 429, 193, 460, 320
-0.999136, 273, 113, 288, 240
-0.999152, 327, 1, 342, 128
-0.999157, 281, 113, 296, 240
-0.99916, 177, 145, 192, 272
-0.999161, 369, 141, 496, 172
-0.999166, 369, 169, 496, 200
-0.999175, 85, 129, 116, 375
-0.999184, 321, 1, 336, 128
-0.999188, 271, 65, 286, 192
-0.999193, 265, 65, 280, 192
-0.9992, 255, 65, 270, 192
-0.999209, 125, 33, 156, 288
-0.999211, 225, 25, 480, 88
-0.999212, 445, 209, 476, 336
-0.999221, 161, 329, 288, 360
-0.999223, 367, 1, 382, 128
-0.999225, 313, 129, 344, 375
-0.999227, 461, 1, 492, 256
-0.999229, 351, 145, 366, 272
-0.999237, 33, 117, 160, 148
-0.999239, 235, 65, 250, 192
-0.99924, 249, 81, 264, 208
-0.999258, 141, 33, 172, 288
-0.999271, 287, 65, 302, 192
-0.999274, 355, 49, 370, 176
-0.999275, 167, 145, 182, 272
-0.999287, 1, 145, 128, 176
-0.999295, 309, 1, 324, 128
-0.999295, 339, 161, 354, 288
-0.999298, 289, 13, 416, 44
-0.999299, 135, 129, 150, 256
-0.999306, 325, 65, 340, 192
-0.999318, 339, 97, 354, 224
-0.999319, 299, 241, 314, 368
-0.999322, 209, 81, 224, 208
-0.999331, 339, 1, 354, 128
-0.999339, 465, 1, 480, 128
-0.99934, 267, 113, 282, 240
-0.999341, 161, 129, 176, 256
-0.999358, 369, 113, 496, 144
-0.999358, 81, 289, 208, 320
-0.999359, 193, 113, 208, 240
-0.999377, 201, 97, 216, 224
-0.999378, 317, 65, 332, 192
-0.999379, 293, 65, 308, 192
-0.999379, 333, 161, 348, 288
-0.999382, 151, 145, 166, 272
-0.999383, 143, 129, 158, 256
-0.999385, 301, 65, 316, 192
-0.999385, 427, 1, 442, 128
-0.999392, 439, 1, 454, 128
-0.999395, 187, 113, 202, 240
-0.999404, 317, 177, 332, 304
-0.999404, 397, 1, 412, 128
-0.999404, 403, 1, 418, 128
-0.999405, 123, 145, 138, 272
-0.999409, 331, 65, 346, 192
-0.999411, 409, 1, 424, 128
-0.999413, 307, 193, 322, 320
-0.999414, 359, 1, 374, 128
-0.99942, 311, 65, 326, 192
-0.999425, 475, 1, 490, 128
-0.999429, 287, 113, 302, 240
-0.999432, 323, 177, 338, 304
-0.999434, 451, 1, 466, 128
-0.999436, 373, 1, 388, 128
-0.999438, 433, 1, 448, 128
-0.999441, 229, 65, 244, 192
-0.999441, 387, 1, 402, 128
-0.999442, 129, 145, 144, 272
-0.999445, 249, 33, 264, 160
-0.999453, 457, 1, 472, 128
-0.999469, 301, 193, 316, 320
-0.999471, 445, 1, 460, 128
-0.999472, 379, 1, 394, 128
-0.999475, 239, 113, 254, 240
-0.999483, 117, 145, 132, 272
-0.999487, 277, 161, 292, 288
-0.999489, 83, 177, 98, 304
-0.99949, 129, 97, 144, 224
-0.999493, 319, 355, 334, 370
-0.999494, 213, 101, 228, 116
-0.999494, 301, 339, 316, 354
-0.999494, 273, 141, 288, 156
-0.999494, 227, 121, 242, 136
-0.999495, 11, 303, 26, 318
-0.999495, 309, 305, 324, 320
-0.999495, 379, 1, 394, 16
-0.999495, 355, 87, 370, 102
-0.999496, 341, 325, 356, 340
-0.999496, 341, 63, 356, 78
-0.999496, 341, 145, 356, 160
-0.999496, 167, 97, 182, 224
-0.999497, 299, 241, 314, 256
-0.999497, 347, 123, 362, 138
-0.999497, 365, 71, 380, 86
-0.999497, 141, 157, 156, 172
-0.999497, 131, 159, 146, 174
-0.999497, 451, 5, 466, 20
-0.999498, 303, 353, 318, 368
-0.999499, 221, 127, 236, 142
-0.999499, 223, 101, 238, 116
-0.999499, 297, 153, 312, 168
-0.999499, 311, 291, 326, 306
-0.9995, 347, 319, 362, 334
-0.9995, 295, 259, 310, 274
-0.9995, 373, 359, 388, 374
-0.9995, 475, 5, 490, 20
-0.9995, 147, 157, 162, 172
-0.9995, 393, 311, 408, 326
-0.999501, 17, 303, 32, 318
-0.999501, 205, 105, 220, 120
-0.999501, 47, 313, 62, 328
-0.999501, 481, 1, 496, 128
-0.999501, 301, 345, 316, 360
-0.999502, 95, 189, 110, 204
-0.999502, 343, 5, 358, 20
-0.999502, 417, 305, 432, 320
-0.999503, 389, 317, 404, 332
-0.999503, 267, 157, 282, 172
-0.999503, 353, 181, 368, 196
-0.999504, 191, 133, 206, 148
-0.999504, 285, 85, 300, 100
-0.999504, 341, 151, 356, 166
-0.999504, 263, 147, 278, 162
-0.999504, 305, 257, 320, 272
-0.999504, 275, 83, 290, 98
-0.999504, 75, 209, 90, 224
-0.999505, 331, 353, 346, 368
-0.999505, 281, 153, 296, 168
-0.999505, 309, 269, 324, 284
-0.999506, 195, 123, 210, 138
-0.999506, 175, 97, 190, 224
-0.999506, 341, 119, 356, 134
-0.999507, 343, 211, 358, 226
-0.999507, 281, 159, 296, 174
-0.999507, 299, 85, 314, 100
-0.999508, 247, 93, 262, 108
-0.999508, 185, 161, 200, 288
-0.999508, 369, 65, 384, 80
-0.99951, 335, 67, 350, 82
-0.99951, 339, 179, 354, 194
-0.999511, 373, 1, 388, 16
-0.999512, 357, 161, 372, 288
-0.999512, 357, 203, 372, 218
-0.999512, 159, 155, 174, 170
-0.999513, 303, 361, 318, 375
-0.999513, 303, 1, 318, 16
-0.999513, 303, 1, 318, 128
-0.999514, 351, 1, 366, 16
-0.999515, 149, 163, 164, 178
-0.999515, 349, 213, 364, 228
-0.999515, 359, 169, 374, 184
-0.999516, 355, 97, 370, 224
-0.999516, 429, 5, 444, 20
-0.999517, 425, 313, 440, 328
-0.999517, 347, 113, 362, 128
-0.999519, 139, 163, 154, 178
-0.999519, 199, 173, 214, 188
-0.99952, 363, 203, 378, 218
-0.99952, 335, 205, 350, 220
-0.99952, 355, 209, 370, 336
-0.999521, 239, 133, 254, 148
-0.999524, 229, 137, 244, 152
-0.999525, 351, 157, 366, 172
-0.999526, 101, 1, 132, 256
-0.999526, 99, 183, 114, 198
-0.999527, 355, 217, 370, 232
-0.999527, 165, 33, 196, 288
-0.999528, 295, 159, 310, 174
-0.999529, 173, 165, 188, 180
-0.99953, 223, 133, 238, 148
-0.99953, 271, 161, 286, 288
-0.999531, 165, 165, 180, 180
-0.999531, 349, 145, 364, 160
-0.999532, 349, 135, 364, 150
-0.999532, 457, 161, 488, 288
-0.999534, 239, 99, 254, 114
-0.999534, 157, 163, 172, 178
-0.999534, 361, 1, 376, 16
-0.999535, 273, 153, 288, 168
-0.999535, 295, 1, 310, 128
-0.999536, 193, 177, 208, 192
-0.999537, 261, 113, 276, 240
-0.999538, 367, 1, 382, 16
-0.999539, 171, 159, 186, 174
-0.999539, 201, 145, 216, 272
-0.999541, 143, 81, 158, 208
-0.999542, 181, 171, 196, 186
-0.999542, 355, 163, 370, 178
-0.999544, 231, 103, 246, 118
-0.999545, 361, 217, 376, 232
-0.999546, 117, 169, 132, 184
-0.999546, 355, 65, 370, 80
-0.999547, 305, 85, 320, 100
-0.999547, 337, 113, 352, 128
-0.999548, 341, 203, 356, 218
-0.999549, 283, 161, 298, 288
-0.999549, 197, 109, 212, 124
-0.99955, 349, 175, 364, 190
-0.999551, 223, 65, 238, 192
-0.999553, 105, 177, 120, 192
-0.999555, 343, 105, 358, 120
-0.999555, 353, 59, 368, 74
-0.999555, 71, 225, 86, 352
-0.999555, 287, 147, 302, 162
-0.999556, 363, 209, 378, 224
-0.999559, 133, 165, 148, 180
-0.999559, 311, 83, 326, 98
-0.99956, 181, 97, 196, 224
-0.99956, 165, 157, 180, 172
-0.99956, 123, 167, 138, 182
-0.999562, 113, 1, 144, 256
-0.999562, 123, 97, 138, 224
-0.999564, 345, 163, 360, 178
-0.999565, 343, 157, 358, 172
-0.999566, 307, 241, 322, 368
-0.999568, 271, 147, 286, 162
-0.99957, 351, 151, 366, 166
-0.99957, 77, 193, 92, 320
-0.99957, 187, 173, 202, 188
-0.999572, 103, 161, 118, 288
-0.999574, 231, 127, 246, 142
-0.999575, 77, 97, 108, 224
-0.999577, 413, 193, 444, 320
-0.999579, 347, 169, 362, 184
-0.999579, 59, 241, 74, 368
-0.99958, 193, 161, 208, 288
-0.99958, 111, 173, 126, 188
-0.999581, 415, 1, 430, 128
-0.999584, 287, 153, 302, 168
-0.999585, 317, 81, 332, 96
-0.999588, 333, 73, 348, 88
-0.99959, 71, 161, 86, 288
-0.999597, 89, 161, 104, 288
-0.999598, 349, 65, 364, 80
-0.9996, 153, 97, 168, 224
-0.9996, 343, 69, 358, 84
-0.999601, 327, 75, 342, 90
-0.999608, 65, 177, 80, 304
-0.999609, 357, 211, 372, 226
-0.999609, 233, 113, 248, 240
-0.999614, 93, 113, 108, 240
-0.999618, 277, 147, 292, 162
-0.99962, 421, 1, 436, 128
-0.99962, 217, 81, 232, 208
-0.999621, 111, 145, 126, 272
-0.999624, 169, 1, 232, 128
-0.999625, 293, 225, 308, 352
-0.999626, 65, 225, 80, 352
-0.999626, 351, 207, 366, 222
-0.999636, 95, 161, 110, 288
-0.999636, 281, 1, 296, 128
-0.999642, 135, 81, 150, 208
-0.999644, 255, 113, 270, 240
-0.999644, 295, 177, 310, 304
-0.999649, 273, 1, 288, 128
-0.999652, 345, 177, 360, 304
-0.999652, 83, 129, 98, 256
-0.999657, 349, 129, 380, 375
-0.99966, 461, 113, 492, 240
-0.999661, 289, 161, 304, 288
-0.999669, 301, 145, 316, 272
-0.999669, 289, 1, 304, 128
-0.99967, 425, 225, 440, 352
-0.999672, 259, 1, 274, 128
-0.999672, 331, 113, 346, 240
-0.999673, 361, 1, 392, 256
-0.999674, 161, 81, 176, 208
-0.999679, 209, 129, 224, 256
-0.99968, 295, 129, 310, 256
-0.999682, 111, 97, 126, 224
-0.999686, 265, 161, 280, 288
-0.999686, 431, 193, 446, 320
-0.99969, 103, 113, 118, 240
-0.999694, 53, 129, 84, 375
-0.999695, 359, 59, 374, 74
-0.99971, 1, 1, 500, 64
-0.999722, 465, 209, 496, 336
-0.999754, 401, 161, 432, 288
-0.999833, 57, 1, 120, 128
-0.999868, 441, 161, 472, 288
-0.999895, 13, 193, 44, 320
-0.999951, 233, 129, 264, 375
-0.999994, 377, 97, 408, 224
-1, 1, 41, 500, 104
-1, 73, 129, 104, 375
-1.00003, 89, 33, 120, 288
-1.00007, 373, 129, 404, 375
-1.00008, 449, 1, 480, 256
-1.00009, 217, 129, 248, 375
-1.00009, 37, 161, 68, 288
-1.00009, 109, 241, 140, 368
-1.0001, 33, 17, 288, 80
-1.00017, 377, 1, 440, 256
-1.0002, 409, 1, 440, 256
-1.0002, 177, 49, 208, 176
-1.00023, 37, 129, 68, 375
-1.00026, 361, 129, 392, 375
-1.00026, 409, 241, 440, 368
-1.00027, 409, 97, 440, 352
-1.00032, 421, 97, 452, 352
-1.00035, 469, 161, 500, 288
-1.00036, 389, 145, 420, 272
-1.00036, 209, 241, 240, 368
-1.00038, 93, 1, 124, 128
-1.00039, 469, 129, 500, 375
-1.0004, 397, 129, 428, 375
-1.0004, 5, 241, 36, 368
-1.00043, 393, 65, 424, 192
-1.00046, 389, 1, 420, 256
-1.00048, 69, 33, 100, 288
-1.00052, 469, 65, 500, 192
-1.00053, 33, 41, 288, 104
-1.00055, 433, 129, 464, 375
-1.0006, 453, 129, 484, 375
-1.0006, 429, 1, 460, 256
-1.00062, 141, 209, 172, 336
-1.00063, 45, 97, 76, 224
-1.00064, 1, 129, 32, 375
-1.00065, 1, 145, 32, 272
-1.00065, 373, 1, 404, 256
-1.00066, 13, 97, 44, 352
-1.00067, 429, 65, 460, 192
-1.00067, 385, 129, 416, 375
-1.00071, 197, 177, 228, 304
-1.00073, 1, 1, 32, 256
-1.00073, 29, 1, 60, 256
-1.00077, 17, 81, 80, 208
-1.0008, 17, 1, 48, 256
-1.00085, 25, 97, 56, 352
-1.00086, 49, 33, 80, 288
-1.0009, 1, 1, 64, 128
-1.00093, 1, 129, 64, 375
-1.00098, 261, 225, 292, 352
-1.00103, 417, 97, 448, 224
-1.00104, 189, 17, 220, 144
-1.00104, 313, 241, 344, 368
-1.00113, 221, 209, 252, 336
-1.00117, 25, 161, 56, 288
-1.0012, 81, 209, 112, 336
-1.00122, 405, 97, 436, 224
-1.00125, 449, 113, 480, 240
-1.00145, 157, 193, 188, 320
-1.00149, 33, 1, 96, 128
-1.0015, 345, 241, 376, 368
-1.00157, 377, 49, 408, 176
-1.0016, 65, 97, 96, 224
-1.00162, 17, 113, 48, 240
-1.00166, 105, 49, 136, 176
-1.0017, 49, 49, 80, 176
-1.0018, 41, 33, 104, 288
-1.00216, 145, 1, 208, 128
-1.0022, 201, 193, 264, 320
-1.00227, 1, 1, 64, 256
-1.00261, 73, 49, 136, 176
-1.00262, 105, 193, 168, 320
-1.00272, 97, 1, 160, 128
-1.00282, 121, 17, 184, 144
