1961
-0.242481, 1, 1, 500, 375
-0.338616, 1, 1, 256, 375
-0.354401, 257, 1, 500, 375
-0.394656, 1, 33, 500, 288
-0.42714, 1, 129, 500, 375
-0.518713, 257, 65, 500, 320
-0.522405, 161, 1, 416, 375
-0.604015, 1, 33, 256, 288
-0.608626, 129, 129, 384, 375
-0.625856, 161, 1, 416, 256
-0.68291, 33, 129, 288, 375
-0.828761, 369, 1, 496, 375
-0.843856, 369, 129, 496, 375
-0.858854, 193, 129, 320, 375
-0.859235, 321, 1, 448, 375
-0.85967, 337, 33, 464, 288
-0.862655, 113, 1, 240, 375
-0.865422, 161, 1, 288, 256
-0.878625, 113, 65, 240, 320
-0.879281, 1, 145, 500, 272
-0.87936, 257, 1, 384, 375
-0.87981, 161, 1, 288, 375
-0.88039, 1, 33, 500, 160
-0.880914, 49, 1, 176, 256
-0.884808, 49, 1, 176, 375
-0.886591, 273, 1, 400, 256
-0.886979, 321, 129, 448, 375
-0.888281, 1, 1, 128, 256
-0.891452, 1, 1, 128, 375
-0.891673, 33, 97, 160, 352
-0.894876, 1, 241, 500, 368
-0.895123, 209, 1, 336, 375
-0.895338, 1, 193, 500, 320
-0.897571, 273, 129, 400, 375
-0.905908, 209, 33, 336, 288
-0.907095, 161, 209, 416, 336
-0.911714, 1, 161, 256, 288
-0.914316, 257, 81, 500, 208
-0.916195, 257, 177, 500, 304
-0.91781, 257, 33, 500, 160
-0.918564, 257, 129, 500, 256
-0.921916, 33, 65, 288, 192
-0.923026, 1, 17, 256, 144
-0.924518, 129, 145, 384, 272
-0.925347, 393, 49, 456, 176
-0.925925, 1, 81, 500, 208
-0.92803, 353, 65, 480, 192
-0.928061, 1, 113, 256, 240
-0.929973, 129, 33, 384, 160
-0.930167, 369, 113, 496, 240
-0.932119, 65, 209, 320, 336
-0.933473, 161, 81, 416, 208
-0.935445, 209, 161, 336, 288
-0.938493, 257, 225, 500, 352
-0.939882, 393, 97, 456, 224
-0.942717, 193, 225, 320, 352
-0.943512, 417, 129, 480, 256
-0.94392, 393, 1, 456, 128
-0.944144, 393, 57, 456, 120
-0.944199, 161, 17, 288, 144
-0.945011, 81, 65, 208, 192
-0.945074, 337, 17, 464, 144
-0.945299, 145, 193, 272, 320
-0.946669, 241, 209, 368, 336
-0.946984, 369, 161, 496, 288
-0.94828, 169, 193, 232, 320
-0.948879, 81, 17, 208, 144
-0.950081, 281, 209, 344, 336
-0.950718, 1, 49, 128, 176
-0.951541, 425, 81, 488, 208
-0.951715, 129, 113, 256, 240
-0.951991, 193, 33, 256, 160
-0.952418, 9, 49, 72, 176
-0.952432, 265, 33, 328, 160
-0.952538, 161, 65, 288, 192
-0.953211, 9, 97, 72, 224
-0.953561, 369, 209, 496, 336
-0.953711, 321, 113, 448, 240
-0.953732, 289, 33, 416, 160
-0.953965, 273, 81, 400, 208
-0.954637, 393, 129, 456, 192
-0.954947, 161, 113, 224, 240
-0.955056, 113, 17, 176, 144
-0.95541, 425, 145, 488, 208
-0.956736, 209, 209, 272, 336
-0.956797, 257, 193, 320, 320
-0.958072, 129, 241, 256, 368
-0.958469, 353, 113, 416, 240
-0.958565, 33, 1, 160, 128
-0.95865, 393, 89, 456, 152
-0.958848, 193, 113, 320, 240
-0.958855, 97, 193, 224, 320
-0.959265, 297, 1, 360, 128
-0.959409, 289, 209, 416, 336
-0.959841, 177, 241, 240, 368
-0.960331, 417, 33, 480, 160
-0.960389, 145, 193, 208, 320
-0.960461, 257, 241, 320, 368
-0.960979, 41, 1, 104, 128
-0.961025, 209, 33, 336, 160
-0.961072, 233, 257, 296, 320
-0.961128, 385, 1, 448, 256
-0.96115, 369, 49, 432, 176
-0.961215, 273, 81, 336, 208
-0.961914, 1, 97, 128, 224
-0.962125, 233, 65, 296, 192
-0.96229, 81, 17, 144, 144
-0.963493, 33, 145, 160, 272
-0.963749, 81, 241, 208, 368
-0.963914, 121, 65, 184, 192
-0.963932, 305, 225, 368, 352
-0.964054, 185, 249, 248, 312
-0.964409, 257, 241, 320, 304
-0.96478, 265, 49, 328, 112
-0.96503, 385, 33, 448, 96
-0.96525, 81, 65, 144, 192
-0.965297, 9, 89, 72, 152
-0.965355, 393, 161, 456, 288
-0.965365, 417, 73, 480, 136
-0.965386, 337, 241, 400, 368
-0.965563, 345, 65, 408, 192
-0.965566, 217, 233, 280, 296
-0.965686, 417, 49, 480, 112
-0.965882, 417, 97, 480, 160
-0.96616, 305, 65, 368, 192
-0.966573, 425, 193, 488, 320
-0.966893, 417, 129, 480, 375
-0.9676, 169, 49, 232, 176
-0.967775, 153, 1, 216, 128
-0.967952, 217, 161, 280, 288
-0.968525, 33, 241, 160, 368
-0.968561, 297, 33, 360, 96
-0.968663, 121, 241, 184, 368
-0.96868, 185, 113, 248, 240
-0.968785, 153, 241, 216, 368
-0.968912, 433, 169, 496, 232
-0.96906, 1, 177, 64, 304
-0.969123, 249, 145, 312, 272
-0.969388, 321, 281, 384, 344
-0.969433, 273, 145, 400, 272
-0.969582, 9, 57, 72, 120
-0.969863, 273, 81, 336, 144
-0.969942, 437, 113, 468, 240
-0.970018, 433, 49, 464, 112
-0.970107, 33, 161, 96, 288
-0.970282, 145, 65, 208, 192
-0.970324, 401, 161, 464, 224
-0.970415, 17, 193, 144, 320
-0.970427, 437, 49, 468, 176
-0.9706, 233, 17, 296, 144
-0.970715, 417, 121, 480, 184
-0.971122, 233, 225, 296, 352
-0.971255, 9, 121, 72, 184
-0.971257, 33, 97, 96, 224
-0.971359, 105, 25, 168, 88
-0.971369, 209, 257, 272, 320
-0.971544, 337, 57, 464, 120
-0.971575, 49, 49, 112, 176
-0.971785, 353, 97, 480, 160
-0.971962, 361, 225, 424, 352
-0.971966, 233, 81, 296, 144
-0.972044, 193, 161, 256, 288
-0.972173, 161, 129, 224, 192
-0.972248, 345, 289, 408, 352
-0.972249, 209, 97, 272, 224
-0.972445, 353, 81, 416, 144
-0.97255, 97, 225, 160, 352
-0.972627, 305, 73, 368, 136
-0.972766, 161, 97, 224, 352
-0.9728, 433, 121, 464, 184
-0.97282, 121, 193, 184, 320
-0.972913, 369, 137, 496, 200
-0.973555, 113, 49, 176, 112
-0.973966, 97, 1, 160, 64
-0.973991, 169, 201, 232, 264
-0.974304, 437, 161, 468, 224
-0.974315, 193, 49, 256, 112
-0.974443, 425, 113, 456, 240
-0.974618, 281, 217, 344, 280
-0.974712, 297, 113, 360, 240
-0.974785, 201, 193, 232, 320
-0.974893, 433, 73, 464, 136
-0.975001, 33, 97, 96, 160
-0.975071, 257, 281, 320, 344
-0.975122, 9, 145, 72, 208
-0.975158, 385, 241, 448, 368
-0.975218, 89, 49, 152, 112
-0.975278, 177, 249, 304, 312
-0.975323, 73, 241, 136, 368
-0.975414, 217, 97, 280, 352
-0.975428, 41, 241, 104, 368
-0.975548, 153, 73, 216, 136
-0.97583, 145, 33, 208, 96
-0.976073, 421, 33, 452, 160
-0.976285, 297, 281, 360, 344
-0.976322, 369, 57, 432, 120
-0.976492, 369, 1, 432, 128
-0.976547, 345, 121, 408, 184
-0.976579, 177, 25, 240, 88
-0.976627, 273, 145, 336, 272
-0.976871, 445, 137, 476, 200
-0.976953, 209, 185, 336, 248
-0.976986, 209, 217, 336, 280
-0.977005, 345, 17, 408, 144
-0.977033, 121, 73, 184, 136
-0.97715, 417, 33, 480, 288
-0.977165, 73, 1, 136, 64
-0.977316, 269, 249, 300, 312
-0.9774, 81, 25, 144, 88
-0.977432, 217, 49, 280, 112
-0.977446, 433, 97, 464, 160
-0.977588, 293, 193, 324, 320
-0.977593, 161, 249, 224, 312
-0.977835, 257, 257, 288, 320
-0.977914, 361, 33, 424, 96
-0.978045, 289, 81, 416, 144
-0.9781, 353, 145, 416, 208
-0.978143, 81, 33, 208, 96
-0.9783, 41, 17, 104, 80
-0.978365, 241, 65, 304, 320
-0.978405, 17, 225, 80, 352
-0.97849, 273, 281, 400, 344
-0.978574, 397, 57, 428, 120
-0.978591, 129, 17, 256, 80
-0.978592, 105, 249, 168, 312
-0.978609, 161, 49, 288, 112
-0.978613, 81, 73, 144, 136
-0.978778, 393, 1, 456, 375
-0.978887, 9, 1, 72, 256
-0.978891, 421, 57, 452, 120
-0.978893, 257, 25, 320, 88
-0.978928, 241, 257, 368, 320
-0.978947, 413, 25, 444, 88
-0.978961, 177, 225, 240, 288
-0.978979, 137, 113, 200, 240
-0.978986, 397, 49, 428, 176
-0.979081, 321, 161, 448, 288
-0.979087, 469, 161, 500, 288
-0.979095, 41, 121, 104, 184
-0.979106, 81, 113, 208, 240
-0.979153, 297, 9, 360, 72
-0.979204, 409, 17, 440, 144
-0.979221, 409, 25, 472, 88
-0.979309, 289, 257, 352, 320
-0.979324, 377, 169, 440, 232
-0.979366, 337, 33, 464, 96
-0.979403, 177, 1, 240, 256
-0.979549, 377, 281, 440, 344
-0.979589, 137, 105, 200, 168
-0.97962, 393, 97, 456, 352
-0.979627, 353, 129, 416, 375
-0.979632, 169, 105, 232, 168
-0.979659, 369, 273, 496, 336
-0.979703, 153, 161, 216, 224
-0.979763, 321, 129, 448, 192
-0.979783, 129, 241, 256, 304
-0.979862, 449, 145, 480, 272
-0.979863, 409, 241, 472, 368
-0.979871, 129, 201, 256, 264
-0.979935, 17, 33, 80, 96
-0.979942, 345, 265, 408, 328
-0.979945, 257, 185, 320, 248
-0.979967, 57, 73, 120, 136
-0.979985, 201, 177, 264, 240
-0.980032, 121, 1, 184, 256
-0.980092, 33, 1, 160, 64
-0.9802, 133, 17, 164, 144
-0.980266, 369, 161, 496, 224
-0.980393, 189, 177, 220, 304
-0.980449, 57, 41, 120, 104
-0.980595, 213, 209, 244, 336
-0.980638, 201, 25, 264, 88
-0.980689, 345, 57, 408, 120
-0.980891, 433, 297, 496, 360
-0.980898, 281, 225, 312, 352
-0.980912, 1, 41, 128, 104
-0.980997, 329, 193, 392, 320
-0.981123, 401, 185, 464, 248
-0.981229, 197, 17, 228, 144
-0.981274, 257, 217, 320, 280
-0.981292, 33, 57, 96, 120
-0.981301, 297, 73, 328, 136
-0.981413, 193, 73, 256, 136
-0.981512, 289, 57, 416, 120
-0.981517, 57, 97, 120, 224
-0.981553, 193, 97, 256, 160
-0.981602, 433, 1, 496, 64
-0.981634, 185, 129, 248, 375
-0.981874, 233, 25, 296, 88
-0.981877, 185, 137, 248, 200
-0.98192, 1, 65, 128, 128
-0.981935, 97, 65, 224, 128
-0.982002, 241, 89, 368, 152
-0.982012, 209, 33, 336, 96
-0.982079, 353, 33, 416, 288
-0.98208, 101, 17, 132, 144
-0.982095, 97, 177, 160, 304
-0.98214, 305, 209, 336, 336
-0.982221, 193, 89, 320, 152
-0.982269, 449, 97, 480, 224
-0.982298, 129, 241, 192, 304
-0.982348, 425, 201, 488, 264
-0.982376, 369, 305, 432, 368
-0.982391, 245, 257, 276, 320
-0.982446, 417, 1, 480, 375
-0.982449, 369, 105, 432, 168
-0.982455, 169, 49, 232, 112
-0.982471, 189, 113, 220, 240
-0.982507, 209, 249, 240, 312
-0.982512, 233, 281, 296, 344
-0.982531, 161, 129, 288, 192
-0.982542, 129, 153, 256, 216
-0.982565, 9, 81, 40, 208
-0.982576, 433, 233, 496, 296
-0.982587, 265, 129, 328, 375
-0.982616, 265, 105, 328, 168
-0.982683, 393, 33, 424, 96
-0.982837, 133, 25, 164, 88
-0.982857, 429, 25, 460, 88
-0.983016, 369, 1, 432, 375
-0.98308, 209, 17, 240, 144
-0.983173, 81, 249, 144, 312
-0.983181, 193, 161, 320, 224
-0.983188, 321, 153, 448, 216
-0.983209, 329, 33, 392, 96
-0.983217, 409, 57, 440, 120
-0.983222, 465, 169, 496, 232
-0.983252, 289, 33, 416, 96
-0.983256, 153, 9, 216, 72
-0.983259, 13, 73, 44, 136
-0.983265, 197, 25, 228, 88
-0.983334, 293, 33, 324, 160
-0.983371, 269, 225, 300, 352
-0.983414, 449, 161, 480, 224
-0.98357, 201, 1, 264, 256
-0.983593, 421, 97, 452, 160
-0.983599, 369, 193, 496, 256
-0.98361, 289, 209, 416, 272
-0.983638, 425, 161, 456, 224
-0.983648, 33, 89, 64, 152
-0.983673, 409, 281, 472, 344
-0.983708, 1, 185, 64, 248
-0.983768, 85, 33, 116, 160
-0.983776, 233, 105, 296, 168
-0.983829, 137, 265, 200, 328
-0.983841, 321, 257, 384, 320
-0.983929, 145, 73, 272, 136
-0.98393, 249, 161, 312, 224
-0.983964, 57, 193, 120, 320
-0.984013, 257, 233, 384, 296
-0.984049, 209, 209, 272, 272
-0.984073, 33, 193, 96, 256
-0.984123, 1, 97, 128, 160
-0.984162, 17, 1, 80, 128
-0.984187, 201, 241, 232, 368
-0.984192, 81, 1, 208, 64
-0.984263, 393, 1, 456, 64
-0.984265, 1, 225, 64, 288
-0.984358, 433, 241, 496, 368
-0.98443, 197, 49, 228, 112
-0.984435, 321, 17, 384, 144
-0.984445, 361, 289, 392, 352
-0.984463, 369, 161, 432, 288
-0.984533, 65, 97, 128, 160
-0.984536, 81, 105, 208, 168
-0.984603, 377, 33, 408, 160
-0.984605, 65, 249, 192, 312
-0.984612, 189, 241, 220, 368
-0.984655, 9, 1, 72, 375
-0.984664, 113, 1, 144, 64
-0.984691, 137, 97, 200, 352
-0.984736, 281, 241, 312, 304
-0.984743, 165, 193, 196, 320
-0.984763, 217, 33, 248, 96
-0.984802, 1, 129, 128, 192
-0.984832, 69, 1, 100, 128
-0.984973, 225, 17, 256, 144
-0.985087, 33, 169, 96, 232
-0.985243, 297, 1, 360, 375
-0.985321, 221, 241, 252, 304
-0.985362, 177, 193, 208, 320
-0.985366, 209, 281, 336, 344
-0.985436, 185, 273, 248, 336
-0.985458, 321, 297, 448, 360
-0.985476, 233, 137, 296, 200
-0.985484, 33, 97, 64, 224
-0.985486, 409, 313, 472, 375
-0.985508, 273, 185, 400, 248
-0.985526, 341, 281, 372, 344
-0.98556, 9, 97, 72, 352
-0.985579, 305, 97, 368, 160
-0.985579, 293, 49, 324, 112
-0.985587, 153, 193, 184, 320
-0.98562, 205, 145, 236, 272
-0.985698, 289, 177, 352, 240
-0.985711, 237, 33, 268, 160
-0.985754, 445, 57, 476, 120
-0.985768, 289, 129, 352, 375
-0.985853, 289, 105, 416, 168
-0.985952, 33, 129, 96, 375
-0.985969, 273, 89, 304, 152
-0.985969, 257, 225, 288, 352
-0.985979, 421, 137, 452, 200
-0.986007, 189, 249, 220, 312
-0.986034, 189, 121, 220, 184
-0.986053, 369, 241, 400, 368
-0.98606, 161, 1, 224, 375
-0.986086, 373, 297, 404, 360
-0.986127, 377, 41, 408, 104
-0.986141, 281, 177, 312, 304
-0.986165, 293, 81, 324, 208
-0.98621, 305, 177, 368, 304
-0.986261, 137, 129, 200, 192
-0.986289, 345, 209, 408, 272
-0.986302, 433, 1, 464, 128
-0.986387, 397, 1, 428, 128
-0.986407, 261, 65, 292, 192
-0.98642, 121, 1, 152, 128
-0.986473, 49, 81, 176, 144
-0.986497, 41, 249, 104, 312
-0.986611, 209, 121, 272, 184
-0.986685, 309, 65, 340, 192
-0.986728, 33, 217, 160, 280
-0.98677, 241, 49, 304, 112
-0.986775, 81, 1, 112, 64
-0.986787, 433, 257, 496, 320
-0.986808, 177, 169, 240, 232
-0.986843, 197, 65, 228, 192
-0.986851, 273, 81, 304, 208
-0.986863, 137, 1, 200, 375
-0.986871, 233, 257, 264, 320
-0.986915, 445, 113, 476, 176
-0.986963, 317, 225, 348, 352
-0.986978, 209, 57, 336, 120
-0.986993, 49, 113, 80, 176
-0.987014, 181, 49, 212, 176
-0.987076, 129, 177, 256, 240
-0.98708, 205, 217, 236, 280
-0.987148, 273, 129, 400, 192
-0.987157, 265, 1, 328, 256
-0.987237, 309, 81, 340, 144
-0.987239, 81, 1, 144, 256
-0.987244, 13, 33, 44, 160
-0.987277, 329, 281, 360, 344
-0.98731, 369, 249, 496, 312
-0.987364, 221, 161, 252, 288
-0.987374, 85, 57, 116, 120
-0.987388, 329, 113, 392, 240
-0.987389, 145, 97, 272, 160
-0.987411, 329, 81, 392, 144
-0.987411, 49, 1, 80, 128
-0.987426, 337, 1, 464, 64
-0.987448, 177, 241, 208, 368
-0.987452, 121, 65, 152, 192
-0.987482, 29, 49, 60, 112
-0.987542, 9, 145, 40, 208
-0.987616, 17, 193, 144, 256
-0.987618, 37, 113, 68, 176
-0.987658, 369, 225, 496, 288
-0.987678, 161, 273, 224, 336
-0.987687, 353, 241, 384, 368
-0.98771, 105, 1, 168, 375
-0.987782, 33, 145, 96, 208
-0.987784, 209, 137, 336, 200
-0.987791, 113, 265, 240, 328
-0.987807, 345, 1, 408, 375
-0.987818, 9, 129, 40, 256
-0.987839, 369, 297, 496, 360
-0.98784, 209, 153, 272, 216
-0.98784, 153, 225, 216, 288
-0.987864, 17, 169, 144, 232
-0.987868, 41, 217, 104, 280
-0.98787, 209, 9, 336, 72
-0.987908, 321, 265, 448, 328
-0.987917, 193, 193, 224, 256
-0.987921, 381, 145, 412, 208
-0.987935, 177, 113, 208, 240
-0.987988, 461, 113, 492, 240
-0.987993, 153, 65, 184, 192
-0.988007, 81, 1, 144, 375
-0.988039, 237, 49, 268, 112
-0.988069, 233, 209, 296, 272
-0.988089, 49, 1, 80, 64
-0.988092, 129, 169, 192, 232
-0.988158, 273, 281, 304, 344
-0.988192, 261, 73, 292, 136
-0.988231, 393, 61, 456, 92
-0.988252, 161, 273, 288, 336
-0.988262, 257, 9, 384, 72
-0.988271, 89, 97, 152, 160
-0.988358, 169, 73, 200, 136
-0.988376, 233, 1, 296, 375
-0.988388, 121, 81, 152, 144
-0.988401, 381, 113, 412, 240
-0.988408, 13, 121, 44, 184
-0.988418, 457, 209, 488, 336
-0.988452, 293, 257, 324, 320
-0.988477, 297, 217, 328, 280
-0.988489, 57, 89, 88, 152
-0.988491, 153, 1, 216, 256
-0.988493, 313, 129, 376, 375
-0.988507, 289, 1, 352, 256
-0.988541, 125, 1, 156, 64
-0.988585, 133, 241, 164, 368
-0.988629, 273, 153, 400, 216
-0.988644, 153, 73, 184, 136
-0.988677, 1, 249, 128, 312
-0.988717, 61, 1, 92, 64
-0.988778, 49, 137, 176, 200
-0.988823, 293, 281, 324, 344
-0.98885, 185, 1, 248, 375
-0.988877, 413, 97, 444, 224
-0.988921, 57, 65, 120, 320
-0.988979, 289, 145, 352, 208
-0.989003, 177, 1, 240, 64
-0.989043, 113, 129, 240, 192
-0.98905, 293, 241, 324, 368
-0.989065, 17, 9, 80, 72
-0.989109, 457, 137, 488, 200
-0.989132, 317, 281, 348, 344
-0.989136, 29, 49, 60, 176
-0.989153, 165, 65, 196, 192
-0.989202, 57, 65, 88, 192
-0.989207, 21, 177, 52, 304
-0.989216, 285, 97, 316, 160
-0.989264, 437, 161, 468, 288
-0.989276, 33, 1, 96, 375
-0.989289, 73, 25, 104, 88
-0.989318, 89, 241, 120, 368
-0.989323, 341, 225, 372, 352
-0.989343, 393, 113, 456, 144
-0.989344, 217, 9, 248, 72
-0.989369, 113, 113, 176, 240
-0.989374, 49, 25, 80, 88
-0.989435, 165, 113, 196, 240
-0.989471, 165, 241, 196, 368
-0.98948, 321, 1, 352, 128
-0.989482, 417, 57, 480, 88
-0.989486, 109, 81, 140, 144
-0.989498, 397, 169, 428, 232
-0.989509, 385, 73, 448, 104
-0.989582, 265, 129, 328, 192
-0.989582, 393, 101, 456, 132
-0.989606, 209, 113, 336, 176
-0.989617, 425, 165, 488, 196
-0.989621, 417, 125, 480, 156
-0.989664, 177, 113, 208, 176
-0.989664, 309, 249, 340, 312
-0.989666, 241, 81, 272, 208
-0.989747, 321, 177, 448, 240
-0.989755, 377, 81, 408, 144
-0.989757, 369, 265, 400, 328
-0.989782, 209, 161, 240, 224
-0.989818, 233, 265, 296, 296
-0.989848, 9, 97, 40, 160
-0.989903, 133, 249, 164, 312
-0.989906, 45, 97, 76, 224
-0.98991, 381, 273, 412, 336
-0.989911, 217, 113, 248, 240
-0.989921, 49, 57, 176, 120
-0.989925, 61, 241, 92, 368
-0.989941, 385, 125, 448, 156
-0.989944, 393, 85, 456, 116
-0.98998, 225, 209, 256, 336
-0.989981, 305, 281, 336, 344
-0.990004, 41, 49, 72, 112
-0.990016, 185, 65, 216, 128
-0.990022, 249, 17, 280, 144
-0.990035, 229, 25, 260, 88
-0.990042, 381, 225, 412, 352
-0.990065, 177, 257, 240, 288
-0.990071, 417, 113, 480, 144
-0.990105, 317, 57, 348, 120
-0.990159, 413, 169, 444, 232
-0.99019, 153, 241, 184, 368
-0.9902, 257, 1, 320, 375
-0.9902, 1, 73, 32, 136
-0.990234, 41, 161, 72, 288
-0.99024, 461, 289, 492, 352
-0.990251, 105, 225, 136, 352
-0.990264, 209, 1, 272, 375
-0.990271, 393, 149, 456, 180
-0.990286, 397, 97, 428, 224
-0.990296, 277, 33, 308, 160
-0.990303, 273, 81, 336, 112
-0.990329, 385, 137, 448, 168
-0.990364, 401, 161, 464, 192
-0.990437, 33, 1, 96, 256
-0.990445, 17, 41, 48, 104
-0.990453, 377, 105, 408, 168
-0.990457, 425, 153, 488, 184
-0.990485, 209, 57, 240, 120
-0.990503, 417, 73, 480, 104
-0.990521, 121, 225, 152, 352
-0.990523, 257, 137, 500, 200
-0.990551, 321, 289, 384, 320
-0.990587, 377, 41, 440, 72
-0.990589, 109, 65, 140, 192
-0.9906, 221, 217, 252, 280
-0.990606, 81, 177, 208, 240
-0.990609, 201, 257, 264, 288
-0.990611, 57, 1, 120, 375
-0.990615, 1, 193, 256, 256
-0.990631, 217, 245, 280, 276
-0.990642, 269, 177, 300, 304
-0.990656, 73, 65, 104, 192
-0.990676, 105, 29, 168, 60
-0.990683, 321, 1, 384, 375
-0.990703, 393, 145, 424, 272
-0.990719, 9, 101, 72, 132
-0.99075, 141, 193, 172, 320
-0.990752, 385, 305, 416, 368
-0.990753, 49, 49, 112, 80
-0.990774, 425, 137, 488, 168
-0.990784, 249, 233, 280, 296
-0.990804, 17, 53, 80, 84
-0.990806, 257, 193, 500, 256
-0.990808, 277, 177, 308, 240
-0.990841, 257, 49, 500, 112
-0.99085, 161, 249, 416, 312
-0.990851, 101, 49, 132, 112
-0.990903, 105, 97, 168, 352
-0.990908, 425, 161, 456, 288
-0.990962, 145, 53, 208, 84
-0.990971, 417, 101, 480, 132
-0.99098, 257, 257, 320, 288
-0.990983, 89, 53, 152, 84
-0.990987, 169, 201, 232, 232
-0.991009, 321, 81, 352, 144
-0.991016, 325, 49, 356, 176
-0.991018, 9, 125, 72, 156
-0.991057, 297, 281, 360, 312
-0.991083, 69, 49, 100, 112
-0.991118, 1, 89, 64, 120
-0.991122, 169, 137, 232, 168
-0.991133, 225, 277, 288, 308
-0.991161, 273, 241, 336, 272
-0.991171, 329, 225, 360, 352
-0.991173, 321, 241, 448, 304
-0.991176, 1, 121, 32, 184
-0.991182, 309, 33, 340, 96
-0.991205, 233, 89, 296, 120
-0.991207, 65, 73, 320, 136
-0.991236, 297, 37, 360, 68
-0.991247, 181, 1, 212, 128
-0.991248, 77, 241, 108, 368
-0.991301, 273, 65, 304, 128
-0.99131, 9, 137, 72, 168
-0.99132, 49, 93, 112, 124
-0.991323, 9, 113, 72, 144
-0.99133, 201, 269, 264, 300
-0.991361, 45, 241, 76, 368
-0.991365, 273, 93, 336, 124
-0.991367, 225, 65, 256, 192
-0.991367, 449, 201, 480, 264
-0.991368, 425, 89, 488, 120
-0.991382, 309, 1, 340, 128
-0.991384, 353, 265, 384, 328
-0.991427, 201, 137, 232, 200
-0.991445, 9, 69, 72, 100
-0.991448, 121, 73, 184, 104
-0.991475, 193, 217, 448, 280
-0.991479, 17, 33, 80, 64
-0.991485, 49, 37, 112, 68
-0.991486, 265, 285, 328, 316
-0.991492, 297, 49, 360, 80
-0.991497, 353, 69, 416, 100
-0.991511, 345, 297, 408, 328
-0.991511, 305, 77, 368, 108
-0.991521, 37, 25, 68, 88
-0.991554, 289, 221, 352, 252
-0.991557, 177, 21, 240, 52
-0.991562, 81, 29, 144, 60
-0.991571, 333, 257, 364, 320
-0.991584, 297, 145, 328, 272
-0.991593, 257, 41, 320, 72
-0.991593, 193, 57, 256, 88
-0.991595, 45, 89, 76, 152
-0.991612, 249, 89, 280, 152
-0.991616, 33, 125, 96, 156
-0.991619, 49, 25, 112, 56
-0.99162, 353, 133, 416, 164
-0.991622, 397, 129, 428, 192
-0.991624, 329, 33, 392, 288
-0.991629, 145, 41, 208, 72
-0.991635, 113, 57, 176, 88
-0.991645, 353, 121, 416, 152
-0.991651, 353, 81, 416, 112
-0.991669, 285, 217, 316, 280
-0.99167, 257, 69, 320, 100
-0.991679, 353, 101, 416, 132
-0.991682, 9, 149, 72, 180
-0.991695, 257, 81, 500, 144
-0.991712, 81, 41, 144, 72
-0.991719, 393, 185, 456, 216
-0.991734, 193, 45, 256, 76
-0.991736, 281, 269, 344, 300
-0.991738, 217, 29, 280, 60
-0.99174, 449, 305, 480, 368
-0.99175, 157, 97, 188, 160
-0.991754, 113, 45, 176, 76
-0.991771, 413, 161, 444, 288
-0.991782, 165, 257, 196, 320
-0.991786, 393, 173, 456, 204
-0.99182, 257, 169, 500, 232
-0.991829, 25, 153, 56, 216
-0.991833, 141, 65, 172, 192
-0.991846, 177, 249, 208, 312
-0.991848, 1, 33, 256, 96
-0.99186, 177, 245, 240, 276
-0.991864, 329, 61, 392, 92
-0.991869, 153, 125, 216, 156
-0.991872, 297, 25, 360, 56
-0.991898, 41, 1, 104, 32
-0.991899, 433, 1, 496, 32
-0.991919, 209, 209, 272, 240
-0.991936, 73, 77, 136, 108
-0.991937, 297, 89, 360, 120
-0.991937, 241, 101, 304, 132
-0.991944, 193, 281, 448, 344
-0.991958, 97, 1, 160, 32
-0.991967, 361, 281, 424, 312
-0.991985, 469, 265, 500, 328
-0.991985, 257, 29, 320, 60
-0.991994, 265, 229, 328, 260
-0.99202, 41, 113, 104, 144
-0.992023, 445, 1, 476, 128
-0.992033, 97, 17, 160, 48
-0.992041, 257, 217, 320, 248
-0.992044, 201, 81, 264, 112
-0.992048, 169, 113, 232, 144
-0.99205, 81, 225, 208, 288
-0.992051, 137, 113, 200, 144
-0.992054, 209, 197, 272, 228
-0.992084, 145, 257, 208, 288
-0.992086, 1, 185, 64, 216
-0.99209, 289, 61, 352, 92
-0.992112, 353, 53, 416, 84
-0.992113, 233, 233, 264, 296
-0.992117, 401, 29, 464, 60
-0.992117, 369, 169, 432, 200
-0.992122, 425, 241, 456, 368
-0.99215, 177, 125, 240, 156
-0.99215, 25, 89, 88, 120
-0.99215, 241, 25, 272, 88
-0.992168, 377, 293, 440, 324
-0.992185, 177, 33, 240, 64
-0.992185, 161, 65, 224, 96
-0.992187, 433, 177, 496, 208
-0.992188, 1, 97, 256, 160
-0.992188, 145, 241, 176, 304
-0.992188, 433, 57, 464, 88
-0.992194, 257, 269, 320, 300
-0.992195, 257, 201, 320, 232
-0.9922, 225, 57, 256, 120
-0.992205, 249, 181, 312, 212
-0.992228, 49, 13, 112, 44
-0.992229, 1, 121, 256, 184
-0.992233, 437, 137, 468, 168
-0.992241, 433, 125, 464, 156
-0.992248, 161, 121, 192, 184
-0.992266, 217, 233, 280, 264
-0.992267, 121, 25, 152, 88
-0.992268, 1, 193, 500, 256
-0.992275, 101, 25, 132, 88
-0.992281, 121, 253, 184, 284
-0.992283, 233, 77, 296, 108
-0.992291, 89, 65, 152, 96
-0.992296, 129, 125, 192, 156
-0.992302, 33, 201, 96, 232
-0.99231, 329, 73, 392, 104
-0.992312, 57, 65, 120, 96
-0.992312, 209, 221, 272, 252
-0.99232, 153, 77, 216, 108
-0.992322, 9, 161, 72, 192
-0.99233, 433, 265, 496, 296
-0.992348, 433, 113, 464, 144
-0.992358, 249, 245, 312, 276
-0.992361, 345, 149, 408, 180
-0.99237, 385, 313, 448, 344
-0.992373, 289, 205, 352, 236
-0.992382, 217, 185, 248, 248
-0.992385, 101, 1, 132, 64
-0.992396, 469, 241, 500, 368
-0.992402, 129, 161, 384, 224
-0.992447, 21, 185, 52, 248
-0.992463, 325, 17, 356, 80
-0.992506, 437, 153, 468, 184
-0.992581, 245, 225, 276, 352
-0.992623, 445, 117, 476, 148
-0.992627, 413, 57, 444, 88
-0.992649, 57, 113, 88, 240
-0.992675, 341, 33, 372, 160
-0.992679, 245, 269, 276, 300
-0.992731, 397, 61, 428, 92
-0.992739, 437, 165, 468, 196
-0.992744, 257, 105, 500, 168
-0.99276, 437, 77, 468, 108
-0.992763, 65, 257, 320, 320
-0.992775, 433, 101, 464, 132
-0.992784, 9, 77, 40, 108
-0.992788, 29, 125, 60, 156
-0.992808, 129, 97, 384, 160
-0.992812, 257, 261, 288, 292
-0.992815, 133, 33, 164, 64
-0.992819, 449, 153, 480, 184
-0.992834, 421, 109, 452, 140
-0.992886, 437, 89, 468, 120
-0.992887, 229, 269, 260, 300
-0.992892, 261, 17, 292, 144
-0.9929, 197, 45, 228, 76
-0.992906, 425, 161, 456, 192
-0.992906, 209, 257, 240, 288
-0.992909, 297, 81, 328, 112
-0.992921, 449, 165, 480, 196
-0.992927, 357, 293, 388, 324
-0.992928, 435, 97, 450, 160
-0.992933, 397, 241, 428, 368
-0.992949, 205, 25, 236, 56
-0.992987, 217, 29, 248, 60
-0.992988, 449, 141, 480, 172
-0.992995, 9, 105, 40, 136
-0.993005, 409, 173, 440, 204
-0.993011, 97, 209, 352, 272
-0.993022, 257, 241, 500, 304
-0.993027, 221, 257, 252, 288
-0.993033, 181, 117, 212, 148
-0.993033, 337, 285, 368, 316
-0.993038, 309, 81, 340, 112
-0.993039, 209, 41, 240, 72
-0.99304, 49, 1, 80, 32
-0.993044, 193, 201, 224, 232
-0.993046, 421, 77, 452, 108
-0.99305, 37, 113, 68, 144
-0.993062, 193, 253, 224, 284
-0.993064, 445, 65, 476, 96
-0.993075, 421, 121, 452, 152
-0.993085, 269, 253, 300, 284
-0.993087, 209, 65, 240, 192
-0.993092, 293, 93, 324, 124
-0.993093, 77, 57, 108, 88
-0.993093, 1, 217, 256, 280
-0.993096, 369, 297, 400, 328
-0.993096, 289, 237, 320, 268
-0.993097, 225, 41, 256, 72
-0.993098, 317, 281, 348, 312
-0.993101, 273, 93, 304, 124
-0.993102, 9, 137, 40, 168
-0.993105, 9, 117, 40, 148
-0.993107, 469, 173, 500, 204
-0.993108, 353, 193, 384, 320
-0.993114, 9, 149, 40, 180
-0.993116, 53, 93, 84, 124
-0.993117, 9, 93, 40, 124
-0.99312, 113, 29, 144, 60
-0.993125, 425, 137, 456, 168
-0.993126, 37, 101, 68, 132
-0.993127, 393, 41, 424, 72
-0.993128, 113, 9, 144, 40
-0.993139, 261, 281, 292, 312
-0.993139, 81, 129, 144, 375
-0.99314, 197, 57, 228, 88
-0.993149, 421, 21, 452, 52
-0.993156, 57, 25, 88, 56
-0.993157, 245, 41, 276, 72
-0.993158, 33, 225, 64, 352
-0.993158, 49, 49, 80, 80
-0.993162, 377, 53, 408, 84
-0.993168, 1, 165, 32, 196
-0.99317, 29, 89, 60, 120
-0.993176, 277, 241, 308, 272
-0.993176, 377, 69, 408, 100
-0.993183, 245, 29, 276, 60
-0.993185, 49, 117, 80, 148
-0.993186, 241, 257, 272, 288
-0.993188, 33, 45, 64, 76
-0.993196, 81, 25, 112, 56
-0.9932, 421, 97, 452, 128
-0.9932, 305, 281, 336, 312
-0.993201, 377, 113, 408, 144
-0.993204, 397, 169, 428, 200
-0.99321, 293, 221, 324, 252
-0.993215, 409, 45, 440, 76
-0.993228, 205, 241, 236, 272
-0.993228, 253, 81, 284, 112
-0.993229, 429, 45, 460, 76
-0.993229, 93, 41, 124, 72
-0.993231, 65, 49, 96, 80
-0.993232, 33, 137, 64, 168
-0.993232, 189, 129, 220, 160
-0.993237, 101, 25, 132, 56
-0.993241, 321, 77, 352, 108
-0.993241, 61, 9, 92, 40
-0.993242, 425, 173, 456, 204
-0.99325, 273, 273, 304, 304
-0.993262, 21, 185, 52, 216
-0.993262, 21, 129, 52, 256
-0.993263, 97, 49, 352, 112
-0.993265, 425, 149, 456, 180
-0.993273, 293, 33, 324, 64
-0.993278, 329, 273, 360, 304
-0.993279, 29, 61, 60, 92
-0.993282, 445, 53, 476, 84
-0.993286, 221, 209, 252, 240
-0.99329, 377, 133, 408, 164
-0.993292, 125, 21, 156, 52
-0.993303, 113, 89, 144, 120
-0.993304, 221, 245, 252, 276
-0.993304, 81, 5, 112, 36
-0.993305, 449, 129, 480, 160
-0.993306, 377, 81, 408, 112
-0.993312, 93, 57, 124, 88
-0.993312, 181, 257, 212, 288
-0.993312, 293, 285, 324, 316
-0.993313, 353, 125, 480, 156
-0.993319, 409, 29, 440, 60
-0.993328, 1, 169, 500, 232
-0.993328, 141, 65, 172, 96
-0.993335, 285, 109, 316, 140
-0.993339, 381, 153, 412, 184
-0.99334, 465, 161, 496, 192
-0.993341, 277, 285, 308, 316
-0.993348, 45, 37, 76, 68
-0.993348, 17, 45, 48, 76
-0.993351, 285, 269, 316, 300
-0.993353, 309, 37, 340, 68
-0.993356, 45, 129, 76, 160
-0.993357, 81, 37, 112, 68
-0.993358, 349, 281, 380, 312
-0.993359, 81, 69, 112, 100
-0.993368, 193, 73, 224, 104
-0.993369, 213, 197, 244, 228
-0.993372, 165, 125, 196, 156
-0.993377, 193, 313, 320, 375
-0.993423, 337, 61, 464, 92
-0.993425, 365, 49, 396, 176
-0.993439, 1, 145, 256, 208
-0.993452, 233, 161, 264, 288
-0.993473, 161, 185, 416, 248
-0.993529, 353, 105, 480, 136
-0.993547, 437, 49, 452, 112
-0.993584, 369, 157, 496, 188
-0.993615, 129, 177, 160, 304
-0.993674, 1, 217, 500, 280
-0.993718, 85, 81, 116, 208
-0.993719, 149, 145, 180, 272
-0.993762, 449, 49, 480, 176
-0.993765, 441, 121, 456, 184
-0.9938, 273, 129, 304, 256
-0.993822, 1, 169, 256, 232
-0.993827, 437, 241, 468, 368
-0.993965, 145, 17, 176, 144
-0.994027, 229, 113, 260, 240
-0.994096, 413, 241, 444, 368
-0.994169, 193, 25, 448, 88
-0.994363, 209, 217, 336, 248
-0.994423, 209, 237, 336, 268
-0.994437, 1, 17, 32, 144
-0.994451, 85, 193, 116, 320
-0.994585, 1, 273, 500, 336
-0.994593, 129, 129, 384, 192
-0.994595, 353, 141, 480, 172
-0.994604, 145, 313, 272, 375
-0.994612, 353, 77, 480, 108
-0.99462, 257, 285, 384, 316
-0.994636, 353, 97, 384, 224
-0.994665, 1, 41, 500, 104
-0.994683, 97, 65, 128, 192
-0.994777, 441, 73, 456, 136
-0.99482, 257, 177, 288, 304
-0.994825, 145, 257, 272, 288
-0.994872, 455, 137, 470, 200
-0.994888, 209, 201, 336, 232
-0.994913, 353, 93, 480, 124
-0.994966, 447, 137, 462, 200
-0.99498, 443, 49, 458, 112
-0.995063, 439, 161, 454, 224
-0.995069, 1, 1, 256, 64
-0.995085, 267, 257, 282, 320
-0.995091, 453, 113, 468, 176
-0.995135, 275, 249, 290, 312
-0.995194, 193, 249, 320, 280
-0.995238, 427, 57, 442, 120
-0.995241, 129, 21, 256, 52
-0.995267, 261, 257, 276, 320
-0.995267, 1, 145, 500, 208
-0.995285, 309, 73, 324, 136
-0.995328, 225, 265, 352, 296
-0.99534, 1, 249, 500, 312
-0.995384, 289, 85, 416, 116
-0.995387, 97, 313, 224, 375
-0.995426, 297, 89, 312, 152
-0.995481, 89, 113, 152, 240
-0.995582, 209, 29, 336, 60
-0.995641, 49, 29, 176, 60
-0.995643, 145, 45, 272, 76
-0.995644, 369, 169, 496, 200
-0.995676, 449, 57, 464, 120
-0.995679, 399, 57, 414, 120
-0.995686, 127, 1, 142, 64
-0.995731, 281, 249, 296, 312
-0.995736, 161, 269, 288, 300
-0.995781, 1, 65, 500, 128
-0.995796, 145, 61, 272, 92
-0.9958, 445, 161, 460, 224
-0.995804, 97, 25, 352, 88
-0.995826, 129, 205, 256, 236
-0.995827, 301, 25, 316, 88
-0.995846, 433, 73, 448, 136
-0.99585, 297, 57, 312, 120
-0.995857, 413, 33, 428, 96
-0.995872, 407, 33, 422, 96
-0.995875, 57, 145, 120, 272
-0.995884, 321, 153, 448, 184
-0.995893, 369, 289, 496, 320
-0.995914, 289, 101, 416, 132
-0.995937, 289, 89, 304, 152
-0.995937, 419, 25, 434, 88
-0.995954, 321, 45, 448, 76
-0.99596, 161, 73, 416, 136
-0.995978, 255, 257, 270, 320
-0.99598, 97, 41, 224, 72
-0.99598, 273, 209, 400, 240
-0.996016, 433, 153, 448, 216
-0.996024, 15, 73, 30, 136
-0.996027, 391, 65, 406, 128
-0.996028, 451, 161, 466, 224
-0.99603, 273, 305, 400, 368
-0.996046, 3, 161, 18, 224
-0.996053, 209, 189, 336, 220
-0.996054, 113, 73, 240, 104
-0.996081, 215, 209, 230, 272
-0.996085, 113, 289, 240, 352
-0.996101, 213, 25, 228, 88
-0.996108, 257, 305, 500, 368
-0.996117, 1, 61, 128, 92
-0.996126, 125, 81, 140, 144
-0.996149, 433, 129, 464, 375
-0.996153, 369, 301, 496, 332
-0.996166, 471, 169, 486, 232
-0.996173, 447, 97, 462, 160
-0.996178, 147, 25, 162, 88
-0.996197, 257, 241, 384, 272
-0.996201, 435, 121, 450, 184
-0.99621, 1, 33, 128, 64
-0.996219, 1, 125, 128, 156
-0.996225, 193, 49, 320, 80
-0.996237, 303, 49, 318, 112
-0.996237, 223, 241, 238, 304
-0.99624, 203, 33, 218, 96
-0.996248, 287, 241, 302, 304
-0.99625, 17, 17, 144, 48
-0.99627, 441, 25, 456, 88
-0.996272, 465, 169, 480, 232
-0.99629, 17, 49, 144, 80
-0.996295, 241, 41, 368, 72
-0.996313, 1, 17, 500, 80
-0.996318, 413, 33, 444, 288
-0.996324, 481, 169, 496, 232
-0.996329, 235, 25, 250, 88
-0.996335, 145, 245, 272, 276
-0.996336, 401, 33, 416, 96
-0.996338, 193, 93, 320, 124
-0.996356, 161, 1, 416, 64
-0.996372, 1, 73, 128, 104
-0.996374, 397, 1, 428, 256
-0.996383, 309, 49, 324, 112
-0.996386, 13, 113, 28, 176
-0.996395, 445, 129, 476, 375
-0.996396, 429, 25, 444, 88
-0.996398, 435, 25, 450, 88
-0.996409, 133, 1, 148, 64
-0.99641, 289, 221, 416, 252
-0.99642, 373, 289, 388, 352
-0.996434, 81, 57, 208, 88
-0.996484, 355, 281, 370, 344
-0.996488, 391, 89, 406, 152
-0.996502, 395, 33, 410, 96
-0.996506, 249, 257, 264, 320
-0.996516, 53, 9, 68, 72
-0.996534, 199, 249, 214, 312
-0.996537, 9, 153, 24, 216
-0.996543, 205, 249, 220, 312
-0.996544, 51, 113, 66, 176
-0.996547, 273, 197, 400, 228
-0.99655, 17, 1, 144, 32
-0.996553, 369, 49, 496, 80
-0.996596, 161, 129, 288, 160
-0.996604, 347, 281, 362, 344
-0.996605, 49, 89, 64, 152
-0.996607, 289, 57, 416, 88
-0.99662, 405, 57, 420, 120
-0.996625, 391, 145, 406, 208
-0.99668, 241, 257, 256, 320
-0.996682, 75, 1, 90, 64
-0.996688, 219, 41, 234, 104
-0.996697, 23, 65, 38, 128
-0.996704, 429, 33, 460, 288
-0.996706, 391, 121, 406, 184
-0.996716, 381, 297, 396, 360
-0.996745, 113, 125, 240, 156
-0.996745, 461, 137, 476, 200
-0.996745, 217, 249, 232, 312
-0.99676, 33, 41, 48, 104
-0.996762, 159, 73, 174, 136
-0.996767, 209, 277, 336, 308
-0.996773, 1, 97, 128, 128
-0.996777, 129, 165, 256, 196
-0.996782, 161, 33, 288, 64
-0.996787, 305, 73, 432, 104
-0.996795, 241, 253, 368, 284
-0.996801, 97, 5, 224, 36
-0.996802, 337, 281, 352, 344
-0.996803, 233, 49, 248, 112
-0.996813, 213, 49, 228, 112
-0.996819, 81, 201, 208, 264
-0.996824, 241, 93, 368, 124
-0.996826, 429, 129, 444, 192
-0.996834, 49, 105, 176, 136
-0.996834, 161, 141, 288, 172
-0.99684, 367, 289, 382, 352
-0.996848, 1, 97, 500, 160
-0.996852, 315, 73, 330, 136
-0.996873, 209, 169, 336, 200
-0.996881, 43, 41, 58, 104
-0.996892, 49, 297, 176, 360
-0.99691, 457, 169, 472, 232
-0.996916, 387, 297, 402, 360
-0.996921, 121, 1, 136, 64
-0.996923, 233, 257, 248, 320
-0.996924, 305, 141, 432, 172
-0.996936, 435, 109, 450, 140
-0.996948, 417, 57, 432, 120
-0.996948, 361, 281, 376, 344
-0.996952, 289, 297, 416, 328
-0.996957, 83, 1, 98, 64
-0.996958, 103, 1, 118, 64
-0.996967, 165, 73, 180, 136
-0.996977, 329, 73, 344, 136
-0.996986, 437, 121, 452, 152
-0.997002, 193, 249, 208, 312
-0.997003, 275, 273, 290, 336
-0.997005, 65, 73, 192, 104
-0.997005, 321, 169, 448, 200
-0.997006, 177, 73, 192, 136
-0.997012, 411, 57, 426, 120
-0.997013, 65, 253, 192, 284
-0.997027, 177, 105, 304, 136
-0.997031, 289, 33, 416, 64
-0.997034, 211, 249, 226, 312
-0.997036, 301, 281, 316, 344
-0.997044, 241, 105, 368, 136
-0.997048, 93, 1, 108, 64
-0.997051, 17, 197, 144, 228
-0.997053, 113, 1, 128, 64
-0.997058, 293, 249, 308, 312
-0.99707, 353, 197, 480, 228
-0.997072, 293, 281, 308, 344
-0.997075, 331, 281, 346, 344
-0.997086, 257, 21, 384, 52
-0.997095, 43, 89, 58, 152
-0.997106, 241, 17, 256, 80
-0.997108, 95, 41, 110, 104
-0.997123, 381, 49, 396, 112
-0.997127, 273, 129, 304, 375
-0.997132, 205, 137, 220, 200
-0.997133, 281, 281, 296, 344
-0.997135, 321, 273, 448, 304
-0.997136, 161, 73, 288, 104
-0.997144, 239, 49, 254, 112
-0.997167, 41, 121, 56, 184
-0.997169, 287, 281, 302, 344
-0.997175, 337, 185, 464, 216
-0.997189, 119, 73, 134, 136
-0.997201, 129, 233, 256, 264
-0.997208, 57, 113, 72, 176
-0.99721, 389, 41, 404, 104
-0.997216, 241, 53, 368, 84
-0.997218, 3, 121, 18, 184
-0.99722, 369, 313, 496, 344
-0.997222, 337, 1, 464, 32
-0.997229, 123, 25, 138, 88
-0.99725, 423, 169, 438, 232
-0.997252, 227, 25, 242, 88
-0.997257, 161, 153, 288, 184
-0.997261, 429, 105, 444, 168
-0.997265, 305, 129, 432, 160
-0.997281, 23, 89, 38, 152
-0.997286, 33, 89, 48, 152
-0.997291, 299, 257, 314, 320
-0.997293, 129, 193, 256, 224
-0.997307, 369, 225, 496, 256
-0.997308, 381, 273, 396, 336
-0.997309, 17, 209, 144, 240
-0.99731, 211, 145, 226, 208
-0.997313, 241, 69, 368, 100
-0.997313, 201, 129, 232, 375
-0.99732, 269, 233, 284, 296
-0.99732, 303, 81, 318, 144
-0.997329, 295, 93, 310, 124
-0.997334, 97, 281, 352, 344
-0.997342, 273, 185, 400, 216
-0.997355, 441, 141, 456, 172
-0.99736, 441, 1, 472, 256
-0.997363, 381, 33, 412, 288
-0.997387, 161, 117, 288, 148
-0.997394, 437, 57, 452, 88
-0.997397, 369, 209, 496, 240
-0.997403, 273, 273, 400, 304
-0.997415, 13, 33, 44, 288
-0.997417, 197, 1, 228, 256
-0.997431, 305, 113, 432, 144
-0.997432, 185, 97, 216, 352
-0.997464, 129, 177, 256, 208
-0.997469, 435, 97, 450, 128
-0.997471, 369, 277, 496, 308
-0.997483, 1, 145, 128, 176
-0.997486, 17, 233, 144, 264
-0.997487, 193, 61, 320, 92
-0.997499, 129, 217, 256, 248
-0.997514, 81, 17, 208, 48
-0.997546, 213, 97, 244, 352
-0.997549, 443, 53, 458, 84
-0.997553, 289, 93, 304, 124
-0.997564, 449, 129, 464, 160
-0.997575, 49, 85, 176, 116
-0.997576, 133, 1, 164, 256
-0.997578, 209, 81, 336, 112
-0.99759, 439, 81, 454, 112
-0.997631, 369, 261, 496, 292
-0.997635, 97, 85, 224, 116
-0.997645, 385, 129, 416, 375
-0.997646, 425, 57, 440, 88
-0.997649, 449, 117, 464, 148
-0.99766, 443, 153, 458, 184
-0.997665, 81, 141, 208, 172
-0.997673, 165, 97, 196, 352
-0.997701, 1, 297, 500, 360
-0.997703, 453, 149, 468, 180
-0.997706, 257, 117, 384, 148
-0.997706, 17, 221, 144, 252
-0.997753, 257, 145, 384, 176
-0.997759, 369, 37, 496, 68
-0.997761, 399, 65, 414, 96
-0.997787, 65, 117, 192, 148
-0.99782, 241, 157, 368, 188
-0.99782, 243, 269, 258, 300
-0.997829, 1, 65, 32, 320
-0.997847, 457, 129, 488, 375
-0.997849, 437, 69, 452, 100
-0.99785, 369, 249, 496, 280
-0.997866, 15, 77, 30, 108
-0.997872, 209, 1, 240, 256
-0.99788, 97, 313, 352, 375
-0.997888, 17, 245, 144, 276
-0.997897, 145, 93, 272, 124
-0.997909, 1, 85, 128, 116
-0.997916, 249, 269, 264, 300
-0.997922, 305, 21, 432, 52
-0.997937, 17, 185, 144, 216
-0.997939, 201, 57, 216, 88
-0.99795, 261, 65, 292, 320
-0.997952, 1, 113, 128, 144
-0.997953, 259, 265, 274, 296
-0.997955, 311, 81, 326, 112
-0.99796, 431, 57, 446, 88
-0.997986, 257, 1, 500, 64
-0.997998, 437, 165, 452, 196
-0.998022, 33, 1, 64, 256
-0.998026, 451, 57, 466, 88
-0.998034, 453, 33, 484, 288
-0.998038, 5, 165, 20, 196
-0.998039, 431, 77, 446, 108
-0.998045, 273, 33, 304, 288
-0.998052, 225, 97, 256, 352
-0.998053, 221, 257, 236, 288
-0.998059, 237, 269, 252, 300
-0.998076, 391, 69, 406, 100
-0.998081, 421, 129, 452, 375
-0.998085, 113, 153, 240, 184
-0.998091, 257, 173, 384, 204
-0.998091, 447, 73, 462, 104
-0.998094, 41, 125, 56, 156
-0.9981, 285, 129, 316, 375
-0.99811, 113, 113, 240, 144
-0.998113, 409, 61, 424, 92
-0.998113, 455, 133, 470, 164
-0.998128, 47, 45, 62, 76
-0.998129, 485, 169, 500, 200
-0.998141, 455, 121, 470, 152
-0.998147, 1, 161, 128, 192
-0.998149, 449, 165, 464, 196
-0.998153, 213, 25, 228, 56
-0.998164, 305, 285, 432, 316
-0.998165, 13, 113, 28, 144
-0.99817, 257, 133, 384, 164
-0.998171, 113, 269, 240, 300
-0.998172, 225, 1, 256, 256
-0.998174, 145, 1, 176, 256
-0.998175, 65, 273, 192, 336
-0.998177, 33, 45, 48, 76
-0.998177, 265, 261, 280, 292
-0.998182, 469, 129, 500, 375
-0.998184, 201, 45, 216, 76
-0.998184, 305, 309, 432, 340
-0.998192, 305, 85, 320, 116
-0.998196, 299, 29, 314, 60
-0.9982, 81, 193, 208, 224
-0.998204, 13, 125, 28, 156
-0.998208, 13, 97, 28, 128
-0.998211, 249, 97, 280, 352
-0.998212, 147, 33, 162, 64
-0.998217, 51, 113, 66, 144
-0.998218, 17, 173, 144, 204
-0.998231, 239, 41, 254, 72
-0.998232, 41, 41, 56, 72
-0.998237, 57, 45, 72, 76
-0.998248, 181, 1, 212, 256
-0.998249, 371, 293, 386, 324
-0.99825, 153, 97, 184, 352
-0.998257, 433, 153, 448, 184
-0.998259, 237, 1, 268, 256
-0.998265, 391, 93, 406, 124
-0.998286, 391, 125, 406, 156
-0.998286, 41, 97, 72, 352
-0.998299, 329, 77, 344, 108
-0.998299, 299, 41, 314, 72
-0.998304, 441, 97, 456, 128
-0.998305, 53, 5, 68, 36
-0.998307, 233, 29, 248, 60
-0.998309, 443, 165, 458, 196
-0.998309, 263, 277, 278, 308
-0.99831, 295, 105, 310, 136
-0.998311, 249, 41, 264, 72
-0.998317, 133, 21, 148, 52
-0.998323, 391, 81, 406, 112
-0.998324, 467, 173, 482, 204
-0.998324, 233, 41, 248, 72
-0.998326, 103, 25, 118, 56
-0.998327, 59, 1, 74, 32
-0.99833, 391, 105, 406, 136
-0.998334, 369, 237, 496, 268
-0.998336, 197, 63, 228, 78
-0.998336, 185, 137, 216, 152
-0.998337, 93, 25, 124, 40
-0.998337, 297, 219, 328, 234
-0.998337, 257, 29, 288, 44
-0.998338, 377, 83, 408, 98
-0.998338, 61, 19, 92, 34
-0.998339, 29, 59, 60, 74
-0.998339, 49, 121, 80, 136
-0.998339, 81, 25, 112, 40
-0.998339, 217, 213, 248, 228
-0.99834, 197, 257, 228, 272
-0.99834, 297, 229, 328, 244
-0.998341, 9, 85, 40, 100
-0.998341, 33, 103, 64, 118
-0.998341, 61, 11, 92, 26
-0.998341, 29, 53, 60, 68
-0.998341, 173, 115, 204, 130
-0.998343, 229, 279, 260, 294
-0.998343, 329, 285, 360, 300
-0.998344, 377, 65, 408, 80
-0.998344, 421, 127, 452, 142
-0.998345, 9, 119, 40, 134
-0.998345, 51, 33, 66, 64
-0.998345, 353, 285, 368, 316
-0.998346, 261, 281, 292, 296
-0.998346, 73, 59, 104, 74
-0.998346, 237, 53, 268, 68
-0.998346, 409, 41, 440, 56
-0.998348, 377, 133, 408, 148
-0.998349, 297, 83, 328, 98
-0.99835, 205, 251, 236, 266
-0.998351, 217, 25, 248, 40
-0.998352, 277, 97, 308, 112
-0.998352, 97, 97, 224, 128
-0.998353, 377, 77, 408, 92
-0.998353, 443, 129, 458, 160
-0.998354, 417, 109, 448, 124
-0.998354, 321, 81, 352, 96
-0.998354, 37, 57, 52, 88
-0.998354, 45, 47, 76, 62
-0.998354, 293, 239, 324, 254
-0.998355, 9, 127, 40, 142
-0.998355, 407, 169, 422, 200
-0.998358, 445, 69, 476, 84
-0.998359, 181, 127, 212, 142
-0.998359, 177, 121, 208, 136
-0.998359, 53, 35, 84, 50
-0.99836, 445, 115, 476, 130
-0.998361, 9, 159, 40, 174
-0.998361, 421, 91, 452, 106
-0.998362, 197, 53, 228, 68
-0.998362, 9, 151, 40, 166
-0.998362, 433, 97, 464, 112
-0.998364, 341, 289, 372, 304
-0.998364, 101, 31, 132, 46
-0.998365, 377, 71, 408, 86
-0.998365, 269, 255, 300, 270
-0.998365, 261, 261, 292, 276
-0.998365, 49, 5, 80, 20
-0.998365, 377, 125, 408, 140
-0.998366, 205, 41, 236, 56
-0.998366, 121, 29, 152, 44
-0.998367, 421, 83, 452, 98
-0.998368, 289, 95, 320, 110
-0.998369, 9, 113, 40, 128
-0.998369, 9, 91, 40, 106
-0.99837, 33, 65, 64, 80
-0.99837, 127, 5, 142, 36
-0.998371, 421, 27, 452, 42
-0.998371, 9, 137, 40, 152
-0.998372, 357, 295, 388, 310
-0.998372, 9, 97, 40, 112
-0.998373, 53, 95, 84, 110
-0.998373, 85, 59, 116, 74
-0.998374, 209, 17, 336, 48
-0.998376, 433, 171, 464, 186
-0.998376, 29, 47, 60, 62
-0.998376, 415, 61, 430, 92
-0.998376, 225, 273, 256, 288
-0.998378, 193, 203, 224, 218
-0.998379, 309, 283, 340, 298
-0.99838, 85, 67, 116, 82
-0.998381, 9, 143, 40, 158
-0.998381, 121, 89, 152, 104
-0.998383, 405, 173, 436, 188
-0.998383, 437, 85, 468, 100
-0.998383, 217, 45, 232, 76
-0.998384, 421, 121, 452, 136
-0.998384, 73, 65, 104, 80
-0.998385, 57, 29, 88, 44
-0.998385, 35, 121, 50, 152
-0.998386, 93, 37, 108, 68
-0.998386, 217, 35, 248, 50
-0.998388, 421, 33, 452, 48
-0.998388, 69, 29, 100, 44
-0.998393, 13, 77, 44, 92
-0.998393, 443, 113, 458, 144
-0.998394, 465, 177, 496, 192
-0.998394, 81, 37, 112, 52
-0.998394, 197, 47, 228, 62
-0.998395, 419, 173, 434, 204
-0.998395, 205, 31, 236, 46
-0.998397, 133, 33, 164, 48
-0.998399, 433, 107, 464, 122
-0.998401, 433, 91, 464, 106
-0.998401, 301, 89, 332, 104
-0.998402, 209, 53, 240, 68
-0.998403, 449, 151, 480, 166
-0.998404, 409, 35, 440, 50
-0.998404, 1, 257, 128, 288
-0.998406, 205, 25, 236, 40
-0.998407, 445, 171, 476, 186
-0.998408, 245, 47, 276, 62
-0.998409, 249, 279, 280, 294
-0.99841, 433, 79, 464, 94
-0.99841, 445, 141, 476, 156
-0.99841, 445, 127, 476, 142
-0.998413, 421, 115, 452, 130
-0.998416, 133, 9, 148, 40
-0.998419, 333, 281, 348, 312
-0.998421, 231, 269, 246, 300
-0.998423, 9, 103, 40, 118
-0.998423, 425, 173, 440, 204
-0.998423, 271, 261, 286, 292
-0.998426, 223, 37, 238, 68
-0.998428, 217, 43, 248, 58
-0.998432, 347, 285, 362, 316
-0.998433, 429, 165, 460, 180
-0.998435, 207, 201, 222, 232
-0.998435, 123, 29, 138, 60
-0.998436, 81, 31, 112, 46
-0.998437, 113, 1, 128, 32
-0.998437, 29, 127, 60, 142
-0.998438, 397, 39, 428, 54
-0.998438, 225, 49, 256, 64
-0.998438, 433, 73, 464, 88
-0.998438, 309, 83, 340, 98
-0.99844, 359, 289, 374, 320
-0.998443, 297, 129, 328, 375
-0.998445, 365, 289, 380, 320
-0.998446, 445, 121, 476, 136
-0.998446, 377, 297, 392, 328
-0.998447, 153, 65, 168, 96
-0.998447, 259, 25, 274, 56
-0.998448, 271, 281, 286, 312
-0.998449, 401, 61, 464, 76
-0.998449, 63, 57, 78, 88
-0.998452, 479, 173, 494, 204
-0.998454, 201, 73, 216, 104
-0.998455, 433, 67, 464, 82
-0.998456, 417, 41, 432, 72
-0.998458, 237, 97, 268, 352
-0.99846, 437, 153, 468, 168
-0.998461, 397, 65, 428, 80
-0.998463, 237, 271, 268, 286
-0.998466, 417, 129, 480, 144
-0.998467, 393, 75, 456, 90
-0.998469, 339, 285, 354, 316
-0.998473, 429, 101, 444, 132
-0.998475, 207, 45, 222, 76
-0.998479, 411, 45, 426, 76
-0.99848, 13, 145, 28, 176
-0.99848, 289, 237, 304, 268
-0.998481, 393, 99, 456, 114
-0.998483, 385, 81, 448, 96
-0.998483, 255, 277, 270, 308
-0.998484, 437, 81, 452, 208
-0.998485, 79, 25, 94, 56
-0.998485, 437, 159, 468, 174
-0.998486, 445, 75, 476, 90
-0.998487, 425, 169, 488, 184
-0.998487, 301, 217, 316, 248
-0.99849, 393, 107, 456, 122
-0.998491, 385, 67, 448, 82
-0.998492, 445, 135, 476, 150
-0.998492, 429, 89, 444, 120
-0.998492, 417, 135, 480, 150
-0.998493, 393, 113, 456, 128
-0.998493, 435, 5, 450, 36
-0.998495, 21, 77, 36, 108
-0.998496, 3, 149, 18, 180
-0.998498, 203, 253, 218, 284
-0.998501, 469, 1, 500, 256
-0.998501, 239, 29, 254, 60
-0.998505, 429, 141, 444, 172
-0.998506, 93, 57, 108, 88
-0.998512, 385, 137, 448, 152
-0.998512, 23, 57, 38, 88
-0.998512, 433, 113, 464, 128
-0.998512, 23, 33, 38, 64
-0.998512, 393, 125, 456, 140
-0.998514, 385, 89, 448, 104
-0.998515, 393, 119, 456, 134
-0.998518, 441, 165, 472, 180
-0.998518, 417, 73, 480, 88
-0.998519, 227, 257, 242, 288
-0.998521, 59, 93, 74, 124
-0.998528, 433, 145, 464, 160
-0.998529, 283, 93, 298, 124
-0.998531, 1, 305, 256, 368
-0.998534, 327, 281, 342, 312
-0.998537, 417, 67, 480, 82
-0.998538, 473, 173, 488, 204
-0.998541, 417, 121, 480, 136
-0.998542, 393, 131, 456, 146
-0.998545, 323, 77, 338, 108
-0.998546, 393, 163, 456, 178
-0.998548, 453, 69, 468, 100
-0.998552, 417, 141, 480, 156
-0.998553, 273, 87, 336, 102
-0.998554, 297, 285, 360, 300
-0.998555, 433, 127, 464, 142
-0.998556, 425, 151, 488, 166
-0.998557, 273, 93, 336, 108
-0.998559, 433, 121, 464, 136
-0.998559, 17, 61, 80, 76
-0.998561, 385, 149, 448, 164
-0.998562, 393, 173, 456, 188
-0.998562, 417, 79, 480, 94
-0.998563, 447, 65, 462, 192
-0.998564, 417, 115, 480, 130
-0.998565, 413, 61, 444, 76
-0.998574, 385, 143, 448, 158
-0.998574, 225, 271, 288, 286
-0.998576, 89, 49, 152, 64
-0.998576, 9, 103, 72, 118
-0.998577, 57, 29, 120, 44
-0.998581, 425, 163, 488, 178
-0.998582, 49, 55, 112, 70
-0.998582, 17, 55, 80, 70
-0.998582, 425, 57, 488, 72
-0.998585, 17, 47, 80, 62
-0.998586, 297, 53, 360, 68
-0.998589, 293, 1, 324, 256
-0.998595, 97, 31, 160, 46
-0.998596, 433, 139, 464, 154
-0.998596, 217, 255, 280, 270
-0.998596, 233, 279, 296, 294
-0.998597, 297, 83, 360, 98
-0.998599, 9, 97, 72, 112
-0.998599, 425, 157, 488, 172
-0.998599, 417, 101, 480, 116
-0.9986, 385, 155, 448, 170
-0.9986, 41, 95, 104, 110
-0.998602, 113, 51, 176, 66
-0.998603, 177, 257, 240, 272
-0.998603, 145, 67, 208, 82
-0.998604, 9, 109, 72, 124
-0.998604, 385, 41, 448, 56
-0.998605, 49, 35, 112, 50
-0.998605, 113, 43, 176, 58
-0.998606, 9, 127, 72, 142
-0.998609, 417, 107, 480, 122
-0.99861, 1, 91, 64, 106
-0.998611, 9, 149, 72, 164
-0.998612, 297, 35, 360, 50
-0.998612, 145, 59, 208, 74
-0.998613, 273, 249, 336, 264
-0.998613, 281, 239, 344, 254
-0.998614, 321, 289, 384, 304
-0.998614, 433, 175, 496, 190
-0.998616, 9, 115, 72, 130
-0.998617, 425, 95, 488, 110
-0.998618, 249, 263, 312, 278
-0.998619, 49, 61, 112, 76
-0.99862, 89, 57, 152, 72
-0.99862, 257, 255, 320, 270
-0.998621, 201, 273, 264, 288
-0.998623, 241, 95, 304, 110
-0.998624, 209, 261, 272, 276
-0.998625, 425, 85, 488, 100
-0.998625, 297, 45, 360, 60
-0.998626, 401, 55, 464, 70
-0.998626, 345, 133, 408, 148
-0.998627, 377, 61, 440, 76
-0.998627, 169, 145, 232, 160
-0.998627, 433, 57, 464, 72
-0.998627, 57, 67, 120, 82
-0.998628, 53, 65, 84, 320
-0.998628, 257, 81, 320, 96
-0.998629, 353, 69, 416, 84
-0.998629, 353, 111, 416, 126
-0.99863, 177, 25, 240, 40
-0.99863, 273, 99, 336, 114
-0.99863, 9, 69, 72, 84
-0.998631, 193, 51, 256, 66
-0.998632, 353, 85, 416, 100
-0.998632, 329, 295, 392, 310
-0.998632, 437, 33, 452, 160
-0.998637, 257, 43, 320, 58
-0.998638, 169, 205, 232, 220
-0.998638, 433, 133, 464, 148
-0.998639, 241, 51, 304, 66
-0.998641, 297, 59, 360, 74
-0.998641, 353, 117, 416, 132
-0.998642, 353, 75, 416, 90
-0.998642, 41, 127, 104, 142
-0.998643, 217, 249, 280, 264
-0.998644, 297, 89, 360, 104
-0.998645, 177, 139, 240, 154
-0.998646, 49, 49, 112, 64
-0.998646, 233, 89, 296, 104
-0.998649, 217, 27, 280, 42
-0.998649, 289, 221, 352, 236
-0.99865, 345, 127, 408, 142
-0.99865, 9, 137, 72, 152
-0.99865, 177, 267, 240, 282
-0.99865, 265, 277, 328, 292
-0.998651, 41, 5, 104, 20
-0.998651, 145, 47, 208, 62
-0.998652, 9, 143, 72, 158
-0.998653, 345, 139, 408, 154
-0.998654, 265, 285, 328, 300
-0.998655, 9, 159, 72, 174
-0.998656, 353, 91, 416, 106
-0.998656, 177, 251, 240, 266
-0.998658, 241, 101, 304, 116
-0.998658, 233, 83, 296, 98
-0.998658, 9, 121, 72, 136
-0.998658, 369, 55, 432, 70
-0.998658, 257, 219, 320, 234
-0.998659, 329, 63, 392, 78
-0.998659, 177, 129, 240, 144
-0.99866, 177, 33, 240, 48
-0.998661, 49, 43, 112, 58
-0.998662, 425, 9, 488, 24
-0.998662, 9, 75, 72, 90
-0.998663, 81, 25, 144, 40
-0.998663, 73, 43, 136, 58
-0.998674, 345, 129, 376, 375
-0.998677, 29, 129, 60, 375
-0.998702, 1, 305, 128, 368
-0.998704, 455, 113, 470, 240
-0.998704, 17, 273, 144, 336
-0.998705, 397, 129, 428, 375
-0.998714, 1, 121, 500, 184
-0.998714, 357, 129, 388, 375
-0.998785, 113, 1, 144, 256
-0.998797, 373, 129, 404, 375
-0.998801, 445, 129, 460, 256
-0.998818, 429, 49, 444, 176
-0.998828, 125, 129, 156, 375
-0.99884, 299, 33, 314, 160
-0.998887, 97, 1, 128, 256
-0.998915, 213, 193, 228, 320
-0.998916, 419, 1, 434, 128
-0.998933, 249, 1, 280, 256
-0.998947, 439, 129, 454, 256
-0.998962, 369, 33, 400, 288
-0.998963, 431, 97, 446, 224
-0.998983, 201, 177, 216, 304
-0.998983, 469, 161, 484, 288
-0.998999, 399, 49, 414, 176
-0.999002, 207, 177, 222, 304
-0.999004, 289, 225, 304, 352
-0.999053, 425, 1, 440, 128
-0.999055, 301, 193, 316, 320
-0.999058, 391, 65, 406, 192
-0.999058, 137, 129, 168, 375
-0.999079, 475, 161, 490, 288
-0.999089, 443, 1, 458, 128
-0.999095, 295, 193, 310, 320
-0.999096, 307, 209, 322, 336
-0.999099, 213, 17, 228, 144
-0.999101, 305, 33, 320, 160
-0.999102, 13, 81, 28, 208
-0.999109, 283, 225, 298, 352
-0.999113, 309, 97, 340, 352
-0.999117, 463, 161, 478, 288
-0.999126, 13, 129, 44, 375
-0.999128, 333, 97, 364, 352
-0.999146, 219, 209, 234, 336
-0.999154, 413, 1, 428, 128
-0.999159, 203, 17, 218, 144
-0.99916, 195, 193, 210, 320
-0.99917, 481, 161, 496, 288
-0.999172, 277, 225, 292, 352
-0.999182, 313, 209, 328, 336
-0.999186, 295, 241, 310, 368
-0.999188, 233, 17, 248, 144
-0.999188, 69, 1, 100, 256
-0.999194, 431, 1, 446, 128
-0.999197, 289, 81, 304, 208
-0.999218, 165, 1, 196, 256
-0.99922, 405, 17, 420, 144
-0.999224, 205, 241, 220, 368
-0.999226, 391, 113, 406, 240
-0.999233, 221, 161, 236, 288
-0.999239, 457, 161, 472, 288
-0.999241, 183, 193, 198, 320
-0.999241, 189, 193, 204, 320
-0.999242, 461, 113, 476, 240
-0.999243, 227, 17, 242, 144
-0.999251, 93, 17, 108, 144
-0.999252, 135, 1, 150, 128
-0.999253, 311, 65, 326, 192
-0.999255, 113, 129, 144, 375
-0.999256, 375, 241, 390, 368
-0.99926, 43, 33, 58, 160
-0.999262, 65, 129, 96, 375
-0.999263, 127, 65, 142, 192
-0.999263, 163, 193, 178, 320
-0.999266, 211, 241, 226, 368
-0.999268, 169, 193, 184, 320
-0.999272, 239, 33, 254, 160
-0.999273, 271, 225, 286, 352
-0.999274, 123, 1, 138, 128
-0.999275, 81, 17, 96, 144
-0.999279, 199, 241, 214, 368
-0.999281, 305, 81, 320, 208
-0.999282, 423, 49, 438, 176
-0.999285, 85, 1, 116, 256
-0.999291, 147, 17, 162, 144
-0.999294, 197, 113, 212, 240
-0.999297, 301, 241, 316, 368
-0.999299, 103, 1, 118, 128
-0.999304, 319, 209, 334, 336
-0.999304, 175, 193, 190, 320
-0.999306, 295, 81, 310, 208
-0.99931, 369, 241, 384, 368
-0.999324, 215, 145, 230, 272
-0.999325, 113, 17, 128, 144
-0.999328, 433, 145, 448, 272
-0.999329, 259, 17, 274, 144
-0.99933, 193, 241, 208, 368
-0.99933, 381, 241, 396, 368
-0.99933, 13, 129, 28, 256
-0.999331, 265, 225, 280, 352
-0.999332, 51, 97, 66, 224
-0.999338, 33, 33, 48, 160
-0.999343, 227, 193, 242, 320
-0.999343, 381, 33, 396, 160
-0.999345, 1, 281, 256, 344
-0.999349, 293, 33, 308, 160
-0.99935, 391, 17, 406, 144
-0.999351, 197, 33, 212, 160
-0.999353, 209, 129, 224, 256
-0.999364, 157, 193, 172, 320
-0.999365, 129, 17, 144, 144
-0.999372, 53, 17, 68, 144
-0.999373, 221, 17, 236, 144
-0.999374, 357, 225, 372, 352
-0.999375, 289, 145, 304, 272
-0.999375, 267, 65, 282, 192
-0.999376, 283, 81, 298, 208
-0.999376, 23, 49, 38, 176
-0.999383, 5, 129, 20, 256
-0.999386, 363, 241, 378, 368
-0.999392, 203, 113, 218, 240
-0.999394, 453, 65, 468, 192
-0.999394, 449, 17, 464, 144
-0.999395, 179, 241, 194, 368
-0.999398, 21, 97, 36, 224
-0.999399, 275, 49, 290, 176
-0.999399, 187, 241, 202, 368
-0.999402, 147, 225, 162, 352
-0.999408, 191, 113, 206, 240
-0.99941, 119, 49, 134, 176
-0.999411, 397, 145, 412, 272
-0.999415, 157, 65, 172, 192
-0.999421, 349, 225, 364, 352
-0.999422, 81, 241, 96, 368
-0.999427, 181, 49, 196, 176
-0.999427, 169, 241, 184, 368
-0.999428, 321, 1, 336, 128
-0.999429, 169, 65, 184, 192
-0.999429, 141, 225, 156, 352
-0.999432, 387, 241, 402, 368
-0.999434, 409, 129, 440, 375
-0.999436, 399, 1, 414, 128
-0.999439, 343, 225, 358, 352
-0.999443, 119, 225, 134, 352
-0.999447, 99, 49, 114, 176
-0.999449, 325, 209, 340, 336
-0.999451, 75, 241, 90, 368
-0.999452, 135, 225, 150, 352
-0.999454, 465, 209, 480, 336
-0.999455, 57, 97, 72, 224
-0.999457, 203, 65, 218, 192
-0.999458, 163, 241, 178, 368
-0.999488, 321, 129, 352, 375
-0.999549, 3, 169, 18, 184
-0.999549, 13, 161, 28, 176
-0.99955, 457, 77, 472, 92
-0.99955, 231, 271, 246, 286
-0.99955, 3, 159, 18, 174
-0.999551, 95, 37, 110, 52
-0.999552, 47, 59, 62, 74
-0.999553, 31, 53, 46, 68
-0.999553, 233, 37, 248, 52
-0.999553, 303, 57, 318, 72
-0.999554, 91, 67, 106, 82
-0.999554, 13, 97, 28, 112
-0.999554, 299, 37, 314, 52
-0.999554, 53, 11, 68, 26
-0.999554, 223, 37, 238, 52
-0.999554, 439, 149, 454, 164
-0.999554, 471, 177, 486, 192
-0.999555, 53, 17, 68, 32
-0.999555, 33, 45, 48, 60
-0.999555, 65, 61, 80, 76
-0.999556, 223, 257, 238, 272
-0.999556, 245, 55, 260, 70
-0.999556, 449, 55, 464, 70
-0.999556, 255, 271, 270, 286
-0.999556, 241, 43, 256, 58
-0.999557, 459, 143, 474, 158
-0.999557, 335, 83, 350, 98
-0.999558, 213, 47, 228, 62
-0.999559, 321, 83, 336, 98
-0.999559, 73, 1, 88, 16
-0.99956, 57, 55, 72, 70
-0.99956, 429, 109, 444, 124
-0.99956, 437, 69, 452, 84
-0.99956, 443, 83, 458, 98
-0.999562, 391, 101, 406, 116
-0.999563, 51, 47, 66, 62
-0.999564, 201, 63, 216, 78
-0.999565, 481, 175, 496, 190
-0.999565, 299, 51, 314, 66
-0.999566, 443, 137, 458, 152
-0.999566, 391, 107, 406, 122
-0.999566, 235, 25, 250, 40
-0.999567, 391, 125, 406, 140
-0.999568, 201, 73, 216, 88
-0.999569, 299, 31, 314, 46
-0.999569, 215, 53, 230, 68
-0.999569, 91, 31, 106, 46
-0.99957, 329, 81, 344, 96
-0.99957, 289, 103, 304, 118
-0.999572, 295, 107, 310, 122
-0.999572, 391, 79, 406, 94
-0.999572, 103, 29, 118, 44
-0.999573, 13, 105, 28, 120
-0.999573, 417, 61, 432, 76
-0.999573, 451, 69, 466, 84
-0.999574, 391, 115, 406, 130
-0.999574, 233, 51, 248, 66
-0.999576, 147, 33, 162, 48
-0.999577, 223, 45, 238, 60
-0.999577, 391, 85, 406, 100
-0.999577, 53, 5, 68, 20
-0.999578, 77, 31, 92, 46
-0.999578, 41, 47, 56, 62
-0.999578, 389, 133, 404, 148
-0.999579, 433, 163, 448, 178
-0.999579, 431, 91, 446, 106
-0.999579, 97, 29, 112, 44
-0.999579, 13, 129, 28, 144
-0.99958, 391, 93, 406, 108
-0.99958, 249, 49, 264, 64
-0.99958, 41, 125, 56, 140
-0.999581, 409, 63, 424, 78
-0.999581, 13, 119, 28, 134
-0.999582, 455, 137, 470, 152
-0.999584, 47, 53, 62, 68
-0.999584, 451, 117, 466, 132
-0.999585, 133, 27, 148, 42
-0.999586, 57, 61, 72, 76
-0.999586, 13, 137, 28, 152
-0.999586, 447, 75, 462, 90
-0.999588, 451, 123, 466, 138
-0.999588, 55, 27, 70, 42
-0.999589, 213, 25, 228, 40
-0.99959, 85, 29, 100, 44
-0.999592, 13, 113, 28, 128
-0.999593, 419, 35, 434, 50
-0.999593, 237, 271, 252, 286
-0.999596, 249, 271, 264, 286
-0.999597, 123, 49, 138, 64
-0.999597, 37, 55, 52, 70
-0.999597, 33, 61, 48, 76
-0.999599, 451, 149, 466, 164
-0.9996, 233, 43, 248, 58
-0.999606, 391, 69, 406, 84
-0.999607, 485, 13, 500, 28
-0.999607, 423, 59, 438, 74
-0.999609, 435, 99, 450, 114
-0.999615, 125, 87, 140, 102
-0.999617, 243, 273, 258, 288
-0.999617, 437, 169, 452, 184
-0.999618, 329, 1, 360, 256
-0.999623, 439, 143, 454, 158
-0.999623, 309, 81, 324, 96
-0.999627, 15, 77, 30, 92
-0.999628, 435, 105, 450, 120
-0.999633, 455, 129, 470, 144
-0.999634, 239, 49, 254, 64
-0.999635, 295, 101, 310, 116
-0.999636, 413, 37, 428, 52
-0.999638, 437, 91, 452, 106
-0.999639, 437, 75, 452, 90
-0.99964, 399, 67, 414, 82
-0.999641, 445, 117, 460, 132
-0.999641, 441, 155, 456, 170
-0.999642, 443, 169, 458, 184
-0.999644, 449, 165, 464, 180
-0.999645, 289, 95, 304, 110
-0.999647, 443, 55, 458, 70
-0.999648, 437, 125, 452, 140
-0.999649, 437, 57, 452, 72
-0.999653, 429, 59, 444, 74
-0.999656, 445, 131, 460, 146
-0.999656, 443, 161, 458, 176
-0.999658, 437, 83, 452, 98
-0.999661, 77, 129, 108, 375
-0.99967, 295, 95, 310, 110
-0.999674, 437, 137, 452, 152
-0.999677, 453, 143, 468, 158
-0.999679, 435, 113, 450, 128
-0.999686, 437, 131, 452, 146
-0.999718, 435, 119, 450, 134
-0.999729, 357, 33, 388, 288
-0.99974, 97, 129, 128, 375
-0.999785, 449, 137, 464, 152
-0.999869, 341, 1, 372, 256
-1.00009, 305, 1, 336, 256
-1.00061, 317, 1, 348, 256
