1969
-0.519293, 1, 129, 500, 375
-0.592231, 1, 33, 500, 288
-0.655727, 225, 1, 480, 375
-0.714111, 129, 1, 384, 375
-0.717626, 65, 129, 320, 375
-0.756057, 161, 129, 416, 375
-0.777409, 1, 1, 500, 375
-0.784732, 33, 1, 288, 375
-0.819037, 257, 97, 500, 352
-0.857068, 129, 33, 384, 288
-0.867165, 1, 161, 500, 288
-0.867959, 145, 129, 272, 375
-0.885581, 97, 129, 224, 375
-0.886564, 257, 1, 500, 256
-0.891272, 1, 209, 500, 336
-0.897879, 209, 97, 336, 352
-0.89862, 257, 97, 384, 352
-0.903577, 65, 193, 320, 320
-0.904784, 241, 1, 368, 375
-0.905691, 321, 129, 448, 375
-0.906011, 129, 1, 256, 375
-0.9061, 305, 1, 432, 375
-0.912529, 49, 129, 176, 375
-0.920008, 1, 113, 500, 240
-0.921836, 113, 33, 240, 288
-0.926155, 161, 177, 416, 304
-0.927598, 145, 161, 272, 288
-0.928126, 193, 1, 320, 375
-0.93131, 129, 129, 384, 256
-0.931889, 337, 33, 464, 288
-0.932725, 49, 1, 176, 375
-0.933148, 193, 161, 320, 288
-0.935315, 153, 129, 216, 256
-0.935923, 257, 161, 384, 288
-0.93688, 193, 161, 256, 288
-0.937482, 33, 145, 288, 272
-0.937789, 257, 177, 320, 304
-0.937815, 113, 177, 176, 304
-0.938442, 225, 209, 352, 336
-0.939214, 81, 193, 208, 320
-0.939701, 225, 129, 480, 256
-0.941349, 153, 193, 216, 256
-0.94138, 241, 193, 304, 256
-0.941601, 33, 33, 288, 288
-0.942796, 145, 209, 272, 336
-0.943076, 281, 145, 344, 272
-0.943336, 97, 129, 224, 256
-0.943963, 161, 225, 416, 352
-0.944349, 233, 177, 296, 304
-0.944879, 153, 177, 216, 304
-0.945765, 233, 97, 296, 224
-0.945912, 65, 33, 192, 288
-0.945987, 257, 1, 384, 256
-0.946512, 265, 201, 328, 264
-0.946611, 65, 241, 320, 368
-0.946833, 257, 169, 320, 232
-0.948241, 161, 33, 288, 288
-0.949367, 321, 177, 384, 304
-0.949511, 353, 1, 480, 375
-0.949742, 305, 177, 432, 304
-0.950756, 113, 177, 176, 240
-0.950795, 201, 217, 264, 280
-0.950844, 225, 217, 288, 280
-0.952503, 137, 161, 200, 224
-0.952917, 89, 161, 152, 288
-0.95467, 201, 169, 264, 232
-0.954826, 289, 185, 352, 248
-0.955665, 281, 193, 344, 320
-0.955767, 369, 129, 496, 375
-0.955926, 225, 113, 352, 240
-0.955977, 257, 209, 500, 336
-0.956682, 257, 129, 320, 256
-0.957216, 305, 129, 432, 256
-0.958776, 217, 193, 280, 256
-0.958943, 161, 169, 224, 232
-0.959106, 113, 129, 176, 256
-0.959416, 65, 177, 128, 304
-0.959719, 177, 113, 304, 240
-0.960365, 233, 169, 296, 232
-0.960477, 89, 193, 152, 256
-0.960583, 177, 113, 240, 240
-0.960888, 113, 217, 176, 280
-0.961064, 273, 145, 336, 208
-0.961187, 33, 177, 160, 304
-0.961528, 113, 153, 176, 216
-0.961598, 193, 81, 448, 208
-0.961637, 361, 129, 424, 256
-0.962174, 97, 81, 352, 208
-0.963002, 201, 113, 264, 240
-0.963009, 361, 129, 424, 192
-0.963862, 177, 209, 240, 336
-0.964131, 297, 145, 360, 208
-0.964296, 137, 137, 200, 200
-0.964815, 249, 225, 312, 288
-0.965355, 113, 225, 176, 352
-0.965431, 193, 193, 256, 256
-0.965506, 313, 169, 376, 232
-0.965785, 193, 201, 320, 264
-0.965877, 1, 1, 128, 375
-0.966202, 129, 193, 256, 256
-0.966487, 73, 225, 136, 352
-0.966803, 177, 217, 240, 280
-0.967007, 329, 217, 392, 280
-0.967222, 289, 217, 352, 280
-0.967643, 237, 209, 268, 272
-0.967729, 193, 169, 320, 232
-0.967789, 201, 209, 264, 336
-0.967994, 209, 1, 336, 256
-0.968078, 305, 129, 368, 256
-0.968273, 89, 169, 152, 232
-0.968559, 233, 97, 296, 160
-0.968732, 145, 217, 272, 280
-0.968796, 257, 209, 288, 272
-0.969552, 141, 193, 172, 256
-0.969703, 65, 193, 128, 256
-0.969723, 265, 81, 328, 208
-0.969978, 273, 185, 304, 248
-0.970256, 261, 169, 292, 232
-0.970394, 1, 97, 128, 352
-0.97053, 261, 161, 292, 288
-0.970664, 313, 121, 376, 184
-0.97075, 153, 217, 216, 280
-0.97095, 165, 169, 196, 232
-0.971089, 353, 161, 480, 288
-0.971161, 313, 193, 376, 256
-0.971162, 257, 225, 384, 288
-0.971485, 201, 209, 232, 272
-0.971505, 257, 185, 384, 248
-0.971601, 289, 201, 320, 264
-0.971728, 313, 225, 376, 352
-0.971736, 125, 193, 156, 256
-0.971917, 145, 129, 208, 375
-0.972002, 65, 217, 128, 280
-0.972183, 133, 145, 164, 272
-0.97224, 273, 225, 400, 352
-0.972248, 1, 65, 500, 192
-0.972272, 245, 161, 276, 288
-0.972312, 393, 177, 456, 304
-0.972529, 385, 161, 448, 224
-0.972893, 81, 201, 208, 264
-0.973214, 49, 129, 176, 256
-0.973276, 145, 145, 176, 272
-0.973378, 257, 33, 500, 160
-0.973494, 345, 193, 408, 320
-0.973586, 157, 193, 188, 256
-0.973739, 133, 153, 164, 216
-0.973765, 281, 145, 312, 272
-0.973834, 177, 161, 208, 288
-0.973885, 225, 97, 288, 352
-0.973888, 301, 145, 332, 208
-0.973954, 113, 169, 240, 232
-0.97413, 181, 169, 212, 232
-0.974186, 201, 161, 232, 288
-0.97434, 145, 217, 176, 280
-0.974614, 225, 225, 288, 352
-0.974627, 225, 217, 256, 280
-0.974697, 149, 169, 180, 232
-0.97479, 65, 177, 192, 240
-0.974836, 305, 185, 336, 248
-0.974906, 153, 225, 216, 352
-0.974954, 33, 225, 160, 352
-0.97505, 233, 161, 264, 288
-0.975132, 41, 209, 104, 336
-0.975191, 121, 177, 152, 304
-0.975203, 353, 209, 480, 336
-0.97524, 201, 169, 232, 232
-0.975287, 345, 193, 376, 256
-0.975432, 261, 209, 292, 336
-0.975506, 81, 241, 208, 368
-0.975708, 221, 161, 252, 288
-0.975932, 185, 193, 216, 256
-0.976158, 305, 241, 368, 304
-0.976295, 213, 217, 244, 280
-0.976328, 193, 233, 320, 296
-0.976507, 169, 145, 232, 208
-0.976632, 145, 273, 208, 336
-0.97666, 137, 193, 168, 320
-0.976846, 277, 209, 308, 272
-0.977037, 349, 145, 380, 272
-0.977069, 121, 169, 152, 232
-0.977141, 165, 129, 196, 256
-0.977142, 201, 241, 264, 304
-0.977235, 325, 161, 356, 288
-0.977495, 97, 225, 224, 288
-0.977608, 113, 209, 144, 272
-0.977609, 337, 161, 368, 288
-0.977636, 193, 129, 256, 375
-0.9778, 157, 193, 188, 320
-0.977847, 305, 201, 432, 264
-0.978214, 301, 225, 332, 288
-0.978436, 289, 121, 352, 184
-0.978488, 245, 185, 276, 248
-0.978513, 253, 113, 284, 240
-0.978536, 265, 129, 328, 375
-0.978622, 361, 185, 424, 248
-0.978893, 309, 145, 340, 272
-0.978965, 73, 209, 104, 272
-0.978973, 313, 209, 344, 272
-0.979001, 257, 65, 384, 192
-0.979009, 177, 241, 240, 304
-0.979123, 401, 145, 432, 208
-0.979202, 33, 209, 160, 272
-0.97927, 281, 193, 312, 320
-0.979272, 93, 185, 124, 248
-0.979272, 125, 217, 156, 280
-0.979289, 113, 241, 176, 304
-0.979299, 337, 249, 400, 312
-0.979433, 237, 209, 268, 336
-0.979445, 409, 177, 472, 240
-0.979496, 337, 177, 400, 240
-0.979518, 257, 113, 320, 176
-0.979543, 345, 169, 376, 232
-0.979704, 97, 129, 160, 375
-0.97973, 145, 145, 272, 208
-0.979808, 73, 177, 104, 304
-0.979823, 293, 177, 324, 240
-0.98001, 193, 145, 256, 208
-0.980026, 121, 281, 184, 344
-0.980062, 109, 161, 140, 288
-0.980076, 225, 241, 288, 304
-0.980247, 241, 137, 304, 200
-0.98026, 157, 217, 188, 280
-0.980276, 269, 113, 300, 240
-0.98036, 217, 145, 280, 208
-0.980364, 301, 193, 332, 320
-0.980366, 337, 169, 464, 232
-0.980659, 293, 145, 324, 272
-0.980663, 197, 233, 228, 296
-0.980887, 137, 81, 200, 208
-0.980982, 237, 233, 268, 296
-0.981091, 281, 161, 312, 224
-0.981195, 189, 145, 220, 272
-0.981251, 89, 145, 152, 208
-0.981393, 329, 129, 392, 256
-0.981463, 65, 249, 128, 312
-0.981556, 337, 113, 400, 176
-0.981612, 161, 257, 192, 320
-0.981632, 333, 185, 364, 248
-0.981662, 337, 33, 400, 96
-0.981746, 325, 217, 356, 280
-0.98176, 89, 225, 152, 288
-0.981802, 129, 81, 256, 208
-0.981846, 89, 113, 152, 240
-0.981881, 153, 241, 216, 304
-0.981935, 317, 129, 348, 192
-0.981968, 177, 113, 208, 240
-0.98215, 389, 129, 420, 192
-0.982185, 405, 145, 436, 272
-0.982231, 369, 177, 432, 304
-0.982262, 357, 185, 388, 248
-0.98242, 313, 233, 344, 296
-0.982447, 353, 217, 384, 280
-0.982523, 169, 193, 200, 256
-0.982583, 257, 89, 288, 152
-0.982637, 317, 185, 348, 248
-0.98265, 257, 233, 288, 296
-0.982677, 409, 169, 440, 232
-0.982687, 105, 185, 136, 248
-0.982739, 273, 161, 400, 224
-0.982774, 349, 193, 380, 320
-0.982821, 181, 137, 212, 200
-0.98285, 49, 233, 176, 296
-0.983039, 233, 169, 264, 232
-0.983092, 305, 129, 432, 192
-0.983132, 273, 89, 336, 152
-0.983137, 305, 81, 432, 208
-0.983173, 385, 137, 448, 200
-0.983292, 249, 33, 312, 160
-0.983358, 329, 57, 392, 120
-0.983426, 41, 193, 104, 256
-0.983511, 217, 193, 248, 256
-0.983536, 81, 185, 112, 248
-0.983554, 89, 161, 120, 288
-0.983602, 249, 225, 312, 352
-0.983658, 321, 161, 352, 224
-0.983711, 409, 201, 472, 264
-0.98373, 169, 97, 232, 352
-0.983765, 417, 201, 448, 264
-0.983794, 385, 209, 448, 272
-0.983813, 329, 209, 360, 336
-0.983863, 289, 241, 352, 368
-0.983962, 121, 97, 184, 352
-0.984044, 361, 217, 424, 280
-0.984054, 97, 297, 160, 360
-0.984089, 169, 137, 200, 200
-0.984175, 289, 225, 320, 288
-0.984257, 109, 209, 140, 336
-0.984311, 193, 97, 320, 160
-0.984417, 17, 1, 144, 256
-0.984566, 305, 225, 432, 288
-0.984673, 145, 241, 272, 304
-0.984684, 193, 145, 224, 208
-0.984845, 289, 129, 352, 375
-0.984846, 289, 249, 416, 312
-0.984908, 369, 241, 432, 304
-0.984962, 89, 273, 152, 336
-0.985148, 313, 193, 344, 320
-0.985174, 241, 113, 272, 240
-0.985218, 193, 145, 320, 208
-0.985282, 313, 1, 376, 128
-0.985357, 121, 129, 152, 256
-0.98537, 361, 161, 424, 224
-0.985403, 273, 33, 336, 160
-0.985436, 41, 225, 104, 288
-0.985438, 417, 161, 480, 288
-0.985484, 65, 169, 128, 232
-0.985507, 281, 249, 344, 312
-0.985573, 409, 113, 472, 240
-0.985683, 409, 145, 472, 208
-0.985696, 33, 273, 96, 336
-0.985716, 225, 113, 256, 240
-0.985724, 241, 249, 368, 312
-0.985824, 417, 145, 448, 272
-0.985849, 377, 225, 440, 352
-0.985908, 361, 161, 392, 288
-0.985917, 341, 217, 372, 280
-0.985944, 145, 137, 176, 200
-0.985946, 97, 145, 224, 208
-0.986065, 377, 129, 440, 375
-0.986075, 185, 217, 216, 280
-0.986078, 277, 129, 308, 192
-0.986154, 433, 49, 496, 112
-0.986256, 125, 225, 156, 352
-0.98636, 65, 257, 192, 320
-0.986363, 405, 217, 436, 280
-0.986426, 17, 185, 144, 248
-0.98649, 273, 233, 304, 296
-0.986531, 121, 305, 184, 368
-0.986655, 73, 225, 104, 352
-0.98669, 225, 209, 256, 336
-0.986771, 357, 161, 388, 224
-0.986824, 189, 193, 220, 320
-0.986893, 305, 49, 368, 112
-0.98707, 253, 145, 284, 208
-0.987072, 241, 97, 368, 160
-0.987118, 33, 161, 96, 288
-0.987188, 1, 97, 256, 224
-0.987197, 109, 113, 140, 240
-0.987201, 105, 233, 136, 296
-0.987241, 361, 33, 424, 288
-0.987369, 249, 209, 280, 336
-0.987483, 177, 65, 304, 192
-0.987501, 241, 209, 304, 240
-0.98753, 377, 121, 408, 184
-0.987535, 333, 161, 364, 224
-0.987611, 149, 265, 180, 328
-0.987659, 193, 221, 256, 252
-0.987711, 337, 137, 400, 200
-0.987758, 213, 209, 244, 336
-0.987829, 241, 137, 368, 200
-0.987916, 133, 97, 164, 224
-0.987968, 157, 137, 188, 200
-0.988059, 273, 221, 336, 252
-0.988062, 241, 197, 304, 228
-0.988072, 201, 121, 264, 184
-0.988074, 137, 177, 200, 208
-0.988116, 337, 113, 368, 240
-0.988178, 233, 221, 296, 252
-0.988228, 97, 225, 128, 352
-0.988236, 65, 33, 320, 160
-0.988391, 89, 209, 120, 272
-0.988413, 213, 113, 244, 240
-0.988422, 337, 129, 368, 192
-0.988438, 81, 81, 208, 208
-0.988482, 273, 17, 400, 144
-0.988483, 257, 33, 320, 288
-0.988554, 321, 113, 352, 240
-0.988554, 105, 185, 168, 216
-0.988587, 273, 209, 336, 240
-0.988614, 281, 81, 312, 208
-0.98862, 353, 217, 480, 280
-0.988641, 385, 113, 448, 240
-0.988651, 337, 121, 400, 152
-0.988661, 305, 97, 336, 224
-0.988665, 217, 209, 280, 240
-0.988715, 193, 209, 256, 240
-0.988734, 273, 193, 336, 224
-0.988742, 153, 193, 216, 224
-0.988746, 101, 209, 132, 272
-0.988754, 153, 213, 216, 244
-0.98881, 145, 265, 272, 328
-0.988811, 85, 209, 116, 336
-0.988851, 353, 81, 416, 208
-0.988923, 417, 193, 448, 320
-0.988965, 265, 145, 296, 208
-0.988989, 65, 233, 96, 296
-0.989065, 89, 249, 152, 312
-0.989066, 257, 177, 320, 208
-0.989145, 145, 241, 176, 304
-0.989156, 225, 137, 256, 200
-0.989163, 145, 289, 176, 352
-0.989163, 105, 205, 168, 236
-0.989174, 105, 217, 168, 248
-0.989204, 393, 233, 424, 296
-0.989211, 113, 121, 240, 184
-0.989218, 73, 217, 136, 248
-0.989388, 57, 297, 120, 360
-0.989388, 273, 237, 336, 268
-0.989415, 393, 129, 424, 256
-0.989521, 365, 113, 396, 176
-0.989542, 421, 177, 452, 240
-0.989561, 289, 181, 352, 212
-0.989575, 337, 33, 400, 288
-0.989604, 201, 209, 232, 336
-0.989674, 393, 113, 456, 176
-0.989675, 97, 201, 352, 264
-0.989695, 289, 157, 352, 188
-0.989735, 77, 305, 108, 368
-0.989752, 225, 233, 288, 264
-0.989761, 137, 141, 200, 172
-0.989767, 1, 1, 500, 128
-0.989791, 297, 205, 360, 236
-0.989824, 353, 241, 480, 304
-0.989825, 145, 165, 208, 196
-0.989847, 301, 121, 332, 184
-0.989853, 325, 241, 356, 304
-0.989871, 1, 177, 500, 240
-0.989949, 73, 197, 136, 228
-0.990022, 345, 129, 408, 375
-0.990029, 129, 105, 192, 168
-0.990055, 393, 57, 456, 120
-0.990081, 161, 17, 416, 144
-0.990085, 201, 197, 264, 228
-0.990088, 317, 241, 348, 368
-0.990107, 201, 113, 232, 240
-0.990111, 177, 177, 240, 208
-0.990115, 113, 129, 176, 192
-0.990138, 353, 193, 480, 256
-0.990157, 113, 173, 176, 204
-0.990164, 129, 197, 192, 228
-0.99019, 297, 221, 360, 252
-0.990204, 297, 249, 360, 280
-0.990211, 297, 193, 360, 224
-0.990227, 245, 65, 276, 192
-0.99024, 209, 89, 272, 152
-0.990251, 313, 81, 376, 208
-0.990273, 201, 181, 264, 212
-0.990277, 193, 121, 320, 184
-0.990284, 269, 97, 300, 160
-0.990304, 145, 97, 176, 224
-0.990307, 289, 137, 320, 200
-0.990332, 133, 129, 164, 192
-0.990355, 81, 185, 144, 216
-0.990358, 129, 217, 192, 248
-0.99036, 169, 105, 232, 168
-0.990368, 321, 205, 384, 236
-0.990371, 201, 233, 264, 264
-0.990383, 321, 173, 384, 204
-0.9904, 233, 185, 296, 216
-0.990413, 305, 25, 368, 88
-0.99046, 249, 237, 312, 268
-0.990484, 337, 33, 400, 160
-0.9905, 353, 133, 416, 164
-0.990501, 321, 217, 384, 248
-0.990521, 321, 129, 384, 375
-0.990539, 121, 161, 184, 192
-0.990544, 245, 97, 276, 160
-0.990586, 153, 225, 216, 256
-0.99059, 205, 145, 236, 208
-0.990664, 305, 1, 432, 64
-0.990668, 305, 129, 368, 160
-0.99072, 161, 241, 192, 368
-0.990735, 249, 97, 312, 128
-0.990757, 321, 185, 384, 216
-0.990773, 353, 121, 480, 184
-0.990845, 69, 281, 100, 344
-0.990856, 129, 177, 384, 240
-0.990858, 129, 305, 192, 336
-0.990878, 269, 33, 300, 160
-0.990892, 345, 257, 408, 288
-0.990932, 177, 189, 240, 220
-0.990945, 105, 105, 168, 168
-0.990947, 81, 301, 144, 332
-0.990968, 357, 241, 388, 304
-0.990975, 369, 245, 432, 276
-0.990975, 369, 185, 400, 248
-0.991003, 49, 217, 112, 248
-0.991023, 385, 185, 448, 248
-0.99106, 73, 229, 136, 260
-0.991074, 257, 73, 384, 136
-0.991118, 321, 257, 384, 288
-0.991123, 381, 241, 412, 304
-0.991135, 281, 169, 344, 200
-0.991173, 265, 137, 328, 168
-0.991183, 113, 229, 176, 260
-0.991225, 217, 169, 248, 232
-0.991227, 369, 41, 496, 104
-0.991228, 321, 245, 384, 276
-0.991295, 225, 105, 288, 136
-0.991304, 361, 221, 424, 252
-0.991323, 105, 309, 168, 340
-0.991326, 177, 233, 240, 264
-0.991326, 65, 129, 128, 256
-0.99133, 97, 233, 352, 296
-0.991346, 129, 1, 192, 256
-0.991391, 185, 145, 248, 176
-0.991431, 169, 133, 232, 164
-0.991452, 369, 217, 400, 280
-0.991455, 169, 165, 232, 196
-0.991509, 65, 313, 128, 344
-0.991531, 225, 33, 288, 160
-0.991531, 185, 65, 248, 192
-0.991542, 353, 41, 384, 104
-0.991553, 217, 137, 280, 168
-0.991571, 225, 209, 480, 272
-0.991584, 145, 153, 208, 184
-0.991593, 129, 257, 192, 288
-0.991604, 73, 97, 136, 352
-0.991612, 241, 145, 272, 208
-0.991623, 173, 209, 204, 336
-0.991625, 193, 217, 320, 248
-0.991628, 397, 209, 428, 336
-0.99164, 201, 1, 264, 375
-0.991643, 49, 205, 112, 236
-0.991656, 121, 145, 152, 208
-0.991676, 345, 245, 408, 276
-0.991698, 69, 185, 100, 248
-0.991704, 289, 145, 352, 176
-0.991727, 377, 145, 440, 176
-0.991734, 345, 1, 408, 64
-0.991734, 241, 249, 304, 280
-0.991761, 385, 169, 448, 200
-0.991765, 89, 173, 152, 204
-0.991765, 393, 233, 456, 264
-0.99177, 65, 273, 128, 336
-0.991773, 197, 213, 228, 244
-0.991777, 249, 73, 312, 136
-0.991798, 257, 165, 320, 196
-0.991808, 413, 145, 444, 208
-0.991816, 297, 237, 360, 268
-0.991824, 369, 205, 432, 236
-0.99183, 249, 1, 312, 375
-0.991848, 137, 293, 200, 324
-0.991902, 245, 221, 276, 252
-0.99191, 285, 213, 316, 244
-0.991923, 241, 121, 304, 152
-0.991936, 105, 161, 136, 224
-0.991937, 337, 49, 400, 80
-0.99195, 261, 225, 292, 256
-0.99195, 1, 201, 500, 264
-0.991963, 313, 33, 376, 288
-0.991964, 73, 257, 104, 320
-0.991966, 61, 225, 92, 352
-0.991967, 49, 153, 176, 216
-0.992003, 133, 197, 164, 228
-0.992019, 245, 209, 276, 240
-0.992025, 65, 121, 192, 184
-0.992029, 265, 213, 296, 244
-0.992029, 113, 269, 176, 300
-0.992045, 77, 233, 108, 296
-0.992066, 267, 177, 282, 240
-0.99207, 153, 261, 216, 292
-0.992099, 313, 117, 376, 148
-0.992117, 105, 257, 168, 288
-0.992123, 33, 249, 96, 312
-0.992131, 145, 281, 208, 312
-0.992131, 129, 273, 160, 336
-0.992139, 265, 41, 328, 72
-0.992156, 77, 213, 108, 244
-0.992163, 275, 169, 290, 232
-0.99217, 257, 237, 288, 268
-0.992171, 361, 209, 392, 336
-0.992171, 145, 217, 176, 248
-0.992172, 253, 193, 284, 224
-0.992174, 217, 221, 248, 252
-0.992189, 281, 225, 312, 256
-0.992191, 321, 61, 384, 92
-0.992191, 217, 245, 280, 276
-0.992195, 169, 181, 200, 212
-0.992219, 97, 281, 224, 344
-0.992224, 321, 229, 384, 260
-0.992231, 241, 133, 304, 164
-0.992234, 181, 193, 212, 224
-0.992236, 369, 157, 432, 188
-0.992248, 113, 141, 176, 172
-0.992251, 297, 217, 328, 248
-0.992257, 97, 161, 160, 192
-0.99227, 229, 209, 260, 240
-0.992279, 257, 153, 320, 184
-0.992285, 129, 185, 160, 216
-0.99229, 289, 113, 352, 144
-0.992295, 125, 217, 156, 248
-0.992299, 313, 161, 376, 192
-0.992307, 113, 213, 144, 244
-0.992316, 57, 181, 120, 212
-0.992319, 193, 121, 256, 152
-0.992334, 313, 217, 344, 248
-0.992344, 281, 197, 312, 228
-0.992353, 253, 177, 284, 208
-0.992354, 313, 45, 376, 76
-0.992355, 313, 141, 376, 172
-0.992358, 273, 249, 336, 280
-0.992358, 233, 173, 296, 204
-0.992363, 113, 245, 176, 276
-0.992364, 265, 197, 296, 228
-0.992367, 105, 293, 168, 324
-0.992379, 377, 129, 440, 160
-0.992391, 133, 297, 164, 360
-0.9924, 89, 217, 120, 248
-0.992403, 117, 201, 148, 232
-0.992404, 85, 201, 116, 232
-0.992404, 369, 233, 432, 264
-0.992408, 57, 245, 120, 276
-0.99242, 233, 225, 264, 256
-0.992421, 89, 321, 152, 352
-0.992422, 273, 181, 304, 212
-0.992426, 289, 113, 320, 176
-0.992426, 213, 121, 244, 184
-0.992426, 369, 113, 496, 240
-0.992429, 301, 205, 332, 236
-0.992448, 301, 177, 332, 208
-0.99247, 301, 149, 332, 180
-0.992483, 137, 245, 200, 276
-0.992488, 145, 193, 176, 224
-0.99249, 273, 125, 336, 156
-0.992494, 249, 249, 312, 312
-0.992496, 293, 229, 324, 260
-0.992508, 337, 109, 400, 140
-0.992509, 345, 249, 376, 312
-0.992517, 105, 185, 136, 216
-0.992523, 301, 193, 332, 224
-0.992523, 49, 301, 112, 332
-0.992526, 253, 201, 268, 264
-0.992532, 141, 301, 172, 332
-0.992543, 273, 97, 336, 128
-0.992544, 89, 305, 120, 368
-0.99255, 149, 177, 180, 208
-0.992557, 381, 129, 412, 160
-0.99256, 257, 97, 288, 128
-0.992562, 101, 209, 132, 240
-0.992572, 249, 109, 312, 140
-0.992576, 137, 161, 168, 192
-0.992576, 401, 221, 464, 252
-0.992577, 65, 261, 128, 292
-0.992579, 345, 233, 408, 264
-0.992589, 117, 181, 148, 212
-0.992592, 409, 173, 472, 204
-0.992593, 345, 205, 408, 236
-0.992599, 313, 137, 344, 168
-0.992603, 329, 185, 360, 216
-0.992607, 189, 97, 220, 224
-0.992607, 349, 213, 380, 244
-0.992611, 217, 209, 248, 240
-0.992612, 397, 237, 428, 268
-0.992614, 185, 177, 216, 208
-0.992618, 193, 133, 256, 164
-0.99263, 297, 57, 360, 88
-0.992641, 325, 125, 356, 156
-0.992648, 317, 185, 348, 216
-0.992648, 345, 181, 376, 212
-0.992652, 237, 237, 268, 268
-0.992653, 113, 221, 240, 252
-0.992655, 157, 197, 188, 228
-0.992655, 305, 237, 336, 268
-0.992657, 385, 185, 448, 216
-0.992657, 389, 141, 420, 172
-0.99266, 357, 121, 388, 152
-0.992662, 345, 193, 408, 224
-0.992666, 313, 205, 344, 236
-0.992669, 353, 37, 416, 68
-0.992673, 197, 201, 228, 232
-0.992682, 113, 225, 144, 256
-0.992682, 317, 249, 348, 280
-0.992696, 129, 309, 160, 340
-0.992702, 157, 213, 188, 244
-0.99271, 241, 217, 256, 280
-0.992712, 193, 205, 320, 236
-0.992717, 221, 241, 252, 304
-0.992735, 401, 153, 432, 184
-0.992738, 161, 229, 288, 260
-0.992744, 197, 225, 228, 256
-0.992752, 281, 169, 312, 200
-0.992755, 337, 121, 368, 152
-0.992759, 273, 237, 304, 268
-0.992763, 145, 205, 176, 236
-0.992763, 337, 169, 368, 200
-0.992772, 149, 229, 180, 260
-0.992777, 369, 125, 400, 156
-0.992782, 225, 177, 480, 240
-0.992785, 129, 145, 160, 176
-0.992787, 129, 205, 256, 236
-0.99279, 73, 225, 104, 256
-0.992795, 145, 141, 176, 172
-0.992798, 329, 249, 360, 280
-0.9928, 361, 169, 424, 200
-0.992801, 413, 221, 444, 252
-0.992803, 197, 177, 228, 208
-0.992811, 337, 213, 368, 244
-0.992812, 149, 289, 180, 320
-0.992819, 289, 105, 416, 168
-0.992826, 289, 185, 320, 216
-0.992834, 97, 197, 128, 228
-0.992834, 325, 205, 356, 236
-0.992841, 301, 137, 332, 168
-0.992843, 257, 65, 288, 192
-0.992844, 325, 217, 356, 248
-0.99285, 337, 201, 368, 232
-0.992855, 1, 209, 256, 272
-0.992867, 389, 249, 420, 280
-0.992871, 185, 205, 216, 236
-0.992873, 349, 197, 380, 228
-0.992876, 155, 209, 170, 272
-0.992898, 161, 169, 192, 200
-0.9929, 289, 137, 320, 168
-0.992902, 161, 1, 224, 375
-0.992911, 129, 173, 160, 204
-0.992913, 181, 165, 212, 196
-0.992916, 149, 165, 180, 196
-0.992927, 361, 213, 392, 244
-0.992929, 297, 161, 328, 192
-0.992938, 157, 269, 188, 300
-0.992942, 137, 233, 168, 264
-0.992944, 361, 65, 392, 192
-0.992945, 405, 165, 436, 196
-0.99295, 321, 173, 352, 204
-0.992954, 241, 197, 272, 228
-0.992955, 313, 1, 376, 64
-0.992958, 117, 313, 148, 344
-0.992969, 101, 221, 132, 252
-0.992972, 93, 185, 124, 216
-0.992973, 233, 177, 264, 208
-0.99299, 161, 137, 192, 168
-0.992998, 269, 101, 300, 132
-0.993009, 161, 225, 192, 256
-0.993011, 73, 201, 104, 232
-0.993013, 169, 193, 200, 224
-0.993014, 253, 165, 284, 196
-0.993017, 225, 197, 256, 228
-0.993018, 409, 177, 440, 208
-0.99302, 101, 305, 132, 336
-0.993021, 409, 233, 440, 264
-0.993023, 145, 257, 176, 288
-0.993036, 85, 313, 116, 344
-0.993039, 197, 189, 228, 220
-0.99304, 181, 137, 212, 168
-0.993043, 49, 217, 176, 248
-0.993044, 213, 197, 244, 228
-0.993045, 97, 317, 128, 348
-0.993048, 369, 253, 400, 284
-0.993048, 203, 209, 218, 272
-0.993048, 317, 229, 348, 260
-0.993048, 245, 249, 276, 280
-0.993052, 33, 177, 288, 240
-0.993052, 157, 253, 188, 284
-0.993069, 265, 169, 296, 200
-0.993075, 257, 249, 288, 280
-0.993086, 157, 241, 188, 272
-0.993088, 65, 213, 96, 244
-0.993091, 253, 109, 284, 140
-0.993138, 137, 241, 168, 368
-0.993144, 305, 265, 368, 328
-0.993173, 137, 1, 200, 375
-0.993174, 261, 193, 276, 256
-0.993196, 405, 193, 436, 256
-0.993253, 225, 1, 288, 375
-0.993254, 33, 81, 160, 208
-0.99327, 121, 305, 152, 368
-0.993275, 261, 169, 276, 232
-0.9933, 297, 1, 360, 375
-0.993328, 297, 169, 312, 232
-0.993379, 317, 105, 348, 168
-0.99338, 113, 193, 240, 224
-0.993393, 381, 113, 412, 240
-0.993419, 143, 193, 158, 256
-0.993435, 257, 217, 384, 248
-0.993442, 113, 181, 240, 212
-0.993456, 129, 185, 144, 248
-0.993486, 217, 217, 232, 280
-0.9935, 291, 193, 306, 256
-0.993524, 193, 257, 320, 320
-0.993553, 277, 201, 292, 264
-0.993618, 81, 305, 208, 368
-0.993645, 161, 73, 288, 136
-0.993675, 401, 121, 432, 184
-0.993681, 193, 233, 448, 296
-0.993684, 281, 33, 344, 288
-0.993685, 33, 305, 160, 368
-0.993694, 401, 129, 464, 375
-0.993695, 405, 97, 436, 224
-0.993722, 305, 185, 320, 248
-0.993743, 65, 153, 320, 216
-0.993777, 369, 1, 432, 375
-0.993804, 365, 137, 396, 200
-0.993826, 257, 197, 384, 228
-0.993842, 137, 193, 152, 256
-0.993843, 337, 265, 464, 328
-0.993848, 247, 209, 262, 272
-0.993858, 169, 265, 232, 328
-0.993876, 127, 209, 142, 272
-0.993934, 145, 97, 272, 160
-0.993937, 57, 273, 88, 336
-0.993944, 177, 169, 192, 232
-0.993944, 137, 169, 152, 232
-0.993953, 329, 89, 392, 152
-0.993962, 337, 65, 464, 128
-0.993968, 361, 185, 376, 248
-0.99399, 203, 169, 218, 232
-0.993996, 163, 169, 178, 232
-0.994024, 53, 241, 84, 304
-0.99403, 267, 201, 282, 264
-0.994044, 369, 41, 432, 104
-0.994056, 183, 161, 198, 224
-0.994082, 209, 209, 224, 272
-0.994097, 33, 257, 288, 320
-0.994131, 17, 281, 144, 344
-0.994165, 1, 225, 500, 288
-0.994169, 117, 209, 132, 272
-0.994209, 149, 169, 164, 232
-0.994247, 193, 177, 320, 208
-0.994255, 225, 229, 352, 260
-0.994257, 193, 137, 448, 200
-0.994289, 301, 249, 332, 312
-0.994292, 193, 169, 208, 232
-0.994323, 225, 217, 240, 280
-0.994325, 65, 185, 192, 216
-0.994339, 297, 193, 312, 256
-0.994344, 307, 145, 322, 208
-0.994351, 253, 225, 268, 288
-0.994353, 209, 241, 240, 304
-0.994357, 261, 217, 276, 280
-0.994381, 65, 201, 192, 232
-0.994386, 417, 289, 480, 352
-0.994408, 165, 193, 180, 256
-0.994443, 393, 33, 456, 288
-0.994449, 301, 145, 316, 208
-0.994455, 311, 225, 326, 288
-0.994472, 193, 257, 448, 320
-0.994483, 129, 105, 384, 168
-0.994487, 255, 177, 270, 240
-0.994516, 421, 153, 436, 216
-0.994517, 283, 193, 298, 256
-0.994521, 1, 233, 256, 296
-0.994531, 273, 1, 336, 375
-0.994554, 337, 1, 368, 64
-0.994599, 149, 201, 164, 264
-0.994612, 257, 273, 384, 336
-0.994623, 161, 217, 176, 280
-0.994631, 167, 241, 182, 304
-0.994631, 81, 209, 96, 272
-0.99465, 193, 193, 320, 224
-0.994659, 97, 33, 160, 288
-0.994668, 143, 153, 158, 216
-0.994687, 303, 209, 318, 272
-0.994688, 235, 217, 250, 280
-0.994709, 361, 113, 392, 240
-0.99472, 149, 241, 180, 368
-0.994723, 305, 217, 432, 248
-0.994724, 75, 209, 90, 272
-0.99475, 267, 153, 282, 216
-0.994752, 289, 125, 416, 156
-0.994755, 345, 1, 408, 375
-0.994763, 381, 217, 412, 280
-0.994828, 293, 97, 324, 224
-0.994854, 169, 233, 200, 296
-0.994914, 133, 249, 164, 312
-0.994925, 155, 177, 170, 240
-0.99493, 385, 225, 416, 352
-0.994933, 373, 161, 404, 288
-0.994958, 393, 209, 424, 272
-0.994972, 265, 121, 296, 184
-0.994973, 333, 33, 364, 96
-0.994974, 121, 121, 152, 184
-0.994992, 257, 185, 384, 216
-0.994993, 197, 193, 212, 256
-0.995004, 317, 225, 332, 288
-0.995019, 133, 217, 148, 280
-0.99512, 91, 193, 106, 256
-0.995157, 315, 185, 330, 248
-0.995168, 353, 185, 368, 248
-0.995189, 119, 185, 134, 248
-0.99519, 193, 145, 208, 208
-0.995241, 171, 161, 186, 224
-0.995253, 207, 233, 222, 296
-0.995257, 321, 1, 384, 375
-0.995266, 257, 241, 384, 272
-0.995295, 113, 169, 240, 200
-0.995296, 413, 145, 428, 208
-0.995304, 361, 209, 376, 272
-0.99532, 409, 225, 472, 352
-0.99532, 353, 1, 480, 64
-0.995333, 71, 233, 86, 296
-0.995369, 273, 49, 400, 112
-0.995371, 421, 177, 436, 240
-0.995427, 113, 133, 240, 164
-0.99543, 305, 97, 368, 160
-0.995432, 339, 169, 354, 232
-0.995436, 369, 97, 496, 160
-0.995445, 405, 137, 420, 200
-0.995446, 329, 185, 344, 248
-0.995458, 421, 209, 436, 272
-0.995484, 65, 229, 192, 260
-0.995498, 247, 233, 262, 296
-0.995514, 17, 257, 144, 320
-0.995517, 199, 233, 214, 296
-0.995536, 161, 257, 176, 320
-0.995542, 137, 145, 152, 208
-0.995543, 315, 145, 330, 208
-0.995568, 201, 33, 264, 288
-0.995585, 1, 233, 128, 296
-0.995589, 339, 201, 354, 264
-0.99561, 247, 177, 262, 240
-0.99563, 1, 129, 128, 256
-0.99567, 169, 1, 232, 256
-0.995675, 291, 169, 306, 232
-0.995676, 393, 249, 456, 312
-0.995696, 145, 129, 160, 192
-0.995712, 177, 241, 304, 272
-0.995723, 305, 181, 432, 212
-0.995728, 177, 129, 192, 192
-0.995742, 97, 185, 112, 248
-0.995752, 167, 217, 182, 280
-0.995761, 157, 281, 172, 344
-0.995792, 127, 161, 142, 224
-0.995792, 113, 237, 240, 268
-0.995834, 225, 257, 352, 288
-0.995843, 367, 185, 382, 248
-0.995869, 139, 217, 154, 280
-0.995875, 69, 265, 84, 328
-0.995885, 85, 185, 100, 248
-0.995906, 361, 105, 424, 168
-0.99592, 325, 153, 340, 216
-0.995921, 81, 97, 208, 160
-0.995925, 263, 89, 278, 152
-0.995926, 305, 205, 432, 236
-0.995931, 283, 217, 298, 280
-0.995944, 325, 113, 340, 176
-0.995954, 433, 313, 496, 375
-0.995959, 357, 161, 372, 224
-0.995968, 233, 193, 248, 256
-0.995978, 353, 145, 480, 208
-0.995992, 305, 253, 432, 284
-0.995993, 273, 25, 400, 88
-0.995995, 189, 193, 204, 256
-0.996001, 257, 89, 272, 152
-0.99604, 209, 65, 272, 128
-0.996067, 157, 81, 188, 208
-0.996076, 347, 185, 362, 248
-0.996086, 367, 209, 382, 272
-0.996105, 349, 1, 380, 128
-0.996113, 183, 137, 198, 200
-0.996113, 209, 169, 224, 232
-0.996115, 233, 1, 296, 256
-0.99614, 155, 153, 170, 216
-0.996159, 399, 129, 414, 192
-0.996176, 155, 233, 170, 296
-0.996193, 305, 169, 432, 200
-0.996216, 325, 209, 340, 272
-0.996221, 17, 205, 144, 236
-0.996235, 241, 129, 368, 160
-0.996236, 281, 169, 296, 232
-0.996246, 415, 225, 430, 288
-0.99625, 239, 193, 254, 256
-0.996251, 221, 193, 236, 256
-0.996257, 271, 225, 286, 288
-0.99627, 127, 233, 142, 296
-0.996271, 65, 301, 192, 332
-0.996287, 41, 169, 104, 232
-0.996303, 277, 225, 292, 288
-0.996303, 305, 233, 320, 296
-0.996313, 289, 229, 416, 260
-0.996318, 347, 225, 362, 288
-0.99632, 81, 213, 96, 244
-0.996335, 293, 217, 308, 280
-0.996368, 281, 25, 344, 88
-0.99637, 193, 137, 320, 168
-0.996375, 269, 89, 284, 152
-0.996386, 215, 193, 230, 256
-0.996399, 65, 257, 192, 288
-0.99641, 107, 185, 122, 248
-0.996416, 145, 261, 272, 292
-0.996419, 353, 217, 368, 280
-0.99643, 137, 121, 152, 184
-0.996454, 305, 141, 432, 172
-0.996468, 249, 33, 312, 96
-0.996479, 255, 145, 270, 208
-0.996493, 121, 161, 136, 224
-0.996501, 161, 129, 192, 375
-0.996526, 273, 145, 288, 208
-0.996546, 245, 217, 260, 248
-0.996555, 79, 185, 94, 248
-0.99656, 201, 213, 216, 244
-0.996564, 211, 213, 226, 244
-0.996577, 323, 185, 338, 248
-0.99659, 369, 305, 496, 368
-0.996604, 315, 121, 330, 184
-0.996611, 255, 205, 270, 236
-0.996615, 75, 273, 90, 336
-0.996616, 87, 205, 102, 236
-0.996616, 33, 97, 160, 160
-0.996643, 193, 125, 320, 156
-0.996648, 281, 217, 296, 248
-0.996657, 193, 101, 320, 132
-0.996659, 321, 41, 448, 104
-0.996665, 377, 65, 408, 192
-0.996672, 127, 209, 142, 240
-0.996682, 111, 217, 126, 280
-0.9967, 97, 1, 160, 375
-0.996708, 273, 213, 288, 244
-0.99671, 97, 129, 352, 192
-0.99671, 157, 221, 172, 252
-0.996727, 415, 201, 430, 264
-0.996728, 265, 193, 280, 224
-0.996728, 147, 233, 162, 296
-0.99673, 61, 177, 92, 304
-0.996731, 149, 201, 164, 232
-0.996735, 257, 65, 500, 128
-0.996737, 255, 221, 270, 252
-0.996738, 335, 137, 350, 200
-0.996749, 427, 185, 442, 248
-0.996753, 337, 225, 352, 288
-0.996764, 121, 81, 152, 208
-0.996778, 261, 237, 276, 268
-0.996784, 201, 201, 216, 232
-0.99679, 353, 245, 480, 276
-0.99679, 257, 185, 272, 216
-0.996793, 1, 161, 128, 224
-0.996803, 307, 221, 322, 252
-0.996821, 301, 217, 316, 248
-0.996822, 337, 1, 464, 128
-0.99685, 361, 65, 424, 128
-0.996884, 113, 121, 240, 152
-0.996897, 65, 241, 192, 272
-0.9969, 117, 213, 132, 244
-0.996922, 271, 225, 286, 256
-0.996932, 155, 209, 170, 240
-0.996939, 89, 113, 120, 240
-0.996945, 249, 205, 264, 236
-0.996952, 237, 97, 268, 352
-0.99697, 133, 129, 164, 375
-0.996976, 281, 33, 312, 160
-0.996978, 263, 181, 278, 212
-0.996978, 373, 209, 404, 336
-0.996979, 409, 1, 472, 375
-0.996982, 295, 209, 310, 240
-0.997006, 309, 141, 324, 172
-0.997011, 217, 217, 232, 248
-0.99702, 317, 213, 332, 244
-0.997037, 289, 81, 352, 208
-0.997074, 131, 185, 146, 216
-0.997079, 1, 217, 128, 248
-0.997079, 225, 113, 480, 176
-0.997081, 137, 189, 152, 220
-0.997093, 275, 181, 290, 212
-0.997107, 241, 173, 368, 204
-0.997111, 185, 181, 200, 212
-0.997122, 235, 221, 250, 252
-0.997127, 315, 141, 330, 172
-0.997139, 91, 217, 106, 248
-0.997141, 287, 217, 302, 248
-0.997141, 263, 225, 278, 256
-0.997153, 113, 305, 240, 336
-0.997162, 151, 293, 166, 324
-0.997167, 273, 197, 288, 228
-0.997171, 281, 205, 296, 236
-0.997174, 193, 193, 208, 224
-0.997177, 191, 181, 206, 212
-0.997182, 81, 73, 144, 136
-0.997182, 305, 193, 432, 224
-0.997196, 225, 113, 352, 144
-0.997204, 353, 213, 480, 244
-0.997206, 223, 213, 238, 244
-0.997215, 17, 185, 144, 216
-0.997216, 135, 217, 150, 248
-0.997228, 297, 173, 312, 204
-0.997247, 129, 249, 256, 280
-0.99726, 137, 205, 152, 236
-0.99726, 17, 305, 144, 336
-0.997274, 353, 241, 416, 368
-0.997282, 1, 137, 500, 200
-0.997283, 93, 205, 108, 236
-0.997285, 241, 101, 368, 132
-0.997299, 129, 221, 144, 252
-0.997305, 275, 237, 290, 268
-0.997307, 297, 197, 312, 228
-0.99731, 313, 225, 328, 256
-0.997315, 65, 173, 192, 204
-0.997321, 149, 217, 164, 248
-0.997323, 257, 65, 288, 320
-0.997329, 81, 145, 208, 176
-0.997331, 303, 189, 318, 220
-0.997333, 327, 205, 342, 236
-0.997338, 157, 281, 172, 312
-0.997342, 145, 297, 208, 360
-0.997346, 361, 213, 376, 244
-0.997347, 287, 205, 302, 236
-0.997347, 281, 129, 312, 375
-0.99735, 65, 269, 192, 300
-0.997352, 145, 137, 160, 168
-0.997353, 265, 213, 280, 244
-0.99736, 157, 193, 172, 224
-0.997371, 341, 65, 372, 192
-0.997379, 253, 233, 268, 264
-0.997381, 221, 97, 252, 352
-0.997385, 409, 225, 472, 288
-0.997391, 319, 225, 334, 256
-0.997398, 235, 205, 250, 236
-0.997398, 177, 169, 192, 200
-0.997403, 145, 185, 160, 216
-0.997409, 325, 217, 340, 248
-0.997409, 165, 253, 180, 284
-0.99742, 145, 129, 176, 375
-0.997428, 97, 217, 112, 248
-0.997433, 137, 177, 152, 208
-0.997439, 301, 157, 316, 188
-0.99744, 229, 221, 244, 252
-0.997447, 245, 229, 260, 260
-0.997458, 421, 161, 436, 192
-0.997463, 193, 289, 320, 352
-0.997475, 151, 189, 166, 220
-0.99748, 173, 97, 204, 352
-0.99749, 165, 265, 180, 296
-0.997494, 73, 1, 136, 375
-0.997509, 269, 177, 284, 208
-0.997518, 107, 221, 122, 252
-0.997519, 283, 193, 298, 224
-0.997523, 145, 157, 272, 188
-0.997528, 411, 145, 426, 176
-0.997535, 141, 301, 156, 332
-0.997536, 145, 157, 160, 188
-0.997537, 163, 197, 178, 228
-0.997538, 389, 129, 404, 160
-0.997538, 273, 113, 400, 144
-0.997549, 125, 197, 140, 228
-0.997554, 119, 225, 134, 256
-0.997561, 271, 97, 286, 128
-0.997563, 159, 269, 174, 300
-0.997564, 315, 177, 330, 208
-0.997565, 291, 185, 306, 216
-0.997573, 433, 25, 496, 88
-0.997581, 145, 289, 272, 352
-0.997585, 321, 133, 336, 164
-0.997589, 403, 137, 418, 168
-0.997611, 75, 225, 90, 256
-0.997612, 167, 241, 182, 272
-0.997614, 143, 197, 158, 228
-0.997616, 397, 133, 412, 164
-0.997623, 119, 181, 134, 212
-0.99764, 321, 241, 336, 272
-0.997642, 177, 181, 192, 212
-0.997645, 281, 229, 296, 260
-0.997651, 143, 209, 158, 240
-0.997659, 225, 89, 480, 152
-0.997666, 77, 297, 92, 328
-0.997672, 307, 201, 322, 232
-0.997676, 305, 177, 320, 208
-0.997677, 33, 281, 288, 344
-0.997678, 153, 177, 168, 208
-0.997682, 49, 193, 80, 320
-0.997684, 243, 205, 258, 236
-0.997689, 125, 181, 140, 212
-0.997698, 329, 129, 344, 160
-0.9977, 409, 229, 424, 260
-0.997706, 311, 237, 326, 268
-0.997725, 49, 289, 176, 320
-0.997725, 333, 185, 348, 216
-0.99773, 119, 201, 134, 232
-0.997731, 299, 133, 314, 164
-0.997733, 305, 61, 432, 92
-0.997742, 259, 97, 274, 128
-0.997743, 419, 217, 434, 248
-0.997745, 267, 237, 282, 268
-0.997746, 343, 181, 358, 212
-0.997747, 145, 169, 160, 200
-0.99775, 151, 161, 166, 192
-0.997753, 257, 269, 384, 300
-0.99776, 203, 177, 218, 208
-0.997768, 193, 165, 320, 196
-0.99777, 187, 193, 202, 224
-0.997772, 1, 113, 500, 176
-0.997778, 1, 129, 256, 192
-0.997788, 321, 181, 336, 212
-0.997796, 367, 213, 382, 244
-0.997798, 217, 205, 232, 236
-0.997808, 429, 129, 460, 256
-0.997808, 265, 97, 280, 128
-0.997822, 171, 177, 186, 208
-0.997823, 217, 229, 232, 260
-0.997828, 201, 129, 232, 375
-0.997828, 69, 281, 84, 312
-0.997834, 65, 133, 192, 164
-0.997839, 317, 197, 332, 228
-0.99784, 135, 309, 150, 340
-0.997846, 239, 233, 254, 264
-0.997847, 159, 233, 174, 264
-0.997849, 305, 241, 432, 272
-0.997878, 301, 97, 332, 352
-0.997917, 337, 153, 464, 184
-0.997967, 337, 129, 464, 160
-0.997998, 129, 145, 256, 176
-0.998032, 429, 177, 460, 304
-0.998044, 145, 289, 272, 320
-0.99807, 241, 297, 368, 360
-0.998085, 65, 161, 192, 192
-0.998091, 385, 65, 448, 192
-0.998093, 117, 97, 148, 352
-0.99812, 353, 185, 480, 216
-0.998122, 65, 317, 192, 348
-0.998151, 221, 65, 252, 192
-0.998163, 97, 81, 352, 144
-0.998165, 1, 249, 500, 312
-0.998197, 257, 141, 384, 172
-0.998205, 313, 97, 344, 352
-0.998228, 257, 1, 384, 64
-0.998249, 417, 73, 480, 136
-0.998285, 353, 201, 480, 232
-0.998298, 133, 33, 164, 288
-0.998312, 177, 113, 304, 144
-0.998325, 185, 225, 248, 240
-0.998334, 353, 165, 480, 196
-0.998344, 225, 33, 480, 96
-0.998366, 105, 187, 168, 202
-0.998369, 233, 227, 296, 242
-0.998371, 201, 203, 264, 218
-0.998375, 257, 221, 320, 236
-0.998376, 217, 219, 280, 234
-0.998383, 137, 179, 200, 194
-0.998384, 241, 195, 304, 210
-0.998391, 413, 129, 444, 375
-0.9984, 393, 81, 424, 208
-0.9984, 337, 125, 400, 140
-0.998401, 305, 265, 432, 296
-0.998401, 241, 211, 304, 226
-0.998405, 241, 203, 304, 218
-0.998411, 137, 197, 200, 212
-0.998411, 105, 221, 168, 236
-0.998425, 273, 197, 336, 212
-0.998428, 233, 233, 296, 248
-0.998434, 345, 129, 376, 375
-0.998437, 1, 289, 500, 352
-0.998438, 281, 219, 344, 234
-0.998438, 145, 273, 272, 304
-0.998445, 137, 185, 200, 200
-0.998447, 153, 217, 216, 232
-0.998448, 305, 219, 368, 234
-0.998449, 369, 1, 432, 64
-0.998453, 275, 161, 290, 288
-0.998453, 193, 213, 256, 228
-0.998453, 257, 227, 320, 242
-0.998454, 101, 215, 132, 230
-0.998454, 305, 137, 336, 152
-0.998454, 201, 231, 264, 246
-0.998455, 333, 191, 364, 206
-0.998455, 133, 163, 164, 178
-0.998455, 133, 311, 164, 326
-0.998456, 353, 119, 384, 134
-0.998458, 217, 197, 280, 212
-0.998459, 405, 167, 436, 182
-0.998459, 141, 301, 172, 316
-0.99846, 121, 205, 152, 220
-0.99846, 89, 199, 120, 214
-0.99846, 77, 313, 108, 328
-0.99846, 89, 225, 120, 240
-0.998461, 313, 187, 344, 202
-0.998461, 17, 229, 144, 260
-0.998463, 89, 315, 120, 330
-0.998464, 145, 205, 208, 220
-0.998464, 169, 135, 232, 150
-0.998465, 185, 219, 248, 234
-0.998467, 389, 137, 420, 152
-0.998469, 125, 227, 156, 242
-0.998471, 297, 195, 360, 210
-0.998471, 153, 223, 216, 238
-0.998472, 309, 157, 340, 172
-0.998474, 397, 151, 428, 166
-0.998474, 257, 187, 320, 202
-0.998474, 165, 177, 196, 192
-0.998474, 177, 197, 240, 212
-0.998475, 77, 213, 108, 228
-0.998476, 169, 139, 200, 154
-0.998477, 301, 199, 332, 214
-0.998477, 297, 213, 328, 228
-0.998478, 165, 171, 196, 186
-0.998479, 293, 143, 324, 158
-0.998479, 267, 161, 282, 288
-0.998479, 137, 191, 200, 206
-0.99848, 373, 257, 404, 272
-0.998481, 297, 159, 328, 174
-0.998481, 241, 239, 304, 254
-0.998481, 313, 213, 344, 228
-0.998482, 325, 183, 356, 198
-0.998482, 125, 215, 156, 230
-0.998483, 345, 257, 376, 272
-0.998483, 113, 227, 144, 242
-0.998485, 265, 213, 328, 228
-0.998486, 265, 233, 328, 248
-0.998486, 209, 145, 240, 160
-0.998489, 81, 219, 144, 234
-0.998489, 209, 225, 272, 240
-0.998489, 157, 205, 188, 220
-0.998492, 105, 193, 168, 208
-0.998492, 237, 205, 268, 220
-0.998494, 133, 203, 164, 218
-0.998494, 297, 239, 328, 254
-0.998496, 217, 199, 248, 214
-0.998499, 241, 215, 272, 230
-0.998499, 273, 189, 304, 204
-0.998499, 273, 135, 336, 150
-0.9985, 81, 317, 144, 332
-0.9985, 121, 167, 184, 182
-0.998501, 81, 185, 144, 200
-0.998501, 313, 195, 344, 210
-0.998501, 277, 235, 308, 250
-0.998504, 197, 135, 228, 150
-0.998505, 329, 217, 392, 232
-0.998505, 193, 133, 256, 148
-0.998506, 153, 173, 184, 188
-0.998506, 137, 173, 200, 188
-0.998507, 121, 315, 152, 330
-0.998509, 153, 197, 184, 212
-0.998509, 309, 245, 340, 260
-0.99851, 305, 257, 368, 272
-0.99851, 309, 143, 340, 158
-0.998512, 357, 125, 388, 140
-0.998513, 241, 243, 272, 258
-0.998513, 77, 225, 108, 240
-0.998513, 381, 251, 412, 266
-0.998513, 217, 213, 280, 228
-0.998514, 97, 193, 128, 208
-0.998514, 261, 211, 292, 226
-0.998514, 357, 219, 388, 234
-0.998514, 337, 253, 400, 268
-0.998515, 205, 205, 236, 220
-0.998515, 113, 213, 144, 228
-0.998515, 201, 237, 264, 252
-0.998516, 157, 217, 188, 232
-0.998516, 297, 233, 328, 248
-0.998517, 405, 161, 436, 176
-0.998518, 273, 203, 304, 218
-0.998519, 333, 257, 364, 272
-0.998521, 113, 181, 176, 196
-0.998522, 73, 227, 136, 242
-0.998523, 169, 197, 200, 212
-0.998523, 105, 319, 136, 334
-0.998524, 293, 135, 324, 150
-0.998524, 141, 187, 172, 202
-0.998525, 393, 247, 424, 262
-0.998525, 305, 213, 368, 228
-0.998525, 281, 225, 344, 240
-0.998525, 273, 239, 336, 254
-0.998525, 181, 187, 212, 202
-0.998526, 153, 231, 216, 246
-0.998527, 305, 189, 368, 204
-0.998528, 373, 127, 404, 142
-0.998529, 249, 99, 312, 114
-0.99853, 141, 215, 172, 230
-0.99853, 337, 123, 368, 138
-0.998533, 257, 161, 384, 192
-0.998533, 225, 141, 256, 156
-0.998534, 225, 135, 288, 150
-0.998535, 369, 69, 496, 100
-0.998536, 113, 227, 176, 242
-0.998536, 369, 57, 496, 88
-0.998538, 181, 181, 212, 196
-0.99854, 253, 189, 284, 204
-0.998541, 261, 179, 292, 194
-0.998541, 261, 161, 276, 288
-0.998542, 105, 221, 136, 236
-0.998543, 253, 223, 284, 238
-0.998543, 185, 203, 216, 218
-0.998543, 229, 215, 260, 230
-0.998543, 265, 203, 328, 218
-0.998544, 105, 201, 168, 216
-0.998545, 289, 249, 352, 264
-0.998545, 273, 211, 304, 226
-0.998546, 345, 131, 408, 146
-0.998546, 321, 133, 352, 148
-0.998548, 309, 225, 340, 240
-0.998549, 169, 205, 232, 220
-0.998549, 65, 121, 192, 152
-0.99855, 129, 221, 192, 236
-0.998551, 301, 191, 332, 206
-0.998552, 149, 227, 180, 242
-0.998552, 321, 131, 384, 146
-0.998553, 161, 211, 224, 226
-0.998554, 201, 227, 232, 242
-0.998554, 293, 227, 324, 242
-0.998554, 57, 221, 120, 236
-0.998554, 297, 201, 360, 216
-0.998555, 281, 195, 312, 210
-0.998555, 153, 141, 216, 156
-0.998555, 337, 259, 400, 274
-0.998556, 305, 225, 368, 240
-0.998556, 201, 199, 232, 214
-0.998557, 297, 181, 360, 196
-0.998557, 161, 189, 224, 204
-0.998558, 253, 217, 284, 232
-0.998559, 89, 309, 152, 324
-0.998561, 73, 213, 136, 228
-0.998561, 177, 179, 240, 194
-0.998561, 273, 179, 336, 194
-0.998563, 333, 219, 364, 234
-0.998565, 249, 235, 280, 250
-0.998567, 113, 215, 176, 230
-0.998569, 241, 179, 304, 194
-0.998569, 17, 317, 144, 348
-0.99857, 217, 225, 248, 240
-0.99857, 153, 179, 184, 194
-0.99857, 321, 183, 384, 198
-0.998571, 361, 137, 424, 152
-0.998571, 257, 99, 288, 114
-0.998571, 209, 219, 240, 234
-0.998573, 105, 187, 136, 202
-0.998573, 125, 221, 156, 236
-0.998574, 209, 141, 272, 156
-0.998577, 329, 223, 392, 238
-0.998577, 81, 191, 144, 206
-0.998577, 245, 161, 260, 288
-0.998579, 333, 129, 364, 144
-0.99858, 305, 219, 336, 234
-0.99858, 273, 143, 336, 158
-0.99858, 297, 173, 360, 188
-0.998583, 305, 151, 336, 166
-0.998583, 321, 253, 352, 268
-0.998584, 321, 201, 384, 216
-0.998586, 193, 149, 256, 164
-0.998586, 113, 207, 176, 222
-0.998586, 281, 167, 344, 182
-0.998587, 369, 253, 432, 268
-0.998587, 73, 199, 136, 214
-0.998587, 297, 137, 360, 152
-0.998589, 129, 183, 160, 198
-0.99859, 297, 207, 360, 222
-0.99859, 73, 219, 104, 234
-0.998591, 317, 219, 348, 234
-0.998591, 281, 189, 344, 204
-0.998593, 221, 233, 252, 248
-0.998594, 237, 233, 268, 248
-0.998594, 233, 189, 296, 204
-0.998597, 249, 105, 312, 120
-0.998598, 161, 171, 224, 186
-0.998599, 297, 129, 360, 144
-0.998599, 141, 193, 172, 208
-0.998599, 237, 221, 268, 236
-0.9986, 329, 65, 392, 80
-0.998601, 177, 235, 240, 250
-0.998602, 97, 305, 352, 368
-0.998602, 201, 177, 264, 192
-0.998602, 281, 157, 344, 172
-0.998604, 313, 251, 376, 266
-0.998604, 377, 165, 440, 180
-0.998605, 145, 155, 208, 170
-0.998605, 233, 199, 264, 214
-0.998605, 277, 219, 308, 234
-0.998607, 241, 89, 368, 120
-0.998609, 113, 233, 176, 248
-0.998609, 353, 219, 416, 234
-0.998609, 261, 235, 292, 250
-0.99861, 225, 99, 288, 114
-0.998616, 113, 175, 176, 190
-0.998616, 185, 197, 216, 212
-0.998617, 249, 133, 312, 148
-0.998617, 113, 319, 176, 334
-0.998617, 85, 219, 116, 234
-0.998618, 321, 55, 384, 70
-0.99862, 361, 71, 424, 86
-0.99862, 345, 217, 376, 232
-0.99862, 385, 173, 448, 188
-0.99862, 321, 195, 384, 210
-0.998622, 129, 161, 192, 176
-0.998622, 329, 177, 392, 192
-0.998622, 297, 143, 360, 158
-0.998623, 41, 215, 104, 230
-0.998623, 249, 139, 312, 154
-0.998623, 81, 303, 144, 318
-0.998624, 329, 119, 392, 134
-0.998624, 285, 213, 316, 228
-0.998625, 73, 205, 136, 220
-0.998626, 273, 225, 304, 240
-0.998626, 273, 151, 336, 166
-0.998627, 105, 161, 168, 176
-0.998627, 145, 261, 208, 276
-0.998628, 297, 63, 360, 78
-0.998628, 129, 307, 192, 322
-0.998629, 377, 157, 440, 172
-0.998634, 261, 203, 292, 218
-0.998639, 353, 113, 480, 144
-0.998646, 289, 219, 320, 234
-0.998648, 141, 221, 172, 236
-0.998651, 253, 195, 284, 210
-0.998654, 417, 81, 448, 208
-0.998655, 249, 209, 280, 224
-0.998656, 117, 185, 148, 200
-0.998661, 257, 229, 288, 244
-0.998663, 129, 197, 160, 212
-0.998665, 289, 297, 416, 360
-0.998667, 125, 191, 156, 206
-0.998669, 197, 213, 228, 228
-0.998672, 265, 219, 296, 234
-0.998696, 353, 257, 480, 288
-0.998699, 197, 219, 228, 234
-0.998701, 149, 1, 180, 256
-0.998706, 129, 281, 384, 344
-0.998716, 237, 227, 268, 242
-0.99872, 225, 289, 352, 320
-0.99873, 269, 65, 300, 320
-0.998743, 257, 241, 288, 256
-0.998747, 159, 145, 174, 272
-0.998756, 113, 81, 176, 208
-0.998761, 341, 161, 356, 288
-0.998774, 225, 49, 352, 112
-0.998775, 201, 161, 216, 288
-0.998775, 353, 233, 480, 264
-0.998788, 235, 161, 250, 288
-0.998793, 255, 177, 270, 304
-0.998794, 159, 209, 174, 336
-0.998799, 73, 129, 104, 375
-0.998802, 297, 1, 328, 256
-0.998811, 361, 145, 376, 272
-0.998813, 143, 129, 158, 256
-0.998816, 297, 161, 312, 288
-0.998816, 321, 1, 352, 128
-0.998817, 17, 249, 144, 280
-0.998836, 129, 177, 144, 304
-0.998843, 273, 113, 288, 240
-0.99885, 421, 145, 436, 272
-0.998854, 225, 301, 352, 332
-0.998854, 305, 145, 320, 272
-0.998855, 137, 145, 152, 272
-0.998856, 165, 193, 180, 320
-0.998874, 185, 97, 216, 352
-0.998879, 153, 193, 168, 320
-0.998881, 267, 209, 282, 336
-0.998888, 401, 97, 432, 352
-0.998901, 317, 145, 332, 272
-0.998904, 333, 129, 364, 375
-0.998909, 73, 209, 88, 336
-0.998911, 223, 161, 238, 288
-0.998924, 193, 129, 208, 256
-0.998931, 123, 161, 138, 288
-0.998937, 329, 161, 344, 288
-0.998942, 181, 113, 196, 240
-0.998943, 273, 57, 336, 120
-0.998945, 281, 177, 296, 304
-0.998949, 433, 225, 496, 352
-0.998957, 257, 281, 500, 344
-0.998984, 267, 113, 282, 240
-0.998986, 81, 121, 144, 184
-0.998986, 151, 145, 166, 272
-0.99899, 91, 177, 106, 304
-0.998991, 177, 161, 192, 288
-0.998999, 285, 129, 300, 256
-0.999006, 165, 145, 180, 272
-0.999011, 213, 161, 228, 288
-0.999011, 185, 241, 216, 368
-0.999014, 257, 1, 500, 64
-0.999014, 275, 209, 290, 336
-0.999016, 291, 177, 306, 304
-0.999038, 353, 141, 480, 172
-0.999039, 129, 73, 192, 136
-0.999041, 355, 177, 370, 304
-0.999068, 255, 113, 270, 240
-0.99907, 105, 129, 136, 375
-0.999072, 239, 209, 254, 336
-0.999072, 161, 89, 288, 120
-0.999078, 85, 177, 100, 304
-0.99908, 207, 161, 222, 288
-0.999094, 321, 193, 336, 320
-0.999094, 349, 177, 364, 304
-0.999101, 307, 193, 322, 320
-0.999102, 229, 161, 244, 288
-0.999112, 415, 129, 430, 256
-0.999115, 335, 177, 350, 304
-0.999115, 281, 33, 312, 288
-0.999116, 311, 145, 326, 272
-0.999116, 193, 177, 208, 304
-0.999134, 73, 129, 104, 256
-0.999144, 135, 193, 150, 320
-0.999146, 261, 209, 276, 336
-0.999147, 117, 161, 132, 288
-0.999148, 111, 193, 126, 320
-0.999149, 305, 77, 432, 108
-0.999153, 245, 113, 260, 240
-0.999154, 245, 209, 260, 336
-0.999157, 353, 129, 368, 256
-0.999161, 145, 177, 160, 304
-0.999183, 305, 49, 432, 80
-0.999184, 79, 193, 94, 320
-0.999188, 239, 113, 254, 240
-0.99919, 299, 113, 314, 240
-0.99919, 257, 61, 384, 92
-0.999194, 177, 301, 304, 332
-0.999197, 183, 177, 198, 304
-0.999211, 97, 285, 224, 316
-0.999212, 209, 269, 336, 300
-0.999215, 121, 209, 136, 336
-0.999227, 323, 113, 338, 240
-0.999234, 321, 65, 352, 192
-0.999241, 129, 225, 144, 352
-0.999242, 171, 161, 186, 288
-0.999252, 129, 129, 144, 256
-0.999255, 113, 73, 240, 136
-0.999256, 341, 209, 356, 336
-0.999261, 305, 241, 336, 368
-0.999263, 253, 225, 268, 352
-0.999265, 421, 193, 436, 320
-0.999272, 33, 105, 288, 168
-0.999276, 301, 209, 316, 336
-0.999279, 337, 33, 368, 288
-0.999281, 67, 225, 82, 352
-0.999282, 135, 97, 150, 224
-0.999285, 161, 33, 192, 288
-0.999286, 427, 161, 442, 288
-0.999288, 233, 209, 248, 336
-0.999288, 377, 1, 408, 256
-0.999289, 17, 265, 144, 296
-0.999291, 313, 193, 328, 320
-0.999298, 175, 113, 190, 240
-0.999306, 171, 209, 186, 336
-0.999307, 263, 65, 278, 192
-0.999311, 199, 209, 214, 336
-0.999314, 111, 145, 126, 272
-0.999316, 367, 177, 382, 304
-0.999319, 147, 225, 162, 352
-0.999324, 257, 5, 384, 36
-0.999329, 93, 225, 108, 352
-0.999338, 105, 161, 120, 288
-0.999338, 201, 113, 216, 240
-0.99934, 305, 5, 432, 36
-0.999352, 187, 129, 202, 256
-0.999354, 139, 241, 154, 368
-0.999354, 389, 97, 420, 352
-0.999355, 113, 33, 240, 160
-0.999356, 357, 129, 388, 375
-0.999356, 261, 113, 276, 240
-0.999361, 361, 193, 376, 320
-0.999363, 361, 1, 392, 256
-0.999364, 17, 209, 80, 272
-0.99937, 409, 129, 424, 256
-0.999376, 337, 113, 352, 240
-0.999378, 369, 325, 496, 356
-0.999379, 227, 209, 242, 336
-0.99938, 331, 225, 346, 352
-0.999383, 161, 57, 416, 120
-0.999385, 97, 161, 112, 288
-0.999386, 405, 1, 436, 256
-0.99939, 291, 129, 306, 256
-0.999401, 87, 225, 102, 352
-0.999408, 279, 113, 294, 240
-0.999422, 315, 97, 330, 224
-0.999422, 279, 33, 294, 160
-0.999424, 221, 113, 236, 240
-0.999427, 119, 113, 134, 240
-0.999435, 33, 145, 160, 176
-0.999445, 415, 177, 430, 304
-0.999446, 215, 209, 230, 336
-0.999453, 153, 97, 168, 224
-0.999456, 207, 209, 222, 336
-0.999459, 165, 241, 180, 368
-0.999461, 113, 109, 240, 140
-0.999463, 353, 45, 480, 76
-0.999463, 177, 209, 192, 336
-0.999477, 345, 113, 360, 240
-0.999477, 371, 129, 386, 256
-0.999477, 113, 317, 240, 348
-0.999478, 1, 305, 256, 368
-0.9995, 425, 129, 456, 375
-0.999502, 421, 97, 436, 224
-0.999508, 1, 285, 128, 316
-0.999508, 337, 281, 464, 312
-0.999513, 129, 33, 384, 96
-0.999518, 269, 65, 284, 192
-0.999521, 99, 225, 114, 352
-0.999523, 347, 225, 362, 352
-0.999524, 105, 225, 120, 352
-0.999525, 93, 129, 124, 375
-0.999527, 215, 113, 230, 240
-0.999527, 233, 113, 248, 240
-0.99953, 73, 161, 88, 288
-0.999533, 221, 209, 236, 336
-0.999535, 295, 225, 310, 352
-0.999544, 331, 113, 346, 240
-0.999555, 285, 17, 300, 144
-0.999559, 79, 145, 94, 272
-0.999561, 17, 173, 144, 204
-0.999561, 373, 177, 388, 304
-0.999565, 207, 113, 222, 240
-0.999569, 227, 113, 242, 240
-0.99957, 323, 241, 338, 368
-0.999577, 395, 113, 410, 240
-0.999578, 257, 49, 384, 80
-0.999589, 187, 81, 202, 208
-0.999605, 353, 81, 480, 112
-0.999617, 49, 105, 176, 136
-0.99963, 321, 1, 352, 256
-0.999658, 305, 293, 432, 324
-0.99967, 369, 301, 496, 332
-0.999679, 227, 137, 242, 152
-0.999679, 315, 189, 330, 204
-0.999679, 107, 221, 122, 236
-0.999679, 129, 227, 144, 242
-0.99968, 317, 141, 332, 156
-0.99968, 197, 193, 212, 208
-0.999682, 119, 213, 134, 228
-0.999683, 335, 125, 350, 140
-0.999683, 209, 221, 224, 236
-0.999684, 127, 201, 142, 216
-0.999684, 247, 205, 262, 220
-0.999684, 209, 199, 224, 214
-0.999685, 139, 177, 154, 192
-0.999685, 309, 191, 324, 206
-0.999686, 327, 131, 342, 146
-0.999687, 191, 199, 206, 214
-0.999687, 175, 173, 190, 188
-0.999689, 143, 307, 158, 322
-0.999689, 257, 183, 272, 198
-0.99969, 419, 161, 434, 176
-0.99969, 131, 313, 146, 328
-0.999692, 235, 199, 250, 214
-0.999693, 159, 171, 174, 186
-0.999693, 107, 185, 122, 200
-0.999693, 341, 199, 356, 214
-0.999694, 167, 249, 182, 264
-0.999695, 169, 177, 184, 192
-0.999695, 275, 179, 290, 194
-0.999695, 285, 219, 300, 234
-0.999696, 263, 205, 278, 220
-0.999698, 297, 199, 312, 214
-0.999699, 249, 243, 264, 258
-0.999699, 329, 249, 344, 264
-0.999699, 407, 143, 422, 158
-0.9997, 175, 181, 190, 196
-0.999701, 303, 193, 318, 208
-0.999701, 155, 193, 170, 208
-0.999701, 95, 315, 110, 330
-0.999704, 147, 185, 162, 200
-0.999704, 253, 231, 268, 246
-0.999704, 79, 223, 94, 238
-0.999704, 227, 223, 242, 238
-0.999705, 319, 219, 334, 234
-0.999706, 345, 219, 360, 234
-0.999707, 151, 293, 166, 308
-0.999709, 97, 219, 112, 234
-0.999709, 259, 227, 274, 242
-0.99971, 263, 233, 278, 248
-0.999711, 335, 253, 350, 268
-0.999713, 155, 213, 170, 228
-0.999713, 119, 227, 134, 242
-0.999713, 305, 21, 432, 52
-0.999713, 341, 255, 356, 270
-0.999714, 283, 225, 298, 240
-0.999715, 303, 231, 318, 246
-0.999715, 131, 193, 146, 208
-0.999716, 421, 167, 436, 182
-0.999717, 181, 187, 196, 202
-0.999717, 127, 215, 142, 230
-0.99972, 165, 255, 180, 270
-0.99972, 297, 225, 312, 240
-0.999722, 307, 153, 322, 168
-0.999722, 123, 183, 138, 198
-0.999723, 159, 225, 174, 240
-0.999724, 243, 229, 258, 244
-0.999724, 355, 217, 370, 232
-0.999726, 309, 225, 324, 240
-0.999727, 243, 221, 258, 236
-0.999728, 265, 199, 280, 214
-0.999729, 257, 221, 272, 236
-0.999729, 217, 227, 232, 242
-0.99973, 113, 187, 128, 202
-0.99973, 185, 193, 200, 208
-0.999731, 311, 145, 326, 160
-0.999731, 421, 33, 452, 288
-0.999733, 225, 217, 240, 232
-0.999733, 325, 219, 340, 234
-0.999734, 203, 205, 218, 220
-0.999736, 149, 205, 164, 220
-0.999736, 263, 187, 278, 202
-0.999736, 185, 179, 200, 194
-0.999741, 243, 235, 258, 250
-0.999741, 245, 199, 260, 214
-0.999741, 211, 215, 226, 230
-0.999742, 199, 199, 214, 214
-0.999743, 115, 219, 130, 234
-0.999745, 145, 221, 160, 236
-0.999745, 275, 199, 290, 214
-0.999745, 251, 225, 266, 240
-0.999745, 227, 231, 242, 246
-0.999746, 271, 219, 286, 234
-0.999747, 121, 221, 136, 236
-0.999748, 295, 209, 310, 224
-0.999748, 291, 219, 306, 234
-0.99975, 369, 313, 496, 344
-0.99975, 145, 193, 160, 208
-0.99975, 83, 211, 98, 226
-0.999752, 235, 233, 250, 248
-0.999752, 233, 225, 248, 240
-0.999756, 257, 189, 272, 204
-0.999757, 333, 219, 348, 234
-0.999757, 247, 213, 262, 228
-0.999758, 275, 227, 290, 242
-0.999758, 299, 219, 314, 234
-0.999759, 313, 219, 328, 234
-0.999759, 135, 221, 150, 236
-0.999759, 253, 237, 268, 252
-0.999759, 255, 243, 270, 258
-0.999762, 265, 227, 280, 242
-0.999762, 137, 197, 152, 212
-0.999763, 217, 219, 232, 234
-0.999765, 201, 217, 216, 232
-0.999766, 303, 225, 318, 240
-0.999766, 255, 195, 270, 210
-0.999769, 91, 219, 106, 234
-0.999771, 393, 33, 456, 96
-0.999773, 191, 193, 206, 208
-0.99978, 273, 237, 288, 252
-0.999782, 265, 193, 280, 208
-0.999785, 191, 187, 206, 202
-0.999791, 139, 191, 154, 206
-0.999795, 257, 215, 272, 230
-0.999795, 145, 199, 160, 214
-0.999799, 361, 217, 376, 232
-0.999804, 279, 219, 294, 234
-0.999804, 113, 97, 240, 128
-0.999806, 305, 219, 320, 234
-0.999806, 155, 219, 170, 234
-0.999809, 249, 219, 264, 234
-0.999815, 129, 185, 144, 200
-0.999815, 265, 241, 280, 256
-0.999822, 201, 211, 216, 226
-0.999827, 81, 217, 96, 232
-0.999827, 225, 25, 352, 88
-0.999829, 129, 221, 144, 236
-0.999833, 253, 207, 268, 222
-0.999873, 349, 1, 380, 256
-0.999878, 369, 269, 496, 300
-0.99988, 17, 129, 144, 160
-0.999881, 257, 273, 320, 336
-0.999886, 205, 33, 236, 288
-0.999904, 209, 149, 336, 180
-0.999948, 273, 305, 400, 336
-0.999958, 209, 53, 336, 84
-0.999958, 65, 329, 192, 360
-0.999998, 65, 57, 320, 120
-1.00001, 273, 1, 336, 64
-1.00002, 377, 97, 408, 352
-1.00008, 297, 297, 360, 360
-1.0001, 177, 1, 208, 256
-1.0001, 257, 21, 384, 52
-1.00011, 273, 281, 400, 312
-1.00012, 53, 129, 84, 375
-1.00012, 305, 37, 432, 68
-1.00013, 425, 129, 488, 375
-1.00015, 129, 9, 384, 72
-1.00016, 113, 45, 240, 76
-1.00016, 233, 1, 264, 256
-1.00017, 289, 101, 416, 132
-1.0002, 353, 281, 416, 344
-1.0002, 337, 101, 464, 132
-1.00024, 17, 93, 144, 124
-1.00025, 109, 1, 140, 256
-1.00025, 433, 265, 496, 328
-1.00025, 369, 337, 496, 368
-1.00027, 393, 1, 424, 256
-1.00028, 369, 65, 496, 192
-1.00031, 417, 33, 480, 288
-1.00033, 273, 241, 304, 368
-1.00034, 433, 1, 496, 375
-1.00034, 257, 305, 500, 368
-1.00036, 129, 313, 256, 375
-1.00036, 245, 1, 276, 256
-1.00037, 281, 273, 344, 336
-1.00042, 49, 1, 112, 375
-1.00048, 393, 281, 456, 344
-1.00048, 217, 1, 248, 256
-1.00048, 93, 33, 124, 288
-1.00062, 329, 281, 392, 344
-1.00066, 337, 1, 368, 128
-1.00069, 285, 241, 316, 368
-1.00072, 1, 81, 256, 144
-1.00072, 73, 33, 104, 288
-1.00074, 193, 1, 224, 256
-1.00075, 17, 241, 80, 368
-1.00075, 17, 65, 144, 128
-1.0008, 121, 1, 152, 256
-1.00081, 1, 57, 500, 120
-1.00082, 1, 89, 500, 152
-1.00082, 301, 49, 332, 176
-1.00085, 17, 121, 144, 184
-1.00087, 309, 1, 340, 256
-1.00087, 437, 129, 468, 375
-1.00088, 433, 33, 464, 288
-1.00096, 385, 89, 448, 152
-1.00101, 377, 17, 408, 144
-1.00108, 457, 129, 488, 375
-1.00111, 41, 129, 72, 375
-1.00112, 273, 297, 336, 360
-1.00116, 225, 1, 352, 128
-1.00121, 469, 129, 500, 375
-1.00136, 29, 129, 60, 375
-1.0014, 113, 41, 240, 104
-1.00144, 53, 33, 84, 288
-1.00145, 17, 129, 48, 375
-1.00147, 41, 129, 104, 375
-1.00148, 445, 33, 476, 288
-1.00152, 5, 129, 36, 375
-1.00154, 161, 49, 288, 112
-1.00155, 257, 17, 288, 144
-1.00157, 469, 33, 500, 288
-1.0016, 457, 33, 488, 288
-1.00162, 17, 1, 80, 375
-1.00162, 385, 177, 416, 304
-1.00164, 177, 313, 304, 375
-1.00165, 361, 1, 392, 128
-1.00171, 29, 33, 60, 288
-1.00172, 9, 33, 40, 288
-1.00173, 65, 65, 192, 128
-1.00174, 65, 41, 192, 104
-1.00178, 233, 65, 264, 192
-1.00184, 49, 241, 80, 368
-1.00185, 177, 65, 208, 192
-1.00186, 129, 17, 256, 80
-1.00187, 1, 25, 256, 88
-1.00189, 41, 1, 72, 256
-1.00193, 161, 17, 288, 144
-1.00207, 209, 73, 336, 136
-1.00209, 1, 1, 256, 64
-1.00212, 413, 241, 444, 368
-1.00216, 101, 65, 132, 192
-1.00221, 17, 33, 144, 96
-1.00231, 465, 241, 496, 368
-1.00233, 1, 313, 500, 375
-1.0024, 177, 17, 304, 80
-1.00242, 33, 9, 160, 72
-1.00242, 1, 33, 500, 96
-1.00244, 61, 129, 92, 256
-1.00264, 441, 225, 472, 352
-1.00266, 73, 1, 136, 256
-1.00277, 81, 1, 208, 64
-1.0028, 309, 1, 340, 128
-1.00282, 453, 225, 484, 352
-1.00285, 361, 17, 424, 144
-1.00288, 409, 65, 472, 192
-1.00294, 345, 241, 376, 368
-1.00296, 33, 113, 96, 240
-1.0033, 205, 65, 236, 192
-1.00345, 1, 9, 500, 72
-1.00351, 17, 33, 80, 160
-1.00376, 429, 241, 460, 368
-1.00406, 161, 65, 224, 192
-1.00429, 17, 97, 80, 352
-1.00461, 233, 17, 264, 144
-1.00477, 89, 65, 120, 192
-1.00479, 17, 33, 144, 160
-1.00487, 49, 145, 80, 272
-1.00496, 429, 81, 460, 208
-1.0052, 221, 17, 252, 144
-1.00538, 133, 49, 164, 176
-1.00556, 389, 33, 420, 160
-1.00593, 113, 33, 144, 160
-1.00599, 145, 49, 176, 176
-1.0061, 405, 49, 436, 176
-1.00624, 41, 33, 104, 288
-1.00656, 37, 209, 68, 336
-1.00673, 81, 65, 144, 192
-1.00759, 9, 193, 72, 320
-1.00769, 57, 33, 120, 160
-1.00796, 385, 1, 448, 128
-1.00851, 65, 33, 192, 160
-1.00866, 113, 33, 176, 160
-1.00871, 201, 17, 264, 144
-1.00974, 17, 1, 80, 256
-1.00986, 433, 113, 496, 240
-1.01085, 137, 33, 200, 160
-1.01219, 57, 81, 120, 208
-1.01221, 89, 1, 152, 128
-1.01257, 433, 49, 496, 176
-1.0127, 1, 145, 64, 272
-1.01305, 169, 1, 232, 128
-1.01331, 425, 1, 488, 128
-1.01439, 9, 97, 72, 224
