1986
-0.415353, 1, 1, 375, 500
-0.427503, 1, 225, 375, 480
-0.517985, 1, 129, 375, 384
-0.53569, 97, 1, 352, 500
-0.536607, 1, 1, 375, 256
-0.600891, 97, 257, 352, 500
-0.616537, 1, 1, 256, 500
-0.713415, 33, 161, 288, 416
-0.78091, 65, 1, 320, 256
-0.790117, 129, 97, 375, 352
-0.862749, 177, 161, 304, 416
-0.868807, 177, 1, 304, 500
-0.870327, 193, 257, 320, 500
-0.883186, 129, 97, 256, 352
-0.891598, 177, 33, 304, 288
-0.901386, 113, 1, 240, 500
-0.90297, 1, 289, 375, 416
-0.903212, 113, 193, 240, 448
-0.913242, 1, 129, 375, 256
-0.913817, 1, 337, 375, 464
-0.917183, 33, 1, 160, 500
-0.921188, 81, 97, 208, 352
-0.922679, 225, 129, 352, 384
-0.922683, 129, 1, 256, 256
-0.923354, 1, 177, 375, 304
-0.923952, 1, 49, 375, 176
-0.926254, 1, 241, 375, 368
-0.927489, 225, 1, 352, 500
-0.928444, 1, 1, 375, 128
-0.931279, 1, 161, 256, 288
-0.934344, 97, 289, 352, 416
-0.935719, 177, 145, 304, 272
-0.938713, 33, 1, 160, 256
-0.940751, 241, 257, 368, 500
-0.94343, 129, 337, 375, 464
-0.945074, 225, 33, 352, 288
-0.945163, 129, 145, 256, 272
-0.945214, 97, 241, 352, 368
-0.94602, 129, 113, 375, 240
-0.946384, 33, 97, 160, 352
-0.946985, 185, 129, 248, 256
-0.948383, 97, 49, 352, 176
-0.949502, 89, 321, 152, 448
-0.949794, 217, 209, 280, 336
-0.950548, 81, 1, 208, 256
-0.951335, 193, 273, 320, 400
-0.951412, 129, 97, 256, 224
-0.951675, 161, 193, 288, 320
-0.953253, 225, 161, 288, 288
-0.953939, 1, 113, 256, 240
-0.954016, 97, 193, 352, 320
-0.957115, 177, 97, 304, 224
-0.957769, 33, 257, 160, 500
-0.957856, 209, 321, 336, 448
-0.958315, 97, 1, 352, 128
-0.958329, 241, 225, 304, 352
-0.960461, 281, 337, 344, 464
-0.960793, 185, 177, 248, 304
-0.960859, 161, 33, 288, 160
-0.961067, 233, 433, 296, 496
-0.962125, 249, 273, 312, 400
-0.962743, 257, 369, 320, 496
-0.963284, 49, 321, 176, 448
-0.963307, 201, 81, 264, 208
-0.964056, 1, 49, 256, 176
-0.96454, 89, 321, 152, 384
-0.965066, 161, 129, 224, 256
-0.965494, 225, 369, 352, 496
-0.965922, 233, 185, 296, 248
-0.966212, 209, 153, 272, 216
-0.966314, 281, 377, 344, 440
-0.966446, 33, 369, 288, 496
-0.966862, 113, 321, 176, 448
-0.96749, 225, 65, 288, 192
-0.967856, 273, 289, 336, 416
-0.968086, 81, 129, 208, 256
-0.968248, 49, 369, 176, 496
-0.968525, 217, 225, 280, 288
-0.968719, 113, 33, 240, 160
-0.969349, 145, 81, 208, 208
-0.969403, 161, 177, 224, 304
-0.970089, 185, 185, 248, 248
-0.970377, 89, 345, 152, 408
-0.970467, 209, 209, 336, 336
-0.970821, 113, 337, 240, 464
-0.971056, 185, 145, 248, 208
-0.971081, 185, 121, 248, 184
-0.971586, 225, 113, 288, 240
-0.971821, 225, 161, 288, 416
-0.972034, 193, 97, 256, 352
-0.972609, 249, 401, 312, 464
-0.973209, 161, 161, 224, 224
-0.973363, 257, 425, 320, 488
-0.974214, 117, 305, 148, 432
-0.974295, 225, 17, 288, 144
-0.974556, 33, 113, 160, 240
-0.9749, 81, 81, 208, 208
-0.974915, 249, 281, 312, 344
-0.975021, 289, 401, 352, 464
-0.975343, 241, 433, 272, 496
-0.975741, 249, 177, 312, 304
-0.975832, 137, 161, 200, 288
-0.975923, 225, 121, 288, 184
-0.975958, 169, 33, 232, 160
-0.976135, 177, 81, 240, 208
-0.976143, 233, 257, 296, 320
-0.976204, 241, 257, 304, 500
-0.976311, 117, 321, 148, 384
-0.976382, 177, 161, 304, 224
-0.9769, 89, 369, 152, 432
-0.977132, 281, 329, 344, 392
-0.977236, 209, 201, 272, 264
-0.977336, 241, 209, 304, 272
-0.977466, 1, 209, 256, 336
-0.977564, 145, 137, 208, 200
-0.977737, 281, 353, 344, 416
-0.978083, 97, 97, 160, 224
-0.978225, 193, 225, 256, 352
-0.978285, 257, 305, 320, 368
-0.97834, 225, 65, 288, 128
-0.978349, 237, 161, 268, 288
-0.978497, 253, 433, 284, 496
-0.97866, 113, 321, 176, 384
-0.978716, 129, 145, 256, 208
-0.978731, 145, 241, 272, 368
-0.978892, 145, 185, 208, 248
-0.978905, 113, 369, 176, 432
-0.978959, 225, 161, 352, 288
-0.979109, 89, 369, 152, 496
-0.979156, 233, 369, 296, 496
-0.979233, 193, 113, 224, 240
-0.979388, 113, 193, 240, 320
-0.979501, 121, 97, 184, 224
-0.979515, 113, 369, 176, 496
-0.979564, 213, 65, 244, 192
-0.979603, 261, 193, 292, 320
-0.97979, 225, 425, 352, 488
-0.979853, 161, 185, 288, 248
-0.979922, 249, 177, 280, 304
-0.979965, 209, 49, 336, 176
-0.980066, 169, 97, 232, 352
-0.980087, 113, 289, 240, 416
-0.980142, 1, 1, 256, 128
-0.980199, 213, 113, 244, 240
-0.980324, 225, 113, 352, 240
-0.980331, 225, 89, 288, 152
-0.980387, 265, 257, 328, 500
-0.980463, 201, 193, 264, 448
-0.980545, 225, 33, 288, 288
-0.980613, 193, 73, 256, 136
-0.980842, 145, 209, 272, 272
-0.980898, 225, 145, 256, 272
-0.980982, 213, 121, 244, 184
-0.98109, 177, 273, 304, 336
-0.9811, 177, 137, 304, 200
-0.981207, 229, 433, 260, 496
-0.981216, 193, 33, 256, 160
-0.981225, 161, 233, 288, 296
-0.981452, 177, 369, 304, 496
-0.981698, 169, 225, 232, 288
-0.981764, 249, 129, 312, 256
-0.981806, 137, 161, 200, 224
-0.981856, 241, 273, 368, 400
-0.981945, 161, 97, 224, 160
-0.981973, 193, 97, 256, 160
-0.982105, 305, 337, 368, 464
-0.982268, 49, 361, 176, 424
-0.982409, 193, 297, 320, 360
-0.982517, 209, 177, 272, 240
-0.982668, 209, 433, 272, 496
-0.982712, 177, 113, 304, 176
-0.982777, 121, 49, 184, 112
-0.982839, 65, 337, 128, 464
-0.982843, 97, 401, 160, 464
-0.98308, 209, 273, 272, 400
-0.983285, 277, 289, 308, 416
-0.983286, 113, 185, 240, 248
-0.983328, 113, 121, 240, 184
-0.983334, 209, 321, 336, 384
-0.983436, 113, 345, 176, 408
-0.983509, 241, 233, 304, 296
-0.983562, 225, 369, 352, 432
-0.983587, 257, 361, 320, 424
-0.983605, 225, 33, 288, 96
-0.983751, 241, 145, 304, 208
-0.983956, 249, 225, 280, 352
-0.983993, 177, 145, 208, 272
-0.98407, 289, 353, 320, 480
-0.984168, 177, 89, 304, 152
-0.98417, 117, 361, 148, 424
-0.984176, 301, 321, 332, 448
-0.984228, 261, 209, 292, 272
-0.984235, 217, 145, 248, 208
-0.984247, 265, 433, 296, 496
-0.984266, 229, 209, 260, 336
-0.984302, 249, 161, 312, 416
-0.984452, 137, 113, 200, 176
-0.984605, 209, 1, 336, 128
-0.984701, 97, 129, 160, 192
-0.985051, 169, 241, 232, 368
-0.985215, 209, 177, 240, 304
-0.985246, 253, 241, 284, 304
-0.985408, 305, 361, 368, 424
-0.985424, 261, 241, 292, 368
-0.985446, 225, 345, 352, 408
-0.985473, 97, 97, 224, 160
-0.9856, 281, 425, 344, 488
-0.985643, 121, 89, 184, 152
-0.985846, 225, 1, 288, 500
-0.985955, 233, 169, 264, 232
-0.98608, 1, 161, 128, 288
-0.986136, 113, 145, 176, 272
-0.986231, 193, 1, 256, 500
-0.986243, 81, 161, 208, 224
-0.986307, 177, 65, 304, 128
-0.986343, 289, 305, 320, 432
-0.986359, 249, 201, 280, 264
-0.986428, 261, 353, 292, 480
-0.98646, 209, 369, 272, 496
-0.986493, 165, 153, 196, 216
-0.986541, 277, 433, 308, 496
-0.98657, 201, 113, 232, 176
-0.986705, 121, 33, 184, 160
-0.986708, 277, 353, 308, 480
-0.986716, 225, 393, 352, 456
-0.986726, 217, 73, 248, 136
-0.986815, 33, 65, 160, 192
-0.987086, 265, 233, 328, 296
-0.987093, 177, 249, 240, 312
-0.987104, 145, 97, 208, 352
-0.98712, 1, 321, 256, 448
-0.987329, 49, 385, 176, 448
-0.987399, 177, 193, 240, 448
-0.987414, 97, 49, 160, 112
-0.987441, 305, 385, 336, 448
-0.987448, 193, 209, 320, 272
-0.987481, 121, 401, 152, 464
-0.987505, 89, 273, 152, 400
-0.987623, 101, 321, 132, 448
-0.987668, 193, 153, 224, 216
-0.987797, 225, 409, 288, 472
-0.987872, 65, 377, 128, 440
-0.987875, 121, 137, 184, 200
-0.987927, 241, 321, 304, 448
-0.987943, 161, 41, 288, 104
-0.987989, 189, 121, 220, 184
-0.988039, 113, 49, 240, 112
-0.988174, 265, 401, 296, 464
-0.988185, 181, 193, 212, 320
-0.988204, 261, 265, 292, 328
-0.988302, 181, 145, 212, 208
-0.988314, 273, 193, 336, 320
-0.988362, 285, 361, 316, 424
-0.988452, 97, 241, 224, 368
-0.988458, 105, 313, 136, 376
-0.988508, 229, 209, 260, 272
-0.988512, 49, 337, 176, 400
-0.988522, 293, 393, 324, 456
-0.988696, 245, 409, 276, 472
-0.988758, 177, 433, 304, 496
-0.988871, 113, 353, 144, 480
-0.988907, 169, 49, 232, 112
-0.988961, 193, 209, 224, 336
-0.98897, 65, 425, 128, 488
-0.988984, 261, 145, 292, 272
-0.989082, 169, 185, 200, 248
-0.989102, 161, 113, 192, 240
-0.989179, 65, 1, 192, 128
-0.98927, 33, 145, 160, 208
-0.989301, 277, 393, 308, 456
-0.989331, 225, 1, 288, 64
-0.989335, 1, 161, 64, 224
-0.989352, 129, 361, 256, 424
-0.989355, 305, 345, 336, 408
-0.989397, 161, 9, 288, 72
-0.989424, 193, 273, 256, 336
-0.989457, 1, 193, 64, 320
-0.98951, 161, 1, 224, 500
-0.989531, 197, 161, 228, 288
-0.989555, 165, 177, 196, 304
-0.989556, 241, 225, 272, 288
-0.989625, 97, 105, 160, 168
-0.989668, 301, 369, 332, 496
-0.989683, 213, 193, 244, 256
-0.989717, 265, 233, 296, 296
-0.989859, 313, 337, 344, 464
-0.989873, 129, 393, 192, 456
-0.989956, 313, 393, 375, 456
-0.989968, 257, 169, 320, 232
-0.989996, 1, 145, 64, 272
-0.990007, 197, 65, 228, 192
-0.990061, 273, 241, 304, 368
-0.99007, 277, 289, 308, 352
-0.990074, 229, 97, 260, 224
-0.990077, 113, 161, 176, 224
-0.99019, 297, 321, 328, 384
-0.990219, 65, 49, 192, 112
-0.990249, 233, 361, 296, 424
-0.990346, 241, 257, 368, 320
-0.990351, 209, 469, 272, 500
-0.990379, 225, 453, 288, 484
-0.99043, 241, 225, 368, 288
-0.99043, 129, 337, 256, 400
-0.990452, 181, 97, 212, 224
-0.990494, 129, 73, 256, 136
-0.990507, 261, 185, 292, 248
-0.990523, 249, 441, 312, 472
-0.990587, 225, 137, 352, 200
-0.990632, 149, 97, 180, 224
-0.990651, 89, 329, 152, 360
-0.99066, 213, 97, 244, 160
-0.990685, 281, 393, 344, 424
-0.99071, 113, 305, 240, 368
-0.990724, 89, 353, 152, 384
-0.990726, 1, 209, 64, 272
-0.990799, 185, 197, 248, 228
-0.99087, 89, 257, 152, 500
-0.990908, 133, 337, 164, 464
-0.99092, 145, 1, 208, 256
-0.990923, 185, 149, 248, 180
-0.990932, 113, 273, 176, 400
-0.990939, 281, 305, 344, 368
-0.990942, 89, 341, 152, 372
-0.99096, 233, 221, 296, 252
-0.990978, 1, 337, 128, 464
-0.990982, 65, 121, 192, 184
-0.991023, 193, 1, 256, 256
-0.991071, 129, 225, 192, 480
-0.991103, 193, 225, 256, 288
-0.991192, 233, 209, 296, 240
-0.991236, 201, 161, 264, 192
-0.991251, 241, 429, 304, 460
-0.991266, 97, 385, 224, 448
-0.99132, 201, 229, 264, 260
-0.991327, 193, 217, 256, 248
-0.991329, 281, 381, 344, 412
-0.991381, 225, 441, 288, 472
-0.99139, 209, 177, 272, 208
-0.991398, 89, 397, 152, 428
-0.991401, 89, 365, 152, 396
-0.991403, 257, 257, 320, 320
-0.991436, 233, 469, 296, 500
-0.991489, 193, 49, 256, 112
-0.991489, 177, 401, 304, 464
-0.991492, 305, 337, 368, 400
-0.991526, 225, 185, 352, 248
-0.991551, 161, 169, 224, 200
-0.99156, 161, 73, 224, 136
-0.991566, 281, 429, 344, 460
-0.991598, 89, 385, 152, 416
-0.991627, 113, 393, 176, 424
-0.991628, 189, 225, 220, 288
-0.991638, 137, 157, 200, 188
-0.99164, 225, 145, 288, 176
-0.991653, 205, 145, 236, 208
-0.991655, 281, 405, 344, 436
-0.99166, 121, 81, 152, 208
-0.991666, 185, 185, 248, 216
-0.991728, 121, 1, 184, 500
-0.991773, 241, 233, 304, 264
-0.991806, 225, 189, 288, 220
-0.99182, 185, 121, 248, 152
-0.99182, 249, 337, 312, 400
-0.991858, 225, 69, 288, 100
-0.991889, 185, 133, 248, 164
-0.991898, 225, 133, 288, 164
-0.991906, 161, 181, 224, 212
-0.991918, 265, 417, 328, 448
-0.991919, 209, 241, 272, 272
-0.991929, 281, 357, 344, 388
-0.991936, 113, 381, 176, 412
-0.991938, 41, 417, 104, 480
-0.99194, 257, 309, 320, 340
-0.991951, 185, 305, 248, 432
-0.991963, 153, 257, 216, 320
-0.991964, 209, 41, 336, 104
-0.991968, 225, 121, 288, 152
-0.991969, 113, 329, 176, 360
-0.991976, 265, 369, 328, 400
-0.992021, 169, 101, 232, 132
-0.992035, 113, 405, 176, 436
-0.992039, 249, 297, 312, 328
-0.992041, 137, 141, 200, 172
-0.992043, 113, 361, 176, 392
-0.99212, 185, 469, 248, 500
-0.992124, 209, 257, 240, 384
-0.992136, 181, 193, 212, 256
-0.992155, 161, 153, 224, 184
-0.992158, 273, 341, 336, 372
-0.99217, 145, 193, 208, 224
-0.992171, 293, 417, 324, 480
-0.992177, 233, 157, 296, 188
-0.992184, 197, 185, 228, 248
-0.99222, 113, 345, 176, 376
-0.992225, 249, 453, 312, 484
-0.992227, 201, 89, 264, 120
-0.992229, 225, 265, 288, 296
-0.992229, 241, 105, 368, 168
-0.992233, 185, 53, 248, 84
-0.992244, 233, 277, 296, 308
-0.992274, 265, 209, 328, 272
-0.992301, 161, 141, 224, 172
-0.992311, 113, 241, 240, 304
-0.992328, 169, 1, 232, 256
-0.992329, 225, 105, 288, 136
-0.992341, 89, 1, 152, 500
-0.992348, 241, 281, 368, 344
-0.992354, 265, 325, 328, 356
-0.992373, 217, 281, 280, 344
-0.992385, 217, 461, 248, 492
-0.992387, 241, 17, 368, 80
-0.992395, 137, 173, 200, 204
-0.992402, 225, 81, 288, 112
-0.992417, 249, 65, 312, 320
-0.992429, 73, 65, 136, 192
-0.992435, 241, 393, 304, 424
-0.992456, 193, 101, 256, 132
-0.992466, 161, 321, 288, 448
-0.992477, 225, 57, 288, 88
-0.992495, 137, 361, 168, 424
-0.992504, 217, 253, 280, 284
-0.992524, 225, 93, 288, 124
-0.992537, 129, 25, 192, 88
-0.992566, 201, 457, 264, 488
-0.992575, 249, 1, 312, 500
-0.99258, 169, 253, 232, 284
-0.992609, 137, 49, 200, 80
-0.992611, 153, 205, 216, 236
-0.99262, 289, 417, 352, 448
-0.992622, 241, 169, 304, 200
-0.992623, 89, 413, 152, 444
-0.99263, 161, 221, 224, 252
-0.992656, 197, 89, 228, 152
-0.992683, 117, 325, 148, 356
-0.992693, 249, 129, 280, 256
-0.992713, 193, 73, 256, 104
-0.992717, 161, 125, 224, 156
-0.992717, 289, 369, 352, 400
-0.992719, 105, 125, 168, 156
-0.99272, 233, 457, 264, 488
-0.992745, 249, 189, 312, 220
-0.992755, 185, 97, 216, 160
-0.99276, 137, 117, 200, 148
-0.992767, 161, 113, 224, 144
-0.992767, 305, 385, 368, 416
-0.992774, 101, 337, 132, 400
-0.99278, 205, 469, 236, 500
-0.992796, 177, 265, 240, 296
-0.992801, 249, 245, 312, 276
-0.992803, 245, 453, 276, 484
-0.992824, 129, 129, 192, 160
-0.992825, 313, 409, 375, 440
-0.992836, 201, 437, 264, 468
-0.992841, 213, 149, 244, 180
-0.992846, 121, 89, 184, 120
-0.992861, 73, 113, 136, 240
-0.992865, 161, 57, 224, 88
-0.992866, 117, 389, 148, 420
-0.992874, 237, 469, 268, 500
-0.992877, 161, 233, 224, 264
-0.992892, 225, 45, 288, 76
-0.992892, 273, 369, 304, 432
-0.9929, 257, 205, 320, 236
-0.992905, 89, 317, 152, 348
-0.992911, 141, 161, 172, 288
-0.992911, 81, 73, 208, 136
-0.99292, 289, 273, 352, 336
-0.992927, 257, 445, 288, 476
-0.992939, 117, 353, 148, 384
-0.992943, 245, 177, 276, 240
-0.992959, 257, 381, 320, 412
-0.992969, 113, 113, 176, 144
-0.992974, 117, 341, 148, 372
-0.992977, 129, 385, 375, 448
-0.99298, 169, 305, 232, 368
-0.992982, 185, 425, 248, 488
-0.992986, 209, 205, 272, 236
-0.992996, 241, 65, 368, 128
-0.993002, 225, 1, 288, 32
-0.993009, 229, 65, 260, 128
-0.99301, 1, 257, 256, 384
-0.993021, 97, 137, 160, 168
-0.993023, 1, 185, 256, 248
-0.993031, 233, 49, 264, 176
-0.993033, 285, 313, 316, 376
-0.993034, 257, 469, 320, 500
-0.993035, 129, 65, 160, 128
-0.99304, 257, 357, 320, 388
-0.993043, 233, 113, 264, 176
-0.993051, 161, 81, 224, 112
-0.993053, 261, 237, 292, 268
-0.993056, 261, 209, 292, 240
-0.993059, 113, 165, 176, 196
-0.993062, 169, 193, 200, 224
-0.993069, 117, 365, 148, 396
-0.993075, 257, 221, 320, 252
-0.993081, 241, 433, 272, 464
-0.99309, 97, 209, 224, 272
-0.993098, 249, 221, 280, 252
-0.993104, 89, 53, 152, 84
-0.993107, 213, 117, 244, 148
-0.993115, 265, 433, 296, 464
-0.993133, 249, 469, 280, 500
-0.993139, 305, 401, 336, 432
-0.993145, 117, 377, 148, 408
-0.993152, 313, 369, 375, 400
-0.99316, 65, 429, 128, 460
-0.99316, 213, 133, 244, 164
-0.993164, 285, 433, 316, 464
-0.993174, 65, 461, 128, 492
-0.993183, 105, 321, 136, 352
-0.993185, 101, 337, 132, 368
-0.993189, 129, 317, 192, 348
-0.9932, 121, 101, 184, 132
-0.993202, 221, 69, 252, 100
-0.993203, 181, 169, 212, 232
-0.993206, 305, 397, 368, 428
-0.993208, 229, 445, 260, 476
-0.993212, 285, 369, 316, 400
-0.993218, 249, 233, 280, 264
-0.99322, 125, 405, 156, 436
-0.993233, 293, 409, 324, 440
-0.993234, 105, 153, 168, 184
-0.993239, 169, 165, 200, 196
-0.993247, 153, 193, 216, 448
-0.993257, 201, 133, 232, 164
-0.993258, 41, 449, 104, 480
-0.99326, 145, 33, 208, 160
-0.99326, 233, 25, 296, 56
-0.993266, 181, 145, 212, 176
-0.993267, 129, 425, 256, 488
-0.993273, 257, 269, 288, 300
-0.993275, 225, 161, 256, 192
-0.993283, 233, 233, 264, 264
-0.993287, 305, 421, 336, 452
-0.993297, 1, 181, 64, 212
-0.993297, 249, 265, 312, 296
-0.993297, 257, 277, 320, 308
-0.993298, 129, 297, 192, 360
-0.993299, 313, 389, 344, 420
-0.993301, 209, 57, 240, 88
-0.99331, 225, 221, 256, 252
-0.993314, 245, 249, 276, 280
-0.993316, 257, 405, 320, 436
-0.993321, 185, 173, 248, 204
-0.993324, 177, 205, 208, 236
-0.993325, 261, 197, 292, 228
-0.993326, 233, 13, 296, 44
-0.993327, 269, 445, 300, 476
-0.993327, 129, 361, 375, 424
-0.993328, 265, 221, 296, 252
-0.993329, 1, 201, 128, 264
-0.993335, 193, 189, 224, 220
-0.993335, 277, 385, 308, 416
-0.993336, 269, 249, 300, 280
-0.993337, 261, 469, 292, 500
-0.993339, 221, 81, 252, 112
-0.993341, 297, 385, 328, 416
-0.993356, 273, 441, 336, 472
-0.993358, 289, 305, 352, 336
-0.993359, 289, 329, 352, 360
-0.993361, 69, 461, 100, 492
-0.993361, 109, 401, 140, 432
-0.993369, 193, 121, 224, 152
-0.993372, 193, 157, 224, 188
-0.993382, 249, 165, 280, 196
-0.993383, 145, 257, 208, 288
-0.993383, 165, 153, 196, 184
-0.993383, 285, 397, 316, 428
-0.993384, 281, 293, 344, 324
-0.993388, 137, 377, 168, 408
-0.993391, 81, 65, 144, 96
-0.993391, 65, 445, 128, 476
-0.993394, 217, 205, 248, 236
-0.993394, 281, 309, 312, 340
-0.993399, 257, 249, 288, 280
-0.993406, 197, 97, 228, 128
-0.993411, 273, 373, 304, 404
-0.993415, 161, 181, 192, 212
-0.993416, 193, 145, 224, 176
-0.993417, 213, 105, 244, 136
-0.993421, 233, 141, 264, 172
-0.993428, 305, 353, 336, 384
-0.993431, 189, 49, 220, 80
-0.993434, 181, 133, 212, 164
-0.993436, 293, 329, 324, 360
-0.993436, 253, 433, 284, 464
-0.993443, 301, 373, 332, 404
-0.993444, 181, 181, 212, 212
-0.993446, 241, 209, 272, 240
-0.993446, 277, 297, 308, 328
-0.993448, 277, 421, 308, 452
-0.993451, 217, 93, 248, 124
-0.993453, 233, 173, 264, 204
-0.993454, 265, 285, 296, 316
-0.993454, 137, 397, 168, 428
-0.993467, 165, 141, 196, 172
-0.993468, 261, 185, 292, 216
-0.993475, 213, 17, 244, 144
-0.993477, 113, 413, 144, 444
-0.993478, 133, 333, 164, 364
-0.99348, 137, 349, 168, 380
-0.993482, 1, 225, 32, 256
-0.993484, 209, 77, 240, 108
-0.993485, 209, 193, 240, 224
-0.993492, 193, 169, 224, 200
-0.993493, 253, 145, 284, 208
-0.993495, 73, 449, 104, 480
-0.993497, 261, 457, 292, 488
-0.993499, 149, 149, 180, 180
-0.993499, 181, 193, 212, 224
-0.9935, 181, 157, 212, 188
-0.993513, 127, 321, 142, 384
-0.993517, 189, 253, 220, 284
-0.993519, 241, 153, 272, 184
-0.993519, 317, 413, 348, 444
-0.993525, 101, 349, 132, 380
-0.993526, 165, 57, 196, 88
-0.993538, 137, 365, 168, 396
-0.993538, 177, 49, 208, 80
-0.993539, 169, 257, 200, 288
-0.993541, 101, 361, 132, 392
-0.993548, 301, 341, 332, 372
-0.99355, 293, 317, 324, 348
-0.993551, 241, 197, 272, 228
-0.993557, 313, 377, 344, 408
-0.993563, 257, 385, 288, 416
-0.993564, 289, 421, 320, 452
-0.993569, 145, 173, 176, 204
-0.99357, 125, 53, 156, 84
-0.993579, 213, 161, 244, 192
-0.993582, 181, 169, 212, 200
-0.993584, 281, 409, 312, 440
-0.993588, 225, 129, 256, 160
-0.993597, 145, 129, 176, 160
-0.993598, 73, 389, 104, 420
-0.993605, 89, 349, 120, 380
-0.993613, 133, 85, 164, 116
-0.993613, 73, 401, 136, 464
-0.993614, 133, 321, 164, 352
-0.993619, 129, 153, 160, 184
-0.99362, 161, 129, 192, 160
-0.993622, 297, 433, 328, 464
-0.993623, 125, 105, 156, 136
-0.993625, 73, 409, 104, 440
-0.993626, 217, 449, 248, 480
-0.993679, 25, 193, 88, 256
-0.993684, 113, 57, 144, 120
-0.993727, 153, 145, 184, 208
-0.993792, 133, 385, 164, 448
-0.99382, 133, 81, 164, 208
-0.993851, 209, 305, 272, 368
-0.99392, 105, 385, 136, 448
-0.993929, 1, 161, 256, 224
-0.993949, 97, 129, 352, 192
-0.993949, 137, 337, 168, 400
-0.993987, 73, 297, 136, 360
-0.994011, 73, 369, 104, 432
-0.994062, 97, 73, 160, 136
-0.994093, 17, 65, 144, 128
-0.994118, 265, 81, 328, 208
-0.994136, 197, 17, 228, 144
-0.99417, 121, 129, 184, 384
-0.994175, 77, 353, 108, 480
-0.994249, 169, 129, 200, 192
-0.994251, 129, 337, 375, 400
-0.994259, 113, 25, 240, 88
-0.99429, 257, 113, 320, 176
-0.994309, 97, 305, 352, 368
-0.994401, 209, 249, 272, 312
-0.994454, 245, 369, 276, 496
-0.994542, 129, 193, 375, 256
-0.994546, 145, 121, 176, 184
-0.994674, 257, 433, 272, 496
-0.994695, 309, 409, 340, 472
-0.994867, 25, 161, 88, 288
-0.994877, 65, 353, 128, 416
-0.994881, 127, 369, 142, 432
-0.99489, 73, 65, 136, 128
-0.994919, 97, 281, 352, 344
-0.994933, 145, 49, 208, 112
-0.994935, 65, 225, 320, 288
-0.994935, 1, 305, 375, 368
-0.994959, 129, 153, 375, 216
-0.994986, 137, 233, 200, 296
-0.995002, 77, 425, 108, 488
-0.995014, 193, 249, 224, 312
-0.995027, 33, 89, 160, 152
-0.995042, 297, 257, 360, 500
-0.995089, 145, 165, 272, 196
-0.995093, 33, 313, 160, 376
-0.995104, 73, 129, 136, 192
-0.99511, 117, 97, 148, 160
-0.995178, 317, 377, 348, 440
-0.995193, 265, 433, 280, 496
-0.995201, 65, 1, 128, 256
-0.995245, 97, 257, 352, 320
-0.995277, 177, 345, 304, 408
-0.995289, 145, 241, 208, 368
-0.995292, 97, 33, 352, 96
-0.995298, 97, 105, 352, 168
-0.995308, 17, 137, 80, 200
-0.995309, 1, 377, 375, 440
-0.995314, 97, 65, 352, 128
-0.995331, 113, 149, 240, 180
-0.995334, 113, 33, 176, 288
-0.995344, 225, 161, 352, 224
-0.995351, 265, 89, 328, 152
-0.995365, 1, 121, 256, 184
-0.99537, 229, 409, 260, 472
-0.995377, 145, 169, 176, 232
-0.995397, 225, 329, 288, 392
-0.995401, 73, 41, 136, 104
-0.995422, 265, 49, 328, 112
-0.995444, 127, 345, 142, 408
-0.995448, 273, 241, 336, 368
-0.995459, 17, 121, 144, 184
-0.995479, 251, 433, 266, 496
-0.995502, 209, 457, 336, 488
-0.995512, 153, 161, 184, 288
-0.995526, 65, 409, 96, 472
-0.995632, 97, 49, 160, 176
-0.995633, 161, 141, 288, 172
-0.995637, 1, 353, 375, 416
-0.995659, 225, 385, 288, 448
-0.995674, 17, 41, 144, 104
-0.995715, 177, 265, 208, 328
-0.995746, 265, 225, 280, 288
-0.995756, 131, 393, 146, 456
-0.995762, 275, 433, 290, 496
-0.995767, 41, 369, 104, 496
-0.995772, 49, 153, 112, 216
-0.995775, 65, 177, 192, 304
-0.995776, 9, 161, 40, 288
-0.99579, 177, 377, 304, 440
-0.995831, 1, 353, 128, 416
-0.995833, 261, 361, 292, 424
-0.995858, 97, 25, 160, 88
-0.99586, 177, 201, 304, 232
-0.995889, 177, 153, 304, 184
-0.995909, 1, 57, 375, 120
-0.995919, 49, 409, 176, 472
-0.995956, 225, 129, 240, 192
-0.995971, 239, 433, 254, 496
-0.995979, 49, 389, 176, 420
-0.996055, 49, 373, 176, 404
-0.996065, 231, 57, 246, 120
-0.996136, 177, 469, 304, 500
-0.996143, 109, 97, 140, 224
-0.996151, 217, 417, 248, 480
-0.996177, 113, 265, 240, 328
-0.996183, 97, 433, 352, 496
-0.996187, 65, 1, 128, 500
-0.996199, 317, 353, 348, 416
-0.996201, 125, 41, 156, 104
-0.996204, 41, 393, 104, 456
-0.996211, 297, 273, 360, 400
-0.996213, 121, 313, 136, 376
-0.996239, 245, 425, 260, 488
-0.996258, 65, 185, 192, 248
-0.996278, 165, 105, 196, 168
-0.996278, 1, 329, 375, 392
-0.996283, 97, 9, 352, 72
-0.996294, 305, 297, 368, 360
-0.996297, 145, 41, 176, 104
-0.996323, 65, 409, 320, 472
-0.99633, 89, 337, 120, 400
-0.99633, 231, 433, 246, 496
-0.996342, 177, 177, 304, 208
-0.996347, 1, 121, 375, 184
-0.996365, 273, 1, 336, 500
-0.996379, 241, 437, 368, 468
-0.996383, 129, 193, 256, 224
-0.996388, 161, 53, 288, 84
-0.996414, 1, 97, 256, 160
-0.996415, 281, 401, 296, 464
-0.996432, 1, 433, 375, 496
-0.996436, 225, 385, 352, 416
-0.996446, 1, 177, 375, 240
-0.996448, 259, 217, 274, 280
-0.996528, 161, 121, 288, 152
-0.996549, 177, 213, 304, 244
-0.99655, 265, 25, 328, 88
-0.996566, 113, 133, 240, 164
-0.996579, 129, 129, 160, 192
-0.996584, 217, 49, 248, 112
-0.996608, 177, 49, 208, 176
-0.996634, 1, 233, 375, 296
-0.996635, 177, 189, 304, 220
-0.996658, 257, 289, 288, 416
-0.996692, 133, 313, 164, 376
-0.996735, 33, 385, 288, 448
-0.996747, 193, 309, 320, 340
-0.996761, 165, 241, 196, 304
-0.996769, 185, 145, 200, 208
-0.996771, 177, 89, 304, 120
-0.996795, 177, 293, 304, 324
-0.996795, 1, 281, 375, 344
-0.996797, 1, 49, 256, 112
-0.996804, 101, 361, 132, 424
-0.996823, 157, 177, 188, 240
-0.996827, 161, 249, 288, 280
-0.996828, 97, 177, 224, 208
-0.996829, 65, 97, 128, 160
-0.996843, 225, 129, 256, 384
-0.996846, 1, 401, 375, 464
-0.99685, 89, 321, 120, 448
-0.99685, 1, 89, 375, 152
-0.996856, 249, 233, 264, 296
-0.996867, 209, 217, 240, 280
-0.996868, 255, 241, 270, 304
-0.996873, 265, 1, 328, 128
-0.996878, 249, 1, 312, 64
-0.996882, 209, 325, 336, 356
-0.996913, 177, 277, 304, 308
-0.996917, 233, 137, 264, 200
-0.996918, 273, 345, 304, 408
-0.996922, 129, 469, 256, 500
-0.996928, 213, 65, 244, 320
-0.99693, 193, 441, 320, 472
-0.996933, 201, 97, 232, 352
-0.99695, 1, 1, 64, 64
-0.996951, 225, 373, 352, 404
-0.996965, 205, 433, 236, 496
-0.996982, 253, 185, 268, 248
-0.996983, 193, 233, 320, 264
-0.996989, 117, 297, 148, 360
-0.997001, 211, 121, 226, 184
-0.997001, 79, 425, 94, 488
-0.997012, 293, 393, 308, 456
-0.997012, 177, 265, 304, 296
-0.997021, 241, 161, 272, 416
-0.997024, 301, 401, 316, 464
-0.997029, 223, 105, 238, 168
-0.997034, 285, 433, 300, 496
-0.997043, 233, 153, 248, 216
-0.997052, 313, 385, 328, 448
-0.997055, 201, 289, 232, 352
-0.99706, 49, 361, 176, 392
-0.99707, 213, 257, 244, 320
-0.997079, 121, 385, 136, 448
-0.997084, 205, 121, 220, 184
-0.997085, 217, 113, 232, 176
-0.9971, 195, 129, 210, 192
-0.997101, 291, 425, 306, 488
-0.997105, 319, 385, 334, 448
-0.99712, 133, 153, 164, 216
-0.997129, 231, 129, 246, 192
-0.997136, 243, 225, 258, 288
-0.997151, 127, 325, 142, 356
-0.997155, 209, 345, 336, 376
-0.997155, 145, 225, 272, 256
-0.997156, 137, 369, 152, 432
-0.99716, 33, 337, 288, 400
-0.997164, 1, 33, 375, 96
-0.997164, 273, 257, 304, 500
-0.997181, 65, 25, 192, 88
-0.997183, 277, 233, 308, 296
-0.997191, 33, 361, 288, 424
-0.997193, 1, 169, 128, 232
-0.997197, 225, 425, 352, 456
-0.997198, 101, 273, 132, 400
-0.997213, 225, 401, 352, 432
-0.997217, 261, 249, 276, 312
-0.997219, 97, 101, 224, 132
-0.997228, 173, 153, 188, 216
-0.997246, 105, 113, 136, 176
-0.997254, 161, 41, 288, 72
-0.997258, 201, 401, 264, 464
-0.997259, 209, 361, 336, 392
-0.997261, 177, 257, 208, 384
-0.997265, 125, 409, 140, 472
-0.997271, 189, 169, 204, 232
-0.997277, 129, 205, 256, 236
-0.997282, 153, 33, 184, 160
-0.997299, 273, 161, 336, 416
-0.997299, 221, 257, 252, 384
-0.997307, 271, 233, 286, 296
-0.997309, 113, 57, 240, 88
-0.997311, 113, 121, 240, 152
-0.997338, 275, 393, 290, 456
-0.997348, 133, 273, 164, 400
-0.997349, 161, 77, 288, 108
-0.997352, 205, 145, 220, 208
-0.997356, 161, 105, 288, 136
-0.997388, 209, 413, 336, 444
-0.997394, 145, 237, 272, 268
-0.9974, 49, 405, 176, 436
-0.9974, 177, 65, 304, 96
-0.997401, 115, 313, 130, 376
-0.997421, 237, 217, 252, 280
-0.997429, 243, 169, 258, 232
-0.997431, 33, 113, 96, 240
-0.997433, 181, 185, 196, 248
-0.997437, 265, 409, 280, 472
-0.99744, 271, 265, 286, 328
-0.997449, 197, 161, 212, 224
-0.99745, 1, 1, 375, 64
-0.997455, 229, 233, 260, 296
-0.997457, 241, 249, 272, 312
-0.997469, 137, 329, 152, 392
-0.997481, 25, 145, 56, 272
-0.997486, 253, 193, 284, 448
-0.997486, 279, 361, 294, 424
-0.997488, 283, 281, 298, 344
-0.997495, 215, 145, 230, 208
-0.997503, 287, 393, 302, 456
-0.997504, 265, 201, 280, 264
-0.997504, 225, 73, 240, 136
-0.997508, 1, 145, 375, 208
-0.997525, 265, 177, 280, 240
-0.99753, 179, 161, 194, 224
-0.997536, 293, 297, 308, 360
-0.997557, 277, 249, 292, 312
-0.99756, 197, 97, 212, 160
-0.99756, 209, 137, 336, 168
-0.99757, 101, 369, 132, 496
-0.997585, 129, 389, 144, 420
-0.997591, 113, 85, 240, 116
-0.997593, 293, 361, 308, 424
-0.997594, 231, 201, 246, 264
-0.997602, 97, 1, 224, 64
-0.997603, 309, 329, 324, 392
-0.997603, 1, 257, 375, 320
-0.997604, 97, 389, 224, 420
-0.997611, 273, 209, 304, 272
-0.997611, 265, 137, 328, 200
-0.997613, 129, 89, 160, 152
-0.997614, 201, 329, 264, 392
-0.997616, 219, 465, 234, 496
-0.997617, 225, 145, 240, 176
-0.997619, 25, 201, 56, 264
-0.99762, 253, 17, 284, 144
-0.997621, 229, 369, 260, 496
-0.997629, 57, 385, 88, 448
-0.997637, 109, 49, 140, 176
-0.997642, 307, 393, 322, 456
-0.997657, 97, 377, 224, 408
-0.997658, 165, 65, 196, 192
-0.997671, 127, 297, 142, 360
-0.997682, 277, 273, 292, 336
-0.997707, 273, 193, 304, 320
-0.997709, 285, 257, 316, 500
-0.997712, 97, 161, 224, 192
-0.997719, 227, 461, 242, 492
-0.997721, 237, 453, 252, 484
-0.997728, 273, 265, 304, 328
-0.997728, 145, 209, 208, 272
-0.997739, 225, 133, 240, 164
-0.997742, 5, 217, 36, 280
-0.997749, 265, 289, 296, 352
-0.997754, 157, 57, 188, 120
-0.997763, 161, 453, 288, 484
-0.997767, 193, 257, 224, 384
-0.997776, 301, 313, 316, 376
-0.997777, 1, 73, 256, 136
-0.997791, 247, 453, 262, 484
-0.997792, 189, 201, 204, 264
-0.997795, 251, 401, 266, 464
-0.997795, 299, 425, 314, 488
-0.997801, 217, 193, 232, 256
-0.997812, 33, 153, 160, 184
-0.997814, 189, 129, 220, 384
-0.997814, 237, 465, 252, 496
-0.997834, 127, 345, 142, 376
-0.997837, 165, 17, 196, 144
-0.997851, 257, 401, 272, 464
-0.997853, 175, 185, 190, 248
-0.997866, 1, 201, 375, 264
-0.997869, 129, 365, 256, 396
-0.997869, 275, 209, 290, 272
-0.99787, 177, 425, 304, 456
-0.997872, 209, 125, 336, 156
-0.997882, 299, 361, 314, 424
-0.997882, 225, 193, 240, 256
-0.997883, 221, 433, 236, 496
-0.99789, 255, 437, 270, 468
-0.997892, 131, 405, 146, 436
-0.997893, 287, 361, 302, 424
-0.997907, 325, 393, 340, 456
-0.997911, 161, 17, 224, 80
-0.997913, 211, 185, 226, 248
-0.997919, 133, 33, 164, 160
-0.997921, 213, 193, 244, 448
-0.997922, 25, 169, 56, 232
-0.99793, 245, 441, 260, 472
-0.997933, 267, 441, 282, 472
-0.997936, 73, 433, 88, 496
-0.997937, 145, 441, 272, 472
-0.997947, 189, 121, 204, 184
-0.997957, 179, 137, 194, 200
-0.997962, 1, 377, 128, 440
-0.997973, 203, 97, 218, 160
-0.997978, 243, 465, 258, 496
-0.997995, 119, 361, 134, 424
-0.998003, 65, 233, 192, 296
-0.998007, 1, 209, 32, 336
-0.998011, 309, 417, 324, 480
-0.998011, 317, 345, 332, 408
-0.998023, 205, 49, 236, 112
-0.998025, 69, 409, 84, 472
-0.998031, 203, 225, 218, 288
-0.998033, 255, 469, 270, 500
-0.998036, 37, 185, 68, 248
-0.99805, 189, 305, 220, 368
-0.998062, 127, 357, 142, 388
-0.998066, 161, 5, 288, 36
-0.998081, 241, 261, 368, 292
-0.998098, 133, 41, 148, 104
-0.998098, 129, 129, 160, 256
-0.998099, 305, 369, 320, 432
-0.9981, 193, 165, 320, 196
-0.9981, 137, 321, 200, 448
-0.998104, 129, 377, 144, 408
-0.998106, 139, 49, 154, 112
-0.998115, 81, 333, 208, 364
-0.99812, 169, 49, 200, 112
-0.998128, 253, 449, 268, 480
-0.998139, 235, 105, 250, 168
-0.998142, 49, 169, 176, 200
-0.998144, 109, 409, 140, 472
-0.998151, 117, 337, 132, 400
-0.998161, 221, 153, 236, 216
-0.998161, 249, 469, 264, 500
-0.998166, 113, 257, 144, 500
-0.99817, 49, 49, 112, 176
-0.998174, 167, 153, 182, 216
-0.998176, 259, 193, 274, 256
-0.998177, 81, 189, 208, 220
-0.998186, 233, 305, 296, 368
-0.998186, 137, 393, 152, 456
-0.998194, 191, 97, 206, 160
-0.998196, 265, 161, 296, 416
-0.998197, 211, 469, 226, 500
-0.9982, 231, 65, 246, 96
-0.998202, 237, 65, 252, 128
-0.998207, 285, 337, 316, 400
-0.998215, 65, 133, 192, 164
-0.998217, 161, 29, 288, 60
-0.99822, 97, 401, 224, 432
-0.998222, 125, 57, 140, 120
-0.998225, 79, 369, 94, 432
-0.998225, 211, 257, 226, 320
-0.998228, 25, 1, 88, 500
-0.998234, 121, 401, 136, 432
-0.998241, 177, 97, 208, 352
-0.998248, 323, 361, 338, 424
-0.998256, 239, 441, 254, 472
-0.998257, 243, 401, 258, 464
-0.998259, 77, 401, 108, 464
-0.998276, 211, 97, 226, 160
-0.998277, 225, 469, 352, 500
-0.998279, 261, 97, 292, 224
-0.998282, 181, 483, 212, 498
-0.998283, 117, 321, 132, 352
-0.998283, 285, 411, 316, 426
-0.998283, 273, 375, 304, 390
-0.998283, 249, 261, 280, 276
-0.998283, 315, 409, 330, 472
-0.998284, 197, 135, 228, 150
-0.998285, 265, 387, 296, 402
-0.998286, 313, 389, 344, 404
-0.998286, 225, 169, 256, 184
-0.998286, 137, 357, 168, 372
-0.998287, 225, 445, 256, 460
-0.998287, 253, 249, 284, 264
-0.998288, 137, 377, 168, 392
-0.998288, 257, 271, 288, 286
-0.998288, 305, 365, 336, 380
-0.998289, 217, 107, 248, 122
-0.998289, 145, 53, 176, 68
-0.998291, 137, 385, 168, 400
-0.998291, 241, 247, 272, 262
-0.998292, 197, 99, 228, 114
-0.998292, 249, 177, 280, 192
-0.998293, 297, 395, 328, 410
-0.998293, 177, 213, 208, 228
-0.998294, 265, 381, 296, 396
-0.998294, 293, 435, 324, 450
-0.998295, 117, 415, 148, 430
-0.998296, 285, 401, 316, 416
-0.998296, 233, 237, 264, 252
-0.998296, 101, 331, 132, 346
-0.998296, 137, 399, 168, 414
-0.998297, 265, 235, 296, 250
-0.998297, 257, 473, 288, 488
-0.998297, 105, 297, 168, 360
-0.998297, 101, 349, 132, 364
-0.998298, 213, 113, 244, 128
-0.9983, 161, 191, 192, 206
-0.998302, 253, 183, 284, 198
-0.998302, 165, 147, 196, 162
-0.998302, 297, 419, 328, 434
-0.998302, 133, 411, 164, 426
-0.998303, 261, 201, 292, 216
-0.998303, 261, 255, 292, 270
-0.998304, 189, 163, 220, 178
-0.998304, 225, 145, 256, 160
-0.998306, 313, 395, 344, 410
-0.998307, 201, 155, 232, 170
-0.998308, 229, 231, 260, 246
-0.998311, 181, 193, 196, 224
-0.998314, 137, 391, 168, 406
-0.998314, 49, 349, 176, 380
-0.998314, 109, 409, 140, 424
-0.998315, 201, 141, 232, 156
-0.998316, 313, 401, 344, 416
-0.998316, 173, 205, 204, 220
-0.998317, 225, 221, 352, 252
-0.998318, 201, 147, 232, 162
-0.998318, 137, 361, 200, 424
-0.998319, 269, 435, 300, 450
-0.998319, 217, 85, 248, 100
-0.998319, 305, 409, 336, 424
-0.99832, 269, 447, 300, 462
-0.998323, 285, 371, 316, 386
-0.998324, 225, 281, 352, 312
-0.998326, 193, 479, 224, 494
-0.998326, 213, 125, 244, 140
-0.998327, 181, 149, 212, 164
-0.998327, 137, 405, 168, 420
-0.998327, 241, 219, 272, 234
-0.998329, 261, 209, 292, 224
-0.99833, 261, 221, 292, 236
-0.99833, 259, 449, 274, 480
-0.998331, 301, 429, 332, 444
-0.998331, 173, 193, 204, 208
-0.998332, 129, 89, 144, 152
-0.998335, 205, 55, 236, 70
-0.998335, 265, 229, 296, 244
-0.998335, 101, 337, 132, 352
-0.998337, 181, 143, 212, 158
-0.998338, 225, 451, 256, 466
-0.998339, 273, 485, 304, 500
-0.998339, 17, 273, 144, 400
-0.998339, 161, 17, 288, 48
-0.998341, 267, 237, 282, 268
-0.998342, 181, 155, 212, 170
-0.998342, 97, 65, 128, 192
-0.998342, 265, 249, 296, 264
-0.998343, 217, 161, 248, 176
-0.998343, 213, 119, 244, 134
-0.998344, 221, 79, 252, 94
-0.998344, 125, 57, 156, 72
-0.998345, 127, 321, 142, 448
-0.998349, 253, 437, 284, 452
-0.99835, 205, 169, 220, 232
-0.998351, 221, 73, 252, 88
-0.998351, 261, 479, 292, 494
-0.998351, 281, 439, 312, 454
-0.998353, 241, 485, 272, 500
-0.998353, 245, 475, 276, 490
-0.998357, 49, 1, 176, 64
-0.998358, 135, 305, 150, 368
-0.998359, 101, 343, 132, 358
-0.998359, 195, 209, 210, 272
-0.99836, 249, 235, 280, 250
-0.99836, 257, 243, 288, 258
-0.998361, 213, 463, 244, 478
-0.998362, 227, 153, 242, 216
-0.998363, 297, 257, 328, 500
-0.998364, 169, 55, 200, 70
-0.998365, 121, 409, 152, 424
-0.998367, 213, 141, 244, 156
-0.998367, 245, 225, 276, 240
-0.998372, 233, 157, 248, 188
-0.998374, 277, 433, 292, 464
-0.998375, 229, 483, 260, 498
-0.998375, 219, 141, 234, 172
-0.998375, 261, 467, 292, 482
-0.998376, 213, 131, 244, 146
-0.998383, 117, 389, 148, 404
-0.998386, 261, 215, 292, 230
-0.998388, 219, 81, 234, 144
-0.998392, 173, 199, 204, 214
-0.998393, 117, 383, 148, 398
-0.998393, 117, 373, 148, 388
-0.998394, 229, 469, 260, 484
-0.998398, 213, 155, 244, 170
-0.998398, 117, 365, 148, 380
-0.9984, 65, 369, 96, 496
-0.998401, 185, 55, 216, 70
-0.998402, 213, 149, 244, 164
-0.998406, 109, 323, 140, 338
-0.998407, 173, 121, 188, 184
-0.998408, 117, 335, 148, 350
-0.998409, 181, 113, 196, 176
-0.99841, 121, 403, 152, 418
-0.998412, 249, 453, 280, 468
-0.998416, 117, 343, 148, 358
-0.998416, 237, 447, 268, 462
-0.998417, 117, 353, 148, 368
-0.998419, 263, 461, 278, 492
-0.998422, 237, 65, 268, 320
-0.998422, 113, 317, 240, 348
-0.998423, 117, 359, 148, 374
-0.998424, 1, 433, 256, 496
-0.998429, 121, 397, 152, 412
-0.998432, 229, 475, 260, 490
-0.998433, 225, 457, 256, 472
-0.998434, 269, 441, 300, 456
-0.998438, 249, 459, 280, 474
-0.99844, 289, 437, 304, 468
-0.998444, 261, 485, 292, 500
-0.998444, 113, 73, 240, 104
-0.998445, 241, 441, 272, 456
-0.998448, 241, 469, 272, 484
-0.998452, 125, 413, 140, 444
-0.998463, 159, 169, 174, 232
-0.998464, 243, 169, 258, 200
-0.998464, 261, 229, 276, 260
-0.998469, 117, 329, 148, 344
-0.998469, 257, 445, 288, 460
-0.998479, 231, 449, 246, 480
-0.998479, 193, 485, 256, 500
-0.998486, 237, 453, 268, 468
-0.998489, 153, 129, 168, 192
-0.99849, 209, 473, 272, 488
-0.998491, 225, 459, 288, 474
-0.998493, 209, 475, 240, 490
-0.998493, 237, 463, 268, 478
-0.998505, 185, 249, 200, 312
-0.998515, 319, 405, 334, 436
-0.998516, 79, 401, 94, 464
-0.998518, 151, 169, 166, 232
-0.998526, 247, 237, 262, 268
-0.998529, 193, 25, 256, 88
-0.998529, 217, 481, 248, 496
-0.998532, 141, 121, 156, 184
-0.998532, 197, 185, 212, 248
-0.998533, 241, 443, 304, 458
-0.998534, 65, 57, 192, 88
-0.99854, 231, 33, 246, 96
-0.998542, 179, 241, 194, 304
-0.998544, 241, 73, 368, 104
-0.998544, 241, 109, 368, 140
-0.998544, 217, 465, 280, 480
-0.998548, 1, 97, 64, 352
-0.998548, 193, 479, 256, 494
-0.99855, 241, 449, 304, 464
-0.998551, 225, 73, 240, 104
-0.998555, 253, 97, 284, 352
-0.998559, 129, 353, 256, 384
-0.998559, 135, 393, 150, 424
-0.998559, 271, 369, 286, 432
-0.998565, 217, 469, 248, 484
-0.998567, 241, 313, 368, 344
-0.998567, 185, 203, 248, 218
-0.998569, 89, 361, 152, 376
-0.99857, 225, 33, 256, 288
-0.998576, 225, 463, 256, 478
-0.998577, 89, 351, 152, 366
-0.998579, 233, 225, 296, 240
-0.998579, 193, 485, 224, 500
-0.998584, 233, 485, 296, 500
-0.998585, 205, 485, 236, 500
-0.998587, 113, 49, 128, 112
-0.998591, 299, 417, 314, 448
-0.998592, 89, 345, 152, 360
-0.998592, 261, 437, 276, 468
-0.998592, 217, 453, 280, 468
-0.998596, 89, 329, 152, 344
-0.998597, 241, 435, 304, 450
-0.998598, 209, 49, 336, 80
-0.9986, 185, 147, 248, 162
-0.998601, 177, 241, 208, 304
-0.998601, 185, 195, 248, 210
-0.998604, 307, 409, 322, 440
-0.998605, 201, 165, 264, 180
-0.998605, 323, 393, 338, 424
-0.998606, 193, 159, 256, 174
-0.998607, 233, 473, 296, 488
-0.998607, 77, 449, 92, 480
-0.998607, 89, 339, 152, 354
-0.998607, 169, 55, 232, 70
-0.998608, 233, 219, 296, 234
-0.998609, 193, 465, 256, 480
-0.998612, 281, 409, 344, 424
-0.998614, 217, 129, 232, 160
-0.998614, 217, 479, 280, 494
-0.998617, 113, 407, 176, 422
-0.998618, 273, 395, 336, 410
-0.998619, 217, 441, 280, 456
-0.998623, 239, 221, 254, 252
-0.998624, 201, 233, 264, 248
-0.998624, 113, 401, 176, 416
-0.998625, 233, 213, 296, 228
-0.998625, 89, 405, 152, 420
-0.998626, 265, 209, 280, 240
-0.998627, 281, 403, 344, 418
-0.998628, 193, 221, 256, 236
-0.998629, 241, 237, 304, 252
-0.998631, 113, 395, 176, 410
-0.998631, 185, 153, 248, 168
-0.998632, 225, 155, 288, 170
-0.998633, 89, 399, 152, 414
-0.998633, 185, 137, 248, 152
-0.998634, 241, 231, 304, 246
-0.998634, 281, 387, 344, 402
-0.998637, 89, 371, 152, 386
-0.998638, 177, 189, 240, 204
-0.998638, 137, 365, 152, 396
-0.998638, 255, 245, 270, 276
-0.998639, 225, 297, 352, 328
-0.99864, 225, 149, 288, 164
-0.998641, 225, 141, 288, 156
-0.998643, 89, 385, 152, 400
-0.998644, 137, 153, 200, 168
-0.998646, 193, 213, 256, 228
-0.998647, 113, 389, 176, 404
-0.998647, 137, 163, 200, 178
-0.998648, 267, 429, 282, 460
-0.998649, 113, 333, 176, 348
-0.998649, 225, 71, 288, 86
-0.99865, 89, 391, 152, 406
-0.998651, 89, 377, 152, 392
-0.998651, 137, 55, 200, 70
-0.998652, 247, 429, 262, 460
-0.998653, 265, 373, 328, 388
-0.998653, 161, 155, 224, 170
-0.998653, 273, 437, 336, 452
-0.998654, 231, 145, 246, 176
-0.998656, 161, 171, 224, 186
-0.998657, 209, 241, 272, 256
-0.998658, 209, 447, 272, 462
-0.998658, 225, 207, 288, 222
-0.998658, 225, 161, 288, 176
-0.998658, 265, 381, 328, 396
-0.998658, 225, 65, 288, 80
-0.998659, 225, 121, 288, 136
-0.998659, 201, 227, 264, 242
-0.99866, 209, 185, 272, 200
-0.998662, 185, 119, 248, 134
-0.998662, 161, 183, 224, 198
-0.998664, 113, 383, 176, 398
-0.998664, 201, 171, 264, 186
-0.998664, 113, 327, 176, 342
-0.998665, 241, 467, 304, 482
-0.998666, 233, 85, 296, 100
-0.998667, 113, 357, 176, 372
-0.998667, 217, 77, 280, 92
-0.998667, 137, 147, 200, 162
-0.998668, 321, 401, 352, 464
-0.998668, 279, 445, 294, 476
-0.998668, 209, 115, 272, 130
-0.998668, 225, 135, 288, 150
-0.99867, 113, 363, 176, 378
-0.998671, 217, 191, 280, 206
-0.998672, 275, 229, 290, 260
-0.998673, 193, 55, 256, 70
-0.998673, 113, 373, 176, 388
-0.998673, 233, 167, 296, 182
-0.998674, 257, 319, 320, 334
-0.998675, 89, 411, 152, 426
-0.998675, 257, 429, 320, 444
-0.998676, 113, 339, 176, 354
-0.998676, 225, 127, 288, 142
-0.998676, 257, 311, 320, 326
-0.998677, 241, 249, 368, 280
-0.998677, 185, 127, 248, 142
-0.998677, 169, 161, 232, 176
-0.998679, 273, 419, 336, 434
-0.998681, 161, 177, 224, 192
-0.998683, 177, 101, 240, 116
-0.998683, 161, 147, 224, 162
-0.998684, 209, 149, 224, 180
-0.998684, 145, 195, 208, 210
-0.998685, 137, 333, 152, 364
-0.998687, 113, 351, 176, 366
-0.998687, 225, 201, 288, 216
-0.998687, 185, 113, 248, 128
-0.998688, 281, 359, 344, 374
-0.998689, 97, 57, 160, 72
-0.998689, 241, 291, 304, 306
-0.99869, 169, 259, 232, 274
-0.99869, 281, 353, 344, 368
-0.99869, 241, 257, 272, 500
-0.998691, 225, 107, 288, 122
-0.998691, 79, 437, 94, 468
-0.998692, 281, 431, 344, 446
-0.998692, 185, 61, 248, 76
-0.998692, 201, 93, 264, 108
-0.998693, 153, 209, 216, 224
-0.998694, 225, 149, 352, 180
-0.998694, 249, 245, 312, 260
-0.998694, 257, 325, 320, 340
-0.998695, 225, 91, 288, 106
-0.998695, 297, 375, 360, 390
-0.998695, 249, 303, 312, 318
-0.998696, 145, 201, 208, 216
-0.998696, 89, 323, 152, 338
-0.998696, 129, 345, 192, 360
-0.998697, 145, 189, 208, 204
-0.998697, 281, 367, 344, 382
-0.998698, 189, 205, 204, 236
-0.998699, 137, 169, 200, 184
-0.9987, 113, 413, 176, 428
-0.9987, 137, 125, 200, 140
-0.9987, 241, 173, 304, 188
-0.9987, 249, 297, 312, 312
-0.998701, 283, 433, 298, 464
-0.998702, 263, 253, 278, 284
-0.998704, 209, 179, 272, 194
-0.998712, 71, 461, 86, 492
-0.998719, 273, 249, 288, 280
-0.99872, 227, 201, 242, 232
-0.998724, 231, 133, 246, 164
-0.998725, 203, 153, 218, 184
-0.998725, 295, 433, 310, 464
-0.998727, 313, 405, 328, 436
-0.99873, 223, 117, 238, 148
-0.998731, 241, 61, 368, 92
-0.998732, 255, 189, 270, 220
-0.998735, 65, 89, 192, 120
-0.99874, 137, 377, 152, 408
-0.998743, 17, 1, 144, 128
-0.99875, 245, 273, 276, 400
-0.998758, 97, 221, 224, 252
-0.998758, 81, 1, 144, 128
-0.998759, 211, 133, 226, 164
-0.998759, 13, 209, 44, 336
-0.998764, 241, 89, 368, 120
-0.99877, 273, 445, 288, 476
-0.998772, 185, 149, 200, 180
-0.998772, 205, 469, 220, 500
-0.998779, 97, 41, 224, 72
-0.998779, 225, 25, 352, 56
-0.998781, 269, 469, 284, 500
-0.998786, 137, 353, 152, 384
-0.99879, 289, 297, 304, 328
-0.998797, 89, 1, 152, 256
-0.9988, 203, 125, 218, 156
-0.998804, 253, 1, 284, 64
-0.998805, 117, 333, 132, 364
-0.998808, 279, 377, 294, 408
-0.998809, 233, 213, 248, 244
-0.998815, 177, 181, 192, 212
-0.998816, 283, 289, 298, 320
-0.998817, 33, 329, 160, 360
-0.998818, 305, 429, 320, 460
-0.99882, 285, 225, 316, 352
-0.998822, 301, 273, 332, 400
-0.998829, 75, 425, 90, 456
-0.998833, 127, 313, 142, 344
-0.998842, 211, 117, 226, 148
-0.998842, 317, 385, 332, 416
-0.998849, 187, 193, 202, 224
-0.998851, 297, 313, 312, 344
-0.998852, 249, 177, 264, 208
-0.998853, 177, 49, 192, 80
-0.998854, 189, 33, 220, 288
-0.998858, 325, 405, 340, 436
-0.998858, 285, 393, 300, 424
-0.998862, 223, 57, 238, 88
-0.998865, 195, 137, 210, 168
-0.998866, 309, 393, 324, 424
-0.998867, 289, 373, 304, 404
-0.998868, 273, 273, 288, 304
-0.998873, 233, 437, 248, 468
-0.998873, 229, 225, 260, 480
-0.998875, 209, 9, 336, 40
-0.998877, 305, 373, 320, 404
-0.998882, 215, 153, 230, 184
-0.998887, 171, 189, 186, 220
-0.998889, 65, 121, 192, 152
-0.99889, 241, 37, 368, 68
-0.998892, 299, 405, 314, 436
-0.998893, 129, 337, 256, 368
-0.998894, 119, 381, 134, 412
-0.998901, 267, 265, 282, 296
-0.998902, 65, 469, 80, 500
-0.998904, 183, 49, 198, 80
-0.998909, 181, 165, 196, 196
-0.998913, 207, 49, 222, 80
-0.99892, 225, 449, 240, 480
-0.998923, 205, 137, 220, 168
-0.998928, 41, 129, 104, 192
-0.998929, 1, 409, 128, 472
-0.998932, 291, 397, 306, 428
-0.998934, 189, 49, 204, 80
-0.998936, 191, 157, 206, 188
-0.998941, 117, 353, 132, 384
-0.998943, 113, 453, 240, 484
-0.998943, 195, 49, 210, 80
-0.998944, 119, 369, 134, 400
-0.998951, 1, 1, 256, 64
-0.998955, 283, 421, 298, 452
-0.998957, 291, 417, 306, 448
-0.998962, 195, 213, 210, 244
-0.998964, 303, 321, 318, 352
-0.998964, 171, 57, 186, 88
-0.998964, 241, 233, 368, 264
-0.998964, 1, 217, 128, 248
-0.998968, 255, 221, 270, 252
-0.998971, 137, 405, 152, 436
-0.998975, 299, 369, 314, 400
-0.998978, 177, 149, 192, 180
-0.998981, 171, 177, 186, 208
-0.998982, 121, 305, 136, 432
-0.998998, 233, 145, 248, 272
-0.998998, 157, 97, 188, 352
-0.999015, 49, 105, 176, 136
-0.999018, 177, 393, 304, 424
-0.999034, 207, 129, 222, 256
-0.999068, 257, 57, 288, 120
-0.999072, 193, 225, 224, 480
-0.999078, 227, 129, 242, 256
-0.999082, 253, 33, 284, 96
-0.999092, 229, 89, 260, 152
-0.999097, 225, 193, 352, 224
-0.999104, 65, 329, 128, 392
-0.999104, 241, 161, 256, 288
-0.999111, 1, 61, 128, 92
-0.999114, 253, 177, 268, 304
-0.999122, 265, 225, 280, 352
-0.999123, 289, 289, 320, 352
-0.999126, 217, 97, 232, 224
-0.99913, 257, 97, 288, 160
-0.999133, 129, 265, 256, 296
-0.999134, 113, 249, 240, 280
-0.99914, 33, 433, 160, 496
-0.999151, 1, 249, 256, 312
-0.999181, 247, 161, 262, 288
-0.999183, 65, 69, 192, 100
-0.999183, 275, 209, 290, 336
-0.999184, 131, 369, 146, 496
-0.999204, 195, 129, 210, 256
-0.999206, 161, 281, 224, 344
-0.999207, 227, 65, 242, 192
-0.99921, 233, 65, 248, 192
-0.999214, 189, 129, 204, 256
-0.999216, 315, 337, 330, 464
-0.999218, 1, 1, 128, 64
-0.999228, 241, 161, 368, 192
-0.999232, 201, 129, 216, 256
-0.999241, 183, 129, 198, 256
-0.999259, 81, 201, 208, 232
-0.999261, 225, 209, 352, 240
-0.999262, 265, 177, 280, 304
-0.999267, 17, 205, 144, 236
-0.99927, 291, 353, 306, 480
-0.999288, 259, 209, 274, 336
-0.999289, 17, 193, 144, 224
-0.999289, 189, 177, 204, 304
-0.999297, 213, 177, 228, 304
-0.999297, 125, 257, 156, 500
-0.999316, 291, 289, 306, 416
-0.999321, 237, 209, 252, 336
-0.999327, 179, 177, 194, 304
-0.99933, 271, 369, 286, 496
-0.999332, 247, 225, 262, 352
-0.999333, 307, 321, 322, 448
-0.999334, 33, 289, 160, 352
-0.999339, 65, 433, 96, 496
-0.99934, 229, 193, 244, 320
-0.999341, 277, 369, 292, 496
-0.999343, 219, 145, 234, 272
-0.999351, 127, 273, 142, 400
-0.999353, 225, 177, 352, 208
-0.99936, 177, 193, 208, 448
-0.99937, 177, 329, 240, 392
-0.999375, 97, 233, 224, 264
-0.999375, 253, 225, 268, 352
-0.999379, 153, 1, 184, 256
-0.99938, 297, 369, 312, 496
-0.999387, 115, 305, 130, 432
-0.9994, 303, 369, 318, 496
-0.9994, 283, 369, 298, 496
-0.999401, 137, 353, 152, 480
-0.999403, 25, 145, 56, 208
-0.999406, 285, 289, 300, 416
-0.999407, 271, 257, 286, 384
-0.999411, 299, 305, 314, 432
-0.999413, 177, 217, 208, 280
-0.999417, 121, 353, 136, 480
-0.999419, 233, 273, 264, 400
-0.999422, 101, 65, 132, 128
-0.999422, 221, 193, 236, 320
-0.999439, 153, 113, 168, 240
-0.999452, 279, 273, 294, 400
-0.999452, 309, 369, 324, 496
-0.999455, 195, 193, 210, 320
-0.999456, 101, 257, 132, 500
-0.99946, 205, 81, 220, 208
-0.999463, 17, 129, 144, 160
-0.99947, 211, 65, 226, 192
-0.99947, 321, 337, 336, 464
-0.999472, 199, 81, 214, 208
-0.999482, 177, 113, 192, 240
-0.999486, 33, 317, 160, 348
-0.999492, 209, 241, 224, 368
-0.999492, 29, 193, 60, 320
-0.999496, 9, 177, 40, 240
-0.999502, 17, 73, 144, 104
-0.999502, 267, 437, 282, 452
-0.999502, 227, 455, 242, 470
-0.999502, 273, 437, 288, 452
-0.999503, 137, 357, 152, 372
-0.999503, 139, 395, 154, 410
-0.999504, 317, 399, 332, 414
-0.999505, 129, 277, 256, 308
-0.999505, 257, 369, 272, 496
-0.999506, 123, 57, 138, 72
-0.999506, 139, 389, 154, 404
-0.999507, 243, 175, 258, 190
-0.999508, 215, 469, 230, 484
-0.999508, 125, 321, 140, 336
-0.999509, 171, 199, 186, 214
-0.999509, 301, 371, 316, 386
-0.999509, 177, 199, 192, 214
-0.999509, 1, 169, 128, 200
-0.99951, 185, 485, 200, 500
-0.999511, 257, 249, 272, 264
-0.999511, 239, 481, 254, 496
-0.999511, 237, 221, 252, 236
-0.999511, 213, 149, 228, 164
-0.999512, 137, 371, 152, 386
-0.999512, 77, 453, 92, 468
-0.999514, 293, 439, 308, 454
-0.999514, 137, 363, 152, 378
-0.999514, 223, 127, 238, 142
-0.999515, 69, 475, 84, 490
-0.999515, 79, 353, 94, 480
-0.999517, 319, 391, 334, 406
-0.999517, 137, 383, 152, 398
-0.999517, 239, 227, 254, 242
-0.999518, 265, 219, 280, 234
-0.999518, 187, 157, 202, 172
-0.999519, 173, 193, 188, 320
-0.999519, 219, 139, 234, 154
-0.999519, 285, 447, 300, 462
-0.99952, 281, 225, 296, 352
-0.999521, 249, 239, 264, 254
-0.999522, 79, 447, 94, 462
-0.999522, 265, 65, 296, 320
-0.999524, 207, 177, 222, 304
-0.999524, 261, 459, 276, 474
-0.999524, 75, 459, 90, 474
-0.999524, 229, 449, 244, 464
-0.999524, 243, 433, 258, 448
-0.999526, 213, 55, 228, 70
-0.999526, 233, 145, 248, 160
-0.999526, 171, 113, 186, 240
-0.999526, 135, 57, 150, 72
-0.999527, 139, 401, 154, 416
-0.999528, 227, 75, 242, 90
-0.99953, 279, 449, 294, 464
-0.99953, 323, 401, 338, 416
-0.99953, 137, 377, 152, 392
-0.999532, 221, 461, 236, 476
-0.999533, 9, 97, 72, 224
-0.999533, 113, 305, 240, 336
-0.999533, 239, 169, 254, 184
-0.999534, 189, 55, 204, 70
-0.999534, 261, 437, 276, 452
-0.999535, 201, 55, 216, 70
-0.999535, 181, 193, 196, 208
-0.999538, 135, 331, 150, 346
-0.999538, 125, 417, 140, 432
-0.99954, 255, 485, 270, 500
-0.999544, 263, 449, 278, 464
-0.999545, 181, 55, 196, 70
-0.999545, 267, 479, 282, 494
-0.999546, 203, 479, 218, 494
-0.999546, 235, 163, 250, 178
-0.999547, 263, 473, 278, 488
-0.999548, 193, 81, 208, 208
-0.999549, 247, 369, 262, 496
-0.99955, 221, 49, 236, 176
-0.99955, 245, 483, 260, 498
-0.99955, 191, 485, 206, 500
-0.999555, 207, 55, 222, 70
-0.999556, 219, 145, 234, 160
-0.999557, 173, 55, 188, 70
-0.999557, 225, 153, 240, 168
-0.999557, 275, 161, 290, 288
-0.999558, 151, 161, 166, 288
-0.999561, 249, 435, 264, 450
-0.999561, 221, 475, 236, 490
-0.999563, 201, 225, 216, 352
-0.999565, 255, 459, 270, 474
-0.999567, 235, 445, 250, 460
-0.999568, 195, 55, 210, 70
-0.999569, 1, 345, 128, 376
-0.999569, 255, 467, 270, 482
-0.99957, 261, 467, 276, 482
-0.99957, 135, 407, 150, 422
-0.999571, 231, 157, 246, 172
-0.999574, 261, 483, 276, 498
-0.999576, 219, 257, 234, 384
-0.999576, 119, 323, 134, 338
-0.999576, 287, 441, 302, 456
-0.999577, 161, 325, 288, 356
-0.999582, 273, 483, 288, 498
-0.999584, 201, 177, 216, 304
-0.999585, 239, 439, 254, 454
-0.999585, 157, 81, 188, 144
-0.999586, 249, 471, 264, 486
-0.999589, 263, 369, 278, 496
-0.99959, 121, 409, 136, 424
-0.999591, 229, 475, 244, 490
-0.999592, 127, 369, 142, 384
-0.999595, 127, 359, 142, 374
-0.999598, 129, 81, 144, 208
-0.999599, 249, 449, 264, 464
-0.9996, 267, 443, 282, 458
-0.9996, 267, 485, 282, 500
-0.9996, 49, 45, 176, 76
-0.999603, 127, 375, 142, 390
-0.999604, 257, 473, 272, 488
-0.999604, 89, 1, 120, 256
-0.999604, 165, 1, 196, 256
-0.999605, 233, 69, 248, 84
-0.999605, 129, 1, 160, 256
-0.999606, 267, 467, 282, 482
-0.999612, 127, 381, 142, 396
-0.999612, 137, 305, 152, 432
-0.999613, 277, 161, 308, 416
-0.999616, 127, 353, 142, 368
-0.999617, 129, 389, 144, 404
-0.999617, 235, 475, 250, 490
-0.999621, 127, 333, 142, 348
-0.999622, 127, 343, 142, 358
-0.999622, 209, 479, 224, 494
-0.999624, 235, 469, 250, 484
-0.999627, 159, 113, 174, 240
-0.999627, 167, 177, 182, 304
-0.999631, 161, 161, 176, 288
-0.999632, 233, 481, 248, 496
-0.999632, 243, 449, 258, 464
-0.999632, 1, 141, 128, 172
-0.999633, 217, 485, 232, 500
-0.999633, 259, 161, 274, 288
-0.999635, 257, 329, 288, 392
-0.999636, 249, 455, 264, 470
-0.999638, 145, 97, 176, 352
-0.999639, 147, 113, 162, 240
-0.99964, 127, 405, 142, 420
-0.99964, 129, 411, 144, 426
-0.999641, 225, 137, 240, 152
-0.999642, 241, 473, 256, 488
-0.999643, 247, 463, 262, 478
-0.999643, 129, 395, 144, 410
-0.999644, 225, 481, 240, 496
-0.999645, 277, 443, 292, 458
-0.999645, 259, 257, 274, 384
-0.999645, 245, 443, 260, 458
-0.999647, 85, 353, 100, 480
-0.999649, 73, 369, 88, 496
-0.999649, 225, 147, 240, 162
-0.99965, 197, 485, 212, 500
-0.999651, 33, 181, 160, 212
-0.999653, 215, 475, 230, 490
-0.999654, 123, 97, 138, 224
-0.999654, 253, 441, 268, 456
-0.999654, 115, 353, 130, 480
-0.999655, 165, 113, 180, 240
-0.999656, 257, 451, 272, 466
-0.999657, 177, 377, 304, 408
-0.999658, 17, 93, 144, 124
-0.999659, 229, 469, 244, 484
-0.999662, 253, 1, 284, 256
-0.999663, 1, 177, 16, 304
-0.999664, 201, 1, 232, 256
-0.999668, 213, 169, 244, 232
-0.999669, 259, 443, 274, 458
-0.999669, 239, 455, 254, 470
-0.999676, 187, 81, 202, 208
-0.999677, 233, 457, 248, 472
-0.999678, 209, 17, 224, 144
-0.99968, 225, 257, 240, 384
-0.999684, 239, 463, 254, 478
-0.999685, 267, 1, 282, 128
-0.999687, 227, 17, 242, 144
-0.999688, 195, 33, 210, 160
-0.99969, 227, 463, 242, 478
-0.999692, 117, 97, 132, 224
-0.999694, 141, 113, 156, 240
-0.999697, 107, 321, 122, 448
-0.999699, 221, 313, 252, 376
-0.9997, 239, 81, 254, 208
-0.999701, 117, 257, 132, 384
-0.999707, 211, 485, 226, 500
-0.99971, 125, 327, 140, 342
-0.999711, 21, 161, 36, 288
-0.999712, 233, 463, 248, 478
-0.999712, 95, 337, 110, 464
-0.999713, 187, 241, 202, 368
-0.999715, 203, 485, 218, 500
-0.999718, 265, 129, 280, 256
-0.999718, 313, 289, 328, 416
-0.999723, 221, 467, 236, 482
-0.999728, 135, 81, 150, 208
-0.999729, 309, 257, 340, 500
-0.99973, 17, 117, 144, 148
-0.999731, 67, 369, 82, 496
-0.999734, 233, 17, 248, 144
-0.999736, 239, 369, 254, 496
-0.99974, 1, 297, 256, 360
-0.999741, 203, 17, 218, 144
-0.999742, 121, 49, 136, 176
-0.999743, 145, 161, 160, 288
-0.999747, 231, 273, 246, 400
-0.999748, 81, 261, 208, 292
-0.999754, 49, 461, 176, 492
-0.999758, 111, 65, 126, 192
-0.999763, 175, 17, 190, 144
-0.999763, 15, 129, 30, 256
-0.999769, 167, 65, 182, 192
-0.999769, 15, 177, 30, 304
-0.99977, 101, 321, 116, 448
-0.999772, 181, 49, 196, 176
-0.999773, 253, 129, 268, 256
-0.999776, 205, 321, 236, 448
-0.999778, 141, 65, 156, 192
-0.999779, 269, 49, 284, 176
-0.999782, 37, 145, 52, 272
-0.999784, 157, 33, 172, 160
-0.999784, 189, 17, 204, 144
-0.999785, 7, 161, 22, 288
-0.999786, 135, 257, 150, 384
-0.999794, 289, 241, 304, 368
-0.999797, 271, 113, 286, 240
-0.9998, 1, 369, 128, 400
-0.999806, 265, 273, 280, 400
-0.999807, 129, 129, 160, 384
-0.999808, 181, 257, 196, 384
-0.999812, 251, 273, 266, 400
-0.999817, 297, 257, 312, 384
-0.999817, 215, 17, 230, 144
-0.999835, 1, 357, 128, 388
-0.999837, 105, 1, 136, 256
-0.999842, 1, 49, 128, 80
-0.999891, 177, 1, 208, 256
-0.999893, 141, 1, 172, 256
-0.999899, 121, 185, 184, 248
-0.999903, 161, 289, 224, 416
-0.999906, 77, 1, 108, 256
-0.999906, 5, 129, 36, 384
-0.999955, 185, 1, 216, 128
-0.999959, 121, 33, 152, 160
-0.999963, 137, 225, 168, 480
-0.999975, 121, 1, 184, 64
-1, 117, 257, 148, 384
-1.00001, 89, 113, 120, 240
-1.00003, 1, 273, 256, 336
-1.00004, 229, 1, 260, 128
-1.00006, 1, 209, 128, 336
-1.00009, 165, 193, 196, 448
-1.00011, 49, 57, 112, 120
-1.00011, 193, 305, 224, 432
-1.00016, 117, 65, 148, 320
-1.0002, 1, 1, 64, 500
-1.00026, 17, 433, 80, 496
-1.00032, 1, 25, 256, 88
-1.00034, 41, 1, 72, 256
-1.00036, 289, 161, 320, 416
-1.00037, 17, 129, 48, 384
-1.00043, 57, 1, 88, 256
-1.00043, 117, 161, 148, 416
-1.00047, 217, 321, 280, 448
-1.00047, 53, 369, 84, 496
-1.00049, 249, 81, 280, 208
-1.0005, 25, 169, 88, 232
-1.00053, 313, 289, 344, 416
-1.00054, 153, 193, 184, 448
-1.00054, 89, 97, 152, 352
-1.00055, 1, 33, 32, 288
-1.00056, 41, 1, 104, 256
-1.00057, 105, 97, 136, 352
-1.00059, 45, 129, 76, 384
-1.00061, 321, 257, 352, 500
-1.00062, 25, 33, 56, 288
-1.00063, 41, 113, 72, 240
-1.00067, 297, 1, 360, 500
-1.00068, 89, 97, 120, 352
-1.00069, 57, 97, 88, 352
-1.00072, 33, 129, 64, 384
-1.00081, 77, 257, 108, 500
-1.00087, 89, 257, 120, 500
-1.00087, 69, 97, 100, 352
-1.00093, 1, 225, 32, 480
-1.00094, 13, 1, 44, 256
-1.00098, 193, 1, 256, 64
-1.00098, 209, 353, 272, 416
-1.001, 305, 161, 336, 416
-1.00103, 81, 65, 112, 192
-1.00104, 65, 257, 192, 320
-1.0011, 41, 161, 72, 288
-1.00112, 41, 329, 104, 392
-1.00113, 1, 185, 64, 248
-1.00116, 49, 209, 176, 272
-1.00117, 165, 225, 196, 352
-1.0012, 277, 33, 308, 288
-1.00127, 65, 225, 128, 480
-1.00127, 61, 257, 92, 500
-1.00136, 21, 225, 52, 480
-1.00141, 109, 1, 140, 128
-1.00141, 265, 49, 296, 176
-1.00149, 49, 1, 112, 128
-1.00153, 33, 129, 96, 384
-1.00159, 317, 161, 348, 416
-1.00162, 1, 225, 128, 288
-1.00164, 33, 225, 64, 480
-1.00164, 217, 369, 248, 496
-1.00167, 333, 257, 364, 500
-1.00179, 81, 433, 208, 496
-1.0018, 49, 257, 80, 500
-1.00183, 337, 161, 368, 416
-1.00184, 297, 33, 328, 288
-1.00184, 309, 33, 340, 288
-1.00184, 321, 65, 352, 320
-1.00184, 333, 65, 364, 320
-1.00184, 345, 65, 375, 320
-1.00191, 345, 257, 375, 500
-1.00197, 325, 321, 356, 448
-1.00232, 9, 1, 72, 256
-1.00234, 325, 369, 356, 496
-1.00247, 61, 145, 92, 272
-1.00252, 265, 1, 296, 128
-1.00266, 17, 1, 80, 128
-1.00267, 49, 65, 80, 192
-1.00274, 1, 249, 128, 312
-1.00285, 1, 193, 64, 448
-1.00288, 73, 305, 104, 432
-1.00288, 281, 145, 312, 272
-1.00303, 21, 97, 52, 224
-1.00327, 273, 97, 304, 224
-1.00328, 225, 321, 256, 448
-1.0033, 73, 129, 104, 256
-1.00334, 17, 49, 80, 176
-1.00341, 61, 1, 92, 128
-1.00343, 273, 65, 336, 320
-1.00343, 33, 1, 64, 128
-1.00357, 49, 289, 112, 416
-1.00371, 241, 1, 272, 128
-1.00373, 61, 97, 92, 224
-1.00377, 57, 129, 120, 384
-1.00387, 93, 17, 124, 144
-1.00393, 153, 241, 184, 368
-1.00398, 9, 1, 40, 128
-1.00427, 273, 145, 336, 272
-1.00432, 1, 113, 32, 240
-1.00433, 57, 321, 88, 448
-1.00436, 89, 369, 120, 496
-1.00446, 37, 65, 68, 192
-1.00449, 121, 225, 184, 352
-1.0045, 89, 273, 120, 400
-1.00451, 297, 161, 360, 416
-1.00457, 277, 49, 308, 176
-1.00481, 49, 161, 112, 288
-1.00498, 41, 257, 104, 500
-1.00499, 45, 17, 76, 144
-1.00502, 81, 1, 112, 128
-1.00505, 65, 49, 96, 176
-1.00508, 181, 305, 212, 432
-1.00509, 241, 321, 272, 448
-1.00554, 145, 321, 176, 448
-1.00556, 129, 225, 160, 352
-1.00571, 297, 225, 328, 352
-1.00605, 169, 369, 232, 496
-1.00611, 277, 1, 308, 128
-1.00621, 25, 49, 56, 176
-1.00642, 117, 145, 148, 272
-1.00651, 325, 273, 356, 400
-1.00696, 297, 225, 360, 352
-1.00753, 49, 225, 176, 352
-1.00867, 25, 321, 88, 448
-1.00939, 25, 209, 88, 336
-1.00952, 73, 225, 136, 352
-1.01086, 313, 65, 375, 320
-1.01096, 17, 369, 80, 496
-1.0116, 81, 161, 144, 288
-1.01177, 137, 369, 200, 496
-1.01421, 49, 241, 112, 368
-1.01432, 1, 321, 64, 448
-1.01442, 1, 273, 64, 400
-1.01471, 97, 209, 160, 336
-1.01478, 289, 17, 352, 144
-1.01478, 313, 33, 375, 160
-1.01478, 289, 65, 352, 192
-1.01478, 313, 81, 375, 208
-1.01478, 313, 129, 375, 256
-1.01478, 313, 177, 375, 304
-1.01506, 25, 273, 88, 400
-1.05039, 1, 257, 256, 500
