1966
-0.334163, 1, 1, 375, 500
-0.356993, 1, 65, 375, 320
-0.373997, 33, 1, 288, 500
-0.375615, 1, 161, 375, 416
-0.45125, 1, 257, 375, 500
-0.585696, 1, 129, 256, 384
-0.604738, 129, 1, 375, 500
-0.60829, 1, 225, 256, 480
-0.609427, 97, 161, 352, 416
-0.624752, 33, 1, 288, 256
-0.660012, 97, 257, 352, 500
-0.697931, 129, 65, 375, 320
-0.843644, 81, 129, 208, 384
-0.850875, 1, 1, 128, 500
-0.857447, 145, 161, 272, 416
-0.859635, 49, 33, 176, 288
-0.863389, 129, 1, 256, 256
-0.86526, 65, 1, 192, 500
-0.869251, 33, 193, 160, 448
-0.870164, 145, 257, 272, 500
-0.870768, 1, 177, 375, 304
-0.8766, 1, 65, 128, 320
-0.878354, 113, 1, 240, 500
-0.880535, 193, 193, 320, 448
-0.890089, 81, 257, 208, 500
-0.89028, 1, 97, 375, 224
-0.891253, 177, 1, 304, 500
-0.899631, 193, 97, 320, 352
-0.902235, 1, 225, 375, 352
-0.90511, 65, 129, 320, 256
-0.908217, 1, 49, 375, 176
-0.909671, 1, 353, 375, 480
-0.916323, 1, 193, 256, 320
-0.916448, 1, 273, 375, 400
-0.922796, 1, 1, 375, 128
-0.923773, 241, 225, 368, 480
-0.925238, 129, 177, 375, 304
-0.925559, 225, 1, 352, 500
-0.926143, 33, 257, 288, 384
-0.927132, 129, 321, 375, 448
-0.92896, 209, 177, 272, 304
-0.929995, 33, 81, 288, 208
-0.930289, 65, 145, 192, 272
-0.932271, 161, 193, 288, 320
-0.932387, 129, 129, 192, 256
-0.932529, 33, 337, 288, 464
-0.933216, 33, 1, 288, 128
-0.933685, 129, 225, 375, 352
-0.935597, 177, 177, 240, 304
-0.936464, 225, 1, 352, 256
-0.936595, 153, 193, 216, 320
-0.938102, 177, 289, 304, 416
-0.938816, 97, 225, 224, 352
-0.940439, 145, 97, 272, 224
-0.941131, 33, 97, 160, 224
-0.941754, 129, 81, 375, 208
-0.942109, 129, 369, 375, 496
-0.943889, 1, 209, 128, 336
-0.944825, 201, 241, 264, 368
-0.945311, 161, 241, 288, 368
-0.945775, 113, 81, 176, 208
-0.946563, 193, 289, 256, 416
-0.947209, 129, 273, 375, 400
-0.9479, 177, 241, 240, 368
-0.948313, 153, 337, 216, 464
-0.9484, 1, 161, 128, 288
-0.948561, 177, 201, 240, 264
-0.948868, 241, 129, 368, 384
-0.949749, 105, 161, 168, 288
-0.949936, 217, 161, 280, 224
-0.950193, 177, 337, 240, 464
-0.950228, 41, 369, 104, 496
-0.950345, 145, 337, 272, 464
-0.950637, 177, 1, 304, 256
-0.950825, 49, 193, 112, 320
-0.951051, 129, 177, 192, 304
-0.951448, 145, 49, 272, 176
-0.952206, 177, 225, 240, 288
-0.952726, 65, 49, 192, 176
-0.953001, 209, 201, 272, 264
-0.95308, 113, 145, 240, 272
-0.953167, 217, 321, 280, 448
-0.95348, 89, 113, 152, 240
-0.953495, 161, 145, 288, 272
-0.954276, 225, 321, 352, 448
-0.954352, 185, 177, 248, 240
-0.95459, 121, 89, 184, 152
-0.954665, 81, 193, 144, 320
-0.954963, 233, 161, 296, 288
-0.955556, 1, 225, 64, 352
-0.955921, 209, 161, 336, 288
-0.955994, 137, 81, 200, 208
-0.956214, 1, 17, 128, 144
-0.956604, 209, 225, 336, 352
-0.956897, 145, 209, 208, 272
-0.956932, 225, 273, 352, 400
-0.956996, 193, 297, 256, 360
-0.957046, 25, 161, 88, 288
-0.957065, 145, 241, 208, 368
-0.957602, 233, 209, 296, 336
-0.958371, 97, 73, 160, 136
-0.958489, 145, 249, 208, 312
-0.958532, 145, 361, 208, 424
-0.958818, 129, 33, 375, 160
-0.958834, 161, 177, 224, 240
-0.959169, 65, 129, 128, 256
-0.959598, 153, 145, 216, 272
-0.959713, 41, 409, 104, 472
-0.959848, 129, 289, 256, 416
-0.960003, 209, 273, 272, 336
-0.960167, 169, 337, 232, 400
-0.960552, 169, 289, 232, 416
-0.960842, 129, 145, 192, 208
-0.960956, 177, 249, 240, 312
-0.96101, 89, 49, 152, 176
-0.961064, 233, 185, 296, 248
-0.961684, 225, 113, 288, 240
-0.961694, 17, 369, 144, 496
-0.961707, 241, 289, 304, 416
-0.962215, 81, 369, 208, 496
-0.962311, 81, 97, 208, 224
-0.962449, 121, 169, 184, 232
-0.962942, 49, 193, 176, 320
-0.963158, 177, 273, 240, 336
-0.963256, 17, 369, 80, 496
-0.963434, 225, 369, 352, 496
-0.963466, 201, 329, 264, 392
-0.963548, 1, 1, 64, 128
-0.96366, 129, 1, 256, 128
-0.96389, 233, 329, 296, 392
-0.963901, 49, 273, 176, 400
-0.964014, 25, 209, 88, 336
-0.964376, 217, 305, 280, 368
-0.964595, 217, 225, 280, 288
-0.964641, 201, 249, 264, 312
-0.965044, 17, 369, 80, 432
-0.965533, 265, 305, 328, 432
-0.965911, 1, 273, 64, 400
-0.966054, 201, 361, 264, 424
-0.966179, 185, 129, 248, 256
-0.966308, 129, 113, 192, 176
-0.966565, 169, 377, 232, 440
-0.96704, 1, 17, 64, 80
-0.967162, 225, 113, 352, 240
-0.967202, 129, 97, 192, 352
-0.967387, 49, 1, 112, 128
-0.967441, 65, 1, 192, 128
-0.967773, 173, 161, 204, 288
-0.967905, 217, 137, 280, 200
-0.968354, 137, 425, 200, 488
-0.968463, 229, 169, 260, 232
-0.968553, 57, 209, 120, 272
-0.968665, 49, 193, 112, 448
-0.968701, 265, 225, 328, 352
-0.968715, 41, 377, 104, 440
-0.968756, 149, 113, 180, 240
-0.968765, 201, 161, 264, 416
-0.968998, 81, 193, 144, 256
-0.969, 153, 137, 216, 200
-0.96911, 193, 217, 224, 280
-0.96941, 1, 145, 64, 272
-0.969773, 137, 81, 168, 208
-0.969802, 113, 33, 176, 160
-0.969977, 177, 161, 240, 416
-0.970135, 105, 65, 168, 320
-0.970261, 145, 337, 208, 400
-0.970296, 241, 225, 304, 288
-0.970367, 49, 433, 112, 496
-0.970485, 257, 161, 320, 288
-0.970627, 17, 153, 80, 216
-0.97068, 181, 209, 212, 272
-0.970767, 153, 129, 216, 384
-0.970908, 41, 273, 104, 400
-0.971007, 257, 289, 320, 352
-0.971059, 129, 369, 192, 496
-0.971095, 105, 161, 168, 416
-0.971545, 281, 297, 344, 360
-0.971593, 217, 185, 248, 248
-0.971693, 129, 161, 256, 224
-0.97174, 305, 289, 368, 416
-0.971813, 209, 209, 240, 336
-0.971895, 169, 425, 232, 488
-0.971961, 185, 209, 216, 336
-0.972023, 113, 257, 176, 384
-0.972094, 201, 169, 232, 232
-0.972158, 209, 289, 240, 416
-0.972173, 65, 257, 128, 320
-0.97233, 161, 169, 192, 232
-0.972355, 105, 241, 168, 304
-0.97237, 145, 289, 208, 416
-0.972371, 161, 129, 192, 256
-0.972459, 65, 241, 128, 368
-0.972798, 41, 177, 104, 240
-0.9729, 181, 233, 212, 296
-0.973078, 225, 249, 288, 312
-0.973252, 33, 281, 96, 344
-0.973324, 17, 321, 80, 448
-0.973341, 73, 57, 136, 120
-0.973347, 25, 161, 88, 416
-0.973409, 105, 121, 168, 184
-0.973412, 257, 313, 320, 376
-0.973425, 197, 161, 228, 288
-0.973437, 221, 177, 252, 304
-0.973451, 145, 201, 272, 264
-0.973484, 241, 145, 304, 208
-0.973641, 233, 305, 264, 432
-0.973925, 221, 273, 252, 400
-0.973938, 185, 257, 216, 320
-0.973963, 89, 369, 152, 496
-0.974017, 9, 97, 72, 224
-0.974048, 65, 81, 192, 144
-0.97417, 81, 185, 208, 248
-0.97433, 233, 273, 296, 336
-0.974395, 257, 265, 320, 328
-0.974406, 65, 321, 192, 448
-0.97451, 137, 81, 168, 144
-0.974522, 169, 201, 200, 264
-0.974612, 281, 321, 344, 384
-0.974626, 145, 97, 272, 160
-0.974654, 161, 225, 288, 288
-0.974656, 289, 241, 352, 368
-0.974883, 81, 257, 208, 320
-0.975039, 25, 1, 88, 128
-0.97513, 49, 369, 80, 432
-0.97514, 241, 177, 272, 240
-0.975159, 169, 233, 200, 296
-0.975167, 145, 337, 272, 400
-0.975198, 1, 273, 128, 400
-0.975248, 233, 161, 264, 288
-0.975286, 33, 425, 160, 488
-0.975298, 257, 185, 320, 248
-0.975298, 265, 209, 328, 272
-0.9753, 49, 81, 112, 208
-0.975386, 157, 145, 188, 208
-0.97546, 145, 161, 176, 224
-0.97558, 25, 25, 88, 88
-0.97558, 17, 1, 80, 256
-0.975594, 141, 105, 172, 168
-0.975594, 89, 425, 152, 488
-0.975601, 25, 257, 88, 320
-0.975627, 9, 49, 72, 176
-0.975666, 237, 145, 268, 208
-0.975671, 197, 209, 228, 336
-0.975731, 193, 337, 224, 464
-0.975803, 177, 153, 240, 216
-0.975845, 145, 385, 208, 448
-0.975883, 113, 225, 240, 288
-0.975974, 197, 257, 228, 384
-0.975991, 81, 65, 144, 320
-0.976102, 49, 369, 80, 496
-0.97616, 49, 353, 112, 416
-0.976228, 193, 17, 256, 144
-0.976264, 1, 129, 64, 384
-0.97629, 237, 209, 268, 272
-0.976389, 201, 369, 264, 496
-0.976408, 233, 313, 264, 376
-0.976422, 217, 161, 248, 224
-0.976454, 225, 353, 288, 416
-0.976661, 257, 361, 320, 424
-0.976669, 205, 201, 236, 264
-0.976781, 241, 337, 304, 464
-0.976813, 161, 257, 224, 500
-0.976907, 225, 193, 288, 448
-0.977006, 161, 361, 288, 424
-0.977048, 177, 177, 208, 240
-0.977054, 225, 49, 352, 176
-0.977143, 169, 353, 200, 480
-0.977175, 133, 129, 164, 256
-0.977289, 233, 121, 264, 184
-0.977289, 49, 153, 176, 216
-0.977335, 161, 249, 288, 312
-0.977444, 65, 161, 128, 224
-0.977477, 237, 113, 268, 240
-0.97755, 81, 433, 208, 496
-0.977554, 125, 73, 156, 136
-0.977555, 17, 233, 80, 296
-0.977573, 257, 273, 288, 400
-0.977577, 205, 337, 236, 464
-0.977607, 181, 337, 212, 464
-0.977669, 237, 209, 268, 336
-0.977689, 81, 161, 144, 416
-0.97769, 49, 33, 112, 288
-0.977733, 129, 65, 192, 128
-0.977736, 193, 257, 256, 500
-0.977805, 169, 297, 232, 360
-0.977839, 41, 1, 104, 64
-0.977886, 77, 425, 108, 488
-0.977991, 129, 137, 256, 200
-0.978143, 73, 281, 136, 344
-0.978194, 1, 169, 128, 232
-0.9783, 305, 281, 368, 344
-0.978375, 197, 273, 228, 336
-0.978426, 117, 113, 148, 240
-0.978437, 137, 225, 200, 480
-0.978443, 17, 393, 80, 456
-0.978444, 289, 337, 352, 464
-0.978491, 81, 1, 144, 128
-0.978495, 201, 241, 232, 304
-0.978504, 121, 353, 184, 416
-0.978505, 177, 169, 304, 232
-0.978617, 137, 17, 200, 144
-0.978667, 249, 201, 280, 264
-0.978696, 1, 273, 64, 336
-0.978697, 77, 193, 108, 320
-0.978715, 253, 321, 284, 448
-0.978767, 97, 97, 160, 160
-0.978934, 1, 225, 128, 288
-0.978989, 153, 113, 216, 176
-0.979044, 57, 321, 120, 448
-0.979098, 189, 185, 220, 248
-0.979125, 121, 329, 184, 392
-0.979157, 65, 105, 192, 168
-0.979253, 49, 49, 112, 112
-0.979278, 153, 273, 216, 336
-0.979287, 249, 113, 312, 240
-0.979303, 241, 257, 272, 384
-0.979332, 113, 433, 176, 496
-0.979367, 193, 65, 256, 320
-0.979576, 209, 1, 336, 128
-0.979765, 113, 369, 240, 432
-0.979779, 205, 297, 236, 360
-0.979823, 89, 241, 152, 368
-0.979857, 177, 305, 304, 368
-0.97987, 17, 1, 80, 500
-0.979908, 185, 161, 216, 288
-0.979921, 177, 401, 240, 464
-0.979937, 33, 201, 160, 264
-0.979964, 241, 113, 304, 176
-0.979964, 141, 41, 172, 104
-0.979984, 105, 305, 168, 432
-0.980006, 249, 177, 280, 304
-0.980019, 209, 65, 272, 192
-0.980066, 1, 49, 128, 112
-0.980084, 225, 377, 288, 440
-0.98009, 145, 137, 176, 200
-0.980165, 1, 241, 32, 368
-0.980181, 217, 297, 248, 360
-0.980202, 201, 385, 264, 448
-0.980235, 153, 177, 184, 304
-0.980285, 73, 385, 136, 448
-0.980301, 193, 193, 320, 256
-0.980359, 1, 225, 64, 480
-0.980472, 41, 1, 104, 500
-0.980495, 225, 337, 352, 400
-0.980497, 169, 257, 200, 320
-0.980603, 185, 289, 216, 416
-0.980621, 161, 353, 192, 416
-0.980696, 257, 225, 320, 480
-0.98071, 177, 377, 208, 440
-0.980717, 121, 217, 184, 280
-0.980722, 153, 65, 184, 192
-0.980768, 253, 177, 284, 240
-0.980792, 193, 273, 320, 336
-0.980875, 153, 73, 216, 136
-0.980942, 49, 393, 80, 456
-0.980979, 125, 65, 156, 192
-0.981006, 9, 297, 72, 360
-0.981113, 81, 401, 208, 464
-0.981117, 281, 345, 344, 408
-0.981157, 209, 113, 272, 176
-0.981218, 157, 217, 188, 280
-0.98128, 113, 65, 144, 128
-0.981292, 185, 281, 216, 344
-0.981376, 65, 57, 192, 120
-0.981395, 105, 273, 168, 336
-0.981402, 173, 209, 204, 336
-0.981403, 129, 41, 192, 104
-0.98141, 145, 73, 272, 136
-0.981478, 221, 209, 252, 272
-0.981485, 33, 401, 160, 464
-0.98152, 49, 161, 80, 288
-0.981565, 89, 193, 120, 320
-0.981596, 225, 145, 352, 208
-0.981598, 65, 1, 128, 500
-0.981669, 297, 313, 328, 376
-0.981723, 249, 145, 280, 208
-0.981883, 229, 273, 260, 336
-0.981914, 149, 65, 180, 128
-0.982103, 129, 41, 256, 104
-0.982176, 293, 305, 324, 432
-0.982301, 153, 97, 184, 160
-0.98233, 217, 65, 280, 320
-0.982344, 225, 225, 352, 288
-0.982557, 65, 361, 192, 424
-0.982568, 105, 145, 168, 208
-0.982593, 5, 1, 36, 64
-0.982617, 25, 257, 88, 500
-0.982621, 65, 209, 96, 336
-0.982627, 257, 321, 288, 384
-0.982654, 105, 177, 136, 304
-0.982663, 97, 129, 128, 256
-0.982672, 185, 337, 216, 400
-0.982678, 121, 1, 184, 500
-0.982703, 141, 33, 172, 160
-0.982706, 97, 169, 160, 232
-0.982716, 9, 49, 72, 112
-0.982787, 133, 161, 164, 224
-0.982792, 197, 377, 228, 440
-0.982911, 253, 225, 284, 352
-0.982919, 253, 297, 284, 360
-0.982965, 161, 409, 288, 472
-0.982983, 149, 345, 180, 408
-0.982988, 145, 281, 272, 344
-0.983022, 225, 401, 288, 464
-0.983038, 161, 97, 224, 224
-0.983042, 157, 121, 188, 184
-0.983181, 265, 241, 328, 304
-0.98322, 29, 17, 60, 80
-0.983257, 201, 1, 264, 500
-0.983269, 49, 129, 176, 192
-0.983283, 121, 161, 152, 288
-0.983442, 237, 353, 268, 480
-0.983491, 49, 25, 112, 88
-0.983505, 309, 273, 340, 400
-0.983523, 289, 161, 352, 288
-0.983598, 157, 193, 188, 256
-0.983649, 221, 225, 252, 352
-0.983662, 281, 377, 344, 440
-0.983724, 281, 257, 344, 500
-0.983737, 209, 265, 240, 328
-0.983819, 177, 145, 304, 208
-0.983871, 145, 305, 208, 368
-0.983877, 33, 209, 96, 272
-0.983885, 153, 337, 184, 464
-0.984001, 281, 185, 344, 248
-0.98403, 69, 185, 100, 248
-0.984055, 221, 329, 252, 392
-0.984058, 209, 361, 336, 424
-0.984073, 73, 1, 136, 64
-0.98415, 249, 129, 280, 256
-0.984191, 241, 361, 272, 424
-0.984272, 233, 1, 296, 128
-0.984277, 241, 337, 272, 400
-0.984291, 257, 337, 320, 400
-0.984301, 265, 225, 296, 288
-0.98432, 1, 73, 128, 136
-0.984321, 129, 433, 256, 496
-0.984331, 33, 281, 160, 344
-0.984351, 249, 385, 312, 448
-0.984395, 81, 201, 112, 264
-0.984419, 201, 73, 264, 136
-0.984467, 173, 337, 204, 400
-0.984483, 313, 305, 375, 368
-0.984502, 97, 345, 160, 408
-0.98454, 193, 41, 256, 104
-0.984584, 165, 81, 196, 208
-0.984598, 9, 425, 72, 488
-0.984601, 245, 121, 276, 184
-0.984655, 33, 249, 160, 312
-0.984677, 137, 1, 200, 256
-0.984695, 225, 297, 352, 360
-0.984743, 225, 169, 352, 232
-0.984755, 61, 393, 92, 456
-0.98484, 185, 9, 248, 72
-0.984881, 313, 225, 375, 352
-0.984909, 65, 225, 192, 288
-0.984943, 49, 425, 80, 488
-0.984983, 269, 289, 300, 416
-0.98499, 265, 353, 328, 480
-0.985048, 269, 241, 300, 368
-0.985076, 125, 97, 156, 160
-0.985169, 209, 161, 240, 288
-0.985184, 45, 257, 76, 320
-0.985227, 309, 289, 340, 352
-0.985272, 241, 385, 368, 448
-0.985316, 21, 17, 52, 144
-0.985353, 33, 145, 64, 272
-0.985388, 81, 145, 112, 272
-0.985396, 305, 361, 368, 424
-0.9854, 33, 385, 64, 448
-0.985405, 17, 225, 48, 352
-0.985483, 305, 329, 368, 392
-0.985501, 1, 265, 32, 328
-0.985501, 129, 17, 256, 80
-0.98552, 5, 1, 36, 128
-0.985646, 309, 329, 340, 392
-0.985674, 221, 337, 252, 464
-0.985725, 25, 289, 56, 352
-0.985792, 193, 401, 224, 464
-0.985813, 13, 145, 44, 272
-0.985828, 97, 1, 160, 500
-0.985839, 65, 33, 192, 96
-0.985892, 97, 337, 224, 400
-0.985937, 17, 345, 80, 408
-0.985943, 93, 193, 124, 256
-0.986044, 133, 177, 164, 304
-0.986066, 97, 281, 224, 344
-0.986073, 17, 257, 48, 320
-0.986093, 181, 153, 212, 216
-0.986101, 225, 121, 352, 184
-0.986138, 293, 241, 324, 368
-0.986162, 281, 265, 344, 328
-0.986174, 69, 1, 100, 128
-0.986183, 1, 241, 32, 304
-0.986226, 57, 177, 88, 240
-0.986259, 65, 161, 96, 288
-0.986382, 65, 89, 128, 152
-0.986407, 45, 225, 76, 352
-0.986435, 97, 49, 160, 112
-0.986447, 281, 161, 344, 224
-0.986509, 133, 137, 164, 200
-0.986565, 161, 49, 224, 176
-0.986571, 113, 377, 176, 440
-0.986639, 1, 17, 128, 80
-0.986707, 9, 73, 72, 136
-0.986721, 113, 65, 144, 192
-0.986727, 57, 233, 120, 296
-0.986728, 17, 377, 144, 440
-0.986758, 241, 89, 304, 152
-0.986862, 89, 257, 152, 500
-0.986883, 41, 1, 72, 64
-0.986895, 221, 33, 252, 160
-0.986945, 249, 241, 280, 304
-0.986965, 17, 321, 144, 448
-0.986985, 201, 409, 264, 472
-0.986997, 101, 49, 132, 176
-0.987021, 193, 385, 320, 448
-0.987044, 149, 433, 180, 496
-0.987111, 121, 401, 184, 464
-0.987159, 233, 233, 264, 296
-0.987173, 57, 249, 88, 312
-0.987185, 261, 273, 292, 336
-0.987192, 181, 425, 212, 488
-0.987237, 89, 401, 120, 464
-0.9873, 101, 57, 132, 120
-0.987302, 93, 249, 124, 312
-0.987302, 73, 369, 104, 496
-0.987345, 121, 169, 152, 232
-0.987365, 121, 193, 184, 256
-0.987471, 225, 89, 352, 152
-0.987565, 9, 201, 72, 264
-0.9876, 49, 137, 112, 200
-0.987608, 49, 337, 176, 400
-0.987661, 265, 193, 296, 320
-0.987745, 49, 9, 176, 72
-0.987768, 129, 313, 256, 376
-0.987769, 313, 337, 344, 464
-0.987776, 29, 433, 60, 496
-0.987807, 169, 209, 232, 240
-0.987807, 153, 41, 184, 104
-0.987836, 205, 329, 236, 392
-0.987861, 213, 241, 244, 304
-0.987872, 289, 345, 320, 408
-0.987888, 169, 305, 200, 432
-0.987915, 1, 97, 128, 160
-0.987917, 281, 225, 312, 352
-0.987921, 289, 225, 352, 288
-0.988049, 273, 313, 304, 376
-0.988077, 105, 193, 136, 256
-0.988082, 37, 353, 68, 480
-0.988101, 145, 225, 176, 288
-0.988144, 17, 177, 80, 240
-0.988157, 165, 257, 196, 384
-0.988159, 169, 221, 232, 252
-0.988174, 169, 313, 200, 376
-0.988199, 37, 289, 68, 352
-0.988206, 113, 257, 176, 500
-0.988259, 41, 161, 72, 224
-0.988264, 169, 181, 232, 212
-0.988356, 209, 225, 272, 256
-0.988367, 109, 273, 140, 336
-0.988377, 225, 1, 288, 500
-0.988384, 169, 237, 232, 268
-0.988416, 305, 225, 336, 352
-0.988425, 189, 313, 220, 376
-0.988443, 129, 241, 160, 304
-0.98851, 29, 289, 60, 416
-0.988548, 209, 201, 272, 232
-0.988623, 141, 241, 172, 368
-0.988674, 97, 257, 128, 384
-0.988694, 241, 193, 368, 256
-0.988733, 37, 361, 68, 424
-0.98877, 177, 257, 240, 288
-0.988865, 201, 353, 232, 416
-0.988879, 313, 353, 344, 416
-0.988881, 29, 153, 60, 216
-0.988905, 241, 273, 368, 336
-0.988907, 145, 369, 208, 400
-0.988912, 9, 145, 40, 208
-0.988934, 121, 145, 152, 208
-0.988944, 201, 213, 264, 244
-0.988979, 33, 161, 288, 224
-0.989003, 57, 273, 88, 336
-0.989015, 81, 1, 112, 128
-0.98903, 157, 241, 188, 304
-0.989038, 209, 173, 272, 204
-0.989045, 137, 169, 200, 200
-0.989051, 313, 337, 375, 464
-0.989052, 241, 265, 272, 328
-0.989077, 81, 289, 144, 416
-0.989091, 109, 273, 140, 400
-0.989117, 177, 193, 240, 224
-0.98915, 153, 197, 216, 228
-0.989152, 229, 361, 260, 424
-0.989193, 161, 433, 192, 496
-0.989233, 49, 305, 80, 432
-0.989247, 41, 25, 72, 88
-0.989287, 121, 185, 184, 216
-0.989306, 65, 369, 128, 496
-0.98931, 209, 249, 336, 312
-0.98933, 21, 233, 52, 296
-0.989396, 137, 433, 168, 496
-0.989401, 65, 417, 96, 480
-0.989509, 93, 369, 124, 496
-0.98952, 145, 257, 208, 288
-0.989558, 129, 265, 160, 328
-0.989572, 1, 97, 32, 224
-0.989577, 41, 417, 104, 448
-0.989578, 285, 297, 316, 360
-0.98961, 233, 65, 264, 192
-0.989615, 217, 189, 280, 220
-0.989622, 221, 129, 252, 192
-0.989628, 149, 321, 180, 384
-0.989662, 281, 209, 312, 272
-0.989667, 209, 17, 336, 80
-0.989679, 33, 1, 64, 128
-0.989682, 217, 113, 248, 240
-0.989726, 145, 229, 208, 260
-0.98974, 17, 25, 48, 88
-0.989793, 277, 345, 308, 408
-0.989793, 241, 209, 304, 240
-0.989802, 89, 73, 152, 104
-0.989805, 257, 129, 320, 384
-0.989845, 209, 321, 272, 352
-0.989875, 73, 385, 104, 448
-0.989882, 41, 401, 104, 432
-0.98989, 209, 57, 336, 120
-0.989895, 121, 85, 184, 116
-0.989924, 169, 361, 232, 392
-0.989943, 217, 297, 280, 328
-0.989945, 121, 105, 184, 136
-0.990054, 145, 181, 208, 212
-0.990101, 281, 273, 312, 400
-0.990111, 81, 313, 208, 376
-0.990133, 1, 193, 32, 320
-0.990177, 85, 241, 116, 368
-0.990178, 129, 1, 160, 128
-0.990188, 161, 381, 224, 412
-0.990215, 141, 353, 172, 480
-0.990232, 1, 25, 64, 56
-0.99027, 233, 309, 296, 340
-0.990273, 193, 241, 256, 272
-0.990298, 77, 49, 108, 176
-0.990304, 129, 345, 375, 408
-0.990339, 113, 73, 176, 104
-0.990381, 145, 245, 208, 276
-0.990398, 41, 389, 104, 420
-0.990412, 145, 269, 208, 300
-0.990415, 81, 61, 144, 92
-0.990436, 233, 169, 296, 200
-0.990452, 57, 469, 120, 500
-0.990471, 61, 337, 92, 464
-0.990498, 161, 169, 224, 200
-0.990504, 241, 189, 304, 220
-0.990544, 193, 277, 256, 308
-0.990561, 145, 1, 208, 500
-0.990564, 145, 349, 208, 380
-0.990567, 121, 117, 184, 148
-0.99058, 41, 429, 104, 460
-0.99059, 1, 145, 128, 208
-0.990606, 13, 97, 44, 224
-0.990617, 121, 461, 184, 492
-0.990635, 257, 225, 320, 256
-0.990664, 33, 225, 64, 352
-0.990677, 17, 377, 80, 408
-0.990689, 193, 301, 256, 332
-0.990698, 89, 49, 120, 176
-0.990699, 33, 137, 288, 200
-0.9907, 97, 461, 160, 492
-0.990727, 145, 217, 208, 248
-0.990735, 201, 369, 264, 400
-0.990736, 233, 229, 296, 260
-0.990761, 137, 149, 200, 180
-0.990794, 25, 465, 88, 496
-0.990803, 201, 253, 264, 284
-0.990803, 49, 441, 112, 472
-0.990836, 25, 285, 88, 316
-0.99086, 1, 121, 128, 184
-0.990866, 241, 149, 304, 180
-0.990893, 57, 249, 120, 280
-0.990902, 73, 457, 136, 488
-0.990935, 137, 137, 200, 168
-0.990976, 121, 369, 184, 400
-0.990986, 185, 113, 216, 240
-0.990991, 233, 321, 296, 352
-0.991011, 57, 53, 120, 84
-0.99102, 1, 285, 64, 316
-0.991031, 57, 189, 120, 220
-0.991031, 89, 285, 152, 316
-0.991031, 233, 337, 296, 368
-0.991037, 185, 169, 248, 200
-0.991059, 265, 321, 328, 352
-0.991059, 41, 373, 104, 404
-0.991094, 49, 457, 112, 488
-0.991108, 137, 381, 200, 412
-0.991121, 137, 449, 200, 480
-0.991134, 209, 161, 272, 192
-0.991152, 233, 261, 296, 292
-0.991159, 1, 201, 256, 264
-0.991184, 209, 341, 272, 372
-0.991197, 9, 405, 72, 436
-0.991204, 1, 13, 64, 44
-0.991209, 57, 257, 88, 384
-0.991253, 169, 349, 232, 380
-0.991259, 217, 241, 280, 272
-0.991262, 65, 401, 128, 432
-0.991263, 81, 197, 144, 228
-0.9913, 209, 133, 272, 164
-0.991301, 145, 465, 208, 496
-0.991316, 25, 297, 88, 328
-0.991322, 113, 129, 176, 160
-0.991327, 97, 85, 160, 116
-0.991349, 113, 385, 176, 416
-0.99135, 17, 389, 80, 420
-0.991351, 273, 273, 336, 304
-0.991352, 177, 121, 304, 184
-0.991354, 185, 289, 248, 320
-0.991358, 1, 145, 32, 272
-0.991369, 121, 357, 184, 388
-0.991374, 269, 337, 300, 464
-0.991381, 105, 257, 168, 288
-0.991427, 25, 169, 88, 200
-0.99145, 145, 109, 208, 140
-0.99145, 257, 297, 320, 328
-0.99145, 113, 273, 176, 304
-0.991454, 257, 253, 320, 284
-0.991462, 113, 153, 176, 184
-0.991469, 177, 337, 240, 368
-0.991479, 65, 81, 320, 144
-0.99148, 297, 161, 360, 416
-0.991484, 217, 277, 280, 308
-0.991513, 257, 285, 320, 316
-0.991514, 281, 285, 344, 316
-0.991517, 145, 97, 208, 128
-0.991524, 65, 277, 128, 308
-0.991529, 1, 153, 375, 216
-0.991541, 305, 289, 368, 320
-0.991565, 65, 209, 128, 240
-0.99159, 9, 241, 72, 272
-0.991617, 9, 157, 72, 188
-0.991623, 265, 213, 328, 244
-0.99163, 105, 245, 168, 276
-0.99166, 225, 361, 288, 392
-0.991666, 89, 437, 152, 468
-0.991676, 233, 49, 296, 176
-0.99169, 145, 393, 208, 424
-0.991708, 177, 317, 240, 348
-0.991709, 97, 105, 160, 136
-0.991721, 185, 381, 248, 412
-0.991743, 113, 61, 176, 92
-0.991752, 161, 289, 224, 320
-0.991752, 113, 173, 176, 204
-0.991756, 129, 113, 375, 176
-0.991767, 209, 409, 336, 472
-0.991802, 225, 405, 288, 436
-0.991811, 25, 261, 88, 292
-0.991813, 333, 289, 364, 416
-0.991822, 25, 453, 88, 484
-0.991824, 153, 289, 184, 416
-0.991826, 209, 265, 272, 296
-0.991827, 33, 33, 96, 64
-0.991838, 265, 309, 328, 340
-0.991841, 1, 273, 256, 336
-0.991849, 161, 437, 224, 468
-0.991852, 1, 305, 64, 336
-0.991856, 241, 273, 304, 304
-0.991931, 221, 205, 252, 236
-0.991955, 193, 209, 224, 240
-0.991997, 33, 33, 288, 96
-0.992099, 1, 177, 375, 240
-0.992103, 197, 221, 228, 252
-0.992104, 233, 193, 264, 224
-0.992125, 193, 237, 224, 268
-0.992196, 233, 173, 264, 204
-0.992221, 233, 205, 264, 236
-0.992254, 129, 137, 375, 200
-0.99226, 129, 257, 160, 384
-0.992271, 193, 257, 224, 288
-0.992273, 1, 209, 375, 272
-0.992278, 185, 221, 216, 252
-0.992284, 281, 337, 312, 464
-0.992303, 173, 217, 204, 248
-0.992312, 57, 17, 88, 144
-0.992313, 157, 369, 188, 400
-0.992328, 181, 197, 212, 228
-0.99235, 245, 213, 276, 244
-0.992385, 33, 113, 288, 176
-0.992391, 173, 241, 204, 272
-0.99241, 201, 189, 232, 220
-0.992417, 245, 201, 276, 232
-0.992436, 1, 305, 128, 368
-0.992441, 205, 281, 236, 312
-0.992442, 161, 177, 192, 208
-0.992469, 245, 173, 276, 204
-0.992496, 209, 213, 240, 244
-0.992497, 65, 369, 320, 432
-0.99251, 165, 257, 196, 288
-0.992517, 217, 193, 248, 224
-0.992519, 153, 357, 184, 388
-0.992528, 217, 173, 248, 204
-0.992532, 137, 85, 168, 116
-0.99254, 1, 225, 256, 288
-0.992542, 205, 297, 236, 328
-0.992543, 133, 173, 164, 204
-0.992546, 313, 177, 375, 304
-0.992556, 229, 161, 260, 192
-0.992558, 181, 185, 212, 216
-0.992558, 169, 205, 200, 236
-0.992564, 149, 113, 180, 144
-0.992574, 145, 169, 176, 200
-0.992585, 49, 393, 80, 424
-0.992595, 253, 333, 284, 364
-0.992595, 161, 221, 192, 252
-0.9926, 177, 257, 208, 288
-0.992606, 45, 373, 76, 404
-0.992608, 233, 225, 264, 256
-0.99262, 221, 301, 252, 332
-0.992623, 213, 229, 244, 260
-0.992623, 241, 317, 272, 348
-0.992624, 241, 161, 272, 192
-0.992625, 245, 185, 276, 216
-0.992634, 161, 137, 192, 168
-0.992651, 53, 405, 84, 436
-0.992651, 161, 381, 192, 412
-0.99266, 225, 313, 256, 344
-0.992668, 181, 169, 212, 200
-0.992669, 125, 77, 156, 108
-0.992688, 213, 325, 244, 356
-0.992694, 233, 129, 264, 160
-0.992695, 129, 233, 375, 296
-0.992695, 173, 229, 204, 260
-0.992697, 213, 249, 244, 280
-0.992706, 129, 193, 375, 256
-0.992713, 129, 161, 375, 224
-0.992715, 33, 9, 288, 72
-0.99272, 197, 177, 228, 208
-0.992734, 185, 289, 216, 320
-0.992744, 193, 269, 224, 300
-0.992752, 205, 201, 236, 232
-0.992757, 225, 325, 256, 356
-0.992758, 145, 157, 176, 188
-0.99277, 173, 385, 204, 416
-0.99278, 197, 333, 228, 364
-0.992785, 249, 149, 280, 180
-0.992789, 169, 189, 200, 220
-0.99279, 153, 101, 184, 132
-0.992793, 113, 69, 144, 100
-0.992804, 137, 97, 168, 128
-0.992818, 113, 281, 144, 312
-0.992829, 157, 165, 188, 196
-0.992834, 141, 377, 172, 408
-0.992836, 77, 457, 108, 488
-0.99284, 101, 65, 132, 96
-0.992843, 293, 193, 324, 320
-0.99285, 257, 209, 288, 240
-0.992858, 173, 349, 204, 380
-0.992859, 177, 369, 208, 400
-0.992865, 97, 185, 224, 216
-0.992865, 247, 185, 262, 248
-0.99287, 137, 109, 168, 140
-0.992874, 237, 365, 268, 396
-0.992885, 205, 261, 236, 292
-0.992897, 269, 321, 300, 352
-0.992907, 153, 225, 184, 352
-0.992924, 233, 141, 264, 172
-0.992925, 201, 185, 216, 248
-0.992926, 245, 125, 276, 156
-0.992929, 145, 217, 272, 248
-0.992933, 201, 321, 232, 352
-0.992942, 145, 125, 176, 156
-0.992946, 257, 189, 288, 220
-0.992947, 157, 149, 188, 180
-0.992947, 221, 217, 252, 248
-0.992962, 57, 469, 88, 500
-0.992965, 217, 161, 248, 192
-0.992966, 53, 417, 84, 448
-0.99297, 181, 177, 196, 240
-0.992976, 237, 337, 268, 368
-0.992977, 157, 89, 188, 120
-0.992978, 1, 1, 32, 32
-0.99298, 245, 273, 276, 304
-0.992981, 69, 397, 100, 428
-0.992982, 65, 113, 96, 240
-0.992984, 185, 333, 216, 364
-0.992985, 205, 361, 236, 392
-0.992988, 29, 25, 60, 56
-0.992991, 205, 165, 236, 196
-0.992991, 37, 297, 68, 328
-0.992995, 37, 465, 68, 496
-0.992996, 225, 289, 256, 320
-0.992999, 265, 285, 296, 316
-0.992999, 125, 461, 156, 492
-0.993, 89, 205, 120, 236
-0.993002, 153, 249, 184, 280
-0.993004, 177, 269, 208, 300
-0.993006, 141, 61, 172, 92
-0.993008, 1, 273, 32, 304
-0.993009, 145, 73, 176, 104
-0.99301, 293, 313, 324, 344
-0.99301, 185, 381, 216, 412
-0.993011, 33, 409, 64, 440
-0.993014, 257, 305, 288, 336
-0.993018, 249, 225, 280, 256
-0.99302, 161, 457, 192, 488
-0.993021, 141, 357, 172, 388
-0.993023, 113, 189, 144, 220
-0.993032, 153, 49, 184, 80
-0.993041, 101, 277, 132, 308
-0.993045, 305, 309, 336, 340
-0.993053, 241, 305, 272, 336
-0.993053, 69, 421, 100, 452
-0.993059, 141, 445, 172, 476
-0.993064, 145, 29, 176, 60
-0.993065, 205, 373, 236, 404
-0.993067, 309, 297, 340, 328
-0.993067, 89, 61, 120, 92
-0.993069, 205, 309, 236, 340
-0.99307, 45, 165, 76, 196
-0.993081, 149, 465, 180, 496
-0.993084, 253, 349, 284, 380
-0.993125, 1, 257, 375, 320
-0.993161, 193, 209, 208, 272
-0.993176, 173, 177, 188, 240
-0.993295, 129, 321, 375, 384
-0.99332, 65, 57, 320, 120
-0.993376, 137, 305, 168, 432
-0.993395, 33, 97, 64, 224
-0.99342, 183, 241, 198, 304
-0.99344, 13, 273, 44, 400
-0.993441, 195, 177, 210, 240
-0.993465, 161, 177, 288, 208
-0.99352, 177, 153, 192, 216
-0.993536, 169, 1, 232, 500
-0.99363, 265, 145, 296, 272
-0.993656, 227, 161, 242, 224
-0.993658, 129, 165, 256, 196
-0.993672, 305, 257, 368, 500
-0.993683, 249, 81, 280, 208
-0.993687, 255, 177, 270, 240
-0.993717, 199, 225, 214, 288
-0.99374, 97, 269, 224, 300
-0.99375, 177, 209, 192, 272
-0.993778, 249, 369, 280, 496
-0.993943, 49, 469, 176, 500
-0.993946, 305, 177, 336, 304
-0.993954, 145, 205, 272, 236
-0.993957, 161, 161, 176, 224
-0.99396, 247, 153, 262, 216
-0.994011, 1, 433, 256, 496
-0.994015, 1, 281, 375, 344
-0.994036, 187, 193, 202, 256
-0.994044, 167, 169, 182, 232
-0.994048, 241, 177, 256, 240
-0.994049, 229, 185, 244, 248
-0.994089, 65, 393, 320, 456
-0.99411, 221, 201, 236, 264
-0.994116, 1, 233, 375, 296
-0.994141, 209, 249, 224, 312
-0.99419, 161, 33, 224, 288
-0.99421, 203, 265, 218, 328
-0.994213, 171, 209, 186, 272
-0.994239, 145, 113, 272, 144
-0.994254, 45, 17, 76, 144
-0.994267, 1, 289, 32, 416
-0.994272, 77, 97, 108, 224
-0.994289, 1, 129, 375, 192
-0.994295, 177, 189, 304, 220
-0.994368, 1, 353, 128, 416
-0.994374, 209, 1, 240, 128
-0.994401, 211, 169, 226, 232
-0.994401, 211, 217, 226, 280
-0.994436, 159, 137, 174, 200
-0.99446, 143, 81, 158, 144
-0.994463, 161, 229, 288, 260
-0.994473, 161, 257, 288, 288
-0.994495, 1, 33, 375, 96
-0.994496, 129, 349, 256, 380
-0.994522, 149, 153, 164, 216
-0.994522, 167, 345, 182, 408
-0.994525, 69, 257, 100, 384
-0.994545, 97, 197, 224, 228
-0.994575, 33, 345, 288, 408
-0.994578, 177, 233, 192, 296
-0.994593, 211, 273, 226, 336
-0.994596, 129, 257, 375, 320
-0.994617, 33, 249, 288, 312
-0.99462, 97, 281, 352, 344
-0.994638, 53, 361, 68, 424
-0.994639, 195, 249, 210, 312
-0.994658, 249, 209, 264, 272
-0.994659, 245, 33, 276, 160
-0.994694, 239, 209, 254, 272
-0.994698, 161, 369, 288, 400
-0.994708, 65, 93, 192, 124
-0.994778, 179, 345, 194, 408
-0.994782, 297, 353, 328, 480
-0.994788, 81, 321, 112, 448
-0.994829, 239, 153, 254, 216
-0.994851, 153, 97, 168, 160
-0.994857, 113, 229, 240, 260
-0.99486, 261, 169, 276, 232
-0.994867, 81, 457, 208, 488
-0.994873, 121, 209, 152, 336
-0.994889, 241, 33, 304, 288
-0.994904, 221, 161, 236, 224
-0.994911, 113, 369, 240, 400
-0.994914, 171, 145, 186, 208
-0.994916, 317, 209, 348, 336
-0.994927, 201, 289, 216, 352
-0.994942, 145, 101, 272, 132
-0.994948, 221, 289, 236, 352
-0.994968, 161, 245, 288, 276
-0.994972, 65, 105, 192, 136
-0.994975, 205, 225, 220, 288
-0.994976, 211, 329, 226, 392
-0.994999, 189, 249, 204, 312
-0.995014, 53, 97, 84, 224
-0.995019, 345, 273, 375, 400
-0.995019, 177, 277, 304, 308
-0.995044, 1, 49, 32, 176
-0.995058, 213, 297, 228, 360
-0.995069, 145, 137, 272, 168
-0.995085, 33, 457, 160, 488
-0.995085, 1, 1, 16, 64
-0.995101, 209, 321, 336, 352
-0.99511, 49, 165, 176, 196
-0.995121, 183, 217, 198, 280
-0.995127, 165, 193, 180, 256
-0.99513, 159, 81, 174, 144
-0.995161, 113, 241, 240, 272
-0.99518, 255, 209, 270, 272
-0.995212, 187, 169, 202, 232
-0.995212, 131, 73, 146, 136
-0.99523, 33, 305, 288, 368
-0.99524, 249, 129, 264, 192
-0.995243, 261, 193, 276, 256
-0.995244, 1, 53, 128, 84
-0.995245, 235, 185, 250, 248
-0.995273, 193, 205, 320, 236
-0.995277, 97, 281, 224, 312
-0.995312, 207, 297, 222, 360
-0.995338, 209, 237, 336, 268
-0.995347, 255, 153, 270, 216
-0.99536, 59, 377, 74, 440
-0.99537, 247, 313, 262, 376
-0.995375, 249, 1, 312, 500
-0.995397, 225, 265, 240, 328
-0.995397, 155, 161, 170, 224
-0.995423, 65, 81, 192, 112
-0.995446, 151, 57, 166, 120
-0.995459, 311, 297, 326, 360
-0.995477, 185, 337, 200, 400
-0.995503, 43, 17, 58, 80
-0.995531, 1, 369, 375, 432
-0.995532, 1, 89, 375, 152
-0.995542, 1, 9, 375, 72
-0.995542, 65, 125, 192, 156
-0.995547, 217, 233, 232, 296
-0.995554, 81, 445, 208, 476
-0.995579, 217, 265, 232, 328
-0.99558, 167, 105, 182, 168
-0.995581, 49, 185, 176, 216
-0.995596, 161, 385, 288, 416
-0.995597, 257, 321, 272, 384
-0.995625, 257, 297, 272, 360
-0.99563, 137, 81, 152, 144
-0.995643, 207, 193, 222, 256
-0.99565, 177, 225, 208, 480
-0.995659, 49, 257, 176, 288
-0.995667, 1, 57, 375, 120
-0.995667, 313, 129, 375, 256
-0.995673, 3, 25, 18, 88
-0.995685, 45, 385, 60, 448
-0.995685, 145, 125, 272, 156
-0.995693, 233, 161, 248, 224
-0.9957, 193, 289, 320, 320
-0.995715, 173, 361, 188, 424
-0.995718, 237, 129, 252, 192
-0.995723, 17, 429, 144, 460
-0.99573, 227, 297, 242, 360
-0.995739, 161, 105, 176, 168
-0.995752, 263, 305, 278, 368
-0.995752, 63, 249, 78, 312
-0.995766, 209, 309, 336, 340
-0.995771, 151, 121, 166, 184
-0.995801, 321, 161, 352, 288
-0.995818, 157, 345, 172, 408
-0.995827, 209, 169, 336, 200
-0.995832, 1, 181, 128, 212
-0.995838, 113, 381, 240, 412
-0.995847, 165, 81, 180, 144
-0.995854, 243, 273, 258, 336
-0.995861, 129, 153, 256, 184
-0.995862, 141, 65, 172, 320
-0.995867, 171, 241, 186, 304
-0.995873, 41, 281, 56, 344
-0.995879, 17, 65, 144, 96
-0.995881, 191, 377, 206, 440
-0.99589, 165, 129, 180, 192
-0.995912, 193, 217, 320, 248
-0.995932, 145, 89, 272, 120
-0.99594, 195, 305, 210, 368
-0.99594, 197, 393, 212, 456
-0.995941, 35, 289, 50, 352
-0.995941, 129, 425, 375, 488
-0.995952, 177, 433, 304, 496
-0.995953, 97, 257, 224, 288
-0.995986, 15, 265, 30, 328
-0.995991, 49, 281, 176, 312
-0.995995, 241, 97, 256, 160
-0.996005, 65, 209, 192, 240
-0.996027, 165, 217, 180, 280
-0.996036, 11, 241, 26, 304
-0.996058, 173, 321, 188, 384
-0.99606, 201, 161, 216, 224
-0.996062, 103, 249, 118, 312
-0.996074, 217, 193, 248, 448
-0.996075, 97, 469, 224, 500
-0.996075, 1, 265, 128, 296
-0.996077, 33, 413, 160, 444
-0.996087, 179, 433, 194, 496
-0.9961, 239, 321, 254, 384
-0.996101, 145, 77, 272, 108
-0.996143, 141, 137, 156, 200
-0.996171, 7, 1, 22, 64
-0.996182, 33, 153, 160, 184
-0.996189, 187, 409, 202, 472
-0.996198, 129, 33, 256, 64
-0.996199, 149, 33, 164, 96
-0.996204, 219, 313, 234, 376
-0.996205, 139, 169, 154, 232
-0.996229, 209, 153, 336, 184
-0.996236, 229, 209, 244, 272
-0.996238, 233, 97, 264, 352
-0.996244, 81, 417, 96, 480
-0.996252, 159, 49, 174, 112
-0.996254, 205, 193, 236, 448
-0.996255, 17, 441, 144, 472
-0.996283, 159, 185, 174, 248
-0.996283, 177, 337, 304, 368
-0.996292, 267, 193, 282, 256
-0.996298, 177, 129, 192, 192
-0.996302, 125, 65, 156, 320
-0.996304, 209, 369, 336, 400
-0.996321, 179, 369, 194, 432
-0.996337, 21, 233, 36, 296
-0.996342, 161, 321, 288, 352
-0.996344, 269, 305, 284, 368
-0.996347, 223, 337, 238, 400
-0.996358, 193, 273, 208, 336
-0.996363, 113, 273, 128, 336
-0.996386, 157, 129, 188, 384
-0.996389, 65, 365, 192, 396
-0.996391, 145, 249, 160, 312
-0.996395, 129, 405, 256, 436
-0.996397, 1, 193, 128, 224
-0.996397, 251, 337, 266, 400
-0.996398, 267, 225, 282, 288
-0.996404, 65, 429, 192, 460
-0.996431, 265, 145, 280, 208
-0.996438, 53, 409, 68, 472
-0.996456, 225, 125, 352, 156
-0.996467, 1, 469, 128, 500
-0.996467, 209, 229, 224, 260
-0.996481, 321, 321, 336, 384
-0.996484, 257, 345, 272, 408
-0.996488, 177, 257, 192, 320
-0.996501, 125, 65, 140, 128
-0.996509, 241, 389, 368, 420
-0.996519, 49, 393, 176, 424
-0.99652, 241, 233, 256, 296
-0.996533, 49, 197, 176, 228
-0.996547, 189, 225, 220, 480
-0.996554, 229, 189, 244, 220
-0.996566, 129, 293, 256, 324
-0.996574, 145, 309, 272, 340
-0.996585, 105, 161, 136, 416
-0.996586, 49, 377, 176, 408
-0.996603, 169, 217, 184, 248
-0.996604, 241, 285, 368, 316
-0.996639, 1, 241, 128, 272
-0.996681, 205, 241, 220, 272
-0.9967, 129, 21, 256, 52
-0.996704, 1, 329, 128, 392
-0.996724, 237, 173, 252, 204
-0.996783, 89, 97, 120, 352
-0.996786, 65, 137, 192, 168
-0.996787, 45, 161, 76, 416
-0.996791, 225, 141, 352, 172
-0.996824, 117, 161, 148, 416
-0.99683, 225, 193, 352, 224
-0.996832, 185, 185, 200, 216
-0.996833, 65, 69, 192, 100
-0.996839, 1, 1, 128, 32
-0.996841, 177, 129, 208, 384
-0.996857, 253, 165, 268, 196
-0.996867, 221, 33, 252, 288
-0.996873, 225, 333, 352, 364
-0.996877, 197, 189, 212, 220
-0.996886, 247, 161, 262, 192
-0.996886, 237, 193, 268, 448
-0.996892, 223, 197, 238, 228
-0.996895, 33, 293, 160, 324
-0.996906, 113, 33, 144, 288
-0.996935, 133, 161, 164, 416
-0.996942, 247, 213, 262, 244
-0.996955, 175, 217, 190, 248
-0.996963, 49, 221, 176, 252
-0.996963, 21, 1, 52, 256
-0.996967, 65, 37, 192, 68
-0.996973, 1, 417, 375, 480
-0.997003, 129, 45, 256, 76
-0.997023, 57, 161, 88, 416
-0.997059, 197, 177, 212, 208
-0.997061, 155, 165, 170, 196
-0.997062, 199, 229, 214, 260
-0.997066, 69, 193, 100, 448
-0.997071, 225, 273, 352, 304
-0.997076, 237, 209, 252, 240
-0.997087, 193, 205, 208, 236
-0.997122, 81, 417, 208, 448
-0.997123, 179, 189, 194, 220
-0.997125, 209, 357, 336, 388
-0.997132, 129, 33, 375, 96
-0.997152, 213, 249, 228, 280
-0.997159, 101, 33, 132, 288
-0.99716, 203, 217, 218, 248
-0.997161, 199, 241, 214, 272
-0.997162, 165, 225, 196, 480
-0.997162, 225, 105, 352, 136
-0.997168, 1, 329, 375, 392
-0.99717, 191, 185, 206, 216
-0.997171, 149, 169, 164, 200
-0.997171, 225, 181, 352, 212
-0.997208, 191, 221, 206, 252
-0.997209, 153, 33, 184, 288
-0.997221, 173, 181, 188, 212
-0.997222, 145, 461, 272, 492
-0.997223, 183, 241, 198, 272
-0.997224, 49, 257, 80, 500
-0.997228, 247, 177, 262, 208
-0.997236, 195, 253, 210, 284
-0.997239, 179, 177, 194, 208
-0.99724, 77, 33, 108, 288
-0.997245, 1, 213, 128, 244
-0.99725, 257, 177, 272, 208
-0.997255, 247, 189, 262, 220
-0.997262, 1, 393, 375, 456
-0.997263, 251, 149, 266, 180
-0.997269, 209, 217, 224, 248
-0.997271, 229, 177, 244, 208
-0.997272, 247, 201, 262, 232
-0.997272, 249, 193, 280, 448
-0.997286, 281, 113, 344, 240
-0.997286, 199, 205, 214, 236
-0.997311, 181, 257, 196, 288
-0.997317, 177, 237, 192, 268
-0.997319, 21, 129, 52, 384
-0.997321, 185, 197, 200, 228
-0.997321, 183, 217, 198, 248
-0.997322, 229, 201, 244, 232
-0.997326, 205, 253, 220, 284
-0.997327, 177, 397, 304, 428
-0.997341, 219, 229, 234, 260
-0.99735, 209, 409, 336, 440
-0.997354, 203, 181, 218, 212
-0.997361, 1, 101, 128, 132
-0.997374, 177, 161, 192, 192
-0.997376, 241, 157, 256, 188
-0.997377, 177, 349, 192, 380
-0.997396, 37, 1, 68, 256
-0.997409, 209, 249, 336, 280
-0.997418, 93, 193, 124, 448
-0.99743, 167, 121, 182, 152
-0.997433, 153, 153, 168, 184
-0.997435, 223, 185, 238, 216
-0.997436, 129, 65, 256, 96
-0.997452, 191, 241, 206, 272
-0.997456, 1, 229, 128, 260
-0.997459, 167, 177, 182, 208
-0.99746, 113, 277, 128, 308
-0.997469, 9, 129, 40, 384
-0.997475, 175, 249, 190, 280
-0.997478, 145, 161, 176, 416
-0.997485, 143, 165, 158, 196
-0.997485, 221, 209, 236, 240
-0.997496, 81, 193, 112, 448
-0.997497, 81, 353, 208, 384
-0.997511, 49, 369, 64, 400
-0.997527, 237, 193, 252, 224
-0.997529, 209, 265, 224, 296
-0.997532, 257, 205, 272, 236
-0.997535, 195, 285, 210, 316
-0.997554, 259, 333, 274, 364
-0.997562, 247, 225, 262, 256
-0.997566, 215, 213, 230, 244
-0.997569, 33, 129, 64, 384
-0.997571, 241, 205, 368, 236
-0.997582, 65, 245, 192, 276
-0.997588, 187, 257, 202, 288
-0.997592, 157, 109, 172, 140
-0.997594, 157, 49, 172, 80
-0.997596, 197, 217, 212, 248
-0.997603, 169, 229, 184, 260
-0.997604, 177, 421, 304, 452
-0.997617, 1, 305, 128, 336
-0.997645, 1, 277, 128, 308
-0.997648, 203, 193, 218, 224
-0.997651, 213, 177, 228, 208
-0.997664, 167, 93, 182, 124
-0.997668, 221, 297, 236, 328
-0.997669, 159, 85, 174, 116
-0.99767, 245, 133, 260, 164
-0.997687, 161, 385, 176, 416
-0.997691, 209, 53, 336, 84
-0.997696, 169, 365, 184, 396
-0.997701, 171, 353, 186, 384
-0.997712, 1, 77, 128, 108
-0.997714, 81, 49, 208, 80
-0.997715, 217, 285, 232, 316
-0.997719, 207, 277, 222, 308
-0.997723, 1, 225, 32, 480
-0.997726, 257, 189, 272, 220
-0.997731, 65, 1, 96, 256
-0.997737, 161, 169, 176, 200
-0.997738, 273, 1, 336, 500
-0.99774, 141, 245, 156, 276
-0.997743, 203, 169, 218, 200
-0.997743, 205, 321, 220, 352
-0.997746, 49, 25, 176, 56
-0.997751, 239, 221, 254, 252
-0.997752, 179, 205, 194, 236
-0.997758, 1, 21, 16, 52
-0.997759, 151, 29, 166, 60
-0.997771, 173, 205, 188, 236
-0.997773, 1, 41, 128, 72
-0.997789, 155, 357, 170, 388
-0.99779, 235, 161, 250, 192
-0.997791, 163, 369, 178, 400
-0.997793, 129, 429, 256, 460
-0.997793, 173, 193, 188, 224
-0.997796, 213, 301, 228, 332
-0.997797, 217, 321, 232, 352
-0.997817, 149, 261, 164, 292
-0.997821, 149, 93, 164, 124
-0.997825, 41, 285, 56, 316
-0.997828, 187, 269, 202, 300
-0.997828, 209, 37, 336, 68
-0.997829, 169, 249, 184, 280
-0.997841, 1, 393, 128, 424
-0.997846, 225, 93, 352, 124
-0.997847, 225, 309, 240, 340
-0.997847, 1, 169, 128, 200
-0.997848, 43, 25, 58, 56
-0.997849, 35, 289, 50, 320
-0.99785, 251, 317, 266, 348
-0.997851, 31, 469, 46, 500
-0.997851, 17, 89, 144, 120
-0.997853, 147, 377, 162, 408
-0.997859, 151, 73, 166, 104
-0.997864, 179, 369, 194, 400
-0.997864, 167, 105, 182, 136
-0.997865, 129, 333, 256, 364
-0.997868, 293, 257, 324, 500
-0.99787, 241, 225, 368, 256
-0.997886, 53, 381, 68, 412
-0.997886, 139, 81, 154, 112
-0.997887, 201, 289, 216, 320
-0.997901, 193, 129, 224, 384
-0.997901, 163, 217, 178, 248
-0.997903, 209, 289, 224, 320
-0.997905, 259, 165, 274, 196
-0.99791, 129, 9, 256, 40
-0.99791, 17, 113, 144, 144
-0.997911, 257, 153, 272, 184
-0.997911, 185, 229, 200, 260
-0.997911, 261, 317, 276, 348
-0.997912, 81, 153, 208, 184
-0.997915, 191, 385, 206, 416
-0.997915, 269, 225, 300, 480
-0.997915, 3, 1, 18, 32
-0.997921, 271, 313, 286, 344
-0.997923, 97, 393, 224, 424
-0.997926, 155, 373, 170, 404
-0.997936, 223, 281, 238, 312
-0.997938, 255, 217, 270, 248
-0.997945, 145, 109, 160, 140
-0.997946, 159, 153, 174, 184
-0.997956, 237, 313, 252, 344
-0.997957, 167, 189, 182, 220
-0.997961, 193, 417, 208, 448
-0.997987, 193, 13, 320, 44
-0.997987, 209, 77, 336, 108
-0.997987, 81, 405, 208, 436
-0.997999, 65, 233, 192, 264
-0.998007, 1, 141, 128, 172
-0.998019, 209, 65, 336, 96
-0.998022, 193, 25, 320, 56
-0.998073, 49, 33, 80, 288
-0.998098, 1, 1, 32, 256
-0.99816, 1, 305, 375, 368
-0.998197, 17, 225, 48, 480
-0.99821, 33, 225, 64, 480
-0.998316, 145, 257, 176, 500
-0.998362, 209, 201, 272, 216
-0.998364, 183, 161, 198, 288
-0.998378, 209, 207, 272, 222
-0.998379, 185, 197, 248, 212
-0.998391, 169, 225, 232, 240
-0.998401, 169, 231, 232, 246
-0.998415, 209, 231, 272, 246
-0.998415, 177, 259, 240, 274
-0.998419, 177, 243, 240, 258
-0.998426, 241, 433, 368, 496
-0.998427, 165, 33, 196, 288
-0.998428, 169, 269, 200, 284
-0.998429, 169, 191, 232, 206
-0.99843, 233, 341, 264, 356
-0.99843, 145, 101, 176, 116
-0.998431, 169, 235, 200, 250
-0.998431, 209, 213, 272, 228
-0.998432, 209, 267, 240, 282
-0.998432, 185, 337, 216, 352
-0.998433, 177, 247, 208, 262
-0.998433, 129, 85, 160, 100
-0.998434, 217, 237, 248, 252
-0.998435, 221, 193, 252, 208
-0.998436, 169, 211, 232, 226
-0.998437, 53, 419, 84, 434
-0.998437, 117, 73, 148, 88
-0.998438, 245, 229, 276, 244
-0.998439, 157, 111, 188, 126
-0.998439, 233, 367, 264, 382
-0.998439, 1, 277, 32, 292
-0.998439, 149, 253, 180, 268
-0.99844, 265, 331, 296, 346
-0.99844, 201, 183, 264, 198
-0.998441, 213, 325, 244, 340
-0.998441, 149, 179, 180, 194
-0.998442, 161, 165, 192, 180
-0.998442, 205, 377, 236, 392
-0.998442, 149, 363, 180, 378
-0.998442, 113, 281, 144, 296
-0.998444, 181, 253, 212, 268
-0.998444, 257, 239, 288, 254
-0.998444, 161, 219, 224, 234
-0.998445, 209, 193, 272, 208
-0.998445, 205, 179, 236, 194
-0.998446, 217, 245, 248, 260
-0.998447, 129, 257, 160, 272
-0.998447, 145, 79, 176, 94
-0.998448, 213, 273, 244, 288
-0.998448, 181, 265, 212, 280
-0.998448, 209, 225, 272, 240
-0.998449, 313, 1, 375, 500
-0.99845, 185, 203, 248, 218
-0.99845, 161, 185, 224, 200
-0.998451, 221, 297, 252, 312
-0.998451, 161, 137, 192, 152
-0.998452, 129, 179, 192, 194
-0.998453, 121, 185, 184, 200
-0.998454, 125, 79, 156, 94
-0.998455, 205, 295, 236, 310
-0.998456, 245, 155, 276, 170
-0.998456, 149, 87, 180, 102
-0.998456, 177, 251, 240, 266
-0.998456, 221, 313, 252, 328
-0.998458, 201, 339, 232, 354
-0.99846, 165, 389, 196, 404
-0.998468, 53, 407, 84, 422
-0.998473, 161, 183, 192, 198
-0.998473, 157, 371, 188, 386
-0.998474, 165, 213, 196, 228
-0.998474, 185, 291, 216, 306
-0.998475, 145, 167, 176, 182
-0.998475, 45, 375, 76, 390
-0.998475, 53, 413, 84, 428
-0.998476, 209, 171, 240, 186
-0.998476, 161, 197, 192, 212
-0.998478, 253, 335, 284, 350
-0.998479, 249, 201, 280, 216
-0.99848, 233, 133, 264, 148
-0.99848, 185, 199, 216, 214
-0.998481, 249, 215, 280, 230
-0.998482, 45, 387, 76, 402
-0.998484, 153, 357, 184, 372
-0.998484, 177, 385, 208, 400
-0.998484, 233, 229, 264, 244
-0.998484, 233, 227, 296, 242
-0.998485, 145, 257, 208, 272
-0.998486, 169, 207, 200, 222
-0.998487, 213, 231, 244, 246
-0.998488, 237, 169, 268, 184
-0.998489, 205, 251, 236, 266
-0.998491, 217, 213, 248, 228
-0.998491, 225, 165, 256, 180
-0.998492, 153, 263, 216, 278
-0.998493, 153, 201, 216, 216
-0.998495, 209, 203, 240, 218
-0.998495, 157, 223, 188, 238
-0.998496, 189, 277, 220, 292
-0.998497, 173, 241, 204, 256
-0.998499, 49, 397, 80, 412
-0.9985, 241, 189, 304, 204
-0.998502, 181, 221, 212, 236
-0.998502, 209, 301, 240, 316
-0.998503, 215, 225, 230, 352
-0.998503, 193, 283, 224, 298
-0.998505, 169, 237, 232, 252
-0.998505, 153, 179, 216, 194
-0.998506, 161, 263, 192, 278
-0.998507, 161, 177, 192, 192
-0.998508, 225, 309, 288, 324
-0.998509, 145, 239, 208, 254
-0.99851, 173, 177, 204, 192
-0.998511, 145, 227, 208, 242
-0.998513, 121, 113, 184, 128
-0.998513, 221, 319, 252, 334
-0.998513, 185, 219, 248, 234
-0.998513, 165, 191, 196, 206
-0.998515, 217, 171, 280, 186
-0.998516, 233, 221, 264, 236
-0.998516, 233, 203, 296, 218
-0.998518, 201, 245, 232, 260
-0.998519, 121, 119, 184, 134
-0.998519, 245, 183, 276, 198
-0.998522, 157, 381, 188, 396
-0.998523, 209, 219, 272, 234
-0.998523, 137, 173, 200, 188
-0.998524, 41, 425, 104, 440
-0.998524, 137, 373, 200, 388
-0.998524, 217, 177, 248, 192
-0.998525, 221, 201, 252, 216
-0.998525, 185, 279, 248, 294
-0.998526, 193, 259, 224, 274
-0.998526, 121, 83, 184, 98
-0.998527, 193, 301, 256, 316
-0.998528, 237, 161, 268, 176
-0.998528, 225, 177, 288, 192
-0.998529, 201, 257, 264, 272
-0.998529, 305, 289, 368, 304
-0.99853, 245, 221, 276, 236
-0.998531, 169, 369, 232, 384
-0.998532, 145, 115, 176, 130
-0.998535, 237, 215, 268, 230
-0.998536, 185, 265, 248, 280
-0.998536, 169, 253, 200, 268
-0.998538, 193, 193, 224, 208
-0.998539, 145, 121, 176, 136
-0.998539, 225, 183, 288, 198
-0.998539, 193, 269, 224, 284
-0.998539, 201, 211, 232, 226
-0.998539, 169, 375, 232, 390
-0.998539, 201, 277, 232, 292
-0.99854, 41, 403, 104, 418
-0.998541, 229, 185, 260, 200
-0.998541, 129, 381, 192, 396
-0.998542, 1, 29, 64, 44
-0.998542, 121, 77, 184, 92
-0.998543, 133, 181, 164, 196
-0.998544, 209, 237, 272, 252
-0.998544, 209, 251, 272, 266
-0.998544, 97, 471, 160, 486
-0.998546, 201, 177, 264, 192
-0.998546, 113, 191, 176, 206
-0.998547, 145, 233, 208, 248
-0.998547, 169, 227, 200, 242
-0.998548, 145, 361, 208, 376
-0.998548, 217, 373, 280, 388
-0.998548, 233, 221, 296, 236
-0.998548, 245, 175, 276, 190
-0.998548, 189, 177, 220, 192
-0.99855, 161, 171, 192, 186
-0.998551, 41, 431, 104, 446
-0.998553, 185, 237, 216, 252
-0.998553, 249, 189, 280, 204
-0.998554, 41, 419, 104, 434
-0.998554, 217, 317, 280, 332
-0.998554, 233, 209, 296, 224
-0.998555, 209, 331, 272, 346
-0.998555, 185, 285, 248, 300
-0.998555, 217, 221, 248, 236
-0.998558, 249, 209, 280, 224
-0.998559, 57, 473, 120, 488
-0.998559, 137, 163, 200, 178
-0.998559, 41, 443, 104, 458
-0.99856, 145, 269, 208, 284
-0.998562, 201, 291, 264, 306
-0.998564, 217, 303, 280, 318
-0.998564, 121, 107, 184, 122
-0.998565, 201, 325, 264, 340
-0.998565, 241, 321, 304, 336
-0.998565, 161, 383, 224, 398
-0.998565, 209, 191, 240, 206
-0.998565, 129, 125, 192, 140
-0.998566, 25, 289, 88, 304
-0.998567, 233, 191, 264, 206
-0.998568, 41, 413, 104, 428
-0.998569, 173, 199, 204, 214
-0.99857, 209, 245, 272, 260
-0.99857, 137, 251, 200, 266
-0.998571, 233, 215, 296, 230
-0.998571, 41, 397, 104, 412
-0.998572, 249, 337, 312, 352
-0.998572, 273, 287, 336, 302
-0.998572, 229, 177, 260, 192
-0.998574, 233, 343, 296, 358
-0.998574, 185, 271, 248, 286
-0.998575, 1, 289, 64, 304
-0.998575, 89, 1, 120, 256
-0.998576, 89, 75, 152, 90
-0.998577, 145, 191, 208, 206
-0.998579, 177, 171, 240, 186
-0.99858, 121, 469, 184, 484
-0.99858, 201, 231, 232, 246
-0.998581, 185, 341, 248, 356
-0.998584, 129, 367, 192, 382
-0.998585, 169, 363, 232, 378
-0.998586, 121, 89, 184, 104
-0.998586, 81, 69, 144, 84
-0.998586, 265, 319, 328, 334
-0.998587, 225, 337, 288, 352
-0.998588, 173, 183, 204, 198
-0.998589, 257, 233, 320, 248
-0.99859, 201, 185, 232, 200
-0.99859, 105, 259, 168, 274
-0.99859, 245, 97, 276, 352
-0.99859, 65, 467, 128, 482
-0.998591, 145, 389, 208, 404
-0.998591, 153, 81, 168, 208
-0.998591, 137, 157, 200, 172
-0.998591, 257, 227, 320, 242
-0.998591, 181, 193, 212, 208
-0.998591, 233, 239, 296, 254
-0.998591, 225, 293, 288, 308
-0.998593, 193, 319, 256, 334
-0.998593, 113, 95, 176, 110
-0.998594, 217, 165, 280, 180
-0.998595, 137, 461, 200, 476
-0.998595, 137, 141, 200, 156
-0.998597, 233, 195, 296, 210
-0.998597, 89, 83, 152, 98
-0.998597, 41, 391, 104, 406
-0.998598, 181, 205, 212, 220
-0.998598, 177, 259, 208, 274
-0.998598, 145, 173, 176, 188
-0.998599, 225, 171, 256, 186
-0.998599, 145, 355, 208, 370
-0.9986, 25, 299, 88, 314
-0.998601, 209, 273, 272, 288
-0.998601, 25, 471, 88, 486
-0.998601, 49, 453, 112, 468
-0.998602, 177, 307, 240, 322
-0.998603, 241, 265, 304, 280
-0.998603, 241, 273, 304, 288
-0.998603, 237, 205, 268, 220
-0.998603, 169, 221, 200, 236
-0.998604, 17, 383, 80, 398
-0.998605, 193, 253, 224, 268
-0.998605, 41, 375, 104, 390
-0.998605, 145, 275, 208, 290
-0.998605, 217, 145, 280, 160
-0.998605, 9, 375, 72, 390
-0.99861, 193, 193, 208, 320
-0.998616, 251, 129, 266, 256
-0.998619, 197, 239, 228, 254
-0.998628, 197, 221, 228, 236
-0.998628, 237, 197, 268, 212
-0.998629, 189, 245, 220, 260
-0.998633, 221, 207, 252, 222
-0.998636, 177, 215, 208, 230
-0.998637, 189, 187, 220, 202
-0.99864, 205, 193, 220, 320
-0.998652, 257, 161, 272, 288
-0.998653, 221, 193, 236, 320
-0.998657, 189, 213, 220, 228
-0.998657, 209, 241, 224, 368
-0.998658, 181, 231, 212, 246
-0.998703, 243, 161, 258, 288
-0.998737, 141, 81, 156, 208
-0.998749, 177, 161, 192, 288
-0.998787, 309, 257, 340, 500
-0.998814, 187, 209, 202, 336
-0.998822, 195, 321, 210, 448
-0.998829, 159, 113, 174, 240
-0.99883, 199, 209, 214, 336
-0.99884, 171, 129, 186, 256
-0.998863, 231, 193, 246, 320
-0.998866, 241, 81, 256, 208
-0.998876, 221, 273, 236, 400
-0.998878, 205, 97, 236, 352
-0.998888, 133, 97, 148, 224
-0.998892, 211, 161, 226, 288
-0.998895, 149, 129, 164, 256
-0.998896, 171, 209, 186, 336
-0.998902, 183, 337, 198, 464
-0.99891, 227, 257, 242, 384
-0.998918, 211, 289, 226, 416
-0.998922, 161, 65, 176, 192
-0.99893, 255, 321, 270, 448
-0.998939, 235, 273, 250, 400
-0.998942, 55, 369, 70, 496
-0.998947, 199, 273, 214, 400
-0.998956, 129, 1, 375, 64
-0.998959, 247, 273, 262, 400
-0.998963, 147, 81, 162, 208
-0.998966, 205, 337, 220, 464
-0.998993, 237, 161, 252, 288
-0.999004, 191, 257, 206, 384
-0.999008, 155, 33, 170, 160
-0.999017, 145, 1, 160, 128
-0.999025, 249, 209, 264, 336
-0.999026, 243, 209, 258, 336
-0.999028, 95, 193, 110, 320
-0.999048, 179, 225, 194, 352
-0.999049, 165, 145, 180, 272
-0.999051, 249, 337, 264, 464
-0.999052, 243, 321, 258, 448
-0.999055, 263, 305, 278, 432
-0.999065, 205, 289, 220, 416
-0.999065, 127, 113, 142, 240
-0.999069, 259, 257, 274, 384
-0.999074, 109, 193, 124, 320
-0.999075, 115, 97, 130, 224
-0.999077, 147, 177, 162, 304
-0.999084, 143, 129, 158, 256
-0.999089, 199, 369, 214, 496
-0.9991, 293, 161, 324, 416
-0.999102, 65, 209, 80, 336
-0.99911, 155, 161, 170, 288
-0.999116, 209, 1, 240, 256
-0.999116, 257, 97, 288, 352
-0.999117, 121, 113, 136, 240
-0.999118, 191, 369, 206, 496
-0.999126, 119, 177, 134, 304
-0.999126, 189, 321, 204, 448
-0.999133, 103, 193, 118, 320
-0.999134, 1, 1, 16, 128
-0.999135, 79, 193, 94, 320
-0.999139, 89, 193, 104, 320
-0.99914, 135, 161, 150, 288
-0.999142, 177, 353, 192, 480
-0.99915, 45, 353, 60, 480
-0.999155, 167, 81, 182, 208
-0.999177, 103, 129, 118, 256
-0.999179, 231, 337, 246, 464
-0.999179, 149, 241, 164, 368
-0.999186, 1, 241, 16, 368
-0.999196, 269, 225, 284, 352
-0.999196, 189, 145, 204, 272
-0.999197, 195, 145, 210, 272
-0.999197, 57, 161, 72, 288
-0.999198, 177, 113, 192, 240
-0.999202, 205, 145, 220, 272
-0.999205, 257, 209, 272, 336
-0.999212, 241, 273, 256, 400
-0.999216, 281, 257, 312, 500
-0.999217, 49, 145, 64, 272
-0.999217, 85, 1, 100, 128
-0.999222, 225, 337, 240, 464
-0.999228, 129, 161, 144, 288
-0.999233, 237, 209, 252, 336
-0.999233, 13, 257, 28, 384
-0.999234, 41, 1, 56, 128
-0.999238, 237, 321, 252, 448
-0.99924, 233, 1, 264, 256
-0.999244, 65, 161, 80, 288
-0.999249, 263, 161, 278, 288
-0.999251, 53, 305, 68, 432
-0.999253, 113, 145, 128, 272
-0.999264, 233, 49, 248, 176
-0.999266, 171, 337, 186, 464
-0.999267, 173, 289, 188, 416
-0.999268, 183, 289, 198, 416
-0.999268, 119, 257, 134, 384
-0.999269, 43, 225, 58, 352
-0.999272, 313, 289, 328, 416
-0.999273, 163, 321, 178, 448
-0.999276, 7, 241, 22, 368
-0.999282, 21, 1, 36, 128
-0.999287, 71, 209, 86, 336
-0.999293, 77, 369, 92, 496
-0.999295, 253, 257, 268, 384
-0.999299, 305, 257, 320, 384
-0.999303, 39, 289, 54, 416
-0.999304, 97, 129, 112, 256
-0.99931, 55, 225, 70, 352
-0.999311, 31, 145, 46, 272
-0.999312, 37, 145, 52, 272
-0.999315, 113, 257, 128, 384
-0.999321, 13, 97, 28, 224
-0.999322, 307, 305, 322, 432
-0.999324, 71, 161, 86, 288
-0.999327, 231, 129, 246, 256
-0.999327, 165, 193, 180, 320
-0.99933, 31, 225, 46, 352
-0.999333, 61, 369, 76, 496
-0.999335, 155, 353, 170, 480
-0.999337, 313, 225, 328, 352
-0.999338, 223, 1, 238, 128
-0.999338, 269, 305, 284, 432
-0.999339, 15, 145, 30, 272
-0.999341, 215, 353, 230, 480
-0.999346, 21, 225, 36, 352
-0.999356, 127, 65, 142, 192
-0.999365, 277, 289, 292, 416
-0.999368, 109, 97, 124, 224
-0.999425, 117, 257, 148, 500
-0.999464, 245, 1, 276, 256
-0.99953, 129, 257, 160, 500
-0.999531, 305, 161, 336, 416
-0.999585, 269, 129, 300, 384
-0.999633, 281, 161, 312, 416
-0.999659, 167, 111, 182, 126
-0.999659, 241, 313, 256, 328
-0.99966, 259, 173, 274, 188
-0.999661, 213, 179, 228, 194
-0.999661, 163, 191, 178, 206
-0.999661, 243, 199, 258, 214
-0.999661, 73, 283, 88, 298
-0.999661, 193, 289, 208, 304
-0.999661, 209, 277, 224, 292
-0.999661, 165, 87, 180, 102
-0.999661, 203, 223, 218, 238
-0.999662, 13, 271, 28, 286
-0.999662, 173, 181, 188, 196
-0.999665, 165, 123, 180, 138
-0.999665, 223, 313, 238, 328
-0.999665, 155, 51, 170, 66
-0.999665, 157, 385, 172, 400
-0.999666, 235, 307, 250, 322
-0.999666, 239, 135, 254, 150
-0.999667, 171, 215, 186, 230
-0.999667, 29, 475, 44, 490
-0.999667, 243, 229, 258, 244
-0.999667, 149, 113, 164, 128
-0.999668, 191, 339, 206, 354
-0.999668, 249, 195, 264, 210
-0.999668, 199, 297, 214, 312
-0.999668, 177, 199, 192, 214
-0.999671, 261, 205, 276, 220
-0.999671, 219, 183, 234, 198
-0.999671, 145, 259, 160, 274
-0.999673, 229, 173, 244, 188
-0.999674, 219, 299, 234, 314
-0.999674, 113, 281, 128, 296
-0.999675, 239, 221, 254, 236
-0.999676, 201, 211, 216, 226
-0.999676, 251, 161, 266, 176
-0.999677, 249, 181, 264, 196
-0.999678, 49, 375, 64, 390
-0.99968, 185, 435, 200, 450
-0.99968, 169, 171, 184, 186
-0.999681, 163, 177, 178, 192
-0.999682, 229, 179, 244, 194
-0.999682, 199, 181, 214, 196
-0.999683, 245, 135, 260, 150
-0.999684, 219, 213, 234, 228
-0.999685, 257, 185, 272, 200
-0.999687, 183, 269, 198, 284
-0.999689, 237, 165, 252, 180
-0.999691, 149, 179, 164, 194
-0.999691, 213, 245, 228, 260
-0.999692, 179, 213, 194, 228
-0.999692, 259, 211, 274, 226
-0.999692, 179, 181, 194, 196
-0.999692, 223, 207, 238, 222
-0.999693, 239, 207, 254, 222
-0.999694, 207, 215, 222, 230
-0.999694, 161, 391, 176, 406
-0.999697, 159, 117, 174, 132
-0.999697, 251, 155, 266, 170
-0.999699, 219, 231, 234, 246
-0.999699, 245, 165, 260, 180
-0.9997, 141, 179, 156, 194
-0.999701, 265, 239, 280, 254
-0.999701, 193, 183, 208, 198
-0.999703, 209, 223, 224, 238
-0.999703, 153, 163, 168, 178
-0.999704, 163, 171, 178, 186
-0.999704, 189, 239, 204, 254
-0.999705, 189, 211, 204, 226
-0.999705, 183, 255, 198, 270
-0.999706, 177, 169, 192, 184
-0.999708, 177, 261, 192, 276
-0.999708, 223, 193, 238, 208
-0.99971, 155, 179, 170, 194
-0.999711, 257, 179, 272, 194
-0.999711, 223, 319, 238, 334
-0.999711, 195, 255, 210, 270
-0.999712, 205, 231, 220, 246
-0.999713, 159, 45, 174, 60
-0.999714, 249, 189, 264, 204
-0.999714, 235, 171, 250, 186
-0.999717, 191, 245, 206, 260
-0.999719, 241, 213, 256, 228
-0.999719, 167, 185, 182, 200
-0.999719, 203, 255, 218, 270
-0.999719, 249, 221, 264, 236
-0.99972, 189, 203, 204, 218
-0.999721, 209, 185, 224, 200
-0.999727, 253, 171, 268, 186
-0.999727, 241, 173, 256, 188
-0.999727, 249, 207, 264, 222
-0.999729, 175, 231, 190, 246
-0.99973, 213, 251, 228, 266
-0.999731, 257, 199, 272, 214
-0.999731, 149, 173, 164, 188
-0.999733, 175, 187, 190, 202
-0.999734, 195, 229, 210, 244
-0.999736, 229, 195, 244, 210
-0.999736, 177, 361, 192, 376
-0.999736, 187, 261, 202, 276
-0.999741, 175, 193, 190, 208
-0.999742, 185, 183, 200, 198
-0.999742, 189, 223, 204, 238
-0.999743, 245, 159, 260, 174
-0.999745, 187, 233, 202, 248
-0.999748, 197, 195, 212, 210
-0.999748, 167, 229, 182, 244
-0.999749, 233, 205, 248, 220
-0.99975, 247, 175, 262, 190
-0.999752, 195, 211, 210, 226
-0.999753, 199, 235, 214, 250
-0.999756, 199, 241, 214, 256
-0.999756, 179, 223, 194, 238
-0.99976, 223, 201, 238, 216
-0.999761, 165, 221, 180, 236
-0.999761, 155, 169, 170, 184
-0.999765, 329, 193, 360, 448
-0.999766, 195, 205, 210, 220
-0.999766, 211, 229, 226, 244
-0.999768, 203, 249, 218, 264
-0.999772, 247, 215, 262, 230
-0.999778, 181, 229, 196, 244
-0.999782, 199, 217, 214, 232
-0.999784, 185, 189, 200, 204
-0.999791, 189, 217, 204, 232
-0.999791, 173, 221, 188, 236
-0.999792, 187, 197, 202, 212
-0.999794, 229, 189, 244, 204
-0.999816, 203, 187, 218, 202
-0.999817, 209, 239, 224, 254
-0.999837, 193, 189, 208, 204
-0.999872, 341, 97, 372, 352
-1.00008, 105, 257, 136, 500
-1.0001, 317, 161, 348, 416
-1.00018, 297, 65, 360, 320
-1.0002, 177, 33, 208, 288
-1.00034, 189, 33, 220, 288
-1.00052, 305, 65, 336, 320
-1.00061, 285, 65, 316, 320
-1.00073, 341, 193, 372, 448
-1.00077, 317, 65, 348, 320
-1.00089, 337, 1, 368, 256
-1.00104, 329, 97, 360, 352
-1.00115, 261, 1, 292, 256
-1.00127, 273, 33, 304, 288
-1.00196, 257, 65, 320, 192
-1.00433, 273, 33, 336, 288
-1.00532, 305, 81, 368, 208
-1.00599, 185, 81, 248, 208
-1.00822, 161, 1, 224, 128
-1.00863, 281, 65, 344, 192
-1.00899, 305, 33, 368, 160
-1.00935, 273, 1, 336, 128
