1993
-0.354713, 1, 257, 375, 500
-0.553207, 1, 161, 375, 416
-0.568648, 1, 1, 375, 500
-0.597544, 33, 257, 288, 500
-0.613181, 33, 1, 288, 500
-0.658752, 129, 1, 375, 500
-0.671172, 65, 161, 320, 416
-0.683319, 1, 65, 375, 320
-0.74637, 129, 257, 375, 500
-0.813481, 1, 65, 256, 320
-0.879208, 1, 273, 375, 400
-0.883, 129, 161, 256, 416
-0.884496, 1, 257, 128, 500
-0.889599, 161, 257, 288, 500
-0.890359, 97, 1, 352, 256
-0.891877, 129, 1, 256, 500
-0.893706, 49, 257, 176, 500
-0.903786, 81, 97, 208, 352
-0.90932, 177, 1, 304, 500
-0.91027, 1, 321, 375, 448
-0.910998, 241, 225, 368, 480
-0.911205, 113, 257, 240, 500
-0.920959, 225, 1, 352, 500
-0.922376, 1, 1, 128, 500
-0.923216, 33, 273, 288, 400
-0.927509, 177, 97, 304, 352
-0.928255, 1, 209, 375, 336
-0.931313, 81, 1, 208, 500
-0.936513, 33, 145, 288, 272
-0.93936, 65, 209, 320, 336
-0.942672, 161, 129, 224, 256
-0.944456, 1, 161, 128, 416
-0.945256, 1, 369, 375, 496
-0.948398, 1, 289, 128, 416
-0.948594, 129, 113, 375, 240
-0.948668, 1, 97, 256, 224
-0.948844, 145, 177, 208, 304
-0.949532, 129, 273, 375, 400
-0.950597, 129, 1, 256, 256
-0.950727, 113, 145, 240, 272
-0.951858, 17, 305, 80, 432
-0.952473, 129, 193, 256, 320
-0.954562, 161, 137, 224, 200
-0.955504, 129, 97, 192, 224
-0.955815, 177, 1, 304, 256
-0.955893, 1, 97, 375, 224
-0.956648, 241, 289, 368, 416
-0.956868, 161, 273, 288, 400
-0.956994, 1, 161, 375, 288
-0.957629, 65, 321, 320, 448
-0.957928, 169, 177, 232, 304
-0.958075, 161, 161, 224, 224
-0.958229, 185, 97, 248, 224
-0.959299, 129, 161, 375, 288
-0.959427, 129, 97, 192, 160
-0.960963, 217, 273, 280, 400
-0.961215, 65, 257, 192, 384
-0.96155, 241, 129, 368, 384
-0.961554, 49, 1, 176, 256
-0.962827, 97, 65, 352, 192
-0.963363, 1, 65, 128, 320
-0.964677, 1, 353, 64, 480
-0.964825, 129, 369, 375, 496
-0.965029, 169, 185, 232, 248
-0.965681, 145, 185, 208, 248
-0.965768, 129, 145, 192, 208
-0.966299, 241, 241, 368, 368
-0.96669, 1, 337, 128, 464
-0.966984, 193, 209, 256, 336
-0.96721, 57, 273, 120, 400
-0.967347, 113, 257, 240, 384
-0.967428, 17, 313, 80, 376
-0.967486, 81, 193, 208, 320
-0.967908, 161, 81, 224, 208
-0.96833, 121, 209, 184, 336
-0.968358, 17, 257, 80, 384
-0.969015, 209, 369, 336, 496
-0.969953, 1, 345, 64, 408
-0.970655, 161, 97, 288, 224
-0.971288, 185, 145, 248, 208
-0.971412, 97, 97, 224, 224
-0.971432, 97, 257, 160, 384
-0.971598, 217, 273, 280, 336
-0.972107, 1, 49, 375, 176
-0.972783, 169, 161, 232, 416
-0.973394, 185, 105, 248, 168
-0.973492, 145, 97, 208, 352
-0.974035, 17, 273, 80, 336
-0.974173, 129, 121, 192, 184
-0.974388, 169, 225, 232, 352
-0.974443, 65, 273, 128, 336
-0.9745, 257, 289, 320, 416
-0.975193, 105, 97, 168, 224
-0.975497, 225, 1, 352, 256
-0.975666, 193, 145, 256, 272
-0.975996, 165, 129, 196, 256
-0.976451, 161, 145, 288, 272
-0.976534, 185, 129, 216, 256
-0.976553, 17, 257, 80, 500
-0.976578, 21, 305, 52, 432
-0.976678, 1, 369, 64, 432
-0.97684, 177, 209, 304, 336
-0.9769, 41, 289, 104, 352
-0.976986, 169, 81, 232, 144
-0.977288, 137, 49, 200, 176
-0.9775, 145, 225, 208, 352
-0.977896, 89, 265, 152, 328
-0.977981, 217, 257, 280, 500
-0.978402, 193, 185, 224, 248
-0.978628, 193, 97, 256, 352
-0.979037, 193, 273, 256, 400
-0.979177, 1, 225, 128, 352
-0.979415, 121, 169, 184, 232
-0.979424, 121, 257, 184, 384
-0.979521, 193, 177, 256, 240
-0.979532, 217, 209, 280, 336
-0.979832, 181, 137, 212, 200
-0.979832, 305, 353, 368, 480
-0.979944, 161, 321, 288, 448
-0.98004, 49, 97, 176, 224
-0.980099, 29, 313, 60, 376
-0.980147, 17, 345, 48, 408
-0.980154, 217, 321, 280, 448
-0.980502, 145, 209, 208, 272
-0.980541, 161, 273, 288, 336
-0.980673, 169, 185, 200, 248
-0.980743, 185, 161, 216, 224
-0.980764, 145, 137, 272, 200
-0.980816, 65, 257, 128, 500
-0.981013, 209, 129, 240, 256
-0.981153, 165, 129, 196, 192
-0.98122, 65, 273, 192, 336
-0.981236, 37, 305, 68, 432
-0.981294, 161, 177, 192, 304
-0.981506, 145, 73, 208, 136
-0.981661, 249, 369, 312, 496
-0.981716, 241, 289, 368, 352
-0.981775, 41, 257, 104, 500
-0.981776, 185, 49, 248, 176
-0.981811, 113, 185, 240, 248
-0.981953, 97, 209, 160, 336
-0.982014, 137, 97, 168, 224
-0.982106, 1, 1, 375, 128
-0.982174, 113, 161, 240, 224
-0.982393, 241, 313, 368, 376
-0.982417, 193, 177, 224, 304
-0.982584, 29, 257, 60, 384
-0.982601, 17, 249, 80, 312
-0.982656, 153, 105, 216, 168
-0.982725, 145, 177, 176, 304
-0.982942, 1, 345, 32, 408
-0.983021, 29, 289, 60, 352
-0.983186, 193, 273, 256, 336
-0.983196, 17, 209, 80, 336
-0.983216, 173, 177, 204, 304
-0.98325, 273, 369, 336, 496
-0.983294, 201, 145, 232, 208
-0.983327, 17, 257, 48, 384
-0.983341, 9, 337, 40, 464
-0.983445, 137, 97, 168, 160
-0.983455, 217, 353, 280, 416
-0.983475, 245, 281, 276, 344
-0.983579, 249, 377, 312, 440
-0.983595, 237, 273, 268, 400
-0.983609, 1, 281, 128, 344
-0.983887, 149, 185, 180, 248
-0.98397, 33, 369, 288, 496
-0.983981, 213, 193, 244, 320
-0.984178, 241, 337, 368, 400
-0.984275, 121, 273, 184, 336
-0.984313, 97, 137, 224, 200
-0.984364, 1, 305, 128, 368
-0.984397, 105, 97, 168, 160
-0.984428, 121, 145, 184, 272
-0.984483, 185, 81, 216, 208
-0.984769, 169, 161, 200, 224
-0.984785, 41, 321, 104, 448
-0.984843, 133, 177, 164, 304
-0.985086, 121, 97, 184, 352
-0.98509, 65, 145, 192, 272
-0.985282, 129, 89, 256, 152
-0.985312, 313, 289, 375, 416
-0.985319, 33, 353, 96, 416
-0.985511, 185, 209, 248, 272
-0.985577, 149, 153, 180, 216
-0.98572, 185, 257, 248, 500
-0.985888, 153, 273, 216, 336
-0.985919, 1, 49, 256, 176
-0.985948, 149, 97, 180, 160
-0.985952, 89, 257, 152, 500
-0.986043, 305, 377, 368, 440
-0.986104, 225, 377, 352, 440
-0.986116, 149, 129, 180, 256
-0.986252, 161, 369, 288, 496
-0.986345, 241, 265, 368, 328
-0.986364, 129, 49, 256, 176
-0.986379, 209, 177, 240, 240
-0.986393, 161, 161, 288, 224
-0.986477, 1, 329, 128, 392
-0.986541, 169, 81, 200, 208
-0.986589, 105, 121, 168, 184
-0.986682, 257, 289, 320, 352
-0.986701, 181, 193, 212, 256
-0.986792, 257, 289, 288, 416
-0.986897, 113, 257, 176, 500
-0.986904, 205, 81, 236, 208
-0.98701, 225, 369, 288, 496
-0.98723, 53, 297, 84, 360
-0.987293, 49, 353, 176, 480
-0.987472, 25, 353, 56, 480
-0.987542, 281, 377, 344, 440
-0.987625, 217, 329, 280, 392
-0.98779, 177, 1, 240, 500
-0.987791, 145, 257, 208, 500
-0.987824, 209, 97, 272, 224
-0.987837, 73, 273, 104, 400
-0.987903, 113, 273, 240, 336
-0.987993, 313, 297, 375, 360
-0.988046, 97, 97, 160, 352
-0.988073, 129, 209, 256, 272
-0.988217, 97, 257, 128, 384
-0.988345, 73, 281, 104, 344
-0.988515, 41, 225, 104, 352
-0.988574, 257, 313, 320, 376
-0.988638, 17, 321, 48, 384
-0.988663, 17, 249, 48, 312
-0.988732, 89, 273, 120, 336
-0.988785, 161, 185, 288, 248
-0.988798, 41, 305, 72, 368
-0.988806, 249, 353, 312, 416
-0.988934, 137, 129, 168, 192
-0.989046, 201, 105, 232, 168
-0.989145, 57, 289, 88, 416
-0.989185, 137, 161, 168, 224
-0.989201, 197, 129, 228, 256
-0.989247, 97, 17, 352, 144
-0.989252, 41, 409, 104, 472
-0.989254, 137, 185, 168, 248
-0.98927, 121, 201, 184, 264
-0.989356, 161, 205, 224, 236
-0.989467, 17, 281, 48, 344
-0.989539, 241, 257, 304, 500
-0.989544, 213, 153, 244, 216
-0.989551, 209, 1, 272, 500
-0.989574, 89, 49, 152, 176
-0.989638, 313, 353, 375, 416
-0.989714, 209, 81, 240, 144
-0.989814, 161, 353, 288, 416
-0.989831, 161, 177, 224, 208
-0.989871, 125, 129, 156, 256
-0.989895, 145, 193, 208, 224
-0.990075, 169, 273, 232, 400
-0.990088, 1, 249, 128, 312
-0.990168, 81, 97, 208, 160
-0.990195, 209, 97, 272, 160
-0.990228, 25, 369, 56, 432
-0.99031, 161, 81, 192, 144
-0.990344, 201, 225, 232, 352
-0.990354, 221, 97, 252, 224
-0.990372, 161, 137, 224, 168
-0.990379, 65, 273, 320, 336
-0.99042, 185, 93, 248, 124
-0.990421, 1, 353, 64, 384
-0.990422, 161, 165, 224, 196
-0.990441, 153, 149, 216, 180
-0.990461, 85, 257, 116, 384
-0.990484, 73, 209, 136, 336
-0.990516, 129, 97, 192, 128
-0.990563, 17, 361, 144, 424
-0.990612, 173, 97, 204, 160
-0.990685, 105, 73, 168, 136
-0.990705, 257, 241, 320, 368
-0.990717, 129, 177, 192, 208
-0.990746, 129, 157, 192, 188
-0.990782, 29, 265, 60, 328
-0.990795, 149, 81, 180, 208
-0.990815, 185, 205, 248, 236
-0.990895, 141, 225, 172, 352
-0.990941, 185, 193, 248, 224
-0.990946, 137, 209, 200, 240
-0.99097, 105, 145, 168, 208
-0.990993, 17, 289, 80, 320
-0.990997, 129, 145, 192, 176
-0.991014, 161, 93, 224, 124
-0.991023, 29, 337, 60, 400
-0.991026, 189, 225, 220, 352
-0.991035, 17, 317, 80, 348
-0.991121, 217, 161, 280, 416
-0.991131, 217, 297, 280, 360
-0.991137, 17, 409, 144, 472
-0.991161, 177, 49, 304, 176
-0.991171, 217, 273, 248, 400
-0.991172, 161, 329, 288, 392
-0.99126, 169, 209, 200, 272
-0.991287, 129, 129, 192, 160
-0.991297, 81, 277, 144, 308
-0.991312, 253, 369, 284, 432
-0.991317, 185, 181, 248, 212
-0.991329, 109, 257, 140, 384
-0.991343, 25, 161, 88, 416
-0.99138, 129, 1, 192, 256
-0.991406, 185, 145, 248, 176
-0.991417, 33, 277, 96, 308
-0.991446, 17, 305, 80, 336
-0.99148, 209, 65, 272, 128
-0.99148, 225, 285, 288, 316
-0.991489, 65, 185, 192, 248
-0.99152, 185, 165, 248, 196
-0.991534, 173, 225, 204, 352
-0.991544, 97, 369, 224, 496
-0.991575, 213, 209, 244, 272
-0.991651, 129, 109, 192, 140
-0.991687, 113, 65, 240, 128
-0.991691, 249, 381, 312, 412
-0.991723, 9, 341, 72, 372
-0.991769, 217, 105, 248, 168
-0.991781, 25, 369, 88, 496
-0.991792, 185, 217, 248, 248
-0.991802, 1, 377, 64, 408
-0.991805, 209, 121, 272, 184
-0.99182, 185, 125, 248, 156
-0.991821, 1, 273, 375, 336
-0.991846, 101, 265, 132, 328
-0.99187, 185, 105, 248, 136
-0.991876, 153, 1, 216, 500
-0.99193, 29, 241, 60, 304
-0.991958, 65, 161, 192, 224
-0.991997, 197, 81, 228, 144
-0.992006, 121, 189, 184, 220
-0.992019, 113, 249, 176, 312
-0.992031, 65, 289, 128, 320
-0.992051, 1, 365, 64, 396
-0.992071, 49, 305, 112, 336
-0.992142, 5, 289, 36, 416
-0.992168, 97, 249, 224, 312
-0.992173, 341, 321, 372, 448
-0.992243, 185, 369, 248, 496
-0.992266, 169, 277, 232, 308
-0.992305, 17, 329, 80, 360
-0.992314, 157, 225, 188, 352
-0.992315, 153, 105, 216, 136
-0.992316, 201, 281, 264, 312
-0.992323, 217, 369, 280, 400
-0.992325, 1, 177, 128, 304
-0.992334, 281, 385, 344, 416
-0.992342, 105, 97, 168, 128
-0.992366, 213, 129, 244, 192
-0.992383, 121, 257, 152, 384
-0.992452, 137, 221, 200, 252
-0.992454, 169, 65, 232, 320
-0.992494, 105, 273, 168, 304
-0.992524, 193, 201, 224, 232
-0.992534, 225, 49, 288, 176
-0.992556, 17, 253, 80, 284
-0.992561, 125, 129, 156, 192
-0.992562, 41, 377, 104, 440
-0.992589, 113, 213, 176, 244
-0.99259, 173, 201, 204, 232
-0.9926, 145, 277, 208, 308
-0.992618, 29, 321, 60, 352
-0.992627, 161, 217, 224, 248
-0.992639, 205, 273, 236, 400
-0.992641, 105, 113, 168, 144
-0.992646, 1, 389, 64, 420
-0.992652, 209, 93, 272, 124
-0.99267, 17, 265, 80, 296
-0.992677, 33, 361, 96, 392
-0.992696, 305, 385, 368, 416
-0.992704, 129, 85, 192, 116
-0.992707, 121, 193, 152, 320
-0.992756, 21, 349, 52, 380
-0.992761, 201, 157, 232, 188
-0.992765, 29, 301, 60, 332
-0.99277, 209, 89, 240, 120
-0.992777, 81, 425, 208, 488
-0.992778, 105, 201, 168, 232
-0.992789, 125, 161, 156, 224
-0.992804, 161, 149, 192, 180
-0.992812, 193, 189, 224, 220
-0.992826, 9, 353, 40, 384
-0.992828, 209, 209, 272, 240
-0.99283, 165, 133, 196, 164
-0.992847, 17, 401, 80, 464
-0.992853, 249, 365, 312, 396
-0.992857, 169, 77, 232, 108
-0.992862, 257, 317, 320, 348
-0.992862, 217, 329, 280, 360
-0.992864, 185, 145, 216, 176
-0.992866, 137, 97, 168, 128
-0.992867, 193, 65, 320, 128
-0.992876, 141, 209, 172, 240
-0.992877, 297, 373, 360, 404
-0.99288, 209, 153, 272, 216
-0.99289, 17, 225, 80, 288
-0.992895, 161, 205, 192, 236
-0.992901, 313, 269, 375, 300
-0.992912, 225, 297, 288, 328
-0.992921, 305, 297, 368, 328
-0.992926, 189, 213, 220, 244
-0.992927, 213, 201, 244, 232
-0.992931, 173, 93, 204, 124
-0.992932, 201, 177, 232, 208
-0.992934, 213, 173, 244, 204
-0.99295, 217, 313, 280, 344
-0.992971, 201, 213, 232, 244
-0.992975, 197, 93, 228, 124
-0.992986, 217, 357, 280, 388
-0.99299, 137, 249, 200, 312
-0.993002, 249, 285, 280, 316
-0.993002, 89, 277, 120, 308
-0.993005, 41, 317, 104, 348
-0.993006, 345, 337, 375, 400
-0.993008, 181, 165, 212, 196
-0.993019, 257, 305, 288, 368
-0.993019, 161, 193, 192, 224
-0.993022, 57, 369, 120, 496
-0.993026, 77, 285, 108, 316
-0.993028, 213, 273, 244, 336
-0.993029, 185, 93, 216, 124
-0.99303, 133, 109, 164, 140
-0.993045, 149, 165, 180, 196
-0.993048, 185, 105, 216, 168
-0.99305, 217, 341, 280, 372
-0.993054, 137, 197, 168, 228
-0.993054, 249, 353, 312, 384
-0.993071, 41, 293, 104, 324
-0.993072, 257, 305, 320, 336
-0.993073, 181, 185, 212, 216
-0.993076, 169, 181, 200, 212
-0.993082, 165, 169, 196, 200
-0.993089, 157, 93, 188, 124
-0.993091, 41, 313, 72, 344
-0.993104, 249, 329, 312, 360
-0.993105, 161, 105, 192, 168
-0.993109, 313, 317, 375, 348
-0.993111, 53, 301, 84, 332
-0.993114, 213, 189, 244, 220
-0.993118, 145, 153, 176, 184
-0.99312, 149, 189, 180, 220
-0.993138, 177, 133, 208, 164
-0.99314, 221, 185, 252, 248
-0.99314, 65, 293, 96, 324
-0.993151, 105, 125, 168, 156
-0.993162, 125, 105, 156, 168
-0.993166, 225, 273, 256, 336
-0.993167, 33, 413, 96, 444
-0.993167, 201, 269, 264, 300
-0.993181, 173, 213, 204, 244
-0.993184, 133, 149, 164, 180
-0.993198, 209, 145, 240, 176
-0.993205, 25, 285, 56, 316
-0.993213, 137, 73, 168, 136
-0.993213, 249, 341, 312, 372
-0.993221, 257, 293, 320, 324
-0.993224, 209, 133, 272, 164
-0.993226, 105, 137, 168, 168
-0.993229, 105, 177, 168, 208
-0.993245, 213, 213, 244, 244
-0.993256, 209, 105, 272, 136
-0.993258, 1, 365, 32, 396
-0.99326, 177, 121, 208, 152
-0.993262, 25, 273, 56, 304
-0.993265, 257, 337, 288, 400
-0.993267, 113, 265, 144, 328
-0.993271, 133, 121, 164, 152
-0.993272, 25, 249, 56, 280
-0.993274, 201, 129, 232, 160
-0.993279, 33, 333, 64, 364
-0.993285, 209, 101, 240, 132
-0.99329, 149, 177, 180, 208
-0.993291, 17, 305, 48, 336
-0.993296, 25, 261, 56, 292
-0.993303, 9, 405, 72, 436
-0.993303, 257, 381, 288, 412
-0.993306, 21, 369, 52, 400
-0.993321, 133, 161, 164, 192
-0.993326, 125, 97, 156, 128
-0.99333, 173, 153, 204, 184
-0.993335, 141, 137, 172, 168
-0.993335, 273, 381, 304, 412
-0.993338, 217, 113, 248, 144
-0.99334, 169, 105, 200, 136
-0.99334, 129, 209, 160, 240
-0.99335, 345, 341, 375, 372
-0.993357, 145, 109, 176, 140
-0.993361, 185, 81, 216, 144
-0.993365, 13, 337, 44, 368
-0.993367, 17, 241, 80, 272
-0.993372, 49, 265, 112, 296
-0.993372, 305, 345, 368, 376
-0.993377, 217, 125, 248, 156
-0.993379, 33, 341, 96, 372
-0.993385, 25, 373, 88, 404
-0.993389, 153, 217, 184, 248
-0.993393, 101, 277, 132, 308
-0.993395, 209, 145, 272, 176
-0.993398, 237, 281, 268, 312
-0.9934, 257, 277, 320, 308
-0.993412, 129, 265, 192, 296
-0.993413, 125, 185, 156, 248
-0.993415, 213, 161, 244, 192
-0.993416, 13, 253, 44, 284
-0.993417, 197, 145, 228, 176
-0.993427, 225, 381, 288, 412
-0.99343, 57, 421, 120, 452
-0.993432, 33, 73, 160, 136
-0.993436, 37, 289, 68, 320
-0.993438, 137, 185, 168, 216
-0.993439, 33, 389, 96, 420
-0.993444, 125, 133, 156, 164
-0.993447, 145, 125, 176, 156
-0.993452, 257, 361, 288, 392
-0.993458, 209, 161, 272, 192
-0.993464, 185, 277, 216, 308
-0.993466, 209, 193, 272, 224
-0.993472, 97, 425, 160, 456
-0.993472, 105, 153, 168, 184
-0.993479, 309, 385, 340, 416
-0.993482, 137, 221, 168, 252
-0.993488, 225, 281, 256, 312
-0.993489, 197, 105, 228, 136
-0.993492, 161, 125, 224, 156
-0.993493, 173, 277, 204, 308
-0.993494, 293, 385, 324, 416
-0.993496, 113, 273, 144, 304
-0.993497, 33, 385, 160, 448
-0.993498, 209, 117, 272, 148
-0.993499, 105, 85, 168, 116
-0.9935, 153, 265, 216, 296
-0.993504, 97, 261, 160, 292
-0.993505, 157, 105, 188, 136
-0.993507, 129, 173, 160, 204
-0.99351, 53, 313, 84, 344
-0.993513, 197, 277, 228, 308
-0.993515, 149, 277, 180, 308
-0.993515, 213, 281, 244, 312
-0.993517, 261, 321, 292, 352
-0.993518, 133, 277, 164, 308
-0.993521, 161, 277, 192, 308
-0.993523, 345, 269, 375, 300
-0.993527, 265, 309, 296, 340
-0.993535, 41, 301, 72, 332
-0.993536, 189, 81, 220, 112
-0.99354, 17, 317, 48, 348
-0.993548, 221, 93, 252, 124
-0.993549, 161, 305, 288, 368
-0.993549, 41, 357, 72, 388
-0.993553, 209, 81, 272, 112
-0.993561, 157, 121, 188, 152
-0.993561, 201, 249, 264, 312
-0.993562, 145, 85, 176, 116
-0.993565, 137, 433, 200, 464
-0.993567, 9, 289, 40, 320
-0.993567, 273, 373, 336, 404
-0.993569, 313, 329, 375, 360
-0.993574, 221, 141, 252, 172
-0.993579, 325, 369, 356, 400
-0.993579, 337, 317, 368, 348
-0.993586, 189, 133, 220, 164
-0.993586, 53, 285, 84, 316
-0.993588, 13, 265, 44, 296
-0.993588, 41, 281, 72, 344
-0.993591, 229, 205, 260, 236
-0.993594, 125, 193, 156, 224
-0.993597, 269, 297, 300, 328
-0.9936, 325, 385, 356, 416
-0.993601, 333, 297, 364, 328
-0.993611, 169, 249, 232, 312
-0.993616, 121, 121, 152, 152
-0.993617, 13, 277, 44, 308
-0.993618, 305, 361, 368, 392
-0.993619, 249, 297, 280, 328
-0.993627, 257, 333, 288, 364
-0.993627, 9, 381, 40, 412
-0.993629, 177, 81, 208, 112
-0.993632, 237, 369, 268, 400
-0.993634, 345, 369, 375, 400
-0.993639, 45, 413, 76, 444
-0.993644, 25, 1, 88, 500
-0.993648, 177, 265, 240, 296
-0.99365, 209, 173, 272, 204
-0.993663, 225, 273, 288, 304
-0.993666, 41, 401, 104, 432
-0.99367, 281, 321, 344, 448
-0.993681, 129, 1, 192, 500
-0.993683, 161, 437, 224, 468
-0.993705, 57, 277, 120, 308
-0.993705, 245, 321, 276, 448
-0.993738, 305, 281, 368, 312
-0.99375, 1, 1, 64, 32
-0.99382, 41, 313, 104, 376
-0.993836, 97, 417, 160, 480
-0.993838, 41, 257, 104, 320
-0.99384, 129, 425, 192, 488
-0.993854, 225, 209, 256, 336
-0.993864, 193, 433, 256, 464
-0.993888, 249, 393, 312, 424
-0.993906, 81, 89, 144, 120
-0.993912, 209, 221, 272, 252
-0.993937, 89, 165, 152, 196
-0.993957, 313, 257, 375, 288
-0.993958, 1, 277, 64, 308
-0.993971, 209, 421, 272, 452
-0.993972, 81, 49, 208, 176
-0.993976, 81, 209, 208, 272
-0.993997, 177, 421, 240, 452
-0.994043, 17, 229, 80, 260
-0.994049, 97, 413, 160, 444
-0.994065, 273, 353, 336, 416
-0.994073, 193, 129, 320, 192
-0.994118, 73, 417, 136, 480
-0.994229, 225, 177, 288, 240
-0.994231, 129, 433, 256, 496
-0.994255, 313, 1, 375, 500
-0.994282, 221, 145, 252, 272
-0.994294, 257, 257, 320, 320
-0.994303, 257, 337, 288, 464
-0.994332, 161, 249, 288, 312
-0.994335, 305, 257, 368, 500
-0.994335, 209, 129, 336, 256
-0.99436, 129, 273, 160, 336
-0.994383, 313, 257, 375, 320
-0.994385, 313, 377, 344, 440
-0.994437, 157, 273, 188, 336
-0.994445, 97, 145, 160, 272
-0.9945, 233, 1, 296, 500
-0.994529, 97, 185, 160, 248
-0.994544, 193, 273, 224, 336
-0.994546, 161, 409, 288, 472
-0.994551, 209, 409, 272, 472
-0.994565, 89, 241, 152, 304
-0.994572, 97, 145, 352, 208
-0.99462, 49, 297, 176, 360
-0.994636, 129, 169, 375, 232
-0.994714, 113, 401, 240, 464
-0.994714, 141, 273, 172, 336
-0.994747, 89, 1, 152, 500
-0.994765, 1, 297, 375, 360
-0.994806, 209, 401, 336, 464
-0.994814, 245, 225, 276, 352
-0.994817, 29, 209, 60, 336
-0.994839, 181, 273, 212, 336
-0.99486, 129, 205, 256, 236
-0.994872, 185, 425, 248, 488
-0.994887, 313, 321, 375, 384
-0.994893, 129, 113, 256, 176
-0.99494, 133, 209, 164, 272
-0.994953, 305, 241, 368, 368
-0.994978, 169, 273, 200, 336
-0.99502, 149, 73, 180, 136
-0.995023, 53, 241, 84, 368
-0.995026, 49, 249, 176, 312
-0.99509, 297, 369, 328, 496
-0.995102, 169, 57, 232, 120
-0.995106, 65, 97, 320, 160
-0.995137, 1, 305, 256, 368
-0.99515, 209, 209, 272, 272
-0.995157, 9, 369, 40, 432
-0.995197, 1, 225, 128, 288
-0.995232, 41, 257, 72, 384
-0.995264, 173, 129, 188, 192
-0.995269, 29, 249, 44, 312
-0.995293, 49, 337, 80, 464
-0.995302, 1, 137, 256, 200
-0.995319, 241, 241, 368, 304
-0.995324, 129, 97, 256, 128
-0.995327, 313, 369, 344, 496
-0.995399, 221, 81, 236, 144
-0.995445, 33, 185, 288, 248
-0.995475, 265, 257, 328, 500
-0.995476, 177, 185, 192, 248
-0.995518, 177, 377, 304, 440
-0.995569, 41, 337, 72, 400
-0.995601, 157, 209, 188, 272
-0.995622, 177, 105, 304, 168
-0.995652, 49, 1, 112, 500
-0.995664, 81, 277, 208, 308
-0.995684, 301, 377, 332, 440
-0.995688, 329, 289, 360, 416
-0.99569, 165, 137, 180, 200
-0.995703, 199, 161, 214, 224
-0.995718, 31, 281, 46, 344
-0.99572, 125, 65, 156, 192
-0.995722, 129, 329, 375, 392
-0.995773, 205, 177, 220, 240
-0.995776, 49, 129, 176, 192
-0.99579, 257, 1, 320, 500
-0.995805, 167, 185, 182, 248
-0.995827, 129, 193, 375, 256
-0.995859, 183, 185, 198, 248
-0.995876, 221, 81, 252, 144
-0.995894, 137, 97, 152, 160
-0.995902, 23, 345, 38, 408
-0.99591, 199, 185, 214, 248
-0.995974, 345, 313, 375, 376
-0.995979, 113, 165, 240, 196
-0.996006, 1, 345, 16, 408
-0.996013, 29, 337, 44, 400
-0.99604, 281, 377, 312, 440
-0.996052, 145, 141, 272, 172
-0.996062, 17, 345, 32, 408
-0.996069, 171, 161, 186, 224
-0.996077, 73, 225, 104, 352
-0.996082, 161, 281, 288, 312
-0.996099, 261, 281, 276, 344
-0.996099, 33, 49, 160, 176
-0.996126, 281, 1, 344, 500
-0.996138, 147, 89, 162, 152
-0.996138, 145, 177, 272, 208
-0.996141, 333, 337, 364, 400
-0.996153, 137, 49, 168, 176
-0.996169, 329, 353, 360, 480
-0.996181, 265, 377, 296, 440
-0.996201, 53, 273, 84, 336
-0.996206, 333, 297, 364, 360
-0.99622, 197, 137, 212, 200
-0.996229, 225, 249, 288, 312
-0.99625, 11, 345, 26, 408
-0.996268, 211, 177, 226, 240
-0.996278, 241, 289, 368, 320
-0.99629, 113, 153, 240, 184
-0.996325, 153, 425, 216, 488
-0.996336, 1, 329, 375, 392
-0.99634, 113, 193, 240, 224
-0.996372, 173, 97, 204, 352
-0.996379, 33, 313, 48, 376
-0.996389, 139, 177, 154, 240
-0.996433, 205, 153, 220, 216
-0.996448, 189, 193, 204, 256
-0.996452, 173, 65, 204, 128
-0.996455, 129, 121, 375, 184
-0.996458, 81, 81, 144, 144
-0.99647, 345, 273, 375, 400
-0.996498, 241, 353, 272, 416
-0.996515, 129, 217, 256, 248
-0.99652, 179, 129, 194, 192
-0.99655, 325, 377, 356, 440
-0.996552, 129, 353, 375, 416
-0.996574, 1, 285, 128, 316
-0.996575, 161, 169, 176, 232
-0.996576, 241, 353, 368, 384
-0.996591, 81, 353, 144, 480
-0.996593, 257, 281, 288, 344
-0.9966, 177, 401, 240, 464
-0.9966, 21, 257, 52, 500
-0.996619, 241, 317, 368, 348
-0.996629, 223, 177, 238, 240
-0.99664, 185, 129, 216, 384
-0.996651, 1, 161, 256, 224
-0.996669, 37, 353, 68, 480
-0.99667, 139, 129, 154, 192
-0.99669, 225, 377, 288, 440
-0.9967, 187, 129, 202, 192
-0.996707, 241, 301, 368, 332
-0.996716, 193, 161, 208, 224
-0.996726, 129, 73, 375, 136
-0.996731, 281, 369, 312, 496
-0.996744, 209, 97, 240, 352
-0.996763, 1, 297, 128, 328
-0.996771, 1, 341, 128, 372
-0.99679, 125, 73, 156, 136
-0.99679, 269, 273, 300, 336
-0.996792, 337, 361, 368, 424
-0.996808, 49, 305, 176, 432
-0.996818, 355, 273, 370, 336
-0.996845, 23, 313, 38, 376
-0.996849, 261, 313, 276, 376
-0.996886, 155, 81, 170, 144
-0.996919, 139, 153, 154, 216
-0.996945, 97, 141, 224, 172
-0.996991, 345, 273, 375, 336
-0.996992, 41, 313, 56, 376
-0.997027, 209, 381, 336, 412
-0.997079, 269, 297, 300, 360
-0.997087, 241, 273, 368, 304
-0.997089, 241, 369, 368, 400
-0.997094, 97, 177, 224, 208
-0.997097, 73, 289, 88, 352
-0.997106, 179, 97, 194, 160
-0.997113, 193, 1, 256, 256
-0.99714, 167, 81, 182, 144
-0.997141, 1, 309, 128, 340
-0.997162, 1, 329, 256, 392
-0.997174, 1, 1, 64, 500
-0.997203, 33, 385, 288, 448
-0.99721, 223, 129, 238, 192
-0.997215, 81, 281, 96, 344
-0.99723, 55, 305, 70, 368
-0.997231, 129, 297, 375, 360
-0.997252, 1, 361, 375, 424
-0.997255, 215, 201, 230, 264
-0.997263, 91, 273, 106, 336
-0.997276, 1, 1, 32, 128
-0.997277, 177, 209, 304, 272
-0.997291, 187, 161, 202, 224
-0.997301, 229, 49, 260, 176
-0.997321, 249, 257, 280, 320
-0.997331, 129, 161, 160, 416
-0.997335, 69, 257, 100, 320
-0.997336, 173, 105, 188, 168
-0.997338, 181, 209, 196, 272
-0.997358, 147, 201, 162, 264
-0.997364, 161, 189, 288, 220
-0.997366, 361, 249, 375, 312
-0.997406, 353, 321, 368, 384
-0.997421, 67, 289, 82, 352
-0.997426, 217, 145, 280, 272
-0.997426, 145, 97, 176, 352
-0.997431, 241, 329, 368, 360
-0.997441, 73, 161, 136, 416
-0.997442, 255, 281, 270, 344
-0.997444, 163, 105, 178, 168
-0.997448, 347, 337, 362, 400
-0.997449, 269, 369, 300, 496
-0.99746, 211, 81, 226, 144
-0.997461, 141, 201, 156, 264
-0.997462, 223, 105, 238, 168
-0.99748, 1, 385, 375, 448
-0.997481, 35, 345, 50, 408
-0.9975, 197, 205, 212, 236
-0.997514, 209, 425, 336, 488
-0.997515, 145, 209, 176, 272
-0.997525, 267, 297, 282, 360
-0.997545, 161, 81, 176, 144
-0.997551, 173, 209, 188, 272
-0.997555, 161, 129, 192, 384
-0.997562, 1, 329, 128, 360
-0.997571, 257, 369, 272, 432
-0.997573, 197, 161, 228, 416
-0.997573, 49, 293, 176, 324
-0.997583, 223, 153, 238, 216
-0.997588, 1, 417, 256, 480
-0.997596, 237, 257, 268, 320
-0.997596, 177, 161, 192, 224
-0.997606, 49, 305, 64, 368
-0.997616, 61, 297, 76, 360
-0.997624, 159, 145, 174, 208
-0.997626, 65, 217, 320, 280
-0.997645, 161, 161, 288, 192
-0.997646, 33, 353, 288, 416
-0.99765, 97, 273, 112, 336
-0.997656, 245, 369, 276, 496
-0.997671, 205, 177, 220, 208
-0.997684, 221, 89, 236, 120
-0.997694, 9, 209, 40, 336
-0.997707, 73, 257, 104, 500
-0.997722, 65, 249, 128, 312
-0.997722, 147, 113, 162, 176
-0.99773, 241, 329, 272, 392
-0.997737, 81, 249, 112, 312
-0.99774, 193, 273, 224, 400
-0.997749, 1, 265, 128, 296
-0.997754, 233, 257, 264, 500
-0.997774, 213, 193, 244, 448
-0.997787, 217, 177, 232, 240
-0.997802, 41, 401, 72, 464
-0.997806, 129, 377, 375, 440
-0.997817, 249, 257, 280, 500
-0.99782, 227, 273, 242, 336
-0.99782, 243, 273, 258, 336
-0.997823, 237, 273, 252, 336
-0.997826, 205, 193, 220, 224
-0.997833, 213, 153, 228, 216
-0.997841, 137, 97, 152, 128
-0.997842, 225, 49, 352, 176
-0.997857, 265, 241, 296, 368
-0.997863, 157, 201, 172, 264
-0.997867, 199, 193, 214, 224
-0.997868, 209, 177, 336, 240
-0.997872, 241, 341, 368, 372
-0.997876, 21, 257, 36, 320
-0.997879, 105, 265, 120, 328
-0.997884, 113, 85, 240, 116
-0.997886, 1, 321, 32, 384
-0.997893, 175, 133, 190, 164
-0.997908, 213, 105, 228, 168
-0.99791, 121, 265, 136, 328
-0.997914, 185, 97, 200, 160
-0.997919, 191, 201, 206, 232
-0.99793, 139, 73, 154, 136
-0.997934, 261, 337, 276, 400
-0.997941, 37, 369, 52, 432
-0.997948, 201, 209, 232, 272
-0.997953, 229, 105, 260, 168
-0.997954, 65, 189, 192, 220
-0.997959, 29, 253, 44, 284
-0.99796, 191, 97, 206, 160
-0.997963, 215, 273, 230, 336
-0.997965, 161, 369, 288, 400
-0.997968, 203, 205, 218, 236
-0.997968, 81, 97, 208, 128
-0.997974, 115, 265, 130, 328
-0.997976, 31, 305, 46, 336
-0.997976, 129, 401, 375, 464
-0.997976, 221, 97, 252, 352
-0.997985, 197, 81, 212, 144
-0.997987, 177, 197, 192, 228
-0.997997, 163, 153, 178, 184
-0.998005, 65, 161, 192, 192
-0.998021, 209, 273, 224, 336
-0.998022, 101, 209, 132, 336
-0.998035, 141, 201, 156, 232
-0.998038, 221, 273, 236, 336
-0.99804, 169, 177, 184, 208
-0.998057, 161, 273, 176, 336
-0.99806, 135, 273, 150, 336
-0.998072, 45, 257, 76, 500
-0.998079, 173, 81, 188, 144
-0.998085, 155, 273, 170, 336
-0.998085, 201, 273, 216, 336
-0.998087, 249, 273, 264, 336
-0.998088, 149, 213, 164, 244
-0.9981, 141, 273, 156, 336
-0.998101, 177, 93, 304, 124
-0.998102, 41, 289, 56, 352
-0.998104, 21, 281, 36, 344
-0.998106, 205, 201, 220, 264
-0.998113, 1, 353, 128, 384
-0.998118, 167, 193, 182, 224
-0.998121, 61, 257, 92, 500
-0.998124, 175, 273, 190, 336
-0.998124, 181, 273, 196, 336
-0.998124, 195, 273, 210, 336
-0.998132, 213, 213, 228, 244
-0.998133, 5, 241, 36, 304
-0.998142, 29, 269, 44, 300
-0.998142, 185, 209, 200, 240
-0.998142, 85, 257, 116, 500
-0.998147, 157, 105, 172, 168
-0.998149, 127, 265, 142, 328
-0.998149, 65, 393, 128, 456
-0.998152, 23, 353, 38, 384
-0.998155, 345, 297, 360, 360
-0.998157, 189, 273, 204, 336
-0.998165, 193, 93, 208, 124
-0.998167, 211, 201, 226, 232
-0.998169, 179, 93, 194, 124
-0.998172, 187, 93, 202, 124
-0.998173, 147, 273, 162, 336
-0.998173, 205, 165, 220, 196
-0.998181, 177, 205, 304, 236
-0.998184, 147, 109, 162, 140
-0.998188, 173, 93, 188, 124
-0.998189, 31, 293, 46, 324
-0.998191, 167, 273, 182, 336
-0.998191, 155, 213, 170, 244
-0.998197, 175, 209, 190, 240
-0.998197, 33, 89, 160, 120
-0.9982, 65, 249, 320, 312
-0.998204, 147, 97, 162, 128
-0.99821, 223, 201, 238, 264
-0.998211, 211, 89, 226, 120
-0.998214, 265, 369, 280, 432
-0.998217, 17, 417, 144, 448
-0.998222, 33, 257, 64, 500
-0.998237, 263, 289, 278, 320
-0.998237, 11, 353, 26, 384
-0.998238, 319, 377, 334, 440
-0.998244, 169, 205, 184, 236
-0.99825, 191, 213, 206, 244
-0.99825, 153, 129, 184, 192
-0.998253, 167, 209, 182, 272
-0.998259, 145, 273, 208, 400
-0.998266, 29, 345, 44, 376
-0.998274, 101, 257, 132, 500
-0.998278, 131, 177, 146, 240
-0.99828, 153, 97, 168, 128
-0.99828, 261, 257, 292, 500
-0.998282, 133, 181, 164, 196
-0.998283, 137, 193, 168, 208
-0.998283, 217, 167, 248, 182
-0.998283, 181, 279, 212, 294
-0.998283, 25, 375, 56, 390
-0.998284, 165, 279, 196, 294
-0.998284, 125, 163, 156, 178
-0.998286, 149, 195, 180, 210
-0.998287, 189, 139, 220, 154
-0.998287, 81, 217, 208, 248
-0.998287, 201, 281, 232, 296
-0.998289, 125, 103, 156, 118
-0.998289, 185, 199, 216, 214
-0.99829, 173, 193, 204, 448
-0.99829, 213, 223, 244, 238
-0.998293, 109, 277, 140, 292
-0.998293, 309, 377, 324, 440
-0.998293, 217, 159, 248, 174
-0.998294, 133, 175, 164, 190
-0.998294, 29, 251, 60, 266
-0.998294, 33, 321, 48, 352
-0.998295, 29, 339, 60, 354
-0.998295, 229, 283, 260, 298
-0.998295, 125, 157, 156, 172
-0.998296, 213, 153, 244, 168
-0.998297, 149, 177, 164, 240
-0.998298, 17, 353, 32, 384
-0.9983, 17, 321, 48, 336
-0.9983, 185, 197, 200, 228
-0.9983, 1, 371, 32, 386
-0.9983, 21, 359, 52, 374
-0.9983, 223, 201, 238, 232
-0.998301, 185, 161, 216, 176
-0.998301, 125, 141, 156, 156
-0.998302, 217, 129, 248, 144
-0.998303, 145, 183, 176, 198
-0.998305, 17, 307, 48, 322
-0.998306, 217, 141, 248, 156
-0.998306, 57, 305, 88, 320
-0.998306, 185, 177, 216, 192
-0.998308, 13, 347, 44, 362
-0.998311, 133, 115, 164, 130
-0.998312, 217, 135, 248, 150
-0.998314, 217, 113, 248, 128
-0.998314, 145, 127, 176, 142
-0.998316, 29, 333, 60, 348
-0.998317, 217, 119, 248, 134
-0.998318, 17, 315, 48, 330
-0.998318, 65, 299, 96, 314
-0.998318, 137, 199, 168, 214
-0.99832, 141, 145, 172, 160
-0.998322, 345, 349, 375, 364
-0.998322, 29, 345, 60, 360
-0.998322, 17, 251, 48, 266
-0.998324, 41, 311, 72, 326
-0.998325, 145, 65, 160, 128
-0.998325, 161, 197, 192, 212
-0.998325, 241, 193, 368, 320
-0.998326, 213, 173, 244, 188
-0.998326, 167, 93, 182, 124
-0.998326, 213, 203, 244, 218
-0.998327, 133, 135, 164, 150
-0.998327, 81, 205, 208, 236
-0.998327, 137, 169, 168, 184
-0.998328, 257, 383, 288, 398
-0.998329, 153, 215, 184, 230
-0.99833, 133, 151, 164, 166
-0.99833, 149, 177, 180, 192
-0.99833, 201, 137, 232, 152
-0.99833, 157, 165, 188, 180
-0.998331, 209, 147, 240, 162
-0.998331, 25, 277, 56, 292
-0.998331, 25, 259, 56, 274
-0.998333, 53, 311, 84, 326
-0.998333, 205, 89, 220, 120
-0.998334, 73, 293, 88, 324
-0.998335, 25, 269, 56, 284
-0.998336, 73, 293, 104, 308
-0.998338, 85, 281, 116, 296
-0.998338, 197, 93, 228, 108
-0.99834, 137, 157, 168, 172
-0.99834, 25, 283, 56, 298
-0.998343, 197, 199, 228, 214
-0.998344, 165, 171, 196, 186
-0.998345, 209, 103, 240, 118
-0.998347, 181, 183, 212, 198
-0.998347, 161, 157, 192, 172
-0.998347, 181, 207, 212, 222
-0.998348, 41, 361, 72, 424
-0.998348, 145, 151, 176, 166
-0.998348, 1, 361, 32, 376
-0.998348, 145, 109, 176, 124
-0.99835, 149, 189, 180, 204
-0.998352, 29, 225, 44, 288
-0.998352, 25, 289, 56, 304
-0.998352, 213, 209, 244, 224
-0.998353, 1, 377, 128, 408
-0.998353, 153, 99, 184, 114
-0.998354, 133, 109, 164, 124
-0.998356, 81, 287, 112, 302
-0.998357, 161, 325, 288, 356
-0.998358, 133, 127, 164, 142
-0.998359, 29, 281, 44, 312
-0.998359, 197, 103, 228, 118
-0.998359, 189, 215, 220, 230
-0.998359, 165, 141, 196, 156
-0.998362, 25, 295, 56, 310
-0.998362, 201, 155, 232, 170
-0.998363, 201, 257, 232, 500
-0.998363, 139, 181, 154, 212
-0.998364, 165, 97, 196, 112
-0.998365, 351, 249, 366, 312
-0.998365, 211, 181, 226, 212
-0.998366, 181, 95, 212, 110
-0.998368, 185, 149, 216, 164
-0.998372, 25, 301, 56, 316
-0.998373, 165, 181, 196, 196
-0.998373, 201, 177, 232, 192
-0.998374, 137, 163, 168, 178
-0.998375, 181, 189, 212, 204
-0.998376, 149, 171, 180, 186
-0.998376, 37, 305, 68, 320
-0.998377, 79, 289, 94, 320
-0.998378, 213, 185, 244, 200
-0.998378, 245, 285, 276, 300
-0.998378, 29, 327, 60, 342
-0.998385, 41, 317, 72, 332
-0.998386, 209, 215, 240, 230
-0.998386, 133, 121, 164, 136
-0.998386, 169, 133, 200, 148
-0.998388, 203, 81, 218, 144
-0.99839, 137, 205, 168, 220
-0.998391, 209, 197, 240, 212
-0.998391, 331, 377, 346, 440
-0.998391, 97, 277, 128, 292
-0.998391, 165, 187, 196, 202
-0.998394, 303, 377, 318, 440
-0.998394, 213, 191, 244, 206
-0.998395, 181, 167, 212, 182
-0.998396, 161, 97, 176, 128
-0.998399, 169, 145, 184, 176
-0.998399, 305, 409, 368, 472
-0.998403, 49, 313, 64, 344
-0.998403, 137, 117, 152, 148
-0.998407, 139, 169, 154, 200
-0.998414, 169, 207, 200, 222
-0.998414, 213, 179, 244, 194
-0.998417, 199, 93, 214, 124
-0.998417, 337, 249, 368, 312
-0.998418, 173, 199, 204, 214
-0.998418, 209, 93, 240, 108
-0.998424, 295, 377, 310, 440
-0.998429, 177, 139, 208, 154
-0.99843, 21, 353, 52, 368
-0.998432, 9, 355, 40, 370
-0.998432, 137, 129, 152, 160
-0.998433, 161, 341, 288, 372
-0.998434, 201, 161, 232, 176
-0.998434, 149, 207, 180, 222
-0.998436, 85, 285, 100, 316
-0.998441, 137, 99, 168, 114
-0.998445, 193, 81, 320, 112
-0.998446, 141, 215, 172, 230
-0.998448, 189, 65, 204, 128
-0.998448, 201, 169, 232, 184
-0.99845, 175, 185, 190, 216
-0.998451, 139, 145, 154, 176
-0.998451, 289, 377, 304, 440
-0.998454, 165, 147, 196, 162
-0.998458, 283, 377, 298, 440
-0.998458, 201, 183, 232, 198
-0.998458, 361, 269, 375, 300
-0.998459, 353, 285, 368, 316
-0.998465, 95, 277, 110, 308
-0.998468, 161, 305, 288, 336
-0.998469, 29, 361, 44, 424
-0.99847, 271, 377, 286, 440
-0.998472, 183, 65, 198, 128
-0.998476, 139, 157, 154, 188
-0.998476, 29, 311, 60, 326
-0.998477, 349, 337, 364, 368
-0.998479, 211, 101, 226, 132
-0.99848, 29, 321, 60, 336
-0.998482, 163, 205, 178, 236
-0.998484, 193, 193, 224, 208
-0.998486, 55, 309, 70, 340
-0.99849, 193, 205, 224, 220
-0.998495, 63, 301, 78, 332
-0.998512, 197, 145, 212, 176
-0.99852, 113, 257, 144, 500
-0.998521, 117, 97, 148, 352
-0.998521, 161, 205, 224, 220
-0.998526, 199, 165, 214, 196
-0.998529, 3, 349, 18, 380
-0.998529, 159, 169, 174, 200
-0.998534, 161, 187, 224, 202
-0.998534, 129, 99, 192, 114
-0.998536, 185, 257, 216, 500
-0.998546, 105, 369, 168, 496
-0.998549, 161, 181, 224, 196
-0.998552, 223, 125, 238, 156
-0.998553, 181, 137, 196, 168
-0.998553, 169, 167, 232, 182
-0.998553, 1, 97, 375, 160
-0.998556, 229, 137, 260, 200
-0.998557, 169, 173, 232, 188
-0.998561, 33, 333, 48, 364
-0.998562, 175, 173, 190, 204
-0.998562, 185, 121, 200, 152
-0.998562, 129, 193, 192, 208
-0.998564, 125, 257, 156, 500
-0.998565, 41, 321, 56, 352
-0.998565, 161, 141, 224, 156
-0.998569, 153, 155, 216, 170
-0.998571, 137, 215, 200, 230
-0.998572, 145, 199, 208, 214
-0.998575, 185, 93, 248, 108
-0.998575, 161, 147, 224, 162
-0.998576, 185, 205, 248, 220
-0.998579, 1, 73, 256, 136
-0.99858, 1, 365, 16, 396
-0.998582, 193, 189, 208, 220
-0.998585, 1, 355, 64, 370
-0.998586, 97, 277, 160, 292
-0.998589, 129, 169, 192, 184
-0.998591, 129, 175, 192, 190
-0.998592, 129, 377, 256, 440
-0.998595, 97, 265, 224, 296
-0.998595, 177, 215, 240, 230
-0.998596, 17, 307, 80, 322
-0.998596, 167, 165, 182, 196
-0.998596, 17, 313, 80, 328
-0.998598, 219, 213, 234, 244
-0.998599, 223, 113, 238, 144
-0.9986, 177, 153, 192, 184
-0.9986, 129, 149, 192, 164
-0.998601, 185, 193, 248, 208
-0.998603, 17, 319, 80, 334
-0.998604, 129, 187, 192, 202
-0.998605, 177, 217, 304, 248
-0.998605, 129, 163, 192, 178
-0.998607, 129, 181, 192, 196
-0.998611, 129, 209, 192, 224
-0.998613, 101, 277, 116, 308
-0.998614, 161, 353, 288, 384
-0.998615, 185, 103, 248, 118
-0.998615, 151, 201, 166, 232
-0.998616, 161, 193, 224, 208
-0.998616, 129, 135, 192, 150
-0.998618, 185, 149, 248, 164
-0.99862, 17, 301, 80, 316
-0.998621, 153, 95, 216, 110
-0.998622, 169, 129, 184, 160
-0.998623, 1, 201, 128, 264
-0.998623, 217, 285, 280, 300
-0.998627, 179, 105, 194, 136
-0.998628, 17, 295, 80, 310
-0.998631, 185, 143, 248, 158
-0.998632, 185, 137, 248, 152
-0.998632, 1, 361, 64, 376
-0.998635, 137, 257, 168, 500
-0.998635, 185, 161, 248, 176
-0.998636, 185, 199, 248, 214
-0.998637, 223, 137, 238, 168
-0.998637, 129, 129, 192, 144
-0.998638, 165, 217, 180, 248
-0.998643, 23, 337, 38, 368
-0.998646, 33, 287, 96, 302
-0.998647, 201, 33, 232, 160
-0.998648, 121, 109, 184, 124
-0.998648, 17, 349, 80, 364
-0.998648, 153, 161, 216, 176
-0.998649, 17, 325, 80, 340
-0.99865, 197, 217, 212, 248
-0.998652, 185, 179, 248, 194
-0.998653, 145, 107, 208, 122
-0.998656, 259, 381, 274, 412
-0.998658, 185, 115, 248, 130
-0.998658, 129, 157, 192, 172
-0.998659, 181, 185, 196, 216
-0.998661, 193, 173, 256, 188
-0.998662, 129, 143, 192, 158
-0.998663, 185, 131, 248, 146
-0.998663, 1, 383, 64, 398
-0.998663, 249, 383, 312, 398
-0.998668, 161, 257, 192, 500
-0.998672, 33, 281, 96, 296
-0.998672, 73, 289, 136, 304
-0.998672, 193, 167, 256, 182
-0.998673, 185, 187, 248, 202
-0.998675, 49, 305, 176, 336
-0.998676, 205, 217, 220, 248
-0.998676, 143, 213, 158, 244
-0.998677, 217, 373, 280, 388
-0.998678, 177, 293, 304, 324
-0.998679, 81, 283, 144, 298
-0.99868, 17, 333, 80, 348
-0.99868, 185, 281, 248, 296
-0.998682, 1, 369, 64, 384
-0.998682, 185, 155, 248, 170
-0.998683, 105, 101, 168, 116
-0.998683, 17, 343, 80, 358
-0.998688, 49, 311, 112, 326
-0.998688, 221, 101, 236, 132
-0.998689, 153, 279, 216, 294
-0.99869, 65, 297, 128, 312
-0.998692, 281, 387, 344, 402
-0.998692, 185, 223, 248, 238
-0.998693, 121, 123, 184, 138
-0.998695, 1, 389, 64, 404
-0.998696, 149, 257, 180, 500
-0.998697, 17, 251, 80, 266
-0.998698, 223, 149, 238, 180
-0.998699, 169, 123, 232, 138
-0.998701, 223, 161, 238, 192
-0.998702, 145, 117, 208, 132
-0.998702, 17, 275, 80, 290
-0.998702, 305, 381, 368, 396
-0.998703, 57, 303, 120, 318
-0.998703, 65, 425, 192, 456
-0.998704, 17, 269, 80, 284
-0.998705, 17, 257, 80, 272
-0.998706, 161, 135, 224, 150
-0.998707, 17, 263, 80, 278
-0.998712, 129, 279, 192, 294
-0.998713, 1, 377, 64, 392
-0.998714, 313, 277, 375, 292
-0.998715, 41, 317, 104, 332
-0.998716, 129, 223, 192, 238
-0.998716, 209, 99, 272, 114
-0.998716, 105, 115, 168, 130
-0.998717, 305, 389, 368, 404
-0.998717, 361, 253, 375, 284
-0.99872, 217, 379, 280, 394
-0.998722, 257, 323, 320, 338
-0.998722, 313, 319, 375, 334
-0.998722, 217, 329, 280, 344
-0.998725, 313, 329, 375, 344
-0.998725, 217, 367, 280, 382
-0.998725, 185, 109, 248, 124
-0.998725, 225, 299, 288, 314
-0.998725, 217, 319, 280, 334
-0.998726, 9, 225, 40, 480
-0.998727, 105, 205, 168, 220
-0.998728, 257, 289, 320, 304
-0.998728, 161, 223, 224, 238
-0.99873, 105, 129, 168, 144
-0.998731, 217, 341, 280, 356
-0.998731, 49, 275, 112, 290
-0.998731, 41, 305, 56, 336
-0.998733, 97, 433, 352, 496
-0.998733, 225, 291, 288, 306
-0.998734, 257, 317, 320, 332
-0.998734, 209, 209, 272, 224
-0.998734, 217, 219, 280, 234
-0.998735, 313, 305, 375, 320
-0.998735, 217, 335, 280, 350
-0.998735, 225, 309, 288, 324
-0.998735, 33, 369, 96, 384
-0.998736, 97, 219, 160, 234
-0.998738, 217, 361, 280, 376
-0.998738, 249, 357, 312, 372
-0.998739, 257, 377, 320, 392
-0.99874, 249, 329, 312, 344
-0.99874, 33, 363, 96, 378
-0.99874, 249, 371, 312, 386
-0.99874, 223, 173, 238, 204
-0.998742, 105, 183, 168, 198
-0.998742, 61, 353, 92, 480
-0.998742, 217, 355, 280, 370
-0.998742, 49, 419, 112, 434
-0.998742, 249, 363, 312, 378
-0.998743, 89, 107, 152, 122
-0.998744, 249, 351, 312, 366
-0.998745, 57, 281, 120, 296
-0.998746, 261, 325, 276, 356
-0.998746, 197, 177, 212, 208
-0.998747, 283, 381, 298, 412
-0.998747, 223, 189, 238, 220
-0.998753, 265, 313, 280, 344
-0.998757, 1, 97, 128, 160
-0.99876, 187, 133, 202, 164
-0.998769, 17, 393, 144, 424
-0.998772, 271, 381, 286, 412
-0.99879, 277, 381, 292, 412
-0.998794, 257, 285, 272, 316
-0.998806, 265, 381, 280, 412
-0.998813, 355, 269, 370, 300
-0.998817, 349, 317, 364, 348
-0.998818, 1, 97, 128, 224
-0.998818, 35, 369, 50, 400
-0.99883, 157, 201, 172, 232
-0.99883, 217, 201, 232, 232
-0.998831, 355, 325, 370, 356
-0.998836, 181, 165, 196, 196
-0.998836, 161, 185, 176, 216
-0.998837, 19, 253, 34, 284
-0.998837, 193, 165, 208, 196
-0.998838, 35, 349, 50, 380
-0.998848, 289, 381, 304, 412
-0.998849, 17, 365, 144, 396
-0.998864, 133, 65, 164, 320
-0.998865, 197, 129, 212, 256
-0.998866, 161, 269, 288, 300
-0.99887, 213, 169, 228, 200
-0.998873, 249, 281, 264, 312
-0.998878, 355, 309, 370, 340
-0.998888, 29, 161, 60, 416
-0.998895, 107, 273, 122, 304
-0.998897, 229, 281, 244, 312
-0.9989, 269, 353, 300, 416
-0.998909, 193, 149, 320, 180
-0.998923, 225, 397, 352, 428
-0.99893, 187, 97, 202, 224
-0.998933, 137, 249, 168, 312
-0.998945, 85, 209, 116, 336
-0.998945, 113, 433, 240, 464
-0.998955, 161, 381, 288, 412
-0.99896, 177, 129, 304, 160
-0.998968, 31, 289, 46, 416
-0.998982, 139, 97, 154, 224
-0.998985, 65, 129, 192, 160
-0.998993, 31, 241, 46, 368
-0.998995, 1, 1, 32, 64
-0.998998, 345, 257, 375, 500
-0.999007, 179, 129, 194, 256
-0.99901, 223, 97, 238, 224
-0.999013, 205, 177, 220, 304
-0.999017, 313, 233, 375, 296
-0.999044, 263, 289, 278, 416
-0.999055, 167, 129, 182, 256
-0.999058, 163, 177, 178, 304
-0.99907, 1, 237, 128, 268
-0.999075, 13, 337, 28, 464
-0.999091, 129, 421, 256, 452
-0.999094, 161, 369, 224, 496
-0.999117, 97, 393, 160, 456
-0.999123, 199, 193, 214, 320
-0.999128, 139, 209, 154, 336
-0.999129, 23, 321, 38, 448
-0.999134, 169, 177, 184, 304
-0.999136, 185, 177, 200, 304
-0.999137, 147, 177, 162, 304
-0.999162, 197, 65, 228, 320
-0.999164, 37, 305, 52, 432
-0.999168, 7, 337, 22, 464
-0.999169, 25, 217, 56, 280
-0.999173, 193, 173, 320, 204
-0.999177, 223, 209, 238, 336
-0.999193, 193, 209, 208, 336
-0.999193, 65, 329, 192, 392
-0.999197, 179, 177, 194, 304
-0.999203, 251, 273, 266, 400
-0.999204, 215, 193, 230, 320
-0.999209, 45, 305, 60, 432
-0.999211, 157, 177, 172, 304
-0.999225, 125, 249, 156, 312
-0.999228, 173, 129, 188, 256
-0.999231, 1, 161, 64, 416
-0.999238, 223, 145, 238, 272
-0.999256, 21, 273, 36, 400
-0.999286, 113, 109, 240, 140
-0.9993, 1, 337, 16, 464
-0.999302, 137, 401, 200, 464
-0.999304, 1, 217, 375, 280
-0.999311, 193, 425, 320, 456
-0.999311, 17, 201, 80, 264
-0.999311, 161, 129, 176, 256
-0.999314, 181, 217, 212, 280
-0.999319, 257, 161, 320, 416
-0.999321, 139, 145, 154, 272
-0.999322, 305, 161, 368, 416
-0.999324, 237, 305, 268, 368
-0.999333, 191, 145, 206, 272
-0.999335, 205, 129, 220, 256
-0.999336, 17, 405, 144, 436
-0.999336, 195, 81, 210, 208
-0.999337, 77, 273, 92, 400
-0.999349, 89, 1, 152, 256
-0.999358, 173, 81, 188, 208
-0.999361, 49, 173, 176, 204
-0.999368, 213, 129, 228, 256
-0.999378, 65, 409, 96, 472
-0.99938, 201, 57, 232, 120
-0.999381, 209, 249, 240, 312
-0.999381, 99, 257, 114, 384
-0.999386, 351, 321, 366, 448
-0.999397, 83, 273, 98, 400
-0.999399, 257, 273, 272, 400
-0.9994, 51, 305, 66, 432
-0.99942, 113, 73, 240, 104
-0.999424, 181, 81, 196, 208
-0.999426, 81, 353, 112, 480
-0.999426, 71, 273, 86, 400
-0.99943, 91, 273, 106, 400
-0.999438, 209, 413, 336, 444
-0.999439, 163, 65, 178, 192
-0.999443, 155, 97, 170, 224
-0.999444, 33, 205, 160, 236
-0.999445, 59, 289, 74, 416
-0.999448, 29, 337, 44, 464
-0.999451, 37, 353, 52, 480
-0.999457, 221, 249, 252, 312
-0.999458, 257, 321, 272, 448
-0.999469, 121, 257, 136, 384
-0.999475, 147, 65, 162, 192
-0.999475, 223, 273, 238, 400
-0.999476, 269, 289, 300, 416
-0.999477, 173, 225, 188, 352
-0.999482, 205, 225, 220, 352
-0.999483, 133, 193, 148, 320
-0.999492, 105, 257, 120, 384
-0.999494, 1, 177, 128, 240
-0.999494, 233, 273, 248, 400
-0.999496, 181, 225, 196, 352
-0.999498, 229, 193, 244, 320
-0.9995, 129, 129, 256, 160
-0.999501, 149, 113, 164, 240
-0.999501, 127, 257, 142, 384
-0.999504, 115, 257, 130, 384
-0.999506, 133, 257, 148, 384
-0.999507, 223, 177, 238, 192
-0.999509, 149, 225, 164, 352
-0.999509, 359, 257, 374, 384
-0.99951, 195, 171, 210, 186
-0.99951, 179, 143, 194, 158
-0.99951, 221, 99, 236, 114
-0.99951, 107, 277, 122, 292
-0.99951, 223, 193, 238, 208
-0.999511, 195, 139, 210, 154
-0.999511, 173, 143, 188, 158
-0.999513, 223, 161, 238, 176
-0.999513, 221, 105, 236, 120
-0.999514, 181, 197, 196, 212
-0.999515, 351, 289, 366, 304
-0.999517, 223, 155, 238, 170
-0.999517, 187, 225, 202, 352
-0.999518, 147, 121, 162, 136
-0.999518, 165, 225, 180, 352
-0.999518, 193, 199, 208, 214
-0.999519, 173, 199, 188, 214
-0.999519, 211, 177, 226, 192
-0.99952, 223, 205, 238, 220
-0.999522, 357, 285, 372, 300
-0.999522, 211, 93, 226, 108
-0.999523, 137, 107, 152, 122
-0.999526, 361, 271, 375, 286
-0.999526, 207, 215, 222, 230
-0.999526, 15, 289, 30, 416
-0.999527, 161, 207, 176, 222
-0.999527, 163, 97, 178, 112
-0.999528, 157, 99, 172, 114
-0.999529, 175, 97, 190, 112
-0.999529, 213, 205, 228, 220
-0.999529, 167, 197, 182, 212
-0.999529, 351, 341, 366, 356
-0.99953, 195, 95, 210, 110
-0.99953, 223, 125, 238, 140
-0.99953, 41, 313, 56, 328
-0.999531, 221, 111, 236, 126
-0.999532, 223, 149, 238, 164
-0.999533, 211, 103, 226, 118
-0.999534, 223, 143, 238, 158
-0.999534, 169, 187, 184, 202
-0.999534, 145, 99, 160, 114
-0.999535, 197, 257, 212, 384
-0.999535, 223, 131, 238, 146
-0.999536, 239, 273, 254, 400
-0.999536, 223, 137, 238, 152
-0.999536, 173, 249, 204, 312
-0.999536, 201, 215, 216, 230
-0.999536, 223, 119, 238, 134
-0.999537, 205, 93, 220, 108
-0.999539, 155, 225, 170, 352
-0.999541, 147, 109, 162, 124
-0.999541, 139, 155, 154, 170
-0.999542, 183, 95, 198, 110
-0.999542, 241, 161, 272, 416
-0.999542, 169, 97, 184, 112
-0.999542, 259, 287, 274, 302
-0.999543, 33, 329, 48, 344
-0.999543, 195, 189, 210, 204
-0.999543, 137, 137, 152, 152
-0.999544, 9, 361, 24, 376
-0.999544, 189, 119, 204, 134
-0.999544, 163, 153, 178, 168
-0.999545, 205, 199, 220, 214
-0.999545, 167, 213, 182, 228
-0.999545, 213, 215, 228, 230
-0.999546, 187, 197, 202, 212
-0.999546, 139, 147, 154, 162
-0.999546, 57, 309, 72, 324
-0.999546, 189, 95, 204, 110
-0.999547, 151, 99, 166, 114
-0.999547, 33, 345, 48, 360
-0.999547, 139, 161, 154, 176
-0.999548, 1, 365, 16, 380
-0.999548, 213, 199, 228, 214
-0.999549, 205, 169, 220, 184
-0.999549, 175, 207, 190, 222
-0.99955, 65, 289, 80, 416
-0.999551, 193, 215, 208, 230
-0.999551, 165, 169, 180, 184
-0.999551, 33, 323, 48, 338
-0.999551, 139, 167, 154, 182
-0.999552, 305, 321, 336, 448
-0.999552, 65, 301, 80, 316
-0.999552, 159, 215, 174, 230
-0.999552, 187, 209, 202, 224
-0.999552, 175, 171, 190, 186
-0.999554, 141, 215, 156, 230
-0.999555, 245, 273, 260, 400
-0.999555, 169, 175, 184, 190
-0.999557, 217, 273, 232, 400
-0.999557, 139, 173, 154, 188
-0.999557, 137, 113, 152, 128
-0.999557, 183, 137, 198, 152
-0.999558, 205, 205, 220, 220
-0.999559, 213, 189, 228, 204
-0.999559, 143, 257, 158, 384
-0.999559, 17, 357, 32, 372
-0.99956, 139, 205, 154, 220
-0.99956, 137, 131, 152, 146
-0.99956, 31, 293, 46, 308
-0.99956, 355, 315, 370, 330
-0.999561, 149, 215, 164, 230
-0.999563, 137, 119, 152, 134
-0.999563, 139, 195, 154, 210
-0.999564, 197, 161, 212, 176
-0.999564, 175, 137, 190, 152
-0.999565, 221, 49, 236, 176
-0.999565, 139, 189, 154, 204
-0.999566, 205, 177, 220, 192
-0.999566, 139, 49, 154, 176
-0.999566, 39, 323, 54, 338
-0.999567, 161, 249, 192, 312
-0.999567, 199, 195, 214, 210
-0.999567, 49, 149, 176, 180
-0.999568, 139, 183, 154, 198
-0.999568, 29, 261, 44, 276
-0.999568, 137, 125, 152, 140
-0.99957, 101, 277, 116, 292
-0.99957, 73, 295, 88, 310
-0.999572, 45, 319, 60, 334
-0.999572, 211, 257, 226, 384
-0.999572, 29, 285, 44, 300
-0.999573, 51, 315, 66, 330
-0.999574, 221, 91, 236, 106
-0.999575, 31, 299, 46, 314
-0.999575, 211, 183, 226, 198
-0.999575, 189, 137, 204, 152
-0.999577, 29, 267, 44, 282
-0.999579, 93, 281, 108, 296
-0.999579, 29, 351, 44, 366
-0.99958, 169, 181, 184, 196
-0.999584, 29, 273, 44, 288
-0.999584, 31, 305, 46, 320
-0.999585, 79, 291, 94, 306
-0.999585, 29, 253, 44, 268
-0.999587, 29, 279, 44, 294
-0.999589, 31, 311, 46, 326
-0.999591, 87, 285, 102, 300
-0.999594, 7, 1, 22, 128
-0.999597, 197, 205, 212, 220
-0.999599, 167, 207, 182, 222
-0.999601, 137, 101, 152, 116
-0.999604, 39, 225, 54, 352
-0.999609, 131, 129, 146, 256
-0.99961, 173, 131, 188, 146
-0.999611, 23, 355, 38, 370
-0.999613, 167, 147, 182, 162
-0.999617, 31, 317, 46, 332
-0.999621, 101, 241, 132, 304
-0.999621, 353, 273, 368, 400
-0.999626, 345, 321, 360, 448
-0.999627, 1, 425, 375, 488
-0.999636, 173, 1, 204, 256
-0.999644, 205, 193, 220, 208
-0.999647, 259, 225, 274, 352
-0.999651, 241, 261, 368, 292
-0.99966, 311, 369, 326, 496
-0.99966, 269, 289, 284, 416
-0.999663, 213, 369, 244, 496
-0.999664, 5, 289, 20, 416
-0.999664, 205, 183, 220, 198
-0.999666, 321, 369, 336, 496
-0.999671, 177, 393, 304, 424
-0.999672, 161, 441, 288, 472
-0.999672, 187, 49, 202, 176
-0.999673, 45, 257, 60, 384
-0.999673, 19, 369, 34, 496
-0.999674, 1, 1, 16, 128
-0.999675, 197, 249, 228, 312
-0.99968, 213, 81, 228, 208
-0.999683, 87, 225, 102, 352
-0.999693, 201, 81, 216, 208
-0.999699, 231, 65, 246, 192
-0.999699, 19, 209, 34, 336
-0.99971, 145, 1, 176, 256
-0.99971, 53, 257, 68, 384
-0.999713, 29, 193, 44, 320
-0.999714, 281, 369, 296, 496
-0.999714, 129, 409, 256, 440
-0.999719, 305, 369, 320, 496
-0.99972, 129, 81, 144, 208
-0.999722, 65, 241, 80, 368
-0.999723, 217, 65, 280, 320
-0.999723, 257, 369, 272, 496
-0.999727, 289, 369, 304, 496
-0.99973, 81, 225, 96, 352
-0.99973, 339, 369, 354, 496
-0.999731, 265, 241, 280, 368
-0.999733, 233, 129, 248, 256
-0.999733, 251, 353, 266, 480
-0.999733, 113, 345, 240, 408
-0.999735, 347, 273, 362, 400
-0.999739, 205, 273, 220, 400
-0.999742, 299, 353, 314, 480
-0.999743, 253, 225, 268, 352
-0.999745, 275, 369, 290, 496
-0.999751, 43, 353, 58, 480
-0.999753, 59, 241, 74, 368
-0.999754, 333, 369, 348, 496
-0.999755, 327, 353, 342, 480
-0.999757, 49, 265, 176, 296
-0.99976, 267, 369, 282, 496
-0.999764, 75, 225, 90, 352
-0.999764, 107, 209, 122, 336
-0.999764, 53, 353, 68, 480
-0.999767, 237, 225, 252, 352
-0.999768, 149, 249, 180, 312
-0.999771, 245, 225, 260, 352
-0.999773, 59, 353, 74, 480
-0.999779, 157, 1, 188, 256
-0.999792, 209, 437, 336, 468
-0.999816, 325, 257, 356, 500
-0.999818, 209, 1, 240, 256
-0.999826, 221, 1, 252, 256
-0.999841, 241, 57, 368, 120
-0.999848, 65, 413, 192, 444
-0.999876, 185, 249, 216, 312
-0.999901, 65, 49, 192, 112
-0.999909, 33, 101, 160, 132
-0.999919, 241, 25, 368, 88
-0.999919, 109, 417, 140, 480
-0.999919, 217, 417, 248, 480
-0.999923, 273, 257, 304, 500
-0.999925, 1, 225, 128, 256
-0.99994, 153, 33, 184, 160
-0.999953, 137, 425, 168, 488
-0.999954, 89, 161, 120, 416
-0.999967, 41, 161, 72, 416
-0.99998, 105, 161, 136, 416
-0.999981, 65, 77, 192, 108
-0.999985, 193, 69, 320, 100
-0.999987, 5, 129, 36, 384
-0.999998, 89, 417, 120, 480
-1.00001, 113, 1, 144, 256
-1.00002, 1, 253, 128, 284
-1.00003, 281, 353, 312, 416
-1.00003, 49, 349, 176, 380
-1.00003, 53, 409, 84, 472
-1.00006, 289, 257, 320, 500
-1.00007, 241, 469, 368, 500
-1.00007, 233, 177, 264, 240
-1.00007, 185, 33, 216, 288
-1.00008, 113, 81, 144, 144
-1.0001, 341, 225, 372, 352
-1.00011, 17, 429, 144, 460
-1.00012, 73, 161, 104, 416
-1.00012, 161, 41, 288, 104
-1.00013, 53, 161, 84, 416
-1.00013, 137, 369, 200, 496
-1.00014, 1, 1, 128, 32
-1.00015, 301, 257, 332, 500
-1.00015, 49, 337, 176, 368
-1.00015, 225, 457, 352, 488
-1.00015, 313, 257, 344, 500
-1.00016, 1, 97, 64, 224
-1.00017, 321, 345, 352, 408
-1.00018, 17, 161, 80, 288
-1.00018, 65, 401, 192, 432
-1.00018, 49, 161, 112, 416
-1.00019, 129, 397, 256, 428
-1.00022, 241, 425, 368, 456
-1.00024, 261, 161, 292, 416
-1.00025, 21, 65, 52, 320
-1.00027, 93, 353, 124, 480
-1.00027, 161, 257, 288, 288
-1.00029, 241, 1, 368, 64
-1.0003, 81, 377, 208, 440
-1.00032, 169, 33, 200, 160
-1.00032, 233, 65, 264, 320
-1.00035, 65, 437, 192, 468
-1.00036, 1, 49, 256, 112
-1.00037, 113, 445, 240, 476
-1.0004, 241, 1, 368, 32
-1.00041, 241, 61, 368, 92
-1.00043, 97, 345, 224, 376
-1.00044, 113, 65, 144, 192
-1.00044, 317, 321, 348, 448
-1.00045, 49, 321, 176, 352
-1.00045, 17, 161, 48, 288
-1.00048, 233, 401, 296, 464
-1.00049, 241, 1, 368, 128
-1.00049, 177, 105, 304, 136
-1.0005, 193, 377, 256, 440
-1.0005, 241, 249, 368, 280
-1.0005, 241, 13, 368, 44
-1.00051, 225, 205, 352, 236
-1.00051, 113, 385, 240, 416
-1.00051, 345, 161, 375, 416
-1.00053, 281, 321, 312, 448
-1.00053, 1, 177, 128, 208
-1.00053, 97, 333, 224, 364
-1.00054, 129, 49, 375, 112
-1.00055, 1, 193, 128, 224
-1.00057, 145, 61, 272, 92
-1.00057, 1, 77, 128, 108
-1.00059, 201, 369, 232, 496
-1.0006, 193, 53, 320, 84
-1.00061, 33, 65, 64, 320
-1.00061, 129, 229, 256, 260
-1.00063, 113, 317, 240, 348
-1.00063, 1, 153, 128, 216
-1.00063, 113, 321, 240, 384
-1.00063, 241, 49, 368, 80
-1.00063, 225, 353, 256, 480
-1.00065, 17, 113, 144, 144
-1.00066, 209, 161, 336, 192
-1.00067, 1, 149, 128, 180
-1.00068, 97, 297, 224, 328
-1.00069, 113, 357, 240, 388
-1.00069, 97, 373, 224, 404
-1.0007, 193, 1, 320, 32
-1.00072, 81, 61, 208, 92
-1.00072, 209, 117, 336, 148
-1.00072, 241, 25, 368, 56
-1.00072, 241, 173, 368, 204
-1.00073, 241, 37, 368, 68
-1.00073, 145, 49, 208, 112
-1.00074, 181, 273, 212, 400
-1.00074, 209, 193, 336, 224
-1.00074, 1, 17, 128, 48
-1.00076, 329, 161, 360, 416
-1.00077, 1, 153, 375, 216
-1.0008, 41, 209, 72, 336
-1.00087, 325, 1, 356, 256
-1.00089, 1, 249, 375, 312
-1.00089, 337, 1, 368, 256
-1.00092, 309, 1, 340, 256
-1.00092, 209, 153, 336, 216
-1.00094, 1, 193, 375, 256
-1.00096, 121, 225, 184, 288
-1.00099, 225, 89, 352, 152
-1.00101, 33, 89, 96, 152
-1.00104, 97, 297, 224, 360
-1.00105, 285, 1, 316, 256
-1.00106, 233, 129, 264, 256
-1.00107, 1, 1, 32, 256
-1.00108, 185, 329, 248, 392
-1.00108, 113, 41, 240, 104
-1.00113, 129, 9, 375, 72
-1.00113, 297, 1, 328, 256
-1.00114, 77, 1, 108, 256
-1.00117, 45, 1, 76, 256
-1.00117, 113, 113, 144, 240
-1.00118, 101, 1, 132, 256
-1.00119, 61, 1, 92, 256
-1.00119, 265, 1, 296, 256
-1.00121, 1, 129, 128, 192
-1.00122, 341, 369, 372, 496
-1.00123, 253, 1, 284, 256
-1.00124, 65, 353, 192, 416
-1.00126, 165, 273, 196, 400
-1.00127, 273, 161, 304, 416
-1.00127, 89, 1, 120, 256
-1.00134, 293, 321, 324, 448
-1.00137, 185, 33, 216, 160
-1.00138, 105, 353, 136, 480
-1.00139, 137, 273, 168, 400
-1.0014, 1, 73, 375, 136
-1.00141, 1, 49, 128, 112
-1.00148, 193, 1, 320, 64
-1.00155, 309, 97, 340, 352
-1.00156, 33, 433, 160, 496
-1.00159, 217, 49, 248, 176
-1.0016, 293, 97, 324, 352
-1.00163, 1, 1, 64, 64
-1.00166, 209, 433, 272, 496
-1.00181, 9, 177, 72, 240
-1.00184, 1, 1, 256, 64
-1.00189, 241, 113, 368, 176
-1.00191, 189, 369, 220, 496
-1.00193, 1, 25, 256, 88
-1.00196, 113, 49, 176, 176
-1.00199, 1, 1, 128, 64
-1.00203, 113, 321, 240, 448
-1.00207, 1, 129, 375, 192
-1.00208, 153, 273, 184, 400
-1.0021, 29, 81, 60, 208
-1.00211, 1, 145, 64, 208
-1.0022, 129, 369, 160, 496
-1.00221, 1, 105, 64, 168
-1.00226, 117, 353, 148, 480
-1.0023, 241, 209, 368, 272
-1.00231, 169, 369, 200, 496
-1.00242, 1, 1, 375, 64
-1.00263, 161, 17, 224, 144
-1.00268, 329, 241, 360, 368
-1.00268, 145, 1, 272, 64
-1.00269, 273, 433, 336, 496
-1.00277, 1, 49, 375, 112
-1.00279, 49, 25, 176, 88
-1.00279, 1, 65, 64, 320
-1.0028, 65, 337, 128, 400
-1.00282, 145, 369, 176, 496
-1.00286, 1, 25, 375, 88
-1.00291, 97, 1, 224, 64
-1.00293, 13, 113, 44, 240
-1.00293, 1, 1, 256, 128
-1.003, 49, 1, 176, 64
-1.00306, 157, 369, 188, 496
-1.00308, 1, 73, 64, 136
-1.00309, 1, 25, 128, 88
-1.00312, 193, 353, 256, 416
-1.00324, 313, 193, 375, 320
-1.00352, 1, 97, 32, 224
-1.00361, 97, 209, 160, 272
-1.00363, 13, 65, 44, 192
-1.00364, 117, 17, 148, 144
-1.00365, 233, 65, 296, 128
-1.00368, 265, 401, 328, 464
-1.00368, 313, 433, 375, 496
-1.00373, 97, 1, 224, 128
-1.00377, 217, 41, 280, 104
-1.00377, 177, 1, 304, 128
-1.00384, 313, 1, 375, 256
-1.00385, 33, 65, 96, 320
-1.00386, 313, 1, 375, 128
-1.00392, 121, 49, 184, 112
-1.00409, 1, 1, 64, 128
-1.00412, 257, 57, 320, 120
-1.00431, 281, 57, 344, 120
-1.00433, 33, 65, 96, 128
-1.00433, 13, 1, 44, 128
-1.00437, 345, 1, 375, 128
-1.0044, 41, 233, 104, 296
-1.00441, 81, 105, 144, 168
-1.00442, 169, 353, 232, 416
-1.00443, 29, 161, 60, 288
-1.00446, 65, 297, 128, 360
-1.00455, 1, 161, 32, 288
-1.00467, 281, 1, 344, 256
-1.00469, 193, 41, 256, 104
-1.0047, 305, 57, 368, 120
-1.00472, 313, 33, 375, 96
-1.00477, 257, 193, 288, 320
-1.00477, 113, 313, 176, 376
-1.00477, 33, 81, 96, 208
-1.00498, 89, 345, 152, 408
-1.00501, 249, 49, 312, 176
-1.00501, 49, 1, 176, 128
-1.00507, 57, 81, 120, 144
-1.00511, 289, 329, 352, 392
-1.00512, 333, 1, 364, 128
-1.00516, 33, 177, 96, 240
-1.00517, 301, 1, 332, 128
-1.00532, 89, 305, 152, 368
-1.00532, 317, 1, 348, 128
-1.00539, 37, 33, 68, 160
-1.00547, 345, 177, 375, 304
-1.00548, 281, 33, 344, 96
-1.00548, 25, 113, 88, 176
-1.00556, 41, 81, 72, 208
-1.00559, 313, 49, 375, 176
-1.00565, 249, 233, 312, 296
-1.00568, 257, 1, 320, 256
-1.00571, 277, 49, 308, 176
-1.00571, 345, 49, 375, 176
-1.00571, 205, 321, 236, 448
-1.00572, 65, 369, 128, 432
-1.00573, 313, 9, 375, 72
-1.00575, 289, 1, 352, 128
-1.0058, 249, 49, 280, 176
-1.00581, 113, 345, 176, 408
-1.00584, 89, 49, 152, 112
-1.00588, 297, 49, 328, 176
-1.00588, 57, 1, 120, 256
-1.00597, 137, 329, 200, 392
-1.00598, 265, 49, 296, 176
-1.00599, 1, 1, 128, 128
-1.00601, 317, 49, 348, 176
-1.00604, 133, 1, 164, 128
-1.00605, 1, 49, 32, 176
-1.00606, 193, 321, 256, 448
-1.0064, 289, 49, 352, 176
-1.0065, 265, 1, 328, 128
-1.00676, 241, 193, 304, 320
-1.00762, 89, 305, 152, 432
-1.0077, 241, 1, 304, 128
-1.00784, 121, 1, 184, 128
-1.00785, 1, 49, 64, 176
-1.00836, 209, 1, 272, 128
-1.00849, 89, 1, 152, 128
-1.00856, 81, 97, 144, 224
-1.0089, 281, 161, 344, 416
-1.009, 49, 177, 112, 304
-1.00952, 281, 273, 344, 400
-1.00966, 113, 321, 176, 448
-1.01, 33, 33, 96, 160
-1.01059, 57, 33, 120, 160
-1.01111, 57, 81, 120, 208
-1.01114, 185, 1, 248, 128
-1.0113, 273, 97, 336, 224
-1.01164, 169, 321, 232, 448
-1.0124, 281, 225, 344, 352
-1.01271, 137, 321, 200, 448
-1.01273, 297, 97, 360, 224
-1.01279, 41, 129, 104, 256
-1.01364, 281, 145, 344, 272
-1.01398, 233, 97, 296, 224
-1.01435, 257, 145, 320, 272
-1.01442, 305, 145, 368, 272
-1.01531, 73, 161, 136, 288
