1926
-0.770509, 1, 1, 500, 256
-0.908767, 1, 1, 500, 333
-0.963905, 161, 1, 416, 333
-0.968275, 1, 1, 256, 333
-0.968764, 257, 1, 500, 333
-0.974551, 129, 161, 192, 224
-0.979819, 105, 169, 168, 232
-0.98332, 145, 161, 208, 288
-0.983442, 113, 65, 240, 320
-0.984033, 145, 1, 272, 333
-0.984033, 369, 1, 496, 333
-0.984076, 153, 161, 216, 224
-0.984152, 49, 1, 176, 333
-0.984171, 153, 161, 184, 224
-0.984544, 1, 177, 500, 304
-0.984563, 321, 1, 448, 333
-0.984743, 133, 169, 164, 232
-0.98545, 273, 1, 400, 333
-0.985491, 129, 137, 192, 200
-0.985569, 225, 1, 352, 333
-0.985806, 97, 1, 224, 333
-0.986218, 1, 1, 128, 333
-0.986322, 161, 33, 288, 288
-0.987023, 129, 185, 192, 248
-0.988357, 165, 153, 196, 216
-0.988607, 129, 145, 256, 272
-0.988643, 49, 33, 176, 288
-0.988656, 81, 169, 208, 232
-0.990188, 141, 145, 172, 208
-0.990462, 129, 165, 192, 196
-0.990976, 153, 145, 184, 272
-0.991391, 81, 177, 208, 304
-0.991546, 137, 177, 200, 208
-0.991568, 105, 173, 168, 204
-0.991624, 129, 169, 256, 232
-0.991786, 121, 161, 152, 224
-0.992271, 129, 153, 192, 184
-0.992543, 129, 169, 160, 200
-0.992673, 105, 145, 168, 208
-0.992715, 153, 161, 216, 192
-0.992835, 141, 169, 172, 200
-0.992837, 153, 169, 184, 200
-0.992892, 97, 161, 160, 192
-0.992903, 1, 161, 256, 288
-0.992996, 121, 177, 184, 304
-0.99309, 161, 149, 224, 180
-0.993091, 161, 177, 224, 208
-0.993255, 157, 157, 188, 188
-0.993266, 133, 181, 164, 212
-0.993289, 133, 157, 164, 188
-0.993313, 161, 181, 192, 212
-0.993329, 117, 165, 148, 196
-0.99338, 169, 149, 200, 180
-0.993383, 145, 157, 176, 188
-0.993426, 1, 113, 500, 240
-0.993468, 149, 181, 180, 212
-0.993596, 173, 161, 204, 192
-0.993681, 157, 145, 188, 176
-0.993683, 145, 145, 272, 208
-0.993722, 141, 193, 172, 224
-0.993764, 173, 177, 204, 208
-0.993795, 117, 177, 148, 208
-0.993819, 117, 153, 148, 184
-0.993826, 137, 189, 200, 220
-0.993934, 177, 137, 208, 168
-0.993992, 153, 193, 184, 224
-0.994013, 157, 133, 188, 164
-0.994051, 129, 193, 160, 224
-0.994058, 113, 193, 176, 224
-0.994082, 129, 141, 192, 172
-0.994087, 169, 137, 232, 168
-0.994097, 145, 145, 176, 176
-0.994168, 181, 149, 212, 180
-0.99418, 105, 157, 136, 188
-0.994212, 185, 169, 216, 200
-0.99424, 177, 125, 208, 156
-0.994251, 133, 145, 164, 176
-0.994268, 145, 133, 176, 164
-0.994297, 189, 137, 220, 168
-0.994299, 121, 137, 152, 168
-0.994301, 177, 165, 240, 196
-0.994311, 165, 121, 196, 152
-0.994314, 173, 189, 204, 220
-0.994314, 165, 301, 196, 332
-0.994315, 381, 93, 412, 124
-0.994315, 405, 93, 436, 124
-0.994315, 389, 105, 420, 136
-0.994315, 401, 105, 432, 136
-0.994316, 117, 189, 148, 220
-0.994319, 189, 125, 220, 156
-0.994319, 149, 301, 180, 332
-0.994323, 381, 81, 412, 112
-0.994323, 393, 81, 424, 112
-0.994323, 405, 81, 436, 112
-0.994324, 105, 169, 136, 200
-0.994325, 373, 277, 404, 308
-0.994325, 385, 277, 416, 308
-0.994325, 397, 277, 428, 308
-0.994325, 409, 277, 440, 308
-0.994325, 421, 277, 452, 308
-0.994325, 433, 277, 464, 308
-0.994325, 445, 277, 476, 308
-0.994325, 457, 277, 488, 308
-0.994325, 469, 277, 500, 308
-0.994325, 181, 285, 212, 316
-0.994325, 1, 289, 32, 320
-0.994325, 13, 289, 44, 320
-0.994325, 25, 289, 56, 320
-0.994325, 37, 289, 68, 320
-0.994325, 49, 289, 80, 320
-0.994325, 61, 289, 92, 320
-0.994325, 73, 289, 104, 320
-0.994325, 85, 289, 116, 320
-0.994325, 97, 289, 128, 320
-0.994325, 109, 289, 140, 320
-0.994325, 121, 289, 152, 320
-0.994325, 133, 289, 164, 320
-0.994325, 145, 289, 176, 320
-0.994325, 157, 289, 188, 320
-0.994325, 169, 289, 200, 320
-0.994325, 193, 289, 224, 320
-0.994325, 205, 289, 236, 320
-0.994325, 217, 289, 248, 320
-0.994325, 229, 289, 260, 320
-0.994325, 241, 289, 272, 320
-0.994325, 253, 289, 284, 320
-0.994325, 265, 289, 296, 320
-0.994325, 277, 289, 308, 320
-0.994325, 289, 289, 320, 320
-0.994325, 301, 289, 332, 320
-0.994325, 313, 289, 344, 320
-0.994325, 325, 289, 356, 320
-0.994325, 337, 289, 368, 320
-0.994325, 349, 289, 380, 320
-0.994325, 361, 289, 392, 320
-0.994325, 373, 289, 404, 320
-0.994325, 385, 289, 416, 320
-0.994325, 397, 289, 428, 320
-0.994325, 409, 289, 440, 320
-0.994325, 421, 289, 452, 320
-0.994325, 433, 289, 464, 320
-0.994325, 445, 289, 476, 320
-0.994325, 457, 289, 488, 320
-0.994325, 469, 289, 500, 320
-0.994325, 181, 297, 212, 328
-0.994325, 5, 301, 36, 332
-0.994325, 17, 301, 48, 332
-0.994325, 29, 301, 60, 332
-0.994325, 41, 301, 72, 332
-0.994325, 53, 301, 84, 332
-0.994325, 65, 301, 96, 332
-0.994325, 77, 301, 108, 332
-0.994325, 89, 301, 120, 332
-0.994325, 101, 301, 132, 332
-0.994325, 113, 301, 144, 332
-0.994325, 125, 301, 156, 332
-0.994325, 137, 301, 168, 332
-0.994325, 193, 301, 224, 332
-0.994325, 205, 301, 236, 332
-0.994325, 217, 301, 248, 332
-0.994325, 229, 301, 260, 332
-0.994325, 241, 301, 272, 332
-0.994325, 253, 301, 284, 332
-0.994325, 265, 301, 296, 332
-0.994325, 277, 301, 308, 332
-0.994325, 289, 301, 320, 332
-0.994325, 301, 301, 332, 332
-0.994325, 313, 301, 344, 332
-0.994325, 325, 301, 356, 332
-0.994325, 337, 301, 368, 332
-0.994325, 349, 301, 380, 332
-0.994325, 361, 301, 392, 332
-0.994325, 373, 301, 404, 332
-0.994325, 385, 301, 416, 332
-0.994325, 397, 301, 428, 332
-0.994325, 409, 301, 440, 332
-0.994325, 421, 301, 452, 332
-0.994325, 433, 301, 464, 332
-0.994325, 445, 301, 476, 332
-0.994325, 457, 301, 488, 332
-0.994325, 469, 301, 500, 332
-0.994536, 105, 149, 168, 180
-0.994846, 73, 157, 136, 188
-0.994908, 81, 173, 144, 204
-0.994918, 129, 129, 192, 160
-0.994964, 137, 201, 200, 232
-0.994999, 89, 185, 152, 216
-0.995079, 161, 125, 224, 156
-0.995142, 135, 161, 150, 224
-0.995169, 89, 137, 152, 168
-0.995184, 129, 117, 192, 148
-0.995193, 353, 93, 416, 124
-0.995193, 401, 93, 464, 124
-0.995193, 369, 105, 432, 136
-0.995193, 393, 105, 456, 136
-0.995211, 129, 301, 192, 332
-0.995211, 153, 301, 216, 332
-0.995216, 353, 81, 416, 112
-0.995216, 377, 81, 440, 112
-0.995216, 401, 81, 464, 112
-0.995216, 169, 189, 232, 220
-0.995221, 313, 241, 376, 272
-0.995221, 337, 241, 400, 272
-0.995221, 361, 241, 424, 272
-0.995221, 385, 241, 448, 272
-0.995221, 409, 241, 472, 272
-0.995221, 433, 241, 496, 272
-0.995221, 1, 253, 64, 284
-0.995221, 25, 253, 88, 284
-0.995221, 49, 253, 112, 284
-0.995221, 73, 253, 136, 284
-0.995221, 97, 253, 160, 284
-0.995221, 121, 253, 184, 284
-0.995221, 145, 253, 208, 284
-0.995221, 169, 253, 232, 284
-0.995221, 193, 253, 256, 284
-0.995221, 217, 253, 280, 284
-0.995221, 241, 253, 304, 284
-0.995221, 265, 253, 328, 284
-0.995221, 289, 253, 352, 284
-0.995221, 313, 253, 376, 284
-0.995221, 337, 253, 400, 284
-0.995221, 361, 253, 424, 284
-0.995221, 385, 253, 448, 284
-0.995221, 409, 253, 472, 284
-0.995221, 433, 253, 496, 284
-0.995221, 1, 265, 64, 296
-0.995221, 25, 265, 88, 296
-0.995221, 49, 265, 112, 296
-0.995221, 73, 265, 136, 296
-0.995221, 97, 265, 160, 296
-0.995221, 121, 265, 184, 296
-0.995221, 145, 265, 208, 296
-0.995221, 169, 265, 232, 296
-0.995221, 193, 265, 256, 296
-0.995221, 217, 265, 280, 296
-0.995221, 241, 265, 304, 296
-0.995221, 265, 265, 328, 296
-0.995221, 289, 265, 352, 296
-0.995221, 313, 265, 376, 296
-0.995221, 337, 265, 400, 296
-0.995221, 361, 265, 424, 296
-0.995221, 385, 265, 448, 296
-0.995221, 409, 265, 472, 296
-0.995221, 433, 265, 496, 296
-0.995221, 1, 277, 64, 308
-0.995221, 25, 277, 88, 308
-0.995221, 49, 277, 112, 308
-0.995221, 73, 277, 136, 308
-0.995221, 97, 277, 160, 308
-0.995221, 121, 277, 184, 308
-0.995221, 145, 277, 208, 308
-0.995221, 169, 277, 232, 308
-0.995221, 193, 277, 256, 308
-0.995221, 217, 277, 280, 308
-0.995221, 241, 277, 304, 308
-0.995221, 265, 277, 328, 308
-0.995221, 289, 277, 352, 308
-0.995221, 313, 277, 376, 308
-0.995221, 337, 277, 400, 308
-0.995221, 361, 277, 424, 308
-0.995221, 385, 277, 448, 308
-0.995221, 409, 277, 472, 308
-0.995221, 433, 277, 496, 308
-0.995221, 1, 289, 64, 320
-0.995221, 25, 289, 88, 320
-0.995221, 49, 289, 112, 320
-0.995221, 73, 289, 136, 320
-0.995221, 97, 289, 160, 320
-0.995221, 121, 289, 184, 320
-0.995221, 145, 289, 208, 320
-0.995221, 169, 289, 232, 320
-0.995221, 193, 289, 256, 320
-0.995221, 217, 289, 280, 320
-0.995221, 241, 289, 304, 320
-0.995221, 265, 289, 328, 320
-0.995221, 289, 289, 352, 320
-0.995221, 313, 289, 376, 320
-0.995221, 337, 289, 400, 320
-0.995221, 361, 289, 424, 320
-0.995221, 385, 289, 448, 320
-0.995221, 409, 289, 472, 320
-0.995221, 433, 289, 496, 320
-0.995221, 1, 301, 64, 332
-0.995221, 25, 301, 88, 332
-0.995221, 49, 301, 112, 332
-0.995221, 73, 301, 136, 332
-0.995221, 97, 301, 160, 332
-0.995221, 193, 301, 256, 332
-0.995221, 217, 301, 280, 332
-0.995221, 241, 301, 304, 332
-0.995221, 265, 301, 328, 332
-0.995221, 289, 301, 352, 332
-0.995221, 313, 301, 376, 332
-0.995221, 337, 301, 400, 332
-0.995221, 361, 301, 424, 332
-0.995221, 385, 301, 448, 332
-0.995221, 409, 301, 472, 332
-0.995221, 433, 301, 496, 332
-0.995286, 1, 65, 128, 320
-0.995307, 49, 145, 176, 208
-0.995326, 169, 137, 232, 200
-0.995378, 165, 145, 196, 272
-0.995413, 129, 113, 384, 240
-0.995585, 97, 161, 352, 288
-0.995714, 321, 65, 448, 320
-0.995714, 369, 65, 496, 320
-0.996033, 141, 161, 156, 224
-0.99629, 153, 137, 184, 200
-0.996315, 169, 153, 184, 216
-0.996336, 161, 161, 176, 224
-0.996577, 1, 169, 256, 232
-0.996713, 147, 169, 162, 232
-0.996925, 145, 185, 176, 248
-0.996998, 155, 161, 170, 224
-0.99713, 135, 169, 150, 200
-0.997209, 169, 129, 232, 256
-0.997382, 97, 161, 352, 224
-0.997491, 113, 173, 240, 204
-0.99759, 65, 173, 192, 204
-0.997712, 141, 169, 156, 200
-0.997862, 273, 33, 400, 288
-0.997961, 129, 161, 144, 224
-0.99798, 167, 165, 182, 196
-0.997983, 175, 145, 190, 208
-0.998066, 81, 311, 112, 326
-0.998066, 93, 311, 124, 326
-0.998066, 105, 311, 136, 326
-0.998066, 117, 311, 148, 326
-0.998066, 129, 311, 160, 326
-0.998066, 141, 311, 172, 326
-0.998066, 181, 311, 212, 326
-0.998066, 193, 311, 224, 326
-0.998066, 205, 311, 236, 326
-0.998066, 217, 311, 248, 326
-0.998066, 229, 311, 260, 326
-0.998066, 241, 311, 272, 326
-0.998066, 253, 311, 284, 326
-0.998066, 265, 311, 296, 326
-0.998066, 277, 311, 308, 326
-0.998066, 289, 311, 320, 326
-0.998066, 301, 311, 332, 326
-0.998066, 313, 311, 344, 326
-0.998066, 325, 311, 356, 326
-0.998066, 337, 311, 368, 326
-0.998066, 349, 311, 380, 326
-0.998066, 361, 311, 392, 326
-0.998066, 373, 311, 404, 326
-0.998066, 385, 311, 416, 326
-0.998066, 397, 311, 428, 326
-0.998066, 409, 311, 440, 326
-0.998066, 421, 311, 452, 326
-0.998066, 433, 311, 464, 326
-0.998066, 445, 311, 476, 326
-0.998066, 457, 311, 488, 326
-0.998066, 469, 311, 500, 326
-0.998066, 9, 317, 40, 332
-0.998066, 21, 317, 52, 332
-0.998066, 33, 317, 64, 332
-0.998066, 45, 317, 76, 332
-0.998066, 57, 317, 88, 332
-0.998066, 69, 317, 100, 332
-0.998066, 81, 317, 112, 332
-0.998066, 93, 317, 124, 332
-0.998066, 105, 317, 136, 332
-0.998066, 117, 317, 148, 332
-0.998066, 129, 317, 160, 332
-0.998066, 193, 317, 224, 332
-0.998066, 205, 317, 236, 332
-0.998066, 217, 317, 248, 332
-0.998066, 229, 317, 260, 332
-0.998066, 241, 317, 272, 332
-0.998066, 253, 317, 284, 332
-0.998066, 265, 317, 296, 332
-0.998066, 277, 317, 308, 332
-0.998066, 289, 317, 320, 332
-0.998066, 301, 317, 332, 332
-0.998066, 313, 317, 344, 332
-0.998066, 325, 317, 356, 332
-0.998066, 337, 317, 368, 332
-0.998066, 349, 317, 380, 332
-0.998066, 361, 317, 392, 332
-0.998066, 373, 317, 404, 332
-0.998066, 385, 317, 416, 332
-0.998066, 397, 317, 428, 332
-0.998066, 409, 317, 440, 332
-0.998066, 421, 317, 452, 332
-0.998066, 433, 317, 464, 332
-0.998066, 445, 317, 476, 332
-0.998066, 457, 317, 488, 332
-0.998066, 469, 317, 500, 332
-0.998066, 141, 135, 172, 150
-0.998066, 181, 317, 212, 332
-0.998067, 129, 151, 160, 166
-0.998067, 161, 311, 192, 326
-0.998067, 141, 317, 172, 332
-0.998067, 189, 169, 220, 184
-0.998068, 137, 141, 168, 156
-0.99807, 189, 143, 220, 158
-0.998071, 189, 175, 220, 190
-0.998071, 169, 317, 200, 332
-0.998071, 153, 317, 184, 332
-0.998072, 105, 169, 136, 184
-0.998073, 169, 193, 200, 208
-0.998075, 177, 137, 208, 152
-0.99808, 117, 157, 148, 172
-0.99808, 157, 137, 188, 152
-0.998082, 125, 199, 156, 214
-0.998086, 121, 193, 152, 208
-0.998089, 173, 187, 204, 202
-0.998091, 185, 149, 216, 164
-0.998092, 105, 163, 136, 178
-0.998092, 141, 151, 172, 166
-0.998095, 113, 181, 144, 196
-0.998096, 129, 157, 160, 172
-0.998107, 149, 199, 180, 214
-0.998123, 109, 175, 140, 190
-0.998129, 125, 187, 156, 202
-0.998131, 141, 157, 172, 172
-0.998133, 177, 169, 208, 184
-0.998141, 161, 143, 192, 158
-0.998145, 151, 173, 166, 204
-0.998149, 149, 145, 180, 160
-0.998158, 177, 143, 208, 158
-0.998158, 137, 199, 168, 214
-0.998175, 157, 193, 188, 208
-0.998185, 129, 163, 160, 178
-0.998185, 173, 163, 204, 178
-0.998191, 133, 193, 164, 208
-0.9982, 161, 187, 192, 202
-0.9982, 129, 161, 256, 192
-0.998208, 177, 155, 208, 170
-0.998211, 153, 155, 184, 170
-0.998212, 117, 163, 148, 178
-0.998221, 129, 137, 384, 200
-0.998227, 137, 187, 168, 202
-0.998232, 173, 149, 204, 164
-0.998235, 125, 181, 156, 196
-0.99824, 145, 193, 176, 208
-0.998262, 161, 149, 192, 164
-0.998264, 165, 169, 196, 184
-0.998274, 173, 181, 204, 196
-0.998274, 161, 161, 192, 176
-0.998275, 165, 155, 196, 170
-0.99829, 177, 175, 208, 190
-0.998296, 149, 187, 180, 202
-0.9983, 141, 163, 172, 178
-0.998314, 121, 175, 152, 190
-0.998317, 155, 137, 170, 200
-0.998318, 137, 181, 168, 196
-0.998344, 165, 175, 196, 190
-0.998346, 139, 137, 154, 200
-0.998347, 149, 181, 180, 196
-0.998381, 117, 169, 148, 184
-0.998401, 147, 145, 162, 208
-0.998401, 135, 157, 150, 188
-0.998402, 161, 181, 192, 196
-0.998419, 129, 165, 144, 196
-0.998449, 153, 169, 184, 184
-0.99845, 129, 175, 192, 190
-0.998452, 141, 169, 172, 184
-0.99848, 157, 169, 172, 200
-0.998506, 153, 185, 168, 248
-0.998537, 171, 177, 186, 208
-0.998541, 133, 175, 164, 190
-0.998552, 165, 153, 180, 184
-0.998559, 129, 169, 192, 184
-0.998563, 129, 169, 160, 184
-0.998574, 171, 145, 186, 176
-0.998575, 153, 175, 184, 190
-0.998576, 167, 177, 182, 240
-0.998592, 163, 177, 178, 208
-0.998603, 173, 157, 188, 188
-0.998614, 137, 177, 168, 304
-0.998656, 137, 181, 200, 196
-0.99866, 225, 65, 352, 320
-0.998662, 145, 181, 160, 212
-0.998669, 105, 175, 168, 190
-0.998669, 161, 179, 224, 194
-0.998691, 153, 169, 216, 184
-0.998694, 97, 169, 160, 184
-0.99871, 129, 163, 192, 178
-0.99872, 113, 181, 176, 196
-0.998723, 153, 157, 216, 172
-0.998724, 137, 187, 200, 202
-0.99875, 129, 153, 192, 168
-0.99876, 161, 151, 224, 166
-0.998761, 153, 163, 216, 178
-0.998774, 113, 187, 176, 202
-0.99878, 177, 173, 240, 188
-0.998787, 137, 193, 200, 208
-0.998791, 129, 147, 192, 162
-0.998793, 161, 185, 224, 200
-0.998793, 1, 65, 500, 192
-0.998798, 143, 157, 158, 188
-0.998805, 113, 197, 176, 212
-0.998816, 169, 145, 232, 160
-0.998817, 65, 161, 192, 192
-0.998836, 89, 163, 152, 178
-0.998845, 81, 175, 144, 190
-0.998846, 137, 199, 200, 214
-0.99885, 89, 181, 152, 196
-0.998855, 177, 157, 240, 172
-0.998856, 137, 141, 200, 156
-0.998859, 161, 191, 224, 206
-0.998864, 177, 167, 240, 182
-0.998865, 89, 189, 152, 204
-0.998865, 161, 139, 224, 154
-0.998872, 185, 151, 248, 166
-0.998876, 73, 169, 136, 184
-0.99888, 105, 151, 168, 166
-0.998882, 137, 135, 200, 150
-0.998884, 129, 317, 192, 332
-0.998884, 169, 317, 232, 332
-0.998884, 369, 113, 432, 128
-0.998884, 417, 113, 480, 128
-0.998884, 385, 119, 448, 134
-0.998884, 409, 119, 472, 134
-0.998885, 97, 157, 160, 172
-0.998885, 169, 133, 232, 148
-0.998886, 113, 133, 176, 148
-0.998886, 369, 107, 432, 122
-0.998886, 393, 107, 456, 122
-0.998886, 417, 107, 480, 122
-0.998886, 105, 317, 168, 332
-0.998886, 217, 293, 280, 308
-0.998886, 241, 293, 304, 308
-0.998886, 265, 293, 328, 308
-0.998886, 289, 293, 352, 308
-0.998886, 313, 293, 376, 308
-0.998886, 337, 293, 400, 308
-0.998886, 361, 293, 424, 308
-0.998886, 385, 293, 448, 308
-0.998886, 409, 293, 472, 308
-0.998886, 433, 293, 496, 308
-0.998886, 1, 299, 64, 314
-0.998886, 25, 299, 88, 314
-0.998886, 49, 299, 112, 314
-0.998886, 73, 299, 136, 314
-0.998886, 97, 299, 160, 314
-0.998886, 121, 299, 184, 314
-0.998886, 145, 299, 208, 314
-0.998886, 169, 299, 232, 314
-0.998886, 193, 299, 256, 314
-0.998886, 217, 299, 280, 314
-0.998886, 241, 299, 304, 314
-0.998886, 265, 299, 328, 314
-0.998886, 289, 299, 352, 314
-0.998886, 313, 299, 376, 314
-0.998886, 337, 299, 400, 314
-0.998886, 361, 299, 424, 314
-0.998886, 385, 299, 448, 314
-0.998886, 409, 299, 472, 314
-0.998886, 433, 299, 496, 314
-0.998886, 1, 305, 64, 320
-0.998886, 25, 305, 88, 320
-0.998886, 49, 305, 112, 320
-0.998886, 73, 305, 136, 320
-0.998886, 97, 305, 160, 320
-0.998886, 121, 305, 184, 320
-0.998886, 145, 305, 208, 320
-0.998886, 169, 305, 232, 320
-0.998886, 193, 305, 256, 320
-0.998886, 217, 305, 280, 320
-0.998886, 241, 305, 304, 320
-0.998886, 265, 305, 328, 320
-0.998886, 289, 305, 352, 320
-0.998886, 313, 305, 376, 320
-0.998886, 337, 305, 400, 320
-0.998886, 361, 305, 424, 320
-0.998886, 385, 305, 448, 320
-0.998886, 409, 305, 472, 320
-0.998886, 433, 305, 496, 320
-0.998886, 1, 311, 64, 326
-0.998886, 25, 311, 88, 326
-0.998886, 49, 311, 112, 326
-0.998886, 73, 311, 136, 326
-0.998886, 97, 311, 160, 326
-0.998886, 121, 311, 184, 326
-0.998886, 145, 311, 208, 326
-0.998886, 169, 311, 232, 326
-0.998886, 193, 311, 256, 326
-0.998886, 217, 311, 280, 326
-0.998886, 241, 311, 304, 326
-0.998886, 265, 311, 328, 326
-0.998886, 289, 311, 352, 326
-0.998886, 313, 311, 376, 326
-0.998886, 337, 311, 400, 326
-0.998886, 361, 311, 424, 326
-0.998886, 385, 311, 448, 326
-0.998886, 409, 311, 472, 326
-0.998886, 433, 311, 496, 326
-0.998886, 9, 317, 72, 332
-0.998886, 33, 317, 96, 332
-0.998886, 57, 317, 120, 332
-0.998886, 81, 317, 144, 332
-0.998886, 193, 317, 256, 332
-0.998886, 217, 317, 280, 332
-0.998886, 241, 317, 304, 332
-0.998886, 265, 317, 328, 332
-0.998886, 289, 317, 352, 332
-0.998886, 313, 317, 376, 332
-0.998886, 337, 317, 400, 332
-0.998886, 361, 317, 424, 332
-0.998886, 385, 317, 448, 332
-0.998886, 409, 317, 472, 332
-0.998886, 433, 317, 496, 332
-0.998904, 159, 185, 174, 248
-0.99893, 169, 129, 184, 192
-0.998954, 129, 177, 144, 208
-0.998963, 129, 113, 192, 240
-0.998976, 177, 177, 192, 208
-0.998978, 157, 185, 172, 216
-0.998997, 129, 137, 144, 200
-0.999005, 49, 113, 176, 240
-0.999018, 177, 145, 192, 176
-0.99906, 33, 169, 160, 232
-0.999108, 137, 181, 152, 212
-0.999135, 163, 137, 178, 200
-0.999158, 159, 157, 174, 188
-0.999197, 179, 157, 194, 188
-0.999246, 151, 185, 166, 216
-0.9993, 129, 153, 144, 184
-0.9993, 149, 197, 164, 228
-0.999315, 257, 317, 272, 332
-0.999315, 263, 317, 278, 332
-0.999315, 269, 317, 284, 332
-0.999315, 275, 317, 290, 332
-0.999315, 281, 317, 296, 332
-0.999315, 287, 317, 302, 332
-0.999315, 293, 317, 308, 332
-0.999315, 299, 317, 314, 332
-0.999315, 305, 317, 320, 332
-0.999315, 311, 317, 326, 332
-0.999315, 317, 317, 332, 332
-0.999315, 323, 317, 338, 332
-0.999315, 329, 317, 344, 332
-0.999315, 335, 317, 350, 332
-0.999315, 341, 317, 356, 332
-0.999315, 347, 317, 362, 332
-0.999315, 353, 317, 368, 332
-0.999315, 359, 317, 374, 332
-0.999315, 365, 317, 380, 332
-0.999315, 371, 317, 386, 332
-0.999315, 377, 317, 392, 332
-0.999315, 383, 317, 398, 332
-0.999315, 389, 317, 404, 332
-0.999315, 395, 317, 410, 332
-0.999315, 401, 317, 416, 332
-0.999315, 407, 317, 422, 332
-0.999315, 413, 317, 428, 332
-0.999315, 419, 317, 434, 332
-0.999315, 425, 317, 440, 332
-0.999315, 431, 317, 446, 332
-0.999315, 437, 317, 452, 332
-0.999315, 443, 317, 458, 332
-0.999315, 449, 317, 464, 332
-0.999315, 455, 317, 470, 332
-0.999315, 461, 317, 476, 332
-0.999315, 467, 317, 482, 332
-0.999315, 473, 317, 488, 332
-0.999315, 479, 317, 494, 332
-0.999315, 485, 317, 500, 332
-0.999315, 47, 29, 62, 44
-0.999315, 53, 31, 68, 46
-0.999315, 59, 31, 74, 46
-0.999315, 177, 131, 192, 146
-0.999315, 183, 131, 198, 146
-0.999315, 189, 139, 204, 154
-0.999315, 135, 151, 150, 166
-0.999315, 141, 151, 156, 166
-0.999316, 165, 311, 180, 326
-0.999316, 171, 311, 186, 326
-0.999317, 51, 47, 66, 62
-0.999317, 189, 145, 204, 160
-0.999317, 187, 185, 202, 200
-0.999317, 179, 191, 194, 206
-0.999317, 185, 191, 200, 206
-0.999317, 171, 195, 186, 210
-0.999317, 47, 35, 62, 50
-0.999318, 187, 169, 202, 184
-0.999319, 57, 37, 72, 52
-0.999319, 47, 41, 62, 56
-0.999319, 57, 43, 72, 58
-0.999319, 125, 185, 140, 200
-0.999319, 155, 151, 170, 166
-0.99932, 175, 317, 190, 332
-0.999323, 165, 317, 180, 332
-0.999324, 135, 193, 150, 208
-0.999326, 187, 175, 202, 190
-0.999329, 171, 137, 186, 152
-0.999338, 123, 161, 138, 176
-0.999338, 181, 137, 196, 152
-0.99934, 179, 185, 194, 200
-0.999342, 183, 155, 198, 170
-0.999345, 143, 185, 158, 200
-0.999348, 161, 193, 176, 208
-0.99935, 181, 167, 196, 182
-0.999352, 171, 189, 186, 204
-0.999359, 161, 153, 176, 168
-0.999362, 135, 157, 150, 172
-0.999364, 165, 141, 180, 156
-0.999366, 149, 161, 164, 192
-0.999367, 155, 157, 170, 172
-0.999368, 153, 199, 168, 214
-0.999368, 137, 187, 152, 202
-0.999377, 179, 161, 194, 176
-0.999377, 145, 161, 160, 176
-0.999378, 123, 167, 138, 182
-0.99938, 141, 197, 156, 212
-0.99938, 161, 147, 176, 162
-0.999389, 165, 187, 180, 202
-0.99939, 153, 163, 168, 178
-0.999392, 161, 159, 176, 174
-0.999394, 123, 173, 138, 188
-0.999399, 129, 161, 144, 176
-0.999404, 125, 179, 140, 194
-0.999411, 183, 143, 198, 158
-0.999421, 143, 191, 158, 206
-0.999434, 147, 199, 162, 214
-0.999445, 175, 169, 190, 232
-0.999449, 173, 133, 188, 164
-0.99945, 173, 143, 188, 158
-0.999451, 149, 193, 164, 208
-0.999454, 167, 163, 182, 178
-0.999458, 173, 163, 188, 178
-0.999463, 169, 145, 184, 272
-0.999467, 157, 181, 172, 196
-0.999468, 155, 193, 170, 208
-0.999468, 1, 17, 500, 144
-0.999475, 181, 173, 196, 188
-0.999475, 177, 155, 192, 170
-0.999476, 131, 181, 146, 196
-0.999499, 167, 157, 182, 172
-0.9995, 181, 149, 196, 164
-0.999506, 147, 167, 162, 182
-0.999514, 181, 137, 196, 200
-0.999518, 179, 179, 194, 194
-0.999521, 153, 169, 168, 184
-0.999534, 135, 163, 150, 178
-0.999541, 173, 169, 188, 184
-0.999542, 151, 181, 166, 196
-0.999542, 149, 187, 164, 202
-0.999544, 129, 167, 144, 182
-0.999545, 159, 187, 174, 202
-0.999551, 143, 193, 158, 224
-0.999553, 123, 161, 138, 192
-0.999553, 161, 165, 176, 180
-0.999558, 183, 137, 198, 168
-0.999566, 173, 183, 188, 198
-0.999569, 167, 169, 182, 184
-0.999579, 171, 149, 186, 164
-0.999584, 141, 167, 156, 182
-0.999585, 175, 129, 190, 256
-0.999589, 163, 181, 178, 196
-0.999591, 141, 179, 156, 194
-0.999595, 129, 173, 144, 188
-0.999599, 133, 129, 164, 256
-0.9996, 141, 185, 156, 248
-0.999618, 159, 171, 174, 186
-0.999661, 173, 177, 188, 192
-0.999668, 153, 175, 168, 190
-0.999684, 135, 175, 150, 190
-0.999694, 143, 173, 158, 188
-0.999713, 167, 175, 182, 190
-0.999721, 157, 145, 172, 272
-0.999721, 97, 145, 224, 208
-0.999732, 149, 177, 164, 304
-0.999739, 183, 169, 198, 200
-0.999755, 113, 149, 240, 180
-0.999764, 163, 145, 178, 272
-0.99977, 113, 185, 240, 216
-0.99978, 159, 141, 174, 172
-0.999782, 155, 197, 170, 228
-0.999813, 135, 169, 150, 184
-0.999825, 165, 97, 180, 224
-0.999831, 153, 149, 168, 180
-0.999843, 147, 193, 162, 256
-0.999854, 175, 177, 190, 304
-0.999867, 181, 113, 196, 240
-0.999876, 135, 161, 150, 288
-0.999902, 165, 141, 180, 172
-0.999907, 129, 161, 144, 288
-0.999922, 163, 189, 178, 220
-0.999931, 171, 81, 186, 208
-0.999941, 137, 113, 152, 240
-0.999953, 155, 193, 170, 320
-0.999955, 49, 185, 176, 216
-0.999959, 143, 161, 158, 288
-0.99996, 165, 129, 180, 160
-0.999963, 17, 161, 144, 192
-0.999969, 147, 113, 162, 240
-0.99998, 155, 97, 170, 224
-0.999984, 179, 125, 194, 156
-0.999991, 135, 145, 150, 176
-1.00002, 125, 113, 140, 240
-1.00003, 135, 185, 150, 248
-1.00004, 169, 189, 184, 220
-1.00005, 123, 145, 138, 208
-1.00005, 123, 173, 138, 204
-1.00007, 181, 177, 196, 304
-1.0001, 161, 173, 288, 204
-1.0001, 137, 193, 152, 224
-1.0001, 177, 145, 208, 208
-1.0001, 183, 181, 198, 212
-1.00012, 169, 193, 184, 320
-1.00014, 163, 193, 178, 320
-1.00015, 177, 65, 192, 192
-1.00015, 187, 157, 202, 188
-1.00015, 163, 301, 178, 332
-1.00015, 173, 301, 188, 332
-1.00016, 47, 29, 62, 60
-1.00016, 59, 29, 74, 60
-1.00016, 51, 41, 66, 72
-1.00016, 57, 41, 72, 72
-1.00016, 189, 137, 204, 168
-1.00016, 177, 189, 192, 220
-1.00016, 143, 145, 158, 176
-1.00017, 173, 117, 188, 148
-1.00017, 47, 17, 62, 48
-1.00017, 53, 17, 68, 48
-1.00017, 59, 17, 74, 48
-1.00017, 189, 125, 204, 156
-1.00017, 189, 173, 204, 204
-1.00017, 35, 301, 50, 332
-1.00017, 41, 301, 56, 332
-1.00017, 47, 301, 62, 332
-1.00017, 53, 301, 68, 332
-1.00017, 59, 301, 74, 332
-1.00017, 65, 301, 80, 332
-1.00017, 71, 301, 86, 332
-1.00017, 77, 301, 92, 332
-1.00017, 83, 301, 98, 332
-1.00017, 89, 301, 104, 332
-1.00017, 95, 301, 110, 332
-1.00017, 101, 301, 116, 332
-1.00017, 107, 301, 122, 332
-1.00017, 113, 301, 128, 332
-1.00017, 119, 301, 134, 332
-1.00017, 125, 301, 140, 332
-1.00017, 131, 301, 146, 332
-1.00017, 137, 301, 152, 332
-1.00017, 143, 301, 158, 332
-1.00017, 149, 301, 164, 332
-1.00017, 155, 301, 170, 332
-1.00017, 185, 301, 200, 332
-1.00017, 191, 301, 206, 332
-1.00017, 197, 301, 212, 332
-1.00017, 203, 301, 218, 332
-1.00017, 209, 301, 224, 332
-1.00017, 215, 301, 230, 332
-1.00017, 221, 301, 236, 332
-1.00017, 227, 301, 242, 332
-1.00017, 233, 301, 248, 332
-1.00017, 239, 301, 254, 332
-1.00017, 245, 301, 260, 332
-1.00017, 251, 301, 266, 332
-1.00017, 257, 301, 272, 332
-1.00017, 263, 301, 278, 332
-1.00017, 269, 301, 284, 332
-1.00017, 275, 301, 290, 332
-1.00017, 281, 301, 296, 332
-1.00017, 287, 301, 302, 332
-1.00017, 293, 301, 308, 332
-1.00017, 299, 301, 314, 332
-1.00017, 305, 301, 320, 332
-1.00017, 311, 301, 326, 332
-1.00017, 317, 301, 332, 332
-1.00017, 323, 301, 338, 332
-1.00017, 329, 301, 344, 332
-1.00017, 335, 301, 350, 332
-1.00017, 341, 301, 356, 332
-1.00017, 347, 301, 362, 332
-1.00017, 353, 301, 368, 332
-1.00017, 359, 301, 374, 332
-1.00017, 365, 301, 380, 332
-1.00017, 371, 301, 386, 332
-1.00017, 377, 301, 392, 332
-1.00017, 383, 301, 398, 332
-1.00017, 389, 301, 404, 332
-1.00017, 395, 301, 410, 332
-1.00017, 401, 301, 416, 332
-1.00017, 407, 301, 422, 332
-1.00017, 413, 301, 428, 332
-1.00017, 419, 301, 434, 332
-1.00017, 425, 301, 440, 332
-1.00017, 431, 301, 446, 332
-1.00017, 437, 301, 452, 332
-1.00017, 443, 301, 458, 332
-1.00017, 449, 301, 464, 332
-1.00017, 455, 301, 470, 332
-1.00017, 461, 301, 476, 332
-1.00017, 467, 301, 482, 332
-1.00017, 473, 301, 488, 332
-1.00017, 479, 301, 494, 332
-1.00017, 485, 301, 500, 332
-1.00018, 183, 65, 198, 192
-1.0002, 143, 209, 158, 333
-1.00021, 131, 81, 146, 208
-1.00023, 123, 177, 138, 304
-1.00023, 149, 65, 164, 192
-1.00024, 187, 129, 202, 256
-1.00024, 175, 121, 190, 184
-1.00025, 173, 17, 188, 144
-1.00025, 395, 49, 410, 176
-1.00025, 407, 49, 422, 176
-1.00025, 399, 97, 414, 224
-1.00025, 405, 97, 420, 224
-1.00026, 395, 1, 410, 128
-1.00026, 401, 1, 416, 128
-1.00026, 407, 1, 422, 128
-1.00026, 189, 81, 204, 208
-1.00026, 353, 161, 368, 288
-1.00026, 359, 161, 374, 288
-1.00026, 365, 161, 380, 288
-1.00026, 371, 161, 386, 288
-1.00026, 377, 161, 392, 288
-1.00026, 383, 161, 398, 288
-1.00026, 389, 161, 404, 288
-1.00026, 395, 161, 410, 288
-1.00026, 401, 161, 416, 288
-1.00026, 407, 161, 422, 288
-1.00026, 413, 161, 428, 288
-1.00026, 419, 161, 434, 288
-1.00026, 425, 161, 440, 288
-1.00026, 431, 161, 446, 288
-1.00026, 437, 161, 452, 288
-1.00026, 443, 161, 458, 288
-1.00026, 449, 161, 464, 288
-1.00026, 455, 161, 470, 288
-1.00026, 461, 161, 476, 288
-1.00026, 467, 161, 482, 288
-1.00026, 473, 161, 488, 288
-1.00026, 479, 161, 494, 288
-1.00026, 485, 161, 500, 288
-1.00026, 3, 209, 18, 333
-1.00026, 9, 209, 24, 333
-1.00026, 15, 209, 30, 333
-1.00026, 21, 209, 36, 333
-1.00026, 27, 209, 42, 333
-1.00026, 33, 209, 48, 333
-1.00026, 39, 209, 54, 333
-1.00026, 45, 209, 60, 333
-1.00026, 51, 209, 66, 333
-1.00026, 57, 209, 72, 333
-1.00026, 63, 209, 78, 333
-1.00026, 69, 209, 84, 333
-1.00026, 75, 209, 90, 333
-1.00026, 81, 209, 96, 333
-1.00026, 87, 209, 102, 333
-1.00026, 93, 209, 108, 333
-1.00026, 99, 209, 114, 333
-1.00026, 105, 209, 120, 333
-1.00026, 111, 209, 126, 333
-1.00026, 117, 209, 132, 333
-1.00026, 133, 209, 148, 333
-1.00026, 191, 209, 206, 333
-1.00026, 197, 209, 212, 333
-1.00026, 203, 209, 218, 333
-1.00026, 209, 209, 224, 333
-1.00026, 215, 209, 230, 333
-1.00026, 221, 209, 236, 333
-1.00026, 227, 209, 242, 333
-1.00026, 233, 209, 248, 333
-1.00026, 239, 209, 254, 333
-1.00026, 245, 209, 260, 333
-1.00026, 251, 209, 266, 333
-1.00026, 257, 209, 272, 333
-1.00026, 263, 209, 278, 333
-1.00026, 269, 209, 284, 333
-1.00026, 275, 209, 290, 333
-1.00026, 281, 209, 296, 333
-1.00026, 287, 209, 302, 333
-1.00026, 293, 209, 308, 333
-1.00026, 299, 209, 314, 333
-1.00026, 305, 209, 320, 333
-1.00026, 311, 209, 326, 333
-1.00026, 317, 209, 332, 333
-1.00026, 323, 209, 338, 333
-1.00026, 329, 209, 344, 333
-1.00026, 335, 209, 350, 333
-1.00026, 341, 209, 356, 333
-1.00026, 347, 209, 362, 333
-1.00026, 353, 209, 368, 333
-1.00026, 359, 209, 374, 333
-1.00026, 365, 209, 380, 333
-1.00026, 371, 209, 386, 333
-1.00026, 377, 209, 392, 333
-1.00026, 383, 209, 398, 333
-1.00026, 389, 209, 404, 333
-1.00026, 395, 209, 410, 333
-1.00026, 401, 209, 416, 333
-1.00026, 407, 209, 422, 333
-1.00026, 413, 209, 428, 333
-1.00026, 419, 209, 434, 333
-1.00026, 425, 209, 440, 333
-1.00026, 431, 209, 446, 333
-1.00026, 437, 209, 452, 333
-1.00026, 443, 209, 458, 333
-1.00026, 449, 209, 464, 333
-1.00026, 455, 209, 470, 333
-1.00026, 461, 209, 476, 333
-1.00026, 467, 209, 482, 333
-1.00026, 473, 209, 488, 333
-1.00026, 479, 209, 494, 333
-1.00026, 485, 209, 500, 333
-1.00026, 157, 65, 188, 320
-1.00035, 1, 145, 256, 208
-1.00035, 153, 97, 184, 224
-1.0004, 161, 149, 288, 180
-1.00044, 97, 193, 224, 256
-1.00044, 97, 197, 224, 228
-1.00044, 181, 161, 196, 224
-1.00046, 129, 185, 144, 248
-1.00048, 65, 149, 192, 180
-1.00054, 81, 137, 208, 168
-1.00056, 177, 65, 208, 320
-1.00057, 181, 113, 196, 176
-1.0006, 17, 173, 144, 204
-1.0006, 165, 177, 196, 240
-1.00062, 161, 97, 288, 224
-1.00064, 161, 137, 288, 168
-1.00067, 117, 137, 148, 200
-1.00067, 177, 129, 208, 256
-1.00071, 177, 161, 304, 192
-1.00072, 49, 197, 176, 228
-1.00075, 81, 137, 144, 200
-1.00076, 163, 113, 178, 176
-1.00088, 81, 125, 208, 156
-1.00088, 161, 125, 288, 156
-1.0009, 97, 185, 352, 248
-1.00092, 133, 33, 164, 288
-1.00093, 65, 121, 192, 184
-1.00093, 161, 185, 288, 216
-1.00095, 153, 1, 216, 333
-1.00096, 369, 97, 496, 128
-1.00096, 173, 193, 188, 256
-1.00097, 135, 105, 150, 168
-1.00099, 289, 93, 416, 124
-1.00099, 187, 129, 202, 192
-1.00099, 401, 1, 416, 64
-1.00099, 407, 1, 422, 64
-1.001, 321, 109, 448, 140
-1.001, 369, 109, 496, 140
-1.001, 171, 89, 186, 152
-1.001, 167, 273, 182, 333
-1.00101, 305, 81, 432, 112
-1.00102, 123, 169, 138, 232
-1.00102, 187, 105, 202, 168
-1.00102, 187, 169, 202, 232
-1.00103, 149, 121, 164, 184
-1.00103, 425, 249, 440, 312
-1.00103, 431, 249, 446, 312
-1.00103, 437, 249, 452, 312
-1.00103, 443, 249, 458, 312
-1.00103, 449, 249, 464, 312
-1.00103, 455, 249, 470, 312
-1.00103, 461, 249, 476, 312
-1.00103, 467, 249, 482, 312
-1.00103, 473, 249, 488, 312
-1.00103, 479, 249, 494, 312
-1.00103, 485, 249, 500, 312
-1.00103, 161, 257, 176, 320
-1.00103, 173, 257, 188, 320
-1.00103, 179, 265, 194, 328
-1.00103, 5, 273, 20, 333
-1.00103, 11, 273, 26, 333
-1.00103, 17, 273, 32, 333
-1.00103, 23, 273, 38, 333
-1.00103, 29, 273, 44, 333
-1.00103, 35, 273, 50, 333
-1.00103, 41, 273, 56, 333
-1.00103, 47, 273, 62, 333
-1.00103, 53, 273, 68, 333
-1.00103, 59, 273, 74, 333
-1.00103, 65, 273, 80, 333
-1.00103, 71, 273, 86, 333
-1.00103, 77, 273, 92, 333
-1.00103, 83, 273, 98, 333
-1.00103, 89, 273, 104, 333
-1.00103, 95, 273, 110, 333
-1.00103, 101, 273, 116, 333
-1.00103, 107, 273, 122, 333
-1.00103, 113, 273, 128, 333
-1.00103, 119, 273, 134, 333
-1.00103, 125, 273, 140, 333
-1.00103, 131, 273, 146, 333
-1.00103, 137, 273, 152, 333
-1.00103, 143, 273, 158, 333
-1.00103, 149, 273, 164, 333
-1.00103, 155, 273, 170, 333
-1.00103, 185, 273, 200, 333
-1.00103, 191, 273, 206, 333
-1.00103, 197, 273, 212, 333
-1.00103, 203, 273, 218, 333
-1.00103, 209, 273, 224, 333
-1.00103, 215, 273, 230, 333
-1.00103, 221, 273, 236, 333
-1.00103, 227, 273, 242, 333
-1.00103, 233, 273, 248, 333
-1.00103, 239, 273, 254, 333
-1.00103, 245, 273, 260, 333
-1.00103, 251, 273, 266, 333
-1.00103, 257, 273, 272, 333
-1.00103, 263, 273, 278, 333
-1.00103, 269, 273, 284, 333
-1.00103, 275, 273, 290, 333
-1.00103, 281, 273, 296, 333
-1.00103, 287, 273, 302, 333
-1.00103, 293, 273, 308, 333
-1.00103, 299, 273, 314, 333
-1.00103, 305, 273, 320, 333
-1.00103, 311, 273, 326, 333
-1.00103, 317, 273, 332, 333
-1.00103, 323, 273, 338, 333
-1.00103, 329, 273, 344, 333
-1.00103, 335, 273, 350, 333
-1.00103, 341, 273, 356, 333
-1.00103, 347, 273, 362, 333
-1.00103, 353, 273, 368, 333
-1.00103, 359, 273, 374, 333
-1.00103, 365, 273, 380, 333
-1.00103, 371, 273, 386, 333
-1.00103, 377, 273, 392, 333
-1.00103, 383, 273, 398, 333
-1.00103, 389, 273, 404, 333
-1.00103, 395, 273, 410, 333
-1.00103, 401, 273, 416, 333
-1.00103, 407, 273, 422, 333
-1.00103, 413, 273, 428, 333
-1.00103, 419, 273, 434, 333
-1.00103, 425, 273, 440, 333
-1.00103, 431, 273, 446, 333
-1.00103, 437, 273, 452, 333
-1.00103, 443, 273, 458, 333
-1.00103, 449, 273, 464, 333
-1.00103, 455, 273, 470, 333
-1.00103, 461, 273, 476, 333
-1.00103, 467, 273, 482, 333
-1.00103, 473, 273, 488, 333
-1.00103, 479, 273, 494, 333
-1.00103, 485, 273, 500, 333
-1.00103, 321, 137, 448, 168
-1.00103, 321, 149, 448, 180
-1.00103, 369, 149, 496, 180
-1.00104, 369, 85, 496, 116
-1.00106, 353, 73, 480, 104
-1.00106, 273, 105, 400, 136
-1.00106, 305, 69, 432, 100
-1.00106, 321, 125, 448, 156
-1.00106, 369, 125, 496, 156
-1.00107, 81, 113, 208, 144
-1.00107, 129, 113, 256, 144
-1.00107, 177, 113, 304, 144
-1.00107, 225, 121, 352, 152
-1.00107, 273, 121, 400, 152
-1.00107, 33, 125, 160, 156
-1.00107, 225, 133, 352, 164
-1.00107, 273, 133, 400, 164
-1.00107, 1, 137, 128, 168
-1.00107, 225, 145, 352, 176
-1.00107, 273, 145, 400, 176
-1.00107, 225, 157, 352, 188
-1.00107, 273, 157, 400, 188
-1.00107, 225, 169, 352, 200
-1.00107, 273, 169, 400, 200
-1.00107, 321, 169, 448, 200
-1.00107, 369, 169, 496, 200
-1.00107, 225, 181, 352, 212
-1.00107, 273, 181, 400, 212
-1.00107, 321, 181, 448, 212
-1.00107, 369, 181, 496, 212
-1.00107, 1, 193, 128, 224
-1.00107, 225, 193, 352, 224
-1.00107, 273, 193, 400, 224
-1.00107, 321, 193, 448, 224
-1.00107, 369, 193, 496, 224
-1.00107, 1, 205, 128, 236
-1.00107, 177, 205, 304, 236
-1.00107, 225, 205, 352, 236
-1.00107, 273, 205, 400, 236
-1.00107, 321, 205, 448, 236
-1.00107, 369, 205, 496, 236
-1.00107, 33, 217, 160, 248
-1.00107, 81, 217, 208, 248
-1.00107, 129, 217, 256, 248
-1.00107, 177, 217, 304, 248
-1.00107, 225, 217, 352, 248
-1.00107, 273, 217, 400, 248
-1.00107, 321, 217, 448, 248
-1.00107, 369, 217, 496, 248
-1.00107, 33, 229, 160, 260
-1.00107, 81, 229, 208, 260
-1.00107, 129, 229, 256, 260
-1.00107, 177, 229, 304, 260
-1.00107, 225, 229, 352, 260
-1.00107, 273, 229, 400, 260
-1.00107, 321, 229, 448, 260
-1.00107, 369, 229, 496, 260
-1.00107, 33, 241, 160, 272
-1.00107, 81, 241, 208, 272
-1.00107, 129, 241, 256, 272
-1.00107, 177, 241, 304, 272
-1.00107, 225, 241, 352, 272
-1.00107, 273, 241, 400, 272
-1.00107, 321, 241, 448, 272
-1.00107, 369, 241, 496, 272
-1.00107, 33, 253, 160, 284
-1.00107, 81, 253, 208, 284
-1.00107, 129, 253, 256, 284
-1.00107, 177, 253, 304, 284
-1.00107, 225, 253, 352, 284
-1.00107, 273, 253, 400, 284
-1.00107, 321, 253, 448, 284
-1.00107, 369, 253, 496, 284
-1.00107, 33, 265, 160, 296
-1.00107, 81, 265, 208, 296
-1.00107, 129, 265, 256, 296
-1.00107, 177, 265, 304, 296
-1.00107, 225, 265, 352, 296
-1.00107, 273, 265, 400, 296
-1.00107, 321, 265, 448, 296
-1.00107, 369, 265, 496, 296
-1.00107, 33, 277, 160, 308
-1.00107, 81, 277, 208, 308
-1.00107, 129, 277, 256, 308
-1.00107, 177, 277, 304, 308
-1.00107, 225, 277, 352, 308
-1.00107, 273, 277, 400, 308
-1.00107, 321, 277, 448, 308
-1.00107, 369, 277, 496, 308
-1.00107, 33, 289, 160, 320
-1.00107, 81, 289, 208, 320
-1.00107, 129, 289, 256, 320
-1.00107, 177, 289, 304, 320
-1.00107, 225, 289, 352, 320
-1.00107, 273, 289, 400, 320
-1.00107, 321, 289, 448, 320
-1.00107, 369, 289, 496, 320
-1.00107, 33, 301, 160, 332
-1.00107, 81, 301, 208, 332
-1.00107, 129, 301, 256, 332
-1.00107, 177, 301, 304, 332
-1.00107, 225, 301, 352, 332
-1.00107, 273, 301, 400, 332
-1.00107, 321, 301, 448, 332
-1.00107, 369, 301, 496, 332
-1.00108, 105, 1, 168, 333
-1.00122, 113, 121, 240, 184
-1.00125, 1, 121, 256, 184
-1.00127, 1, 169, 500, 232
-1.00133, 145, 33, 176, 288
-1.00145, 113, 65, 144, 320
-1.00175, 409, 1, 440, 256
-1.00175, 389, 33, 420, 288
-1.00176, 145, 193, 272, 256
-1.00178, 1, 145, 128, 208
-1.00179, 189, 33, 220, 288
-1.00181, 421, 1, 452, 256
-1.00181, 377, 65, 408, 320
-1.00184, 5, 65, 36, 320
-1.00184, 17, 65, 48, 320
-1.00184, 29, 65, 60, 320
-1.00184, 41, 65, 72, 320
-1.00184, 53, 65, 84, 320
-1.00184, 65, 65, 96, 320
-1.00184, 77, 65, 108, 320
-1.00184, 89, 65, 120, 320
-1.00184, 101, 65, 132, 320
-1.00184, 209, 65, 240, 320
-1.00184, 221, 65, 252, 320
-1.00184, 233, 65, 264, 320
-1.00184, 245, 65, 276, 320
-1.00184, 257, 65, 288, 320
-1.00184, 269, 65, 300, 320
-1.00184, 281, 65, 312, 320
-1.00184, 293, 65, 324, 320
-1.00184, 305, 65, 336, 320
-1.00184, 317, 65, 348, 320
-1.00184, 329, 65, 360, 320
-1.00184, 341, 65, 372, 320
-1.00184, 353, 65, 384, 320
-1.00184, 365, 65, 396, 320
-1.00184, 433, 65, 464, 320
-1.00184, 445, 65, 476, 320
-1.00184, 457, 65, 488, 320
-1.00184, 469, 65, 500, 320
-1.00188, 105, 113, 168, 240
-1.00191, 97, 105, 352, 168
-1.00205, 33, 193, 160, 256
-1.00206, 1, 193, 256, 256
-1.00211, 193, 161, 448, 224
-1.00212, 161, 9, 416, 72
-1.00212, 65, 17, 320, 80
-1.00212, 257, 17, 500, 80
-1.00212, 161, 33, 416, 96
-1.00212, 65, 41, 320, 104
-1.00212, 257, 41, 500, 104
-1.00212, 161, 57, 416, 120
-1.00212, 65, 65, 320, 128
-1.00212, 257, 65, 500, 128
-1.00212, 161, 81, 416, 144
-1.00212, 1, 89, 256, 152
-1.00212, 257, 89, 500, 152
-1.00212, 257, 113, 500, 176
-1.00212, 257, 137, 500, 200
-1.00212, 257, 201, 500, 264
-1.00212, 65, 225, 320, 288
-1.00212, 161, 225, 416, 288
-1.00212, 257, 225, 500, 288
-1.00212, 65, 249, 320, 312
-1.00212, 161, 249, 416, 312
-1.00212, 257, 249, 500, 312
-1.00212, 65, 273, 320, 333
-1.00212, 161, 273, 416, 333
-1.00212, 257, 273, 500, 333
-1.00214, 153, 185, 216, 248
-1.00218, 321, 105, 448, 168
-1.00235, 369, 105, 496, 168
-1.00244, 289, 81, 416, 144
-1.00256, 369, 81, 496, 144
-1.00262, 149, 193, 180, 320
-1.00264, 33, 161, 160, 288
-1.00274, 193, 129, 320, 192
-1.00276, 321, 137, 448, 200
-1.00276, 369, 137, 496, 200
-1.00277, 369, 57, 496, 120
-1.00277, 97, 97, 224, 160
-1.00277, 145, 97, 272, 160
-1.0028, 289, 57, 416, 120
-1.00281, 1, 145, 500, 208
-1.00283, 165, 129, 196, 192
-1.00288, 193, 105, 320, 168
-1.00288, 193, 169, 320, 232
-1.0029, 1, 193, 500, 256
-1.00291, 129, 1, 256, 64
-1.00291, 177, 1, 304, 64
-1.00291, 33, 9, 160, 72
-1.00291, 225, 9, 352, 72
-1.00291, 273, 9, 400, 72
-1.00291, 321, 9, 448, 72
-1.00291, 369, 9, 496, 72
-1.00291, 81, 17, 208, 80
-1.00291, 129, 25, 256, 88
-1.00291, 177, 25, 304, 88
-1.00291, 1, 33, 128, 96
-1.00291, 225, 33, 352, 96
-1.00291, 273, 33, 400, 96
-1.00291, 321, 33, 448, 96
-1.00291, 369, 33, 496, 96
-1.00291, 49, 41, 176, 104
-1.00291, 97, 49, 224, 112
-1.00291, 145, 49, 272, 112
-1.00291, 1, 57, 128, 120
-1.00291, 193, 57, 320, 120
-1.00291, 241, 57, 368, 120
-1.00291, 49, 65, 176, 128
-1.00291, 97, 73, 224, 136
-1.00291, 145, 73, 272, 136
-1.00291, 1, 81, 128, 144
-1.00291, 193, 81, 320, 144
-1.00291, 241, 81, 368, 144
-1.00291, 49, 89, 176, 152
-1.00291, 1, 105, 128, 168
-1.00291, 257, 105, 384, 168
-1.00291, 273, 129, 400, 192
-1.00291, 273, 153, 400, 216
-1.00291, 273, 177, 400, 240
-1.00291, 321, 177, 448, 240
-1.00291, 369, 177, 496, 240
-1.00291, 225, 201, 352, 264
-1.00291, 273, 201, 400, 264
-1.00291, 321, 201, 448, 264
-1.00291, 369, 201, 496, 264
-1.00291, 33, 225, 160, 288
-1.00291, 81, 225, 208, 288
-1.00291, 129, 225, 256, 288
-1.00291, 177, 225, 304, 288
-1.00291, 225, 225, 352, 288
-1.00291, 273, 225, 400, 288
-1.00291, 321, 225, 448, 288
-1.00291, 369, 225, 496, 288
-1.00291, 33, 249, 160, 312
-1.00291, 81, 249, 208, 312
-1.00291, 129, 249, 256, 312
-1.00291, 177, 249, 304, 312
-1.00291, 225, 249, 352, 312
-1.00291, 273, 249, 400, 312
-1.00291, 321, 249, 448, 312
-1.00291, 369, 249, 496, 312
-1.00291, 33, 273, 160, 333
-1.00291, 81, 273, 208, 333
-1.00291, 129, 273, 256, 333
-1.00291, 177, 273, 304, 333
-1.00291, 225, 273, 352, 333
-1.00291, 273, 273, 400, 333
-1.00291, 321, 273, 448, 333
-1.00291, 369, 273, 496, 333
-1.00306, 129, 137, 160, 200
-1.00315, 393, 1, 456, 333
-1.00324, 177, 1, 240, 333
-1.00324, 345, 1, 408, 333
-1.00324, 369, 1, 432, 333
-1.00326, 9, 1, 72, 333
-1.00326, 33, 1, 96, 333
-1.00326, 57, 1, 120, 333
-1.00326, 81, 1, 144, 333
-1.00326, 201, 1, 264, 333
-1.00326, 225, 1, 288, 333
-1.00326, 249, 1, 312, 333
-1.00326, 273, 1, 336, 333
-1.00326, 297, 1, 360, 333
-1.00326, 321, 1, 384, 333
-1.00326, 433, 1, 496, 333
-1.00332, 129, 1, 192, 333
-1.00357, 1, 121, 500, 184
-1.0036, 169, 65, 232, 320
-1.00371, 125, 177, 156, 304
-1.0038, 1, 33, 500, 96
-1.00382, 1, 97, 500, 160
-1.00387, 1, 249, 500, 312
-1.00387, 1, 273, 500, 333
-1.00389, 177, 121, 208, 184
-1.0039, 1, 73, 500, 136
-1.0039, 113, 97, 240, 224
-1.00391, 1, 9, 500, 72
-1.00392, 1, 217, 500, 280
-1.00394, 177, 81, 208, 208
-1.00426, 165, 97, 196, 224
-1.00433, 129, 65, 192, 320
-1.00471, 1, 97, 256, 224
-1.00569, 81, 169, 144, 232
-1.00581, 133, 193, 164, 256
-1.0059, 169, 81, 232, 208
-1.0059, 121, 113, 184, 176
-1.00601, 113, 145, 144, 272
-1.00623, 165, 193, 196, 320
-1.00678, 177, 177, 208, 240
-1.00704, 81, 49, 208, 176
-1.00711, 141, 121, 172, 184
-1.00715, 113, 97, 144, 224
-1.00716, 177, 177, 208, 304
-1.00725, 177, 161, 240, 224
-1.00726, 105, 33, 168, 288
-1.00735, 121, 185, 152, 248
-1.00738, 157, 105, 188, 168
-1.0074, 109, 161, 140, 224
-1.00745, 169, 113, 232, 176
-1.00751, 177, 145, 304, 272
-1.00753, 141, 81, 172, 208
-1.00754, 145, 193, 272, 320
-1.00802, 105, 201, 168, 264
-1.00813, 145, 105, 208, 168
-1.0082, 129, 65, 384, 192
-1.00824, 97, 161, 160, 288
-1.00834, 113, 193, 144, 320
-1.00834, 157, 49, 188, 176
-1.00875, 121, 65, 184, 192
-1.00878, 353, 73, 416, 136
-1.00878, 393, 73, 456, 136
-1.00878, 369, 97, 432, 160
-1.00878, 393, 97, 456, 160
-1.00882, 89, 105, 152, 168
-1.00895, 321, 97, 448, 224
-1.00904, 189, 97, 220, 224
-1.00905, 105, 137, 136, 200
-1.00913, 161, 49, 288, 176
-1.00914, 121, 105, 152, 168
-1.0092, 353, 49, 416, 112
-1.0092, 393, 49, 456, 112
-1.0092, 129, 273, 192, 333
-1.0092, 153, 273, 216, 333
-1.00921, 381, 49, 412, 176
-1.00921, 405, 49, 436, 176
-1.00921, 389, 97, 420, 224
-1.00921, 401, 97, 432, 224
-1.00927, 1, 49, 256, 176
-1.00928, 129, 81, 160, 208
-1.00929, 217, 129, 280, 192
-1.00929, 241, 129, 304, 192
-1.00929, 265, 129, 328, 192
-1.00929, 289, 129, 352, 192
-1.00929, 313, 129, 376, 192
-1.00929, 337, 129, 400, 192
-1.00929, 361, 129, 424, 192
-1.00929, 385, 129, 448, 192
-1.00929, 409, 129, 472, 192
-1.00929, 433, 129, 496, 192
-1.00929, 193, 137, 256, 200
-1.00929, 9, 153, 72, 216
-1.00929, 33, 153, 96, 216
-1.00929, 57, 153, 120, 216
-1.00929, 217, 153, 280, 216
-1.00929, 241, 153, 304, 216
-1.00929, 265, 153, 328, 216
-1.00929, 289, 153, 352, 216
-1.00929, 313, 153, 376, 216
-1.00929, 337, 153, 400, 216
-1.00929, 361, 153, 424, 216
-1.00929, 385, 153, 448, 216
-1.00929, 409, 153, 472, 216
-1.00929, 433, 153, 496, 216
-1.00929, 9, 177, 72, 240
-1.00929, 33, 177, 96, 240
-1.00929, 57, 177, 120, 240
-1.00929, 217, 177, 280, 240
-1.00929, 241, 177, 304, 240
-1.00929, 265, 177, 328, 240
-1.00929, 289, 177, 352, 240
-1.00929, 313, 177, 376, 240
-1.00929, 337, 177, 400, 240
-1.00929, 361, 177, 424, 240
-1.00929, 385, 177, 448, 240
-1.00929, 409, 177, 472, 240
-1.00929, 433, 177, 496, 240
-1.00929, 9, 201, 72, 264
-1.00929, 33, 201, 96, 264
-1.00929, 57, 201, 120, 264
-1.00929, 81, 201, 144, 264
-1.00929, 193, 201, 256, 264
-1.00929, 217, 201, 280, 264
-1.00929, 241, 201, 304, 264
-1.00929, 265, 201, 328, 264
-1.00929, 289, 201, 352, 264
-1.00929, 313, 201, 376, 264
-1.00929, 337, 201, 400, 264
-1.00929, 361, 201, 424, 264
-1.00929, 385, 201, 448, 264
-1.00929, 409, 201, 472, 264
-1.00929, 433, 201, 496, 264
-1.00929, 1, 225, 64, 288
-1.00929, 25, 225, 88, 288
-1.00929, 49, 225, 112, 288
-1.00929, 73, 225, 136, 288
-1.00929, 97, 225, 160, 288
-1.00929, 121, 225, 184, 288
-1.00929, 145, 225, 208, 288
-1.00929, 169, 225, 232, 288
-1.00929, 193, 225, 256, 288
-1.00929, 217, 225, 280, 288
-1.00929, 241, 225, 304, 288
-1.00929, 265, 225, 328, 288
-1.00929, 289, 225, 352, 288
-1.00929, 313, 225, 376, 288
-1.00929, 337, 225, 400, 288
-1.00929, 361, 225, 424, 288
-1.00929, 385, 225, 448, 288
-1.00929, 409, 225, 472, 288
-1.00929, 433, 225, 496, 288
-1.00929, 1, 249, 64, 312
-1.00929, 25, 249, 88, 312
-1.00929, 49, 249, 112, 312
-1.00929, 73, 249, 136, 312
-1.00929, 97, 249, 160, 312
-1.00929, 121, 249, 184, 312
-1.00929, 145, 249, 208, 312
-1.00929, 169, 249, 232, 312
-1.00929, 193, 249, 256, 312
-1.00929, 217, 249, 280, 312
-1.00929, 241, 249, 304, 312
-1.00929, 265, 249, 328, 312
-1.00929, 289, 249, 352, 312
-1.00929, 313, 249, 376, 312
-1.00929, 337, 249, 400, 312
-1.00929, 361, 249, 424, 312
-1.00929, 385, 249, 448, 312
-1.00929, 409, 249, 472, 312
-1.00929, 433, 249, 496, 312
-1.00929, 1, 273, 64, 333
-1.00929, 25, 273, 88, 333
-1.00929, 49, 273, 112, 333
-1.00929, 73, 273, 136, 333
-1.00929, 97, 273, 160, 333
-1.00929, 193, 273, 256, 333
-1.00929, 217, 273, 280, 333
-1.00929, 241, 273, 304, 333
-1.00929, 265, 273, 328, 333
-1.00929, 289, 273, 352, 333
-1.00929, 313, 273, 376, 333
-1.00929, 337, 273, 400, 333
-1.00929, 361, 273, 424, 333
-1.00929, 385, 273, 448, 333
-1.00929, 409, 273, 472, 333
-1.00929, 433, 273, 496, 333
-1.00931, 289, 49, 416, 176
-1.00937, 369, 97, 496, 224
-1.00943, 169, 17, 200, 144
-1.00947, 189, 49, 220, 176
-1.00948, 113, 49, 144, 176
-1.00949, 169, 89, 200, 152
-1.00949, 165, 273, 196, 333
-1.0095, 385, 1, 416, 128
-1.0095, 405, 1, 436, 128
-1.00953, 369, 49, 496, 176
-1.00956, 357, 65, 388, 192
-1.00956, 369, 65, 400, 192
-1.00956, 421, 65, 452, 192
-1.00956, 433, 65, 464, 192
-1.00956, 445, 65, 476, 192
-1.00956, 457, 65, 488, 192
-1.00956, 469, 65, 500, 192
-1.00956, 5, 113, 36, 240
-1.00956, 17, 113, 48, 240
-1.00956, 29, 113, 60, 240
-1.00956, 41, 113, 72, 240
-1.00956, 53, 113, 84, 240
-1.00956, 65, 113, 96, 240
-1.00956, 77, 113, 108, 240
-1.00956, 89, 113, 120, 240
-1.00956, 101, 113, 132, 240
-1.00956, 209, 113, 240, 240
-1.00956, 221, 113, 252, 240
-1.00956, 233, 113, 264, 240
-1.00956, 245, 113, 276, 240
-1.00956, 257, 113, 288, 240
-1.00956, 269, 113, 300, 240
-1.00956, 281, 113, 312, 240
-1.00956, 293, 113, 324, 240
-1.00956, 305, 113, 336, 240
-1.00956, 317, 113, 348, 240
-1.00956, 329, 113, 360, 240
-1.00956, 341, 113, 372, 240
-1.00956, 353, 113, 384, 240
-1.00956, 365, 113, 396, 240
-1.00956, 377, 113, 408, 240
-1.00956, 421, 113, 452, 240
-1.00956, 433, 113, 464, 240
-1.00956, 445, 113, 476, 240
-1.00956, 457, 113, 488, 240
-1.00956, 469, 113, 500, 240
-1.00956, 5, 161, 36, 288
-1.00956, 17, 161, 48, 288
-1.00956, 29, 161, 60, 288
-1.00956, 41, 161, 72, 288
-1.00956, 53, 161, 84, 288
-1.00956, 65, 161, 96, 288
-1.00956, 77, 161, 108, 288
-1.00956, 89, 161, 120, 288
-1.00956, 101, 161, 132, 288
-1.00956, 193, 161, 224, 288
-1.00956, 205, 161, 236, 288
-1.00956, 217, 161, 248, 288
-1.00956, 229, 161, 260, 288
-1.00956, 241, 161, 272, 288
-1.00956, 253, 161, 284, 288
-1.00956, 265, 161, 296, 288
-1.00956, 277, 161, 308, 288
-1.00956, 289, 161, 320, 288
-1.00956, 301, 161, 332, 288
-1.00956, 313, 161, 344, 288
-1.00956, 325, 161, 356, 288
-1.00956, 337, 161, 368, 288
-1.00956, 349, 161, 380, 288
-1.00956, 361, 161, 392, 288
-1.00956, 373, 161, 404, 288
-1.00956, 385, 161, 416, 288
-1.00956, 397, 161, 428, 288
-1.00956, 409, 161, 440, 288
-1.00956, 421, 161, 452, 288
-1.00956, 433, 161, 464, 288
-1.00956, 445, 161, 476, 288
-1.00956, 457, 161, 488, 288
-1.00956, 469, 161, 500, 288
-1.00956, 5, 209, 36, 333
-1.00956, 17, 209, 48, 333
-1.00956, 29, 209, 60, 333
-1.00956, 41, 209, 72, 333
-1.00956, 53, 209, 84, 333
-1.00956, 65, 209, 96, 333
-1.00956, 77, 209, 108, 333
-1.00956, 89, 209, 120, 333
-1.00956, 101, 209, 132, 333
-1.00956, 193, 209, 224, 333
-1.00956, 205, 209, 236, 333
-1.00956, 217, 209, 248, 333
-1.00956, 229, 209, 260, 333
-1.00956, 241, 209, 272, 333
-1.00956, 253, 209, 284, 333
-1.00956, 265, 209, 296, 333
-1.00956, 277, 209, 308, 333
-1.00956, 289, 209, 320, 333
-1.00956, 301, 209, 332, 333
-1.00956, 313, 209, 344, 333
-1.00956, 325, 209, 356, 333
-1.00956, 337, 209, 368, 333
-1.00956, 349, 209, 380, 333
-1.00956, 361, 209, 392, 333
-1.00956, 373, 209, 404, 333
-1.00956, 385, 209, 416, 333
-1.00956, 397, 209, 428, 333
-1.00956, 409, 209, 440, 333
-1.00956, 421, 209, 452, 333
-1.00956, 433, 209, 464, 333
-1.00956, 445, 209, 476, 333
-1.00956, 457, 209, 488, 333
-1.00956, 469, 209, 500, 333
-1.00961, 97, 225, 128, 288
-1.00961, 109, 225, 140, 288
-1.00961, 121, 225, 152, 288
-1.00961, 133, 225, 164, 288
-1.00961, 145, 225, 176, 288
-1.00961, 169, 225, 200, 288
-1.00961, 193, 225, 224, 288
-1.00961, 205, 225, 236, 288
-1.00961, 217, 225, 248, 288
-1.00961, 229, 225, 260, 288
-1.00961, 241, 225, 272, 288
-1.00961, 253, 225, 284, 288
-1.00961, 265, 225, 296, 288
-1.00961, 277, 225, 308, 288
-1.00961, 289, 225, 320, 288
-1.00961, 301, 225, 332, 288
-1.00961, 313, 225, 344, 288
-1.00961, 325, 225, 356, 288
-1.00961, 337, 225, 368, 288
-1.00961, 349, 225, 380, 288
-1.00961, 361, 225, 392, 288
-1.00961, 373, 225, 404, 288
-1.00961, 385, 225, 416, 288
-1.00961, 397, 225, 428, 288
-1.00961, 409, 225, 440, 288
-1.00961, 421, 225, 452, 288
-1.00961, 433, 225, 464, 288
-1.00961, 445, 225, 476, 288
-1.00961, 457, 225, 488, 288
-1.00961, 469, 225, 500, 288
-1.00961, 157, 241, 188, 304
-1.00961, 181, 241, 212, 304
-1.00961, 9, 249, 40, 312
-1.00961, 21, 249, 52, 312
-1.00961, 33, 249, 64, 312
-1.00961, 45, 249, 76, 312
-1.00961, 57, 249, 88, 312
-1.00961, 69, 249, 100, 312
-1.00961, 81, 249, 112, 312
-1.00961, 93, 249, 124, 312
-1.00961, 105, 249, 136, 312
-1.00961, 117, 249, 148, 312
-1.00961, 129, 249, 160, 312
-1.00961, 141, 249, 172, 312
-1.00961, 169, 249, 200, 312
-1.00961, 193, 249, 224, 312
-1.00961, 205, 249, 236, 312
-1.00961, 217, 249, 248, 312
-1.00961, 229, 249, 260, 312
-1.00961, 241, 249, 272, 312
-1.00961, 253, 249, 284, 312
-1.00961, 265, 249, 296, 312
-1.00961, 277, 249, 308, 312
-1.00961, 289, 249, 320, 312
-1.00961, 301, 249, 332, 312
-1.00961, 313, 249, 344, 312
-1.00961, 325, 249, 356, 312
-1.00961, 337, 249, 368, 312
-1.00961, 349, 249, 380, 312
-1.00961, 361, 249, 392, 312
-1.00961, 373, 249, 404, 312
-1.00961, 385, 249, 416, 312
-1.00961, 397, 249, 428, 312
-1.00961, 409, 249, 440, 312
-1.00961, 421, 249, 452, 312
-1.00961, 433, 249, 464, 312
-1.00961, 445, 249, 476, 312
-1.00961, 457, 249, 488, 312
-1.00961, 469, 249, 500, 312
-1.00961, 153, 265, 184, 328
-1.00961, 181, 265, 212, 328
-1.00961, 5, 273, 36, 333
-1.00961, 17, 273, 48, 333
-1.00961, 29, 273, 60, 333
-1.00961, 41, 273, 72, 333
-1.00961, 53, 273, 84, 333
-1.00961, 65, 273, 96, 333
-1.00961, 77, 273, 108, 333
-1.00961, 89, 273, 120, 333
-1.00961, 101, 273, 132, 333
-1.00961, 113, 273, 144, 333
-1.00961, 125, 273, 156, 333
-1.00961, 137, 273, 168, 333
-1.00961, 193, 273, 224, 333
-1.00961, 205, 273, 236, 333
-1.00961, 217, 273, 248, 333
-1.00961, 229, 273, 260, 333
-1.00961, 241, 273, 272, 333
-1.00961, 253, 273, 284, 333
-1.00961, 265, 273, 296, 333
-1.00961, 277, 273, 308, 333
-1.00961, 289, 273, 320, 333
-1.00961, 301, 273, 332, 333
-1.00961, 313, 273, 344, 333
-1.00961, 325, 273, 356, 333
-1.00961, 337, 273, 368, 333
-1.00961, 349, 273, 380, 333
-1.00961, 361, 273, 392, 333
-1.00961, 373, 273, 404, 333
-1.00961, 385, 273, 416, 333
-1.00961, 397, 273, 428, 333
-1.00961, 409, 273, 440, 333
-1.00961, 421, 273, 452, 333
-1.00961, 433, 273, 464, 333
-1.00961, 445, 273, 476, 333
-1.00961, 457, 273, 488, 333
-1.00961, 469, 273, 500, 333
-1.00986, 1, 113, 128, 240
-1.01002, 321, 145, 448, 272
-1.01002, 369, 145, 496, 272
-1.01005, 17, 65, 144, 192
-1.01019, 289, 1, 416, 128
-1.01019, 369, 1, 496, 128
-1.01038, 97, 1, 224, 128
-1.01038, 145, 1, 272, 128
-1.01038, 193, 1, 320, 128
-1.01038, 241, 1, 368, 128
-1.01038, 33, 17, 160, 144
-1.01038, 241, 49, 368, 176
-1.01038, 209, 97, 336, 224
-1.01038, 257, 113, 384, 240
-1.01038, 225, 161, 352, 288
-1.01038, 273, 161, 400, 288
-1.01038, 17, 209, 144, 333
-1.01038, 225, 209, 352, 333
-1.01038, 273, 209, 400, 333
-1.01038, 321, 209, 448, 333
-1.01038, 369, 209, 496, 333
-1.01038, 33, 209, 288, 333
-1.01038, 129, 209, 384, 333
-1.01046, 401, 1, 464, 256
-1.01046, 81, 33, 144, 288
-1.01047, 65, 1, 320, 128
-1.01047, 161, 17, 416, 144
-1.01047, 257, 17, 500, 144
-1.01047, 257, 65, 500, 192
-1.01047, 257, 113, 500, 240
-1.01047, 257, 161, 500, 288
-1.01047, 257, 209, 500, 333
-1.01059, 169, 177, 232, 304
-1.01062, 353, 65, 416, 320
-1.01062, 377, 65, 440, 320
-1.01086, 9, 65, 72, 320
-1.01086, 33, 65, 96, 320
-1.01086, 57, 65, 120, 320
-1.01086, 209, 65, 272, 320
-1.01086, 233, 65, 296, 320
-1.01086, 257, 65, 320, 320
-1.01086, 281, 65, 344, 320
-1.01086, 305, 65, 368, 320
-1.01086, 329, 65, 392, 320
-1.01086, 433, 65, 496, 320
-1.01243, 145, 49, 208, 176
-1.01293, 145, 209, 208, 333
-1.01302, 81, 113, 144, 240
-1.01399, 177, 33, 240, 160
-1.01406, 393, 65, 456, 192
-1.01435, 393, 17, 456, 144
-1.01442, 433, 17, 496, 144
-1.01442, 353, 49, 416, 176
-1.01442, 425, 65, 488, 192
-1.01442, 369, 97, 432, 224
-1.01465, 89, 49, 152, 176
-1.01465, 73, 161, 136, 288
-1.01471, 361, 1, 424, 128
-1.01478, 89, 1, 152, 128
-1.01478, 153, 1, 216, 128
-1.01478, 17, 17, 80, 144
-1.01478, 41, 17, 104, 144
-1.01478, 65, 17, 128, 144
-1.01478, 113, 17, 176, 144
-1.01478, 209, 17, 272, 144
-1.01478, 233, 17, 296, 144
-1.01478, 257, 17, 320, 144
-1.01478, 281, 17, 344, 144
-1.01478, 305, 17, 368, 144
-1.01478, 329, 17, 392, 144
-1.01478, 17, 65, 80, 192
-1.01478, 41, 65, 104, 192
-1.01478, 65, 65, 128, 192
-1.01478, 209, 65, 272, 192
-1.01478, 233, 65, 296, 192
-1.01478, 257, 65, 320, 192
-1.01478, 281, 65, 344, 192
-1.01478, 305, 65, 368, 192
-1.01478, 329, 65, 392, 192
-1.01478, 9, 113, 72, 240
-1.01478, 33, 113, 96, 240
-1.01478, 57, 113, 120, 240
-1.01478, 201, 113, 264, 240
-1.01478, 225, 113, 288, 240
-1.01478, 249, 113, 312, 240
-1.01478, 273, 113, 336, 240
-1.01478, 297, 113, 360, 240
-1.01478, 321, 113, 384, 240
-1.01478, 345, 113, 408, 240
-1.01478, 409, 113, 472, 240
-1.01478, 433, 113, 496, 240
-1.01478, 1, 161, 64, 288
-1.01478, 25, 161, 88, 288
-1.01478, 49, 161, 112, 288
-1.01478, 193, 161, 256, 288
-1.01478, 217, 161, 280, 288
-1.01478, 241, 161, 304, 288
-1.01478, 265, 161, 328, 288
-1.01478, 289, 161, 352, 288
-1.01478, 313, 161, 376, 288
-1.01478, 337, 161, 400, 288
-1.01478, 361, 161, 424, 288
-1.01478, 385, 161, 448, 288
-1.01478, 409, 161, 472, 288
-1.01478, 433, 161, 496, 288
-1.01478, 9, 209, 72, 333
-1.01478, 33, 209, 96, 333
-1.01478, 57, 209, 120, 333
-1.01478, 81, 209, 144, 333
-1.01478, 193, 209, 256, 333
-1.01478, 217, 209, 280, 333
-1.01478, 241, 209, 304, 333
-1.01478, 265, 209, 328, 333
-1.01478, 289, 209, 352, 333
-1.01478, 313, 209, 376, 333
-1.01478, 337, 209, 400, 333
-1.01478, 361, 209, 424, 333
-1.01478, 385, 209, 448, 333
-1.01478, 409, 209, 472, 333
-1.01478, 433, 209, 496, 333
-1.05524, 129, 65, 384, 320
-1.0795, 1, 33, 256, 288
-1.09513, 257, 65, 500, 320
