1955
0.0447243, 1, 1, 355, 500
-0.162344, 1, 1, 355, 256
-0.320577, 97, 1, 352, 500
-0.321486, 1, 1, 256, 500
-0.38879, 1, 193, 355, 448
-0.456725, 1, 97, 355, 352
-0.474228, 1, 1, 256, 256
-0.513877, 97, 1, 352, 256
-0.658731, 1, 257, 256, 500
-0.68472, 97, 257, 352, 500
-0.758524, 97, 97, 352, 352
-0.762528, 1, 161, 256, 416
-0.838626, 209, 1, 336, 500
-0.840477, 17, 1, 144, 256
-0.848248, 1, 17, 355, 144
-0.850731, 17, 1, 144, 500
-0.852427, 209, 1, 336, 256
-0.863193, 65, 1, 192, 500
-0.870517, 145, 1, 272, 500
-0.876935, 1, 337, 355, 464
-0.877178, 161, 1, 288, 256
-0.879613, 81, 1, 208, 256
-0.891011, 1, 193, 355, 320
-0.891267, 209, 257, 336, 500
-0.897756, 1, 65, 355, 192
-0.898034, 1, 289, 355, 416
-0.899097, 17, 257, 144, 500
-0.902059, 1, 113, 355, 240
-0.906322, 1, 161, 128, 416
-0.906768, 209, 129, 336, 384
-0.913984, 97, 257, 224, 500
-0.91409, 1, 241, 355, 368
-0.91709, 1, 17, 256, 144
-0.91926, 161, 257, 288, 500
-0.920154, 97, 17, 352, 144
-0.924907, 97, 337, 352, 464
-0.926817, 1, 289, 256, 416
-0.929428, 49, 161, 176, 416
-0.932021, 129, 161, 256, 416
-0.933856, 97, 113, 352, 240
-0.935805, 1, 241, 256, 368
-0.937712, 1, 369, 256, 496
-0.937791, 97, 289, 352, 416
-0.939707, 1, 113, 256, 240
-0.940488, 17, 17, 144, 144
-0.941159, 1, 161, 256, 288
-0.942445, 209, 17, 336, 144
-0.942462, 1, 65, 256, 192
-0.944509, 97, 225, 352, 352
-0.945763, 97, 161, 352, 288
-0.948539, 257, 17, 320, 144
-0.948966, 25, 17, 88, 144
-0.949079, 97, 65, 352, 192
-0.952489, 209, 321, 336, 448
-0.953664, 97, 369, 224, 496
-0.953864, 1, 353, 128, 480
-0.95636, 225, 257, 352, 384
-0.956605, 265, 289, 328, 416
-0.957137, 265, 353, 328, 480
-0.957699, 161, 305, 288, 432
-0.958334, 265, 65, 328, 192
-0.959104, 209, 97, 336, 224
-0.959271, 17, 209, 144, 336
-0.959655, 129, 17, 256, 144
-0.960031, 209, 209, 336, 336
-0.961311, 17, 353, 80, 480
-0.961702, 161, 289, 224, 416
-0.962055, 145, 353, 208, 480
-0.962557, 209, 145, 336, 272
-0.962597, 17, 97, 144, 224
-0.963735, 145, 353, 272, 480
-0.96426, 81, 17, 208, 144
-0.964314, 25, 25, 88, 88
-0.964318, 265, 241, 328, 368
-0.964327, 225, 17, 288, 144
-0.96461, 1, 161, 128, 288
-0.964679, 185, 337, 248, 464
-0.964795, 225, 369, 352, 496
-0.965241, 201, 17, 264, 144
-0.965882, 257, 1, 320, 256
-0.966378, 17, 305, 144, 432
-0.967156, 185, 289, 248, 416
-0.967403, 97, 257, 224, 384
-0.967793, 25, 1, 88, 256
-0.967845, 65, 17, 128, 144
-0.967936, 17, 65, 80, 192
-0.96794, 225, 305, 288, 432
-0.967975, 97, 17, 160, 144
-0.968222, 145, 241, 208, 368
-0.968232, 177, 17, 240, 144
-0.968367, 153, 17, 216, 144
-0.968515, 49, 369, 176, 496
-0.968639, 257, 25, 320, 88
-0.968659, 129, 17, 192, 144
-0.969025, 225, 353, 288, 480
-0.969378, 265, 345, 328, 408
-0.969629, 257, 113, 320, 240
-0.97007, 177, 417, 240, 480
-0.970121, 105, 369, 168, 496
-0.971534, 17, 257, 144, 384
-0.971635, 161, 257, 288, 384
-0.971759, 9, 401, 72, 464
-0.972438, 289, 369, 352, 496
-0.972715, 49, 369, 112, 496
-0.973303, 97, 209, 224, 336
-0.973333, 17, 161, 80, 288
-0.973508, 281, 425, 344, 488
-0.973558, 25, 49, 88, 112
-0.973641, 265, 313, 328, 376
-0.973816, 73, 369, 136, 496
-0.973894, 65, 161, 192, 288
-0.973923, 153, 425, 216, 488
-0.973947, 137, 305, 200, 432
-0.974012, 265, 177, 328, 304
-0.974077, 17, 353, 80, 416
-0.974151, 137, 257, 200, 320
-0.974198, 169, 1, 232, 256
-0.974229, 265, 57, 328, 120
-0.974752, 209, 257, 272, 384
-0.97491, 249, 433, 312, 496
-0.975011, 161, 177, 288, 304
-0.97541, 57, 209, 120, 336
-0.97547, 17, 257, 80, 384
-0.975532, 145, 1, 208, 256
-0.975744, 9, 425, 72, 488
-0.975805, 225, 1, 288, 256
-0.975858, 185, 185, 248, 248
-0.976014, 25, 305, 88, 432
-0.976015, 265, 369, 328, 432
-0.976051, 193, 1, 256, 256
-0.976161, 113, 1, 176, 256
-0.976222, 273, 393, 336, 456
-0.976272, 145, 177, 208, 240
-0.976807, 185, 353, 248, 416
-0.977077, 17, 25, 144, 88
-0.97722, 113, 129, 240, 256
-0.97725, 17, 113, 80, 240
-0.977478, 265, 233, 328, 296
-0.977486, 17, 209, 80, 336
-0.977579, 65, 305, 192, 432
-0.97761, 113, 305, 240, 432
-0.9778, 129, 417, 192, 480
-0.977995, 89, 25, 152, 88
-0.978, 145, 345, 208, 408
-0.978145, 209, 25, 336, 88
-0.978169, 29, 17, 60, 144
-0.978303, 49, 401, 112, 464
-0.978341, 49, 25, 112, 88
-0.978424, 265, 177, 328, 240
-0.978486, 97, 249, 160, 312
-0.978539, 105, 417, 168, 480
-0.978545, 129, 25, 192, 88
-0.978559, 265, 257, 328, 500
-0.978587, 241, 257, 304, 384
-0.978656, 161, 97, 288, 224
-0.978777, 81, 433, 144, 496
-0.97884, 1, 377, 128, 440
-0.978848, 289, 33, 352, 160
-0.978878, 17, 377, 80, 440
-0.978974, 137, 161, 200, 288
-0.979018, 41, 257, 104, 384
-0.979057, 265, 289, 328, 352
-0.979339, 257, 81, 320, 144
-0.979342, 97, 337, 160, 400
-0.97952, 137, 257, 200, 500
-0.979613, 1, 49, 128, 112
-0.979623, 177, 193, 240, 320
-0.97966, 209, 425, 272, 488
-0.979675, 225, 249, 352, 312
-0.979717, 265, 105, 328, 168
-0.979745, 57, 1, 120, 256
-0.979813, 153, 289, 216, 352
-0.979823, 289, 305, 352, 432
-0.979857, 209, 361, 336, 424
-0.979921, 265, 153, 328, 216
-0.979939, 257, 265, 320, 328
-0.98002, 161, 353, 288, 416
-0.980075, 121, 337, 184, 400
-0.980209, 41, 433, 104, 496
-0.980227, 225, 25, 288, 88
-0.98036, 25, 73, 88, 136
-0.980562, 209, 57, 336, 120
-0.980616, 161, 265, 224, 328
-0.980681, 17, 153, 80, 216
-0.980688, 209, 353, 272, 416
-0.980756, 185, 329, 248, 392
-0.980814, 29, 25, 60, 88
-0.980852, 177, 25, 240, 88
-0.980938, 17, 129, 80, 192
-0.980943, 289, 17, 320, 144
-0.981134, 89, 1, 152, 256
-0.981139, 265, 1, 328, 500
-0.981161, 161, 249, 288, 312
-0.981172, 169, 241, 232, 368
-0.981321, 201, 401, 264, 464
-0.98138, 201, 25, 264, 88
-0.981413, 153, 401, 216, 464
-0.981417, 185, 249, 248, 312
-0.981427, 153, 25, 216, 88
-0.981552, 217, 97, 280, 224
-0.981589, 137, 153, 200, 216
-0.981648, 225, 273, 352, 336
-0.981651, 209, 209, 336, 272
-0.981716, 209, 385, 336, 448
-0.981766, 17, 193, 80, 256
-0.981856, 49, 361, 112, 424
-0.982053, 1, 401, 128, 464
-0.982131, 217, 249, 280, 312
-0.982159, 17, 249, 80, 312
-0.982362, 297, 353, 328, 480
-0.982391, 1, 337, 128, 400
-0.982475, 177, 185, 304, 248
-0.982513, 97, 145, 160, 272
-0.98257, 225, 425, 352, 488
-0.982595, 17, 217, 80, 280
-0.982666, 97, 361, 160, 424
-0.982823, 113, 273, 176, 336
-0.982954, 281, 113, 344, 240
-0.982956, 73, 401, 136, 464
-0.982991, 265, 129, 328, 192
-0.983098, 129, 377, 192, 440
-0.983209, 17, 105, 80, 168
-0.983266, 33, 273, 96, 336
-0.983348, 113, 81, 240, 208
-0.983474, 65, 1, 128, 500
-0.983493, 225, 337, 352, 400
-0.983544, 185, 289, 248, 352
-0.983552, 17, 329, 80, 392
-0.983557, 297, 401, 328, 464
-0.983563, 41, 161, 104, 288
-0.983683, 73, 361, 136, 424
-0.983705, 161, 217, 224, 280
-0.983865, 249, 401, 312, 464
-0.983879, 185, 1, 248, 500
-0.98394, 161, 257, 224, 500
-0.98398, 193, 97, 256, 224
-0.983992, 97, 1, 160, 500
-0.984012, 17, 177, 144, 240
-0.984018, 21, 353, 52, 480
-0.98404, 293, 25, 324, 88
-0.984094, 217, 185, 280, 248
-0.984141, 165, 225, 196, 352
-0.984168, 17, 225, 144, 288
-0.984176, 113, 249, 240, 312
-0.984188, 1, 433, 128, 496
-0.98423, 137, 1, 200, 500
-0.984237, 289, 73, 352, 136
-0.984311, 289, 369, 352, 432
-0.984421, 173, 329, 204, 392
-0.984443, 17, 257, 80, 500
-0.984462, 17, 265, 144, 328
-0.984512, 113, 193, 176, 256
-0.984564, 189, 417, 220, 480
-0.984635, 17, 1, 80, 500
-0.984639, 177, 217, 208, 280
-0.984666, 65, 337, 128, 400
-0.984728, 129, 177, 256, 240
-0.984736, 177, 289, 208, 416
-0.984972, 289, 49, 352, 112
-0.984973, 185, 353, 216, 480
-0.985001, 165, 353, 196, 480
-0.985021, 89, 209, 152, 336
-0.985022, 265, 129, 328, 384
-0.985078, 161, 417, 288, 480
-0.985137, 97, 289, 160, 416
-0.985225, 49, 345, 176, 408
-0.985229, 289, 329, 352, 392
-0.985248, 113, 377, 240, 440
-0.985257, 249, 17, 280, 144
-0.985291, 233, 17, 264, 144
-0.985412, 1, 17, 64, 144
-0.985507, 113, 25, 240, 88
-0.985534, 121, 257, 184, 384
-0.985565, 189, 17, 220, 144
-0.985567, 49, 401, 176, 464
-0.98558, 201, 17, 232, 144
-0.98559, 225, 329, 288, 392
-0.985756, 201, 417, 232, 480
-0.985794, 161, 321, 224, 384
-0.985802, 113, 353, 240, 416
-0.985802, 217, 17, 248, 144
-0.985819, 265, 209, 328, 272
-0.985822, 133, 17, 164, 144
-0.985822, 97, 417, 224, 480
-0.985919, 17, 201, 144, 264
-0.985932, 65, 25, 192, 88
-0.985943, 225, 273, 288, 336
-0.985948, 261, 17, 292, 144
-0.985953, 1, 73, 128, 136
-0.985969, 17, 129, 80, 384
-0.985995, 277, 17, 308, 144
-0.986021, 209, 313, 336, 376
-0.986061, 185, 225, 248, 288
-0.986061, 121, 17, 152, 144
-0.986061, 161, 25, 288, 88
-0.986098, 225, 177, 352, 240
-0.986159, 153, 369, 216, 432
-0.986205, 137, 225, 200, 288
-0.986206, 221, 289, 252, 416
-0.986215, 205, 353, 236, 480
-0.986266, 73, 161, 136, 288
-0.986315, 177, 17, 208, 144
-0.986332, 101, 17, 132, 144
-0.986332, 149, 17, 180, 144
-0.986384, 105, 393, 168, 456
-0.98645, 289, 305, 352, 368
-0.98648, 41, 257, 104, 500
-0.98651, 29, 161, 60, 288
-0.986527, 141, 369, 172, 496
-0.986557, 97, 201, 224, 264
-0.986597, 177, 241, 208, 368
-0.986642, 65, 49, 128, 112
-0.986684, 185, 193, 216, 256
-0.986705, 121, 209, 184, 336
-0.986719, 41, 233, 104, 296
-0.986779, 297, 257, 328, 384
-0.986798, 129, 273, 256, 336
-0.986805, 177, 145, 240, 272
-0.986839, 1, 97, 128, 160
-0.986843, 89, 49, 152, 112
-0.986845, 161, 17, 192, 144
-0.986861, 9, 273, 72, 336
-0.986872, 137, 161, 200, 416
-0.986885, 41, 1, 104, 500
-0.986959, 49, 433, 176, 496
-0.986962, 25, 49, 56, 112
-0.986969, 69, 17, 100, 144
-0.987001, 209, 1, 272, 500
-0.987054, 113, 329, 240, 392
-0.987085, 161, 1, 224, 500
-0.987112, 89, 17, 120, 144
-0.987121, 1, 33, 64, 96
-0.98713, 45, 401, 76, 464
-0.987148, 49, 369, 176, 432
-0.987164, 121, 369, 152, 496
-0.987189, 17, 313, 144, 376
-0.987194, 209, 81, 336, 144
-0.987248, 289, 257, 352, 384
-0.987251, 181, 177, 212, 304
-0.987327, 209, 105, 336, 168
-0.987361, 121, 313, 184, 376
-0.987401, 209, 153, 336, 216
-0.987416, 57, 17, 88, 144
-0.987446, 233, 361, 296, 424
-0.987485, 193, 289, 224, 416
-0.987533, 153, 353, 184, 480
-0.987535, 241, 177, 304, 240
-0.987568, 169, 161, 232, 416
-0.987588, 281, 433, 312, 496
-0.987624, 241, 1, 304, 500
-0.98764, 233, 289, 264, 416
-0.987689, 41, 321, 104, 384
-0.987696, 241, 57, 304, 120
-0.987701, 145, 113, 208, 240
-0.987731, 17, 289, 144, 352
-0.987733, 297, 273, 328, 336
-0.987751, 293, 193, 324, 320
-0.987781, 249, 289, 280, 416
-0.987794, 1, 153, 128, 216
-0.987833, 41, 17, 72, 144
-0.987872, 25, 401, 56, 464
-0.98791, 217, 57, 280, 120
-0.987951, 177, 393, 240, 456
-0.987971, 65, 305, 128, 432
-0.987996, 73, 257, 136, 320
-0.988031, 305, 97, 336, 160
-0.988039, 1, 121, 128, 184
-0.988064, 41, 193, 104, 256
-0.988064, 1, 305, 64, 368
-0.988077, 113, 257, 176, 500
-0.988085, 301, 377, 332, 440
-0.988132, 289, 105, 352, 168
-0.988206, 45, 433, 76, 496
-0.98822, 45, 25, 76, 88
-0.988258, 165, 305, 196, 432
-0.988259, 65, 257, 128, 500
-0.988261, 113, 417, 144, 480
-0.988268, 169, 97, 232, 224
-0.988286, 177, 353, 208, 416
-0.988297, 269, 433, 300, 496
-0.98831, 161, 393, 288, 456
-0.988327, 1, 57, 64, 120
-0.988328, 93, 433, 124, 496
-0.988351, 137, 201, 200, 264
-0.988367, 97, 225, 224, 288
-0.988396, 257, 337, 288, 464
-0.988426, 65, 65, 192, 192
-0.988493, 297, 305, 328, 368
-0.988597, 173, 177, 204, 240
-0.988597, 173, 265, 204, 328
-0.988647, 165, 241, 196, 304
-0.988657, 225, 353, 256, 480
-0.98874, 193, 353, 224, 416
-0.988778, 85, 25, 116, 88
-0.988788, 161, 345, 192, 408
-0.9888, 293, 145, 324, 272
-0.988824, 169, 161, 232, 224
-0.988833, 293, 177, 324, 240
-0.988843, 293, 57, 324, 120
-0.988856, 129, 57, 192, 120
-0.988914, 89, 177, 152, 240
-0.988931, 117, 25, 148, 88
-0.988946, 101, 369, 132, 496
-0.988999, 129, 337, 160, 400
-0.989, 161, 241, 224, 304
-0.98901, 65, 25, 96, 88
-0.989015, 293, 249, 324, 312
-0.989032, 165, 217, 196, 280
-0.989076, 45, 241, 76, 368
-0.989092, 297, 345, 328, 408
-0.989113, 137, 25, 168, 88
-0.989121, 281, 25, 344, 88
-0.989125, 281, 25, 312, 88
-0.989132, 309, 369, 340, 496
-0.989187, 301, 33, 332, 160
-0.9892, 129, 241, 160, 304
-0.989233, 57, 401, 88, 464
-0.989317, 281, 257, 344, 320
-0.989375, 205, 289, 236, 416
-0.989457, 101, 25, 132, 88
-0.989471, 1, 25, 355, 88
-0.989484, 65, 249, 192, 312
-0.989499, 185, 57, 248, 120
-0.989534, 1, 305, 64, 432
-0.989606, 261, 25, 292, 88
-0.989678, 21, 361, 52, 424
-0.989693, 129, 185, 160, 248
-0.989696, 25, 209, 56, 336
-0.989723, 165, 161, 196, 288
-0.989743, 293, 209, 324, 272
-0.989772, 177, 425, 208, 488
-0.989785, 289, 257, 352, 500
-0.989802, 161, 57, 224, 120
-0.989805, 161, 225, 288, 288
-0.989821, 137, 65, 200, 192
-0.989898, 25, 233, 56, 296
-0.9899, 241, 25, 272, 88
-0.989915, 217, 257, 280, 500
-0.989922, 97, 65, 160, 192
-0.989973, 241, 337, 272, 464
-0.990005, 297, 305, 328, 432
-0.990006, 193, 329, 224, 392
-0.990039, 49, 49, 176, 112
-0.990041, 97, 57, 224, 120
-0.990076, 177, 241, 208, 304
-0.990118, 65, 257, 128, 384
-0.990135, 65, 185, 128, 248
-0.990214, 81, 177, 208, 240
-0.990243, 1, 57, 355, 120
-0.990268, 113, 225, 176, 288
-0.990274, 41, 297, 104, 360
-0.990288, 161, 25, 192, 88
-0.99031, 177, 289, 208, 352
-0.990321, 221, 433, 252, 496
-0.990329, 157, 417, 188, 480
-0.990341, 145, 193, 176, 256
-0.990348, 305, 81, 336, 208
-0.99036, 217, 225, 280, 288
-0.990365, 229, 25, 260, 88
-0.99041, 289, 281, 352, 344
-0.990432, 257, 425, 288, 488
-0.990458, 65, 377, 96, 440
-0.99047, 289, 193, 352, 320
-0.99047, 225, 353, 256, 416
-0.990483, 209, 129, 336, 192
-0.990514, 225, 145, 288, 272
-0.990531, 41, 169, 104, 232
-0.990549, 29, 161, 60, 224
-0.990552, 281, 1, 344, 256
-0.990553, 57, 433, 88, 496
-0.99059, 277, 401, 308, 464
-0.990596, 65, 113, 192, 240
-0.9906, 293, 425, 324, 488
-0.990604, 177, 401, 208, 464
-0.990617, 45, 353, 76, 480
-0.990626, 149, 377, 180, 440
-0.990626, 145, 449, 208, 480
-0.99069, 149, 25, 180, 88
-0.99069, 185, 25, 216, 88
-0.990696, 33, 353, 64, 480
-0.990705, 113, 437, 176, 468
-0.990736, 105, 449, 168, 480
-0.99074, 237, 433, 268, 496
-0.990762, 25, 209, 56, 272
-0.990769, 193, 257, 256, 500
-0.990771, 265, 329, 328, 360
-0.990781, 289, 113, 320, 176
-0.990786, 81, 273, 208, 336
-0.9908, 285, 337, 316, 464
-0.990827, 313, 337, 344, 400
-0.990881, 65, 289, 128, 352
-0.990899, 217, 297, 280, 360
-0.990922, 173, 25, 204, 88
-0.990922, 165, 289, 196, 352
-0.990968, 197, 25, 228, 88
-0.990972, 289, 97, 320, 224
-0.991003, 1, 185, 355, 248
-0.991015, 77, 433, 108, 496
-0.991018, 49, 113, 112, 240
-0.991028, 225, 385, 288, 448
-0.991059, 145, 433, 176, 496
-0.991161, 137, 437, 200, 468
-0.991164, 45, 249, 76, 312
-0.991169, 213, 25, 244, 88
-0.991181, 169, 437, 232, 468
-0.991195, 273, 317, 336, 348
-0.991214, 205, 329, 236, 392
-0.991352, 97, 305, 224, 368
-0.991399, 161, 57, 288, 120
-0.991403, 145, 189, 208, 220
-0.991413, 245, 249, 276, 312
-0.991422, 177, 273, 304, 336
-0.991424, 137, 261, 200, 292
-0.991454, 201, 145, 264, 272
-0.991458, 25, 57, 88, 88
-0.991473, 121, 377, 152, 440
-0.991483, 1, 1, 64, 256
-0.9915, 273, 425, 336, 456
-0.991509, 81, 441, 144, 472
-0.991542, 89, 201, 152, 264
-0.991552, 289, 153, 320, 216
-0.991552, 9, 429, 72, 460
-0.991553, 241, 257, 304, 500
-0.99156, 93, 401, 124, 464
-0.991573, 97, 25, 352, 88
-0.991588, 97, 353, 352, 416
-0.991588, 265, 125, 328, 156
-0.991617, 265, 33, 328, 64
-0.991622, 25, 29, 88, 60
-0.991632, 1, 25, 256, 88
-0.991633, 281, 445, 344, 476
-0.99164, 265, 369, 328, 400
-0.991659, 265, 61, 328, 92
-0.991666, 249, 437, 312, 468
-0.991666, 257, 97, 320, 128
-0.991674, 149, 257, 180, 320
-0.991674, 105, 361, 136, 424
-0.991677, 265, 357, 328, 388
-0.991678, 169, 449, 232, 480
-0.991689, 177, 193, 240, 224
-0.991689, 9, 409, 72, 440
-0.9917, 1, 385, 355, 448
-0.991727, 65, 225, 128, 288
-0.991737, 145, 297, 272, 360
-0.991742, 185, 181, 248, 212
-0.991746, 193, 429, 256, 460
-0.991755, 77, 361, 108, 424
-0.991773, 105, 161, 136, 288
-0.991785, 281, 341, 344, 372
-0.991786, 17, 145, 80, 176
-0.991791, 9, 393, 72, 424
-0.991798, 193, 249, 224, 312
-0.9918, 257, 249, 288, 312
-0.991802, 265, 181, 328, 212
-0.991827, 49, 185, 80, 248
-0.99184, 201, 417, 264, 448
-0.991841, 241, 65, 304, 192
-0.991865, 137, 357, 200, 388
-0.991898, 17, 181, 80, 212
-0.991905, 257, 113, 320, 144
-0.991916, 209, 189, 272, 220
-0.991921, 273, 305, 336, 336
-0.99193, 25, 113, 56, 240
-0.991935, 17, 157, 80, 188
-0.991942, 241, 353, 272, 416
-0.991968, 17, 133, 80, 164
-0.991968, 217, 437, 280, 468
-0.99197, 169, 409, 232, 440
-0.991973, 265, 137, 328, 168
-0.99198, 113, 337, 144, 400
-0.991984, 137, 277, 200, 308
-0.991994, 265, 77, 328, 108
-0.991996, 17, 373, 80, 404
-0.992004, 97, 249, 352, 312
-0.992007, 25, 97, 88, 128
-0.992009, 73, 425, 136, 456
-0.99201, 209, 449, 272, 480
-0.992018, 273, 413, 336, 444
-0.992021, 49, 177, 80, 304
-0.992048, 29, 65, 60, 192
-0.992049, 265, 197, 328, 228
-0.99205, 41, 429, 104, 460
-0.992054, 265, 249, 328, 280
-0.992067, 17, 357, 80, 388
-0.992084, 1, 401, 256, 464
-0.992101, 273, 385, 336, 416
-0.992104, 17, 261, 80, 292
-0.992109, 265, 261, 328, 292
-0.992122, 25, 121, 88, 152
-0.992127, 17, 201, 80, 232
-0.992128, 33, 433, 64, 496
-0.992134, 61, 193, 92, 320
-0.992153, 265, 45, 328, 76
-0.992156, 17, 45, 80, 76
-0.992171, 41, 161, 104, 416
-0.992179, 273, 401, 336, 432
-0.992197, 145, 177, 208, 208
-0.992198, 77, 369, 108, 496
-0.992208, 265, 149, 328, 180
-0.992238, 25, 109, 88, 140
-0.992245, 41, 193, 104, 224
-0.992247, 17, 169, 80, 200
-0.992259, 289, 129, 352, 192
-0.992262, 233, 425, 296, 456
-0.992265, 57, 249, 88, 312
-0.992268, 169, 425, 232, 456
-0.992289, 161, 273, 224, 304
-0.992306, 241, 201, 304, 264
-0.992312, 169, 357, 232, 388
-0.992315, 249, 449, 312, 480
-0.992316, 57, 441, 120, 472
-0.99233, 217, 161, 280, 224
-0.99234, 1, 441, 64, 472
-0.992343, 257, 353, 288, 416
-0.992348, 17, 85, 80, 116
-0.992349, 29, 73, 60, 136
-0.992351, 17, 73, 80, 104
-0.992366, 73, 401, 104, 464
-0.992367, 17, 233, 80, 264
-0.99238, 73, 65, 136, 192
-0.992395, 193, 393, 256, 424
-0.992398, 137, 301, 200, 332
-0.992408, 33, 441, 96, 472
-0.992411, 265, 237, 328, 268
-0.992411, 17, 213, 80, 244
-0.992411, 241, 341, 304, 372
-0.992416, 289, 113, 352, 144
-0.992422, 73, 393, 136, 424
-0.992424, 265, 209, 328, 240
-0.992429, 265, 293, 328, 324
-0.992441, 81, 313, 144, 376
-0.992452, 17, 273, 80, 304
-0.992476, 209, 353, 240, 416
-0.992478, 137, 245, 200, 276
-0.992479, 289, 73, 352, 104
-0.992479, 169, 397, 232, 428
-0.992481, 145, 385, 208, 416
-0.992487, 269, 369, 300, 496
-0.992489, 97, 193, 160, 224
-0.992503, 145, 369, 208, 400
-0.992505, 149, 337, 180, 400
-0.992509, 197, 177, 228, 240
-0.99251, 17, 309, 80, 340
-0.992517, 277, 257, 308, 384
-0.992518, 241, 189, 304, 220
-0.99253, 265, 169, 328, 200
-0.992532, 25, 257, 56, 384
-0.992539, 265, 225, 328, 256
-0.992546, 61, 369, 92, 496
-0.992549, 153, 289, 216, 320
-0.99255, 289, 457, 352, 488
-0.99255, 29, 185, 60, 248
-0.99256, 177, 257, 240, 288
-0.992577, 1, 337, 256, 400
-0.992585, 93, 161, 124, 288
-0.992601, 81, 381, 144, 412
-0.992619, 121, 189, 184, 220
-0.992633, 189, 289, 220, 352
-0.992636, 65, 197, 128, 228
-0.992638, 41, 321, 104, 352
-0.992647, 169, 345, 232, 376
-0.992648, 93, 337, 124, 400
-0.992661, 17, 285, 80, 316
-0.992676, 9, 249, 72, 280
-0.992679, 97, 397, 160, 428
-0.992683, 105, 417, 168, 448
-0.992684, 41, 209, 104, 240
-0.992689, 289, 61, 352, 92
-0.992692, 129, 345, 192, 376
-0.992692, 145, 217, 208, 248
-0.992698, 177, 381, 240, 412
-0.9927, 137, 321, 200, 352
-0.992703, 105, 381, 168, 412
-0.992718, 17, 345, 80, 376
-0.992721, 17, 333, 80, 364
-0.992724, 49, 269, 112, 300
-0.992724, 17, 321, 80, 352
-0.992724, 225, 325, 288, 356
-0.992724, 225, 361, 288, 392
-0.992752, 65, 405, 128, 436
-0.992752, 265, 277, 328, 308
-0.992761, 289, 373, 352, 404
-0.992763, 57, 381, 120, 412
-0.992779, 1, 457, 64, 488
-0.992788, 145, 333, 208, 364
-0.992796, 289, 101, 352, 132
-0.992799, 137, 201, 200, 232
-0.992801, 1, 49, 256, 112
-0.992818, 305, 73, 336, 136
-0.992847, 161, 369, 192, 432
-0.992849, 285, 81, 316, 144
-0.992863, 141, 449, 172, 480
-0.992884, 1, 81, 64, 144
-0.992894, 153, 161, 184, 224
-0.992899, 37, 49, 68, 112
-0.992922, 153, 449, 184, 480
-0.992926, 97, 273, 352, 336
-0.992928, 209, 177, 240, 240
-0.992938, 133, 369, 164, 432
-0.992943, 113, 449, 144, 480
-0.992951, 17, 25, 48, 88
-0.992971, 161, 329, 288, 392
-0.992975, 169, 449, 200, 480
-0.992988, 213, 401, 244, 464
-0.992989, 125, 449, 156, 480
-0.993015, 297, 413, 328, 444
-0.99303, 197, 437, 228, 468
-0.993035, 21, 305, 52, 432
-0.993043, 109, 393, 140, 456
-0.993051, 173, 189, 204, 220
-0.993053, 29, 29, 60, 60
-0.99306, 125, 401, 156, 464
-0.993061, 157, 437, 188, 468
-0.993062, 97, 185, 352, 248
-0.993062, 21, 337, 52, 400
-0.993066, 309, 425, 340, 488
-0.99307, 145, 437, 176, 468
-0.993075, 293, 33, 324, 64
-0.993085, 297, 425, 328, 456
-0.993094, 125, 437, 156, 468
-0.993095, 201, 413, 232, 444
-0.993104, 1, 249, 256, 312
-0.993109, 173, 217, 204, 248
-0.993113, 185, 437, 216, 468
-0.993116, 297, 329, 328, 360
-0.993125, 213, 429, 244, 460
-0.993133, 193, 397, 224, 428
-0.993142, 165, 265, 196, 296
-0.993145, 309, 401, 340, 464
-0.99315, 49, 193, 80, 224
-0.993155, 65, 353, 96, 416
-0.993161, 297, 309, 328, 340
-0.993162, 277, 437, 308, 468
-0.993168, 297, 445, 328, 476
-0.99318, 185, 201, 216, 232
-0.993185, 145, 193, 176, 224
-0.99319, 293, 217, 324, 248
-0.993192, 97, 437, 128, 468
-0.993193, 185, 449, 216, 480
-0.993197, 297, 401, 328, 432
-0.993199, 113, 437, 144, 468
-0.993201, 173, 437, 204, 468
-0.993203, 165, 233, 196, 264
-0.993205, 297, 293, 328, 324
-0.993214, 165, 373, 196, 404
-0.993223, 177, 385, 208, 416
-0.993225, 177, 273, 208, 304
-0.993231, 25, 241, 56, 272
-0.993231, 101, 449, 132, 480
-0.993232, 189, 189, 220, 220
-0.993232, 277, 425, 308, 456
-0.993235, 249, 189, 280, 220
-0.993237, 305, 105, 336, 136
-0.993244, 213, 445, 244, 476
-0.993244, 221, 417, 252, 448
-0.993248, 97, 417, 352, 480
-0.993249, 297, 277, 328, 308
-0.993249, 21, 397, 52, 428
-0.993259, 265, 437, 296, 468
-0.993263, 293, 205, 324, 236
-0.993263, 25, 229, 56, 260
-0.993267, 165, 245, 196, 276
-0.993267, 165, 293, 196, 324
-0.993267, 1, 377, 256, 440
-0.993268, 293, 65, 324, 96
-0.993273, 97, 377, 352, 440
-0.99328, 201, 193, 232, 224
-0.993281, 173, 321, 204, 352
-0.993282, 297, 349, 328, 380
-0.993284, 293, 365, 324, 396
-0.993295, 225, 437, 256, 468
-0.993297, 133, 189, 164, 220
-0.993298, 177, 233, 208, 264
-0.993299, 293, 249, 324, 280
-0.9933, 293, 261, 324, 292
-0.993303, 25, 213, 56, 244
-0.993303, 25, 57, 56, 88
-0.993305, 97, 425, 128, 456
-0.993311, 293, 85, 324, 116
-0.993317, 289, 173, 320, 204
-0.993319, 181, 425, 212, 456
-0.993325, 249, 449, 280, 480
-0.993328, 1, 313, 256, 376
-0.99333, 185, 409, 216, 440
-0.993333, 237, 189, 268, 220
-0.993333, 225, 189, 256, 220
-0.993335, 45, 253, 76, 284
-0.993335, 237, 421, 268, 452
-0.993338, 69, 389, 100, 420
-0.993342, 293, 193, 324, 224
-0.993343, 65, 193, 96, 224
-0.993345, 293, 233, 324, 264
-0.993345, 141, 381, 172, 412
-0.993351, 197, 449, 228, 480
-0.993351, 25, 85, 56, 116
-0.993351, 237, 437, 268, 468
-0.993352, 21, 357, 52, 388
-0.993355, 205, 389, 236, 420
-0.993356, 313, 349, 344, 380
-0.993356, 1, 289, 256, 352
-0.993357, 285, 449, 316, 480
-0.993362, 177, 361, 208, 392
-0.993367, 21, 385, 52, 416
-0.993368, 45, 429, 76, 460
-0.993371, 173, 201, 204, 232
-0.993371, 301, 385, 332, 416
-0.993373, 157, 385, 188, 416
-0.993377, 165, 277, 196, 308
-0.993378, 309, 445, 340, 476
-0.993382, 213, 405, 244, 436
-0.993386, 177, 245, 208, 276
-0.993387, 177, 341, 208, 372
-0.993388, 157, 341, 188, 372
-0.993388, 13, 109, 44, 140
-0.99339, 229, 449, 260, 480
-0.99339, 41, 441, 72, 472
-0.99339, 25, 73, 56, 104
-0.993393, 121, 189, 152, 220
-0.993396, 29, 169, 60, 200
-0.993397, 65, 425, 96, 456
-0.9934, 177, 377, 208, 440
-0.993401, 49, 205, 80, 236
-0.993402, 29, 181, 60, 212
-0.993403, 21, 409, 52, 440
-0.993403, 249, 437, 280, 468
-0.993404, 85, 425, 116, 456
-0.993404, 29, 201, 60, 232
-0.993407, 21, 449, 52, 480
-0.993409, 125, 397, 156, 428
-0.993417, 189, 381, 220, 412
-0.993419, 289, 125, 320, 156
-0.99342, 305, 129, 336, 160
-0.993421, 201, 425, 232, 456
-0.993423, 45, 273, 76, 336
-0.993425, 173, 305, 204, 336
-0.993425, 165, 357, 196, 388
-0.993426, 25, 253, 56, 284
-0.993427, 45, 269, 76, 300
-0.993428, 285, 97, 316, 128
-0.993429, 21, 369, 52, 400
-0.993433, 137, 401, 168, 464
-0.993433, 285, 413, 316, 444
-0.993433, 61, 441, 92, 472
-0.993434, 25, 41, 56, 72
-0.993435, 309, 405, 340, 436
-0.99344, 25, 429, 56, 460
-0.993441, 185, 177, 216, 208
-0.993457, 189, 113, 220, 240
-0.993459, 13, 33, 44, 160
-0.993461, 117, 161, 148, 288
-0.993489, 261, 273, 292, 400
-0.99352, 1, 177, 256, 240
-0.993545, 305, 129, 336, 192
-0.993555, 129, 153, 256, 216
-0.993576, 1, 97, 355, 160
-0.993586, 241, 193, 304, 320
-0.993613, 161, 393, 192, 456
-0.993623, 1, 145, 355, 208
-0.993647, 97, 57, 352, 120
-0.993651, 313, 313, 344, 376
-0.993653, 93, 377, 124, 440
-0.993679, 97, 321, 352, 384
-0.993715, 9, 425, 40, 488
-0.993739, 145, 305, 176, 432
-0.993758, 157, 313, 188, 376
-0.993765, 249, 177, 280, 240
-0.993794, 129, 433, 160, 496
-0.993796, 13, 89, 44, 152
-0.993852, 313, 273, 344, 400
-0.993903, 189, 393, 220, 456
-0.993958, 1, 353, 355, 416
-0.993958, 97, 297, 352, 360
-0.993996, 1, 225, 256, 288
-0.994059, 93, 209, 124, 336
-0.994079, 1, 209, 355, 272
-0.994173, 249, 65, 280, 192
-0.994233, 1, 321, 355, 384
-0.994241, 65, 161, 128, 416
-0.994249, 89, 369, 120, 496
-0.994315, 1, 121, 355, 184
-0.994316, 193, 161, 224, 288
-0.994366, 289, 97, 352, 352
-0.994461, 305, 129, 336, 256
-0.99456, 49, 153, 176, 216
-0.994578, 1, 409, 355, 472
-0.994587, 153, 145, 184, 272
-0.99461, 1, 201, 256, 264
-0.994627, 1, 289, 355, 352
-0.994749, 209, 1, 336, 64
-0.994762, 309, 177, 340, 304
-0.994767, 9, 369, 40, 496
-0.994781, 89, 257, 152, 500
-0.994836, 97, 209, 352, 272
-0.994846, 89, 161, 152, 416
-0.994891, 97, 305, 128, 432
-0.994897, 13, 81, 44, 208
-0.994948, 1, 153, 256, 216
-0.994986, 289, 1, 352, 500
-0.995146, 1, 249, 355, 312
-0.995239, 109, 289, 140, 416
-0.995241, 129, 177, 160, 304
-0.995261, 253, 113, 284, 240
-0.995263, 1, 425, 256, 488
-0.995264, 269, 321, 300, 448
-0.995293, 113, 161, 176, 416
-0.995401, 73, 209, 104, 336
-0.995411, 121, 113, 184, 240
-0.995463, 1, 89, 256, 152
-0.995484, 17, 1, 144, 64
-0.995561, 65, 97, 192, 160
-0.99557, 193, 225, 224, 352
-0.995623, 171, 297, 186, 360
-0.995651, 129, 289, 160, 416
-0.995664, 31, 25, 46, 88
-0.995684, 97, 449, 224, 480
-0.995739, 179, 257, 194, 320
-0.99575, 97, 161, 352, 224
-0.995807, 1, 389, 128, 420
-0.995828, 73, 113, 136, 240
-0.995881, 33, 429, 160, 460
-0.995932, 133, 129, 164, 256
-0.995943, 201, 417, 216, 480
-0.995952, 305, 25, 320, 88
-0.995966, 65, 1, 192, 64
-0.99597, 193, 189, 320, 220
-0.995973, 209, 421, 336, 452
-0.995974, 105, 209, 136, 336
-0.995979, 237, 97, 268, 224
-0.996017, 171, 201, 186, 264
-0.99602, 29, 1, 60, 256
-0.996059, 1, 433, 355, 496
-0.996068, 201, 81, 232, 208
-0.99607, 45, 129, 76, 256
-0.996087, 225, 265, 352, 296
-0.996106, 1, 57, 128, 88
-0.996113, 161, 105, 288, 168
-0.99612, 17, 189, 144, 220
-0.996142, 169, 113, 200, 240
-0.996149, 113, 437, 240, 468
-0.996161, 183, 209, 198, 272
-0.996189, 241, 241, 272, 368
-0.996203, 33, 441, 160, 472
-0.996206, 289, 1, 320, 256
-0.996228, 97, 81, 352, 144
-0.99624, 241, 161, 304, 416
-0.996253, 41, 305, 72, 432
-0.996265, 13, 209, 44, 336
-0.996301, 1, 369, 128, 400
-0.99631, 81, 161, 112, 288
-0.99631, 313, 225, 344, 352
-0.996316, 209, 33, 336, 64
-0.99632, 153, 193, 184, 320
-0.996344, 191, 353, 206, 416
-0.996365, 193, 129, 256, 384
-0.996368, 1, 353, 128, 384
-0.996379, 225, 381, 352, 412
-0.99638, 113, 193, 240, 224
-0.996381, 1, 121, 256, 184
-0.996382, 153, 257, 184, 384
-0.996399, 17, 29, 144, 60
-0.99641, 177, 437, 304, 468
-0.996416, 309, 321, 340, 448
-0.996438, 97, 113, 352, 176
-0.996451, 209, 57, 336, 88
-0.99647, 269, 65, 300, 192
-0.99647, 225, 97, 256, 224
-0.996523, 171, 225, 186, 288
-0.996553, 189, 249, 204, 312
-0.996554, 225, 253, 352, 284
-0.996572, 209, 241, 240, 368
-0.996573, 165, 1, 196, 256
-0.996593, 209, 393, 336, 424
-0.996605, 225, 361, 352, 392
-0.996605, 225, 301, 352, 332
-0.996605, 145, 449, 272, 480
-0.996609, 113, 381, 240, 412
-0.996614, 225, 437, 352, 468
-0.996615, 161, 257, 288, 288
-0.99663, 185, 185, 200, 248
-0.996662, 285, 433, 300, 496
-0.996666, 193, 1, 224, 256
-0.996679, 207, 417, 222, 480
-0.996703, 183, 425, 198, 488
-0.996722, 161, 1, 288, 64
-0.996734, 1, 405, 128, 436
-0.996771, 225, 405, 352, 436
-0.996774, 225, 329, 352, 360
-0.996774, 43, 25, 58, 88
-0.996779, 179, 281, 194, 344
-0.996783, 225, 241, 352, 272
-0.996786, 1, 105, 128, 136
-0.99679, 293, 433, 308, 496
-0.996822, 37, 25, 52, 88
-0.996824, 17, 213, 144, 244
-0.996824, 191, 425, 206, 488
-0.996828, 145, 1, 176, 256
-0.996829, 51, 25, 66, 88
-0.996835, 97, 137, 352, 200
-0.996853, 191, 185, 206, 248
-0.996854, 193, 401, 208, 464
-0.996855, 301, 401, 316, 464
-0.996859, 209, 177, 336, 208
-0.996868, 129, 81, 256, 144
-0.99687, 113, 397, 240, 428
-0.996877, 253, 1, 284, 256
-0.996879, 69, 377, 84, 440
-0.996902, 45, 1, 76, 256
-0.996911, 225, 217, 352, 248
-0.996912, 197, 345, 212, 408
-0.996914, 213, 97, 244, 224
-0.996917, 225, 349, 352, 380
-0.99692, 1, 93, 128, 124
-0.996923, 279, 433, 294, 496
-0.996927, 189, 65, 220, 192
-0.996931, 147, 185, 162, 248
-0.996946, 213, 417, 228, 480
-0.996948, 213, 1, 244, 256
-0.996951, 99, 25, 114, 88
-0.996969, 87, 25, 102, 88
-0.996969, 221, 241, 252, 368
-0.996972, 115, 25, 130, 88
-0.996977, 29, 233, 44, 296
-0.996978, 77, 25, 92, 88
-0.996989, 273, 1, 304, 256
-0.997, 17, 237, 144, 268
-0.997001, 47, 401, 62, 464
-0.997002, 237, 1, 268, 256
-0.997002, 161, 413, 288, 444
-0.997012, 71, 25, 86, 88
-0.997012, 65, 197, 192, 228
-0.997016, 209, 109, 336, 140
-0.997022, 295, 25, 310, 88
-0.997025, 169, 65, 200, 192
-0.99703, 173, 401, 188, 464
-0.997033, 47, 433, 62, 496
-0.997035, 225, 277, 352, 308
-0.997042, 225, 1, 256, 256
-0.997045, 59, 25, 74, 88
-0.997051, 177, 1, 208, 256
-0.997054, 109, 25, 124, 88
-0.997055, 161, 425, 288, 456
-0.997055, 109, 81, 140, 208
-0.997066, 225, 313, 352, 344
-0.997075, 107, 433, 122, 496
-0.99708, 175, 433, 190, 496
-0.997092, 209, 97, 336, 128
-0.997093, 285, 25, 300, 88
-0.997093, 119, 417, 134, 480
-0.997093, 129, 1, 160, 256
-0.997093, 139, 25, 154, 88
-0.997097, 93, 25, 108, 88
-0.997097, 185, 361, 200, 424
-0.997106, 1, 177, 128, 208
-0.997108, 129, 25, 144, 88
-0.997109, 65, 25, 80, 88
-0.997112, 191, 217, 206, 280
-0.997124, 93, 257, 124, 384
-0.997126, 259, 25, 274, 88
-0.997127, 17, 257, 144, 288
-0.997136, 121, 25, 136, 88
-0.997144, 259, 249, 274, 312
-0.997144, 113, 1, 240, 64
-0.997149, 209, 205, 336, 236
-0.997153, 225, 229, 352, 260
-0.997153, 113, 425, 240, 456
-0.997154, 179, 25, 194, 88
-0.997154, 59, 393, 74, 456
-0.997155, 53, 401, 68, 464
-0.997156, 187, 281, 202, 344
-0.997159, 273, 25, 288, 88
-0.997163, 279, 25, 294, 88
-0.997166, 297, 257, 328, 500
-0.997169, 1, 45, 128, 76
-0.997174, 113, 413, 240, 444
-0.997175, 145, 25, 160, 88
-0.997185, 307, 313, 322, 376
-0.997193, 267, 25, 282, 88
-0.997196, 165, 193, 180, 256
-0.997199, 37, 49, 52, 112
-0.997202, 113, 417, 128, 480
-0.997203, 225, 289, 352, 320
-0.99721, 309, 97, 324, 160
-0.997211, 169, 25, 184, 88
-0.997213, 69, 353, 84, 416
-0.997218, 181, 233, 196, 296
-0.99722, 159, 25, 174, 88
-0.997223, 161, 433, 176, 496
-0.997224, 49, 73, 176, 136
-0.997225, 171, 321, 186, 384
-0.997226, 253, 25, 268, 88
-0.997227, 267, 433, 282, 496
-0.997242, 189, 25, 204, 88
-0.997242, 225, 449, 352, 480
-0.997249, 309, 369, 324, 432
-0.997269, 65, 257, 96, 384
-0.997273, 17, 225, 144, 256
-0.99728, 1, 77, 128, 108
-0.997282, 161, 361, 288, 392
-0.997283, 69, 401, 84, 464
-0.997294, 57, 433, 72, 496
-0.997296, 227, 25, 242, 88
-0.997299, 153, 25, 168, 88
-0.997304, 1, 341, 128, 372
-0.997306, 253, 433, 268, 496
-0.997311, 247, 25, 262, 88
-0.997311, 317, 337, 332, 400
-0.997312, 85, 433, 100, 496
-0.997313, 143, 241, 158, 304
-0.997315, 17, 269, 144, 300
-0.997316, 185, 401, 200, 464
-0.99732, 269, 257, 284, 320
-0.997324, 209, 77, 336, 108
-0.997328, 69, 1, 100, 256
-0.997329, 81, 305, 112, 432
-0.997335, 167, 417, 182, 480
-0.997336, 273, 433, 288, 496
-0.997336, 307, 345, 322, 408
-0.997343, 259, 425, 274, 488
-0.997344, 69, 305, 100, 432
-0.997348, 217, 25, 232, 88
-0.997348, 91, 433, 106, 496
-0.99736, 201, 25, 216, 88
-0.997363, 25, 97, 40, 160
-0.997363, 121, 377, 136, 440
-0.997365, 183, 337, 198, 400
-0.997365, 171, 249, 186, 312
-0.997369, 233, 25, 248, 88
-0.997369, 239, 25, 254, 88
-0.997372, 301, 113, 316, 176
-0.997373, 101, 433, 116, 496
-0.997376, 129, 65, 160, 192
-0.997378, 129, 177, 256, 208
-0.99738, 165, 377, 180, 440
-0.997389, 189, 329, 204, 392
-0.997394, 219, 433, 234, 496
-0.997395, 65, 145, 96, 272
-0.997408, 251, 249, 266, 312
-0.997409, 195, 25, 210, 88
-0.997411, 1, 117, 128, 148
-0.99742, 209, 125, 336, 156
-0.997425, 141, 185, 156, 248
-0.997427, 13, 145, 44, 272
-0.997429, 175, 361, 190, 424
-0.99743, 211, 25, 226, 88
-0.997431, 175, 169, 190, 232
-0.997438, 197, 177, 212, 240
-0.997439, 73, 433, 88, 496
-0.997451, 37, 401, 52, 464
-0.997465, 165, 257, 196, 500
-0.997466, 97, 1, 128, 256
-0.997469, 197, 249, 212, 312
-0.997473, 79, 433, 94, 496
-0.997474, 231, 425, 246, 488
-0.997478, 129, 377, 144, 440
-0.99748, 179, 401, 194, 464
-0.997492, 307, 289, 322, 352
-0.997493, 209, 161, 336, 192
-0.997496, 17, 201, 144, 232
-0.997496, 1, 129, 128, 160
-0.997497, 81, 257, 208, 288
-0.997503, 243, 353, 258, 416
-0.997506, 161, 317, 288, 348
-0.997512, 231, 177, 246, 240
-0.997514, 169, 345, 184, 408
-0.997519, 247, 433, 262, 496
-0.997519, 113, 1, 144, 256
-0.997521, 17, 165, 144, 196
-0.997534, 17, 321, 144, 352
-0.997535, 311, 401, 326, 464
-0.997538, 17, 281, 144, 312
-0.997543, 237, 433, 252, 496
-0.997546, 209, 393, 224, 456
-0.997548, 155, 433, 170, 496
-0.997551, 229, 353, 244, 416
-0.997551, 235, 353, 250, 416
-0.997569, 1, 141, 128, 172
-0.997573, 225, 45, 352, 76
-0.997576, 17, 305, 144, 336
-0.99758, 85, 1, 116, 256
-0.997598, 49, 365, 176, 396
-0.997624, 57, 1, 88, 256
-0.997647, 113, 105, 240, 168
-0.997657, 1, 293, 128, 324
-0.997675, 161, 377, 288, 408
-0.99768, 49, 377, 176, 408
-0.997682, 9, 305, 40, 432
-0.997683, 177, 257, 208, 500
-0.997688, 97, 269, 224, 300
-0.997712, 97, 357, 224, 388
-0.997713, 17, 153, 144, 184
-0.997714, 149, 65, 180, 192
-0.997716, 49, 397, 176, 428
-0.997732, 209, 141, 336, 172
-0.997831, 97, 209, 224, 240
-0.99784, 129, 305, 256, 336
-0.997842, 65, 185, 192, 216
-0.997847, 113, 369, 240, 400
-0.997891, 257, 177, 288, 304
-0.997901, 293, 129, 324, 384
-0.997968, 25, 257, 56, 500
-0.997972, 117, 241, 148, 368
-0.997985, 149, 449, 164, 480
-0.998016, 169, 233, 184, 264
-0.99802, 29, 129, 60, 384
-0.998022, 155, 449, 170, 480
-0.998031, 161, 389, 288, 420
-0.998031, 179, 261, 194, 292
-0.998039, 33, 457, 160, 488
-0.998041, 165, 449, 180, 480
-0.998042, 257, 225, 288, 352
-0.998047, 129, 341, 256, 372
-0.998066, 171, 449, 186, 480
-0.998077, 141, 449, 156, 480
-0.998083, 119, 449, 134, 480
-0.998086, 217, 209, 280, 336
-0.998089, 171, 321, 186, 352
-0.998111, 205, 161, 236, 288
-0.998112, 161, 29, 288, 60
-0.998116, 65, 417, 192, 448
-0.99812, 97, 325, 224, 356
-0.998128, 45, 257, 76, 500
-0.998128, 125, 449, 140, 480
-0.998137, 177, 449, 192, 480
-0.998148, 65, 121, 192, 184
-0.99815, 171, 309, 186, 340
-0.998158, 131, 449, 146, 480
-0.998161, 195, 189, 210, 220
-0.998164, 169, 217, 184, 248
-0.998168, 1, 417, 128, 448
-0.99817, 147, 189, 162, 220
-0.998187, 203, 437, 218, 468
-0.998233, 31, 29, 46, 60
-0.998251, 81, 313, 208, 344
-0.998256, 161, 245, 288, 276
-0.998267, 161, 201, 288, 232
-0.998267, 129, 281, 256, 312
-0.998272, 81, 345, 208, 376
-0.998273, 97, 221, 224, 252
-0.9983, 305, 33, 320, 64
-0.998305, 177, 345, 304, 376
-0.998326, 215, 413, 230, 444
-0.998328, 175, 297, 190, 328
-0.998332, 209, 413, 224, 444
-0.998332, 301, 445, 316, 476
-0.998335, 183, 449, 198, 480
-0.998342, 171, 253, 186, 284
-0.998343, 81, 245, 112, 260
-0.998343, 297, 305, 328, 320
-0.998344, 165, 299, 196, 314
-0.998344, 69, 235, 100, 250
-0.998344, 45, 271, 76, 286
-0.998344, 93, 287, 124, 302
-0.998344, 129, 257, 160, 272
-0.998344, 217, 129, 280, 384
-0.998345, 173, 305, 204, 320
-0.998345, 65, 313, 96, 328
-0.998345, 69, 191, 100, 206
-0.998345, 65, 275, 96, 290
-0.998345, 205, 295, 236, 310
-0.998345, 229, 365, 260, 380
-0.998346, 209, 433, 240, 448
-0.998346, 117, 365, 148, 380
-0.998346, 149, 375, 180, 390
-0.998346, 129, 109, 160, 124
-0.998347, 293, 215, 324, 230
-0.998347, 297, 333, 328, 348
-0.998347, 117, 451, 148, 466
-0.998347, 237, 357, 268, 372
-0.998348, 73, 287, 104, 302
-0.998348, 209, 235, 240, 250
-0.998348, 221, 357, 252, 372
-0.998349, 229, 313, 260, 328
-0.998349, 109, 313, 140, 328
-0.998349, 205, 329, 236, 344
-0.99835, 113, 235, 144, 250
-0.99835, 297, 297, 328, 312
-0.99835, 213, 347, 244, 362
-0.998351, 85, 231, 116, 246
-0.998351, 113, 449, 128, 480
-0.998351, 93, 237, 124, 252
-0.998352, 193, 407, 224, 422
-0.998353, 221, 321, 252, 336
-0.998353, 101, 269, 132, 284
-0.998353, 133, 191, 164, 206
-0.998354, 117, 269, 148, 284
-0.998354, 49, 199, 80, 214
-0.998354, 177, 277, 208, 292
-0.998354, 133, 451, 164, 466
-0.998354, 185, 215, 216, 230
-0.998355, 85, 277, 116, 292
-0.998355, 257, 321, 288, 336
-0.998356, 89, 295, 120, 310
-0.998356, 65, 257, 96, 272
-0.998358, 173, 197, 204, 212
-0.998358, 105, 287, 136, 302
-0.998358, 129, 233, 160, 248
-0.998358, 169, 443, 200, 458
-0.998358, 189, 191, 220, 206
-0.998359, 193, 303, 224, 318
-0.99836, 293, 33, 324, 48
-0.99836, 193, 313, 224, 328
-0.998362, 41, 65, 104, 192
-0.998362, 129, 319, 160, 334
-0.998362, 97, 231, 128, 246
-0.998362, 25, 241, 56, 256
-0.998362, 77, 381, 108, 396
-0.998362, 101, 375, 132, 390
-0.998364, 113, 261, 144, 276
-0.998364, 173, 161, 204, 416
-0.998364, 65, 295, 96, 310
-0.998365, 205, 339, 236, 354
-0.998365, 187, 189, 202, 220
-0.998365, 193, 243, 224, 258
-0.998365, 181, 441, 212, 456
-0.998365, 85, 113, 116, 240
-0.998365, 113, 295, 144, 310
-0.998366, 249, 111, 280, 126
-0.998366, 301, 429, 332, 444
-0.998366, 177, 349, 208, 364
-0.998366, 29, 29, 60, 44
-0.998367, 297, 311, 328, 326
-0.998367, 77, 375, 108, 390
-0.998367, 145, 199, 176, 214
-0.998368, 89, 375, 120, 390
-0.998369, 221, 335, 252, 350
-0.99837, 185, 261, 216, 276
-0.99837, 257, 329, 288, 344
-0.99837, 129, 381, 160, 396
-0.998371, 177, 253, 208, 268
-0.998371, 145, 441, 176, 456
-0.998373, 197, 267, 228, 282
-0.998373, 297, 413, 328, 428
-0.998373, 105, 243, 136, 258
-0.998374, 185, 373, 216, 388
-0.998374, 171, 333, 186, 364
-0.998374, 161, 213, 288, 244
-0.998374, 209, 367, 240, 382
-0.998375, 181, 367, 212, 382
-0.998375, 129, 269, 160, 284
-0.998375, 177, 317, 208, 332
-0.998376, 121, 443, 152, 458
-0.998376, 117, 253, 148, 268
-0.998377, 125, 245, 156, 260
-0.998377, 297, 319, 328, 334
-0.998377, 177, 247, 208, 262
-0.998377, 181, 237, 196, 268
-0.998378, 117, 287, 148, 302
-0.998378, 77, 253, 108, 268
-0.998379, 305, 357, 320, 388
-0.99838, 177, 357, 208, 372
-0.99838, 97, 277, 128, 292
-0.99838, 69, 245, 100, 260
-0.998381, 175, 437, 190, 468
-0.998382, 193, 331, 224, 346
-0.998383, 297, 327, 328, 342
-0.998384, 101, 295, 132, 310
-0.998385, 177, 287, 208, 302
-0.998386, 193, 339, 224, 354
-0.998386, 129, 285, 160, 300
-0.998386, 161, 437, 176, 468
-0.998387, 173, 343, 204, 358
-0.998388, 93, 257, 124, 272
-0.998388, 65, 251, 96, 266
-0.99839, 147, 437, 162, 468
-0.998391, 193, 449, 208, 480
-0.998392, 183, 217, 198, 248
-0.998392, 193, 441, 224, 456
-0.998393, 173, 331, 204, 346
-0.998394, 173, 225, 204, 240
-0.998396, 125, 371, 156, 386
-0.998397, 193, 235, 224, 250
-0.9984, 177, 295, 208, 310
-0.9984, 193, 321, 224, 336
-0.9984, 109, 277, 140, 292
-0.998402, 113, 375, 144, 390
-0.998402, 169, 193, 184, 224
-0.998402, 297, 343, 328, 358
-0.998403, 177, 269, 208, 284
-0.998406, 193, 365, 224, 380
-0.998407, 89, 251, 120, 266
-0.998409, 297, 419, 328, 434
-0.99841, 129, 295, 160, 310
-0.998411, 185, 253, 200, 284
-0.998411, 105, 253, 136, 268
-0.998412, 179, 373, 194, 404
-0.998413, 173, 325, 204, 340
-0.998415, 193, 347, 224, 362
-0.998416, 97, 233, 224, 264
-0.998416, 123, 437, 138, 468
-0.998417, 193, 295, 224, 310
-0.998419, 301, 1, 332, 256
-0.998419, 175, 213, 190, 244
-0.998422, 177, 239, 208, 254
-0.998422, 161, 269, 288, 300
-0.998423, 193, 357, 224, 372
-0.998423, 165, 381, 180, 412
-0.998428, 129, 251, 160, 266
-0.998433, 173, 231, 204, 246
-0.998434, 157, 441, 188, 456
-0.998435, 129, 277, 160, 292
-0.998443, 49, 109, 176, 140
-0.998443, 179, 273, 194, 304
-0.998445, 169, 297, 184, 328
-0.998445, 161, 109, 288, 140
-0.998446, 293, 445, 308, 476
-0.998459, 185, 161, 216, 416
-0.99849, 311, 445, 326, 476
-0.998491, 291, 425, 306, 456
-0.998492, 155, 437, 170, 468
-0.998495, 197, 397, 212, 428
-0.998498, 169, 369, 184, 400
-0.998501, 287, 445, 302, 476
-0.998501, 1, 1, 256, 64
-0.998505, 167, 437, 182, 468
-0.998508, 321, 353, 352, 480
-0.998511, 57, 305, 88, 432
-0.998512, 223, 445, 238, 476
-0.998514, 243, 417, 258, 448
-0.998516, 191, 201, 206, 232
-0.998516, 161, 129, 288, 192
-0.998518, 29, 241, 44, 272
-0.99852, 71, 389, 86, 420
-0.998524, 199, 449, 214, 480
-0.998524, 213, 449, 228, 480
-0.998528, 215, 397, 230, 428
-0.998528, 161, 57, 288, 88
-0.998531, 175, 241, 190, 272
-0.998537, 307, 105, 322, 136
-0.998539, 141, 189, 156, 220
-0.998549, 81, 293, 208, 324
-0.99855, 181, 437, 196, 468
-0.998557, 129, 437, 144, 468
-0.998558, 175, 285, 190, 316
-0.998559, 107, 437, 122, 468
-0.998562, 65, 257, 128, 272
-0.998565, 161, 401, 288, 432
-0.99857, 273, 333, 336, 348
-0.998571, 141, 437, 156, 468
-0.998573, 97, 57, 224, 88
-0.998575, 97, 251, 160, 266
-0.998578, 297, 429, 312, 460
-0.99858, 121, 443, 184, 458
-0.99858, 185, 365, 248, 380
-0.998581, 97, 295, 160, 310
-0.998581, 97, 277, 160, 292
-0.998585, 205, 193, 220, 224
-0.998585, 185, 345, 248, 360
-0.998587, 203, 393, 218, 424
-0.998587, 215, 425, 230, 456
-0.998589, 145, 441, 208, 456
-0.998591, 281, 437, 296, 468
-0.998592, 193, 257, 224, 500
-0.998593, 25, 109, 40, 140
-0.998594, 189, 437, 204, 468
-0.998594, 121, 277, 184, 292
-0.998594, 273, 325, 336, 340
-0.998594, 257, 113, 320, 128
-0.998595, 121, 295, 184, 310
-0.998595, 265, 339, 328, 354
-0.998595, 265, 375, 328, 390
-0.998595, 241, 189, 256, 220
-0.998596, 257, 121, 320, 136
-0.998596, 221, 193, 236, 224
-0.998597, 113, 245, 240, 276
-0.998599, 161, 295, 224, 310
-0.9986, 185, 351, 248, 366
-0.9986, 161, 261, 224, 276
-0.9986, 257, 129, 320, 144
-0.998605, 197, 437, 212, 468
-0.998605, 65, 251, 128, 266
-0.998605, 137, 253, 200, 268
-0.998606, 175, 229, 190, 260
-0.998606, 185, 303, 248, 318
-0.998608, 107, 425, 122, 456
-0.998608, 269, 437, 284, 468
-0.998608, 257, 105, 320, 120
-0.99861, 137, 269, 200, 284
-0.99861, 241, 339, 304, 354
-0.998611, 17, 375, 80, 390
-0.998612, 89, 257, 152, 272
-0.998612, 97, 375, 160, 390
-0.998613, 97, 245, 160, 260
-0.998614, 185, 329, 248, 344
-0.998614, 25, 57, 88, 72
-0.998617, 161, 269, 224, 284
-0.998619, 185, 339, 248, 354
-0.998619, 17, 1, 48, 256
-0.99862, 121, 259, 184, 274
-0.998621, 97, 287, 160, 302
-0.998621, 309, 329, 324, 360
-0.998622, 135, 437, 150, 468
-0.998623, 145, 195, 208, 210
-0.998624, 225, 319, 288, 334
-0.998624, 265, 135, 328, 150
-0.998624, 265, 189, 280, 220
-0.998625, 265, 261, 328, 276
-0.998625, 105, 383, 168, 398
-0.998625, 65, 275, 128, 290
-0.998625, 145, 205, 160, 236
-0.998626, 225, 331, 288, 346
-0.998627, 25, 29, 88, 44
-0.998627, 137, 283, 200, 298
-0.998627, 41, 251, 104, 266
-0.998628, 179, 309, 194, 340
-0.998628, 185, 231, 248, 246
-0.998628, 161, 361, 224, 376
-0.998628, 265, 369, 328, 384
-0.998628, 9, 431, 72, 446
-0.998629, 235, 437, 250, 468
-0.998629, 65, 245, 128, 260
-0.99863, 169, 445, 232, 460
-0.99863, 65, 375, 128, 390
-0.998631, 265, 353, 328, 368
-0.998631, 177, 191, 240, 206
-0.998634, 185, 257, 248, 272
-0.998634, 193, 321, 256, 336
-0.998634, 185, 295, 248, 310
-0.998635, 129, 451, 192, 466
-0.998636, 97, 319, 160, 334
-0.998636, 265, 433, 328, 448
-0.998636, 65, 383, 128, 398
-0.998636, 97, 233, 160, 248
-0.998637, 65, 109, 128, 124
-0.998638, 185, 237, 248, 252
-0.998638, 57, 295, 120, 310
-0.998638, 273, 439, 336, 454
-0.998639, 185, 315, 248, 330
-0.998639, 17, 383, 80, 398
-0.998639, 25, 113, 88, 128
-0.998639, 309, 257, 340, 500
-0.99864, 137, 313, 200, 328
-0.99864, 265, 141, 328, 156
-0.99864, 265, 193, 328, 208
-0.99864, 161, 287, 224, 302
-0.99864, 33, 273, 96, 288
-0.99864, 265, 319, 328, 334
-0.99864, 17, 151, 80, 166
-0.99864, 137, 379, 200, 394
-0.99864, 89, 269, 152, 284
-0.998641, 249, 329, 312, 344
-0.998642, 265, 61, 328, 76
-0.998642, 65, 231, 128, 246
-0.998643, 65, 269, 128, 284
-0.998643, 9, 405, 72, 420
-0.998643, 265, 93, 328, 108
-0.998643, 137, 301, 200, 316
-0.998643, 185, 359, 248, 374
-0.998643, 257, 33, 320, 48
-0.998643, 265, 231, 328, 246
-0.998644, 161, 253, 224, 268
-0.998644, 225, 347, 288, 362
-0.998645, 225, 313, 288, 328
-0.998645, 25, 105, 88, 120
-0.998645, 17, 157, 80, 172
-0.998646, 41, 313, 104, 328
-0.998646, 185, 373, 248, 388
-0.998646, 113, 303, 176, 318
-0.998646, 41, 235, 104, 250
-0.998646, 33, 295, 96, 310
-0.998647, 9, 441, 72, 456
-0.998647, 97, 313, 160, 328
-0.998647, 97, 109, 160, 124
-0.998647, 105, 451, 168, 466
-0.998647, 185, 269, 248, 284
-0.998647, 153, 321, 216, 336
-0.998647, 301, 409, 316, 440
-0.998647, 217, 111, 280, 126
-0.998648, 25, 129, 88, 144
-0.998648, 265, 87, 328, 102
-0.998648, 265, 99, 328, 114
-0.998648, 161, 367, 224, 382
-0.998649, 289, 459, 352, 474
-0.998649, 209, 339, 272, 354
-0.998649, 185, 109, 248, 124
-0.998649, 185, 215, 248, 230
-0.998649, 185, 289, 248, 304
-0.99865, 137, 367, 200, 382
-0.99865, 65, 287, 128, 302
-0.99865, 41, 191, 104, 206
-0.99865, 209, 357, 272, 372
-0.99865, 265, 309, 328, 324
-0.998651, 41, 261, 104, 276
-0.998651, 161, 277, 224, 292
-0.998651, 225, 365, 288, 380
-0.998651, 17, 171, 80, 186
-0.998651, 265, 239, 328, 254
-0.998652, 265, 345, 328, 360
-0.998653, 17, 165, 80, 180
-0.998653, 17, 187, 80, 202
-0.998653, 185, 251, 248, 266
-0.998653, 161, 303, 224, 318
-0.998661, 221, 425, 236, 456
-0.998663, 193, 409, 208, 440
-0.998667, 169, 205, 184, 236
-0.998673, 297, 61, 312, 92
-0.998673, 189, 273, 204, 304
-0.998673, 261, 449, 276, 480
-0.998674, 35, 357, 50, 388
-0.998677, 233, 193, 248, 224
-0.998684, 117, 437, 132, 468
-0.998687, 101, 425, 116, 456
-0.998689, 161, 293, 288, 324
-0.99869, 257, 189, 272, 220
-0.998691, 97, 29, 224, 60
-0.998694, 229, 449, 244, 480
-0.998697, 197, 201, 212, 232
-0.998701, 175, 201, 190, 232
-0.998701, 137, 257, 168, 500
-0.998703, 47, 429, 62, 460
-0.998708, 315, 353, 330, 384
-0.998711, 281, 257, 312, 500
-0.998712, 199, 425, 214, 456
-0.998719, 237, 417, 252, 448
-0.998722, 251, 189, 266, 220
-0.998726, 251, 449, 266, 480
-0.998728, 213, 437, 228, 468
-0.998729, 27, 69, 42, 100
-0.998729, 309, 369, 324, 400
-0.99873, 237, 449, 252, 480
-0.998735, 207, 449, 222, 480
-0.998738, 145, 461, 272, 492
-0.998744, 177, 333, 304, 364
-0.998747, 61, 445, 76, 476
-0.998747, 309, 317, 324, 348
-0.998749, 49, 57, 176, 88
-0.998749, 275, 437, 290, 468
-0.998749, 263, 437, 278, 468
-0.998756, 93, 425, 108, 456
-0.998758, 221, 409, 236, 440
-0.998761, 255, 437, 270, 468
-0.998764, 229, 437, 244, 468
-0.998765, 231, 181, 246, 212
-0.998765, 63, 429, 78, 460
-0.998766, 189, 365, 204, 396
-0.998769, 299, 117, 314, 148
-0.998771, 31, 449, 46, 480
-0.998774, 175, 401, 190, 432
-0.998777, 245, 437, 260, 468
-0.998778, 317, 445, 332, 476
-0.998779, 71, 425, 86, 456
-0.998781, 191, 177, 206, 208
-0.998782, 145, 229, 272, 260
-0.998816, 153, 193, 184, 448
-0.99882, 209, 21, 336, 52
-0.998823, 249, 257, 280, 500
-0.99885, 73, 257, 104, 500
-0.998856, 225, 461, 352, 492
-0.998859, 13, 257, 44, 384
-0.998883, 177, 305, 304, 336
-0.998884, 17, 17, 144, 48
-0.998925, 177, 281, 304, 312
-0.998961, 97, 461, 224, 492
-0.998965, 61, 161, 92, 416
-0.998989, 81, 173, 208, 204
-0.999018, 305, 17, 320, 144
-0.999026, 171, 193, 186, 320
-0.999061, 65, 245, 192, 276
-0.999076, 97, 109, 224, 140
-0.999095, 13, 257, 44, 500
-0.999103, 57, 257, 88, 500
-0.999109, 129, 161, 160, 416
-0.999119, 65, 281, 192, 312
-0.99912, 295, 17, 310, 144
-0.999131, 49, 161, 80, 416
-0.999136, 179, 225, 194, 352
-0.999143, 213, 257, 244, 500
-0.999148, 31, 17, 46, 144
-0.999186, 195, 289, 210, 416
-0.99919, 195, 337, 210, 464
-0.99921, 265, 17, 280, 144
-0.999211, 309, 353, 324, 480
-0.999228, 247, 17, 262, 144
-0.999228, 255, 17, 270, 144
-0.999232, 241, 17, 256, 144
-0.999234, 193, 17, 208, 144
-0.999235, 171, 289, 186, 416
-0.999235, 223, 17, 238, 144
-0.999236, 145, 17, 272, 48
-0.999236, 141, 17, 156, 144
-0.999237, 205, 17, 220, 144
-0.999238, 233, 17, 248, 144
-0.999243, 213, 17, 228, 144
-0.999244, 233, 289, 248, 416
-0.999246, 167, 353, 182, 480
-0.999249, 271, 17, 286, 144
-0.999251, 203, 289, 218, 416
-0.999252, 119, 17, 134, 144
-0.999254, 209, 337, 224, 464
-0.999255, 199, 17, 214, 144
-0.999255, 189, 289, 204, 416
-0.999258, 127, 17, 142, 144
-0.999262, 71, 17, 86, 144
-0.999262, 189, 353, 204, 480
-0.999263, 151, 17, 166, 144
-0.999263, 119, 369, 134, 496
-0.999265, 133, 17, 148, 144
-0.999269, 105, 17, 120, 144
-0.999272, 37, 17, 52, 144
-0.999274, 97, 17, 224, 48
-0.999279, 187, 17, 202, 144
-0.99928, 113, 17, 128, 144
-0.999284, 89, 17, 104, 144
-0.999284, 95, 17, 110, 144
-0.999284, 81, 17, 96, 144
-0.999284, 173, 17, 188, 144
-0.999286, 277, 17, 292, 144
-0.999289, 97, 1, 352, 64
-0.99929, 163, 17, 178, 144
-0.999291, 63, 17, 78, 144
-0.999293, 217, 353, 232, 480
-0.999293, 285, 17, 300, 144
-0.999296, 97, 97, 224, 128
-0.999311, 109, 369, 124, 496
-0.999312, 149, 97, 180, 352
-0.999315, 125, 369, 140, 496
-0.999316, 301, 353, 316, 480
-0.999316, 237, 257, 268, 500
-0.999318, 35, 353, 50, 480
-0.99932, 179, 17, 194, 144
-0.999327, 219, 289, 234, 416
-0.999332, 51, 17, 66, 144
-0.999334, 265, 289, 280, 416
-0.999337, 157, 17, 172, 144
-0.99934, 239, 289, 254, 416
-0.999342, 171, 241, 186, 368
-0.999343, 117, 257, 148, 500
-0.999346, 165, 225, 180, 352
-0.999347, 85, 257, 116, 500
-0.99935, 43, 17, 58, 144
-0.99935, 181, 353, 196, 480
-0.999352, 307, 289, 322, 416
-0.999354, 259, 289, 274, 416
-0.999357, 209, 289, 224, 416
-0.999357, 27, 353, 42, 480
-0.999358, 145, 369, 160, 496
-0.999373, 57, 17, 72, 144
-0.999374, 247, 289, 262, 416
-0.99938, 225, 353, 240, 480
-0.999381, 309, 97, 340, 352
-0.999383, 173, 369, 188, 496
-0.999389, 315, 369, 330, 496
-0.99939, 291, 353, 306, 480
-0.999391, 183, 177, 198, 304
-0.999393, 155, 369, 170, 496
-0.999397, 253, 289, 268, 416
-0.999399, 131, 369, 146, 496
-0.999404, 255, 337, 270, 464
-0.999404, 307, 241, 322, 368
-0.999414, 301, 113, 316, 240
-0.999415, 171, 145, 186, 272
-0.999415, 303, 161, 318, 288
-0.999415, 261, 337, 276, 464
-0.999416, 25, 17, 40, 144
-0.999425, 97, 257, 128, 500
-0.999431, 269, 337, 284, 464
-0.999435, 311, 81, 326, 208
-0.999435, 227, 305, 242, 432
-0.999439, 231, 353, 246, 480
-0.999439, 181, 273, 196, 400
-0.999441, 237, 353, 252, 480
-0.999442, 227, 257, 242, 384
-0.999446, 103, 161, 118, 288
-0.999447, 45, 353, 60, 480
-0.999462, 29, 209, 44, 336
-0.999472, 31, 161, 46, 288
-0.999474, 249, 353, 264, 480
-0.999479, 317, 289, 332, 416
-0.999481, 225, 257, 256, 500
-0.999481, 201, 353, 216, 480
-0.999484, 137, 369, 152, 496
-0.999494, 301, 65, 316, 192
-0.999501, 27, 65, 42, 192
-0.999502, 243, 337, 258, 464
-0.999506, 17, 161, 48, 416
-0.999508, 161, 353, 176, 480
-0.999514, 261, 257, 292, 500
-0.999516, 27, 305, 42, 432
-0.999525, 109, 161, 124, 288
-0.999525, 311, 33, 326, 160
-0.999532, 83, 369, 98, 496
-0.999542, 281, 369, 296, 496
-0.999545, 33, 113, 48, 240
-0.999548, 217, 347, 232, 362
-0.999548, 169, 257, 184, 272
-0.999549, 135, 451, 150, 466
-0.999549, 179, 283, 194, 298
-0.999549, 105, 287, 120, 302
-0.999549, 111, 287, 126, 302
-0.999549, 239, 335, 254, 350
-0.999549, 109, 269, 124, 284
-0.999549, 73, 369, 88, 496
-0.99955, 111, 231, 126, 246
-0.99955, 179, 445, 194, 460
-0.99955, 145, 191, 160, 206
-0.99955, 91, 235, 106, 250
-0.99955, 143, 271, 158, 286
-0.99955, 305, 357, 320, 372
-0.99955, 209, 365, 224, 380
-0.999551, 105, 231, 120, 246
-0.999551, 205, 257, 220, 272
-0.999551, 183, 219, 198, 234
-0.999551, 87, 375, 102, 390
-0.999552, 135, 243, 150, 258
-0.999552, 91, 369, 106, 496
-0.999552, 121, 443, 136, 458
-0.999552, 207, 295, 222, 310
-0.999552, 217, 321, 232, 336
-0.999552, 171, 299, 186, 314
-0.999553, 101, 375, 116, 390
-0.999553, 183, 255, 198, 270
-0.999553, 243, 373, 258, 388
-0.999553, 307, 35, 322, 50
-0.999553, 199, 267, 214, 282
-0.999553, 233, 365, 248, 380
-0.999554, 269, 323, 284, 338
-0.999554, 245, 329, 260, 344
-0.999554, 229, 339, 244, 354
-0.999554, 145, 209, 160, 224
-0.999554, 263, 111, 278, 126
-0.999554, 201, 339, 216, 354
-0.999555, 205, 269, 220, 284
-0.999555, 221, 339, 236, 354
-0.999555, 149, 199, 164, 214
-0.999555, 137, 253, 152, 268
-0.999556, 63, 369, 78, 496
-0.999556, 79, 379, 94, 394
-0.999556, 217, 361, 232, 376
-0.999556, 195, 245, 210, 260
-0.999556, 143, 317, 158, 332
-0.999556, 207, 415, 222, 430
-0.999556, 85, 277, 100, 292
-0.999556, 69, 255, 84, 270
-0.999557, 171, 223, 186, 238
-0.999557, 135, 297, 150, 312
-0.999557, 95, 375, 110, 390
-0.999557, 77, 287, 92, 302
-0.999557, 143, 377, 158, 392
-0.999557, 193, 215, 208, 230
-0.999557, 105, 295, 120, 310
-0.999557, 31, 29, 46, 44
-0.999558, 137, 287, 152, 302
-0.999558, 171, 443, 186, 458
-0.999558, 195, 329, 210, 344
-0.999558, 179, 263, 194, 278
-0.999559, 117, 287, 132, 302
-0.99956, 131, 445, 146, 460
-0.99956, 91, 277, 106, 292
-0.999561, 125, 287, 140, 302
-0.999562, 35, 65, 50, 192
-0.999562, 193, 295, 208, 310
-0.999562, 143, 233, 158, 248
-0.999563, 131, 277, 146, 292
-0.999563, 131, 287, 146, 302
-0.999564, 137, 375, 152, 390
-0.999564, 169, 193, 184, 208
-0.999564, 189, 269, 204, 284
-0.999564, 99, 295, 114, 310
-0.999564, 169, 201, 184, 216
-0.999565, 215, 339, 230, 354
-0.999565, 171, 337, 186, 352
-0.999565, 119, 295, 134, 310
-0.999565, 201, 235, 216, 250
-0.999566, 107, 375, 122, 390
-0.999566, 147, 445, 162, 460
-0.999566, 101, 257, 116, 272
-0.999567, 143, 287, 158, 302
-0.999567, 81, 253, 96, 268
-0.999567, 175, 305, 190, 320
-0.999567, 113, 295, 128, 310
-0.999567, 125, 295, 140, 310
-0.999568, 189, 287, 204, 302
-0.999568, 107, 251, 122, 266
-0.999569, 189, 193, 204, 320
-0.999569, 187, 241, 202, 368
-0.999569, 55, 353, 70, 480
-0.999569, 169, 251, 184, 266
-0.99957, 113, 257, 128, 272
-0.999571, 101, 277, 116, 292
-0.999574, 183, 229, 198, 244
-0.999574, 123, 277, 138, 292
-0.999575, 129, 253, 144, 268
-0.999575, 75, 253, 90, 268
-0.999575, 119, 375, 134, 390
-0.999575, 119, 257, 134, 272
-0.999576, 197, 129, 228, 384
-0.999577, 113, 375, 128, 390
-0.999577, 171, 231, 186, 246
-0.999578, 201, 347, 216, 362
-0.999578, 275, 369, 290, 496
-0.999578, 195, 321, 210, 336
-0.999579, 209, 339, 224, 354
-0.99958, 117, 251, 132, 266
-0.99958, 195, 339, 210, 354
-0.99958, 157, 445, 172, 460
-0.99958, 195, 365, 210, 380
-0.999583, 125, 375, 140, 390
-0.999584, 107, 277, 122, 292
-0.999584, 87, 253, 102, 268
-0.999585, 173, 213, 188, 228
-0.999585, 69, 249, 84, 264
-0.999585, 191, 253, 206, 268
-0.999585, 131, 375, 146, 390
-0.999587, 185, 261, 200, 276
-0.999588, 123, 251, 138, 266
-0.999588, 143, 251, 158, 266
-0.999588, 191, 355, 206, 370
-0.999588, 143, 293, 158, 308
-0.999588, 313, 145, 328, 272
-0.999589, 107, 257, 122, 272
-0.99959, 191, 347, 206, 362
-0.999591, 171, 321, 186, 336
-0.999593, 117, 277, 132, 292
-0.999593, 143, 277, 158, 292
-0.999593, 95, 253, 110, 268
-0.999595, 271, 289, 286, 416
-0.999595, 193, 241, 208, 368
-0.999595, 101, 251, 116, 266
-0.999596, 39, 161, 54, 288
-0.999598, 189, 367, 204, 382
-0.9996, 121, 161, 136, 288
-0.999606, 93, 193, 108, 320
-0.999607, 203, 441, 218, 456
-0.999607, 103, 369, 118, 496
-0.999607, 49, 209, 64, 336
-0.999608, 171, 311, 186, 326
-0.999611, 29, 257, 44, 384
-0.999613, 163, 441, 178, 456
-0.999617, 109, 289, 124, 416
-0.999618, 169, 245, 184, 260
-0.99962, 193, 235, 208, 250
-0.999626, 169, 237, 184, 252
-0.999626, 67, 177, 82, 304
-0.999628, 269, 241, 284, 368
-0.999631, 165, 305, 180, 432
-0.999633, 299, 289, 314, 416
-0.999634, 263, 97, 278, 224
-0.999739, 161, 97, 192, 352
-0.999755, 89, 161, 120, 416
-0.999757, 77, 161, 108, 416
-0.99992, 101, 161, 132, 416
-0.999923, 237, 129, 268, 384
-0.999971, 1, 1, 355, 64
-1.00012, 273, 161, 304, 416
-1.00016, 117, 161, 148, 416
-1.00018, 253, 129, 284, 384
-1.0003, 213, 129, 244, 384
-1.00035, 5, 97, 36, 352
-1.00041, 1, 257, 32, 500
-1.00043, 225, 129, 256, 384
-1.00048, 321, 257, 352, 500
-1.00063, 313, 1, 344, 256
-1.0008, 113, 129, 240, 192
-1.00101, 5, 1, 36, 256
-1.00131, 321, 129, 352, 384
-1.00179, 325, 1, 355, 256
