1869
-0.441378, 1, 1, 500, 326
-0.500415, 1, 65, 500, 320
-0.561718, 33, 1, 288, 326
-0.591435, 161, 1, 416, 326
-0.624286, 225, 33, 480, 288
-0.638474, 1, 33, 256, 288
-0.640065, 257, 1, 500, 326
-0.752728, 129, 33, 384, 288
-0.87027, 113, 33, 240, 288
-0.873975, 177, 65, 304, 320
-0.874311, 225, 33, 352, 288
-0.881087, 241, 1, 368, 326
-0.881324, 129, 1, 256, 326
-0.883518, 193, 1, 320, 326
-0.899154, 81, 1, 208, 326
-0.903878, 273, 65, 400, 320
-0.904143, 65, 65, 192, 320
-0.905369, 17, 65, 144, 320
-0.905947, 337, 1, 464, 326
-0.906093, 321, 33, 448, 288
-0.907121, 369, 33, 496, 288
-0.910317, 1, 1, 128, 326
-0.921653, 193, 81, 448, 208
-0.925202, 289, 1, 416, 326
-0.925833, 1, 81, 500, 208
-0.926995, 33, 81, 288, 208
-0.929809, 201, 145, 264, 272
-0.930464, 1, 145, 500, 272
-0.93081, 217, 81, 280, 208
-0.932682, 1, 33, 500, 160
-0.937135, 161, 129, 416, 256
-0.939348, 65, 129, 320, 256
-0.940412, 129, 177, 384, 304
-0.94335, 193, 129, 320, 256
-0.943561, 1, 193, 500, 320
-0.944869, 193, 97, 256, 224
-0.945083, 209, 81, 336, 208
-0.945123, 145, 161, 272, 288
-0.945848, 1, 33, 256, 160
-0.947243, 161, 33, 416, 160
-0.947251, 97, 81, 224, 208
-0.949864, 233, 161, 296, 288
-0.950327, 193, 153, 256, 216
-0.950695, 161, 81, 288, 208
-0.951612, 289, 65, 416, 192
-0.952292, 161, 81, 224, 208
-0.952479, 177, 145, 240, 272
-0.955729, 257, 33, 500, 160
-0.956053, 257, 81, 320, 208
-0.956295, 193, 193, 256, 320
-0.957579, 225, 121, 288, 184
-0.957858, 209, 177, 272, 240
-0.95801, 201, 217, 264, 280
-0.958396, 33, 81, 160, 208
-0.959524, 241, 129, 368, 256
-0.95966, 193, 177, 320, 304
-0.961919, 313, 65, 376, 192
-0.962015, 313, 73, 376, 136
-0.962096, 193, 121, 256, 184
-0.962514, 185, 49, 248, 176
-0.962661, 225, 177, 480, 304
-0.962684, 369, 65, 496, 192
-0.962787, 233, 145, 296, 208
-0.962817, 137, 81, 200, 208
-0.962881, 169, 193, 232, 320
-0.964481, 49, 81, 112, 208
-0.96458, 161, 185, 224, 248
-0.964803, 337, 81, 400, 208
-0.965018, 17, 33, 144, 160
-0.965068, 225, 209, 288, 272
-0.965584, 225, 33, 288, 160
-0.965708, 1, 81, 64, 208
-0.965949, 177, 33, 304, 160
-0.966076, 217, 97, 280, 160
-0.966125, 97, 33, 224, 160
-0.966181, 241, 33, 368, 160
-0.966286, 289, 49, 352, 176
-0.966419, 201, 65, 264, 320
-0.966522, 105, 81, 168, 208
-0.967171, 233, 177, 296, 240
-0.967601, 1, 177, 256, 304
-0.968081, 97, 145, 224, 272
-0.968375, 337, 17, 464, 144
-0.968411, 25, 81, 88, 208
-0.968558, 249, 33, 312, 160
-0.969146, 217, 113, 248, 240
-0.969406, 177, 153, 304, 216
-0.969851, 417, 33, 480, 160
-0.970235, 241, 177, 368, 304
-0.970571, 169, 209, 232, 272
-0.970907, 225, 209, 256, 272
-0.971096, 49, 33, 112, 160
-0.971109, 205, 145, 236, 272
-0.971205, 337, 73, 400, 136
-0.971273, 233, 145, 264, 272
-0.971453, 25, 33, 88, 160
-0.971523, 81, 81, 144, 208
-0.971781, 289, 17, 416, 144
-0.971868, 237, 169, 268, 232
-0.971945, 113, 33, 176, 160
-0.972027, 313, 17, 376, 144
-0.972089, 193, 81, 256, 144
-0.972508, 257, 129, 500, 256
-0.972632, 217, 121, 248, 184
-0.972811, 145, 33, 208, 160
-0.972886, 337, 17, 400, 144
-0.973323, 289, 65, 352, 128
-0.97349, 377, 49, 440, 176
-0.973779, 289, 193, 416, 320
-0.973872, 273, 1, 336, 128
-0.973953, 229, 81, 260, 208
-0.973963, 153, 145, 216, 272
-0.973992, 225, 65, 288, 320
-0.974173, 213, 217, 244, 280
-0.974481, 193, 81, 224, 208
-0.974834, 185, 185, 248, 248
-0.975022, 1, 33, 64, 160
-0.975097, 257, 89, 320, 152
-0.975103, 249, 145, 280, 272
-0.975527, 237, 145, 268, 208
-0.97555, 81, 33, 144, 160
-0.975616, 217, 161, 248, 288
-0.975727, 257, 129, 320, 256
-0.976146, 417, 73, 480, 136
-0.976226, 249, 129, 280, 192
-0.976335, 177, 209, 304, 272
-0.976426, 385, 257, 448, 320
-0.976446, 241, 97, 272, 224
-0.976483, 169, 33, 232, 288
-0.976965, 169, 89, 232, 152
-0.977014, 65, 193, 192, 320
-0.977131, 177, 121, 304, 184
-0.977234, 433, 81, 496, 208
-0.977236, 249, 33, 312, 288
-0.977397, 193, 185, 320, 248
-0.977518, 385, 225, 448, 288
-0.977611, 425, 233, 488, 296
-0.97804, 161, 161, 224, 224
-0.978194, 237, 113, 268, 176
-0.978221, 205, 97, 236, 224
-0.978323, 193, 145, 224, 272
-0.978329, 241, 209, 272, 272
-0.978403, 361, 57, 424, 120
-0.978433, 417, 257, 480, 320
-0.978629, 217, 89, 248, 152
-0.978787, 1, 145, 128, 272
-0.978812, 345, 73, 376, 136
-0.978915, 249, 121, 312, 184
-0.979017, 401, 49, 464, 112
-0.979095, 361, 1, 424, 128
-0.97917, 33, 89, 96, 152
-0.97919, 41, 1, 104, 256
-0.979217, 337, 177, 464, 304
-0.979278, 145, 185, 272, 248
-0.979321, 209, 249, 272, 312
-0.979395, 105, 89, 168, 152
-0.979475, 197, 145, 228, 208
-0.979564, 201, 193, 232, 320
-0.979578, 221, 153, 252, 216
-0.979665, 113, 193, 176, 320
-0.979712, 325, 65, 356, 128
-0.979983, 193, 185, 224, 248
-0.979983, 265, 81, 296, 208
-0.980041, 145, 89, 208, 152
-0.980049, 337, 177, 400, 304
-0.980052, 129, 161, 256, 224
-0.980127, 273, 73, 400, 136
-0.98035, 41, 257, 104, 320
-0.980353, 321, 65, 448, 128
-0.980403, 257, 153, 320, 216
-0.980434, 73, 89, 136, 152
-0.980497, 353, 129, 416, 256
-0.980545, 273, 225, 336, 288
-0.98059, 261, 129, 292, 256
-0.980619, 249, 185, 280, 248
-0.980757, 337, 49, 400, 112
-0.980844, 209, 193, 240, 256
-0.980931, 233, 233, 296, 296
-0.980963, 289, 89, 352, 152
-0.981111, 313, 193, 376, 320
-0.981133, 261, 129, 292, 192
-0.98118, 129, 89, 256, 152
-0.981238, 385, 73, 448, 136
-0.981287, 361, 89, 424, 152
-0.981299, 197, 209, 228, 272
-0.981392, 145, 33, 208, 288
-0.98141, 229, 193, 260, 320
-0.981548, 225, 89, 352, 152
-0.981553, 185, 241, 248, 304
-0.981573, 49, 193, 112, 320
-0.981654, 245, 193, 276, 320
-0.98172, 1, 193, 128, 320
-0.981914, 169, 121, 232, 184
-0.981933, 369, 57, 496, 120
-0.981969, 9, 129, 72, 256
-0.981993, 229, 89, 260, 152
-0.982062, 329, 33, 392, 288
-0.982124, 9, 265, 72, 326
-0.982245, 225, 185, 256, 248
-0.982295, 249, 201, 312, 264
-0.982381, 225, 65, 288, 128
-0.982416, 1, 89, 64, 152
-0.982451, 253, 81, 284, 208
-0.982464, 193, 1, 256, 128
-0.982498, 353, 65, 384, 192
-0.98271, 289, 145, 416, 272
-0.982713, 249, 89, 280, 152
-0.98278, 9, 233, 72, 296
-0.982898, 225, 137, 352, 200
-0.982935, 81, 193, 144, 320
-0.982979, 401, 81, 464, 208
-0.982989, 253, 153, 284, 216
-0.983, 225, 57, 352, 120
-0.983023, 113, 65, 176, 320
-0.983027, 129, 249, 256, 312
-0.983075, 281, 97, 344, 224
-0.983084, 129, 129, 256, 192
-0.983092, 129, 217, 256, 280
-0.983098, 81, 241, 144, 304
-0.983168, 241, 161, 368, 224
-0.983228, 313, 49, 376, 112
-0.983295, 209, 233, 336, 296
-0.983369, 205, 121, 236, 184
-0.983373, 217, 65, 248, 192
-0.983418, 361, 193, 424, 320
-0.983418, 369, 129, 496, 256
-0.983469, 57, 217, 120, 280
-0.983497, 41, 129, 104, 256
-0.983523, 305, 33, 368, 288
-0.983581, 121, 217, 184, 280
-0.98366, 53, 81, 84, 208
-0.983675, 265, 89, 296, 152
-0.983679, 313, 145, 376, 272
-0.983688, 81, 265, 144, 326
-0.983698, 201, 241, 232, 304
-0.983714, 385, 1, 448, 128
-0.983726, 137, 193, 200, 320
-0.983745, 177, 57, 240, 120
-0.983806, 337, 65, 368, 192
-0.983837, 33, 233, 96, 296
-0.983865, 153, 57, 216, 120
-0.983943, 1, 65, 64, 128
-0.983944, 173, 81, 204, 208
-0.984042, 37, 81, 68, 208
-0.984051, 273, 33, 336, 288
-0.98408, 393, 177, 456, 304
-0.9841, 177, 97, 304, 160
-0.984113, 241, 185, 368, 248
-0.984146, 353, 265, 416, 326
-0.98418, 33, 257, 160, 320
-0.984212, 289, 257, 352, 320
-0.984266, 17, 65, 80, 320
-0.984319, 65, 65, 192, 128
-0.984324, 341, 17, 372, 144
-0.984378, 461, 81, 492, 208
-0.984387, 417, 209, 480, 272
-0.984536, 357, 81, 388, 144
-0.984576, 81, 201, 144, 264
-0.984601, 233, 33, 264, 160
-0.984708, 177, 65, 304, 128
-0.98477, 325, 49, 356, 176
-0.984785, 65, 1, 128, 256
-0.984901, 145, 257, 208, 320
-0.984962, 201, 57, 264, 120
-0.98514, 193, 1, 256, 326
-0.985186, 321, 97, 384, 160
-0.985201, 153, 233, 216, 296
-0.985213, 257, 49, 320, 112
-0.9853, 81, 65, 144, 128
-0.985368, 421, 249, 452, 312
-0.985452, 217, 1, 280, 326
-0.985464, 41, 137, 104, 200
-0.985514, 433, 33, 496, 288
-0.985597, 249, 1, 312, 326
-0.985613, 321, 89, 448, 152
-0.985655, 121, 257, 184, 320
-0.985666, 17, 89, 144, 152
-0.985675, 225, 233, 256, 296
-0.9857, 17, 81, 48, 208
-0.985729, 169, 265, 232, 326
-0.98589, 33, 57, 96, 120
-0.985969, 253, 209, 284, 272
-0.985999, 313, 49, 344, 176
-0.986016, 1, 81, 32, 208
-0.986023, 313, 193, 376, 256
-0.986083, 153, 81, 184, 208
-0.986143, 17, 65, 144, 128
-0.986146, 181, 129, 212, 256
-0.986169, 289, 169, 352, 232
-0.986258, 9, 209, 72, 272
-0.986278, 121, 145, 184, 272
-0.986299, 1, 193, 64, 320
-0.986333, 121, 193, 184, 256
-0.986344, 369, 81, 496, 144
-0.9864, 321, 241, 384, 304
-0.986412, 425, 49, 488, 112
-0.986504, 205, 49, 236, 176
-0.986533, 257, 177, 320, 240
-0.986542, 113, 57, 240, 120
-0.986649, 433, 265, 464, 326
-0.986713, 213, 241, 244, 304
-0.986714, 209, 169, 240, 232
-0.986734, 89, 65, 152, 320
-0.986778, 369, 265, 496, 326
-0.986785, 81, 89, 208, 152
-0.986909, 225, 209, 352, 272
-0.986939, 113, 65, 176, 128
-0.986939, 17, 33, 48, 160
-0.986941, 185, 161, 216, 224
-0.987004, 9, 153, 72, 216
-0.987017, 257, 177, 320, 304
-0.987021, 177, 257, 304, 320
-0.987025, 113, 81, 144, 208
-0.987031, 289, 145, 352, 272
-0.987087, 1, 33, 32, 160
-0.987211, 465, 33, 496, 160
-0.987252, 237, 233, 268, 296
-0.987322, 141, 81, 172, 208
-0.987375, 393, 97, 456, 160
-0.987401, 129, 81, 160, 208
-0.98743, 337, 241, 464, 304
-0.987487, 133, 33, 164, 160
-0.987523, 445, 265, 476, 326
-0.987532, 361, 225, 424, 288
-0.987534, 293, 81, 324, 208
-0.987549, 77, 81, 108, 208
-0.987605, 289, 41, 352, 104
-0.987707, 145, 1, 208, 326
-0.987745, 81, 257, 208, 320
-0.987816, 309, 65, 340, 128
-0.987835, 57, 65, 120, 128
-0.987897, 353, 185, 416, 248
-0.987918, 225, 113, 352, 176
-0.987977, 205, 97, 236, 160
-0.988029, 329, 89, 360, 152
-0.988074, 161, 33, 192, 160
-0.988142, 33, 233, 160, 296
-0.988167, 377, 97, 440, 224
-0.98819, 373, 81, 404, 208
-0.988226, 269, 33, 300, 160
-0.988267, 121, 33, 152, 160
-0.988283, 393, 201, 456, 264
-0.988322, 273, 49, 400, 112
-0.988371, 449, 81, 480, 208
-0.9884, 257, 257, 320, 320
-0.988559, 97, 65, 128, 192
-0.988568, 433, 161, 496, 224
-0.988603, 169, 1, 232, 326
-0.98861, 273, 97, 400, 160
-0.988613, 1, 209, 32, 272
-0.988621, 345, 161, 376, 288
-0.988649, 277, 81, 308, 208
-0.988679, 65, 81, 96, 208
-0.988724, 361, 177, 392, 304
-0.988758, 53, 33, 84, 160
-0.988764, 445, 233, 476, 296
-0.988794, 97, 185, 224, 248
-0.988818, 289, 265, 416, 326
-0.98882, 341, 49, 372, 112
-0.988896, 321, 169, 384, 232
-0.98891, 329, 241, 360, 304
-0.98897, 201, 197, 264, 228
-0.988974, 201, 229, 264, 260
-0.989004, 257, 233, 384, 296
-0.989011, 433, 233, 464, 296
-0.989044, 321, 41, 448, 104
-0.989049, 73, 33, 104, 160
-0.989078, 1, 129, 64, 192
-0.989121, 337, 217, 400, 280
-0.989239, 433, 97, 496, 160
-0.98926, 193, 89, 224, 152
-0.989281, 41, 33, 72, 160
-0.989314, 129, 89, 160, 152
-0.989343, 137, 145, 200, 208
-0.989348, 369, 33, 400, 160
-0.98935, 201, 217, 264, 248
-0.989366, 361, 33, 424, 288
-0.989397, 49, 145, 176, 272
-0.989399, 289, 137, 352, 200
-0.989402, 217, 121, 280, 152
-0.989439, 1, 185, 64, 248
-0.989502, 313, 77, 376, 108
-0.989548, 193, 161, 256, 192
-0.989699, 117, 89, 148, 152
-0.989742, 81, 177, 144, 240
-0.989848, 17, 233, 48, 296
-0.989887, 217, 169, 280, 200
-0.989895, 193, 173, 256, 204
-0.989899, 257, 33, 288, 160
-0.989911, 289, 209, 416, 272
-0.989933, 181, 177, 212, 304
-0.989946, 409, 1, 472, 326
-0.989946, 45, 89, 76, 152
-0.989981, 77, 89, 108, 152
-0.990005, 233, 157, 296, 188
-0.990067, 425, 129, 488, 192
-0.990096, 193, 125, 256, 156
-0.990151, 357, 17, 388, 144
-0.990153, 185, 33, 216, 160
-0.990162, 149, 33, 180, 160
-0.990171, 41, 1, 104, 326
-0.990179, 417, 49, 448, 176
-0.990189, 49, 209, 176, 272
-0.990209, 433, 161, 496, 288
-0.990224, 393, 65, 424, 128
-0.990228, 293, 89, 324, 152
-0.990246, 461, 233, 492, 296
-0.990262, 89, 1, 120, 128
-0.990283, 233, 141, 296, 172
-0.990284, 445, 65, 476, 128
-0.9903, 405, 73, 436, 136
-0.990329, 461, 89, 492, 152
-0.990351, 169, 1, 232, 128
-0.990374, 177, 221, 240, 252
-0.990379, 421, 73, 452, 136
-0.990386, 337, 85, 400, 116
-0.990389, 321, 137, 384, 200
-0.990391, 461, 57, 492, 120
-0.990405, 89, 145, 152, 272
-0.990453, 233, 257, 296, 320
-0.990468, 313, 265, 376, 326
-0.990506, 389, 49, 420, 176
-0.990521, 297, 217, 360, 280
-0.990525, 121, 1, 184, 326
-0.99053, 277, 89, 308, 152
-0.990547, 289, 193, 352, 320
-0.990568, 33, 209, 96, 272
-0.990607, 185, 217, 216, 280
-0.990669, 201, 185, 264, 216
-0.990694, 185, 149, 248, 180
-0.990724, 393, 33, 456, 288
-0.990734, 209, 137, 272, 168
-0.990809, 225, 257, 352, 320
-0.990809, 233, 185, 296, 216
-0.990824, 161, 201, 224, 232
-0.990827, 105, 89, 136, 152
-0.990862, 65, 89, 96, 152
-0.990865, 409, 249, 440, 312
-0.990923, 37, 257, 68, 320
-0.990942, 461, 257, 492, 320
-0.990971, 161, 237, 224, 268
-0.990985, 353, 69, 416, 100
-0.991, 209, 145, 240, 208
-0.991012, 193, 121, 224, 184
-0.991039, 17, 145, 144, 208
-0.991054, 33, 225, 64, 288
-0.991057, 301, 1, 332, 128
-0.991062, 241, 209, 304, 240
-0.99107, 109, 33, 140, 160
-0.991124, 145, 165, 208, 196
-0.991126, 369, 209, 496, 272
-0.991147, 453, 33, 484, 160
-0.991174, 393, 137, 456, 200
-0.991194, 41, 145, 72, 272
-0.991234, 209, 149, 272, 180
-0.991237, 209, 241, 272, 272
-0.991245, 113, 161, 176, 224
-0.991264, 245, 33, 276, 160
-0.991297, 401, 281, 464, 312
-0.991324, 377, 89, 408, 152
-0.991337, 161, 185, 224, 216
-0.991338, 17, 89, 48, 152
-0.991339, 405, 81, 436, 208
-0.991344, 233, 57, 264, 120
-0.991362, 409, 77, 472, 108
-0.991398, 341, 97, 372, 160
-0.991408, 297, 65, 360, 96
-0.991414, 49, 293, 112, 324
-0.991416, 425, 277, 488, 308
-0.991423, 241, 197, 304, 228
-0.991426, 193, 109, 256, 140
-0.991438, 313, 89, 376, 120
-0.991443, 273, 25, 400, 88
-0.99145, 185, 137, 248, 168
-0.991451, 337, 1, 400, 326
-0.991456, 153, 225, 184, 288
-0.991457, 257, 161, 320, 192
-0.991468, 281, 33, 312, 160
-0.991474, 33, 113, 96, 176
-0.991508, 185, 241, 248, 272
-0.991509, 361, 81, 424, 112
-0.991527, 17, 1, 80, 326
-0.991531, 225, 33, 352, 96
-0.99154, 257, 137, 320, 168
-0.991548, 33, 17, 96, 80
-0.991549, 445, 209, 476, 272
-0.991551, 81, 233, 208, 296
-0.991562, 385, 261, 448, 292
-0.991563, 361, 145, 424, 208
-0.991577, 233, 237, 296, 268
-0.991586, 241, 173, 304, 204
-0.991614, 65, 277, 128, 308
-0.991626, 173, 33, 204, 160
-0.99167, 29, 33, 60, 160
-0.991685, 161, 129, 416, 192
-0.991707, 217, 253, 280, 284
-0.991721, 385, 1, 448, 326
-0.991724, 181, 89, 212, 152
-0.991726, 161, 89, 192, 152
-0.991734, 81, 241, 144, 272
-0.991736, 5, 241, 36, 304
-0.991739, 25, 293, 88, 324
-0.991746, 225, 221, 288, 252
-0.991771, 201, 277, 264, 308
-0.991783, 121, 233, 184, 264
-0.991784, 425, 245, 488, 276
-0.991817, 201, 289, 264, 320
-0.991817, 17, 245, 80, 276
-0.991833, 385, 245, 448, 276
-0.991837, 249, 297, 312, 326
-0.99184, 385, 85, 448, 116
-0.991848, 145, 89, 176, 152
-0.991854, 169, 165, 232, 196
-0.99187, 305, 1, 368, 326
-0.991887, 161, 285, 224, 316
-0.991913, 105, 293, 168, 324
-0.991954, 89, 253, 152, 284
-0.991958, 57, 221, 120, 252
-0.991964, 289, 137, 416, 200
-0.991975, 289, 257, 352, 288
-0.991978, 57, 193, 120, 256
-0.992012, 377, 277, 440, 308
-0.992025, 361, 245, 424, 276
-0.992028, 369, 57, 400, 120
-0.992035, 1, 293, 64, 324
-0.992046, 321, 1, 352, 128
-0.992056, 249, 125, 312, 156
-0.992057, 105, 201, 136, 264
-0.992064, 177, 265, 240, 296
-0.992072, 17, 113, 144, 176
-0.99208, 161, 153, 416, 216
-0.992084, 409, 293, 472, 324
-0.992088, 189, 241, 220, 304
-0.992092, 385, 293, 448, 324
-0.992129, 409, 57, 472, 88
-0.992129, 257, 185, 320, 216
-0.992132, 113, 281, 176, 312
-0.992134, 321, 253, 384, 284
-0.992142, 25, 281, 88, 312
-0.992158, 297, 293, 360, 324
-0.992163, 225, 89, 288, 120
-0.992164, 89, 1, 152, 326
-0.99217, 65, 253, 128, 284
-0.992174, 433, 293, 496, 324
-0.992183, 337, 185, 464, 248
-0.992184, 265, 241, 328, 272
-0.992191, 417, 225, 480, 256
-0.992194, 81, 297, 144, 326
-0.992202, 225, 221, 256, 252
-0.992202, 41, 261, 104, 292
-0.992208, 289, 89, 352, 120
-0.992218, 361, 197, 424, 228
-0.992219, 289, 77, 352, 108
-0.992225, 169, 125, 232, 156
-0.992229, 17, 89, 80, 120
-0.992233, 345, 77, 376, 108
-0.992233, 369, 225, 432, 256
-0.992244, 385, 73, 448, 104
-0.992247, 1, 193, 128, 256
-0.992252, 337, 241, 400, 272
-0.992257, 385, 209, 448, 240
-0.992258, 321, 101, 384, 132
-0.992265, 185, 81, 248, 112
-0.992272, 409, 265, 472, 296
-0.992275, 89, 209, 152, 240
-0.992293, 229, 205, 260, 236
-0.9923, 257, 149, 320, 180
-0.992303, 153, 221, 216, 252
-0.992304, 161, 253, 224, 284
-0.992308, 337, 297, 400, 326
-0.992313, 241, 249, 304, 280
-0.992322, 361, 261, 424, 292
-0.992332, 213, 217, 244, 248
-0.992335, 237, 157, 268, 188
-0.99234, 65, 169, 320, 232
-0.992342, 289, 273, 352, 304
-0.992344, 257, 281, 320, 312
-0.992346, 153, 85, 216, 116
-0.992352, 409, 169, 472, 232
-0.992366, 153, 273, 216, 304
-0.992387, 241, 265, 304, 296
-0.992389, 321, 65, 384, 96
-0.99239, 121, 245, 184, 276
-0.992399, 217, 125, 248, 156
-0.9924, 129, 269, 192, 300
-0.992403, 33, 89, 64, 152
-0.992406, 25, 177, 88, 304
-0.992419, 161, 145, 224, 176
-0.992424, 321, 265, 384, 296
-0.992426, 353, 213, 416, 244
-0.992431, 81, 145, 208, 208
-0.992435, 293, 225, 324, 288
-0.992439, 193, 253, 256, 284
-0.992444, 57, 241, 120, 272
-0.992452, 113, 89, 176, 120
-0.992462, 225, 293, 288, 324
-0.992468, 97, 225, 160, 256
-0.992474, 289, 221, 352, 252
-0.992478, 49, 89, 112, 120
-0.992493, 169, 113, 232, 144
-0.992504, 217, 265, 280, 296
-0.992506, 121, 221, 184, 252
-0.992507, 329, 209, 392, 240
-0.992509, 169, 297, 232, 326
-0.992522, 17, 233, 80, 264
-0.992523, 217, 105, 280, 136
-0.992525, 137, 257, 200, 288
-0.992551, 65, 129, 128, 256
-0.992559, 89, 89, 152, 120
-0.992566, 313, 233, 376, 264
-0.992577, 393, 221, 456, 252
-0.99258, 89, 273, 152, 304
-0.992582, 241, 173, 272, 204
-0.992592, 29, 65, 60, 128
-0.992603, 345, 281, 408, 312
-0.992613, 237, 229, 268, 260
-0.992614, 321, 25, 384, 88
-0.992628, 437, 33, 468, 160
-0.992629, 133, 249, 164, 312
-0.99265, 313, 89, 344, 152
-0.992653, 261, 129, 292, 160
-0.992656, 237, 117, 268, 148
-0.992678, 217, 233, 248, 264
-0.992682, 337, 89, 368, 120
-0.992687, 25, 265, 56, 326
-0.992698, 205, 229, 236, 260
-0.992702, 209, 205, 240, 236
-0.992725, 237, 185, 268, 216
-0.992737, 201, 65, 232, 128
-0.992743, 241, 213, 272, 244
-0.992784, 465, 209, 496, 272
-0.9928, 249, 189, 280, 220
-0.992807, 249, 133, 280, 164
-0.992809, 213, 65, 244, 128
-0.992813, 261, 177, 292, 240
-0.992823, 221, 161, 252, 192
-0.992826, 333, 77, 364, 108
-0.992838, 273, 1, 336, 326
-0.992848, 1, 193, 32, 320
-0.992853, 321, 69, 352, 100
-0.992861, 197, 213, 228, 244
-0.992863, 249, 153, 280, 184
-0.992866, 225, 193, 256, 224
-0.99287, 249, 201, 280, 232
-0.992891, 193, 201, 224, 232
-0.992895, 237, 241, 268, 272
-0.992904, 405, 49, 436, 112
-0.992922, 357, 85, 388, 116
-0.992949, 181, 173, 212, 204
-0.99297, 189, 185, 220, 216
-0.992973, 385, 161, 448, 224
-0.992974, 221, 141, 252, 172
-0.992985, 249, 121, 280, 152
-0.992997, 257, 165, 288, 196
-0.993011, 413, 281, 444, 312
-0.993012, 201, 125, 232, 156
-0.993028, 261, 149, 292, 180
-0.99305, 173, 161, 204, 192
-0.993055, 57, 293, 88, 324
-0.993064, 237, 145, 268, 176
-0.993071, 229, 173, 260, 204
-0.993073, 185, 237, 216, 268
-0.993077, 197, 165, 228, 196
-0.993081, 109, 257, 140, 320
-0.993085, 325, 89, 356, 120
-0.993086, 341, 65, 372, 96
-0.993089, 161, 81, 416, 144
-0.993093, 397, 297, 428, 326
-0.993104, 217, 105, 248, 136
-0.993104, 225, 245, 256, 276
-0.993122, 449, 273, 480, 304
-0.993122, 193, 225, 224, 256
-0.993129, 121, 217, 152, 280
-0.993133, 249, 233, 280, 264
-0.993137, 189, 153, 220, 184
-0.993138, 41, 297, 72, 326
-0.993141, 429, 281, 460, 312
-0.993142, 361, 241, 392, 272
-0.993144, 237, 129, 268, 160
-0.993157, 209, 189, 240, 220
-0.993157, 197, 241, 228, 272
-0.993159, 205, 277, 236, 308
-0.993168, 261, 177, 292, 304
-0.993173, 201, 293, 232, 324
-0.993176, 341, 101, 372, 132
-0.993184, 421, 297, 452, 326
-0.993184, 1, 81, 32, 144
-0.993189, 329, 257, 360, 288
-0.993189, 113, 297, 144, 326
-0.993198, 205, 113, 236, 144
-0.993205, 213, 245, 244, 276
-0.993214, 317, 245, 348, 276
-0.993215, 321, 177, 352, 304
-0.993217, 257, 177, 288, 208
-0.99324, 349, 245, 380, 276
-0.99324, 277, 297, 308, 326
-0.99324, 421, 245, 452, 276
-0.993248, 5, 221, 36, 252
-0.99325, 369, 229, 400, 260
-0.993252, 237, 253, 268, 284
-0.993263, 57, 281, 88, 312
-0.993267, 85, 241, 116, 272
-0.99327, 281, 225, 312, 288
-0.993272, 441, 285, 472, 316
-0.993275, 209, 137, 240, 168
-0.993283, 369, 121, 496, 184
-0.993284, 457, 225, 488, 256
-0.993286, 121, 285, 152, 316
-0.99329, 149, 273, 180, 304
-0.993293, 1, 169, 128, 232
-0.993294, 345, 257, 376, 288
-0.993296, 317, 261, 348, 292
-0.993298, 73, 269, 104, 300
-0.993299, 201, 177, 232, 208
-0.993299, 309, 73, 340, 104
-0.9933, 213, 289, 244, 320
-0.993303, 217, 173, 248, 204
-0.993304, 393, 73, 424, 104
-0.993305, 413, 261, 444, 292
-0.993306, 369, 25, 496, 88
-0.993311, 337, 113, 368, 240
-0.993314, 469, 229, 500, 260
-0.993315, 429, 225, 460, 256
-0.993318, 121, 237, 152, 268
-0.99332, 41, 285, 72, 316
-0.993327, 465, 277, 496, 308
-0.993327, 461, 293, 492, 324
-0.993328, 413, 213, 444, 244
-0.993329, 217, 277, 248, 308
-0.993329, 249, 297, 280, 326
-0.99333, 201, 257, 232, 288
-0.993339, 349, 233, 380, 264
-0.993342, 429, 269, 460, 300
-0.993342, 173, 153, 204, 216
-0.993342, 329, 217, 360, 280
-0.993343, 109, 245, 140, 276
-0.993344, 333, 169, 364, 232
-0.99335, 161, 273, 192, 304
-0.993352, 409, 225, 440, 256
-0.993355, 417, 77, 448, 108
-0.993357, 385, 265, 416, 296
-0.99336, 329, 245, 360, 276
-0.993361, 441, 77, 472, 108
-0.993362, 5, 201, 36, 232
-0.993364, 173, 233, 204, 264
-0.993366, 373, 249, 404, 280
-0.993367, 261, 117, 292, 148
-0.993369, 101, 297, 132, 326
-0.993373, 313, 257, 344, 320
-0.993373, 217, 257, 248, 288
-0.993375, 161, 89, 192, 120
-0.993376, 261, 193, 292, 224
-0.993378, 145, 121, 208, 184
-0.993381, 13, 281, 44, 312
-0.993382, 193, 137, 224, 168
-0.993382, 393, 245, 424, 276
-0.993382, 229, 105, 260, 136
-0.993383, 261, 289, 292, 320
-0.993384, 221, 93, 252, 124
-0.993384, 45, 193, 76, 320
-0.993385, 149, 261, 180, 292
-0.993385, 157, 289, 188, 320
-0.993387, 173, 297, 204, 326
-0.993387, 401, 281, 432, 312
-0.993388, 457, 237, 488, 268
-0.993389, 357, 73, 388, 104
-0.993389, 329, 233, 360, 264
-0.99339, 101, 233, 132, 264
-0.993394, 17, 41, 144, 104
-0.993406, 281, 193, 344, 256
-0.993418, 381, 225, 412, 288
-0.99343, 337, 161, 464, 224
-0.993452, 241, 209, 256, 272
-0.993484, 413, 177, 444, 304
-0.993502, 53, 145, 84, 272
-0.993507, 245, 169, 260, 232
-0.993516, 401, 225, 432, 288
-0.993528, 309, 225, 340, 288
-0.993543, 161, 161, 288, 192
-0.993552, 65, 41, 192, 104
-0.993572, 305, 97, 336, 224
-0.993588, 205, 265, 236, 326
-0.993651, 97, 249, 128, 312
-0.993655, 33, 193, 64, 320
-0.993677, 433, 49, 464, 112
-0.993694, 97, 137, 160, 200
-0.993705, 261, 129, 276, 192
-0.993706, 433, 185, 496, 248
-0.993711, 1, 89, 256, 152
-0.993732, 133, 217, 164, 280
-0.993756, 425, 209, 456, 272
-0.993773, 421, 49, 452, 112
-0.993774, 65, 1, 128, 326
-0.993775, 413, 225, 444, 288
-0.993775, 109, 233, 140, 296
-0.993778, 417, 97, 448, 224
-0.99379, 229, 209, 244, 272
-0.993806, 229, 121, 244, 184
-0.993831, 369, 265, 400, 326
-0.993845, 273, 113, 304, 176
-0.993878, 65, 145, 320, 208
-0.993887, 409, 129, 472, 256
-0.993895, 265, 153, 296, 216
-0.993906, 65, 65, 96, 128
-0.993912, 269, 217, 300, 280
-0.993944, 57, 169, 120, 232
-0.993945, 61, 217, 92, 280
-0.993951, 13, 65, 44, 128
-0.993962, 469, 145, 500, 208
-0.993976, 449, 89, 480, 152
-0.993983, 117, 65, 148, 128
-0.99401, 433, 177, 464, 304
-0.994024, 73, 193, 104, 256
-0.994036, 317, 201, 348, 264
-0.99404, 449, 169, 480, 232
-0.994045, 239, 169, 254, 232
-0.994077, 1, 17, 64, 80
-0.994099, 289, 185, 416, 248
-0.994105, 73, 113, 136, 176
-0.994113, 225, 257, 256, 320
-0.994131, 165, 57, 196, 120
-0.994197, 289, 161, 416, 224
-0.994219, 161, 193, 416, 256
-0.994229, 77, 65, 108, 128
-0.994246, 153, 65, 184, 128
-0.994251, 245, 57, 276, 120
-0.994259, 433, 25, 496, 88
-0.99426, 361, 1, 424, 326
-0.994265, 177, 193, 304, 224
-0.994268, 257, 57, 500, 120
-0.994274, 225, 41, 288, 104
-0.994276, 65, 121, 320, 184
-0.994283, 251, 169, 266, 232
-0.994301, 161, 209, 288, 240
-0.99434, 49, 17, 176, 80
-0.994342, 223, 97, 238, 160
-0.994348, 137, 169, 200, 232
-0.994366, 165, 193, 196, 320
-0.994379, 33, 217, 288, 280
-0.994382, 389, 89, 420, 152
-0.994393, 333, 177, 364, 304
-0.994395, 381, 257, 412, 320
-0.99441, 177, 177, 304, 208
-0.994423, 265, 25, 328, 88
-0.994425, 357, 129, 388, 256
-0.994446, 449, 161, 480, 288
-0.994476, 321, 97, 352, 224
-0.994478, 129, 177, 160, 304
-0.994531, 245, 145, 260, 208
-0.994551, 49, 185, 176, 248
-0.994577, 393, 25, 456, 88
-0.994608, 235, 97, 250, 160
-0.994615, 393, 1, 424, 128
-0.994673, 273, 113, 336, 176
-0.99476, 385, 193, 416, 320
-0.994772, 239, 145, 254, 208
-0.994775, 233, 145, 248, 208
-0.994779, 219, 121, 234, 184
-0.994788, 321, 9, 448, 72
-0.994841, 433, 1, 496, 326
-0.994903, 177, 17, 304, 80
-0.994916, 149, 177, 180, 304
-0.994955, 25, 185, 88, 248
-0.99497, 161, 257, 416, 320
-0.994982, 273, 85, 400, 116
-0.994985, 405, 33, 436, 160
-0.994985, 81, 193, 112, 320
-0.995059, 247, 209, 262, 272
-0.995069, 235, 121, 250, 184
-0.995132, 357, 73, 372, 136
-0.99514, 105, 177, 136, 304
-0.995155, 161, 105, 416, 168
-0.995161, 177, 41, 304, 104
-0.99517, 177, 129, 304, 160
-0.995177, 373, 161, 404, 288
-0.995182, 321, 77, 448, 108
-0.99519, 369, 17, 432, 80
-0.99521, 221, 1, 252, 128
-0.995214, 219, 233, 234, 296
-0.995258, 57, 1, 120, 64
-0.995265, 257, 1, 384, 64
-0.995319, 267, 121, 282, 184
-0.995326, 33, 161, 96, 224
-0.995346, 229, 89, 244, 152
-0.995346, 257, 257, 500, 320
-0.995357, 1, 1, 128, 64
-0.995359, 321, 113, 448, 176
-0.995363, 257, 89, 500, 152
-0.995364, 193, 233, 448, 296
-0.995365, 235, 209, 250, 272
-0.995371, 213, 217, 228, 280
-0.995388, 81, 121, 208, 184
-0.995399, 225, 65, 256, 320
-0.995401, 13, 177, 44, 304
-0.995416, 207, 201, 222, 264
-0.995416, 469, 129, 500, 256
-0.995436, 257, 161, 272, 224
-0.995447, 65, 193, 320, 256
-0.995456, 129, 197, 256, 228
-0.995459, 129, 57, 384, 120
-0.99548, 251, 145, 266, 208
-0.995512, 339, 73, 354, 136
-0.995529, 369, 1, 496, 64
-0.995537, 257, 73, 384, 104
-0.995542, 25, 145, 56, 272
-0.995545, 177, 149, 304, 180
-0.995576, 233, 169, 248, 232
-0.995578, 253, 201, 268, 264
-0.995584, 113, 25, 240, 88
-0.995624, 213, 121, 228, 184
-0.995626, 273, 1, 336, 64
-0.995651, 57, 25, 120, 88
-0.995652, 239, 233, 254, 296
-0.995654, 97, 17, 160, 80
-0.995659, 329, 65, 344, 128
-0.995714, 225, 149, 352, 180
-0.99573, 201, 185, 216, 248
-0.99576, 349, 65, 364, 128
-0.995799, 225, 193, 352, 224
-0.995805, 271, 89, 286, 152
-0.995815, 241, 121, 256, 184
-0.995831, 223, 209, 238, 272
-0.995837, 97, 177, 224, 208
-0.995839, 1, 257, 500, 320
-0.995849, 209, 1, 240, 128
-0.995862, 225, 177, 352, 208
-0.995878, 241, 89, 256, 152
-0.995942, 429, 97, 460, 224
-0.995989, 1, 57, 256, 120
-0.996019, 177, 221, 304, 252
-0.99602, 225, 161, 352, 192
-0.996065, 353, 65, 480, 96
-0.996069, 197, 65, 228, 320
-0.996076, 265, 97, 280, 160
-0.996079, 177, 117, 304, 148
-0.996126, 363, 81, 378, 144
-0.996128, 225, 233, 240, 296
-0.996136, 255, 89, 270, 152
-0.99614, 369, 77, 496, 108
-0.996179, 199, 153, 214, 216
-0.9962, 205, 145, 220, 208
-0.996257, 437, 265, 452, 326
-0.996264, 113, 165, 240, 196
-0.996279, 209, 205, 336, 236
-0.9963, 319, 65, 334, 128
-0.996302, 245, 233, 260, 296
-0.996314, 255, 121, 270, 184
-0.996316, 217, 97, 232, 160
-0.996318, 217, 193, 232, 256
-0.996335, 57, 193, 88, 320
-0.996369, 195, 177, 210, 240
-0.996371, 273, 129, 288, 192
-0.996429, 369, 237, 496, 268
-0.996429, 65, 249, 320, 312
-0.996465, 427, 241, 442, 304
-0.996479, 225, 137, 352, 168
-0.996498, 1, 201, 500, 264
-0.99651, 213, 169, 228, 232
-0.996523, 401, 193, 432, 320
-0.996527, 193, 297, 320, 326
-0.996538, 195, 129, 210, 192
-0.996541, 213, 33, 244, 288
-0.996559, 237, 33, 268, 288
-0.996567, 241, 217, 368, 248
-0.996581, 231, 233, 246, 296
-0.996597, 205, 233, 220, 296
-0.996614, 97, 1, 224, 64
-0.996627, 321, 245, 448, 276
-0.996631, 247, 113, 262, 176
-0.996639, 191, 153, 206, 216
-0.996645, 93, 193, 124, 320
-0.996682, 345, 97, 360, 160
-0.996733, 257, 169, 500, 232
-0.996743, 229, 217, 244, 248
-0.996749, 273, 129, 304, 256
-0.996753, 369, 225, 496, 256
-0.996753, 129, 265, 256, 296
-0.996767, 9, 209, 24, 272
-0.996769, 247, 89, 262, 152
-0.996774, 321, 89, 448, 120
-0.996776, 267, 145, 282, 208
-0.996781, 381, 1, 412, 128
-0.996781, 281, 193, 312, 320
-0.996791, 241, 125, 368, 156
-0.996792, 369, 277, 496, 308
-0.996816, 117, 89, 132, 152
-0.996823, 265, 129, 280, 160
-0.996824, 445, 265, 460, 326
-0.99684, 113, 153, 240, 184
-0.996873, 177, 233, 304, 264
-0.996881, 33, 297, 160, 326
-0.996887, 211, 145, 226, 208
-0.996903, 1, 129, 500, 192
-0.996928, 127, 89, 142, 152
-0.996932, 113, 209, 240, 240
-0.996952, 253, 65, 284, 320
-0.996971, 1, 81, 500, 144
-0.996973, 65, 261, 192, 292
-0.996997, 421, 249, 436, 312
-0.997026, 337, 297, 464, 326
-0.997033, 227, 145, 242, 208
-0.997045, 177, 77, 304, 108
-0.997062, 281, 89, 296, 152
-0.997091, 439, 241, 454, 304
-0.997096, 211, 97, 226, 160
-0.997104, 321, 257, 448, 288
-0.997108, 33, 249, 160, 280
-0.997111, 145, 277, 272, 308
-0.997118, 227, 125, 242, 156
-0.997126, 239, 233, 254, 264
-0.99713, 129, 109, 256, 140
-0.997133, 1, 161, 500, 224
-0.997134, 241, 157, 256, 188
-0.997134, 453, 57, 468, 120
-0.997136, 273, 257, 400, 288
-0.997136, 117, 161, 148, 288
-0.997155, 305, 225, 432, 256
-0.997196, 97, 285, 224, 316
-0.997198, 479, 89, 494, 152
-0.9972, 225, 233, 352, 264
-0.997204, 273, 297, 400, 326
-0.99721, 461, 233, 476, 296
-0.997214, 431, 73, 446, 136
-0.997216, 113, 89, 240, 120
-0.99722, 271, 129, 286, 160
-0.997221, 159, 89, 174, 152
-0.997229, 225, 89, 352, 120
-0.997233, 357, 77, 372, 108
-0.997237, 205, 89, 220, 152
-0.99724, 241, 209, 256, 240
-0.997244, 129, 221, 256, 252
-0.99726, 369, 249, 496, 280
-0.997265, 17, 281, 144, 312
-0.997271, 305, 61, 432, 92
-0.997275, 79, 89, 94, 152
-0.997275, 1, 229, 128, 260
-0.997277, 333, 89, 348, 152
-0.997278, 133, 89, 148, 152
-0.997278, 453, 257, 468, 320
-0.99728, 259, 185, 274, 248
-0.997286, 213, 249, 228, 312
-0.997295, 129, 253, 256, 284
-0.997303, 423, 73, 438, 136
-0.997306, 173, 89, 188, 152
-0.997306, 221, 125, 236, 156
-0.997313, 199, 217, 214, 280
-0.997326, 113, 241, 240, 272
-0.997326, 47, 89, 62, 152
-0.997327, 145, 89, 160, 152
-0.997332, 431, 265, 446, 326
-0.997332, 247, 169, 262, 200
-0.997333, 67, 89, 82, 152
-0.997335, 247, 193, 262, 224
-0.99734, 193, 253, 320, 284
-0.997343, 229, 257, 244, 320
-0.997361, 289, 281, 416, 312
-0.997372, 91, 89, 106, 152
-0.997375, 245, 229, 260, 260
-0.99738, 1, 145, 32, 272
-0.997381, 129, 137, 256, 168
-0.997383, 261, 141, 276, 172
-0.997384, 307, 89, 322, 152
-0.997398, 385, 265, 400, 326
-0.997404, 221, 153, 236, 216
-0.997408, 191, 257, 206, 320
-0.99741, 197, 249, 212, 312
-0.997411, 1, 57, 500, 120
-0.997411, 43, 257, 58, 320
-0.997412, 369, 261, 496, 292
-0.997412, 229, 65, 244, 128
-0.997413, 235, 73, 250, 136
-0.99742, 169, 145, 200, 272
-0.997423, 461, 57, 476, 120
-0.997429, 41, 233, 56, 296
-0.99743, 223, 185, 238, 248
-0.997441, 65, 237, 192, 268
-0.997444, 47, 225, 62, 288
-0.997448, 463, 89, 478, 152
-0.997452, 273, 245, 400, 276
-0.997453, 85, 81, 100, 144
-0.997463, 265, 169, 280, 232
-0.997464, 313, 57, 328, 120
-0.997473, 73, 89, 88, 152
-0.997474, 3, 201, 18, 264
-0.997477, 185, 33, 216, 288
-0.997485, 37, 265, 52, 326
-0.997488, 195, 81, 210, 144
-0.997489, 193, 285, 320, 316
-0.997492, 271, 233, 286, 296
-0.997494, 165, 89, 180, 152
-0.997497, 97, 297, 224, 326
-0.997498, 19, 233, 34, 296
-0.997505, 21, 265, 36, 326
-0.997506, 205, 121, 220, 184
-0.997508, 31, 257, 46, 320
-0.997508, 319, 89, 334, 152
-0.997508, 257, 113, 500, 176
-0.997515, 33, 89, 48, 152
-0.997517, 473, 89, 488, 152
-0.997519, 297, 145, 328, 272
-0.997522, 41, 65, 56, 128
-0.997525, 33, 89, 160, 120
-0.997527, 463, 257, 478, 320
-0.997539, 41, 89, 56, 152
-0.997542, 187, 89, 202, 152
-0.997543, 81, 225, 208, 256
-0.997544, 457, 81, 472, 144
-0.997547, 121, 209, 136, 272
-0.997564, 385, 89, 400, 152
-0.997565, 219, 209, 234, 240
-0.997571, 233, 125, 248, 156
-0.997578, 367, 57, 382, 120
-0.997579, 375, 89, 390, 152
-0.997579, 51, 137, 66, 200
-0.997595, 251, 205, 266, 236
-0.997609, 1, 269, 128, 300
-0.997619, 349, 85, 364, 116
-0.997623, 341, 33, 372, 288
-0.997627, 113, 65, 144, 320
-0.997634, 257, 33, 500, 96
-0.99764, 219, 233, 234, 264
-0.997652, 337, 213, 464, 244
-0.99766, 69, 177, 100, 304
-0.997718, 65, 273, 192, 304
-0.997736, 255, 173, 270, 204
-0.997737, 241, 277, 368, 308
-0.997741, 461, 177, 492, 304
-0.997742, 225, 61, 352, 92
-0.997745, 65, 77, 192, 108
-0.997754, 259, 129, 274, 160
-0.99776, 239, 117, 254, 148
-0.99776, 61, 1, 92, 256
-0.997779, 209, 265, 336, 296
-0.997786, 239, 221, 254, 252
-0.997794, 349, 73, 364, 104
-0.997794, 225, 109, 352, 140
-0.997799, 173, 33, 204, 288
-0.997807, 145, 293, 272, 324
-0.997821, 343, 85, 358, 116
-0.997824, 201, 185, 216, 216
-0.997825, 309, 161, 340, 288
-0.997833, 277, 33, 308, 288
-0.997835, 85, 65, 116, 320
-0.997848, 231, 137, 246, 168
-0.997861, 265, 1, 296, 256
-0.997868, 245, 241, 260, 272
-0.997868, 235, 161, 250, 192
-0.997868, 129, 77, 256, 108
-0.997907, 215, 125, 230, 156
-0.997907, 369, 89, 496, 120
-0.997913, 305, 141, 432, 172
-0.997915, 9, 65, 40, 320
-0.997924, 241, 193, 256, 224
-0.997928, 251, 153, 266, 184
-0.997942, 321, 269, 448, 300
-0.997943, 1, 217, 128, 248
-0.997949, 101, 65, 132, 320
-0.997976, 213, 229, 228, 260
-0.997979, 129, 125, 256, 156
-0.997989, 197, 1, 228, 128
-0.997989, 231, 205, 246, 236
-0.997992, 237, 173, 252, 204
-0.998006, 233, 233, 248, 264
-0.998007, 257, 145, 500, 208
-0.998013, 1, 205, 128, 236
-0.998033, 81, 189, 208, 220
-0.998035, 193, 173, 208, 204
-0.998045, 255, 193, 270, 224
-0.998051, 249, 217, 264, 248
-0.998055, 369, 53, 496, 84
-0.998061, 267, 141, 282, 172
-0.998069, 215, 197, 230, 228
-0.998076, 187, 161, 202, 192
-0.998077, 341, 73, 356, 104
-0.998079, 263, 153, 278, 184
-0.998093, 257, 193, 500, 256
-0.998118, 257, 205, 384, 236
-0.998127, 257, 161, 272, 192
-0.998133, 337, 173, 464, 204
-0.998137, 239, 145, 254, 176
-0.998141, 227, 229, 242, 260
-0.998164, 255, 117, 270, 148
-0.998164, 361, 65, 392, 320
-0.998165, 239, 249, 254, 280
-0.998182, 49, 1, 80, 256
-0.998187, 353, 137, 480, 168
-0.99819, 363, 81, 378, 112
-0.998194, 269, 117, 284, 148
-0.998206, 209, 217, 224, 248
-0.998213, 373, 65, 404, 320
-0.998218, 425, 1, 456, 128
-0.998218, 251, 237, 266, 268
-0.998218, 67, 273, 82, 304
-0.998225, 153, 1, 184, 256
-0.998227, 425, 281, 440, 312
-0.998235, 289, 101, 416, 132
-0.99825, 161, 89, 288, 120
-0.998252, 65, 165, 192, 196
-0.998255, 33, 65, 64, 320
-0.998257, 1, 181, 128, 212
-0.99826, 125, 65, 156, 320
-0.998263, 21, 1, 52, 256
-0.998271, 93, 145, 124, 272
-0.998275, 49, 209, 176, 240
-0.998276, 53, 289, 68, 320
-0.998279, 245, 121, 260, 152
-0.998279, 17, 77, 144, 108
-0.99828, 333, 73, 348, 104
-0.998283, 195, 153, 210, 184
-0.998283, 201, 173, 216, 204
-0.998287, 205, 205, 220, 236
-0.998287, 243, 181, 258, 212
-0.99829, 221, 221, 236, 252
-0.998291, 215, 277, 230, 308
-0.998297, 469, 285, 484, 316
-0.998299, 389, 145, 420, 272
-0.998301, 65, 293, 80, 324
-0.998307, 263, 117, 278, 148
-0.99831, 223, 113, 238, 144
-0.998314, 211, 185, 226, 216
-0.99832, 345, 101, 360, 132
-0.998328, 205, 285, 220, 316
-0.998329, 161, 33, 416, 96
-0.998332, 153, 283, 184, 298
-0.998332, 81, 239, 112, 254
-0.998332, 377, 257, 408, 272
-0.998332, 269, 127, 300, 142
-0.998334, 101, 295, 132, 310
-0.998334, 461, 285, 492, 300
-0.998334, 245, 243, 276, 258
-0.998334, 357, 239, 388, 254
-0.998335, 49, 287, 80, 302
-0.998335, 193, 303, 224, 318
-0.998335, 453, 229, 484, 244
-0.998336, 233, 311, 264, 326
-0.998336, 205, 135, 236, 150
-0.998337, 329, 33, 360, 288
-0.998337, 417, 307, 448, 322
-0.998337, 217, 251, 248, 266
-0.998338, 261, 121, 292, 136
-0.998339, 269, 145, 300, 160
-0.998339, 393, 307, 424, 322
-0.998339, 377, 307, 408, 322
-0.998339, 469, 279, 500, 294
-0.998339, 353, 189, 480, 220
-0.99834, 229, 127, 260, 142
-0.99834, 5, 275, 36, 290
-0.998342, 197, 123, 228, 138
-0.998343, 385, 277, 416, 292
-0.998343, 185, 241, 216, 256
-0.998345, 273, 303, 304, 318
-0.998345, 233, 249, 248, 280
-0.998345, 253, 309, 284, 324
-0.998345, 89, 247, 120, 262
-0.998345, 433, 291, 464, 306
-0.998346, 277, 129, 292, 160
-0.998347, 357, 91, 388, 106
-0.998348, 257, 181, 288, 196
-0.998349, 417, 249, 448, 264
-0.99835, 413, 281, 444, 296
-0.99835, 285, 145, 316, 272
-0.998352, 231, 149, 246, 180
-0.998352, 265, 311, 296, 326
-0.998352, 341, 99, 372, 114
-0.998353, 201, 297, 232, 312
-0.998354, 49, 293, 80, 308
-0.998354, 397, 301, 428, 316
-0.998357, 73, 1, 104, 256
-0.998357, 113, 297, 144, 312
-0.99836, 449, 275, 480, 290
-0.99836, 233, 139, 264, 154
-0.99836, 205, 289, 236, 304
-0.99836, 5, 219, 36, 234
-0.998361, 189, 235, 220, 250
-0.998361, 193, 197, 224, 212
-0.998362, 237, 175, 268, 190
-0.998363, 261, 139, 292, 154
-0.998366, 405, 311, 436, 326
-0.998366, 249, 141, 264, 172
-0.998368, 245, 237, 276, 252
-0.998368, 217, 157, 248, 172
-0.998368, 205, 251, 236, 266
-0.998369, 353, 101, 480, 132
-0.998369, 177, 171, 208, 186
-0.998369, 59, 289, 74, 320
-0.998371, 69, 269, 100, 284
-0.998372, 249, 175, 280, 190
-0.998372, 329, 253, 360, 268
-0.998372, 61, 299, 92, 314
-0.998373, 197, 173, 228, 188
-0.998375, 335, 85, 350, 116
-0.998375, 245, 149, 276, 164
-0.998375, 181, 179, 212, 194
-0.998375, 113, 209, 144, 224
-0.998376, 205, 241, 236, 256
-0.998377, 221, 169, 252, 184
-0.998377, 233, 245, 264, 260
-0.998377, 357, 85, 388, 100
-0.998378, 249, 223, 280, 238
-0.998381, 29, 311, 60, 326
-0.998382, 429, 277, 460, 292
-0.998382, 355, 65, 370, 96
-0.998383, 185, 185, 216, 200
-0.998383, 225, 121, 256, 136
-0.998384, 277, 309, 308, 324
-0.998384, 209, 195, 240, 210
-0.998384, 249, 135, 280, 150
-0.998385, 355, 89, 370, 120
-0.998385, 233, 251, 264, 266
-0.998386, 421, 255, 452, 270
-0.998387, 97, 65, 224, 96
-0.998389, 237, 185, 268, 200
-0.998389, 29, 301, 60, 316
-0.99839, 173, 165, 204, 180
-0.99839, 197, 213, 228, 228
-0.998391, 253, 161, 284, 176
-0.998392, 249, 191, 280, 206
-0.998393, 417, 299, 448, 314
-0.998393, 217, 239, 248, 254
-0.998396, 193, 203, 224, 218
-0.998396, 323, 73, 338, 104
-0.998396, 249, 141, 280, 156
-0.998397, 235, 193, 250, 224
-0.998397, 197, 219, 228, 234
-0.998398, 341, 73, 372, 88
-0.998399, 425, 297, 440, 326
-0.998402, 305, 197, 432, 228
-0.998403, 1, 33, 256, 96
-0.998403, 249, 213, 280, 228
-0.998403, 127, 281, 142, 312
-0.998406, 221, 141, 252, 156
-0.998407, 225, 201, 256, 216
-0.998408, 329, 79, 360, 94
-0.998409, 197, 225, 228, 240
-0.99841, 13, 129, 44, 256
-0.998413, 45, 309, 76, 324
-0.998414, 197, 129, 228, 144
-0.998414, 401, 129, 432, 256
-0.998416, 257, 153, 288, 168
-0.998416, 213, 205, 244, 220
-0.998418, 249, 121, 280, 136
-0.998419, 249, 199, 280, 214
-0.998421, 341, 91, 372, 106
-0.998421, 413, 297, 428, 326
-0.998422, 237, 133, 268, 148
-0.998422, 221, 197, 236, 228
-0.998423, 201, 219, 264, 234
-0.998426, 233, 237, 264, 252
-0.998428, 221, 245, 252, 260
-0.99843, 261, 133, 292, 148
-0.998434, 245, 207, 276, 222
-0.998438, 215, 245, 230, 276
-0.99844, 41, 303, 72, 318
-0.998444, 297, 65, 328, 320
-0.998446, 213, 211, 244, 226
-0.998447, 205, 231, 236, 246
-0.998449, 333, 85, 364, 100
-0.99845, 363, 233, 378, 264
-0.998453, 237, 191, 268, 206
-0.998455, 225, 163, 256, 178
-0.998457, 337, 265, 352, 296
-0.998459, 221, 137, 236, 168
-0.998459, 249, 167, 280, 182
-0.99846, 237, 155, 268, 170
-0.998461, 329, 257, 344, 288
-0.998462, 193, 237, 208, 268
-0.998462, 431, 277, 446, 308
-0.998462, 325, 71, 356, 86
-0.998464, 457, 277, 472, 308
-0.998466, 273, 141, 288, 172
-0.998469, 121, 209, 136, 240
-0.998471, 207, 241, 222, 272
-0.998471, 47, 297, 62, 326
-0.998474, 463, 273, 478, 304
-0.998475, 261, 189, 276, 220
-0.998482, 237, 221, 268, 236
-0.998484, 201, 211, 264, 226
-0.998487, 239, 133, 254, 164
-0.998488, 217, 135, 248, 150
-0.998488, 237, 197, 268, 212
-0.99849, 187, 233, 202, 264
-0.998491, 201, 229, 264, 244
-0.998493, 237, 119, 268, 134
-0.998494, 229, 207, 260, 222
-0.998497, 327, 245, 342, 276
-0.998497, 1, 233, 500, 296
-0.998497, 289, 49, 416, 80
-0.998498, 201, 205, 264, 220
-0.998501, 345, 85, 376, 100
-0.998503, 225, 123, 288, 138
-0.998504, 229, 213, 260, 228
-0.998507, 367, 245, 382, 276
-0.998507, 257, 127, 288, 142
-0.998507, 1, 193, 128, 224
-0.998508, 391, 289, 406, 320
-0.998509, 313, 81, 376, 96
-0.99851, 237, 229, 268, 244
-0.998511, 329, 61, 344, 92
-0.998512, 467, 225, 482, 256
-0.998522, 225, 231, 256, 246
-0.998524, 195, 185, 210, 216
-0.998524, 225, 159, 288, 174
-0.998524, 213, 223, 244, 238
-0.998526, 193, 167, 256, 182
-0.998527, 305, 153, 432, 184
-0.998528, 449, 33, 480, 288
-0.998529, 225, 167, 288, 182
-0.998529, 163, 277, 178, 308
-0.998533, 269, 173, 284, 204
-0.998534, 225, 241, 240, 272
-0.998535, 439, 277, 454, 308
-0.998536, 237, 105, 252, 136
-0.998537, 193, 189, 256, 204
-0.998537, 177, 57, 304, 88
-0.998538, 193, 195, 256, 210
-0.998541, 217, 143, 280, 158
-0.998541, 465, 297, 480, 326
-0.998545, 451, 273, 466, 304
-0.998549, 177, 229, 240, 244
-0.998551, 223, 277, 238, 308
-0.998552, 193, 137, 256, 152
-0.998553, 257, 233, 272, 264
-0.998555, 225, 153, 288, 168
-0.998556, 373, 245, 388, 276
-0.998559, 419, 281, 434, 312
-0.998561, 217, 129, 280, 144
-0.998561, 189, 149, 204, 180
-0.998562, 193, 175, 256, 190
-0.998562, 213, 289, 228, 320
-0.998563, 217, 173, 280, 188
-0.998564, 269, 153, 284, 184
-0.998564, 229, 81, 244, 208
-0.998565, 185, 161, 248, 176
-0.998565, 343, 253, 358, 284
-0.998569, 411, 217, 426, 248
-0.998571, 179, 161, 194, 192
-0.998573, 459, 293, 474, 324
-0.998573, 177, 223, 240, 238
-0.998573, 425, 245, 440, 276
-0.998573, 461, 65, 492, 320
-0.998575, 471, 237, 486, 268
-0.998576, 337, 79, 400, 94
-0.998576, 265, 249, 280, 280
-0.998579, 233, 137, 296, 152
-0.99858, 313, 75, 376, 90
-0.998581, 345, 79, 376, 94
-0.998583, 237, 161, 268, 176
-0.998585, 237, 169, 268, 184
-0.998585, 201, 235, 264, 250
-0.998586, 193, 125, 256, 140
-0.998589, 231, 105, 246, 136
-0.998591, 91, 273, 106, 304
-0.998593, 423, 257, 438, 288
-0.998594, 1, 303, 64, 318
-0.998595, 145, 169, 208, 184
-0.998596, 193, 143, 256, 158
-0.9986, 369, 309, 432, 324
-0.9986, 177, 217, 240, 232
-0.998602, 161, 187, 224, 202
-0.998602, 225, 219, 256, 234
-0.998603, 213, 217, 244, 232
-0.998603, 249, 173, 312, 188
-0.998603, 385, 299, 448, 314
-0.998607, 137, 65, 168, 320
-0.998607, 41, 305, 104, 320
-0.99861, 249, 167, 312, 182
-0.99861, 193, 183, 256, 198
-0.998611, 361, 83, 424, 98
-0.998612, 321, 87, 384, 102
-0.998612, 233, 189, 296, 204
-0.998613, 169, 205, 232, 220
-0.998614, 217, 127, 248, 142
-0.998614, 185, 155, 248, 170
-0.998618, 345, 307, 408, 322
-0.998618, 161, 197, 224, 212
-0.99862, 233, 195, 296, 210
-0.99862, 249, 183, 312, 198
-0.998622, 209, 241, 272, 256
-0.998623, 249, 161, 312, 176
-0.998625, 185, 131, 248, 146
-0.998626, 169, 211, 232, 226
-0.998626, 185, 247, 248, 262
-0.998627, 409, 277, 472, 292
-0.998627, 241, 219, 304, 234
-0.998629, 337, 93, 400, 108
-0.99863, 161, 237, 224, 252
-0.99863, 161, 293, 224, 308
-0.998631, 225, 227, 288, 242
-0.998631, 241, 207, 304, 222
-0.998632, 241, 233, 304, 248
-0.998632, 201, 289, 264, 304
-0.998634, 257, 133, 320, 148
-0.998635, 193, 149, 256, 164
-0.998635, 161, 285, 224, 300
-0.998636, 65, 249, 128, 264
-0.998636, 393, 311, 456, 326
-0.998637, 249, 153, 312, 168
-0.998637, 289, 73, 352, 88
-0.998638, 409, 77, 472, 92
-0.998638, 393, 257, 456, 272
-0.998638, 225, 179, 288, 194
-0.998639, 153, 179, 216, 194
-0.998639, 417, 293, 480, 308
-0.99864, 417, 311, 480, 326
-0.99864, 241, 311, 304, 326
-0.998643, 321, 253, 384, 268
-0.998643, 385, 65, 416, 320
-0.998644, 169, 171, 232, 186
-0.998644, 49, 273, 112, 288
-0.998644, 193, 113, 256, 128
-0.998644, 377, 293, 440, 308
-0.998644, 433, 277, 496, 292
-0.998645, 313, 69, 376, 84
-0.998646, 401, 287, 464, 302
-0.998647, 49, 297, 112, 312
-0.998647, 265, 309, 328, 324
-0.998648, 1, 121, 128, 152
-0.998648, 249, 201, 312, 216
-0.99865, 193, 119, 256, 134
-0.998651, 417, 239, 480, 254
-0.998651, 121, 309, 184, 324
-0.998651, 113, 295, 176, 310
-0.998651, 225, 117, 288, 132
-0.998652, 437, 33, 468, 288
-0.998652, 401, 305, 464, 320
-0.998653, 57, 287, 120, 302
-0.998655, 145, 163, 208, 178
-0.998655, 129, 235, 192, 250
-0.998656, 25, 285, 88, 300
-0.998656, 161, 245, 224, 260
-0.998656, 105, 301, 168, 316
-0.998656, 345, 301, 408, 316
-0.998657, 305, 93, 368, 108
-0.998657, 417, 227, 480, 242
-0.998657, 321, 311, 384, 326
-0.998659, 385, 281, 448, 296
-0.99866, 309, 65, 340, 320
-0.99866, 241, 213, 304, 228
-0.99866, 225, 201, 288, 216
-0.998661, 305, 129, 432, 160
-0.998661, 49, 279, 112, 294
-0.998661, 81, 307, 144, 322
-0.998662, 361, 77, 424, 92
-0.998663, 433, 245, 496, 260
-0.998664, 209, 247, 272, 262
-0.998664, 281, 261, 344, 276
-0.998664, 145, 307, 208, 322
-0.998665, 241, 247, 304, 262
-0.998665, 81, 273, 144, 288
-0.998667, 113, 287, 176, 302
-0.998667, 409, 249, 472, 264
-0.998668, 393, 271, 456, 286
-0.998668, 177, 253, 240, 268
-0.998669, 241, 239, 304, 254
-0.998669, 329, 237, 392, 252
-0.99867, 9, 311, 72, 326
-0.99867, 257, 143, 320, 158
-0.99867, 265, 247, 328, 262
-0.99867, 145, 255, 208, 270
-0.998671, 385, 83, 448, 98
-0.998671, 185, 85, 248, 100
-0.998671, 177, 309, 240, 324
-0.998672, 81, 239, 144, 254
-0.998673, 137, 261, 200, 276
-0.998673, 153, 301, 216, 316
-0.998675, 257, 299, 320, 314
-0.998675, 377, 287, 440, 302
-0.998676, 225, 225, 256, 240
-0.998682, 231, 129, 246, 256
-0.998695, 273, 185, 400, 216
-0.998697, 221, 129, 236, 256
-0.998702, 243, 145, 258, 272
-0.998709, 17, 169, 144, 200
-0.998727, 81, 133, 208, 164
-0.998741, 297, 193, 328, 320
-0.998752, 259, 129, 274, 256
-0.998767, 211, 129, 226, 256
-0.998767, 253, 161, 268, 288
-0.998767, 237, 161, 252, 288
-0.998776, 353, 33, 480, 64
-0.998781, 353, 201, 480, 232
-0.99879, 225, 49, 352, 80
-0.998792, 421, 33, 452, 288
-0.998805, 221, 81, 236, 208
-0.998806, 211, 81, 226, 208
-0.998811, 205, 129, 220, 256
-0.998843, 369, 113, 496, 144
-0.998846, 265, 113, 280, 240
-0.998848, 237, 65, 252, 192
-0.998898, 65, 153, 192, 184
-0.998905, 231, 193, 246, 320
-0.998914, 205, 81, 220, 208
-0.998932, 253, 81, 268, 208
-0.998946, 177, 101, 304, 132
-0.998948, 161, 45, 288, 76
-0.998952, 203, 177, 218, 304
-0.998963, 273, 165, 400, 196
-0.998966, 369, 125, 496, 156
-0.998973, 199, 81, 214, 208
-0.99898, 65, 117, 192, 148
-0.999007, 209, 193, 224, 320
-0.999011, 289, 117, 416, 148
-0.999018, 259, 81, 274, 208
-0.999019, 357, 65, 372, 192
-0.999027, 197, 145, 212, 272
-0.99903, 369, 157, 496, 188
-0.999031, 225, 193, 240, 320
-0.999034, 241, 25, 368, 56
-0.999034, 1, 157, 128, 188
-0.99905, 271, 81, 286, 208
-0.999059, 257, 37, 384, 68
-0.999091, 1, 57, 128, 88
-0.999096, 73, 129, 104, 256
-0.999099, 245, 193, 260, 320
-0.99911, 341, 81, 356, 208
-0.999113, 65, 53, 192, 84
-0.999132, 215, 177, 230, 304
-0.999138, 397, 33, 428, 288
-0.999139, 17, 45, 144, 76
-0.999141, 189, 81, 204, 208
-0.999146, 53, 81, 68, 208
-0.999148, 17, 137, 144, 168
-0.999159, 243, 81, 258, 208
-0.999162, 45, 81, 60, 208
-0.999164, 1, 9, 256, 72
-0.999186, 259, 177, 274, 304
-0.999187, 65, 21, 192, 52
-0.999196, 467, 33, 482, 160
-0.999199, 145, 21, 272, 52
-0.999201, 39, 81, 54, 208
-0.999222, 465, 81, 480, 208
-0.999225, 159, 81, 174, 208
-0.999228, 265, 65, 280, 192
-0.999228, 59, 81, 74, 208
-0.999244, 67, 81, 82, 208
-0.999247, 347, 81, 362, 208
-0.999247, 1, 33, 128, 64
-0.999263, 49, 101, 176, 132
-0.999272, 283, 81, 298, 208
-0.999274, 277, 81, 292, 208
-0.999275, 113, 53, 240, 84
-0.999276, 479, 81, 494, 208
-0.999278, 127, 81, 142, 208
-0.999279, 237, 113, 252, 240
-0.999279, 351, 33, 366, 160
-0.999289, 33, 81, 48, 208
-0.999293, 473, 81, 488, 208
-0.999294, 19, 81, 34, 208
-0.999294, 317, 81, 332, 208
-0.999299, 3, 33, 18, 160
-0.9993, 183, 81, 198, 208
-0.999301, 137, 33, 152, 160
-0.999306, 225, 33, 240, 160
-0.999312, 257, 9, 500, 72
-0.999313, 129, 9, 384, 72
-0.999316, 363, 81, 378, 208
-0.999317, 171, 81, 186, 208
-0.999324, 15, 33, 30, 160
-0.999325, 153, 81, 168, 208
-0.999327, 147, 33, 162, 160
-0.999327, 295, 81, 310, 208
-0.999329, 459, 81, 474, 208
-0.999331, 147, 81, 162, 208
-0.999331, 191, 129, 206, 256
-0.999335, 137, 81, 152, 208
-0.999337, 141, 129, 172, 256
-0.999338, 175, 33, 190, 160
-0.999342, 359, 17, 374, 144
-0.999342, 73, 81, 88, 208
-0.999343, 5, 81, 20, 208
-0.999343, 115, 81, 130, 208
-0.999348, 289, 81, 304, 208
-0.999348, 29, 33, 44, 160
-0.999348, 305, 81, 320, 208
-0.999349, 165, 81, 180, 208
-0.999353, 335, 65, 350, 192
-0.999358, 375, 81, 390, 208
-0.999364, 249, 33, 264, 160
-0.999364, 107, 65, 122, 192
-0.999365, 243, 33, 258, 160
-0.999369, 121, 81, 136, 208
-0.999373, 311, 81, 326, 208
-0.999373, 9, 33, 24, 160
-0.999373, 385, 81, 400, 208
-0.999375, 27, 81, 42, 208
-0.999376, 323, 49, 338, 176
-0.99938, 127, 33, 142, 160
-0.999383, 91, 65, 106, 192
-0.999387, 177, 81, 192, 208
-0.999391, 165, 33, 180, 160
-0.999391, 81, 81, 96, 208
-0.999392, 199, 33, 214, 160
-0.999396, 345, 33, 360, 160
-0.999397, 459, 33, 474, 160
-0.999398, 481, 33, 496, 160
-0.999401, 473, 33, 488, 160
-0.999402, 67, 33, 82, 160
-0.999403, 13, 81, 28, 208
-0.999404, 365, 33, 380, 160
-0.999404, 23, 33, 38, 160
-0.999406, 51, 161, 66, 288
-0.999406, 369, 81, 384, 208
-0.999411, 485, 81, 500, 208
-0.999417, 119, 33, 134, 160
-0.999418, 283, 33, 298, 160
-0.999424, 257, 33, 272, 160
-0.999427, 421, 49, 436, 176
-0.999428, 271, 33, 286, 160
-0.999429, 39, 33, 54, 160
-0.999429, 97, 65, 112, 192
-0.999432, 75, 33, 90, 160
-0.999438, 153, 33, 168, 160
-0.999439, 271, 129, 286, 256
-0.999452, 85, 1, 100, 128
-0.999453, 181, 33, 196, 160
-0.999454, 61, 17, 76, 144
-0.999454, 1, 105, 500, 168
-0.999461, 53, 33, 68, 160
-0.999462, 315, 17, 330, 144
-0.999467, 409, 33, 440, 288
-0.999467, 277, 33, 292, 160
-0.999467, 293, 1, 308, 128
-0.99947, 99, 1, 114, 128
-0.999476, 159, 33, 174, 160
-0.999476, 305, 33, 320, 160
-0.99948, 351, 177, 366, 304
-0.999482, 361, 177, 376, 304
-0.999482, 329, 49, 344, 176
-0.999487, 395, 49, 410, 176
-0.999489, 231, 33, 246, 160
-0.999494, 191, 33, 206, 160
-0.999501, 455, 129, 470, 256
-0.999504, 107, 1, 122, 128
-0.999505, 9, 193, 24, 320
-0.99955, 259, 203, 274, 218
-0.99955, 293, 309, 308, 324
-0.99955, 255, 145, 270, 160
-0.99955, 33, 305, 48, 320
-0.999551, 419, 297, 434, 312
-0.999552, 319, 253, 334, 268
-0.999552, 331, 253, 346, 268
-0.999552, 437, 277, 452, 292
-0.999553, 235, 173, 250, 188
-0.999553, 255, 131, 270, 146
-0.999553, 237, 243, 252, 258
-0.999554, 233, 161, 248, 176
-0.999554, 249, 157, 264, 172
-0.999555, 257, 189, 272, 204
-0.999555, 65, 277, 80, 292
-0.999555, 39, 303, 54, 318
-0.999555, 115, 297, 130, 312
-0.999556, 239, 135, 254, 150
-0.999556, 221, 249, 236, 264
-0.999556, 443, 283, 458, 298
-0.999557, 351, 97, 366, 112
-0.999557, 59, 301, 74, 316
-0.999557, 415, 311, 430, 326
-0.999558, 247, 235, 262, 250
-0.999559, 231, 249, 246, 264
-0.999559, 57, 285, 72, 300
-0.999559, 253, 207, 268, 222
-0.99956, 55, 309, 70, 324
-0.99956, 201, 175, 216, 190
-0.99956, 255, 195, 270, 210
-0.99956, 193, 183, 208, 198
-0.99956, 197, 167, 212, 182
-0.999561, 207, 209, 222, 224
-0.999561, 453, 229, 468, 244
-0.999562, 237, 203, 252, 218
-0.999563, 451, 273, 466, 288
-0.999564, 249, 189, 264, 204
-0.999565, 201, 187, 216, 202
-0.999565, 395, 307, 410, 322
-0.999565, 327, 247, 342, 262
-0.999566, 425, 299, 440, 314
-0.999566, 421, 309, 436, 324
-0.999569, 37, 311, 52, 326
-0.999572, 191, 177, 206, 192
-0.999573, 257, 163, 272, 178
-0.999573, 329, 69, 344, 84
-0.999573, 183, 163, 198, 178
-0.999574, 209, 215, 224, 230
-0.999574, 65, 291, 80, 306
-0.999575, 211, 243, 226, 258
-0.999576, 267, 151, 282, 166
-0.999576, 353, 91, 368, 106
-0.999576, 269, 311, 284, 326
-0.999577, 427, 251, 442, 266
-0.999578, 187, 169, 202, 184
-0.999578, 243, 119, 258, 134
-0.999579, 345, 101, 360, 116
-0.99958, 349, 85, 364, 100
-0.99958, 269, 123, 284, 138
-0.99958, 261, 171, 276, 186
-0.99958, 209, 223, 224, 238
-0.999581, 221, 139, 236, 154
-0.999583, 237, 191, 252, 206
-0.999584, 429, 279, 444, 294
-0.999584, 415, 305, 430, 320
-0.999587, 335, 77, 350, 92
-0.999587, 257, 123, 272, 138
-0.999588, 461, 277, 476, 292
-0.999588, 241, 171, 256, 186
-0.999589, 235, 229, 250, 244
-0.99959, 221, 211, 236, 226
-0.99959, 213, 135, 228, 150
-0.999591, 237, 249, 252, 264
-0.999592, 251, 223, 266, 238
-0.999592, 277, 131, 292, 146
-0.999593, 215, 203, 230, 218
-0.999593, 233, 127, 248, 142
-0.999595, 45, 303, 60, 318
-0.999595, 251, 213, 266, 228
-0.999597, 245, 241, 260, 256
-0.999599, 263, 121, 278, 136
-0.999602, 211, 229, 226, 244
-0.999602, 219, 217, 234, 232
-0.999604, 253, 201, 268, 216
-0.999604, 227, 231, 242, 246
-0.999604, 261, 155, 276, 170
-0.999605, 239, 237, 254, 252
-0.999605, 235, 167, 250, 182
-0.999607, 47, 309, 62, 324
-0.999608, 271, 145, 286, 160
-0.999609, 231, 211, 246, 226
-0.999612, 245, 195, 260, 210
-0.999613, 213, 197, 228, 212
-0.999614, 255, 137, 270, 152
-0.999619, 53, 301, 68, 316
-0.99962, 343, 85, 358, 100
-0.999621, 237, 141, 252, 156
-0.999625, 251, 163, 266, 178
-0.999628, 253, 173, 268, 188
-0.99963, 241, 215, 256, 230
-0.999632, 219, 233, 234, 248
-0.999633, 219, 223, 234, 238
-0.99964, 359, 85, 374, 100
-0.999641, 215, 129, 230, 144
-0.999643, 237, 121, 252, 136
-0.99965, 271, 135, 286, 150
-0.999651, 345, 79, 360, 94
-0.999651, 231, 141, 246, 156
-0.999655, 265, 135, 280, 150
-0.999655, 261, 149, 276, 164
-0.999655, 351, 77, 366, 92
-0.999659, 239, 159, 254, 174
-0.999662, 233, 135, 248, 150
-0.999664, 247, 203, 262, 218
-0.999675, 221, 133, 236, 148
-0.99968, 241, 231, 256, 246
-0.999684, 357, 79, 372, 94
-0.999686, 153, 129, 184, 256
-0.999688, 271, 129, 286, 144
-0.999697, 247, 229, 262, 244
-0.999698, 229, 225, 244, 240
-0.999704, 243, 209, 258, 224
-0.999708, 241, 221, 256, 236
-0.999712, 247, 169, 262, 184
-0.99973, 261, 141, 276, 156
-0.99973, 227, 135, 242, 150
-0.999738, 229, 217, 244, 232
-0.999743, 263, 127, 278, 142
-0.999756, 227, 125, 242, 140
-0.999759, 221, 127, 236, 142
-0.999777, 241, 165, 256, 180
-0.999801, 385, 97, 416, 224
-1.00005, 129, 129, 160, 256
-1.00077, 1, 33, 500, 96
-1.00094, 1, 1, 500, 64
