1933
-0.466664, 1, 97, 500, 346
-0.496359, 225, 97, 480, 346
-0.547035, 129, 1, 384, 346
-0.572018, 1, 1, 500, 256
-0.598762, 1, 1, 500, 346
-0.607936, 225, 1, 480, 346
-0.705074, 33, 1, 288, 346
-0.726402, 129, 97, 384, 346
-0.763297, 257, 1, 500, 256
-0.815739, 161, 1, 416, 256
-0.832021, 289, 65, 416, 320
-0.852727, 241, 33, 368, 288
-0.867135, 337, 1, 464, 346
-0.872473, 161, 1, 288, 346
-0.875012, 337, 97, 464, 346
-0.883221, 241, 1, 368, 346
-0.88619, 161, 97, 288, 346
-0.889589, 1, 193, 500, 320
-0.901394, 289, 1, 416, 346
-0.907093, 33, 33, 288, 288
-0.908892, 1, 129, 500, 256
-0.915821, 193, 177, 448, 304
-0.9202, 193, 225, 448, 346
-0.920392, 289, 129, 416, 256
-0.921006, 193, 129, 448, 256
-0.921645, 289, 177, 416, 304
-0.921917, 337, 161, 464, 288
-0.92222, 257, 81, 500, 208
-0.923366, 1, 81, 500, 208
-0.923936, 369, 1, 496, 256
-0.92513, 265, 225, 328, 346
-0.925916, 209, 113, 336, 240
-0.927288, 305, 209, 368, 336
-0.928419, 289, 129, 352, 256
-0.928793, 161, 1, 288, 256
-0.931168, 225, 161, 352, 288
-0.93186, 393, 161, 456, 288
-0.932285, 289, 65, 416, 192
-0.933814, 233, 113, 296, 240
-0.934693, 129, 17, 384, 144
-0.935776, 369, 129, 432, 256
-0.93609, 209, 225, 336, 346
-0.937209, 241, 177, 304, 304
-0.937678, 265, 177, 328, 304
-0.937783, 329, 193, 392, 320
-0.938407, 97, 225, 352, 346
-0.939098, 305, 65, 368, 192
-0.940474, 329, 65, 392, 192
-0.942884, 353, 193, 416, 320
-0.943069, 257, 225, 384, 346
-0.943301, 305, 225, 432, 346
-0.943649, 257, 129, 320, 256
-0.943825, 81, 1, 208, 346
-0.944172, 313, 129, 376, 256
-0.944391, 321, 193, 384, 256
-0.944755, 353, 225, 416, 288
-0.944767, 161, 81, 416, 208
-0.94542, 345, 201, 408, 264
-0.946005, 337, 113, 464, 240
-0.946276, 241, 281, 304, 344
-0.946771, 145, 225, 208, 346
-0.946843, 241, 65, 368, 192
-0.947232, 225, 129, 288, 192
-0.948647, 289, 273, 352, 336
-0.948896, 369, 201, 432, 264
-0.949691, 161, 225, 288, 346
-0.949709, 177, 177, 304, 304
-0.950193, 297, 225, 360, 288
-0.950221, 177, 273, 240, 336
-0.950319, 161, 113, 288, 240
-0.950592, 265, 265, 328, 328
-0.950651, 201, 281, 264, 344
-0.950824, 329, 265, 392, 328
-0.951007, 97, 97, 224, 346
-0.951638, 265, 185, 328, 248
-0.951999, 361, 177, 424, 240
-0.952374, 281, 153, 344, 216
-0.952493, 297, 193, 360, 256
-0.952861, 393, 185, 456, 248
-0.95324, 177, 17, 304, 144
-0.953587, 241, 225, 304, 346
-0.953616, 137, 265, 200, 328
-0.953759, 361, 273, 424, 336
-0.953845, 329, 241, 392, 304
-0.954098, 337, 145, 400, 272
-0.954403, 353, 209, 480, 336
-0.954493, 249, 241, 312, 304
-0.955257, 401, 209, 464, 336
-0.955495, 257, 145, 320, 208
-0.955512, 337, 169, 400, 232
-0.955542, 401, 97, 464, 224
-0.956133, 361, 153, 424, 216
-0.956148, 401, 161, 464, 224
-0.957125, 233, 161, 296, 224
-0.957175, 305, 73, 368, 136
-0.957814, 209, 225, 272, 346
-0.958222, 249, 209, 312, 272
-0.958723, 273, 217, 336, 280
-0.958924, 81, 225, 208, 346
-0.959207, 353, 65, 480, 192
-0.959397, 305, 249, 368, 312
-0.959419, 217, 1, 280, 128
-0.959621, 233, 185, 296, 248
-0.959871, 313, 137, 376, 200
-0.959962, 217, 1, 280, 64
-0.960221, 265, 81, 328, 208
-0.960353, 393, 209, 456, 272
-0.960651, 249, 121, 312, 184
-0.960813, 97, 145, 352, 272
-0.960946, 321, 217, 384, 280
-0.960954, 377, 225, 440, 346
-0.961178, 209, 257, 272, 320
-0.961574, 353, 249, 416, 312
-0.961606, 393, 241, 456, 304
-0.961945, 289, 121, 352, 184
-0.962109, 217, 105, 280, 168
-0.962498, 353, 209, 384, 272
-0.96286, 369, 129, 432, 192
-0.96319, 341, 193, 372, 256
-0.963992, 233, 97, 296, 346
-0.964045, 209, 113, 272, 240
-0.964367, 389, 161, 420, 288
-0.964457, 217, 161, 280, 288
-0.96458, 329, 73, 392, 136
-0.965216, 397, 169, 428, 232
-0.965467, 281, 97, 344, 346
-0.96556, 1, 209, 256, 336
-0.965778, 241, 121, 272, 184
-0.965824, 1, 1, 500, 128
-0.966089, 81, 1, 208, 256
-0.966152, 273, 241, 336, 304
-0.966277, 225, 1, 352, 128
-0.966288, 33, 1, 160, 346
-0.967236, 185, 273, 216, 336
-0.967365, 417, 169, 448, 232
-0.967373, 325, 217, 356, 280
-0.967398, 313, 169, 376, 232
-0.96754, 289, 137, 416, 200
-0.967572, 337, 169, 464, 232
-0.967701, 329, 113, 392, 176
-0.967727, 377, 129, 408, 256
-0.968045, 237, 113, 268, 240
-0.968069, 249, 281, 280, 344
-0.968121, 201, 265, 232, 328
-0.968168, 225, 257, 352, 320
-0.968291, 361, 177, 392, 240
-0.968356, 161, 265, 288, 328
-0.968363, 305, 193, 432, 256
-0.968397, 257, 177, 384, 240
-0.968401, 329, 65, 392, 320
-0.968521, 313, 273, 344, 336
-0.96874, 161, 241, 224, 304
-0.968779, 333, 193, 364, 320
-0.96879, 273, 217, 400, 280
-0.968862, 293, 209, 324, 336
-0.968867, 317, 209, 348, 336
-0.968868, 229, 1, 260, 64
-0.968881, 129, 161, 256, 288
-0.968913, 369, 81, 432, 208
-0.969141, 377, 201, 408, 264
-0.969224, 361, 161, 392, 288
-0.969247, 309, 113, 340, 240
-0.969271, 285, 161, 316, 224
-0.969396, 417, 193, 448, 256
-0.969577, 401, 177, 432, 304
-0.969734, 225, 281, 352, 344
-0.970239, 329, 193, 360, 256
-0.970347, 209, 129, 336, 192
-0.970432, 209, 153, 336, 216
-0.97055, 321, 129, 352, 256
-0.970636, 305, 129, 336, 192
-0.970747, 325, 273, 356, 336
-0.971053, 297, 265, 328, 328
-0.971161, 209, 233, 272, 296
-0.971186, 225, 105, 352, 168
-0.971355, 105, 225, 168, 346
-0.971363, 225, 201, 352, 264
-0.971553, 289, 97, 352, 160
-0.97158, 385, 137, 416, 200
-0.971649, 377, 193, 408, 320
-0.971706, 173, 265, 204, 328
-0.971723, 249, 257, 280, 320
-0.971727, 361, 233, 392, 296
-0.971773, 177, 225, 240, 346
-0.97183, 273, 281, 400, 344
-0.971842, 265, 89, 328, 152
-0.971863, 301, 161, 332, 288
-0.971929, 317, 65, 348, 192
-0.972008, 305, 225, 336, 346
-0.97201, 413, 161, 444, 288
-0.972057, 289, 241, 416, 304
-0.972065, 345, 225, 376, 346
-0.972115, 369, 97, 432, 346
-0.972115, 397, 209, 428, 272
-0.972172, 349, 161, 380, 288
-0.972267, 417, 161, 480, 288
-0.972388, 213, 281, 244, 344
-0.972448, 365, 209, 396, 336
-0.972513, 225, 225, 352, 288
-0.972522, 273, 169, 304, 232
-0.9726, 277, 201, 308, 264
-0.972641, 429, 177, 460, 240
-0.972713, 377, 161, 408, 224
-0.972738, 309, 249, 340, 312
-0.97275, 349, 233, 380, 296
-0.972877, 233, 265, 264, 328
-0.972917, 381, 225, 412, 288
-0.97296, 393, 137, 456, 200
-0.97297, 309, 209, 340, 272
-0.973011, 397, 137, 428, 200
-0.973123, 349, 169, 380, 232
-0.973154, 225, 1, 480, 128
-0.973212, 321, 265, 448, 328
-0.973229, 289, 137, 320, 200
-0.973255, 193, 1, 256, 64
-0.973366, 297, 185, 328, 248
-0.973926, 209, 177, 336, 240
-0.973946, 305, 33, 368, 288
-0.973977, 113, 257, 176, 320
-0.974195, 293, 233, 324, 296
-0.974429, 357, 273, 388, 336
-0.974468, 225, 25, 288, 88
-0.974505, 289, 105, 416, 168
-0.974538, 241, 9, 272, 72
-0.974574, 409, 49, 472, 176
-0.97468, 305, 161, 336, 224
-0.974681, 149, 257, 180, 320
-0.974718, 185, 249, 248, 312
-0.974891, 401, 241, 432, 304
-0.975168, 209, 97, 272, 346
-0.975175, 1, 97, 128, 346
-0.975381, 241, 145, 272, 208
-0.975493, 1, 161, 256, 288
-0.97555, 201, 25, 264, 88
-0.975555, 321, 129, 352, 192
-0.975596, 425, 113, 488, 240
-0.975747, 209, 153, 272, 216
-0.975797, 297, 113, 328, 240
-0.975827, 193, 1, 256, 128
-0.97606, 65, 97, 320, 224
-0.976093, 241, 1, 304, 128
-0.976107, 337, 273, 368, 336
-0.976128, 333, 249, 364, 312
-0.976204, 381, 249, 412, 312
-0.976303, 289, 81, 416, 144
-0.976322, 393, 113, 456, 176
-0.976493, 401, 129, 432, 256
-0.976619, 285, 273, 316, 336
-0.976637, 225, 209, 288, 272
-0.976663, 409, 217, 440, 280
-0.97687, 229, 105, 260, 168
-0.976889, 261, 281, 292, 344
-0.976922, 353, 193, 480, 256
-0.976991, 113, 281, 176, 344
-0.977072, 137, 241, 200, 304
-0.977247, 113, 281, 240, 344
-0.977284, 161, 129, 288, 192
-0.977391, 277, 177, 308, 304
-0.977477, 261, 137, 292, 200
-0.977557, 413, 249, 444, 312
-0.977684, 413, 145, 444, 208
-0.977692, 361, 113, 392, 240
-0.977708, 365, 201, 396, 264
-0.977985, 393, 65, 456, 320
-0.978067, 365, 153, 396, 216
-0.978207, 369, 81, 432, 144
-0.978498, 193, 161, 256, 288
-0.978517, 337, 225, 368, 288
-0.978524, 49, 97, 176, 346
-0.978592, 425, 193, 488, 256
-0.978652, 357, 65, 388, 192
-0.978689, 193, 129, 256, 192
-0.978878, 273, 265, 304, 328
-0.978953, 281, 241, 312, 304
-0.979059, 229, 129, 260, 192
-0.979073, 317, 65, 348, 128
-0.979216, 241, 1, 304, 64
-0.979369, 321, 49, 384, 112
-0.97937, 413, 113, 444, 240
-0.979392, 161, 17, 288, 80
-0.97941, 177, 241, 304, 304
-0.979442, 321, 217, 448, 280
-0.979473, 337, 145, 464, 208
-0.97954, 161, 169, 288, 232
-0.979541, 429, 161, 460, 288
-0.979579, 289, 161, 320, 288
-0.9796, 113, 257, 240, 320
-0.979614, 245, 161, 276, 288
-0.979778, 397, 225, 428, 346
-0.979826, 429, 217, 460, 280
-0.979908, 253, 209, 284, 336
-0.979966, 317, 89, 348, 152
-0.979967, 337, 241, 464, 304
-0.980078, 385, 265, 448, 328
-0.980087, 161, 65, 288, 192
-0.980108, 389, 113, 420, 240
-0.98011, 261, 249, 292, 312
-0.980143, 333, 145, 364, 272
-0.98019, 353, 65, 384, 128
-0.980196, 245, 17, 276, 144
-0.980356, 89, 273, 152, 336
-0.980369, 241, 97, 272, 160
-0.980521, 161, 257, 192, 320
-0.980567, 177, 209, 304, 272
-0.980568, 277, 225, 308, 346
-0.980627, 149, 281, 180, 344
-0.980674, 281, 65, 344, 128
-0.980729, 397, 265, 428, 328
-0.980931, 321, 17, 448, 144
-0.980945, 321, 249, 352, 312
-0.980969, 161, 105, 288, 168
-0.981015, 305, 17, 368, 144
-0.981039, 213, 257, 244, 320
-0.981064, 329, 65, 360, 192
-0.9811, 157, 225, 188, 346
-0.98126, 329, 65, 360, 128
-0.981381, 289, 209, 320, 272
-0.981541, 237, 233, 268, 296
-0.981556, 257, 65, 320, 320
-0.98178, 225, 1, 256, 128
-0.981833, 321, 153, 352, 216
-0.981907, 233, 225, 264, 346
-0.981928, 313, 1, 376, 346
-0.982027, 369, 257, 400, 320
-0.982229, 249, 113, 280, 240
-0.982259, 209, 1, 272, 346
-0.982322, 253, 1, 284, 64
-0.982517, 433, 33, 496, 160
-0.982585, 305, 65, 336, 192
-0.98272, 217, 1, 248, 64
-0.98277, 257, 177, 288, 240
-0.982805, 209, 177, 272, 240
-0.982813, 241, 169, 272, 232
-0.982945, 241, 81, 368, 144
-0.982989, 81, 177, 208, 304
-0.983049, 301, 105, 332, 168
-0.983227, 361, 17, 424, 144
-0.983301, 173, 225, 204, 346
-0.983361, 137, 257, 168, 320
-0.983449, 345, 113, 376, 240
-0.983506, 185, 105, 248, 168
-0.983509, 369, 105, 432, 168
-0.98352, 261, 113, 292, 240
-0.983594, 305, 73, 336, 136
-0.98374, 209, 1, 336, 64
-0.983785, 353, 81, 480, 144
-0.983964, 381, 273, 412, 336
-0.984013, 253, 209, 284, 272
-0.984218, 253, 113, 284, 176
-0.984478, 129, 1, 256, 128
-0.984537, 341, 65, 372, 192
-0.98461, 341, 73, 372, 136
-0.984671, 337, 105, 464, 168
-0.984683, 133, 225, 164, 346
-0.984861, 425, 153, 488, 216
-0.984934, 157, 233, 188, 296
-0.984957, 425, 217, 488, 280
-0.985011, 65, 273, 192, 336
-0.985057, 337, 145, 400, 208
-0.985101, 229, 25, 260, 88
-0.98519, 341, 137, 372, 200
-0.985203, 441, 193, 472, 256
-0.985239, 369, 121, 400, 184
-0.985277, 421, 209, 452, 336
-0.985393, 429, 113, 460, 240
-0.985421, 265, 225, 296, 346
-0.985451, 265, 201, 296, 264
-0.985457, 393, 1, 456, 346
-0.985462, 289, 1, 352, 346
-0.985466, 193, 225, 224, 346
-0.985577, 369, 217, 496, 280
-0.985672, 241, 65, 304, 192
-0.985877, 361, 1, 424, 256
-0.985944, 433, 209, 464, 336
-0.985968, 417, 113, 480, 176
-0.985994, 177, 241, 208, 304
-0.986069, 201, 209, 264, 272
-0.986089, 265, 225, 296, 288
-0.986137, 361, 49, 424, 112
-0.986586, 285, 113, 316, 240
-0.986648, 33, 225, 160, 346
-0.9867, 97, 233, 224, 296
-0.986885, 401, 65, 432, 192
-0.986947, 97, 233, 160, 296
-0.987025, 353, 1, 416, 346
-0.98705, 193, 241, 224, 304
-0.987054, 273, 57, 400, 120
-0.987061, 417, 33, 480, 288
-0.987064, 317, 185, 348, 248
-0.987068, 221, 145, 252, 272
-0.987274, 209, 25, 336, 88
-0.987326, 333, 113, 364, 176
-0.987332, 33, 17, 288, 144
-0.987371, 429, 153, 460, 216
-0.987428, 257, 193, 500, 256
-0.98752, 417, 49, 448, 176
-0.98753, 185, 285, 248, 316
-0.987597, 161, 281, 192, 344
-0.987664, 241, 313, 304, 344
-0.987679, 129, 193, 256, 256
-0.987701, 185, 113, 248, 240
-0.987743, 313, 233, 376, 264
-0.987822, 209, 17, 272, 48
-0.98784, 329, 217, 392, 248
-0.987893, 1, 1, 128, 256
-0.987911, 337, 169, 368, 232
-0.987999, 409, 49, 472, 112
-0.988017, 145, 225, 176, 346
-0.988021, 361, 229, 424, 260
-0.988041, 273, 217, 336, 248
-0.988051, 249, 285, 312, 316
-0.988062, 353, 201, 416, 232
-0.988072, 289, 285, 352, 316
-0.988117, 145, 281, 208, 312
-0.988135, 281, 309, 344, 340
-0.98816, 377, 81, 408, 208
-0.9882, 369, 281, 400, 344
-0.988227, 209, 277, 272, 308
-0.988235, 393, 177, 456, 208
-0.988265, 265, 273, 328, 304
-0.988272, 353, 173, 416, 204
-0.988275, 185, 313, 248, 344
-0.988281, 153, 297, 216, 328
-0.988302, 233, 1, 296, 346
-0.988322, 145, 217, 208, 280
-0.988353, 177, 269, 240, 300
-0.988421, 369, 161, 432, 192
-0.988484, 273, 233, 336, 264
-0.988485, 209, 49, 272, 176
-0.988503, 225, 129, 288, 160
-0.988503, 425, 209, 488, 336
-0.988562, 397, 113, 428, 176
-0.988576, 217, 129, 248, 192
-0.988583, 329, 245, 392, 276
-0.98861, 297, 265, 360, 296
-0.988621, 313, 277, 376, 308
-0.988622, 137, 313, 200, 344
-0.988625, 217, 265, 280, 296
-0.988632, 137, 177, 200, 304
-0.988687, 257, 177, 320, 208
-0.988814, 289, 253, 352, 284
-0.988821, 289, 297, 352, 328
-0.988824, 361, 185, 424, 216
-0.988831, 217, 297, 280, 328
-0.98885, 265, 257, 328, 288
-0.988891, 321, 197, 384, 228
-0.98894, 385, 145, 448, 176
-0.988962, 353, 57, 480, 120
-0.988964, 369, 265, 496, 328
-0.988966, 145, 253, 208, 284
-0.989006, 297, 221, 360, 252
-0.98906, 345, 273, 408, 304
-0.989117, 249, 301, 312, 332
-0.989133, 225, 161, 480, 224
-0.989146, 229, 153, 260, 216
-0.989177, 289, 133, 352, 164
-0.989196, 433, 1, 496, 346
-0.989206, 329, 309, 392, 340
-0.989253, 257, 161, 288, 288
-0.989255, 225, 141, 288, 172
-0.989259, 153, 269, 216, 300
-0.989266, 305, 309, 368, 340
-0.989284, 361, 257, 424, 288
-0.989293, 257, 197, 320, 228
-0.989296, 417, 113, 448, 176
-0.989313, 409, 225, 440, 346
-0.989353, 225, 117, 288, 148
-0.989392, 233, 205, 296, 236
-0.989395, 385, 213, 448, 244
-0.989402, 249, 129, 312, 160
-0.989418, 161, 273, 416, 336
-0.989443, 253, 25, 284, 88
-0.989455, 289, 205, 352, 236
-0.98946, 233, 193, 296, 224
-0.98946, 237, 65, 268, 192
-0.989494, 281, 181, 344, 212
-0.989501, 385, 189, 448, 220
-0.989546, 385, 241, 448, 272
-0.989577, 321, 73, 384, 104
-0.989577, 353, 145, 416, 176
-0.989585, 329, 293, 392, 324
-0.989632, 241, 33, 272, 96
-0.989642, 393, 157, 456, 188
-0.989676, 273, 145, 336, 176
-0.989677, 273, 161, 336, 192
-0.989723, 177, 297, 240, 328
-0.989734, 233, 181, 296, 212
-0.989762, 353, 241, 416, 272
-0.989778, 249, 233, 280, 296
-0.989781, 233, 217, 296, 248
-0.989791, 393, 201, 456, 232
-0.989806, 225, 153, 288, 184
-0.989825, 241, 257, 304, 288
-0.989827, 129, 301, 192, 332
-0.989871, 233, 245, 296, 276
-0.989891, 369, 133, 432, 164
-0.989893, 161, 309, 224, 340
-0.9899, 289, 193, 352, 224
-0.989907, 369, 277, 432, 308
-0.989912, 329, 17, 392, 144
-0.989918, 225, 97, 256, 224
-0.989923, 321, 145, 384, 176
-0.989927, 185, 1, 248, 346
-0.989939, 297, 165, 360, 196
-0.989939, 137, 233, 168, 296
-0.989999, 249, 161, 312, 192
-0.990038, 193, 257, 256, 288
-0.99005, 137, 281, 168, 344
-0.990076, 225, 169, 288, 200
-0.99009, 169, 257, 232, 288
-0.990099, 249, 141, 312, 172
-0.990106, 241, 273, 304, 304
-0.990106, 297, 145, 360, 176
-0.990128, 241, 229, 304, 260
-0.99013, 297, 77, 360, 108
-0.99013, 329, 257, 392, 288
-0.990166, 337, 229, 400, 260
-0.99017, 353, 217, 416, 248
-0.990171, 193, 129, 448, 192
-0.990183, 233, 1, 296, 256
-0.990226, 1, 257, 500, 320
-0.990304, 185, 65, 248, 192
-0.990313, 329, 181, 392, 212
-0.990393, 357, 89, 388, 152
-0.990552, 417, 193, 480, 224
-0.99057, 361, 313, 424, 344
-0.990581, 177, 25, 240, 88
-0.990597, 185, 33, 248, 288
-0.990651, 353, 145, 384, 208
-0.990655, 121, 265, 184, 296
-0.990655, 113, 313, 176, 344
-0.990688, 217, 25, 248, 88
-0.990744, 225, 105, 480, 168
-0.990753, 441, 169, 472, 232
-0.99076, 289, 89, 320, 152
-0.990763, 209, 313, 272, 344
-0.990789, 345, 161, 408, 192
-0.990797, 297, 89, 360, 120
-0.990815, 385, 257, 448, 288
-0.990833, 345, 133, 408, 164
-0.990879, 265, 245, 328, 276
-0.990891, 233, 21, 296, 52
-0.990905, 265, 117, 328, 148
-0.990934, 221, 177, 252, 240
-0.990967, 209, 33, 272, 64
-0.990999, 281, 33, 344, 160
-0.991052, 313, 129, 376, 160
-0.991092, 217, 5, 280, 36
-0.991167, 221, 225, 252, 346
-0.991169, 441, 161, 472, 288
-0.991173, 293, 65, 324, 192
-0.991179, 385, 229, 448, 260
-0.991221, 145, 309, 272, 340
-0.991239, 417, 173, 480, 204
-0.991246, 161, 241, 416, 304
-0.991277, 409, 221, 472, 252
-0.991311, 369, 289, 432, 320
-0.991368, 289, 41, 352, 104
-0.991388, 185, 25, 248, 56
-0.99139, 305, 105, 368, 136
-0.99142, 205, 225, 236, 346
-0.991446, 161, 209, 416, 272
-0.991473, 225, 105, 288, 136
-0.991485, 329, 89, 392, 120
-0.991491, 105, 301, 168, 332
-0.991495, 209, 245, 272, 276
-0.991502, 201, 133, 264, 164
-0.991506, 113, 289, 176, 320
-0.99151, 257, 1, 288, 128
-0.991521, 1, 281, 500, 344
-0.991523, 201, 121, 264, 152
-0.991532, 185, 153, 248, 216
-0.991534, 305, 177, 368, 208
-0.991562, 241, 97, 304, 160
-0.991594, 321, 33, 448, 96
-0.991598, 329, 113, 392, 144
-0.991603, 89, 313, 152, 344
-0.991629, 273, 301, 400, 332
-0.99163, 417, 205, 480, 236
-0.99171, 369, 301, 432, 332
-0.99171, 289, 121, 352, 152
-0.991723, 393, 269, 456, 300
-0.991744, 225, 17, 256, 48
-0.991749, 113, 1, 240, 64
-0.991763, 209, 181, 272, 212
-0.991791, 265, 97, 328, 128
-0.991796, 429, 197, 460, 228
-0.991809, 409, 145, 472, 176
-0.991821, 425, 161, 488, 192
-0.991823, 321, 157, 384, 188
-0.991827, 369, 109, 432, 140
-0.991844, 177, 301, 208, 332
-0.991878, 321, 41, 352, 104
-0.991889, 225, 313, 256, 344
-0.991892, 205, 1, 236, 64
-0.9919, 341, 205, 372, 236
-0.99195, 325, 245, 356, 276
-0.991952, 369, 201, 400, 232
-0.991956, 305, 253, 336, 284
-0.991961, 341, 233, 372, 264
-0.991982, 321, 213, 352, 244
-0.991982, 273, 313, 304, 344
-0.991999, 229, 129, 260, 160
-0.992004, 261, 313, 292, 344
-0.992025, 361, 221, 392, 252
-0.992026, 237, 17, 268, 48
-0.992026, 381, 209, 412, 240
-0.992028, 377, 177, 408, 208
-0.992029, 165, 301, 196, 332
-0.992034, 193, 269, 224, 300
-0.992038, 329, 89, 360, 152
-0.992047, 241, 125, 272, 156
-0.99205, 393, 153, 424, 184
-0.992052, 269, 277, 300, 308
-0.992053, 245, 301, 276, 332
-0.992054, 229, 265, 260, 296
-0.992056, 193, 293, 224, 324
-0.992058, 365, 237, 396, 268
-0.992071, 313, 265, 344, 296
-0.992078, 401, 241, 432, 272
-0.992084, 357, 177, 388, 208
-0.992086, 157, 277, 188, 308
-0.992089, 349, 305, 380, 336
-0.992092, 289, 297, 320, 328
-0.992094, 237, 141, 268, 172
-0.992096, 293, 309, 324, 340
-0.992101, 381, 113, 412, 176
-0.992104, 277, 197, 308, 228
-0.992106, 193, 281, 224, 312
-0.992108, 165, 313, 196, 344
-0.992117, 177, 281, 208, 312
-0.992118, 329, 201, 360, 232
-0.992121, 393, 181, 424, 212
-0.992127, 405, 169, 436, 200
-0.992128, 281, 1, 344, 256
-0.992132, 233, 277, 264, 308
-0.992133, 65, 273, 320, 336
-0.992134, 297, 161, 328, 192
-0.99214, 305, 241, 336, 272
-0.992147, 389, 165, 420, 196
-0.992156, 277, 181, 308, 212
-0.992158, 373, 221, 404, 252
-0.992167, 269, 293, 300, 324
-0.992186, 157, 261, 188, 292
-0.99219, 293, 181, 324, 212
-0.992191, 309, 149, 340, 180
-0.992194, 321, 225, 352, 256
-0.992196, 337, 217, 368, 248
-0.992201, 245, 313, 276, 344
-0.992203, 329, 273, 360, 304
-0.992208, 33, 177, 160, 304
-0.992213, 361, 201, 376, 264
-0.992215, 361, 273, 392, 304
-0.992216, 377, 253, 408, 284
-0.992219, 285, 237, 316, 268
-0.992225, 341, 49, 372, 112
-0.992225, 201, 313, 232, 344
-0.992227, 205, 269, 236, 300
-0.992236, 309, 225, 340, 256
-0.992243, 81, 113, 208, 240
-0.992252, 417, 169, 448, 200
-0.992255, 293, 285, 324, 316
-0.99226, 229, 301, 260, 332
-0.992273, 309, 289, 340, 320
-0.992273, 313, 277, 344, 308
-0.992282, 341, 193, 372, 224
-0.992285, 253, 261, 284, 292
-0.992285, 297, 273, 328, 304
-0.99229, 177, 269, 208, 300
-0.992296, 209, 301, 336, 332
-0.992298, 417, 149, 448, 180
-0.9923, 221, 285, 252, 316
-0.992304, 149, 313, 180, 344
-0.992307, 329, 261, 360, 292
-0.99233, 249, 281, 280, 312
-0.992334, 421, 181, 452, 212
-0.992337, 285, 265, 316, 296
-0.992343, 417, 225, 448, 256
-0.992344, 405, 141, 436, 172
-0.992348, 241, 265, 272, 296
-0.992355, 377, 165, 408, 196
-0.992356, 377, 233, 408, 264
-0.992362, 337, 305, 368, 336
-0.992363, 285, 169, 316, 200
-0.992363, 233, 113, 264, 144
-0.992369, 189, 309, 220, 340
-0.992369, 277, 213, 308, 244
-0.99237, 361, 289, 392, 320
-0.992371, 381, 145, 412, 176
-0.992373, 341, 261, 372, 292
-0.992376, 381, 269, 412, 300
-0.992377, 157, 289, 188, 320
-0.99238, 429, 169, 460, 200
-0.992383, 145, 301, 176, 332
-0.992391, 257, 209, 384, 240
-0.992396, 177, 313, 208, 344
-0.9924, 353, 237, 384, 268
-0.992406, 213, 297, 244, 328
-0.99241, 257, 1, 320, 346
-0.992415, 405, 153, 436, 184
-0.992421, 253, 21, 284, 52
-0.992427, 297, 221, 328, 252
-0.992427, 405, 181, 436, 212
-0.992429, 285, 249, 316, 280
-0.992432, 393, 133, 424, 164
-0.992436, 397, 261, 428, 292
-0.992438, 289, 237, 416, 268
-0.992445, 213, 309, 244, 340
-0.992445, 305, 305, 336, 336
-0.992452, 353, 209, 384, 240
-0.992459, 361, 249, 392, 280
-0.992459, 425, 241, 456, 304
-0.992466, 169, 1, 232, 64
-0.992467, 169, 257, 200, 288
-0.992476, 265, 265, 296, 296
-0.992477, 353, 69, 384, 100
-0.992479, 209, 285, 240, 316
-0.992479, 261, 185, 292, 216
-0.992485, 293, 145, 324, 176
-0.992491, 257, 301, 288, 332
-0.992497, 233, 161, 264, 288
-0.992513, 281, 281, 312, 312
-0.992514, 381, 189, 412, 220
-0.992523, 309, 129, 340, 160
-0.992523, 393, 213, 424, 244
-0.992525, 361, 305, 392, 336
-0.992525, 293, 209, 324, 240
-0.992525, 389, 225, 420, 256
-0.992528, 345, 285, 376, 316
-0.99253, 133, 309, 164, 340
-0.992541, 273, 169, 304, 200
-0.992544, 341, 249, 372, 280
-0.992548, 345, 193, 360, 256
-0.992554, 291, 169, 306, 232
-0.992554, 237, 289, 268, 320
-0.992556, 417, 201, 448, 232
-0.992572, 349, 273, 380, 304
-0.992576, 81, 209, 144, 336
-0.992579, 161, 41, 288, 104
-0.992585, 429, 213, 460, 244
-0.992621, 281, 161, 296, 224
-0.992648, 273, 185, 400, 216
-0.992653, 217, 105, 248, 168
-0.99266, 273, 313, 400, 344
-0.992684, 161, 81, 288, 144
-0.99277, 145, 297, 272, 328
-0.992801, 289, 149, 416, 180
-0.992811, 321, 185, 448, 216
-0.992821, 351, 209, 366, 272
-0.99283, 229, 209, 260, 272
-0.992869, 213, 1, 244, 128
-0.992873, 241, 193, 272, 256
-0.992879, 239, 121, 254, 184
-0.992909, 225, 313, 352, 344
-0.992912, 191, 273, 206, 336
-0.992919, 333, 273, 348, 336
-0.992973, 209, 169, 336, 200
-0.992992, 213, 281, 228, 344
-0.992995, 301, 273, 316, 336
-0.993026, 321, 249, 448, 280
-0.993029, 357, 113, 388, 176
-0.99305, 261, 273, 276, 336
-0.993109, 245, 17, 260, 80
-0.993125, 277, 137, 308, 200
-0.993163, 389, 169, 404, 232
-0.993165, 49, 265, 112, 328
-0.993174, 129, 169, 384, 232
-0.993183, 225, 221, 352, 252
-0.993192, 361, 169, 376, 232
-0.993203, 241, 129, 368, 160
-0.99321, 145, 269, 272, 300
-0.993229, 247, 113, 262, 176
-0.99325, 193, 289, 320, 320
-0.993265, 257, 233, 500, 296
-0.99328, 337, 197, 464, 228
-0.99331, 231, 1, 246, 64
-0.99331, 225, 197, 352, 228
-0.993315, 433, 193, 448, 256
-0.993334, 269, 281, 284, 344
-0.993345, 371, 177, 386, 240
-0.993364, 225, 241, 352, 272
-0.993365, 145, 281, 272, 312
-0.993368, 335, 193, 350, 256
-0.993387, 325, 273, 340, 336
-0.993392, 307, 145, 322, 208
-0.993398, 253, 121, 268, 184
-0.993421, 209, 57, 336, 120
-0.993459, 273, 173, 400, 204
-0.993463, 381, 161, 396, 224
-0.993487, 433, 41, 496, 104
-0.99349, 259, 113, 274, 176
-0.993498, 273, 289, 400, 320
-0.9935, 209, 181, 336, 212
-0.993504, 393, 209, 408, 272
-0.993509, 291, 281, 306, 344
-0.993513, 249, 273, 264, 336
-0.99352, 197, 273, 212, 336
-0.993522, 323, 209, 338, 272
-0.993537, 215, 257, 230, 320
-0.993563, 351, 185, 366, 248
-0.993566, 371, 233, 386, 296
-0.993594, 373, 281, 388, 344
-0.993594, 367, 209, 382, 272
-0.993623, 225, 273, 240, 336
-0.993628, 443, 169, 458, 232
-0.993635, 297, 193, 312, 256
-0.993639, 271, 185, 286, 248
-0.99364, 241, 257, 368, 288
-0.993698, 1, 273, 128, 336
-0.993705, 239, 17, 254, 80
-0.993708, 113, 177, 176, 304
-0.993709, 153, 257, 168, 320
-0.993713, 311, 273, 326, 336
-0.993716, 313, 121, 328, 184
-0.993719, 49, 233, 176, 296
-0.993722, 185, 273, 200, 336
-0.993752, 257, 269, 384, 300
-0.993756, 239, 97, 254, 160
-0.99377, 291, 145, 306, 208
-0.993772, 305, 221, 432, 252
-0.993785, 317, 249, 332, 312
-0.993788, 387, 145, 402, 208
-0.993797, 381, 201, 396, 264
-0.993799, 219, 281, 234, 344
-0.993808, 409, 281, 472, 344
-0.993823, 363, 281, 378, 344
-0.993825, 299, 137, 314, 200
-0.993835, 353, 173, 480, 204
-0.993838, 321, 265, 448, 296
-0.993845, 273, 197, 400, 228
-0.993856, 281, 193, 296, 256
-0.993881, 209, 153, 336, 184
-0.993916, 363, 241, 378, 304
-0.993947, 145, 257, 272, 288
-0.993967, 161, 81, 416, 144
-0.99397, 353, 233, 368, 296
-0.993974, 97, 169, 224, 232
-0.993983, 287, 209, 302, 272
-0.993997, 349, 17, 380, 144
-0.994006, 401, 89, 464, 152
-0.994008, 399, 185, 414, 248
-0.99401, 249, 65, 280, 192
-0.994017, 343, 249, 358, 312
-0.994019, 421, 161, 436, 224
-0.994026, 257, 81, 500, 144
-0.994048, 241, 273, 256, 336
-0.994066, 33, 201, 160, 264
-0.994069, 233, 121, 248, 184
-0.994098, 209, 269, 336, 300
-0.994099, 279, 241, 294, 304
-0.994105, 305, 129, 432, 160
-0.994118, 305, 209, 432, 240
-0.994123, 403, 241, 418, 304
-0.994134, 207, 281, 222, 344
-0.994139, 403, 209, 418, 272
-0.994144, 209, 141, 336, 172
-0.994157, 355, 265, 370, 328
-0.994158, 177, 273, 192, 336
-0.994168, 277, 281, 292, 344
-0.994208, 343, 273, 358, 336
-0.994223, 321, 129, 336, 192
-0.994244, 409, 209, 424, 272
-0.99425, 1, 185, 500, 248
-0.994263, 397, 233, 412, 296
-0.994281, 317, 281, 332, 344
-0.994291, 251, 9, 266, 72
-0.994293, 323, 249, 338, 312
-0.994307, 161, 129, 288, 160
-0.994308, 329, 193, 344, 256
-0.994311, 171, 273, 186, 336
-0.994328, 413, 177, 428, 240
-0.994341, 437, 161, 452, 224
-0.994352, 349, 281, 364, 344
-0.994367, 365, 65, 380, 128
-0.994368, 413, 137, 428, 200
-0.99438, 255, 273, 270, 336
-0.99438, 273, 77, 400, 108
-0.994391, 97, 297, 224, 328
-0.994403, 317, 17, 348, 144
-0.994408, 289, 101, 416, 132
-0.994416, 185, 81, 248, 144
-0.994423, 209, 209, 336, 240
-0.994462, 225, 117, 352, 148
-0.994465, 257, 281, 500, 344
-0.994486, 329, 225, 344, 288
-0.994509, 185, 177, 248, 240
-0.99454, 313, 145, 328, 208
-0.994547, 161, 21, 288, 52
-0.994555, 311, 217, 326, 280
-0.994566, 321, 305, 448, 336
-0.994582, 393, 137, 408, 200
-0.994594, 403, 161, 418, 224
-0.994608, 299, 169, 314, 232
-0.994627, 317, 209, 332, 272
-0.994637, 1, 137, 500, 200
-0.994658, 209, 1, 272, 256
-0.994662, 337, 217, 352, 280
-0.994662, 235, 281, 250, 344
-0.994698, 427, 169, 442, 232
-0.994759, 279, 217, 294, 280
-0.994769, 417, 241, 480, 304
-0.994785, 289, 161, 416, 192
-0.994798, 297, 233, 312, 296
-0.994802, 337, 161, 464, 192
-0.994807, 371, 257, 386, 320
-0.994818, 427, 193, 442, 256
-0.994835, 65, 241, 320, 304
-0.994836, 249, 249, 264, 312
-0.994839, 385, 33, 448, 160
-0.994853, 305, 277, 432, 308
-0.994859, 343, 225, 358, 288
-0.994887, 283, 265, 298, 328
-0.994898, 233, 145, 248, 208
-0.994908, 441, 113, 472, 240
-0.994909, 385, 225, 400, 288
-0.994922, 161, 141, 288, 172
-0.994927, 439, 193, 454, 256
-0.994956, 269, 257, 284, 320
-0.994963, 257, 9, 272, 72
-0.994968, 371, 153, 386, 216
-0.994978, 305, 233, 320, 296
-0.994982, 177, 245, 304, 276
-0.99501, 169, 217, 232, 280
-0.995047, 97, 129, 352, 192
-0.99505, 161, 25, 416, 88
-0.995069, 445, 193, 460, 256
-0.995087, 241, 73, 304, 136
-0.995102, 291, 233, 306, 296
-0.995105, 81, 281, 208, 312
-0.995107, 273, 89, 400, 120
-0.995111, 377, 225, 392, 288
-0.995114, 387, 201, 402, 264
-0.995122, 257, 257, 500, 320
-0.995176, 377, 257, 392, 320
-0.995188, 327, 129, 342, 192
-0.995189, 1, 233, 500, 296
-0.995203, 289, 117, 416, 148
-0.995219, 331, 65, 346, 128
-0.995221, 1, 161, 500, 224
-0.995229, 435, 217, 450, 280
-0.99523, 273, 233, 288, 296
-0.995233, 65, 313, 192, 344
-0.995239, 449, 33, 480, 160
-0.995244, 427, 217, 442, 280
-0.995279, 265, 185, 280, 248
-0.995282, 191, 249, 206, 312
-0.995303, 33, 193, 288, 256
-0.995314, 81, 209, 208, 272
-0.995316, 403, 137, 418, 200
-0.995364, 273, 129, 304, 256
-0.995368, 225, 1, 240, 64
-0.995369, 337, 293, 464, 324
-0.995388, 33, 1, 288, 64
-0.995395, 337, 237, 464, 268
-0.995397, 209, 21, 336, 52
-0.995399, 329, 249, 344, 312
-0.99541, 421, 185, 436, 248
-0.995423, 129, 105, 384, 168
-0.995424, 245, 97, 276, 346
-0.995438, 397, 161, 412, 224
-0.995474, 369, 185, 496, 216
-0.995494, 311, 241, 326, 304
-0.995531, 353, 217, 480, 248
-0.995533, 209, 257, 224, 320
-0.995547, 289, 257, 304, 320
-0.99556, 161, 177, 288, 208
-0.995589, 303, 193, 318, 256
-0.995611, 263, 137, 278, 200
-0.995611, 417, 209, 432, 272
-0.995691, 161, 33, 288, 64
-0.995734, 97, 209, 160, 272
-0.99575, 325, 33, 356, 288
-0.99576, 113, 145, 240, 208
-0.995767, 97, 269, 224, 300
-0.99581, 1, 249, 128, 312
-0.995816, 161, 153, 288, 184
-0.995822, 149, 177, 180, 304
-0.995826, 177, 197, 304, 228
-0.99589, 121, 209, 152, 336
-0.995891, 225, 105, 352, 136
-0.995918, 193, 1, 448, 64
-0.995919, 337, 141, 464, 172
-0.995975, 309, 65, 340, 320
-0.99604, 97, 257, 224, 288
-0.996064, 385, 97, 416, 346
-0.996067, 397, 97, 428, 346
-0.996088, 161, 117, 288, 148
-0.996102, 337, 17, 368, 144
-0.996139, 193, 257, 320, 288
-0.996159, 161, 165, 288, 196
-0.996161, 353, 277, 480, 308
-0.996186, 341, 33, 372, 288
-0.996272, 1, 209, 500, 272
-0.996294, 257, 57, 500, 120
-0.996333, 129, 57, 384, 120
-0.996366, 351, 213, 366, 244
-0.996389, 461, 33, 492, 160
-0.996418, 291, 301, 306, 332
-0.996449, 229, 17, 244, 48
-0.996474, 381, 181, 396, 212
-0.996484, 273, 293, 288, 324
-0.996485, 177, 229, 304, 260
-0.996493, 153, 1, 216, 346
-0.99651, 257, 1, 384, 64
-0.99652, 169, 177, 200, 304
-0.996546, 305, 257, 320, 288
-0.996571, 235, 313, 250, 344
-0.996573, 209, 9, 336, 40
-0.996575, 289, 193, 304, 224
-0.996584, 297, 97, 328, 346
-0.996588, 113, 25, 240, 88
-0.996593, 369, 261, 496, 292
-0.996593, 331, 241, 346, 272
-0.9966, 245, 301, 260, 332
-0.996602, 365, 97, 396, 346
-0.996613, 433, 49, 464, 176
-0.996633, 431, 193, 446, 224
-0.996671, 297, 173, 312, 204
-0.996674, 65, 217, 320, 280
-0.996675, 353, 101, 480, 132
-0.99668, 389, 169, 404, 200
-0.99668, 219, 305, 234, 336
-0.996685, 323, 241, 338, 272
-0.996688, 161, 5, 288, 36
-0.996691, 287, 313, 302, 344
-0.996691, 321, 217, 336, 248
-0.996702, 369, 297, 384, 328
-0.996706, 195, 293, 210, 324
-0.996733, 285, 213, 300, 244
-0.996735, 281, 277, 296, 308
-0.996738, 321, 89, 448, 120
-0.996738, 267, 309, 282, 340
-0.996739, 359, 201, 374, 232
-0.996742, 369, 113, 496, 144
-0.99675, 351, 309, 366, 340
-0.996765, 33, 169, 288, 232
-0.996776, 97, 113, 224, 176
-0.996782, 287, 285, 302, 316
-0.996783, 243, 129, 258, 160
-0.996788, 49, 169, 176, 232
-0.996795, 191, 309, 206, 340
-0.996798, 161, 209, 288, 240
-0.996799, 279, 305, 294, 336
-0.996803, 233, 129, 248, 160
-0.996805, 411, 153, 426, 184
-0.996815, 299, 141, 314, 172
-0.996818, 331, 273, 346, 304
-0.996826, 167, 297, 182, 328
-0.996829, 363, 217, 378, 248
-0.996831, 233, 97, 264, 346
-0.996834, 273, 33, 400, 96
-0.996834, 353, 201, 368, 232
-0.996835, 353, 33, 384, 288
-0.996836, 391, 185, 406, 216
-0.996838, 261, 121, 276, 152
-0.996838, 379, 221, 394, 252
-0.996839, 223, 285, 238, 316
-0.996843, 49, 209, 112, 336
-0.996844, 327, 209, 342, 240
-0.996846, 305, 153, 320, 184
-0.996857, 261, 281, 276, 312
-0.996861, 155, 265, 170, 296
-0.996861, 97, 49, 224, 176
-0.996862, 341, 217, 356, 248
-0.996869, 321, 69, 448, 100
-0.996888, 387, 209, 402, 240
-0.996892, 285, 297, 300, 328
-0.996903, 351, 185, 366, 216
-0.996905, 157, 313, 172, 344
-0.996908, 235, 265, 250, 296
-0.99691, 311, 161, 326, 192
-0.996911, 337, 273, 352, 304
-0.996934, 249, 121, 264, 152
-0.996935, 249, 17, 264, 48
-0.996939, 437, 173, 452, 204
-0.99694, 249, 25, 312, 88
-0.996943, 281, 189, 296, 220
-0.996946, 299, 297, 314, 328
-0.996948, 335, 197, 350, 228
-0.996952, 289, 177, 304, 208
-0.996953, 359, 301, 374, 332
-0.996957, 431, 181, 446, 212
-0.996962, 359, 173, 374, 204
-0.996963, 179, 301, 194, 332
-0.99697, 273, 209, 288, 240
-0.99697, 315, 145, 330, 176
-0.996979, 421, 161, 436, 192
-0.996979, 379, 233, 394, 264
-0.996981, 205, 309, 220, 340
-0.996982, 315, 277, 330, 308
-0.996983, 295, 189, 310, 220
-0.996986, 163, 309, 178, 340
-0.996988, 331, 221, 346, 252
-0.996988, 237, 141, 252, 172
-0.997001, 435, 213, 450, 244
-0.997006, 315, 221, 330, 252
-0.997017, 453, 129, 484, 256
-0.997018, 351, 285, 366, 316
-0.99702, 441, 197, 456, 228
-0.997021, 155, 301, 170, 332
-0.997027, 225, 305, 240, 336
-0.99703, 409, 237, 424, 268
-0.997033, 359, 233, 374, 264
-0.997035, 387, 149, 402, 180
-0.997042, 275, 181, 290, 212
-0.997048, 285, 165, 300, 196
-0.997048, 261, 297, 276, 328
-0.997048, 365, 249, 380, 280
-0.997051, 339, 229, 354, 260
-0.997053, 371, 237, 386, 268
-0.997055, 189, 289, 204, 320
-0.997057, 405, 169, 420, 200
-0.997058, 213, 293, 228, 324
-0.997059, 209, 261, 224, 292
-0.997071, 417, 65, 448, 320
-0.997072, 399, 253, 414, 284
-0.997073, 217, 269, 232, 300
-0.997073, 263, 21, 278, 52
-0.997077, 247, 273, 262, 304
-0.997083, 313, 297, 328, 328
-0.997085, 159, 277, 174, 308
-0.997088, 427, 149, 442, 180
-0.997089, 251, 309, 266, 340
-0.997092, 307, 269, 322, 300
-0.997092, 415, 241, 430, 272
-0.997093, 375, 289, 390, 320
-0.997095, 299, 253, 314, 284
-0.997095, 371, 257, 386, 288
-0.997099, 305, 169, 320, 200
-0.99711, 161, 105, 288, 136
-0.997115, 343, 201, 358, 232
-0.997118, 205, 281, 220, 312
-0.997121, 255, 125, 270, 156
-0.997123, 341, 245, 356, 276
-0.997126, 395, 213, 410, 244
-0.997129, 235, 281, 250, 312
-0.99713, 359, 313, 374, 344
-0.99713, 317, 265, 332, 296
-0.997131, 321, 285, 336, 316
-0.997133, 379, 169, 394, 200
-0.99714, 403, 141, 418, 172
-0.997143, 363, 277, 378, 308
-0.997145, 239, 17, 254, 48
-0.997155, 253, 269, 268, 300
-0.997159, 279, 213, 294, 244
-0.997163, 303, 233, 318, 264
-0.99717, 415, 141, 430, 172
-0.997172, 261, 309, 276, 340
-0.997179, 279, 225, 294, 256
-0.997202, 371, 269, 386, 300
-0.997202, 293, 313, 308, 344
-0.997204, 213, 313, 228, 344
-0.997206, 317, 249, 332, 280
-0.997207, 277, 261, 292, 292
-0.997209, 333, 293, 348, 324
-0.997218, 209, 89, 336, 120
-0.997294, 65, 245, 192, 276
-0.997306, 273, 97, 304, 346
-0.997308, 129, 189, 256, 220
-0.997332, 129, 193, 192, 256
-0.997371, 97, 57, 224, 120
-0.997449, 97, 89, 224, 152
-0.99764, 81, 1, 208, 128
-0.997704, 369, 17, 496, 144
-0.997718, 81, 161, 144, 288
-0.997727, 49, 301, 176, 332
-0.997752, 121, 217, 184, 280
-0.997793, 257, 97, 288, 346
-0.997803, 89, 169, 152, 232
-0.997836, 369, 249, 496, 280
-0.997851, 1, 105, 500, 168
-0.997857, 221, 97, 252, 346
-0.997865, 33, 105, 288, 168
-0.997887, 65, 25, 320, 88
-0.997906, 217, 81, 280, 144
-0.997938, 429, 65, 460, 320
-0.997939, 285, 97, 316, 346
-0.99794, 113, 13, 240, 44
-0.997967, 369, 129, 496, 160
-0.998001, 273, 65, 400, 96
-0.998003, 185, 177, 216, 304
-0.998044, 369, 25, 496, 88
-0.99805, 225, 65, 352, 96
-0.998081, 113, 241, 240, 272
-0.998135, 321, 57, 448, 88
-0.998141, 225, 77, 352, 108
-0.998174, 65, 169, 128, 232
-0.998268, 209, 33, 336, 64
-0.998316, 217, 21, 280, 36
-0.998328, 49, 241, 112, 304
-0.998354, 289, 145, 352, 160
-0.998366, 289, 309, 352, 324
-0.998375, 249, 289, 312, 304
-0.998375, 153, 275, 216, 290
-0.998378, 161, 177, 224, 304
-0.998382, 225, 131, 288, 146
-0.998386, 321, 247, 384, 262
-0.99839, 289, 223, 352, 238
-0.998393, 297, 17, 328, 144
-0.998396, 49, 265, 176, 296
-0.9984, 353, 275, 416, 290
-0.998403, 137, 319, 200, 334
-0.998404, 321, 239, 384, 254
-0.998406, 153, 309, 216, 324
-0.998407, 249, 177, 312, 192
-0.998407, 241, 317, 304, 332
-0.99841, 297, 229, 360, 244
-0.99841, 217, 139, 280, 154
-0.99841, 329, 219, 392, 234
-0.998413, 281, 315, 344, 330
-0.998415, 353, 253, 416, 268
-0.998415, 385, 185, 448, 200
-0.99842, 361, 237, 424, 252
-0.998421, 265, 279, 328, 294
-0.998424, 401, 179, 464, 194
-0.998425, 153, 299, 216, 314
-0.998426, 289, 289, 352, 304
-0.998426, 145, 269, 208, 284
-0.998426, 129, 225, 256, 256
-0.998427, 273, 243, 336, 258
-0.998429, 273, 273, 336, 288
-0.998429, 345, 177, 408, 192
-0.99843, 345, 211, 408, 226
-0.99843, 225, 331, 288, 346
-0.99843, 385, 173, 448, 188
-0.99843, 185, 285, 248, 300
-0.998431, 289, 255, 352, 270
-0.998433, 153, 281, 216, 296
-0.998433, 225, 281, 288, 296
-0.998435, 369, 179, 432, 194
-0.998436, 73, 249, 136, 312
-0.998439, 401, 191, 464, 206
-0.998439, 217, 145, 280, 160
-0.99844, 313, 295, 376, 310
-0.998442, 273, 163, 336, 178
-0.998443, 129, 329, 192, 344
-0.998444, 305, 217, 368, 232
-0.998444, 265, 259, 328, 274
-0.998445, 169, 267, 232, 282
-0.998445, 161, 325, 224, 340
-0.998445, 297, 235, 360, 250
-0.998446, 249, 297, 312, 312
-0.998447, 273, 329, 336, 344
-0.99845, 169, 315, 232, 330
-0.998452, 289, 295, 352, 310
-0.998452, 281, 211, 344, 226
-0.998452, 377, 165, 440, 180
-0.998455, 369, 269, 432, 284
-0.998455, 249, 311, 312, 326
-0.998455, 153, 287, 216, 302
-0.998455, 305, 271, 368, 286
-0.998455, 225, 273, 288, 288
-0.998456, 185, 331, 248, 346
-0.998458, 289, 279, 352, 294
-0.99846, 385, 217, 448, 232
-0.998465, 145, 263, 208, 278
-0.998465, 353, 185, 416, 200
-0.998466, 353, 243, 416, 258
-0.998467, 361, 155, 424, 170
-0.998468, 273, 229, 336, 244
-0.998468, 297, 331, 360, 346
-0.998469, 217, 293, 280, 308
-0.998469, 305, 325, 368, 340
-0.99847, 321, 253, 384, 268
-0.998471, 249, 183, 312, 198
-0.998473, 321, 331, 384, 346
-0.998474, 225, 125, 288, 140
-0.998476, 313, 289, 376, 304
-0.998477, 249, 139, 312, 154
-0.998477, 313, 301, 376, 316
-0.998478, 369, 259, 432, 274
-0.998479, 337, 225, 400, 240
-0.998481, 329, 317, 392, 332
-0.998481, 249, 145, 312, 160
-0.998483, 225, 287, 288, 302
-0.998483, 385, 151, 448, 166
-0.998483, 369, 191, 432, 206
-0.998485, 193, 277, 256, 292
-0.998486, 405, 161, 420, 288
-0.998486, 329, 273, 392, 288
-0.998487, 289, 303, 352, 318
-0.998487, 273, 171, 336, 186
-0.998487, 353, 171, 416, 186
-0.998487, 257, 189, 320, 204
-0.998488, 385, 199, 448, 214
-0.99849, 249, 269, 312, 284
-0.998491, 233, 207, 296, 222
-0.998491, 369, 231, 432, 246
-0.998491, 249, 171, 312, 186
-0.998493, 185, 303, 248, 318
-0.998494, 329, 279, 392, 294
-0.998496, 361, 217, 424, 232
-0.998496, 321, 211, 384, 226
-0.998497, 145, 293, 208, 308
-0.998497, 273, 179, 336, 194
-0.998498, 313, 307, 376, 322
-0.998499, 225, 303, 288, 318
-0.9985, 361, 281, 424, 296
-0.998501, 353, 203, 416, 218
-0.998503, 201, 325, 264, 340
-0.998503, 249, 331, 312, 346
-0.998504, 209, 313, 272, 328
-0.998504, 233, 197, 296, 212
-0.998504, 257, 323, 320, 338
-0.998505, 401, 207, 464, 222
-0.998509, 209, 265, 272, 280
-0.998509, 289, 151, 352, 166
-0.998509, 121, 313, 184, 328
-0.99851, 297, 265, 360, 280
-0.998511, 393, 157, 456, 172
-0.998511, 353, 149, 416, 164
-0.998513, 233, 223, 296, 238
-0.998514, 257, 203, 320, 218
-0.998514, 161, 331, 224, 346
-0.998515, 225, 119, 288, 134
-0.998516, 225, 325, 288, 340
-0.998516, 385, 247, 448, 262
-0.998517, 273, 235, 336, 250
-0.998518, 233, 263, 296, 278
-0.998519, 209, 31, 272, 46
-0.998519, 129, 301, 192, 316
-0.998521, 257, 215, 320, 230
-0.998522, 265, 305, 328, 320
-0.998522, 257, 195, 320, 210
-0.998523, 321, 201, 384, 216
-0.998553, 353, 209, 368, 336
-0.998553, 1, 73, 500, 136
-0.998558, 341, 331, 372, 346
-0.998558, 273, 223, 304, 238
-0.998558, 285, 295, 316, 310
-0.998561, 341, 195, 372, 210
-0.998562, 229, 137, 260, 152
-0.998562, 285, 275, 316, 290
-0.998562, 197, 331, 228, 346
-0.998563, 309, 229, 340, 244
-0.998564, 209, 287, 240, 302
-0.998564, 353, 283, 384, 298
-0.998564, 245, 139, 276, 154
-0.998564, 401, 215, 432, 230
-0.998564, 273, 285, 304, 300
-0.998565, 301, 281, 332, 296
-0.998565, 373, 173, 404, 188
-0.998566, 269, 183, 300, 198
-0.998566, 225, 281, 256, 296
-0.998567, 249, 283, 280, 298
-0.998567, 301, 323, 332, 338
-0.998567, 349, 205, 380, 220
-0.998568, 249, 301, 280, 316
-0.998568, 225, 323, 256, 338
-0.998569, 305, 315, 336, 330
-0.998569, 401, 191, 432, 206
-0.998569, 325, 247, 356, 262
-0.99857, 273, 327, 304, 342
-0.99857, 333, 229, 364, 244
-0.99857, 133, 317, 164, 332
-0.99857, 333, 279, 364, 294
-0.998573, 157, 321, 188, 336
-0.998574, 305, 167, 336, 182
-0.998574, 317, 225, 332, 346
-0.998575, 377, 183, 408, 198
-0.998576, 277, 209, 308, 224
-0.998579, 389, 191, 420, 206
-0.998579, 341, 255, 372, 270
-0.998579, 377, 255, 408, 270
-0.998579, 369, 201, 400, 216
-0.998579, 141, 331, 172, 346
-0.998579, 425, 193, 456, 208
-0.998582, 305, 267, 336, 282
-0.998582, 353, 277, 384, 292
-0.998582, 241, 277, 272, 292
-0.998584, 145, 321, 176, 336
-0.998584, 369, 305, 496, 336
-0.998584, 193, 293, 224, 308
-0.998586, 337, 289, 368, 304
-0.998586, 357, 183, 388, 198
-0.998588, 345, 241, 376, 256
-0.998588, 197, 313, 228, 328
-0.998588, 369, 273, 400, 288
-0.998589, 293, 145, 324, 160
-0.99859, 353, 317, 384, 332
-0.998591, 373, 165, 404, 180
-0.998593, 373, 33, 404, 160
-0.998593, 197, 271, 228, 286
-0.998594, 337, 317, 368, 332
-0.998595, 325, 193, 340, 320
-0.998596, 177, 267, 208, 282
-0.998598, 305, 151, 336, 166
-0.998598, 413, 183, 444, 198
-0.998601, 253, 311, 284, 326
-0.998602, 381, 219, 412, 234
-0.998602, 329, 205, 360, 220
-0.998603, 369, 209, 400, 224
-0.998603, 285, 191, 316, 206
-0.998603, 389, 171, 420, 186
-0.998603, 273, 215, 304, 230
-0.998604, 417, 173, 448, 188
-0.998605, 257, 29, 288, 44
-0.998605, 353, 221, 384, 236
-0.998606, 379, 145, 394, 272
-0.998607, 285, 325, 316, 340
-0.998608, 357, 177, 388, 192
-0.998608, 289, 289, 320, 304
-0.998609, 321, 297, 352, 312
-0.99861, 277, 199, 308, 214
-0.99861, 209, 309, 240, 324
-0.998611, 357, 323, 388, 338
-0.998611, 197, 265, 228, 280
-0.998611, 381, 209, 412, 224
-0.998613, 353, 329, 384, 344
-0.998613, 287, 161, 302, 288
-0.998613, 305, 225, 320, 346
-0.998614, 385, 149, 416, 164
-0.998614, 209, 331, 240, 346
-0.998614, 309, 289, 340, 304
-0.998614, 177, 311, 208, 326
-0.998615, 237, 145, 268, 160
-0.998617, 257, 289, 288, 304
-0.998617, 417, 145, 432, 272
-0.998617, 421, 199, 452, 214
-0.998618, 361, 259, 392, 274
-0.998621, 177, 327, 208, 342
-0.998622, 153, 313, 184, 328
-0.998622, 397, 263, 428, 278
-0.998624, 157, 299, 188, 314
-0.998624, 357, 305, 388, 320
-0.998625, 401, 177, 432, 192
-0.998627, 289, 309, 320, 324
-0.998627, 285, 185, 316, 200
-0.998628, 157, 259, 188, 274
-0.998628, 303, 177, 318, 304
-0.998629, 169, 317, 200, 332
-0.99863, 441, 65, 472, 320
-0.99863, 153, 269, 184, 284
-0.998631, 269, 189, 300, 204
-0.998632, 377, 265, 408, 280
-0.998634, 165, 305, 196, 320
-0.998634, 233, 131, 264, 146
-0.998634, 165, 275, 196, 290
-0.998634, 437, 177, 452, 304
-0.998637, 161, 329, 192, 344
-0.998637, 413, 149, 444, 164
-0.998638, 225, 315, 256, 330
-0.99864, 177, 301, 208, 316
-0.99864, 221, 303, 252, 318
-0.998642, 321, 255, 352, 270
-0.998642, 281, 319, 312, 334
-0.998644, 363, 161, 378, 288
-0.998645, 225, 19, 256, 34
-0.998645, 321, 231, 352, 246
-0.998645, 305, 299, 336, 314
-0.998646, 241, 309, 272, 324
-0.998646, 245, 319, 276, 334
-0.998648, 305, 157, 336, 172
-0.998649, 285, 175, 316, 190
-0.99865, 337, 325, 368, 340
-0.998652, 365, 1, 396, 256
-0.998653, 237, 1, 268, 256
-0.998656, 333, 223, 364, 238
-0.998657, 261, 325, 292, 340
-0.998659, 357, 311, 388, 326
-0.998659, 165, 311, 196, 326
-0.99866, 369, 209, 384, 336
-0.99866, 397, 157, 428, 172
-0.998662, 395, 129, 410, 256
-0.998666, 299, 225, 314, 346
-0.998669, 337, 209, 352, 336
-0.998672, 341, 215, 372, 230
-0.998677, 357, 237, 388, 252
-0.998679, 393, 183, 424, 198
-0.998681, 225, 329, 256, 344
-0.998684, 193, 283, 224, 298
-0.998684, 313, 223, 344, 238
-0.998685, 305, 259, 336, 274
-0.998686, 399, 193, 414, 320
-0.998689, 269, 317, 300, 332
-0.99869, 311, 113, 326, 240
-0.998712, 243, 97, 258, 224
-0.998723, 423, 145, 438, 272
-0.998731, 113, 25, 240, 56
-0.998733, 225, 49, 256, 176
-0.998739, 385, 145, 400, 272
-0.99874, 445, 209, 476, 336
-0.998747, 297, 177, 312, 304
-0.998752, 1, 225, 128, 288
-0.998755, 321, 217, 352, 232
-0.998765, 343, 209, 358, 336
-0.99877, 97, 201, 224, 232
-0.998775, 431, 161, 446, 288
-0.998777, 381, 193, 396, 320
-0.998793, 321, 65, 336, 192
-0.998798, 347, 161, 362, 288
-0.998803, 277, 177, 292, 304
-0.998811, 275, 225, 290, 346
-0.998813, 257, 25, 500, 88
-0.998814, 317, 113, 332, 240
-0.998819, 311, 225, 326, 346
-0.998824, 309, 177, 324, 304
-0.998827, 357, 161, 372, 288
-0.998834, 247, 33, 262, 160
-0.998836, 377, 1, 408, 256
-0.998861, 387, 209, 402, 336
-0.998861, 237, 97, 252, 224
-0.99887, 393, 177, 408, 304
-0.998874, 331, 209, 346, 336
-0.998878, 373, 145, 388, 272
-0.998887, 411, 177, 426, 304
-0.998902, 253, 113, 268, 240
-0.998904, 315, 65, 330, 192
-0.99891, 335, 129, 350, 256
-0.998918, 271, 177, 286, 304
-0.998922, 161, 93, 288, 124
-0.998931, 249, 225, 264, 346
-0.998932, 81, 221, 208, 252
-0.998935, 157, 225, 172, 346
-0.998942, 305, 129, 320, 256
-0.998943, 315, 177, 330, 304
-0.998949, 329, 113, 344, 240
-0.998961, 369, 53, 496, 84
-0.998965, 113, 165, 240, 196
-0.998969, 369, 65, 384, 192
-0.998976, 411, 113, 426, 240
-0.998979, 405, 209, 420, 336
-0.998993, 453, 33, 484, 288
-0.998997, 375, 225, 390, 346
-0.999, 241, 33, 256, 160
-0.999007, 287, 209, 302, 336
-0.999027, 323, 129, 338, 256
-0.999029, 261, 113, 276, 240
-0.999031, 33, 209, 160, 240
-0.999033, 379, 97, 394, 224
-0.999034, 299, 129, 314, 256
-0.999036, 235, 145, 250, 272
-0.999038, 443, 161, 458, 288
-0.99904, 359, 225, 374, 346
-0.999063, 257, 1, 272, 128
-0.999064, 269, 225, 284, 346
-0.999064, 331, 65, 346, 192
-0.999067, 341, 65, 356, 192
-0.999067, 113, 177, 240, 208
-0.999068, 423, 209, 438, 336
-0.999071, 397, 1, 428, 256
-0.999072, 293, 129, 308, 256
-0.999078, 369, 69, 496, 100
-0.999085, 297, 1, 328, 256
-0.999097, 341, 161, 356, 288
-0.999098, 97, 225, 128, 346
-0.999107, 267, 129, 282, 256
-0.999111, 263, 177, 278, 304
-0.999142, 363, 49, 378, 176
-0.999144, 281, 225, 296, 346
-0.999148, 33, 289, 160, 320
-0.999156, 431, 209, 446, 336
-0.999156, 185, 225, 200, 346
-0.999161, 81, 189, 208, 220
-0.999162, 239, 225, 254, 346
-0.999194, 309, 65, 324, 192
-0.999197, 429, 113, 444, 240
-0.9992, 65, 233, 192, 264
-0.999205, 423, 97, 438, 224
-0.999217, 389, 97, 404, 224
-0.999221, 367, 113, 382, 240
-0.999225, 207, 225, 222, 346
-0.99924, 279, 129, 294, 256
-0.999254, 255, 225, 270, 346
-0.999263, 229, 1, 244, 128
-0.999266, 293, 225, 308, 346
-0.999268, 235, 1, 250, 128
-0.999271, 175, 225, 190, 346
-0.999274, 369, 85, 496, 116
-0.999274, 265, 1, 328, 64
-0.999277, 401, 113, 416, 240
-0.999281, 245, 145, 260, 272
-0.999282, 1, 273, 128, 304
-0.999285, 213, 225, 228, 346
-0.999286, 343, 113, 358, 240
-0.999289, 113, 1, 240, 32
-0.999296, 257, 177, 272, 304
-0.999299, 425, 17, 488, 80
-0.999301, 437, 97, 452, 224
-0.999303, 353, 113, 368, 240
-0.999313, 417, 97, 432, 224
-0.999318, 161, 45, 288, 76
-0.999321, 65, 201, 128, 264
-0.999322, 253, 49, 268, 176
-0.99933, 357, 65, 372, 192
-0.999353, 261, 225, 276, 346
-0.999361, 359, 113, 374, 240
-0.999364, 257, 17, 384, 48
-0.999366, 195, 209, 210, 336
-0.999372, 393, 225, 408, 346
-0.999378, 347, 65, 362, 192
-0.99938, 261, 65, 292, 192
-0.999381, 223, 225, 238, 346
-0.999388, 449, 177, 464, 304
-0.99939, 417, 193, 432, 320
-0.999401, 229, 129, 244, 256
-0.999404, 97, 129, 224, 160
-0.999408, 201, 225, 216, 346
-0.999409, 301, 81, 316, 208
-0.99943, 163, 225, 178, 346
-0.999436, 147, 225, 162, 346
-0.999442, 419, 49, 434, 176
-0.999444, 411, 225, 426, 346
-0.999454, 33, 221, 160, 252
-0.999467, 321, 45, 448, 76
-0.999477, 443, 113, 458, 240
-0.999489, 259, 65, 274, 192
-0.999495, 217, 1, 248, 256
-0.999496, 223, 1, 238, 128
-0.999517, 263, 1, 278, 128
-0.99953, 395, 81, 410, 208
-0.999536, 1, 57, 256, 120
-0.999537, 449, 113, 464, 240
-0.999538, 169, 225, 184, 346
-0.99955, 441, 225, 456, 346
-0.999568, 141, 225, 156, 346
-0.999586, 285, 1, 316, 256
-0.999591, 161, 81, 288, 112
-0.999603, 185, 177, 200, 304
-0.999607, 97, 153, 224, 184
-0.999616, 465, 33, 496, 288
-0.99962, 261, 1, 292, 256
-0.999634, 353, 17, 368, 144
-0.999635, 445, 49, 460, 176
-0.999635, 129, 1, 192, 346
-0.999662, 431, 49, 446, 176
-0.999676, 451, 49, 466, 176
-0.999678, 97, 41, 224, 72
-0.999678, 457, 33, 472, 160
-0.999686, 17, 253, 144, 284
-0.999692, 439, 33, 454, 160
-0.999705, 325, 17, 340, 144
-0.999706, 251, 177, 266, 304
-0.999708, 49, 145, 176, 208
-0.999709, 81, 105, 208, 136
-0.999712, 129, 97, 192, 346
-0.999713, 41, 201, 104, 264
-0.999737, 309, 157, 324, 172
-0.999738, 281, 183, 296, 198
-0.999738, 387, 225, 402, 240
-0.999738, 273, 193, 288, 208
-0.999738, 49, 173, 176, 204
-0.999739, 357, 299, 372, 314
-0.999739, 405, 185, 420, 200
-0.999739, 309, 167, 324, 182
-0.99974, 297, 327, 312, 342
-0.99974, 435, 173, 450, 188
-0.99974, 441, 171, 456, 186
-0.99974, 81, 141, 208, 172
-0.999741, 259, 291, 274, 306
-0.999741, 169, 319, 184, 334
-0.999741, 343, 325, 358, 340
-0.999741, 283, 207, 298, 222
-0.999741, 235, 145, 250, 160
-0.999743, 411, 239, 426, 254
-0.999743, 385, 165, 400, 180
-0.999743, 295, 197, 310, 212
-0.999744, 205, 293, 220, 308
-0.999744, 365, 255, 380, 270
-0.999744, 219, 307, 234, 322
-0.999744, 157, 315, 172, 330
-0.999746, 173, 273, 188, 288
-0.999746, 289, 293, 304, 308
-0.999747, 253, 281, 268, 296
-0.999747, 273, 295, 288, 310
-0.999748, 283, 309, 298, 324
-0.999748, 325, 293, 340, 308
-0.999749, 391, 191, 406, 206
-0.999749, 235, 317, 250, 332
-0.999749, 261, 301, 276, 316
-0.99975, 157, 273, 172, 288
-0.99975, 433, 197, 448, 212
-0.99975, 317, 261, 332, 276
-0.999751, 277, 315, 292, 330
-0.999751, 229, 315, 244, 330
-0.999751, 353, 199, 368, 214
-0.999751, 275, 185, 290, 200
-0.999751, 207, 283, 222, 298
-0.999751, 227, 19, 242, 34
-0.999751, 253, 317, 268, 332
-0.999751, 161, 255, 176, 270
-0.999752, 273, 199, 288, 214
-0.999753, 351, 313, 366, 328
-0.999754, 169, 305, 184, 320
-0.999754, 291, 311, 306, 326
-0.999754, 361, 175, 376, 190
-0.999754, 335, 201, 350, 216
-0.999754, 221, 329, 236, 344
-0.999754, 155, 331, 170, 346
-0.999755, 369, 175, 384, 190
-0.999756, 285, 285, 300, 300
-0.999756, 431, 191, 446, 206
-0.999756, 195, 283, 210, 298
-0.999757, 1, 305, 128, 336
-0.999757, 361, 185, 376, 200
-0.999757, 343, 289, 358, 304
-0.999757, 303, 269, 318, 284
-0.999757, 161, 61, 288, 92
-0.999757, 315, 329, 330, 344
-0.999758, 279, 295, 294, 310
-0.999759, 235, 279, 250, 294
-0.999759, 345, 209, 360, 224
-0.99976, 433, 81, 496, 144
-0.999761, 373, 271, 388, 286
-0.999762, 165, 313, 180, 328
-0.999762, 227, 331, 242, 346
-0.999762, 361, 321, 376, 336
-0.999762, 289, 299, 304, 314
-0.999763, 319, 299, 334, 314
-0.999764, 215, 265, 230, 280
-0.999765, 423, 217, 438, 232
-0.999766, 367, 169, 382, 184
-0.999766, 313, 293, 328, 308
-0.999766, 255, 141, 270, 156
-0.999767, 181, 331, 196, 346
-0.999767, 375, 261, 390, 276
-0.999767, 341, 281, 356, 296
-0.999767, 291, 189, 306, 204
-0.999767, 171, 295, 186, 310
-0.999768, 295, 289, 310, 304
-0.999769, 319, 151, 334, 166
-0.999769, 287, 175, 302, 190
-0.999769, 81, 117, 208, 148
-0.99977, 191, 313, 206, 328
-0.99977, 341, 217, 356, 232
-0.99977, 263, 315, 278, 330
-0.999772, 1, 161, 128, 224
-0.999772, 223, 321, 238, 336
-0.999772, 245, 307, 260, 322
-0.999772, 381, 225, 396, 240
-0.999773, 179, 325, 194, 340
-0.999773, 329, 211, 344, 226
-0.999773, 351, 323, 366, 338
-0.999773, 283, 169, 298, 184
-0.999774, 315, 307, 330, 322
-0.999775, 335, 223, 350, 238
-0.999775, 311, 279, 326, 294
-0.999775, 281, 197, 296, 212
-0.999775, 245, 273, 260, 288
-0.999778, 297, 177, 312, 192
-0.999779, 371, 185, 386, 200
-0.99978, 305, 151, 320, 166
-0.99978, 285, 315, 300, 330
-0.999781, 347, 279, 362, 294
-0.999782, 269, 311, 284, 326
-0.999783, 97, 53, 224, 84
-0.999783, 163, 269, 178, 284
-0.999785, 279, 321, 294, 336
-0.999786, 369, 37, 496, 68
-0.999787, 365, 239, 380, 254
-0.999787, 223, 289, 238, 304
-0.999787, 219, 313, 234, 328
-0.999788, 155, 267, 170, 282
-0.999788, 325, 219, 340, 234
-0.999788, 395, 181, 410, 196
-0.99979, 355, 277, 370, 292
-0.99979, 315, 157, 330, 172
-0.999793, 333, 229, 348, 244
-0.999794, 287, 323, 302, 338
-0.999795, 289, 207, 304, 222
-0.999795, 381, 189, 396, 204
-0.999795, 427, 197, 442, 212
-0.999796, 189, 303, 204, 318
-0.999799, 301, 143, 316, 158
-0.999799, 381, 171, 396, 186
-0.999801, 213, 81, 244, 208
-0.999802, 403, 155, 418, 170
-0.999803, 261, 29, 276, 44
-0.999804, 215, 327, 230, 342
-0.999804, 315, 223, 330, 238
-0.999811, 81, 89, 208, 120
-0.999811, 97, 77, 224, 108
-0.999819, 389, 173, 404, 188
-0.999821, 361, 209, 376, 224
-0.999824, 309, 273, 324, 288
-0.999824, 381, 195, 396, 210
-0.999838, 265, 23, 280, 38
-0.999843, 287, 213, 302, 228
-0.999861, 351, 215, 366, 230
-0.999867, 97, 1, 160, 346
-0.999887, 133, 97, 164, 346
-0.999945, 385, 57, 448, 120
-0.999972, 109, 209, 140, 336
-1.00005, 33, 129, 160, 256
-1.00011, 249, 1, 280, 256
-1.00016, 1, 1, 128, 64
-1.00018, 65, 81, 320, 144
-1.00029, 9, 233, 72, 296
-1.00035, 133, 177, 164, 304
-1.00042, 161, 97, 192, 346
-1.00051, 409, 1, 472, 128
-1.00052, 329, 25, 392, 88
-1.00052, 145, 105, 208, 168
-1.00053, 1, 145, 256, 208
-1.00053, 189, 97, 220, 346
-1.00057, 105, 97, 136, 346
-1.00059, 177, 97, 208, 346
-1.00062, 465, 113, 496, 240
-1.00063, 149, 97, 180, 346
-1.00064, 257, 49, 320, 112
-1.00065, 65, 1, 128, 346
-1.00065, 105, 97, 168, 346
-1.00066, 1, 201, 64, 264
-1.00083, 89, 97, 120, 346
-1.00084, 169, 1, 200, 256
-1.00088, 17, 1, 80, 346
-1.0009, 1, 49, 500, 112
-1.00091, 1, 129, 128, 192
-1.00094, 73, 97, 104, 346
-1.00096, 117, 97, 148, 346
-1.00097, 273, 1, 304, 256
-1.00098, 145, 129, 208, 192
-1.001, 209, 97, 240, 346
-1.001, 273, 1, 400, 128
-1.001, 49, 41, 176, 104
-1.0011, 57, 97, 88, 346
-1.0011, 57, 161, 120, 288
-1.00111, 77, 1, 108, 256
-1.00113, 13, 97, 44, 346
-1.00115, 25, 97, 56, 346
-1.00115, 49, 1, 176, 64
-1.00117, 49, 121, 176, 184
-1.00122, 205, 1, 236, 256
-1.00122, 117, 161, 148, 288
-1.00123, 93, 1, 124, 256
-1.00125, 105, 1, 136, 256
-1.00128, 133, 1, 164, 256
-1.00129, 185, 1, 216, 256
-1.0013, 1, 97, 32, 346
-1.00132, 37, 97, 68, 346
-1.00133, 145, 73, 208, 136
-1.00134, 41, 1, 104, 346
-1.00135, 5, 1, 36, 256
-1.00136, 65, 1, 96, 256
-1.00137, 149, 1, 180, 256
-1.00137, 389, 65, 420, 192
-1.00137, 49, 65, 176, 128
-1.00139, 1, 25, 128, 88
-1.0014, 121, 1, 152, 256
-1.00145, 41, 1, 72, 256
-1.00152, 145, 169, 208, 232
-1.00152, 369, 1, 496, 64
-1.00154, 53, 1, 84, 256
-1.00156, 21, 1, 52, 256
-1.00156, 321, 9, 448, 72
-1.00159, 49, 97, 176, 160
-1.00166, 145, 97, 208, 224
-1.00176, 361, 17, 392, 144
-1.0018, 1, 25, 500, 88
-1.00183, 97, 161, 128, 288
-1.00191, 145, 25, 208, 88
-1.00196, 77, 225, 108, 346
-1.00197, 1, 65, 128, 128
-1.00198, 369, 25, 432, 88
-1.00207, 273, 81, 304, 208
-1.0021, 1, 105, 128, 168
-1.00221, 41, 209, 72, 336
-1.00232, 41, 169, 104, 232
-1.00232, 161, 97, 224, 346
-1.00236, 61, 193, 92, 320
-1.00243, 9, 193, 72, 320
-1.00249, 169, 1, 232, 128
-1.00262, 145, 49, 208, 112
-1.00268, 73, 97, 136, 346
-1.00268, 1, 1, 500, 64
-1.00271, 145, 1, 208, 64
-1.00294, 17, 169, 80, 232
-1.00312, 73, 225, 136, 288
-1.00317, 169, 1, 200, 128
-1.00324, 417, 1, 448, 128
-1.00324, 401, 25, 464, 88
-1.00325, 145, 17, 208, 144
-1.00326, 161, 193, 224, 256
-1.00327, 65, 145, 128, 208
-1.00342, 169, 97, 200, 224
-1.00357, 73, 161, 104, 288
-1.00366, 201, 1, 232, 128
-1.00373, 169, 49, 200, 176
-1.00375, 89, 145, 152, 208
-1.00383, 85, 177, 116, 304
-1.00384, 433, 1, 464, 128
-1.00388, 121, 169, 184, 232
-1.00403, 29, 209, 60, 336
-1.00407, 453, 81, 484, 208
-1.00413, 49, 97, 112, 346
-1.00448, 145, 1, 208, 256
-1.00452, 393, 17, 424, 144
-1.00475, 53, 145, 84, 272
-1.00476, 25, 145, 56, 272
-1.00481, 109, 113, 140, 240
-1.00484, 201, 177, 232, 304
-1.0049, 33, 145, 96, 272
-1.00495, 41, 161, 72, 288
-1.00508, 5, 145, 36, 272
-1.00509, 277, 33, 308, 160
-1.0051, 73, 113, 104, 240
-1.00518, 93, 113, 124, 240
-1.00527, 5, 193, 36, 320
-1.00537, 189, 113, 220, 240
-1.00542, 1, 1, 128, 128
-1.00546, 129, 129, 160, 256
-1.00553, 17, 193, 48, 320
-1.00558, 89, 113, 152, 240
-1.00561, 189, 65, 220, 192
-1.00593, 1, 81, 128, 208
-1.00598, 185, 17, 216, 144
-1.00609, 149, 97, 180, 224
-1.0062, 149, 1, 180, 128
-1.00621, 129, 81, 160, 208
-1.00626, 89, 1, 152, 256
-1.00639, 65, 113, 128, 240
-1.00652, 9, 97, 72, 346
-1.00655, 61, 81, 92, 208
-1.00668, 149, 49, 180, 176
-1.00682, 49, 65, 176, 192
-1.00687, 65, 1, 128, 256
-1.00688, 73, 65, 104, 192
-1.00717, 1, 145, 64, 272
-1.00719, 121, 129, 184, 256
-1.00785, 41, 1, 104, 256
-1.00787, 113, 1, 176, 256
-1.00818, 1, 1, 64, 256
-1.00944, 113, 81, 176, 208
-1.01016, 105, 33, 168, 160
-1.01052, 17, 1, 80, 128
-1.01082, 49, 1, 112, 128
-1.01088, 49, 65, 112, 192
-1.01126, 25, 97, 88, 224
-1.01133, 73, 1, 136, 128
-1.01318, 25, 49, 88, 176
-1.01331, 81, 49, 144, 176
-1.01331, 1, 97, 64, 224
-1.01506, 1, 49, 64, 176
