1981
-0.438116, 1, 65, 500, 320
-0.540849, 1, 1, 500, 379
-0.57252, 33, 1, 288, 379
-0.607674, 225, 1, 480, 379
-0.685601, 129, 1, 384, 379
-0.705712, 65, 129, 320, 379
-0.71404, 225, 65, 480, 320
-0.836155, 1, 33, 256, 288
-0.848614, 129, 33, 384, 288
-0.86143, 257, 97, 384, 352
-0.873825, 1, 113, 500, 240
-0.879983, 305, 65, 432, 320
-0.88181, 369, 129, 496, 379
-0.885371, 1, 177, 500, 304
-0.890612, 321, 1, 448, 379
-0.890976, 81, 129, 208, 379
-0.891695, 369, 1, 496, 379
-0.8934, 1, 1, 128, 379
-0.893556, 177, 129, 304, 379
-0.894818, 33, 129, 160, 379
-0.895891, 257, 1, 384, 379
-0.896379, 97, 1, 224, 379
-0.901602, 145, 1, 272, 379
-0.904117, 129, 97, 256, 352
-0.906218, 49, 1, 176, 379
-0.906878, 369, 33, 496, 288
-0.910114, 33, 113, 288, 240
-0.910142, 225, 113, 480, 240
-0.911797, 129, 177, 384, 304
-0.913801, 1, 65, 500, 192
-0.915612, 241, 1, 368, 256
-0.919498, 225, 177, 480, 304
-0.920325, 1, 225, 500, 352
-0.921719, 209, 1, 336, 379
-0.922765, 193, 225, 448, 352
-0.924117, 161, 65, 416, 192
-0.926428, 177, 33, 304, 288
-0.927328, 1, 33, 128, 288
-0.927782, 81, 33, 208, 288
-0.928464, 305, 97, 432, 224
-0.931647, 257, 177, 384, 304
-0.931771, 345, 113, 408, 240
-0.931901, 129, 113, 384, 240
-0.93266, 369, 145, 496, 272
-0.932754, 305, 177, 432, 304
-0.933343, 321, 81, 384, 208
-0.933374, 257, 97, 384, 224
-0.935688, 345, 161, 408, 288
-0.936168, 385, 145, 448, 272
-0.937332, 33, 161, 288, 288
-0.941089, 113, 113, 240, 240
-0.942485, 337, 209, 400, 336
-0.943164, 1, 97, 64, 224
-0.943219, 369, 225, 496, 352
-0.943289, 65, 97, 192, 224
-0.94339, 73, 97, 136, 224
-0.944496, 313, 225, 376, 352
-0.944722, 321, 129, 384, 256
-0.94571, 257, 65, 500, 192
-0.9469, 129, 1, 256, 256
-0.947701, 17, 113, 144, 240
-0.947727, 369, 97, 496, 224
-0.947737, 177, 113, 304, 240
-0.947909, 313, 177, 376, 304
-0.948107, 297, 81, 360, 208
-0.948557, 25, 97, 88, 224
-0.948583, 121, 97, 184, 224
-0.948766, 321, 225, 448, 352
-0.95005, 49, 97, 112, 224
-0.950354, 361, 209, 424, 336
-0.950556, 321, 89, 384, 152
-0.950594, 161, 97, 224, 224
-0.951513, 97, 97, 160, 224
-0.952309, 409, 145, 472, 272
-0.952652, 1, 65, 256, 192
-0.953024, 193, 161, 320, 288
-0.953323, 97, 225, 352, 352
-0.953333, 249, 225, 312, 352
-0.953418, 225, 225, 352, 352
-0.954525, 1, 161, 128, 288
-0.954842, 425, 97, 488, 224
-0.955042, 225, 161, 288, 288
-0.955775, 385, 209, 448, 336
-0.956064, 257, 161, 320, 288
-0.956225, 433, 145, 496, 272
-0.956375, 1, 1, 64, 64
-0.956979, 385, 97, 448, 224
-0.957263, 185, 113, 248, 240
-0.957305, 313, 33, 376, 160
-0.957429, 337, 225, 400, 288
-0.957557, 1, 145, 64, 272
-0.957722, 329, 137, 392, 200
-0.957877, 241, 113, 304, 240
-0.958085, 433, 1, 496, 64
-0.959095, 145, 161, 272, 288
-0.959271, 273, 225, 400, 352
-0.959395, 81, 145, 144, 272
-0.959518, 329, 113, 392, 176
-0.959614, 1, 17, 500, 144
-0.959672, 257, 49, 384, 176
-0.960146, 345, 161, 408, 224
-0.96027, 41, 145, 104, 272
-0.960366, 273, 113, 336, 240
-0.960603, 1, 137, 64, 200
-0.960898, 257, 241, 320, 304
-0.960935, 289, 145, 352, 208
-0.961087, 297, 249, 360, 312
-0.961258, 65, 145, 192, 272
-0.961567, 1, 65, 128, 192
-0.961637, 121, 145, 184, 272
-0.961803, 1, 209, 256, 336
-0.962069, 361, 201, 424, 264
-0.962456, 209, 113, 272, 240
-0.962469, 369, 225, 432, 288
-0.962774, 225, 153, 288, 216
-0.962864, 201, 161, 264, 288
-0.962895, 353, 129, 416, 192
-0.962987, 1, 113, 64, 176
-0.964141, 385, 161, 448, 224
-0.964316, 113, 65, 240, 192
-0.964331, 337, 81, 368, 208
-0.964652, 369, 49, 496, 176
-0.964926, 297, 129, 360, 256
-0.965008, 345, 65, 408, 192
-0.965029, 121, 209, 184, 336
-0.965048, 1, 49, 64, 176
-0.965171, 1, 209, 64, 336
-0.965764, 41, 113, 104, 176
-0.966011, 313, 169, 376, 232
-0.966144, 313, 225, 376, 288
-0.966256, 177, 225, 304, 352
-0.966391, 249, 129, 312, 192
-0.967082, 161, 145, 224, 272
-0.967358, 289, 121, 352, 184
-0.967504, 337, 201, 400, 264
-0.967588, 73, 113, 136, 176
-0.967687, 341, 177, 372, 304
-0.968278, 97, 113, 160, 176
-0.96833, 305, 33, 432, 160
-0.96833, 333, 129, 364, 192
-0.968704, 345, 129, 376, 256
-0.968761, 289, 209, 352, 336
-0.968866, 341, 169, 372, 232
-0.968906, 121, 169, 184, 232
-0.968974, 249, 169, 312, 232
-0.969242, 1, 177, 64, 240
-0.969275, 257, 145, 384, 208
-0.96963, 249, 1, 312, 64
-0.969852, 97, 169, 160, 232
-0.969908, 389, 161, 420, 288
-0.969949, 1, 257, 64, 379
-0.970135, 49, 137, 112, 200
-0.970291, 345, 1, 408, 64
-0.970297, 225, 1, 288, 64
-0.970451, 153, 1, 216, 64
-0.970572, 305, 1, 368, 64
-0.970584, 137, 113, 200, 176
-0.970733, 377, 1, 440, 64
-0.970826, 225, 225, 288, 352
-0.970863, 337, 105, 368, 168
-0.970908, 193, 65, 320, 192
-0.970958, 57, 1, 120, 64
-0.971094, 73, 153, 136, 216
-0.971142, 369, 1, 496, 64
-0.971142, 353, 97, 416, 160
-0.971152, 113, 137, 176, 200
-0.971255, 41, 169, 104, 232
-0.97128, 25, 1, 88, 64
-0.971359, 433, 137, 496, 200
-0.971552, 129, 17, 384, 144
-0.971632, 345, 81, 376, 144
-0.971734, 257, 169, 384, 232
-0.97175, 409, 1, 472, 64
-0.971762, 337, 129, 400, 379
-0.971833, 329, 177, 360, 304
-0.971865, 333, 129, 364, 256
-0.972009, 305, 57, 368, 120
-0.972113, 25, 137, 88, 200
-0.97213, 377, 137, 440, 200
-0.972211, 201, 1, 264, 64
-0.972297, 81, 1, 144, 64
-0.972365, 281, 1, 344, 64
-0.972388, 393, 209, 456, 272
-0.972569, 129, 1, 192, 64
-0.972657, 433, 193, 496, 320
-0.97278, 345, 225, 376, 288
-0.972803, 1, 1, 32, 64
-0.972859, 401, 185, 464, 248
-0.972919, 425, 161, 488, 224
-0.972961, 305, 113, 432, 176
-0.973523, 177, 137, 240, 200
-0.973689, 369, 161, 496, 224
-0.973747, 105, 1, 168, 64
-0.973833, 385, 113, 448, 176
-0.97388, 161, 113, 224, 176
-0.973984, 1, 57, 64, 120
-0.973986, 177, 1, 240, 64
-0.973996, 145, 193, 208, 320
-0.974017, 349, 81, 380, 208
-0.974039, 257, 113, 384, 176
-0.974244, 201, 161, 264, 224
-0.974314, 353, 113, 384, 176
-0.974326, 369, 1, 496, 128
-0.974445, 321, 249, 384, 312
-0.974517, 321, 137, 448, 200
-0.974618, 257, 129, 320, 379
-0.974838, 137, 49, 200, 176
-0.974983, 409, 193, 472, 320
-0.975081, 465, 1, 496, 64
-0.975116, 337, 17, 400, 144
-0.975144, 73, 97, 104, 224
-0.975233, 305, 89, 432, 152
-0.97538, 1, 137, 128, 200
-0.975416, 277, 161, 308, 224
-0.975424, 1, 89, 64, 152
-0.975426, 393, 201, 424, 264
-0.97548, 297, 81, 360, 144
-0.9755, 401, 145, 432, 272
-0.975509, 97, 97, 128, 224
-0.975526, 185, 65, 248, 192
-0.975583, 297, 273, 360, 336
-0.975604, 409, 137, 472, 200
-0.975638, 289, 33, 352, 160
-0.975663, 273, 161, 304, 288
-0.975664, 289, 257, 352, 379
-0.975699, 45, 97, 76, 224
-0.97578, 61, 97, 92, 224
-0.975836, 225, 177, 288, 240
-0.975848, 257, 217, 320, 280
-0.975945, 261, 193, 292, 320
-0.975975, 321, 185, 448, 248
-0.976123, 433, 97, 496, 160
-0.976154, 1, 233, 64, 296
-0.976201, 193, 113, 256, 176
-0.976254, 145, 153, 208, 216
-0.976448, 225, 65, 288, 192
-0.976479, 345, 225, 376, 352
-0.976553, 1, 97, 32, 224
-0.976776, 225, 225, 288, 288
-0.976779, 321, 209, 448, 272
-0.976782, 241, 265, 304, 328
-0.976858, 369, 121, 496, 184
-0.977031, 177, 153, 304, 216
-0.9771, 1, 129, 64, 379
-0.977131, 257, 81, 384, 144
-0.977165, 113, 137, 240, 200
-0.97724, 273, 169, 336, 232
-0.977293, 313, 193, 376, 256
-0.977321, 1, 113, 128, 176
-0.977449, 225, 129, 288, 192
-0.977513, 157, 97, 188, 224
-0.97752, 109, 97, 140, 224
-0.977598, 1, 1, 64, 128
-0.977604, 201, 137, 264, 200
-0.977612, 121, 97, 152, 224
-0.977669, 289, 217, 352, 280
-0.97767, 177, 169, 240, 232
-0.977694, 81, 193, 208, 320
-0.977707, 337, 57, 368, 120
-0.977748, 81, 113, 208, 176
-0.977784, 49, 49, 176, 176
-0.977865, 33, 17, 288, 144
-0.977884, 369, 217, 496, 280
-0.977921, 433, 129, 496, 379
-0.977954, 257, 153, 288, 216
-0.977955, 161, 49, 224, 176
-0.977961, 305, 161, 432, 224
-0.978022, 121, 129, 184, 379
-0.978039, 169, 97, 200, 224
-0.978101, 1, 113, 32, 176
-0.978305, 161, 241, 224, 368
-0.978327, 345, 193, 376, 256
-0.978389, 425, 145, 456, 272
-0.978443, 33, 97, 64, 224
-0.978451, 1, 137, 32, 200
-0.978468, 337, 257, 400, 379
-0.978626, 329, 153, 360, 216
-0.978657, 97, 193, 160, 320
-0.978671, 325, 81, 356, 208
-0.978705, 413, 161, 444, 288
-0.978755, 233, 97, 296, 352
-0.978829, 297, 241, 328, 304
-0.978885, 121, 233, 184, 296
-0.978885, 185, 97, 216, 224
-0.979033, 85, 97, 116, 224
-0.979116, 353, 137, 384, 200
-0.979166, 65, 137, 192, 200
-0.979238, 329, 225, 360, 352
-0.97926, 297, 129, 360, 379
-0.979276, 353, 73, 416, 136
-0.979368, 433, 17, 496, 144
-0.979379, 1, 33, 64, 96
-0.979391, 377, 225, 408, 288
-0.979455, 369, 185, 496, 248
-0.979465, 465, 145, 496, 272
-0.979482, 393, 129, 456, 379
-0.979574, 433, 241, 496, 368
-0.979607, 433, 225, 496, 288
-0.979735, 105, 49, 168, 176
-0.979765, 325, 233, 356, 296
-0.979776, 145, 1, 272, 64
-0.979788, 345, 249, 376, 312
-0.979813, 17, 169, 144, 232
-0.979849, 393, 209, 424, 336
-0.979875, 357, 177, 388, 304
-0.979876, 333, 81, 364, 144
-0.97997, 325, 177, 356, 240
-0.980039, 193, 113, 320, 176
-0.980103, 1, 201, 64, 264
-0.980134, 269, 137, 300, 200
-0.980154, 369, 241, 496, 304
-0.98018, 465, 97, 496, 224
-0.980187, 41, 129, 104, 379
-0.980192, 345, 249, 408, 312
-0.9802, 97, 137, 128, 200
-0.980212, 213, 113, 244, 240
-0.980258, 333, 33, 364, 160
-0.98031, 261, 145, 292, 272
-0.980312, 105, 113, 136, 176
-0.980317, 1, 209, 32, 336
-0.980455, 361, 97, 392, 224
-0.980526, 121, 113, 152, 176
-0.980557, 285, 233, 316, 296
-0.98061, 21, 97, 52, 224
-0.980617, 129, 241, 256, 368
-0.980638, 73, 177, 136, 240
-0.980698, 193, 225, 256, 352
-0.98073, 241, 233, 368, 296
-0.980802, 321, 273, 384, 336
-0.980803, 65, 1, 192, 64
-0.98085, 361, 129, 424, 379
-0.980853, 81, 161, 208, 224
-0.981039, 109, 145, 140, 272
-0.981081, 1, 1, 128, 64
-0.981084, 121, 193, 184, 256
-0.98111, 305, 1, 432, 64
-0.981114, 377, 193, 408, 320
-0.981116, 241, 145, 272, 272
-0.981152, 329, 33, 392, 288
-0.981166, 465, 129, 496, 192
-0.981193, 93, 113, 124, 176
-0.981244, 81, 129, 144, 379
-0.981289, 241, 161, 272, 224
-0.981311, 329, 65, 392, 128
-0.981355, 57, 113, 88, 176
-0.981422, 277, 113, 308, 240
-0.981424, 209, 129, 272, 379
-0.981458, 109, 137, 140, 200
-0.981473, 121, 137, 152, 200
-0.981486, 133, 97, 164, 224
-0.981586, 257, 1, 384, 64
-0.981659, 145, 97, 176, 224
-0.981673, 409, 97, 472, 160
-0.981695, 241, 193, 368, 256
-0.981789, 453, 145, 484, 272
-0.981835, 17, 225, 144, 352
-0.981849, 153, 129, 216, 379
-0.981879, 193, 1, 320, 64
-0.981987, 141, 113, 172, 176
-0.982002, 361, 257, 424, 379
-0.982012, 437, 97, 468, 224
-0.98221, 33, 193, 96, 320
-0.982238, 369, 97, 496, 160
-0.982257, 373, 145, 404, 272
-0.982298, 69, 113, 100, 176
-0.982323, 297, 297, 360, 360
-0.982424, 417, 97, 448, 224
-0.982552, 145, 113, 272, 176
-0.98256, 73, 49, 136, 176
-0.982579, 317, 81, 348, 144
-0.982606, 289, 193, 352, 256
-0.982616, 21, 161, 52, 288
-0.98274, 401, 233, 464, 296
-0.982772, 65, 145, 96, 272
-0.98283, 145, 177, 208, 240
-0.982836, 197, 97, 228, 224
-0.982838, 357, 89, 388, 152
-0.982901, 113, 169, 144, 232
-0.982943, 385, 177, 416, 240
-0.982975, 37, 113, 68, 176
-0.982981, 333, 209, 364, 272
-0.98299, 73, 1, 104, 64
-0.983006, 397, 161, 428, 224
-0.983007, 249, 105, 312, 168
-0.983156, 433, 73, 496, 136
-0.983251, 25, 113, 56, 176
-0.983272, 145, 249, 208, 312
-0.983296, 1, 257, 64, 320
-0.983299, 121, 257, 184, 379
-0.983321, 321, 233, 448, 296
-0.983323, 77, 137, 108, 200
-0.983334, 249, 273, 280, 336
-0.983425, 157, 1, 188, 64
-0.983425, 81, 113, 112, 176
-0.983454, 365, 113, 396, 176
-0.983483, 441, 145, 472, 272
-0.983492, 233, 1, 264, 64
-0.983507, 365, 209, 396, 272
-0.983522, 313, 81, 344, 208
-0.983567, 405, 97, 436, 224
-0.983664, 253, 1, 284, 64
-0.983686, 229, 161, 260, 224
-0.983724, 385, 1, 416, 64
-0.983859, 161, 177, 288, 240
-0.983898, 389, 113, 420, 240
-0.983915, 273, 265, 336, 328
-0.983923, 365, 233, 396, 296
-0.983948, 1, 257, 256, 379
-0.983949, 153, 113, 184, 176
-0.983966, 93, 1, 124, 64
-0.983988, 389, 137, 420, 200
-0.984028, 321, 33, 352, 160
-0.984057, 33, 169, 64, 232
-0.984081, 321, 57, 352, 120
-0.984095, 401, 1, 432, 64
-0.984119, 341, 1, 372, 64
-0.984127, 121, 145, 152, 272
-0.98415, 57, 169, 88, 232
-0.984153, 249, 65, 312, 192
-0.984222, 1, 1, 64, 256
-0.984231, 33, 1, 64, 64
-0.984249, 273, 257, 400, 320
-0.984255, 225, 145, 256, 272
-0.984275, 141, 1, 172, 64
-0.984291, 57, 1, 88, 64
-0.984347, 53, 145, 84, 272
-0.984358, 425, 1, 456, 64
-0.984382, 45, 1, 76, 64
-0.984402, 45, 137, 76, 200
-0.984437, 369, 1, 400, 64
-0.984486, 1, 177, 32, 240
-0.9845, 133, 153, 164, 216
-0.984501, 321, 257, 448, 320
-0.984513, 281, 1, 312, 64
-0.984528, 257, 17, 500, 144
-0.984536, 45, 169, 76, 232
-0.984568, 317, 137, 348, 200
-0.984586, 69, 169, 100, 232
-0.984603, 225, 273, 352, 336
-0.984604, 113, 1, 144, 64
-0.984624, 289, 137, 320, 200
-0.984681, 205, 1, 236, 64
-0.984828, 1, 161, 32, 288
-0.984837, 265, 1, 296, 64
-0.984894, 281, 225, 312, 352
-0.984901, 233, 201, 296, 264
-0.984911, 369, 265, 496, 328
-0.984915, 305, 257, 336, 379
-0.984938, 17, 177, 48, 240
-0.98495, 261, 217, 292, 280
-0.984969, 57, 193, 120, 320
-0.98497, 353, 169, 384, 232
-0.984971, 169, 1, 200, 64
-0.984971, 305, 265, 336, 328
-0.985023, 13, 1, 44, 64
-0.985026, 337, 1, 400, 379
-0.985033, 41, 145, 72, 272
-0.985054, 221, 1, 252, 64
-0.985062, 217, 97, 280, 160
-0.985083, 353, 273, 416, 336
-0.985102, 369, 49, 432, 176
-0.985114, 125, 1, 156, 64
-0.985123, 33, 49, 96, 176
-0.985128, 33, 137, 64, 200
-0.98513, 61, 137, 92, 200
-0.985145, 293, 1, 324, 64
-0.985148, 1, 297, 64, 360
-0.985163, 361, 225, 392, 352
-0.985189, 321, 1, 352, 64
-0.985244, 217, 161, 248, 224
-0.985283, 301, 209, 332, 336
-0.985286, 437, 1, 468, 64
-0.985366, 101, 161, 132, 224
-0.985392, 413, 1, 444, 64
-0.985425, 449, 1, 480, 64
-0.985457, 1, 1, 64, 379
-0.985546, 65, 241, 192, 368
-0.985689, 77, 145, 108, 272
-0.98569, 369, 249, 432, 312
-0.985704, 97, 145, 128, 272
-0.98576, 353, 1, 384, 64
-0.985787, 349, 273, 380, 336
-0.985805, 321, 65, 448, 128
-0.985892, 257, 57, 384, 120
-0.985901, 181, 1, 212, 64
-0.985909, 261, 249, 292, 312
-0.985918, 209, 257, 272, 320
-0.98593, 185, 129, 248, 379
-0.985951, 261, 97, 292, 224
-0.986027, 373, 161, 404, 224
-0.986048, 169, 113, 200, 176
-0.986049, 433, 185, 496, 248
-0.986057, 121, 273, 184, 336
-0.986073, 345, 33, 376, 160
-0.986092, 273, 281, 400, 344
-0.986125, 453, 97, 484, 224
-0.986133, 369, 73, 496, 136
-0.986177, 465, 161, 496, 224
-0.986227, 193, 1, 224, 64
-0.986265, 1, 257, 32, 379
-0.986274, 465, 97, 496, 160
-0.986274, 313, 241, 344, 304
-0.986282, 305, 33, 368, 288
-0.986314, 13, 113, 44, 176
-0.986346, 1, 73, 32, 136
-0.986373, 321, 129, 352, 256
-0.986452, 425, 161, 456, 224
-0.986456, 361, 33, 424, 288
-0.986479, 145, 137, 176, 200
-0.986551, 1, 225, 32, 288
-0.986593, 145, 49, 208, 112
-0.986597, 393, 33, 456, 288
-0.98661, 193, 225, 320, 288
-0.986661, 365, 137, 396, 200
-0.986674, 309, 1, 340, 64
-0.986681, 65, 89, 128, 152
-0.986738, 1, 201, 32, 264
-0.986757, 21, 153, 52, 216
-0.986772, 265, 289, 328, 352
-0.986788, 433, 137, 464, 200
-0.986789, 249, 193, 280, 320
-0.986827, 325, 105, 356, 168
-0.986864, 145, 273, 208, 336
-0.986951, 293, 257, 324, 379
-0.987096, 281, 33, 344, 288
-0.987128, 1, 49, 32, 176
-0.987256, 145, 169, 176, 232
-0.987265, 241, 1, 368, 128
-0.987266, 417, 225, 448, 288
-0.987355, 213, 137, 244, 200
-0.987372, 381, 113, 412, 176
-0.987417, 257, 177, 288, 240
-0.987426, 377, 89, 440, 152
-0.987443, 445, 145, 476, 208
-0.987443, 165, 153, 196, 216
-0.987467, 145, 217, 208, 280
-0.987486, 97, 193, 160, 256
-0.987489, 353, 297, 416, 360
-0.987538, 201, 169, 232, 232
-0.987586, 141, 193, 172, 320
-0.987665, 201, 233, 264, 296
-0.98769, 405, 209, 436, 336
-0.987696, 121, 49, 184, 112
-0.987699, 57, 49, 120, 112
-0.987722, 277, 113, 308, 176
-0.987739, 201, 281, 264, 344
-0.987748, 337, 41, 400, 104
-0.987768, 81, 169, 112, 232
-0.987801, 289, 1, 352, 379
-0.987885, 257, 129, 288, 192
-0.987895, 465, 193, 496, 320
-0.987903, 233, 289, 296, 352
-0.987905, 317, 225, 348, 352
-0.987938, 369, 33, 496, 96
-0.987993, 121, 1, 184, 379
-0.988018, 157, 225, 188, 352
-0.988122, 97, 233, 160, 296
-0.988127, 145, 145, 176, 272
-0.988167, 57, 241, 120, 368
-0.988169, 225, 97, 256, 224
-0.988185, 393, 257, 456, 320
-0.988195, 169, 125, 232, 156
-0.988206, 317, 177, 348, 304
-0.98824, 241, 81, 304, 144
-0.988326, 1, 125, 64, 156
-0.988337, 133, 145, 164, 272
-0.988366, 25, 89, 88, 152
-0.988377, 145, 125, 208, 156
-0.988437, 273, 81, 336, 144
-0.988449, 161, 1, 224, 379
-0.988469, 33, 125, 96, 156
-0.98848, 369, 289, 496, 352
-0.988518, 329, 313, 392, 376
-0.988543, 345, 125, 408, 156
-0.988596, 33, 49, 96, 112
-0.988691, 97, 17, 224, 144
-0.98871, 169, 49, 200, 176
-0.988749, 157, 177, 188, 304
-0.988751, 169, 193, 232, 320
-0.988766, 201, 145, 232, 272
-0.988839, 1, 1, 64, 32
-0.988845, 213, 161, 244, 288
-0.988855, 433, 1, 496, 379
-0.988882, 225, 145, 480, 208
-0.988973, 393, 121, 456, 152
-0.989023, 321, 89, 384, 120
-0.989106, 437, 209, 468, 336
-0.989179, 193, 125, 256, 156
-0.989203, 337, 225, 400, 256
-0.989212, 225, 121, 288, 152
-0.989215, 433, 133, 496, 164
-0.9893, 241, 97, 272, 224
-0.989316, 361, 1, 424, 379
-0.989329, 81, 1, 144, 379
-0.989335, 233, 177, 296, 208
-0.989413, 369, 313, 496, 376
-0.989472, 433, 1, 496, 32
-0.989482, 65, 125, 128, 156
-0.98952, 345, 173, 408, 204
-0.98952, 121, 125, 184, 156
-0.989535, 369, 225, 432, 256
-0.989546, 249, 121, 312, 152
-0.989563, 237, 225, 268, 352
-0.989579, 321, 145, 384, 176
-0.989608, 177, 201, 304, 264
-0.989625, 285, 161, 316, 288
-0.989635, 313, 1, 376, 379
-0.98967, 289, 153, 352, 184
-0.989682, 209, 89, 336, 152
-0.989732, 353, 137, 416, 168
-0.989732, 417, 121, 480, 152
-0.989741, 321, 133, 384, 164
-0.989745, 97, 125, 160, 156
-0.989771, 81, 49, 208, 112
-0.989784, 433, 33, 496, 288
-0.989796, 321, 157, 384, 188
-0.989819, 233, 165, 296, 196
-0.989836, 49, 89, 176, 152
-0.989853, 385, 169, 448, 200
-0.98988, 249, 133, 312, 164
-0.989899, 417, 209, 448, 336
-0.989902, 321, 105, 384, 136
-0.989902, 193, 249, 320, 312
-0.989947, 289, 165, 352, 196
-0.989948, 241, 153, 304, 184
-0.989966, 345, 161, 408, 192
-0.990027, 121, 181, 184, 212
-0.990035, 329, 241, 392, 272
-0.990067, 241, 1, 304, 379
-0.990073, 377, 133, 440, 164
-0.990093, 225, 133, 288, 164
-0.990116, 97, 181, 160, 212
-0.990145, 265, 169, 328, 200
-0.990149, 361, 213, 424, 244
-0.99016, 353, 237, 416, 268
-0.990188, 185, 1, 248, 379
-0.990216, 297, 257, 360, 288
-0.990232, 465, 33, 496, 160
-0.99026, 321, 281, 448, 344
-0.99027, 369, 121, 432, 152
-0.990301, 1, 137, 64, 168
-0.990311, 225, 297, 352, 360
-0.990313, 1, 113, 64, 144
-0.990319, 313, 169, 376, 200
-0.990333, 25, 1, 88, 379
-0.990342, 345, 113, 408, 144
-0.990359, 321, 185, 384, 216
-0.99039, 1, 17, 128, 144
-0.990397, 289, 117, 352, 148
-0.990411, 257, 245, 320, 276
-0.990418, 185, 177, 248, 208
-0.990441, 17, 185, 80, 216
-0.990466, 129, 169, 384, 232
-0.990484, 289, 133, 352, 164
-0.990492, 321, 117, 384, 148
-0.99053, 97, 241, 160, 368
-0.990555, 225, 169, 480, 232
-0.990558, 177, 113, 240, 144
-0.990559, 161, 1, 224, 32
-0.990569, 257, 1, 320, 32
-0.990574, 209, 177, 272, 208
-0.990576, 1, 1, 32, 128
-0.990585, 401, 133, 464, 164
-0.990607, 297, 269, 360, 300
-0.990608, 209, 1, 272, 32
-0.990614, 145, 241, 272, 304
-0.990632, 25, 1, 88, 32
-0.990636, 353, 201, 416, 232
-0.990708, 65, 185, 192, 248
-0.990722, 297, 233, 360, 264
-0.990726, 121, 1, 184, 32
-0.990733, 305, 1, 368, 32
-0.990745, 73, 137, 136, 168
-0.990775, 249, 241, 280, 368
-0.990786, 57, 1, 120, 32
-0.990812, 81, 1, 144, 32
-0.990814, 233, 1, 296, 32
-0.99083, 265, 157, 328, 188
-0.990832, 345, 1, 408, 32
-0.990837, 385, 237, 448, 268
-0.99085, 369, 1, 432, 32
-0.990852, 425, 173, 488, 204
-0.990871, 409, 1, 472, 32
-0.990874, 313, 77, 376, 108
-0.99089, 169, 177, 200, 304
-0.990895, 169, 137, 232, 168
-0.990896, 17, 49, 144, 112
-0.990919, 161, 177, 224, 208
-0.990922, 345, 149, 408, 180
-0.99093, 433, 157, 496, 188
-0.990934, 129, 169, 192, 200
-0.990977, 105, 137, 168, 168
-0.990982, 233, 1, 296, 256
-0.990991, 281, 1, 344, 32
-0.990994, 185, 1, 248, 32
-0.990998, 65, 241, 192, 304
-0.991008, 49, 1, 112, 379
-0.991016, 257, 269, 320, 300
-0.991041, 17, 193, 144, 256
-0.991044, 385, 1, 448, 379
-0.991049, 433, 109, 496, 140
-0.991061, 257, 257, 320, 288
-0.991068, 261, 241, 292, 368
-0.991089, 153, 113, 216, 144
-0.991093, 385, 213, 448, 244
-0.991094, 297, 89, 360, 120
-0.991099, 1, 165, 64, 196
-0.991108, 73, 185, 136, 216
-0.991128, 41, 137, 104, 168
-0.99114, 145, 137, 208, 168
-0.991164, 297, 281, 360, 312
-0.99117, 201, 113, 264, 144
-0.99118, 345, 185, 408, 216
-0.991191, 313, 221, 376, 252
-0.991201, 1, 149, 64, 180
-0.991206, 25, 113, 88, 144
-0.991214, 97, 89, 224, 152
-0.991244, 329, 253, 392, 284
-0.991278, 49, 185, 112, 216
-0.991304, 1, 245, 64, 276
-0.991311, 401, 225, 464, 256
-0.991371, 377, 157, 440, 188
-0.99141, 1, 61, 64, 92
-0.991426, 233, 189, 296, 220
-0.991431, 297, 81, 328, 208
-0.991433, 129, 209, 160, 336
-0.99144, 121, 113, 184, 144
-0.991441, 145, 89, 272, 152
-0.991483, 1, 137, 256, 200
-0.991485, 233, 233, 296, 264
-0.991503, 49, 113, 112, 144
-0.991521, 369, 249, 432, 280
-0.991522, 1, 89, 64, 120
-0.991527, 1, 73, 64, 104
-0.991528, 49, 173, 112, 204
-0.991541, 337, 213, 400, 244
-0.991548, 297, 245, 360, 276
-0.99158, 185, 49, 216, 176
-0.991618, 89, 169, 152, 200
-0.99163, 121, 249, 184, 280
-0.991637, 305, 41, 432, 104
-0.99164, 393, 189, 456, 220
-0.991662, 337, 269, 400, 300
-0.991676, 353, 93, 416, 124
-0.991691, 289, 77, 352, 108
-0.99173, 337, 77, 400, 108
-0.991732, 121, 193, 184, 224
-0.991746, 145, 261, 208, 292
-0.991753, 145, 257, 176, 379
-0.991784, 321, 53, 384, 84
-0.991789, 257, 281, 320, 312
-0.991791, 409, 161, 472, 192
-0.991799, 65, 149, 128, 180
-0.991799, 225, 193, 480, 256
-0.99181, 409, 1, 472, 379
-0.991829, 209, 33, 272, 288
-0.991883, 149, 49, 180, 176
-0.99193, 337, 185, 368, 216
-0.991939, 81, 33, 144, 288
-0.99195, 189, 145, 220, 272
-0.992041, 333, 145, 364, 176
-0.992048, 97, 145, 352, 208
-0.992049, 161, 125, 192, 156
-0.992064, 217, 1, 280, 379
-0.99207, 17, 249, 144, 312
-0.992076, 373, 65, 404, 192
-0.992086, 173, 125, 204, 156
-0.9921, 57, 125, 88, 156
-0.992131, 37, 125, 68, 156
-0.992133, 277, 65, 308, 192
-0.992155, 357, 33, 388, 160
-0.992159, 341, 85, 372, 116
-0.992171, 341, 173, 372, 204
-0.992179, 1, 1, 32, 32
-0.992187, 197, 125, 228, 156
-0.992189, 161, 281, 288, 344
-0.99221, 101, 49, 132, 176
-0.992223, 273, 121, 400, 152
-0.99223, 353, 133, 384, 164
-0.99224, 269, 157, 300, 188
-0.992254, 21, 125, 52, 156
-0.992263, 369, 121, 400, 152
-0.992265, 1, 125, 32, 156
-0.992289, 149, 125, 180, 156
-0.99231, 345, 225, 376, 256
-0.992313, 265, 1, 328, 379
-0.992315, 317, 85, 348, 116
-0.992315, 353, 121, 384, 152
-0.99232, 129, 49, 256, 112
-0.992321, 333, 161, 364, 192
-0.992321, 465, 1, 496, 32
-0.992325, 385, 125, 416, 156
-0.992325, 337, 133, 368, 164
-0.992326, 185, 125, 216, 156
-0.992336, 273, 305, 400, 368
-0.992348, 121, 33, 184, 288
-0.992362, 465, 125, 496, 156
-0.992383, 217, 125, 248, 156
-0.992392, 401, 125, 432, 156
-0.992397, 97, 113, 352, 176
-0.992434, 425, 125, 456, 156
-0.992437, 277, 137, 308, 168
-0.992443, 273, 121, 304, 152
-0.992446, 1, 177, 500, 240
-0.992451, 137, 125, 168, 156
-0.992469, 101, 125, 132, 156
-0.992471, 453, 125, 484, 156
-0.992474, 69, 125, 100, 156
-0.992476, 277, 169, 308, 200
-0.992478, 337, 101, 368, 132
-0.992485, 113, 125, 144, 156
-0.992488, 225, 217, 480, 280
-0.992495, 257, 177, 288, 208
-0.992495, 413, 125, 444, 156
-0.992501, 253, 121, 284, 152
-0.992505, 193, 89, 448, 152
-0.992507, 229, 125, 260, 156
-0.992508, 329, 77, 360, 108
-0.992541, 389, 173, 420, 204
-0.99255, 125, 125, 156, 156
-0.992559, 85, 125, 116, 156
-0.992562, 437, 125, 468, 156
-0.992588, 353, 93, 384, 124
-0.992593, 225, 225, 256, 352
-0.992596, 257, 177, 384, 208
-0.992596, 333, 65, 364, 96
-0.992604, 1, 125, 128, 156
-0.992621, 285, 241, 316, 272
-0.992623, 321, 173, 352, 204
-0.992629, 73, 49, 104, 176
-0.992631, 129, 181, 160, 212
-0.992637, 281, 157, 312, 188
-0.992691, 1, 81, 128, 144
-0.992691, 129, 125, 256, 156
-0.992693, 389, 205, 420, 236
-0.992698, 347, 73, 362, 136
-0.992701, 257, 113, 500, 176
-0.992703, 465, 113, 496, 144
-0.992706, 37, 113, 68, 144
-0.992711, 113, 137, 144, 168
-0.992714, 1, 137, 32, 168
-0.992716, 321, 253, 352, 284
-0.992718, 317, 97, 348, 128
-0.992723, 25, 113, 56, 144
-0.992727, 93, 137, 124, 168
-0.99273, 241, 121, 272, 152
-0.992735, 329, 53, 360, 84
-0.992736, 373, 133, 404, 164
-0.992739, 337, 121, 368, 152
-0.992742, 369, 129, 496, 160
-0.99275, 349, 253, 380, 284
-0.992756, 25, 33, 88, 288
-0.992759, 241, 177, 272, 208
-0.99276, 377, 237, 408, 268
-0.992768, 117, 181, 148, 212
-0.992769, 353, 105, 384, 136
-0.992773, 145, 33, 208, 288
-0.992773, 329, 233, 360, 264
-0.99278, 1, 113, 32, 144
-0.992781, 321, 121, 448, 152
-0.992783, 465, 153, 496, 184
-0.992783, 335, 137, 350, 200
-0.99279, 217, 177, 248, 208
-0.992803, 393, 33, 456, 160
-0.992806, 177, 17, 304, 144
-0.992815, 229, 177, 260, 208
-0.992818, 257, 157, 288, 188
-0.992823, 221, 1, 252, 32
-0.992828, 265, 1, 296, 32
-0.992834, 245, 1, 276, 32
-0.992838, 393, 217, 424, 248
-0.992838, 373, 225, 404, 256
-0.992842, 165, 1, 196, 32
-0.992842, 345, 197, 376, 228
-0.992843, 301, 1, 332, 32
-0.992843, 209, 65, 240, 192
-0.992846, 285, 1, 316, 32
-0.99285, 177, 1, 208, 32
-0.992853, 201, 1, 232, 32
-0.992853, 321, 161, 352, 192
-0.992855, 93, 1, 124, 32
-0.992856, 33, 1, 64, 32
-0.992857, 261, 189, 292, 220
-0.992859, 465, 137, 496, 168
-0.992862, 297, 253, 328, 284
-0.992866, 13, 1, 44, 32
-0.992868, 1, 145, 500, 208
-0.992868, 189, 1, 220, 32
-0.992868, 49, 113, 80, 144
-0.992869, 49, 1, 80, 32
-0.992872, 177, 113, 208, 144
-0.992877, 205, 177, 236, 208
-0.992878, 437, 1, 468, 32
-0.992879, 145, 1, 176, 32
-0.99288, 17, 185, 48, 216
-0.992881, 77, 137, 108, 168
-0.992881, 157, 181, 188, 212
-0.992882, 81, 1, 112, 32
-0.992887, 117, 1, 148, 32
-0.99289, 405, 1, 436, 32
-0.992892, 465, 173, 496, 204
-0.9929, 425, 1, 456, 32
-0.9929, 265, 133, 296, 164
-0.992903, 69, 1, 100, 32
-0.992903, 133, 1, 164, 32
-0.992906, 105, 1, 136, 32
-0.992906, 325, 185, 356, 216
-0.992907, 257, 165, 384, 196
-0.992909, 233, 1, 264, 32
-0.992912, 373, 1, 404, 32
-0.992913, 141, 181, 172, 212
-0.992914, 13, 209, 44, 336
-0.992914, 453, 137, 484, 168
-0.992919, 349, 1, 380, 32
-0.99292, 393, 1, 424, 32
-0.992921, 353, 177, 384, 208
-0.992925, 37, 185, 68, 216
-0.992925, 245, 133, 276, 164
-0.992927, 365, 213, 396, 244
-0.992929, 57, 137, 88, 168
-0.992931, 345, 213, 376, 244
-0.992931, 353, 149, 384, 180
-0.992931, 209, 113, 240, 144
-0.992935, 181, 137, 212, 168
-0.992941, 321, 1, 352, 32
-0.992962, 65, 193, 320, 256
-0.992968, 25, 241, 88, 368
-0.992977, 129, 225, 384, 288
-0.993006, 341, 81, 356, 144
-0.993045, 345, 177, 360, 240
-0.993045, 347, 97, 362, 160
-0.993073, 1, 1, 256, 64
-0.993103, 353, 169, 368, 232
-0.993151, 257, 153, 384, 184
-0.993166, 17, 225, 144, 288
-0.993218, 57, 1, 120, 256
-0.993269, 113, 193, 240, 256
-0.993269, 369, 1, 496, 32
-0.993272, 81, 125, 208, 156
-0.993331, 177, 125, 304, 156
-0.99336, 1, 113, 500, 176
-0.993393, 225, 121, 352, 152
-0.993471, 1, 161, 256, 224
-0.993489, 225, 1, 480, 64
-0.993501, 1, 113, 256, 176
-0.993506, 339, 177, 354, 240
-0.993515, 301, 241, 316, 304
-0.993519, 97, 1, 352, 64
-0.993539, 341, 137, 356, 200
-0.993589, 81, 217, 208, 280
-0.993593, 321, 225, 448, 256
-0.993621, 305, 169, 432, 200
-0.993692, 465, 241, 496, 368
-0.993713, 357, 81, 372, 144
-0.993841, 321, 133, 448, 164
-0.99386, 3, 1, 18, 64
-0.993869, 193, 17, 256, 144
-0.993883, 349, 145, 364, 208
-0.9939, 369, 173, 496, 204
-0.993932, 177, 177, 304, 208
-0.993952, 333, 161, 348, 224
-0.99405, 117, 49, 148, 176
-0.994083, 269, 161, 284, 224
-0.994088, 257, 33, 320, 288
-0.994093, 337, 113, 352, 176
-0.99413, 81, 25, 208, 88
-0.99416, 265, 17, 328, 144
-0.99419, 273, 109, 400, 140
-0.994242, 197, 49, 228, 176
-0.994252, 377, 241, 408, 368
-0.994254, 273, 137, 400, 168
-0.994291, 169, 33, 232, 288
-0.994368, 479, 1, 494, 64
-0.994393, 283, 145, 298, 208
-0.9944, 241, 33, 368, 96
-0.994432, 363, 89, 378, 152
-0.994444, 225, 133, 352, 164
-0.994448, 53, 49, 84, 176
-0.994463, 339, 201, 354, 264
-0.994464, 193, 249, 448, 312
-0.994564, 1, 137, 128, 168
-0.994612, 257, 189, 384, 220
-0.994616, 479, 129, 494, 192
-0.994641, 305, 153, 432, 184
-0.994679, 279, 169, 294, 232
-0.994721, 321, 213, 448, 244
-0.994734, 393, 65, 424, 192
-0.994742, 257, 85, 384, 116
-0.994748, 81, 137, 208, 168
-0.994758, 33, 33, 64, 160
-0.994782, 355, 105, 370, 168
-0.994807, 209, 65, 336, 128
-0.994859, 97, 281, 224, 344
-0.99486, 305, 185, 432, 216
-0.99488, 355, 137, 370, 200
-0.994882, 13, 49, 44, 176
-0.994896, 177, 25, 304, 88
-0.994901, 111, 137, 126, 200
-0.994903, 115, 113, 130, 176
-0.994966, 369, 153, 496, 184
-0.994997, 305, 89, 432, 120
-0.995004, 105, 137, 120, 200
-0.995005, 359, 177, 374, 240
-0.995013, 337, 57, 352, 120
-0.995024, 289, 153, 304, 216
-0.995027, 161, 305, 288, 368
-0.99503, 49, 181, 176, 212
-0.995068, 33, 25, 160, 88
-0.995087, 137, 49, 168, 176
-0.995097, 347, 121, 362, 184
-0.995104, 345, 49, 360, 112
-0.995109, 17, 281, 144, 344
-0.995124, 1, 1, 500, 64
-0.995131, 391, 185, 406, 248
-0.995135, 335, 81, 350, 144
-0.995171, 121, 113, 136, 176
-0.995196, 367, 113, 382, 176
-0.995223, 357, 217, 372, 280
-0.995229, 395, 161, 410, 224
-0.99524, 409, 241, 472, 368
-0.995262, 479, 153, 494, 216
-0.995265, 369, 117, 496, 148
-0.995273, 479, 105, 494, 168
-0.995275, 321, 201, 448, 232
-0.995281, 121, 137, 136, 200
-0.995331, 145, 1, 272, 32
-0.995332, 3, 121, 18, 184
-0.995364, 33, 149, 160, 180
-0.99537, 351, 193, 366, 256
-0.995391, 61, 193, 92, 320
-0.995405, 109, 113, 124, 176
-0.995416, 349, 217, 364, 280
-0.995421, 113, 177, 240, 208
-0.995424, 133, 113, 148, 176
-0.995429, 399, 201, 414, 264
-0.99543, 225, 1, 352, 32
-0.99545, 177, 137, 304, 168
-0.995467, 1, 1, 128, 32
-0.995487, 49, 1, 176, 32
-0.995497, 95, 113, 110, 176
-0.995533, 1, 201, 500, 264
-0.995553, 369, 141, 496, 172
-0.995555, 289, 129, 304, 192
-0.995585, 71, 1, 86, 64
-0.995586, 127, 169, 142, 232
-0.995595, 97, 1, 224, 32
-0.9956, 255, 161, 270, 224
-0.9956, 53, 113, 68, 176
-0.995607, 329, 137, 344, 200
-0.995643, 117, 193, 148, 320
-0.995646, 321, 109, 448, 140
-0.995649, 61, 113, 76, 176
-0.995651, 253, 1, 268, 64
-0.995651, 369, 185, 496, 216
-0.995656, 353, 57, 368, 120
-0.995659, 85, 113, 100, 176
-0.995673, 307, 249, 322, 312
-0.995676, 81, 149, 208, 180
-0.995676, 143, 113, 158, 176
-0.995688, 297, 129, 328, 256
-0.995692, 249, 161, 264, 224
-0.995695, 369, 253, 496, 284
-0.995706, 103, 113, 118, 176
-0.995716, 43, 113, 58, 176
-0.995727, 369, 221, 496, 252
-0.995731, 265, 185, 280, 248
-0.995735, 273, 1, 400, 32
-0.995738, 79, 113, 94, 176
-0.995739, 1, 89, 500, 152
-0.995743, 127, 113, 142, 176
-0.99575, 383, 217, 398, 280
-0.995778, 145, 113, 272, 144
-0.995779, 275, 137, 290, 200
-0.995786, 349, 241, 364, 304
-0.995812, 403, 161, 418, 224
-0.995819, 73, 113, 88, 176
-0.995822, 209, 157, 336, 188
-0.995831, 129, 25, 256, 88
-0.995834, 345, 97, 376, 352
-0.995839, 39, 137, 54, 200
-0.995854, 247, 1, 262, 64
-0.99586, 53, 137, 68, 200
-0.995864, 295, 233, 310, 296
-0.995867, 339, 1, 354, 64
-0.995883, 23, 113, 38, 176
-0.995901, 67, 113, 82, 176
-0.995911, 369, 241, 496, 272
-0.995916, 115, 161, 130, 224
-0.995917, 59, 1, 74, 64
-0.995918, 385, 161, 400, 224
-0.995919, 327, 161, 342, 224
-0.995925, 151, 113, 166, 176
-0.995938, 151, 1, 166, 64
-0.995939, 393, 1, 408, 64
-0.995955, 241, 1, 256, 64
-0.99596, 293, 1, 308, 64
-0.995961, 283, 1, 298, 64
-0.995964, 259, 1, 274, 64
-0.995965, 29, 113, 44, 176
-0.995967, 321, 1, 448, 32
-0.995969, 331, 49, 346, 112
-0.995981, 77, 193, 108, 320
-0.995986, 405, 209, 420, 272
-0.99599, 33, 113, 160, 144
-0.995996, 33, 193, 64, 320
-0.995996, 73, 169, 88, 232
-0.995998, 81, 1, 96, 64
-0.996006, 267, 1, 282, 64
-0.996012, 45, 137, 60, 200
-0.996015, 277, 1, 292, 64
-0.99602, 169, 1, 184, 64
-0.996023, 233, 161, 248, 224
-0.996025, 241, 209, 368, 240
-0.996028, 45, 193, 76, 320
-0.996032, 157, 1, 172, 64
-0.996032, 241, 161, 256, 224
-0.996041, 351, 1, 366, 64
-0.99605, 479, 185, 494, 248
-0.996051, 81, 165, 208, 196
-0.996053, 35, 113, 50, 176
-0.996056, 175, 113, 190, 176
-0.996061, 401, 1, 416, 64
-0.996067, 3, 177, 18, 240
-0.996068, 345, 1, 360, 64
-0.996073, 427, 1, 442, 64
-0.996074, 257, 97, 384, 128
-0.996082, 411, 1, 426, 64
-0.996096, 67, 169, 82, 232
-0.9961, 129, 137, 256, 168
-0.996107, 139, 153, 154, 216
-0.996108, 87, 1, 102, 64
-0.996111, 65, 1, 80, 64
-0.996112, 389, 225, 404, 288
-0.996113, 383, 1, 398, 64
-0.996118, 241, 221, 368, 252
-0.996119, 231, 1, 246, 64
-0.99612, 473, 145, 488, 208
-0.996124, 419, 1, 434, 64
-0.996134, 449, 193, 480, 320
-0.996138, 193, 273, 448, 336
-0.996146, 65, 137, 80, 200
-0.996155, 369, 1, 384, 64
-0.996158, 27, 1, 42, 64
-0.996158, 223, 1, 238, 64
-0.996158, 35, 161, 50, 224
-0.996159, 339, 225, 354, 288
-0.996165, 91, 137, 106, 200
-0.996167, 73, 137, 88, 200
-0.996171, 375, 129, 390, 192
-0.996174, 251, 257, 266, 320
-0.996175, 157, 113, 172, 176
-0.996179, 215, 1, 230, 64
-0.99621, 321, 237, 448, 268
-0.996218, 273, 277, 400, 308
-0.996247, 305, 77, 432, 108
-0.996291, 1, 185, 128, 216
-0.996307, 347, 81, 362, 112
-0.996313, 33, 161, 160, 192
-0.996418, 173, 225, 204, 352
-0.996436, 321, 257, 448, 288
-0.996486, 89, 49, 120, 176
-0.996487, 101, 225, 132, 352
-0.996525, 129, 157, 256, 188
-0.996561, 1, 225, 500, 288
-0.996605, 369, 269, 496, 300
-0.996613, 355, 85, 370, 116
-0.996646, 341, 85, 356, 116
-0.996651, 241, 257, 368, 288
-0.996688, 369, 85, 496, 116
-0.996699, 269, 129, 300, 379
-0.996704, 177, 189, 304, 220
-0.996722, 283, 157, 298, 188
-0.996729, 129, 217, 256, 280
-0.996739, 325, 97, 356, 352
-0.996746, 273, 293, 400, 324
-0.99675, 345, 185, 360, 216
-0.996755, 171, 125, 186, 156
-0.996756, 181, 125, 196, 156
-0.996775, 385, 257, 448, 379
-0.996794, 369, 105, 496, 136
-0.996797, 55, 125, 70, 156
-0.996834, 1, 217, 256, 280
-0.996861, 189, 125, 204, 156
-0.996891, 63, 125, 78, 156
-0.9969, 81, 113, 208, 144
-0.996911, 45, 125, 60, 156
-0.996917, 479, 137, 494, 168
-0.996924, 335, 165, 350, 196
-0.996925, 369, 209, 496, 240
-0.996931, 257, 73, 384, 104
-0.996938, 225, 273, 352, 304
-0.996938, 39, 125, 54, 156
-0.996952, 321, 269, 448, 300
-0.996954, 357, 97, 388, 352
-0.996984, 479, 121, 494, 152
-0.997022, 1, 173, 128, 204
-0.997025, 347, 129, 362, 160
-0.99703, 165, 125, 180, 156
-0.997051, 3, 1, 18, 32
-0.997052, 33, 125, 48, 156
-0.997066, 387, 125, 402, 156
-0.99707, 283, 173, 298, 204
-0.997073, 19, 125, 34, 156
-0.997076, 69, 125, 84, 156
-0.997097, 241, 237, 368, 268
-0.997103, 65, 249, 320, 312
-0.997112, 401, 125, 416, 156
-0.997119, 33, 49, 288, 112
-0.997125, 377, 125, 392, 156
-0.99713, 27, 125, 42, 156
-0.997134, 219, 125, 234, 156
-0.997145, 227, 125, 242, 156
-0.997145, 477, 153, 492, 184
-0.997148, 355, 177, 370, 208
-0.99715, 369, 281, 496, 312
-0.997153, 369, 349, 496, 379
-0.997154, 115, 125, 130, 156
-0.997162, 281, 129, 312, 379
-0.997166, 159, 125, 174, 156
-0.997174, 333, 77, 348, 108
-0.997177, 407, 125, 422, 156
-0.997187, 161, 129, 192, 379
-0.997191, 341, 125, 356, 156
-0.997191, 195, 125, 210, 156
-0.997193, 355, 121, 370, 152
-0.997196, 1, 97, 32, 352
-0.997197, 335, 177, 350, 208
-0.997203, 395, 125, 410, 156
-0.997207, 161, 57, 416, 120
-0.997216, 419, 121, 434, 152
-0.997222, 347, 141, 362, 172
-0.99723, 371, 125, 386, 156
-0.997242, 149, 125, 164, 156
-0.997249, 347, 97, 362, 128
-0.997251, 237, 125, 252, 156
-0.997262, 3, 125, 18, 156
-0.997262, 343, 69, 358, 100
-0.997274, 257, 97, 288, 352
-0.997297, 479, 1, 494, 32
-0.9973, 213, 125, 228, 156
-0.997324, 271, 173, 286, 204
-0.997329, 369, 45, 496, 76
-0.997334, 353, 189, 368, 220
-0.99734, 333, 149, 348, 180
-0.997346, 361, 89, 376, 120
-0.997347, 277, 165, 292, 196
-0.997354, 65, 193, 192, 224
-0.997361, 109, 125, 124, 156
-0.997365, 201, 125, 216, 156
-0.997368, 107, 137, 122, 168
-0.997372, 141, 129, 172, 379
-0.997381, 393, 173, 408, 204
-0.997382, 473, 125, 488, 156
-0.997388, 451, 125, 466, 156
-0.997392, 289, 141, 304, 172
-0.997404, 193, 237, 320, 268
-0.997406, 457, 125, 472, 156
-0.997409, 289, 121, 304, 152
-0.99741, 341, 169, 356, 200
-0.99742, 225, 109, 352, 140
-0.997422, 75, 125, 90, 156
-0.997422, 289, 157, 304, 188
-0.997426, 425, 125, 440, 156
-0.997435, 129, 125, 144, 156
-0.997451, 359, 137, 374, 168
-0.997451, 139, 125, 154, 156
-0.997455, 207, 125, 222, 156
-0.997455, 13, 125, 28, 156
-0.997456, 435, 125, 450, 156
-0.997456, 97, 89, 352, 152
-0.997459, 413, 125, 428, 156
-0.997465, 369, 57, 496, 88
-0.997471, 121, 125, 136, 156
-0.997475, 467, 125, 482, 156
-0.997492, 81, 125, 96, 156
-0.997502, 365, 121, 380, 152
-0.997508, 103, 125, 118, 156
-0.997515, 341, 97, 356, 128
-0.997521, 441, 129, 472, 379
-0.997523, 117, 137, 132, 168
-0.997525, 339, 141, 354, 172
-0.99753, 109, 129, 140, 379
-0.997543, 225, 285, 352, 316
-0.997548, 133, 181, 148, 212
-0.997554, 247, 121, 262, 152
-0.997564, 445, 121, 460, 152
-0.997584, 275, 121, 290, 152
-0.997593, 373, 97, 404, 352
-0.997596, 369, 21, 496, 52
-0.997596, 341, 109, 356, 140
-0.997601, 465, 129, 496, 379
-0.997602, 301, 245, 316, 276
-0.997611, 369, 73, 496, 104
-0.997623, 233, 129, 264, 379
-0.99763, 479, 169, 494, 200
-0.997636, 271, 157, 286, 188
-0.997657, 97, 125, 112, 156
-0.997662, 321, 85, 336, 116
-0.997662, 277, 133, 292, 164
-0.997665, 349, 173, 364, 204
-0.997668, 363, 101, 378, 132
-0.997674, 129, 129, 160, 379
-0.997676, 273, 305, 400, 336
-0.997679, 89, 125, 104, 156
-0.997687, 369, 293, 496, 324
-0.997693, 327, 173, 342, 204
-0.997696, 349, 161, 364, 192
-0.997703, 283, 121, 298, 152
-0.997707, 321, 305, 448, 368
-0.997715, 261, 177, 276, 208
-0.997726, 333, 189, 348, 220
-0.99773, 347, 113, 362, 144
-0.997731, 305, 53, 432, 84
-0.997732, 349, 69, 364, 100
-0.997737, 225, 301, 352, 332
-0.997739, 369, 33, 496, 64
-0.997741, 1, 197, 128, 228
-0.997751, 141, 181, 156, 212
-0.997752, 129, 189, 256, 220
-0.997753, 49, 113, 64, 144
-0.997756, 333, 97, 348, 128
-0.997757, 337, 65, 352, 96
-0.997764, 321, 281, 448, 312
-0.997764, 295, 153, 310, 184
-0.997764, 267, 189, 282, 220
-0.997775, 339, 189, 354, 220
-0.997783, 181, 113, 196, 144
-0.997783, 265, 121, 280, 152
-0.997795, 339, 49, 354, 80
-0.997803, 369, 305, 496, 336
-0.997804, 225, 177, 240, 208
-0.997804, 339, 233, 354, 264
-0.997806, 41, 113, 56, 144
-0.997812, 369, 317, 496, 348
-0.997822, 29, 113, 44, 144
-0.997825, 237, 177, 252, 208
-0.997826, 479, 109, 494, 140
-0.997826, 345, 53, 360, 84
-0.997836, 177, 249, 304, 280
-0.997846, 327, 81, 342, 112
-0.997847, 231, 177, 246, 208
-0.997847, 25, 129, 56, 379
-0.997854, 369, 197, 496, 228
-0.997862, 259, 1, 274, 32
-0.997867, 55, 113, 70, 144
-0.997877, 253, 121, 268, 152
-0.99788, 341, 1, 372, 256
-0.997882, 349, 249, 364, 280
-0.997883, 381, 137, 396, 168
-0.997886, 337, 221, 352, 252
-0.99789, 421, 97, 452, 352
-0.997894, 269, 1, 284, 32
-0.997898, 97, 129, 128, 379
-0.997898, 349, 201, 364, 232
-0.997921, 397, 129, 428, 379
-0.997923, 53, 129, 84, 379
-0.997942, 193, 261, 320, 292
-0.997952, 1, 1, 32, 256
-0.99799, 1, 89, 256, 152
-0.998028, 49, 305, 176, 368
-0.998088, 225, 313, 352, 344
-0.998096, 369, 329, 496, 360
-0.998096, 85, 129, 116, 379
-0.998104, 17, 53, 144, 84
-0.998139, 97, 53, 224, 84
-0.998146, 65, 129, 96, 379
-0.998152, 201, 97, 232, 352
-0.998169, 273, 317, 400, 348
-0.9982, 161, 305, 288, 336
-0.9982, 97, 273, 352, 336
-0.998253, 41, 129, 72, 379
-0.998275, 347, 97, 362, 224
-0.998279, 177, 221, 304, 252
-0.998292, 409, 129, 440, 379
-0.998299, 177, 205, 304, 236
-0.998301, 321, 293, 448, 324
-0.998307, 13, 129, 44, 379
-0.998313, 1, 57, 500, 120
-0.998321, 81, 245, 208, 276
-0.998362, 105, 1, 168, 128
-0.998366, 361, 127, 424, 142
-0.998369, 241, 125, 304, 140
-0.998381, 293, 97, 324, 352
-0.998386, 305, 65, 432, 96
-0.998393, 1, 127, 64, 142
-0.998402, 25, 133, 56, 148
-0.998402, 297, 269, 328, 284
-0.998403, 385, 203, 416, 218
-0.998405, 349, 183, 380, 198
-0.998406, 101, 161, 132, 176
-0.998406, 1, 149, 32, 164
-0.998406, 325, 123, 356, 138
-0.998406, 177, 129, 208, 379
-0.998407, 277, 147, 308, 162
-0.998408, 305, 249, 336, 264
-0.998409, 37, 135, 68, 150
-0.998409, 337, 127, 400, 142
-0.99841, 357, 249, 388, 264
-0.99841, 345, 241, 376, 256
-0.998411, 357, 197, 388, 212
-0.998411, 345, 255, 376, 270
-0.998412, 261, 189, 292, 204
-0.998412, 325, 159, 356, 174
-0.998414, 269, 33, 300, 288
-0.998414, 333, 73, 364, 88
-0.998414, 305, 255, 336, 270
-0.998415, 177, 127, 240, 142
-0.998416, 353, 155, 384, 170
-0.998416, 1, 155, 32, 170
-0.998418, 1, 117, 32, 132
-0.998418, 109, 149, 140, 164
-0.998419, 377, 239, 408, 254
-0.99842, 261, 157, 292, 172
-0.99842, 329, 87, 360, 102
-0.99842, 121, 129, 184, 144
-0.998421, 193, 135, 224, 150
-0.998422, 1, 249, 128, 280
-0.998423, 357, 255, 388, 270
-0.998423, 65, 129, 128, 144
-0.998424, 73, 135, 104, 150
-0.998424, 177, 273, 304, 304
-0.998426, 337, 249, 368, 264
-0.998427, 349, 177, 364, 304
-0.998428, 365, 221, 396, 236
-0.998428, 293, 129, 324, 144
-0.99843, 101, 135, 132, 150
-0.998431, 345, 231, 376, 246
-0.998431, 465, 139, 496, 154
-0.998433, 177, 135, 208, 150
-0.998433, 465, 153, 496, 168
-0.998435, 337, 115, 368, 130
-0.998436, 1, 203, 32, 218
-0.998436, 365, 133, 396, 148
-0.998437, 289, 155, 320, 170
-0.998439, 213, 135, 244, 150
-0.998441, 25, 127, 88, 142
-0.998441, 353, 191, 384, 206
-0.998442, 321, 255, 352, 270
-0.998443, 313, 87, 376, 102
-0.998443, 353, 149, 384, 164
-0.998444, 453, 135, 484, 150
-0.998444, 325, 131, 356, 146
-0.998444, 325, 147, 356, 162
-0.998444, 417, 127, 480, 142
-0.998444, 353, 121, 384, 136
-0.998446, 321, 151, 384, 166
-0.998448, 329, 93, 392, 108
-0.998448, 373, 231, 404, 246
-0.998449, 89, 129, 152, 144
-0.99845, 245, 129, 276, 379
-0.998455, 329, 243, 360, 258
-0.998458, 217, 125, 280, 140
-0.998459, 13, 135, 44, 150
-0.998462, 257, 133, 288, 148
-0.998462, 393, 127, 456, 142
-0.998466, 341, 81, 372, 96
-0.998467, 1, 135, 64, 150
-0.998468, 433, 133, 496, 148
-0.99847, 321, 183, 352, 198
-0.998472, 381, 135, 412, 150
-0.998472, 145, 129, 208, 144
-0.998473, 121, 137, 152, 152
-0.998474, 321, 165, 352, 180
-0.998476, 453, 129, 484, 379
-0.998477, 313, 163, 376, 178
-0.998477, 337, 101, 368, 116
-0.998478, 289, 165, 352, 180
-0.998479, 465, 145, 496, 160
-0.99848, 337, 97, 352, 224
-0.998481, 465, 3, 496, 18
-0.998482, 343, 177, 358, 304
-0.998483, 465, 133, 496, 148
-0.998483, 281, 165, 312, 180
-0.998483, 329, 231, 392, 246
-0.998485, 337, 107, 368, 122
-0.99849, 225, 179, 288, 194
-0.99849, 329, 171, 360, 186
-0.99849, 97, 305, 224, 368
-0.998491, 261, 171, 292, 186
-0.998492, 89, 137, 120, 152
-0.998493, 321, 145, 384, 160
-0.998495, 341, 125, 372, 140
-0.998495, 337, 225, 400, 240
-0.998495, 349, 97, 380, 112
-0.998495, 321, 157, 384, 172
-0.998496, 1, 135, 32, 150
-0.998497, 333, 139, 364, 154
-0.998498, 289, 151, 352, 166
-0.998499, 353, 143, 384, 158
-0.998502, 281, 157, 344, 172
-0.998502, 337, 175, 400, 190
-0.998502, 469, 33, 500, 288
-0.998504, 353, 135, 384, 150
-0.998505, 1, 3, 64, 18
-0.998505, 385, 177, 416, 192
-0.998506, 345, 201, 376, 216
-0.998507, 353, 103, 384, 118
-0.998508, 369, 225, 432, 240
-0.998509, 345, 181, 408, 196
-0.998512, 257, 135, 320, 150
-0.998512, 317, 87, 348, 102
-0.998513, 337, 133, 400, 148
-0.998514, 285, 243, 316, 258
-0.998515, 217, 133, 280, 148
-0.998515, 289, 127, 352, 142
-0.998516, 317, 97, 348, 112
-0.998517, 249, 157, 312, 172
-0.998517, 377, 175, 440, 190
-0.998518, 1, 3, 32, 18
-0.998522, 257, 179, 288, 194
-0.998523, 345, 49, 360, 176
-0.998524, 385, 231, 448, 246
-0.998525, 269, 165, 300, 180
-0.998525, 273, 153, 304, 168
-0.998526, 193, 297, 448, 360
-0.998526, 417, 127, 448, 142
-0.998526, 261, 125, 292, 140
-0.998527, 249, 169, 312, 184
-0.998528, 341, 169, 372, 184
-0.998529, 329, 53, 360, 68
-0.998531, 337, 131, 368, 146
-0.998532, 353, 127, 384, 142
-0.998533, 313, 169, 376, 184
-0.998535, 321, 187, 384, 202
-0.99854, 329, 79, 360, 94
-0.998541, 369, 237, 432, 252
-0.998541, 329, 121, 392, 136
-0.998542, 337, 87, 400, 102
-0.998543, 297, 259, 360, 274
-0.998544, 341, 175, 372, 190
-0.998546, 337, 181, 368, 196
-0.998547, 433, 3, 496, 18
-0.998547, 161, 285, 288, 316
-0.998548, 377, 133, 440, 148
-0.99855, 345, 169, 408, 184
-0.99855, 441, 127, 472, 142
-0.998553, 185, 127, 216, 142
-0.998554, 337, 95, 368, 110
-0.998554, 329, 99, 392, 114
-0.998555, 405, 127, 436, 142
-0.998556, 345, 225, 376, 240
-0.998556, 265, 125, 328, 140
-0.998557, 297, 267, 360, 282
-0.998561, 329, 111, 392, 126
-0.998561, 345, 237, 408, 252
-0.998562, 361, 121, 424, 136
-0.998562, 257, 53, 384, 84
-0.998563, 277, 175, 308, 190
-0.998563, 289, 133, 352, 148
-0.998564, 273, 135, 304, 150
-0.998565, 1, 151, 64, 166
-0.998565, 197, 127, 228, 142
-0.998566, 257, 247, 320, 262
-0.998569, 393, 127, 424, 142
-0.998569, 277, 159, 308, 174
-0.998571, 249, 125, 280, 140
-0.998571, 89, 129, 120, 144
-0.998572, 337, 139, 400, 154
-0.998573, 429, 127, 460, 142
-0.998574, 297, 143, 360, 158
-0.998574, 313, 175, 376, 190
-0.998575, 355, 177, 370, 304
-0.998576, 453, 127, 484, 142
-0.998576, 265, 175, 328, 190
-0.998577, 257, 143, 320, 158
-0.998577, 433, 175, 496, 190
-0.998577, 329, 105, 392, 120
-0.998577, 329, 253, 392, 268
-0.998578, 169, 133, 232, 148
-0.998578, 221, 127, 252, 142
-0.998579, 353, 231, 416, 246
-0.99858, 241, 163, 304, 178
-0.998582, 37, 127, 68, 142
-0.998584, 329, 243, 392, 258
-0.998584, 165, 129, 196, 144
-0.998584, 297, 241, 360, 256
-0.998587, 289, 171, 352, 186
-0.998587, 361, 219, 424, 234
-0.998587, 49, 129, 80, 144
-0.998587, 313, 81, 376, 96
-0.998588, 385, 185, 448, 200
-0.99859, 13, 127, 44, 142
-0.998591, 297, 273, 360, 288
-0.998591, 345, 145, 408, 160
-0.998592, 1, 119, 64, 134
-0.998592, 25, 135, 88, 150
-0.998592, 65, 135, 128, 150
-0.998593, 321, 181, 384, 196
-0.998593, 257, 271, 320, 286
-0.998594, 401, 219, 464, 234
-0.998594, 145, 135, 208, 150
-0.998595, 337, 193, 368, 208
-0.998595, 289, 121, 352, 136
-0.998595, 1, 161, 64, 176
-0.998595, 345, 155, 408, 170
-0.998596, 465, 127, 496, 142
-0.998596, 381, 127, 412, 142
-0.998596, 361, 207, 424, 222
-0.998596, 289, 87, 352, 102
-0.998597, 73, 129, 104, 144
-0.998601, 209, 127, 240, 142
-0.998601, 321, 55, 384, 70
-0.998601, 313, 135, 376, 150
-0.998602, 105, 137, 168, 152
-0.998603, 101, 129, 132, 144
-0.998604, 273, 181, 336, 196
-0.998604, 345, 161, 408, 176
-0.998605, 237, 125, 268, 140
-0.998605, 353, 93, 416, 108
-0.998605, 209, 85, 336, 116
-0.998606, 401, 135, 464, 150
-0.998606, 297, 287, 360, 302
-0.998607, 333, 153, 364, 168
-0.998608, 1, 127, 32, 142
-0.998609, 377, 169, 440, 184
-0.99861, 105, 183, 168, 198
-0.998611, 433, 147, 496, 162
-0.998611, 353, 81, 368, 208
-0.998611, 149, 129, 180, 144
-0.998612, 257, 277, 320, 292
-0.998612, 153, 123, 216, 138
-0.998613, 193, 133, 256, 148
-0.998615, 313, 129, 376, 144
-0.998615, 305, 93, 368, 108
-0.998615, 217, 147, 280, 162
-0.998616, 25, 121, 88, 136
-0.998617, 233, 189, 296, 204
-0.998618, 225, 171, 288, 186
-0.998618, 297, 279, 360, 294
-0.998618, 61, 129, 92, 144
-0.998619, 401, 225, 464, 240
-0.998621, 313, 225, 376, 240
-0.998621, 1, 199, 64, 214
-0.998621, 353, 243, 416, 258
-0.998621, 369, 3, 432, 18
-0.998622, 213, 129, 244, 379
-0.998622, 353, 199, 416, 214
-0.998623, 409, 3, 472, 18
-0.998623, 409, 175, 472, 190
-0.998624, 1, 87, 64, 102
-0.998625, 169, 3, 232, 18
-0.998625, 401, 213, 464, 228
-0.998625, 113, 129, 144, 144
-0.998625, 329, 259, 392, 274
-0.998625, 25, 3, 88, 18
-0.998626, 433, 119, 496, 134
-0.998626, 81, 3, 144, 18
-0.998626, 361, 213, 424, 228
-0.998627, 1, 69, 64, 84
-0.998627, 297, 295, 360, 310
-0.998627, 129, 3, 192, 18
-0.99863, 297, 185, 360, 200
-0.998631, 257, 265, 320, 280
-0.998631, 133, 129, 164, 144
-0.998635, 161, 25, 416, 88
-0.998637, 353, 129, 368, 256
-0.998638, 25, 127, 56, 142
-0.998643, 273, 125, 304, 140
-0.998646, 353, 1, 384, 256
-0.998647, 337, 163, 368, 178
-0.998648, 129, 249, 256, 280
-0.998649, 337, 145, 368, 160
-0.998651, 369, 127, 400, 142
-0.998667, 337, 187, 368, 202
-0.998673, 395, 145, 410, 272
-0.998686, 277, 161, 292, 288
-0.998695, 329, 1, 360, 256
-0.9987, 403, 161, 418, 288
-0.998711, 193, 349, 320, 379
-0.998718, 341, 87, 372, 102
-0.998718, 145, 261, 272, 292
-0.998727, 81, 41, 208, 72
-0.998732, 409, 145, 424, 272
-0.998734, 321, 41, 448, 72
-0.998744, 397, 193, 412, 320
-0.998755, 337, 177, 352, 304
-0.998756, 189, 97, 220, 352
-0.998756, 73, 97, 88, 224
-0.998767, 65, 97, 80, 224
-0.998778, 389, 145, 404, 272
-0.998798, 359, 81, 374, 208
-0.998802, 225, 325, 352, 356
-0.998802, 121, 97, 136, 224
-0.998829, 385, 65, 416, 320
-0.998829, 169, 97, 184, 224
-0.998833, 17, 237, 144, 268
-0.998843, 113, 65, 240, 96
-0.998863, 55, 97, 70, 224
-0.998865, 45, 97, 60, 224
-0.998865, 65, 257, 192, 288
-0.99887, 331, 161, 346, 288
-0.99887, 305, 129, 336, 379
-0.998879, 115, 97, 130, 224
-0.99888, 39, 97, 54, 224
-0.99888, 79, 97, 94, 224
-0.998905, 479, 145, 494, 272
-0.998911, 85, 97, 100, 224
-0.998917, 265, 193, 280, 320
-0.998925, 249, 1, 280, 256
-0.998927, 113, 349, 240, 379
-0.99893, 269, 145, 284, 272
-0.99893, 479, 97, 494, 224
-0.998931, 29, 97, 44, 224
-0.998935, 415, 145, 430, 272
-0.99894, 161, 97, 176, 224
-0.998942, 391, 193, 406, 320
-0.998946, 95, 97, 110, 224
-0.998948, 175, 97, 190, 224
-0.998952, 365, 97, 380, 224
-0.998956, 271, 193, 286, 320
-0.998962, 105, 97, 120, 224
-0.998969, 333, 49, 348, 176
-0.99897, 3, 97, 18, 224
-0.998979, 187, 97, 202, 224
-0.99898, 283, 97, 298, 224
-0.998987, 127, 97, 142, 224
-0.998992, 429, 145, 444, 272
-0.998994, 419, 97, 434, 224
-0.999001, 273, 349, 400, 379
-0.999005, 405, 209, 420, 336
-0.999015, 109, 33, 140, 288
-0.999018, 181, 97, 196, 224
-0.999022, 145, 237, 272, 268
-0.999023, 151, 97, 166, 224
-0.999027, 1, 69, 128, 100
-0.999035, 1, 349, 128, 379
-0.999039, 473, 145, 488, 272
-0.999046, 359, 129, 374, 256
-0.999047, 437, 145, 452, 272
-0.999047, 213, 97, 228, 224
-0.999059, 135, 97, 150, 224
-0.999059, 403, 113, 418, 240
-0.999061, 359, 225, 374, 352
-0.99907, 115, 145, 130, 272
-0.999071, 339, 49, 354, 176
-0.999073, 19, 97, 34, 224
-0.999074, 421, 145, 436, 272
-0.999076, 257, 57, 500, 120
-0.999077, 479, 193, 494, 320
-0.999079, 361, 177, 376, 304
-0.999084, 223, 113, 238, 240
-0.999092, 435, 97, 450, 224
-0.999098, 207, 97, 222, 224
-0.9991, 283, 161, 298, 288
-0.999105, 39, 161, 54, 288
-0.999108, 301, 241, 316, 368
-0.999108, 197, 97, 212, 224
-0.999108, 145, 97, 160, 224
-0.999114, 257, 225, 272, 352
-0.999115, 125, 145, 140, 272
-0.999116, 447, 97, 462, 224
-0.999116, 441, 97, 456, 224
-0.999118, 413, 97, 428, 224
-0.999119, 71, 145, 86, 272
-0.999119, 449, 145, 464, 272
-0.999123, 465, 97, 480, 224
-0.999127, 457, 97, 472, 224
-0.999129, 89, 33, 120, 288
-0.999133, 467, 145, 482, 272
-0.999136, 427, 97, 442, 224
-0.999137, 33, 161, 48, 288
-0.999141, 229, 113, 244, 240
-0.999148, 255, 145, 270, 272
-0.999149, 459, 145, 474, 272
-0.999152, 383, 177, 398, 304
-0.999157, 11, 97, 26, 224
-0.999158, 235, 145, 250, 272
-0.999162, 3, 161, 18, 288
-0.999168, 45, 145, 60, 272
-0.99917, 65, 145, 80, 272
-0.999175, 45, 33, 76, 288
-0.999176, 1, 25, 256, 88
-0.999177, 277, 113, 292, 240
-0.99918, 295, 225, 310, 352
-0.999181, 261, 145, 276, 272
-0.999185, 331, 113, 346, 240
-0.999193, 343, 225, 358, 352
-0.999193, 1, 249, 500, 312
-0.999196, 21, 161, 36, 288
-0.999198, 121, 33, 152, 288
-0.999201, 351, 225, 366, 352
-0.99921, 367, 209, 382, 336
-0.999216, 57, 145, 72, 272
-0.999216, 443, 145, 458, 272
-0.999216, 249, 161, 264, 288
-0.999224, 1, 281, 256, 344
-0.999225, 243, 145, 258, 272
-0.999225, 1, 33, 500, 96
-0.999236, 145, 1, 208, 128
-0.999238, 3, 49, 18, 176
-0.999246, 327, 49, 342, 176
-0.999246, 149, 33, 180, 288
-0.999246, 3, 241, 18, 368
-0.999248, 411, 209, 426, 336
-0.999251, 473, 97, 488, 224
-0.999253, 77, 145, 92, 272
-0.999255, 391, 97, 406, 224
-0.999262, 13, 161, 28, 288
-0.999265, 331, 225, 346, 352
-0.999265, 51, 145, 66, 272
-0.999266, 27, 145, 42, 272
-0.999268, 307, 225, 322, 352
-0.99927, 355, 33, 370, 160
-0.999274, 213, 145, 228, 272
-0.999276, 21, 33, 52, 288
-0.999282, 479, 33, 494, 160
-0.999282, 155, 209, 170, 336
-0.999282, 105, 145, 120, 272
-0.99929, 83, 145, 98, 272
-0.999292, 135, 145, 150, 272
-0.999297, 291, 161, 306, 288
-0.9993, 321, 65, 336, 192
-0.999301, 151, 145, 166, 272
-0.999307, 271, 97, 286, 224
-0.999315, 441, 225, 456, 352
-0.999334, 441, 33, 472, 288
-0.999335, 179, 49, 194, 176
-0.999346, 397, 97, 412, 224
-0.999375, 33, 33, 64, 288
-0.999394, 317, 1, 348, 256
-0.999396, 69, 1, 100, 256
-0.999444, 237, 33, 268, 288
-0.999492, 281, 33, 312, 288
-0.999543, 221, 33, 252, 288
-0.999551, 397, 33, 428, 288
-0.999551, 177, 33, 208, 288
-0.999579, 453, 33, 484, 288
-0.999636, 319, 97, 334, 112
-0.999636, 377, 139, 392, 154
-0.999637, 357, 143, 372, 158
-0.999637, 347, 93, 362, 108
-0.999638, 343, 157, 358, 172
-0.999638, 347, 75, 362, 90
-0.99964, 283, 125, 298, 140
-0.999642, 165, 1, 196, 256
-0.999644, 355, 101, 370, 116
-0.999645, 349, 161, 364, 176
-0.999647, 333, 185, 348, 200
-0.999647, 281, 181, 296, 196
-0.999648, 271, 179, 286, 194
-0.999648, 335, 139, 350, 154
-0.999649, 337, 111, 352, 126
-0.99965, 339, 237, 354, 252
-0.99965, 327, 173, 342, 188
-0.999651, 339, 151, 354, 166
-0.999653, 301, 251, 316, 266
-0.999653, 115, 141, 130, 156
-0.999654, 111, 149, 126, 164
-0.999654, 479, 165, 494, 180
-0.99966, 353, 95, 368, 110
-0.999661, 337, 105, 352, 120
-0.999661, 331, 159, 346, 174
-0.999663, 351, 199, 366, 214
-0.999663, 289, 135, 304, 150
-0.999664, 337, 97, 352, 112
-0.999664, 379, 133, 394, 148
-0.999664, 341, 85, 356, 100
-0.999665, 479, 5, 494, 20
-0.999666, 355, 137, 370, 152
-0.999666, 3, 5, 18, 20
-0.999668, 269, 131, 284, 146
-0.99967, 343, 107, 358, 122
-0.999671, 391, 177, 406, 192
-0.999672, 277, 167, 292, 182
-0.999672, 57, 1, 88, 256
-0.999673, 347, 129, 362, 144
-0.999676, 107, 137, 122, 152
-0.999676, 275, 125, 290, 140
-0.999677, 299, 245, 314, 260
-0.999678, 293, 153, 308, 168
-0.999682, 341, 137, 356, 152
-0.999682, 355, 223, 370, 238
-0.999684, 479, 159, 494, 174
-0.999686, 121, 137, 136, 152
-0.999687, 333, 81, 348, 96
-0.999689, 277, 135, 292, 150
-0.999689, 367, 133, 382, 148
-0.999691, 349, 149, 364, 164
-0.999692, 345, 123, 360, 138
-0.999694, 357, 125, 372, 140
-0.999695, 409, 33, 440, 288
-0.999696, 353, 83, 368, 98
-0.999697, 349, 135, 364, 150
-0.9997, 269, 125, 284, 140
-0.9997, 335, 193, 350, 208
-0.9997, 443, 127, 458, 142
-0.9997, 187, 127, 202, 142
-0.999703, 277, 173, 292, 188
-0.999704, 339, 187, 354, 202
-0.999704, 355, 181, 370, 196
-0.999706, 107, 129, 122, 144
-0.999707, 197, 127, 212, 142
-0.999707, 47, 127, 62, 142
-0.99971, 233, 127, 248, 142
-0.999711, 419, 127, 434, 142
-0.999714, 55, 129, 70, 144
-0.999717, 335, 145, 350, 160
-0.999719, 425, 127, 440, 142
-0.999719, 239, 125, 254, 140
-0.999719, 343, 99, 358, 114
-0.999719, 435, 127, 450, 142
-0.99972, 207, 127, 222, 142
-0.999722, 181, 127, 196, 142
-0.999723, 97, 297, 352, 360
-0.999725, 259, 125, 274, 140
-0.999725, 341, 75, 356, 90
-0.999726, 341, 129, 356, 144
-0.999729, 13, 127, 28, 142
-0.999729, 227, 127, 242, 142
-0.999729, 3, 127, 18, 142
-0.999729, 479, 143, 494, 158
-0.999729, 409, 127, 424, 142
-0.99973, 469, 127, 484, 142
-0.99973, 449, 127, 464, 142
-0.99973, 347, 87, 362, 102
-0.999733, 283, 163, 298, 178
-0.999733, 385, 127, 400, 142
-0.999733, 251, 125, 266, 140
-0.999734, 401, 127, 416, 142
-0.999734, 459, 127, 474, 142
-0.999734, 167, 129, 182, 144
-0.999736, 333, 173, 348, 188
-0.999736, 245, 125, 260, 140
-0.999737, 335, 179, 350, 194
-0.999738, 133, 1, 164, 256
-0.999739, 91, 129, 106, 144
-0.999739, 121, 129, 136, 144
-0.999741, 101, 129, 116, 144
-0.999744, 391, 127, 406, 142
-0.999745, 215, 127, 230, 142
-0.999751, 41, 127, 56, 142
-0.999752, 173, 129, 188, 144
-0.999752, 289, 125, 304, 140
-0.999752, 61, 129, 76, 144
-0.999753, 151, 129, 166, 144
-0.999756, 361, 93, 376, 108
-0.999756, 287, 155, 302, 170
-0.999757, 379, 127, 394, 142
-0.999758, 85, 129, 100, 144
-0.99976, 283, 175, 298, 190
-0.99976, 69, 129, 84, 144
-0.999761, 221, 127, 236, 142
-0.999761, 79, 129, 94, 144
-0.999761, 161, 129, 176, 144
-0.999762, 355, 191, 370, 206
-0.999762, 333, 165, 348, 180
-0.999763, 479, 153, 494, 168
-0.999766, 143, 129, 158, 144
-0.999766, 21, 127, 36, 142
-0.999767, 137, 129, 152, 144
-0.999768, 341, 91, 356, 106
-0.99977, 29, 127, 44, 142
-0.99977, 35, 127, 50, 142
-0.999771, 347, 143, 362, 158
-0.999773, 479, 137, 494, 152
-0.999773, 115, 129, 130, 144
-0.999773, 369, 127, 384, 142
-0.999776, 479, 127, 494, 142
-0.999783, 127, 129, 142, 144
-0.999787, 193, 1, 224, 256
-0.99979, 345, 187, 360, 202
-0.999803, 355, 89, 370, 104
-0.999833, 347, 81, 362, 96
-0.999985, 425, 1, 456, 256
-0.999994, 1, 305, 256, 368
-1.00007, 1, 305, 128, 368
-1.00009, 305, 33, 336, 288
-1.00009, 293, 1, 324, 256
-1.00011, 209, 1, 240, 256
-1.00021, 369, 1, 400, 256
-1.00058, 257, 33, 500, 96
-1.00069, 73, 1, 136, 128
-1.00078, 1, 281, 500, 344
-1.00104, 361, 1, 424, 128
-1.00118, 49, 1, 112, 128
-1.00135, 49, 1, 176, 128
-1.00161, 241, 1, 304, 128
-1.00232, 217, 1, 280, 128
-1.00248, 169, 1, 232, 128
-1.00254, 1, 305, 500, 368
-1.00439, 25, 1, 88, 128
