1973
-0.185607, 1, 1, 500, 380
-0.339194, 1, 129, 500, 380
-0.340435, 193, 1, 448, 380
-0.364086, 33, 1, 288, 380
-0.403205, 1, 1, 500, 256
-0.479417, 225, 129, 480, 380
-0.535944, 225, 33, 480, 288
-0.615848, 129, 129, 384, 380
-0.665664, 1, 1, 256, 256
-0.670613, 129, 1, 384, 256
-0.695802, 33, 97, 288, 352
-0.827196, 209, 129, 336, 380
-0.829957, 209, 1, 336, 380
-0.84001, 289, 129, 416, 380
-0.847176, 161, 1, 288, 380
-0.847676, 353, 65, 480, 320
-0.849917, 113, 1, 240, 380
-0.853176, 321, 1, 448, 380
-0.857487, 225, 33, 352, 288
-0.862432, 289, 33, 416, 288
-0.865502, 1, 209, 500, 336
-0.866193, 257, 1, 384, 380
-0.867284, 145, 129, 272, 380
-0.868616, 65, 1, 192, 380
-0.869106, 1, 257, 500, 380
-0.869146, 1, 161, 500, 288
-0.871939, 369, 1, 496, 380
-0.890164, 177, 1, 304, 256
-0.891999, 49, 129, 176, 380
-0.894114, 225, 177, 480, 304
-0.894397, 17, 1, 144, 380
-0.897362, 1, 17, 500, 144
-0.899121, 193, 225, 448, 352
-0.900974, 1, 81, 500, 208
-0.901682, 49, 1, 176, 256
-0.903212, 97, 1, 224, 256
-0.903424, 1, 97, 128, 352
-0.904892, 225, 81, 480, 208
-0.906957, 1, 1, 128, 256
-0.908689, 225, 129, 480, 256
-0.913207, 129, 145, 384, 272
-0.913852, 241, 145, 368, 272
-0.916242, 369, 257, 496, 380
-0.918604, 65, 257, 320, 380
-0.91947, 209, 241, 336, 368
-0.919613, 97, 129, 224, 380
-0.92241, 273, 177, 336, 304
-0.922466, 233, 193, 296, 320
-0.923202, 305, 193, 432, 320
-0.92442, 65, 209, 320, 336
-0.927122, 401, 193, 464, 320
-0.927532, 385, 241, 448, 368
-0.928236, 225, 33, 480, 160
-0.929395, 209, 193, 336, 320
-0.929438, 249, 145, 312, 272
-0.933147, 225, 241, 288, 368
-0.933735, 273, 241, 336, 368
-0.934574, 161, 241, 288, 368
-0.934619, 281, 113, 344, 240
-0.93642, 425, 225, 488, 352
-0.936627, 393, 217, 456, 280
-0.936916, 161, 161, 288, 288
-0.936986, 17, 225, 144, 352
-0.938254, 313, 161, 376, 288
-0.939358, 305, 81, 432, 208
-0.939909, 241, 97, 368, 224
-0.941769, 353, 209, 480, 336
-0.941914, 65, 241, 128, 368
-0.942129, 377, 297, 440, 360
-0.942738, 273, 17, 400, 144
-0.94277, 417, 241, 480, 304
-0.942881, 193, 81, 320, 208
-0.943829, 289, 1, 352, 128
-0.944241, 273, 257, 400, 380
-0.944656, 33, 161, 288, 288
-0.944954, 313, 177, 376, 240
-0.945313, 249, 241, 312, 368
-0.945442, 81, 225, 208, 352
-0.945798, 25, 241, 88, 368
-0.945916, 129, 97, 384, 224
-0.946666, 225, 145, 288, 272
-0.947316, 129, 1, 384, 128
-0.948729, 33, 113, 288, 240
-0.949217, 281, 129, 344, 192
-0.949423, 289, 145, 416, 272
-0.949621, 185, 241, 248, 368
-0.949789, 153, 241, 216, 368
-0.950003, 257, 289, 320, 352
-0.950018, 217, 145, 280, 208
-0.950032, 321, 49, 384, 176
-0.950183, 369, 49, 496, 176
-0.950713, 433, 265, 496, 328
-0.951555, 305, 113, 368, 240
-0.951872, 257, 193, 384, 320
-0.951882, 361, 209, 424, 336
-0.952098, 249, 145, 312, 208
-0.952667, 241, 241, 304, 304
-0.953245, 393, 257, 456, 320
-0.953805, 273, 185, 336, 248
-0.953923, 185, 145, 248, 272
-0.954884, 273, 65, 336, 192
-0.955066, 249, 169, 312, 232
-0.955184, 265, 257, 328, 320
-0.955194, 321, 1, 448, 128
-0.955265, 409, 57, 472, 120
-0.955462, 1, 1, 256, 128
-0.9564, 433, 177, 496, 304
-0.956417, 361, 113, 424, 240
-0.956436, 417, 297, 480, 360
-0.957033, 353, 145, 480, 272
-0.957985, 393, 321, 456, 380
-0.958362, 233, 217, 296, 280
-0.958478, 1, 177, 128, 304
-0.958565, 377, 193, 440, 256
-0.958677, 409, 49, 472, 176
-0.958733, 289, 313, 352, 376
-0.959167, 297, 153, 360, 216
-0.959515, 217, 249, 280, 312
-0.959606, 361, 321, 424, 380
-0.959899, 385, 73, 448, 136
-0.960056, 329, 1, 392, 128
-0.960083, 385, 65, 448, 192
-0.96026, 257, 313, 320, 376
-0.960305, 209, 97, 272, 224
-0.960325, 185, 241, 248, 304
-0.960582, 225, 1, 352, 128
-0.960726, 273, 129, 336, 380
-0.96076, 249, 81, 312, 208
-0.961292, 177, 193, 240, 320
-0.961388, 377, 161, 440, 288
-0.961738, 225, 305, 288, 368
-0.961815, 329, 97, 392, 224
-0.962188, 297, 65, 360, 192
-0.962206, 209, 193, 272, 320
-0.962247, 417, 217, 480, 280
-0.962252, 33, 1, 160, 128
-0.962498, 361, 65, 424, 192
-0.962502, 193, 137, 256, 200
-0.962768, 33, 65, 288, 192
-0.963228, 429, 233, 460, 296
-0.963249, 425, 321, 488, 380
-0.963286, 129, 225, 192, 352
-0.963354, 409, 145, 472, 272
-0.963551, 389, 241, 420, 368
-0.963885, 401, 193, 464, 256
-0.964248, 49, 193, 112, 320
-0.96467, 409, 209, 440, 336
-0.964848, 225, 185, 288, 248
-0.964953, 273, 209, 336, 272
-0.964959, 337, 177, 400, 304
-0.965106, 97, 241, 160, 368
-0.96534, 209, 249, 336, 312
-0.965345, 409, 257, 440, 380
-0.965363, 49, 177, 176, 304
-0.96539, 369, 225, 432, 288
-0.96591, 369, 97, 432, 352
-0.965997, 297, 241, 360, 368
-0.966045, 353, 97, 480, 224
-0.966131, 225, 169, 352, 232
-0.966318, 289, 1, 352, 64
-0.966321, 361, 89, 424, 152
-0.966331, 385, 297, 416, 360
-0.966434, 225, 281, 288, 344
-0.966477, 289, 281, 352, 344
-0.966648, 289, 209, 416, 272
-0.966975, 209, 145, 336, 208
-0.967179, 209, 297, 336, 360
-0.967512, 281, 241, 312, 368
-0.967514, 65, 225, 128, 288
-0.967681, 153, 249, 216, 312
-0.967782, 33, 257, 96, 320
-0.96785, 353, 297, 416, 360
-0.967995, 225, 217, 352, 280
-0.968169, 429, 257, 460, 320
-0.9683, 281, 289, 312, 352
-0.968315, 369, 297, 496, 360
-0.968368, 241, 129, 304, 380
-0.968385, 185, 273, 248, 336
-0.968396, 145, 113, 272, 240
-0.968397, 361, 169, 424, 232
-0.968488, 185, 161, 248, 224
-0.968553, 65, 297, 128, 360
-0.968724, 265, 233, 328, 296
-0.968806, 289, 249, 352, 312
-0.969167, 249, 33, 312, 160
-0.969253, 253, 153, 284, 216
-0.969412, 421, 209, 452, 336
-0.969449, 345, 201, 408, 264
-0.969473, 297, 249, 328, 312
-0.969524, 305, 65, 368, 320
-0.96955, 153, 193, 216, 320
-0.969597, 361, 57, 424, 120
-0.969628, 25, 289, 88, 352
-0.969697, 401, 129, 464, 380
-0.969718, 433, 193, 496, 256
-0.969773, 369, 225, 496, 288
-0.969781, 185, 129, 248, 380
-0.969845, 161, 17, 288, 144
-0.969892, 409, 265, 440, 328
-0.969959, 469, 257, 500, 320
-0.970138, 65, 249, 128, 312
-0.970444, 321, 257, 448, 380
-0.970559, 257, 145, 288, 272
-0.970574, 269, 225, 300, 352
-0.970614, 129, 49, 384, 176
-0.970637, 409, 289, 440, 352
-0.97071, 369, 249, 432, 312
-0.970854, 249, 193, 280, 320
-0.971043, 321, 81, 384, 144
-0.971101, 289, 185, 416, 248
-0.971159, 433, 49, 496, 112
-0.971192, 433, 33, 496, 160
-0.971243, 185, 97, 248, 224
-0.971345, 329, 33, 392, 288
-0.97148, 369, 65, 496, 128
-0.971589, 297, 81, 328, 208
-0.971665, 205, 129, 236, 192
-0.971668, 301, 161, 332, 288
-0.971922, 409, 241, 440, 304
-0.971988, 409, 201, 440, 264
-0.972257, 457, 257, 488, 320
-0.972423, 1, 97, 128, 224
-0.972485, 273, 33, 336, 288
-0.972532, 433, 193, 464, 320
-0.972604, 217, 121, 280, 184
-0.972707, 209, 225, 272, 288
-0.972768, 273, 153, 336, 216
-0.972849, 385, 49, 448, 112
-0.972979, 265, 249, 296, 312
-0.973019, 361, 257, 424, 380
-0.973174, 321, 129, 384, 192
-0.973184, 269, 145, 300, 208
-0.973362, 253, 209, 284, 272
-0.973417, 321, 153, 384, 216
-0.973465, 97, 1, 224, 128
-0.97352, 285, 249, 316, 312
-0.973581, 217, 129, 280, 380
-0.973591, 65, 273, 128, 336
-0.973622, 233, 241, 264, 368
-0.97364, 369, 265, 496, 328
-0.973654, 293, 241, 324, 368
-0.973777, 1, 257, 64, 380
-0.973947, 305, 233, 432, 296
-0.973957, 441, 241, 472, 304
-0.973989, 73, 193, 136, 320
-0.974034, 313, 321, 376, 380
-0.974036, 209, 321, 336, 380
-0.974185, 281, 161, 312, 288
-0.974206, 337, 321, 400, 380
-0.97424, 397, 217, 428, 280
-0.974309, 177, 17, 240, 144
-0.974333, 313, 113, 344, 240
-0.974414, 433, 241, 464, 368
-0.974463, 329, 41, 392, 104
-0.974487, 289, 305, 416, 368
-0.974625, 237, 161, 268, 288
-0.974783, 161, 273, 288, 336
-0.9748, 397, 289, 428, 352
-0.974841, 285, 97, 316, 224
-0.974914, 353, 321, 480, 380
-0.974962, 421, 57, 452, 120
-0.975008, 273, 225, 304, 288
-0.975069, 297, 225, 360, 288
-0.975076, 169, 129, 232, 192
-0.975195, 273, 281, 400, 344
-0.975228, 89, 1, 152, 128
-0.9753, 397, 321, 428, 380
-0.975363, 25, 233, 88, 296
-0.975369, 345, 145, 408, 208
-0.975416, 269, 81, 300, 208
-0.97545, 153, 273, 216, 336
-0.975453, 233, 249, 264, 312
-0.975492, 241, 33, 304, 288
-0.975583, 393, 33, 456, 288
-0.975684, 421, 209, 452, 272
-0.975771, 445, 241, 476, 368
-0.975811, 49, 129, 176, 256
-0.975813, 409, 33, 472, 96
-0.975864, 313, 1, 376, 64
-0.975964, 461, 257, 492, 380
-0.97598, 225, 193, 352, 256
-0.976005, 217, 1, 280, 256
-0.97609, 137, 225, 200, 288
-0.976105, 337, 177, 400, 240
-0.976153, 241, 1, 368, 64
-0.97624, 257, 129, 384, 192
-0.976244, 1, 249, 128, 312
-0.976356, 209, 273, 336, 336
-0.976361, 373, 97, 404, 224
-0.976384, 273, 153, 400, 216
-0.976398, 409, 169, 472, 232
-0.976415, 409, 81, 472, 144
-0.976427, 373, 89, 404, 152
-0.976592, 257, 1, 320, 64
-0.976611, 237, 185, 268, 248
-0.976698, 249, 241, 280, 304
-0.976711, 9, 257, 72, 320
-0.976719, 425, 129, 488, 380
-0.976753, 361, 17, 424, 144
-0.976879, 165, 225, 196, 352
-0.976889, 329, 129, 392, 380
-0.977028, 253, 185, 284, 248
-0.977061, 97, 289, 160, 352
-0.977163, 161, 161, 288, 224
-0.977168, 73, 321, 136, 380
-0.977187, 297, 33, 360, 96
-0.977286, 325, 81, 356, 208
-0.977305, 285, 313, 316, 376
-0.977311, 337, 177, 368, 240
-0.977355, 269, 169, 300, 232
-0.977413, 441, 217, 472, 280
-0.977432, 305, 241, 336, 368
-0.977479, 325, 145, 356, 272
-0.977494, 325, 161, 356, 224
-0.977506, 397, 193, 428, 320
-0.977611, 17, 225, 144, 288
-0.977621, 373, 305, 404, 368
-0.977694, 297, 81, 360, 144
-0.977719, 321, 105, 384, 168
-0.977773, 65, 129, 128, 256
-0.977803, 1, 289, 64, 352
-0.977823, 177, 217, 240, 280
-0.977835, 269, 145, 300, 272
-0.977896, 321, 41, 448, 104
-0.97791, 437, 49, 468, 112
-0.977941, 257, 121, 320, 184
-0.977943, 105, 241, 136, 368
-0.978065, 265, 81, 328, 144
-0.978151, 409, 1, 472, 128
-0.978199, 177, 249, 208, 312
-0.978264, 305, 57, 368, 120
-0.978399, 385, 185, 416, 248
-0.978451, 253, 241, 284, 368
-0.978466, 369, 273, 432, 336
-0.978481, 177, 241, 208, 368
-0.978499, 321, 65, 448, 128
-0.978516, 461, 305, 492, 368
-0.978686, 397, 257, 428, 320
-0.978689, 97, 177, 224, 304
-0.978851, 17, 193, 80, 320
-0.978879, 353, 201, 480, 264
-0.978918, 145, 233, 272, 296
-0.979039, 313, 201, 376, 264
-0.979096, 305, 185, 336, 248
-0.979279, 17, 265, 48, 328
-0.979283, 161, 201, 288, 264
-0.979336, 25, 97, 88, 224
-0.979367, 441, 297, 472, 360
-0.979396, 325, 33, 356, 160
-0.979505, 453, 233, 484, 296
-0.979559, 273, 81, 400, 144
-0.979571, 225, 17, 288, 144
-0.979577, 73, 1, 136, 64
-0.979612, 449, 49, 480, 112
-0.97963, 433, 73, 496, 136
-0.979649, 225, 1, 288, 380
-0.979681, 137, 17, 200, 144
-0.979764, 209, 121, 336, 184
-0.979826, 177, 1, 240, 256
-0.979834, 429, 313, 460, 376
-0.979836, 385, 89, 416, 152
-0.979906, 469, 281, 500, 344
-0.979909, 49, 65, 176, 192
-0.979913, 297, 273, 328, 336
-0.979936, 385, 161, 416, 288
-0.979956, 393, 65, 424, 192
-0.979984, 161, 81, 224, 208
-0.980004, 309, 233, 340, 296
-0.980119, 457, 281, 488, 344
-0.980138, 305, 297, 336, 360
-0.980188, 129, 65, 256, 192
-0.980215, 17, 281, 144, 344
-0.980301, 385, 17, 448, 144
-0.980353, 201, 1, 264, 380
-0.98036, 305, 105, 432, 168
-0.980369, 81, 249, 208, 312
-0.980401, 429, 281, 460, 344
-0.980453, 385, 65, 416, 128
-0.9805, 329, 297, 392, 360
-0.980619, 321, 193, 352, 256
-0.980626, 269, 289, 300, 352
-0.980633, 357, 81, 388, 144
-0.980657, 421, 65, 452, 192
-0.980667, 221, 257, 252, 380
-0.980681, 177, 33, 240, 96
-0.980712, 409, 313, 440, 376
-0.980729, 97, 241, 128, 304
-0.980742, 145, 137, 272, 200
-0.980762, 265, 57, 328, 120
-0.980806, 285, 129, 316, 192
-0.980901, 97, 113, 224, 240
-0.980986, 281, 105, 344, 168
-0.981004, 409, 161, 440, 288
-0.981058, 225, 177, 256, 304
-0.981079, 341, 1, 372, 128
-0.981112, 253, 265, 284, 328
-0.981185, 97, 249, 160, 312
-0.981187, 25, 1, 88, 256
-0.981195, 65, 65, 128, 192
-0.981234, 385, 129, 448, 192
-0.981251, 57, 1, 120, 128
-0.98126, 409, 65, 440, 128
-0.981354, 353, 169, 480, 232
-0.981355, 373, 49, 404, 176
-0.981375, 221, 249, 252, 312
-0.981483, 373, 65, 404, 128
-0.981543, 85, 241, 116, 368
-0.981548, 65, 297, 192, 360
-0.981624, 273, 41, 400, 104
-0.981652, 313, 1, 344, 128
-0.981691, 73, 241, 104, 368
-0.981707, 321, 145, 448, 208
-0.981762, 177, 1, 240, 380
-0.981779, 409, 1, 472, 380
-0.981802, 309, 161, 340, 224
-0.981807, 317, 193, 348, 320
-0.981821, 385, 321, 416, 380
-0.981838, 421, 185, 452, 248
-0.981848, 33, 17, 96, 144
-0.981879, 49, 321, 176, 380
-0.981906, 57, 281, 88, 344
-0.981937, 73, 225, 104, 288
-0.98194, 233, 1, 296, 64
-0.981958, 25, 97, 88, 352
-0.982009, 53, 257, 84, 380
-0.982023, 113, 225, 176, 288
-0.982209, 417, 33, 480, 288
-0.982242, 161, 145, 224, 272
-0.982254, 421, 145, 452, 272
-0.982277, 97, 193, 160, 320
-0.982306, 377, 209, 408, 336
-0.9824, 421, 257, 452, 380
-0.982535, 249, 193, 312, 256
-0.982538, 65, 201, 128, 264
-0.98255, 257, 289, 288, 352
-0.982577, 377, 1, 440, 380
-0.982607, 65, 97, 128, 352
-0.98264, 5, 273, 36, 336
-0.982644, 369, 1, 432, 256
-0.982667, 253, 97, 284, 224
-0.982669, 361, 113, 424, 176
-0.982759, 205, 129, 236, 256
-0.982766, 5, 241, 36, 368
-0.982836, 161, 65, 224, 128
-0.982849, 409, 49, 440, 176
-0.982859, 241, 161, 272, 224
-0.982885, 449, 33, 480, 160
-0.982967, 265, 1, 328, 380
-0.982975, 201, 17, 264, 144
-0.983039, 177, 193, 208, 320
-0.983089, 373, 161, 404, 224
-0.983146, 49, 1, 176, 64
-0.983148, 309, 65, 340, 192
-0.983201, 33, 321, 96, 380
-0.983228, 17, 241, 48, 368
-0.983243, 217, 153, 248, 216
-0.983248, 337, 97, 368, 224
-0.983357, 433, 129, 496, 256
-0.983383, 325, 321, 356, 380
-0.983387, 365, 193, 396, 256
-0.983405, 345, 225, 408, 288
-0.983436, 441, 265, 472, 328
-0.983489, 257, 241, 384, 304
-0.983511, 321, 137, 352, 200
-0.983514, 281, 177, 312, 240
-0.983543, 73, 249, 104, 312
-0.98363, 193, 321, 256, 380
-0.983638, 313, 1, 344, 64
-0.983665, 373, 145, 404, 272
-0.98371, 69, 193, 100, 320
-0.983735, 65, 217, 192, 280
-0.983737, 457, 177, 488, 304
-0.983897, 173, 225, 204, 288
-0.983902, 41, 209, 104, 272
-0.983951, 177, 273, 208, 336
-0.983955, 369, 1, 496, 128
-0.983976, 305, 121, 336, 184
-0.983987, 385, 113, 448, 240
-0.984051, 89, 225, 152, 288
-0.984079, 65, 145, 128, 208
-0.9841, 373, 113, 404, 176
-0.984147, 229, 225, 260, 288
-0.984165, 321, 1, 384, 380
-0.984199, 201, 193, 264, 256
-0.984321, 229, 137, 260, 200
-0.984366, 353, 89, 480, 152
-0.984445, 189, 257, 220, 380
-0.984539, 153, 1, 216, 256
-0.984567, 137, 1, 200, 380
-0.984575, 337, 257, 400, 380
-0.984608, 353, 17, 384, 144
-0.984722, 297, 1, 360, 380
-0.984802, 193, 297, 256, 360
-0.984814, 241, 217, 272, 280
-0.98486, 433, 193, 464, 256
-0.984874, 65, 273, 192, 336
-0.984937, 441, 321, 472, 380
-0.984956, 437, 33, 468, 160
-0.985041, 109, 249, 140, 312
-0.985055, 337, 153, 368, 216
-0.985065, 241, 273, 272, 336
-0.985119, 1, 305, 128, 368
-0.985122, 105, 289, 136, 352
-0.98516, 373, 217, 404, 280
-0.98518, 337, 1, 368, 64
-0.985227, 89, 1, 152, 380
-0.985265, 445, 177, 476, 304
-0.985292, 45, 281, 76, 344
-0.985313, 353, 185, 384, 248
-0.985341, 21, 241, 52, 304
-0.985342, 1, 1, 64, 256
-0.985352, 205, 153, 236, 216
-0.985372, 105, 1, 168, 64
-0.98542, 129, 249, 192, 312
-0.985459, 41, 241, 72, 368
-0.985479, 137, 25, 200, 88
-0.985545, 353, 177, 384, 304
-0.985696, 337, 161, 368, 288
-0.985761, 113, 273, 240, 336
-0.985762, 297, 321, 328, 380
-0.985773, 425, 145, 488, 208
-0.985798, 321, 257, 448, 320
-0.985811, 297, 209, 328, 272
-0.985842, 441, 81, 472, 144
-0.985864, 385, 225, 416, 288
-0.985925, 97, 25, 160, 88
-0.985935, 9, 17, 72, 144
-0.986023, 97, 321, 160, 380
-0.986071, 337, 49, 368, 176
-0.986098, 29, 241, 60, 368
-0.986108, 189, 249, 220, 312
-0.986259, 113, 305, 240, 368
-0.986334, 345, 41, 376, 104
-0.986336, 361, 97, 392, 224
-0.986341, 237, 97, 268, 224
-0.986346, 53, 257, 84, 320
-0.986354, 65, 177, 128, 240
-0.986404, 321, 17, 448, 80
-0.986548, 13, 193, 44, 320
-0.986558, 241, 81, 304, 144
-0.98656, 33, 145, 96, 272
-0.986566, 165, 249, 196, 312
-0.986621, 409, 97, 472, 224
-0.986649, 269, 321, 300, 380
-0.986679, 129, 289, 192, 352
-0.986699, 433, 145, 464, 272
-0.986705, 113, 1, 176, 128
-0.986733, 85, 233, 116, 296
-0.986759, 285, 49, 316, 176
-0.986774, 161, 313, 288, 376
-0.986797, 189, 273, 220, 336
-0.986813, 65, 193, 192, 256
-0.986817, 429, 161, 460, 224
-0.986817, 301, 1, 332, 128
-0.98684, 409, 105, 472, 168
-0.986873, 217, 129, 248, 256
-0.986878, 65, 1, 128, 380
-0.986897, 369, 41, 496, 104
-0.986908, 293, 169, 324, 232
-0.98691, 397, 65, 428, 128
-0.987018, 433, 1, 496, 380
-0.987051, 353, 1, 416, 380
-0.987069, 145, 65, 272, 128
-0.987078, 57, 209, 88, 336
-0.987115, 1, 153, 128, 216
-0.987119, 193, 97, 320, 160
-0.987175, 377, 209, 440, 240
-0.987223, 193, 57, 320, 120
-0.987237, 193, 113, 256, 176
-0.987255, 301, 81, 332, 144
-0.987286, 97, 1, 160, 256
-0.987371, 193, 113, 224, 240
-0.987391, 373, 137, 404, 200
-0.98755, 205, 81, 236, 208
-0.987567, 221, 177, 252, 240
-0.987582, 29, 281, 60, 344
-0.987585, 37, 257, 68, 320
-0.987589, 361, 321, 392, 380
-0.987595, 377, 297, 440, 328
-0.987601, 89, 265, 120, 328
-0.987603, 177, 33, 304, 96
-0.987646, 193, 137, 224, 200
-0.98765, 137, 57, 200, 120
-0.987704, 385, 161, 448, 224
-0.987759, 89, 129, 152, 380
-0.987761, 385, 221, 448, 252
-0.987765, 1, 49, 128, 176
-0.987828, 1, 177, 128, 240
-0.987933, 401, 233, 464, 264
-0.987963, 1, 1, 128, 64
-0.98801, 221, 273, 252, 336
-0.988023, 281, 153, 312, 216
-0.988024, 257, 129, 288, 192
-0.988067, 261, 1, 292, 64
-0.988085, 453, 73, 484, 136
-0.988099, 17, 201, 144, 264
-0.988105, 385, 113, 416, 240
-0.988159, 225, 137, 480, 200
-0.988183, 441, 81, 472, 208
-0.988208, 117, 241, 148, 368
-0.988263, 25, 1, 88, 380
-0.988341, 153, 225, 184, 352
-0.988352, 209, 153, 272, 184
-0.988358, 81, 25, 208, 88
-0.9884, 161, 321, 224, 380
-0.988401, 57, 233, 88, 296
-0.988419, 1, 233, 64, 296
-0.988424, 281, 125, 344, 156
-0.988436, 321, 181, 384, 212
-0.988472, 341, 73, 372, 136
-0.988475, 89, 145, 152, 272
-0.988489, 461, 41, 492, 104
-0.988543, 337, 9, 400, 72
-0.988556, 97, 145, 224, 208
-0.988581, 225, 241, 288, 272
-0.988596, 377, 313, 440, 344
-0.988603, 401, 257, 464, 288
-0.988611, 49, 145, 176, 208
-0.988618, 225, 185, 480, 248
-0.988633, 189, 209, 220, 336
-0.988655, 349, 113, 380, 240
-0.988663, 409, 65, 472, 96
-0.988718, 257, 293, 320, 324
-0.988725, 225, 33, 288, 96
-0.988758, 365, 193, 396, 320
-0.988794, 85, 193, 116, 320
-0.988837, 225, 297, 480, 360
-0.98885, 265, 233, 328, 264
-0.988971, 161, 97, 224, 352
-0.989054, 401, 245, 464, 276
-0.989059, 109, 1, 140, 128
-0.989065, 193, 161, 448, 224
-0.989079, 241, 169, 304, 200
-0.989088, 193, 1, 320, 64
-0.989097, 225, 241, 480, 304
-0.989099, 265, 245, 328, 276
-0.989143, 97, 1, 224, 64
-0.989161, 113, 1, 176, 380
-0.989178, 289, 309, 352, 340
-0.989181, 401, 209, 464, 240
-0.989183, 425, 257, 488, 288
-0.989223, 17, 25, 144, 88
-0.989226, 401, 313, 464, 344
-0.98923, 297, 169, 360, 200
-0.989256, 1, 113, 128, 176
-0.989299, 241, 229, 304, 260
-0.989355, 265, 185, 328, 216
-0.9894, 401, 285, 464, 316
-0.989485, 417, 269, 480, 300
-0.989496, 401, 297, 464, 328
-0.989582, 241, 253, 304, 284
-0.989627, 241, 145, 304, 176
-0.989633, 185, 137, 248, 168
-0.989636, 137, 97, 200, 352
-0.989656, 409, 197, 472, 228
-0.989679, 129, 281, 384, 344
-0.989695, 297, 321, 360, 352
-0.989724, 369, 197, 432, 228
-0.989747, 361, 73, 424, 104
-0.98978, 321, 193, 384, 224
-0.989789, 129, 177, 192, 304
-0.989798, 273, 33, 304, 160
-0.989843, 225, 321, 480, 380
-0.989883, 185, 253, 248, 284
-0.989891, 353, 313, 416, 344
-0.989891, 417, 53, 480, 84
-0.989892, 257, 305, 320, 336
-0.989905, 209, 165, 272, 196
-0.989906, 369, 325, 432, 356
-0.989909, 257, 317, 320, 348
-0.989922, 409, 77, 472, 108
-0.989924, 281, 137, 344, 168
-0.989956, 425, 297, 488, 328
-0.98996, 273, 221, 336, 252
-0.989962, 121, 1, 184, 256
-0.989971, 409, 221, 472, 252
-0.989977, 425, 245, 488, 276
-0.989991, 273, 269, 336, 300
-0.989995, 225, 217, 480, 280
-0.989996, 129, 201, 384, 264
-0.990019, 25, 273, 88, 304
-0.990044, 385, 77, 448, 108
-0.990069, 377, 233, 440, 264
-0.990103, 65, 257, 128, 288
-0.990211, 225, 181, 288, 212
-0.990219, 273, 209, 336, 240
-0.990272, 209, 257, 272, 288
-0.990285, 73, 269, 136, 300
-0.990327, 65, 249, 320, 312
-0.990338, 421, 17, 452, 144
-0.990348, 25, 293, 88, 324
-0.990357, 65, 169, 192, 232
-0.99037, 233, 309, 296, 340
-0.990401, 433, 281, 496, 312
-0.990435, 209, 241, 240, 368
-0.990438, 289, 297, 352, 328
-0.990499, 81, 245, 144, 276
-0.990505, 225, 193, 288, 224
-0.990523, 281, 157, 344, 188
-0.990541, 241, 217, 304, 248
-0.990541, 233, 281, 296, 312
-0.990553, 225, 33, 352, 96
-0.990587, 361, 221, 424, 252
-0.990591, 409, 333, 472, 364
-0.990595, 65, 9, 128, 40
-0.99065, 321, 157, 384, 188
-0.990662, 25, 261, 88, 292
-0.990667, 377, 285, 440, 316
-0.990689, 385, 57, 448, 88
-0.990692, 145, 253, 208, 284
-0.990705, 337, 77, 400, 108
-0.990719, 433, 217, 496, 248
-0.990728, 321, 141, 384, 172
-0.990729, 185, 273, 248, 304
-0.990745, 361, 89, 424, 120
-0.990768, 65, 305, 128, 336
-0.990772, 321, 169, 384, 200
-0.990777, 233, 265, 296, 296
-0.99078, 265, 333, 328, 364
-0.990781, 1, 225, 500, 288
-0.990801, 377, 245, 440, 276
-0.990804, 425, 309, 488, 340
-0.990807, 329, 313, 392, 344
-0.990808, 25, 241, 88, 272
-0.99081, 193, 345, 256, 376
-0.990828, 177, 237, 240, 268
-0.990843, 49, 281, 112, 312
-0.990844, 65, 229, 128, 260
-0.990878, 241, 157, 304, 188
-0.990887, 73, 1, 136, 256
-0.990904, 265, 197, 328, 228
-0.990961, 433, 329, 496, 360
-0.991015, 289, 249, 352, 280
-0.991017, 297, 189, 360, 220
-0.991027, 145, 233, 208, 264
-0.991042, 449, 129, 480, 256
-0.991058, 353, 209, 416, 240
-0.991062, 73, 293, 136, 324
-0.991072, 345, 165, 408, 196
-0.991076, 225, 297, 288, 328
-0.99109, 353, 301, 416, 332
-0.991094, 469, 209, 500, 336
-0.991101, 65, 317, 128, 348
-0.991111, 129, 113, 256, 176
-0.991115, 321, 129, 384, 160
-0.991128, 209, 141, 272, 172
-0.991153, 297, 333, 360, 364
-0.991153, 97, 269, 160, 300
-0.991155, 49, 241, 112, 272
-0.991161, 321, 281, 448, 344
-0.991164, 361, 185, 424, 216
-0.991168, 97, 193, 128, 320
-0.991184, 313, 85, 376, 116
-0.991208, 185, 169, 248, 200
-0.991216, 377, 257, 440, 288
-0.991244, 377, 269, 440, 300
-0.99127, 337, 89, 400, 120
-0.991282, 1, 269, 64, 300
-0.991321, 433, 233, 496, 264
-0.991323, 265, 257, 328, 288
-0.991329, 1, 249, 64, 280
-0.991331, 433, 65, 496, 96
-0.991343, 73, 145, 104, 272
-0.991346, 121, 237, 184, 268
-0.991367, 129, 209, 160, 336
-0.991373, 165, 177, 196, 304
-0.991376, 225, 265, 480, 328
-0.9914, 377, 345, 440, 376
-0.991405, 1, 289, 64, 320
-0.991406, 217, 229, 280, 260
-0.991407, 257, 281, 320, 312
-0.991448, 185, 149, 248, 180
-0.991478, 321, 17, 384, 48
-0.991482, 265, 345, 328, 376
-0.991483, 225, 325, 288, 356
-0.991504, 321, 117, 384, 148
-0.991516, 433, 341, 496, 372
-0.991526, 129, 25, 256, 88
-0.991535, 193, 161, 224, 288
-0.991537, 425, 41, 488, 72
-0.991544, 49, 121, 176, 184
-0.991594, 1, 97, 64, 352
-0.991621, 141, 209, 172, 336
-0.991632, 1, 297, 500, 360
-0.991673, 249, 17, 280, 144
-0.991698, 129, 137, 384, 200
-0.991713, 181, 145, 212, 272
-0.991766, 129, 225, 384, 288
-0.991848, 113, 97, 176, 352
-0.991893, 433, 81, 496, 208
-0.991906, 369, 241, 496, 272
-0.991935, 161, 1, 416, 64
-0.992001, 217, 81, 248, 208
-0.992025, 409, 209, 440, 240
-0.992032, 429, 225, 460, 256
-0.992061, 1, 169, 500, 232
-0.992136, 457, 253, 488, 284
-0.992144, 389, 293, 420, 324
-0.992149, 257, 105, 384, 168
-0.992185, 353, 113, 480, 176
-0.992233, 1, 249, 500, 312
-0.992251, 409, 289, 440, 320
-0.992258, 429, 253, 460, 284
-0.992276, 1, 1, 64, 380
-0.9923, 381, 305, 412, 336
-0.992304, 449, 65, 480, 96
-0.992309, 253, 149, 284, 180
-0.992322, 413, 241, 444, 272
-0.992332, 449, 265, 480, 296
-0.992339, 393, 225, 424, 256
-0.992352, 445, 241, 476, 272
-0.992405, 413, 257, 444, 288
-0.992414, 385, 17, 416, 144
-0.992418, 409, 309, 440, 340
-0.992425, 225, 113, 480, 176
-0.99245, 273, 237, 304, 268
-0.992459, 281, 289, 312, 320
-0.992468, 301, 249, 332, 280
-0.992475, 253, 209, 284, 240
-0.992481, 249, 245, 280, 276
-0.992482, 273, 249, 304, 280
-0.992484, 429, 65, 460, 96
-0.992485, 389, 213, 420, 244
-0.992489, 461, 269, 492, 300
-0.992494, 305, 229, 432, 260
-0.992496, 253, 185, 284, 216
-0.992496, 429, 313, 460, 344
-0.992498, 229, 261, 260, 292
-0.992501, 393, 313, 424, 344
-0.992522, 329, 165, 360, 196
-0.992527, 17, 261, 48, 292
-0.992532, 289, 249, 320, 280
-0.992549, 309, 189, 340, 220
-0.992557, 289, 265, 320, 296
-0.992561, 233, 241, 264, 272
-0.992563, 429, 237, 460, 268
-0.992564, 369, 145, 496, 208
-0.992573, 413, 65, 444, 96
-0.992579, 253, 165, 284, 196
-0.992581, 329, 177, 360, 208
-0.992584, 393, 329, 424, 360
-0.992601, 301, 121, 332, 152
-0.992602, 357, 81, 388, 112
-0.992602, 421, 193, 452, 224
-0.992607, 33, 281, 288, 344
-0.992618, 469, 253, 500, 284
-0.99262, 341, 181, 372, 212
-0.992621, 109, 245, 140, 276
-0.992621, 249, 257, 280, 288
-0.992629, 469, 285, 500, 316
-0.992634, 305, 205, 432, 236
-0.992638, 301, 301, 332, 332
-0.992642, 449, 45, 480, 76
-0.992644, 1, 225, 256, 288
-0.992646, 205, 133, 236, 164
-0.992647, 265, 145, 296, 176
-0.992648, 389, 73, 420, 104
-0.992651, 273, 169, 304, 200
-0.992653, 401, 249, 432, 280
-0.99266, 413, 269, 444, 300
-0.992661, 73, 245, 104, 276
-0.992663, 101, 257, 132, 288
-0.992674, 365, 93, 396, 124
-0.99268, 57, 277, 88, 308
-0.992691, 409, 221, 440, 252
-0.992691, 89, 249, 120, 280
-0.992693, 77, 257, 108, 288
-0.992708, 461, 329, 492, 360
-0.992712, 409, 77, 440, 108
-0.992721, 381, 317, 412, 348
-0.992721, 441, 253, 472, 284
-0.992722, 429, 53, 460, 84
-0.992722, 45, 281, 76, 312
-0.992724, 401, 237, 432, 268
-0.992726, 237, 17, 268, 144
-0.992728, 173, 17, 204, 144
-0.992729, 65, 65, 192, 128
-0.992737, 405, 197, 436, 228
-0.992739, 257, 197, 288, 228
-0.99274, 241, 193, 272, 224
-0.992743, 225, 33, 480, 96
-0.992744, 429, 277, 460, 308
-0.992747, 373, 77, 404, 108
-0.992747, 205, 165, 236, 196
-0.992751, 449, 77, 480, 108
-0.992774, 173, 253, 204, 284
-0.992782, 409, 321, 440, 352
-0.992784, 421, 213, 452, 244
-0.992787, 249, 229, 280, 260
-0.992792, 161, 245, 192, 276
-0.992805, 385, 89, 416, 120
-0.992807, 241, 177, 272, 208
-0.99281, 451, 241, 466, 304
-0.992812, 429, 289, 460, 320
-0.992819, 269, 285, 300, 316
-0.99282, 1, 201, 500, 264
-0.992826, 225, 233, 352, 264
-0.99283, 385, 201, 416, 232
-0.992832, 421, 77, 452, 108
-0.992847, 429, 301, 460, 332
-0.992847, 357, 189, 388, 220
-0.992848, 17, 277, 48, 308
-0.992861, 57, 293, 88, 324
-0.992862, 221, 341, 252, 372
-0.992875, 285, 313, 316, 344
-0.992879, 221, 249, 252, 280
-0.992886, 317, 173, 348, 204
-0.992888, 301, 249, 316, 312
-0.992889, 301, 273, 332, 304
-0.99289, 441, 209, 472, 240
-0.992896, 429, 333, 460, 364
-0.992904, 5, 269, 36, 300
-0.992907, 261, 249, 292, 280
-0.992907, 401, 261, 432, 292
-0.992909, 217, 161, 248, 192
-0.992914, 65, 261, 96, 292
-0.99292, 401, 65, 432, 96
-0.992921, 233, 157, 264, 188
-0.992935, 117, 269, 148, 300
-0.992943, 305, 325, 336, 356
-0.992943, 321, 133, 352, 164
-0.992944, 173, 233, 204, 264
-0.99295, 301, 233, 332, 264
-0.992953, 321, 321, 352, 352
-0.992954, 285, 177, 316, 208
-0.992956, 305, 313, 336, 344
-0.992957, 101, 269, 132, 300
-0.992958, 373, 125, 404, 156
-0.992959, 269, 157, 300, 188
-0.992961, 185, 17, 216, 144
-0.992964, 369, 317, 400, 348
-0.992967, 369, 209, 400, 240
-0.992969, 289, 217, 416, 248
-0.99297, 405, 337, 436, 368
-0.992974, 437, 265, 468, 296
-0.992975, 441, 313, 472, 344
-0.99298, 445, 297, 476, 328
-0.99298, 317, 201, 348, 232
-0.992981, 441, 221, 472, 252
-0.992982, 33, 269, 64, 300
-0.992985, 17, 289, 48, 320
-0.992985, 261, 265, 292, 296
-0.992987, 385, 241, 416, 272
-0.992988, 381, 329, 412, 360
-0.992994, 269, 193, 300, 224
-0.993011, 397, 113, 428, 240
-0.993056, 401, 289, 416, 352
-0.993057, 193, 169, 320, 200
-0.993105, 129, 321, 384, 380
-0.993107, 369, 297, 496, 328
-0.993109, 209, 313, 336, 344
-0.993142, 365, 1, 396, 128
-0.993143, 1, 97, 64, 224
-0.993154, 49, 89, 176, 152
-0.993176, 377, 257, 408, 380
-0.993188, 225, 189, 352, 220
-0.993204, 65, 161, 320, 224
-0.993211, 257, 57, 500, 120
-0.993233, 225, 221, 352, 252
-0.993244, 423, 217, 438, 280
-0.993261, 49, 1, 112, 256
-0.993264, 461, 49, 492, 176
-0.993361, 317, 241, 348, 368
-0.993366, 435, 225, 450, 288
-0.993366, 225, 245, 352, 276
-0.993369, 113, 209, 240, 272
-0.993383, 225, 89, 480, 152
-0.993395, 1, 129, 500, 192
-0.9934, 97, 17, 128, 144
-0.993418, 411, 249, 426, 312
-0.993441, 209, 153, 336, 184
-0.993447, 289, 301, 416, 332
-0.993459, 257, 177, 384, 208
-0.993464, 445, 225, 460, 288
-0.993501, 209, 301, 336, 332
-0.993503, 353, 221, 480, 252
-0.99351, 369, 253, 496, 284
-0.993608, 387, 297, 402, 360
-0.993622, 153, 17, 184, 144
-0.993632, 209, 17, 240, 144
-0.993652, 473, 265, 488, 328
-0.993691, 417, 225, 432, 288
-0.993703, 423, 257, 438, 320
-0.993763, 221, 17, 252, 144
-0.993773, 321, 77, 448, 108
-0.993818, 213, 193, 244, 320
-0.993859, 289, 193, 416, 224
-0.993868, 225, 133, 352, 164
-0.993889, 293, 249, 308, 312
-0.993891, 353, 317, 480, 348
-0.993907, 185, 65, 216, 192
-0.993911, 267, 265, 282, 328
-0.993914, 33, 121, 288, 184
-0.993937, 409, 113, 440, 240
-0.993954, 189, 249, 204, 312
-0.99396, 209, 325, 336, 356
-0.993986, 275, 217, 290, 280
-0.993986, 243, 241, 258, 304
-0.994017, 53, 17, 84, 144
-0.994019, 451, 265, 466, 328
-0.994032, 295, 289, 310, 352
-0.994033, 393, 297, 408, 360
-0.994047, 261, 17, 292, 144
-0.994092, 1, 321, 500, 380
-0.99411, 209, 265, 336, 296
-0.994121, 365, 257, 396, 380
-0.994129, 277, 145, 292, 208
-0.994146, 411, 193, 426, 256
-0.994146, 409, 217, 424, 280
-0.99415, 287, 137, 302, 200
-0.99415, 319, 185, 334, 248
-0.9942, 461, 257, 476, 320
-0.994214, 289, 313, 416, 344
-0.994236, 429, 225, 444, 288
-0.994255, 255, 185, 270, 248
-0.994261, 257, 145, 272, 208
-0.994271, 209, 289, 336, 320
-0.994331, 311, 249, 326, 312
-0.99437, 37, 17, 68, 144
-0.994372, 223, 137, 238, 200
-0.994389, 417, 257, 432, 320
-0.994408, 429, 257, 444, 320
-0.994425, 369, 73, 496, 104
-0.994442, 109, 177, 140, 304
-0.994469, 273, 129, 400, 160
-0.994484, 41, 193, 72, 320
-0.994493, 403, 225, 418, 288
-0.994516, 1, 193, 32, 320
-0.994527, 15, 257, 30, 320
-0.994533, 57, 161, 88, 288
-0.994555, 379, 89, 394, 152
-0.994555, 73, 97, 104, 224
-0.994556, 275, 249, 290, 312
-0.994571, 1, 245, 128, 276
-0.994579, 1, 89, 128, 152
-0.994581, 379, 313, 394, 376
-0.994584, 403, 313, 418, 376
-0.994585, 305, 273, 320, 336
-0.994592, 403, 257, 418, 320
-0.994603, 1, 273, 500, 336
-0.994605, 299, 313, 314, 376
-0.994643, 225, 209, 352, 240
-0.994674, 409, 1, 440, 128
-0.994694, 413, 289, 428, 352
-0.994788, 269, 145, 284, 208
-0.994811, 467, 265, 482, 328
-0.994816, 93, 65, 124, 192
-0.994828, 209, 129, 224, 192
-0.994834, 49, 241, 176, 272
-0.994841, 331, 169, 346, 232
-0.994868, 289, 241, 416, 272
-0.994881, 393, 321, 408, 380
-0.994898, 17, 65, 144, 128
-0.994901, 111, 241, 126, 304
-0.99492, 263, 145, 278, 208
-0.994925, 209, 337, 336, 368
-0.994937, 349, 65, 380, 192
-0.994962, 269, 241, 284, 304
-0.994983, 451, 217, 466, 280
-0.995008, 369, 285, 496, 316
-0.995013, 451, 57, 466, 120
-0.995025, 1, 9, 256, 72
-0.995034, 285, 129, 316, 380
-0.995057, 481, 289, 496, 352
-0.995067, 161, 277, 288, 308
-0.995076, 33, 201, 288, 264
-0.99508, 1, 257, 128, 288
-0.995106, 283, 249, 298, 312
-0.995112, 177, 137, 304, 168
-0.99513, 389, 89, 404, 152
-0.99514, 241, 165, 368, 196
-0.995141, 217, 129, 232, 192
-0.995143, 129, 33, 384, 96
-0.995146, 445, 257, 460, 320
-0.995154, 137, 65, 200, 192
-0.995163, 419, 193, 434, 256
-0.995165, 353, 209, 480, 240
-0.995186, 261, 193, 276, 256
-0.995189, 423, 281, 438, 344
-0.995191, 339, 153, 354, 216
-0.995195, 409, 313, 424, 376
-0.995196, 161, 241, 288, 272
-0.995227, 183, 249, 198, 312
-0.995234, 437, 49, 452, 112
-0.995261, 1, 73, 500, 136
-0.995263, 275, 281, 290, 344
-0.995268, 473, 305, 488, 368
-0.995275, 445, 201, 460, 264
-0.995281, 433, 313, 448, 376
-0.995295, 463, 41, 478, 104
-0.995296, 479, 249, 494, 312
-0.995297, 281, 289, 296, 352
-0.995303, 249, 177, 264, 240
-0.995333, 321, 61, 448, 92
-0.995343, 289, 325, 416, 356
-0.995347, 323, 209, 338, 272
-0.99535, 435, 257, 450, 320
-0.995376, 385, 321, 400, 380
-0.99538, 305, 297, 320, 360
-0.995399, 383, 193, 398, 256
-0.995404, 83, 241, 98, 304
-0.995429, 369, 17, 496, 80
-0.99543, 457, 41, 472, 104
-0.995438, 17, 273, 144, 304
-0.995444, 439, 305, 454, 368
-0.995466, 383, 65, 398, 128
-0.995466, 305, 181, 432, 212
-0.995474, 389, 145, 404, 208
-0.995479, 189, 273, 204, 336
-0.995487, 261, 265, 276, 328
-0.99549, 253, 217, 268, 280
-0.995491, 237, 257, 252, 320
-0.995514, 271, 169, 286, 232
-0.995516, 161, 65, 416, 128
-0.99552, 273, 85, 400, 116
-0.995526, 407, 289, 422, 352
-0.995548, 469, 241, 484, 304
-0.99555, 177, 253, 304, 284
-0.995551, 17, 285, 144, 316
-0.995556, 369, 61, 496, 92
-0.995576, 223, 249, 238, 312
-0.99558, 265, 169, 280, 232
-0.995588, 367, 73, 382, 136
-0.995619, 443, 41, 458, 104
-0.995624, 289, 169, 304, 232
-0.99563, 389, 65, 404, 128
-0.995633, 209, 277, 336, 308
-0.995659, 485, 313, 500, 376
-0.995668, 101, 257, 116, 320
-0.995668, 461, 281, 476, 344
-0.995674, 329, 33, 360, 288
-0.995685, 247, 201, 262, 264
-0.995705, 269, 217, 284, 280
-0.995711, 431, 281, 446, 344
-0.99572, 435, 201, 450, 264
-0.995721, 327, 129, 342, 192
-0.995749, 369, 265, 496, 296
-0.995749, 129, 253, 256, 284
-0.995773, 65, 277, 192, 308
-0.995774, 289, 289, 304, 352
-0.995784, 377, 201, 392, 264
-0.995798, 257, 9, 500, 72
-0.995799, 385, 217, 400, 280
-0.995806, 445, 297, 460, 360
-0.995825, 373, 65, 404, 320
-0.995848, 117, 225, 132, 288
-0.995849, 177, 213, 304, 244
-0.995852, 229, 249, 244, 312
-0.995884, 289, 289, 416, 320
-0.995885, 281, 225, 296, 288
-0.995895, 453, 289, 468, 352
-0.995897, 113, 169, 240, 232
-0.995901, 1, 33, 500, 96
-0.995903, 349, 177, 364, 240
-0.995906, 339, 177, 354, 240
-0.995908, 257, 145, 384, 176
-0.99591, 269, 289, 284, 352
-0.995925, 431, 57, 446, 120
-0.995925, 317, 233, 332, 296
-0.995932, 371, 193, 386, 256
-0.995943, 425, 305, 440, 368
-0.99595, 423, 65, 438, 128
-0.995958, 393, 97, 424, 352
-0.995964, 353, 197, 480, 228
-0.995972, 313, 209, 328, 272
-0.995972, 249, 249, 264, 312
-0.995973, 375, 65, 390, 128
-0.995978, 267, 193, 282, 256
-0.995981, 49, 17, 176, 48
-0.995987, 447, 81, 462, 144
-0.995995, 415, 65, 430, 128
-0.996001, 243, 265, 258, 328
-0.996008, 397, 249, 412, 312
-0.996026, 33, 65, 288, 128
-0.996032, 467, 289, 482, 352
-0.996033, 119, 249, 134, 312
-0.996042, 321, 89, 448, 120
-0.996046, 279, 169, 294, 232
-0.99605, 97, 265, 224, 296
-0.99605, 305, 117, 432, 148
-0.996098, 49, 229, 176, 260
-0.996109, 49, 301, 176, 332
-0.99611, 1, 233, 128, 264
-0.996151, 353, 329, 480, 360
-0.996154, 33, 321, 288, 380
-0.996155, 353, 177, 480, 208
-0.996176, 1, 297, 128, 328
-0.99618, 49, 317, 176, 348
-0.996193, 309, 129, 340, 380
-0.996201, 137, 129, 200, 256
-0.996216, 305, 141, 432, 172
-0.996222, 209, 121, 336, 152
-0.996238, 161, 345, 288, 376
-0.996242, 113, 89, 240, 152
-0.996248, 229, 65, 260, 320
-0.996277, 49, 345, 176, 376
-0.996287, 257, 337, 384, 368
-0.996304, 321, 253, 448, 284
-0.996343, 129, 149, 256, 180
-0.996354, 129, 133, 256, 164
-0.996378, 161, 181, 288, 212
-0.996381, 321, 129, 352, 380
-0.996421, 369, 349, 496, 380
-0.996428, 65, 289, 192, 320
-0.996429, 241, 349, 368, 380
-0.996459, 305, 169, 432, 200
-0.996463, 129, 113, 384, 176
-0.996467, 49, 261, 176, 292
-0.996487, 161, 197, 288, 228
-0.996509, 49, 1, 176, 32
-0.99651, 305, 157, 432, 188
-0.996518, 297, 129, 328, 380
-0.996548, 145, 229, 272, 260
-0.996589, 129, 161, 256, 192
-0.996594, 321, 41, 448, 72
-0.996605, 421, 129, 452, 380
-0.996608, 253, 129, 284, 380
-0.996644, 257, 29, 384, 60
-0.996676, 369, 85, 496, 116
-0.996677, 265, 65, 296, 320
-0.996679, 1, 105, 500, 168
-0.996702, 449, 129, 480, 380
-0.996711, 129, 89, 384, 152
-0.996717, 305, 33, 336, 288
-0.996723, 409, 129, 440, 380
-0.996732, 321, 265, 448, 296
-0.996743, 89, 65, 152, 192
-0.996756, 289, 33, 320, 288
-0.996781, 257, 41, 384, 72
-0.9968, 273, 65, 400, 96
-0.996855, 97, 237, 224, 268
-0.99686, 451, 241, 466, 272
-0.996866, 225, 1, 352, 32
-0.996873, 161, 265, 288, 296
-0.996899, 321, 29, 448, 60
-0.996932, 317, 33, 348, 288
-0.996952, 341, 33, 372, 288
-0.996967, 257, 269, 384, 300
-0.996997, 1, 13, 128, 44
-0.996999, 185, 1, 216, 256
-0.997012, 49, 329, 176, 360
-0.997061, 401, 293, 416, 324
-0.99707, 161, 289, 288, 320
-0.997074, 33, 97, 288, 160
-0.997074, 197, 129, 228, 380
-0.997093, 361, 65, 392, 320
-0.997097, 301, 249, 316, 280
-0.997106, 193, 73, 320, 104
-0.997121, 97, 13, 224, 44
-0.997138, 209, 1, 240, 256
-0.997146, 469, 257, 484, 288
-0.997155, 385, 305, 400, 336
-0.997158, 97, 305, 224, 336
-0.997166, 269, 245, 284, 276
-0.99717, 1, 309, 128, 340
-0.997183, 413, 201, 428, 232
-0.997193, 113, 277, 240, 308
-0.997196, 249, 1, 280, 256
-0.997216, 321, 189, 336, 220
-0.997218, 421, 213, 436, 244
-0.997255, 401, 313, 416, 344
-0.997263, 257, 193, 272, 224
-0.997287, 429, 33, 460, 288
-0.997291, 459, 249, 474, 280
-0.997297, 321, 129, 448, 160
-0.997305, 411, 249, 426, 280
-0.997318, 17, 269, 32, 300
-0.997332, 97, 225, 224, 256
-0.997337, 417, 249, 432, 280
-0.99734, 433, 313, 448, 344
-0.997358, 475, 257, 490, 288
-0.997373, 463, 65, 478, 96
-0.997375, 1, 177, 128, 208
-0.997389, 439, 225, 454, 256
-0.99739, 419, 281, 434, 312
-0.99739, 49, 217, 176, 248
-0.997403, 295, 249, 310, 280
-0.997404, 433, 129, 464, 380
-0.997405, 379, 89, 394, 120
-0.997408, 443, 253, 458, 284
-0.997411, 427, 257, 442, 288
-0.997428, 145, 73, 272, 104
-0.997443, 83, 245, 98, 276
-0.99745, 305, 301, 320, 332
-0.997454, 453, 265, 468, 296
-0.997465, 1, 189, 128, 220
-0.997469, 243, 261, 258, 292
-0.997469, 331, 173, 346, 204
-0.997472, 243, 241, 258, 272
-0.997483, 395, 293, 410, 324
-0.997486, 409, 33, 440, 288
-0.997503, 289, 169, 304, 200
-0.997509, 225, 85, 352, 116
-0.997509, 389, 293, 404, 324
-0.99751, 463, 269, 478, 300
-0.99751, 403, 329, 418, 360
-0.997516, 307, 249, 322, 280
-0.99752, 321, 349, 448, 380
-0.997538, 213, 129, 244, 380
-0.997541, 295, 293, 310, 324
-0.997549, 411, 293, 426, 324
-0.997551, 261, 145, 276, 176
-0.997552, 411, 261, 426, 292
-0.99756, 451, 61, 466, 92
-0.997564, 403, 73, 418, 104
-0.997564, 425, 237, 440, 268
-0.997582, 297, 261, 312, 292
-0.997589, 473, 269, 488, 300
-0.99759, 369, 49, 496, 80
-0.997592, 1, 157, 128, 188
-0.997593, 1, 1, 500, 64
-0.997597, 483, 349, 498, 380
-0.9976, 97, 345, 224, 376
-0.997607, 67, 273, 82, 304
-0.997612, 279, 233, 294, 264
-0.997614, 277, 221, 292, 252
-0.997626, 177, 1, 304, 32
-0.997632, 161, 309, 288, 340
-0.997633, 255, 153, 270, 184
-0.997634, 269, 145, 284, 176
-0.997643, 409, 217, 424, 248
-0.997645, 275, 249, 290, 280
-0.997649, 337, 129, 368, 380
-0.997654, 425, 225, 440, 256
-0.997655, 419, 61, 434, 92
-0.997661, 277, 1, 308, 256
-0.997671, 273, 97, 400, 128
-0.997676, 435, 241, 450, 272
-0.997684, 423, 297, 438, 328
-0.997687, 97, 249, 112, 280
-0.997717, 321, 201, 336, 232
-0.99772, 379, 317, 394, 348
-0.997721, 1, 221, 128, 252
-0.997725, 433, 225, 448, 256
-0.997727, 187, 253, 202, 284
-0.997728, 445, 225, 460, 256
-0.997729, 367, 189, 382, 220
-0.997729, 15, 253, 30, 284
-0.997731, 439, 309, 454, 340
-0.997734, 469, 129, 500, 380
-0.997736, 437, 69, 452, 100
-0.997736, 385, 1, 416, 256
-0.997739, 359, 85, 374, 116
-0.997746, 321, 17, 448, 48
-0.997747, 391, 305, 406, 336
-0.997748, 265, 261, 280, 292
-0.997749, 419, 237, 434, 268
-0.997752, 241, 17, 368, 48
-0.997753, 339, 157, 354, 188
-0.997757, 251, 181, 266, 212
-0.997759, 421, 261, 436, 292
-0.99777, 457, 61, 472, 92
-0.997772, 267, 197, 282, 228
-0.997776, 441, 33, 472, 288
-0.997776, 1, 145, 128, 176
-0.997777, 303, 265, 318, 296
-0.997787, 451, 77, 466, 108
-0.997788, 485, 337, 500, 368
-0.997788, 413, 77, 428, 108
-0.997789, 453, 253, 468, 284
-0.9978, 171, 241, 186, 272
-0.997804, 333, 161, 348, 192
-0.997811, 273, 233, 288, 264
-0.997814, 389, 317, 404, 348
-0.997816, 317, 121, 332, 152
-0.997817, 445, 241, 460, 272
-0.997817, 445, 65, 460, 96
-0.997823, 223, 161, 238, 192
-0.997826, 481, 253, 496, 284
-0.997831, 111, 245, 126, 276
-0.997832, 313, 249, 328, 280
-0.997833, 291, 273, 306, 304
-0.997833, 77, 245, 92, 276
-0.997835, 411, 273, 426, 304
-0.997845, 463, 45, 478, 76
-0.997851, 465, 245, 480, 276
-0.997851, 397, 329, 412, 360
-0.997852, 49, 205, 176, 236
-0.997858, 389, 153, 404, 184
-0.997869, 411, 309, 426, 340
-0.997869, 225, 141, 240, 172
-0.99788, 33, 33, 288, 96
-0.997881, 277, 161, 292, 192
-0.997881, 393, 89, 408, 120
-0.997886, 103, 265, 118, 296
-0.997887, 381, 209, 396, 240
-0.99789, 349, 177, 364, 208
-0.997891, 1, 345, 128, 376
-0.997897, 387, 73, 402, 104
-0.997901, 263, 209, 278, 240
-0.997903, 97, 317, 224, 348
-0.997903, 379, 73, 394, 104
-0.997909, 483, 293, 498, 324
-0.997909, 237, 261, 252, 292
-0.997912, 369, 77, 384, 108
-0.997913, 57, 281, 72, 312
-0.99792, 257, 209, 272, 240
-0.997933, 31, 281, 46, 312
-0.997938, 25, 261, 40, 292
-0.997944, 1, 325, 128, 356
-0.997944, 297, 313, 312, 344
-0.997946, 285, 237, 300, 268
-0.997946, 373, 197, 388, 228
-0.997954, 275, 145, 290, 176
-0.997958, 83, 233, 98, 264
-0.997971, 329, 145, 344, 176
-0.997976, 413, 65, 428, 96
-0.997978, 469, 285, 484, 316
-0.997979, 337, 177, 352, 208
-0.997984, 409, 321, 424, 352
-0.997987, 447, 205, 462, 236
-0.997987, 77, 257, 92, 288
-0.99799, 127, 265, 142, 296
-0.997991, 431, 57, 446, 88
-0.998002, 321, 101, 448, 132
-0.998006, 241, 129, 272, 380
-0.99802, 369, 97, 496, 128
-0.99806, 49, 193, 176, 224
-0.998063, 257, 53, 384, 84
-0.998092, 73, 129, 104, 380
-0.998096, 453, 33, 484, 288
-0.998187, 21, 1, 52, 256
-0.99824, 145, 1, 272, 64
-0.998291, 349, 129, 380, 380
-0.998295, 105, 129, 136, 380
-0.998304, 49, 1, 80, 256
-0.998311, 377, 213, 440, 228
-0.998338, 377, 299, 440, 314
-0.99834, 377, 221, 440, 236
-0.998355, 377, 207, 440, 222
-0.998362, 9, 129, 40, 380
-0.998363, 377, 317, 440, 332
-0.998383, 411, 193, 426, 320
-0.998393, 401, 227, 464, 242
-0.998395, 401, 241, 416, 368
-0.998398, 377, 229, 440, 244
-0.998399, 279, 225, 294, 352
-0.998416, 197, 1, 228, 256
-0.99842, 401, 261, 464, 276
-0.998423, 401, 241, 464, 256
-0.998428, 321, 191, 384, 206
-0.998433, 273, 237, 336, 252
-0.998433, 281, 137, 344, 152
-0.998435, 401, 233, 464, 248
-0.998436, 301, 309, 332, 324
-0.998436, 377, 315, 408, 330
-0.998436, 109, 263, 140, 278
-0.998437, 353, 87, 384, 102
-0.998438, 321, 327, 352, 342
-0.998438, 305, 329, 336, 344
-0.998438, 257, 295, 320, 310
-0.998441, 257, 217, 288, 232
-0.998441, 321, 131, 352, 146
-0.998441, 425, 291, 456, 306
-0.998442, 209, 161, 272, 176
-0.998442, 389, 323, 420, 338
-0.998442, 429, 215, 460, 230
-0.998443, 225, 251, 288, 266
-0.998443, 461, 327, 492, 342
-0.998443, 285, 317, 316, 332
-0.998444, 385, 323, 448, 338
-0.998446, 1, 1, 32, 256
-0.998447, 241, 245, 304, 260
-0.998447, 73, 245, 104, 260
-0.998448, 409, 79, 472, 94
-0.99845, 285, 295, 316, 310
-0.998451, 201, 167, 232, 182
-0.998451, 165, 247, 196, 262
-0.998452, 369, 321, 400, 336
-0.998452, 57, 285, 88, 300
-0.998452, 385, 209, 416, 224
-0.998452, 437, 243, 468, 258
-0.998453, 245, 191, 276, 206
-0.998453, 273, 267, 304, 282
-0.998453, 437, 79, 468, 94
-0.998454, 29, 269, 60, 284
-0.998454, 273, 175, 304, 190
-0.998457, 233, 155, 264, 170
-0.998457, 401, 221, 464, 236
-0.998457, 5, 269, 36, 284
-0.998458, 89, 257, 120, 272
-0.998458, 233, 243, 264, 258
-0.998458, 409, 307, 440, 322
-0.998458, 305, 321, 336, 336
-0.998459, 421, 83, 452, 98
-0.99846, 289, 315, 352, 330
-0.99846, 297, 243, 328, 258
-0.998463, 369, 201, 432, 216
-0.998463, 209, 167, 272, 182
-0.998463, 333, 167, 364, 182
-0.998464, 417, 281, 480, 296
-0.998464, 381, 91, 412, 106
-0.998465, 393, 331, 424, 346
-0.998465, 237, 183, 268, 198
-0.998466, 233, 261, 264, 276
-0.998467, 401, 299, 464, 314
-0.998467, 257, 305, 320, 320
-0.998468, 429, 71, 460, 86
-0.998468, 449, 73, 480, 88
-0.998469, 217, 257, 248, 272
-0.99847, 45, 275, 76, 290
-0.998471, 257, 187, 288, 202
-0.998471, 377, 305, 440, 320
-0.998472, 413, 65, 444, 80
-0.998473, 301, 251, 332, 266
-0.998473, 329, 179, 360, 194
-0.998473, 257, 267, 320, 282
-0.998473, 411, 257, 426, 380
-0.998474, 405, 225, 436, 240
-0.998474, 429, 277, 460, 292
-0.998475, 73, 259, 104, 274
-0.998475, 281, 131, 344, 146
-0.998476, 393, 91, 424, 106
-0.998476, 393, 255, 456, 270
-0.998477, 417, 259, 448, 274
-0.998477, 377, 235, 440, 250
-0.998478, 185, 129, 216, 380
-0.998479, 293, 273, 324, 288
-0.998479, 409, 203, 472, 218
-0.998479, 413, 275, 444, 290
-0.998479, 421, 209, 452, 224
-0.998479, 241, 175, 304, 190
-0.998479, 281, 125, 344, 140
-0.99848, 25, 295, 88, 310
-0.99848, 377, 311, 440, 326
-0.998481, 417, 269, 480, 284
-0.998481, 405, 87, 436, 102
-0.998482, 393, 293, 456, 308
-0.998483, 401, 247, 464, 262
-0.998483, 297, 325, 360, 340
-0.998484, 209, 155, 272, 170
-0.998484, 101, 269, 132, 284
-0.998485, 409, 79, 440, 94
-0.998486, 269, 169, 300, 184
-0.998487, 361, 77, 424, 92
-0.998487, 249, 161, 280, 176
-0.998488, 253, 197, 284, 212
-0.998488, 361, 323, 424, 338
-0.998488, 405, 267, 436, 282
-0.998489, 297, 179, 360, 194
-0.998489, 9, 269, 72, 284
-0.99849, 409, 73, 472, 88
-0.99849, 337, 321, 400, 336
-0.99849, 241, 229, 304, 244
-0.998492, 13, 275, 44, 290
-0.998492, 397, 241, 428, 256
-0.998492, 117, 1, 148, 256
-0.998493, 419, 209, 434, 336
-0.998495, 429, 253, 460, 268
-0.998495, 257, 311, 320, 326
-0.998495, 381, 307, 412, 322
-0.998496, 257, 185, 320, 200
-0.998497, 17, 263, 48, 278
-0.998498, 269, 261, 300, 276
-0.998498, 389, 215, 420, 230
-0.998498, 409, 285, 440, 300
-0.998499, 265, 251, 296, 266
-0.998501, 265, 245, 328, 260
-0.998501, 401, 315, 464, 330
-0.998502, 241, 239, 304, 254
-0.998502, 269, 241, 300, 256
-0.998503, 233, 189, 296, 204
-0.998503, 29, 295, 60, 310
-0.998503, 413, 249, 444, 264
-0.998503, 321, 185, 384, 200
-0.998503, 409, 209, 472, 224
-0.998504, 449, 65, 480, 80
-0.998505, 429, 221, 460, 236
-0.998507, 377, 327, 408, 342
-0.998507, 257, 317, 320, 332
-0.998507, 425, 301, 488, 316
-0.998507, 429, 237, 460, 252
-0.998508, 421, 201, 452, 216
-0.998508, 341, 181, 372, 196
-0.998508, 57, 291, 88, 306
-0.998508, 265, 147, 296, 162
-0.998509, 409, 301, 440, 316
-0.998509, 273, 231, 336, 246
-0.998511, 413, 241, 444, 256
-0.998513, 57, 277, 88, 292
-0.998513, 461, 271, 492, 286
-0.998513, 433, 257, 496, 272
-0.998515, 281, 191, 344, 206
-0.998516, 101, 245, 132, 260
-0.998518, 257, 323, 320, 338
-0.998519, 241, 151, 304, 166
-0.99852, 321, 197, 384, 212
-0.998521, 241, 167, 304, 182
-0.998521, 273, 225, 336, 240
-0.998522, 369, 93, 400, 108
-0.998522, 253, 175, 284, 190
-0.998522, 265, 251, 328, 266
-0.998523, 421, 77, 452, 92
-0.998523, 401, 249, 432, 264
-0.998523, 25, 261, 88, 276
-0.998525, 401, 215, 464, 230
-0.998525, 397, 295, 428, 310
-0.998526, 25, 275, 88, 290
-0.998527, 429, 309, 460, 324
-0.998527, 465, 1, 496, 256
-0.998528, 253, 211, 284, 226
-0.998528, 217, 245, 280, 260
-0.998528, 449, 255, 480, 270
-0.998529, 65, 253, 128, 268
-0.99853, 409, 313, 440, 328
-0.99853, 449, 269, 480, 284
-0.998531, 233, 249, 264, 264
-0.998531, 273, 289, 304, 304
-0.998531, 185, 143, 248, 158
-0.998532, 185, 277, 248, 292
-0.998532, 409, 323, 440, 338
-0.998532, 285, 225, 300, 352
-0.998532, 353, 315, 416, 330
-0.998532, 433, 263, 496, 278
-0.998533, 73, 277, 136, 292
-0.998533, 149, 1, 180, 256
-0.998534, 185, 253, 248, 268
-0.998534, 253, 149, 284, 164
-0.998535, 225, 257, 288, 272
-0.998535, 225, 181, 288, 196
-0.998536, 193, 259, 256, 274
-0.998537, 461, 255, 492, 270
-0.998538, 429, 259, 460, 274
-0.998539, 417, 293, 480, 308
-0.998541, 273, 219, 336, 234
-0.998541, 209, 137, 240, 152
-0.998541, 389, 317, 420, 332
-0.998543, 249, 255, 280, 270
-0.998543, 321, 169, 384, 184
-0.998544, 265, 289, 328, 304
-0.998545, 265, 331, 328, 346
-0.998545, 253, 247, 284, 262
-0.998546, 425, 231, 456, 246
-0.998546, 345, 93, 408, 108
-0.998546, 377, 329, 440, 344
-0.998546, 433, 251, 496, 266
-0.998547, 389, 221, 420, 236
-0.998548, 81, 251, 112, 266
-0.998548, 449, 263, 480, 278
-0.998548, 253, 167, 284, 182
-0.998548, 277, 247, 308, 262
-0.99855, 401, 275, 464, 290
-0.99855, 89, 247, 152, 262
-0.99855, 225, 309, 288, 324
-0.998551, 49, 291, 112, 306
-0.998551, 281, 173, 344, 188
-0.998552, 429, 315, 460, 330
-0.998552, 409, 219, 440, 234
-0.998553, 57, 269, 120, 284
-0.998556, 265, 273, 328, 288
-0.998557, 309, 191, 340, 206
-0.998557, 281, 145, 344, 160
-0.998558, 425, 53, 488, 68
-0.998558, 405, 261, 436, 276
-0.998559, 297, 331, 360, 346
-0.998561, 393, 231, 424, 246
-0.998561, 289, 309, 352, 324
-0.998562, 241, 197, 304, 212
-0.998562, 401, 309, 464, 324
-0.998563, 217, 149, 280, 164
-0.998563, 65, 21, 128, 36
-0.998565, 421, 257, 436, 380
-0.998566, 193, 149, 256, 164
-0.998567, 409, 63, 472, 78
-0.998567, 449, 79, 480, 94
-0.998568, 401, 85, 464, 100
-0.998568, 9, 287, 72, 302
-0.998569, 281, 163, 344, 178
-0.998569, 401, 329, 464, 344
-0.998569, 241, 145, 304, 160
-0.998569, 45, 293, 76, 308
-0.99857, 393, 267, 456, 282
-0.998571, 25, 243, 88, 258
-0.998571, 241, 157, 304, 172
-0.998572, 361, 195, 424, 210
-0.998572, 225, 283, 288, 298
-0.998572, 1, 295, 64, 310
-0.998573, 225, 263, 288, 278
-0.998573, 217, 237, 280, 252
-0.998573, 201, 353, 264, 368
-0.998573, 225, 295, 288, 310
-0.998574, 249, 357, 312, 372
-0.998574, 209, 173, 272, 188
-0.998574, 425, 325, 488, 340
-0.998577, 409, 197, 472, 212
-0.998578, 185, 137, 248, 152
-0.998579, 289, 243, 352, 258
-0.99858, 33, 269, 96, 284
-0.998581, 385, 75, 448, 90
-0.998581, 305, 123, 336, 138
-0.998583, 33, 281, 96, 296
-0.998583, 385, 299, 416, 314
-0.998587, 249, 261, 280, 276
-0.998597, 405, 207, 436, 222
-0.998598, 169, 97, 200, 352
-0.998598, 473, 257, 488, 380
-0.998601, 297, 241, 312, 368
-0.998602, 21, 97, 52, 352
-0.998603, 405, 255, 436, 270
-0.998607, 427, 209, 442, 336
-0.998611, 461, 263, 492, 278
-0.998611, 89, 97, 120, 352
-0.998614, 405, 213, 436, 228
-0.99862, 409, 295, 440, 310
-0.998638, 395, 241, 410, 368
-0.998658, 311, 177, 326, 304
-0.998663, 291, 241, 306, 368
-0.998671, 17, 269, 48, 284
-0.998672, 289, 161, 304, 288
-0.99868, 241, 225, 256, 352
-0.998682, 289, 267, 320, 282
-0.998687, 251, 161, 266, 288
-0.998696, 263, 129, 278, 256
-0.9987, 299, 113, 314, 240
-0.998704, 37, 1, 68, 256
-0.998708, 173, 1, 204, 256
-0.998709, 1, 145, 64, 272
-0.998717, 305, 241, 320, 368
-0.998728, 321, 129, 336, 256
-0.998733, 305, 113, 320, 240
-0.998742, 269, 241, 284, 368
-0.998743, 53, 97, 84, 352
-0.998751, 187, 225, 202, 352
-0.998764, 293, 113, 308, 240
-0.998766, 255, 209, 270, 336
-0.998776, 235, 257, 250, 380
-0.998785, 447, 177, 462, 304
-0.998797, 283, 161, 298, 288
-0.998811, 479, 257, 494, 380
-0.99882, 313, 81, 328, 208
-0.998827, 389, 225, 404, 352
-0.99883, 239, 177, 254, 304
-0.998833, 433, 241, 448, 368
-0.998841, 301, 177, 316, 304
-0.99885, 451, 225, 466, 352
-0.998866, 101, 1, 132, 256
-0.998867, 117, 97, 148, 352
-0.998873, 437, 193, 452, 320
-0.998886, 287, 113, 302, 240
-0.998901, 161, 1, 192, 256
-0.998909, 257, 145, 272, 272
-0.998912, 331, 81, 346, 208
-0.998917, 397, 1, 428, 256
-0.998919, 385, 161, 400, 288
-0.998924, 389, 81, 404, 208
-0.998932, 405, 193, 420, 320
-0.998932, 295, 161, 310, 288
-0.998944, 321, 81, 336, 208
-0.998952, 245, 177, 260, 304
-0.998957, 247, 241, 262, 368
-0.998967, 17, 241, 32, 368
-0.998967, 275, 145, 290, 272
-0.998972, 323, 177, 338, 304
-0.998982, 331, 129, 346, 256
-0.998983, 273, 193, 288, 320
-0.998985, 277, 81, 292, 208
-0.998998, 379, 97, 394, 224
-0.999008, 311, 241, 326, 368
-0.999009, 337, 33, 352, 160
-0.999016, 67, 241, 82, 368
-0.999016, 193, 257, 208, 380
-0.999029, 77, 193, 92, 320
-0.999036, 315, 129, 330, 256
-0.999037, 443, 241, 458, 368
-0.999041, 233, 209, 248, 336
-0.999046, 339, 81, 354, 208
-0.999049, 109, 225, 124, 352
-0.999055, 317, 225, 332, 352
-0.99907, 229, 257, 244, 380
-0.999077, 137, 1, 168, 256
-0.999081, 379, 49, 394, 176
-0.999083, 25, 257, 40, 380
-0.999086, 267, 81, 282, 208
-0.999091, 267, 193, 282, 320
-0.999095, 33, 129, 64, 380
-0.999095, 171, 225, 186, 352
-0.999101, 11, 241, 26, 368
-0.999115, 269, 129, 284, 256
-0.999117, 325, 1, 340, 128
-0.99912, 467, 257, 482, 380
-0.999121, 409, 65, 424, 192
-0.999124, 317, 177, 332, 304
-0.999127, 457, 241, 472, 368
-0.999134, 209, 113, 224, 240
-0.999135, 177, 225, 192, 352
-0.999141, 83, 241, 98, 368
-0.999145, 263, 241, 278, 368
-0.99915, 341, 161, 356, 288
-0.999152, 261, 193, 276, 320
-0.999152, 307, 65, 322, 192
-0.999164, 415, 49, 430, 176
-0.999165, 383, 209, 398, 336
-0.999167, 331, 1, 346, 128
-0.999168, 447, 129, 462, 256
-0.999169, 103, 257, 118, 380
-0.99917, 427, 257, 442, 380
-0.999177, 345, 1, 360, 128
-0.999178, 55, 241, 70, 368
-0.999185, 447, 81, 462, 208
-0.999188, 379, 145, 394, 272
-0.999188, 437, 65, 452, 192
-0.999195, 119, 241, 134, 368
-0.999213, 17, 193, 32, 320
-0.999213, 301, 65, 316, 192
-0.999214, 93, 209, 108, 336
-0.999216, 347, 97, 362, 224
-0.999222, 441, 145, 456, 272
-0.999231, 287, 65, 302, 192
-0.999242, 319, 1, 334, 128
-0.999246, 103, 209, 118, 336
-0.999252, 481, 193, 496, 320
-0.999254, 165, 225, 180, 352
-0.999255, 453, 33, 468, 160
-0.999258, 369, 177, 384, 304
-0.999258, 447, 33, 462, 160
-0.99926, 417, 161, 432, 288
-0.999263, 355, 1, 370, 128
-0.999264, 485, 241, 500, 368
-0.999266, 463, 33, 478, 160
-0.99927, 77, 241, 92, 368
-0.999271, 137, 129, 168, 380
-0.999273, 427, 161, 442, 288
-0.999275, 457, 193, 472, 320
-0.999276, 293, 65, 308, 192
-0.999278, 31, 241, 46, 368
-0.999281, 393, 161, 408, 288
-0.999282, 257, 97, 272, 224
-0.999295, 89, 1, 120, 256
-0.999304, 375, 193, 390, 320
-0.99931, 215, 129, 230, 256
-0.999312, 373, 49, 388, 176
-0.999321, 471, 193, 486, 320
-0.999328, 313, 1, 328, 128
-0.999331, 183, 177, 198, 304
-0.999331, 233, 161, 248, 288
-0.999331, 431, 49, 446, 176
-0.999334, 73, 33, 104, 288
-0.999342, 423, 49, 438, 176
-0.999346, 83, 193, 98, 320
-0.999388, 157, 97, 188, 352
-0.99948, 61, 1, 92, 256
-0.999619, 431, 227, 446, 242
-0.999619, 275, 251, 290, 266
-0.999619, 403, 317, 418, 332
-0.99962, 481, 361, 496, 376
-0.99962, 433, 307, 448, 322
-0.999621, 373, 203, 388, 218
-0.999622, 413, 343, 428, 358
-0.999622, 397, 329, 412, 344
-0.999623, 77, 241, 92, 256
-0.999623, 427, 77, 442, 92
-0.999624, 301, 251, 316, 266
-0.999624, 485, 341, 500, 356
-0.999624, 407, 87, 422, 102
-0.999624, 453, 269, 468, 284
-0.999624, 279, 243, 294, 258
-0.999625, 415, 249, 430, 264
-0.999626, 327, 131, 342, 146
-0.999626, 253, 255, 268, 270
-0.999627, 479, 251, 494, 266
-0.999628, 285, 237, 300, 252
-0.999628, 329, 159, 344, 174
-0.999628, 465, 255, 480, 270
-0.999628, 411, 275, 426, 290
-0.999629, 251, 187, 266, 202
-0.999629, 425, 239, 440, 254
-0.99963, 427, 253, 442, 268
-0.999631, 459, 263, 474, 278
-0.999631, 109, 243, 124, 258
-0.999631, 15, 255, 30, 270
-0.999631, 99, 263, 114, 278
-0.999633, 449, 335, 464, 350
-0.999634, 391, 327, 406, 342
-0.999634, 83, 243, 98, 258
-0.999634, 453, 281, 468, 296
-0.999634, 389, 157, 404, 172
-0.999636, 275, 231, 290, 246
-0.999637, 15, 247, 30, 262
-0.999637, 403, 255, 418, 270
-0.999638, 403, 323, 418, 338
-0.999639, 409, 221, 424, 236
-0.99964, 319, 205, 334, 220
-0.999641, 441, 81, 456, 96
-0.999641, 51, 293, 66, 308
-0.999641, 433, 321, 448, 336
-0.999642, 297, 295, 312, 310
-0.999642, 403, 331, 418, 346
-0.999642, 465, 271, 480, 286
-0.999644, 317, 123, 332, 138
-0.999644, 271, 165, 286, 180
-0.999645, 331, 195, 346, 210
-0.999645, 473, 273, 488, 288
-0.999645, 163, 249, 178, 264
-0.999646, 115, 243, 130, 258
-0.999646, 305, 307, 320, 322
-0.999647, 389, 97, 404, 112
-0.999647, 393, 91, 408, 106
-0.999649, 455, 75, 470, 90
-0.999649, 473, 267, 488, 282
-0.99965, 427, 259, 442, 274
-0.999652, 439, 317, 454, 332
-0.999654, 267, 147, 282, 162
-0.999654, 67, 277, 82, 292
-0.999655, 419, 275, 434, 290
-0.999655, 367, 193, 382, 208
-0.999655, 411, 211, 426, 226
-0.999656, 453, 261, 468, 276
-0.999656, 259, 149, 274, 164
-0.999656, 419, 291, 434, 306
-0.999656, 405, 247, 420, 262
-0.999657, 35, 269, 50, 284
-0.999657, 221, 255, 236, 270
-0.999657, 421, 215, 436, 230
-0.999658, 295, 249, 310, 264
-0.999658, 99, 253, 114, 268
-0.999658, 421, 79, 436, 94
-0.999659, 447, 79, 462, 94
-0.999659, 311, 251, 326, 266
-0.999659, 443, 259, 458, 274
-0.999659, 103, 269, 118, 284
-0.999659, 409, 261, 424, 276
-0.999667, 37, 295, 52, 310
-0.999667, 17, 271, 32, 286
-0.999667, 415, 81, 430, 96
-0.999668, 463, 73, 478, 88
-0.999668, 243, 263, 258, 278
-0.999668, 331, 171, 346, 186
-0.999669, 291, 267, 306, 282
-0.999672, 77, 251, 92, 266
-0.999672, 383, 309, 398, 324
-0.999673, 263, 209, 278, 224
-0.999673, 349, 181, 364, 196
-0.999674, 439, 227, 454, 242
-0.999676, 463, 67, 478, 82
-0.999676, 57, 275, 72, 290
-0.99968, 77, 257, 92, 272
-0.999682, 277, 237, 292, 252
-0.999683, 381, 325, 396, 340
-0.999684, 43, 293, 58, 308
-0.999684, 385, 319, 400, 334
-0.999684, 267, 265, 282, 280
-0.999685, 465, 265, 480, 280
-0.999686, 417, 255, 432, 270
-0.999693, 409, 227, 424, 242
-0.999694, 409, 291, 424, 306
-0.999697, 473, 255, 488, 270
-0.999698, 57, 289, 72, 304
-0.999698, 379, 317, 394, 332
-0.999699, 409, 253, 424, 268
-0.9997, 269, 243, 284, 258
-0.999701, 379, 91, 394, 106
-0.999701, 433, 313, 448, 328
-0.999704, 483, 355, 498, 370
-0.999708, 417, 281, 432, 296
-0.999714, 323, 189, 338, 204
-0.999715, 269, 253, 284, 268
-0.999716, 397, 295, 412, 310
-0.999718, 289, 173, 304, 188
-0.999721, 473, 261, 488, 276
-0.999726, 83, 249, 98, 264
-0.99973, 171, 243, 186, 258
-0.999731, 403, 295, 418, 310
-0.999733, 303, 267, 318, 282
-0.999737, 413, 205, 428, 220
-0.999739, 21, 265, 36, 280
-0.99974, 265, 259, 280, 274
-0.999741, 439, 311, 454, 326
-0.99975, 27, 271, 42, 286
-0.999754, 27, 265, 42, 280
-0.99977, 389, 299, 404, 314
-0.999802, 297, 267, 312, 282
-1.00046, 113, 129, 176, 256
-1.00412, 113, 81, 176, 208
