1957
-0.239906, 1, 1, 500, 375
-0.290137, 1, 33, 500, 288
-0.361323, 1, 1, 256, 375
-0.367969, 1, 129, 500, 375
-0.432783, 225, 1, 480, 375
-0.484053, 97, 1, 352, 375
-0.485197, 1, 65, 256, 320
-0.564878, 161, 65, 416, 320
-0.634615, 257, 1, 500, 256
-0.681293, 257, 129, 500, 375
-0.832562, 17, 1, 144, 375
-0.841057, 321, 1, 448, 375
-0.841126, 17, 65, 144, 320
-0.844425, 321, 1, 448, 256
-0.855405, 225, 1, 352, 256
-0.858657, 193, 1, 320, 375
-0.85896, 177, 65, 304, 320
-0.859657, 1, 113, 500, 240
-0.86276, 65, 1, 192, 375
-0.863283, 257, 129, 384, 375
-0.863389, 1, 17, 500, 144
-0.865956, 241, 1, 368, 375
-0.868989, 369, 1, 496, 375
-0.869269, 369, 65, 496, 320
-0.873565, 81, 97, 208, 352
-0.876843, 129, 1, 256, 375
-0.878065, 305, 97, 432, 352
-0.880345, 273, 1, 400, 256
-0.881213, 1, 65, 500, 192
-0.883555, 1, 161, 500, 288
-0.887677, 81, 1, 208, 256
-0.889935, 1, 209, 500, 336
-0.890949, 129, 97, 256, 352
-0.897646, 129, 1, 256, 256
-0.903544, 225, 145, 480, 272
-0.903927, 257, 49, 500, 176
-0.904776, 1, 65, 256, 192
-0.910519, 97, 1, 352, 128
-0.91089, 97, 113, 352, 240
-0.911978, 1, 113, 256, 240
-0.914647, 193, 97, 448, 224
-0.917246, 225, 193, 480, 320
-0.920422, 1, 1, 128, 128
-0.921537, 257, 1, 500, 128
-0.923173, 129, 49, 384, 176
-0.924267, 33, 161, 288, 288
-0.925811, 129, 161, 384, 288
-0.926012, 273, 145, 400, 272
-0.927873, 97, 145, 224, 272
-0.9289, 177, 145, 304, 272
-0.929603, 129, 209, 384, 336
-0.929826, 57, 1, 120, 128
-0.931156, 1, 1, 256, 128
-0.931365, 225, 81, 352, 208
-0.932911, 33, 97, 160, 224
-0.933495, 97, 1, 160, 128
-0.934018, 353, 49, 480, 176
-0.935545, 81, 81, 144, 208
-0.936071, 49, 1, 176, 128
-0.936234, 393, 49, 456, 176
-0.936465, 313, 129, 376, 256
-0.938347, 49, 49, 176, 176
-0.938361, 17, 17, 80, 144
-0.93837, 57, 49, 120, 176
-0.938755, 97, 1, 224, 128
-0.939144, 321, 97, 448, 224
-0.939189, 105, 145, 168, 272
-0.939585, 225, 145, 352, 272
-0.939923, 305, 17, 432, 144
-0.940525, 1, 209, 256, 336
-0.940948, 273, 145, 336, 272
-0.941562, 321, 1, 384, 128
-0.941596, 289, 145, 352, 208
-0.942355, 353, 97, 416, 224
-0.942471, 273, 1, 336, 128
-0.942567, 17, 145, 144, 272
-0.942602, 137, 1, 200, 128
-0.942733, 193, 209, 320, 336
-0.942814, 105, 65, 168, 192
-0.943652, 9, 65, 72, 192
-0.944082, 289, 209, 416, 336
-0.944083, 33, 97, 96, 224
-0.944235, 193, 145, 256, 272
-0.944396, 161, 177, 224, 304
-0.944448, 353, 1, 480, 128
-0.945175, 337, 145, 400, 272
-0.945349, 113, 65, 240, 192
-0.945588, 377, 1, 440, 128
-0.946388, 369, 49, 432, 176
-0.946904, 145, 193, 272, 320
-0.947077, 9, 41, 72, 104
-0.948748, 161, 1, 288, 128
-0.948856, 129, 129, 192, 256
-0.94905, 9, 65, 72, 128
-0.949421, 89, 73, 152, 136
-0.949517, 161, 177, 224, 240
-0.949528, 81, 145, 144, 272
-0.949714, 169, 1, 232, 128
-0.949719, 257, 17, 384, 144
-0.949923, 177, 97, 304, 224
-0.950104, 89, 177, 152, 240
-0.950204, 273, 81, 400, 208
-0.950389, 233, 81, 296, 208
-0.950575, 137, 177, 200, 304
-0.950612, 321, 145, 448, 272
-0.951086, 361, 145, 424, 272
-0.951298, 313, 145, 376, 208
-0.951331, 49, 49, 112, 112
-0.951515, 281, 81, 344, 208
-0.95191, 161, 41, 224, 104
-0.952874, 1, 49, 128, 176
-0.952973, 57, 81, 120, 144
-0.953496, 57, 97, 120, 224
-0.953528, 9, 17, 72, 80
-0.953573, 273, 65, 336, 128
-0.953867, 201, 65, 264, 192
-0.954228, 409, 1, 472, 128
-0.954267, 49, 193, 176, 320
-0.954307, 369, 113, 496, 240
-0.954958, 137, 65, 200, 128
-0.95528, 369, 41, 432, 104
-0.956186, 225, 129, 288, 256
-0.956208, 297, 65, 360, 128
-0.956239, 161, 113, 224, 240
-0.956334, 129, 241, 256, 368
-0.956456, 329, 81, 392, 208
-0.956461, 345, 281, 408, 344
-0.956522, 129, 65, 192, 192
-0.956692, 161, 65, 224, 192
-0.956757, 41, 177, 104, 304
-0.956922, 353, 145, 416, 208
-0.957047, 97, 193, 224, 320
-0.957054, 137, 201, 200, 264
-0.957396, 241, 209, 368, 336
-0.957483, 209, 1, 336, 128
-0.95769, 321, 25, 384, 88
-0.957937, 265, 193, 328, 320
-0.95834, 49, 25, 112, 88
-0.958754, 345, 209, 408, 336
-0.959014, 249, 177, 312, 240
-0.959054, 273, 41, 336, 104
-0.959125, 241, 17, 304, 144
-0.959367, 369, 17, 432, 80
-0.959385, 89, 49, 152, 112
-0.959419, 321, 49, 384, 112
-0.959461, 313, 177, 376, 304
-0.959821, 353, 121, 416, 184
-0.959869, 225, 241, 480, 368
-0.959942, 409, 1, 472, 64
-0.960123, 401, 113, 464, 240
-0.960196, 377, 241, 440, 368
-0.960207, 329, 121, 392, 184
-0.960313, 233, 89, 296, 152
-0.960492, 241, 177, 304, 304
-0.9608, 257, 65, 320, 192
-0.960818, 353, 1, 416, 128
-0.960819, 297, 17, 360, 80
-0.961194, 161, 49, 288, 176
-0.961302, 17, 89, 80, 152
-0.96148, 337, 193, 464, 320
-0.961637, 113, 209, 176, 336
-0.96175, 361, 81, 424, 144
-0.961778, 329, 169, 392, 232
-0.96178, 305, 81, 368, 208
-0.961877, 161, 225, 224, 352
-0.96188, 1, 145, 64, 272
-0.961959, 193, 17, 256, 144
-0.961973, 113, 169, 176, 232
-0.962242, 401, 81, 464, 144
-0.962417, 313, 97, 376, 160
-0.96257, 185, 153, 248, 216
-0.962888, 241, 153, 304, 216
-0.962891, 385, 105, 448, 168
-0.962966, 369, 281, 432, 344
-0.962999, 289, 169, 352, 232
-0.96313, 65, 193, 128, 320
-0.963581, 393, 33, 456, 96
-0.963592, 25, 225, 88, 352
-0.963599, 137, 169, 200, 232
-0.963831, 65, 1, 128, 64
-0.964325, 305, 121, 368, 184
-0.964376, 97, 209, 160, 272
-0.964432, 137, 225, 200, 352
-0.964478, 249, 129, 312, 256
-0.964583, 297, 17, 360, 144
-0.964698, 73, 1, 136, 256
-0.964737, 209, 89, 272, 152
-0.964747, 65, 185, 128, 248
-0.964777, 193, 65, 256, 128
-0.964928, 297, 41, 360, 104
-0.964931, 265, 145, 328, 208
-0.965037, 337, 257, 400, 320
-0.965085, 161, 17, 224, 80
-0.965151, 145, 89, 208, 152
-0.965237, 129, 41, 192, 104
-0.965324, 89, 153, 152, 216
-0.965584, 49, 105, 112, 168
-0.965895, 161, 137, 224, 200
-0.965955, 321, 73, 384, 136
-0.966128, 21, 49, 52, 112
-0.966147, 353, 305, 416, 368
-0.966284, 41, 57, 72, 120
-0.966369, 65, 145, 128, 208
-0.966403, 289, 209, 352, 336
-0.966515, 169, 65, 232, 128
-0.966524, 369, 193, 432, 320
-0.966538, 321, 225, 384, 352
-0.966555, 65, 177, 192, 240
-0.966559, 185, 193, 248, 320
-0.966594, 345, 33, 408, 96
-0.96673, 377, 97, 440, 224
-0.966775, 129, 145, 192, 208
-0.966823, 201, 33, 264, 96
-0.96709, 361, 257, 424, 320
-0.96711, 417, 65, 480, 192
-0.967286, 49, 73, 176, 136
-0.967394, 81, 241, 208, 368
-0.967653, 1, 209, 64, 336
-0.967674, 433, 1, 496, 128
-0.967819, 105, 97, 168, 160
-0.967872, 41, 161, 104, 224
-0.967984, 257, 145, 384, 208
-0.967999, 25, 137, 88, 200
-0.968279, 337, 97, 400, 160
-0.968543, 105, 1, 168, 64
-0.968551, 41, 1, 104, 64
-0.968579, 249, 41, 312, 104
-0.968629, 185, 185, 248, 248
-0.968677, 325, 145, 356, 208
-0.968729, 1, 193, 128, 320
-0.968743, 257, 1, 320, 64
-0.968768, 265, 89, 328, 152
-0.968851, 225, 57, 288, 120
-0.968876, 89, 193, 152, 320
-0.968986, 393, 1, 456, 256
-0.969093, 273, 113, 336, 176
-0.969139, 185, 209, 248, 272
-0.969155, 53, 33, 84, 160
-0.969269, 1, 17, 32, 144
-0.969297, 393, 57, 456, 120
-0.969403, 1, 57, 128, 120
-0.969461, 113, 73, 176, 136
-0.969474, 25, 241, 88, 304
-0.969489, 353, 225, 416, 288
-0.969522, 9, 25, 40, 88
-0.969571, 177, 161, 304, 224
-0.969662, 9, 1, 72, 256
-0.969696, 41, 65, 72, 192
-0.969744, 273, 177, 400, 240
-0.969897, 137, 1, 200, 64
-0.969942, 217, 17, 280, 144
-0.970048, 337, 137, 368, 200
-0.97012, 393, 129, 456, 192
-0.970152, 109, 1, 140, 128
-0.970308, 17, 145, 144, 208
-0.970369, 233, 225, 296, 352
-0.970466, 113, 65, 240, 128
-0.970503, 321, 33, 448, 96
-0.970642, 233, 1, 296, 64
-0.970676, 97, 33, 160, 288
-0.970743, 97, 153, 224, 216
-0.970803, 169, 89, 232, 152
-0.971034, 233, 1, 296, 256
-0.971035, 321, 281, 384, 344
-0.971089, 369, 241, 496, 368
-0.971093, 97, 161, 128, 224
-0.971109, 257, 225, 320, 288
-0.971239, 137, 225, 200, 288
-0.971344, 345, 129, 376, 256
-0.971364, 1, 33, 128, 96
-0.971423, 273, 49, 400, 112
-0.971532, 345, 57, 408, 120
-0.971567, 41, 265, 104, 328
-0.971595, 17, 113, 80, 176
-0.971719, 53, 57, 84, 120
-0.97177, 1, 193, 64, 256
-0.971988, 285, 177, 316, 240
-0.972113, 105, 129, 168, 192
-0.972203, 193, 129, 256, 192
-0.972234, 217, 153, 280, 216
-0.972286, 353, 57, 480, 120
-0.972309, 257, 65, 320, 320
-0.97245, 9, 49, 40, 112
-0.97246, 249, 65, 312, 128
-0.972486, 257, 25, 384, 88
-0.972527, 117, 65, 148, 128
-0.972573, 305, 145, 432, 208
-0.972575, 389, 17, 420, 80
-0.972576, 305, 97, 432, 160
-0.97266, 121, 65, 184, 320
-0.972713, 161, 113, 224, 176
-0.972743, 345, 1, 408, 64
-0.972883, 113, 177, 240, 240
-0.972952, 353, 81, 480, 144
-0.972955, 289, 201, 352, 264
-0.972955, 97, 41, 128, 104
-0.973087, 225, 65, 352, 128
-0.973124, 225, 185, 288, 248
-0.973146, 353, 177, 416, 240
-0.973272, 49, 1, 112, 256
-0.973472, 225, 177, 352, 240
-0.973527, 73, 209, 136, 272
-0.973528, 429, 49, 460, 176
-0.973557, 89, 25, 152, 88
-0.973624, 365, 97, 396, 224
-0.973642, 305, 145, 336, 208
-0.973642, 85, 177, 116, 240
-0.973646, 13, 17, 44, 144
-0.973868, 17, 73, 48, 136
-0.973897, 101, 185, 132, 248
-0.973914, 1, 185, 128, 248
-0.973951, 97, 1, 128, 128
-0.973997, 41, 17, 72, 144
-0.974043, 113, 89, 240, 152
-0.974048, 65, 17, 192, 80
-0.974079, 125, 193, 156, 256
-0.974234, 73, 113, 136, 176
-0.974256, 41, 185, 104, 248
-0.974274, 321, 121, 448, 184
-0.974334, 113, 273, 176, 336
-0.974426, 257, 249, 320, 312
-0.974431, 321, 1, 384, 64
-0.974514, 301, 33, 332, 96
-0.974516, 249, 201, 312, 264
-0.974606, 97, 73, 128, 136
-0.974705, 49, 113, 176, 176
-0.974736, 409, 105, 472, 168
-0.974788, 129, 73, 160, 136
-0.974847, 217, 177, 280, 304
-0.974935, 193, 41, 320, 104
-0.974988, 225, 33, 288, 96
-0.975015, 177, 169, 208, 232
-0.975016, 161, 217, 224, 280
-0.975083, 345, 1, 376, 128
-0.975115, 377, 33, 408, 96
-0.975119, 297, 273, 360, 336
-0.975123, 117, 49, 148, 176
-0.975329, 361, 273, 392, 336
-0.975366, 233, 129, 296, 192
-0.975379, 41, 209, 104, 272
-0.975393, 109, 145, 140, 272
-0.9754, 1, 241, 128, 368
-0.975463, 177, 161, 208, 288
-0.975519, 65, 1, 96, 128
-0.975541, 41, 129, 72, 256
-0.975557, 305, 73, 336, 136
-0.975592, 389, 265, 420, 328
-0.975608, 393, 41, 424, 104
-0.975622, 273, 177, 304, 304
-0.975721, 29, 73, 60, 136
-0.975767, 25, 1, 56, 128
-0.975858, 17, 265, 80, 328
-0.975874, 125, 1, 156, 128
-0.975887, 293, 145, 324, 272
-0.975904, 145, 257, 208, 320
-0.975906, 65, 201, 192, 264
-0.975928, 193, 1, 256, 64
-0.975952, 145, 1, 208, 256
-0.975953, 137, 1, 168, 128
-0.975998, 377, 281, 408, 344
-0.976012, 177, 185, 304, 248
-0.976042, 305, 65, 368, 320
-0.976108, 129, 209, 256, 272
-0.976118, 209, 137, 336, 200
-0.976207, 113, 41, 240, 104
-0.976231, 325, 129, 356, 256
-0.976236, 337, 169, 368, 232
-0.976247, 113, 233, 176, 296
-0.976272, 77, 1, 108, 128
-0.976324, 161, 41, 192, 104
-0.976386, 289, 281, 416, 344
-0.976389, 97, 81, 128, 208
-0.976405, 33, 97, 96, 352
-0.976551, 53, 81, 84, 144
-0.976637, 389, 1, 420, 128
-0.976675, 313, 313, 376, 375
-0.976686, 349, 129, 380, 192
-0.976718, 17, 9, 144, 72
-0.976763, 289, 89, 352, 152
-0.976763, 65, 241, 128, 368
-0.976778, 193, 65, 256, 320
-0.976816, 145, 137, 272, 200
-0.976847, 129, 113, 192, 176
-0.976865, 193, 97, 320, 160
-0.976872, 409, 1, 440, 128
-0.976897, 49, 289, 112, 352
-0.976961, 377, 305, 440, 368
-0.976965, 289, 241, 352, 304
-0.977011, 377, 201, 440, 264
-0.977042, 277, 145, 308, 208
-0.977044, 109, 33, 140, 96
-0.977085, 317, 57, 348, 120
-0.977156, 193, 177, 224, 240
-0.977289, 113, 177, 144, 240
-0.977365, 193, 145, 224, 272
-0.977372, 61, 25, 92, 88
-0.977444, 217, 225, 280, 288
-0.977463, 273, 1, 400, 64
-0.977622, 401, 97, 464, 352
-0.977675, 1, 169, 64, 232
-0.977749, 425, 33, 488, 288
-0.977753, 189, 41, 220, 104
-0.978007, 325, 1, 356, 128
-0.978051, 349, 153, 380, 216
-0.978096, 93, 129, 124, 256
-0.978108, 257, 201, 384, 264
-0.978109, 389, 241, 420, 368
-0.978116, 357, 145, 388, 272
-0.978135, 353, 1, 480, 64
-0.978205, 345, 57, 376, 120
-0.978234, 273, 185, 304, 248
-0.978265, 433, 65, 464, 128
-0.978294, 337, 9, 368, 72
-0.978329, 1, 73, 32, 136
-0.97837, 153, 145, 184, 272
-0.978386, 65, 49, 192, 112
-0.978393, 353, 81, 384, 208
-0.978489, 257, 89, 384, 152
-0.978497, 73, 1, 136, 375
-0.978501, 397, 201, 428, 264
-0.97853, 305, 81, 336, 208
-0.978577, 1, 81, 128, 144
-0.97858, 85, 65, 116, 128
-0.978587, 369, 49, 400, 176
-0.978628, 281, 1, 344, 256
-0.978631, 113, 153, 144, 216
-0.978683, 329, 1, 392, 256
-0.978685, 33, 33, 64, 96
-0.978789, 201, 49, 232, 112
-0.978814, 297, 201, 328, 264
-0.978824, 165, 185, 196, 248
-0.97884, 177, 225, 304, 288
-0.978843, 257, 241, 320, 368
-0.978932, 129, 81, 160, 208
-0.978947, 321, 177, 448, 240
-0.97897, 17, 1, 80, 375
-0.979007, 29, 65, 60, 192
-0.979078, 369, 25, 496, 88
-0.979126, 293, 145, 324, 208
-0.979137, 309, 1, 340, 128
-0.979162, 173, 145, 204, 208
-0.979164, 273, 121, 400, 184
-0.979187, 97, 129, 224, 192
-0.979219, 53, 121, 84, 184
-0.979243, 325, 169, 356, 232
-0.979301, 109, 9, 140, 72
-0.979374, 397, 49, 428, 176
-0.979379, 205, 145, 236, 272
-0.979406, 401, 17, 432, 80
-0.979419, 417, 49, 448, 176
-0.979458, 293, 65, 324, 128
-0.979495, 193, 1, 320, 64
-0.979522, 165, 177, 196, 304
-0.979575, 161, 73, 288, 136
-0.979599, 169, 65, 200, 128
-0.979649, 361, 1, 424, 256
-0.979686, 341, 81, 372, 208
-0.979779, 373, 57, 404, 120
-0.979786, 229, 129, 260, 256
-0.979846, 121, 129, 152, 256
-0.979896, 33, 249, 160, 312
-0.979939, 141, 145, 172, 272
-0.979942, 137, 217, 168, 280
-0.980014, 337, 33, 368, 96
-0.98005, 201, 1, 232, 128
-0.980122, 85, 49, 116, 176
-0.980154, 273, 257, 400, 320
-0.980174, 373, 145, 404, 272
-0.980218, 381, 193, 412, 320
-0.980244, 281, 41, 312, 104
-0.980262, 185, 241, 248, 368
-0.980293, 129, 249, 256, 312
-0.980325, 37, 145, 68, 208
-0.98033, 357, 9, 388, 72
-0.980337, 153, 153, 184, 216
-0.980348, 409, 121, 440, 184
-0.980385, 17, 217, 144, 280
-0.980391, 305, 73, 432, 136
-0.980393, 177, 193, 208, 256
-0.980411, 365, 81, 396, 144
-0.980431, 325, 121, 356, 184
-0.980442, 341, 105, 372, 168
-0.980496, 53, 113, 84, 240
-0.980543, 225, 129, 288, 375
-0.980652, 381, 65, 412, 192
-0.980766, 21, 25, 52, 88
-0.980766, 17, 65, 48, 192
-0.980817, 97, 177, 128, 304
-0.98087, 197, 153, 228, 216
-0.980871, 313, 9, 344, 72
-0.980904, 321, 257, 448, 320
-0.980981, 389, 129, 420, 256
-0.980981, 341, 177, 372, 304
-0.981003, 97, 1, 160, 375
-0.981015, 393, 177, 456, 304
-0.981017, 357, 33, 388, 96
-0.981069, 337, 281, 464, 344
-0.981118, 273, 1, 304, 128
-0.981158, 421, 65, 452, 128
-0.981203, 413, 33, 444, 96
-0.981206, 49, 1, 112, 375
-0.981212, 189, 1, 220, 128
-0.981218, 41, 81, 72, 144
-0.981231, 225, 225, 352, 288
-0.981274, 313, 145, 344, 272
-0.981334, 205, 73, 236, 136
-0.981375, 1, 121, 128, 184
-0.98146, 305, 121, 336, 184
-0.981462, 165, 1, 196, 128
-0.981566, 405, 57, 436, 120
-0.981574, 141, 73, 172, 136
-0.981592, 153, 193, 184, 320
-0.98163, 393, 177, 424, 304
-0.981669, 297, 169, 328, 232
-0.981684, 281, 97, 344, 352
-0.981717, 381, 305, 412, 368
-0.981756, 237, 89, 268, 152
-0.981776, 209, 97, 240, 224
-0.981785, 221, 81, 252, 208
-0.981808, 377, 81, 408, 144
-0.981808, 309, 169, 340, 232
-0.98186, 385, 121, 416, 184
-0.981867, 305, 217, 432, 280
-0.981899, 185, 217, 216, 280
-0.981901, 353, 129, 416, 375
-0.981903, 149, 17, 180, 144
-0.981908, 305, 313, 432, 375
-0.981912, 65, 73, 96, 136
-0.981912, 373, 257, 404, 320
-0.981923, 249, 1, 280, 128
-0.981927, 145, 17, 272, 80
-0.982103, 65, 225, 192, 288
-0.98212, 409, 97, 440, 224
-0.982151, 257, 1, 320, 375
-0.982181, 265, 1, 296, 64
-0.982378, 365, 121, 396, 184
-0.982386, 369, 113, 496, 176
-0.982432, 209, 265, 336, 328
-0.982449, 189, 73, 220, 136
-0.982482, 169, 33, 232, 288
-0.982523, 393, 289, 424, 352
-0.98253, 49, 281, 176, 344
-0.982537, 129, 193, 160, 320
-0.98257, 45, 33, 76, 96
-0.982593, 441, 81, 472, 208
-0.982686, 433, 113, 464, 176
-0.982732, 81, 145, 112, 272
-0.982735, 281, 129, 312, 256
-0.98278, 317, 49, 348, 176
-0.982782, 173, 113, 204, 240
-0.982797, 393, 241, 424, 304
-0.982829, 369, 1, 400, 128
-0.982844, 349, 177, 380, 240
-0.982851, 69, 1, 100, 64
-0.982995, 297, 9, 328, 72
-0.983009, 145, 97, 208, 352
-0.98313, 149, 49, 180, 112
-0.983199, 129, 273, 256, 336
-0.983249, 421, 89, 452, 152
-0.98327, 209, 297, 336, 360
-0.983342, 365, 209, 396, 336
-0.983345, 353, 97, 384, 160
-0.983392, 89, 241, 152, 368
-0.98346, 101, 113, 132, 176
-0.983493, 361, 153, 392, 216
-0.983503, 137, 169, 168, 232
-0.983514, 209, 137, 240, 200
-0.983515, 121, 41, 152, 104
-0.983545, 25, 257, 56, 320
-0.983562, 85, 201, 116, 264
-0.983579, 345, 1, 408, 375
-0.983614, 153, 97, 184, 224
-0.983644, 141, 193, 172, 256
-0.983648, 261, 169, 292, 232
-0.983654, 109, 97, 140, 224
-0.983659, 289, 1, 352, 375
-0.983683, 81, 129, 144, 375
-0.983686, 41, 113, 72, 176
-0.983715, 217, 145, 248, 272
-0.983744, 297, 1, 328, 128
-0.983749, 397, 177, 428, 240
-0.983757, 293, 65, 324, 192
-0.983773, 29, 225, 60, 352
-0.983831, 277, 17, 308, 80
-0.983892, 233, 81, 264, 208
-0.983906, 401, 225, 464, 352
-0.983909, 141, 1, 172, 64
-0.983926, 5, 65, 36, 192
-0.983948, 385, 185, 416, 248
-0.983978, 397, 121, 428, 184
-0.984003, 205, 25, 236, 88
-0.984007, 125, 249, 156, 312
-0.984013, 301, 193, 332, 320
-0.984017, 337, 81, 368, 144
-0.984063, 281, 65, 312, 128
-0.984077, 221, 97, 252, 160
-0.984101, 181, 17, 212, 80
-0.984154, 433, 1, 464, 128
-0.984163, 53, 265, 84, 328
-0.984231, 385, 1, 448, 375
-0.984278, 357, 1, 388, 128
-0.984285, 249, 17, 280, 80
-0.984311, 117, 89, 148, 152
-0.984326, 433, 41, 464, 104
-0.984401, 261, 177, 292, 304
-0.984556, 177, 17, 208, 144
-0.984601, 269, 129, 300, 256
-0.984685, 281, 49, 312, 176
-0.984778, 45, 177, 76, 304
-0.984888, 369, 241, 496, 304
-0.984973, 241, 145, 272, 272
-0.985285, 65, 49, 96, 176
-0.985306, 285, 193, 316, 320
-0.98538, 313, 1, 376, 375
-0.985507, 121, 1, 184, 375
-0.985549, 81, 257, 208, 320
-0.985588, 145, 113, 272, 176
-0.985593, 217, 1, 248, 128
-0.985613, 185, 97, 216, 224
-0.985713, 233, 1, 296, 375
-0.985886, 165, 225, 196, 352
-0.985898, 245, 81, 276, 208
-0.985909, 197, 65, 228, 192
-0.985943, 141, 193, 172, 320
-0.985958, 145, 1, 208, 375
-0.985958, 329, 81, 360, 208
-0.985965, 85, 193, 116, 320
-0.985992, 445, 1, 476, 128
-0.986044, 33, 177, 64, 304
-0.986135, 353, 153, 480, 216
-0.986185, 29, 129, 60, 256
-0.98621, 1, 129, 64, 375
-0.986309, 129, 305, 256, 368
-0.986414, 197, 193, 228, 320
-0.986439, 421, 1, 452, 128
-0.986461, 329, 97, 392, 352
-0.986483, 209, 225, 272, 352
-0.986501, 285, 1, 316, 128
-0.986646, 233, 193, 264, 320
-0.986657, 65, 113, 96, 240
-0.986669, 377, 97, 440, 352
-0.986736, 261, 1, 292, 128
-0.986853, 257, 313, 384, 375
-0.986878, 1, 193, 32, 320
-0.986879, 377, 241, 408, 368
-0.986989, 153, 241, 184, 368
-0.987068, 421, 129, 452, 256
-0.987068, 409, 209, 440, 336
-0.987091, 349, 241, 380, 368
-0.987197, 329, 193, 360, 320
-0.98729, 41, 225, 72, 352
-0.987336, 237, 1, 268, 128
-0.987399, 185, 241, 216, 368
-0.987471, 261, 81, 292, 208
-0.987563, 425, 113, 488, 240
-0.987723, 409, 1, 472, 375
-0.987864, 353, 217, 480, 280
-0.987937, 369, 305, 496, 368
-0.988026, 353, 193, 384, 320
-0.98803, 353, 133, 416, 164
-0.988032, 57, 97, 120, 352
-0.988066, 209, 49, 240, 176
-0.988098, 313, 141, 376, 172
-0.988101, 369, 185, 496, 248
-0.988138, 221, 225, 252, 352
-0.988142, 17, 177, 48, 304
-0.988163, 225, 185, 480, 248
-0.988191, 17, 65, 80, 96
-0.988192, 169, 129, 232, 375
-0.988215, 289, 173, 352, 204
-0.988256, 185, 1, 248, 375
-0.988322, 109, 193, 140, 320
-0.98833, 289, 153, 352, 184
-0.988357, 141, 65, 172, 192
-0.988358, 209, 89, 272, 120
-0.988366, 173, 65, 204, 192
-0.98846, 329, 241, 360, 368
-0.988548, 369, 33, 432, 64
-0.988549, 265, 165, 328, 196
-0.988603, 89, 181, 152, 212
-0.98877, 97, 69, 160, 100
-0.988793, 49, 65, 112, 96
-0.988816, 369, 45, 432, 76
-0.988953, 369, 57, 432, 88
-0.989021, 97, 153, 352, 216
-0.989027, 33, 65, 288, 128
-0.9891, 313, 153, 376, 184
-0.989101, 153, 49, 216, 80
-0.989105, 313, 165, 376, 196
-0.989109, 65, 305, 192, 368
-0.989114, 233, 89, 296, 120
-0.98914, 353, 145, 416, 176
-0.989155, 329, 45, 392, 76
-0.989162, 17, 41, 80, 72
-0.989218, 217, 141, 280, 172
-0.989234, 81, 193, 144, 224
-0.98927, 17, 85, 80, 116
-0.989278, 161, 149, 224, 180
-0.989326, 385, 129, 448, 160
-0.989327, 249, 145, 312, 176
-0.989386, 377, 89, 440, 120
-0.989419, 41, 77, 104, 108
-0.989419, 89, 85, 152, 116
-0.989478, 113, 201, 176, 232
-0.989497, 57, 53, 120, 84
-0.989498, 145, 213, 208, 244
-0.989511, 129, 101, 192, 132
-0.989538, 161, 177, 224, 208
-0.989547, 1, 137, 256, 200
-0.98959, 161, 137, 224, 168
-0.989625, 345, 33, 408, 64
-0.989628, 193, 157, 256, 188
-0.989654, 113, 173, 176, 204
-0.98967, 313, 33, 376, 64
-0.989698, 33, 89, 288, 152
-0.989731, 177, 49, 240, 80
-0.989744, 281, 41, 344, 72
-0.989747, 393, 41, 456, 72
-0.98975, 393, 109, 456, 140
-0.989751, 361, 121, 424, 152
-0.989763, 177, 61, 240, 92
-0.989768, 57, 177, 120, 208
-0.989768, 185, 145, 248, 176
-0.98978, 265, 65, 328, 96
-0.989804, 9, 53, 72, 84
-0.989813, 169, 89, 232, 120
-0.989821, 193, 1, 256, 32
-0.989863, 337, 161, 400, 192
-0.989877, 161, 189, 224, 220
-0.989883, 257, 41, 320, 72
-0.989885, 105, 1, 168, 32
-0.989886, 49, 25, 112, 56
-0.989909, 337, 281, 400, 312
-0.989947, 97, 221, 160, 252
-0.989952, 121, 145, 184, 176
-0.989953, 257, 65, 500, 128
-0.989966, 65, 77, 128, 108
-0.989995, 385, 141, 448, 172
-0.990003, 313, 181, 376, 212
-0.990013, 65, 9, 128, 40
-0.990023, 1, 41, 500, 104
-0.990024, 97, 177, 352, 240
-0.990054, 273, 141, 336, 172
-0.990059, 369, 273, 432, 304
-0.990065, 113, 57, 176, 88
-0.990091, 73, 65, 136, 96
-0.990116, 25, 29, 88, 60
-0.990119, 265, 177, 328, 208
-0.990121, 129, 41, 384, 104
-0.990129, 89, 209, 152, 240
-0.990135, 41, 141, 104, 172
-0.990141, 321, 57, 384, 88
-0.990156, 329, 129, 392, 160
-0.990161, 345, 305, 408, 336
-0.990165, 161, 165, 224, 196
-0.990196, 273, 221, 336, 252
-0.990199, 145, 89, 208, 120
-0.990223, 201, 101, 264, 132
-0.990223, 289, 185, 352, 216
-0.990227, 313, 269, 376, 300
-0.990247, 241, 177, 304, 208
-0.99027, 177, 209, 240, 240
-0.99028, 393, 29, 456, 60
-0.990297, 1, 273, 128, 336
-0.990328, 345, 293, 408, 324
-0.990337, 273, 89, 336, 120
-0.990338, 393, 65, 456, 96
-0.990347, 241, 133, 304, 164
-0.990361, 89, 165, 152, 196
-0.990361, 209, 1, 272, 375
-0.990365, 217, 1, 280, 32
-0.990374, 65, 153, 128, 184
-0.99038, 145, 65, 208, 96
-0.990393, 1, 177, 500, 240
-0.990398, 281, 53, 344, 84
-0.990401, 17, 117, 80, 148
-0.990409, 105, 41, 168, 72
-0.990415, 33, 53, 96, 84
-0.99042, 337, 77, 400, 108
-0.990445, 9, 97, 72, 128
-0.990473, 57, 193, 120, 224
-0.990484, 137, 201, 200, 232
-0.990495, 121, 213, 184, 244
-0.990502, 153, 105, 216, 136
-0.990502, 409, 9, 472, 40
-0.990518, 249, 1, 312, 32
-0.990521, 41, 97, 104, 128
-0.99053, 409, 93, 472, 124
-0.99054, 337, 181, 400, 212
-0.990549, 145, 1, 208, 32
-0.99056, 1, 153, 500, 216
-0.990579, 201, 45, 264, 76
-0.990582, 305, 21, 368, 52
-0.990597, 121, 69, 184, 100
-0.990598, 273, 201, 336, 232
-0.990601, 185, 177, 248, 208
-0.990603, 41, 1, 104, 32
-0.990604, 281, 29, 344, 60
-0.990605, 81, 49, 144, 80
-0.990609, 289, 73, 352, 104
-0.99061, 25, 157, 88, 188
-0.990623, 257, 137, 500, 200
-0.990625, 297, 213, 360, 244
-0.990647, 225, 49, 288, 80
-0.990656, 409, 77, 472, 108
-0.990656, 233, 101, 296, 132
-0.990677, 1, 29, 64, 60
-0.990685, 137, 173, 200, 204
-0.990702, 105, 97, 168, 128
-0.990708, 337, 269, 400, 300
-0.990712, 137, 185, 200, 216
-0.990716, 105, 109, 168, 140
-0.990716, 153, 261, 216, 292
-0.990731, 217, 153, 280, 184
-0.990742, 257, 53, 320, 84
-0.990996, 1, 193, 256, 256
-0.99101, 161, 97, 416, 160
-0.991059, 225, 33, 480, 96
-0.991086, 161, 129, 416, 192
-0.991242, 33, 25, 288, 88
-0.991325, 433, 1, 496, 375
-0.991388, 1, 113, 256, 176
-0.991544, 193, 161, 448, 224
-0.991624, 1, 97, 500, 160
-0.99163, 193, 209, 448, 272
-0.991752, 161, 257, 416, 320
-0.991804, 1, 297, 128, 360
-0.991881, 45, 69, 76, 100
-0.991992, 33, 77, 64, 108
-0.992043, 341, 141, 372, 172
-0.992049, 97, 69, 128, 100
-0.992055, 1, 129, 500, 192
-0.992059, 277, 169, 308, 200
-0.992068, 21, 65, 52, 96
-0.992072, 13, 77, 44, 108
-0.992086, 325, 145, 356, 176
-0.992102, 341, 161, 372, 192
-0.992112, 357, 133, 388, 164
-0.992132, 369, 133, 400, 164
-0.99216, 1, 1, 500, 64
-0.992164, 53, 57, 84, 88
-0.992165, 33, 65, 64, 96
-0.992166, 389, 133, 420, 164
-0.992175, 161, 49, 192, 80
-0.992209, 177, 173, 208, 204
-0.992235, 321, 173, 352, 204
-0.992245, 241, 173, 368, 204
-0.992253, 93, 173, 124, 204
-0.992254, 313, 145, 344, 176
-0.99226, 9, 29, 40, 60
-0.992284, 201, 49, 232, 80
-0.992324, 301, 177, 332, 208
-0.992341, 13, 49, 44, 80
-0.992341, 209, 145, 240, 176
-0.992343, 393, 45, 424, 76
-0.992355, 121, 65, 152, 96
-0.992355, 193, 149, 224, 180
-0.99236, 93, 193, 124, 224
-0.992365, 285, 185, 316, 216
-0.992391, 137, 101, 168, 132
-0.992399, 257, 89, 500, 152
-0.992418, 341, 85, 372, 116
-0.992428, 181, 57, 212, 88
-0.992444, 365, 77, 396, 108
-0.992446, 361, 145, 392, 176
-0.992455, 405, 129, 436, 160
-0.992468, 393, 29, 424, 60
-0.992473, 117, 209, 148, 240
-0.992476, 109, 65, 140, 96
-0.992476, 45, 81, 76, 112
-0.992487, 97, 173, 224, 204
-0.992488, 337, 133, 464, 164
-0.992489, 237, 89, 268, 120
-0.992494, 377, 37, 408, 68
-0.992496, 193, 137, 224, 168
-0.992501, 397, 205, 428, 236
-0.992505, 221, 137, 252, 168
-0.992517, 173, 149, 204, 180
-0.992533, 193, 181, 224, 212
-0.992541, 281, 41, 312, 72
-0.992548, 397, 189, 428, 220
-0.992548, 353, 33, 384, 64
-0.992549, 309, 37, 340, 68
-0.99255, 333, 37, 364, 68
-0.992555, 361, 285, 392, 316
-0.992558, 117, 85, 148, 116
-0.99256, 33, 69, 160, 100
-0.992564, 357, 53, 388, 84
-0.992572, 105, 189, 136, 220
-0.992589, 41, 53, 72, 84
-0.992592, 353, 81, 384, 112
-0.992594, 1, 57, 32, 88
-0.992595, 97, 209, 128, 240
-0.992604, 273, 145, 304, 176
-0.992605, 297, 145, 328, 176
-0.992606, 253, 145, 284, 176
-0.992609, 93, 153, 124, 184
-0.992609, 201, 93, 232, 124
-0.992613, 253, 41, 284, 72
-0.992614, 141, 213, 172, 244
-0.992617, 257, 113, 500, 176
-0.99262, 113, 161, 144, 192
-0.99263, 33, 89, 64, 120
-0.992633, 297, 37, 328, 68
-0.992635, 105, 53, 136, 84
-0.992639, 217, 97, 248, 128
-0.992646, 65, 65, 96, 96
-0.992649, 373, 57, 404, 88
-0.99265, 89, 53, 120, 84
-0.99265, 325, 185, 356, 216
-0.992657, 301, 161, 332, 192
-0.992657, 129, 213, 160, 244
-0.992657, 245, 1, 276, 32
-0.992658, 233, 137, 264, 168
-0.992662, 55, 57, 70, 120
-0.992667, 1, 77, 32, 108
-0.992668, 121, 109, 152, 140
-0.99267, 149, 101, 180, 132
-0.992672, 141, 57, 172, 88
-0.992672, 309, 197, 340, 228
-0.992675, 117, 181, 148, 212
-0.992679, 149, 145, 180, 176
-0.992681, 117, 53, 148, 84
-0.992682, 181, 137, 212, 168
-0.992684, 265, 41, 296, 72
-0.992685, 77, 65, 108, 96
-0.992688, 129, 201, 160, 232
-0.992692, 97, 233, 352, 296
-0.992694, 321, 37, 352, 68
-0.992695, 433, 73, 464, 104
-0.992698, 421, 109, 452, 140
-0.992711, 377, 121, 408, 152
-0.992715, 257, 9, 500, 72
-0.992717, 289, 197, 320, 228
-0.992722, 337, 185, 368, 216
-0.992723, 109, 169, 124, 232
-0.992728, 153, 165, 184, 196
-0.992733, 317, 157, 348, 188
-0.992738, 21, 89, 52, 120
-0.992739, 1, 169, 256, 232
-0.992746, 261, 1, 292, 32
-0.992746, 133, 89, 164, 120
-0.992754, 253, 133, 284, 164
-0.992755, 81, 65, 208, 96
-0.992755, 85, 77, 116, 108
-0.992757, 389, 293, 420, 324
-0.992759, 417, 129, 448, 160
-0.992763, 385, 57, 416, 88
-0.992766, 265, 173, 296, 204
-0.992766, 205, 217, 236, 248
-0.99277, 201, 65, 232, 96
-0.99277, 173, 93, 204, 124
-0.992771, 437, 113, 468, 144
-0.992772, 269, 185, 300, 216
-0.992773, 29, 41, 60, 72
-0.992775, 189, 89, 220, 120
-0.992775, 301, 57, 332, 88
-0.992778, 365, 41, 396, 72
-0.992778, 77, 185, 108, 216
-0.992781, 405, 141, 436, 172
-0.992782, 49, 137, 80, 168
-0.992785, 285, 145, 316, 176
-0.992785, 41, 257, 72, 288
-0.992789, 405, 37, 436, 68
-0.99279, 333, 49, 364, 80
-0.99279, 313, 185, 344, 216
-0.992792, 289, 169, 320, 200
-0.992794, 105, 81, 136, 112
-0.992795, 313, 57, 344, 88
-0.992798, 117, 197, 148, 228
-0.992801, 241, 145, 368, 176
-0.992801, 325, 133, 356, 164
-0.992808, 97, 1, 352, 64
-0.992923, 273, 41, 400, 72
-0.992964, 33, 57, 48, 120
-0.992994, 321, 37, 448, 68
-0.992997, 305, 53, 432, 84
-0.993021, 23, 25, 38, 88
-0.993046, 1, 249, 256, 312
-0.99307, 345, 145, 360, 208
-0.99308, 335, 145, 350, 208
-0.993132, 43, 65, 58, 128
-0.993167, 161, 65, 416, 128
-0.993201, 33, 89, 160, 120
-0.993254, 289, 177, 416, 208
-0.993321, 17, 177, 144, 208
-0.993442, 1, 281, 256, 344
-0.993476, 225, 49, 352, 80
-0.993488, 1, 209, 500, 272
-0.993488, 257, 157, 384, 188
-0.993527, 105, 49, 120, 112
-0.993531, 1, 73, 500, 136
-0.993542, 1, 53, 128, 84
-0.993547, 49, 49, 64, 112
-0.993583, 17, 25, 32, 88
-0.993624, 193, 141, 320, 172
-0.993634, 329, 153, 344, 216
-0.993644, 27, 49, 42, 112
-0.993663, 193, 233, 448, 296
-0.993699, 177, 161, 304, 192
-0.993699, 177, 173, 304, 204
-0.993726, 61, 41, 76, 104
-0.993736, 305, 189, 432, 220
-0.993749, 113, 145, 240, 176
-0.993753, 81, 185, 208, 216
-0.993757, 9, 49, 24, 112
-0.993764, 291, 177, 306, 240
-0.993794, 161, 281, 416, 344
-0.993869, 1, 265, 500, 328
-0.993874, 305, 153, 432, 184
-0.99389, 33, 193, 160, 224
-0.993891, 353, 85, 480, 116
-0.993898, 161, 49, 288, 80
-0.993918, 1, 1, 256, 64
-0.993988, 33, 141, 160, 172
-0.994014, 329, 129, 344, 192
-0.994029, 97, 53, 224, 84
-0.994035, 81, 213, 208, 244
-0.994068, 355, 137, 370, 200
-0.99408, 113, 93, 240, 124
-0.994083, 401, 33, 416, 96
-0.99409, 323, 137, 338, 200
-0.99415, 15, 49, 30, 112
-0.994154, 99, 177, 114, 240
-0.994252, 1, 33, 16, 96
-0.994272, 143, 217, 158, 280
-0.994286, 305, 49, 320, 112
-0.994289, 311, 73, 326, 136
-0.994291, 97, 1, 224, 32
-0.994292, 91, 185, 106, 248
-0.994327, 305, 165, 432, 196
-0.994357, 141, 73, 156, 136
-0.994391, 17, 161, 144, 192
-0.99441, 179, 49, 194, 112
-0.994412, 351, 161, 366, 224
-0.994419, 189, 169, 204, 232
-0.994422, 133, 65, 148, 128
-0.994426, 257, 69, 384, 100
-0.994449, 109, 193, 124, 256
-0.994453, 209, 41, 224, 104
-0.994484, 305, 25, 432, 56
-0.994491, 317, 153, 332, 216
-0.994494, 257, 265, 500, 328
-0.994496, 65, 17, 192, 48
-0.994498, 55, 81, 70, 144
-0.994502, 369, 41, 496, 72
-0.994503, 241, 221, 368, 252
-0.994505, 353, 73, 480, 104
-0.994521, 49, 73, 64, 136
-0.994525, 111, 73, 126, 136
-0.994526, 137, 193, 152, 256
-0.994536, 21, 73, 36, 136
-0.994549, 97, 65, 112, 128
-0.994579, 21, 49, 36, 112
-0.994596, 299, 177, 314, 240
-0.994598, 195, 169, 210, 232
-0.994598, 389, 265, 404, 328
-0.994606, 179, 185, 194, 248
-0.994608, 225, 37, 352, 68
-0.994613, 315, 49, 330, 112
-0.994628, 11, 25, 26, 88
-0.994629, 1, 57, 16, 120
-0.994639, 63, 121, 78, 184
-0.994657, 257, 89, 384, 120
-0.99466, 353, 97, 480, 128
-0.994669, 177, 213, 304, 244
-0.994677, 289, 141, 416, 172
-0.994682, 1, 25, 128, 56
-0.994722, 349, 17, 364, 80
-0.994756, 1, 225, 256, 288
-0.994781, 395, 17, 410, 80
-0.994788, 203, 65, 218, 128
-0.994803, 97, 161, 224, 192
-0.994813, 317, 129, 332, 192
-0.994818, 337, 121, 352, 184
-0.994819, 299, 65, 314, 128
-0.994825, 289, 289, 416, 320
-0.994846, 117, 81, 132, 144
-0.994847, 341, 169, 356, 232
-0.994868, 337, 121, 464, 152
-0.994875, 117, 169, 132, 232
-0.994875, 101, 201, 116, 264
-0.99489, 127, 73, 142, 136
-0.994896, 369, 81, 384, 144
-0.994916, 177, 89, 304, 120
-0.994918, 173, 41, 188, 104
-0.994929, 175, 73, 190, 136
-0.99493, 17, 1, 144, 32
-0.994942, 61, 81, 76, 144
-0.994959, 317, 73, 332, 136
-0.994964, 407, 33, 422, 96
-0.994969, 57, 113, 72, 176
-0.994991, 193, 305, 448, 368
-0.994998, 361, 153, 376, 216
-0.995001, 321, 273, 448, 304
-0.995003, 321, 301, 448, 332
-0.995003, 241, 1, 368, 32
-0.995006, 49, 53, 176, 84
-0.995007, 257, 129, 384, 160
-0.99501, 385, 33, 400, 96
-0.995016, 225, 185, 352, 216
-0.99502, 403, 121, 418, 184
-0.995024, 121, 49, 136, 112
-0.995028, 403, 265, 418, 328
-0.995034, 413, 105, 428, 168
-0.995067, 55, 33, 70, 96
-0.995074, 97, 209, 352, 272
-0.995079, 29, 81, 44, 144
-0.995083, 305, 201, 432, 232
-0.995085, 147, 193, 162, 256
-0.995086, 309, 9, 324, 72
-0.995113, 135, 89, 150, 152
-0.995116, 285, 185, 300, 248
-0.995127, 49, 257, 176, 288
-0.995127, 291, 153, 306, 216
-0.995128, 33, 33, 48, 96
-0.995135, 65, 313, 320, 375
-0.995155, 383, 273, 398, 336
-0.995164, 201, 41, 216, 104
-0.9952, 391, 41, 406, 104
-0.99521, 373, 57, 388, 120
-0.995229, 129, 221, 256, 252
-0.995229, 129, 105, 256, 136
-0.995243, 363, 97, 378, 160
-0.995248, 105, 89, 120, 152
-0.995253, 277, 185, 292, 248
-0.995265, 129, 261, 256, 292
-0.995267, 369, 29, 496, 60
-0.995272, 379, 33, 394, 96
-0.995307, 185, 57, 200, 120
-0.995319, 167, 41, 182, 104
-0.995322, 37, 145, 52, 208
-0.995331, 225, 197, 352, 228
-0.995365, 15, 73, 30, 136
-0.995369, 353, 57, 368, 120
-0.995375, 69, 57, 84, 120
-0.995383, 111, 49, 126, 112
-0.995389, 409, 185, 424, 248
-0.995392, 91, 65, 106, 128
-0.995395, 377, 265, 392, 328
-0.995401, 1, 37, 128, 68
-0.995425, 413, 17, 428, 80
-0.995425, 325, 49, 340, 112
-0.99543, 173, 169, 188, 232
-0.995435, 189, 193, 204, 256
-0.995437, 101, 153, 116, 216
-0.995446, 127, 49, 142, 112
-0.995458, 113, 77, 240, 108
-0.995463, 113, 201, 240, 232
-0.995463, 299, 153, 314, 216
-0.995472, 145, 133, 272, 164
-0.995485, 181, 161, 196, 224
-0.995492, 285, 153, 300, 216
-0.995498, 337, 289, 464, 320
-0.995501, 105, 1, 136, 256
-0.995501, 393, 121, 408, 184
-0.995502, 201, 1, 216, 64
-0.995502, 49, 101, 176, 132
-0.995529, 1, 213, 128, 244
-0.995533, 145, 33, 272, 64
-0.995544, 411, 57, 426, 120
-0.995545, 1, 193, 16, 256
-0.995547, 161, 57, 176, 120
-0.995548, 49, 129, 176, 160
-0.995559, 305, 97, 432, 128
-0.995568, 131, 193, 146, 256
-0.995576, 193, 65, 320, 96
-0.995576, 193, 101, 320, 132
-0.995597, 361, 41, 376, 104
-0.995625, 35, 169, 50, 232
-0.995647, 295, 25, 310, 88
-0.99565, 347, 121, 362, 184
-0.995655, 305, 81, 432, 112
-0.995656, 363, 273, 378, 336
-0.99566, 85, 185, 100, 248
-0.99567, 323, 113, 338, 176
-0.995672, 195, 193, 210, 256
-0.995674, 315, 177, 330, 240
-0.995676, 305, 65, 432, 96
-0.995677, 115, 9, 130, 72
-0.995701, 189, 145, 204, 208
-0.995724, 337, 109, 464, 140
-0.995733, 379, 57, 394, 120
-0.995735, 409, 161, 424, 224
-0.99574, 311, 145, 326, 208
-0.995741, 51, 137, 66, 200
-0.995744, 145, 185, 272, 216
-0.99575, 361, 177, 376, 240
-0.995758, 321, 225, 448, 256
-0.995785, 305, 1, 432, 32
-0.995831, 1, 297, 500, 360
-0.995843, 37, 65, 68, 320
-0.995855, 1, 233, 500, 296
-0.995883, 177, 77, 304, 108
-0.995925, 65, 41, 192, 72
-0.995932, 289, 317, 416, 348
-0.995946, 17, 1, 48, 256
-0.995953, 257, 269, 384, 300
-0.995973, 257, 209, 384, 240
-0.99601, 97, 245, 224, 276
-0.99601, 353, 13, 480, 44
-0.996025, 1, 253, 128, 284
-0.996032, 241, 253, 368, 284
-0.996038, 369, 1, 496, 32
-0.99604, 17, 13, 144, 44
-0.996043, 49, 113, 176, 144
-0.996056, 129, 65, 256, 96
-0.996093, 369, 277, 496, 308
-0.996101, 353, 57, 480, 88
-0.996105, 177, 253, 304, 284
-0.99613, 193, 229, 320, 260
-0.996141, 257, 21, 384, 52
-0.996195, 89, 33, 120, 288
-0.996288, 49, 273, 176, 304
-0.996297, 33, 225, 160, 256
-0.9963, 421, 1, 452, 256
-0.996312, 193, 265, 320, 296
-0.99632, 405, 1, 436, 256
-0.996349, 27, 81, 42, 112
-0.996393, 193, 25, 320, 56
-0.996404, 177, 1, 304, 32
-0.996434, 369, 305, 496, 336
-0.996436, 359, 141, 374, 172
-0.996438, 49, 245, 176, 276
-0.996458, 117, 1, 148, 256
-0.996472, 177, 201, 304, 232
-0.996474, 305, 213, 432, 244
-0.996499, 145, 233, 272, 264
-0.996552, 1, 109, 128, 140
-0.996622, 97, 29, 224, 60
-0.996627, 49, 29, 176, 60
-0.996649, 257, 105, 384, 136
-0.996649, 353, 145, 480, 176
-0.99665, 97, 133, 224, 164
-0.996664, 289, 341, 416, 372
-0.996692, 261, 1, 292, 256
-0.996714, 129, 321, 256, 352
-0.996722, 113, 277, 240, 308
-0.996729, 49, 289, 176, 320
-0.996731, 305, 13, 432, 44
-0.996735, 57, 65, 72, 96
-0.996766, 371, 133, 386, 164
-0.996787, 365, 141, 380, 172
-0.996794, 353, 141, 368, 172
-0.9968, 23, 29, 38, 60
-0.996808, 59, 53, 74, 84
-0.996837, 47, 73, 62, 104
-0.996846, 381, 133, 396, 164
-0.996856, 193, 129, 320, 160
-0.996858, 117, 69, 132, 100
-0.996864, 433, 33, 464, 288
-0.996866, 35, 81, 50, 112
-0.996872, 337, 317, 464, 348
-0.996878, 347, 141, 362, 172
-0.996916, 337, 145, 352, 176
-0.996924, 321, 329, 448, 360
-0.99693, 193, 325, 320, 356
-0.996954, 33, 65, 48, 96
-0.99697, 109, 193, 124, 224
-0.996973, 241, 293, 368, 324
-0.996986, 317, 145, 332, 176
-0.996995, 1, 121, 128, 152
-0.996996, 241, 321, 368, 352
-0.997009, 323, 145, 338, 176
-0.997016, 53, 53, 68, 84
-0.997017, 343, 165, 358, 196
-0.997026, 357, 153, 372, 184
-0.997026, 401, 133, 416, 164
-0.997033, 65, 1, 96, 256
-0.997057, 293, 1, 324, 256
-0.997085, 193, 277, 320, 308
-0.997097, 21, 49, 36, 80
-0.997108, 217, 145, 232, 176
-0.997129, 101, 73, 116, 104
-0.997143, 113, 13, 240, 44
-0.997164, 273, 233, 400, 264
-0.997173, 211, 145, 226, 176
-0.997186, 291, 169, 306, 200
-0.997187, 55, 81, 70, 112
-0.997191, 395, 133, 410, 164
-0.997198, 49, 1, 80, 256
-0.997203, 27, 69, 42, 100
-0.997206, 63, 65, 78, 96
-0.997211, 81, 321, 208, 352
-0.997224, 143, 213, 158, 244
-0.997225, 21, 77, 36, 108
-0.997226, 337, 1, 368, 256
-0.997229, 77, 1, 108, 256
-0.997253, 345, 153, 360, 184
-0.997259, 137, 65, 168, 320
-0.997261, 329, 145, 344, 176
-0.997267, 123, 65, 138, 96
-0.997268, 233, 1, 264, 256
-0.997275, 121, 201, 136, 232
-0.997285, 39, 61, 54, 92
-0.99729, 219, 89, 234, 120
-0.997291, 405, 29, 420, 60
-0.997303, 169, 1, 200, 256
-0.997314, 41, 81, 56, 112
-0.997315, 115, 189, 130, 220
-0.997319, 109, 177, 124, 208
-0.99732, 121, 97, 152, 352
-0.997322, 281, 97, 312, 352
-0.997335, 91, 65, 106, 96
-0.997355, 163, 49, 178, 80
-0.997369, 307, 201, 322, 232
-0.997381, 223, 145, 238, 176
-0.997386, 109, 65, 124, 96
-0.99739, 393, 129, 424, 375
-0.997391, 289, 29, 304, 60
-0.997393, 389, 133, 404, 164
-0.997413, 365, 129, 380, 160
-0.997416, 51, 141, 66, 172
-0.997416, 61, 121, 76, 152
-0.997418, 15, 77, 30, 108
-0.997435, 149, 217, 164, 248
-0.997437, 29, 37, 44, 68
-0.997445, 333, 169, 348, 200
-0.997445, 375, 65, 390, 96
-0.997447, 99, 197, 114, 228
-0.99745, 97, 177, 112, 208
-0.99747, 299, 181, 314, 212
-0.997473, 5, 1, 36, 256
-0.997474, 291, 185, 306, 216
-0.997475, 325, 33, 356, 288
-0.997486, 311, 145, 326, 176
-0.997488, 49, 97, 80, 352
-0.99749, 355, 33, 370, 64
-0.997491, 177, 49, 192, 80
-0.997498, 383, 37, 398, 68
-0.997499, 351, 153, 366, 184
-0.9975, 203, 49, 218, 80
-0.997502, 91, 193, 106, 224
-0.997503, 47, 61, 62, 92
-0.997506, 205, 141, 220, 172
-0.997508, 17, 29, 32, 60
-0.997513, 269, 145, 284, 176
-0.997514, 309, 1, 340, 256
-0.997516, 359, 81, 374, 112
-0.997519, 11, 37, 26, 68
-0.997521, 63, 77, 78, 108
-0.997525, 197, 145, 212, 176
-0.997537, 181, 97, 212, 352
-0.997539, 131, 89, 146, 120
-0.997544, 369, 81, 384, 112
-0.997552, 117, 57, 132, 88
-0.997555, 397, 45, 412, 76
-0.997564, 421, 105, 436, 136
-0.997573, 289, 41, 304, 72
-0.997586, 229, 129, 260, 375
-0.997592, 123, 53, 138, 84
-0.997596, 417, 93, 432, 124
-0.997601, 257, 1, 272, 32
-0.997603, 411, 201, 426, 232
-0.997604, 403, 189, 418, 220
-0.997606, 313, 37, 328, 68
-0.997607, 389, 33, 420, 288
-0.997613, 339, 37, 354, 68
-0.997623, 109, 1, 124, 32
-0.997625, 393, 33, 408, 64
-0.997625, 327, 173, 342, 204
-0.997626, 315, 181, 330, 212
-0.997627, 273, 1, 304, 256
-0.997638, 377, 37, 392, 68
-0.997638, 259, 141, 274, 172
-0.997642, 399, 29, 414, 60
-0.997643, 149, 153, 164, 184
-0.997645, 231, 137, 246, 168
-0.997649, 149, 1, 164, 32
-0.99765, 29, 49, 44, 80
-0.997658, 409, 97, 440, 352
-0.997658, 143, 225, 158, 256
-0.99768, 147, 101, 162, 132
-0.997682, 105, 97, 136, 352
-0.997687, 209, 89, 224, 120
-0.99769, 331, 37, 346, 68
-0.997691, 63, 133, 78, 164
-0.997691, 33, 93, 48, 124
-0.997691, 295, 41, 310, 72
-0.997696, 251, 1, 266, 32
-0.997699, 405, 49, 420, 80
-0.997699, 349, 73, 364, 104
-0.9977, 275, 145, 290, 176
-0.997702, 113, 17, 128, 48
-0.997704, 103, 57, 118, 88
-0.997706, 217, 65, 248, 320
-0.997707, 141, 97, 156, 128
-0.99771, 285, 185, 300, 216
-0.997718, 137, 109, 152, 140
-0.997729, 365, 45, 380, 76
-0.99773, 351, 85, 366, 116
-0.997731, 325, 37, 340, 68
-0.997733, 11, 53, 26, 84
-0.997735, 373, 53, 388, 84
-0.997735, 381, 57, 396, 88
-0.997736, 131, 69, 146, 100
-0.997737, 141, 85, 156, 116
-0.997737, 313, 97, 344, 352
-0.997743, 131, 201, 146, 232
-0.997746, 249, 89, 264, 120
-0.997748, 173, 149, 188, 180
-0.997751, 335, 157, 350, 188
-0.997752, 197, 177, 212, 208
-0.997762, 153, 33, 184, 288
-0.997785, 245, 1, 276, 256
-0.997815, 349, 1, 380, 256
-0.997916, 421, 97, 452, 352
-0.997958, 257, 129, 288, 375
-0.997973, 325, 129, 356, 375
-0.997993, 205, 65, 236, 320
-0.998039, 181, 1, 212, 256
-0.998112, 373, 129, 404, 375
-0.998119, 365, 1, 396, 256
-0.998177, 193, 65, 224, 320
-0.998192, 341, 97, 372, 352
-0.99822, 269, 97, 300, 352
-0.998282, 25, 97, 56, 352
-0.998306, 357, 129, 388, 375
-0.998331, 241, 97, 272, 352
-0.998346, 289, 183, 352, 198
-0.998384, 289, 171, 352, 186
-0.9984, 5, 17, 20, 144
-0.998411, 73, 179, 136, 194
-0.998414, 369, 57, 432, 72
-0.998415, 193, 149, 256, 164
-0.998416, 161, 129, 192, 375
-0.998419, 17, 91, 80, 106
-0.99842, 161, 177, 224, 192
-0.998423, 153, 53, 216, 68
-0.998424, 289, 177, 352, 192
-0.998426, 305, 145, 368, 160
-0.998428, 51, 49, 66, 176
-0.998429, 209, 93, 272, 108
-0.998433, 17, 77, 80, 92
-0.998433, 265, 175, 328, 190
-0.998436, 177, 63, 240, 78
-0.998437, 233, 99, 296, 114
-0.998446, 49, 83, 112, 98
-0.998449, 305, 155, 368, 170
-0.998449, 57, 67, 120, 82
-0.998449, 1, 83, 64, 98
-0.998451, 369, 49, 432, 64
-0.998452, 25, 61, 88, 76
-0.998453, 97, 71, 160, 86
-0.998457, 121, 63, 184, 78
-0.998458, 321, 47, 384, 62
-0.998459, 161, 151, 224, 166
-0.99846, 1, 55, 64, 70
-0.998461, 353, 135, 416, 150
-0.998467, 89, 87, 152, 102
-0.998468, 289, 163, 352, 178
-0.998468, 17, 71, 80, 86
-0.998469, 17, 63, 48, 78
-0.998469, 361, 135, 392, 150
-0.998469, 181, 45, 212, 60
-0.99847, 313, 173, 376, 188
-0.99847, 425, 125, 456, 140
-0.99847, 129, 203, 160, 218
-0.99847, 125, 147, 156, 162
-0.99847, 277, 177, 308, 192
-0.998471, 153, 155, 184, 170
-0.998471, 173, 191, 204, 206
-0.998471, 129, 107, 192, 122
-0.998471, 233, 141, 264, 156
-0.998472, 369, 149, 400, 164
-0.998472, 41, 189, 72, 204
-0.998472, 185, 221, 216, 236
-0.998473, 301, 193, 332, 208
-0.998473, 337, 175, 368, 190
-0.998474, 397, 199, 428, 214
-0.998474, 369, 33, 432, 48
-0.998475, 157, 97, 188, 112
-0.998476, 369, 43, 432, 58
-0.998476, 357, 289, 388, 304
-0.998476, 17, 49, 80, 64
-0.998477, 325, 57, 356, 72
-0.998478, 177, 53, 240, 68
-0.998478, 61, 79, 92, 94
-0.998478, 249, 1, 280, 16
-0.998479, 9, 33, 72, 48
-0.998479, 393, 125, 456, 140
-0.998479, 153, 59, 216, 74
-0.99848, 313, 179, 376, 194
-0.99848, 145, 213, 176, 228
-0.99848, 1, 97, 32, 352
-0.998481, 369, 143, 432, 158
-0.998481, 309, 145, 340, 160
-0.998482, 241, 99, 272, 114
-0.998482, 105, 85, 136, 100
-0.998482, 261, 1, 292, 16
-0.998484, 201, 101, 232, 116
-0.998484, 249, 47, 280, 62
-0.998484, 345, 81, 376, 96
-0.998485, 281, 63, 344, 78
-0.998485, 137, 109, 168, 124
-0.998485, 349, 155, 380, 170
-0.998486, 333, 187, 364, 202
-0.998487, 109, 191, 140, 206
-0.998487, 369, 85, 400, 100
-0.998487, 125, 221, 156, 236
-0.998487, 17, 49, 48, 64
-0.998487, 105, 201, 136, 216
-0.998488, 117, 203, 148, 218
-0.998488, 81, 155, 112, 170
-0.998488, 41, 149, 104, 164
-0.998488, 117, 157, 148, 172
-0.998488, 329, 145, 392, 160
-0.998489, 293, 97, 324, 352
-0.99849, 185, 55, 216, 70
-0.99849, 49, 61, 80, 76
-0.99849, 73, 195, 136, 210
-0.99849, 73, 185, 136, 200
-0.99849, 141, 97, 172, 112
-0.998491, 377, 57, 408, 72
-0.998492, 401, 107, 464, 122
-0.998492, 377, 287, 408, 302
-0.998492, 189, 151, 220, 166
-0.998493, 177, 181, 208, 196
-0.998493, 113, 201, 176, 216
-0.998493, 385, 135, 448, 150
-0.998493, 37, 113, 68, 128
-0.998493, 113, 209, 176, 224
-0.998494, 377, 1, 408, 256
-0.998495, 377, 135, 408, 150
-0.998495, 117, 185, 148, 200
-0.998497, 17, 43, 80, 58
-0.998497, 137, 221, 168, 236
-0.998498, 121, 217, 184, 232
-0.998498, 345, 299, 408, 314
-0.998499, 241, 45, 304, 60
-0.998499, 21, 95, 52, 110
-0.9985, 313, 155, 344, 170
-0.998501, 237, 91, 268, 106
-0.998501, 313, 197, 344, 212
-0.998502, 137, 91, 168, 106
-0.998503, 445, 33, 476, 288
-0.998504, 409, 127, 440, 142
-0.998504, 337, 83, 400, 98
-0.998505, 317, 171, 348, 186
-0.998505, 41, 189, 104, 204
-0.998505, 353, 45, 384, 60
-0.998506, 273, 195, 336, 210
-0.998506, 233, 93, 296, 108
-0.998506, 213, 101, 244, 116
-0.998506, 393, 41, 456, 56
-0.998506, 41, 179, 104, 194
-0.998507, 61, 33, 76, 160
-0.998507, 89, 67, 120, 82
-0.998508, 113, 69, 144, 84
-0.998508, 37, 97, 68, 112
-0.998508, 9, 55, 40, 70
-0.998509, 137, 69, 200, 84
-0.998509, 385, 143, 416, 158
-0.998509, 185, 101, 248, 116
-0.99851, 333, 51, 364, 66
-0.99851, 329, 281, 392, 296
-0.998511, 265, 93, 328, 108
-0.998511, 301, 173, 332, 188
-0.998511, 369, 291, 432, 306
-0.998512, 401, 47, 432, 62
-0.998512, 201, 1, 264, 16
-0.998513, 81, 15, 144, 30
-0.998514, 105, 3, 168, 18
-0.998514, 209, 101, 272, 116
-0.998515, 81, 195, 112, 210
-0.998515, 257, 67, 320, 82
-0.998516, 141, 63, 172, 78
-0.998516, 1, 87, 32, 102
-0.998517, 329, 165, 392, 180
-0.998517, 101, 65, 132, 80
-0.998517, 77, 69, 108, 84
-0.998517, 81, 65, 144, 80
-0.998518, 73, 173, 136, 188
-0.998518, 393, 47, 456, 62
-0.998518, 205, 223, 236, 238
-0.998518, 321, 59, 384, 74
-0.998519, 173, 151, 204, 166
-0.998519, 97, 193, 160, 208
-0.99852, 369, 87, 432, 102
-0.99852, 409, 99, 472, 114
-0.99852, 289, 185, 320, 200
-0.998521, 105, 177, 168, 192
-0.998521, 129, 177, 192, 192
-0.998522, 265, 181, 328, 196
-0.998522, 137, 223, 200, 238
-0.998523, 321, 183, 352, 198
-0.998523, 417, 137, 448, 152
-0.998525, 209, 49, 272, 64
-0.998525, 389, 33, 420, 48
-0.998525, 393, 135, 424, 150
-0.998525, 89, 147, 152, 162
-0.998526, 121, 147, 184, 162
-0.998526, 217, 141, 280, 156
-0.998526, 89, 201, 152, 216
-0.998526, 9, 99, 72, 114
-0.998527, 369, 81, 432, 96
-0.998527, 65, 9, 128, 24
-0.998527, 321, 53, 384, 68
-0.998527, 257, 147, 320, 162
-0.998527, 89, 81, 152, 96
-0.998528, 153, 211, 216, 226
-0.998529, 121, 113, 152, 128
-0.998529, 161, 51, 192, 66
-0.998529, 73, 163, 136, 178
-0.998529, 65, 155, 128, 170
-0.998529, 333, 145, 364, 160
-0.998529, 169, 189, 232, 204
-0.998529, 41, 77, 104, 92
-0.99853, 297, 147, 328, 162
-0.99853, 117, 209, 148, 224
-0.99853, 105, 223, 168, 238
-0.99853, 121, 61, 152, 76
-0.99853, 281, 57, 344, 72
-0.99853, 353, 155, 416, 170
-0.998531, 169, 47, 232, 62
-0.998533, 345, 287, 408, 302
-0.998533, 17, 119, 80, 134
-0.998533, 45, 81, 76, 96
-0.998534, 281, 49, 344, 64
-0.998534, 401, 207, 432, 222
-0.998534, 249, 169, 312, 184
-0.998535, 353, 315, 416, 330
-0.998536, 25, 83, 88, 98
-0.998536, 281, 73, 344, 88
-0.998537, 105, 155, 168, 170
-0.998537, 49, 57, 112, 72
-0.998537, 97, 195, 128, 210
-0.998537, 161, 183, 224, 198
-0.998538, 65, 21, 128, 36
-0.998538, 233, 1, 296, 16
-0.998539, 393, 113, 456, 128
-0.998539, 337, 155, 368, 170
-0.99854, 185, 157, 248, 172
-0.99854, 185, 95, 248, 110
-0.99854, 217, 149, 280, 164
-0.99854, 281, 155, 344, 170
-0.99854, 249, 189, 312, 204
-0.99854, 129, 153, 192, 168
-0.998541, 249, 163, 312, 178
-0.998541, 277, 171, 308, 186
-0.998541, 273, 1, 336, 16
-0.998542, 217, 149, 248, 164
-0.998542, 369, 63, 432, 78
-0.998543, 369, 305, 432, 320
-0.998544, 113, 113, 176, 128
-0.998545, 389, 49, 420, 64
-0.998545, 361, 53, 392, 68
-0.998545, 33, 171, 96, 186
-0.998546, 161, 157, 224, 172
-0.998546, 21, 69, 52, 84
-0.998548, 349, 145, 380, 160
-0.998548, 289, 41, 352, 56
-0.998548, 161, 143, 224, 158
-0.998549, 97, 73, 128, 88
-0.998551, 45, 87, 76, 102
-0.998551, 201, 57, 232, 72
-0.998551, 53, 67, 84, 82
-0.998553, 285, 195, 316, 210
-0.998555, 17, 39, 48, 54
-0.998557, 21, 75, 52, 90
-0.998557, 117, 85, 148, 100
-0.99856, 393, 55, 424, 70
-0.998564, 15, 1, 30, 128
-0.998565, 229, 149, 260, 164
-0.998565, 257, 95, 288, 110
-0.998568, 277, 189, 308, 204
-0.998572, 33, 71, 64, 86
-0.998572, 365, 79, 396, 94
-0.998577, 301, 179, 332, 194
-0.998577, 345, 163, 376, 178
-0.99858, 13, 81, 44, 96
-0.99859, 49, 55, 80, 70
-0.998592, 321, 145, 352, 160
-0.998594, 137, 103, 168, 118
-0.998597, 9, 33, 40, 48
-0.998598, 185, 61, 216, 76
-0.998598, 33, 85, 64, 100
-0.998602, 97, 177, 128, 192
-0.998604, 97, 79, 128, 94
-0.998605, 197, 51, 228, 66
-0.998619, 355, 129, 370, 256
-0.998621, 45, 73, 76, 88
-0.998633, 321, 177, 352, 192
-0.99864, 177, 175, 208, 190
-0.998642, 33, 77, 64, 92
-0.998643, 205, 149, 236, 164
-0.998648, 33, 91, 64, 106
-0.998648, 21, 89, 52, 104
-0.998658, 347, 129, 362, 256
-0.998703, 33, 65, 64, 80
-0.998715, 431, 49, 446, 176
-0.998716, 119, 1, 134, 128
-0.998764, 113, 1, 128, 128
-0.998772, 339, 129, 354, 256
-0.998778, 149, 129, 180, 375
-0.998792, 109, 145, 124, 272
-0.998792, 125, 1, 140, 128
-0.998797, 113, 81, 128, 208
-0.998824, 367, 97, 382, 224
-0.998838, 27, 17, 42, 144
-0.998839, 115, 161, 130, 288
-0.99884, 81, 1, 96, 128
-0.998843, 403, 1, 418, 128
-0.998843, 365, 145, 380, 272
-0.998844, 313, 1, 328, 128
-0.998859, 153, 1, 168, 128
-0.99886, 55, 97, 70, 224
-0.998863, 347, 1, 362, 128
-0.998869, 41, 81, 56, 208
-0.998873, 439, 49, 454, 176
-0.998881, 145, 145, 160, 272
-0.998886, 39, 1, 54, 128
-0.99889, 139, 97, 154, 224
-0.998896, 177, 177, 192, 304
-0.998897, 123, 65, 138, 192
-0.998904, 31, 65, 46, 192
-0.998904, 119, 113, 134, 240
-0.998905, 51, 1, 66, 128
-0.998905, 157, 193, 172, 320
-0.998908, 319, 145, 334, 272
-0.99891, 67, 1, 82, 128
-0.99891, 99, 33, 114, 160
-0.998919, 283, 177, 298, 304
-0.99892, 49, 129, 64, 256
-0.998922, 139, 1, 154, 128
-0.998927, 97, 145, 112, 272
-0.99893, 129, 81, 144, 208
-0.998931, 107, 97, 122, 224
-0.998937, 347, 81, 362, 208
-0.998941, 215, 65, 230, 192
-0.998941, 319, 65, 334, 192
-0.998942, 21, 1, 36, 128
-0.998944, 19, 49, 34, 176
-0.998946, 61, 81, 76, 208
-0.998953, 199, 145, 214, 272
-0.998959, 105, 33, 120, 160
-0.99896, 413, 97, 428, 224
-0.998964, 289, 193, 304, 320
-0.998974, 409, 17, 424, 144
-0.998974, 103, 145, 118, 272
-0.998976, 277, 177, 292, 304
-0.998983, 307, 65, 322, 192
-0.998985, 403, 241, 418, 368
-0.998987, 341, 81, 356, 208
-0.998993, 373, 81, 388, 208
-0.998994, 69, 129, 100, 375
-0.998995, 165, 193, 180, 320
-0.998996, 89, 1, 104, 128
-0.998999, 425, 49, 440, 176
-0.999002, 85, 129, 116, 375
-0.999007, 419, 1, 434, 128
-0.999017, 413, 193, 428, 320
-0.999023, 91, 145, 106, 272
-0.999025, 207, 113, 222, 240
-0.999028, 381, 49, 396, 176
-0.999028, 189, 193, 204, 320
-0.999028, 361, 97, 376, 224
-0.999031, 447, 65, 462, 192
-0.999035, 189, 1, 204, 128
-0.999038, 353, 1, 368, 128
-0.999041, 97, 81, 112, 208
-0.999046, 45, 1, 60, 128
-0.99905, 141, 49, 156, 176
-0.999053, 359, 17, 374, 144
-0.999053, 419, 49, 434, 176
-0.999059, 299, 145, 314, 272
-0.999062, 383, 129, 398, 256
-0.999064, 207, 161, 222, 288
-0.999068, 391, 17, 406, 144
-0.999071, 375, 17, 390, 144
-0.999076, 325, 145, 340, 272
-0.999078, 1, 177, 16, 304
-0.999084, 235, 81, 250, 208
-0.999084, 445, 17, 460, 144
-0.999085, 209, 65, 224, 192
-0.99909, 131, 1, 146, 128
-0.999093, 289, 145, 304, 272
-0.999096, 143, 193, 158, 320
-0.999097, 387, 241, 402, 368
-0.999098, 39, 129, 54, 256
-0.999101, 163, 17, 178, 144
-0.999102, 385, 193, 400, 320
-0.999102, 401, 65, 416, 192
-0.999105, 11, 49, 26, 176
-0.999111, 313, 65, 328, 192
-0.999113, 229, 145, 244, 272
-0.999115, 145, 1, 160, 128
-0.999115, 171, 145, 186, 272
-0.999116, 217, 113, 232, 240
-0.999116, 411, 145, 426, 272
-0.999121, 327, 81, 342, 208
-0.999121, 213, 1, 228, 128
-0.999127, 373, 129, 388, 256
-0.999134, 333, 129, 348, 256
-0.999135, 223, 81, 238, 208
-0.999139, 241, 129, 256, 256
-0.999143, 151, 193, 166, 320
-0.999143, 171, 193, 186, 320
-0.999145, 403, 145, 418, 272
-0.999147, 165, 145, 180, 272
-0.999147, 367, 49, 382, 176
-0.999148, 397, 1, 412, 128
-0.99915, 39, 177, 54, 304
-0.999151, 313, 145, 328, 272
-0.999154, 219, 1, 234, 128
-0.999158, 279, 1, 294, 128
-0.999168, 327, 1, 342, 128
-0.999169, 347, 177, 362, 304
-0.999174, 283, 113, 298, 240
-0.999176, 355, 81, 370, 208
-0.999176, 267, 161, 282, 288
-0.999176, 285, 1, 300, 128
-0.999176, 183, 193, 198, 320
-0.999178, 335, 81, 350, 208
-0.999178, 135, 177, 150, 304
-0.999179, 187, 145, 202, 272
-0.999181, 45, 177, 60, 304
-0.999502, 433, 129, 464, 375
-0.999531, 13, 97, 44, 352
-0.999652, 121, 181, 136, 196
-0.999652, 173, 151, 188, 166
-0.999652, 201, 219, 216, 234
-0.999653, 321, 185, 336, 200
-0.999653, 293, 173, 308, 188
-0.999653, 113, 191, 128, 206
-0.999654, 333, 167, 348, 182
-0.999654, 11, 57, 26, 72
-0.999655, 91, 81, 106, 96
-0.999655, 97, 77, 112, 92
-0.999655, 431, 135, 446, 150
-0.999656, 349, 83, 364, 98
-0.999656, 137, 201, 152, 216
-0.999656, 251, 99, 266, 114
-0.999657, 411, 205, 426, 220
-0.999657, 309, 147, 324, 162
-0.999657, 299, 147, 314, 162
-0.999657, 305, 193, 320, 208
-0.999657, 181, 67, 196, 82
-0.999658, 141, 103, 156, 118
-0.999658, 89, 155, 104, 170
-0.999658, 323, 175, 338, 190
-0.999659, 359, 163, 374, 178
-0.999659, 345, 165, 360, 180
-0.99966, 245, 103, 260, 118
-0.99966, 13, 43, 28, 58
-0.99966, 125, 207, 140, 222
-0.99966, 355, 61, 370, 76
-0.999661, 257, 1, 272, 16
-0.999661, 367, 135, 382, 150
-0.999662, 107, 171, 122, 186
-0.999662, 119, 189, 134, 204
-0.999663, 405, 47, 420, 62
-0.999663, 203, 149, 218, 164
-0.999664, 109, 203, 124, 218
-0.999664, 203, 51, 218, 66
-0.999664, 135, 61, 150, 76
-0.999665, 119, 83, 134, 98
-0.999666, 397, 49, 412, 64
-0.999666, 387, 223, 402, 238
-0.999667, 113, 65, 128, 80
-0.999667, 239, 149, 254, 164
-0.999667, 301, 177, 316, 192
-0.999668, 277, 173, 292, 188
-0.999668, 363, 145, 378, 160
-0.999668, 383, 87, 398, 102
-0.999669, 35, 75, 50, 90
-0.99967, 27, 37, 42, 52
-0.999671, 337, 185, 352, 200
-0.999671, 321, 155, 336, 170
-0.999672, 315, 145, 330, 160
-0.999672, 119, 211, 134, 226
-0.999673, 327, 57, 342, 72
-0.999673, 327, 191, 342, 206
-0.999673, 93, 67, 108, 82
-0.999674, 357, 145, 372, 160
-0.999675, 349, 145, 364, 160
-0.999675, 63, 65, 78, 80
-0.999675, 341, 145, 356, 160
-0.999675, 299, 185, 314, 200
-0.999676, 29, 71, 44, 86
-0.999677, 133, 69, 148, 84
-0.999679, 45, 63, 60, 78
-0.999679, 3, 61, 18, 76
-0.999681, 309, 99, 324, 114
-0.999681, 145, 231, 160, 246
-0.999681, 377, 55, 392, 70
-0.999681, 347, 155, 362, 170
-0.999681, 395, 135, 410, 150
-0.999682, 413, 97, 428, 112
-0.999682, 405, 33, 420, 48
-0.999682, 127, 199, 142, 214
-0.999683, 31, 63, 46, 78
-0.999685, 117, 171, 132, 186
-0.999685, 107, 65, 122, 80
-0.999685, 129, 147, 144, 162
-0.999688, 253, 93, 268, 108
-0.999688, 425, 129, 488, 375
-0.999689, 327, 145, 342, 160
-0.999689, 209, 1, 224, 16
-0.99969, 5, 37, 20, 52
-0.99969, 135, 113, 150, 128
-0.999691, 63, 79, 78, 94
-0.999691, 405, 53, 420, 68
-0.999692, 111, 177, 126, 192
-0.999693, 423, 105, 438, 120
-0.999694, 233, 149, 248, 164
-0.999695, 47, 81, 62, 96
-0.999695, 131, 205, 146, 220
-0.999696, 353, 155, 368, 170
-0.999697, 57, 85, 72, 100
-0.999698, 335, 145, 350, 160
-0.999698, 103, 73, 118, 88
-0.999699, 21, 79, 36, 94
-0.999702, 41, 85, 56, 100
-0.999702, 61, 55, 76, 70
-0.999707, 15, 83, 30, 98
-0.999708, 135, 107, 150, 122
-0.999708, 217, 149, 232, 164
-0.999709, 401, 135, 416, 150
-0.999711, 27, 77, 42, 92
-0.999711, 157, 213, 172, 228
-0.999711, 125, 63, 140, 78
-0.999714, 57, 79, 72, 94
-0.999717, 285, 189, 300, 204
-0.999719, 379, 79, 394, 94
-0.999719, 37, 69, 52, 84
-0.999719, 209, 149, 224, 164
-0.999722, 149, 217, 164, 232
-0.999725, 321, 145, 336, 160
-0.999725, 223, 149, 238, 164
-0.999725, 361, 83, 376, 98
-0.999725, 143, 223, 158, 238
-0.999733, 333, 175, 348, 190
-0.999734, 293, 187, 308, 202
-0.999736, 97, 197, 112, 212
-0.999737, 359, 155, 374, 170
-0.999742, 119, 203, 134, 218
-0.999742, 367, 81, 382, 96
-0.999745, 19, 33, 34, 48
-0.999746, 89, 193, 104, 208
-0.999748, 41, 91, 56, 106
-0.999753, 417, 103, 432, 118
-0.999755, 27, 83, 42, 98
-0.999757, 33, 91, 48, 106
-0.99976, 457, 1, 488, 256
-0.999771, 55, 71, 70, 86
-0.999776, 45, 75, 60, 90
-0.999779, 27, 91, 42, 106
-0.999781, 35, 81, 50, 96
-0.999783, 143, 217, 158, 232
-0.999807, 107, 195, 122, 210
-1.00084, 469, 1, 500, 256
-1.0009, 445, 129, 476, 375
-1.00116, 469, 97, 500, 352
-1.00121, 457, 129, 488, 375
-1.0025, 433, 177, 496, 304
-1.0048, 433, 241, 496, 368
