1892
-0.508923, 1, 65, 500, 320
-0.561162, 1, 1, 500, 333
-0.60243, 161, 1, 416, 333
-0.655045, 257, 1, 500, 333
-0.688607, 65, 1, 320, 333
-0.772519, 225, 65, 480, 320
-0.804785, 129, 1, 384, 256
-0.840943, 33, 1, 288, 256
-0.894461, 241, 1, 368, 333
-0.906357, 225, 65, 352, 320
-0.90708, 193, 1, 320, 333
-0.914319, 289, 1, 416, 333
-0.917213, 337, 33, 464, 288
-0.917271, 145, 1, 272, 256
-0.918642, 113, 1, 240, 333
-0.923592, 273, 1, 400, 256
-0.924366, 337, 1, 464, 333
-0.929657, 1, 129, 500, 256
-0.933268, 1, 81, 500, 208
-0.934276, 97, 33, 224, 288
-0.937113, 65, 1, 192, 333
-0.940425, 49, 33, 176, 288
-0.942649, 193, 161, 448, 288
-0.948658, 1, 17, 500, 144
-0.948934, 1, 1, 128, 333
-0.955537, 1, 33, 128, 288
-0.955652, 97, 161, 352, 288
-0.955977, 193, 113, 448, 240
-0.960938, 225, 161, 352, 288
-0.962416, 97, 97, 352, 224
-0.9626, 233, 161, 296, 288
-0.964597, 321, 129, 384, 256
-0.964637, 209, 161, 272, 288
-0.965355, 305, 161, 432, 288
-0.965487, 177, 161, 304, 288
-0.966117, 1, 177, 500, 304
-0.966401, 329, 137, 392, 200
-0.966439, 241, 97, 368, 224
-0.966874, 353, 129, 416, 256
-0.967399, 369, 129, 496, 256
-0.967593, 297, 129, 360, 256
-0.968531, 297, 145, 360, 208
-0.969131, 233, 169, 296, 232
-0.969312, 265, 161, 328, 288
-0.969756, 385, 137, 448, 200
-0.970064, 321, 113, 448, 240
-0.970142, 353, 145, 416, 208
-0.970625, 249, 97, 312, 224
-0.970657, 1, 161, 256, 288
-0.971417, 129, 17, 384, 144
-0.971505, 249, 145, 312, 208
-0.972167, 153, 161, 216, 288
-0.972707, 193, 65, 448, 192
-0.973026, 185, 193, 248, 320
-0.973122, 177, 193, 240, 256
-0.973438, 409, 145, 472, 272
-0.973494, 377, 129, 440, 256
-0.973886, 273, 169, 336, 232
-0.974494, 409, 121, 472, 184
-0.975033, 273, 129, 336, 192
-0.975215, 329, 161, 392, 224
-0.97545, 129, 209, 384, 333
-0.975603, 1, 97, 256, 224
-0.975701, 177, 145, 240, 272
-0.975722, 137, 169, 200, 232
-0.975821, 305, 169, 368, 232
-0.97586, 1, 49, 256, 176
-0.975911, 417, 145, 480, 208
-0.976011, 289, 177, 352, 304
-0.976154, 225, 145, 288, 208
-0.976441, 209, 97, 272, 224
-0.976661, 161, 169, 224, 232
-0.976765, 161, 113, 288, 240
-0.97745, 209, 169, 272, 232
-0.978547, 273, 113, 336, 240
-0.978661, 185, 153, 248, 216
-0.979485, 161, 209, 224, 333
-0.979531, 241, 153, 368, 216
-0.979995, 201, 193, 264, 256
-0.980031, 369, 137, 496, 200
-0.980167, 305, 145, 432, 208
-0.980499, 193, 169, 320, 232
-0.98102, 177, 97, 240, 224
-0.981123, 329, 129, 360, 256
-0.98115, 33, 209, 288, 333
-0.981222, 145, 209, 272, 333
-0.981289, 469, 137, 500, 200
-0.981524, 433, 121, 496, 184
-0.981582, 433, 129, 496, 256
-0.98175, 321, 145, 352, 208
-0.981983, 313, 177, 376, 304
-0.982217, 385, 113, 448, 176
-0.98226, 333, 145, 364, 208
-0.982276, 233, 193, 296, 256
-0.982627, 81, 161, 208, 288
-0.982648, 161, 145, 288, 208
-0.982669, 289, 1, 352, 256
-0.982894, 225, 129, 352, 192
-0.983587, 353, 169, 416, 232
-0.983628, 289, 169, 416, 232
-0.98382, 317, 129, 348, 256
-0.983844, 225, 209, 480, 333
-0.983861, 97, 97, 224, 224
-0.983945, 401, 97, 464, 224
-0.984058, 113, 49, 240, 176
-0.984127, 329, 113, 392, 176
-0.984264, 161, 193, 288, 256
-0.984378, 457, 129, 488, 192
-0.984488, 385, 145, 416, 208
-0.984608, 201, 65, 264, 320
-0.984617, 241, 169, 272, 232
-0.984674, 333, 169, 364, 232
-0.984938, 161, 33, 288, 160
-0.984967, 241, 65, 304, 320
-0.984985, 353, 169, 384, 232
-0.985037, 329, 81, 392, 208
-0.985135, 129, 161, 256, 288
-0.985207, 433, 81, 496, 208
-0.985271, 361, 137, 392, 200
-0.98534, 377, 161, 440, 224
-0.985456, 225, 17, 480, 144
-0.985944, 369, 113, 496, 176
-0.986031, 353, 161, 480, 224
-0.986039, 257, 193, 320, 256
-0.986064, 153, 193, 216, 256
-0.986108, 349, 137, 380, 200
-0.986213, 285, 161, 316, 288
-0.986277, 225, 209, 352, 333
-0.986314, 261, 145, 292, 208
-0.98644, 285, 169, 316, 232
-0.986509, 153, 113, 216, 240
-0.986608, 297, 161, 328, 288
-0.986624, 329, 65, 392, 320
-0.98669, 249, 113, 312, 176
-0.986796, 381, 129, 412, 256
-0.987035, 113, 161, 240, 224
-0.987063, 177, 169, 208, 232
-0.98713, 321, 169, 352, 232
-0.987153, 353, 81, 416, 208
-0.987277, 361, 121, 424, 184
-0.987282, 393, 145, 424, 272
-0.987294, 241, 161, 272, 288
-0.987297, 153, 49, 216, 176
-0.987305, 241, 177, 368, 240
-0.987316, 297, 145, 328, 208
-0.987374, 401, 129, 432, 192
-0.9875, 297, 81, 360, 208
-0.987726, 309, 129, 340, 192
-0.987814, 97, 209, 224, 333
-0.987816, 297, 169, 328, 232
-0.987832, 169, 217, 232, 280
-0.987882, 345, 129, 376, 256
-0.987948, 209, 161, 240, 288
-0.987995, 181, 161, 212, 288
-0.988062, 469, 129, 500, 256
-0.988077, 65, 49, 192, 176
-0.98818, 369, 81, 496, 208
-0.988209, 237, 145, 268, 208
-0.988274, 373, 145, 404, 208
-0.988406, 241, 1, 304, 333
-0.988451, 393, 65, 456, 320
-0.988456, 445, 129, 476, 192
-0.98858, 433, 121, 464, 184
-0.988632, 201, 129, 264, 192
-0.988649, 329, 185, 392, 248
-0.988719, 225, 1, 352, 128
-0.9888, 289, 1, 352, 333
-0.988825, 273, 209, 400, 333
-0.988874, 285, 129, 316, 192
-0.988891, 297, 121, 360, 184
-0.988939, 113, 161, 176, 224
-0.988947, 305, 113, 432, 176
-0.989109, 413, 137, 444, 200
-0.989111, 65, 169, 192, 232
-0.989171, 273, 169, 304, 232
-0.989213, 305, 113, 336, 240
-0.989383, 161, 145, 224, 208
-0.989448, 353, 65, 416, 320
-0.989458, 417, 105, 448, 168
-0.989478, 201, 1, 264, 333
-0.989496, 201, 193, 232, 256
-0.989508, 309, 153, 340, 216
-0.989525, 273, 145, 304, 208
-0.989675, 265, 1, 328, 256
-0.989679, 113, 185, 240, 248
-0.989763, 177, 33, 240, 288
-0.989788, 193, 113, 224, 240
-0.98991, 317, 177, 348, 304
-0.989956, 193, 217, 256, 280
-0.989965, 457, 113, 488, 240
-0.989991, 217, 193, 248, 256
-0.989996, 337, 177, 400, 304
-0.990038, 369, 177, 496, 304
-0.99019, 157, 161, 188, 224
-0.990192, 369, 129, 400, 256
-0.990199, 153, 65, 216, 320
-0.990209, 129, 81, 192, 208
-0.990381, 313, 149, 376, 180
-0.990508, 209, 201, 336, 264
-0.990508, 361, 157, 424, 188
-0.990539, 281, 137, 344, 168
-0.990596, 433, 145, 464, 272
-0.990702, 173, 201, 204, 264
-0.990715, 313, 173, 376, 204
-0.990781, 189, 193, 220, 256
-0.990789, 213, 169, 244, 232
-0.990793, 385, 137, 448, 168
-0.990794, 289, 169, 352, 200
-0.99081, 377, 177, 440, 304
-0.990816, 49, 97, 176, 224
-0.99082, 249, 169, 312, 200
-0.990839, 329, 137, 392, 168
-0.990848, 353, 141, 416, 172
-0.990872, 249, 129, 280, 192
-0.990968, 253, 169, 284, 232
-0.991004, 357, 129, 388, 256
-0.991069, 425, 133, 488, 164
-0.991122, 177, 1, 240, 333
-0.991125, 261, 97, 292, 224
-0.991148, 185, 193, 248, 224
-0.991197, 209, 173, 272, 204
-0.991244, 337, 165, 400, 196
-0.991317, 145, 217, 272, 280
-0.991337, 241, 97, 272, 224
-0.991377, 33, 161, 160, 288
-0.991527, 185, 181, 248, 212
-0.991552, 233, 217, 296, 280
-0.991559, 277, 113, 308, 240
-0.991596, 425, 97, 488, 160
-0.991641, 265, 161, 296, 288
-0.991643, 253, 161, 284, 288
-0.991659, 417, 161, 480, 192
-0.991665, 281, 149, 344, 180
-0.991684, 385, 149, 448, 180
-0.991701, 129, 169, 192, 200
-0.991705, 229, 177, 260, 240
-0.991711, 129, 161, 192, 288
-0.991713, 161, 193, 224, 224
-0.991728, 433, 149, 496, 180
-0.991734, 289, 193, 352, 256
-0.991748, 265, 1, 328, 333
-0.991841, 161, 209, 224, 240
-0.991852, 57, 169, 120, 232
-0.99188, 241, 137, 304, 168
-0.991895, 417, 113, 448, 240
-0.991903, 169, 161, 232, 192
-0.991932, 305, 137, 368, 168
-0.991944, 417, 33, 480, 288
-0.992019, 337, 153, 400, 184
-0.992053, 209, 157, 272, 188
-0.992101, 193, 169, 448, 232
-0.992117, 233, 193, 296, 224
-0.992127, 385, 161, 448, 192
-0.992133, 289, 181, 352, 212
-0.9922, 185, 209, 248, 240
-0.992207, 161, 181, 224, 212
-0.992215, 17, 161, 144, 224
-0.99222, 193, 193, 224, 320
-0.992238, 105, 49, 168, 176
-0.99225, 377, 81, 440, 208
-0.992264, 257, 209, 320, 333
-0.992339, 225, 105, 352, 168
-0.992365, 233, 149, 296, 180
-0.992366, 337, 1, 400, 333
-0.992374, 225, 49, 352, 176
-0.992418, 229, 145, 260, 272
-0.992445, 81, 161, 144, 224
-0.99245, 313, 1, 376, 333
-0.992459, 249, 181, 312, 212
-0.992459, 313, 161, 376, 192
-0.99246, 409, 145, 472, 176
-0.992562, 209, 189, 272, 220
-0.992584, 105, 169, 168, 200
-0.992587, 401, 169, 464, 232
-0.992604, 353, 125, 416, 156
-0.992646, 313, 125, 376, 156
-0.992651, 337, 121, 368, 184
-0.992655, 49, 273, 176, 333
-0.992657, 257, 149, 320, 180
-0.992687, 189, 161, 220, 224
-0.992695, 385, 173, 448, 204
-0.992712, 401, 137, 432, 168
-0.992731, 225, 113, 288, 176
-0.992742, 17, 49, 144, 176
-0.992798, 9, 169, 72, 232
-0.992799, 209, 201, 272, 232
-0.992801, 317, 137, 348, 168
-0.992824, 401, 125, 464, 156
-0.992828, 389, 145, 420, 176
-0.992841, 353, 165, 384, 196
-0.992876, 321, 65, 448, 192
-0.992883, 469, 133, 500, 164
-0.992884, 317, 169, 348, 200
-0.992888, 337, 177, 400, 208
-0.992892, 433, 121, 496, 152
-0.992902, 385, 1, 448, 333
-0.992917, 209, 217, 272, 248
-0.992919, 289, 193, 352, 224
-0.992947, 177, 33, 240, 160
-0.992967, 365, 157, 396, 188
-0.992969, 185, 245, 248, 276
-0.992977, 49, 169, 112, 200
-0.992989, 337, 149, 368, 180
-0.993008, 425, 173, 488, 204
-0.993017, 213, 189, 244, 220
-0.993018, 281, 125, 344, 156
-0.993018, 305, 169, 336, 200
-0.993023, 417, 137, 448, 168
-0.993025, 317, 153, 348, 184
-0.993034, 377, 153, 408, 184
-0.993035, 365, 169, 396, 232
-0.993054, 329, 173, 360, 204
-0.993072, 241, 173, 272, 204
-0.993077, 285, 169, 316, 200
-0.99308, 361, 169, 424, 200
-0.993089, 153, 1, 216, 333
-0.993094, 41, 285, 104, 316
-0.993094, 449, 141, 480, 172
-0.993103, 433, 133, 464, 164
-0.993104, 105, 261, 168, 292
-0.993116, 137, 189, 200, 220
-0.993125, 273, 65, 336, 192
-0.993131, 145, 257, 208, 288
-0.993134, 313, 193, 376, 224
-0.993137, 129, 157, 192, 188
-0.993138, 209, 145, 272, 176
-0.99314, 161, 145, 416, 208
-0.993143, 65, 65, 192, 128
-0.993145, 401, 161, 432, 224
-0.993148, 73, 169, 136, 200
-0.993148, 321, 205, 384, 236
-0.993153, 337, 137, 368, 168
-0.993154, 461, 153, 492, 184
-0.993158, 457, 153, 488, 216
-0.99316, 133, 169, 164, 200
-0.993167, 305, 137, 336, 168
-0.993173, 353, 153, 384, 184
-0.993173, 185, 225, 248, 256
-0.993174, 209, 233, 272, 264
-0.993182, 257, 193, 320, 224
-0.993185, 177, 197, 208, 228
-0.993185, 369, 141, 400, 172
-0.993197, 341, 173, 372, 204
-0.993199, 193, 197, 224, 228
-0.9932, 225, 97, 256, 224
-0.993214, 17, 169, 80, 200
-0.993234, 357, 141, 388, 172
-0.993236, 289, 137, 320, 168
-0.993239, 181, 213, 212, 244
-0.993245, 437, 157, 468, 188
-0.993257, 329, 161, 360, 192
-0.99326, 165, 169, 196, 200
-0.99326, 65, 273, 128, 304
-0.993261, 209, 177, 240, 208
-0.993264, 193, 177, 224, 208
-0.993265, 233, 213, 296, 244
-0.993267, 433, 97, 464, 224
-0.993269, 389, 157, 420, 188
-0.993272, 177, 161, 208, 192
-0.993287, 121, 169, 152, 200
-0.99329, 97, 265, 224, 328
-0.993294, 297, 213, 360, 244
-0.993313, 373, 169, 404, 200
-0.993319, 293, 97, 324, 224
-0.99333, 1, 289, 64, 320
-0.99334, 273, 209, 336, 240
-0.993342, 297, 181, 328, 212
-0.99335, 445, 129, 476, 160
-0.993351, 161, 229, 224, 260
-0.993364, 169, 213, 200, 244
-0.993367, 181, 185, 212, 216
-0.993383, 377, 125, 440, 156
-0.993387, 285, 181, 316, 212
-0.99339, 273, 33, 400, 160
-0.993394, 425, 169, 488, 232
-0.9934, 269, 137, 300, 168
-0.993404, 305, 149, 336, 180
-0.993411, 237, 157, 268, 188
-0.993414, 149, 169, 180, 200
-0.993414, 197, 209, 228, 240
-0.993417, 317, 181, 348, 212
-0.993422, 273, 169, 304, 200
-0.993423, 229, 193, 260, 224
-0.993428, 401, 161, 432, 192
-0.99343, 249, 137, 280, 168
-0.99343, 249, 229, 312, 260
-0.993434, 1, 113, 128, 240
-0.993437, 461, 165, 492, 196
-0.993438, 457, 129, 488, 160
-0.993441, 225, 157, 256, 188
-0.993444, 261, 169, 292, 200
-0.993456, 237, 145, 268, 176
-0.993458, 333, 81, 364, 208
-0.993459, 381, 133, 412, 164
-0.99346, 433, 145, 464, 176
-0.993463, 345, 189, 408, 220
-0.993467, 409, 113, 472, 144
-0.993468, 277, 149, 308, 180
-0.993479, 161, 245, 224, 276
-0.993481, 229, 177, 260, 208
-0.993482, 185, 97, 248, 128
-0.993487, 217, 201, 248, 232
-0.993491, 405, 125, 436, 156
-0.993501, 417, 125, 448, 156
-0.993508, 329, 177, 360, 304
-0.993517, 449, 161, 480, 192
-0.993524, 225, 145, 256, 208
-0.993527, 433, 117, 464, 148
-0.993538, 137, 205, 200, 236
-0.993539, 241, 125, 304, 156
-0.99354, 169, 185, 200, 216
-0.993542, 421, 173, 452, 204
-0.993544, 209, 101, 272, 132
-0.993544, 401, 149, 432, 180
-0.99355, 349, 129, 380, 160
-0.99355, 189, 157, 220, 188
-0.993573, 89, 273, 152, 304
-0.99358, 213, 213, 244, 244
-0.99358, 341, 161, 372, 192
-0.993582, 177, 149, 240, 180
-0.993599, 309, 209, 340, 240
-0.993613, 153, 257, 184, 288
-0.993616, 337, 185, 464, 248
-0.993619, 361, 177, 392, 208
-0.993621, 333, 197, 364, 228
-0.993622, 469, 121, 500, 152
-0.993623, 169, 253, 200, 284
-0.993626, 257, 157, 288, 188
-0.993627, 97, 157, 160, 188
-0.993631, 257, 213, 288, 244
-0.993632, 177, 173, 208, 204
-0.993632, 293, 149, 324, 180
-0.993635, 413, 149, 444, 180
-0.993638, 89, 169, 120, 200
-0.993643, 273, 189, 304, 220
-0.993644, 145, 157, 176, 188
-0.993648, 413, 113, 444, 144
-0.993649, 385, 169, 416, 200
-0.993652, 225, 221, 256, 252
-0.993653, 417, 161, 448, 192
-0.99366, 433, 105, 464, 136
-0.99367, 97, 265, 128, 296
-0.993674, 229, 205, 260, 236
-0.993676, 105, 169, 136, 200
-0.993677, 69, 277, 100, 308
-0.993679, 77, 169, 108, 200
-0.993679, 317, 193, 348, 224
-0.993688, 161, 157, 192, 188
-0.993688, 285, 193, 316, 224
-0.993689, 237, 233, 268, 264
-0.99369, 321, 125, 352, 156
-0.993695, 253, 229, 284, 260
-0.993696, 409, 173, 440, 204
-0.993696, 129, 241, 256, 304
-0.993696, 241, 217, 272, 248
-0.993697, 165, 197, 196, 228
-0.993698, 425, 153, 456, 216
-0.9937, 321, 209, 352, 240
-0.993701, 305, 193, 336, 224
-0.993702, 261, 197, 292, 228
-0.993712, 49, 285, 80, 316
-0.993713, 181, 249, 212, 280
-0.993717, 433, 169, 464, 200
-0.993723, 225, 137, 256, 168
-0.993725, 57, 169, 88, 200
-0.993726, 405, 129, 436, 256
-0.993726, 17, 293, 48, 324
-0.99373, 109, 261, 140, 292
-0.99373, 113, 157, 144, 188
-0.993732, 213, 225, 244, 256
-0.993733, 85, 273, 116, 304
-0.993733, 209, 241, 240, 272
-0.993734, 269, 209, 300, 240
-0.993738, 261, 181, 292, 212
-0.993738, 197, 245, 228, 276
-0.99374, 133, 261, 164, 292
-0.99374, 349, 205, 380, 236
-0.99374, 133, 157, 164, 188
-0.993747, 269, 225, 300, 256
-0.993751, 289, 217, 320, 248
-0.993757, 345, 201, 408, 232
-0.993773, 73, 261, 136, 292
-0.993778, 65, 157, 128, 188
-0.993803, 1, 201, 64, 232
-0.993804, 41, 273, 104, 304
-0.993807, 273, 221, 336, 252
-0.993838, 121, 61, 184, 92
-0.99385, 385, 113, 448, 144
-0.993863, 105, 249, 168, 280
-0.993875, 445, 161, 476, 224
-0.993878, 161, 105, 224, 136
-0.99388, 113, 49, 240, 112
-0.993888, 233, 101, 296, 132
-0.99389, 81, 65, 144, 96
-0.993891, 129, 217, 192, 248
-0.993901, 145, 61, 208, 92
-0.993932, 433, 1, 496, 333
-0.99394, 445, 145, 476, 272
-0.993972, 257, 201, 384, 264
-0.993972, 129, 193, 192, 256
-0.993987, 409, 185, 472, 216
-0.993997, 97, 265, 160, 328
-0.994, 377, 185, 440, 216
-0.99401, 321, 217, 384, 248
-0.994011, 25, 201, 88, 232
-0.994019, 81, 65, 144, 128
-0.994031, 57, 65, 120, 96
-0.994049, 185, 109, 248, 140
-0.99405, 153, 149, 216, 180
-0.994067, 257, 285, 320, 316
-0.99407, 201, 129, 264, 160
-0.994079, 137, 245, 200, 276
-0.99408, 25, 157, 88, 188
-0.994088, 105, 97, 168, 224
-0.994094, 209, 245, 272, 276
-0.994096, 329, 269, 392, 300
-0.994099, 281, 301, 344, 332
-0.9941, 297, 113, 360, 144
-0.994109, 49, 261, 112, 292
-0.99412, 25, 297, 88, 328
-0.994122, 273, 97, 336, 128
-0.994147, 17, 277, 80, 308
-0.994151, 113, 181, 176, 212
-0.994151, 377, 197, 440, 228
-0.994156, 361, 249, 424, 280
-0.994158, 153, 249, 216, 312
-0.994174, 433, 225, 496, 256
-0.994175, 445, 97, 476, 224
-0.994177, 433, 185, 496, 216
-0.994177, 1, 301, 64, 332
-0.994182, 185, 37, 248, 68
-0.994185, 401, 237, 464, 268
-0.9942, 145, 89, 208, 120
-0.994207, 177, 85, 240, 116
-0.994208, 233, 89, 296, 120
-0.994208, 129, 269, 192, 300
-0.994229, 377, 225, 440, 256
-0.994232, 297, 225, 360, 256
-0.994312, 145, 217, 208, 280
-0.994381, 65, 145, 192, 208
-0.994392, 145, 105, 272, 168
-0.994467, 361, 1, 424, 333
-0.994469, 257, 129, 500, 192
-0.994557, 169, 161, 200, 288
-0.994581, 193, 225, 320, 288
-0.994601, 409, 1, 472, 333
-0.994614, 381, 169, 412, 232
-0.99462, 97, 209, 224, 272
-0.994624, 273, 105, 336, 168
-0.994652, 137, 137, 200, 200
-0.994771, 385, 121, 416, 184
-0.994835, 129, 65, 192, 320
-0.994861, 145, 161, 176, 224
-0.994875, 309, 177, 340, 240
-0.99492, 169, 113, 200, 240
-0.994923, 257, 17, 320, 144
-0.99499, 121, 1, 184, 333
-0.994992, 17, 65, 144, 128
-0.995063, 233, 209, 296, 333
-0.995094, 225, 89, 288, 152
-0.995104, 329, 129, 344, 192
-0.995136, 305, 209, 432, 272
-0.995155, 181, 113, 212, 240
-0.995181, 331, 153, 346, 216
-0.995229, 209, 209, 272, 333
-0.995243, 313, 209, 376, 272
-0.995265, 129, 257, 192, 320
-0.995265, 257, 193, 288, 256
-0.995289, 1, 129, 64, 256
-0.995354, 193, 89, 256, 152
-0.995441, 217, 17, 280, 144
-0.995512, 33, 161, 96, 224
-0.995516, 97, 169, 352, 232
-0.99554, 257, 217, 320, 280
-0.995597, 317, 81, 348, 208
-0.995627, 225, 169, 352, 200
-0.995632, 129, 33, 192, 160
-0.995691, 395, 137, 410, 200
-0.995697, 369, 141, 496, 172
-0.995733, 305, 169, 432, 200
-0.995745, 177, 33, 304, 96
-0.995767, 353, 157, 480, 188
-0.995772, 281, 1, 344, 128
-0.995794, 17, 137, 144, 200
-0.995799, 229, 201, 260, 264
-0.995812, 337, 145, 352, 208
-0.995813, 321, 89, 448, 152
-0.99584, 377, 185, 440, 248
-0.995843, 401, 105, 432, 168
-0.995877, 389, 145, 404, 208
-0.995902, 289, 273, 416, 333
-0.995934, 471, 129, 486, 192
-0.995943, 305, 157, 432, 188
-0.995944, 249, 89, 312, 152
-0.995951, 113, 57, 176, 120
-0.995954, 353, 257, 480, 320
-0.995961, 105, 1, 168, 256
-0.995969, 213, 97, 244, 224
-0.996022, 65, 145, 320, 208
-0.996075, 433, 97, 464, 160
-0.996115, 381, 81, 412, 208
-0.99614, 177, 169, 192, 232
-0.996154, 325, 153, 340, 216
-0.996167, 97, 1, 160, 333
-0.996195, 1, 1, 256, 128
-0.996196, 355, 169, 370, 232
-0.996234, 177, 257, 304, 320
-0.996248, 193, 193, 448, 256
-0.996257, 299, 169, 314, 232
-0.996258, 459, 129, 474, 192
-0.996273, 273, 249, 400, 312
-0.996279, 49, 273, 112, 333
-0.996284, 349, 177, 380, 304
-0.996313, 97, 89, 224, 152
-0.996321, 169, 145, 200, 208
-0.996323, 337, 169, 352, 232
-0.996346, 1, 169, 256, 232
-0.99635, 373, 137, 388, 200
-0.996352, 353, 81, 384, 208
-0.996379, 469, 113, 500, 176
-0.996389, 49, 249, 176, 312
-0.99639, 145, 49, 208, 112
-0.996392, 185, 217, 216, 280
-0.996395, 65, 97, 128, 224
-0.996397, 305, 141, 432, 172
-0.996436, 383, 145, 398, 208
-0.996438, 393, 97, 424, 224
-0.996439, 365, 145, 380, 208
-0.996442, 225, 141, 352, 172
-0.996451, 105, 161, 168, 288
-0.99646, 221, 193, 252, 320
-0.996464, 359, 145, 374, 208
-0.996486, 273, 193, 304, 256
-0.996517, 285, 193, 316, 256
-0.996519, 257, 169, 272, 232
-0.996559, 259, 129, 274, 192
-0.996575, 1, 273, 128, 333
-0.996602, 161, 161, 288, 192
-0.996633, 353, 145, 368, 208
-0.996634, 185, 161, 200, 224
-0.996661, 373, 121, 404, 184
-0.99668, 297, 97, 360, 160
-0.996687, 161, 185, 192, 248
-0.996688, 161, 189, 288, 220
-0.996694, 249, 129, 264, 192
-0.99671, 209, 9, 336, 72
-0.996713, 321, 113, 352, 176
-0.99673, 73, 1, 136, 333
-0.996738, 113, 137, 240, 200
-0.996738, 307, 129, 322, 192
-0.996761, 257, 73, 384, 136
-0.996782, 295, 145, 310, 208
-0.996787, 315, 129, 330, 192
-0.99679, 269, 113, 300, 176
-0.996804, 105, 137, 168, 200
-0.996825, 189, 193, 204, 256
-0.996828, 345, 145, 360, 208
-0.996833, 289, 153, 304, 216
-0.996836, 401, 137, 416, 200
-0.996837, 209, 81, 336, 144
-0.996837, 241, 225, 368, 288
-0.996848, 349, 169, 364, 232
-0.996849, 257, 153, 384, 184
-0.996853, 363, 169, 378, 232
-0.996878, 465, 145, 480, 208
-0.996887, 81, 1, 208, 128
-0.996903, 73, 273, 136, 333
-0.996913, 81, 49, 144, 176
-0.996936, 149, 49, 180, 176
-0.996943, 9, 257, 72, 320
-0.996946, 161, 73, 288, 136
-0.996955, 477, 137, 492, 200
-0.996995, 1, 169, 500, 232
-0.99701, 265, 169, 280, 232
-0.997013, 271, 129, 286, 192
-0.997023, 203, 193, 218, 256
-0.997034, 361, 97, 424, 160
-0.997082, 345, 209, 408, 272
-0.997092, 301, 145, 316, 208
-0.997094, 323, 129, 338, 192
-0.997098, 97, 193, 352, 256
-0.997146, 161, 201, 288, 232
-0.997147, 177, 193, 192, 256
-0.997169, 225, 105, 480, 168
-0.997174, 281, 129, 296, 192
-0.997193, 449, 137, 464, 200
-0.997198, 441, 121, 456, 184
-0.997213, 209, 181, 336, 212
-0.997215, 1, 137, 500, 200
-0.997243, 289, 129, 304, 192
-0.997258, 177, 121, 240, 184
-0.997264, 445, 105, 476, 168
-0.997289, 225, 249, 352, 312
-0.99729, 133, 161, 164, 224
-0.997319, 81, 173, 208, 204
-0.997337, 193, 169, 208, 232
-0.997362, 297, 113, 328, 176
-0.997363, 483, 137, 498, 200
-0.997364, 177, 33, 240, 96
-0.997369, 233, 193, 248, 256
-0.997377, 265, 145, 280, 208
-0.99738, 307, 153, 322, 216
-0.997381, 343, 177, 358, 240
-0.997403, 281, 169, 296, 232
-0.99741, 57, 65, 120, 128
-0.997427, 153, 161, 184, 288
-0.997442, 425, 137, 440, 200
-0.997453, 245, 153, 260, 216
-0.997453, 425, 105, 440, 168
-0.997459, 161, 213, 288, 244
-0.997463, 17, 97, 144, 160
-0.997471, 271, 153, 286, 216
-0.997479, 1, 33, 64, 288
-0.997487, 321, 233, 448, 296
-0.997492, 435, 113, 450, 176
-0.997499, 171, 161, 186, 224
-0.997501, 413, 161, 444, 224
-0.997505, 49, 1, 112, 333
-0.997509, 369, 169, 496, 200
-0.997513, 273, 181, 400, 212
-0.997522, 213, 217, 244, 280
-0.997549, 57, 145, 120, 208
-0.997551, 377, 161, 392, 224
-0.997563, 313, 169, 328, 232
-0.997578, 409, 129, 424, 192
-0.997614, 417, 129, 432, 192
-0.99762, 9, 1, 72, 333
-0.997622, 227, 201, 242, 264
-0.997692, 453, 161, 468, 224
-0.997704, 155, 161, 170, 224
-0.997711, 405, 81, 436, 208
-0.997721, 211, 193, 226, 256
-0.997722, 469, 81, 500, 208
-0.997725, 129, 25, 256, 88
-0.997748, 217, 193, 232, 256
-0.997749, 251, 169, 266, 232
-0.997757, 243, 129, 258, 192
-0.997761, 81, 33, 144, 288
-0.997763, 209, 197, 336, 228
-0.997796, 319, 153, 334, 216
-0.997804, 331, 177, 346, 240
-0.997808, 173, 49, 204, 176
-0.997808, 397, 141, 412, 172
-0.99781, 369, 129, 496, 160
-0.997816, 425, 177, 456, 240
-0.997837, 331, 157, 346, 188
-0.997841, 369, 81, 496, 144
-0.997846, 193, 241, 256, 304
-0.997851, 305, 129, 432, 160
-0.997853, 459, 161, 474, 224
-0.997879, 431, 145, 446, 208
-0.99788, 331, 137, 346, 168
-0.997882, 183, 201, 198, 264
-0.997885, 113, 189, 240, 220
-0.997903, 287, 177, 302, 240
-0.997907, 197, 217, 228, 280
-0.997912, 331, 169, 346, 200
-0.997921, 213, 65, 244, 320
-0.997921, 441, 153, 456, 216
-0.997924, 231, 153, 246, 216
-0.997932, 335, 113, 350, 176
-0.997942, 9, 145, 72, 208
-0.997946, 165, 169, 180, 232
-0.997953, 141, 161, 156, 224
-0.997953, 81, 161, 144, 288
-0.997961, 389, 145, 404, 176
-0.997977, 365, 161, 380, 192
-0.997992, 149, 161, 164, 224
-0.997999, 321, 209, 448, 333
-0.998009, 237, 169, 252, 232
-0.998009, 471, 133, 486, 164
-0.998012, 481, 113, 496, 176
-0.998019, 33, 97, 96, 224
-0.998023, 433, 177, 496, 304
-0.998024, 321, 137, 336, 168
-0.998029, 265, 193, 280, 256
-0.998047, 209, 213, 336, 244
-0.998054, 181, 209, 212, 333
-0.998058, 241, 65, 272, 320
-0.998063, 165, 225, 196, 288
-0.998064, 385, 121, 400, 184
-0.998064, 395, 161, 410, 224
-0.99807, 195, 193, 210, 256
-0.998071, 271, 193, 286, 256
-0.998095, 161, 1, 288, 64
-0.998095, 305, 177, 320, 240
-0.998101, 239, 193, 254, 256
-0.998102, 135, 161, 150, 224
-0.998113, 297, 165, 312, 196
-0.998134, 129, 217, 384, 280
-0.998137, 413, 153, 428, 216
-0.998139, 81, 137, 144, 200
-0.998155, 161, 173, 288, 204
-0.998157, 381, 157, 396, 188
-0.998165, 403, 161, 418, 224
-0.998165, 133, 49, 164, 176
-0.998174, 375, 141, 390, 172
-0.998175, 241, 273, 368, 333
-0.998176, 201, 169, 232, 232
-0.998177, 421, 161, 436, 224
-0.998178, 321, 181, 448, 212
-0.998186, 465, 121, 480, 184
-0.998193, 337, 145, 352, 176
-0.998197, 407, 137, 422, 168
-0.998198, 471, 153, 486, 216
-0.99821, 385, 169, 400, 232
-0.998217, 313, 273, 376, 333
-0.998218, 371, 161, 386, 224
-0.998227, 325, 149, 340, 180
-0.998252, 257, 49, 384, 112
-0.998257, 135, 169, 150, 200
-0.998258, 129, 225, 256, 256
-0.998259, 325, 169, 340, 200
-0.99826, 89, 241, 152, 304
-0.998264, 129, 33, 384, 96
-0.998266, 9, 295, 40, 310
-0.998266, 173, 197, 204, 212
-0.998267, 413, 131, 444, 146
-0.998268, 205, 247, 236, 262
-0.998269, 257, 229, 288, 244
-0.998269, 165, 211, 196, 226
-0.998269, 185, 159, 216, 174
-0.99827, 49, 285, 80, 300
-0.99827, 441, 127, 472, 142
-0.998271, 393, 159, 424, 174
-0.998272, 169, 257, 200, 272
-0.998273, 219, 161, 234, 224
-0.998273, 89, 275, 120, 290
-0.998276, 429, 165, 460, 180
-0.998276, 169, 203, 200, 218
-0.998276, 421, 173, 452, 188
-0.998277, 457, 109, 488, 124
-0.998277, 449, 159, 480, 174
-0.998278, 245, 235, 276, 250
-0.998278, 465, 171, 496, 186
-0.998278, 13, 173, 44, 188
-0.998279, 441, 133, 456, 164
-0.99828, 277, 193, 308, 208
-0.99828, 213, 241, 244, 256
-0.99828, 369, 177, 400, 192
-0.998281, 293, 175, 324, 190
-0.998281, 317, 213, 348, 228
-0.998283, 117, 271, 148, 286
-0.998284, 365, 81, 396, 208
-0.998284, 429, 153, 460, 168
-0.998286, 381, 171, 412, 186
-0.998286, 73, 279, 104, 294
-0.998288, 141, 261, 172, 276
-0.998288, 189, 181, 220, 196
-0.998289, 213, 205, 244, 220
-0.998289, 101, 271, 132, 286
-0.998289, 421, 143, 452, 158
-0.99829, 291, 169, 306, 200
-0.99829, 377, 165, 408, 180
-0.99829, 409, 113, 440, 128
-0.99829, 37, 287, 68, 302
-0.998291, 277, 171, 308, 186
-0.998291, 309, 189, 340, 204
-0.998291, 229, 197, 260, 212
-0.998291, 157, 257, 188, 272
-0.998291, 133, 267, 164, 282
-0.998292, 229, 237, 260, 252
-0.998293, 325, 137, 356, 152
-0.998293, 189, 205, 220, 220
-0.998294, 45, 173, 76, 188
-0.998294, 421, 109, 452, 124
-0.998295, 193, 247, 224, 262
-0.998295, 237, 137, 252, 200
-0.998296, 25, 291, 56, 306
-0.998296, 257, 169, 288, 184
-0.998297, 417, 105, 432, 168
-0.998298, 105, 171, 136, 186
-0.998299, 77, 173, 108, 188
-0.998299, 433, 111, 464, 126
-0.9983, 177, 169, 208, 184
-0.998301, 293, 177, 308, 240
-0.998301, 401, 165, 432, 180
-0.998303, 409, 143, 440, 158
-0.998303, 29, 173, 60, 188
-0.998303, 297, 187, 328, 202
-0.998304, 361, 141, 376, 172
-0.998304, 241, 169, 272, 184
-0.998308, 319, 173, 334, 204
-0.998308, 453, 165, 484, 180
-0.998309, 177, 251, 208, 266
-0.998309, 173, 163, 204, 178
-0.998309, 337, 173, 352, 204
-0.99831, 401, 65, 432, 320
-0.998311, 169, 217, 200, 232
-0.998313, 297, 141, 328, 156
-0.998315, 451, 133, 466, 164
-0.998316, 377, 153, 408, 168
-0.998316, 221, 185, 252, 200
-0.998318, 337, 167, 368, 182
-0.998318, 89, 171, 120, 186
-0.998321, 285, 187, 316, 202
-0.998323, 385, 139, 416, 154
-0.998323, 57, 173, 88, 188
-0.998323, 441, 165, 472, 180
-0.998324, 461, 133, 476, 164
-0.998325, 209, 185, 240, 200
-0.998325, 165, 171, 196, 186
-0.998329, 449, 151, 480, 166
-0.99833, 465, 129, 496, 144
-0.998331, 121, 81, 184, 144
-0.998331, 265, 273, 328, 333
-0.998332, 201, 197, 232, 212
-0.998335, 337, 139, 368, 154
-0.998336, 401, 135, 432, 150
-0.998337, 149, 169, 180, 184
-0.998342, 221, 191, 252, 206
-0.998342, 177, 211, 208, 226
-0.998342, 353, 173, 384, 188
-0.998343, 461, 155, 492, 170
-0.998344, 201, 207, 232, 222
-0.998344, 337, 175, 368, 190
-0.998346, 361, 145, 392, 160
-0.998347, 185, 197, 216, 212
-0.998347, 465, 143, 496, 158
-0.998348, 121, 171, 152, 186
-0.998348, 313, 153, 344, 168
-0.998349, 191, 197, 206, 228
-0.998352, 293, 181, 324, 196
-0.998353, 241, 175, 272, 190
-0.998355, 373, 153, 388, 184
-0.998356, 433, 159, 464, 174
-0.998357, 293, 147, 324, 162
-0.99836, 293, 169, 324, 184
-0.998361, 257, 9, 384, 72
-0.998362, 133, 171, 164, 186
-0.998362, 361, 153, 392, 168
-0.998363, 389, 147, 420, 162
-0.998366, 395, 113, 410, 176
-0.998367, 205, 191, 236, 206
-0.998368, 329, 105, 344, 168
-0.99837, 437, 143, 468, 158
-0.99837, 369, 159, 400, 174
-0.998371, 381, 159, 412, 174
-0.998371, 337, 145, 368, 160
-0.998371, 1, 249, 128, 312
-0.998371, 349, 145, 380, 160
-0.998372, 479, 161, 494, 224
-0.998372, 165, 209, 196, 333
-0.998374, 285, 141, 316, 156
-0.998375, 161, 81, 224, 144
-0.998375, 213, 197, 244, 212
-0.998376, 449, 135, 480, 150
-0.998376, 305, 179, 336, 194
-0.998377, 265, 143, 296, 158
-0.998377, 245, 143, 276, 158
-0.998378, 305, 147, 336, 162
-0.998384, 305, 171, 336, 186
-0.998385, 317, 179, 348, 194
-0.998386, 241, 209, 272, 272
-0.998387, 485, 161, 500, 224
-0.998389, 359, 153, 374, 184
-0.99839, 461, 135, 492, 150
-0.998391, 353, 167, 384, 182
-0.998392, 449, 145, 480, 160
-0.998394, 377, 145, 408, 160
-0.998396, 323, 177, 338, 240
-0.998397, 1, 49, 500, 112
-0.998398, 193, 65, 224, 320
-0.998398, 321, 171, 352, 186
-0.998398, 285, 169, 300, 200
-0.998401, 337, 153, 368, 168
-0.998401, 173, 189, 204, 204
-0.998404, 193, 187, 224, 202
-0.998404, 361, 177, 392, 304
-0.998405, 359, 165, 374, 196
-0.998406, 113, 161, 240, 192
-0.998412, 311, 137, 326, 168
-0.998417, 113, 161, 144, 224
-0.998417, 435, 133, 450, 164
-0.998418, 325, 149, 356, 164
-0.99842, 309, 141, 340, 156
-0.998421, 393, 157, 408, 188
-0.998425, 389, 153, 420, 168
-0.998429, 365, 165, 396, 180
-0.998435, 413, 137, 444, 152
-0.998436, 433, 135, 464, 150
-0.998441, 313, 1, 344, 256
-0.99845, 363, 121, 378, 184
-0.998458, 385, 139, 448, 154
-0.998458, 33, 49, 288, 112
-0.998463, 65, 121, 320, 184
-0.998464, 175, 169, 190, 200
-0.998465, 85, 169, 116, 232
-0.998465, 65, 33, 192, 96
-0.998465, 339, 157, 354, 188
-0.998467, 257, 193, 384, 224
-0.998472, 397, 141, 428, 156
-0.998475, 95, 161, 110, 224
-0.998478, 449, 113, 464, 176
-0.998482, 199, 153, 214, 216
-0.998482, 415, 133, 430, 164
-0.99849, 33, 169, 160, 200
-0.998497, 97, 261, 224, 292
-0.998499, 325, 143, 356, 158
-0.998501, 351, 173, 366, 204
-0.998501, 383, 145, 398, 176
-0.998501, 209, 169, 224, 232
-0.99851, 341, 193, 372, 256
-0.998511, 225, 129, 352, 160
-0.998511, 171, 209, 186, 272
-0.998512, 451, 145, 466, 176
-0.998515, 145, 245, 272, 276
-0.998516, 193, 185, 208, 216
-0.998517, 457, 145, 472, 176
-0.998524, 235, 189, 250, 220
-0.998528, 161, 49, 192, 176
-0.998528, 265, 1, 296, 256
-0.998528, 293, 1, 324, 256
-0.998531, 349, 133, 364, 164
-0.998533, 399, 153, 414, 184
-0.998534, 187, 161, 202, 192
-0.998535, 265, 113, 280, 176
-0.998548, 425, 135, 488, 150
-0.998551, 429, 169, 444, 232
-0.998553, 295, 121, 310, 184
-0.998553, 301, 113, 316, 176
-0.998556, 469, 161, 500, 224
-0.998557, 113, 1, 240, 64
-0.998558, 297, 193, 328, 256
-0.998562, 321, 145, 384, 160
-0.998564, 425, 145, 488, 160
-0.998564, 459, 165, 474, 196
-0.998565, 187, 185, 202, 216
-0.998568, 169, 187, 232, 202
-0.998572, 193, 193, 256, 208
-0.998572, 353, 165, 416, 180
-0.998578, 337, 153, 400, 168
-0.998578, 485, 133, 500, 164
-0.99858, 289, 181, 352, 196
-0.99858, 457, 105, 488, 168
-0.998584, 369, 159, 432, 174
-0.998584, 273, 141, 336, 156
-0.998585, 297, 143, 360, 158
-0.998585, 229, 189, 244, 220
-0.998588, 177, 145, 304, 176
-0.998588, 353, 145, 416, 160
-0.998592, 471, 153, 486, 184
-0.998592, 313, 173, 376, 188
-0.998595, 273, 173, 336, 188
-0.998598, 305, 41, 432, 104
-0.998601, 289, 149, 352, 164
-0.998604, 375, 165, 390, 196
-0.998607, 225, 33, 256, 288
-0.998607, 249, 143, 312, 158
-0.998608, 387, 157, 402, 188
-0.998609, 157, 113, 188, 240
-0.998616, 345, 171, 408, 186
-0.998616, 337, 65, 368, 320
-0.998618, 305, 165, 320, 196
-0.998618, 341, 121, 356, 184
-0.998619, 425, 137, 440, 168
-0.998621, 447, 157, 462, 188
-0.998621, 161, 145, 176, 208
-0.998626, 405, 149, 420, 180
-0.99863, 385, 173, 448, 188
-0.99863, 281, 193, 296, 256
-0.998631, 441, 153, 456, 184
-0.998632, 433, 111, 496, 126
-0.998636, 257, 213, 384, 244
-0.998637, 141, 169, 156, 200
-0.998638, 249, 169, 312, 184
-0.998638, 235, 201, 250, 232
-0.99864, 185, 199, 248, 214
-0.998641, 225, 161, 240, 224
-0.998642, 385, 151, 448, 166
-0.998643, 343, 141, 358, 172
-0.998643, 169, 193, 232, 208
-0.998644, 401, 113, 464, 128
-0.998645, 127, 161, 142, 224
-0.998647, 401, 133, 464, 148
-0.998649, 291, 137, 306, 168
-0.998649, 29, 169, 60, 232
-0.998649, 185, 205, 248, 220
-0.99865, 465, 153, 480, 184
-0.998652, 345, 173, 360, 204
-0.998653, 185, 213, 248, 228
-0.998654, 401, 145, 464, 160
-0.998654, 161, 205, 224, 220
-0.998655, 185, 137, 200, 200
-0.998655, 425, 167, 488, 182
-0.998655, 193, 187, 256, 202
-0.998655, 433, 153, 496, 168
-0.998656, 469, 165, 484, 196
-0.998658, 345, 159, 408, 174
-0.998658, 233, 175, 296, 190
-0.998659, 225, 191, 288, 206
-0.99866, 197, 217, 212, 280
-0.998662, 377, 145, 440, 160
-0.998665, 477, 153, 492, 184
-0.998666, 377, 165, 440, 180
-0.998667, 17, 173, 80, 188
-0.998668, 33, 265, 288, 328
-0.998669, 225, 197, 288, 212
-0.99867, 249, 185, 312, 200
-0.998671, 361, 151, 424, 166
-0.998672, 481, 121, 496, 152
-0.998672, 453, 165, 468, 196
-0.998672, 137, 261, 200, 276
-0.998672, 409, 161, 472, 176
-0.998673, 263, 165, 278, 196
-0.998674, 273, 187, 336, 202
-0.998675, 121, 169, 184, 184
-0.998675, 361, 139, 424, 154
-0.998675, 225, 145, 288, 160
-0.998676, 433, 175, 496, 190
-0.998677, 313, 173, 328, 204
-0.998677, 313, 153, 376, 168
-0.998677, 337, 139, 400, 154
-0.99868, 417, 181, 480, 196
-0.998682, 321, 167, 384, 182
-0.998683, 297, 137, 360, 152
-0.998684, 313, 179, 376, 194
-0.998684, 97, 171, 160, 186
-0.998684, 161, 199, 224, 214
-0.998684, 49, 273, 176, 304
-0.998685, 209, 181, 272, 196
-0.998685, 211, 185, 226, 216
-0.998685, 49, 175, 112, 190
-0.998687, 209, 175, 272, 190
-0.998688, 161, 211, 224, 226
-0.998688, 73, 171, 136, 186
-0.998689, 223, 197, 238, 228
-0.99869, 161, 255, 224, 270
-0.99869, 121, 49, 152, 176
-0.998692, 257, 193, 320, 208
-0.998693, 297, 167, 360, 182
-0.998699, 169, 165, 232, 180
-0.9987, 97, 113, 224, 176
-0.998703, 145, 169, 208, 184
-0.998703, 319, 105, 334, 168
-0.998703, 401, 113, 416, 176
-0.998704, 379, 121, 394, 184
-0.998705, 291, 149, 306, 180
-0.998706, 257, 179, 320, 194
-0.998707, 221, 181, 236, 212
-0.998707, 345, 177, 408, 192
-0.998708, 203, 193, 218, 224
-0.998709, 259, 193, 274, 256
-0.998711, 209, 209, 272, 224
-0.998711, 385, 179, 448, 194
-0.998711, 185, 181, 248, 196
-0.998712, 177, 249, 240, 264
-0.998713, 273, 167, 336, 182
-0.998713, 297, 189, 360, 204
-0.998714, 225, 167, 288, 182
-0.998715, 249, 137, 312, 152
-0.998715, 169, 173, 232, 188
-0.998716, 17, 293, 80, 308
-0.998716, 289, 181, 304, 212
-0.998716, 299, 177, 314, 208
-0.998717, 41, 287, 104, 302
-0.998718, 113, 267, 176, 282
-0.99872, 241, 233, 304, 248
-0.99872, 137, 255, 200, 270
-0.998721, 153, 105, 216, 168
-0.998722, 81, 201, 208, 232
-0.998722, 313, 161, 376, 176
-0.998722, 305, 213, 368, 228
-0.998723, 161, 217, 224, 232
-0.998724, 409, 173, 472, 188
-0.998725, 217, 203, 280, 218
-0.998725, 177, 159, 240, 174
-0.998726, 65, 281, 128, 296
-0.99873, 121, 175, 184, 190
-0.998732, 145, 189, 208, 204
-0.998733, 447, 161, 462, 224
-0.998735, 201, 159, 264, 174
-0.998736, 89, 273, 152, 288
-0.998736, 171, 185, 186, 248
-0.998737, 393, 107, 456, 122
-0.998737, 1, 299, 64, 314
-0.998738, 49, 169, 112, 184
-0.998738, 369, 141, 384, 172
-0.998739, 377, 115, 440, 130
-0.99874, 209, 241, 272, 256
-0.99874, 245, 137, 260, 168
-0.99874, 353, 133, 416, 148
-0.998741, 113, 261, 176, 276
-0.998741, 33, 207, 96, 222
-0.998741, 281, 201, 344, 216
-0.998742, 425, 129, 488, 144
-0.998743, 329, 209, 392, 224
-0.998744, 145, 163, 208, 178
-0.998745, 209, 223, 272, 238
-0.998745, 137, 181, 200, 196
-0.998746, 185, 213, 200, 244
-0.998747, 409, 151, 472, 166
-0.998749, 345, 183, 408, 198
-0.998749, 265, 209, 328, 224
-0.998749, 289, 219, 352, 234
-0.99875, 257, 227, 320, 242
-0.99875, 477, 133, 492, 164
-0.998751, 289, 195, 352, 210
-0.998751, 249, 163, 312, 178
-0.998753, 161, 181, 224, 196
-0.998753, 321, 191, 384, 206
-0.998753, 289, 207, 352, 222
-0.998754, 281, 137, 296, 168
-0.998754, 433, 159, 496, 174
-0.998755, 257, 199, 320, 214
-0.998755, 161, 223, 224, 238
-0.998758, 325, 181, 340, 212
-0.998758, 17, 287, 80, 302
-0.998758, 377, 133, 440, 148
-0.998759, 9, 169, 40, 232
-0.998761, 185, 219, 248, 234
-0.998761, 225, 215, 288, 230
-0.998761, 305, 201, 368, 216
-0.998762, 289, 161, 352, 176
-0.998762, 265, 219, 328, 234
-0.998763, 217, 235, 280, 250
-0.998763, 193, 169, 256, 184
-0.998764, 381, 169, 396, 200
-0.998764, 245, 177, 260, 240
-0.99877, 89, 169, 104, 232
-0.998773, 285, 149, 300, 180
-0.998777, 169, 169, 184, 200
-0.998779, 305, 201, 432, 232
-0.998783, 315, 149, 330, 180
-0.998787, 209, 237, 336, 268
-0.998789, 177, 145, 192, 208
-0.998791, 185, 197, 200, 228
-0.998793, 389, 65, 420, 320
-0.998796, 479, 165, 494, 196
-0.998801, 485, 161, 500, 192
-0.998802, 453, 121, 468, 152
-0.998802, 25, 161, 88, 288
-0.998803, 149, 169, 164, 200
-0.99881, 253, 173, 268, 204
-0.998811, 259, 149, 274, 180
-0.998812, 193, 213, 208, 244
-0.998814, 163, 169, 178, 200
-0.998816, 237, 121, 268, 184
-0.998816, 181, 169, 196, 200
-0.998832, 325, 65, 356, 320
-0.998833, 209, 57, 336, 120
-0.998835, 129, 89, 384, 152
-0.998842, 179, 197, 194, 228
-0.998842, 129, 169, 144, 200
-0.998842, 483, 145, 498, 176
-0.998844, 279, 173, 294, 204
-0.998852, 255, 137, 270, 168
-0.998859, 353, 117, 480, 148
-0.99886, 247, 157, 262, 188
-0.998862, 353, 153, 368, 184
-0.998871, 269, 137, 284, 168
-0.998871, 431, 157, 446, 188
-0.998877, 327, 125, 342, 156
-0.998881, 173, 209, 188, 240
-0.998882, 331, 181, 346, 212
-0.998883, 97, 241, 352, 304
-0.998884, 235, 177, 250, 208
-0.998894, 281, 1, 312, 256
-0.998894, 97, 61, 224, 92
-0.998895, 179, 213, 194, 244
-0.998898, 389, 169, 404, 200
-0.998899, 181, 65, 212, 320
-0.998901, 355, 133, 370, 164
-0.998917, 199, 209, 214, 240
-0.998919, 263, 137, 278, 168
-0.998924, 253, 65, 284, 320
-0.998931, 373, 177, 388, 208
-0.998932, 297, 137, 312, 168
-0.998934, 239, 145, 254, 176
-0.998938, 275, 137, 290, 168
-0.998942, 155, 169, 170, 200
-0.998943, 57, 169, 88, 232
-0.998951, 181, 157, 196, 188
-0.998954, 305, 17, 432, 80
-0.998954, 209, 225, 336, 256
-0.998957, 325, 209, 340, 240
-0.998958, 431, 169, 446, 200
-0.998958, 197, 197, 212, 228
-0.998959, 143, 157, 158, 188
-0.998967, 215, 173, 230, 204
-0.998972, 181, 185, 196, 216
-0.998974, 311, 185, 326, 216
-0.998975, 243, 173, 258, 204
-0.998977, 217, 193, 232, 224
-0.998982, 349, 113, 380, 176
-0.998983, 437, 121, 452, 152
-0.998983, 405, 161, 420, 192
-0.99899, 113, 213, 240, 244
-0.998993, 345, 153, 360, 184
-0.998993, 17, 41, 144, 104
-0.999019, 369, 225, 496, 288
-0.999022, 73, 169, 104, 232
-0.999025, 1, 293, 128, 324
-0.999043, 1, 113, 500, 176
-0.999044, 17, 157, 144, 188
-0.999053, 333, 129, 348, 256
-0.999067, 369, 209, 432, 272
-0.999069, 401, 89, 464, 152
-0.999076, 469, 65, 500, 320
-0.999077, 129, 57, 384, 120
-0.999106, 321, 17, 448, 144
-0.999138, 377, 1, 408, 256
-0.999149, 161, 97, 288, 128
-0.999156, 33, 73, 288, 136
-0.999162, 225, 217, 480, 280
-0.99919, 297, 161, 312, 288
-0.999197, 145, 257, 272, 288
-0.999198, 357, 65, 388, 320
-0.999226, 185, 33, 216, 160
-0.999253, 397, 129, 412, 256
-0.999255, 225, 81, 480, 144
-0.999258, 347, 113, 362, 240
-0.999258, 1, 201, 128, 264
-0.999266, 161, 9, 416, 72
-0.999273, 33, 65, 160, 96
-0.999292, 327, 129, 342, 256
-0.999292, 33, 137, 96, 200
-0.999298, 65, 157, 192, 188
-0.999304, 285, 129, 300, 256
-0.999319, 353, 129, 368, 256
-0.999331, 291, 161, 306, 288
-0.999333, 165, 65, 196, 320
-0.999338, 193, 145, 208, 272
-0.999342, 317, 129, 332, 256
-0.999349, 241, 241, 304, 304
-0.999353, 403, 145, 418, 272
-0.999358, 337, 105, 464, 136
-0.999361, 417, 65, 448, 320
-0.999365, 447, 145, 462, 272
-0.99937, 379, 129, 394, 256
-0.999385, 339, 129, 354, 256
-0.999386, 323, 177, 338, 304
-0.999389, 187, 145, 202, 272
-0.999389, 253, 161, 268, 288
-0.99939, 365, 129, 380, 256
-0.99939, 391, 129, 406, 256
-0.999391, 275, 161, 290, 288
-0.999392, 281, 217, 344, 280
-0.999398, 291, 97, 306, 224
-0.999406, 421, 161, 452, 288
-0.99941, 225, 101, 352, 132
-0.999412, 359, 113, 374, 240
-0.999412, 311, 129, 326, 256
-0.99942, 305, 245, 432, 276
-0.999428, 65, 245, 192, 276
-0.999438, 475, 113, 490, 240
-0.999439, 221, 161, 236, 288
-0.999441, 245, 209, 276, 333
-0.999448, 145, 1, 176, 256
-0.999449, 469, 113, 484, 240
-0.99945, 257, 57, 500, 120
-0.99945, 371, 129, 386, 256
-0.999452, 305, 161, 320, 288
-0.999467, 321, 193, 352, 256
-0.99947, 33, 77, 160, 108
-0.999471, 33, 217, 288, 280
-0.999474, 345, 161, 360, 288
-0.999475, 247, 145, 262, 272
-0.999482, 453, 145, 468, 272
-0.999484, 259, 97, 274, 224
-0.999493, 413, 145, 428, 272
-0.999499, 253, 97, 268, 224
-0.9995, 33, 1, 160, 128
-0.999503, 273, 73, 336, 136
-0.999504, 315, 149, 330, 164
-0.999505, 35, 173, 50, 188
-0.999505, 209, 145, 224, 272
-0.999505, 305, 213, 432, 244
-0.999506, 235, 185, 250, 200
-0.999506, 461, 141, 476, 156
-0.999508, 29, 173, 44, 188
-0.999508, 395, 165, 410, 180
-0.999509, 441, 145, 456, 272
-0.999509, 209, 157, 336, 188
-0.999509, 173, 215, 188, 230
-0.999509, 237, 201, 252, 216
-0.99951, 429, 169, 444, 184
-0.99951, 435, 173, 450, 188
-0.99951, 161, 173, 176, 188
-0.999511, 115, 173, 130, 188
-0.999511, 57, 173, 72, 188
-0.999511, 355, 145, 370, 160
-0.999512, 385, 129, 400, 256
-0.999512, 311, 187, 326, 202
-0.999512, 43, 173, 58, 188
-0.999513, 295, 163, 310, 178
-0.999513, 447, 109, 462, 124
-0.999514, 203, 185, 218, 200
-0.999514, 167, 169, 182, 184
-0.999514, 309, 147, 324, 162
-0.999514, 259, 161, 274, 288
-0.999514, 289, 185, 304, 200
-0.999515, 225, 201, 240, 216
-0.999515, 83, 175, 98, 190
-0.999515, 375, 175, 390, 190
-0.999515, 373, 167, 388, 182
-0.999516, 341, 155, 356, 170
-0.999516, 63, 173, 78, 188
-0.999516, 351, 135, 366, 150
-0.999518, 353, 193, 480, 224
-0.999518, 149, 169, 164, 184
-0.999519, 75, 173, 90, 188
-0.999519, 121, 171, 136, 186
-0.999519, 459, 167, 474, 182
-0.99952, 175, 173, 190, 188
-0.99952, 173, 193, 188, 208
-0.99952, 221, 191, 236, 206
-0.999521, 215, 145, 230, 272
-0.999522, 343, 137, 358, 152
-0.999522, 299, 185, 314, 200
-0.999522, 441, 111, 456, 126
-0.999522, 369, 145, 384, 160
-0.999523, 461, 147, 476, 162
-0.999523, 389, 143, 404, 158
-0.999523, 481, 141, 496, 156
-0.999524, 307, 177, 322, 192
-0.999525, 471, 131, 486, 146
-0.999526, 225, 185, 240, 200
-0.999526, 285, 171, 300, 186
-0.999526, 485, 97, 500, 224
-0.999527, 197, 187, 212, 202
-0.999527, 199, 201, 214, 216
-0.999527, 129, 171, 144, 186
-0.999527, 307, 171, 322, 186
-0.999527, 369, 181, 496, 212
-0.999528, 241, 145, 256, 272
-0.999528, 435, 109, 450, 124
-0.999529, 187, 163, 202, 178
-0.999529, 433, 145, 448, 272
-0.999531, 155, 169, 170, 184
-0.999531, 179, 191, 194, 206
-0.999531, 337, 175, 352, 190
-0.999532, 93, 171, 108, 186
-0.999533, 465, 135, 480, 150
-0.999533, 295, 141, 310, 156
-0.999533, 263, 167, 278, 182
-0.999534, 203, 193, 218, 320
-0.999534, 17, 129, 48, 256
-0.999535, 329, 177, 344, 304
-0.999537, 305, 277, 432, 308
-0.999538, 189, 209, 204, 224
-0.999538, 141, 171, 156, 186
-0.999538, 245, 143, 260, 158
-0.999539, 375, 147, 390, 162
-0.999539, 319, 171, 334, 186
-0.999539, 337, 141, 352, 156
-0.99954, 411, 137, 426, 152
-0.99954, 305, 113, 320, 240
-0.999541, 97, 273, 224, 304
-0.999543, 435, 135, 450, 150
-0.999543, 279, 97, 294, 224
-0.999543, 401, 153, 416, 168
-0.999543, 213, 197, 228, 212
-0.999543, 443, 153, 458, 168
-0.999544, 1, 193, 256, 256
-0.999544, 323, 153, 338, 168
-0.999546, 321, 81, 336, 208
-0.999546, 263, 141, 278, 156
-0.999546, 275, 143, 290, 158
-0.999546, 317, 177, 332, 304
-0.999546, 463, 129, 478, 256
-0.999547, 449, 161, 464, 176
-0.999547, 81, 89, 208, 120
-0.999547, 355, 171, 370, 186
-0.999548, 199, 193, 214, 208
-0.999549, 229, 195, 244, 210
-0.999549, 361, 167, 376, 182
-0.999551, 313, 173, 328, 188
-0.999552, 451, 135, 466, 150
-0.999552, 281, 177, 296, 304
-0.999552, 303, 141, 318, 156
-0.999555, 191, 187, 206, 202
-0.999555, 193, 199, 208, 214
-0.999557, 437, 143, 452, 158
-0.999558, 289, 141, 304, 156
-0.999559, 301, 169, 316, 184
-0.999559, 17, 261, 144, 292
-0.999559, 205, 199, 220, 214
-0.99956, 247, 97, 262, 224
-0.999561, 425, 129, 440, 256
-0.999562, 281, 143, 296, 158
-0.999562, 197, 97, 212, 224
-0.999564, 235, 191, 250, 206
-0.999564, 315, 179, 330, 194
-0.999564, 407, 143, 422, 158
-0.999565, 325, 173, 340, 188
-0.999566, 295, 169, 310, 184
-0.999566, 373, 153, 388, 168
-0.999567, 485, 135, 500, 150
-0.999567, 269, 143, 284, 158
-0.999567, 271, 97, 286, 224
-0.999567, 447, 143, 462, 158
-0.999568, 209, 187, 224, 202
-0.999569, 1, 281, 128, 312
-0.99957, 417, 137, 432, 152
-0.99957, 389, 163, 404, 178
-0.999571, 441, 135, 456, 150
-0.999571, 121, 225, 184, 288
-0.999571, 471, 137, 486, 152
-0.999572, 397, 147, 412, 162
-0.999573, 427, 137, 442, 152
-0.999574, 379, 165, 394, 180
-0.999574, 217, 241, 280, 304
-0.999574, 345, 143, 360, 158
-0.999574, 255, 143, 270, 158
-0.999575, 361, 145, 376, 160
-0.999578, 457, 135, 472, 150
-0.999578, 265, 161, 280, 288
-0.999579, 311, 141, 326, 156
-0.99958, 383, 149, 398, 164
-0.99958, 135, 171, 150, 186
-0.99958, 129, 1, 160, 256
-0.99958, 335, 153, 350, 168
-0.999581, 185, 189, 200, 204
-0.999583, 325, 141, 340, 156
-0.999585, 369, 233, 496, 264
-0.999589, 377, 159, 392, 174
-0.999589, 393, 155, 408, 170
-0.999589, 321, 179, 336, 194
-0.999591, 331, 171, 346, 186
-0.999592, 405, 137, 420, 152
-0.999592, 385, 157, 400, 172
-0.999593, 297, 113, 312, 240
-0.999594, 203, 113, 218, 240
-0.999594, 257, 225, 384, 256
-0.999595, 447, 97, 462, 224
-0.999596, 345, 241, 408, 304
-0.999599, 435, 97, 450, 224
-0.999603, 389, 149, 404, 164
-0.999605, 329, 151, 344, 166
-0.999608, 341, 149, 356, 164
-0.99961, 369, 265, 496, 296
-0.999612, 457, 97, 472, 224
-0.999612, 49, 161, 112, 288
-0.999613, 141, 161, 172, 288
-0.999616, 235, 145, 250, 272
-0.999616, 395, 141, 410, 156
-0.999616, 333, 81, 348, 208
-0.999619, 57, 33, 120, 288
-0.999619, 419, 145, 434, 272
-0.999619, 197, 193, 212, 320
-0.99962, 113, 77, 240, 108
-0.99962, 177, 161, 192, 288
-0.999621, 265, 97, 280, 224
-0.999622, 359, 161, 374, 288
-0.999623, 1, 97, 256, 160
-0.99963, 1, 201, 128, 232
-0.99963, 481, 145, 496, 272
-0.999631, 353, 177, 368, 304
-0.999636, 407, 97, 422, 224
-0.999641, 367, 165, 382, 180
-0.999644, 317, 141, 332, 156
-0.999645, 239, 97, 254, 224
-0.999646, 457, 161, 488, 288
-0.999646, 227, 177, 242, 304
-0.999649, 183, 97, 198, 224
-0.999652, 321, 147, 336, 162
-0.999656, 387, 81, 402, 208
-0.999657, 311, 177, 326, 304
-0.999659, 145, 129, 272, 160
-0.999662, 321, 65, 448, 128
-0.999672, 187, 193, 202, 320
-0.999674, 375, 81, 390, 208
-0.999676, 337, 177, 352, 304
-0.999681, 341, 81, 356, 208
-0.999682, 331, 143, 346, 158
-0.999684, 217, 97, 232, 224
-0.999685, 229, 129, 244, 256
-0.99969, 241, 273, 368, 304
-0.999695, 9, 33, 40, 288
-0.999696, 257, 261, 384, 292
-0.999696, 145, 45, 272, 76
-0.999697, 209, 193, 224, 320
-0.999699, 117, 1, 148, 256
-0.999705, 273, 33, 304, 160
-0.999706, 49, 201, 176, 264
-0.999716, 441, 97, 456, 224
-0.999717, 285, 81, 300, 208
-0.999724, 257, 89, 288, 152
-0.999724, 209, 97, 224, 224
-0.999727, 175, 113, 190, 240
-0.999727, 167, 193, 182, 320
-0.999728, 457, 65, 488, 320
-0.999729, 113, 149, 240, 180
-0.99973, 429, 33, 460, 288
-0.999732, 159, 49, 174, 176
-0.999735, 369, 249, 432, 312
-0.999737, 223, 97, 238, 224
-0.999738, 49, 285, 176, 316
-0.999744, 165, 49, 180, 176
-0.999744, 171, 49, 186, 176
-0.999746, 189, 81, 204, 208
-0.999746, 369, 81, 384, 208
-0.999747, 305, 117, 432, 148
-0.999753, 97, 49, 224, 80
-0.999757, 167, 113, 182, 240
-0.999758, 399, 81, 414, 208
-0.999759, 353, 221, 480, 252
-0.99976, 305, 229, 432, 260
-0.999764, 151, 49, 166, 176
-0.99977, 135, 49, 150, 176
-0.999772, 177, 49, 192, 176
-0.999772, 177, 277, 304, 308
-0.999774, 121, 97, 152, 224
-0.999779, 145, 49, 160, 176
-0.999783, 177, 289, 304, 320
-0.999785, 413, 97, 428, 224
-0.999786, 241, 289, 368, 320
-0.999788, 459, 177, 474, 304
-0.999789, 393, 81, 408, 208
-0.999792, 225, 273, 480, 333
-0.999797, 233, 193, 248, 320
-0.999797, 327, 81, 342, 208
-0.999799, 257, 17, 288, 144
-0.999801, 241, 249, 368, 280
-0.999805, 365, 177, 380, 304
-0.999805, 373, 177, 388, 304
-0.999806, 353, 81, 368, 208
-0.999806, 441, 33, 472, 288
-0.999808, 157, 161, 172, 288
-0.999809, 337, 265, 400, 328
-0.99981, 129, 49, 144, 176
-0.999811, 231, 81, 246, 208
-0.999811, 419, 97, 434, 224
-0.999811, 129, 273, 384, 333
-0.999812, 123, 49, 138, 176
-0.999822, 389, 177, 404, 304
-0.999824, 383, 177, 398, 304
-0.999824, 249, 209, 264, 333
-0.999826, 183, 49, 198, 176
-0.999826, 311, 81, 326, 208
-0.999828, 267, 17, 282, 144
-0.99983, 257, 209, 272, 333
-0.999831, 209, 1, 272, 64
-0.999831, 433, 193, 496, 256
-0.999835, 241, 193, 256, 320
-0.999836, 151, 161, 166, 288
-0.99984, 475, 161, 490, 288
-0.999843, 161, 109, 288, 140
-0.999843, 117, 49, 132, 176
-0.999844, 121, 97, 136, 224
-0.999846, 381, 81, 396, 208
-0.999847, 469, 161, 484, 288
-0.999848, 127, 97, 142, 224
-0.999851, 285, 17, 300, 144
-0.999852, 155, 97, 170, 224
-0.999853, 395, 177, 410, 304
-0.999862, 321, 257, 448, 288
-0.999868, 25, 33, 88, 288
-0.999868, 257, 301, 384, 332
-0.99987, 269, 209, 300, 333
-0.999875, 1, 1, 256, 64
-0.999882, 105, 33, 136, 288
-0.999884, 193, 81, 320, 112
-0.999887, 353, 205, 480, 236
-0.999891, 289, 289, 416, 320
-0.999893, 65, 213, 192, 244
-0.999896, 81, 233, 208, 264
-0.999899, 57, 49, 120, 176
-0.999905, 369, 93, 496, 124
-0.999909, 209, 113, 336, 144
-0.999916, 273, 97, 400, 128
-0.999926, 17, 101, 144, 132
-0.999928, 193, 241, 448, 304
-0.999928, 145, 61, 272, 92
-0.999934, 109, 49, 140, 176
-0.999936, 21, 33, 52, 288
-0.999939, 65, 185, 192, 216
-0.999946, 101, 161, 132, 224
-0.999951, 113, 101, 240, 132
-0.999954, 177, 33, 304, 64
-0.999967, 257, 69, 384, 100
-0.999969, 49, 53, 176, 84
-0.999973, 177, 301, 304, 332
-0.999979, 141, 97, 172, 224
-0.999979, 165, 249, 196, 312
-0.99998, 257, 33, 500, 96
-0.999995, 17, 249, 144, 280
-1.00001, 409, 193, 472, 256
-1.00002, 369, 253, 496, 284
-1.00002, 1, 209, 128, 333
-1.00003, 305, 53, 432, 84
-1.00005, 1, 25, 500, 88
-1.00006, 93, 33, 124, 288
-1.00006, 161, 1, 288, 32
-1.00007, 1, 25, 256, 88
-1.00008, 33, 33, 64, 288
-1.00008, 1, 193, 500, 256
-1.0001, 1, 89, 128, 120
-1.00011, 369, 1, 496, 64
-1.00011, 1, 73, 500, 136
-1.00015, 257, 117, 384, 148
-1.00016, 101, 97, 132, 224
-1.00016, 105, 209, 168, 333
-1.00016, 193, 249, 320, 280
-1.00017, 305, 33, 432, 64
-1.00018, 273, 85, 400, 116
-1.00018, 113, 21, 240, 52
-1.00018, 273, 17, 400, 48
-1.00019, 353, 297, 480, 328
-1.00019, 209, 65, 336, 96
-1.0002, 33, 65, 96, 128
-1.0002, 369, 281, 496, 312
-1.00021, 257, 57, 384, 88
-1.00021, 241, 41, 368, 72
-1.00021, 113, 301, 240, 332
-1.00022, 65, 101, 192, 132
-1.00023, 245, 97, 276, 160
-1.00024, 321, 89, 448, 120
-1.00024, 257, 237, 384, 268
-1.00024, 305, 73, 432, 104
-1.00025, 409, 241, 472, 304
-1.00025, 17, 225, 144, 288
-1.00025, 209, 13, 336, 44
-1.00026, 305, 301, 432, 332
-1.00027, 17, 129, 144, 160
-1.00027, 129, 289, 256, 320
-1.00027, 97, 65, 128, 128
-1.00028, 1, 181, 128, 212
-1.00028, 225, 113, 256, 176
-1.00028, 381, 177, 412, 304
-1.0003, 225, 225, 256, 288
-1.0003, 309, 105, 340, 168
-1.00031, 97, 37, 224, 68
-1.00033, 353, 193, 384, 256
-1.00034, 41, 169, 72, 232
-1.00034, 81, 1, 112, 256
-1.00034, 45, 33, 76, 288
-1.00034, 69, 65, 100, 320
-1.00034, 97, 113, 224, 144
-1.00035, 209, 53, 336, 84
-1.00035, 193, 265, 320, 296
-1.00035, 257, 9, 500, 72
-1.00036, 225, 29, 352, 60
-1.00036, 157, 137, 188, 200
-1.00036, 49, 301, 176, 332
-1.00036, 265, 217, 296, 280
-1.00037, 297, 49, 328, 176
-1.00038, 1, 81, 64, 208
-1.00039, 57, 33, 88, 288
-1.0004, 5, 129, 36, 256
-1.00041, 233, 1, 296, 64
-1.00042, 197, 17, 228, 144
-1.00048, 293, 89, 324, 152
-1.0005, 289, 249, 352, 312
-1.00051, 281, 105, 312, 168
-1.00052, 49, 249, 112, 312
-1.00052, 73, 145, 104, 208
-1.00055, 25, 49, 88, 176
-1.00059, 269, 89, 300, 152
-1.0006, 213, 145, 244, 208
-1.00062, 129, 265, 160, 328
-1.00062, 217, 265, 280, 328
-1.00064, 233, 209, 264, 333
-1.00066, 433, 265, 496, 328
-1.00069, 245, 17, 276, 144
-1.00071, 1, 257, 500, 320
-1.00074, 101, 265, 132, 328
-1.00081, 285, 17, 316, 144
-1.00087, 1, 241, 256, 304
-1.00089, 113, 65, 144, 128
-1.00089, 393, 265, 456, 328
-1.00089, 305, 33, 368, 160
-1.00094, 309, 201, 340, 264
-1.00094, 145, 257, 176, 320
-1.00096, 313, 233, 376, 296
-1.00097, 193, 137, 224, 200
-1.00098, 153, 25, 216, 88
-1.00099, 361, 113, 392, 176
-1.001, 353, 41, 480, 104
-1.00103, 65, 9, 192, 72
-1.00103, 305, 1, 336, 128
-1.00108, 41, 161, 72, 288
-1.00109, 201, 89, 232, 152
-1.00111, 57, 273, 88, 333
-1.00111, 109, 241, 140, 304
-1.00111, 109, 161, 140, 288
-1.00111, 417, 65, 448, 192
-1.00112, 85, 65, 116, 128
-1.00113, 397, 193, 428, 320
-1.00113, 233, 89, 264, 152
-1.00114, 273, 9, 336, 72
-1.00116, 153, 209, 184, 333
-1.00117, 405, 193, 436, 256
-1.00122, 145, 137, 176, 200
-1.00127, 225, 17, 256, 144
-1.00131, 221, 89, 252, 152
-1.00133, 129, 209, 192, 333
-1.00135, 97, 49, 128, 176
-1.00137, 189, 249, 220, 312
-1.0014, 393, 217, 456, 280
-1.00142, 1, 1, 500, 64
-1.00145, 89, 97, 120, 224
-1.00149, 29, 113, 60, 240
-1.00149, 77, 161, 108, 288
-1.00153, 89, 145, 120, 208
-1.00154, 149, 57, 180, 120
-1.00156, 1, 217, 500, 280
-1.00156, 285, 209, 316, 333
-1.00159, 65, 97, 96, 224
-1.0016, 153, 225, 184, 288
-1.00166, 81, 105, 144, 168
-1.00169, 129, 137, 160, 200
-1.0017, 53, 145, 84, 208
-1.0017, 89, 161, 120, 288
-1.00172, 53, 145, 84, 272
-1.00175, 209, 209, 240, 333
-1.0018, 77, 97, 108, 224
-1.00181, 193, 65, 256, 128
-1.00182, 253, 217, 284, 280
-1.00182, 213, 49, 244, 176
-1.00184, 41, 145, 72, 208
-1.00186, 1, 1, 128, 64
-1.00186, 325, 217, 356, 280
-1.00188, 169, 57, 232, 120
-1.00188, 433, 225, 496, 288
-1.00191, 45, 97, 76, 224
-1.00191, 401, 193, 464, 320
-1.00197, 121, 161, 152, 288
-1.00199, 305, 209, 336, 333
-1.00202, 113, 137, 144, 200
-1.00202, 1, 193, 64, 256
-1.00202, 257, 209, 288, 333
-1.00203, 25, 265, 56, 328
-1.00206, 417, 81, 448, 144
-1.00207, 161, 57, 192, 120
-1.00212, 409, 177, 440, 304
-1.00213, 9, 57, 72, 120
-1.00214, 57, 97, 120, 160
-1.00216, 113, 33, 176, 96
-1.00218, 197, 65, 228, 192
-1.00223, 317, 1, 348, 128
-1.00225, 313, 1, 376, 64
-1.00226, 469, 177, 500, 304
-1.00244, 305, 49, 368, 112
-1.0025, 153, 1, 216, 64
-1.00253, 81, 41, 144, 104
-1.00255, 441, 193, 472, 320
-1.00259, 201, 25, 264, 88
-1.0026, 49, 209, 176, 333
-1.00267, 297, 25, 360, 88
-1.00271, 153, 1, 216, 128
-1.0028, 65, 145, 96, 272
-1.0028, 225, 65, 288, 128
-1.0028, 249, 25, 312, 88
-1.00285, 25, 193, 88, 256
-1.00287, 177, 1, 240, 64
-1.00292, 29, 161, 60, 288
-1.00294, 241, 273, 304, 333
-1.00304, 329, 89, 392, 152
-1.00305, 105, 1, 168, 128
-1.00306, 85, 49, 116, 176
-1.00308, 33, 97, 96, 160
-1.00312, 297, 73, 360, 136
-1.00315, 1, 81, 32, 208
-1.00328, 161, 1, 192, 128
-1.00336, 141, 1, 172, 128
-1.00336, 49, 49, 80, 176
-1.00336, 457, 65, 488, 192
-1.00347, 61, 49, 92, 176
-1.00349, 97, 209, 128, 333
-1.00355, 17, 177, 48, 304
-1.00357, 73, 49, 104, 176
-1.00358, 13, 81, 44, 208
-1.00392, 37, 49, 68, 176
-1.00396, 33, 209, 64, 333
-1.00408, 25, 49, 56, 176
-1.00409, 173, 1, 204, 128
-1.00412, 129, 1, 160, 128
-1.00425, 49, 209, 112, 333
-1.00431, 333, 33, 364, 160
-1.00457, 117, 1, 148, 128
-1.00466, 213, 1, 244, 128
-1.00472, 433, 49, 464, 176
-1.00494, 5, 177, 36, 304
-1.00509, 369, 1, 496, 128
-1.00516, 445, 49, 476, 176
-1.0052, 353, 33, 384, 160
-1.00523, 85, 209, 116, 333
-1.00552, 1, 17, 64, 144
-1.00607, 81, 1, 144, 128
-1.00613, 25, 209, 88, 333
-1.00685, 1, 177, 64, 304
-1.00704, 57, 1, 120, 128
-1.00709, 329, 33, 392, 160
-1.0074, 81, 209, 144, 333
-1.00815, 33, 1, 96, 128
-1.00911, 353, 17, 416, 144
-1.01046, 409, 49, 472, 176
-1.0109, 385, 33, 448, 160
-1.01131, 433, 33, 496, 160
-1.01344, 409, 1, 472, 128
