2031
-0.346814, 161, 1, 416, 418
-0.413142, 1, 129, 500, 384
-0.467429, 65, 1, 320, 418
-0.495158, 1, 1, 500, 418
-0.50705, 1, 1, 500, 256
-0.537455, 257, 1, 500, 418
-0.603486, 161, 33, 416, 288
-0.614133, 129, 129, 384, 384
-0.632709, 1, 1, 256, 256
-0.646385, 257, 1, 500, 256
-0.690676, 33, 97, 288, 352
-0.782495, 225, 129, 480, 384
-0.828977, 225, 1, 352, 418
-0.847831, 209, 1, 336, 256
-0.848304, 177, 1, 304, 418
-0.858523, 161, 33, 288, 288
-0.863979, 1, 1, 500, 128
-0.86712, 241, 129, 368, 384
-0.872845, 1, 177, 500, 304
-0.873309, 81, 1, 208, 256
-0.874196, 305, 1, 432, 256
-0.876784, 65, 1, 192, 418
-0.877526, 273, 1, 400, 418
-0.87812, 129, 1, 256, 418
-0.883433, 321, 1, 448, 418
-0.886896, 193, 1, 448, 128
-0.888638, 145, 129, 272, 384
-0.889423, 257, 33, 384, 288
-0.892919, 1, 225, 500, 352
-0.898259, 193, 161, 320, 416
-0.901, 33, 1, 288, 128
-0.902357, 17, 1, 144, 418
-0.90396, 129, 97, 384, 224
-0.909816, 97, 129, 224, 384
-0.912299, 353, 1, 480, 256
-0.912842, 161, 193, 416, 320
-0.913989, 289, 161, 416, 416
-0.915511, 129, 49, 384, 176
-0.920994, 161, 145, 416, 272
-0.921968, 65, 193, 320, 320
-0.923526, 33, 1, 160, 256
-0.92491, 145, 1, 272, 128
-0.92572, 1, 49, 500, 176
-0.926313, 321, 1, 448, 128
-0.927621, 369, 1, 496, 418
-0.928181, 201, 1, 264, 128
-0.928374, 1, 49, 256, 176
-0.930544, 369, 1, 496, 128
-0.930906, 145, 1, 208, 128
-0.931092, 169, 17, 232, 144
-0.931129, 209, 1, 336, 128
-0.931227, 145, 193, 272, 320
-0.932137, 177, 129, 240, 256
-0.932921, 97, 1, 224, 128
-0.933104, 1, 129, 500, 256
-0.933425, 329, 1, 392, 128
-0.933519, 241, 161, 368, 288
-0.9343, 369, 1, 432, 128
-0.935736, 257, 1, 384, 128
-0.935776, 169, 81, 232, 208
-0.938072, 145, 145, 272, 272
-0.938363, 225, 1, 288, 128
-0.938757, 257, 49, 500, 176
-0.939481, 177, 177, 240, 304
-0.942209, 201, 1, 264, 64
-0.942982, 209, 113, 336, 240
-0.943309, 393, 1, 456, 128
-0.943477, 193, 49, 320, 176
-0.943592, 1, 161, 128, 416
-0.943866, 161, 97, 288, 224
-0.944283, 1, 273, 500, 400
-0.945093, 201, 193, 264, 320
-0.945124, 297, 1, 360, 128
-0.945331, 433, 1, 496, 128
-0.945562, 193, 49, 256, 176
-0.94559, 49, 161, 176, 416
-0.945833, 337, 97, 464, 352
-0.946603, 97, 49, 224, 176
-0.947108, 233, 9, 296, 72
-0.94737, 121, 1, 184, 128
-0.948144, 145, 49, 208, 176
-0.948251, 65, 241, 320, 368
-0.948292, 145, 49, 272, 176
-0.950009, 209, 33, 272, 96
-0.950225, 193, 241, 448, 368
-0.951847, 305, 129, 368, 256
-0.952569, 289, 25, 352, 88
-0.952893, 289, 49, 416, 176
-0.953223, 265, 1, 328, 128
-0.954312, 193, 193, 320, 320
-0.954326, 49, 1, 176, 128
-0.954571, 169, 105, 232, 168
-0.954988, 169, 17, 232, 80
-0.955404, 265, 25, 328, 88
-0.955522, 369, 17, 432, 80
-0.956155, 273, 209, 400, 336
-0.956348, 257, 161, 500, 288
-0.956425, 33, 225, 160, 352
-0.956888, 313, 25, 376, 88
-0.956937, 73, 225, 136, 352
-0.957004, 33, 145, 288, 272
-0.957137, 33, 241, 96, 368
-0.957415, 313, 49, 376, 176
-0.957524, 225, 209, 288, 336
-0.957567, 201, 129, 264, 256
-0.958236, 177, 153, 240, 216
-0.958274, 81, 225, 208, 352
-0.95849, 273, 97, 336, 224
-0.95849, 313, 193, 376, 320
-0.959475, 121, 49, 184, 176
-0.959953, 9, 225, 72, 352
-0.960038, 409, 9, 472, 72
-0.960681, 209, 201, 272, 264
-0.960938, 345, 25, 408, 88
-0.961074, 137, 17, 200, 80
-0.961494, 177, 241, 304, 368
-0.961698, 233, 33, 296, 96
-0.961843, 33, 97, 288, 224
-0.96209, 281, 145, 344, 272
-0.962184, 273, 49, 336, 112
-0.962452, 97, 177, 224, 304
-0.963023, 97, 1, 160, 128
-0.963333, 257, 257, 384, 384
-0.963957, 113, 97, 240, 224
-0.964583, 289, 153, 352, 216
-0.964856, 257, 1, 320, 64
-0.96501, 289, 193, 352, 320
-0.965155, 201, 137, 264, 200
-0.965165, 177, 1, 304, 64
-0.965183, 313, 169, 376, 232
-0.965194, 177, 129, 240, 192
-0.965519, 433, 17, 496, 80
-0.965545, 33, 233, 96, 296
-0.965569, 105, 1, 168, 64
-0.965913, 97, 225, 160, 352
-0.965939, 25, 1, 88, 128
-0.966013, 313, 257, 376, 384
-0.966046, 257, 49, 320, 176
-0.966538, 153, 193, 216, 320
-0.966558, 177, 177, 240, 240
-0.966664, 153, 129, 216, 256
-0.966692, 209, 1, 240, 128
-0.966895, 225, 161, 288, 288
-0.967147, 113, 17, 240, 80
-0.967179, 169, 57, 232, 120
-0.96761, 177, 209, 240, 272
-0.96766, 409, 33, 472, 96
-0.967856, 181, 17, 212, 144
-0.967998, 345, 1, 408, 64
-0.967999, 321, 225, 448, 352
-0.968069, 353, 17, 480, 80
-0.968107, 257, 113, 384, 240
-0.968117, 73, 233, 136, 296
-0.968311, 337, 225, 400, 352
-0.968637, 1, 17, 128, 144
-0.968892, 193, 73, 256, 136
-0.968924, 393, 1, 424, 128
-0.969032, 217, 49, 280, 176
-0.969222, 313, 1, 376, 64
-0.969521, 177, 65, 240, 320
-0.969589, 225, 17, 352, 80
-0.969756, 197, 17, 228, 144
-0.969794, 369, 49, 496, 176
-0.969938, 169, 1, 200, 128
-0.969991, 289, 257, 352, 384
-0.970006, 81, 25, 144, 88
-0.970101, 405, 1, 436, 128
-0.970105, 145, 209, 272, 272
-0.970166, 129, 225, 192, 352
-0.9702, 381, 1, 412, 128
-0.970234, 297, 49, 360, 112
-0.970247, 337, 1, 368, 128
-0.970257, 273, 25, 400, 88
-0.970349, 237, 1, 268, 128
-0.9705, 177, 105, 208, 168
-0.970592, 73, 1, 136, 128
-0.970654, 293, 25, 324, 88
-0.970708, 141, 1, 172, 128
-0.970714, 433, 49, 496, 176
-0.970856, 65, 1, 128, 64
-0.971002, 49, 49, 176, 176
-0.971153, 193, 41, 320, 104
-0.971187, 209, 241, 272, 304
-0.971382, 241, 65, 368, 192
-0.971418, 181, 97, 212, 224
-0.97149, 321, 49, 384, 112
-0.971648, 241, 9, 272, 72
-0.971753, 273, 25, 304, 88
-0.971797, 257, 1, 320, 256
-0.971922, 353, 1, 384, 128
-0.971931, 157, 17, 188, 144
-0.971937, 369, 1, 400, 128
-0.972274, 337, 177, 400, 304
-0.972328, 1, 1, 64, 128
-0.972592, 169, 49, 200, 176
-0.972615, 281, 177, 344, 240
-0.97273, 225, 1, 256, 64
-0.972775, 433, 41, 496, 104
-0.972781, 289, 129, 352, 192
-0.972897, 129, 129, 192, 256
-0.972925, 409, 49, 472, 176
-0.972945, 437, 1, 468, 128
-0.973198, 249, 161, 312, 288
-0.973219, 233, 1, 296, 256
-0.973252, 145, 57, 208, 120
-0.973253, 361, 17, 392, 80
-0.97356, 201, 65, 232, 192
-0.973652, 281, 97, 344, 352
-0.973712, 265, 153, 328, 216
-0.973725, 201, 241, 264, 368
-0.973744, 225, 113, 288, 240
-0.973744, 325, 1, 356, 128
-0.973815, 305, 265, 368, 328
-0.973861, 217, 57, 280, 120
-0.973886, 105, 33, 168, 96
-0.973957, 385, 49, 448, 112
-0.973963, 281, 49, 344, 176
-0.973997, 221, 177, 252, 304
-0.974015, 189, 17, 220, 80
-0.974077, 225, 137, 288, 200
-0.974118, 161, 153, 288, 216
-0.97416, 217, 129, 280, 384
-0.974204, 217, 25, 248, 88
-0.974325, 209, 129, 240, 256
-0.974326, 217, 193, 248, 256
-0.974359, 181, 153, 212, 216
-0.974411, 249, 57, 312, 120
-0.974476, 129, 241, 256, 368
-0.974579, 221, 1, 252, 128
-0.974632, 213, 1, 244, 64
-0.974662, 341, 25, 372, 88
-0.974763, 209, 169, 272, 232
-0.974968, 137, 137, 200, 200
-0.975051, 305, 217, 368, 280
-0.975097, 313, 193, 376, 256
-0.975196, 225, 97, 480, 224
-0.975204, 265, 257, 328, 384
-0.97521, 161, 105, 288, 168
-0.975348, 209, 113, 272, 176
-0.97544, 145, 113, 208, 176
-0.975561, 317, 129, 348, 256
-0.975594, 377, 49, 440, 176
-0.975609, 313, 145, 376, 208
-0.975611, 113, 57, 240, 120
-0.975654, 329, 241, 392, 304
-0.975667, 225, 169, 352, 232
-0.975667, 1, 233, 64, 296
-0.975699, 289, 1, 352, 64
-0.975701, 249, 1, 280, 128
-0.975718, 261, 17, 292, 80
-0.975795, 229, 25, 260, 88
-0.975879, 421, 1, 452, 128
-0.976066, 305, 1, 368, 256
-0.976115, 373, 17, 404, 80
-0.976139, 289, 161, 416, 288
-0.976359, 65, 1, 192, 64
-0.976461, 297, 81, 360, 144
-0.976468, 321, 17, 352, 80
-0.976487, 309, 81, 340, 208
-0.97658, 313, 137, 344, 200
-0.976617, 409, 57, 472, 120
-0.976639, 337, 177, 464, 304
-0.976669, 233, 193, 264, 320
-0.976804, 233, 177, 296, 240
-0.976933, 225, 145, 352, 208
-0.977038, 281, 1, 344, 256
-0.977061, 437, 17, 468, 80
-0.977157, 205, 193, 236, 320
-0.977158, 145, 185, 272, 248
-0.977167, 137, 1, 200, 256
-0.9772, 193, 65, 320, 128
-0.977208, 49, 1, 112, 128
-0.977269, 177, 225, 240, 352
-0.977374, 309, 25, 340, 88
-0.977498, 393, 17, 424, 80
-0.977532, 49, 273, 176, 400
-0.977542, 201, 1, 232, 64
-0.977695, 57, 265, 120, 328
-0.977715, 17, 177, 144, 304
-0.977829, 309, 1, 340, 128
-0.977839, 41, 1, 104, 64
-0.97797, 265, 257, 328, 320
-0.978016, 209, 145, 240, 208
-0.978104, 193, 89, 224, 152
-0.97831, 305, 129, 368, 384
-0.978347, 41, 193, 104, 320
-0.978357, 17, 233, 144, 296
-0.978358, 209, 1, 272, 256
-0.978408, 197, 57, 228, 120
-0.97854, 321, 41, 448, 104
-0.978565, 305, 113, 432, 240
-0.978653, 265, 1, 296, 128
-0.978807, 97, 233, 160, 296
-0.978839, 197, 145, 228, 208
-0.979052, 157, 17, 188, 80
-0.979146, 449, 1, 480, 128
-0.979176, 165, 105, 196, 168
-0.979206, 129, 233, 192, 296
-0.979316, 129, 1, 160, 128
-0.979415, 265, 121, 328, 184
-0.979461, 217, 49, 248, 112
-0.979481, 417, 1, 448, 64
-0.979549, 65, 233, 192, 296
-0.979603, 49, 33, 176, 96
-0.979707, 177, 241, 304, 304
-0.979714, 193, 161, 256, 416
-0.979745, 257, 129, 320, 384
-0.979748, 321, 161, 352, 224
-0.979798, 469, 1, 500, 128
-0.97986, 293, 49, 324, 112
-0.979882, 369, 41, 496, 104
-0.980068, 209, 121, 336, 184
-0.980228, 453, 33, 484, 96
-0.980342, 193, 1, 256, 418
-0.980412, 333, 209, 364, 336
-0.980436, 193, 113, 224, 240
-0.9805, 205, 25, 236, 88
-0.980538, 233, 241, 296, 304
-0.98056, 97, 49, 160, 176
-0.980563, 289, 1, 416, 64
-0.980571, 169, 113, 200, 240
-0.980614, 469, 1, 500, 64
-0.980678, 49, 25, 112, 88
-0.980814, 137, 193, 200, 256
-0.980851, 309, 49, 340, 112
-0.980916, 33, 257, 96, 320
-0.981055, 185, 241, 248, 304
-0.98108, 161, 129, 288, 192
-0.98109, 169, 145, 200, 208
-0.981093, 241, 209, 368, 272
-0.98112, 233, 257, 296, 384
-0.981123, 257, 1, 320, 418
-0.981156, 465, 57, 496, 120
-0.981197, 301, 161, 332, 224
-0.981224, 233, 209, 264, 272
-0.981275, 457, 1, 488, 64
-0.981335, 169, 17, 200, 80
-0.981374, 41, 49, 104, 176
-0.981377, 101, 25, 132, 88
-0.981383, 1, 33, 64, 96
-0.981467, 29, 233, 60, 296
-0.9816, 217, 1, 280, 418
-0.981616, 273, 49, 304, 112
-0.981687, 353, 49, 416, 112
-0.981715, 193, 121, 224, 184
-0.981733, 297, 1, 360, 418
-0.981752, 405, 9, 436, 72
-0.981782, 77, 1, 108, 64
-0.98182, 241, 49, 368, 112
-0.981839, 237, 161, 268, 224
-0.982025, 225, 241, 352, 304
-0.982084, 145, 17, 176, 80
-0.982091, 249, 209, 312, 336
-0.982092, 1, 25, 128, 88
-0.982105, 177, 177, 208, 304
-0.982206, 69, 225, 100, 352
-0.982225, 221, 113, 252, 240
-0.982231, 73, 233, 104, 296
-0.982338, 17, 1, 80, 64
-0.982356, 241, 33, 272, 96
-0.982379, 1, 289, 256, 416
-0.982427, 373, 41, 404, 104
-0.982455, 101, 1, 132, 64
-0.982536, 105, 273, 168, 400
-0.982544, 309, 81, 340, 144
-0.982636, 81, 273, 144, 400
-0.982702, 41, 233, 72, 296
-0.982738, 221, 49, 252, 176
-0.982787, 89, 25, 120, 88
-0.982868, 253, 41, 284, 104
-0.98292, 89, 1, 152, 256
-0.982963, 65, 49, 128, 176
-0.982992, 169, 81, 232, 144
-0.98309, 9, 257, 72, 320
-0.983093, 221, 169, 252, 232
-0.983124, 245, 225, 276, 352
-0.983146, 297, 113, 328, 240
-0.983238, 17, 1, 144, 64
-0.983262, 265, 97, 328, 160
-0.983285, 321, 193, 352, 320
-0.983344, 121, 57, 184, 120
-0.98339, 417, 33, 448, 96
-0.983646, 297, 1, 328, 128
-0.983657, 245, 217, 276, 280
-0.983727, 205, 81, 236, 144
-0.983781, 157, 129, 188, 256
-0.983801, 289, 257, 416, 320
-0.983807, 89, 273, 152, 336
-0.983884, 145, 49, 176, 176
-0.983899, 329, 1, 392, 256
-0.983933, 353, 49, 416, 176
-0.983975, 393, 1, 456, 256
-0.983976, 233, 217, 296, 280
-0.983994, 337, 161, 368, 288
-0.98404, 237, 241, 268, 304
-0.984043, 209, 169, 240, 232
-0.984048, 465, 25, 496, 88
-0.98406, 181, 57, 212, 120
-0.984065, 333, 153, 364, 216
-0.984089, 277, 1, 308, 128
-0.984097, 113, 233, 240, 296
-0.984104, 97, 225, 128, 352
-0.984111, 193, 201, 320, 264
-0.984116, 153, 161, 216, 224
-0.984159, 161, 233, 224, 296
-0.9842, 57, 233, 88, 296
-0.984249, 197, 193, 228, 256
-0.984285, 161, 289, 416, 416
-0.984296, 325, 265, 356, 328
-0.984328, 65, 177, 128, 304
-0.984356, 45, 225, 76, 352
-0.984376, 217, 233, 248, 296
-0.984387, 337, 193, 400, 256
-0.984409, 113, 1, 144, 64
-0.984416, 321, 185, 352, 248
-0.984437, 153, 241, 216, 368
-0.984445, 341, 177, 372, 240
-0.984448, 181, 129, 212, 192
-0.984523, 361, 41, 392, 104
-0.984562, 329, 41, 360, 104
-0.984568, 337, 1, 368, 64
-0.984618, 169, 161, 232, 416
-0.984656, 305, 249, 336, 312
-0.984691, 57, 225, 88, 352
-0.984738, 33, 225, 64, 352
-0.984749, 89, 1, 120, 64
-0.984818, 1, 257, 128, 320
-0.984851, 113, 137, 240, 200
-0.984886, 417, 1, 480, 256
-0.984904, 289, 145, 416, 208
-0.984922, 349, 1, 380, 64
-0.984924, 309, 177, 340, 304
-0.984934, 321, 1, 384, 418
-0.984975, 289, 233, 416, 296
-0.985058, 25, 25, 88, 88
-0.98516, 109, 225, 140, 352
-0.985194, 121, 225, 152, 352
-0.985201, 233, 145, 264, 272
-0.985233, 129, 177, 192, 304
-0.98525, 205, 105, 236, 168
-0.985296, 81, 225, 112, 352
-0.985354, 177, 201, 208, 264
-0.985466, 289, 73, 416, 136
-0.985543, 9, 177, 72, 304
-0.98556, 329, 161, 392, 416
-0.985561, 249, 177, 280, 304
-0.985579, 177, 177, 208, 240
-0.985632, 1, 1, 64, 256
-0.985638, 345, 225, 376, 352
-0.985833, 97, 209, 224, 272
-0.985842, 169, 1, 232, 418
-0.985916, 33, 1, 96, 256
-0.985936, 337, 225, 368, 288
-0.986018, 209, 97, 336, 160
-0.986029, 433, 41, 464, 104
-0.986046, 113, 33, 176, 288
-0.98608, 145, 81, 272, 144
-0.986108, 113, 25, 144, 88
-0.986156, 85, 233, 116, 296
-0.986246, 353, 1, 416, 256
-0.986288, 1, 1, 32, 128
-0.986323, 321, 49, 352, 176
-0.986337, 461, 49, 492, 176
-0.98634, 233, 137, 264, 200
-0.986454, 137, 129, 200, 384
-0.986487, 297, 241, 360, 304
-0.986608, 65, 129, 192, 256
-0.986641, 253, 145, 284, 208
-0.986706, 273, 177, 400, 240
-0.986724, 217, 225, 248, 352
-0.986773, 229, 49, 260, 112
-0.986907, 81, 49, 144, 112
-0.986932, 129, 1, 192, 418
-0.986949, 241, 265, 368, 328
-0.986952, 13, 233, 44, 296
-0.986994, 193, 177, 224, 304
-0.98701, 49, 265, 176, 328
-0.987012, 349, 177, 380, 304
-0.987037, 25, 209, 88, 272
-0.987121, 325, 257, 356, 384
-0.987176, 17, 209, 48, 336
-0.987186, 129, 257, 256, 320
-0.987194, 113, 113, 240, 176
-0.987299, 309, 1, 340, 64
-0.987306, 125, 33, 156, 96
-0.987335, 345, 1, 408, 418
-0.987386, 197, 169, 228, 232
-0.987405, 97, 233, 128, 296
-0.987519, 337, 217, 400, 280
-0.987537, 245, 129, 276, 256
-0.987585, 201, 265, 264, 328
-0.987601, 405, 49, 436, 112
-0.987635, 97, 1, 352, 64
-0.98772, 389, 41, 420, 104
-0.987746, 257, 17, 500, 80
-0.987754, 25, 1, 56, 128
-0.987758, 117, 1, 148, 128
-0.987794, 165, 193, 196, 320
-0.987833, 309, 185, 340, 248
-0.987908, 221, 137, 252, 200
-0.988079, 329, 129, 392, 256
-0.988093, 105, 177, 168, 304
-0.988099, 301, 137, 332, 200
-0.988145, 217, 113, 248, 176
-0.988223, 273, 1, 304, 64
-0.988284, 101, 1, 132, 128
-0.988352, 217, 73, 248, 136
-0.988381, 289, 209, 416, 272
-0.988396, 125, 1, 156, 64
-0.988562, 161, 33, 416, 96
-0.988608, 453, 57, 484, 120
-0.988616, 157, 57, 188, 120
-0.988621, 273, 281, 336, 344
-0.988623, 297, 161, 328, 288
-0.988663, 25, 1, 88, 418
-0.988666, 313, 257, 344, 384
-0.988678, 97, 185, 224, 248
-0.988688, 253, 241, 284, 304
-0.988725, 209, 45, 272, 76
-0.988735, 209, 29, 272, 60
-0.988743, 53, 1, 84, 128
-0.988753, 293, 1, 324, 64
-0.988859, 225, 281, 288, 344
-0.988875, 337, 241, 464, 304
-0.988899, 409, 13, 472, 44
-0.9889, 209, 289, 336, 416
-0.988924, 129, 105, 384, 168
-0.989022, 1, 273, 128, 400
-0.989056, 73, 25, 104, 88
-0.989058, 161, 153, 416, 216
-0.989074, 65, 1, 128, 418
-0.989086, 65, 1, 128, 256
-0.989127, 305, 273, 432, 400
-0.98914, 225, 13, 288, 44
-0.989158, 297, 241, 328, 368
-0.989194, 413, 49, 444, 176
-0.989202, 41, 57, 104, 120
-0.989235, 349, 249, 380, 312
-0.989262, 201, 5, 264, 36
-0.989266, 321, 185, 448, 248
-0.989282, 49, 209, 112, 272
-0.989285, 297, 65, 328, 192
-0.989332, 113, 161, 240, 224
-0.989419, 65, 1, 96, 128
-0.98942, 161, 121, 224, 152
-0.989473, 305, 169, 368, 200
-0.989521, 13, 1, 44, 128
-0.989562, 89, 1, 152, 418
-0.989569, 337, 217, 464, 280
-0.989616, 185, 149, 248, 180
-0.989634, 233, 41, 296, 72
-0.989649, 1, 1, 32, 64
-0.98965, 201, 205, 264, 236
-0.989669, 177, 265, 304, 328
-0.989703, 337, 265, 400, 328
-0.989759, 177, 101, 240, 132
-0.989771, 209, 229, 272, 260
-0.989799, 89, 1, 120, 128
-0.989822, 425, 41, 488, 72
-0.989841, 157, 65, 188, 192
-0.989875, 241, 53, 304, 84
-0.989897, 393, 1, 456, 418
-0.98996, 177, 57, 240, 88
-0.989965, 265, 49, 328, 80
-0.989987, 65, 1, 96, 64
-0.990007, 169, 197, 232, 228
-0.99001, 285, 161, 316, 288
-0.990056, 153, 121, 184, 184
-0.990075, 145, 81, 208, 144
-0.990082, 217, 57, 280, 88
-0.99009, 249, 17, 312, 48
-0.990098, 149, 225, 180, 352
-0.990105, 257, 29, 320, 60
-0.990109, 169, 57, 200, 120
-0.990152, 433, 29, 496, 60
-0.990173, 17, 209, 144, 272
-0.990174, 109, 233, 140, 296
-0.990196, 133, 225, 164, 352
-0.990201, 133, 49, 164, 176
-0.990207, 65, 57, 192, 120
-0.990207, 169, 17, 232, 48
-0.990246, 121, 105, 184, 168
-0.990263, 17, 57, 80, 120
-0.990276, 145, 57, 176, 120
-0.990304, 185, 161, 248, 192
-0.990416, 97, 45, 160, 76
-0.99042, 249, 281, 312, 344
-0.990422, 185, 45, 248, 76
-0.990426, 385, 1, 448, 32
-0.99043, 185, 117, 248, 148
-0.990432, 409, 1, 472, 32
-0.990433, 265, 1, 328, 32
-0.990449, 193, 17, 256, 48
-0.990451, 177, 225, 208, 352
-0.99046, 185, 29, 248, 60
-0.990473, 1, 1, 256, 64
-0.990481, 153, 1, 216, 32
-0.990487, 401, 49, 432, 176
-0.990493, 209, 217, 272, 248
-0.990503, 297, 89, 328, 152
-0.990511, 233, 29, 296, 60
-0.990512, 113, 9, 176, 40
-0.990515, 265, 165, 328, 196
-0.990532, 25, 1, 56, 64
-0.990534, 257, 121, 384, 184
-0.990573, 177, 185, 240, 216
-0.990604, 49, 233, 112, 264
-0.990612, 361, 45, 424, 76
-0.990614, 17, 237, 80, 268
-0.990624, 313, 181, 376, 212
-0.990643, 77, 1, 108, 128
-0.990685, 281, 209, 312, 336
-0.990701, 73, 49, 136, 80
-0.990705, 385, 13, 448, 44
-0.990728, 285, 257, 316, 384
-0.990737, 169, 133, 232, 164
-0.990738, 297, 145, 360, 176
-0.990739, 289, 49, 352, 80
-0.990749, 129, 177, 384, 240
-0.990752, 205, 241, 236, 304
-0.990757, 297, 157, 360, 188
-0.990762, 41, 1, 72, 128
-0.990804, 401, 45, 464, 76
-0.990806, 321, 241, 352, 304
-0.990807, 153, 109, 216, 140
-0.990817, 169, 225, 232, 256
-0.990826, 237, 49, 268, 176
-0.990832, 217, 141, 280, 172
-0.990833, 25, 257, 56, 320
-0.990838, 1, 1, 64, 418
-0.990855, 281, 29, 344, 60
-0.990859, 137, 257, 200, 320
-0.990878, 41, 49, 104, 80
-0.990878, 217, 241, 280, 272
-0.990897, 425, 49, 456, 176
-0.990909, 313, 265, 376, 296
-0.990926, 73, 265, 104, 328
-0.990948, 161, 149, 224, 180
-0.990954, 393, 25, 456, 56
-0.990962, 433, 9, 496, 40
-0.990967, 353, 241, 416, 304
-0.990968, 145, 13, 208, 44
-0.991037, 313, 49, 376, 80
-0.99104, 329, 25, 392, 56
-0.991043, 169, 213, 232, 244
-0.991055, 353, 65, 480, 128
-0.991078, 273, 177, 336, 208
-0.991102, 49, 161, 112, 416
-0.991121, 5, 33, 36, 96
-0.991125, 281, 61, 344, 92
-0.991142, 433, 53, 496, 84
-0.991161, 313, 193, 376, 224
-0.991187, 285, 49, 316, 176
-0.991225, 241, 1, 304, 32
-0.991241, 241, 73, 368, 136
-0.991247, 225, 289, 352, 352
-0.991248, 305, 25, 368, 56
-0.991261, 177, 5, 240, 36
-0.991263, 209, 69, 272, 100
-0.991267, 109, 49, 140, 176
-0.991294, 369, 25, 432, 56
-0.991295, 177, 265, 240, 328
-0.991299, 161, 225, 416, 288
-0.991301, 281, 17, 344, 48
-0.991321, 209, 157, 272, 188
-0.991334, 145, 61, 208, 92
-0.991352, 145, 137, 208, 168
-0.991353, 61, 257, 92, 320
-0.991369, 97, 209, 160, 272
-0.99138, 249, 113, 312, 240
-0.991409, 1, 225, 500, 288
-0.991425, 137, 233, 168, 296
-0.991435, 353, 13, 416, 44
-0.991437, 121, 57, 184, 88
-0.991468, 337, 45, 400, 76
-0.991482, 445, 49, 476, 176
-0.991485, 145, 25, 208, 56
-0.991485, 297, 85, 360, 116
-0.991486, 305, 9, 368, 40
-0.991488, 313, 277, 376, 308
-0.991499, 33, 25, 288, 88
-0.991532, 257, 225, 288, 352
-0.991552, 113, 273, 176, 336
-0.991562, 361, 209, 392, 336
-0.991562, 289, 269, 352, 300
-0.991594, 129, 273, 192, 400
-0.991605, 25, 261, 88, 292
-0.991608, 129, 129, 384, 192
-0.991608, 65, 273, 128, 304
-0.991611, 241, 237, 304, 268
-0.991652, 73, 237, 136, 268
-0.991658, 265, 153, 328, 184
-0.991659, 337, 273, 400, 400
-0.991662, 1, 17, 500, 80
-0.991673, 121, 45, 184, 76
-0.991684, 121, 21, 184, 52
-0.991703, 401, 57, 464, 88
-0.991705, 161, 233, 192, 296
-0.991707, 193, 173, 256, 204
-0.99171, 177, 237, 240, 268
-0.99173, 241, 221, 304, 252
-0.991754, 193, 137, 256, 168
-0.991763, 97, 237, 160, 268
-0.991782, 305, 37, 368, 68
-0.991795, 369, 1, 432, 418
-0.991797, 281, 189, 344, 220
-0.991809, 233, 229, 264, 260
-0.991817, 161, 201, 416, 264
-0.991817, 233, 165, 296, 196
-0.991825, 161, 193, 192, 256
-0.991846, 73, 1, 136, 32
-0.991855, 201, 81, 264, 112
-0.991861, 305, 205, 368, 236
-0.991863, 89, 33, 152, 64
-0.991875, 345, 257, 408, 288
-0.991885, 313, 73, 376, 104
-0.991886, 17, 1, 80, 32
-0.99192, 13, 1, 44, 64
-0.991927, 121, 129, 184, 160
-0.991935, 145, 205, 208, 236
-0.991969, 17, 53, 80, 84
-0.99197, 345, 245, 408, 276
-0.991973, 53, 33, 84, 96
-0.991975, 1, 233, 256, 296
-0.991979, 97, 61, 160, 92
-0.991983, 65, 33, 128, 64
-0.991992, 337, 217, 400, 248
-0.992005, 433, 1, 496, 418
-0.992025, 73, 161, 136, 416
-0.992042, 17, 249, 80, 280
-0.992062, 153, 97, 216, 128
-0.992064, 341, 273, 372, 400
-0.992071, 197, 217, 228, 280
-0.992072, 145, 5, 272, 36
-0.99209, 1, 41, 64, 72
-0.992091, 49, 61, 112, 92
-0.992103, 9, 273, 72, 400
-0.992115, 257, 49, 500, 112
-0.992116, 329, 9, 392, 40
-0.99214, 137, 149, 200, 180
-0.992143, 389, 49, 420, 176
-0.992147, 361, 1, 424, 32
-0.992153, 233, 153, 296, 184
-0.992169, 137, 193, 200, 224
-0.99218, 181, 113, 212, 144
-0.992183, 153, 49, 216, 80
-0.992188, 377, 61, 440, 92
-0.992198, 305, 217, 368, 248
-0.992207, 165, 117, 196, 148
-0.992207, 1, 29, 64, 60
-0.992214, 241, 209, 304, 240
-0.992216, 41, 1, 104, 32
-0.992219, 17, 281, 80, 344
-0.992232, 169, 173, 232, 204
-0.992238, 129, 117, 192, 148
-0.992281, 337, 169, 400, 232
-0.99229, 205, 145, 236, 176
-0.992379, 217, 49, 248, 80
-0.992389, 221, 33, 252, 64
-0.9924, 197, 97, 228, 128
-0.992406, 269, 241, 300, 368
-0.99241, 421, 1, 452, 32
-0.992414, 229, 45, 260, 76
-0.992434, 57, 273, 120, 400
-0.992455, 377, 73, 440, 136
-0.992461, 269, 145, 300, 272
-0.992496, 305, 121, 432, 184
-0.992497, 285, 49, 316, 80
-0.992497, 245, 237, 276, 268
-0.992507, 129, 57, 384, 120
-0.99251, 445, 37, 476, 68
-0.992531, 209, 5, 240, 36
-0.992538, 437, 21, 468, 52
-0.992578, 221, 201, 252, 232
-0.992605, 373, 49, 404, 176
-0.992615, 245, 45, 276, 76
-0.992621, 401, 1, 432, 32
-0.992622, 121, 49, 152, 176
-0.992634, 325, 265, 356, 296
-0.992637, 185, 101, 216, 132
-0.992638, 193, 149, 224, 180
-0.992656, 253, 17, 284, 48
-0.992661, 33, 49, 288, 112
-0.992668, 317, 169, 348, 200
-0.992673, 453, 25, 484, 56
-0.992677, 177, 197, 208, 228
-0.992682, 177, 185, 208, 216
-0.992698, 201, 57, 232, 88
-0.992702, 253, 1, 284, 32
-0.992706, 297, 165, 328, 196
-0.992708, 413, 13, 444, 44
-0.992723, 153, 1, 184, 32
-0.992726, 197, 13, 228, 44
-0.992727, 273, 49, 304, 80
-0.992727, 309, 145, 340, 176
-0.992735, 305, 257, 336, 288
-0.992742, 245, 225, 276, 256
-0.992744, 469, 45, 500, 76
-0.992746, 237, 33, 268, 64
-0.992746, 257, 49, 288, 80
-0.992747, 177, 173, 208, 204
-0.992753, 177, 209, 208, 240
-0.992759, 193, 53, 320, 84
-0.992761, 1, 57, 128, 120
-0.992762, 237, 13, 268, 44
-0.992779, 401, 49, 432, 80
-0.992781, 217, 237, 248, 268
-0.99279, 389, 49, 420, 80
-0.992794, 1, 305, 64, 368
-0.992804, 25, 241, 56, 272
-0.992817, 209, 109, 240, 140
-0.992818, 433, 33, 464, 64
-0.992822, 153, 21, 184, 52
-0.992823, 297, 49, 328, 80
-0.992827, 225, 61, 256, 92
-0.992839, 265, 37, 296, 68
-0.992845, 233, 217, 264, 248
-0.992848, 337, 177, 368, 208
-0.992859, 177, 153, 208, 184
-0.992865, 233, 257, 264, 384
-0.992869, 209, 33, 240, 64
-0.992873, 321, 49, 352, 80
-0.992874, 457, 37, 488, 68
-0.992875, 129, 81, 384, 144
-0.992878, 433, 45, 464, 76
-0.992883, 189, 185, 220, 216
-0.992884, 305, 89, 336, 120
-0.99289, 217, 161, 248, 192
-0.992892, 177, 133, 208, 164
-0.992895, 309, 49, 340, 80
-0.992899, 125, 45, 156, 76
-0.992912, 433, 73, 496, 136
-0.992919, 305, 21, 336, 52
-0.992926, 201, 85, 232, 116
-0.992926, 221, 21, 252, 52
-0.992939, 101, 49, 132, 80
-0.992939, 69, 53, 100, 84
-0.99294, 373, 45, 404, 76
-0.992942, 273, 9, 304, 40
-0.992943, 321, 29, 352, 60
-0.992965, 401, 17, 432, 48
-0.992966, 205, 45, 236, 76
-0.992971, 313, 189, 344, 220
-0.992974, 229, 141, 260, 172
-0.992987, 193, 201, 224, 232
-0.992991, 317, 157, 348, 188
-0.992992, 177, 221, 208, 252
-0.992994, 141, 9, 172, 40
-0.992996, 269, 25, 300, 56
-0.993001, 445, 9, 476, 40
-0.993003, 81, 53, 112, 84
-0.993007, 333, 17, 364, 48
-0.993009, 81, 81, 208, 144
-0.99301, 421, 37, 452, 68
-0.993014, 469, 81, 500, 112
-0.993016, 57, 53, 88, 84
-0.993018, 325, 209, 356, 240
-0.993019, 461, 57, 492, 88
-0.99302, 57, 297, 120, 360
-0.993025, 213, 73, 244, 104
-0.993032, 181, 25, 212, 56
-0.993037, 189, 161, 220, 192
-0.993037, 293, 37, 324, 68
-0.993041, 165, 133, 196, 164
-0.993049, 373, 25, 404, 56
-0.993054, 237, 57, 268, 88
-0.993059, 65, 233, 96, 264
-0.99306, 461, 9, 492, 40
-0.993065, 237, 165, 268, 196
-0.993065, 329, 161, 360, 192
-0.993065, 293, 25, 324, 56
-0.993066, 37, 49, 68, 80
-0.993066, 49, 41, 80, 72
-0.993067, 197, 25, 228, 56
-0.993069, 197, 109, 228, 140
-0.993071, 425, 13, 456, 44
-0.993073, 101, 237, 132, 268
-0.993075, 293, 61, 324, 92
-0.993079, 413, 49, 444, 80
-0.99308, 301, 177, 332, 208
-0.993084, 213, 61, 244, 92
-0.993085, 113, 49, 144, 80
-0.993088, 257, 217, 320, 280
-0.99309, 309, 37, 340, 68
-0.993096, 225, 5, 256, 36
-0.993099, 309, 65, 340, 96
-0.993102, 257, 289, 500, 416
-0.993108, 353, 25, 384, 56
-0.993111, 209, 201, 240, 232
-0.993118, 309, 129, 340, 160
-0.99312, 353, 45, 384, 76
-0.993123, 173, 61, 204, 92
-0.993124, 157, 57, 188, 88
-0.993128, 169, 17, 200, 48
-0.993129, 165, 105, 196, 136
-0.993136, 189, 61, 220, 92
-0.993136, 209, 17, 240, 48
-0.993144, 249, 165, 280, 196
-0.993149, 193, 121, 224, 152
-0.993151, 341, 189, 372, 220
-0.993154, 217, 149, 248, 180
-0.993154, 389, 21, 420, 52
-0.993159, 1, 209, 64, 272
-0.993165, 69, 49, 100, 176
-0.993203, 289, 97, 416, 160
-0.993318, 177, 17, 304, 48
-0.993355, 193, 249, 448, 312
-0.993405, 89, 177, 120, 304
-0.993576, 73, 209, 136, 272
-0.993581, 193, 41, 320, 72
-0.993672, 209, 29, 336, 60
-0.993684, 329, 121, 392, 184
-0.993702, 225, 177, 480, 240
-0.993739, 1, 201, 500, 264
-0.993771, 1, 49, 64, 176
-0.993854, 257, 49, 288, 176
-0.993897, 77, 177, 108, 304
-0.993906, 21, 257, 52, 384
-0.993913, 235, 25, 250, 88
-0.993926, 243, 1, 258, 64
-0.993927, 235, 1, 250, 64
-0.993937, 289, 281, 416, 344
-0.993944, 333, 113, 364, 240
-0.993963, 49, 177, 80, 304
-0.993989, 297, 25, 312, 88
-0.993995, 181, 105, 196, 168
-0.994022, 291, 25, 306, 88
-0.994042, 161, 221, 288, 252
-0.994055, 257, 177, 320, 240
-0.994056, 97, 289, 224, 416
-0.994065, 145, 205, 272, 236
-0.994073, 5, 241, 36, 368
-0.994083, 41, 353, 104, 416
-0.994096, 367, 17, 382, 80
-0.99412, 97, 49, 128, 176
-0.994135, 85, 49, 116, 176
-0.994149, 361, 209, 424, 336
-0.994155, 33, 305, 96, 368
-0.994205, 361, 17, 376, 80
-0.994215, 229, 1, 244, 64
-0.994216, 183, 145, 198, 208
-0.994218, 355, 25, 370, 88
-0.994245, 239, 201, 254, 264
-0.99425, 253, 17, 268, 80
-0.994255, 173, 113, 188, 176
-0.994275, 65, 113, 192, 176
-0.994279, 353, 13, 480, 44
-0.994305, 205, 241, 236, 368
-0.994308, 211, 57, 226, 120
-0.994316, 347, 25, 362, 88
-0.994316, 25, 161, 88, 416
-0.994319, 181, 169, 196, 232
-0.99432, 289, 45, 416, 76
-0.994374, 321, 17, 336, 80
-0.994393, 333, 49, 364, 176
-0.994408, 213, 1, 228, 64
-0.994413, 329, 25, 344, 88
-0.994421, 247, 217, 262, 280
-0.994423, 129, 169, 192, 232
-0.994431, 233, 113, 296, 176
-0.99445, 203, 17, 218, 80
-0.994459, 189, 153, 204, 216
-0.994497, 283, 25, 298, 88
-0.994507, 223, 33, 238, 96
-0.994543, 241, 33, 256, 96
-0.994573, 97, 281, 224, 344
-0.994599, 145, 113, 272, 144
-0.994613, 307, 25, 322, 88
-0.994615, 193, 5, 320, 36
-0.99462, 33, 121, 288, 184
-0.994634, 65, 201, 320, 264
-0.994666, 227, 153, 242, 216
-0.994667, 189, 113, 204, 176
-0.994675, 97, 353, 224, 416
-0.99468, 1, 49, 500, 112
-0.994687, 219, 137, 234, 200
-0.994693, 373, 17, 388, 80
-0.994694, 369, 29, 496, 60
-0.994712, 177, 145, 192, 208
-0.994722, 1, 249, 500, 312
-0.994739, 313, 17, 328, 80
-0.994749, 209, 149, 336, 180
-0.994767, 105, 1, 120, 64
-0.994772, 273, 17, 288, 80
-0.994806, 97, 21, 224, 52
-0.994836, 361, 49, 392, 176
-0.994838, 339, 25, 354, 88
-0.99484, 257, 21, 384, 52
-0.994851, 249, 273, 280, 400
-0.994852, 273, 73, 336, 136
-0.994861, 165, 257, 196, 384
-0.994873, 285, 113, 316, 240
-0.994888, 1, 305, 128, 368
-0.994889, 385, 17, 400, 80
-0.994896, 379, 17, 394, 80
-0.994897, 305, 289, 368, 352
-0.994897, 65, 153, 320, 216
-0.994901, 65, 177, 96, 304
-0.994917, 145, 125, 272, 156
-0.994917, 65, 161, 192, 224
-0.99492, 189, 17, 204, 80
-0.994926, 145, 29, 272, 60
-0.994927, 163, 17, 178, 80
-0.994931, 113, 61, 240, 92
-0.994943, 241, 49, 368, 80
-0.994943, 145, 233, 272, 264
-0.994982, 219, 193, 234, 256
-0.994987, 161, 157, 288, 188
-0.995005, 257, 9, 384, 40
-0.995021, 161, 141, 288, 172
-0.995059, 205, 57, 220, 120
-0.995061, 267, 17, 282, 80
-0.995067, 17, 237, 144, 268
-0.995067, 97, 249, 352, 312
-0.995073, 411, 17, 426, 80
-0.995107, 197, 89, 212, 152
-0.995124, 301, 289, 332, 416
-0.995135, 65, 5, 192, 36
-0.995149, 369, 41, 496, 72
-0.995151, 321, 169, 336, 232
-0.995152, 417, 49, 432, 112
-0.995166, 219, 65, 234, 128
-0.995211, 331, 145, 346, 208
-0.995216, 321, 25, 448, 56
-0.995237, 313, 129, 328, 192
-0.995246, 189, 225, 220, 352
-0.995249, 225, 129, 480, 192
-0.995254, 91, 1, 106, 64
-0.995264, 219, 1, 234, 64
-0.995273, 297, 105, 360, 168
-0.995273, 145, 49, 272, 80
-0.995295, 479, 57, 494, 120
-0.995297, 449, 17, 464, 80
-0.995308, 49, 49, 176, 80
-0.995338, 321, 49, 336, 112
-0.995344, 181, 193, 196, 256
-0.995365, 101, 177, 132, 304
-0.995365, 269, 193, 300, 320
-0.995379, 177, 17, 192, 80
-0.995389, 417, 17, 432, 80
-0.995424, 397, 17, 412, 80
-0.99543, 1, 169, 500, 232
-0.995432, 217, 41, 232, 104
-0.995438, 49, 297, 176, 360
-0.995459, 225, 65, 352, 96
-0.995474, 161, 173, 288, 204
-0.995476, 197, 17, 212, 80
-0.99549, 479, 1, 494, 64
-0.995494, 455, 33, 470, 96
-0.995496, 225, 181, 352, 212
-0.99552, 65, 329, 192, 392
-0.995551, 113, 1, 128, 64
-0.995552, 257, 225, 272, 288
-0.995559, 169, 17, 184, 80
-0.995569, 229, 33, 244, 96
-0.995579, 485, 57, 500, 120
-0.995605, 199, 145, 214, 208
-0.995623, 241, 213, 368, 244
-0.995626, 269, 49, 300, 176
-0.995631, 167, 113, 182, 176
-0.995632, 257, 33, 384, 64
-0.995644, 369, 1, 496, 32
-0.995645, 327, 185, 342, 248
-0.995647, 31, 233, 46, 296
-0.995674, 97, 129, 160, 384
-0.995699, 321, 1, 448, 32
-0.995703, 37, 177, 68, 304
-0.99573, 391, 17, 406, 80
-0.995734, 219, 169, 234, 232
-0.995742, 257, 73, 500, 136
-0.995743, 229, 177, 244, 240
-0.995754, 41, 233, 56, 296
-0.995763, 225, 161, 352, 192
-0.995775, 145, 193, 272, 224
-0.995786, 355, 1, 370, 64
-0.995792, 211, 153, 226, 216
-0.995797, 221, 241, 236, 304
-0.995804, 423, 9, 438, 72
-0.995811, 257, 129, 288, 256
-0.995813, 105, 25, 120, 88
-0.995816, 293, 49, 308, 112
-0.995818, 401, 81, 464, 144
-0.995828, 113, 145, 240, 176
-0.995831, 85, 1, 100, 64
-0.995838, 219, 105, 234, 168
-0.995846, 161, 289, 288, 416
-0.995849, 1, 281, 128, 344
-0.995865, 157, 17, 172, 80
-0.995867, 357, 257, 388, 384
-0.995876, 439, 17, 454, 80
-0.995878, 211, 33, 226, 96
-0.995889, 321, 145, 336, 208
-0.995903, 153, 289, 216, 416
-0.99591, 241, 225, 256, 288
-0.995913, 311, 89, 326, 152
-0.995917, 433, 33, 448, 96
-0.995954, 77, 233, 92, 296
-0.995965, 315, 41, 330, 104
-0.995969, 183, 17, 198, 80
-0.995995, 95, 25, 110, 88
-0.996001, 111, 25, 126, 88
-0.996012, 281, 217, 344, 280
-0.996023, 467, 33, 482, 96
-0.996033, 199, 57, 214, 120
-0.996048, 369, 53, 496, 84
-0.996051, 405, 17, 420, 80
-0.996055, 33, 177, 288, 240
-0.996063, 49, 233, 64, 296
-0.996065, 235, 161, 250, 224
-0.996068, 321, 161, 352, 416
-0.996077, 261, 41, 276, 104
-0.996078, 387, 41, 402, 104
-0.996079, 69, 233, 84, 296
-0.996086, 311, 153, 326, 216
-0.996089, 315, 177, 330, 240
-0.996133, 461, 17, 476, 80
-0.99614, 209, 237, 336, 268
-0.996142, 427, 49, 442, 112
-0.996168, 351, 177, 366, 240
-0.996171, 225, 193, 352, 224
-0.996173, 217, 81, 280, 144
-0.996173, 55, 233, 70, 296
-0.996177, 461, 49, 476, 112
-0.996189, 317, 249, 332, 312
-0.99619, 83, 233, 98, 296
-0.996193, 213, 129, 228, 192
-0.996196, 257, 229, 384, 260
-0.9962, 205, 81, 220, 144
-0.996202, 287, 49, 302, 112
-0.996205, 209, 177, 224, 240
-0.996221, 473, 57, 488, 120
-0.996264, 63, 233, 78, 296
-0.996272, 455, 9, 470, 72
-0.996276, 65, 273, 320, 336
-0.996279, 473, 9, 488, 72
-0.996285, 299, 49, 314, 112
-0.996299, 337, 265, 464, 328
-0.9963, 195, 113, 210, 176
-0.996303, 247, 25, 262, 88
-0.996318, 309, 1, 340, 256
-0.996338, 177, 65, 208, 320
-0.996351, 337, 1, 352, 64
-0.996352, 25, 233, 40, 296
-0.996363, 329, 1, 344, 64
-0.996365, 337, 153, 352, 216
-0.996367, 361, 41, 376, 104
-0.99637, 377, 41, 392, 104
-0.996371, 193, 81, 320, 112
-0.996388, 97, 41, 224, 72
-0.996391, 49, 353, 176, 416
-0.996401, 337, 145, 400, 208
-0.996424, 209, 65, 240, 320
-0.996435, 33, 97, 288, 160
-0.996468, 137, 281, 200, 344
-0.996487, 193, 205, 320, 236
-0.996487, 209, 137, 336, 168
-0.996515, 209, 125, 336, 156
-0.996531, 177, 101, 304, 132
-0.99657, 225, 261, 352, 292
-0.996596, 285, 1, 316, 256
-0.996599, 305, 261, 432, 292
-0.996599, 1, 53, 128, 84
-0.996646, 113, 221, 240, 252
-0.996672, 33, 37, 160, 68
-0.996679, 197, 1, 228, 256
-0.996693, 321, 73, 384, 136
-0.996722, 177, 273, 240, 400
-0.996735, 305, 189, 432, 220
-0.996761, 185, 109, 200, 140
-0.996778, 301, 129, 332, 384
-0.996808, 289, 169, 416, 200
-0.996809, 209, 113, 336, 144
-0.99682, 161, 245, 288, 276
-0.996822, 257, 201, 500, 264
-0.996839, 1, 353, 128, 416
-0.996857, 249, 229, 264, 260
-0.996917, 289, 249, 416, 280
-0.996923, 177, 289, 304, 352
-0.996934, 297, 1, 328, 256
-0.996935, 97, 133, 224, 164
-0.996964, 369, 89, 496, 152
-0.996972, 305, 13, 432, 44
-0.996974, 145, 337, 272, 400
-0.997011, 1, 329, 128, 392
-0.997019, 193, 97, 224, 352
-0.997021, 209, 249, 336, 280
-0.997027, 33, 73, 288, 136
-0.997031, 221, 65, 252, 320
-0.997038, 17, 265, 144, 296
-0.997048, 269, 1, 300, 256
-0.997129, 261, 129, 292, 384
-0.99714, 321, 1, 352, 256
-0.99714, 333, 161, 364, 416
-0.997145, 257, 225, 500, 288
-0.997151, 193, 105, 208, 136
-0.997155, 233, 129, 264, 384
-0.997173, 257, 149, 384, 180
-0.997186, 233, 45, 248, 76
-0.997206, 1, 137, 500, 200
-0.997211, 305, 57, 432, 88
-0.997223, 243, 217, 258, 248
-0.997232, 337, 161, 464, 224
-0.997236, 255, 237, 270, 268
-0.997251, 81, 237, 208, 268
-0.997259, 161, 65, 288, 96
-0.997261, 129, 265, 256, 296
-0.997269, 65, 277, 192, 308
-0.997282, 295, 49, 310, 80
-0.997288, 219, 145, 234, 176
-0.997292, 235, 229, 250, 260
-0.997295, 209, 225, 336, 256
-0.997304, 225, 273, 480, 336
-0.997306, 65, 137, 192, 200
-0.997318, 81, 121, 208, 152
-0.997318, 337, 221, 464, 252
-0.997325, 257, 273, 384, 304
-0.997342, 289, 213, 416, 244
-0.997352, 243, 229, 258, 260
-0.997363, 65, 61, 192, 92
-0.99737, 165, 65, 196, 320
-0.997385, 65, 225, 192, 256
-0.997388, 241, 33, 272, 288
-0.9974, 17, 353, 80, 416
-0.997409, 179, 113, 194, 144
-0.997417, 415, 1, 430, 32
-0.997417, 305, 73, 432, 104
-0.997426, 33, 289, 96, 416
-0.997426, 1, 1, 128, 32
-0.997431, 211, 1, 226, 32
-0.997431, 289, 49, 304, 80
-0.997458, 129, 101, 256, 132
-0.997467, 257, 153, 500, 216
-0.997472, 181, 185, 196, 216
-0.997525, 219, 201, 234, 232
-0.99754, 25, 329, 88, 392
-0.99754, 187, 153, 202, 184
-0.997544, 225, 61, 240, 92
-0.997559, 413, 49, 428, 80
-0.99756, 229, 233, 244, 264
-0.997561, 213, 57, 228, 88
-0.997584, 439, 13, 454, 44
-0.99759, 263, 5, 278, 36
-0.997607, 171, 117, 186, 148
-0.997613, 477, 1, 492, 32
-0.997616, 221, 49, 236, 80
-0.997622, 161, 1, 176, 32
-0.997624, 477, 41, 492, 72
-0.997633, 253, 33, 284, 288
-0.997638, 309, 165, 324, 196
-0.997641, 183, 169, 198, 200
-0.997649, 223, 33, 238, 64
-0.997649, 191, 117, 206, 148
-0.997656, 241, 33, 256, 64
-0.997657, 425, 1, 440, 32
-0.997666, 201, 149, 216, 180
-0.997669, 153, 1, 184, 256
-0.997687, 233, 29, 248, 60
-0.997687, 221, 161, 252, 416
-0.997689, 305, 273, 432, 304
-0.99769, 321, 173, 336, 204
-0.997693, 333, 65, 364, 320
-0.997705, 255, 225, 270, 256
-0.997716, 201, 97, 216, 128
-0.997739, 217, 1, 232, 32
-0.99774, 185, 121, 200, 152
-0.997745, 241, 53, 256, 84
-0.997745, 273, 201, 400, 232
-0.997746, 323, 193, 338, 224
-0.997758, 445, 25, 460, 56
-0.997759, 249, 217, 264, 248
-0.997768, 285, 161, 316, 416
-0.997774, 249, 129, 280, 384
-0.997787, 203, 21, 218, 52
-0.997801, 195, 149, 210, 180
-0.997802, 449, 13, 464, 44
-0.997804, 483, 45, 498, 76
-0.997808, 257, 105, 500, 168
-0.997825, 307, 49, 322, 80
-0.997837, 215, 109, 230, 140
-0.997846, 403, 49, 418, 80
-0.99785, 331, 265, 346, 296
-0.997852, 321, 201, 448, 232
-0.997856, 163, 21, 178, 52
-0.997856, 259, 49, 274, 80
-0.997858, 209, 13, 224, 44
-0.997859, 29, 241, 44, 272
-0.997861, 439, 25, 454, 56
-0.997867, 273, 129, 304, 384
-0.99787, 249, 45, 264, 76
-0.99787, 437, 37, 452, 68
-0.997874, 97, 201, 224, 232
-0.997879, 221, 237, 236, 268
-0.99788, 213, 145, 228, 176
-0.997882, 451, 45, 466, 76
-0.997884, 283, 53, 298, 84
-0.997899, 157, 13, 172, 44
-0.997904, 289, 89, 416, 120
-0.997906, 417, 13, 432, 44
-0.997909, 179, 133, 194, 164
-0.99791, 337, 249, 464, 280
-0.997913, 113, 181, 240, 212
-0.997918, 301, 49, 316, 80
-0.997921, 101, 1, 132, 256
-0.997923, 471, 45, 486, 76
-0.997923, 45, 1, 76, 256
-0.997928, 155, 1, 170, 32
-0.997956, 193, 177, 208, 208
-0.997961, 183, 197, 198, 228
-0.997963, 315, 257, 330, 288
-0.99797, 267, 21, 282, 52
-0.997974, 221, 109, 236, 140
-0.997975, 395, 45, 410, 76
-0.99798, 349, 177, 364, 208
-0.997984, 311, 145, 326, 176
-0.997985, 465, 1, 496, 256
-0.997988, 193, 25, 208, 56
-0.997991, 227, 49, 242, 80
-0.997994, 311, 89, 326, 120
-0.997999, 255, 21, 270, 52
-0.998004, 113, 157, 240, 188
-0.998004, 1, 273, 500, 336
-0.998008, 235, 201, 250, 232
-0.998009, 329, 29, 344, 60
-0.99801, 257, 137, 384, 168
-0.998011, 137, 45, 152, 76
-0.998013, 287, 37, 302, 68
-0.998013, 227, 21, 242, 52
-0.99802, 261, 237, 276, 268
-0.998021, 207, 145, 222, 176
-0.998022, 247, 9, 262, 40
-0.998022, 215, 41, 230, 72
-0.998026, 305, 157, 432, 188
-0.998034, 313, 49, 328, 80
-0.998037, 451, 25, 466, 56
-0.998045, 17, 25, 144, 56
-0.998045, 107, 17, 122, 48
-0.998046, 337, 233, 464, 264
-0.998051, 457, 37, 472, 68
-0.998052, 183, 213, 198, 244
-0.998053, 335, 157, 350, 188
-0.998055, 239, 21, 254, 52
-0.998056, 1, 113, 500, 176
-0.99806, 445, 37, 460, 68
-0.998078, 305, 137, 432, 168
-0.998079, 277, 49, 292, 80
-0.998081, 81, 261, 208, 292
-0.998085, 179, 153, 194, 184
-0.998086, 483, 1, 498, 32
-0.998087, 229, 157, 244, 188
-0.998094, 319, 49, 334, 80
-0.998101, 161, 277, 288, 308
-0.998107, 321, 17, 336, 48
-0.998116, 209, 273, 336, 304
-0.998118, 81, 109, 208, 140
-0.99812, 231, 181, 246, 212
-0.998124, 405, 1, 436, 256
-0.998124, 207, 53, 222, 84
-0.998132, 79, 49, 94, 80
-0.998134, 187, 141, 202, 172
-0.998138, 71, 53, 86, 84
-0.99814, 265, 37, 280, 68
-0.998145, 33, 1, 64, 256
-0.99815, 485, 85, 500, 116
-0.998151, 475, 85, 490, 116
-0.998153, 329, 49, 344, 80
-0.998159, 61, 1, 92, 256
-0.998164, 163, 125, 178, 156
-0.998171, 295, 61, 310, 92
-0.998171, 5, 1, 36, 256
-0.998177, 273, 9, 288, 40
-0.998179, 43, 45, 58, 76
-0.998187, 483, 61, 498, 92
-0.998188, 475, 13, 490, 44
-0.998194, 221, 73, 236, 104
-0.998197, 207, 81, 222, 112
-0.998203, 321, 133, 336, 164
-0.998205, 379, 25, 394, 56
-0.998213, 315, 185, 330, 216
-0.998214, 467, 33, 482, 64
-0.998218, 73, 161, 104, 416
-0.99822, 185, 21, 200, 52
-0.998221, 329, 189, 344, 220
-0.998223, 329, 201, 344, 232
-0.998223, 191, 165, 206, 196
-0.998226, 369, 345, 496, 408
-0.998242, 257, 345, 384, 408
-0.998247, 453, 1, 484, 256
-0.998287, 369, 77, 496, 108
-0.998288, 369, 1, 400, 256
-0.998289, 241, 77, 368, 108
-0.998326, 1, 353, 256, 416
-0.998339, 113, 89, 240, 120
-0.998342, 33, 249, 160, 280
-0.998349, 381, 1, 412, 256
-0.998355, 17, 65, 144, 96
-0.998386, 449, 41, 480, 56
-0.998387, 205, 143, 236, 158
-0.998387, 105, 241, 136, 256
-0.998389, 93, 239, 124, 254
-0.998389, 389, 21, 420, 36
-0.998391, 177, 213, 208, 228
-0.998392, 445, 49, 476, 64
-0.998392, 241, 89, 368, 120
-0.998392, 457, 87, 488, 102
-0.998394, 313, 163, 344, 178
-0.998394, 405, 1, 436, 16
-0.998394, 337, 185, 368, 200
-0.998394, 453, 35, 484, 50
-0.998394, 233, 65, 264, 80
-0.998396, 217, 161, 248, 176
-0.998396, 237, 179, 268, 194
-0.998396, 349, 161, 380, 416
-0.998397, 193, 63, 224, 78
-0.998401, 257, 63, 288, 78
-0.998402, 209, 15, 240, 30
-0.998402, 453, 17, 484, 32
-0.998403, 209, 161, 240, 416
-0.998404, 261, 27, 292, 42
-0.998404, 337, 23, 368, 38
-0.998405, 177, 225, 208, 240
-0.998406, 397, 49, 428, 64
-0.998407, 321, 173, 352, 188
-0.998407, 45, 57, 76, 72
-0.998407, 393, 59, 424, 74
-0.998408, 181, 173, 212, 188
-0.998409, 197, 201, 228, 216
-0.998411, 213, 47, 244, 62
-0.998412, 437, 41, 468, 56
-0.998413, 385, 49, 416, 64
-0.998415, 285, 59, 316, 74
-0.998418, 241, 17, 272, 32
-0.998418, 345, 1, 376, 256
-0.998419, 353, 97, 416, 352
-0.998419, 337, 179, 368, 194
-0.998419, 305, 91, 336, 106
-0.99842, 401, 21, 432, 36
-0.99842, 225, 7, 256, 22
-0.998421, 205, 115, 236, 130
-0.998422, 193, 25, 224, 40
-0.998422, 269, 3, 300, 18
-0.998423, 453, 11, 484, 26
-0.998424, 33, 241, 64, 256
-0.998424, 453, 29, 484, 44
-0.998424, 177, 195, 208, 210
-0.998424, 269, 9, 300, 24
-0.998425, 177, 207, 208, 222
-0.998425, 209, 203, 240, 218
-0.998425, 33, 57, 64, 72
-0.998425, 189, 193, 220, 208
-0.998427, 465, 1, 496, 16
-0.998427, 173, 161, 204, 416
-0.998427, 321, 29, 352, 44
-0.998428, 205, 109, 236, 124
-0.998429, 417, 1, 448, 256
-0.998431, 81, 237, 112, 252
-0.998432, 209, 35, 272, 50
-0.998432, 189, 123, 220, 138
-0.998433, 197, 5, 228, 20
-0.998434, 13, 243, 44, 258
-0.998437, 157, 61, 188, 76
-0.998438, 433, 15, 464, 30
-0.998438, 309, 259, 340, 274
-0.99844, 245, 249, 276, 264
-0.998443, 313, 145, 344, 160
-0.998444, 309, 27, 340, 42
-0.998446, 469, 87, 500, 102
-0.998446, 233, 225, 264, 240
-0.998446, 461, 51, 492, 66
-0.998447, 205, 59, 236, 74
-0.998447, 177, 179, 208, 194
-0.998447, 421, 53, 452, 68
-0.998447, 193, 151, 224, 166
-0.998449, 325, 23, 356, 38
-0.99845, 45, 239, 76, 254
-0.998451, 17, 57, 48, 72
-0.998452, 409, 53, 440, 68
-0.998452, 217, 239, 248, 254
-0.998452, 221, 65, 252, 80
-0.998452, 417, 1, 432, 128
-0.998453, 257, 241, 288, 256
-0.998454, 241, 27, 272, 42
-0.998454, 217, 235, 280, 250
-0.998457, 233, 55, 296, 70
-0.998459, 225, 19, 288, 34
-0.998459, 249, 1, 280, 16
-0.99846, 177, 219, 208, 234
-0.99846, 149, 1, 180, 16
-0.99846, 309, 51, 340, 66
-0.998461, 225, 27, 256, 42
-0.998462, 433, 29, 464, 44
-0.998462, 201, 7, 264, 22
-0.998463, 209, 29, 272, 44
-0.998463, 413, 17, 444, 32
-0.998463, 165, 115, 196, 130
-0.998464, 177, 155, 208, 170
-0.998467, 203, 17, 218, 144
-0.998467, 185, 151, 248, 166
-0.998467, 209, 353, 336, 416
-0.998467, 253, 15, 284, 30
-0.998469, 177, 201, 208, 216
-0.998471, 253, 55, 284, 70
-0.998471, 301, 169, 332, 184
-0.998472, 245, 33, 276, 48
-0.998473, 137, 33, 168, 288
-0.998474, 161, 25, 192, 40
-0.998474, 237, 43, 268, 58
-0.998475, 1, 13, 128, 44
-0.998476, 437, 21, 468, 36
-0.998477, 169, 137, 200, 152
-0.998477, 317, 179, 348, 194
-0.998478, 209, 45, 272, 60
-0.998479, 245, 243, 276, 258
-0.998479, 273, 59, 304, 74
-0.998481, 305, 179, 368, 194
-0.998481, 161, 121, 224, 136
-0.998482, 437, 35, 468, 50
-0.998484, 409, 15, 472, 30
-0.998486, 9, 241, 72, 256
-0.998487, 421, 1, 452, 16
-0.998488, 245, 233, 276, 248
-0.99849, 145, 77, 272, 108
-0.99849, 169, 201, 232, 216
-0.998491, 273, 53, 304, 68
-0.998491, 177, 187, 208, 202
-0.998492, 201, 59, 264, 74
-0.998492, 221, 33, 252, 48
-0.998493, 421, 11, 452, 26
-0.998493, 177, 121, 208, 136
-0.998495, 253, 21, 284, 36
-0.998496, 193, 203, 256, 218
-0.998496, 209, 9, 240, 24
-0.9985, 241, 49, 272, 64
-0.998501, 225, 13, 288, 28
-0.998502, 189, 117, 220, 132
-0.998502, 165, 131, 196, 146
-0.998504, 245, 227, 276, 242
-0.998504, 169, 113, 232, 128
-0.998505, 281, 51, 344, 66
-0.998506, 217, 59, 248, 74
-0.998506, 233, 27, 296, 42
-0.998508, 197, 101, 228, 116
-0.998511, 185, 105, 248, 120
-0.998511, 161, 141, 224, 156
-0.998513, 461, 57, 492, 72
-0.998515, 113, 1, 144, 256
-0.998516, 253, 7, 284, 22
-0.998516, 177, 109, 208, 124
-0.998516, 217, 1, 280, 16
-0.998516, 225, 289, 352, 320
-0.998517, 433, 57, 496, 72
-0.998518, 405, 1, 420, 128
-0.998519, 273, 169, 336, 184
-0.998522, 49, 237, 112, 252
-0.998524, 17, 1, 48, 256
-0.99853, 229, 49, 260, 64
-0.998532, 289, 51, 320, 66
-0.998535, 425, 39, 488, 54
-0.998536, 297, 173, 360, 188
-0.998536, 189, 17, 204, 144
-0.998537, 273, 61, 336, 76
-0.998538, 169, 63, 232, 78
-0.998538, 1, 81, 500, 144
-0.99854, 193, 107, 224, 122
-0.998542, 217, 241, 280, 256
-0.998544, 393, 23, 456, 38
-0.998545, 313, 185, 376, 200
-0.998545, 195, 17, 210, 144
-0.998547, 153, 127, 216, 142
-0.998547, 209, 229, 272, 244
-0.998547, 409, 1, 472, 16
-0.998547, 167, 1, 182, 128
-0.998547, 325, 271, 356, 286
-0.998547, 249, 61, 312, 76
-0.998548, 181, 97, 196, 224
-0.99855, 201, 219, 264, 234
-0.99855, 185, 21, 248, 36
-0.998551, 257, 51, 320, 66
-0.998551, 177, 27, 240, 42
-0.998552, 249, 41, 312, 56
-0.998553, 297, 165, 360, 180
-0.998554, 217, 53, 248, 68
-0.998554, 217, 151, 280, 166
-0.998555, 113, 7, 176, 22
-0.998557, 257, 3, 320, 18
-0.998557, 433, 33, 496, 48
-0.998558, 395, 1, 410, 128
-0.99856, 289, 113, 416, 144
-0.99856, 409, 7, 472, 22
-0.998561, 233, 59, 264, 74
-0.998562, 233, 237, 264, 252
-0.998564, 17, 247, 80, 262
-0.998565, 153, 25, 216, 40
-0.998566, 169, 233, 232, 248
-0.998566, 225, 61, 288, 76
-0.99857, 321, 21, 384, 36
-0.99857, 25, 265, 88, 280
-0.998571, 169, 221, 232, 236
-0.998571, 161, 135, 224, 150
-0.998571, 177, 195, 240, 210
-0.998571, 201, 213, 264, 228
-0.998572, 185, 53, 248, 68
-0.998573, 175, 17, 190, 144
-0.998574, 385, 17, 448, 32
-0.998575, 297, 29, 360, 44
-0.998577, 209, 143, 272, 158
-0.998578, 265, 179, 328, 194
-0.998578, 233, 47, 296, 62
-0.998578, 249, 19, 312, 34
-0.998579, 209, 53, 272, 68
-0.998579, 393, 53, 456, 68
-0.998581, 233, 33, 296, 48
-0.998582, 377, 1, 440, 16
-0.998583, 169, 207, 232, 222
-0.998583, 17, 57, 80, 72
-0.998584, 213, 1, 244, 16
-0.998584, 305, 51, 368, 66
-0.998585, 185, 119, 248, 134
-0.998585, 433, 17, 496, 32
-0.998586, 153, 155, 216, 170
-0.998586, 201, 13, 264, 28
-0.998586, 297, 159, 360, 174
-0.998587, 225, 7, 288, 22
-0.998588, 153, 1, 168, 128
-0.998588, 411, 1, 426, 128
-0.998589, 205, 149, 236, 164
-0.99859, 383, 1, 398, 128
-0.99859, 257, 9, 320, 24
-0.998592, 211, 1, 226, 128
-0.998592, 217, 67, 280, 82
-0.998592, 193, 1, 256, 16
-0.998592, 137, 61, 200, 76
-0.998593, 425, 45, 488, 60
-0.998593, 41, 57, 104, 72
-0.998594, 165, 121, 196, 136
-0.998595, 345, 27, 408, 42
-0.998595, 145, 15, 208, 30
-0.998596, 265, 29, 328, 44
-0.998596, 113, 19, 176, 34
-0.998597, 185, 161, 248, 176
-0.998598, 297, 153, 360, 168
-0.998598, 313, 271, 376, 286
-0.998598, 177, 175, 240, 190
-0.998599, 73, 239, 136, 254
-0.998603, 177, 227, 240, 242
-0.998604, 337, 177, 464, 208
-0.998605, 177, 181, 240, 196
-0.998606, 177, 239, 240, 254
-0.998607, 221, 203, 252, 218
-0.998607, 321, 27, 384, 42
-0.998608, 169, 5, 232, 20
-0.998608, 389, 1, 404, 128
-0.998609, 217, 247, 280, 262
-0.998612, 289, 23, 352, 38
-0.998612, 361, 47, 424, 62
-0.998614, 217, 177, 280, 192
-0.998615, 361, 19, 424, 34
-0.998615, 169, 215, 232, 230
-0.998617, 145, 113, 208, 128
-0.998618, 177, 169, 240, 184
-0.998619, 113, 63, 176, 78
-0.99862, 409, 31, 472, 46
-0.99862, 121, 1, 184, 16
-0.99862, 329, 49, 392, 64
-0.99862, 401, 43, 464, 58
-0.998621, 241, 225, 304, 240
-0.998622, 217, 157, 280, 172
-0.998623, 425, 51, 488, 66
-0.998624, 313, 277, 376, 292
-0.998624, 185, 99, 248, 114
-0.998626, 193, 113, 256, 128
-0.998627, 409, 59, 472, 74
-0.998628, 305, 285, 432, 316
-0.998629, 65, 213, 192, 244
-0.99863, 169, 33, 232, 48
-0.998631, 209, 73, 272, 88
-0.998631, 385, 11, 448, 26
-0.998631, 233, 171, 296, 186
-0.998632, 313, 203, 376, 218
-0.998632, 433, 25, 496, 40
-0.998633, 289, 271, 352, 286
-0.998633, 289, 147, 352, 162
-0.998633, 113, 13, 176, 28
-0.998634, 169, 187, 232, 202
-0.998636, 145, 1, 208, 16
-0.998637, 17, 225, 144, 256
-0.998638, 241, 241, 304, 256
-0.998639, 185, 133, 248, 148
-0.998647, 159, 1, 174, 128
-0.998653, 353, 129, 416, 256
-0.998657, 359, 1, 374, 128
-0.998661, 353, 1, 368, 128
-0.998666, 233, 231, 264, 246
-0.998673, 145, 1, 160, 128
-0.998674, 253, 1, 268, 128
-0.998681, 177, 115, 208, 130
-0.998681, 339, 1, 354, 128
-0.998684, 221, 1, 236, 128
-0.998689, 65, 189, 192, 220
-0.998693, 371, 1, 386, 128
-0.998696, 377, 1, 392, 128
-0.998703, 365, 1, 380, 128
-0.998705, 85, 161, 116, 416
-0.998707, 243, 1, 258, 128
-0.99871, 345, 1, 360, 128
-0.998716, 181, 1, 196, 128
-0.998726, 393, 1, 424, 256
-0.998735, 113, 169, 240, 200
-0.998746, 315, 81, 330, 208
-0.998749, 189, 113, 204, 240
-0.998752, 357, 1, 388, 256
-0.99876, 183, 49, 198, 176
-0.998766, 1, 309, 128, 340
-0.99877, 1, 169, 128, 232
-0.998775, 227, 193, 242, 320
-0.998783, 211, 81, 226, 208
-0.998784, 245, 209, 260, 336
-0.998784, 221, 193, 236, 320
-0.998804, 449, 1, 464, 128
-0.998815, 221, 129, 236, 256
-0.998821, 197, 65, 212, 192
-0.998837, 473, 1, 488, 128
-0.998844, 321, 1, 336, 128
-0.99885, 181, 145, 196, 272
-0.998852, 129, 357, 256, 388
-0.998861, 323, 129, 338, 256
-0.998862, 1, 289, 128, 320
-0.998885, 215, 129, 230, 256
-0.998892, 423, 1, 438, 128
-0.998894, 437, 1, 468, 256
-0.998894, 331, 1, 346, 128
-0.998896, 439, 1, 454, 128
-0.998897, 125, 33, 156, 288
-0.998909, 289, 125, 416, 156
-0.998924, 225, 101, 352, 132
-0.998928, 203, 81, 218, 208
-0.998943, 65, 173, 192, 204
-0.998945, 239, 193, 254, 320
-0.998946, 169, 49, 184, 176
-0.998968, 237, 1, 252, 128
-0.998973, 61, 161, 92, 416
-0.998973, 231, 1, 246, 128
-0.998976, 265, 1, 280, 128
-0.998977, 369, 89, 496, 120
-0.998978, 171, 113, 186, 240
-0.998983, 273, 101, 400, 132
-0.998986, 347, 209, 362, 336
-0.998992, 315, 17, 330, 144
-0.998995, 139, 1, 154, 128
-0.998999, 177, 261, 304, 292
-0.999003, 161, 161, 192, 416
-0.999009, 289, 321, 416, 384
-0.999017, 271, 1, 286, 128
-0.999024, 309, 1, 324, 128
-0.999031, 161, 49, 176, 176
-0.999037, 251, 225, 266, 352
-0.999044, 65, 349, 192, 380
-0.999046, 217, 81, 232, 208
-0.99905, 277, 1, 292, 128
-0.999051, 215, 193, 230, 320
-0.999062, 337, 193, 352, 320
-0.999063, 309, 113, 324, 240
-0.999068, 479, 1, 494, 128
-0.99907, 43, 225, 58, 352
-0.999072, 317, 129, 332, 256
-0.999075, 459, 1, 474, 128
-0.999088, 209, 129, 224, 256
-0.999092, 321, 81, 336, 208
-0.999092, 329, 129, 344, 256
-0.999097, 233, 177, 248, 304
-0.999102, 175, 65, 190, 192
-0.999107, 467, 1, 482, 128
-0.999109, 303, 1, 318, 128
-0.99912, 1, 65, 128, 192
-0.999122, 75, 225, 90, 352
-0.999131, 191, 65, 206, 192
-0.999131, 113, 225, 128, 352
-0.999134, 309, 65, 324, 192
-0.999135, 227, 129, 242, 256
-0.999137, 83, 225, 98, 352
-0.999137, 69, 225, 84, 352
-0.999154, 89, 1, 120, 256
-0.999157, 355, 177, 370, 304
-0.999161, 433, 1, 448, 128
-0.999173, 291, 1, 306, 128
-0.999174, 91, 225, 106, 352
-0.99918, 223, 49, 238, 176
-0.999183, 51, 225, 66, 352
-0.999187, 329, 177, 344, 304
-0.999196, 107, 225, 122, 352
-0.999202, 49, 161, 80, 416
-0.999203, 105, 1, 120, 128
-0.999213, 63, 225, 78, 352
-0.99922, 97, 225, 112, 352
-0.999232, 327, 49, 342, 176
-0.999239, 11, 1, 26, 128
-0.999244, 119, 225, 134, 352
-0.999248, 315, 177, 330, 304
-0.99925, 1, 1, 16, 128
-0.99925, 1, 333, 128, 364
-0.999256, 17, 277, 144, 308
-0.99926, 241, 145, 256, 272
-0.99926, 179, 193, 194, 320
-0.999266, 125, 225, 140, 352
-0.999267, 285, 1, 300, 128
-0.999272, 195, 113, 210, 240
-0.999277, 37, 225, 52, 352
-0.999278, 353, 65, 480, 96
-0.999283, 27, 1, 42, 128
-0.999283, 353, 225, 368, 352
-0.999283, 307, 241, 322, 368
-0.999287, 297, 17, 312, 144
-0.99929, 349, 161, 364, 288
-0.999296, 207, 193, 222, 320
-0.999297, 57, 225, 72, 352
-0.999299, 193, 373, 320, 404
-0.999301, 133, 1, 148, 128
-0.999302, 461, 49, 476, 176
-0.999303, 259, 17, 274, 144
-0.999304, 303, 97, 318, 224
-0.999305, 17, 365, 144, 396
-0.999307, 29, 209, 44, 336
-0.999316, 41, 1, 56, 128
-0.999318, 477, 49, 492, 176
-0.999321, 113, 281, 240, 312
-0.999325, 343, 161, 358, 288
-0.999327, 1, 345, 128, 376
-0.999329, 111, 1, 126, 128
-0.999329, 151, 49, 166, 176
-0.999337, 201, 129, 216, 256
-0.999343, 323, 177, 338, 304
-0.999344, 117, 1, 132, 128
-0.999345, 131, 225, 146, 352
-0.999345, 173, 209, 188, 336
-0.999349, 255, 177, 270, 304
-0.999355, 235, 113, 250, 240
-0.999359, 189, 193, 204, 320
-0.999363, 139, 225, 154, 352
-0.999394, 177, 289, 304, 320
-0.999403, 1, 313, 256, 376
-0.999418, 337, 289, 464, 352
-0.99953, 97, 161, 128, 416
-0.999537, 73, 1, 104, 256
-0.999595, 417, 1, 432, 16
-0.999595, 453, 21, 468, 36
-0.999596, 221, 153, 236, 168
-0.999597, 39, 241, 54, 256
-0.999597, 337, 165, 352, 180
-0.999598, 187, 115, 202, 130
-0.999598, 171, 133, 186, 148
-0.999599, 211, 147, 226, 162
-0.9996, 43, 57, 58, 72
-0.9996, 247, 59, 262, 74
-0.9996, 307, 261, 322, 276
-0.999601, 185, 171, 200, 186
-0.999601, 317, 91, 332, 106
-0.999601, 295, 67, 310, 82
-0.999602, 205, 151, 220, 166
-0.999602, 213, 111, 228, 126
-0.999602, 231, 27, 246, 42
-0.999604, 223, 113, 238, 128
-0.999604, 265, 55, 280, 70
-0.999605, 301, 51, 316, 66
-0.999605, 483, 7, 498, 22
-0.999606, 259, 53, 274, 68
-0.999606, 247, 11, 262, 26
-0.999607, 309, 95, 324, 110
-0.999607, 475, 15, 490, 30
-0.999607, 279, 53, 294, 68
-0.999607, 37, 57, 52, 72
-0.999608, 189, 27, 204, 42
-0.999608, 251, 17, 266, 32
-0.999608, 483, 1, 498, 16
-0.999609, 483, 61, 498, 76
-0.999609, 275, 61, 290, 76
-0.99961, 307, 51, 322, 66
-0.99961, 335, 269, 350, 284
-0.99961, 445, 15, 460, 30
-0.99961, 195, 187, 210, 202
-0.999611, 165, 61, 180, 76
-0.999611, 319, 259, 334, 274
-0.999612, 185, 127, 200, 142
-0.999612, 155, 21, 170, 36
-0.999613, 191, 193, 206, 208
-0.999613, 439, 19, 454, 34
-0.999613, 477, 7, 492, 22
-0.999614, 233, 33, 248, 48
-0.999615, 329, 29, 344, 44
-0.999615, 213, 103, 228, 118
-0.999615, 273, 53, 288, 68
-0.999616, 295, 61, 310, 76
-0.999617, 229, 61, 244, 76
-0.999618, 329, 21, 344, 36
-0.999619, 185, 155, 200, 170
-0.99962, 285, 67, 300, 82
-0.99962, 323, 25, 338, 40
-0.99962, 455, 29, 470, 44
-0.999622, 463, 57, 478, 72
-0.999623, 317, 177, 332, 192
-0.999623, 27, 57, 42, 72
-0.999623, 49, 239, 64, 254
-0.999624, 473, 51, 488, 66
-0.999627, 263, 1, 278, 16
-0.999628, 181, 181, 196, 196
-0.999629, 199, 181, 214, 196
-0.999629, 405, 59, 420, 74
-0.99963, 195, 109, 210, 124
-0.999631, 315, 145, 330, 160
-0.999631, 469, 87, 484, 102
-0.999631, 415, 21, 430, 36
-0.999631, 251, 53, 266, 68
-0.999631, 201, 97, 216, 112
-0.999631, 263, 19, 278, 34
-0.999634, 243, 27, 258, 42
-0.999635, 241, 49, 256, 64
-0.999635, 223, 1, 238, 16
-0.999636, 229, 233, 244, 248
-0.999636, 225, 67, 240, 82
-0.999638, 327, 269, 342, 284
-0.999638, 473, 57, 488, 72
-0.999639, 145, 313, 272, 376
-0.99964, 449, 31, 464, 46
-0.999641, 245, 235, 260, 250
-0.999642, 221, 239, 236, 254
-0.999643, 199, 153, 214, 168
-0.999645, 183, 215, 198, 230
-0.999645, 219, 59, 234, 74
-0.999646, 287, 59, 302, 74
-0.999648, 153, 1, 168, 16
-0.999649, 349, 181, 364, 196
-0.999651, 233, 201, 248, 216
-0.999651, 429, 1, 444, 16
-0.999653, 441, 29, 456, 44
-0.999653, 467, 51, 482, 66
-0.999653, 197, 103, 212, 118
-0.999654, 245, 221, 260, 236
-0.999655, 219, 107, 234, 122
-0.999657, 189, 187, 204, 202
-0.999658, 237, 27, 252, 42
-0.999659, 413, 53, 428, 68
-0.999661, 285, 51, 300, 66
-0.999661, 167, 121, 182, 136
-0.999663, 163, 25, 178, 40
-0.999666, 161, 3, 176, 18
-0.999668, 361, 161, 392, 416
-0.99967, 239, 37, 254, 52
-0.99967, 227, 55, 242, 70
-0.99967, 211, 13, 226, 28
-0.999671, 211, 5, 226, 20
-0.999672, 445, 21, 460, 36
-0.999672, 293, 49, 308, 64
-0.999673, 181, 187, 196, 202
-0.999673, 189, 121, 204, 136
-0.999679, 241, 59, 256, 74
-0.999681, 211, 59, 226, 74
-0.999687, 181, 119, 196, 134
-0.999689, 219, 203, 234, 218
-0.999694, 1, 145, 128, 208
-0.9997, 249, 241, 264, 256
-0.999703, 313, 257, 328, 272
-0.999708, 235, 231, 250, 246
-0.999708, 235, 57, 250, 72
-0.999709, 251, 233, 266, 248
-0.999713, 233, 49, 248, 64
-0.999718, 227, 239, 242, 254
-0.99972, 217, 145, 232, 160
-0.99973, 477, 1, 492, 16
-0.99974, 181, 195, 196, 210
-0.999761, 249, 227, 264, 242
-0.999763, 257, 237, 272, 252
-0.999766, 217, 1, 232, 16
-0.999774, 189, 109, 204, 124
-0.999777, 193, 115, 208, 130
-0.999802, 181, 113, 196, 128
-0.999806, 241, 229, 256, 244
-0.999807, 257, 243, 272, 258
-0.999841, 1, 161, 64, 416
-0.999942, 321, 353, 448, 416
-0.999949, 97, 345, 352, 408
-1.00003, 361, 257, 424, 384
-1.00005, 353, 129, 480, 256
-1.00006, 109, 129, 140, 384
-1.00014, 33, 81, 160, 144
-1.00017, 97, 305, 224, 368
-1.00022, 37, 161, 68, 416
-1.00024, 193, 321, 320, 384
-1.00028, 1, 161, 32, 416
-1.00036, 121, 129, 152, 384
-1.00038, 129, 321, 384, 384
-1.00046, 149, 129, 180, 384
-1.00047, 373, 161, 404, 416
-1.00049, 337, 313, 464, 376
-1.00053, 133, 129, 164, 384
-1.00058, 385, 97, 416, 352
-1.00065, 193, 345, 448, 408
-1.00066, 241, 321, 368, 384
-1.00068, 257, 313, 500, 376
-1.0007, 25, 161, 56, 416
-1.00073, 13, 161, 44, 416
-1.00076, 97, 297, 352, 360
-1.00086, 1, 297, 500, 360
-1.00097, 369, 225, 496, 352
-1.00109, 465, 97, 496, 352
-1.00111, 445, 97, 476, 352
-1.00115, 17, 113, 144, 176
-1.00126, 353, 273, 480, 400
-1.00129, 353, 137, 480, 200
-1.00129, 425, 97, 456, 352
-1.00136, 369, 193, 496, 256
-1.00138, 405, 97, 436, 352
-1.00184, 49, 185, 176, 248
-1.00213, 377, 97, 440, 352
-1.00221, 369, 113, 496, 176
-1.00239, 1, 345, 500, 408
-1.00252, 1, 321, 500, 384
-1.00457, 33, 145, 96, 272
-1.00487, 17, 97, 80, 224
-1.00519, 377, 161, 440, 288
-1.00578, 17, 129, 144, 256
-1.00594, 401, 273, 464, 400
-1.00599, 417, 97, 480, 352
-1.00658, 209, 289, 272, 416
-1.00805, 385, 209, 448, 336
-1.00808, 433, 289, 496, 416
-1.00824, 433, 241, 496, 368
-1.00877, 425, 113, 488, 240
-1.01007, 385, 97, 448, 224
-1.0111, 409, 209, 472, 336
-1.01114, 417, 161, 480, 288
-1.0114, 97, 129, 160, 256
-1.01143, 41, 97, 104, 224
-1.01166, 65, 97, 128, 224
