1963
-0.411141, 257, 1, 500, 375
-0.461875, 1, 129, 500, 375
-0.523163, 1, 33, 500, 288
-0.581021, 1, 1, 500, 375
-0.627252, 97, 1, 352, 375
-0.681901, 257, 65, 500, 320
-0.80091, 161, 129, 416, 375
-0.822832, 129, 33, 384, 288
-0.842113, 337, 1, 464, 375
-0.864266, 257, 129, 384, 375
-0.86772, 337, 1, 464, 256
-0.879474, 193, 1, 320, 375
-0.881765, 1, 1, 256, 375
-0.8837, 289, 1, 416, 375
-0.885427, 193, 65, 320, 320
-0.894395, 273, 33, 400, 288
-0.899748, 1, 17, 500, 144
-0.901351, 321, 97, 448, 352
-0.903787, 241, 1, 368, 375
-0.904075, 1, 161, 500, 288
-0.909494, 369, 97, 496, 352
-0.925257, 257, 1, 500, 128
-0.925594, 257, 65, 500, 192
-0.937574, 257, 129, 500, 256
-0.940539, 113, 97, 240, 352
-0.941302, 417, 33, 480, 160
-0.9416, 369, 1, 496, 128
-0.941928, 377, 1, 440, 128
-0.943898, 1, 113, 500, 240
-0.944123, 1, 65, 500, 192
-0.944538, 129, 1, 256, 375
-0.945381, 273, 145, 400, 272
-0.947767, 1, 209, 500, 336
-0.948626, 321, 1, 448, 128
-0.949771, 161, 49, 416, 176
-0.950242, 345, 161, 408, 288
-0.951392, 161, 145, 416, 272
-0.952018, 337, 49, 464, 176
-0.952543, 273, 97, 400, 224
-0.95322, 369, 177, 432, 240
-0.953233, 385, 1, 448, 64
-0.954298, 241, 49, 304, 176
-0.954897, 393, 193, 456, 256
-0.95548, 401, 33, 464, 96
-0.955869, 193, 65, 320, 192
-0.956223, 353, 17, 416, 144
-0.956835, 265, 153, 328, 216
-0.956981, 393, 177, 456, 304
-0.958689, 209, 113, 336, 240
-0.958711, 129, 97, 384, 224
-0.959167, 129, 1, 256, 256
-0.959224, 337, 209, 464, 336
-0.960006, 361, 209, 424, 336
-0.960114, 273, 129, 336, 256
-0.960822, 81, 1, 208, 256
-0.960832, 377, 33, 440, 96
-0.96138, 385, 65, 448, 128
-0.961837, 81, 1, 208, 375
-0.96285, 33, 1, 288, 256
-0.962914, 209, 161, 336, 288
-0.963074, 385, 49, 448, 176
-0.963294, 361, 225, 424, 288
-0.964305, 289, 153, 352, 216
-0.964923, 425, 33, 488, 96
-0.965055, 369, 161, 432, 288
-0.965294, 313, 153, 376, 216
-0.965367, 257, 177, 500, 304
-0.966377, 321, 129, 384, 256
-0.967047, 281, 129, 344, 192
-0.967988, 337, 257, 400, 320
-0.968091, 17, 1, 144, 256
-0.968207, 397, 1, 428, 128
-0.968747, 353, 33, 416, 96
-0.968884, 393, 1, 424, 64
-0.969492, 345, 185, 408, 248
-0.969563, 345, 161, 408, 224
-0.969679, 161, 193, 416, 320
-0.969916, 425, 1, 488, 256
-0.969954, 33, 1, 160, 375
-0.970331, 337, 97, 464, 224
-0.970996, 265, 81, 328, 208
-0.971046, 225, 241, 480, 368
-0.97155, 273, 145, 304, 208
-0.971704, 65, 129, 192, 375
-0.971826, 377, 65, 440, 320
-0.971889, 321, 145, 448, 272
-0.971941, 249, 145, 312, 272
-0.972032, 257, 145, 384, 208
-0.972095, 409, 41, 440, 104
-0.972314, 369, 1, 496, 64
-0.972433, 361, 9, 424, 72
-0.972557, 273, 49, 400, 176
-0.973306, 405, 1, 436, 64
-0.973405, 397, 33, 428, 96
-0.97351, 337, 33, 464, 96
-0.974129, 353, 65, 416, 192
-0.97418, 385, 1, 416, 128
-0.97452, 277, 129, 308, 256
-0.97456, 289, 81, 352, 208
-0.974831, 401, 1, 464, 256
-0.974844, 241, 57, 304, 120
-0.97525, 385, 33, 416, 96
-0.975309, 305, 177, 368, 304
-0.976043, 385, 217, 448, 280
-0.976098, 329, 241, 392, 368
-0.976666, 17, 97, 144, 352
-0.976769, 429, 33, 460, 96
-0.976826, 429, 33, 460, 160
-0.977448, 161, 1, 416, 128
-0.977525, 417, 193, 480, 256
-0.977548, 353, 65, 416, 320
-0.977553, 321, 185, 384, 248
-0.977674, 413, 185, 444, 248
-0.977706, 357, 249, 388, 312
-0.977868, 313, 257, 376, 320
-0.977873, 161, 113, 288, 240
-0.977939, 361, 73, 424, 136
-0.977972, 257, 129, 320, 192
-0.977987, 401, 177, 432, 240
-0.978065, 461, 33, 492, 160
-0.978307, 409, 65, 472, 128
-0.978524, 105, 281, 168, 344
-0.978708, 273, 1, 400, 128
-0.9788, 397, 65, 428, 128
-0.978974, 345, 113, 408, 240
-0.979092, 317, 153, 348, 216
-0.979136, 417, 33, 448, 160
-0.979311, 353, 1, 416, 375
-0.979532, 257, 121, 384, 184
-0.979695, 289, 137, 320, 200
-0.979815, 373, 161, 404, 224
-0.979852, 289, 193, 416, 320
-0.980042, 441, 33, 472, 160
-0.980061, 337, 65, 464, 128
-0.980066, 241, 169, 304, 232
-0.980116, 177, 97, 240, 160
-0.980206, 401, 1, 464, 375
-0.980308, 241, 33, 304, 288
-0.98031, 301, 145, 332, 208
-0.980484, 265, 65, 328, 320
-0.980552, 129, 281, 192, 344
-0.980605, 209, 145, 336, 208
-0.980717, 209, 113, 272, 240
-0.980736, 377, 161, 408, 288
-0.980858, 257, 169, 384, 232
-0.980934, 293, 81, 324, 208
-0.981007, 381, 185, 412, 248
-0.981085, 353, 233, 480, 296
-0.981097, 209, 169, 336, 232
-0.981302, 297, 129, 360, 256
-0.98134, 369, 161, 496, 288
-0.981408, 441, 33, 472, 96
-0.981671, 305, 161, 432, 224
-0.981773, 417, 9, 480, 72
-0.981867, 361, 161, 392, 224
-0.981892, 313, 129, 376, 192
-0.981908, 321, 1, 448, 64
-0.981918, 177, 81, 240, 208
-0.982391, 345, 249, 376, 312
-0.982426, 329, 129, 392, 375
-0.982566, 65, 49, 320, 176
-0.982587, 425, 129, 488, 256
-0.982727, 305, 129, 368, 375
-0.982731, 433, 305, 496, 368
-0.982759, 129, 241, 256, 368
-0.982909, 417, 65, 448, 128
-0.983019, 305, 225, 368, 352
-0.983212, 401, 209, 432, 272
-0.983253, 357, 185, 388, 248
-0.983272, 321, 185, 448, 248
-0.98331, 425, 1, 488, 375
-0.983415, 65, 145, 320, 272
-0.983435, 393, 161, 424, 288
-0.983586, 289, 129, 320, 256
-0.983599, 257, 241, 384, 368
-0.983789, 285, 161, 316, 224
-0.983798, 281, 89, 344, 152
-0.983926, 289, 257, 416, 320
-0.984026, 385, 57, 416, 120
-0.984031, 313, 81, 376, 208
-0.984093, 393, 169, 456, 232
-0.984097, 233, 97, 296, 224
-0.984315, 193, 65, 320, 128
-0.984363, 417, 161, 480, 224
-0.984427, 401, 97, 464, 352
-0.984505, 81, 273, 144, 336
-0.984517, 417, 177, 480, 304
-0.98467, 377, 1, 440, 375
-0.984707, 241, 1, 304, 375
-0.984784, 453, 33, 484, 96
-0.984892, 393, 129, 456, 256
-0.984978, 405, 161, 436, 288
-0.985047, 361, 249, 424, 312
-0.985129, 273, 49, 400, 112
-0.985147, 217, 49, 280, 176
-0.985203, 137, 281, 168, 344
-0.985213, 389, 209, 420, 272
-0.985232, 373, 233, 404, 296
-0.985254, 265, 177, 328, 240
-0.985353, 193, 17, 320, 144
-0.985373, 233, 121, 296, 184
-0.985416, 393, 209, 424, 336
-0.985661, 65, 1, 320, 128
-0.985684, 425, 193, 456, 256
-0.985696, 289, 177, 352, 240
-0.985837, 273, 169, 304, 232
-0.986, 273, 81, 304, 208
-0.986328, 369, 153, 432, 216
-0.986342, 193, 121, 320, 184
-0.986469, 321, 1, 384, 375
-0.986544, 281, 177, 344, 304
-0.986583, 369, 185, 496, 248
-0.986592, 113, 113, 240, 240
-0.986672, 217, 33, 280, 288
-0.986734, 297, 169, 328, 232
-0.986751, 257, 97, 384, 160
-0.98679, 337, 233, 400, 296
-0.986803, 113, 305, 176, 368
-0.986904, 193, 209, 320, 336
-0.986923, 353, 145, 384, 272
-0.986955, 145, 65, 272, 192
-0.987043, 445, 9, 476, 72
-0.98708, 381, 9, 412, 72
-0.987161, 341, 153, 372, 216
-0.987188, 301, 161, 332, 288
-0.987262, 329, 33, 392, 288
-0.9873, 397, 49, 428, 176
-0.987318, 65, 129, 320, 375
-0.987366, 469, 33, 500, 96
-0.987448, 305, 233, 368, 296
-0.987514, 329, 17, 392, 144
-0.987554, 373, 1, 404, 128
-0.987555, 345, 137, 408, 200
-0.987643, 209, 89, 272, 152
-0.987667, 261, 161, 292, 288
-0.987669, 393, 233, 424, 296
-0.987708, 129, 193, 256, 320
-0.987723, 337, 177, 368, 240
-0.987794, 241, 81, 304, 144
-0.987837, 257, 73, 384, 136
-0.987859, 385, 225, 448, 352
-0.988065, 261, 169, 292, 232
-0.988098, 265, 161, 328, 192
-0.988164, 281, 1, 344, 375
-0.988181, 313, 145, 344, 272
-0.988183, 129, 241, 384, 368
-0.988188, 289, 33, 352, 160
-0.9882, 337, 57, 400, 120
-0.988229, 33, 97, 288, 224
-0.988257, 305, 137, 432, 200
-0.988328, 369, 209, 496, 272
-0.988491, 337, 257, 464, 320
-0.988515, 369, 113, 432, 240
-0.988696, 305, 209, 432, 272
-0.988781, 337, 89, 464, 152
-0.988841, 369, 185, 400, 248
-0.988878, 393, 65, 456, 96
-0.988965, 193, 89, 320, 152
-0.989061, 365, 193, 396, 320
-0.989079, 417, 177, 448, 304
-0.989209, 289, 161, 352, 192
-0.98923, 289, 33, 352, 288
-0.98924, 257, 233, 384, 296
-0.989267, 341, 177, 372, 304
-0.989296, 385, 197, 448, 228
-0.989367, 49, 241, 176, 368
-0.989461, 329, 153, 360, 216
-0.989556, 361, 181, 424, 212
-0.989627, 281, 149, 344, 180
-0.989792, 217, 65, 280, 128
-0.989899, 277, 121, 308, 184
-0.989926, 321, 161, 384, 192
-0.989937, 373, 33, 404, 96
-0.989971, 225, 145, 288, 208
-0.989989, 337, 1, 400, 64
-0.990016, 401, 1, 464, 32
-0.990147, 345, 257, 408, 288
-0.990209, 401, 41, 464, 72
-0.990272, 373, 209, 404, 272
-0.990314, 393, 77, 456, 108
-0.990345, 325, 145, 356, 272
-0.990352, 385, 217, 448, 248
-0.990434, 377, 37, 440, 68
-0.990471, 365, 145, 396, 272
-0.990487, 49, 273, 176, 336
-0.990539, 333, 265, 364, 328
-0.990553, 273, 173, 336, 204
-0.990557, 257, 137, 500, 200
-0.990568, 65, 193, 320, 320
-0.990604, 417, 1, 448, 64
-0.990619, 385, 185, 448, 216
-0.990624, 281, 249, 344, 312
-0.990627, 353, 193, 416, 224
-0.990644, 125, 281, 156, 344
-0.990657, 429, 65, 460, 128
-0.990659, 413, 209, 444, 272
-0.990675, 345, 169, 408, 200
-0.990726, 433, 241, 496, 368
-0.990772, 361, 225, 392, 288
-0.990805, 369, 77, 432, 108
-0.990827, 361, 205, 424, 236
-0.990871, 369, 65, 432, 96
-0.990904, 361, 221, 424, 252
-0.99093, 425, 41, 488, 72
-0.990937, 329, 193, 392, 224
-0.99095, 289, 25, 416, 88
-0.990959, 361, 233, 424, 264
-0.990992, 377, 9, 440, 40
-0.991058, 193, 33, 256, 160
-0.991069, 469, 169, 500, 232
-0.991103, 297, 173, 360, 204
-0.991123, 249, 1, 312, 128
-0.991141, 289, 113, 320, 176
-0.991147, 329, 269, 392, 300
-0.991174, 177, 193, 304, 256
-0.991196, 385, 21, 448, 52
-0.991214, 385, 229, 448, 260
-0.991265, 321, 181, 384, 212
-0.991275, 341, 241, 372, 368
-0.991278, 105, 257, 168, 320
-0.991304, 241, 153, 304, 184
-0.991307, 369, 257, 400, 320
-0.99131, 385, 53, 448, 84
-0.991361, 105, 285, 168, 316
-0.991409, 57, 265, 120, 328
-0.991422, 305, 261, 368, 292
-0.991467, 249, 173, 312, 204
-0.991506, 429, 9, 460, 72
-0.99156, 353, 33, 416, 64
-0.991617, 417, 73, 480, 104
-0.99167, 321, 149, 384, 180
-0.991718, 389, 161, 420, 224
-0.991726, 417, 205, 480, 236
-0.991757, 241, 69, 304, 100
-0.991766, 129, 297, 192, 328
-0.99178, 89, 305, 152, 368
-0.991781, 97, 281, 224, 344
-0.991799, 369, 137, 496, 200
-0.991809, 433, 1, 496, 32
-0.991811, 353, 53, 416, 84
-0.991894, 369, 257, 432, 288
-0.991928, 289, 65, 352, 128
-0.991981, 241, 81, 304, 112
-0.992002, 433, 57, 496, 120
-0.99204, 281, 157, 312, 188
-0.992085, 433, 329, 496, 360
-0.992096, 345, 21, 408, 52
-0.992112, 409, 193, 440, 224
-0.992135, 433, 29, 496, 60
-0.992139, 321, 165, 352, 196
-0.992168, 129, 285, 192, 316
-0.99217, 409, 193, 472, 224
-0.992186, 145, 1, 272, 128
-0.99219, 401, 181, 432, 212
-0.9922, 345, 73, 408, 104
-0.99224, 425, 309, 488, 340
-0.992242, 345, 5, 408, 36
-0.992248, 457, 9, 488, 72
-0.992294, 381, 209, 412, 336
-0.992381, 417, 53, 480, 84
-0.992404, 417, 181, 480, 212
-0.992405, 105, 305, 168, 336
-0.992409, 281, 93, 344, 124
-0.992423, 397, 193, 428, 224
-0.992431, 385, 49, 416, 176
-0.992443, 185, 93, 248, 124
-0.992449, 241, 121, 304, 152
-0.99246, 397, 217, 428, 248
-0.992474, 353, 193, 384, 320
-0.992478, 353, 253, 384, 284
-0.992485, 305, 153, 336, 184
-0.992496, 269, 165, 300, 196
-0.992511, 417, 69, 448, 100
-0.992519, 209, 201, 272, 264
-0.992535, 281, 137, 344, 168
-0.99254, 341, 177, 372, 208
-0.992542, 225, 169, 288, 200
-0.992543, 353, 245, 416, 276
-0.992547, 281, 117, 344, 148
-0.992548, 193, 161, 448, 224
-0.992554, 209, 213, 272, 244
-0.992566, 353, 269, 416, 300
-0.99259, 401, 313, 464, 375
-0.992597, 393, 205, 424, 236
-0.992599, 397, 65, 428, 96
-0.992605, 293, 161, 324, 192
-0.992608, 297, 249, 360, 280
-0.992634, 193, 121, 256, 184
-0.992637, 81, 293, 144, 324
-0.992649, 353, 241, 384, 368
-0.992652, 397, 229, 428, 260
-0.992667, 309, 165, 340, 196
-0.992668, 385, 69, 416, 100
-0.992672, 177, 105, 240, 136
-0.99268, 209, 297, 272, 360
-0.99269, 65, 345, 128, 375
-0.992711, 321, 249, 384, 280
-0.992718, 429, 41, 460, 72
-0.992727, 317, 153, 348, 184
-0.992727, 249, 141, 312, 172
-0.992728, 397, 5, 428, 36
-0.992734, 289, 145, 320, 176
-0.992737, 281, 105, 344, 136
-0.992746, 217, 125, 280, 156
-0.992752, 397, 77, 428, 108
-0.992765, 257, 33, 500, 96
-0.992771, 257, 153, 384, 184
-0.992771, 401, 41, 432, 72
-0.992778, 217, 101, 280, 132
-0.992803, 225, 89, 256, 152
-0.992821, 169, 217, 232, 248
-0.992822, 409, 217, 472, 248
-0.992826, 385, 217, 416, 248
-0.992829, 409, 209, 440, 240
-0.992833, 217, 1, 280, 375
-0.992843, 381, 185, 412, 216
-0.992846, 389, 17, 420, 48
-0.992854, 305, 273, 368, 304
-0.992855, 381, 173, 412, 204
-0.992866, 433, 157, 496, 188
-0.992867, 129, 161, 256, 224
-0.992867, 193, 117, 256, 148
-0.992869, 269, 153, 300, 184
-0.992875, 425, 341, 488, 372
-0.992891, 341, 257, 372, 288
-0.992897, 369, 169, 400, 200
-0.992903, 249, 93, 312, 124
-0.992916, 461, 41, 492, 72
-0.992919, 353, 173, 384, 204
-0.992919, 133, 285, 164, 316
-0.99292, 333, 161, 364, 192
-0.992928, 241, 57, 304, 88
-0.992928, 289, 173, 320, 204
-0.99293, 385, 229, 416, 260
-0.99294, 469, 145, 500, 208
-0.992943, 365, 257, 396, 288
-0.992945, 297, 185, 360, 216
-0.992945, 385, 37, 416, 68
-0.992947, 361, 189, 392, 220
-0.992948, 177, 129, 240, 160
-0.99295, 373, 217, 404, 248
-0.992961, 277, 65, 308, 128
-0.992962, 421, 193, 452, 224
-0.992965, 349, 189, 380, 220
-0.992967, 257, 105, 320, 168
-0.992976, 429, 73, 460, 104
-0.992976, 337, 113, 464, 176
-0.992989, 145, 289, 176, 320
-0.992993, 145, 121, 272, 184
-0.992993, 409, 1, 440, 32
-0.993, 453, 1, 484, 32
-0.993004, 217, 157, 280, 188
-0.993016, 353, 89, 416, 120
-0.993017, 449, 37, 480, 68
-0.993023, 337, 221, 400, 252
-0.99303, 313, 133, 376, 164
-0.993032, 345, 157, 408, 188
-0.993032, 373, 29, 404, 60
-0.993035, 437, 1, 468, 32
-0.993054, 409, 57, 440, 88
-0.993061, 413, 41, 444, 72
-0.993062, 201, 81, 264, 112
-0.993064, 417, 81, 480, 208
-0.993073, 369, 169, 432, 200
-0.993079, 329, 177, 360, 208
-0.993084, 257, 65, 500, 128
-0.993088, 297, 81, 360, 112
-0.993109, 129, 305, 160, 336
-0.99311, 421, 205, 452, 236
-0.993121, 381, 205, 412, 236
-0.993132, 409, 221, 440, 252
-0.993143, 265, 73, 328, 104
-0.993146, 289, 133, 320, 164
-0.993149, 349, 161, 380, 192
-0.993156, 257, 165, 288, 196
-0.993166, 345, 97, 376, 224
-0.993172, 81, 309, 144, 340
-0.993172, 409, 321, 472, 352
-0.993178, 201, 137, 264, 168
-0.993178, 337, 269, 368, 300
-0.993198, 441, 25, 472, 56
-0.9932, 73, 277, 136, 308
-0.993202, 265, 177, 296, 208
-0.99321, 249, 109, 312, 140
-0.993215, 357, 269, 388, 300
-0.993221, 385, 53, 416, 84
-0.993224, 201, 225, 264, 256
-0.993226, 409, 29, 472, 60
-0.993243, 141, 301, 172, 332
-0.993248, 341, 149, 372, 180
-0.993252, 377, 5, 408, 36
-0.993256, 433, 193, 496, 224
-0.993257, 413, 181, 444, 212
-0.99326, 149, 289, 180, 352
-0.993275, 389, 241, 420, 272
-0.993281, 249, 185, 312, 216
-0.993285, 397, 53, 428, 84
-0.993286, 293, 93, 324, 124
-0.993287, 469, 157, 500, 188
-0.993291, 293, 113, 324, 144
-0.993307, 277, 141, 308, 172
-0.993307, 225, 121, 256, 152
-0.993307, 377, 245, 440, 276
-0.993311, 429, 29, 460, 60
-0.993311, 305, 281, 368, 344
-0.993315, 409, 233, 440, 264
-0.993321, 121, 293, 152, 324
-0.993321, 433, 205, 464, 236
-0.993322, 401, 333, 464, 364
-0.993323, 441, 69, 472, 100
-0.993324, 225, 141, 288, 172
-0.993331, 345, 225, 376, 288
-0.993336, 417, 85, 480, 116
-0.993337, 385, 81, 416, 112
-0.993338, 425, 97, 488, 352
-0.993342, 469, 169, 500, 200
-0.993342, 377, 257, 408, 288
-0.993343, 57, 293, 120, 324
-0.993357, 305, 289, 368, 320
-0.993358, 401, 1, 416, 64
-0.993359, 453, 25, 484, 56
-0.993366, 153, 273, 216, 336
-0.993366, 457, 337, 488, 368
-0.993367, 217, 113, 280, 144
-0.993368, 373, 73, 404, 104
-0.993376, 337, 189, 368, 220
-0.993388, 221, 97, 252, 128
-0.993391, 417, 81, 448, 112
-0.993392, 401, 29, 432, 60
-0.993392, 425, 297, 488, 328
-0.993393, 129, 193, 256, 256
-0.993396, 33, 285, 96, 316
-0.993399, 97, 273, 160, 304
-0.9934, 301, 141, 332, 172
-0.993403, 49, 273, 112, 304
-0.993404, 413, 29, 444, 60
-0.993405, 273, 117, 304, 148
-0.99341, 309, 261, 340, 292
-0.993412, 409, 217, 472, 280
-0.993413, 421, 1, 452, 32
-0.99342, 277, 81, 308, 112
-0.993424, 373, 229, 404, 260
-0.993432, 245, 69, 276, 100
-0.993436, 437, 309, 468, 340
-0.993439, 153, 281, 216, 312
-0.993442, 469, 345, 500, 375
-0.993445, 257, 257, 320, 288
-0.99345, 233, 217, 296, 248
-0.99346, 291, 137, 306, 200
-0.993463, 265, 245, 328, 276
-0.993471, 281, 261, 344, 292
-0.993474, 217, 329, 280, 360
-0.993479, 153, 293, 216, 324
-0.993492, 465, 29, 496, 60
-0.993493, 129, 309, 192, 340
-0.9935, 277, 129, 308, 160
-0.993501, 197, 209, 228, 240
-0.993501, 225, 133, 256, 164
-0.993509, 469, 145, 500, 176
-0.993514, 93, 345, 124, 375
-0.993516, 221, 109, 252, 140
-0.993516, 245, 57, 276, 120
-0.993523, 365, 245, 396, 276
-0.993524, 301, 177, 332, 208
-0.993529, 393, 169, 424, 200
-0.99353, 277, 177, 308, 208
-0.993531, 369, 17, 400, 48
-0.993533, 281, 101, 312, 132
-0.993535, 117, 305, 148, 336
-0.993536, 377, 241, 408, 272
-0.993538, 469, 297, 500, 360
-0.993539, 353, 161, 480, 224
-0.99354, 465, 1, 496, 32
-0.993542, 345, 273, 376, 336
-0.993542, 265, 61, 296, 92
-0.993547, 325, 265, 356, 296
-0.993548, 209, 201, 272, 232
-0.993555, 325, 253, 356, 284
-0.993555, 265, 65, 328, 128
-0.993559, 281, 69, 312, 100
-0.993562, 421, 57, 452, 88
-0.993571, 441, 321, 472, 352
-0.993577, 225, 265, 352, 328
-0.99358, 461, 181, 492, 212
-0.993582, 121, 281, 152, 312
-0.993583, 185, 293, 248, 324
-0.993588, 437, 189, 468, 220
-0.993591, 453, 305, 484, 336
-0.993591, 105, 297, 136, 328
-0.993594, 445, 345, 476, 375
-0.993596, 241, 201, 304, 232
-0.993598, 209, 305, 272, 336
-0.9936, 445, 81, 476, 112
-0.993605, 313, 237, 376, 268
-0.993616, 169, 205, 232, 236
-0.993618, 177, 229, 240, 260
-0.993619, 353, 145, 416, 176
-0.99363, 393, 173, 456, 204
-0.99367, 407, 1, 422, 64
-0.993676, 185, 289, 248, 352
-0.993707, 125, 305, 156, 368
-0.993713, 245, 49, 276, 176
-0.993723, 313, 129, 344, 192
-0.993737, 401, 33, 416, 96
-0.993765, 113, 281, 144, 344
-0.993795, 429, 177, 460, 304
-0.993899, 421, 33, 436, 96
-0.993917, 145, 89, 272, 152
-0.993932, 321, 189, 448, 220
-0.993947, 241, 193, 304, 256
-0.993972, 305, 233, 432, 296
-0.993976, 185, 217, 248, 280
-0.994007, 369, 1, 400, 64
-0.99402, 225, 9, 480, 72
-0.994069, 411, 33, 426, 96
-0.994072, 361, 81, 392, 208
-0.994094, 369, 1, 496, 32
-0.994108, 305, 97, 336, 224
-0.994153, 393, 17, 408, 80
-0.994156, 337, 209, 400, 272
-0.994201, 57, 289, 120, 352
-0.994205, 385, 81, 416, 144
-0.994216, 273, 1, 400, 64
-0.994221, 405, 201, 420, 264
-0.994241, 289, 165, 416, 196
-0.994244, 177, 41, 304, 104
-0.994253, 257, 193, 320, 320
-0.994269, 257, 225, 320, 288
-0.99428, 257, 113, 500, 176
-0.994288, 417, 129, 448, 256
-0.994307, 431, 33, 446, 96
-0.994356, 469, 9, 500, 72
-0.994374, 225, 81, 256, 208
-0.994387, 197, 201, 228, 264
-0.994418, 437, 201, 468, 264
-0.994455, 1, 9, 500, 72
-0.99446, 393, 41, 408, 104
-0.994507, 261, 57, 292, 120
-0.994539, 369, 21, 496, 52
-0.99456, 417, 161, 448, 224
-0.994568, 363, 249, 378, 312
-0.994575, 241, 169, 368, 200
-0.994605, 193, 65, 256, 128
-0.994669, 257, 185, 500, 248
-0.994708, 345, 97, 408, 160
-0.994751, 221, 121, 252, 184
-0.994793, 97, 137, 352, 200
-0.994823, 277, 97, 308, 160
-0.994844, 285, 145, 300, 208
-0.994845, 145, 289, 272, 352
-0.994883, 469, 145, 500, 272
-0.994884, 357, 249, 372, 312
-0.994902, 293, 89, 324, 152
-0.994907, 225, 41, 352, 104
-0.994944, 405, 209, 436, 336
-0.994984, 297, 153, 312, 216
-0.994988, 257, 193, 384, 256
-0.995003, 377, 113, 408, 240
-0.995031, 49, 305, 176, 368
-0.995049, 337, 69, 464, 100
-0.995096, 321, 177, 448, 208
-0.995178, 193, 217, 320, 280
-0.995217, 253, 137, 284, 200
-0.995227, 453, 313, 484, 375
-0.99525, 291, 169, 306, 232
-0.995285, 405, 57, 420, 120
-0.995291, 209, 149, 336, 180
-0.995314, 417, 1, 432, 64
-0.995392, 405, 233, 436, 296
-0.995404, 289, 177, 320, 304
-0.995424, 369, 313, 496, 375
-0.995469, 369, 41, 496, 72
-0.995479, 369, 249, 384, 312
-0.995481, 257, 89, 500, 152
-0.995584, 331, 153, 346, 216
-0.995592, 261, 49, 292, 176
-0.995609, 439, 33, 454, 96
-0.995634, 369, 205, 496, 236
-0.995653, 97, 129, 224, 192
-0.99567, 415, 193, 430, 256
-0.995678, 209, 241, 336, 304
-0.995681, 393, 185, 408, 248
-0.995682, 385, 241, 448, 304
-0.995706, 411, 57, 426, 120
-0.99571, 209, 129, 272, 375
-0.995726, 397, 217, 412, 280
-0.995727, 313, 105, 376, 168
-0.995734, 421, 57, 436, 120
-0.995758, 309, 249, 340, 312
-0.995763, 421, 185, 436, 248
-0.995767, 273, 161, 288, 224
-0.995772, 257, 265, 320, 328
-0.995773, 277, 33, 308, 160
-0.995791, 319, 153, 334, 216
-0.995792, 445, 33, 460, 96
-0.995839, 257, 137, 384, 168
-0.995841, 405, 177, 420, 240
-0.995852, 321, 257, 448, 288
-0.995853, 409, 81, 440, 208
-0.99587, 217, 129, 248, 256
-0.995874, 353, 81, 480, 112
-0.99591, 363, 161, 378, 224
-0.995932, 461, 33, 476, 96
-0.995938, 297, 129, 312, 192
-0.995939, 137, 137, 200, 200
-0.995944, 373, 161, 388, 224
-0.995984, 457, 137, 488, 200
-0.995986, 101, 273, 132, 336
-0.995995, 129, 257, 256, 320
-0.996018, 409, 65, 440, 320
-0.996023, 325, 97, 356, 224
-0.996041, 161, 65, 416, 128
-0.996046, 483, 33, 498, 96
-0.996048, 387, 25, 402, 88
-0.99606, 97, 305, 224, 368
-0.996065, 161, 105, 416, 168
-0.996073, 329, 225, 360, 352
-0.996096, 441, 57, 472, 120
-0.996102, 351, 177, 366, 240
-0.996106, 399, 57, 414, 120
-0.996132, 361, 1, 392, 128
-0.996144, 345, 153, 360, 216
-0.996157, 177, 161, 304, 192
-0.996161, 169, 129, 232, 192
-0.996191, 373, 65, 404, 128
-0.996236, 427, 57, 442, 120
-0.996237, 279, 145, 294, 208
-0.996268, 337, 161, 352, 224
-0.99628, 455, 17, 470, 80
-0.996317, 401, 153, 432, 216
-0.996343, 431, 193, 446, 256
-0.996349, 257, 125, 384, 156
-0.996354, 393, 65, 408, 128
-0.996367, 1, 289, 128, 352
-0.996372, 445, 1, 476, 256
-0.996372, 169, 65, 232, 320
-0.996391, 367, 225, 382, 288
-0.996397, 1, 33, 500, 96
-0.996405, 469, 1, 500, 256
-0.996425, 389, 65, 420, 320
-0.996429, 467, 33, 482, 96
-0.996445, 1, 57, 500, 120
-0.996469, 457, 1, 488, 256
-0.996472, 303, 145, 318, 208
-0.996472, 453, 81, 484, 208
-0.996473, 351, 249, 366, 312
-0.996485, 399, 169, 414, 232
-0.996492, 257, 181, 384, 212
-0.996493, 441, 297, 472, 360
-0.996495, 405, 233, 420, 296
-0.996499, 161, 313, 288, 375
-0.996504, 325, 177, 356, 240
-0.996506, 333, 129, 364, 192
-0.996526, 353, 217, 480, 248
-0.996531, 325, 153, 340, 216
-0.996554, 289, 281, 416, 344
-0.996576, 375, 185, 390, 248
-0.996592, 387, 1, 402, 64
-0.996615, 425, 1, 456, 256
-0.996631, 357, 273, 388, 336
-0.996649, 477, 33, 492, 96
-0.996653, 367, 185, 382, 248
-0.996661, 137, 129, 200, 256
-0.996667, 151, 281, 166, 344
-0.996671, 321, 33, 448, 64
-0.996682, 457, 169, 488, 232
-0.996684, 241, 289, 368, 352
-0.996694, 273, 257, 400, 288
-0.996711, 277, 33, 308, 288
-0.99672, 205, 97, 236, 160
-0.996721, 357, 161, 372, 224
-0.996726, 305, 169, 320, 232
-0.996752, 273, 109, 400, 140
-0.996754, 273, 41, 336, 104
-0.996757, 291, 113, 306, 176
-0.996766, 177, 137, 304, 168
-0.996768, 321, 57, 448, 88
-0.996789, 33, 281, 96, 344
-0.996795, 1, 169, 500, 232
-0.996827, 289, 73, 416, 104
-0.996829, 445, 9, 460, 72
-0.996844, 113, 313, 144, 375
-0.996872, 369, 193, 496, 224
-0.996885, 321, 237, 448, 268
-0.996894, 301, 121, 332, 184
-0.996895, 273, 97, 400, 128
-0.996907, 411, 217, 426, 280
-0.996928, 193, 113, 320, 144
-0.996943, 425, 281, 488, 344
-0.996953, 411, 169, 426, 232
-0.996965, 433, 65, 448, 128
-0.996971, 403, 221, 418, 252
-0.996972, 295, 157, 310, 188
-0.996984, 369, 229, 496, 260
-0.996985, 369, 57, 496, 88
-0.997004, 375, 249, 390, 312
-0.997006, 177, 1, 240, 375
-0.997011, 337, 281, 464, 344
-0.997018, 273, 85, 400, 116
-0.997026, 241, 81, 272, 144
-0.997039, 417, 89, 480, 152
-0.997041, 241, 129, 304, 375
-0.997043, 313, 145, 328, 208
-0.99705, 193, 81, 320, 112
-0.997075, 385, 169, 400, 232
-0.997094, 457, 129, 488, 256
-0.997099, 345, 177, 360, 240
-0.997109, 423, 1, 438, 64
-0.997111, 305, 153, 432, 184
-0.997129, 313, 73, 376, 136
-0.997132, 213, 185, 244, 248
-0.997133, 289, 269, 416, 300
-0.997134, 351, 153, 366, 216
-0.997135, 345, 177, 360, 208
-0.997136, 373, 225, 388, 288
-0.997146, 335, 165, 350, 196
-0.997149, 327, 157, 342, 188
-0.997153, 379, 161, 394, 224
-0.997169, 297, 105, 312, 168
-0.99717, 417, 189, 432, 220
-0.997181, 265, 121, 296, 184
-0.997198, 267, 161, 282, 224
-0.997211, 405, 197, 420, 228
-0.997228, 325, 129, 340, 192
-0.997239, 305, 225, 432, 256
-0.997239, 281, 241, 344, 368
-0.997246, 393, 21, 408, 52
-0.997258, 369, 181, 496, 212
-0.99726, 139, 281, 154, 344
-0.997263, 309, 177, 340, 240
-0.997274, 169, 193, 232, 256
-0.997277, 399, 81, 414, 144
-0.997277, 321, 265, 352, 328
-0.997277, 193, 101, 320, 132
-0.997284, 355, 257, 370, 288
-0.997289, 233, 225, 296, 288
-0.997293, 145, 281, 160, 344
-0.997295, 281, 157, 296, 188
-0.997297, 395, 229, 410, 260
-0.997299, 345, 257, 360, 320
-0.997307, 97, 49, 224, 176
-0.997313, 281, 121, 296, 184
-0.997314, 1, 265, 128, 328
-0.997341, 193, 265, 448, 328
-0.997345, 319, 153, 334, 184
-0.997357, 265, 201, 328, 264
-0.997409, 473, 177, 488, 240
-0.997429, 129, 293, 256, 324
-0.997435, 145, 225, 208, 352
-0.997451, 305, 21, 432, 52
-0.997455, 305, 161, 320, 192
-0.997468, 475, 137, 490, 200
-0.997474, 325, 233, 356, 296
-0.997475, 387, 49, 402, 112
-0.997476, 407, 181, 422, 212
-0.997485, 273, 61, 400, 92
-0.997491, 1, 9, 128, 72
-0.997493, 449, 201, 480, 264
-0.997502, 291, 145, 306, 176
-0.997504, 149, 285, 164, 316
-0.997505, 481, 153, 496, 216
-0.997507, 317, 165, 332, 196
-0.997525, 311, 169, 326, 232
-0.997529, 97, 161, 352, 224
-0.997531, 407, 209, 422, 240
-0.997569, 269, 165, 284, 196
-0.997579, 377, 65, 408, 320
-0.997579, 351, 177, 366, 208
-0.997589, 233, 313, 296, 375
-0.997591, 157, 281, 172, 344
-0.997599, 435, 73, 450, 104
-0.997613, 405, 65, 420, 96
-0.997629, 273, 245, 400, 276
-0.997634, 273, 129, 288, 192
-0.997642, 363, 253, 378, 284
-0.997651, 349, 261, 364, 292
-0.997652, 361, 185, 376, 248
-0.99766, 201, 153, 264, 216
-0.997677, 275, 165, 290, 196
-0.997682, 297, 177, 312, 240
-0.997687, 359, 185, 374, 216
-0.99769, 65, 285, 192, 316
-0.99771, 411, 197, 426, 228
-0.997713, 209, 193, 224, 256
-0.997715, 429, 69, 444, 100
-0.997715, 439, 297, 454, 360
-0.997722, 437, 201, 452, 264
-0.997733, 209, 81, 240, 208
-0.997737, 461, 9, 476, 72
-0.997743, 399, 65, 414, 96
-0.997748, 97, 225, 160, 352
-0.997752, 389, 217, 404, 280
-0.997752, 89, 265, 120, 328
-0.997765, 387, 25, 402, 56
-0.997766, 411, 73, 426, 104
-0.997772, 391, 37, 406, 68
-0.997777, 193, 69, 320, 100
-0.997778, 73, 241, 136, 368
-0.997797, 427, 193, 442, 224
-0.997799, 343, 165, 358, 196
-0.997806, 311, 161, 326, 192
-0.997809, 437, 177, 468, 240
-0.997811, 419, 161, 434, 224
-0.997811, 379, 225, 394, 288
-0.997815, 225, 257, 288, 320
-0.997816, 453, 1, 468, 32
-0.997821, 201, 41, 264, 104
-0.997826, 289, 129, 320, 375
-0.997828, 305, 9, 432, 40
-0.997836, 399, 177, 414, 208
-0.997837, 361, 225, 376, 288
-0.997837, 193, 173, 320, 204
-0.997841, 413, 209, 428, 240
-0.997847, 177, 197, 304, 228
-0.997872, 365, 185, 380, 216
-0.997873, 393, 145, 456, 208
-0.997878, 301, 173, 316, 204
-0.997883, 455, 33, 470, 64
-0.997888, 423, 61, 438, 92
-0.997893, 395, 189, 410, 220
-0.997895, 393, 113, 424, 240
-0.997896, 97, 41, 352, 104
-0.997899, 299, 81, 314, 144
-0.997905, 333, 153, 348, 184
-0.997907, 77, 265, 108, 328
-0.99791, 193, 125, 320, 156
-0.997919, 293, 173, 308, 204
-0.997924, 387, 73, 402, 136
-0.997925, 127, 281, 142, 344
-0.997928, 397, 217, 412, 248
-0.997949, 409, 1, 424, 32
-0.997953, 475, 9, 490, 72
-0.997957, 387, 145, 402, 208
-0.997962, 429, 41, 444, 72
-0.997963, 369, 157, 496, 188
-0.997978, 81, 177, 208, 240
-0.997981, 403, 5, 418, 36
-0.997984, 485, 9, 500, 72
-0.998002, 33, 281, 288, 344
-0.998004, 451, 41, 466, 104
-0.998004, 397, 37, 412, 68
-0.998008, 49, 113, 176, 240
-0.998019, 409, 229, 424, 260
-0.998022, 419, 41, 434, 72
-0.998023, 381, 65, 396, 128
-0.998028, 177, 265, 304, 328
-0.998031, 235, 97, 250, 160
-0.998043, 1, 241, 256, 368
-0.998048, 65, 313, 320, 375
-0.998054, 1, 105, 500, 168
-0.998055, 289, 73, 304, 136
-0.998056, 49, 193, 176, 320
-0.998058, 243, 73, 258, 136
-0.998062, 393, 69, 408, 100
-0.998064, 431, 9, 446, 72
-0.998065, 353, 129, 384, 375
-0.998071, 317, 209, 348, 336
-0.998075, 369, 253, 384, 284
-0.998077, 237, 121, 252, 184
-0.998078, 137, 105, 200, 168
-0.998079, 145, 65, 272, 128
-0.99808, 285, 169, 300, 232
-0.998081, 293, 33, 324, 288
-0.998085, 249, 33, 280, 288
-0.998085, 389, 173, 404, 204
-0.998085, 463, 41, 478, 72
-0.998089, 461, 1, 476, 32
-0.998091, 273, 129, 304, 375
-0.998094, 383, 73, 398, 104
-0.998099, 339, 265, 354, 328
-0.998105, 49, 297, 176, 328
-0.998108, 155, 289, 170, 320
-0.99811, 225, 257, 352, 288
-0.998115, 447, 41, 462, 72
-0.998117, 411, 61, 426, 92
-0.998127, 391, 9, 406, 40
-0.998133, 361, 33, 392, 288
-0.998134, 451, 313, 466, 375
-0.998142, 375, 257, 390, 288
-0.998143, 433, 197, 448, 228
-0.998144, 439, 9, 454, 72
-0.998146, 241, 269, 368, 300
-0.998148, 425, 81, 440, 144
-0.99815, 321, 45, 448, 76
-0.998157, 249, 65, 264, 128
-0.998157, 287, 169, 302, 200
-0.998162, 121, 281, 136, 344
-0.998169, 359, 173, 374, 204
-0.998173, 353, 189, 368, 220
-0.998174, 405, 41, 420, 72
-0.998183, 365, 129, 396, 375
-0.998188, 405, 81, 420, 144
-0.998192, 439, 65, 454, 128
-0.998194, 337, 137, 352, 200
-0.998199, 321, 205, 448, 236
-0.998201, 81, 97, 208, 160
-0.998203, 399, 193, 414, 256
-0.998205, 1, 33, 128, 96
-0.998209, 267, 137, 282, 200
-0.99822, 225, 17, 352, 80
-0.998222, 403, 81, 418, 112
-0.998223, 355, 225, 370, 288
-0.998231, 483, 305, 498, 368
-0.998232, 389, 217, 404, 248
-0.998235, 397, 1, 412, 32
-0.998236, 371, 189, 386, 220
-0.998239, 485, 37, 500, 68
-0.998242, 133, 281, 148, 344
-0.998242, 49, 129, 176, 192
-0.998244, 197, 81, 228, 208
-0.998244, 467, 9, 482, 72
-0.998255, 415, 81, 430, 144
-0.99826, 295, 129, 310, 160
-0.998266, 395, 201, 410, 232
-0.998266, 237, 305, 268, 368
-0.998267, 193, 289, 320, 352
-0.998267, 385, 89, 448, 152
-0.998271, 363, 197, 378, 228
-0.998275, 475, 41, 490, 72
-0.998287, 213, 161, 228, 224
-0.998293, 401, 241, 416, 272
-0.998293, 325, 265, 340, 328
-0.998296, 381, 169, 396, 200
-0.998301, 249, 241, 312, 368
-0.998301, 373, 89, 404, 152
-0.998303, 297, 93, 312, 124
-0.99831, 213, 223, 244, 238
-0.998311, 221, 107, 252, 122
-0.998311, 393, 161, 408, 224
-0.998312, 121, 287, 152, 302
-0.998313, 269, 149, 300, 164
-0.998313, 409, 215, 440, 230
-0.998314, 381, 177, 412, 192
-0.998315, 293, 89, 324, 104
-0.998315, 225, 133, 256, 148
-0.998317, 225, 127, 256, 142
-0.998317, 373, 265, 404, 280
-0.99832, 417, 61, 432, 92
-0.99832, 437, 13, 468, 28
-0.998322, 441, 71, 472, 86
-0.998322, 153, 295, 184, 310
-0.998323, 469, 167, 500, 182
-0.998324, 405, 57, 436, 72
-0.998325, 353, 177, 384, 192
-0.998327, 381, 19, 412, 34
-0.998329, 457, 355, 488, 370
-0.99833, 393, 57, 424, 72
-0.99833, 399, 17, 414, 48
-0.998331, 381, 193, 412, 208
-0.998333, 447, 1, 462, 32
-0.998333, 457, 345, 488, 360
-0.998336, 469, 41, 484, 72
-0.998337, 309, 129, 340, 375
-0.998337, 293, 95, 324, 110
-0.998337, 435, 37, 450, 68
-0.998338, 449, 43, 480, 58
-0.998339, 409, 227, 440, 242
-0.99834, 449, 13, 480, 28
-0.998341, 325, 271, 356, 286
-0.998342, 397, 67, 428, 82
-0.998343, 129, 295, 160, 310
-0.998343, 329, 129, 360, 375
-0.998344, 293, 117, 324, 132
-0.998344, 413, 41, 428, 72
-0.998344, 461, 35, 492, 50
-0.998346, 329, 159, 360, 174
-0.998348, 353, 165, 384, 180
-0.998349, 65, 113, 320, 176
-0.998351, 369, 259, 400, 274
-0.998353, 269, 155, 300, 170
-0.998353, 325, 169, 340, 200
-0.998354, 381, 9, 412, 24
-0.998355, 307, 173, 322, 204
-0.998355, 373, 219, 404, 234
-0.998356, 389, 83, 420, 98
-0.998356, 433, 207, 464, 222
-0.998358, 345, 257, 376, 272
-0.998359, 469, 175, 500, 190
-0.998359, 409, 73, 440, 88
-0.998359, 437, 79, 468, 94
-0.998367, 177, 17, 304, 80
-0.99837, 389, 31, 420, 46
-0.998371, 365, 193, 396, 208
-0.998371, 361, 267, 392, 282
-0.998373, 381, 209, 412, 224
-0.998374, 353, 195, 384, 210
-0.998374, 389, 3, 420, 18
-0.998376, 285, 145, 300, 176
-0.998377, 369, 185, 400, 200
-0.998378, 381, 37, 412, 52
-0.998378, 385, 215, 416, 230
-0.998378, 385, 71, 416, 86
-0.998378, 413, 177, 428, 208
-0.99838, 317, 155, 348, 170
-0.998381, 137, 305, 200, 368
-0.998382, 393, 15, 424, 30
-0.998382, 373, 171, 404, 186
-0.998382, 273, 165, 336, 180
-0.998383, 409, 233, 440, 248
-0.998383, 417, 1, 448, 16
-0.998383, 213, 153, 244, 216
-0.998384, 393, 9, 424, 24
-0.998386, 257, 167, 288, 182
-0.998388, 389, 241, 420, 256
-0.998388, 381, 235, 412, 250
-0.998389, 423, 77, 438, 108
-0.998391, 333, 265, 364, 280
-0.998391, 341, 193, 372, 208
-0.998393, 373, 31, 404, 46
-0.998394, 141, 295, 172, 310
-0.998397, 117, 307, 148, 322
-0.998397, 289, 145, 320, 160
-0.998398, 289, 157, 304, 188
-0.998398, 425, 201, 456, 216
-0.998398, 137, 305, 168, 320
-0.998399, 425, 79, 456, 94
-0.998401, 421, 41, 452, 56
-0.998402, 413, 203, 444, 218
-0.998402, 437, 1, 468, 16
-0.998404, 325, 179, 356, 194
-0.998405, 449, 1, 480, 16
-0.998406, 353, 189, 416, 204
-0.998408, 261, 173, 292, 188
-0.998411, 341, 159, 372, 174
-0.998411, 393, 199, 456, 214
-0.998412, 445, 37, 476, 52
-0.998414, 345, 271, 376, 286
-0.998414, 341, 175, 372, 190
-0.998416, 385, 25, 416, 40
-0.998416, 401, 53, 416, 84
-0.998416, 343, 265, 358, 296
-0.998418, 385, 203, 416, 218
-0.998423, 413, 79, 444, 94
-0.998424, 269, 177, 284, 208
-0.998426, 393, 223, 424, 238
-0.998426, 409, 63, 440, 78
-0.998429, 393, 41, 424, 56
-0.99843, 333, 165, 364, 180
-0.99843, 301, 153, 332, 168
-0.998431, 353, 183, 384, 198
-0.998431, 281, 159, 344, 174
-0.998432, 257, 305, 500, 368
-0.998432, 461, 43, 492, 58
-0.998433, 405, 5, 436, 20
-0.998433, 419, 1, 434, 32
-0.998434, 441, 77, 456, 108
-0.998437, 311, 149, 326, 180
-0.998438, 305, 141, 432, 172
-0.998438, 373, 225, 404, 240
-0.998438, 225, 313, 352, 375
-0.998443, 417, 191, 448, 206
-0.998445, 321, 93, 448, 124
-0.998446, 417, 73, 432, 104
-0.998448, 393, 179, 424, 194
-0.998448, 365, 269, 380, 300
-0.998448, 441, 41, 456, 72
-0.998453, 385, 193, 448, 208
-0.998454, 1, 137, 500, 200
-0.998456, 369, 231, 400, 246
-0.998456, 399, 1, 414, 128
-0.998458, 397, 73, 428, 88
-0.998459, 289, 173, 320, 188
-0.998461, 433, 129, 496, 192
-0.998462, 97, 305, 224, 336
-0.998462, 389, 229, 404, 260
-0.998462, 185, 89, 216, 152
-0.998463, 161, 241, 416, 304
-0.998466, 139, 293, 154, 324
-0.998467, 409, 41, 440, 56
-0.998473, 393, 235, 424, 250
-0.998473, 441, 205, 456, 236
-0.998474, 137, 287, 168, 302
-0.998477, 309, 171, 340, 186
-0.998477, 297, 169, 360, 184
-0.998478, 341, 187, 372, 202
-0.998481, 409, 209, 440, 224
-0.998482, 381, 187, 412, 202
-0.998483, 273, 153, 336, 168
-0.998483, 393, 71, 456, 86
-0.998483, 301, 159, 332, 174
-0.998484, 397, 217, 428, 232
-0.998486, 349, 263, 380, 278
-0.998489, 433, 41, 464, 56
-0.998491, 277, 173, 308, 188
-0.998492, 337, 259, 400, 274
-0.998492, 385, 231, 448, 246
-0.998495, 401, 79, 432, 94
-0.998495, 257, 171, 320, 186
-0.998499, 369, 257, 496, 288
-0.9985, 353, 333, 480, 364
-0.9985, 353, 165, 368, 196
-0.998502, 393, 191, 424, 206
-0.998505, 257, 225, 500, 288
-0.998507, 281, 153, 312, 168
-0.998508, 361, 49, 392, 112
-0.998511, 225, 161, 288, 288
-0.998512, 401, 79, 464, 94
-0.998517, 241, 73, 368, 104
-0.998517, 381, 77, 412, 92
-0.998518, 407, 1, 422, 128
-0.998519, 277, 161, 308, 176
-0.99852, 361, 227, 424, 242
-0.998521, 355, 269, 370, 300
-0.998522, 129, 193, 256, 224
-0.998522, 337, 181, 368, 196
-0.998523, 329, 165, 392, 180
-0.998524, 419, 201, 434, 232
-0.998524, 303, 145, 318, 176
-0.998528, 437, 129, 468, 256
-0.998529, 353, 189, 384, 204
-0.998531, 305, 161, 368, 176
-0.998532, 17, 345, 144, 375
-0.998532, 413, 197, 444, 212
-0.998532, 273, 177, 304, 304
-0.998535, 369, 75, 432, 90
-0.998538, 345, 195, 408, 210
-0.998539, 401, 1, 464, 16
-0.998539, 145, 301, 160, 332
-0.998539, 385, 41, 448, 56
-0.99854, 257, 159, 320, 174
-0.998541, 357, 257, 388, 272
-0.99855, 133, 297, 148, 328
-0.99855, 473, 141, 488, 172
-0.99855, 361, 183, 424, 198
-0.99855, 393, 209, 456, 224
-0.998554, 419, 177, 434, 208
-0.998554, 139, 305, 154, 336
-0.998555, 393, 209, 424, 224
-0.998559, 321, 169, 352, 184
-0.998559, 337, 265, 400, 280
-0.998562, 421, 73, 452, 88
-0.998563, 417, 41, 480, 56
-0.998565, 385, 65, 448, 80
-0.998565, 455, 21, 470, 52
-0.998567, 397, 81, 412, 112
-0.998568, 361, 233, 424, 248
-0.99857, 321, 189, 384, 204
-0.99857, 361, 219, 424, 234
-0.998571, 295, 105, 310, 136
-0.998573, 415, 221, 430, 252
-0.998577, 401, 199, 432, 214
-0.998579, 385, 217, 448, 232
-0.998581, 401, 185, 432, 200
-0.998581, 143, 281, 158, 312
-0.998585, 405, 191, 436, 206
-0.998587, 305, 165, 336, 180
-0.998589, 445, 25, 460, 56
-0.99859, 385, 225, 448, 240
-0.998591, 305, 155, 368, 170
-0.998591, 361, 207, 424, 222
-0.998593, 313, 265, 376, 280
-0.998595, 385, 187, 448, 202
-0.998595, 113, 293, 176, 308
-0.998598, 249, 165, 312, 180
-0.998607, 265, 177, 328, 192
-0.998608, 345, 173, 408, 188
-0.998608, 369, 81, 432, 96
-0.998609, 113, 287, 176, 302
-0.99861, 293, 167, 324, 182
-0.998611, 361, 201, 424, 216
-0.998612, 329, 271, 392, 286
-0.998616, 361, 239, 424, 254
-0.99862, 393, 7, 456, 22
-0.998621, 417, 207, 480, 222
-0.998621, 481, 165, 496, 196
-0.998621, 289, 159, 320, 174
-0.998621, 161, 185, 416, 248
-0.998622, 209, 213, 224, 244
-0.998622, 377, 25, 440, 40
-0.998623, 1, 81, 500, 144
-0.998623, 345, 35, 408, 50
-0.998626, 273, 147, 336, 162
-0.998627, 369, 259, 432, 274
-0.998629, 385, 35, 448, 50
-0.998632, 137, 287, 200, 302
-0.998633, 339, 177, 354, 208
-0.998634, 337, 183, 400, 198
-0.998635, 389, 229, 420, 244
-0.998636, 433, 337, 496, 352
-0.998638, 1, 281, 500, 344
-0.998639, 321, 195, 384, 210
-0.998641, 121, 307, 184, 322
-0.998642, 417, 201, 480, 216
-0.998645, 313, 183, 376, 198
-0.998645, 433, 1, 496, 16
-0.998646, 241, 153, 304, 168
-0.998646, 275, 177, 290, 208
-0.998648, 381, 257, 396, 288
-0.998649, 241, 67, 304, 82
-0.998649, 329, 159, 392, 174
-0.99865, 393, 15, 456, 30
-0.99865, 433, 35, 496, 50
-0.998654, 297, 257, 360, 272
-0.998656, 417, 195, 480, 210
-0.998656, 361, 213, 424, 228
-0.998657, 289, 175, 352, 190
-0.998657, 345, 29, 408, 44
-0.998658, 417, 189, 480, 204
-0.998658, 317, 161, 348, 176
-0.99866, 361, 41, 424, 56
-0.99866, 127, 301, 142, 332
-0.998663, 385, 237, 448, 252
-0.998664, 273, 167, 304, 182
-0.998668, 361, 1, 424, 16
-0.998669, 377, 57, 440, 72
-0.998671, 305, 271, 368, 286
-0.998674, 289, 93, 352, 108
-0.998674, 233, 159, 296, 174
-0.998675, 201, 223, 264, 238
-0.998676, 353, 17, 416, 32
-0.998676, 137, 295, 200, 310
-0.998676, 425, 75, 488, 90
-0.998679, 353, 253, 416, 268
-0.99868, 345, 79, 408, 94
-0.998681, 369, 7, 432, 22
-0.998682, 423, 29, 438, 60
-0.998682, 361, 265, 424, 280
-0.998685, 241, 129, 304, 144
-0.998686, 353, 69, 416, 84
-0.998688, 49, 249, 176, 312
-0.998688, 475, 165, 490, 196
-0.99869, 129, 301, 192, 316
-0.998691, 425, 311, 488, 326
-0.998692, 305, 281, 368, 296
-0.998692, 441, 1, 456, 32
-0.998692, 371, 177, 386, 208
-0.998692, 391, 81, 406, 112
-0.998693, 313, 251, 376, 266
-0.998693, 177, 221, 240, 236
-0.998693, 289, 87, 352, 102
-0.998694, 81, 309, 144, 324
-0.998694, 73, 347, 136, 362
-0.998694, 241, 73, 304, 88
-0.998694, 281, 117, 344, 132
-0.998694, 97, 1, 160, 375
-0.998695, 385, 181, 448, 196
-0.998696, 97, 301, 160, 316
-0.998696, 281, 127, 344, 142
-0.998698, 89, 315, 152, 330
-0.998699, 369, 87, 432, 102
-0.9987, 313, 149, 376, 164
-0.9987, 401, 59, 464, 74
-0.9987, 393, 47, 456, 62
-0.998701, 241, 83, 304, 98
-0.998701, 185, 99, 248, 114
-0.998701, 433, 343, 496, 358
-0.998702, 393, 85, 456, 100
-0.998704, 241, 135, 304, 150
-0.998708, 345, 11, 408, 26
-0.998709, 241, 121, 304, 136
-0.998711, 249, 95, 312, 110
-0.998711, 209, 133, 272, 148
-0.998711, 233, 171, 296, 186
-0.998712, 401, 53, 464, 68
-0.998712, 89, 287, 152, 302
-0.998713, 201, 93, 264, 108
-0.998714, 217, 105, 280, 120
-0.998715, 425, 67, 488, 82
-0.998716, 193, 127, 256, 142
-0.998716, 353, 57, 416, 72
-0.998716, 177, 107, 240, 122
-0.998716, 329, 277, 392, 292
-0.998718, 241, 89, 304, 104
-0.998718, 417, 47, 480, 62
-0.99872, 113, 313, 176, 328
-0.99872, 409, 225, 472, 240
-0.99872, 281, 99, 344, 114
-0.998721, 345, 23, 408, 38
-0.998721, 193, 265, 256, 328
-0.998722, 425, 81, 488, 96
-0.998728, 465, 193, 496, 256
-0.998733, 49, 309, 176, 340
-0.998737, 421, 97, 452, 352
-0.998748, 395, 161, 410, 288
-0.998748, 369, 169, 496, 200
-0.998756, 273, 205, 400, 236
-0.998765, 349, 17, 380, 144
-0.99877, 337, 269, 464, 300
-0.998771, 393, 1, 408, 128
-0.998781, 295, 113, 310, 240
-0.998782, 321, 109, 448, 140
-0.998795, 433, 217, 496, 280
-0.998807, 241, 289, 304, 352
-0.998812, 257, 193, 384, 224
-0.998814, 209, 281, 336, 312
-0.998818, 261, 129, 292, 375
-0.998819, 261, 33, 292, 288
-0.998822, 289, 281, 416, 312
-0.998823, 369, 241, 496, 272
-0.998832, 129, 281, 256, 312
-0.998833, 341, 129, 372, 375
-0.998842, 281, 281, 344, 344
-0.998864, 33, 273, 160, 304
-0.998867, 289, 129, 304, 256
-0.998878, 469, 33, 484, 160
-0.998883, 257, 49, 384, 80
-0.998891, 145, 105, 272, 136
-0.998908, 435, 33, 450, 160
-0.998913, 65, 9, 128, 72
-0.998923, 469, 97, 500, 224
-0.998924, 177, 209, 240, 336
-0.998942, 453, 1, 468, 128
-0.998948, 145, 117, 272, 148
-0.998957, 253, 97, 284, 224
-0.998961, 321, 121, 448, 152
-0.998961, 345, 33, 376, 288
-0.998963, 1, 209, 500, 272
-0.998964, 461, 33, 476, 160
-0.998976, 447, 33, 462, 160
-0.998977, 423, 33, 438, 160
-0.998983, 145, 93, 272, 124
-0.998983, 177, 209, 304, 240
-0.998989, 429, 305, 460, 368
-0.99899, 145, 129, 208, 375
-0.998999, 297, 241, 328, 304
-0.999003, 1, 297, 128, 328
-0.999005, 209, 185, 336, 216
-0.999008, 145, 249, 208, 312
-0.99901, 413, 33, 428, 160
-0.999022, 369, 345, 496, 375
-0.999026, 229, 129, 260, 256
-0.999037, 477, 33, 492, 160
-0.999039, 225, 33, 288, 96
-0.999045, 429, 33, 444, 160
-0.999045, 217, 1, 280, 128
-0.999048, 145, 217, 272, 280
-0.999051, 65, 281, 96, 344
-0.999057, 441, 33, 456, 160
-0.99906, 129, 169, 256, 200
-0.999076, 97, 17, 352, 80
-0.999083, 129, 41, 256, 104
-0.999098, 65, 345, 192, 375
-0.999112, 387, 1, 402, 128
-0.999125, 249, 33, 312, 96
-0.999134, 129, 209, 256, 240
-0.999145, 357, 137, 388, 200
-0.999151, 193, 57, 320, 88
-0.999154, 483, 33, 498, 160
-0.999156, 101, 313, 132, 375
-0.999166, 213, 97, 244, 352
-0.99917, 129, 137, 256, 168
-0.99918, 129, 181, 256, 212
-0.999192, 161, 217, 416, 280
-0.999193, 401, 209, 416, 336
-0.999194, 401, 161, 416, 288
-0.999197, 177, 293, 304, 324
-0.999197, 295, 65, 310, 192
-0.999221, 351, 177, 366, 304
-0.999228, 129, 149, 256, 180
-0.999269, 153, 1, 216, 375
-0.999273, 1, 121, 128, 184
-0.999279, 373, 145, 388, 272
-0.999283, 445, 81, 476, 144
-0.999286, 303, 161, 318, 288
-0.999298, 407, 161, 422, 288
-0.9993, 353, 145, 480, 176
-0.999302, 41, 9, 104, 72
-0.999313, 257, 221, 384, 252
-0.999315, 297, 161, 312, 288
-0.999316, 201, 161, 264, 288
-0.999321, 389, 161, 404, 288
-0.999323, 273, 145, 288, 272
-0.999324, 65, 1, 192, 64
-0.999328, 285, 193, 316, 256
-0.999333, 225, 297, 256, 360
-0.999334, 287, 49, 302, 176
-0.999343, 301, 81, 316, 208
-0.999343, 357, 225, 372, 352
-0.99935, 357, 177, 372, 304
-0.999355, 379, 161, 394, 288
-0.999366, 283, 113, 298, 240
-0.999371, 395, 209, 410, 336
-0.999372, 161, 305, 288, 336
-0.999372, 221, 33, 252, 160
-0.999377, 349, 225, 364, 352
-0.999388, 407, 65, 422, 192
-0.999393, 373, 49, 404, 176
-0.999395, 313, 145, 328, 272
-0.999395, 185, 313, 248, 375
-0.999407, 169, 129, 232, 256
-0.999407, 65, 313, 128, 375
-0.99941, 341, 145, 356, 272
-0.99941, 321, 145, 336, 272
-0.999417, 373, 193, 388, 320
-0.999418, 367, 177, 382, 304
-0.99942, 157, 265, 188, 328
-0.999428, 193, 269, 320, 300
-0.999436, 237, 33, 268, 288
-0.99946, 413, 161, 428, 288
-0.999461, 433, 177, 448, 304
-0.999463, 335, 161, 350, 288
-0.999463, 307, 113, 322, 240
-0.999464, 407, 209, 422, 336
-0.999472, 129, 269, 256, 300
-0.999476, 353, 321, 480, 352
-0.999476, 369, 93, 496, 124
-0.999479, 267, 161, 282, 288
-0.99948, 133, 257, 164, 320
-0.99948, 397, 49, 412, 176
-0.99948, 161, 317, 288, 348
-0.999486, 145, 61, 272, 92
-0.999487, 363, 225, 378, 352
-0.999489, 245, 65, 260, 192
-0.999496, 381, 17, 396, 144
-0.999497, 17, 37, 144, 68
-0.999502, 145, 81, 272, 112
-0.999509, 359, 113, 374, 240
-0.999509, 65, 89, 320, 152
-0.999521, 193, 237, 320, 268
-0.999534, 241, 293, 368, 324
-0.999542, 455, 49, 470, 176
-0.999553, 177, 333, 304, 364
-0.999558, 437, 79, 452, 94
-0.999559, 359, 197, 374, 212
-0.999559, 365, 261, 380, 276
-0.999559, 445, 1, 460, 16
-0.999559, 475, 173, 490, 188
-0.99956, 469, 43, 484, 58
-0.99956, 339, 267, 354, 282
-0.999561, 475, 43, 490, 58
-0.999561, 297, 161, 312, 176
-0.999561, 333, 33, 364, 288
-0.999562, 411, 1, 426, 16
-0.999562, 295, 121, 310, 136
-0.999562, 399, 83, 414, 98
-0.999563, 373, 81, 388, 208
-0.999563, 277, 167, 292, 182
-0.999563, 65, 257, 320, 320
-0.999564, 391, 31, 406, 46
-0.999565, 385, 21, 400, 36
-0.999566, 387, 233, 402, 248
-0.999567, 281, 65, 296, 192
-0.999567, 451, 7, 466, 22
-0.999567, 131, 307, 146, 322
-0.999568, 367, 269, 382, 284
-0.999568, 293, 145, 308, 160
-0.999568, 435, 207, 450, 222
-0.999569, 365, 185, 380, 200
-0.999569, 393, 223, 408, 238
-0.999569, 397, 73, 412, 88
-0.999569, 473, 141, 488, 156
-0.999569, 403, 75, 418, 90
-0.99957, 309, 161, 324, 176
-0.99957, 347, 113, 362, 240
-0.999572, 413, 225, 428, 240
-0.999572, 225, 305, 352, 336
-0.999572, 411, 7, 426, 22
-0.999574, 447, 41, 462, 56
-0.999575, 401, 213, 416, 228
-0.999575, 279, 173, 294, 188
-0.999576, 395, 183, 410, 198
-0.999579, 337, 177, 352, 192
-0.99958, 389, 37, 404, 52
-0.999581, 343, 225, 358, 352
-0.999582, 339, 163, 354, 178
-0.999582, 295, 177, 310, 192
-0.999582, 413, 209, 428, 224
-0.999582, 483, 41, 498, 56
-0.999583, 429, 41, 444, 56
-0.999583, 391, 13, 406, 28
-0.999583, 417, 79, 432, 94
-0.999584, 143, 295, 158, 310
-0.999584, 309, 175, 324, 190
-0.999585, 221, 65, 252, 128
-0.999587, 457, 1, 472, 16
-0.99959, 371, 257, 386, 272
-0.99959, 397, 241, 412, 256
-0.999591, 153, 293, 168, 308
-0.999592, 413, 231, 428, 246
-0.999593, 413, 41, 428, 56
-0.999593, 475, 129, 490, 256
-0.999594, 429, 71, 444, 86
-0.999595, 401, 41, 416, 56
-0.999595, 297, 95, 312, 110
-0.999596, 407, 237, 422, 252
-0.999596, 433, 97, 464, 352
-0.999596, 451, 13, 466, 28
-0.999596, 409, 73, 424, 88
-0.999597, 145, 303, 160, 318
-0.999599, 273, 173, 288, 188
-0.9996, 393, 177, 408, 192
-0.9996, 321, 157, 336, 172
-0.999601, 401, 1, 416, 16
-0.999601, 463, 43, 478, 58
-0.999601, 343, 171, 358, 186
-0.999602, 283, 151, 298, 166
-0.999602, 97, 137, 160, 200
-0.999603, 395, 41, 410, 56
-0.999605, 385, 113, 400, 240
-0.999608, 405, 81, 420, 96
-0.999611, 399, 13, 414, 28
-0.999614, 327, 145, 342, 272
-0.999615, 367, 129, 382, 256
-0.999616, 237, 81, 252, 208
-0.999623, 451, 1, 466, 16
-0.999623, 315, 171, 330, 186
-0.999623, 333, 113, 348, 240
-0.999626, 397, 201, 412, 216
-0.999627, 397, 19, 412, 34
-0.999629, 343, 183, 358, 198
-0.99963, 289, 171, 304, 186
-0.99963, 303, 157, 318, 172
-0.99963, 267, 175, 282, 190
-0.999631, 389, 209, 404, 336
-0.999632, 435, 41, 450, 56
-0.999634, 389, 185, 404, 200
-0.999634, 363, 255, 378, 270
-0.999634, 433, 201, 448, 216
-0.999636, 455, 37, 470, 52
-0.999636, 321, 169, 336, 184
-0.999641, 369, 195, 384, 210
-0.999641, 345, 265, 360, 280
-0.999641, 327, 169, 342, 184
-0.999643, 385, 31, 400, 46
-0.999643, 423, 41, 438, 56
-0.999645, 353, 191, 368, 206
-0.999646, 129, 289, 384, 352
-0.999647, 275, 97, 290, 224
-0.999647, 357, 259, 372, 274
-0.999648, 395, 7, 410, 22
-0.999648, 427, 177, 442, 304
-0.999648, 401, 181, 416, 196
-0.99965, 413, 197, 428, 212
-0.99965, 413, 81, 428, 208
-0.999652, 209, 221, 336, 252
-0.999652, 193, 345, 320, 375
-0.999652, 401, 231, 416, 246
-0.999653, 375, 1, 390, 128
-0.999653, 273, 33, 400, 64
-0.999654, 409, 183, 424, 198
-0.999654, 411, 79, 426, 94
-0.999654, 419, 81, 434, 208
-0.999657, 427, 195, 442, 210
-0.999657, 209, 177, 224, 304
-0.999657, 283, 167, 298, 182
-0.999663, 303, 173, 318, 188
-0.999663, 65, 65, 320, 128
-0.999666, 335, 169, 350, 184
-0.999667, 251, 49, 266, 176
-0.999667, 405, 9, 420, 24
-0.999669, 315, 163, 330, 178
-0.999669, 215, 129, 230, 256
-0.99967, 391, 23, 406, 38
-0.999671, 409, 215, 424, 230
-0.999673, 463, 81, 478, 208
-0.999673, 97, 121, 224, 152
-0.999673, 305, 33, 336, 288
-0.999674, 351, 179, 366, 194
-0.999676, 403, 219, 418, 234
-0.999677, 469, 145, 484, 272
-0.999678, 415, 189, 430, 204
-0.999678, 289, 151, 304, 166
-0.999679, 425, 81, 440, 208
-0.999683, 271, 49, 286, 176
-0.999684, 391, 49, 406, 176
-0.999685, 419, 177, 434, 304
-0.999687, 189, 65, 220, 320
-0.999689, 303, 167, 318, 182
-0.999689, 353, 185, 368, 200
-0.99969, 435, 73, 450, 88
-0.999691, 395, 189, 410, 204
-0.999699, 403, 225, 418, 240
-0.999699, 359, 185, 374, 200
-0.9997, 295, 167, 310, 182
-0.9997, 351, 261, 366, 276
-0.999701, 315, 97, 330, 224
-0.999709, 265, 49, 280, 176
-0.999712, 317, 33, 348, 288
-0.999712, 291, 157, 306, 172
-0.999713, 149, 287, 164, 302
-0.999713, 291, 177, 306, 304
-0.999715, 401, 207, 416, 222
-0.999715, 393, 231, 408, 246
-0.999726, 397, 113, 412, 240
-0.999727, 279, 161, 294, 288
-0.999728, 421, 191, 436, 206
-0.999729, 271, 167, 286, 182
-0.99973, 429, 129, 444, 256
-0.999731, 281, 161, 296, 176
-0.999732, 321, 163, 336, 178
-0.999734, 225, 321, 352, 352
-0.999736, 143, 241, 158, 368
-0.999738, 333, 209, 348, 336
-0.999739, 341, 97, 356, 224
-0.99974, 257, 21, 384, 52
-0.999741, 327, 161, 342, 176
-0.999741, 321, 97, 336, 224
-0.999742, 379, 81, 394, 208
-0.999743, 239, 129, 254, 256
-0.999743, 333, 163, 348, 178
-0.999743, 353, 133, 480, 164
-0.999745, 353, 97, 368, 224
-0.999745, 475, 81, 490, 208
-0.99975, 421, 129, 436, 256
-0.999755, 367, 17, 382, 144
-0.999757, 225, 205, 352, 236
-0.999759, 439, 177, 454, 304
-0.999762, 403, 199, 418, 214
-0.999766, 217, 81, 232, 208
-0.999775, 407, 209, 422, 224
-0.999775, 169, 73, 232, 136
-0.999776, 151, 241, 166, 368
-0.999778, 405, 191, 420, 206
-0.999779, 345, 177, 360, 192
-0.999782, 327, 241, 342, 368
-0.999782, 269, 97, 284, 224
-0.999786, 257, 49, 272, 176
-0.999788, 481, 129, 496, 256
-0.999789, 309, 167, 324, 182
-0.999792, 353, 309, 480, 340
-0.999793, 289, 65, 320, 128
-0.999795, 213, 289, 244, 352
-0.999796, 209, 177, 272, 240
-0.999798, 227, 113, 242, 240
-0.999801, 469, 129, 500, 375
-0.999807, 363, 191, 378, 206
-0.999814, 319, 209, 334, 336
-0.999815, 383, 209, 398, 336
-0.999816, 441, 129, 456, 256
-0.999823, 367, 81, 382, 208
-0.999826, 209, 81, 224, 208
-0.999827, 231, 65, 246, 192
-0.999828, 469, 81, 484, 208
-0.99983, 481, 81, 496, 208
-0.999839, 327, 97, 342, 224
-0.999841, 309, 241, 324, 368
-0.999844, 361, 17, 376, 144
-0.999847, 483, 241, 498, 368
-0.99986, 325, 193, 340, 320
-0.999861, 203, 81, 218, 208
-0.999861, 465, 193, 480, 320
-0.999864, 177, 45, 304, 76
-0.999865, 407, 113, 422, 240
-0.999866, 205, 129, 220, 256
-0.999869, 465, 97, 496, 160
-0.999871, 253, 201, 284, 264
-0.999873, 261, 161, 276, 288
-0.999879, 17, 285, 144, 316
-0.999884, 355, 17, 370, 144
-0.999884, 215, 193, 230, 320
-0.999887, 463, 129, 478, 256
-0.999887, 263, 97, 278, 224
-0.999892, 277, 17, 292, 144
-0.999893, 307, 65, 322, 192
-0.999896, 233, 129, 248, 256
-0.999897, 475, 177, 490, 304
-0.999898, 445, 241, 460, 368
-0.999944, 17, 333, 144, 364
-0.999965, 305, 273, 336, 336
-0.999974, 33, 133, 160, 164
-0.999974, 49, 33, 176, 96
-0.999986, 337, 281, 464, 312
-0.999986, 225, 333, 352, 364
-0.999994, 241, 97, 272, 224
-0.999996, 1, 9, 256, 72
-1.00001, 289, 293, 416, 324
-1.00001, 81, 141, 208, 172
-1.00003, 213, 217, 244, 280
-1.00004, 113, 17, 240, 80
-1.00004, 49, 153, 176, 216
-1.00004, 1, 13, 128, 44
-1.00004, 225, 37, 352, 68
-1.00004, 161, 221, 288, 252
-1.00004, 81, 273, 208, 304
-1.00004, 225, 97, 256, 352
-1.00005, 1, 313, 128, 375
-1.00005, 97, 333, 224, 364
-1.00005, 113, 317, 240, 348
-1.00006, 137, 305, 168, 368
-1.0001, 177, 257, 304, 288
-1.00011, 257, 345, 384, 375
-1.00011, 149, 241, 180, 368
-1.00011, 453, 97, 484, 352
-1.00013, 421, 81, 452, 208
-1.00014, 81, 189, 208, 220
-1.00014, 329, 25, 392, 88
-1.00014, 137, 129, 168, 375
-1.00014, 201, 65, 232, 320
-1.00018, 149, 129, 180, 375
-1.0002, 1, 1, 128, 128
-1.00021, 197, 177, 228, 240
-1.00029, 233, 121, 264, 184
-1.00029, 121, 1, 184, 375
-1.00029, 1, 41, 256, 104
-1.0003, 197, 193, 228, 320
-1.0003, 125, 225, 156, 352
-1.00033, 73, 1, 136, 375
-1.00034, 221, 1, 252, 256
-1.00036, 437, 241, 468, 368
-1.00037, 249, 161, 280, 224
-1.0004, 297, 41, 360, 104
-1.00044, 457, 177, 488, 304
-1.00045, 161, 129, 192, 375
-1.00045, 177, 65, 208, 320
-1.00045, 97, 1, 128, 256
-1.00045, 1, 137, 256, 200
-1.00047, 289, 209, 352, 272
-1.00053, 161, 313, 416, 375
-1.00054, 321, 305, 448, 368
-1.00054, 121, 129, 152, 375
-1.00065, 305, 209, 336, 336
-1.00066, 109, 1, 140, 256
-1.00073, 65, 201, 320, 264
-1.00075, 1, 257, 500, 320
-1.00078, 249, 161, 280, 288
-1.00079, 97, 233, 224, 296
-1.00079, 17, 97, 144, 160
-1.00082, 209, 233, 272, 296
-1.00082, 105, 97, 136, 352
-1.00083, 237, 129, 268, 375
-1.00086, 257, 1, 288, 128
-1.00089, 85, 97, 116, 352
-1.0009, 225, 225, 288, 352
-1.00091, 273, 313, 400, 375
-1.00092, 85, 1, 116, 256
-1.00093, 193, 33, 256, 288
-1.00094, 153, 81, 216, 208
-1.00095, 81, 65, 208, 128
-1.00098, 33, 233, 288, 296
-1.00102, 249, 129, 280, 375
-1.00105, 297, 33, 328, 160
-1.00112, 1, 313, 500, 375
-1.00112, 469, 209, 500, 336
-1.00115, 161, 1, 192, 256
-1.00118, 73, 97, 104, 352
-1.00121, 41, 1, 72, 256
-1.00121, 145, 33, 176, 288
-1.00122, 65, 1, 96, 256
-1.00124, 53, 1, 84, 256
-1.00128, 89, 1, 152, 64
-1.00128, 129, 1, 160, 256
-1.00131, 29, 1, 60, 256
-1.00132, 25, 97, 56, 352
-1.00132, 105, 129, 168, 375
-1.00134, 1, 1, 64, 375
-1.00136, 1, 1, 64, 64
-1.00136, 1, 97, 32, 352
-1.00137, 149, 129, 180, 256
-1.00139, 45, 97, 76, 352
-1.00139, 13, 97, 44, 352
-1.00139, 57, 97, 88, 352
-1.0014, 5, 1, 36, 256
-1.0014, 17, 1, 48, 256
-1.00144, 453, 241, 484, 368
-1.00145, 81, 249, 144, 312
-1.00147, 41, 1, 104, 375
-1.00149, 209, 177, 240, 304
-1.00151, 185, 65, 216, 192
-1.00159, 293, 241, 324, 368
-1.00161, 73, 137, 136, 200
-1.00162, 201, 225, 264, 352
-1.00163, 1, 233, 500, 296
-1.00167, 1, 233, 128, 296
-1.00169, 57, 1, 120, 128
-1.0017, 169, 169, 232, 232
-1.0017, 1, 113, 128, 240
-1.0017, 33, 177, 160, 240
-1.00172, 1, 177, 256, 240
-1.00178, 81, 209, 208, 272
-1.00183, 81, 1, 144, 256
-1.00193, 81, 241, 112, 368
-1.00197, 33, 257, 96, 320
-1.002, 245, 1, 276, 128
-1.00202, 217, 241, 248, 368
-1.00202, 49, 1, 176, 128
-1.00207, 101, 241, 132, 368
-1.00209, 313, 209, 376, 272
-1.00213, 33, 57, 160, 120
-1.0022, 165, 129, 196, 256
-1.00222, 337, 17, 368, 144
-1.00234, 385, 289, 448, 352
-1.00236, 193, 145, 224, 272
-1.00236, 77, 1, 108, 128
-1.00247, 97, 129, 160, 256
-1.00247, 57, 241, 120, 304
-1.00248, 1, 153, 128, 216
-1.00249, 1, 241, 128, 368
-1.00251, 329, 281, 392, 344
-1.00253, 137, 241, 168, 368
-1.00255, 253, 209, 284, 336
-1.00255, 65, 33, 128, 96
-1.00258, 265, 305, 328, 368
-1.00261, 421, 241, 452, 368
-1.00274, 281, 225, 312, 352
-1.00281, 17, 209, 144, 272
-1.00288, 97, 161, 160, 224
-1.00288, 81, 129, 144, 375
-1.00292, 385, 265, 448, 328
-1.00294, 169, 249, 232, 312
-1.00296, 205, 33, 236, 160
-1.00301, 161, 297, 224, 360
-1.00304, 241, 225, 272, 352
-1.00321, 365, 241, 396, 368
-1.00329, 61, 241, 92, 368
-1.00333, 173, 81, 204, 208
-1.00339, 229, 241, 260, 368
-1.00341, 133, 129, 164, 256
-1.00355, 441, 81, 472, 208
-1.00356, 441, 177, 472, 304
-1.00359, 17, 49, 144, 176
-1.00368, 197, 241, 228, 368
-1.00406, 121, 129, 152, 256
-1.00411, 113, 225, 144, 352
-1.00413, 73, 113, 136, 240
-1.00413, 177, 225, 208, 352
-1.00417, 49, 241, 112, 368
-1.00426, 269, 225, 300, 352
-1.00426, 81, 1, 144, 128
-1.00435, 233, 1, 264, 128
-1.00449, 85, 113, 116, 240
-1.0045, 205, 129, 236, 256
-1.00453, 109, 129, 140, 256
-1.00465, 161, 225, 192, 352
-1.00484, 149, 81, 180, 208
-1.00491, 129, 81, 160, 208
-1.00502, 105, 1, 168, 256
-1.00506, 133, 177, 164, 304
-1.00521, 161, 65, 192, 192
-1.00526, 177, 129, 208, 256
-1.00527, 89, 1, 120, 128
-1.00537, 65, 1, 96, 128
-1.00548, 189, 17, 220, 144
-1.00554, 137, 1, 200, 256
-1.00555, 41, 1, 72, 128
-1.00562, 113, 81, 176, 208
-1.00562, 49, 241, 80, 368
-1.00562, 97, 113, 128, 240
-1.00567, 73, 113, 104, 240
-1.00568, 325, 33, 356, 160
-1.0058, 97, 1, 224, 128
-1.00581, 149, 193, 180, 320
-1.00596, 61, 113, 92, 240
-1.00599, 97, 193, 128, 320
-1.00601, 41, 113, 72, 240
-1.00623, 45, 49, 76, 176
-1.00625, 17, 113, 48, 240
-1.00625, 29, 113, 60, 240
-1.00633, 41, 1, 104, 256
-1.00648, 49, 97, 112, 352
-1.00655, 137, 177, 200, 304
-1.00681, 25, 97, 88, 352
-1.00684, 25, 241, 88, 368
-1.00695, 409, 225, 472, 352
-1.00697, 17, 1, 80, 256
-1.00733, 137, 33, 200, 160
-1.00736, 73, 193, 136, 320
-1.00739, 169, 17, 232, 144
-1.0075, 1, 177, 128, 304
-1.0076, 25, 113, 88, 240
-1.00772, 1, 97, 64, 352
-1.0078, 1, 1, 64, 128
-1.00807, 121, 241, 184, 368
-1.00815, 33, 1, 96, 128
-1.00841, 49, 113, 112, 240
-1.00844, 41, 49, 104, 176
-1.00867, 1, 113, 64, 240
-1.00908, 113, 177, 176, 304
-1.00919, 81, 49, 144, 176
-1.0098, 17, 193, 80, 320
-1.00997, 9, 49, 72, 176
-1.01005, 49, 193, 112, 320
-1.01075, 105, 1, 168, 128
-1.01389, 1, 241, 64, 368
