1884
-0.598515, 1, 65, 500, 320
-0.674219, 1, 1, 500, 333
-0.743601, 129, 1, 384, 333
-0.764018, 225, 1, 480, 333
-0.77087, 1, 1, 256, 333
-0.857341, 1, 65, 256, 320
-0.864387, 257, 65, 500, 320
-0.870791, 129, 33, 384, 288
-0.928847, 305, 1, 432, 333
-0.930308, 1, 145, 500, 272
-0.932021, 225, 1, 352, 333
-0.933336, 97, 65, 224, 320
-0.933786, 145, 1, 272, 333
-0.938678, 161, 65, 288, 320
-0.939115, 65, 1, 192, 333
-0.940715, 353, 1, 480, 333
-0.941122, 321, 65, 448, 320
-0.94127, 257, 129, 500, 256
-0.943642, 65, 145, 320, 272
-0.944382, 369, 65, 496, 320
-0.945315, 17, 1, 144, 333
-0.94537, 49, 65, 176, 320
-0.947099, 209, 65, 336, 320
-0.952348, 273, 65, 400, 320
-0.953335, 1, 97, 500, 224
-0.95415, 97, 145, 224, 272
-0.954218, 1, 65, 128, 320
-0.954768, 1, 193, 500, 320
-0.955171, 161, 145, 416, 272
-0.959144, 49, 145, 176, 272
-0.959862, 169, 153, 232, 216
-0.961908, 89, 145, 152, 272
-0.964898, 161, 145, 224, 272
-0.966135, 129, 145, 192, 272
-0.967093, 137, 153, 200, 216
-0.967653, 17, 161, 80, 288
-0.96795, 177, 145, 304, 272
-0.970148, 1, 161, 128, 288
-0.970445, 97, 161, 160, 224
-0.970457, 209, 145, 272, 208
-0.970603, 353, 129, 480, 256
-0.970826, 193, 145, 256, 272
-0.971199, 225, 161, 352, 288
-0.971645, 273, 129, 400, 256
-0.971831, 65, 145, 128, 272
-0.971919, 129, 97, 384, 224
-0.973045, 241, 145, 304, 208
-0.973329, 265, 145, 328, 208
-0.973639, 217, 161, 280, 288
-0.974111, 1, 97, 256, 224
-0.975639, 17, 169, 80, 232
-0.975772, 209, 169, 272, 232
-0.975844, 97, 161, 224, 224
-0.976474, 177, 185, 240, 248
-0.976785, 161, 153, 288, 216
-0.976847, 385, 129, 448, 256
-0.977003, 41, 161, 104, 288
-0.977038, 361, 129, 424, 256
-0.977342, 409, 137, 472, 200
-0.97746, 409, 129, 472, 256
-0.977591, 273, 145, 336, 272
-0.977914, 257, 193, 500, 320
-0.978074, 329, 129, 392, 256
-0.978149, 73, 169, 136, 232
-0.978307, 337, 137, 400, 200
-0.978517, 49, 145, 112, 208
-0.978749, 305, 137, 368, 200
-0.979562, 189, 145, 220, 208
-0.979567, 233, 97, 296, 224
-0.980041, 137, 177, 200, 240
-0.980617, 97, 97, 224, 224
-0.980799, 49, 161, 176, 224
-0.980832, 1, 1, 500, 128
-0.98092, 257, 81, 500, 208
-0.980963, 17, 145, 80, 208
-0.981037, 209, 153, 336, 216
-0.981138, 177, 97, 304, 224
-0.981294, 1, 49, 500, 176
-0.981556, 361, 137, 424, 200
-0.981592, 177, 129, 240, 192
-0.981799, 241, 145, 304, 272
-0.981865, 1, 113, 128, 240
-0.981952, 41, 169, 104, 232
-0.982299, 33, 193, 288, 320
-0.982366, 165, 145, 196, 208
-0.982437, 385, 145, 448, 208
-0.982912, 1, 145, 128, 208
-0.983065, 289, 145, 416, 208
-0.98323, 217, 145, 248, 208
-0.98337, 145, 185, 272, 248
-0.983445, 201, 145, 232, 208
-0.983781, 129, 129, 192, 192
-0.983899, 177, 145, 208, 208
-0.984065, 1, 169, 128, 232
-0.984367, 305, 129, 368, 256
-0.984525, 113, 137, 240, 200
-0.984553, 113, 193, 240, 320
-0.984632, 225, 145, 256, 272
-0.984694, 113, 145, 144, 272
-0.98474, 89, 137, 152, 200
-0.98516, 369, 137, 496, 200
-0.985198, 161, 193, 416, 320
-0.985479, 385, 121, 448, 184
-0.985746, 49, 169, 80, 232
-0.985958, 225, 97, 352, 224
-0.985984, 65, 193, 192, 320
-0.985984, 125, 145, 156, 272
-0.986046, 229, 145, 260, 208
-0.986084, 129, 161, 160, 224
-0.986225, 97, 169, 128, 232
-0.986297, 145, 153, 176, 216
-0.986446, 189, 145, 220, 272
-0.986591, 137, 145, 168, 272
-0.986621, 49, 161, 80, 288
-0.986701, 117, 161, 148, 224
-0.986748, 193, 177, 320, 240
-0.986829, 337, 81, 464, 208
-0.986987, 193, 97, 256, 224
-0.987053, 153, 129, 216, 192
-0.987108, 257, 121, 320, 184
-0.987232, 41, 113, 104, 240
-0.987258, 101, 145, 132, 272
-0.987282, 281, 121, 344, 184
-0.987314, 169, 169, 200, 232
-0.987563, 213, 169, 244, 232
-0.987579, 289, 121, 416, 184
-0.987708, 253, 153, 284, 216
-0.988438, 433, 145, 496, 272
-0.988483, 241, 129, 368, 192
-0.988485, 121, 97, 184, 224
-0.988533, 161, 129, 288, 192
-0.98856, 201, 185, 232, 248
-0.988644, 37, 161, 68, 224
-0.988674, 89, 145, 120, 272
-0.98869, 209, 121, 272, 184
-0.988839, 149, 145, 180, 272
-0.988869, 161, 145, 192, 272
-0.988997, 33, 161, 64, 288
-0.989044, 417, 129, 448, 256
-0.989109, 265, 145, 296, 208
-0.989154, 185, 185, 216, 248
-0.989173, 293, 145, 324, 208
-0.989275, 49, 97, 176, 224
-0.98936, 289, 201, 352, 264
-0.989364, 161, 97, 224, 224
-0.989405, 69, 153, 100, 216
-0.989429, 89, 97, 152, 224
-0.989438, 433, 137, 464, 200
-0.989489, 397, 129, 428, 256
-0.989505, 137, 153, 200, 184
-0.98952, 433, 137, 496, 200
-0.989544, 161, 193, 224, 320
-0.989735, 377, 81, 440, 208
-0.98984, 21, 169, 52, 232
-0.989841, 61, 161, 92, 288
-0.989853, 85, 169, 116, 232
-0.989928, 233, 169, 296, 232
-0.989935, 269, 145, 300, 272
-0.989975, 169, 161, 232, 192
-0.989981, 385, 145, 416, 208
-0.989996, 1, 113, 64, 240
-0.99002, 65, 137, 192, 200
-0.990099, 305, 169, 368, 232
-0.990151, 113, 157, 176, 188
-0.990164, 289, 177, 416, 304
-0.99018, 201, 149, 264, 180
-0.990212, 89, 165, 152, 196
-0.990224, 305, 137, 336, 200
-0.990349, 177, 149, 240, 180
-0.99035, 321, 145, 384, 176
-0.990356, 241, 145, 272, 208
-0.990429, 345, 141, 408, 172
-0.990432, 97, 185, 224, 248
-0.990483, 393, 141, 456, 172
-0.990483, 225, 209, 352, 333
-0.99054, 177, 145, 208, 272
-0.990548, 257, 149, 320, 180
-0.990571, 369, 141, 432, 172
-0.990578, 349, 137, 380, 200
-0.990746, 161, 193, 288, 320
-0.990775, 129, 193, 192, 320
-0.990776, 297, 149, 360, 180
-0.990871, 273, 97, 336, 224
-0.990873, 245, 129, 276, 256
-0.990887, 49, 145, 80, 208
-0.991011, 277, 145, 308, 208
-0.991013, 233, 157, 296, 188
-0.991044, 273, 81, 400, 208
-0.991073, 93, 145, 124, 208
-0.991118, 1, 169, 64, 200
-0.991129, 209, 181, 272, 212
-0.991182, 145, 165, 208, 196
-0.991213, 41, 165, 104, 196
-0.991275, 21, 161, 52, 288
-0.991348, 225, 145, 288, 176
-0.991353, 385, 129, 448, 160
-0.991357, 417, 141, 480, 172
-0.991421, 213, 145, 244, 272
-0.991476, 77, 145, 108, 272
-0.991487, 373, 137, 404, 200
-0.991521, 65, 173, 128, 204
-0.991525, 1, 209, 128, 333
-0.991591, 345, 129, 408, 160
-0.991595, 9, 161, 40, 224
-0.991603, 161, 177, 224, 208
-0.991605, 153, 141, 216, 172
-0.991632, 1, 153, 64, 184
-0.991654, 65, 157, 128, 188
-0.99177, 273, 137, 336, 168
-0.991771, 185, 185, 248, 216
-0.991796, 193, 165, 256, 196
-0.991803, 121, 177, 184, 208
-0.991813, 337, 113, 464, 176
-0.991816, 321, 133, 384, 164
-0.991873, 265, 201, 328, 264
-0.991895, 289, 145, 320, 272
-0.991956, 61, 177, 92, 240
-0.991984, 273, 169, 336, 232
-0.992018, 129, 153, 384, 216
-0.992037, 297, 133, 360, 164
-0.992042, 89, 145, 152, 176
-0.992071, 397, 137, 428, 200
-0.992112, 89, 177, 152, 208
-0.992127, 409, 169, 472, 232
-0.992175, 233, 121, 296, 184
-0.992176, 49, 185, 176, 248
-0.992187, 129, 141, 192, 172
-0.992242, 249, 137, 312, 168
-0.992258, 161, 189, 224, 220
-0.992281, 25, 145, 56, 208
-0.992334, 97, 193, 160, 320
-0.992354, 41, 177, 104, 208
-0.992359, 177, 137, 240, 168
-0.99244, 377, 129, 408, 256
-0.992466, 409, 153, 472, 184
-0.992466, 157, 157, 188, 188
-0.992481, 141, 157, 172, 188
-0.992487, 361, 145, 392, 208
-0.992515, 369, 177, 496, 304
-0.992524, 129, 65, 192, 320
-0.992534, 201, 161, 232, 288
-0.992546, 153, 65, 216, 320
-0.992567, 1, 161, 256, 224
-0.992586, 385, 153, 448, 184
-0.992594, 201, 137, 264, 168
-0.992601, 225, 133, 288, 164
-0.992622, 41, 153, 104, 184
-0.992624, 353, 113, 416, 176
-0.992625, 177, 205, 240, 236
-0.992658, 281, 201, 344, 232
-0.992716, 349, 137, 380, 168
-0.992718, 201, 149, 232, 180
-0.992722, 257, 129, 288, 256
-0.992724, 261, 149, 292, 180
-0.992726, 377, 193, 440, 320
-0.992728, 125, 157, 156, 188
-0.992759, 173, 161, 204, 192
-0.992763, 397, 141, 428, 172
-0.992765, 233, 149, 264, 180
-0.992769, 129, 201, 192, 264
-0.99277, 353, 153, 416, 184
-0.992792, 217, 169, 280, 200
-0.992804, 113, 161, 144, 192
-0.992809, 333, 145, 364, 176
-0.992813, 185, 153, 216, 184
-0.992841, 241, 201, 304, 264
-0.992844, 225, 169, 256, 232
-0.992851, 117, 137, 148, 200
-0.992863, 329, 137, 360, 200
-0.992867, 305, 149, 336, 180
-0.992873, 65, 97, 128, 224
-0.992878, 409, 129, 472, 160
-0.992888, 9, 181, 72, 212
-0.992921, 97, 173, 128, 204
-0.992925, 317, 137, 348, 200
-0.992936, 433, 141, 464, 172
-0.992938, 365, 137, 396, 168
-0.992939, 221, 145, 252, 176
-0.99294, 245, 153, 276, 184
-0.992946, 409, 177, 472, 208
-0.992951, 165, 173, 196, 204
-0.992954, 385, 145, 416, 176
-0.992957, 321, 145, 352, 176
-0.99297, 173, 149, 204, 180
-0.992982, 265, 161, 328, 192
-0.992998, 377, 189, 440, 220
-0.993019, 277, 149, 308, 180
-0.993049, 153, 169, 184, 200
-0.993068, 161, 145, 192, 176
-0.993069, 257, 209, 320, 240
-0.993069, 409, 141, 440, 172
-0.993073, 73, 185, 104, 248
-0.993074, 293, 149, 324, 180
-0.993075, 5, 169, 36, 200
-0.993082, 49, 169, 80, 200
-0.993089, 97, 197, 160, 228
-0.993093, 29, 169, 60, 200
-0.993093, 213, 181, 244, 212
-0.993095, 73, 165, 104, 196
-0.993101, 49, 189, 112, 220
-0.993108, 353, 81, 416, 208
-0.993111, 101, 157, 132, 188
-0.993116, 421, 145, 452, 208
-0.993119, 153, 201, 216, 232
-0.993126, 313, 145, 344, 272
-0.993127, 17, 169, 48, 200
-0.993133, 149, 145, 180, 176
-0.993159, 305, 197, 368, 228
-0.99317, 225, 161, 256, 192
-0.993176, 421, 141, 452, 172
-0.993184, 225, 201, 288, 232
-0.993208, 369, 173, 432, 204
-0.993223, 137, 145, 168, 176
-0.993227, 241, 169, 304, 200
-0.993237, 189, 181, 220, 212
-0.993237, 9, 161, 40, 288
-0.993239, 193, 193, 256, 320
-0.993245, 185, 141, 216, 172
-0.993245, 129, 213, 192, 244
-0.993246, 1, 153, 32, 184
-0.993247, 129, 197, 192, 228
-0.993249, 189, 165, 220, 196
-0.99325, 121, 145, 152, 176
-0.993255, 145, 177, 176, 240
-0.993262, 245, 141, 276, 172
-0.993263, 329, 157, 392, 188
-0.993265, 201, 161, 232, 192
-0.993271, 201, 201, 264, 232
-0.993274, 365, 149, 396, 180
-0.993276, 329, 133, 360, 164
-0.993277, 417, 129, 448, 160
-0.993279, 277, 137, 308, 168
-0.993287, 377, 133, 408, 164
-0.99329, 201, 185, 232, 216
-0.993293, 257, 137, 288, 168
-0.993301, 85, 173, 116, 204
-0.993312, 433, 153, 496, 184
-0.993321, 89, 161, 120, 192
-0.993323, 133, 169, 164, 200
-0.993325, 445, 145, 476, 176
-0.993327, 241, 201, 368, 264
-0.99333, 29, 157, 60, 188
-0.993335, 73, 189, 136, 220
-0.993341, 209, 137, 240, 168
-0.993347, 173, 185, 204, 216
-0.99335, 13, 153, 44, 184
-0.993353, 225, 145, 480, 208
-0.993383, 389, 129, 420, 160
-0.993385, 61, 169, 92, 200
-0.993391, 309, 137, 340, 168
-0.993391, 213, 161, 244, 192
-0.993394, 73, 181, 104, 212
-0.993397, 185, 65, 248, 320
-0.993398, 177, 173, 208, 204
-0.993407, 297, 161, 360, 192
-0.993409, 405, 129, 436, 160
-0.993412, 205, 197, 236, 228
-0.993436, 233, 137, 264, 168
-0.993439, 225, 181, 256, 212
-0.993439, 241, 165, 272, 196
-0.993462, 165, 201, 196, 232
-0.993465, 189, 193, 220, 224
-0.993466, 401, 189, 464, 220
-0.99347, 41, 153, 72, 184
-0.993472, 97, 145, 128, 176
-0.993484, 81, 209, 144, 240
-0.993488, 293, 137, 324, 168
-0.993494, 353, 125, 384, 156
-0.993497, 365, 125, 396, 156
-0.993497, 433, 129, 464, 160
-0.993507, 265, 185, 328, 216
-0.993509, 121, 173, 152, 204
-0.993516, 65, 145, 128, 176
-0.993519, 349, 149, 380, 180
-0.993522, 49, 181, 80, 212
-0.993544, 57, 149, 88, 180
-0.993546, 177, 197, 208, 228
-0.99355, 409, 185, 440, 216
-0.993553, 237, 181, 268, 212
-0.993554, 281, 209, 312, 240
-0.993562, 109, 173, 140, 204
-0.993565, 257, 169, 384, 232
-0.993565, 153, 213, 216, 244
-0.993582, 397, 153, 428, 184
-0.99359, 173, 137, 204, 168
-0.993596, 25, 193, 88, 224
-0.993599, 265, 161, 296, 192
-0.993603, 197, 137, 228, 168
-0.993605, 317, 157, 348, 188
-0.993607, 289, 121, 320, 184
-0.993608, 433, 129, 496, 160
-0.993612, 341, 125, 372, 156
-0.993615, 301, 201, 332, 232
-0.993616, 89, 185, 120, 216
-0.993617, 369, 301, 432, 332
-0.993627, 281, 213, 344, 244
-0.993631, 161, 189, 192, 220
-0.993643, 369, 201, 432, 232
-0.993647, 445, 133, 476, 164
-0.993649, 365, 129, 396, 256
-0.993651, 409, 153, 440, 184
-0.993663, 269, 205, 300, 236
-0.993666, 377, 193, 440, 256
-0.993666, 177, 213, 208, 244
-0.993668, 457, 149, 488, 180
-0.993674, 377, 213, 440, 244
-0.993675, 209, 209, 240, 240
-0.993679, 129, 197, 160, 228
-0.993684, 397, 201, 428, 232
-0.993686, 257, 201, 288, 232
-0.993691, 109, 145, 140, 176
-0.993695, 421, 177, 452, 208
-0.993697, 85, 149, 116, 180
-0.993703, 397, 189, 428, 220
-0.993704, 149, 205, 180, 236
-0.993706, 61, 181, 92, 212
-0.993711, 117, 193, 148, 224
-0.993713, 409, 197, 440, 228
-0.993714, 137, 209, 168, 240
-0.993718, 189, 205, 220, 236
-0.993721, 229, 201, 260, 232
-0.993723, 249, 197, 312, 228
-0.993724, 333, 157, 364, 188
-0.993726, 305, 161, 336, 192
-0.993728, 37, 181, 68, 212
-0.993728, 201, 173, 232, 204
-0.993731, 253, 165, 284, 196
-0.993735, 401, 173, 432, 204
-0.993741, 69, 149, 100, 180
-0.993743, 53, 193, 84, 224
-0.993747, 401, 213, 432, 244
-0.99375, 305, 217, 368, 248
-0.993751, 149, 193, 180, 224
-0.993753, 117, 205, 148, 236
-0.993754, 101, 197, 132, 228
-0.993754, 313, 301, 376, 332
-0.993755, 221, 133, 252, 164
-0.993792, 301, 145, 332, 272
-0.993793, 233, 181, 296, 212
-0.993796, 409, 165, 472, 196
-0.993803, 385, 65, 448, 320
-0.993808, 97, 65, 160, 320
-0.993815, 401, 205, 464, 236
-0.993819, 289, 301, 352, 332
-0.993836, 201, 213, 264, 244
-0.993859, 49, 205, 112, 236
-0.993921, 249, 301, 312, 332
-0.993933, 209, 65, 272, 320
-0.993935, 177, 217, 240, 248
-0.99394, 433, 165, 496, 196
-0.993945, 25, 205, 88, 236
-0.993947, 329, 217, 392, 248
-0.993958, 105, 209, 168, 240
-0.99396, 305, 141, 432, 172
-0.993973, 329, 189, 392, 220
-0.993979, 409, 301, 472, 332
-0.993995, 1, 141, 64, 172
-0.994015, 369, 169, 432, 232
-0.994032, 305, 121, 368, 152
-0.994058, 329, 161, 392, 224
-0.99407, 257, 221, 320, 252
-0.994096, 345, 173, 408, 204
-0.994103, 305, 173, 368, 204
-0.994112, 1, 145, 500, 208
-0.994125, 433, 233, 496, 264
-0.994127, 225, 213, 288, 244
-0.994155, 353, 189, 416, 220
-0.994156, 353, 221, 416, 252
-0.994159, 105, 221, 168, 252
-0.994159, 41, 141, 104, 172
-0.994164, 425, 221, 488, 252
-0.994165, 345, 301, 408, 332
-0.994182, 281, 233, 344, 264
-0.994205, 409, 233, 472, 264
-0.994226, 1, 197, 64, 228
-0.994228, 201, 301, 264, 332
-0.994234, 33, 237, 96, 268
-0.994236, 249, 65, 312, 320
-0.994237, 321, 233, 384, 264
-0.99425, 25, 273, 88, 304
-0.994251, 305, 185, 368, 216
-0.994257, 345, 233, 408, 264
-0.994265, 177, 153, 304, 184
-0.994268, 9, 233, 72, 264
-0.994278, 377, 233, 440, 264
-0.994289, 401, 217, 464, 248
-0.994289, 233, 253, 296, 284
-0.994296, 281, 173, 344, 204
-0.994301, 105, 145, 136, 208
-0.994312, 113, 157, 240, 188
-0.994325, 345, 201, 408, 232
-0.994338, 177, 1, 240, 333
-0.994345, 97, 133, 160, 164
-0.99435, 353, 129, 384, 256
-0.994361, 33, 301, 96, 332
-0.99438, 445, 137, 476, 200
-0.994382, 265, 245, 328, 276
-0.994388, 73, 233, 136, 264
-0.994388, 9, 245, 72, 276
-0.994388, 9, 261, 72, 292
-0.994411, 401, 201, 464, 264
-0.99456, 173, 121, 204, 184
-0.994602, 305, 113, 368, 176
-0.994673, 305, 169, 432, 232
-0.994733, 201, 193, 264, 256
-0.99478, 289, 201, 416, 264
-0.994808, 81, 169, 208, 200
-0.994898, 145, 209, 272, 272
-0.995017, 401, 1, 464, 333
-0.995024, 241, 149, 368, 180
-0.995029, 241, 169, 272, 232
-0.99507, 193, 209, 320, 272
-0.995086, 361, 1, 424, 333
-0.995149, 129, 137, 160, 200
-0.995164, 81, 209, 208, 272
-0.995224, 401, 177, 464, 304
-0.995237, 369, 141, 496, 172
-0.995242, 33, 209, 160, 272
-0.995255, 313, 193, 376, 256
-0.995283, 97, 193, 160, 256
-0.995324, 417, 81, 480, 208
-0.995331, 33, 185, 288, 248
-0.995337, 325, 129, 356, 256
-0.995361, 211, 145, 226, 208
-0.995366, 81, 145, 112, 208
-0.995385, 65, 193, 128, 320
-0.995454, 337, 233, 464, 296
-0.995482, 409, 65, 472, 320
-0.995556, 189, 145, 204, 208
-0.995706, 161, 165, 288, 196
-0.995722, 49, 193, 112, 256
-0.995831, 337, 129, 368, 256
-0.995834, 33, 161, 160, 192
-0.99588, 429, 129, 460, 256
-0.99589, 353, 169, 480, 232
-0.995907, 337, 1, 400, 333
-0.995941, 409, 113, 472, 176
-0.995949, 193, 177, 448, 240
-0.995957, 433, 233, 496, 296
-0.995963, 217, 1, 280, 333
-0.995981, 183, 145, 198, 208
-0.995985, 129, 1, 192, 333
-0.995987, 1, 137, 256, 200
-0.995998, 321, 81, 384, 208
-0.996, 177, 209, 240, 272
-0.996, 157, 169, 188, 232
-0.996009, 219, 145, 234, 208
-0.996029, 1, 137, 32, 200
-0.996042, 297, 1, 360, 333
-0.996067, 405, 185, 436, 248
-0.996083, 201, 113, 232, 240
-0.996093, 433, 161, 496, 224
-0.996164, 377, 233, 440, 296
-0.996194, 121, 97, 152, 224
-0.996195, 1, 173, 128, 204
-0.99622, 161, 185, 288, 216
-0.996235, 273, 65, 336, 320
-0.996254, 97, 129, 352, 192
-0.996257, 153, 129, 184, 192
-0.996266, 397, 161, 428, 224
-0.996278, 241, 1, 304, 333
-0.996302, 229, 145, 244, 208
-0.996311, 421, 121, 452, 184
-0.996319, 37, 137, 68, 200
-0.996379, 353, 209, 480, 272
-0.996395, 297, 177, 360, 304
-0.996412, 209, 121, 240, 184
-0.99642, 353, 129, 480, 160
-0.996438, 225, 97, 256, 224
-0.996444, 289, 233, 416, 296
-0.996456, 213, 185, 228, 248
-0.996459, 129, 145, 256, 176
-0.996467, 205, 145, 220, 208
-0.996469, 361, 121, 392, 184
-0.996518, 265, 1, 328, 333
-0.996528, 63, 169, 78, 232
-0.99653, 175, 153, 190, 216
-0.996532, 153, 209, 216, 272
-0.99656, 305, 161, 336, 224
-0.996618, 253, 129, 284, 192
-0.996624, 89, 1, 152, 333
-0.996632, 257, 137, 384, 168
-0.996652, 53, 161, 68, 224
-0.996662, 441, 129, 472, 256
-0.996676, 93, 169, 108, 232
-0.996725, 169, 153, 184, 216
-0.996727, 185, 169, 200, 232
-0.996767, 245, 153, 260, 216
-0.996771, 409, 145, 440, 208
-0.996797, 235, 145, 250, 208
-0.996826, 17, 121, 144, 184
-0.996848, 195, 145, 210, 208
-0.996856, 193, 121, 448, 184
-0.996865, 137, 97, 168, 224
-0.996877, 119, 161, 134, 224
-0.996908, 241, 177, 272, 304
-0.996911, 49, 1, 112, 333
-0.996934, 251, 145, 266, 208
-0.996938, 133, 161, 148, 224
-0.996957, 153, 1, 216, 333
-0.996999, 103, 169, 118, 232
-0.997005, 127, 161, 142, 224
-0.997016, 151, 153, 166, 216
-0.997023, 81, 145, 208, 176
-0.997025, 49, 233, 176, 296
-0.997035, 225, 161, 352, 192
-0.997037, 209, 137, 336, 168
-0.997039, 105, 217, 168, 280
-0.997064, 33, 149, 160, 180
-0.997072, 409, 121, 440, 184
-0.997079, 31, 161, 46, 224
-0.997082, 277, 121, 308, 184
-0.997093, 139, 161, 154, 224
-0.997107, 73, 201, 136, 264
-0.997108, 221, 177, 236, 240
-0.997122, 113, 161, 128, 224
-0.997132, 305, 145, 320, 208
-0.99714, 189, 121, 220, 184
-0.997146, 225, 233, 352, 296
-0.997165, 25, 65, 88, 320
-0.997168, 9, 1, 72, 333
-0.997173, 241, 105, 368, 168
-0.997178, 113, 185, 240, 216
-0.997191, 289, 153, 416, 184
-0.997206, 337, 273, 464, 333
-0.997207, 145, 153, 160, 216
-0.997211, 1, 233, 128, 296
-0.997228, 41, 161, 56, 224
-0.997256, 385, 121, 416, 184
-0.997257, 259, 153, 274, 216
-0.99726, 353, 65, 416, 320
-0.99728, 93, 97, 124, 224
-0.99729, 357, 137, 372, 200
-0.997307, 241, 81, 272, 208
-0.997315, 161, 153, 176, 216
-0.997323, 315, 137, 330, 200
-0.997383, 65, 257, 192, 320
-0.997393, 257, 201, 500, 264
-0.9974, 301, 201, 332, 264
-0.9974, 391, 145, 406, 208
-0.997412, 409, 81, 440, 208
-0.997417, 13, 137, 44, 200
-0.997439, 441, 137, 456, 200
-0.99745, 161, 201, 416, 264
-0.997451, 61, 145, 76, 208
-0.997466, 299, 145, 314, 208
-0.997475, 19, 161, 34, 224
-0.997482, 433, 1, 496, 333
-0.997514, 193, 169, 208, 232
-0.997525, 409, 233, 472, 296
-0.997533, 179, 177, 194, 240
-0.997539, 207, 185, 222, 248
-0.997541, 409, 193, 440, 320
-0.997563, 47, 161, 62, 224
-0.997569, 145, 249, 272, 312
-0.997582, 173, 193, 204, 256
-0.997587, 277, 137, 292, 200
-0.997594, 97, 233, 224, 296
-0.997594, 87, 177, 102, 240
-0.997599, 25, 161, 40, 224
-0.997617, 45, 113, 76, 240
-0.997643, 257, 273, 384, 333
-0.997652, 165, 193, 196, 320
-0.997658, 305, 129, 432, 160
-0.997658, 381, 145, 396, 208
-0.99766, 349, 137, 364, 200
-0.997665, 353, 153, 480, 184
-0.997682, 147, 153, 162, 184
-0.997683, 363, 145, 378, 208
-0.997684, 153, 157, 168, 188
-0.997706, 287, 145, 302, 208
-0.997708, 329, 65, 392, 320
-0.997709, 109, 97, 140, 224
-0.997714, 17, 257, 144, 320
-0.997716, 167, 153, 182, 184
-0.997724, 141, 157, 156, 188
-0.997729, 73, 65, 136, 320
-0.997733, 181, 157, 196, 188
-0.997738, 227, 169, 242, 232
-0.997744, 153, 177, 168, 240
-0.997754, 13, 161, 28, 224
-0.997757, 97, 145, 112, 208
-0.997758, 435, 137, 450, 200
-0.997775, 177, 129, 192, 192
-0.997797, 267, 145, 282, 208
-0.997804, 159, 157, 174, 188
-0.997823, 371, 145, 386, 208
-0.997827, 7, 161, 22, 224
-0.997832, 397, 145, 412, 208
-0.997833, 69, 169, 84, 232
-0.997836, 343, 137, 358, 200
-0.997842, 175, 157, 190, 188
-0.997844, 213, 193, 244, 320
-0.997848, 353, 193, 416, 320
-0.997849, 211, 149, 226, 180
-0.997859, 457, 145, 488, 272
-0.997863, 321, 137, 336, 200
-0.997872, 129, 161, 144, 192
-0.997874, 103, 145, 118, 208
-0.997875, 1, 169, 500, 232
-0.997882, 127, 137, 142, 200
-0.997883, 447, 137, 462, 200
-0.997894, 271, 145, 286, 176
-0.997894, 293, 145, 308, 208
-0.997901, 359, 137, 374, 168
-0.997922, 209, 177, 336, 208
-0.997922, 329, 113, 392, 176
-0.997951, 123, 161, 138, 192
-0.997954, 317, 149, 332, 180
-0.997955, 65, 189, 192, 220
-0.997959, 117, 137, 132, 200
-0.99796, 329, 217, 392, 280
-0.997967, 307, 121, 322, 184
-0.997967, 137, 137, 152, 200
-0.997974, 457, 153, 488, 216
-0.997982, 25, 201, 88, 264
-0.997986, 401, 141, 416, 172
-0.997995, 247, 153, 262, 184
-0.998002, 333, 145, 348, 208
-0.998004, 237, 145, 252, 176
-0.998007, 85, 153, 100, 216
-0.998018, 71, 145, 86, 208
-0.998019, 129, 205, 256, 236
-0.99802, 387, 145, 402, 176
-0.998025, 209, 205, 336, 236
-0.998031, 277, 201, 308, 264
-0.998039, 165, 165, 180, 196
-0.998051, 171, 169, 186, 200
-0.99806, 135, 161, 150, 192
-0.998068, 323, 149, 338, 180
-0.998077, 413, 141, 428, 172
-0.99808, 111, 137, 126, 200
-0.998089, 403, 137, 418, 200
-0.998093, 433, 113, 496, 176
-0.998105, 33, 209, 96, 333
-0.998105, 229, 149, 244, 180
-0.998108, 191, 193, 206, 256
-0.998126, 255, 149, 270, 180
-0.998128, 205, 149, 220, 180
-0.998129, 351, 141, 366, 172
-0.998138, 233, 177, 248, 240
-0.998147, 407, 141, 422, 172
-0.998149, 187, 149, 202, 180
-0.99816, 307, 149, 322, 180
-0.998171, 327, 145, 342, 208
-0.998173, 213, 185, 228, 216
-0.998174, 313, 161, 328, 224
-0.998174, 385, 121, 400, 184
-0.998188, 161, 97, 192, 224
-0.998188, 95, 173, 110, 204
-0.99819, 141, 129, 172, 192
-0.998192, 251, 169, 266, 232
-0.998194, 333, 145, 348, 176
-0.998196, 17, 185, 144, 216
-0.998199, 147, 177, 162, 240
-0.998204, 417, 185, 432, 248
-0.998205, 1, 169, 16, 232
-0.998207, 199, 169, 214, 232
-0.998208, 261, 153, 276, 184
-0.99821, 411, 193, 426, 256
-0.99821, 171, 129, 186, 192
-0.998214, 117, 161, 132, 192
-0.998214, 253, 177, 284, 304
-0.998228, 345, 145, 360, 176
-0.99823, 279, 149, 294, 180
-0.998243, 81, 113, 208, 176
-0.998244, 297, 121, 312, 184
-0.998245, 317, 317, 348, 332
-0.998245, 161, 189, 192, 204
-0.998245, 57, 163, 88, 178
-0.998246, 5, 181, 36, 196
-0.998248, 13, 165, 44, 180
-0.998248, 169, 145, 200, 160
-0.998248, 393, 145, 408, 176
-0.998251, 209, 211, 240, 226
-0.998251, 417, 133, 448, 148
-0.998251, 195, 157, 210, 188
-0.998252, 89, 183, 120, 198
-0.998252, 109, 177, 140, 192
-0.998252, 205, 199, 236, 214
-0.998254, 185, 217, 216, 232
-0.998255, 241, 175, 272, 190
-0.998256, 61, 169, 76, 200
-0.998256, 417, 183, 448, 198
-0.998258, 377, 131, 408, 146
-0.998262, 177, 169, 192, 200
-0.998262, 129, 147, 160, 162
-0.998262, 165, 209, 196, 224
-0.998263, 239, 177, 254, 240
-0.998265, 185, 209, 216, 224
-0.998265, 17, 169, 32, 200
-0.998266, 405, 193, 436, 208
-0.998269, 37, 165, 68, 180
-0.99827, 125, 175, 156, 190
-0.998271, 41, 181, 72, 196
-0.998272, 233, 141, 264, 156
-0.998273, 405, 153, 436, 168
-0.998274, 285, 145, 316, 160
-0.998275, 397, 141, 428, 156
-0.998276, 187, 161, 202, 192
-0.998276, 201, 187, 232, 202
-0.998276, 149, 147, 180, 162
-0.998277, 193, 193, 224, 208
-0.998278, 157, 173, 188, 188
-0.998278, 365, 157, 396, 172
-0.998279, 81, 177, 112, 192
-0.99828, 233, 181, 264, 196
-0.998281, 391, 121, 406, 184
-0.998281, 445, 141, 476, 156
-0.998281, 333, 159, 364, 174
-0.998283, 385, 137, 416, 152
-0.998283, 137, 177, 168, 192
-0.998285, 105, 159, 136, 174
-0.998286, 1, 161, 32, 176
-0.998286, 441, 153, 472, 168
-0.998292, 453, 153, 484, 168
-0.998292, 339, 145, 354, 176
-0.998292, 75, 177, 90, 240
-0.998295, 413, 161, 428, 224
-0.998299, 341, 153, 372, 168
-0.998299, 345, 133, 376, 148
-0.998301, 373, 151, 404, 166
-0.998302, 417, 189, 448, 204
-0.998304, 375, 137, 390, 168
-0.998304, 419, 141, 434, 172
-0.998305, 317, 161, 348, 224
-0.998309, 417, 151, 448, 166
-0.99831, 55, 137, 70, 200
-0.998311, 241, 159, 272, 174
-0.998314, 285, 149, 300, 180
-0.998315, 225, 175, 256, 190
-0.998319, 253, 161, 284, 176
-0.998319, 185, 187, 216, 202
-0.998319, 401, 187, 432, 202
-0.998319, 429, 137, 444, 200
-0.99832, 157, 179, 188, 194
-0.998323, 353, 155, 384, 170
-0.998323, 193, 145, 224, 160
-0.998324, 37, 171, 68, 186
-0.998325, 17, 171, 48, 186
-0.998325, 389, 153, 420, 168
-0.998325, 269, 161, 300, 176
-0.998326, 5, 171, 36, 186
-0.998329, 297, 159, 328, 174
-0.998329, 55, 169, 70, 200
-0.99833, 57, 177, 88, 192
-0.99833, 257, 143, 288, 158
-0.998331, 337, 143, 368, 158
-0.998332, 73, 167, 104, 182
-0.998332, 69, 179, 100, 194
-0.998332, 259, 129, 274, 192
-0.998333, 317, 157, 348, 172
-0.998337, 429, 137, 460, 152
-0.998338, 233, 165, 264, 180
-0.99834, 193, 175, 224, 190
-0.998344, 357, 133, 388, 148
-0.998345, 241, 157, 256, 188
-0.998346, 113, 171, 144, 186
-0.998346, 91, 145, 106, 208
-0.998347, 213, 175, 244, 190
-0.998349, 1, 153, 32, 168
-0.998349, 245, 129, 260, 192
-0.998352, 217, 143, 248, 158
-0.998352, 93, 169, 124, 184
-0.998353, 429, 151, 460, 166
-0.998354, 201, 165, 232, 180
-0.998356, 245, 147, 276, 162
-0.998358, 217, 149, 232, 180
-0.998358, 145, 161, 176, 176
-0.998359, 221, 163, 252, 178
-0.99836, 445, 147, 476, 162
-0.99836, 285, 159, 316, 174
-0.998361, 185, 165, 216, 180
-0.998363, 157, 167, 188, 182
-0.998365, 173, 179, 204, 194
-0.998368, 173, 187, 204, 202
-0.998369, 367, 121, 382, 184
-0.998371, 289, 201, 320, 264
-0.998371, 437, 141, 452, 172
-0.998372, 93, 163, 124, 178
-0.998373, 169, 169, 200, 184
-0.998374, 361, 149, 392, 164
-0.998378, 329, 151, 360, 166
-0.998384, 265, 155, 296, 170
-0.99839, 147, 165, 162, 196
-0.998393, 301, 149, 316, 180
-0.998395, 169, 161, 200, 176
-0.998395, 397, 147, 428, 162
-0.998397, 189, 151, 220, 166
-0.998398, 197, 159, 228, 174
-0.998399, 133, 155, 164, 170
-0.9984, 229, 155, 260, 170
-0.998401, 125, 169, 156, 184
-0.998402, 349, 147, 380, 162
-0.998402, 93, 175, 124, 190
-0.998403, 409, 143, 440, 158
-0.998404, 381, 145, 396, 176
-0.998406, 173, 151, 204, 166
-0.998407, 305, 151, 336, 166
-0.998407, 421, 143, 452, 158
-0.998408, 287, 201, 302, 264
-0.998409, 373, 139, 404, 154
-0.99841, 273, 147, 304, 162
-0.99841, 105, 165, 136, 180
-0.998413, 213, 155, 244, 170
-0.998419, 157, 145, 172, 176
-0.99842, 157, 159, 188, 174
-0.99842, 69, 173, 100, 188
-0.998421, 141, 171, 172, 186
-0.998422, 9, 169, 24, 200
-0.998422, 157, 153, 188, 168
-0.998425, 53, 171, 84, 186
-0.998426, 213, 183, 244, 198
-0.998427, 377, 121, 392, 184
-0.998428, 183, 177, 198, 208
-0.99843, 121, 161, 152, 176
-0.998432, 285, 151, 316, 166
-0.998435, 377, 145, 408, 160
-0.998435, 421, 145, 436, 208
-0.998438, 317, 149, 348, 164
-0.998441, 1, 145, 16, 208
-0.998441, 433, 143, 464, 158
-0.998441, 133, 161, 164, 176
-0.998444, 349, 141, 380, 156
-0.998446, 289, 233, 352, 296
-0.99845, 159, 169, 174, 200
-0.99845, 221, 149, 252, 164
-0.998454, 249, 153, 280, 168
-0.998454, 443, 141, 458, 172
-0.998457, 261, 149, 292, 164
-0.998458, 317, 201, 332, 264
-0.998461, 41, 169, 56, 200
-0.998462, 95, 161, 110, 192
-0.998464, 25, 113, 56, 240
-0.998473, 23, 169, 38, 200
-0.998474, 233, 149, 264, 164
-0.998476, 3, 165, 18, 196
-0.998477, 221, 181, 236, 212
-0.998481, 145, 155, 176, 170
-0.998486, 209, 149, 272, 164
-0.998494, 185, 157, 216, 172
-0.998499, 279, 137, 294, 168
-0.998499, 193, 181, 224, 196
-0.998501, 201, 151, 232, 166
-0.998519, 427, 141, 442, 172
-0.998521, 401, 143, 464, 158
-0.998523, 411, 137, 426, 200
-0.998525, 193, 145, 208, 176
-0.998526, 145, 159, 208, 174
-0.99853, 397, 121, 412, 184
-0.998531, 113, 161, 176, 176
-0.998531, 273, 151, 336, 166
-0.998533, 101, 173, 116, 204
-0.998534, 361, 139, 392, 154
-0.998536, 169, 159, 232, 174
-0.998537, 33, 137, 48, 200
-0.998538, 305, 149, 368, 164
-0.998541, 345, 139, 408, 154
-0.998542, 345, 145, 408, 160
-0.998544, 137, 145, 152, 176
-0.998545, 369, 145, 432, 160
-0.998548, 193, 155, 256, 170
-0.998548, 31, 169, 46, 200
-0.998555, 365, 137, 380, 168
-0.998556, 249, 151, 312, 166
-0.998557, 169, 151, 232, 166
-0.998558, 343, 133, 358, 164
-0.998563, 65, 209, 320, 272
-0.998567, 245, 177, 260, 240
-0.998567, 175, 145, 190, 176
-0.998569, 73, 165, 136, 180
-0.998569, 199, 141, 214, 172
-0.99857, 421, 169, 452, 232
-0.998573, 169, 185, 232, 200
-0.998575, 233, 145, 296, 160
-0.998575, 113, 169, 176, 184
-0.998575, 223, 149, 238, 180
-0.99858, 225, 155, 288, 170
-0.998581, 197, 193, 212, 256
-0.998582, 201, 181, 264, 196
-0.998583, 81, 205, 208, 236
-0.998587, 145, 153, 208, 168
-0.998587, 181, 97, 212, 224
-0.998589, 111, 165, 126, 196
-0.998589, 145, 169, 208, 184
-0.998589, 319, 161, 334, 224
-0.99859, 289, 121, 304, 184
-0.99859, 291, 149, 306, 180
-0.998592, 229, 161, 244, 192
-0.998594, 89, 175, 152, 190
-0.998602, 417, 151, 480, 166
-0.998603, 47, 169, 62, 200
-0.998604, 161, 179, 224, 194
-0.998607, 89, 177, 104, 208
-0.998609, 177, 165, 240, 180
-0.99861, 217, 217, 280, 280
-0.998612, 295, 201, 310, 264
-0.998614, 1, 171, 64, 186
-0.998617, 393, 151, 456, 166
-0.998618, 41, 177, 104, 192
-0.998621, 25, 171, 88, 186
-0.998622, 47, 137, 62, 200
-0.998623, 257, 159, 320, 174
-0.998623, 381, 133, 396, 164
-0.998624, 329, 151, 392, 166
-0.998626, 225, 161, 288, 176
-0.998627, 223, 137, 238, 168
-0.998628, 201, 163, 264, 178
-0.998629, 223, 165, 238, 196
-0.998629, 321, 143, 384, 158
-0.998629, 49, 171, 112, 186
-0.99863, 289, 157, 352, 172
-0.998631, 185, 175, 248, 190
-0.998632, 161, 193, 192, 256
-0.998633, 387, 133, 402, 164
-0.998634, 65, 177, 128, 192
-0.998635, 369, 139, 432, 154
-0.998637, 353, 153, 416, 168
-0.998637, 235, 161, 250, 192
-0.998638, 77, 153, 92, 216
-0.998645, 249, 141, 264, 172
-0.998649, 263, 137, 278, 168
-0.99865, 137, 179, 200, 194
-0.998653, 87, 161, 102, 192
-0.998654, 265, 145, 328, 160
-0.998666, 149, 97, 180, 224
-0.99867, 321, 157, 384, 172
-0.998672, 209, 175, 272, 190
-0.998675, 425, 145, 488, 160
-0.998676, 1, 149, 16, 180
-0.998681, 161, 145, 224, 160
-0.998682, 213, 161, 228, 192
-0.998683, 377, 187, 440, 202
-0.998683, 177, 213, 240, 228
-0.998684, 139, 185, 154, 248
-0.998685, 327, 169, 342, 232
-0.998686, 49, 165, 112, 180
-0.998687, 333, 121, 348, 184
-0.998689, 121, 155, 184, 170
-0.99869, 401, 137, 464, 152
-0.998691, 11, 153, 26, 184
-0.998692, 173, 181, 188, 212
-0.998694, 401, 187, 464, 202
-0.998694, 73, 169, 88, 200
-0.998694, 449, 141, 464, 172
-0.998695, 67, 177, 82, 208
-0.998695, 257, 233, 500, 296
-0.998699, 369, 133, 432, 148
-0.998702, 161, 191, 224, 206
-0.998705, 81, 177, 96, 240
-0.998705, 165, 129, 180, 192
-0.998706, 17, 157, 32, 188
-0.998711, 201, 187, 264, 202
-0.998713, 113, 177, 176, 192
-0.998717, 395, 133, 410, 164
-0.998717, 1, 155, 64, 170
-0.998717, 183, 189, 198, 220
-0.998717, 57, 183, 120, 198
-0.998718, 279, 169, 294, 232
-0.998718, 279, 201, 294, 264
-0.998718, 209, 143, 272, 158
-0.99872, 327, 121, 342, 184
-0.998723, 97, 155, 160, 170
-0.998724, 201, 169, 264, 184
-0.998724, 101, 161, 116, 192
-0.998724, 25, 233, 88, 296
-0.998724, 273, 201, 336, 216
-0.998725, 305, 133, 368, 148
-0.998727, 423, 121, 438, 184
-0.998729, 289, 317, 352, 332
-0.998729, 25, 165, 88, 180
-0.998731, 265, 195, 328, 210
-0.998733, 137, 213, 200, 228
-0.998733, 177, 207, 240, 222
-0.998734, 329, 133, 392, 148
-0.998735, 185, 143, 248, 158
-0.998736, 185, 193, 248, 208
-0.998736, 153, 207, 216, 222
-0.998738, 207, 189, 222, 220
-0.998739, 131, 149, 146, 180
-0.998739, 73, 159, 136, 174
-0.99874, 145, 185, 208, 200
-0.99874, 1, 165, 64, 180
-0.998741, 233, 201, 296, 216
-0.998742, 17, 179, 80, 194
-0.998743, 313, 313, 376, 328
-0.998744, 425, 157, 488, 172
-0.998745, 213, 97, 244, 224
-0.998747, 413, 193, 428, 224
-0.998748, 225, 181, 288, 196
-0.998749, 97, 149, 160, 164
-0.998749, 425, 139, 488, 154
-0.998749, 323, 137, 338, 168
-0.99875, 265, 317, 328, 332
-0.99875, 27, 137, 42, 200
-0.998751, 401, 157, 464, 172
-0.998751, 297, 143, 360, 158
-0.998752, 233, 139, 296, 154
-0.998752, 409, 181, 472, 196
-0.998752, 377, 213, 440, 228
-0.998752, 209, 203, 272, 218
-0.998753, 25, 153, 88, 168
-0.998754, 313, 195, 376, 210
-0.998755, 177, 199, 240, 214
-0.998755, 273, 207, 336, 222
-0.998756, 121, 145, 184, 160
-0.998756, 377, 193, 440, 208
-0.998757, 241, 317, 304, 332
-0.998758, 457, 137, 472, 200
-0.998758, 241, 167, 304, 182
-0.99876, 129, 191, 192, 206
-0.99876, 121, 197, 184, 212
-0.99876, 353, 311, 416, 326
-0.99876, 25, 185, 88, 200
-0.998762, 97, 207, 160, 222
-0.998764, 233, 175, 296, 190
-0.998764, 305, 201, 368, 216
-0.998766, 401, 195, 464, 210
-0.998766, 81, 191, 144, 206
-0.998767, 421, 129, 436, 160
-0.998768, 401, 207, 464, 222
-0.99877, 201, 317, 264, 332
-0.998773, 393, 231, 456, 246
-0.998773, 425, 227, 488, 242
-0.998774, 377, 181, 440, 196
-0.998774, 281, 163, 344, 178
-0.998775, 401, 213, 464, 228
-0.998776, 177, 219, 240, 234
-0.998777, 57, 189, 120, 204
-0.998778, 433, 233, 496, 248
-0.998778, 1, 185, 64, 200
-0.998779, 369, 317, 432, 332
-0.998779, 201, 215, 264, 230
-0.998781, 201, 209, 264, 224
-0.998782, 377, 157, 440, 172
-0.998782, 397, 65, 428, 192
-0.998783, 465, 153, 480, 216
-0.998783, 81, 183, 144, 198
-0.998784, 409, 129, 424, 160
-0.998784, 129, 219, 192, 234
-0.998784, 189, 209, 220, 333
-0.998785, 345, 317, 408, 332
-0.998785, 265, 169, 296, 232
-0.998786, 317, 137, 332, 168
-0.998787, 1, 147, 64, 162
-0.998787, 97, 199, 160, 214
-0.998788, 409, 315, 472, 330
-0.998788, 313, 307, 376, 322
-0.998788, 183, 121, 198, 184
-0.998789, 401, 131, 464, 146
-0.99879, 369, 203, 432, 218
-0.998792, 255, 161, 270, 192
-0.998797, 309, 201, 324, 264
-0.998808, 27, 153, 42, 184
-0.998809, 165, 177, 180, 208
-0.998816, 67, 165, 82, 196
-0.998818, 303, 201, 318, 264
-0.998825, 323, 201, 338, 264
-0.998827, 437, 129, 452, 160
-0.998827, 333, 133, 348, 164
-0.998828, 219, 121, 234, 184
-0.998831, 237, 181, 252, 212
-0.998833, 203, 177, 218, 208
-0.998834, 125, 145, 140, 176
-0.998835, 141, 169, 156, 200
-0.998838, 13, 137, 28, 200
-0.998838, 145, 233, 208, 296
-0.998842, 1, 121, 500, 184
-0.998845, 191, 181, 206, 212
-0.998848, 129, 193, 160, 320
-0.998856, 311, 137, 326, 168
-0.998856, 33, 153, 48, 184
-0.998863, 193, 105, 320, 168
-0.998868, 257, 201, 384, 232
-0.998873, 349, 129, 364, 160
-0.998874, 113, 273, 240, 333
-0.998877, 255, 137, 270, 168
-0.998878, 305, 137, 320, 168
-0.998878, 45, 157, 60, 188
-0.998879, 427, 129, 442, 160
-0.998883, 39, 153, 54, 184
-0.998886, 193, 273, 320, 333
-0.998889, 295, 137, 310, 168
-0.998891, 247, 165, 262, 196
-0.998891, 295, 209, 310, 240
-0.998901, 317, 201, 332, 232
-0.998902, 153, 169, 168, 200
-0.998903, 285, 137, 300, 168
-0.998925, 385, 81, 416, 208
-0.99893, 177, 217, 304, 248
-0.998942, 281, 97, 312, 224
-0.998954, 161, 133, 288, 164
-0.99899, 33, 205, 160, 236
-0.999003, 133, 185, 164, 248
-0.999021, 313, 193, 344, 320
-0.999024, 93, 193, 124, 320
-0.999024, 245, 65, 276, 320
-0.99907, 353, 233, 416, 296
-0.999072, 209, 193, 336, 224
-0.999082, 433, 65, 496, 320
-0.999089, 185, 65, 216, 320
-0.999097, 273, 213, 400, 244
-0.999159, 265, 201, 296, 264
-0.99916, 69, 97, 100, 224
-0.999164, 149, 65, 180, 320
-0.999167, 161, 65, 192, 320
-0.999189, 225, 65, 256, 320
-0.999192, 127, 145, 142, 272
-0.999195, 237, 121, 268, 184
-0.999206, 433, 209, 496, 272
-0.999212, 397, 177, 428, 304
-0.999221, 337, 193, 400, 256
-0.999229, 269, 97, 300, 224
-0.999231, 265, 121, 296, 184
-0.999252, 121, 145, 136, 272
-0.999269, 141, 145, 156, 272
-0.999291, 125, 65, 156, 320
-0.999293, 115, 145, 130, 272
-0.999302, 63, 161, 78, 288
-0.999309, 133, 145, 148, 272
-0.999318, 65, 217, 192, 248
-0.999321, 1, 201, 64, 264
-0.999325, 235, 129, 250, 256
-0.999336, 409, 273, 472, 333
-0.999339, 289, 189, 416, 220
-0.99936, 45, 161, 60, 288
-0.999366, 225, 221, 352, 252
-0.999367, 9, 209, 72, 333
-0.999367, 373, 113, 404, 176
-0.999368, 321, 217, 448, 248
-0.99938, 155, 145, 170, 272
-0.999381, 169, 145, 184, 272
-0.999388, 137, 65, 168, 320
-0.999394, 337, 173, 464, 204
-0.999405, 95, 145, 110, 272
-0.999406, 257, 125, 384, 156
-0.999415, 245, 161, 260, 288
-0.999423, 193, 145, 208, 272
-0.999431, 203, 145, 218, 272
-0.999431, 413, 129, 428, 256
-0.999435, 57, 225, 120, 288
-0.999436, 147, 145, 162, 272
-0.999441, 107, 145, 122, 272
-0.999444, 179, 145, 194, 272
-0.999446, 313, 145, 328, 272
-0.999453, 5, 113, 36, 240
-0.999456, 57, 161, 72, 288
-0.999457, 173, 65, 204, 320
-0.999457, 161, 145, 176, 272
-0.999463, 35, 161, 50, 288
-0.99947, 229, 129, 244, 256
-0.999471, 185, 145, 200, 272
-0.999471, 263, 161, 278, 288
-0.999471, 129, 233, 384, 296
-0.999475, 213, 177, 228, 304
-0.999482, 101, 161, 116, 288
-0.999483, 419, 113, 434, 240
-0.999484, 33, 137, 160, 168
-0.999496, 29, 161, 44, 288
-0.999496, 369, 273, 432, 333
-0.999498, 89, 145, 104, 272
-0.999498, 417, 201, 448, 264
-0.999499, 23, 161, 38, 288
-0.999499, 337, 189, 464, 220
-0.999502, 69, 161, 84, 288
-0.99951, 51, 161, 66, 288
-0.999513, 271, 129, 286, 256
-0.999513, 297, 65, 360, 320
-0.999515, 203, 165, 218, 180
-0.999516, 177, 177, 192, 192
-0.999516, 201, 175, 216, 190
-0.999516, 71, 177, 86, 192
-0.999518, 391, 129, 406, 256
-0.999518, 211, 143, 226, 158
-0.999519, 1, 169, 16, 184
-0.999519, 417, 65, 448, 320
-0.99952, 85, 173, 100, 188
-0.99952, 367, 133, 382, 148
-0.99952, 247, 163, 262, 178
-0.999521, 193, 185, 208, 200
-0.999521, 15, 171, 30, 186
-0.999521, 101, 175, 116, 190
-0.999522, 349, 149, 364, 164
-0.999522, 413, 203, 428, 218
-0.999523, 73, 171, 88, 186
-0.999523, 205, 185, 220, 200
-0.999524, 213, 175, 228, 190
-0.999525, 171, 151, 186, 166
-0.999525, 1, 151, 16, 166
-0.999525, 223, 147, 238, 162
-0.999526, 435, 135, 450, 150
-0.999526, 405, 129, 420, 256
-0.999526, 185, 187, 200, 202
-0.999527, 49, 173, 64, 188
-0.999527, 65, 179, 80, 194
-0.999527, 257, 65, 288, 320
-0.999527, 425, 129, 440, 256
-0.999527, 121, 171, 136, 186
-0.999527, 171, 179, 186, 194
-0.999528, 301, 145, 316, 272
-0.999529, 281, 145, 296, 160
-0.999529, 149, 147, 164, 162
-0.999529, 165, 167, 180, 182
-0.999531, 235, 163, 250, 178
-0.999531, 215, 165, 230, 180
-0.999531, 413, 145, 428, 160
-0.999532, 419, 193, 434, 208
-0.999535, 241, 165, 256, 180
-0.999535, 197, 149, 212, 164
-0.999535, 9, 171, 24, 186
-0.999539, 447, 151, 462, 166
-0.999539, 193, 179, 208, 194
-0.99954, 1, 249, 256, 312
-0.999541, 127, 171, 142, 186
-0.999541, 301, 159, 316, 174
-0.999542, 213, 187, 228, 202
-0.999542, 455, 147, 470, 162
-0.999542, 373, 129, 388, 256
-0.999542, 379, 145, 394, 160
-0.999543, 57, 171, 72, 186
-0.999543, 443, 137, 458, 152
-0.999543, 223, 155, 238, 170
-0.999544, 181, 169, 196, 184
-0.999546, 279, 161, 294, 288
-0.999546, 329, 169, 360, 232
-0.999547, 157, 171, 172, 186
-0.999547, 373, 145, 388, 160
-0.999548, 357, 133, 372, 148
-0.999548, 439, 151, 454, 166
-0.999548, 313, 153, 328, 168
-0.999552, 103, 169, 118, 184
-0.999552, 407, 147, 422, 162
-0.999553, 181, 159, 196, 174
-0.999553, 419, 143, 434, 158
-0.999554, 103, 163, 118, 178
-0.999555, 247, 157, 262, 172
-0.999556, 389, 145, 404, 160
-0.999557, 159, 149, 174, 164
-0.999557, 1, 163, 16, 178
-0.999557, 413, 195, 428, 210
-0.99956, 367, 147, 382, 162
-0.99956, 289, 151, 304, 166
-0.99956, 123, 165, 138, 180
-0.99956, 449, 143, 464, 158
-0.99956, 259, 147, 274, 162
-0.999561, 359, 145, 374, 160
-0.999561, 217, 157, 232, 172
-0.999563, 129, 161, 144, 176
-0.999563, 313, 201, 344, 264
-0.999563, 401, 147, 416, 162
-0.999563, 339, 151, 354, 166
-0.999564, 251, 129, 266, 256
-0.999567, 95, 175, 110, 190
-0.999568, 425, 143, 440, 158
-0.999568, 235, 155, 250, 170
-0.99957, 279, 153, 294, 168
-0.99957, 183, 181, 198, 196
-0.999571, 155, 161, 170, 176
-0.999571, 399, 129, 414, 256
-0.999571, 217, 181, 232, 196
-0.999573, 141, 155, 156, 170
-0.999573, 133, 169, 148, 184
-0.999574, 223, 145, 238, 272
-0.999574, 63, 171, 78, 186
-0.999574, 271, 153, 286, 168
-0.999574, 363, 139, 378, 154
-0.999577, 381, 139, 396, 154
-0.999577, 323, 145, 338, 272
-0.999577, 229, 151, 244, 166
-0.999577, 287, 145, 302, 272
-0.999578, 323, 149, 338, 164
-0.999578, 419, 187, 434, 202
-0.999578, 189, 157, 204, 172
-0.999579, 203, 157, 218, 172
-0.999579, 381, 129, 396, 256
-0.999582, 395, 145, 410, 160
-0.999583, 307, 153, 322, 168
-0.999584, 151, 171, 166, 186
-0.999584, 241, 147, 256, 162
-0.999584, 197, 65, 228, 320
-0.999585, 293, 145, 308, 272
-0.999585, 351, 143, 366, 158
-0.999585, 295, 151, 310, 166
-0.999587, 139, 169, 154, 184
-0.999588, 307, 145, 322, 272
-0.999588, 175, 169, 190, 184
-0.999588, 205, 149, 220, 164
-0.999588, 263, 153, 278, 168
-0.999589, 331, 149, 346, 164
-0.999589, 173, 159, 188, 174
-0.999591, 435, 143, 450, 158
-0.999592, 49, 65, 112, 320
-0.999593, 413, 187, 428, 202
-0.999594, 147, 159, 162, 174
-0.999595, 301, 151, 316, 166
-0.999596, 109, 169, 124, 184
-0.9996, 197, 157, 212, 172
-0.999601, 241, 157, 256, 172
-0.999602, 155, 155, 170, 170
-0.999603, 145, 171, 160, 186
-0.999604, 367, 129, 382, 256
-0.999605, 207, 179, 222, 194
-0.999605, 211, 155, 226, 170
-0.999608, 443, 143, 458, 158
-0.999608, 375, 139, 390, 154
-0.999609, 135, 161, 150, 176
-0.99961, 245, 97, 260, 224
-0.999611, 165, 155, 180, 170
-0.999612, 115, 165, 130, 180
-0.999617, 191, 151, 206, 166
-0.999618, 217, 151, 232, 166
-0.999618, 269, 147, 284, 162
-0.999619, 209, 65, 240, 320
-0.999623, 109, 163, 124, 178
-0.999624, 177, 249, 240, 312
-0.999624, 369, 139, 384, 154
-0.999627, 431, 129, 446, 256
-0.999627, 17, 161, 32, 288
-0.999628, 215, 129, 230, 256
-0.99963, 3, 161, 18, 288
-0.99963, 129, 217, 256, 248
-0.999631, 141, 161, 156, 176
-0.999632, 269, 65, 300, 320
-0.999634, 275, 147, 290, 162
-0.999637, 253, 149, 268, 164
-0.999643, 257, 129, 272, 256
-0.999643, 361, 145, 376, 272
-0.999648, 289, 301, 416, 332
-0.99965, 281, 65, 312, 320
-0.999656, 11, 161, 26, 288
-0.999657, 357, 139, 372, 154
-0.999661, 257, 173, 384, 204
-0.999664, 113, 133, 240, 164
-0.999668, 355, 145, 370, 272
-0.999675, 329, 145, 344, 272
-0.99968, 1, 217, 500, 280
-0.999687, 235, 149, 250, 164
-0.99969, 137, 97, 152, 224
-0.999694, 75, 161, 90, 288
-0.999694, 131, 97, 146, 224
-0.999699, 337, 301, 464, 332
-0.9997, 113, 65, 144, 320
-0.999702, 125, 97, 140, 224
-0.999709, 211, 149, 226, 164
-0.999711, 81, 161, 96, 288
-0.999715, 209, 129, 224, 256
-0.999717, 149, 153, 164, 168
-0.999717, 397, 65, 428, 320
-0.999721, 263, 97, 278, 224
-0.999722, 369, 217, 496, 248
-0.999727, 101, 113, 116, 240
-0.99973, 119, 97, 134, 224
-0.999739, 143, 97, 158, 224
-0.99974, 359, 97, 374, 224
-0.999741, 341, 129, 356, 256
-0.999742, 429, 81, 460, 208
-0.999743, 151, 97, 166, 224
-0.999751, 273, 225, 400, 256
-0.999757, 349, 145, 364, 272
-0.999763, 443, 129, 458, 256
-0.999773, 453, 129, 468, 256
-0.999774, 279, 113, 294, 240
-0.999776, 335, 129, 350, 256
-0.999776, 95, 193, 110, 320
-0.999777, 69, 65, 100, 320
-0.99978, 193, 97, 208, 224
-0.999781, 437, 129, 452, 256
-0.999783, 187, 97, 202, 224
-0.999784, 253, 177, 268, 304
-0.999786, 113, 97, 128, 224
-0.999786, 39, 113, 54, 240
-0.999788, 239, 177, 254, 304
-0.999789, 235, 81, 250, 208
-0.99979, 257, 273, 500, 333
-0.999793, 219, 193, 234, 320
-0.999794, 53, 113, 68, 240
-0.999795, 405, 209, 436, 272
-0.999796, 465, 145, 480, 272
-0.999798, 413, 193, 428, 320
-0.999799, 179, 193, 194, 320
-0.999801, 29, 113, 44, 240
-0.999802, 121, 193, 136, 320
-0.999804, 81, 193, 112, 320
-0.999804, 161, 81, 176, 208
-0.999804, 177, 97, 192, 224
-0.999805, 269, 177, 284, 304
-0.999807, 223, 97, 238, 224
-0.999808, 353, 117, 480, 148
-0.999809, 329, 241, 392, 304
-0.999812, 161, 193, 176, 320
-0.999817, 409, 81, 424, 208
-0.999821, 381, 81, 396, 208
-0.999822, 395, 81, 410, 208
-0.999822, 425, 81, 440, 208
-0.999824, 419, 65, 434, 192
-0.999825, 93, 65, 124, 320
-0.999828, 207, 193, 222, 320
-0.999829, 167, 97, 182, 224
-0.999832, 185, 193, 200, 320
-0.999833, 387, 81, 402, 208
-0.999835, 471, 145, 486, 272
-0.999836, 369, 233, 496, 264
-0.999837, 89, 193, 104, 320
-0.999837, 203, 97, 218, 224
-0.999838, 107, 97, 122, 224
-0.999838, 117, 193, 148, 320
-0.999839, 401, 81, 416, 208
-0.999839, 115, 193, 130, 320
-0.999841, 421, 177, 436, 304
-0.999841, 59, 113, 74, 240
-0.999846, 371, 65, 386, 192
-0.999847, 71, 113, 86, 240
-0.999847, 45, 113, 60, 240
-0.999848, 459, 145, 474, 272
-0.999849, 95, 97, 110, 224
-0.999851, 369, 81, 400, 208
-0.999852, 433, 81, 448, 208
-0.999854, 129, 193, 144, 320
-0.999855, 135, 193, 150, 320
-0.99986, 385, 65, 416, 320
-0.999864, 329, 177, 392, 304
-0.999864, 201, 209, 216, 333
-0.999867, 65, 209, 80, 333
-0.999868, 285, 97, 300, 224
-0.999869, 305, 97, 320, 224
-0.999869, 309, 209, 324, 333
-0.999871, 353, 97, 368, 224
-0.999874, 291, 97, 306, 224
-0.999874, 1, 253, 128, 284
-0.999875, 257, 237, 384, 268
-0.999898, 433, 65, 464, 320
-0.999923, 321, 233, 448, 264
-0.999924, 297, 81, 360, 208
-0.999937, 309, 65, 340, 320
-0.999951, 305, 265, 432, 296
-0.999952, 29, 65, 60, 320
-0.999954, 369, 249, 496, 280
-0.999963, 277, 177, 308, 240
-0.999976, 33, 301, 160, 332
-0.999979, 1, 273, 128, 304
-0.99998, 33, 241, 160, 272
-0.999986, 369, 261, 496, 292
-0.999992, 57, 249, 120, 312
-0.999992, 445, 65, 476, 320
-1.00001, 337, 205, 464, 236
-1.00002, 49, 65, 80, 320
-1.00002, 1, 193, 500, 256
-1.00002, 65, 265, 192, 296
-1.00002, 97, 273, 352, 333
-1.00002, 49, 253, 176, 284
-1.00002, 177, 253, 304, 284
-1.00004, 297, 65, 328, 320
-1.00005, 369, 289, 496, 320
-1.00005, 193, 233, 320, 264
-1.00006, 97, 105, 352, 168
-1.00008, 161, 269, 288, 300
-1.00009, 65, 277, 192, 308
-1.00009, 113, 229, 240, 260
-1.0001, 193, 297, 320, 328
-1.0001, 241, 301, 368, 332
-1.00011, 305, 113, 336, 176
-1.00011, 349, 113, 380, 176
-1.00012, 113, 269, 240, 300
-1.00014, 97, 253, 224, 284
-1.00014, 421, 193, 452, 320
-1.00015, 273, 253, 400, 284
-1.00017, 469, 137, 500, 200
-1.00017, 321, 253, 448, 284
-1.00018, 373, 65, 404, 320
-1.00019, 357, 81, 388, 208
-1.0002, 65, 229, 192, 260
-1.0002, 321, 65, 352, 320
-1.0002, 1, 249, 64, 312
-1.0002, 145, 301, 272, 332
-1.00021, 297, 97, 328, 224
-1.00022, 177, 209, 208, 333
-1.00022, 225, 265, 352, 296
-1.00022, 17, 217, 144, 248
-1.00023, 345, 65, 376, 320
-1.00025, 249, 233, 312, 296
-1.00025, 225, 249, 352, 280
-1.00026, 61, 209, 92, 333
-1.00026, 369, 277, 496, 308
-1.00027, 305, 289, 432, 320
-1.00028, 249, 209, 312, 333
-1.00028, 321, 277, 448, 308
-1.00029, 1, 241, 500, 304
-1.00029, 1, 273, 500, 333
-1.00031, 113, 289, 240, 320
-1.00032, 5, 65, 36, 320
-1.00032, 449, 233, 480, 296
-1.00032, 1, 65, 64, 320
-1.00032, 81, 301, 208, 332
-1.00033, 145, 241, 272, 272
-1.00033, 1, 229, 128, 260
-1.00033, 361, 65, 392, 320
-1.00034, 33, 289, 160, 320
-1.00035, 293, 177, 324, 240
-1.00035, 457, 65, 488, 320
-1.00038, 121, 249, 184, 312
-1.00039, 161, 281, 288, 312
-1.0004, 1, 113, 256, 176
-1.0004, 1, 273, 256, 333
-1.00041, 449, 113, 480, 176
-1.00041, 89, 241, 152, 304
-1.00041, 333, 65, 364, 320
-1.00043, 257, 289, 384, 320
-1.00043, 81, 241, 208, 272
-1.00045, 241, 277, 368, 308
-1.00047, 469, 65, 500, 320
-1.0005, 305, 117, 432, 148
-1.00055, 121, 193, 152, 256
-1.00056, 17, 65, 48, 320
-1.00056, 177, 121, 304, 152
-1.00058, 37, 209, 68, 333
-1.00059, 149, 193, 180, 320
-1.00062, 221, 121, 252, 184
-1.00065, 313, 273, 376, 333
-1.00065, 81, 65, 112, 320
-1.00065, 65, 125, 192, 156
-1.00066, 1, 81, 128, 112
-1.00069, 329, 201, 360, 264
-1.00071, 177, 217, 208, 280
-1.00071, 289, 97, 416, 160
-1.00074, 1, 93, 128, 124
-1.00076, 257, 97, 500, 160
-1.00076, 341, 161, 372, 224
-1.00078, 257, 113, 384, 144
-1.00079, 1, 5, 128, 36
-1.00081, 17, 125, 144, 156
-1.00081, 469, 233, 500, 296
-1.00083, 1, 41, 128, 72
-1.00083, 129, 121, 256, 152
-1.00083, 1, 53, 128, 84
-1.00084, 369, 1, 496, 32
-1.00084, 1, 69, 128, 100
-1.00086, 33, 113, 160, 144
-1.00086, 253, 177, 284, 240
-1.00089, 1, 25, 128, 56
-1.00089, 257, 81, 288, 208
-1.0009, 369, 33, 496, 64
-1.0009, 353, 21, 480, 52
-1.0009, 309, 97, 340, 224
-1.0009, 369, 81, 496, 112
-1.0009, 393, 185, 424, 248
-1.00091, 369, 61, 496, 92
-1.00091, 49, 85, 176, 116
-1.00093, 49, 97, 176, 128
-1.00093, 321, 101, 448, 132
-1.00094, 49, 41, 176, 72
-1.00094, 37, 185, 68, 248
-1.00094, 57, 121, 120, 184
-1.00094, 81, 73, 208, 104
-1.00096, 1, 225, 64, 288
-1.00097, 49, 1, 176, 32
-1.00097, 369, 45, 496, 76
-1.00098, 369, 97, 496, 128
-1.00099, 49, 25, 176, 56
-1.00099, 305, 89, 432, 120
-1.00099, 305, 77, 432, 108
-1.00101, 49, 61, 176, 92
-1.00103, 433, 209, 496, 333
-1.00103, 321, 41, 448, 72
-1.00103, 321, 57, 448, 88
-1.00103, 97, 93, 224, 124
-1.00103, 305, 29, 432, 60
-1.00103, 113, 57, 240, 88
-1.00103, 241, 65, 368, 96
-1.00103, 257, 77, 384, 108
-1.00103, 145, 81, 272, 112
-1.00109, 85, 193, 116, 256
-1.00116, 469, 145, 500, 272
-1.00122, 333, 105, 364, 168
-1.00124, 145, 105, 272, 168
-1.00124, 105, 193, 136, 320
-1.00127, 1, 65, 256, 128
-1.00132, 413, 233, 444, 296
-1.00133, 225, 193, 256, 320
-1.00134, 1, 1, 256, 64
-1.00135, 213, 193, 244, 256
-1.00135, 377, 177, 408, 304
-1.00138, 233, 201, 264, 264
-1.00143, 273, 273, 336, 333
-1.00145, 217, 209, 280, 333
-1.00146, 1, 41, 256, 104
-1.00147, 257, 1, 500, 64
-1.00147, 257, 73, 500, 136
-1.00149, 49, 209, 80, 333
-1.00149, 437, 233, 468, 296
-1.00154, 257, 25, 500, 88
-1.00156, 433, 257, 496, 320
-1.00157, 277, 209, 308, 333
-1.00157, 133, 217, 164, 280
-1.00158, 33, 273, 96, 333
-1.00161, 397, 113, 428, 176
-1.00162, 297, 209, 328, 333
-1.00162, 1, 1, 128, 64
-1.00163, 1, 89, 256, 152
-1.00166, 257, 49, 500, 112
-1.00166, 433, 113, 464, 176
-1.00167, 337, 177, 368, 304
-1.0017, 61, 129, 92, 192
-1.0017, 1, 49, 128, 112
-1.00172, 81, 97, 112, 224
-1.00176, 161, 81, 416, 144
-1.00179, 1, 121, 64, 184
-1.00179, 97, 49, 352, 112
-1.00181, 65, 1, 192, 64
-1.00182, 393, 233, 424, 296
-1.00183, 1, 89, 500, 152
-1.00184, 273, 193, 336, 320
-1.00184, 345, 81, 376, 208
-1.00185, 97, 17, 352, 80
-1.00189, 253, 201, 284, 264
-1.0019, 1, 73, 128, 136
-1.00191, 341, 201, 372, 264
-1.00191, 393, 209, 424, 272
-1.00193, 9, 185, 40, 248
-1.00197, 1, 25, 128, 88
-1.00199, 145, 273, 208, 333
-1.002, 209, 249, 272, 312
-1.00201, 249, 273, 312, 333
-1.00205, 381, 233, 412, 296
-1.00206, 1, 1, 500, 64
-1.00206, 465, 209, 496, 333
-1.00207, 353, 1, 480, 64
-1.0021, 201, 209, 232, 333
-1.00211, 377, 169, 408, 232
-1.00214, 449, 209, 480, 333
-1.00215, 1, 65, 500, 128
-1.00221, 1, 41, 500, 104
-1.00222, 57, 97, 88, 224
-1.00222, 445, 161, 476, 224
-1.00223, 369, 33, 496, 96
-1.00228, 425, 233, 456, 296
-1.00231, 353, 65, 480, 128
-1.00238, 57, 273, 120, 333
-1.00241, 57, 209, 88, 272
-1.00242, 65, 41, 192, 104
-1.00242, 49, 65, 176, 128
-1.00242, 117, 225, 148, 288
-1.00244, 221, 217, 252, 280
-1.00244, 365, 233, 396, 296
-1.00244, 129, 1, 256, 64
-1.00244, 289, 49, 416, 112
-1.00246, 25, 121, 88, 184
-1.00247, 325, 177, 356, 304
-1.00247, 1, 273, 64, 333
-1.00248, 149, 209, 180, 272
-1.0025, 317, 113, 348, 176
-1.00251, 349, 209, 380, 333
-1.00253, 365, 177, 396, 304
-1.00254, 69, 209, 100, 272
-1.00255, 337, 89, 464, 152
-1.00256, 433, 209, 464, 333
-1.00256, 273, 25, 400, 88
-1.00258, 437, 209, 468, 272
-1.00259, 273, 1, 400, 64
-1.00259, 113, 33, 240, 96
-1.00259, 97, 73, 224, 136
-1.00259, 329, 233, 360, 296
-1.00262, 209, 41, 336, 104
-1.00262, 1, 209, 32, 333
-1.00271, 169, 105, 232, 168
-1.00273, 461, 97, 492, 224
-1.00274, 193, 17, 320, 80
-1.00276, 241, 65, 368, 128
-1.00277, 321, 81, 352, 208
-1.00281, 321, 25, 448, 88
-1.00282, 89, 273, 152, 333
-1.00291, 161, 49, 288, 112
-1.00291, 161, 73, 288, 136
-1.00292, 17, 97, 144, 160
-1.00306, 333, 81, 364, 208
-1.00306, 441, 81, 472, 208
-1.00321, 25, 209, 56, 333
-1.00325, 289, 73, 416, 136
-1.00332, 265, 209, 296, 333
-1.00347, 13, 209, 44, 333
-1.00355, 1, 65, 128, 192
-1.00356, 225, 273, 288, 333
-1.00372, 185, 273, 248, 333
-1.00377, 121, 273, 184, 333
-1.00398, 377, 97, 440, 160
-1.00416, 345, 265, 408, 328
-1.00416, 1, 49, 256, 176
-1.00437, 33, 1, 288, 128
-1.00468, 281, 97, 344, 160
-1.00482, 97, 113, 160, 176
-1.00504, 201, 65, 232, 192
-1.00509, 161, 49, 416, 176
-1.00522, 433, 185, 496, 248
-1.00569, 257, 1, 500, 128
-1.00587, 129, 105, 192, 168
-1.00666, 225, 49, 352, 176
-1.00676, 1, 1, 128, 128
-1.00725, 97, 49, 224, 176
-1.00772, 453, 49, 484, 176
-1.00825, 369, 17, 496, 144
-1.00836, 305, 33, 432, 160
-1.00838, 129, 1, 384, 128
-1.00846, 97, 1, 224, 128
-1.0085, 65, 97, 128, 160
-1.00853, 153, 1, 216, 64
-1.00853, 177, 1, 240, 64
-1.00853, 297, 1, 360, 64
-1.00853, 401, 41, 464, 104
-1.00855, 257, 97, 320, 160
-1.00865, 49, 1, 176, 128
-1.00869, 385, 1, 448, 64
-1.00869, 417, 1, 480, 64
-1.00873, 337, 81, 400, 144
-1.00873, 9, 41, 72, 104
-1.00873, 425, 49, 488, 112
-1.00874, 409, 89, 472, 152
-1.00878, 329, 1, 392, 64
-1.00878, 353, 33, 416, 96
-1.00878, 33, 49, 96, 112
-1.00878, 377, 57, 440, 120
-1.00879, 277, 49, 308, 176
-1.00881, 225, 97, 288, 160
-1.00881, 229, 49, 260, 176
-1.00885, 5, 65, 36, 192
-1.00885, 433, 25, 496, 88
-1.00894, 33, 1, 96, 64
-1.00894, 1, 17, 64, 80
-1.00896, 465, 49, 496, 176
-1.00899, 361, 1, 424, 64
-1.00899, 41, 25, 104, 88
-1.00902, 425, 33, 456, 160
-1.00903, 57, 1, 120, 64
-1.00903, 217, 1, 280, 64
-1.00903, 241, 1, 304, 64
-1.00903, 273, 1, 336, 64
-1.00903, 377, 25, 440, 88
-1.00904, 253, 1, 284, 128
-1.00904, 217, 49, 248, 176
-1.00907, 409, 33, 440, 160
-1.00911, 193, 97, 256, 160
-1.00918, 385, 33, 416, 160
-1.00921, 137, 1, 168, 128
-1.00921, 149, 1, 180, 128
-1.00921, 233, 1, 264, 128
-1.00921, 265, 1, 296, 128
-1.00921, 329, 1, 360, 128
-1.00921, 461, 1, 492, 128
-1.00922, 189, 49, 220, 176
-1.00928, 361, 33, 392, 160
-1.00939, 97, 1, 128, 128
-1.00939, 109, 1, 140, 128
-1.00939, 221, 1, 252, 128
-1.00939, 301, 1, 332, 128
-1.00939, 445, 1, 476, 128
-1.00945, 217, 49, 280, 176
-1.00953, 277, 1, 308, 128
-1.00953, 289, 1, 320, 128
-1.00956, 77, 17, 108, 144
-1.00996, 225, 1, 352, 128
-1.01032, 145, 1, 272, 128
-1.01072, 177, 49, 240, 176
-1.01077, 145, 49, 272, 176
-1.01176, 377, 33, 440, 160
-1.01189, 49, 49, 176, 176
-1.01224, 41, 65, 104, 192
-1.01258, 273, 49, 336, 176
-1.01364, 41, 1, 104, 128
-1.01375, 417, 33, 480, 160
-1.0139, 1, 65, 64, 192
-1.01393, 1, 1, 64, 128
-1.01406, 73, 1, 136, 128
-1.01406, 145, 1, 208, 128
-1.01406, 185, 1, 248, 128
-1.01406, 225, 1, 288, 128
-1.01414, 73, 49, 136, 176
-1.0143, 353, 33, 416, 160
-1.01442, 121, 1, 184, 128
-1.01442, 257, 1, 320, 128
-1.01442, 297, 1, 360, 128
-1.01513, 97, 1, 160, 128
-1.0152, 321, 1, 384, 128
-1.0153, 129, 49, 192, 176
-1.01669, 241, 49, 304, 176
-1.01692, 105, 49, 168, 176
-1.01747, 153, 49, 216, 176
