1926
-0.636419, 1, 33, 500, 288
-0.673699, 1, 1, 500, 339
-0.728987, 193, 1, 448, 339
-0.7647, 33, 1, 288, 339
-0.837356, 257, 97, 500, 339
-0.840975, 97, 97, 352, 339
-0.885731, 1, 65, 256, 320
-0.925815, 161, 97, 288, 339
-0.927952, 225, 1, 352, 339
-0.927963, 209, 97, 336, 339
-0.928214, 257, 1, 500, 256
-0.930739, 305, 1, 432, 339
-0.933795, 1, 113, 500, 240
-0.936071, 257, 97, 384, 339
-0.936927, 321, 97, 448, 339
-0.938284, 145, 1, 272, 339
-0.939005, 129, 161, 384, 288
-0.942187, 369, 1, 496, 339
-0.9434, 209, 129, 272, 256
-0.944253, 113, 97, 240, 339
-0.945489, 1, 1, 128, 339
-0.947056, 97, 113, 352, 240
-0.947154, 225, 129, 480, 256
-0.947686, 1, 177, 500, 304
-0.947743, 49, 65, 176, 320
-0.947917, 161, 113, 288, 240
-0.948529, 209, 113, 336, 240
-0.949804, 65, 1, 192, 339
-0.949957, 233, 145, 296, 272
-0.952154, 369, 97, 496, 339
-0.952281, 217, 137, 280, 200
-0.955025, 209, 1, 336, 256
-0.955118, 1, 65, 128, 320
-0.9555, 1, 65, 500, 192
-0.956903, 1, 97, 256, 224
-0.957213, 209, 161, 336, 288
-0.957673, 145, 161, 272, 288
-0.957809, 129, 1, 256, 256
-0.957853, 225, 161, 288, 224
-0.960614, 257, 1, 384, 256
-0.960888, 185, 113, 248, 240
-0.96104, 201, 161, 264, 224
-0.961775, 369, 1, 496, 256
-0.962041, 257, 129, 384, 256
-0.963298, 97, 1, 352, 256
-0.963342, 241, 97, 304, 224
-0.964795, 337, 145, 464, 272
-0.965015, 281, 113, 344, 240
-0.967797, 257, 177, 500, 304
-0.969436, 241, 137, 304, 200
-0.969468, 185, 161, 248, 288
-0.969746, 193, 137, 256, 200
-0.970623, 305, 1, 432, 256
-0.970834, 249, 169, 312, 232
-0.971365, 193, 81, 448, 208
-0.971605, 281, 161, 344, 288
-0.972313, 113, 97, 240, 224
-0.97317, 209, 81, 272, 208
-0.973343, 193, 145, 320, 208
-0.973409, 385, 145, 448, 208
-0.973701, 233, 113, 264, 240
-0.973709, 401, 145, 464, 272
-0.973846, 185, 185, 248, 248
-0.973896, 217, 113, 280, 176
-0.974011, 225, 169, 352, 232
-0.974038, 233, 153, 264, 216
-0.974785, 33, 161, 288, 288
-0.975027, 305, 161, 368, 288
-0.975732, 145, 161, 208, 288
-0.975745, 209, 177, 272, 304
-0.976004, 273, 169, 336, 232
-0.976325, 313, 169, 376, 232
-0.97635, 289, 177, 416, 304
-0.976557, 113, 169, 176, 232
-0.97656, 153, 113, 216, 240
-0.977457, 361, 169, 424, 232
-0.977496, 221, 121, 252, 184
-0.977544, 65, 97, 192, 224
-0.977863, 249, 137, 280, 200
-0.978118, 345, 129, 408, 256
-0.978181, 225, 185, 288, 248
-0.978499, 145, 153, 272, 216
-0.978625, 177, 161, 240, 224
-0.978868, 221, 153, 252, 216
-0.979049, 257, 145, 320, 272
-0.979061, 353, 129, 416, 192
-0.979667, 433, 129, 496, 256
-0.979899, 245, 161, 276, 288
-0.979907, 241, 193, 304, 320
-0.979945, 265, 145, 328, 208
-0.980131, 245, 113, 276, 240
-0.980155, 145, 177, 272, 240
-0.980199, 289, 145, 352, 208
-0.980432, 321, 113, 384, 240
-0.980504, 81, 177, 208, 304
-0.980563, 257, 113, 320, 176
-0.980848, 425, 161, 488, 224
-0.980953, 209, 121, 336, 184
-0.981, 221, 129, 252, 256
-0.981012, 73, 169, 136, 232
-0.981464, 369, 193, 496, 320
-0.981874, 377, 129, 440, 256
-0.982216, 273, 177, 400, 240
-0.9823, 225, 193, 256, 256
-0.982317, 257, 161, 288, 224
-0.982326, 313, 193, 376, 256
-0.982937, 257, 145, 384, 208
-0.983134, 233, 129, 264, 192
-0.983244, 337, 169, 400, 232
-0.983347, 209, 137, 240, 200
-0.983432, 121, 177, 184, 304
-0.983486, 425, 193, 488, 256
-0.98349, 417, 193, 480, 320
-0.983522, 145, 177, 208, 240
-0.983539, 353, 185, 480, 248
-0.984332, 245, 177, 276, 240
-0.98438, 209, 65, 336, 192
-0.98449, 257, 81, 384, 208
-0.984652, 305, 97, 432, 224
-0.984661, 225, 209, 288, 272
-0.984784, 209, 161, 240, 224
-0.984833, 177, 105, 240, 168
-0.985183, 201, 209, 264, 272
-0.985358, 17, 97, 144, 224
-0.985597, 97, 177, 224, 240
-0.985792, 309, 145, 340, 272
-0.98589, 1, 17, 500, 144
-0.985905, 129, 113, 192, 240
-0.985976, 321, 145, 384, 208
-0.986238, 33, 161, 160, 288
-0.986348, 105, 97, 168, 224
-0.986386, 401, 185, 464, 248
-0.986552, 201, 97, 264, 339
-0.986642, 201, 249, 264, 312
-0.986697, 97, 209, 352, 336
-0.986702, 257, 129, 288, 256
-0.986798, 269, 137, 300, 200
-0.987031, 337, 161, 464, 224
-0.987143, 49, 169, 176, 232
-0.987171, 329, 177, 392, 304
-0.987539, 121, 193, 184, 256
-0.987549, 337, 193, 400, 256
-0.987551, 333, 169, 364, 232
-0.987561, 221, 177, 252, 304
-0.987642, 349, 169, 380, 232
-0.987655, 129, 113, 256, 176
-0.9877, 209, 113, 240, 240
-0.98799, 1, 209, 256, 336
-0.988014, 1, 169, 128, 232
-0.988049, 369, 81, 496, 208
-0.988138, 225, 233, 288, 296
-0.988153, 321, 145, 352, 272
-0.988181, 33, 177, 96, 304
-0.988278, 17, 169, 80, 232
-0.988303, 65, 249, 128, 312
-0.988386, 313, 169, 344, 232
-0.988391, 337, 137, 464, 200
-0.988446, 389, 153, 420, 216
-0.988606, 269, 161, 300, 224
-0.988645, 289, 113, 320, 240
-0.988807, 185, 65, 248, 192
-0.988823, 161, 65, 288, 192
-0.988938, 233, 193, 264, 320
-0.98901, 249, 177, 312, 208
-0.989151, 217, 153, 280, 184
-0.989249, 233, 97, 296, 339
-0.989404, 217, 133, 280, 164
-0.989504, 217, 169, 280, 200
-0.989547, 249, 113, 280, 176
-0.989638, 289, 193, 352, 256
-0.989638, 281, 181, 344, 212
-0.989688, 313, 181, 376, 212
-0.989691, 73, 193, 136, 256
-0.989698, 437, 145, 468, 272
-0.989794, 165, 113, 196, 240
-0.989926, 177, 177, 240, 208
-0.990107, 401, 137, 432, 200
-0.990119, 361, 189, 424, 220
-0.990167, 309, 193, 340, 320
-0.990207, 369, 113, 496, 176
-0.990283, 25, 81, 88, 208
-0.990394, 257, 121, 384, 184
-0.990432, 121, 185, 184, 216
-0.990478, 393, 121, 456, 184
-0.990501, 401, 193, 464, 224
-0.990505, 225, 181, 288, 212
-0.990512, 269, 113, 300, 240
-0.990537, 145, 181, 208, 212
-0.990584, 361, 169, 392, 232
-0.990596, 241, 165, 304, 196
-0.990654, 169, 137, 232, 200
-0.9907, 153, 145, 184, 272
-0.990711, 337, 185, 400, 216
-0.990735, 237, 209, 268, 272
-0.990808, 293, 169, 324, 232
-0.990832, 49, 193, 176, 256
-0.990857, 425, 197, 488, 228
-0.990858, 121, 169, 152, 232
-0.990911, 193, 149, 256, 180
-0.990932, 129, 169, 384, 232
-0.990965, 213, 185, 244, 248
-0.990978, 209, 209, 336, 336
-0.990999, 433, 81, 496, 208
-0.991006, 81, 97, 144, 224
-0.991032, 201, 193, 264, 224
-0.991146, 241, 141, 304, 172
-0.991179, 81, 181, 144, 212
-0.991201, 225, 193, 352, 256
-0.991202, 425, 121, 488, 184
-0.991286, 293, 145, 324, 208
-0.991295, 157, 193, 188, 320
-0.991379, 97, 153, 224, 216
-0.991456, 417, 153, 448, 216
-0.991466, 241, 241, 368, 304
-0.991503, 385, 145, 448, 176
-0.991508, 209, 97, 336, 160
-0.991526, 313, 193, 376, 224
-0.991564, 341, 129, 372, 256
-0.991571, 361, 177, 424, 208
-0.991616, 137, 169, 168, 232
-0.991637, 225, 193, 288, 224
-0.991665, 201, 181, 264, 212
-0.991687, 241, 153, 304, 184
-0.991688, 197, 145, 228, 208
-0.991694, 17, 193, 80, 256
-0.991698, 289, 161, 320, 288
-0.991799, 185, 161, 248, 192
-0.991832, 281, 169, 344, 200
-0.991852, 145, 241, 208, 304
-0.991944, 413, 177, 444, 240
-0.991945, 353, 137, 416, 168
-0.991956, 17, 197, 80, 228
-0.991967, 49, 193, 112, 224
-0.991998, 73, 193, 136, 224
-0.992005, 185, 137, 248, 168
-0.992027, 193, 145, 448, 208
-0.992059, 89, 249, 152, 312
-0.992097, 97, 193, 160, 224
-0.992105, 337, 173, 400, 204
-0.992117, 265, 137, 328, 168
-0.992123, 225, 149, 256, 180
-0.992199, 225, 205, 288, 236
-0.992221, 233, 249, 264, 312
-0.992227, 201, 209, 264, 240
-0.992238, 1, 49, 256, 176
-0.992261, 121, 173, 184, 204
-0.992267, 209, 265, 272, 296
-0.9923, 329, 193, 360, 256
-0.992321, 233, 105, 264, 168
-0.992358, 373, 177, 404, 240
-0.992369, 385, 181, 448, 212
-0.992421, 225, 121, 288, 152
-0.992426, 81, 97, 144, 160
-0.992453, 249, 141, 280, 172
-0.992492, 369, 185, 400, 216
-0.992511, 281, 169, 312, 232
-0.992532, 321, 181, 352, 212
-0.992546, 289, 201, 416, 264
-0.992547, 249, 125, 312, 156
-0.992579, 377, 157, 440, 188
-0.992586, 241, 153, 272, 184
-0.992613, 213, 149, 244, 180
-0.992613, 201, 121, 264, 152
-0.992614, 257, 173, 288, 204
-0.992619, 1, 309, 64, 339
-0.992621, 149, 169, 180, 232
-0.992629, 265, 149, 328, 180
-0.992669, 349, 193, 380, 256
-0.992672, 145, 169, 208, 200
-0.992672, 333, 181, 364, 212
-0.992679, 377, 153, 408, 216
-0.992698, 289, 177, 320, 208
-0.992702, 225, 217, 288, 248
-0.992724, 277, 177, 308, 208
-0.992733, 357, 185, 388, 216
-0.992761, 309, 181, 340, 212
-0.992786, 129, 241, 256, 304
-0.992788, 145, 153, 208, 216
-0.992799, 213, 137, 244, 168
-0.992814, 65, 105, 192, 168
-0.992817, 201, 253, 264, 284
-0.992818, 229, 193, 260, 224
-0.992819, 433, 185, 496, 216
-0.992831, 417, 153, 480, 184
-0.992833, 189, 97, 220, 224
-0.992835, 213, 161, 244, 192
-0.992852, 233, 265, 296, 296
-0.99286, 9, 185, 72, 216
-0.992866, 297, 241, 360, 304
-0.992867, 253, 161, 284, 192
-0.992875, 341, 145, 372, 208
-0.992877, 409, 181, 472, 212
-0.992887, 149, 181, 180, 212
-0.992887, 105, 217, 168, 280
-0.992894, 113, 185, 144, 216
-0.992901, 57, 177, 120, 208
-0.992906, 233, 133, 264, 164
-0.992918, 461, 193, 492, 256
-0.992925, 229, 173, 260, 204
-0.992935, 201, 233, 264, 264
-0.992939, 201, 89, 264, 152
-0.992952, 9, 177, 72, 304
-0.992977, 305, 169, 368, 200
-0.992979, 457, 201, 488, 232
-0.992982, 257, 97, 320, 339
-0.992992, 137, 181, 168, 212
-0.992995, 245, 185, 276, 216
-0.993006, 201, 221, 264, 252
-0.993013, 381, 185, 412, 216
-0.993018, 225, 253, 288, 284
-0.993031, 437, 197, 468, 228
-0.993038, 1, 177, 500, 240
-0.993043, 345, 185, 376, 216
-0.993057, 101, 185, 132, 216
-0.993061, 173, 181, 204, 212
-0.993068, 413, 193, 444, 224
-0.993069, 213, 185, 244, 216
-0.993086, 125, 181, 156, 212
-0.993092, 205, 173, 236, 204
-0.993105, 185, 109, 248, 140
-0.993112, 193, 173, 320, 204
-0.993113, 229, 257, 260, 288
-0.993117, 241, 181, 368, 212
-0.993118, 289, 265, 352, 296
-0.993129, 189, 177, 220, 208
-0.993133, 397, 189, 428, 220
-0.993145, 421, 145, 452, 272
-0.993156, 225, 241, 288, 272
-0.993161, 401, 141, 432, 172
-0.993162, 41, 185, 104, 248
-0.993177, 269, 165, 300, 196
-0.993182, 381, 173, 412, 204
-0.99319, 161, 177, 192, 208
-0.99319, 409, 97, 472, 224
-0.99319, 141, 177, 172, 304
-0.993193, 337, 197, 400, 228
-0.993196, 389, 129, 420, 192
-0.993204, 241, 165, 272, 196
-0.993212, 425, 193, 456, 224
-0.993221, 313, 169, 344, 200
-0.993226, 289, 193, 352, 224
-0.993227, 325, 193, 356, 320
-0.993232, 225, 161, 256, 192
-0.993234, 297, 189, 328, 220
-0.99324, 261, 149, 292, 180
-0.993244, 225, 213, 256, 244
-0.993249, 433, 141, 496, 172
-0.993252, 233, 121, 264, 152
-0.993259, 393, 177, 424, 208
-0.993259, 413, 181, 444, 212
-0.993265, 169, 125, 232, 156
-0.993268, 81, 105, 144, 136
-0.993271, 405, 129, 436, 256
-0.993275, 33, 181, 96, 212
-0.993278, 437, 185, 468, 216
-0.993279, 353, 197, 384, 228
-0.993282, 225, 229, 288, 260
-0.993287, 313, 145, 376, 176
-0.993287, 169, 149, 232, 180
-0.993295, 21, 201, 52, 232
-0.993311, 301, 169, 332, 200
-0.993325, 345, 149, 408, 180
-0.993325, 161, 189, 192, 220
-0.993326, 237, 217, 268, 248
-0.993327, 361, 173, 392, 204
-0.993334, 249, 113, 312, 144
-0.993336, 229, 245, 260, 276
-0.993337, 389, 149, 420, 180
-0.993343, 401, 133, 464, 164
-0.993359, 297, 245, 360, 276
-0.993359, 201, 141, 232, 172
-0.993361, 41, 197, 72, 228
-0.993361, 89, 185, 120, 216
-0.993365, 345, 173, 376, 204
-0.993371, 125, 193, 156, 224
-0.993373, 237, 205, 268, 236
-0.993382, 145, 257, 208, 288
-0.993383, 457, 189, 488, 220
-0.993385, 369, 197, 400, 228
-0.993386, 269, 137, 300, 168
-0.99339, 5, 205, 36, 236
-0.993422, 121, 109, 184, 140
-0.993423, 369, 129, 400, 192
-0.993425, 61, 193, 92, 224
-0.993425, 249, 129, 280, 160
-0.993425, 233, 269, 264, 300
-0.993426, 401, 165, 464, 196
-0.993429, 73, 193, 104, 224
-0.993433, 265, 185, 296, 216
-0.993447, 313, 145, 344, 208
-0.993453, 361, 265, 424, 296
-0.993455, 281, 165, 312, 196
-0.993456, 373, 137, 404, 168
-0.993457, 257, 189, 320, 220
-0.993463, 153, 193, 216, 224
-0.993464, 225, 225, 256, 256
-0.993469, 25, 93, 88, 124
-0.99347, 285, 189, 316, 220
-0.993473, 469, 205, 500, 236
-0.993477, 177, 189, 240, 220
-0.993479, 245, 265, 276, 296
-0.993484, 201, 161, 232, 192
-0.993492, 309, 245, 340, 276
-0.993497, 65, 261, 128, 292
-0.993499, 221, 121, 252, 152
-0.993504, 109, 169, 140, 232
-0.993505, 157, 241, 188, 272
-0.993507, 217, 197, 248, 228
-0.993509, 113, 173, 144, 204
-0.993513, 309, 257, 340, 288
-0.993526, 309, 193, 340, 224
-0.993531, 389, 137, 420, 168
-0.993537, 225, 257, 288, 320
-0.993543, 173, 169, 204, 200
-0.993544, 329, 193, 360, 224
-0.993554, 61, 181, 92, 212
-0.993567, 313, 129, 376, 160
-0.993568, 289, 145, 352, 176
-0.993569, 325, 169, 356, 200
-0.993572, 17, 189, 48, 220
-0.993578, 145, 245, 208, 276
-0.993582, 261, 125, 292, 156
-0.993593, 1, 189, 32, 220
-0.993598, 461, 105, 492, 136
-0.993601, 161, 253, 192, 284
-0.993604, 357, 137, 388, 168
-0.993609, 137, 193, 168, 224
-0.993611, 245, 249, 276, 280
-0.993617, 441, 149, 472, 180
-0.993617, 425, 157, 456, 188
-0.99362, 265, 265, 328, 296
-0.993625, 321, 265, 384, 296
-0.993626, 1, 81, 64, 144
-0.993627, 237, 229, 268, 260
-0.993628, 409, 153, 440, 184
-0.993634, 93, 173, 124, 204
-0.993634, 249, 117, 280, 148
-0.993643, 217, 173, 248, 204
-0.993648, 221, 81, 252, 208
-0.99365, 113, 197, 144, 228
-0.993651, 289, 133, 352, 164
-0.993652, 457, 129, 488, 160
-0.993658, 37, 185, 68, 216
-0.993666, 13, 81, 44, 112
-0.993675, 149, 169, 180, 200
-0.99368, 309, 233, 340, 264
-0.993687, 101, 197, 132, 228
-0.993696, 341, 145, 372, 176
-0.9937, 149, 193, 180, 224
-0.993701, 73, 177, 104, 208
-0.993711, 401, 261, 464, 292
-0.993711, 305, 213, 368, 244
-0.993713, 297, 265, 328, 296
-0.993724, 457, 141, 488, 172
-0.993724, 81, 249, 208, 312
-0.993726, 361, 209, 392, 240
-0.993736, 281, 117, 312, 148
-0.993737, 425, 181, 456, 212
-0.993739, 377, 153, 408, 184
-0.993745, 165, 265, 196, 296
-0.993745, 1, 309, 32, 339
-0.993745, 109, 105, 140, 136
-0.993748, 393, 165, 424, 196
-0.99375, 217, 265, 248, 296
-0.993751, 137, 169, 168, 200
-0.993751, 185, 113, 216, 144
-0.993755, 97, 169, 160, 200
-0.993766, 353, 161, 416, 192
-0.993773, 49, 101, 112, 132
-0.993783, 433, 261, 496, 292
-0.993802, 145, 181, 272, 212
-0.993807, 1, 93, 64, 124
-0.993815, 153, 113, 216, 144
-0.993817, 49, 97, 112, 224
-0.993829, 313, 193, 344, 256
-0.993835, 433, 129, 496, 160
-0.993839, 153, 269, 216, 300
-0.993839, 49, 309, 112, 339
-0.993843, 1, 65, 64, 320
-0.99385, 153, 97, 184, 224
-0.993851, 113, 205, 176, 236
-0.993852, 377, 133, 440, 164
-0.99386, 309, 233, 340, 296
-0.993861, 89, 261, 152, 292
-0.993862, 113, 217, 176, 248
-0.993867, 265, 245, 328, 276
-0.993867, 25, 81, 88, 112
-0.993888, 425, 165, 488, 196
-0.993899, 153, 209, 216, 240
-0.993932, 209, 113, 240, 176
-0.993945, 177, 265, 240, 296
-0.993947, 177, 249, 240, 280
-0.993956, 129, 269, 192, 300
-0.99396, 321, 249, 384, 280
-0.993968, 105, 249, 168, 280
-0.993968, 97, 169, 128, 232
-0.993982, 433, 105, 496, 136
-0.993989, 353, 125, 416, 156
-0.993989, 65, 249, 128, 280
-0.993994, 217, 1, 280, 339
-0.993999, 225, 225, 256, 288
-0.994, 281, 209, 344, 240
-0.994028, 65, 89, 128, 120
-0.994029, 177, 201, 240, 232
-0.994041, 1, 81, 64, 112
-0.994081, 433, 273, 496, 304
-0.994087, 25, 89, 88, 152
-0.994096, 121, 97, 184, 128
-0.9941, 177, 97, 240, 339
-0.994101, 201, 89, 264, 120
-0.994107, 289, 241, 416, 304
-0.994109, 329, 209, 392, 240
-0.994114, 1, 81, 64, 208
-0.99412, 177, 277, 240, 308
-0.994124, 161, 137, 224, 168
-0.994127, 401, 273, 464, 304
-0.994128, 257, 277, 320, 308
-0.99413, 41, 261, 104, 292
-0.99416, 209, 161, 240, 288
-0.994161, 97, 193, 160, 256
-0.994194, 49, 97, 112, 339
-0.994316, 17, 257, 144, 320
-0.994355, 235, 153, 250, 216
-0.99436, 65, 137, 320, 200
-0.994363, 453, 113, 484, 240
-0.994365, 177, 257, 240, 320
-0.994418, 289, 185, 416, 216
-0.994439, 97, 65, 352, 192
-0.994454, 393, 193, 456, 320
-0.994486, 369, 193, 432, 256
-0.994504, 105, 97, 168, 160
-0.994538, 157, 233, 188, 296
-0.994545, 377, 97, 440, 339
-0.994574, 425, 97, 488, 339
-0.994583, 401, 161, 432, 224
-0.994614, 433, 161, 464, 224
-0.994621, 361, 193, 392, 256
-0.994675, 177, 257, 304, 320
-0.994716, 225, 169, 480, 232
-0.994717, 161, 89, 288, 152
-0.994729, 1, 49, 128, 176
-0.99473, 401, 97, 464, 339
-0.994743, 1, 193, 128, 256
-0.994754, 41, 257, 104, 320
-0.994765, 177, 161, 208, 288
-0.994767, 41, 177, 72, 304
-0.994811, 97, 185, 224, 216
-0.994852, 257, 81, 288, 208
-0.99488, 145, 193, 176, 256
-0.994885, 227, 129, 242, 192
-0.994905, 243, 161, 258, 224
-0.994911, 237, 121, 252, 184
-0.994914, 337, 189, 464, 220
-0.994964, 353, 1, 416, 339
-0.994982, 17, 97, 144, 160
-0.995022, 329, 145, 360, 208
-0.99503, 221, 97, 252, 160
-0.995062, 281, 145, 312, 208
-0.995066, 9, 273, 72, 336
-0.995115, 33, 169, 288, 232
-0.995117, 193, 121, 448, 184
-0.995124, 189, 169, 220, 232
-0.995148, 145, 201, 272, 264
-0.995152, 373, 129, 404, 256
-0.995163, 269, 113, 300, 176
-0.995169, 177, 113, 208, 240
-0.995189, 81, 217, 208, 280
-0.995197, 209, 217, 336, 280
-0.995218, 145, 105, 208, 168
-0.995339, 105, 97, 168, 339
-0.995352, 239, 193, 254, 256
-0.995374, 243, 121, 258, 184
-0.995376, 265, 145, 280, 208
-0.995395, 229, 153, 244, 216
-0.995421, 393, 129, 424, 256
-0.995424, 193, 161, 320, 192
-0.995428, 353, 129, 384, 256
-0.995434, 177, 145, 304, 176
-0.995442, 121, 193, 152, 256
-0.995483, 61, 169, 92, 232
-0.995494, 257, 97, 384, 160
-0.995548, 225, 89, 288, 152
-0.995567, 255, 137, 270, 200
-0.995604, 393, 1, 456, 339
-0.995634, 33, 189, 160, 220
-0.99565, 433, 193, 464, 320
-0.995686, 209, 133, 336, 164
-0.995688, 249, 153, 264, 216
-0.99575, 265, 257, 328, 320
-0.995775, 49, 97, 112, 160
-0.995793, 277, 177, 308, 304
-0.99581, 369, 249, 496, 312
-0.995839, 221, 257, 252, 320
-0.995856, 153, 97, 216, 339
-0.995904, 445, 169, 476, 232
-0.995904, 445, 193, 476, 320
-0.995911, 305, 113, 368, 176
-0.995933, 145, 169, 272, 200
-0.995951, 49, 161, 112, 224
-0.995956, 223, 153, 238, 216
-0.995963, 113, 49, 240, 176
-0.995977, 129, 209, 256, 336
-0.996079, 161, 177, 192, 240
-0.996134, 465, 97, 496, 224
-0.996185, 357, 129, 388, 192
-0.996185, 227, 185, 242, 248
-0.996186, 321, 217, 384, 280
-0.99626, 185, 209, 248, 336
-0.99627, 249, 185, 264, 248
-0.99629, 241, 1, 304, 339
-0.996297, 457, 161, 488, 288
-0.996327, 255, 169, 270, 232
-0.996343, 113, 241, 176, 304
-0.996366, 225, 145, 352, 176
-0.9964, 305, 97, 368, 339
-0.996403, 323, 169, 338, 232
-0.996421, 425, 249, 488, 312
-0.99643, 305, 209, 368, 336
-0.996442, 265, 65, 328, 192
-0.996499, 217, 137, 232, 200
-0.996499, 265, 1, 328, 339
-0.996518, 249, 129, 264, 192
-0.99653, 81, 65, 144, 320
-0.996537, 331, 169, 346, 232
-0.996548, 245, 233, 276, 296
-0.996555, 373, 169, 388, 232
-0.996582, 73, 161, 136, 288
-0.996655, 193, 185, 320, 216
-0.996656, 243, 149, 258, 180
-0.996694, 363, 169, 378, 232
-0.99672, 33, 105, 288, 168
-0.996721, 317, 169, 332, 232
-0.996733, 169, 233, 232, 296
-0.996743, 97, 161, 160, 288
-0.996754, 397, 129, 412, 192
-0.996789, 233, 193, 248, 256
-0.996789, 1, 145, 128, 208
-0.996807, 289, 173, 416, 204
-0.996807, 185, 1, 248, 339
-0.996811, 33, 249, 288, 312
-0.996831, 339, 169, 354, 232
-0.996848, 241, 169, 368, 200
-0.996855, 137, 113, 168, 240
-0.996859, 257, 193, 500, 256
-0.996872, 305, 1, 368, 339
-0.996875, 273, 161, 288, 224
-0.996878, 17, 65, 144, 128
-0.996909, 109, 193, 140, 256
-0.99691, 345, 169, 360, 232
-0.996918, 229, 149, 244, 180
-0.996931, 469, 97, 500, 160
-0.996935, 233, 65, 264, 192
-0.996978, 351, 169, 366, 232
-0.996981, 337, 177, 368, 304
-0.996983, 353, 105, 416, 168
-0.996984, 321, 97, 352, 224
-0.996987, 285, 161, 300, 224
-0.997008, 1, 129, 64, 256
-0.997036, 173, 161, 204, 224
-0.997042, 401, 249, 464, 312
-0.997053, 239, 241, 254, 304
-0.997076, 245, 65, 276, 192
-0.997078, 1, 177, 128, 208
-0.997101, 457, 161, 488, 224
-0.997104, 145, 133, 272, 164
-0.997105, 357, 169, 372, 232
-0.997128, 17, 81, 48, 208
-0.997143, 5, 65, 36, 192
-0.997148, 433, 1, 496, 339
-0.997163, 201, 1, 264, 256
-0.997181, 261, 169, 276, 232
-0.997196, 369, 201, 496, 232
-0.997213, 425, 185, 456, 248
-0.997244, 321, 113, 448, 176
-0.997288, 391, 145, 406, 208
-0.997293, 25, 65, 88, 128
-0.997293, 121, 169, 136, 232
-0.997308, 153, 169, 168, 232
-0.99732, 209, 65, 240, 192
-0.997354, 281, 121, 344, 184
-0.997361, 373, 185, 388, 216
-0.997364, 457, 97, 488, 160
-0.997371, 235, 149, 250, 180
-0.997388, 129, 149, 256, 180
-0.997391, 121, 145, 184, 208
-0.997391, 363, 193, 378, 256
-0.997396, 161, 1, 224, 339
-0.997405, 113, 1, 176, 339
-0.997411, 305, 141, 432, 172
-0.997418, 239, 197, 254, 228
-0.997421, 323, 193, 338, 256
-0.997424, 425, 161, 440, 224
-0.997443, 33, 233, 160, 296
-0.997454, 379, 185, 394, 216
-0.997457, 227, 105, 242, 168
-0.99749, 209, 117, 336, 148
-0.997496, 257, 129, 384, 160
-0.997505, 353, 97, 416, 339
-0.997508, 311, 169, 326, 232
-0.997512, 221, 113, 236, 176
-0.997516, 255, 113, 270, 176
-0.997522, 419, 161, 434, 224
-0.997553, 241, 265, 368, 328
-0.997561, 17, 201, 144, 232
-0.997565, 273, 137, 288, 200
-0.997565, 129, 265, 256, 328
-0.997566, 97, 209, 160, 336
-0.997585, 113, 169, 128, 232
-0.997586, 73, 257, 104, 320
-0.997588, 333, 181, 348, 212
-0.997597, 217, 161, 232, 224
-0.997602, 241, 217, 256, 280
-0.997606, 127, 169, 142, 232
-0.997627, 65, 273, 192, 336
-0.997636, 33, 1, 96, 339
-0.99764, 129, 97, 192, 339
-0.997647, 245, 257, 260, 320
-0.997648, 211, 145, 226, 208
-0.997651, 281, 97, 344, 339
-0.997657, 241, 89, 256, 152
-0.997658, 147, 169, 162, 232
-0.997664, 289, 177, 304, 208
-0.997665, 321, 181, 336, 212
-0.997665, 329, 1, 392, 339
-0.997698, 313, 181, 328, 212
-0.9977, 309, 97, 340, 224
-0.997705, 353, 177, 480, 208
-0.997707, 339, 181, 354, 212
-0.997728, 467, 185, 482, 248
-0.997739, 137, 169, 152, 232
-0.997743, 1, 153, 500, 216
-0.997751, 273, 173, 288, 204
-0.997752, 97, 173, 224, 204
-0.997752, 163, 169, 178, 232
-0.997766, 327, 181, 342, 212
-0.997785, 25, 193, 56, 320
-0.997792, 317, 193, 332, 256
-0.997794, 367, 185, 382, 216
-0.997815, 293, 169, 308, 232
-0.997818, 379, 177, 394, 240
-0.997824, 235, 217, 250, 280
-0.997826, 413, 177, 428, 240
-0.99783, 385, 129, 400, 192
-0.997831, 267, 161, 282, 192
-0.99784, 295, 177, 310, 208
-0.997844, 369, 193, 384, 256
-0.997852, 243, 257, 258, 288
-0.997854, 403, 129, 418, 192
-0.997856, 369, 137, 496, 168
-0.997856, 331, 193, 346, 256
-0.997859, 197, 145, 228, 272
-0.997875, 121, 185, 136, 216
-0.99788, 251, 161, 266, 192
-0.997889, 223, 149, 238, 180
-0.997901, 233, 197, 248, 228
-0.997903, 431, 153, 446, 216
-0.997914, 335, 145, 350, 208
-0.997921, 409, 137, 424, 200
-0.997924, 13, 81, 44, 144
-0.997934, 65, 81, 192, 144
-0.997939, 115, 185, 130, 216
-0.997942, 161, 181, 176, 212
-0.997943, 133, 193, 164, 256
-0.997947, 229, 133, 244, 164
-0.997948, 351, 193, 366, 256
-0.997949, 1, 193, 256, 256
-0.99795, 323, 145, 338, 208
-0.997966, 263, 113, 278, 176
-0.997969, 329, 97, 392, 339
-0.997971, 217, 141, 232, 172
-0.99799, 341, 145, 356, 208
-0.998, 307, 181, 322, 212
-0.998005, 197, 161, 212, 224
-0.998007, 193, 97, 448, 160
-0.998007, 73, 1, 136, 339
-0.998016, 247, 189, 262, 220
-0.998027, 465, 161, 480, 224
-0.998027, 361, 185, 376, 216
-0.998032, 279, 161, 294, 224
-0.998037, 249, 149, 264, 180
-0.998039, 315, 145, 330, 208
-0.998041, 129, 117, 256, 148
-0.998043, 385, 185, 400, 216
-0.998044, 431, 185, 446, 248
-0.998048, 349, 145, 364, 208
-0.998048, 25, 65, 88, 320
-0.998053, 295, 145, 310, 208
-0.99806, 49, 173, 176, 204
-0.998073, 369, 89, 496, 152
-0.998079, 235, 97, 250, 160
-0.998087, 163, 193, 178, 256
-0.998087, 329, 145, 344, 208
-0.998089, 223, 133, 238, 164
-0.998095, 259, 141, 274, 172
-0.998095, 257, 177, 272, 208
-0.998096, 283, 177, 298, 208
-0.998102, 155, 181, 170, 212
-0.998109, 121, 193, 136, 256
-0.998109, 241, 193, 368, 224
-0.998131, 97, 193, 352, 256
-0.998136, 357, 193, 372, 256
-0.99814, 353, 81, 416, 208
-0.99814, 257, 157, 384, 188
-0.99815, 385, 153, 400, 216
-0.998159, 237, 129, 252, 160
-0.998166, 227, 193, 242, 224
-0.998169, 439, 161, 454, 224
-0.99817, 241, 97, 272, 339
-0.998172, 409, 189, 424, 220
-0.998179, 239, 209, 254, 240
-0.998182, 1, 129, 500, 192
-0.99819, 345, 181, 360, 212
-0.998192, 265, 145, 280, 176
-0.9982, 301, 177, 316, 208
-0.998204, 41, 257, 72, 320
-0.998208, 473, 193, 488, 256
-0.998209, 339, 193, 354, 256
-0.998212, 251, 133, 266, 164
-0.998213, 223, 161, 238, 192
-0.998221, 345, 193, 360, 256
-0.998223, 127, 185, 142, 216
-0.998245, 155, 193, 170, 256
-0.998248, 455, 197, 470, 228
-0.998248, 355, 145, 370, 208
-0.998259, 267, 169, 282, 232
-0.998261, 433, 193, 448, 224
-0.998261, 239, 161, 254, 192
-0.998264, 217, 173, 248, 188
-0.998264, 81, 197, 208, 228
-0.998267, 369, 149, 496, 180
-0.998267, 361, 139, 392, 154
-0.998268, 237, 243, 268, 258
-0.998269, 97, 217, 352, 280
-0.99827, 25, 315, 56, 330
-0.998272, 225, 245, 352, 276
-0.998276, 105, 97, 136, 224
-0.998276, 261, 165, 276, 196
-0.998277, 309, 145, 324, 208
-0.998277, 247, 89, 262, 152
-0.998279, 245, 265, 276, 280
-0.998281, 351, 181, 366, 212
-0.998281, 229, 181, 260, 196
-0.998281, 245, 173, 276, 188
-0.998282, 265, 169, 296, 184
-0.998282, 265, 233, 328, 296
-0.998282, 473, 201, 488, 232
-0.998283, 37, 195, 68, 210
-0.998284, 245, 179, 276, 194
-0.998284, 209, 185, 240, 200
-0.998285, 237, 213, 268, 228
-0.998286, 369, 183, 400, 198
-0.998286, 225, 253, 256, 268
-0.998287, 241, 123, 272, 138
-0.998289, 393, 151, 424, 166
-0.99829, 225, 223, 256, 238
-0.99829, 309, 257, 340, 272
-0.998291, 293, 175, 324, 190
-0.998291, 25, 197, 56, 212
-0.998291, 237, 235, 268, 250
-0.998292, 237, 225, 268, 240
-0.998293, 233, 161, 248, 192
-0.998293, 233, 271, 264, 286
-0.998295, 225, 239, 256, 254
-0.998296, 265, 163, 296, 178
-0.998297, 389, 197, 420, 212
-0.998299, 269, 157, 300, 172
-0.9983, 149, 181, 164, 212
-0.998302, 405, 161, 420, 224
-0.998303, 77, 189, 108, 204
-0.998303, 233, 207, 264, 222
-0.998304, 9, 325, 40, 339
-0.998308, 415, 189, 430, 220
-0.99831, 385, 185, 416, 200
-0.998311, 389, 157, 420, 172
-0.998313, 281, 173, 312, 188
-0.998314, 229, 127, 260, 142
-0.998316, 93, 195, 124, 210
-0.998317, 269, 141, 300, 156
-0.998319, 437, 193, 468, 208
-0.99832, 237, 245, 252, 276
-0.998321, 401, 187, 432, 202
-0.998321, 391, 121, 406, 184
-0.998322, 247, 117, 262, 148
-0.998323, 167, 181, 182, 212
-0.998323, 261, 135, 292, 150
-0.998326, 245, 141, 276, 156
-0.998328, 9, 199, 40, 214
-0.998328, 37, 325, 68, 339
-0.998328, 137, 193, 168, 208
-0.99833, 233, 201, 264, 216
-0.99833, 389, 139, 420, 154
-0.998333, 81, 195, 112, 210
-0.998334, 109, 193, 140, 208
-0.998335, 233, 265, 264, 280
-0.998337, 161, 189, 192, 204
-0.998339, 213, 167, 244, 182
-0.99834, 1, 317, 32, 332
-0.99834, 413, 189, 444, 204
-0.998341, 241, 135, 272, 150
-0.998341, 311, 193, 326, 256
-0.998341, 217, 135, 248, 150
-0.998342, 425, 191, 456, 206
-0.998342, 221, 197, 252, 212
-0.998343, 241, 167, 272, 182
-0.998345, 67, 177, 82, 240
-0.998348, 465, 197, 496, 212
-0.998352, 471, 161, 486, 224
-0.998353, 445, 205, 476, 220
-0.998353, 149, 191, 180, 206
-0.998355, 225, 217, 256, 232
-0.998355, 377, 195, 408, 210
-0.998356, 301, 145, 316, 208
-0.998359, 121, 193, 152, 208
-0.998359, 185, 183, 216, 198
-0.99836, 237, 219, 268, 234
-0.998361, 57, 193, 88, 208
-0.998364, 21, 321, 52, 336
-0.998364, 41, 319, 72, 334
-0.998365, 257, 153, 288, 168
-0.998365, 173, 187, 204, 202
-0.998365, 251, 241, 266, 304
-0.998367, 245, 191, 276, 206
-0.998368, 213, 191, 244, 206
-0.998372, 45, 241, 60, 304
-0.998375, 225, 147, 256, 162
-0.998375, 361, 193, 392, 208
-0.998377, 321, 191, 352, 206
-0.99838, 49, 199, 80, 214
-0.998381, 305, 169, 320, 232
-0.998381, 281, 187, 312, 202
-0.998383, 225, 167, 256, 182
-0.998389, 133, 185, 148, 216
-0.998389, 109, 185, 124, 216
-0.998391, 391, 169, 406, 232
-0.998393, 469, 205, 500, 220
-0.998393, 205, 145, 220, 208
-0.998394, 467, 197, 482, 228
-0.998395, 269, 183, 300, 198
-0.998395, 279, 165, 294, 196
-0.998396, 333, 193, 364, 208
-0.998397, 229, 187, 260, 202
-0.998399, 233, 259, 264, 274
-0.998399, 205, 173, 236, 188
-0.9984, 209, 153, 240, 168
-0.998407, 161, 249, 416, 312
-0.998409, 461, 185, 476, 248
-0.998409, 449, 197, 480, 212
-0.998409, 213, 145, 244, 160
-0.998409, 69, 195, 100, 210
-0.99841, 401, 145, 432, 160
-0.998414, 253, 167, 284, 182
-0.998417, 257, 249, 500, 312
-0.998418, 37, 201, 68, 216
-0.998421, 369, 125, 496, 156
-0.998422, 365, 197, 380, 228
-0.998425, 89, 189, 120, 204
-0.998427, 353, 189, 416, 204
-0.998428, 229, 133, 260, 148
-0.998429, 173, 181, 204, 196
-0.998429, 225, 257, 352, 288
-0.998429, 245, 155, 276, 170
-0.998429, 113, 89, 240, 152
-0.998433, 309, 191, 340, 206
-0.998434, 349, 193, 380, 208
-0.998436, 9, 205, 40, 220
-0.998436, 41, 233, 104, 296
-0.998437, 109, 187, 140, 202
-0.998437, 293, 189, 324, 204
-0.998438, 25, 203, 56, 218
-0.998439, 403, 185, 418, 216
-0.998439, 479, 205, 494, 236
-0.998439, 201, 179, 232, 194
-0.99844, 417, 137, 432, 200
-0.998442, 171, 233, 186, 296
-0.998445, 249, 181, 312, 196
-0.998446, 233, 195, 264, 210
-0.99845, 313, 185, 376, 200
-0.99845, 189, 177, 220, 192
-0.998461, 297, 217, 360, 280
-0.998461, 139, 181, 154, 212
-0.998463, 397, 145, 412, 176
-0.998464, 267, 173, 282, 204
-0.998465, 289, 265, 416, 328
-0.99847, 157, 183, 188, 198
-0.998471, 213, 161, 244, 176
-0.998471, 177, 181, 240, 196
-0.998471, 141, 185, 172, 200
-0.998474, 201, 153, 264, 168
-0.998479, 253, 161, 284, 176
-0.99848, 289, 183, 352, 198
-0.998485, 297, 181, 328, 196
-0.998488, 257, 181, 288, 196
-0.998488, 385, 193, 448, 208
-0.998488, 425, 203, 488, 218
-0.998489, 115, 193, 130, 256
-0.998489, 249, 147, 280, 162
-0.99849, 225, 153, 288, 168
-0.998491, 107, 169, 122, 232
-0.998491, 37, 97, 68, 224
-0.998492, 121, 187, 152, 202
-0.998494, 217, 163, 280, 178
-0.998495, 421, 189, 436, 220
-0.998495, 321, 185, 352, 200
-0.998499, 427, 189, 442, 220
-0.998499, 257, 175, 288, 190
-0.9985, 449, 193, 464, 224
-0.998502, 461, 197, 476, 228
-0.998506, 401, 199, 464, 214
-0.998506, 345, 187, 376, 202
-0.998507, 217, 171, 280, 186
-0.998507, 139, 193, 154, 256
-0.998511, 355, 193, 370, 224
-0.998514, 419, 185, 434, 248
-0.998514, 269, 185, 300, 248
-0.998518, 439, 197, 454, 228
-0.998519, 441, 97, 472, 224
-0.998523, 391, 177, 406, 208
-0.998523, 113, 185, 176, 200
-0.998524, 457, 203, 488, 218
-0.998524, 187, 177, 202, 240
-0.998525, 221, 185, 236, 248
-0.998529, 17, 169, 48, 232
-0.998531, 373, 189, 404, 204
-0.998532, 285, 181, 316, 196
-0.998535, 89, 187, 152, 202
-0.998536, 9, 203, 72, 218
-0.998537, 287, 137, 302, 200
-0.998538, 357, 187, 388, 202
-0.998539, 389, 191, 420, 206
-0.99854, 33, 199, 96, 214
-0.99854, 245, 165, 260, 196
-0.998543, 209, 135, 272, 150
-0.998545, 375, 197, 390, 228
-0.998546, 101, 249, 116, 312
-0.998547, 269, 177, 300, 192
-0.998547, 437, 199, 468, 214
-0.998549, 391, 153, 406, 184
-0.998549, 233, 161, 264, 176
-0.998551, 211, 169, 226, 232
-0.998552, 333, 185, 364, 200
-0.998555, 39, 241, 54, 304
-0.998556, 225, 147, 288, 162
-0.998556, 65, 195, 128, 210
-0.998559, 425, 197, 456, 212
-0.99856, 137, 183, 200, 198
-0.99856, 401, 193, 432, 208
-0.99856, 235, 185, 250, 216
-0.998562, 145, 193, 160, 256
-0.998567, 173, 177, 188, 208
-0.998568, 241, 113, 256, 144
-0.998574, 361, 129, 376, 192
-0.998576, 215, 113, 230, 176
-0.998577, 313, 193, 376, 208
-0.998579, 289, 197, 416, 228
-0.998579, 217, 141, 280, 156
-0.99858, 249, 175, 312, 190
-0.998581, 309, 183, 340, 198
-0.998582, 201, 177, 264, 192
-0.998584, 221, 153, 252, 168
-0.998589, 177, 197, 304, 228
-0.99859, 361, 195, 424, 210
-0.998591, 243, 245, 258, 276
-0.998591, 413, 195, 444, 210
-0.998593, 225, 181, 288, 196
-0.998596, 299, 169, 314, 232
-0.998598, 113, 193, 176, 208
-0.998598, 331, 169, 346, 200
-0.998599, 177, 187, 240, 202
-0.9986, 233, 153, 264, 168
-0.9986, 241, 161, 304, 176
-0.998601, 129, 193, 144, 256
-0.998603, 281, 189, 344, 204
-0.998604, 201, 195, 264, 210
-0.998605, 225, 189, 288, 204
-0.998606, 399, 161, 414, 224
-0.998613, 425, 197, 488, 212
-0.998614, 315, 169, 330, 200
-0.998615, 273, 265, 400, 296
-0.998616, 201, 183, 264, 198
-0.998619, 249, 187, 312, 202
-0.998621, 203, 173, 218, 204
-0.998625, 65, 189, 128, 204
-0.998625, 353, 139, 416, 154
-0.998627, 325, 169, 340, 200
-0.998627, 221, 97, 252, 339
-0.99863, 225, 209, 288, 224
-0.99863, 249, 151, 312, 166
-0.998631, 273, 177, 336, 192
-0.998634, 285, 165, 300, 196
-0.998635, 201, 189, 264, 204
-0.998638, 89, 193, 152, 208
-0.998641, 9, 319, 72, 334
-0.998645, 353, 161, 480, 192
-0.998646, 177, 173, 240, 188
-0.998647, 193, 165, 256, 180
-0.998648, 145, 189, 208, 204
-0.998649, 189, 181, 204, 212
-0.99865, 249, 265, 264, 296
-0.998653, 385, 151, 448, 166
-0.998653, 265, 193, 328, 256
-0.998655, 41, 193, 104, 208
-0.998655, 217, 157, 232, 188
-0.998655, 183, 177, 198, 208
-0.998656, 403, 137, 418, 168
-0.998657, 425, 185, 440, 248
-0.998657, 225, 195, 288, 210
-0.99866, 377, 157, 440, 172
-0.99866, 211, 165, 226, 196
-0.998662, 247, 217, 262, 280
-0.998665, 201, 147, 264, 162
-0.998666, 201, 209, 264, 224
-0.998667, 377, 187, 440, 202
-0.998669, 169, 185, 184, 248
-0.998671, 265, 143, 328, 158
-0.998671, 337, 183, 400, 198
-0.998681, 243, 133, 258, 164
-0.998682, 65, 33, 192, 160
-0.998684, 249, 137, 312, 152
-0.998684, 177, 145, 240, 160
-0.998685, 249, 131, 312, 146
-0.998685, 73, 177, 88, 240
-0.998688, 225, 203, 288, 218
-0.998689, 377, 163, 440, 178
-0.998689, 337, 195, 400, 210
-0.998689, 153, 177, 216, 192
-0.998692, 17, 325, 80, 339
-0.998692, 197, 173, 212, 204
-0.998693, 1, 197, 64, 212
-0.998693, 201, 263, 264, 278
-0.998693, 201, 201, 264, 216
-0.998694, 377, 145, 440, 160
-0.998694, 285, 113, 316, 176
-0.998694, 457, 121, 488, 184
-0.998695, 241, 167, 304, 182
-0.998698, 279, 137, 294, 200
-0.998701, 225, 237, 288, 252
-0.998701, 371, 173, 386, 204
-0.998702, 385, 173, 400, 204
-0.998702, 201, 215, 264, 230
-0.998703, 25, 169, 40, 232
-0.998703, 311, 233, 326, 296
-0.998703, 397, 177, 412, 208
-0.998707, 297, 177, 360, 192
-0.998708, 225, 215, 288, 230
-0.998709, 409, 191, 472, 206
-0.998709, 201, 243, 264, 258
-0.998711, 377, 173, 392, 204
-0.998712, 233, 265, 296, 280
-0.998714, 1, 313, 64, 328
-0.998715, 33, 169, 64, 232
-0.998716, 61, 177, 76, 240
-0.998718, 125, 97, 156, 224
-0.998719, 401, 157, 464, 172
-0.99872, 233, 125, 296, 140
-0.99872, 401, 141, 464, 156
-0.998721, 201, 235, 264, 250
-0.998722, 401, 163, 464, 178
-0.998722, 345, 145, 408, 160
-0.998727, 225, 231, 288, 246
-0.998728, 225, 243, 288, 258
-0.998728, 177, 129, 240, 144
-0.99873, 9, 191, 72, 206
-0.998733, 425, 161, 488, 176
-0.998735, 433, 153, 496, 168
-0.998735, 201, 229, 264, 244
-0.998736, 177, 159, 240, 174
-0.998739, 225, 259, 288, 274
-0.998739, 33, 319, 96, 334
-0.99874, 209, 269, 272, 284
-0.99874, 225, 223, 288, 238
-0.99874, 425, 147, 488, 162
-0.99874, 249, 117, 312, 132
-0.998741, 129, 177, 192, 192
-0.998741, 201, 221, 264, 236
-0.998742, 185, 137, 248, 152
-0.998742, 201, 255, 264, 270
-0.998742, 297, 263, 360, 278
-0.998743, 177, 151, 240, 166
-0.998743, 201, 119, 264, 134
-0.998743, 353, 157, 416, 172
-0.998746, 1, 209, 64, 224
-0.99875, 265, 157, 328, 172
-0.99875, 309, 169, 324, 200
-0.99875, 225, 251, 288, 266
-0.99875, 89, 181, 152, 196
-0.998751, 235, 145, 250, 272
-0.998751, 265, 167, 328, 182
-0.998755, 209, 129, 272, 144
-0.998759, 201, 249, 264, 264
-0.998759, 89, 107, 152, 122
-0.99876, 393, 169, 456, 184
-0.998761, 273, 195, 336, 210
-0.998761, 137, 109, 200, 124
-0.998763, 401, 135, 464, 150
-0.998763, 177, 109, 240, 124
-0.998764, 81, 109, 208, 140
-0.998765, 53, 81, 84, 208
-0.998765, 169, 115, 232, 130
-0.998765, 313, 149, 376, 164
-0.998765, 433, 191, 496, 206
-0.998766, 25, 95, 88, 110
-0.998768, 401, 185, 464, 200
-0.998769, 313, 199, 376, 214
-0.998772, 177, 207, 240, 222
-0.998772, 249, 205, 312, 220
-0.998773, 417, 267, 480, 282
-0.998773, 353, 163, 416, 178
-0.998773, 169, 167, 232, 182
-0.998774, 321, 143, 384, 158
-0.998775, 281, 257, 344, 272
-0.99878, 301, 189, 316, 220
-0.998781, 11, 193, 26, 224
-0.99879, 241, 221, 256, 252
-0.998793, 257, 153, 272, 184
-0.9988, 247, 113, 262, 240
-0.998802, 83, 193, 98, 224
-0.998805, 129, 257, 256, 288
-0.998807, 145, 201, 208, 264
-0.998811, 441, 185, 456, 216
-0.998815, 365, 173, 380, 204
-0.998817, 221, 185, 236, 216
-0.998819, 291, 165, 306, 196
-0.998823, 117, 173, 132, 204
-0.998831, 273, 141, 288, 172
-0.998831, 221, 173, 236, 204
-0.998835, 301, 193, 332, 256
-0.998837, 235, 117, 250, 148
-0.998843, 233, 217, 248, 248
-0.998843, 445, 145, 476, 208
-0.998846, 273, 253, 400, 284
-0.998847, 127, 173, 142, 204
-0.99885, 289, 209, 416, 240
-0.998851, 103, 185, 118, 216
-0.998852, 237, 233, 252, 264
-0.998857, 229, 121, 244, 152
-0.998857, 237, 257, 252, 288
-0.998859, 321, 193, 336, 224
-0.998862, 241, 205, 368, 236
-0.998864, 227, 181, 242, 212
-0.998865, 235, 173, 250, 204
-0.998866, 401, 185, 432, 248
-0.998871, 413, 177, 428, 208
-0.998874, 77, 193, 92, 224
-0.998879, 49, 145, 176, 208
-0.99888, 89, 185, 104, 216
-0.998882, 15, 205, 30, 236
-0.998888, 209, 177, 224, 208
-0.998893, 265, 129, 280, 160
-0.998898, 173, 189, 188, 220
-0.998899, 337, 169, 352, 200
-0.998899, 273, 161, 288, 192
-0.998914, 85, 169, 116, 232
-0.998921, 229, 145, 244, 272
-0.998953, 377, 249, 440, 312
-0.99897, 129, 105, 256, 136
-0.998981, 421, 193, 452, 320
-0.998993, 173, 257, 204, 320
-0.999005, 337, 209, 464, 272
-0.99902, 85, 241, 116, 304
-0.999031, 369, 265, 496, 296
-0.999043, 241, 113, 256, 240
-0.999053, 145, 209, 272, 240
-0.999062, 223, 113, 238, 240
-0.999084, 73, 185, 104, 248
-0.999091, 49, 261, 176, 292
-0.999096, 137, 1, 200, 339
-0.999113, 173, 185, 204, 248
-0.99913, 17, 101, 144, 132
-0.999138, 9, 241, 72, 304
-0.999143, 97, 145, 160, 208
-0.999157, 433, 97, 496, 160
-0.999158, 255, 113, 270, 240
-0.999163, 65, 73, 128, 136
-0.999168, 243, 161, 258, 288
-0.999187, 321, 265, 448, 296
-0.999214, 209, 73, 336, 136
-0.999222, 129, 245, 256, 276
-0.999229, 161, 269, 288, 300
-0.999229, 57, 161, 88, 288
-0.999231, 331, 145, 346, 272
-0.999247, 33, 209, 160, 336
-0.999254, 109, 97, 140, 160
-0.99926, 457, 97, 488, 339
-0.999265, 325, 145, 340, 272
-0.999278, 321, 257, 384, 320
-0.999285, 81, 249, 208, 280
-0.999288, 177, 105, 304, 136
-0.99929, 319, 145, 334, 272
-0.999318, 251, 161, 266, 288
-0.999327, 229, 97, 244, 224
-0.999333, 209, 97, 240, 339
-0.999344, 313, 145, 328, 272
-0.999347, 157, 105, 188, 168
-0.999356, 97, 209, 224, 240
-0.999358, 235, 97, 250, 224
-0.999375, 217, 113, 232, 240
-0.999376, 307, 145, 322, 272
-0.99939, 433, 97, 464, 339
-0.999394, 263, 113, 278, 240
-0.999394, 337, 129, 352, 256
-0.999403, 301, 113, 316, 240
-0.999405, 257, 65, 288, 320
-0.99941, 225, 269, 352, 300
-0.999413, 241, 1, 304, 256
-0.999419, 257, 161, 272, 288
-0.999419, 1, 1, 64, 339
-0.99943, 293, 145, 308, 272
-0.999435, 235, 193, 250, 320
-0.999438, 137, 81, 200, 144
-0.999438, 69, 97, 100, 224
-0.999439, 243, 209, 258, 336
-0.99944, 165, 145, 180, 272
-0.999444, 1, 225, 256, 288
-0.99946, 159, 145, 174, 272
-0.999465, 1, 105, 500, 168
-0.999466, 323, 193, 338, 320
-0.999467, 21, 193, 52, 256
-0.999469, 315, 193, 330, 320
-0.999474, 305, 161, 432, 192
-0.999477, 209, 217, 336, 248
-0.999483, 97, 161, 224, 192
-0.999486, 443, 145, 458, 272
-0.999492, 241, 65, 256, 192
-0.999494, 157, 209, 188, 272
-0.999494, 449, 161, 464, 288
-0.999496, 171, 113, 186, 240
-0.999498, 61, 65, 92, 320
-0.999507, 343, 129, 358, 256
-0.999517, 1, 89, 128, 120
-0.999519, 181, 113, 196, 240
-0.999519, 1, 169, 32, 232
-0.999532, 45, 65, 76, 320
-0.999534, 89, 97, 120, 224
-0.999536, 237, 133, 252, 148
-0.999536, 215, 153, 230, 168
-0.999536, 155, 191, 170, 206
-0.999538, 113, 269, 240, 300
-0.999538, 237, 255, 252, 270
-0.999538, 433, 191, 448, 206
-0.999538, 473, 199, 488, 214
-0.999539, 275, 183, 290, 198
-0.999539, 73, 193, 88, 208
-0.999541, 45, 161, 60, 288
-0.999542, 265, 167, 280, 182
-0.999542, 209, 177, 224, 192
-0.999542, 177, 257, 304, 288
-0.999543, 241, 125, 256, 140
-0.999545, 481, 205, 496, 220
-0.999545, 243, 147, 258, 162
-0.999545, 11, 319, 26, 334
-0.999546, 153, 177, 168, 304
-0.999547, 19, 321, 34, 336
-0.999547, 431, 145, 446, 272
-0.999547, 247, 127, 262, 142
-0.999547, 257, 139, 272, 154
-0.999549, 253, 187, 268, 202
-0.99955, 469, 65, 500, 320
-0.99955, 229, 147, 244, 162
-0.999551, 63, 195, 78, 210
-0.999551, 237, 237, 252, 252
-0.999551, 407, 187, 422, 202
-0.999553, 333, 193, 348, 320
-0.999555, 235, 191, 250, 206
-0.999555, 101, 189, 116, 204
-0.999555, 55, 199, 70, 214
-0.999558, 251, 135, 266, 150
-0.99956, 229, 195, 244, 210
-0.99956, 37, 201, 52, 216
-0.999561, 371, 193, 386, 208
-0.999562, 289, 187, 304, 202
-0.999563, 95, 191, 110, 206
-0.999563, 463, 197, 478, 212
-0.999564, 129, 197, 256, 228
-0.999567, 37, 325, 52, 339
-0.999569, 443, 193, 458, 208
-0.999569, 265, 147, 280, 162
-0.999569, 237, 209, 252, 224
-0.999571, 229, 133, 244, 148
-0.999572, 219, 161, 234, 176
-0.999572, 329, 191, 344, 206
-0.999572, 43, 201, 58, 216
-0.999572, 115, 187, 130, 202
-0.999572, 251, 167, 266, 182
-0.999573, 301, 189, 316, 204
-0.999573, 279, 113, 294, 240
-0.999574, 79, 193, 94, 208
-0.999574, 257, 161, 272, 176
-0.999575, 217, 147, 232, 162
-0.999576, 89, 191, 104, 206
-0.999576, 419, 189, 434, 204
-0.999577, 307, 189, 322, 204
-0.999577, 295, 187, 310, 202
-0.999577, 17, 203, 32, 218
-0.999579, 45, 319, 60, 334
-0.999579, 73, 145, 136, 208
-0.999579, 57, 193, 88, 256
-0.99958, 163, 193, 178, 320
-0.99958, 269, 145, 284, 272
-0.999581, 229, 167, 244, 182
-0.999582, 341, 193, 356, 208
-0.999582, 403, 141, 418, 156
-0.999582, 5, 317, 20, 332
-0.999583, 349, 129, 364, 256
-0.999583, 247, 65, 262, 192
-0.999584, 455, 113, 470, 240
-0.999584, 261, 173, 276, 188
-0.999584, 281, 185, 296, 200
-0.999584, 11, 205, 26, 220
-0.999585, 453, 195, 468, 210
-0.999585, 245, 267, 260, 282
-0.999585, 191, 179, 206, 194
-0.999586, 317, 191, 332, 206
-0.999586, 243, 205, 258, 220
-0.999588, 235, 167, 250, 182
-0.999588, 259, 179, 274, 194
-0.999589, 107, 189, 122, 204
-0.999589, 243, 261, 258, 276
-0.999591, 455, 177, 470, 304
-0.999591, 355, 193, 370, 208
-0.999592, 287, 145, 302, 272
-0.999593, 31, 201, 46, 216
-0.999593, 159, 185, 174, 200
-0.999593, 349, 191, 364, 206
-0.999593, 51, 319, 66, 334
-0.999595, 239, 215, 254, 230
-0.999596, 23, 201, 38, 216
-0.999596, 269, 181, 284, 196
-0.999596, 181, 181, 196, 196
-0.9996, 175, 177, 190, 304
-0.999602, 289, 241, 416, 272
-0.999604, 437, 145, 452, 272
-0.999604, 149, 185, 164, 200
-0.999604, 323, 191, 338, 206
-0.999607, 171, 183, 186, 198
-0.999608, 269, 173, 284, 188
-0.99961, 363, 193, 378, 208
-0.99961, 165, 183, 180, 198
-0.999611, 1, 265, 128, 296
-0.999613, 223, 177, 238, 304
-0.999613, 133, 187, 148, 202
-0.999613, 109, 65, 140, 320
-0.999614, 121, 187, 136, 202
-0.999614, 189, 97, 204, 224
-0.999614, 197, 177, 212, 192
-0.999614, 293, 97, 308, 224
-0.999615, 405, 129, 420, 256
-0.999618, 377, 189, 392, 204
-0.999618, 203, 177, 218, 192
-0.999618, 237, 151, 252, 166
-0.99962, 309, 193, 324, 320
-0.999623, 143, 185, 158, 200
-0.999624, 297, 65, 360, 192
-0.999625, 211, 97, 226, 224
-0.999626, 37, 193, 52, 320
-0.99963, 153, 113, 168, 240
-0.999631, 127, 187, 142, 202
-0.999635, 215, 161, 230, 288
-0.999635, 383, 189, 398, 204
-0.999637, 159, 97, 174, 224
-0.999638, 223, 153, 238, 168
-0.999641, 245, 195, 260, 210
-0.999645, 225, 161, 240, 176
-0.999646, 245, 209, 276, 336
-0.999647, 417, 129, 432, 256
-0.99965, 309, 183, 324, 198
-0.999653, 475, 205, 490, 220
-0.999653, 291, 181, 306, 196
-0.999654, 181, 105, 212, 168
-0.999656, 333, 185, 348, 200
-0.999656, 263, 161, 278, 288
-0.999657, 449, 113, 464, 240
-0.999657, 301, 161, 316, 288
-0.999659, 129, 65, 192, 192
-0.999659, 165, 97, 180, 224
-0.999659, 303, 181, 318, 196
-0.999661, 327, 183, 342, 198
-0.999662, 361, 129, 376, 256
-0.999663, 65, 273, 320, 336
-0.999664, 321, 253, 448, 284
-0.999668, 355, 129, 370, 256
-0.999669, 251, 161, 266, 176
-0.999669, 463, 113, 478, 240
-0.999671, 355, 187, 370, 202
-0.999671, 339, 185, 354, 200
-0.999672, 145, 209, 208, 336
-0.999673, 477, 97, 492, 224
-0.999676, 297, 181, 312, 196
-0.999677, 235, 199, 250, 214
-0.999677, 371, 187, 386, 202
-0.999677, 425, 145, 440, 272
-0.999679, 245, 163, 260, 178
-0.999681, 407, 193, 422, 208
-0.999681, 395, 129, 410, 256
-0.999681, 395, 191, 410, 206
-0.999681, 339, 177, 354, 304
-0.999684, 411, 129, 426, 256
-0.999684, 249, 155, 264, 170
-0.999685, 315, 183, 330, 198
-0.999685, 389, 189, 404, 204
-0.999688, 389, 129, 404, 256
-0.999688, 169, 193, 184, 320
-0.999691, 361, 187, 376, 202
-0.999691, 467, 203, 482, 218
-0.999692, 149, 97, 180, 339
-0.999693, 349, 185, 364, 200
-0.999693, 367, 129, 382, 256
-0.999695, 321, 183, 336, 198
-0.999696, 421, 195, 436, 210
-0.999698, 287, 97, 302, 224
-0.999698, 205, 97, 220, 224
-0.999699, 283, 179, 298, 194
-0.9997, 269, 97, 284, 224
-0.9997, 253, 65, 268, 192
-0.999702, 233, 161, 248, 176
-0.999702, 147, 177, 162, 304
-0.999703, 229, 193, 244, 320
-0.999709, 457, 201, 472, 216
-0.999709, 51, 177, 66, 304
-0.99971, 439, 193, 454, 320
-0.999711, 437, 197, 452, 212
-0.999713, 25, 65, 56, 320
-0.999714, 331, 97, 346, 224
-0.999716, 1, 125, 128, 156
-0.999719, 275, 177, 290, 192
-0.999719, 447, 199, 462, 214
-0.999726, 401, 191, 416, 206
-0.999729, 427, 195, 442, 210
-0.99973, 195, 97, 210, 224
-0.999736, 239, 161, 254, 176
-0.999736, 369, 113, 496, 144
-0.999738, 375, 129, 390, 256
-0.999744, 413, 193, 428, 208
-0.999746, 229, 153, 244, 168
-0.999747, 409, 1, 472, 256
-0.999748, 81, 121, 208, 152
-0.99975, 147, 113, 162, 240
-0.999751, 381, 129, 396, 256
-0.999752, 471, 81, 486, 208
-0.999753, 281, 177, 296, 304
-0.999757, 181, 161, 196, 288
-0.999764, 29, 241, 60, 304
-0.999764, 325, 97, 340, 224
-0.999767, 461, 193, 476, 320
-0.999768, 317, 97, 332, 224
-0.999776, 291, 193, 306, 320
-0.99978, 17, 65, 32, 192
-0.999783, 33, 81, 48, 208
-0.999785, 209, 145, 224, 272
-0.999788, 45, 209, 60, 336
-0.999796, 23, 65, 38, 192
-0.999798, 223, 65, 238, 192
-0.999798, 485, 97, 500, 224
-0.9998, 93, 97, 108, 224
-0.999803, 285, 97, 316, 339
-0.999805, 353, 273, 480, 336
-0.999807, 309, 97, 324, 224
-0.999808, 69, 81, 84, 208
-0.999811, 17, 121, 144, 184
-0.999811, 161, 221, 288, 252
-0.999812, 99, 97, 114, 224
-0.999813, 409, 97, 440, 339
-0.999816, 225, 233, 352, 264
-0.999817, 47, 81, 62, 208
-0.99982, 305, 129, 432, 160
-0.999824, 83, 97, 98, 224
-0.999825, 121, 97, 136, 224
-0.999826, 243, 153, 258, 168
-0.999827, 11, 65, 26, 192
-0.999831, 433, 193, 448, 320
-0.999833, 41, 113, 56, 240
-0.999837, 57, 81, 72, 208
-0.999837, 217, 65, 232, 192
-0.99984, 321, 277, 448, 308
-0.999844, 187, 145, 202, 272
-0.999845, 115, 81, 130, 208
-0.999846, 139, 97, 154, 224
-0.999846, 107, 97, 122, 224
-0.999847, 185, 97, 216, 339
-0.999848, 53, 265, 84, 328
-0.999849, 345, 177, 360, 304
-0.99985, 369, 277, 496, 308
-0.999855, 169, 97, 200, 339
-0.999856, 57, 161, 72, 288
-0.999858, 477, 145, 492, 272
-0.999863, 63, 81, 78, 208
-0.999867, 77, 97, 92, 224
-0.99987, 469, 145, 484, 272
-0.999873, 65, 49, 128, 176
-0.999875, 337, 213, 464, 244
-0.999878, 441, 97, 456, 224
-0.999878, 3, 65, 18, 192
-0.999881, 399, 81, 414, 208
-0.999883, 1, 305, 128, 336
-0.999884, 127, 97, 142, 224
-0.999886, 121, 97, 152, 339
-0.999887, 345, 97, 376, 339
-0.999887, 179, 65, 194, 192
-0.999889, 333, 97, 364, 339
-0.999889, 449, 209, 464, 336
-0.999893, 371, 193, 386, 320
-0.999898, 259, 65, 274, 192
-0.999902, 369, 253, 496, 284
-0.999913, 161, 233, 288, 264
-0.999935, 201, 273, 264, 336
-0.999942, 153, 265, 216, 328
-0.999945, 273, 277, 400, 308
-0.999948, 209, 257, 240, 320
-0.99995, 225, 1, 256, 256
-0.999971, 369, 97, 400, 339
-0.999979, 77, 97, 108, 160
-0.999981, 273, 97, 304, 339
-0.999985, 97, 133, 224, 164
-0.999987, 197, 105, 228, 168
-0.999992, 241, 49, 304, 176
-0.999999, 137, 97, 168, 339
-1.00001, 321, 97, 352, 339
-1.00002, 93, 97, 124, 339
-1.00002, 65, 233, 96, 296
-1.00002, 65, 89, 192, 120
-1.00002, 469, 121, 500, 184
-1.00002, 449, 193, 480, 256
-1.00003, 129, 281, 256, 312
-1.00004, 169, 233, 200, 296
-1.00004, 49, 213, 176, 244
-1.00005, 65, 277, 192, 308
-1.00005, 397, 97, 428, 339
-1.00005, 309, 97, 340, 339
-1.00006, 1, 65, 32, 320
-1.00006, 25, 33, 88, 160
-1.00007, 129, 65, 256, 128
-1.00007, 357, 97, 388, 339
-1.00007, 45, 177, 76, 240
-1.00009, 297, 97, 328, 339
-1.00011, 17, 73, 144, 104
-1.00012, 421, 97, 452, 339
-1.00013, 257, 117, 384, 148
-1.00014, 177, 245, 304, 276
-1.00014, 197, 97, 228, 339
-1.00015, 1, 165, 128, 196
-1.00015, 53, 89, 84, 152
-1.00015, 49, 133, 176, 164
-1.00015, 445, 97, 476, 339
-1.00016, 33, 113, 160, 144
-1.00016, 177, 209, 240, 272
-1.00017, 33, 73, 288, 136
-1.00018, 129, 93, 256, 124
-1.00019, 289, 221, 416, 252
-1.00021, 73, 161, 104, 224
-1.00022, 369, 97, 496, 128
-1.00023, 225, 281, 352, 312
-1.00023, 161, 65, 224, 192
-1.00023, 237, 1, 268, 256
-1.00024, 289, 265, 352, 328
-1.00024, 381, 97, 412, 339
-1.00025, 81, 237, 208, 268
-1.00025, 205, 1, 236, 256
-1.00026, 97, 221, 224, 252
-1.0003, 81, 65, 112, 320
-1.00031, 241, 105, 368, 136
-1.00034, 297, 257, 328, 320
-1.00034, 209, 93, 336, 124
-1.00035, 49, 309, 176, 339
-1.00035, 461, 249, 492, 312
-1.00037, 257, 225, 500, 288
-1.00038, 17, 281, 144, 312
-1.00038, 1, 249, 128, 280
-1.00039, 177, 281, 304, 312
-1.00046, 65, 273, 128, 336
-1.00049, 197, 257, 228, 320
-1.00049, 161, 257, 192, 320
-1.00049, 469, 145, 500, 272
-1.00049, 161, 273, 416, 336
-1.0005, 13, 33, 44, 288
-1.00052, 281, 209, 344, 336
-1.00052, 145, 105, 176, 168
-1.00057, 1, 137, 128, 168
-1.00059, 21, 129, 52, 256
-1.00059, 289, 105, 416, 136
-1.0006, 469, 161, 500, 224
-1.00061, 209, 309, 336, 339
-1.00061, 457, 1, 488, 256
-1.00062, 1, 149, 128, 180
-1.00063, 429, 97, 460, 224
-1.00063, 49, 225, 176, 256
-1.00064, 125, 1, 156, 256
-1.00064, 381, 1, 412, 256
-1.00065, 189, 1, 220, 256
-1.00065, 369, 85, 496, 116
-1.00065, 353, 289, 480, 320
-1.00066, 97, 249, 128, 312
-1.00066, 129, 309, 256, 339
-1.00068, 429, 137, 460, 200
-1.00069, 65, 289, 192, 320
-1.00069, 161, 1, 192, 256
-1.00069, 257, 309, 384, 339
-1.00069, 81, 145, 208, 176
-1.00071, 393, 81, 424, 208
-1.00071, 289, 289, 416, 320
-1.00072, 137, 1, 168, 256
-1.00073, 401, 1, 432, 256
-1.00074, 9, 193, 40, 256
-1.00074, 277, 1, 308, 256
-1.00075, 1, 249, 500, 312
-1.00076, 369, 1, 400, 256
-1.00076, 93, 1, 124, 256
-1.00077, 277, 65, 308, 192
-1.00079, 305, 117, 432, 148
-1.0008, 41, 129, 104, 192
-1.0008, 1, 293, 128, 324
-1.0008, 145, 293, 272, 324
-1.00081, 337, 241, 464, 272
-1.00082, 241, 297, 368, 328
-1.00082, 321, 1, 352, 256
-1.00083, 49, 161, 176, 192
-1.00084, 353, 1, 384, 256
-1.00084, 329, 217, 360, 280
-1.00085, 441, 1, 472, 256
-1.00085, 401, 97, 464, 160
-1.00086, 337, 301, 464, 332
-1.00087, 65, 77, 192, 108
-1.00089, 309, 1, 340, 256
-1.0009, 1, 213, 128, 244
-1.0009, 173, 1, 204, 256
-1.0009, 337, 1, 368, 256
-1.00091, 193, 293, 320, 324
-1.00091, 1, 61, 128, 92
-1.00092, 129, 161, 160, 288
-1.00092, 297, 1, 328, 256
-1.00093, 273, 1, 400, 32
-1.00094, 149, 1, 180, 256
-1.00094, 369, 229, 496, 260
-1.00095, 137, 217, 168, 280
-1.00096, 225, 1, 352, 32
-1.00098, 129, 73, 256, 104
-1.00098, 225, 77, 352, 108
-1.00103, 421, 1, 452, 256
-1.00103, 25, 89, 56, 152
-1.00104, 1, 73, 500, 136
-1.00107, 369, 65, 496, 128
-1.00108, 129, 73, 384, 136
-1.00113, 113, 1, 176, 256
-1.00114, 17, 41, 144, 104
-1.00121, 413, 129, 444, 192
-1.00122, 445, 249, 476, 312
-1.00123, 129, 209, 160, 336
-1.00123, 385, 177, 416, 240
-1.00127, 57, 1, 120, 256
-1.00128, 245, 257, 276, 320
-1.00131, 345, 249, 408, 312
-1.00139, 65, 97, 96, 160
-1.0014, 145, 257, 176, 320
-1.00141, 257, 73, 500, 136
-1.00141, 1, 49, 256, 112
-1.00143, 185, 257, 216, 320
-1.00144, 397, 105, 428, 168
-1.00152, 177, 81, 240, 144
-1.00154, 437, 193, 468, 256
-1.00159, 433, 249, 464, 312
-1.0016, 417, 97, 448, 224
-1.00162, 113, 73, 176, 136
-1.00163, 1, 73, 32, 136
-1.00165, 121, 105, 152, 168
-1.00165, 361, 177, 424, 304
-1.00172, 257, 273, 500, 336
-1.00174, 165, 65, 196, 192
-1.00178, 25, 129, 88, 256
-1.00181, 333, 81, 364, 208
-1.00186, 117, 209, 148, 336
-1.00187, 297, 65, 328, 192
-1.00188, 1, 105, 64, 168
-1.00189, 369, 1, 432, 256
-1.00193, 81, 57, 208, 120
-1.00198, 329, 121, 392, 184
-1.00198, 17, 145, 80, 208
-1.00199, 321, 65, 384, 192
-1.002, 169, 1, 232, 256
-1.00203, 177, 65, 208, 192
-1.00211, 129, 41, 384, 104
-1.00211, 65, 225, 128, 288
-1.00211, 129, 265, 192, 328
-1.00212, 65, 17, 320, 80
-1.00212, 161, 17, 416, 80
-1.00212, 257, 17, 500, 80
-1.00212, 225, 41, 480, 104
-1.00215, 353, 193, 384, 320
-1.00215, 1, 201, 500, 264
-1.00219, 385, 81, 448, 208
-1.00221, 81, 193, 112, 320
-1.00222, 1, 225, 500, 288
-1.00225, 337, 1, 400, 256
-1.00226, 293, 209, 324, 336
-1.00232, 273, 73, 400, 136
-1.00235, 369, 81, 400, 208
-1.00239, 265, 177, 296, 304
-1.00253, 1, 273, 500, 336
-1.00255, 101, 193, 132, 320
-1.00258, 381, 81, 412, 208
-1.00261, 169, 209, 200, 336
-1.00263, 17, 33, 48, 160
-1.00263, 29, 33, 60, 160
-1.00263, 453, 65, 484, 192
-1.00264, 145, 41, 272, 104
-1.00266, 225, 41, 352, 104
-1.00269, 469, 49, 500, 176
-1.00269, 405, 81, 436, 208
-1.00276, 241, 1, 368, 64
-1.00276, 289, 1, 416, 64
-1.00288, 313, 1, 376, 256
-1.00288, 281, 97, 344, 160
-1.00289, 1, 49, 500, 112
-1.00291, 1, 9, 128, 72
-1.00291, 97, 9, 224, 72
-1.00291, 49, 17, 176, 80
-1.00291, 145, 17, 272, 80
-1.00291, 193, 17, 320, 80
-1.00291, 369, 17, 496, 80
-1.00291, 97, 33, 224, 96
-1.00291, 289, 41, 416, 104
-1.00291, 337, 41, 464, 104
-1.00291, 321, 65, 448, 128
-1.00304, 265, 1, 328, 256
-1.00304, 1, 113, 32, 240
-1.00314, 97, 273, 160, 336
-1.00333, 117, 161, 148, 288
-1.00338, 469, 193, 500, 320
-1.00338, 1, 57, 64, 120
-1.00339, 81, 145, 112, 272
-1.00343, 321, 89, 448, 152
-1.00344, 69, 145, 100, 272
-1.00347, 145, 1, 208, 256
-1.00347, 357, 81, 388, 208
-1.00348, 89, 49, 152, 176
-1.00349, 41, 49, 72, 176
-1.0035, 105, 49, 136, 176
-1.0036, 365, 193, 396, 320
-1.0036, 1, 1, 500, 64
-1.00361, 425, 225, 488, 288
-1.00367, 1, 33, 64, 160
-1.00367, 73, 209, 136, 336
-1.00373, 389, 177, 420, 304
-1.00375, 433, 1, 496, 256
-1.00375, 289, 1, 352, 256
-1.00381, 125, 49, 156, 176
-1.00385, 345, 81, 376, 208
-1.00393, 73, 49, 104, 176
-1.00401, 137, 65, 168, 192
-1.00405, 145, 129, 208, 192
-1.00415, 1, 25, 500, 88
-1.00417, 197, 49, 228, 176
-1.00419, 1, 1, 128, 128
-1.00421, 5, 17, 36, 144
-1.00424, 93, 49, 124, 176
-1.00426, 89, 73, 152, 136
-1.00428, 53, 33, 84, 160
-1.00433, 61, 209, 92, 336
-1.00433, 409, 193, 440, 320
-1.00441, 425, 273, 488, 336
-1.00444, 153, 33, 184, 160
-1.00447, 401, 273, 464, 336
-1.00452, 97, 145, 128, 272
-1.00469, 385, 225, 448, 288
-1.00478, 13, 177, 44, 304
-1.00484, 353, 273, 416, 336
-1.00488, 233, 65, 296, 128
-1.00491, 457, 209, 488, 336
-1.00505, 257, 33, 500, 160
-1.00508, 425, 73, 488, 136
-1.0051, 257, 89, 320, 152
-1.00516, 181, 209, 212, 336
-1.00535, 377, 97, 440, 160
-1.00542, 221, 33, 252, 160
-1.00543, 377, 177, 408, 304
-1.00553, 409, 49, 472, 176
-1.00558, 209, 209, 240, 336
-1.00566, 1, 1, 256, 128
-1.0058, 193, 193, 224, 320
-1.00594, 305, 49, 432, 176
-1.00599, 353, 33, 480, 160
-1.006, 65, 121, 128, 184
-1.00608, 169, 17, 200, 144
-1.0061, 201, 65, 264, 128
-1.00615, 345, 217, 408, 280
-1.00628, 121, 121, 184, 184
-1.00639, 129, 17, 384, 144
-1.00642, 1, 161, 32, 288
-1.00642, 209, 33, 272, 160
-1.00678, 329, 97, 392, 160
-1.00684, 441, 49, 472, 176
-1.00688, 141, 17, 172, 144
-1.00689, 233, 41, 296, 104
-1.00693, 161, 17, 288, 144
-1.00693, 113, 17, 176, 144
-1.00708, 265, 33, 296, 160
-1.00709, 193, 41, 256, 104
-1.0072, 25, 41, 88, 104
-1.00738, 245, 17, 276, 144
-1.00743, 321, 49, 352, 176
-1.00747, 457, 17, 488, 144
-1.00753, 89, 121, 152, 184
-1.00756, 421, 49, 452, 176
-1.00773, 377, 273, 440, 336
-1.00785, 9, 217, 72, 280
-1.00787, 153, 57, 216, 120
-1.00792, 281, 73, 344, 136
-1.00793, 41, 1, 72, 128
-1.00806, 1, 209, 32, 336
-1.00827, 309, 49, 340, 176
-1.00839, 257, 33, 384, 160
-1.00855, 181, 17, 212, 144
-1.00859, 65, 49, 128, 112
-1.00881, 69, 1, 100, 128
-1.00982, 153, 17, 216, 144
-1.00995, 209, 1, 336, 128
-1.01138, 65, 1, 128, 128
-1.01139, 305, 1, 432, 128
-1.01193, 113, 1, 240, 128
-1.0125, 433, 17, 496, 144
-1.01294, 185, 17, 248, 144
-1.01418, 281, 17, 344, 144
-1.01442, 321, 1, 384, 128
-1.01442, 345, 1, 408, 128
-1.01473, 89, 1, 152, 128
-1.01478, 385, 1, 448, 128
-1.01607, 409, 1, 472, 128
-1.01616, 233, 1, 296, 128
-1.0162, 257, 1, 320, 128
