1915
-0.489344, 1, 161, 332, 416
-0.517797, 1, 257, 332, 500
-0.534099, 1, 1, 332, 500
-0.551845, 1, 1, 332, 256
-0.587048, 65, 1, 320, 500
-0.627746, 65, 129, 320, 384
-0.689588, 65, 257, 320, 500
-0.802416, 65, 33, 320, 288
-0.866172, 129, 129, 256, 384
-0.881152, 193, 129, 320, 384
-0.88205, 129, 1, 256, 500
-0.883212, 65, 129, 192, 384
-0.886047, 209, 1, 332, 500
-0.886569, 129, 257, 256, 500
-0.892692, 193, 225, 320, 480
-0.895543, 1, 145, 332, 272
-0.899574, 49, 1, 176, 500
-0.901034, 65, 129, 320, 256
-0.91366, 1, 193, 332, 320
-0.913958, 1, 369, 332, 496
-0.91551, 81, 33, 208, 288
-0.922315, 65, 337, 320, 464
-0.922348, 129, 33, 256, 288
-0.922498, 81, 225, 208, 480
-0.924407, 1, 321, 332, 448
-0.926575, 65, 289, 320, 416
-0.92681, 97, 129, 224, 256
-0.928681, 1, 273, 332, 400
-0.92896, 17, 33, 144, 288
-0.930389, 177, 33, 304, 288
-0.931063, 1, 65, 332, 192
-0.934524, 1, 1, 128, 500
-0.937896, 193, 145, 320, 272
-0.940549, 97, 129, 160, 256
-0.940777, 113, 369, 240, 496
-0.941166, 145, 177, 272, 304
-0.942341, 185, 129, 248, 256
-0.943481, 145, 129, 208, 256
-0.943749, 65, 209, 320, 336
-0.946641, 145, 129, 272, 256
-0.94692, 209, 145, 272, 272
-0.947312, 233, 145, 296, 272
-0.94897, 257, 113, 320, 240
-0.950507, 209, 369, 332, 496
-0.950566, 17, 129, 144, 384
-0.951131, 217, 145, 280, 208
-0.951457, 129, 289, 256, 416
-0.952493, 169, 177, 232, 304
-0.95319, 129, 225, 256, 352
-0.953504, 65, 81, 320, 208
-0.953811, 129, 369, 192, 496
-0.954546, 137, 305, 200, 432
-0.954847, 121, 129, 184, 256
-0.955714, 105, 193, 168, 320
-0.956374, 65, 193, 192, 320
-0.957018, 265, 417, 328, 480
-0.957024, 33, 257, 160, 500
-0.957937, 145, 241, 208, 368
-0.958592, 89, 145, 152, 208
-0.959064, 193, 193, 320, 320
-0.959114, 177, 145, 240, 208
-0.959624, 185, 177, 248, 240
-0.960562, 265, 369, 328, 496
-0.961385, 265, 241, 328, 368
-0.962437, 273, 177, 332, 304
-0.963034, 209, 177, 272, 240
-0.963611, 1, 17, 332, 144
-0.964276, 273, 121, 332, 184
-0.964358, 121, 393, 184, 456
-0.964782, 113, 209, 176, 272
-0.965335, 209, 97, 332, 224
-0.965433, 145, 249, 208, 312
-0.965933, 233, 169, 296, 232
-0.965968, 249, 129, 312, 192
-0.966277, 273, 289, 332, 416
-0.966428, 49, 145, 176, 272
-0.96679, 241, 193, 304, 320
-0.966843, 129, 369, 192, 432
-0.966852, 1, 97, 128, 224
-0.967179, 153, 225, 216, 288
-0.96735, 209, 289, 332, 416
-0.967492, 193, 193, 256, 320
-0.968139, 265, 393, 328, 456
-0.968738, 49, 337, 176, 464
-0.969149, 137, 297, 200, 360
-0.96941, 145, 193, 208, 320
-0.96965, 145, 273, 208, 336
-0.969951, 65, 241, 192, 368
-0.970677, 153, 145, 216, 208
-0.971546, 137, 225, 200, 480
-0.971595, 209, 241, 332, 368
-0.972203, 257, 177, 320, 240
-0.972238, 273, 233, 332, 296
-0.972463, 137, 321, 200, 384
-0.972473, 73, 145, 136, 272
-0.972494, 105, 353, 168, 480
-0.97263, 81, 137, 208, 200
-0.972696, 113, 129, 176, 384
-0.972853, 1, 49, 128, 176
-0.97296, 49, 97, 112, 224
-0.973017, 153, 129, 216, 384
-0.973218, 249, 97, 312, 352
-0.973287, 217, 145, 248, 208
-0.97329, 273, 97, 332, 352
-0.973381, 161, 201, 224, 264
-0.973603, 201, 145, 232, 208
-0.973962, 253, 129, 284, 256
-0.974405, 237, 145, 268, 208
-0.974455, 249, 225, 312, 288
-0.974516, 209, 97, 272, 224
-0.974564, 301, 337, 332, 464
-0.974627, 161, 145, 288, 208
-0.974637, 129, 137, 192, 200
-0.974654, 113, 393, 240, 456
-0.974945, 1, 1, 128, 128
-0.975283, 253, 137, 284, 200
-0.975327, 213, 129, 244, 256
-0.97546, 177, 185, 304, 248
-0.975566, 65, 33, 320, 160
-0.975657, 121, 417, 184, 480
-0.975811, 9, 49, 72, 176
-0.975938, 129, 177, 256, 240
-0.976034, 257, 369, 320, 432
-0.976069, 181, 129, 212, 256
-0.976229, 241, 393, 304, 456
-0.97646, 225, 145, 256, 272
-0.976522, 273, 321, 332, 384
-0.976649, 301, 337, 332, 400
-0.976922, 233, 193, 296, 256
-0.976935, 97, 129, 128, 256
-0.977001, 137, 345, 200, 408
-0.977086, 201, 129, 232, 256
-0.97715, 49, 289, 176, 416
-0.977239, 209, 401, 332, 464
-0.977321, 281, 369, 312, 496
-0.977558, 273, 65, 332, 192
-0.977621, 145, 393, 208, 456
-0.977625, 157, 233, 188, 296
-0.977629, 161, 369, 288, 496
-0.97768, 109, 129, 140, 256
-0.977793, 137, 177, 200, 240
-0.977797, 209, 425, 332, 488
-0.977817, 269, 113, 300, 240
-0.977893, 237, 145, 268, 272
-0.978049, 205, 169, 236, 232
-0.97806, 81, 81, 208, 208
-0.978095, 285, 409, 316, 472
-0.978196, 89, 185, 152, 248
-0.978424, 209, 201, 272, 264
-0.978537, 273, 209, 332, 272
-0.97857, 233, 369, 296, 496
-0.978596, 153, 353, 216, 480
-0.978609, 273, 225, 332, 480
-0.978727, 129, 353, 160, 480
-0.978748, 161, 81, 288, 208
-0.978767, 141, 305, 172, 432
-0.978774, 241, 425, 304, 488
-0.978855, 125, 129, 156, 256
-0.97894, 257, 153, 320, 216
-0.978972, 185, 145, 216, 208
-0.979175, 41, 49, 104, 176
-0.979195, 185, 409, 248, 472
-0.979438, 97, 377, 160, 440
-0.979477, 209, 129, 332, 192
-0.979509, 153, 225, 184, 352
-0.979592, 89, 433, 152, 496
-0.979599, 233, 97, 296, 224
-0.979648, 105, 305, 168, 432
-0.979762, 57, 1, 120, 128
-0.979764, 177, 129, 240, 384
-0.97987, 141, 129, 172, 256
-0.979948, 137, 209, 168, 272
-0.980127, 153, 129, 184, 256
-0.980128, 93, 145, 124, 208
-0.980267, 133, 369, 164, 432
-0.980441, 217, 193, 280, 320
-0.980467, 273, 97, 332, 160
-0.98057, 217, 409, 280, 472
-0.980719, 65, 161, 128, 224
-0.980774, 221, 177, 252, 240
-0.980819, 225, 129, 288, 384
-0.980868, 209, 161, 332, 224
-0.980913, 273, 257, 332, 320
-0.980975, 129, 393, 160, 456
-0.981005, 281, 113, 312, 240
-0.981022, 133, 193, 164, 320
-0.981205, 145, 209, 272, 272
-0.981373, 301, 209, 332, 336
-0.981632, 161, 177, 224, 240
-0.981831, 193, 377, 320, 440
-0.981849, 169, 129, 200, 256
-0.981857, 129, 233, 256, 296
-0.982106, 81, 161, 208, 224
-0.98222, 273, 297, 332, 360
-0.982227, 65, 193, 192, 256
-0.982239, 293, 233, 324, 296
-0.982287, 245, 177, 276, 240
-0.982323, 301, 81, 332, 208
-0.982604, 277, 121, 308, 184
-0.982727, 285, 257, 316, 384
-0.982752, 249, 257, 312, 320
-0.982783, 177, 337, 240, 464
-0.98283, 81, 49, 144, 176
-0.982846, 201, 97, 264, 352
-0.982866, 273, 345, 332, 408
-0.982914, 129, 257, 256, 320
-0.982967, 129, 297, 256, 360
-0.982972, 113, 369, 240, 432
-0.983073, 193, 217, 320, 280
-0.983327, 265, 129, 296, 192
-0.983395, 113, 185, 176, 248
-0.983479, 89, 129, 152, 384
-0.983696, 149, 273, 180, 336
-0.98381, 289, 97, 320, 160
-0.983862, 213, 177, 244, 304
-0.983974, 49, 33, 176, 160
-0.984031, 285, 385, 316, 448
-0.984054, 97, 409, 160, 472
-0.984056, 217, 121, 280, 184
-0.98418, 113, 329, 240, 392
-0.984315, 301, 257, 332, 384
-0.984442, 197, 177, 228, 304
-0.984515, 57, 25, 120, 88
-0.984629, 173, 145, 204, 208
-0.984802, 193, 385, 256, 448
-0.984858, 169, 257, 232, 320
-0.985012, 121, 417, 152, 480
-0.98513, 289, 433, 320, 496
-0.985232, 233, 185, 264, 248
-0.985292, 273, 409, 304, 472
-0.985306, 1, 145, 128, 272
-0.985541, 105, 353, 168, 416
-0.985569, 121, 249, 184, 312
-0.985639, 241, 241, 304, 368
-0.985666, 181, 177, 212, 304
-0.985709, 201, 353, 264, 480
-0.985785, 265, 161, 296, 224
-0.985797, 249, 321, 312, 448
-0.985864, 89, 33, 152, 288
-0.985895, 169, 225, 232, 352
-0.98595, 145, 297, 176, 360
-0.985979, 137, 345, 168, 408
-0.986033, 49, 113, 112, 176
-0.986044, 193, 169, 224, 232
-0.986076, 161, 121, 224, 184
-0.986169, 169, 385, 232, 448
-0.986187, 113, 257, 176, 384
-0.986289, 193, 121, 256, 184
-0.986388, 273, 1, 332, 500
-0.986456, 161, 409, 288, 472
-0.98649, 105, 329, 168, 392
-0.986521, 41, 81, 104, 144
-0.986555, 209, 241, 332, 304
-0.986651, 273, 225, 304, 352
-0.986657, 157, 177, 188, 304
-0.986753, 209, 345, 332, 408
-0.986759, 157, 137, 188, 200
-0.986761, 49, 321, 176, 384
-0.986826, 97, 425, 224, 488
-0.986846, 193, 225, 256, 288
-0.986894, 137, 201, 200, 264
-0.986898, 289, 177, 320, 304
-0.986939, 17, 57, 80, 120
-0.987099, 145, 1, 208, 500
-0.987175, 301, 257, 332, 320
-0.98728, 249, 105, 312, 168
-0.987389, 209, 281, 332, 344
-0.987393, 49, 369, 176, 432
-0.987556, 17, 161, 144, 224
-0.987563, 33, 425, 160, 488
-0.987612, 301, 201, 332, 264
-0.987645, 17, 1, 80, 128
-0.98765, 105, 281, 168, 344
-0.987675, 225, 193, 256, 320
-0.987748, 93, 177, 124, 304
-0.987757, 177, 1, 240, 500
-0.987757, 105, 121, 168, 184
-0.987844, 65, 145, 320, 208
-0.987873, 141, 257, 172, 384
-0.987882, 209, 49, 332, 176
-0.987958, 157, 193, 188, 256
-0.987961, 65, 217, 192, 280
-0.988067, 153, 81, 216, 208
-0.988116, 209, 241, 272, 368
-0.988262, 105, 1, 168, 500
-0.988262, 161, 113, 288, 176
-0.988321, 1, 121, 128, 184
-0.988363, 209, 305, 332, 368
-0.988432, 169, 257, 232, 500
-0.988451, 285, 209, 316, 272
-0.988464, 65, 241, 192, 304
-0.98849, 185, 201, 248, 264
-0.988492, 297, 129, 328, 256
-0.988503, 105, 305, 168, 368
-0.98853, 113, 161, 176, 224
-0.988551, 257, 193, 288, 256
-0.988559, 301, 97, 332, 160
-0.988613, 145, 137, 176, 200
-0.988704, 281, 353, 312, 416
-0.988713, 81, 193, 144, 320
-0.988841, 249, 1, 312, 500
-0.988845, 273, 241, 304, 304
-0.988884, 257, 177, 288, 304
-0.98892, 297, 385, 328, 448
-0.988921, 169, 281, 232, 344
-0.988922, 117, 385, 148, 448
-0.988976, 49, 345, 176, 408
-0.989029, 49, 393, 176, 456
-0.989084, 289, 65, 320, 192
-0.989094, 129, 137, 160, 200
-0.9891, 1, 25, 128, 88
-0.989101, 145, 33, 208, 288
-0.989119, 265, 425, 328, 456
-0.989193, 105, 137, 136, 200
-0.989227, 113, 33, 176, 288
-0.989247, 289, 121, 320, 184
-0.989322, 185, 181, 248, 212
-0.989382, 249, 193, 312, 448
-0.989392, 169, 193, 200, 320
-0.989396, 137, 321, 168, 384
-0.989507, 289, 321, 320, 448
-0.989572, 201, 193, 264, 448
-0.989647, 301, 361, 332, 424
-0.989697, 181, 193, 212, 256
-0.989704, 65, 281, 192, 344
-0.98972, 225, 185, 288, 216
-0.989728, 117, 369, 148, 496
-0.989777, 17, 89, 80, 152
-0.989854, 249, 137, 312, 168
-0.989857, 261, 425, 292, 488
-0.989863, 145, 249, 176, 312
-0.989952, 169, 217, 200, 280
-0.990055, 217, 1, 280, 500
-0.990092, 41, 57, 104, 120
-0.990159, 121, 401, 184, 432
-0.990194, 9, 49, 40, 176
-0.990213, 273, 125, 332, 156
-0.990226, 141, 393, 172, 456
-0.990241, 65, 185, 128, 248
-0.990255, 65, 401, 320, 464
-0.990273, 1, 145, 332, 208
-0.99031, 85, 129, 116, 256
-0.990317, 153, 237, 216, 268
-0.990401, 41, 49, 72, 176
-0.990419, 101, 193, 132, 256
-0.990425, 113, 257, 176, 500
-0.990522, 81, 153, 112, 216
-0.99054, 289, 297, 320, 360
-0.990541, 89, 153, 152, 184
-0.990577, 129, 385, 192, 416
-0.990693, 233, 97, 264, 224
-0.990717, 129, 113, 192, 176
-0.99072, 25, 49, 56, 176
-0.99074, 129, 305, 160, 432
-0.990766, 209, 173, 272, 204
-0.99079, 217, 385, 280, 448
-0.990809, 65, 97, 128, 352
-0.99081, 217, 153, 280, 184
-0.990885, 145, 265, 208, 296
-0.990888, 153, 249, 216, 280
-0.990903, 193, 193, 256, 224
-0.990905, 65, 57, 128, 120
-0.990948, 153, 401, 216, 432
-0.990964, 73, 97, 104, 224
-0.991004, 197, 337, 228, 464
-0.99102, 137, 317, 200, 348
-0.991038, 265, 437, 328, 468
-0.991051, 257, 381, 320, 412
-0.991063, 221, 401, 252, 464
-0.991064, 129, 369, 192, 400
-0.991078, 225, 141, 288, 172
-0.991091, 145, 277, 208, 308
-0.991108, 153, 225, 216, 256
-0.99112, 177, 149, 240, 180
-0.991131, 105, 161, 136, 224
-0.991136, 277, 177, 308, 304
-0.991139, 249, 337, 312, 400
-0.991151, 265, 193, 328, 224
-0.991157, 233, 413, 296, 444
-0.991179, 237, 193, 268, 320
-0.991192, 137, 333, 200, 364
-0.9912, 185, 81, 248, 208
-0.991208, 225, 197, 288, 228
-0.991223, 273, 469, 332, 500
-0.991248, 165, 337, 196, 464
-0.991275, 209, 209, 272, 240
-0.991286, 289, 329, 320, 392
-0.991287, 121, 213, 184, 244
-0.991292, 65, 353, 320, 416
-0.991295, 233, 401, 264, 464
-0.991347, 113, 201, 144, 264
-0.99137, 65, 377, 320, 440
-0.991372, 137, 345, 200, 376
-0.991372, 273, 449, 332, 480
-0.991383, 265, 245, 328, 276
-0.991384, 89, 177, 120, 240
-0.991406, 121, 413, 184, 444
-0.991413, 137, 357, 200, 388
-0.991438, 273, 413, 332, 444
-0.99146, 233, 173, 296, 204
-0.991479, 153, 145, 216, 176
-0.991488, 65, 169, 320, 232
-0.991502, 145, 289, 208, 320
-0.991517, 205, 417, 236, 480
-0.991521, 121, 425, 184, 456
-0.991536, 241, 233, 304, 264
-0.99154, 177, 321, 208, 448
-0.991571, 273, 229, 332, 260
-0.99158, 129, 81, 192, 208
-0.991613, 17, 185, 144, 248
-0.991621, 169, 393, 200, 456
-0.991625, 181, 401, 212, 464
-0.991652, 273, 177, 332, 208
-0.991657, 161, 213, 224, 244
-0.991662, 129, 177, 160, 240
-0.991684, 89, 165, 152, 196
-0.991696, 233, 433, 296, 464
-0.991721, 249, 149, 312, 180
-0.991722, 89, 141, 152, 172
-0.991731, 65, 1, 128, 256
-0.991734, 117, 137, 148, 200
-0.991764, 193, 421, 256, 452
-0.991774, 177, 361, 240, 424
-0.991793, 257, 393, 320, 424
-0.991806, 137, 305, 200, 336
-0.99182, 129, 141, 192, 172
-0.991827, 273, 257, 332, 288
-0.991834, 257, 369, 320, 400
-0.991837, 161, 173, 224, 204
-0.991844, 285, 273, 316, 336
-0.991844, 209, 105, 332, 168
-0.991897, 105, 81, 168, 208
-0.991913, 97, 177, 160, 208
-0.991918, 273, 349, 332, 380
-0.991922, 121, 193, 184, 224
-0.991934, 65, 425, 320, 488
-0.991935, 65, 113, 192, 176
-0.991951, 193, 397, 256, 428
-0.991972, 89, 201, 152, 232
-0.991982, 89, 401, 152, 432
-0.991985, 221, 201, 252, 264
-0.991988, 265, 217, 328, 248
-0.992032, 253, 113, 284, 176
-0.992042, 53, 49, 84, 176
-0.992053, 89, 469, 152, 500
-0.992071, 177, 409, 240, 440
-0.992128, 209, 221, 272, 252
-0.992132, 145, 201, 208, 232
-0.992134, 249, 205, 312, 236
-0.992141, 73, 189, 136, 220
-0.992155, 145, 177, 176, 304
-0.992165, 301, 161, 332, 224
-0.99221, 89, 433, 152, 464
-0.992211, 57, 177, 120, 208
-0.992222, 257, 137, 288, 168
-0.992223, 185, 205, 248, 236
-0.992229, 49, 161, 112, 192
-0.992265, 185, 169, 248, 200
-0.992281, 97, 365, 160, 396
-0.992291, 109, 425, 140, 488
-0.992294, 113, 437, 176, 468
-0.992307, 265, 285, 328, 316
-0.99232, 273, 105, 332, 136
-0.992341, 113, 453, 176, 484
-0.992346, 121, 233, 184, 264
-0.992348, 201, 137, 264, 168
-0.992348, 81, 445, 144, 476
-0.992364, 273, 269, 332, 300
-0.992377, 97, 389, 160, 420
-0.992385, 249, 257, 312, 288
-0.992385, 73, 97, 136, 224
-0.992408, 113, 113, 240, 176
-0.992423, 285, 417, 316, 448
-0.992432, 201, 177, 232, 208
-0.992439, 265, 301, 328, 332
-0.992451, 129, 249, 192, 280
-0.992457, 169, 193, 232, 224
-0.99246, 273, 329, 332, 360
-0.992464, 277, 321, 308, 448
-0.99249, 117, 169, 148, 232
-0.992492, 105, 321, 168, 352
-0.992497, 97, 413, 160, 444
-0.992497, 97, 353, 160, 384
-0.992498, 301, 313, 332, 376
-0.9925, 213, 181, 244, 212
-0.992518, 113, 465, 176, 496
-0.992524, 193, 233, 256, 264
-0.992529, 117, 177, 148, 304
-0.992546, 105, 309, 168, 340
-0.992562, 65, 329, 320, 392
-0.992566, 273, 137, 332, 168
-0.99257, 105, 293, 168, 324
-0.992579, 265, 165, 328, 196
-0.992579, 169, 33, 232, 288
-0.992598, 121, 361, 152, 424
-0.992607, 241, 425, 272, 488
-0.992637, 209, 409, 272, 440
-0.99265, 261, 225, 292, 288
-0.992655, 273, 317, 332, 348
-0.992664, 113, 265, 176, 296
-0.992665, 241, 245, 304, 276
-0.992692, 185, 249, 248, 280
-0.992693, 273, 205, 332, 236
-0.992701, 249, 125, 312, 156
-0.99271, 145, 185, 208, 216
-0.99272, 73, 113, 136, 176
-0.992722, 281, 385, 312, 416
-0.992741, 181, 249, 212, 312
-0.992751, 241, 221, 304, 252
-0.992761, 261, 225, 292, 352
-0.992761, 281, 125, 312, 156
-0.992781, 129, 389, 160, 420
-0.992807, 97, 341, 160, 372
-0.992821, 81, 457, 144, 488
-0.992826, 225, 185, 256, 216
-0.992828, 225, 33, 288, 288
-0.992829, 153, 385, 216, 416
-0.992838, 121, 277, 184, 308
-0.992843, 249, 149, 280, 180
-0.992848, 177, 137, 240, 168
-0.992857, 273, 385, 304, 448
-0.99286, 289, 429, 320, 460
-0.992862, 289, 245, 320, 276
-0.992862, 157, 249, 188, 280
-0.992875, 297, 353, 328, 384
-0.992878, 17, 57, 144, 120
-0.992878, 93, 153, 124, 184
-0.992882, 301, 105, 332, 136
-0.992885, 237, 153, 268, 184
-0.992886, 157, 225, 188, 256
-0.992919, 269, 133, 300, 164
-0.992953, 153, 337, 184, 464
-0.992956, 249, 181, 280, 212
-0.992959, 141, 353, 172, 480
-0.992963, 129, 409, 160, 440
-0.992967, 249, 273, 312, 304
-0.992972, 289, 445, 320, 476
-0.992981, 293, 469, 324, 500
-0.992984, 105, 377, 168, 408
-0.992989, 153, 261, 184, 292
-0.992998, 73, 1, 104, 128
-0.993, 225, 153, 256, 184
-0.993003, 141, 217, 172, 248
-0.993004, 209, 193, 240, 256
-0.993007, 189, 181, 220, 212
-0.993011, 145, 305, 176, 336
-0.993015, 209, 193, 240, 224
-0.99302, 205, 149, 236, 180
-0.99302, 149, 277, 180, 308
-0.993025, 293, 121, 324, 152
-0.99303, 193, 409, 224, 472
-0.993032, 297, 401, 328, 432
-0.993039, 157, 237, 188, 268
-0.993053, 237, 141, 268, 172
-0.993058, 125, 425, 156, 456
-0.993063, 269, 425, 300, 456
-0.993064, 165, 257, 196, 320
-0.993066, 301, 233, 332, 264
-0.99307, 177, 261, 240, 292
-0.993075, 301, 365, 332, 396
-0.99308, 293, 257, 324, 288
-0.993081, 249, 313, 312, 376
-0.993082, 273, 153, 332, 184
-0.993087, 209, 433, 272, 464
-0.993089, 141, 317, 172, 348
-0.993091, 301, 341, 332, 372
-0.993092, 241, 161, 304, 192
-0.993094, 265, 177, 296, 208
-0.993094, 161, 329, 224, 392
-0.993114, 157, 209, 188, 240
-0.993118, 193, 149, 224, 180
-0.993119, 133, 377, 164, 408
-0.993122, 209, 245, 272, 276
-0.993124, 237, 113, 268, 176
-0.99314, 141, 333, 172, 364
-0.993141, 177, 385, 240, 416
-0.993147, 229, 169, 260, 200
-0.993154, 149, 293, 180, 324
-0.993159, 289, 457, 320, 488
-0.99316, 221, 369, 252, 496
-0.993161, 237, 181, 268, 212
-0.993162, 241, 193, 272, 224
-0.993168, 221, 413, 252, 444
-0.993176, 285, 233, 316, 264
-0.993177, 141, 345, 172, 376
-0.993181, 221, 197, 252, 228
-0.993188, 105, 201, 136, 232
-0.993194, 221, 209, 252, 240
-0.993195, 121, 441, 152, 472
-0.993196, 273, 1, 332, 256
-0.99321, 169, 145, 200, 176
-0.993211, 181, 149, 212, 180
-0.993212, 137, 357, 168, 388
-0.993215, 249, 109, 312, 140
-0.993215, 261, 189, 292, 220
-0.993222, 121, 453, 152, 484
-0.99323, 285, 405, 316, 436
-0.993231, 301, 93, 332, 124
-0.993233, 257, 229, 288, 260
-0.993233, 93, 165, 124, 196
-0.993241, 185, 221, 248, 252
-0.993241, 49, 469, 112, 500
-0.993254, 97, 189, 160, 220
-0.993254, 261, 369, 292, 496
-0.993267, 181, 257, 212, 288
-0.99327, 289, 109, 320, 140
-0.99327, 117, 397, 148, 428
-0.993272, 49, 149, 112, 180
-0.993272, 281, 373, 312, 404
-0.993276, 161, 337, 224, 368
-0.993278, 101, 141, 132, 172
-0.993281, 209, 165, 240, 196
-0.993285, 233, 417, 264, 448
-0.993289, 289, 341, 320, 372
-0.99329, 257, 81, 288, 208
-0.99329, 157, 141, 188, 172
-0.993298, 89, 189, 120, 220
-0.993304, 205, 421, 236, 452
-0.993309, 41, 101, 104, 132
-0.993312, 105, 193, 136, 320
-0.993313, 189, 121, 220, 184
-0.993313, 157, 397, 188, 428
-0.993316, 301, 221, 332, 252
-0.993317, 81, 177, 112, 208
-0.993319, 117, 205, 148, 236
-0.993324, 253, 169, 284, 200
-0.993335, 257, 433, 288, 464
-0.993339, 189, 409, 220, 440
-0.99334, 237, 433, 268, 464
-0.99335, 297, 381, 328, 412
-0.993351, 153, 133, 216, 164
-0.993355, 265, 161, 296, 192
-0.993356, 141, 401, 172, 432
-0.993359, 173, 401, 204, 432
-0.993362, 65, 33, 128, 64
-0.993363, 221, 429, 252, 460
-0.993364, 129, 197, 160, 228
-0.993368, 145, 141, 176, 172
-0.99337, 117, 465, 148, 496
-0.993377, 101, 469, 132, 500
-0.993385, 41, 89, 104, 120
-0.993387, 301, 269, 332, 300
-0.993395, 289, 97, 320, 128
-0.993401, 145, 237, 176, 268
-0.993403, 189, 193, 220, 224
-0.993404, 173, 221, 204, 252
-0.993404, 269, 245, 300, 276
-0.993405, 301, 177, 332, 208
-0.993407, 225, 129, 288, 160
-0.993407, 113, 429, 144, 460
-0.993409, 241, 169, 272, 200
-0.993413, 169, 389, 200, 420
-0.993414, 277, 181, 308, 212
-0.993415, 249, 421, 280, 452
-0.993418, 133, 273, 164, 336
-0.993423, 129, 213, 160, 244
-0.993423, 289, 185, 320, 216
-0.993427, 173, 233, 204, 264
-0.993428, 269, 401, 300, 432
-0.993428, 301, 433, 332, 464
-0.99343, 129, 325, 160, 356
-0.993432, 193, 241, 224, 272
-0.993435, 273, 413, 304, 444
-0.993442, 257, 125, 288, 156
-0.993447, 301, 205, 332, 236
-0.99345, 117, 413, 148, 444
-0.99345, 73, 165, 104, 196
-0.993453, 301, 449, 332, 480
-0.99346, 181, 169, 212, 200
-0.99346, 277, 221, 308, 252
-0.993466, 133, 293, 164, 324
-0.993466, 301, 245, 332, 276
-0.993467, 121, 369, 152, 400
-0.993467, 233, 209, 264, 240
-0.99347, 269, 149, 300, 180
-0.993472, 117, 141, 148, 172
-0.993476, 273, 257, 304, 288
-0.993477, 133, 141, 164, 172
-0.993499, 89, 49, 120, 176
-0.99352, 249, 281, 312, 344
-0.993562, 301, 425, 332, 488
-0.993585, 153, 393, 184, 456
-0.993607, 277, 97, 308, 160
-0.993669, 261, 393, 292, 456
-0.993746, 211, 145, 226, 208
-0.993756, 213, 121, 244, 184
-0.993825, 17, 97, 144, 160
-0.993888, 49, 137, 112, 200
-0.99394, 161, 353, 288, 416
-0.993964, 245, 201, 276, 264
-0.994019, 301, 121, 332, 184
-0.994122, 41, 1, 104, 256
-0.994135, 81, 337, 144, 464
-0.99415, 113, 405, 240, 436
-0.994201, 1, 25, 64, 88
-0.994247, 177, 305, 240, 368
-0.994254, 269, 185, 300, 248
-0.994254, 1, 177, 332, 240
-0.994258, 125, 201, 156, 264
-0.99429, 223, 145, 238, 208
-0.994302, 255, 137, 270, 200
-0.994336, 217, 145, 232, 208
-0.994382, 205, 145, 220, 208
-0.994389, 225, 425, 256, 488
-0.994401, 161, 369, 192, 432
-0.994413, 149, 369, 180, 432
-0.99442, 97, 145, 112, 208
-0.994433, 225, 297, 288, 360
-0.994475, 161, 321, 288, 384
-0.99451, 81, 145, 208, 176
-0.994546, 289, 177, 320, 240
-0.994561, 209, 413, 332, 444
-0.994641, 141, 185, 172, 248
-0.994674, 273, 265, 304, 328
-0.994724, 65, 305, 320, 368
-0.994762, 177, 369, 208, 496
-0.994771, 301, 289, 332, 352
-0.994771, 17, 97, 80, 224
-0.994783, 81, 33, 144, 96
-0.994786, 209, 425, 332, 456
-0.994802, 277, 329, 308, 392
-0.994838, 265, 105, 296, 168
-0.994844, 25, 25, 88, 88
-0.994849, 65, 193, 320, 256
-0.994854, 81, 1, 144, 500
-0.99491, 169, 241, 200, 368
-0.994944, 1, 401, 332, 464
-0.994964, 277, 153, 308, 216
-0.994972, 161, 149, 288, 180
-0.994996, 193, 185, 320, 216
-0.995022, 131, 385, 146, 448
-0.99504, 57, 1, 120, 500
-0.995051, 125, 321, 156, 384
-0.995055, 219, 169, 234, 232
-0.995061, 181, 81, 212, 208
-0.995064, 295, 393, 310, 456
-0.995107, 249, 145, 264, 208
-0.995124, 189, 377, 220, 440
-0.995142, 89, 257, 152, 500
-0.995145, 199, 145, 214, 208
-0.995145, 151, 209, 166, 272
-0.995157, 261, 129, 276, 192
-0.99518, 133, 297, 164, 360
-0.995205, 225, 177, 240, 240
-0.995211, 259, 177, 274, 240
-0.995246, 233, 145, 248, 208
-0.995257, 137, 369, 152, 432
-0.995282, 193, 401, 320, 432
-0.995293, 65, 49, 96, 176
-0.995294, 233, 209, 264, 272
-0.995311, 249, 401, 280, 464
-0.995327, 209, 369, 240, 496
-0.995354, 169, 121, 200, 184
-0.995371, 89, 25, 120, 88
-0.995402, 209, 393, 240, 456
-0.995403, 299, 417, 314, 480
-0.995468, 209, 81, 332, 144
-0.995472, 273, 129, 288, 192
-0.995493, 277, 65, 308, 192
-0.995502, 241, 145, 256, 208
-0.995545, 283, 121, 298, 184
-0.995562, 177, 289, 240, 416
-0.995577, 181, 241, 212, 368
-0.995589, 217, 433, 280, 496
-0.995645, 145, 205, 272, 236
-0.995656, 293, 369, 308, 432
-0.99567, 209, 197, 332, 228
-0.995675, 159, 233, 174, 296
-0.995702, 65, 41, 192, 104
-0.995722, 217, 225, 280, 288
-0.995729, 113, 417, 240, 448
-0.995736, 193, 145, 208, 208
-0.995748, 145, 181, 272, 212
-0.995776, 153, 257, 168, 320
-0.995784, 253, 177, 268, 240
-0.995797, 65, 257, 320, 320
-0.995799, 197, 217, 228, 280
-0.995811, 201, 273, 264, 336
-0.995822, 129, 257, 256, 288
-0.995823, 1, 329, 332, 392
-0.995828, 129, 233, 256, 264
-0.995837, 133, 129, 164, 384
-0.995839, 153, 273, 184, 400
-0.995862, 33, 113, 288, 176
-0.99589, 245, 81, 276, 208
-0.995929, 289, 409, 304, 472
-0.99595, 213, 169, 228, 232
-0.995963, 315, 233, 330, 296
-0.995973, 113, 393, 240, 424
-0.99599, 113, 193, 240, 224
-0.995993, 209, 437, 332, 468
-0.996, 303, 337, 318, 400
-0.996007, 1, 361, 332, 424
-0.996024, 143, 313, 158, 376
-0.996038, 249, 225, 280, 288
-0.996065, 225, 121, 256, 184
-0.996074, 267, 129, 282, 192
-0.996115, 129, 309, 256, 340
-0.996119, 145, 217, 272, 248
-0.99612, 249, 81, 312, 144
-0.996122, 65, 281, 320, 344
-0.996141, 73, 113, 104, 176
-0.996151, 201, 121, 232, 184
-0.996181, 113, 377, 240, 408
-0.996186, 209, 145, 332, 176
-0.996211, 129, 409, 144, 472
-0.996227, 129, 269, 256, 300
-0.996229, 309, 225, 324, 288
-0.996249, 153, 129, 184, 384
-0.996251, 177, 369, 208, 432
-0.99626, 129, 245, 256, 276
-0.996261, 169, 169, 200, 232
-0.996275, 5, 1, 36, 128
-0.996275, 77, 49, 108, 176
-0.996287, 209, 173, 332, 204
-0.996297, 301, 385, 316, 448
-0.996323, 185, 145, 200, 208
-0.996344, 141, 337, 156, 400
-0.996354, 21, 1, 52, 128
-0.996354, 233, 185, 248, 248
-0.996362, 81, 169, 208, 200
-0.996367, 169, 193, 200, 256
-0.996384, 65, 217, 320, 280
-0.996395, 301, 257, 332, 500
-0.996445, 113, 365, 240, 396
-0.996451, 203, 169, 218, 232
-0.996454, 129, 297, 256, 328
-0.996455, 1, 1, 128, 64
-0.996475, 239, 177, 254, 240
-0.996496, 81, 17, 208, 80
-0.996497, 277, 97, 308, 352
-0.996517, 49, 321, 176, 352
-0.996537, 197, 193, 228, 256
-0.996547, 45, 1, 76, 128
-0.996551, 123, 425, 138, 488
-0.996556, 249, 369, 280, 496
-0.99656, 145, 225, 176, 480
-0.996562, 45, 57, 76, 120
-0.996568, 93, 121, 124, 184
-0.996568, 97, 181, 224, 212
-0.996614, 269, 153, 284, 216
-0.996617, 129, 285, 256, 316
-0.99662, 237, 369, 268, 496
-0.996628, 299, 97, 314, 160
-0.996651, 167, 137, 182, 200
-0.996656, 97, 429, 224, 460
-0.996662, 289, 121, 304, 184
-0.996663, 209, 381, 332, 412
-0.996681, 113, 353, 240, 384
-0.9967, 129, 333, 256, 364
-0.996703, 149, 289, 164, 352
-0.996711, 1, 425, 332, 488
-0.996753, 265, 97, 296, 352
-0.996763, 17, 57, 48, 120
-0.996766, 175, 137, 190, 200
-0.996767, 293, 97, 324, 352
-0.996768, 285, 257, 316, 500
-0.996776, 153, 81, 184, 208
-0.99679, 305, 313, 320, 376
-0.996792, 77, 25, 108, 88
-0.996792, 173, 321, 204, 384
-0.996809, 299, 241, 314, 304
-0.996809, 159, 137, 174, 200
-0.996825, 161, 209, 176, 272
-0.996842, 209, 217, 240, 280
-0.996848, 173, 217, 188, 280
-0.996854, 249, 1, 312, 256
-0.996876, 103, 145, 118, 208
-0.996878, 287, 377, 302, 440
-0.996881, 161, 281, 192, 344
-0.996881, 129, 321, 256, 352
-0.996882, 49, 145, 112, 272
-0.996925, 301, 33, 332, 160
-0.99694, 305, 249, 320, 312
-0.996957, 91, 153, 106, 216
-0.996964, 247, 177, 262, 240
-0.996971, 209, 133, 332, 164
-0.996977, 193, 237, 320, 268
-0.996977, 151, 137, 166, 200
-0.99698, 157, 169, 188, 232
-0.996984, 181, 169, 212, 232
-0.996991, 105, 401, 136, 464
-0.996997, 65, 209, 192, 240
-0.997001, 145, 137, 160, 200
-0.997003, 65, 157, 192, 188
-0.997008, 317, 89, 332, 152
-0.997019, 65, 89, 320, 152
-0.997036, 311, 201, 326, 264
-0.997042, 265, 185, 280, 248
-0.997052, 161, 137, 288, 168
-0.997068, 125, 257, 156, 384
-0.997074, 65, 245, 192, 276
-0.997083, 133, 137, 148, 200
-0.99709, 259, 201, 274, 264
-0.997097, 259, 137, 274, 168
-0.997107, 311, 113, 326, 176
-0.99711, 127, 137, 142, 200
-0.997114, 121, 129, 152, 384
-0.997117, 65, 309, 192, 340
-0.997119, 33, 1, 64, 128
-0.997124, 95, 177, 110, 240
-0.997139, 209, 353, 332, 384
-0.99716, 237, 401, 252, 464
-0.997166, 209, 161, 332, 192
-0.99717, 263, 153, 278, 216
-0.997174, 283, 409, 298, 472
-0.997193, 283, 241, 298, 304
-0.997203, 169, 81, 200, 208
-0.997232, 139, 137, 154, 200
-0.997243, 305, 425, 320, 488
-0.997247, 311, 257, 326, 320
-0.997249, 193, 209, 320, 240
-0.997252, 49, 393, 176, 424
-0.997267, 317, 193, 332, 256
-0.997269, 293, 97, 308, 160
-0.997272, 209, 225, 332, 256
-0.997282, 1, 217, 332, 280
-0.997298, 121, 137, 136, 200
-0.997316, 209, 449, 332, 480
-0.997317, 9, 113, 72, 176
-0.997325, 295, 345, 310, 408
-0.99733, 131, 361, 146, 424
-0.997331, 245, 97, 276, 352
-0.997345, 229, 401, 244, 464
-0.997372, 219, 177, 234, 208
-0.997372, 279, 161, 294, 224
-0.997375, 273, 177, 288, 240
-0.997376, 61, 1, 92, 128
-0.997377, 293, 381, 308, 412
-0.997379, 65, 233, 192, 264
-0.997396, 185, 193, 200, 256
-0.997404, 65, 289, 192, 320
-0.99741, 177, 129, 208, 384
-0.99741, 33, 441, 160, 472
-0.997414, 49, 365, 176, 396
-0.997424, 1, 241, 332, 304
-0.99743, 291, 413, 306, 444
-0.997432, 197, 177, 212, 240
-0.997435, 33, 453, 160, 484
-0.997441, 115, 137, 130, 200
-0.997446, 161, 421, 288, 452
-0.997448, 209, 369, 332, 400
-0.997452, 49, 349, 176, 380
-0.997457, 289, 257, 304, 320
-0.997459, 305, 89, 320, 152
-0.997461, 65, 73, 192, 136
-0.997475, 209, 249, 332, 280
-0.997482, 277, 417, 292, 480
-0.997496, 317, 329, 332, 392
-0.997496, 1, 305, 332, 368
-0.997497, 17, 189, 144, 220
-0.997498, 143, 361, 158, 424
-0.997504, 105, 369, 136, 496
-0.997506, 287, 97, 302, 160
-0.99752, 295, 273, 310, 336
-0.997524, 225, 201, 240, 264
-0.997532, 229, 185, 244, 216
-0.997544, 65, 273, 192, 304
-0.997557, 139, 393, 154, 456
-0.997557, 49, 337, 176, 368
-0.997568, 165, 129, 196, 384
-0.99757, 181, 393, 196, 456
-0.99757, 123, 177, 138, 240
-0.997601, 65, 261, 192, 292
-0.997611, 1, 97, 332, 160
-0.997627, 157, 225, 188, 480
-0.997628, 113, 193, 128, 256
-0.997629, 125, 201, 140, 264
-0.997629, 249, 49, 312, 176
-0.997635, 201, 225, 232, 352
-0.997637, 301, 425, 316, 456
-0.99764, 49, 409, 176, 440
-0.997647, 167, 225, 182, 288
-0.997655, 267, 425, 282, 488
-0.997656, 65, 221, 192, 252
-0.997656, 109, 137, 124, 200
-0.997665, 125, 385, 140, 448
-0.997675, 97, 441, 224, 472
-0.99768, 161, 393, 176, 456
-0.997686, 253, 425, 268, 488
-0.997689, 311, 89, 326, 152
-0.997698, 209, 81, 240, 208
-0.997698, 143, 289, 158, 352
-0.997698, 159, 369, 174, 432
-0.997701, 101, 185, 116, 248
-0.997707, 89, 57, 152, 120
-0.997711, 85, 1, 116, 128
-0.997713, 33, 465, 160, 496
-0.997715, 165, 361, 180, 424
-0.997715, 223, 401, 238, 464
-0.997725, 145, 393, 160, 456
-0.997737, 201, 361, 264, 424
-0.997745, 243, 393, 258, 456
-0.997746, 219, 193, 234, 256
-0.997762, 95, 153, 110, 184
-0.997767, 211, 177, 226, 208
-0.997771, 265, 137, 280, 168
-0.997773, 133, 177, 148, 240
-0.997774, 25, 1, 88, 500
-0.997777, 205, 409, 220, 472
-0.997777, 209, 309, 332, 340
-0.997794, 109, 161, 124, 224
-0.997795, 311, 433, 326, 496
-0.997805, 147, 265, 162, 328
-0.997806, 185, 249, 200, 312
-0.997807, 283, 125, 298, 156
-0.997818, 295, 313, 310, 376
-0.997832, 189, 129, 220, 384
-0.997838, 213, 129, 244, 384
-0.997846, 275, 225, 290, 288
-0.997846, 259, 185, 274, 216
-0.997858, 201, 249, 264, 312
-0.997862, 1, 161, 128, 192
-0.997863, 139, 185, 154, 248
-0.997863, 205, 193, 220, 256
-0.997865, 221, 189, 236, 220
-0.997876, 195, 233, 210, 296
-0.997881, 161, 233, 176, 264
-0.997887, 313, 169, 328, 232
-0.99789, 131, 393, 146, 424
-0.997899, 49, 381, 176, 412
-0.997914, 243, 153, 258, 184
-0.997923, 253, 141, 268, 172
-0.997926, 195, 401, 210, 464
-0.997927, 101, 81, 132, 208
-0.997927, 107, 185, 122, 248
-0.997946, 81, 133, 208, 164
-0.997947, 295, 121, 310, 184
-0.997948, 205, 173, 220, 204
-0.997952, 191, 193, 206, 256
-0.997952, 1, 173, 128, 204
-0.997959, 311, 337, 326, 400
-0.997959, 161, 389, 288, 420
-0.997964, 277, 129, 292, 160
-0.997965, 109, 97, 140, 352
-0.997972, 267, 173, 282, 204
-0.997976, 117, 305, 148, 432
-0.997983, 33, 429, 160, 460
-0.997991, 209, 461, 332, 492
-0.997999, 97, 457, 224, 488
-0.99801, 229, 129, 260, 384
-0.998013, 145, 169, 272, 200
-0.998021, 293, 369, 308, 400
-0.998034, 209, 281, 332, 312
-0.998049, 97, 469, 224, 500
-0.998054, 133, 257, 164, 500
-0.998072, 305, 341, 320, 372
-0.998091, 209, 293, 332, 324
-0.998096, 129, 81, 160, 208
-0.998106, 289, 125, 304, 156
-0.998107, 1, 149, 128, 180
-0.998113, 273, 257, 304, 500
-0.998122, 271, 137, 286, 168
-0.998123, 161, 433, 288, 496
-0.998125, 215, 189, 230, 220
-0.998131, 199, 181, 214, 212
-0.99814, 143, 317, 158, 348
-0.998143, 273, 185, 288, 216
-0.99816, 299, 401, 314, 432
-0.998166, 317, 101, 332, 132
-0.998173, 209, 261, 332, 292
-0.998188, 159, 245, 174, 276
-0.998193, 205, 185, 220, 216
-0.998201, 209, 321, 332, 352
-0.998202, 317, 117, 332, 148
-0.998203, 235, 189, 250, 220
-0.998235, 65, 193, 192, 224
-0.998244, 233, 241, 264, 368
-0.998246, 237, 153, 252, 184
-0.998247, 153, 217, 168, 248
-0.998266, 81, 1, 144, 128
-0.998267, 155, 265, 170, 296
-0.998269, 253, 181, 268, 212
-0.998269, 209, 105, 332, 136
-0.998274, 249, 153, 264, 184
-0.998293, 137, 369, 152, 400
-0.998298, 127, 425, 142, 456
-0.998314, 153, 277, 168, 308
-0.998314, 201, 97, 232, 352
-0.99832, 189, 413, 220, 428
-0.99832, 257, 229, 288, 244
-0.99832, 281, 375, 312, 390
-0.998321, 117, 403, 148, 418
-0.998322, 289, 97, 320, 112
-0.998322, 241, 437, 272, 452
-0.998322, 283, 421, 298, 452
-0.998323, 137, 353, 168, 368
-0.998323, 277, 183, 308, 198
-0.998324, 247, 141, 262, 172
-0.998324, 121, 453, 152, 468
-0.998326, 213, 427, 244, 442
-0.998327, 93, 171, 124, 186
-0.998327, 213, 199, 244, 214
-0.998328, 297, 389, 328, 404
-0.998329, 169, 147, 200, 162
-0.998329, 89, 165, 120, 180
-0.99833, 249, 157, 280, 172
-0.99833, 281, 237, 312, 252
-0.99833, 137, 363, 168, 378
-0.998331, 257, 221, 288, 236
-0.998332, 277, 137, 308, 152
-0.998332, 153, 401, 184, 416
-0.998334, 209, 341, 332, 372
-0.998334, 157, 215, 188, 230
-0.998335, 141, 405, 172, 420
-0.998336, 297, 369, 328, 384
-0.998336, 129, 419, 160, 434
-0.998336, 209, 413, 240, 428
-0.998338, 141, 331, 172, 346
-0.998338, 141, 81, 172, 208
-0.998339, 261, 433, 292, 448
-0.99834, 249, 429, 280, 444
-0.99834, 241, 193, 272, 208
-0.998341, 153, 259, 184, 274
-0.998341, 233, 413, 248, 444
-0.998341, 141, 325, 172, 340
-0.998343, 121, 445, 152, 460
-0.998343, 241, 199, 272, 214
-0.998343, 181, 179, 212, 194
-0.998343, 301, 343, 332, 358
-0.998343, 113, 433, 144, 448
-0.998343, 193, 193, 224, 208
-0.998343, 137, 217, 168, 232
-0.998344, 121, 459, 152, 474
-0.998344, 229, 433, 260, 448
-0.998347, 261, 195, 292, 210
-0.998348, 265, 185, 280, 216
-0.99835, 193, 151, 224, 166
-0.99835, 225, 215, 256, 230
-0.99835, 221, 417, 252, 432
-0.998352, 1, 265, 332, 328
-0.998353, 297, 109, 328, 124
-0.998354, 181, 149, 212, 164
-0.998354, 93, 153, 124, 168
-0.998355, 149, 301, 180, 316
-0.998355, 149, 295, 180, 310
-0.998356, 221, 209, 252, 224
-0.998356, 105, 203, 136, 218
-0.998356, 157, 221, 188, 236
-0.998357, 93, 159, 124, 174
-0.998358, 277, 429, 308, 444
-0.998359, 237, 181, 268, 196
-0.998359, 225, 195, 256, 210
-0.998362, 219, 149, 234, 180
-0.998364, 161, 125, 288, 156
-0.998365, 129, 413, 160, 428
-0.998365, 293, 411, 324, 426
-0.998367, 293, 261, 324, 276
-0.998368, 261, 181, 292, 196
-0.998369, 297, 381, 328, 396
-0.998369, 289, 455, 320, 470
-0.99837, 177, 407, 208, 422
-0.99837, 289, 463, 320, 478
-0.998371, 203, 149, 218, 180
-0.998372, 81, 485, 112, 500
-0.998375, 141, 347, 172, 362
-0.998375, 133, 385, 164, 400
-0.998375, 285, 243, 316, 258
-0.998376, 157, 251, 188, 266
-0.998376, 93, 33, 124, 288
-0.998377, 129, 393, 160, 408
-0.998377, 301, 349, 332, 364
-0.998378, 289, 469, 320, 484
-0.998378, 231, 153, 246, 184
-0.998381, 153, 271, 184, 286
-0.998381, 145, 309, 176, 324
-0.998383, 125, 431, 156, 446
-0.998384, 141, 339, 172, 354
-0.998384, 137, 369, 168, 384
-0.998384, 301, 97, 332, 112
-0.998385, 131, 409, 146, 440
-0.998386, 165, 403, 196, 418
-0.998387, 97, 483, 128, 498
-0.998389, 281, 393, 312, 408
-0.998389, 225, 153, 256, 168
-0.99839, 149, 287, 180, 302
-0.99839, 297, 357, 328, 372
-0.998392, 133, 379, 164, 394
-0.998392, 157, 227, 188, 242
-0.998393, 241, 187, 272, 202
-0.998394, 129, 405, 160, 420
-0.998395, 289, 449, 320, 464
-0.998396, 301, 237, 332, 252
-0.998396, 261, 135, 292, 150
-0.998397, 213, 153, 244, 168
-0.998398, 197, 179, 228, 194
-0.998398, 289, 103, 320, 118
-0.998399, 289, 443, 320, 458
-0.9984, 225, 183, 256, 198
-0.998401, 289, 437, 320, 452
-0.998401, 125, 425, 156, 440
-0.998401, 149, 281, 180, 296
-0.998403, 157, 233, 188, 248
-0.998404, 305, 101, 320, 132
-0.998404, 289, 255, 320, 270
-0.998404, 281, 381, 312, 396
-0.998408, 297, 363, 328, 378
-0.998408, 145, 315, 176, 330
-0.998409, 149, 305, 164, 336
-0.998412, 157, 245, 188, 260
-0.998413, 153, 265, 184, 280
-0.998414, 281, 417, 312, 432
-0.998414, 289, 249, 320, 264
-0.998416, 237, 155, 268, 170
-0.998418, 295, 121, 310, 152
-0.998423, 143, 333, 158, 364
-0.998425, 277, 425, 292, 456
-0.998425, 209, 149, 224, 180
-0.998425, 157, 239, 188, 254
-0.998427, 69, 485, 100, 500
-0.998431, 135, 381, 150, 412
-0.998434, 289, 431, 320, 446
-0.998434, 277, 131, 308, 146
-0.998436, 189, 257, 204, 288
-0.998438, 253, 187, 284, 202
-0.998444, 297, 123, 328, 138
-0.998445, 293, 479, 324, 494
-0.998445, 129, 399, 160, 414
-0.998446, 209, 121, 332, 152
-0.998447, 297, 485, 328, 500
-0.99845, 237, 147, 268, 162
-0.998452, 253, 151, 284, 166
-0.998454, 273, 161, 288, 192
-0.998459, 229, 197, 244, 228
-0.998463, 229, 189, 260, 204
-0.998464, 265, 429, 328, 444
-0.998472, 301, 103, 332, 118
-0.998479, 193, 189, 256, 204
-0.998482, 281, 387, 312, 402
-0.998482, 193, 181, 256, 196
-0.998484, 173, 225, 188, 256
-0.998486, 73, 485, 136, 500
-0.998487, 311, 97, 326, 128
-0.998487, 285, 125, 316, 140
-0.998495, 225, 185, 288, 200
-0.998496, 311, 233, 326, 264
-0.998496, 303, 469, 318, 500
-0.9985, 311, 117, 326, 148
-0.998504, 299, 105, 314, 136
-0.998505, 265, 435, 328, 450
-0.998508, 197, 149, 212, 180
-0.99851, 197, 185, 228, 200
-0.998519, 243, 189, 258, 220
-0.99852, 265, 197, 280, 228
-0.998529, 195, 245, 210, 276
-0.99853, 225, 173, 240, 204
-0.998533, 163, 221, 178, 252
-0.998536, 121, 403, 184, 418
-0.998538, 303, 437, 318, 468
-0.998544, 213, 189, 244, 204
-0.998545, 177, 145, 192, 176
-0.998546, 225, 153, 240, 184
-0.998547, 145, 403, 208, 418
-0.998547, 281, 423, 312, 438
-0.998547, 95, 165, 110, 196
-0.998547, 121, 397, 184, 412
-0.998548, 297, 413, 312, 444
-0.99855, 209, 179, 240, 194
-0.99855, 249, 139, 312, 154
-0.99855, 187, 149, 202, 180
-0.998553, 273, 131, 332, 146
-0.998553, 265, 423, 328, 438
-0.998556, 217, 147, 280, 162
-0.998556, 153, 247, 216, 262
-0.998557, 145, 265, 208, 280
-0.998563, 249, 149, 312, 164
-0.998563, 153, 237, 216, 252
-0.998566, 129, 381, 192, 396
-0.998568, 209, 153, 272, 168
-0.998573, 143, 345, 158, 376
-0.998575, 145, 271, 208, 286
-0.998578, 209, 415, 272, 430
-0.998578, 273, 483, 332, 498
-0.998578, 257, 213, 272, 244
-0.99858, 123, 453, 138, 484
-0.998581, 225, 191, 288, 206
-0.998581, 153, 253, 216, 268
-0.998581, 257, 141, 288, 156
-0.998581, 153, 231, 216, 246
-0.998583, 129, 369, 192, 384
-0.998584, 273, 125, 332, 140
-0.998584, 239, 413, 254, 444
-0.998586, 137, 355, 200, 370
-0.998586, 137, 323, 200, 338
-0.998588, 217, 179, 280, 194
-0.998589, 273, 235, 332, 250
-0.998591, 95, 185, 110, 216
-0.998591, 137, 331, 200, 346
-0.998592, 145, 259, 208, 274
-0.998593, 265, 387, 328, 402
-0.998594, 261, 129, 276, 256
-0.998594, 193, 189, 208, 220
-0.998597, 145, 277, 208, 292
-0.998597, 233, 173, 248, 204
-0.998598, 273, 149, 288, 180
-0.9986, 137, 361, 200, 376
-0.9986, 137, 33, 168, 288
-0.998601, 257, 381, 320, 396
-0.998603, 201, 297, 264, 360
-0.998604, 265, 195, 328, 210
-0.998605, 169, 181, 232, 196
-0.998605, 151, 293, 166, 324
-0.998605, 257, 417, 320, 432
-0.998606, 265, 251, 328, 266
-0.998606, 265, 243, 328, 258
-0.998607, 129, 375, 192, 390
-0.998607, 89, 169, 104, 200
-0.998608, 145, 287, 208, 302
-0.99861, 273, 443, 332, 458
-0.99861, 121, 429, 184, 444
-0.99861, 121, 423, 184, 438
-0.99861, 81, 159, 144, 174
-0.998611, 273, 477, 332, 492
-0.998611, 225, 197, 288, 212
-0.998612, 185, 151, 248, 166
-0.998612, 145, 293, 208, 308
-0.998613, 137, 339, 200, 354
-0.998614, 137, 345, 200, 360
-0.998614, 99, 141, 114, 172
-0.998614, 145, 309, 208, 324
-0.998614, 265, 189, 328, 204
-0.998615, 273, 453, 332, 468
-0.99862, 241, 427, 304, 442
-0.998621, 137, 317, 200, 332
-0.998622, 89, 153, 152, 168
-0.998622, 129, 391, 192, 406
-0.998624, 145, 303, 208, 318
-0.998625, 265, 395, 328, 410
-0.998626, 265, 201, 328, 216
-0.998628, 121, 409, 184, 424
-0.998629, 273, 467, 332, 482
-0.998631, 273, 459, 332, 474
-0.998631, 153, 225, 216, 240
-0.998633, 121, 415, 184, 430
-0.998633, 273, 137, 332, 152
-0.998633, 233, 155, 296, 170
-0.998634, 303, 449, 318, 480
-0.998635, 89, 479, 152, 494
-0.998636, 257, 411, 320, 426
-0.998636, 267, 161, 282, 192
-0.99864, 161, 149, 224, 164
-0.998642, 257, 403, 320, 418
-0.998643, 201, 409, 264, 424
-0.998644, 265, 207, 328, 222
-0.998644, 169, 187, 232, 202
-0.998644, 49, 485, 112, 500
-0.998644, 89, 171, 152, 186
-0.998647, 81, 165, 144, 180
-0.998649, 97, 403, 160, 418
-0.998649, 271, 125, 286, 156
-0.99865, 309, 221, 324, 252
-0.998651, 233, 435, 296, 450
-0.998651, 303, 249, 318, 280
-0.998651, 273, 229, 332, 244
-0.998652, 141, 357, 156, 388
-0.998652, 185, 195, 248, 210
-0.998653, 137, 209, 200, 224
-0.998655, 293, 401, 308, 432
-0.998659, 217, 213, 280, 228
-0.998659, 97, 375, 160, 390
-0.998662, 177, 207, 240, 222
-0.998663, 257, 375, 320, 390
-0.998664, 209, 219, 272, 234
-0.998665, 89, 177, 152, 192
-0.998665, 201, 429, 264, 444
-0.998666, 81, 203, 144, 218
-0.998666, 137, 145, 200, 160
-0.998666, 113, 435, 176, 450
-0.998667, 225, 203, 288, 218
-0.998668, 273, 259, 332, 274
-0.998669, 153, 215, 216, 230
-0.998669, 265, 181, 328, 196
-0.998669, 285, 253, 300, 284
-0.99867, 49, 169, 112, 184
-0.99867, 177, 215, 240, 230
-0.998671, 113, 457, 176, 472
-0.998671, 241, 245, 304, 260
-0.998672, 49, 163, 112, 178
-0.998672, 241, 211, 304, 226
-0.998672, 273, 359, 332, 374
-0.998673, 161, 411, 224, 426
-0.998673, 97, 369, 160, 384
-0.998673, 97, 191, 160, 206
-0.998675, 249, 133, 312, 148
-0.998675, 171, 145, 186, 176
-0.998675, 121, 201, 184, 216
-0.998678, 89, 441, 152, 456
-0.998679, 113, 451, 176, 466
-0.998679, 105, 325, 168, 340
-0.998679, 239, 177, 254, 208
-0.99868, 249, 267, 312, 282
-0.99868, 317, 241, 332, 272
-0.998681, 177, 399, 240, 414
-0.998681, 249, 261, 312, 276
-0.998682, 113, 263, 176, 278
-0.998682, 233, 421, 296, 436
-0.998682, 89, 147, 152, 162
-0.998682, 183, 257, 198, 288
-0.998683, 89, 435, 152, 450
-0.998683, 97, 209, 160, 224
-0.998684, 257, 365, 320, 380
-0.998684, 121, 237, 184, 252
-0.998684, 113, 479, 176, 494
-0.998684, 273, 353, 332, 368
-0.998684, 113, 215, 176, 230
-0.998685, 295, 425, 310, 456
-0.998686, 113, 269, 176, 284
-0.998686, 241, 235, 304, 250
-0.998687, 223, 205, 238, 236
-0.998687, 301, 121, 316, 152
-0.998689, 177, 265, 192, 296
-0.998691, 261, 173, 276, 204
-0.998693, 155, 141, 170, 172
-0.998698, 279, 181, 294, 212
-0.9987, 273, 173, 288, 204
-0.998701, 93, 129, 124, 384
-0.998702, 101, 193, 116, 224
-0.998712, 163, 141, 178, 172
-0.998715, 125, 441, 140, 472
-0.998716, 235, 201, 250, 232
-0.998717, 121, 33, 152, 288
-0.998721, 299, 381, 314, 412
-0.998725, 187, 197, 202, 228
-0.998731, 213, 421, 228, 452
-0.998731, 305, 233, 320, 264
-0.998732, 179, 217, 194, 248
-0.998734, 289, 113, 304, 144
-0.998734, 121, 429, 136, 460
-0.998737, 271, 429, 286, 460
-0.998739, 205, 417, 220, 448
-0.998739, 217, 221, 232, 252
-0.998741, 199, 169, 214, 200
-0.99875, 271, 229, 286, 260
-0.99875, 301, 365, 316, 396
-0.998751, 167, 389, 182, 420
-0.998754, 245, 169, 260, 200
-0.998755, 309, 257, 324, 288
-0.998768, 259, 149, 274, 180
-0.99877, 125, 397, 140, 428
-0.998784, 113, 157, 240, 188
-0.998801, 225, 257, 288, 500
-0.998812, 135, 353, 150, 480
-0.998826, 169, 257, 200, 500
-0.998829, 121, 225, 152, 480
-0.998831, 267, 129, 282, 256
-0.998844, 73, 409, 136, 472
-0.998846, 99, 129, 114, 256
-0.998871, 231, 145, 246, 272
-0.998888, 143, 305, 158, 432
-0.998891, 239, 145, 254, 272
-0.998893, 275, 113, 290, 240
-0.998893, 315, 81, 330, 208
-0.998902, 255, 129, 270, 256
-0.998904, 205, 129, 220, 256
-0.99891, 249, 225, 280, 352
-0.998916, 161, 345, 288, 376
-0.998916, 193, 81, 224, 208
-0.99892, 281, 113, 296, 240
-0.998939, 133, 129, 148, 256
-0.998941, 157, 209, 172, 336
-0.998944, 109, 129, 124, 256
-0.998947, 127, 129, 142, 256
-0.998955, 141, 129, 156, 256
-0.998958, 221, 129, 236, 256
-0.998973, 197, 129, 212, 256
-0.998974, 105, 17, 168, 80
-0.998977, 185, 129, 200, 256
-0.99898, 145, 433, 272, 464
-0.99899, 17, 33, 144, 64
-0.998991, 121, 129, 136, 256
-0.998996, 191, 129, 206, 256
-0.999007, 257, 273, 288, 400
-0.999008, 1, 137, 128, 168
-0.999014, 151, 257, 166, 384
-0.999014, 215, 129, 230, 256
-0.999021, 185, 329, 248, 392
-0.999027, 115, 129, 130, 256
-0.999031, 249, 145, 264, 272
-0.999034, 1, 93, 128, 124
-0.999056, 153, 129, 168, 256
-0.999059, 179, 129, 194, 256
-0.999076, 149, 33, 180, 288
-0.999083, 1, 121, 332, 184
-0.999085, 17, 201, 144, 232
-0.999089, 147, 129, 162, 256
-0.999094, 295, 369, 310, 496
-0.999119, 305, 305, 320, 432
-0.999121, 129, 369, 144, 496
-0.99913, 167, 129, 182, 256
-0.999131, 1, 1, 64, 500
-0.999135, 81, 81, 144, 144
-0.999145, 233, 33, 264, 288
-0.999148, 73, 1, 104, 256
-0.999148, 181, 257, 212, 500
-0.999148, 17, 45, 144, 76
-0.99916, 253, 193, 284, 448
-0.999163, 173, 129, 188, 256
-0.999167, 311, 257, 326, 384
-0.999168, 1, 49, 256, 112
-0.999174, 309, 81, 324, 208
-0.999175, 311, 193, 326, 320
-0.99918, 1, 21, 128, 52
-0.999184, 149, 193, 164, 320
-0.99919, 1, 61, 128, 92
-0.999193, 295, 273, 310, 400
-0.999206, 287, 113, 302, 240
-0.999206, 41, 1, 104, 64
-0.99921, 215, 177, 230, 304
-0.999212, 159, 129, 174, 256
-0.999224, 209, 89, 332, 120
-0.999229, 301, 353, 316, 480
-0.999237, 141, 353, 156, 480
-0.999247, 317, 257, 332, 384
-0.99926, 1, 105, 128, 136
-0.999261, 201, 177, 216, 304
-0.999263, 303, 241, 318, 368
-0.999275, 163, 225, 178, 352
-0.999298, 207, 177, 222, 304
-0.999302, 285, 1, 316, 256
-0.999305, 317, 209, 332, 336
-0.999327, 303, 81, 318, 208
-0.999328, 143, 209, 158, 336
-0.99933, 275, 161, 290, 288
-0.999331, 81, 49, 208, 80
-0.999339, 225, 177, 240, 304
-0.999351, 289, 369, 304, 496
-0.999354, 283, 241, 298, 368
-0.999354, 149, 305, 164, 432
-0.999366, 297, 1, 328, 256
-0.999369, 177, 33, 208, 288
-0.999371, 309, 129, 324, 256
-0.999372, 293, 113, 308, 240
-0.999376, 165, 33, 196, 288
-0.999378, 183, 177, 198, 304
-0.999379, 191, 177, 206, 304
-0.999381, 93, 129, 108, 256
-0.999394, 239, 193, 254, 320
-0.9994, 109, 193, 140, 448
-0.9994, 177, 193, 192, 320
-0.999404, 221, 33, 252, 288
-0.999405, 137, 305, 152, 432
-0.999406, 103, 177, 118, 304
-0.999414, 317, 161, 332, 288
-0.999417, 281, 161, 296, 288
-0.999419, 265, 1, 296, 256
-0.999419, 297, 225, 312, 352
-0.999422, 169, 337, 184, 464
-0.999427, 23, 49, 38, 176
-0.999427, 29, 49, 44, 176
-0.999428, 225, 257, 288, 320
-0.999431, 311, 337, 326, 464
-0.999435, 317, 305, 332, 432
-0.999435, 161, 357, 288, 388
-0.999438, 17, 121, 144, 152
-0.999442, 1, 49, 16, 176
-0.999442, 17, 49, 32, 176
-0.999442, 43, 49, 58, 176
-0.999443, 9, 49, 24, 176
-0.999446, 55, 49, 70, 176
-0.999454, 65, 101, 192, 132
-0.999455, 35, 49, 50, 176
-0.999457, 49, 49, 64, 176
-0.99946, 257, 177, 272, 304
-0.99946, 265, 177, 280, 304
-0.999463, 271, 225, 286, 352
-0.999465, 241, 193, 272, 448
-0.999467, 97, 177, 112, 304
-0.999467, 269, 81, 284, 208
-0.999467, 163, 177, 178, 304
-0.999468, 233, 193, 248, 320
-0.999472, 171, 209, 186, 336
-0.999473, 283, 369, 298, 496
-0.999483, 289, 241, 304, 368
-0.999484, 49, 61, 176, 92
-0.999486, 133, 193, 148, 320
-0.999487, 233, 97, 248, 224
-0.999489, 301, 177, 316, 304
-0.999497, 81, 97, 112, 352
-0.999506, 289, 321, 304, 448
-0.999506, 277, 225, 292, 352
-0.999507, 163, 337, 178, 464
-0.999508, 197, 225, 228, 480
-0.999518, 277, 139, 292, 154
-0.999518, 141, 319, 156, 334
-0.999518, 163, 227, 178, 242
-0.999518, 191, 149, 206, 164
-0.999519, 185, 149, 200, 164
-0.999519, 303, 471, 318, 486
-0.999519, 315, 485, 330, 500
-0.999519, 125, 441, 140, 456
-0.99952, 263, 81, 278, 208
-0.99952, 151, 281, 166, 296
-0.999521, 109, 177, 124, 304
-0.999521, 301, 249, 316, 264
-0.999522, 181, 399, 196, 414
-0.999523, 263, 205, 278, 220
-0.999523, 151, 301, 166, 316
-0.999524, 87, 97, 102, 224
-0.999524, 123, 461, 138, 476
-0.999524, 171, 277, 186, 292
-0.999525, 75, 485, 90, 500
-0.999525, 153, 221, 168, 236
-0.999525, 203, 417, 218, 432
-0.999526, 295, 427, 310, 442
-0.999526, 191, 409, 206, 424
-0.999526, 275, 191, 290, 206
-0.999526, 195, 179, 210, 194
-0.999526, 175, 321, 190, 448
-0.999526, 305, 349, 320, 364
-0.999527, 293, 375, 308, 390
-0.999527, 155, 269, 170, 284
-0.999527, 151, 287, 166, 302
-0.999528, 127, 193, 142, 320
-0.999528, 209, 329, 272, 392
-0.999528, 177, 273, 192, 288
-0.999529, 131, 407, 146, 422
-0.999529, 291, 103, 306, 118
-0.999529, 145, 257, 160, 384
-0.99953, 255, 185, 270, 200
-0.999531, 317, 111, 332, 126
-0.999531, 167, 393, 182, 408
-0.999531, 199, 151, 214, 166
-0.999532, 131, 421, 146, 436
-0.999533, 61, 49, 76, 176
-0.999533, 143, 341, 158, 356
-0.999533, 311, 107, 326, 122
-0.999533, 305, 123, 320, 138
-0.999533, 273, 433, 288, 448
-0.999535, 201, 177, 216, 192
-0.999538, 201, 321, 216, 448
-0.999538, 135, 387, 150, 402
-0.999538, 197, 413, 212, 428
-0.999538, 213, 423, 228, 438
-0.999539, 251, 191, 266, 206
-0.999539, 285, 421, 300, 436
-0.99954, 245, 191, 260, 206
-0.99954, 231, 153, 246, 168
-0.99954, 185, 407, 200, 422
-0.999541, 293, 393, 308, 408
-0.999541, 169, 399, 184, 414
-0.999541, 299, 123, 314, 138
-0.999541, 153, 275, 168, 290
-0.999543, 237, 185, 252, 200
-0.999543, 207, 151, 222, 166
-0.999543, 297, 421, 312, 436
-0.999543, 127, 433, 142, 448
-0.999544, 291, 193, 306, 320
-0.999544, 121, 193, 136, 320
-0.999544, 93, 485, 108, 500
-0.999545, 303, 445, 318, 460
-0.999546, 291, 411, 306, 426
-0.999546, 185, 261, 200, 276
-0.999546, 227, 97, 242, 224
-0.999547, 269, 195, 284, 210
-0.999548, 277, 369, 292, 496
-0.999549, 279, 427, 294, 442
-0.999549, 231, 195, 246, 210
-0.99955, 277, 183, 292, 198
-0.99955, 157, 263, 172, 278
-0.999551, 217, 153, 232, 168
-0.999552, 233, 415, 248, 430
-0.999553, 237, 155, 252, 170
-0.999554, 289, 65, 304, 192
-0.999555, 299, 385, 314, 400
-0.999556, 257, 81, 272, 208
-0.999557, 301, 435, 316, 450
-0.999558, 95, 167, 110, 182
-0.999559, 81, 37, 208, 68
-0.999559, 131, 415, 146, 430
-0.999559, 297, 103, 312, 118
-0.99956, 317, 95, 332, 110
-0.999561, 151, 293, 166, 308
-0.999561, 259, 197, 274, 212
-0.999561, 137, 369, 152, 384
-0.999561, 229, 183, 244, 198
-0.999563, 249, 97, 264, 224
-0.999563, 275, 133, 290, 148
-0.999564, 115, 193, 130, 320
-0.999564, 249, 155, 264, 170
-0.999565, 305, 343, 320, 358
-0.999566, 269, 133, 284, 148
-0.999567, 225, 153, 240, 168
-0.999567, 181, 267, 196, 282
-0.999567, 161, 245, 176, 260
-0.999568, 303, 129, 318, 256
-0.999569, 297, 409, 312, 424
-0.999569, 137, 377, 152, 392
-0.999569, 9, 1, 72, 256
-0.999569, 159, 251, 174, 266
-0.999569, 133, 393, 148, 408
-0.99957, 239, 97, 254, 224
-0.99957, 157, 257, 172, 384
-0.999573, 129, 427, 144, 442
-0.999576, 293, 125, 308, 140
-0.999577, 317, 33, 332, 160
-0.999578, 243, 155, 258, 170
-0.999578, 191, 257, 206, 272
-0.999578, 311, 121, 326, 136
-0.999582, 1, 25, 256, 88
-0.999583, 237, 191, 252, 206
-0.999584, 261, 185, 276, 200
-0.999586, 163, 233, 178, 248
-0.999586, 271, 185, 286, 200
-0.999586, 279, 65, 294, 192
-0.999589, 195, 321, 210, 448
-0.99959, 295, 321, 310, 448
-0.99959, 271, 139, 286, 154
-0.99959, 149, 309, 164, 324
-0.999591, 129, 401, 144, 416
-0.999592, 225, 369, 240, 496
-0.999597, 147, 317, 162, 332
-0.999598, 155, 305, 170, 432
-0.999603, 267, 179, 282, 194
-0.999603, 317, 103, 332, 118
-0.999604, 263, 139, 278, 154
-0.999605, 305, 477, 320, 492
-0.999607, 147, 369, 162, 496
-0.999608, 143, 325, 158, 340
-0.999608, 97, 153, 112, 168
-0.999608, 155, 369, 170, 496
-0.999609, 161, 239, 176, 254
-0.99961, 255, 151, 270, 166
-0.99961, 317, 119, 332, 134
-0.999611, 281, 131, 296, 146
-0.999611, 225, 353, 288, 416
-0.999612, 81, 485, 96, 500
-0.999612, 95, 161, 110, 176
-0.999613, 221, 191, 236, 206
-0.999615, 265, 321, 296, 448
-0.999616, 309, 483, 324, 498
-0.999617, 311, 101, 326, 116
-0.999617, 69, 49, 84, 176
-0.999619, 249, 209, 264, 336
-0.999627, 287, 127, 302, 142
-0.999627, 301, 429, 316, 444
-0.999627, 213, 369, 228, 496
-0.999629, 303, 103, 318, 118
-0.99963, 85, 17, 100, 144
-0.999639, 123, 369, 138, 496
-0.99964, 309, 33, 324, 160
-0.999644, 207, 179, 222, 194
-0.999646, 217, 179, 232, 194
-0.999646, 249, 149, 264, 164
-0.999656, 201, 183, 216, 198
-0.999657, 211, 187, 226, 202
-0.999666, 223, 183, 238, 198
-0.999669, 231, 189, 246, 204
-0.999677, 293, 387, 308, 402
-0.999677, 257, 141, 272, 156
-0.999677, 291, 417, 306, 432
-0.999685, 229, 257, 260, 500
-0.999689, 161, 373, 288, 404
-0.999703, 293, 381, 308, 396
-0.999706, 65, 113, 192, 144
-0.999709, 221, 81, 252, 208
-0.999712, 189, 33, 220, 288
-0.999735, 105, 1, 136, 256
-0.999741, 81, 25, 208, 56
-0.999748, 1, 321, 128, 352
-0.999786, 1, 81, 128, 112
-0.999786, 201, 273, 232, 400
-0.999799, 117, 81, 148, 208
-0.999807, 65, 13, 192, 44
-0.999825, 209, 257, 240, 500
-0.999874, 273, 273, 304, 400
-0.999949, 1, 321, 128, 384
-0.999981, 45, 97, 76, 224
-0.999998, 65, 89, 192, 120
-1.00003, 25, 97, 56, 224
-1.00003, 49, 77, 176, 108
-1.00006, 165, 289, 196, 416
-1.0001, 253, 1, 284, 256
-1.00017, 13, 97, 44, 224
-1.00019, 49, 1, 80, 256
-1.0002, 69, 97, 100, 352
-1.00023, 1, 9, 128, 40
-1.00024, 65, 1, 320, 64
-1.00025, 1, 309, 128, 340
-1.00026, 81, 177, 112, 304
-1.00028, 61, 1, 92, 256
-1.0003, 213, 321, 244, 448
-1.00031, 65, 1, 128, 64
-1.00032, 33, 1, 64, 256
-1.00033, 17, 1, 48, 256
-1.00033, 65, 1, 192, 32
-1.00035, 1, 97, 32, 224
-1.00035, 209, 57, 332, 120
-1.00041, 225, 321, 288, 448
-1.00042, 5, 1, 36, 256
-1.00051, 1, 333, 128, 364
-1.00054, 201, 1, 232, 256
-1.00057, 145, 445, 272, 476
-1.00059, 201, 305, 264, 432
-1.00061, 145, 469, 272, 500
-1.00062, 1, 73, 332, 136
-1.0007, 41, 97, 104, 352
-1.00075, 209, 77, 332, 108
-1.00079, 97, 61, 224, 92
-1.00079, 1, 297, 128, 328
-1.00079, 225, 97, 288, 160
-1.00082, 1, 345, 128, 376
-1.00083, 161, 457, 288, 488
-1.00088, 1, 401, 128, 464
-1.00089, 1, 393, 128, 424
-1.0009, 1, 417, 128, 448
-1.00094, 81, 353, 144, 416
-1.00097, 113, 121, 240, 152
-1.00097, 161, 93, 288, 124
-1.00099, 221, 241, 252, 368
-1.00101, 129, 37, 256, 68
-1.00101, 1, 285, 128, 316
-1.00103, 209, 33, 332, 64
-1.00105, 209, 61, 332, 92
-1.00106, 189, 289, 220, 416
-1.00106, 41, 97, 72, 352
-1.00106, 57, 97, 88, 352
-1.0011, 29, 97, 60, 352
-1.00113, 17, 97, 48, 352
-1.00114, 41, 161, 104, 224
-1.00122, 5, 97, 36, 352
-1.00127, 81, 193, 112, 448
-1.00127, 201, 1, 264, 256
-1.0014, 97, 1, 224, 128
-1.00143, 1, 33, 332, 96
-1.00145, 49, 433, 112, 496
-1.0016, 93, 257, 124, 500
-1.00164, 61, 257, 92, 500
-1.0017, 17, 193, 144, 320
-1.00174, 1, 369, 128, 496
-1.00174, 1, 257, 32, 500
-1.00175, 217, 49, 280, 176
-1.00178, 33, 193, 64, 448
-1.00182, 49, 225, 80, 480
-1.00184, 21, 225, 52, 480
-1.00188, 57, 97, 88, 224
-1.00197, 17, 297, 144, 360
-1.00205, 97, 1, 128, 128
-1.00214, 1, 1, 332, 64
-1.00228, 225, 321, 256, 448
-1.00233, 89, 209, 152, 272
-1.00242, 1, 377, 128, 440
-1.0025, 105, 1, 168, 128
-1.00253, 161, 89, 288, 152
-1.00259, 1, 265, 128, 328
-1.00259, 209, 1, 332, 64
-1.00259, 129, 25, 256, 88
-1.00262, 97, 257, 160, 320
-1.00272, 245, 273, 276, 400
-1.00283, 129, 1, 256, 64
-1.00288, 113, 73, 240, 136
-1.00289, 161, 65, 288, 128
-1.00291, 177, 33, 304, 96
-1.00291, 1, 217, 128, 280
-1.00291, 17, 241, 144, 304
-1.00309, 69, 305, 100, 432
-1.00313, 145, 417, 208, 480
-1.00324, 17, 433, 80, 496
-1.00328, 113, 49, 240, 112
-1.00338, 1, 353, 128, 416
-1.00364, 49, 313, 112, 376
-1.00368, 105, 97, 168, 160
-1.00394, 89, 257, 152, 384
-1.00411, 109, 1, 140, 128
-1.00444, 49, 409, 112, 472
-1.00448, 273, 65, 332, 128
-1.00457, 1, 289, 128, 416
-1.00475, 73, 313, 136, 376
-1.00495, 253, 321, 284, 448
-1.00502, 25, 313, 88, 376
-1.00525, 17, 1, 80, 64
-1.00528, 241, 321, 272, 448
-1.00545, 65, 193, 128, 448
-1.00558, 1, 97, 64, 352
-1.00562, 73, 385, 136, 448
-1.00564, 193, 433, 256, 496
-1.00566, 81, 257, 112, 384
-1.00578, 289, 17, 320, 144
-1.00585, 265, 33, 296, 160
-1.00594, 41, 289, 104, 352
-1.00607, 57, 241, 88, 368
-1.00607, 57, 289, 88, 416
-1.00614, 41, 289, 104, 416
-1.00631, 81, 305, 112, 432
-1.00638, 1, 329, 64, 392
-1.00653, 1, 321, 32, 448
-1.00665, 169, 97, 232, 160
-1.00682, 113, 41, 176, 104
-1.00685, 1, 241, 128, 368
-1.00698, 273, 17, 332, 144
-1.00725, 69, 257, 100, 384
-1.00728, 169, 433, 232, 496
-1.00756, 105, 321, 136, 448
-1.00803, 233, 49, 264, 176
-1.00808, 57, 369, 120, 496
-1.00816, 81, 353, 112, 480
-1.00854, 65, 289, 128, 416
-1.00991, 33, 241, 96, 368
-1.01034, 33, 257, 96, 500
-1.01038, 145, 1, 272, 128
-1.01052, 1, 193, 64, 448
-1.01082, 209, 1, 332, 128
-1.01254, 65, 241, 128, 368
-1.01263, 1, 337, 64, 464
-1.01341, 57, 193, 120, 320
-1.01351, 9, 289, 72, 416
-1.01435, 1, 161, 64, 288
-1.01445, 1, 241, 64, 368
-1.01448, 33, 337, 96, 464
-1.01478, 129, 1, 192, 128
-1.01478, 153, 1, 216, 128
-1.01478, 177, 1, 240, 128
-1.01478, 201, 1, 264, 128
-1.01478, 25, 161, 88, 288
-1.01526, 249, 1, 312, 128
-1.01656, 225, 1, 288, 128
