1881
-0.311226, 1, 65, 500, 320
-0.449037, 1, 1, 500, 333
-0.542735, 161, 1, 416, 333
-0.598889, 129, 33, 384, 288
-0.617166, 65, 1, 320, 333
-0.634681, 257, 1, 500, 333
-0.655176, 225, 65, 480, 320
-0.761166, 33, 33, 288, 288
-0.871471, 1, 129, 500, 256
-0.874602, 161, 33, 288, 288
-0.874756, 305, 65, 432, 320
-0.890182, 209, 33, 336, 288
-0.890553, 1, 81, 500, 208
-0.891181, 145, 1, 272, 333
-0.893256, 289, 1, 416, 333
-0.895153, 113, 65, 240, 320
-0.898789, 209, 1, 336, 333
-0.901713, 257, 33, 384, 288
-0.907893, 353, 65, 480, 320
-0.912538, 161, 65, 416, 192
-0.912715, 353, 1, 480, 333
-0.914078, 1, 177, 500, 304
-0.918269, 33, 1, 160, 333
-0.921898, 33, 33, 160, 288
-0.928401, 257, 161, 500, 288
-0.930214, 97, 1, 224, 333
-0.930353, 1, 161, 256, 288
-0.932787, 225, 113, 480, 240
-0.932931, 1, 113, 256, 240
-0.934834, 129, 113, 384, 240
-0.936981, 305, 97, 432, 224
-0.937163, 97, 177, 352, 304
-0.937202, 1, 145, 128, 272
-0.93921, 385, 129, 448, 256
-0.942116, 353, 129, 480, 256
-0.942759, 81, 129, 208, 256
-0.948557, 129, 129, 192, 256
-0.950251, 89, 161, 152, 288
-0.950319, 369, 193, 496, 320
-0.950351, 337, 81, 400, 208
-0.950608, 161, 65, 288, 192
-0.950902, 377, 129, 440, 192
-0.951072, 129, 129, 256, 256
-0.951228, 409, 145, 472, 272
-0.952379, 169, 81, 232, 208
-0.952558, 9, 145, 72, 272
-0.953188, 361, 113, 424, 240
-0.953255, 393, 153, 456, 216
-0.95372, 49, 145, 112, 272
-0.954832, 225, 65, 352, 192
-0.954901, 65, 65, 320, 192
-0.955836, 193, 145, 256, 272
-0.955907, 257, 209, 500, 333
-0.956554, 401, 201, 464, 264
-0.95779, 361, 105, 424, 168
-0.957872, 401, 193, 464, 320
-0.958354, 353, 81, 480, 208
-0.958719, 97, 177, 224, 304
-0.959272, 433, 113, 496, 240
-0.959309, 153, 129, 216, 256
-0.959852, 177, 145, 304, 272
-0.960265, 257, 65, 500, 192
-0.960788, 201, 49, 264, 176
-0.961124, 305, 81, 368, 208
-0.961375, 289, 49, 416, 176
-0.962085, 49, 177, 176, 304
-0.962402, 425, 209, 488, 333
-0.963284, 425, 137, 488, 200
-0.96359, 401, 129, 464, 192
-0.964184, 65, 153, 128, 216
-0.964334, 321, 89, 384, 152
-0.964474, 433, 161, 496, 288
-0.96451, 409, 177, 472, 240
-0.964583, 145, 145, 208, 208
-0.964719, 281, 65, 344, 192
-0.965041, 257, 65, 320, 192
-0.965396, 17, 169, 80, 232
-0.965647, 185, 153, 248, 216
-0.966046, 225, 49, 288, 176
-0.966342, 217, 129, 280, 256
-0.96649, 345, 81, 408, 144
-0.966559, 145, 81, 208, 208
-0.967118, 105, 169, 168, 232
-0.967403, 41, 161, 104, 224
-0.96768, 385, 105, 448, 168
-0.967774, 209, 153, 272, 216
-0.96791, 425, 217, 488, 280
-0.96811, 113, 145, 176, 208
-0.968426, 193, 17, 448, 144
-0.968447, 377, 185, 440, 248
-0.969027, 273, 177, 400, 304
-0.969172, 281, 129, 344, 256
-0.969383, 433, 185, 496, 248
-0.969463, 113, 177, 176, 304
-0.969706, 193, 57, 256, 120
-0.969856, 321, 113, 448, 176
-0.970859, 413, 169, 444, 232
-0.971055, 409, 97, 472, 224
-0.971319, 1, 209, 256, 333
-0.971436, 409, 113, 440, 240
-0.971823, 1, 97, 128, 224
-0.971848, 281, 81, 344, 144
-0.971889, 225, 193, 352, 320
-0.97213, 241, 129, 368, 256
-0.972232, 169, 177, 232, 304
-0.972249, 377, 177, 440, 304
-0.97251, 97, 113, 160, 240
-0.972591, 405, 121, 436, 184
-0.972794, 113, 81, 240, 208
-0.972813, 289, 113, 352, 176
-0.972827, 129, 169, 192, 232
-0.972952, 389, 113, 420, 176
-0.973341, 49, 81, 176, 208
-0.973434, 161, 97, 224, 160
-0.973788, 129, 161, 256, 224
-0.973836, 397, 113, 428, 240
-0.974265, 385, 81, 416, 208
-0.974281, 353, 129, 416, 192
-0.974535, 241, 177, 304, 304
-0.974638, 161, 193, 288, 320
-0.974713, 369, 153, 432, 216
-0.974833, 425, 161, 456, 288
-0.974899, 153, 121, 216, 184
-0.974983, 65, 145, 96, 272
-0.975061, 201, 185, 264, 248
-0.975307, 385, 65, 448, 320
-0.975444, 353, 177, 416, 240
-0.975522, 425, 201, 456, 264
-0.97569, 321, 65, 384, 320
-0.97583, 17, 137, 80, 200
-0.976076, 1, 153, 128, 216
-0.976096, 225, 185, 288, 248
-0.976154, 65, 193, 128, 320
-0.976212, 49, 153, 176, 216
-0.97629, 177, 177, 240, 240
-0.976457, 73, 113, 136, 240
-0.97663, 233, 145, 296, 208
-0.976658, 297, 137, 360, 200
-0.976872, 321, 137, 384, 200
-0.976915, 329, 113, 392, 176
-0.976986, 305, 137, 432, 200
-0.977054, 321, 177, 448, 304
-0.97708, 1, 33, 500, 160
-0.977192, 337, 177, 464, 240
-0.977225, 193, 97, 256, 224
-0.977225, 273, 177, 336, 304
-0.977239, 289, 89, 416, 152
-0.977257, 385, 81, 448, 208
-0.977261, 153, 65, 216, 320
-0.977328, 413, 161, 444, 288
-0.977332, 425, 145, 456, 208
-0.97746, 81, 177, 144, 240
-0.977469, 1, 209, 128, 333
-0.977712, 429, 177, 460, 240
-0.977938, 209, 17, 336, 144
-0.978111, 89, 145, 152, 208
-0.978173, 425, 113, 488, 176
-0.978174, 345, 65, 376, 192
-0.978312, 1, 97, 64, 224
-0.978362, 401, 153, 432, 216
-0.978406, 5, 113, 36, 240
-0.978429, 433, 65, 496, 320
-0.978452, 241, 129, 304, 256
-0.97849, 161, 97, 192, 224
-0.978596, 41, 193, 104, 320
-0.978631, 425, 241, 488, 304
-0.978647, 185, 33, 248, 288
-0.978717, 145, 177, 208, 304
-0.978779, 265, 65, 328, 320
-0.978947, 369, 113, 496, 176
-0.978974, 169, 73, 232, 136
-0.97911, 137, 145, 168, 272
-0.97926, 117, 161, 148, 288
-0.979342, 153, 177, 216, 240
-0.979542, 97, 137, 224, 200
-0.979627, 305, 129, 368, 256
-0.979637, 93, 153, 124, 216
-0.979642, 57, 161, 88, 224
-0.97981, 365, 81, 396, 208
-0.979822, 413, 193, 444, 256
-0.980017, 273, 193, 336, 256
-0.980031, 273, 145, 336, 208
-0.980092, 225, 145, 352, 208
-0.980196, 361, 65, 424, 320
-0.980237, 353, 153, 480, 216
-0.980313, 361, 65, 424, 192
-0.980322, 209, 273, 272, 333
-0.980328, 217, 57, 280, 120
-0.980368, 89, 145, 120, 272
-0.980396, 377, 209, 440, 272
-0.98052, 401, 225, 464, 288
-0.980527, 421, 113, 452, 240
-0.980751, 145, 105, 272, 168
-0.980793, 21, 161, 52, 224
-0.980871, 49, 97, 112, 224
-0.981091, 49, 161, 80, 288
-0.981137, 353, 201, 480, 264
-0.98117, 417, 113, 448, 176
-0.981214, 161, 185, 288, 248
-0.981249, 201, 217, 264, 280
-0.981577, 177, 73, 304, 136
-0.981591, 73, 161, 104, 224
-0.981603, 321, 33, 384, 160
-0.981612, 45, 161, 76, 224
-0.981648, 381, 89, 412, 152
-0.98169, 433, 161, 496, 224
-0.981705, 9, 137, 40, 200
-0.981761, 273, 113, 400, 176
-0.981792, 217, 33, 280, 288
-0.981827, 177, 81, 208, 208
-0.981857, 225, 81, 352, 144
-0.981862, 241, 73, 304, 136
-0.98202, 413, 145, 444, 208
-0.982041, 185, 161, 216, 288
-0.982049, 225, 113, 352, 176
-0.982062, 177, 145, 304, 208
-0.982065, 25, 97, 88, 224
-0.982077, 193, 209, 256, 333
-0.98211, 65, 177, 192, 240
-0.982137, 33, 257, 96, 320
-0.982253, 313, 65, 376, 128
-0.982275, 185, 273, 248, 333
-0.982328, 197, 145, 228, 272
-0.982365, 113, 177, 144, 240
-0.982614, 449, 217, 480, 280
-0.982633, 437, 177, 468, 304
-0.982638, 305, 185, 368, 248
-0.982725, 177, 33, 240, 160
-0.98287, 241, 121, 304, 184
-0.982871, 149, 129, 180, 256
-0.982908, 297, 65, 360, 320
-0.982942, 161, 105, 192, 168
-0.983005, 297, 193, 360, 320
-0.983022, 441, 129, 472, 256
-0.983059, 65, 17, 320, 144
-0.983114, 101, 161, 132, 288
-0.983184, 133, 161, 164, 224
-0.983201, 17, 193, 80, 320
-0.983453, 89, 209, 152, 333
-0.983485, 229, 153, 260, 216
-0.983494, 265, 121, 328, 184
-0.983635, 217, 193, 280, 320
-0.983831, 149, 137, 180, 200
-0.983843, 17, 145, 48, 272
-0.983906, 369, 225, 496, 288
-0.983937, 77, 145, 108, 272
-0.983938, 441, 193, 472, 256
-0.983986, 241, 145, 272, 208
-0.984041, 193, 121, 256, 184
-0.984285, 345, 81, 376, 144
-0.984305, 337, 209, 400, 272
-0.984419, 365, 97, 396, 160
-0.984439, 401, 97, 432, 160
-0.98444, 313, 209, 376, 272
-0.984555, 225, 249, 288, 312
-0.984638, 449, 209, 480, 333
-0.984723, 385, 129, 416, 256
-0.98473, 233, 273, 264, 333
-0.984739, 353, 33, 480, 160
-0.984766, 241, 33, 304, 288
-0.984867, 113, 185, 240, 248
-0.984929, 121, 201, 184, 264
-0.984956, 345, 273, 408, 333
-0.98511, 193, 161, 224, 224
-0.985168, 229, 49, 260, 176
-0.985187, 261, 65, 292, 192
-0.985262, 289, 273, 352, 333
-0.985322, 353, 89, 480, 152
-0.985324, 313, 65, 344, 192
-0.985335, 225, 57, 256, 120
-0.98535, 33, 161, 64, 288
-0.985404, 213, 65, 244, 128
-0.985481, 189, 73, 220, 136
-0.985538, 337, 129, 400, 256
-0.985565, 9, 161, 40, 224
-0.985603, 209, 193, 336, 256
-0.985627, 377, 113, 408, 176
-0.985634, 321, 177, 384, 304
-0.985683, 305, 161, 368, 224
-0.985723, 201, 249, 264, 312
-0.98573, 265, 17, 328, 144
-0.985771, 17, 185, 144, 248
-0.985808, 197, 65, 228, 192
-0.985893, 305, 249, 368, 312
-0.985937, 409, 65, 472, 320
-0.986108, 217, 153, 248, 216
-0.986112, 153, 273, 216, 333
-0.986232, 1, 129, 128, 192
-0.986247, 469, 177, 500, 304
-0.986415, 329, 97, 360, 160
-0.986441, 213, 49, 244, 176
-0.986443, 49, 129, 176, 192
-0.986461, 209, 169, 336, 232
-0.986465, 1, 193, 64, 256
-0.986634, 297, 65, 328, 192
-0.986679, 257, 193, 384, 256
-0.986719, 425, 273, 488, 333
-0.986814, 437, 137, 468, 200
-0.98683, 241, 217, 304, 280
-0.986858, 265, 169, 328, 232
-0.987002, 369, 81, 432, 144
-0.987037, 9, 273, 72, 333
-0.987076, 333, 65, 364, 192
-0.987171, 201, 1, 264, 333
-0.987256, 145, 177, 176, 240
-0.987293, 129, 65, 192, 320
-0.987323, 225, 1, 288, 333
-0.987403, 301, 73, 332, 136
-0.987414, 217, 145, 248, 272
-0.987503, 461, 113, 492, 240
-0.98752, 33, 169, 64, 232
-0.987522, 365, 121, 396, 184
-0.987529, 217, 81, 280, 144
-0.987549, 297, 17, 360, 144
-0.987572, 313, 273, 376, 333
-0.987577, 225, 185, 256, 248
-0.987582, 205, 161, 236, 224
-0.987702, 181, 145, 212, 208
-0.987714, 329, 185, 392, 248
-0.987752, 437, 217, 468, 280
-0.987807, 265, 217, 328, 280
-0.987913, 389, 137, 420, 200
-0.987925, 249, 193, 312, 256
-0.987936, 41, 137, 104, 200
-0.988075, 289, 65, 416, 128
-0.988103, 97, 273, 224, 333
-0.988167, 405, 65, 436, 192
-0.988178, 89, 217, 152, 280
-0.988214, 177, 81, 208, 144
-0.988276, 177, 217, 304, 280
-0.988293, 57, 249, 120, 312
-0.988302, 345, 105, 376, 168
-0.988383, 313, 81, 344, 144
-0.988537, 245, 49, 276, 176
-0.988579, 409, 89, 472, 152
-0.988641, 345, 193, 408, 320
-0.988659, 237, 65, 268, 128
-0.988692, 317, 113, 348, 176
-0.988707, 289, 217, 352, 280
-0.988768, 257, 97, 320, 160
-0.988803, 169, 1, 232, 333
-0.988882, 177, 249, 240, 312
-0.988973, 257, 1, 384, 128
-0.988975, 177, 217, 240, 280
-0.98899, 385, 273, 448, 333
-0.989015, 201, 65, 232, 128
-0.989027, 293, 145, 324, 272
-0.989033, 105, 121, 168, 184
-0.989051, 369, 117, 432, 148
-0.989056, 33, 233, 160, 296
-0.989074, 169, 145, 200, 272
-0.989078, 425, 209, 456, 333
-0.98908, 225, 57, 352, 120
-0.989133, 65, 129, 128, 192
-0.989186, 97, 273, 160, 333
-0.989189, 289, 57, 352, 120
-0.989222, 305, 273, 432, 333
-0.989232, 281, 65, 312, 192
-0.98929, 281, 1, 344, 333
-0.989295, 389, 177, 420, 240
-0.989295, 305, 185, 336, 248
-0.9893, 241, 273, 304, 333
-0.989326, 229, 129, 260, 256
-0.989326, 225, 273, 352, 333
-0.989392, 217, 273, 248, 333
-0.989405, 461, 225, 492, 288
-0.989424, 129, 81, 256, 144
-0.989432, 449, 113, 480, 176
-0.989442, 269, 177, 300, 304
-0.989467, 145, 201, 208, 264
-0.989472, 345, 57, 408, 120
-0.98948, 9, 185, 40, 248
-0.989494, 165, 161, 196, 224
-0.989517, 401, 201, 464, 232
-0.98952, 65, 157, 128, 188
-0.989624, 225, 233, 352, 296
-0.989633, 129, 273, 192, 333
-0.989758, 193, 161, 256, 192
-0.989767, 393, 129, 456, 160
-0.989785, 453, 161, 484, 288
-0.98981, 249, 241, 312, 304
-0.989827, 465, 185, 496, 248
-0.989832, 265, 57, 328, 120
-0.989839, 401, 161, 432, 288
-0.989917, 213, 185, 244, 248
-0.989966, 41, 161, 104, 192
-0.989985, 177, 169, 208, 232
-0.990026, 161, 137, 192, 200
-0.990036, 425, 221, 488, 252
-0.990049, 281, 177, 312, 304
-0.99008, 425, 149, 488, 180
-0.99009, 461, 113, 492, 176
-0.990091, 245, 177, 276, 304
-0.990104, 393, 169, 456, 200
-0.990123, 17, 273, 144, 333
-0.990128, 241, 49, 304, 112
-0.990165, 441, 161, 472, 224
-0.990168, 213, 209, 244, 333
-0.990169, 361, 93, 424, 124
-0.990178, 329, 241, 392, 304
-0.990188, 297, 141, 360, 172
-0.990201, 361, 129, 424, 160
-0.990221, 81, 217, 208, 280
-0.990222, 261, 129, 292, 256
-0.990236, 385, 157, 448, 188
-0.990244, 305, 209, 432, 272
-0.99027, 393, 189, 456, 220
-0.990277, 145, 161, 208, 192
-0.990289, 113, 173, 176, 204
-0.990302, 321, 93, 384, 124
-0.990302, 397, 209, 428, 272
-0.990313, 305, 1, 368, 333
-0.990314, 1, 105, 64, 168
-0.990325, 121, 153, 152, 216
-0.990326, 97, 17, 224, 144
-0.990337, 1, 33, 64, 288
-0.990359, 369, 249, 496, 312
-0.99036, 105, 153, 136, 216
-0.99037, 113, 161, 176, 192
-0.990376, 17, 165, 80, 196
-0.990377, 125, 201, 156, 264
-0.990389, 237, 185, 268, 248
-0.990407, 329, 161, 392, 224
-0.990413, 49, 201, 112, 264
-0.990428, 129, 121, 192, 184
-0.990434, 401, 213, 464, 244
-0.990447, 289, 73, 320, 136
-0.990476, 225, 145, 288, 176
-0.990495, 233, 249, 264, 312
-0.9905, 217, 1, 280, 128
-0.990501, 169, 169, 232, 200
-0.990508, 129, 217, 256, 280
-0.990509, 353, 105, 416, 136
-0.99053, 329, 1, 392, 333
-0.990549, 33, 233, 96, 296
-0.990555, 401, 145, 464, 176
-0.990579, 17, 149, 80, 180
-0.99058, 261, 73, 292, 136
-0.99059, 233, 225, 264, 288
-0.990592, 41, 113, 72, 240
-0.990617, 9, 181, 72, 212
-0.990626, 289, 249, 416, 312
-0.990638, 433, 193, 496, 224
-0.990646, 209, 65, 272, 96
-0.990667, 337, 81, 400, 112
-0.990674, 469, 153, 500, 216
-0.990696, 425, 233, 488, 264
-0.990731, 417, 173, 480, 204
-0.990743, 245, 129, 276, 256
-0.990744, 425, 209, 488, 240
-0.99077, 145, 249, 272, 312
-0.990779, 293, 113, 324, 176
-0.990781, 185, 77, 248, 108
-0.990791, 49, 65, 112, 320
-0.990814, 329, 137, 392, 168
-0.990818, 357, 73, 388, 136
-0.990841, 277, 81, 308, 144
-0.990943, 361, 141, 424, 172
-0.990956, 161, 273, 288, 333
-0.990967, 345, 117, 408, 148
-0.991004, 373, 129, 404, 256
-0.991021, 249, 1, 312, 333
-0.991046, 289, 169, 416, 232
-0.991053, 89, 157, 152, 188
-0.991057, 353, 1, 416, 333
-0.991066, 249, 217, 280, 280
-0.991084, 273, 241, 336, 304
-0.991088, 201, 149, 264, 180
-0.991095, 89, 177, 152, 208
-0.991117, 161, 17, 288, 144
-0.991128, 425, 137, 488, 168
-0.991131, 145, 173, 208, 204
-0.99116, 377, 209, 440, 240
-0.991172, 309, 129, 340, 256
-0.991175, 393, 1, 456, 333
-0.991179, 401, 225, 464, 256
-0.991181, 57, 193, 120, 224
-0.991197, 161, 113, 224, 144
-0.991207, 393, 117, 456, 148
-0.991216, 153, 129, 216, 160
-0.991229, 9, 1, 72, 333
-0.991232, 1, 113, 32, 176
-0.991255, 145, 149, 208, 180
-0.99127, 313, 81, 376, 112
-0.991299, 193, 181, 256, 212
-0.991343, 265, 133, 328, 164
-0.991375, 281, 81, 344, 112
-0.991375, 417, 161, 480, 192
-0.99138, 353, 129, 384, 192
-0.991396, 353, 273, 480, 333
-0.991398, 369, 181, 432, 212
-0.991431, 417, 289, 480, 320
-0.991448, 77, 193, 108, 320
-0.991473, 37, 265, 68, 328
-0.991479, 25, 137, 56, 200
-0.991489, 433, 1, 496, 333
-0.991493, 169, 181, 232, 212
-0.991502, 213, 249, 244, 312
-0.991506, 249, 73, 280, 136
-0.991507, 273, 145, 336, 176
-0.99151, 117, 113, 148, 240
-0.99152, 321, 105, 384, 136
-0.99152, 97, 113, 224, 176
-0.991533, 293, 185, 324, 248
-0.991556, 345, 301, 408, 332
-0.991595, 217, 181, 280, 212
-0.991597, 369, 193, 432, 224
-0.991606, 385, 249, 448, 312
-0.99161, 145, 301, 208, 332
-0.991624, 309, 145, 340, 208
-0.991628, 121, 205, 184, 236
-0.991631, 21, 185, 52, 248
-0.99164, 57, 181, 120, 212
-0.99166, 281, 217, 344, 248
-0.991674, 313, 185, 376, 216
-0.9917, 25, 33, 88, 288
-0.991702, 121, 89, 184, 152
-0.991711, 193, 297, 256, 328
-0.99172, 89, 193, 120, 320
-0.991743, 1, 145, 256, 208
-0.991754, 61, 193, 92, 320
-0.991764, 241, 185, 304, 216
-0.991777, 321, 301, 384, 332
-0.991783, 177, 145, 240, 176
-0.991799, 393, 301, 456, 332
-0.991801, 281, 197, 344, 228
-0.991802, 297, 301, 360, 332
-0.99181, 377, 105, 440, 136
-0.991811, 29, 113, 60, 240
-0.991825, 233, 73, 296, 104
-0.991835, 217, 121, 280, 184
-0.991838, 1, 249, 64, 312
-0.991841, 229, 209, 260, 333
-0.99185, 369, 169, 432, 200
-0.991859, 249, 237, 312, 268
-0.991866, 273, 185, 336, 216
-0.991867, 297, 129, 360, 160
-0.991874, 185, 65, 248, 96
-0.991887, 81, 189, 144, 220
-0.991894, 393, 289, 456, 320
-0.991911, 241, 221, 304, 252
-0.991919, 225, 145, 480, 208
-0.991935, 469, 249, 500, 312
-0.991947, 161, 101, 224, 132
-0.991956, 193, 89, 256, 152
-0.991985, 145, 1, 208, 333
-0.991986, 217, 97, 248, 224
-0.991989, 17, 193, 80, 224
-0.991996, 169, 301, 232, 332
-0.992, 113, 149, 176, 180
-0.992011, 185, 285, 248, 316
-0.992017, 321, 125, 384, 156
-0.992084, 249, 145, 312, 176
-0.992085, 329, 201, 392, 232
-0.992088, 217, 265, 280, 296
-0.99209, 305, 113, 336, 176
-0.992121, 101, 177, 132, 240
-0.992128, 417, 121, 480, 152
-0.992141, 337, 273, 368, 333
-0.992142, 169, 89, 232, 120
-0.992145, 129, 81, 384, 144
-0.99215, 225, 113, 480, 176
-0.992158, 317, 273, 348, 333
-0.992159, 317, 209, 348, 333
-0.992166, 129, 249, 192, 312
-0.992187, 377, 225, 440, 256
-0.9922, 81, 33, 144, 288
-0.992209, 65, 169, 128, 200
-0.992213, 393, 113, 424, 144
-0.992214, 257, 201, 500, 264
-0.99222, 369, 301, 432, 332
-0.992226, 297, 97, 360, 128
-0.992231, 33, 265, 96, 296
-0.992252, 217, 297, 280, 328
-0.992255, 241, 133, 304, 164
-0.992278, 145, 205, 208, 236
-0.992282, 193, 133, 256, 164
-0.992285, 225, 281, 288, 312
-0.992289, 329, 73, 360, 136
-0.992291, 345, 177, 408, 208
-0.992307, 321, 113, 352, 240
-0.992333, 217, 225, 280, 256
-0.992336, 185, 253, 248, 284
-0.992337, 361, 289, 424, 320
-0.992349, 421, 181, 452, 212
-0.992356, 305, 197, 368, 228
-0.992362, 217, 161, 280, 192
-0.992373, 273, 233, 336, 264
-0.992373, 153, 225, 216, 288
-0.992376, 33, 181, 96, 212
-0.992399, 293, 209, 324, 333
-0.9924, 185, 221, 248, 252
-0.992406, 129, 193, 160, 320
-0.992408, 5, 161, 36, 288
-0.992416, 261, 193, 292, 256
-0.992416, 329, 149, 392, 180
-0.992428, 201, 193, 232, 320
-0.992442, 381, 101, 412, 132
-0.992445, 241, 249, 304, 280
-0.992465, 101, 113, 132, 240
-0.992465, 425, 201, 456, 232
-0.992472, 433, 245, 496, 276
-0.992473, 169, 157, 232, 188
-0.992473, 89, 201, 152, 232
-0.992474, 1, 153, 500, 216
-0.992488, 353, 233, 416, 296
-0.9925, 405, 125, 436, 156
-0.992514, 429, 145, 460, 176
-0.992523, 121, 301, 184, 332
-0.992524, 413, 157, 444, 188
-0.992526, 65, 177, 320, 240
-0.992531, 417, 301, 480, 332
-0.992533, 17, 297, 80, 328
-0.992539, 417, 169, 448, 200
-0.992551, 257, 81, 320, 112
-0.992556, 233, 61, 296, 92
-0.992558, 241, 301, 304, 332
-0.99256, 413, 193, 444, 224
-0.992565, 321, 289, 384, 320
-0.992573, 273, 297, 336, 328
-0.992577, 353, 205, 416, 236
-0.992578, 105, 217, 168, 248
-0.992579, 65, 301, 128, 332
-0.992581, 197, 165, 228, 196
-0.992627, 25, 193, 88, 256
-0.992632, 281, 245, 344, 276
-0.992647, 405, 109, 436, 140
-0.992662, 437, 221, 468, 252
-0.992677, 21, 169, 52, 200
-0.9927, 197, 73, 228, 104
-0.992702, 453, 225, 484, 256
-0.992709, 377, 89, 408, 120
-0.992712, 93, 157, 124, 188
-0.992713, 345, 81, 376, 112
-0.992718, 393, 125, 424, 156
-0.992719, 77, 181, 108, 212
-0.99273, 65, 161, 96, 192
-0.992741, 225, 149, 256, 180
-0.992745, 185, 161, 216, 192
-0.992751, 245, 241, 276, 304
-0.992755, 17, 209, 144, 272
-0.992764, 381, 117, 412, 148
-0.992768, 241, 121, 272, 184
-0.992776, 193, 137, 224, 200
-0.992799, 1, 177, 500, 240
-0.992813, 437, 197, 468, 228
-0.992818, 281, 153, 312, 216
-0.992837, 105, 249, 168, 312
-0.99284, 221, 61, 252, 92
-0.99284, 293, 145, 324, 208
-0.992884, 409, 137, 440, 168
-0.992889, 17, 185, 48, 216
-0.992891, 209, 157, 240, 188
-0.992891, 345, 137, 376, 168
-0.992893, 105, 33, 168, 288
-0.992912, 369, 117, 400, 148
-0.99292, 445, 237, 476, 268
-0.992923, 401, 165, 432, 196
-0.992923, 465, 221, 496, 252
-0.992923, 241, 149, 272, 180
-0.992927, 65, 225, 128, 288
-0.992932, 133, 169, 164, 200
-0.992948, 445, 137, 476, 168
-0.992962, 365, 97, 396, 128
-0.992964, 5, 141, 36, 172
-0.992971, 53, 161, 84, 192
-0.992975, 261, 129, 292, 192
-0.992983, 433, 185, 464, 216
-0.992985, 77, 157, 108, 188
-0.992985, 177, 173, 208, 204
-0.992988, 337, 145, 368, 208
-0.99299, 65, 137, 96, 200
-0.992998, 325, 141, 356, 172
-0.993003, 117, 173, 148, 204
-0.993004, 53, 137, 84, 200
-0.993005, 9, 161, 40, 192
-0.993006, 401, 177, 432, 240
-0.993007, 81, 249, 208, 312
-0.993008, 173, 193, 204, 320
-0.99301, 65, 273, 128, 333
-0.993016, 173, 105, 204, 168
-0.993023, 161, 113, 192, 144
-0.993024, 401, 153, 432, 184
-0.993031, 265, 273, 328, 333
-0.993034, 405, 97, 436, 128
-0.993035, 293, 141, 324, 172
-0.993036, 429, 157, 460, 188
-0.99304, 165, 161, 196, 192
-0.993044, 97, 169, 128, 200
-0.993054, 437, 241, 468, 304
-0.993055, 317, 297, 348, 328
-0.993061, 113, 209, 144, 333
-0.993061, 269, 141, 300, 172
-0.993064, 121, 201, 152, 232
-0.993068, 197, 149, 228, 180
-0.993072, 5, 177, 36, 208
-0.993079, 5, 125, 36, 156
-0.993081, 149, 161, 180, 192
-0.993087, 469, 185, 500, 216
-0.993087, 125, 157, 156, 188
-0.993088, 133, 201, 164, 232
-0.993109, 57, 197, 88, 228
-0.993109, 457, 113, 488, 144
-0.993111, 369, 77, 400, 108
-0.993116, 33, 169, 64, 200
-0.993119, 445, 209, 476, 240
-0.993121, 185, 81, 216, 112
-0.993128, 417, 117, 448, 148
-0.993142, 17, 97, 48, 224
-0.99315, 313, 141, 344, 172
-0.993152, 173, 101, 204, 132
-0.993154, 113, 1, 176, 333
-0.993158, 361, 129, 392, 160
-0.99316, 273, 193, 304, 256
-0.993162, 329, 93, 360, 124
-0.993167, 137, 157, 168, 188
-0.993167, 417, 293, 448, 324
-0.99317, 421, 133, 452, 164
-0.993171, 189, 177, 220, 208
-0.993171, 89, 181, 120, 212
-0.993171, 457, 237, 488, 268
-0.993171, 405, 177, 436, 208
-0.993175, 185, 149, 216, 180
-0.993177, 209, 169, 240, 200
-0.993178, 393, 205, 424, 236
-0.993183, 149, 145, 180, 176
-0.993183, 229, 277, 260, 308
-0.993185, 145, 173, 176, 204
-0.993186, 297, 77, 328, 108
-0.993186, 209, 65, 240, 96
-0.993192, 469, 233, 500, 264
-0.993198, 413, 205, 444, 236
-0.993203, 469, 65, 500, 192
-0.993203, 237, 65, 268, 96
-0.993203, 317, 193, 348, 256
-0.993207, 73, 193, 104, 224
-0.99321, 157, 129, 188, 160
-0.993211, 349, 125, 380, 156
-0.993212, 21, 197, 52, 228
-0.993212, 9, 201, 40, 232
-0.993218, 245, 137, 276, 168
-0.993221, 353, 105, 384, 136
-0.993223, 393, 101, 424, 132
-0.993225, 345, 301, 376, 332
-0.993226, 89, 185, 120, 248
-0.993228, 261, 73, 292, 104
-0.993228, 397, 137, 428, 168
-0.99323, 345, 93, 376, 124
-0.993232, 435, 177, 450, 240
-0.993235, 421, 217, 452, 248
-0.993246, 221, 217, 252, 280
-0.993247, 313, 81, 344, 112
-0.993248, 377, 129, 408, 160
-0.993249, 281, 149, 312, 180
-0.993252, 113, 161, 144, 192
-0.993254, 265, 229, 296, 260
-0.993261, 425, 229, 456, 260
-0.993263, 285, 217, 316, 248
-0.993265, 321, 129, 352, 160
-0.993266, 33, 157, 64, 188
-0.993268, 249, 185, 280, 216
-0.99327, 237, 181, 268, 212
-0.993272, 449, 289, 480, 320
-0.993272, 65, 97, 96, 224
-0.993273, 309, 129, 340, 160
-0.993278, 101, 181, 132, 212
-0.993279, 229, 289, 260, 320
-0.993285, 357, 197, 388, 228
-0.993291, 261, 181, 292, 212
-0.993299, 37, 137, 68, 200
-0.993303, 433, 301, 464, 332
-0.993303, 445, 125, 476, 156
-0.993306, 21, 157, 52, 188
-0.993308, 261, 217, 292, 248
-0.993309, 165, 173, 196, 204
-0.99331, 253, 149, 284, 180
-0.993311, 281, 133, 312, 164
-0.993311, 225, 181, 256, 212
-0.993344, 33, 161, 160, 192
-0.993346, 65, 193, 96, 256
-0.993364, 129, 105, 384, 168
-0.993393, 257, 177, 288, 304
-0.993396, 33, 1, 96, 333
-0.993416, 221, 121, 252, 184
-0.993454, 401, 113, 416, 176
-0.993461, 395, 97, 410, 160
-0.993509, 411, 129, 426, 192
-0.99352, 429, 161, 444, 224
-0.993598, 409, 49, 472, 176
-0.993619, 53, 265, 84, 328
-0.993679, 53, 113, 84, 240
-0.993703, 201, 185, 232, 248
-0.993742, 249, 193, 280, 256
-0.993772, 421, 161, 436, 224
-0.993785, 453, 273, 484, 333
-0.993826, 1, 121, 256, 184
-0.993827, 129, 225, 192, 288
-0.993844, 97, 137, 352, 200
-0.993849, 1, 97, 500, 160
-0.993855, 113, 65, 176, 192
-0.993882, 281, 129, 312, 256
-0.993916, 329, 121, 360, 184
-0.993917, 1, 129, 500, 192
-0.993934, 453, 193, 484, 256
-0.99398, 409, 209, 440, 333
-0.994003, 369, 33, 400, 160
-0.99401, 353, 65, 480, 128
-0.994071, 277, 121, 308, 184
-0.994073, 137, 137, 168, 200
-0.994118, 419, 121, 434, 184
-0.994129, 253, 153, 284, 216
-0.994158, 333, 113, 364, 240
-0.994179, 81, 1, 144, 333
-0.994218, 65, 89, 192, 152
-0.994221, 427, 137, 442, 200
-0.994275, 437, 201, 452, 264
-0.994286, 305, 177, 336, 304
-0.994293, 321, 141, 448, 172
-0.994311, 85, 97, 116, 224
-0.99432, 77, 185, 108, 248
-0.994402, 177, 49, 304, 112
-0.994417, 245, 273, 276, 333
-0.994426, 241, 1, 304, 128
-0.994477, 205, 273, 236, 333
-0.994537, 305, 109, 432, 140
-0.994601, 397, 73, 428, 136
-0.994608, 449, 249, 480, 312
-0.994615, 389, 89, 404, 152
-0.994619, 257, 177, 500, 240
-0.994627, 357, 201, 388, 264
-0.994652, 145, 73, 208, 136
-0.994666, 57, 1, 120, 333
-0.994701, 225, 89, 480, 152
-0.994703, 353, 121, 480, 152
-0.99482, 413, 153, 428, 216
-0.994843, 97, 173, 224, 204
-0.994884, 417, 65, 448, 192
-0.994887, 1, 105, 128, 168
-0.99499, 129, 161, 256, 192
-0.995108, 161, 185, 416, 248
-0.995116, 27, 161, 42, 224
-0.995125, 185, 33, 216, 160
-0.995137, 9, 225, 72, 288
-0.99514, 337, 185, 464, 216
-0.995157, 1, 149, 128, 180
-0.995194, 129, 141, 256, 172
-0.99523, 81, 249, 144, 312
-0.995237, 305, 129, 432, 160
-0.995243, 145, 181, 272, 212
-0.995255, 177, 69, 304, 100
-0.995273, 361, 193, 392, 320
-0.995293, 435, 145, 450, 208
-0.995427, 81, 153, 208, 184
-0.995437, 241, 141, 368, 172
-0.995456, 185, 209, 216, 333
-0.995493, 429, 185, 444, 248
-0.995505, 153, 145, 168, 208
-0.995512, 21, 193, 52, 320
-0.995521, 133, 97, 164, 224
-0.995557, 357, 33, 388, 160
-0.99557, 145, 109, 272, 140
-0.995602, 19, 137, 34, 200
-0.995605, 413, 105, 428, 168
-0.995647, 153, 249, 216, 312
-0.99565, 17, 193, 144, 224
-0.995655, 59, 161, 74, 224
-0.995698, 65, 153, 80, 216
-0.995705, 79, 153, 94, 216
-0.995719, 449, 217, 464, 280
-0.995735, 369, 221, 496, 252
-0.995767, 5, 121, 20, 184
-0.995784, 443, 193, 458, 256
-0.995812, 353, 105, 480, 136
-0.995816, 321, 153, 448, 184
-0.995816, 457, 217, 472, 280
-0.995817, 81, 65, 208, 128
-0.995848, 369, 145, 496, 176
-0.995874, 73, 161, 88, 224
-0.995882, 369, 133, 496, 164
-0.995891, 353, 197, 480, 228
-0.995898, 161, 57, 416, 120
-0.995918, 423, 185, 438, 248
-0.995934, 223, 153, 238, 216
-0.995935, 125, 177, 140, 240
-0.995954, 443, 217, 458, 280
-0.995957, 361, 129, 392, 256
-0.995978, 389, 33, 420, 160
-0.99602, 257, 225, 500, 288
-0.996022, 165, 113, 180, 176
-0.996029, 101, 153, 116, 216
-0.996043, 349, 81, 364, 144
-0.996085, 373, 193, 404, 320
-0.996088, 145, 161, 160, 224
-0.996127, 337, 209, 464, 240
-0.996136, 433, 65, 496, 192
-0.996139, 467, 225, 482, 288
-0.996143, 325, 81, 340, 144
-0.996149, 273, 97, 400, 128
-0.996193, 233, 153, 248, 216
-0.996205, 85, 153, 100, 216
-0.996224, 177, 161, 304, 192
-0.996228, 273, 81, 400, 112
-0.996245, 321, 161, 352, 288
-0.996253, 357, 73, 372, 136
-0.996258, 193, 185, 320, 216
-0.996271, 91, 153, 106, 216
-0.996307, 243, 145, 258, 208
-0.996312, 33, 169, 48, 232
-0.996312, 119, 177, 134, 240
-0.996318, 345, 209, 376, 333
-0.996339, 49, 209, 80, 333
-0.996367, 5, 65, 36, 192
-0.996387, 193, 273, 448, 333
-0.996414, 161, 209, 192, 333
-0.996428, 177, 149, 304, 180
-0.996431, 135, 169, 150, 232
-0.996433, 387, 113, 402, 176
-0.996463, 111, 161, 126, 224
-0.996476, 189, 81, 204, 144
-0.99648, 353, 169, 480, 200
-0.996493, 311, 73, 326, 136
-0.996493, 403, 169, 418, 232
-0.996496, 413, 177, 428, 240
-0.996498, 335, 97, 350, 160
-0.996521, 225, 65, 240, 128
-0.996534, 241, 1, 272, 128
-0.996542, 201, 65, 216, 128
-0.996549, 329, 17, 360, 144
-0.996563, 113, 301, 240, 332
-0.996566, 337, 301, 464, 332
-0.996566, 405, 137, 420, 200
-0.996574, 141, 209, 172, 333
-0.99658, 383, 81, 398, 144
-0.996591, 225, 33, 352, 96
-0.996591, 145, 93, 272, 124
-0.996604, 21, 161, 36, 224
-0.996611, 237, 57, 252, 120
-0.996611, 49, 181, 176, 212
-0.996621, 217, 153, 232, 216
-0.996642, 301, 81, 316, 144
-0.996645, 261, 17, 292, 144
-0.996658, 183, 89, 198, 152
-0.996664, 53, 161, 68, 224
-0.996681, 407, 105, 422, 168
-0.996724, 33, 209, 288, 272
-0.996724, 229, 185, 244, 248
-0.996736, 411, 201, 426, 264
-0.996746, 145, 129, 272, 160
-0.996747, 433, 81, 464, 208
-0.996748, 369, 233, 496, 264
-0.996769, 397, 105, 412, 136
-0.996774, 225, 69, 352, 100
-0.996782, 201, 145, 216, 208
-0.996798, 39, 169, 54, 232
-0.996804, 441, 137, 456, 200
-0.996809, 475, 241, 490, 304
-0.996813, 373, 113, 388, 176
-0.996817, 237, 265, 252, 328
-0.996824, 149, 81, 180, 208
-0.996842, 341, 97, 356, 160
-0.996852, 277, 17, 308, 144
-0.996864, 353, 93, 480, 124
-0.996864, 183, 161, 198, 224
-0.996882, 215, 65, 230, 128
-0.996923, 1, 73, 500, 136
-0.996925, 159, 145, 174, 208
-0.996925, 189, 145, 204, 208
-0.996932, 451, 193, 466, 256
-0.996934, 477, 121, 492, 184
-0.996935, 1, 173, 128, 204
-0.996959, 423, 97, 438, 160
-0.996959, 333, 193, 364, 320
-0.996967, 243, 225, 258, 288
-0.996981, 345, 129, 376, 256
-0.996982, 235, 185, 250, 248
-0.996985, 195, 73, 210, 136
-0.997021, 65, 197, 192, 228
-0.997027, 225, 81, 352, 112
-0.997031, 357, 97, 372, 160
-0.997033, 243, 265, 258, 328
-0.997035, 65, 141, 192, 172
-0.997059, 135, 201, 150, 264
-0.997067, 369, 157, 496, 188
-0.99707, 485, 169, 500, 232
-0.997073, 241, 189, 368, 220
-0.997073, 369, 89, 384, 152
-0.997076, 145, 49, 208, 112
-0.997077, 209, 161, 224, 224
-0.997077, 323, 113, 338, 176
-0.997081, 413, 65, 444, 320
-0.997095, 11, 121, 26, 184
-0.997095, 315, 193, 330, 256
-0.997098, 391, 93, 406, 124
-0.99711, 193, 33, 224, 288
-0.997116, 443, 169, 458, 232
-0.997123, 221, 185, 236, 248
-0.997126, 257, 121, 384, 152
-0.997131, 207, 65, 222, 128
-0.99714, 309, 185, 324, 248
-0.997141, 151, 177, 166, 240
-0.997173, 483, 193, 498, 256
-0.99718, 177, 81, 304, 112
-0.997183, 15, 169, 30, 232
-0.997189, 265, 193, 280, 256
-0.997192, 477, 217, 492, 280
-0.997199, 423, 161, 438, 192
-0.997205, 329, 113, 344, 176
-0.997208, 175, 105, 190, 168
-0.997212, 401, 117, 416, 148
-0.997213, 225, 153, 352, 184
-0.997213, 397, 137, 412, 200
-0.997216, 437, 201, 452, 232
-0.997222, 289, 205, 416, 236
-0.997225, 471, 113, 486, 176
-0.997231, 47, 265, 62, 328
-0.997233, 47, 169, 62, 232
-0.997233, 237, 225, 252, 288
-0.99724, 407, 125, 422, 156
-0.997252, 317, 73, 332, 136
-0.997271, 379, 113, 394, 176
-0.997276, 209, 33, 272, 96
-0.997281, 89, 177, 104, 240
-0.997282, 363, 81, 378, 144
-0.997284, 431, 209, 446, 272
-0.997289, 1, 137, 128, 168
-0.997292, 231, 273, 246, 333
-0.997294, 401, 65, 432, 320
-0.997294, 389, 177, 420, 304
-0.997297, 231, 49, 246, 112
-0.997299, 247, 73, 262, 136
-0.997299, 257, 217, 384, 248
-0.997307, 161, 217, 416, 280
-0.997312, 193, 297, 320, 328
-0.997314, 193, 137, 320, 168
-0.997317, 51, 241, 66, 304
-0.997319, 331, 73, 346, 136
-0.997328, 485, 137, 500, 200
-0.997331, 255, 65, 270, 128
-0.997331, 25, 137, 40, 200
-0.997333, 289, 41, 416, 104
-0.997345, 395, 73, 410, 136
-0.997346, 453, 65, 484, 192
-0.99735, 265, 73, 280, 136
-0.99735, 21, 185, 36, 248
-0.997352, 435, 181, 450, 212
-0.997359, 277, 73, 292, 136
-0.99736, 433, 149, 448, 180
-0.997361, 33, 301, 160, 332
-0.997362, 195, 145, 210, 208
-0.997365, 293, 121, 308, 184
-0.997388, 385, 65, 416, 320
-0.997395, 297, 33, 328, 288
-0.997405, 69, 193, 84, 256
-0.997408, 241, 185, 256, 248
-0.997416, 477, 153, 492, 216
-0.997419, 315, 97, 330, 160
-0.997427, 273, 129, 288, 192
-0.997431, 249, 137, 264, 200
-0.997451, 429, 65, 460, 320
-0.997486, 193, 249, 448, 312
-0.997491, 21, 181, 36, 212
-0.997493, 33, 233, 160, 264
-0.997518, 415, 129, 430, 160
-0.997521, 241, 173, 368, 204
-0.997526, 177, 65, 208, 320
-0.99753, 225, 97, 352, 128
-0.99755, 193, 173, 320, 204
-0.997551, 449, 221, 464, 252
-0.997573, 257, 109, 384, 140
-0.99758, 345, 65, 376, 320
-0.997592, 113, 41, 240, 104
-0.997594, 413, 153, 428, 184
-0.997597, 289, 181, 416, 212
-0.997607, 87, 181, 102, 212
-0.997615, 177, 221, 304, 252
-0.997632, 197, 17, 228, 144
-0.997639, 421, 149, 436, 180
-0.997647, 273, 153, 400, 184
-0.997675, 7, 125, 22, 156
-0.99769, 273, 301, 400, 332
-0.997696, 113, 209, 240, 240
-0.997722, 409, 137, 424, 168
-0.997724, 361, 65, 392, 320
-0.997725, 169, 33, 232, 96
-0.997732, 421, 177, 436, 208
-0.997738, 289, 277, 416, 308
-0.997742, 33, 249, 288, 312
-0.997747, 429, 165, 444, 196
-0.997751, 187, 169, 202, 200
-0.997765, 385, 81, 400, 112
-0.997768, 1, 273, 256, 333
-0.997771, 87, 161, 102, 192
-0.997772, 431, 197, 446, 228
-0.997773, 197, 165, 212, 196
-0.997774, 69, 189, 84, 220
-0.997775, 209, 121, 336, 152
-0.997778, 459, 217, 474, 248
-0.997778, 27, 165, 42, 196
-0.997794, 465, 221, 480, 252
-0.997799, 289, 229, 416, 260
-0.9978, 65, 157, 80, 188
-0.997803, 161, 65, 192, 320
-0.997812, 1, 201, 500, 264
-0.997818, 1, 97, 256, 160
-0.997833, 269, 33, 300, 288
-0.997834, 305, 289, 432, 320
-0.997843, 413, 113, 428, 144
-0.997848, 443, 217, 458, 248
-0.997862, 17, 285, 144, 316
-0.997862, 193, 273, 320, 304
-0.997875, 285, 65, 316, 320
-0.997877, 205, 33, 236, 288
-0.997882, 145, 257, 272, 288
-0.997883, 425, 189, 440, 220
-0.997884, 439, 141, 454, 172
-0.997893, 197, 73, 212, 104
-0.997896, 441, 65, 472, 320
-0.997903, 351, 81, 366, 112
-0.997906, 211, 165, 226, 196
-0.997906, 169, 33, 200, 160
-0.997906, 193, 109, 320, 140
-0.997912, 385, 117, 400, 148
-0.997914, 289, 193, 416, 224
-0.997915, 135, 201, 150, 232
-0.997929, 101, 209, 132, 333
-0.997931, 305, 169, 432, 200
-0.997944, 457, 65, 488, 320
-0.99795, 321, 81, 448, 112
-0.997957, 225, 249, 352, 280
-0.997967, 329, 33, 360, 288
-0.99797, 353, 17, 416, 144
-0.997979, 129, 17, 192, 144
-0.997981, 417, 165, 432, 196
-0.997987, 65, 113, 192, 144
-0.997991, 411, 205, 426, 236
-0.997992, 93, 177, 108, 208
-0.997997, 229, 33, 260, 288
-0.998006, 57, 165, 72, 196
-0.998012, 217, 33, 248, 288
-0.99802, 203, 165, 218, 196
-0.998024, 407, 113, 422, 144
-0.99803, 235, 149, 250, 180
-0.998037, 443, 197, 458, 228
-0.998042, 113, 197, 240, 228
-0.998044, 1, 249, 128, 280
-0.998051, 371, 97, 386, 128
-0.998065, 79, 157, 94, 188
-0.998067, 113, 289, 240, 320
-0.998071, 353, 289, 480, 320
-0.998076, 231, 57, 246, 88
-0.998078, 425, 201, 440, 232
-0.998085, 149, 161, 164, 192
-0.998085, 77, 189, 92, 220
-0.998098, 229, 1, 260, 128
-0.998104, 437, 217, 452, 248
-0.998106, 343, 141, 358, 172
-0.998107, 81, 233, 208, 264
-0.998109, 1, 125, 128, 156
-0.99811, 129, 77, 256, 108
-0.998119, 421, 113, 436, 144
-0.99812, 347, 93, 362, 124
-0.99812, 253, 33, 284, 288
-0.998121, 191, 81, 206, 112
-0.998125, 373, 65, 404, 320
-0.998128, 219, 161, 234, 192
-0.998129, 241, 265, 368, 296
-0.998131, 357, 77, 372, 108
-0.998133, 405, 205, 420, 236
-0.998134, 1, 265, 500, 328
-0.998145, 309, 33, 340, 288
-0.998154, 349, 137, 364, 168
-0.998159, 65, 253, 192, 284
-0.998163, 479, 229, 494, 260
-0.998166, 19, 141, 34, 172
-0.998179, 237, 265, 252, 296
-0.998179, 65, 129, 192, 160
-0.998179, 115, 173, 130, 204
-0.998181, 433, 137, 448, 168
-0.99819, 1, 129, 16, 160
-0.998198, 413, 193, 428, 224
-0.998206, 225, 157, 240, 188
-0.998209, 129, 221, 256, 252
-0.99821, 31, 193, 46, 224
-0.998212, 161, 209, 288, 240
-0.99822, 455, 229, 470, 260
-0.99822, 361, 97, 376, 128
-0.998223, 35, 169, 50, 200
-0.998226, 309, 77, 324, 108
-0.998228, 13, 193, 28, 224
-0.998231, 159, 129, 174, 160
-0.998233, 221, 65, 236, 96
-0.998236, 419, 197, 434, 228
-0.998238, 241, 149, 256, 180
-0.998244, 289, 265, 416, 296
-0.998246, 327, 93, 342, 124
-0.998247, 225, 237, 352, 268
-0.998247, 469, 65, 500, 320
-0.998248, 15, 129, 30, 160
-0.99825, 111, 161, 126, 192
-0.998263, 101, 153, 116, 184
-0.998277, 63, 193, 78, 224
-0.998281, 47, 169, 62, 200
-0.998281, 193, 285, 320, 316
-0.998281, 377, 101, 392, 132
-0.998281, 401, 129, 416, 160
-0.998282, 143, 161, 158, 192
-0.998282, 33, 73, 288, 136
-0.998292, 41, 169, 56, 200
-0.998294, 311, 141, 326, 172
-0.998294, 429, 177, 444, 208
-0.998298, 239, 65, 254, 96
-0.9983, 305, 137, 320, 168
-0.998308, 181, 169, 196, 200
-0.998312, 375, 125, 390, 156
-0.998315, 427, 149, 442, 180
-0.998318, 209, 1, 240, 128
-0.998323, 125, 177, 140, 208
-0.998323, 169, 113, 184, 144
-0.998337, 155, 141, 170, 172
-0.998341, 185, 85, 200, 116
-0.998343, 369, 113, 384, 144
-0.998344, 427, 289, 442, 320
-0.998347, 323, 81, 338, 112
-0.998352, 25, 193, 40, 224
-0.998355, 363, 85, 378, 116
-0.998356, 17, 265, 144, 296
-0.998359, 207, 73, 222, 104
-0.998362, 445, 137, 460, 168
-0.998366, 261, 145, 276, 176
-0.998368, 241, 253, 256, 284
-0.998368, 189, 87, 220, 102
-0.998369, 449, 237, 464, 268
-0.99837, 17, 193, 48, 208
-0.99837, 397, 95, 428, 110
-0.998371, 441, 149, 472, 164
-0.998371, 421, 293, 452, 308
-0.998372, 113, 171, 144, 186
-0.998373, 21, 161, 36, 192
-0.998373, 145, 207, 176, 222
-0.998374, 377, 113, 408, 128
-0.998374, 249, 69, 280, 84
-0.998375, 365, 107, 396, 122
-0.998375, 353, 117, 384, 132
-0.998377, 395, 117, 410, 148
-0.998377, 65, 189, 96, 204
-0.998377, 257, 65, 500, 128
-0.998378, 5, 197, 36, 212
-0.998379, 89, 193, 120, 208
-0.99838, 169, 181, 200, 196
-0.998381, 313, 147, 344, 162
-0.998381, 413, 149, 444, 164
-0.998382, 245, 149, 276, 164
-0.998382, 161, 119, 192, 134
-0.998382, 125, 171, 156, 186
-0.998383, 361, 123, 392, 138
-0.998383, 149, 65, 180, 320
-0.998384, 85, 185, 116, 200
-0.998385, 317, 311, 348, 326
-0.998385, 77, 199, 108, 214
-0.998385, 457, 189, 488, 204
-0.998386, 353, 273, 480, 304
-0.998388, 97, 183, 128, 198
-0.998388, 21, 199, 52, 214
-0.998388, 189, 81, 220, 96
-0.998389, 333, 85, 364, 100
-0.998389, 33, 161, 64, 176
-0.998389, 177, 87, 208, 102
-0.99839, 5, 161, 36, 176
-0.998391, 153, 145, 184, 160
-0.998391, 27, 181, 42, 212
-0.998391, 377, 113, 392, 144
-0.998394, 441, 227, 472, 242
-0.998394, 425, 231, 456, 246
-0.998394, 41, 169, 72, 184
-0.998396, 53, 197, 84, 212
-0.998396, 381, 125, 412, 140
-0.998397, 181, 181, 212, 196
-0.998398, 413, 195, 444, 210
-0.998398, 141, 169, 172, 184
-0.998399, 301, 141, 332, 156
-0.9984, 361, 135, 392, 150
-0.998401, 89, 173, 120, 188
-0.998403, 429, 145, 460, 160
-0.998403, 389, 207, 420, 222
-0.998404, 97, 161, 128, 176
-0.998404, 15, 173, 30, 204
-0.998404, 441, 213, 472, 228
-0.998404, 405, 177, 436, 192
-0.998405, 401, 137, 432, 152
-0.998405, 373, 89, 404, 104
-0.998406, 457, 237, 488, 252
-0.998406, 193, 181, 224, 196
-0.998406, 217, 69, 248, 84
-0.998408, 345, 93, 376, 108
-0.998408, 317, 133, 332, 164
-0.998409, 265, 189, 296, 204
-0.998411, 405, 167, 436, 182
-0.998411, 457, 225, 488, 240
-0.998411, 165, 175, 196, 190
-0.998411, 221, 153, 252, 168
-0.998411, 269, 145, 300, 160
-0.998412, 289, 151, 320, 166
-0.998412, 417, 155, 448, 170
-0.998413, 13, 185, 44, 200
-0.998414, 149, 175, 180, 190
-0.998414, 443, 233, 458, 264
-0.998415, 383, 105, 398, 136
-0.998415, 129, 201, 144, 232
-0.998416, 345, 317, 376, 332
-0.998417, 413, 207, 444, 222
-0.998419, 121, 201, 152, 216
-0.99842, 325, 317, 356, 332
-0.99842, 397, 107, 428, 122
-0.998422, 205, 183, 236, 198
-0.998422, 209, 297, 224, 328
-0.998422, 209, 209, 336, 240
-0.998428, 449, 219, 480, 234
-0.99843, 425, 217, 456, 232
-0.998432, 93, 165, 108, 196
-0.998432, 453, 231, 484, 246
-0.998432, 471, 225, 486, 256
-0.998432, 429, 157, 460, 172
-0.998432, 21, 173, 52, 188
-0.998434, 405, 119, 436, 134
-0.998434, 133, 203, 164, 218
-0.998435, 205, 163, 236, 178
-0.998435, 289, 241, 416, 272
-0.998435, 365, 113, 396, 128
-0.998438, 345, 85, 376, 100
-0.998438, 81, 221, 208, 252
-0.998439, 425, 207, 456, 222
-0.998442, 249, 141, 264, 172
-0.998442, 345, 311, 376, 326
-0.998444, 93, 189, 108, 220
-0.998444, 81, 97, 208, 128
-0.998444, 131, 173, 146, 204
-0.998446, 17, 167, 48, 182
-0.998446, 341, 139, 372, 154
-0.998446, 315, 85, 330, 116
-0.998446, 73, 161, 88, 192
-0.998447, 117, 177, 148, 192
-0.998448, 333, 307, 364, 322
-0.998449, 405, 131, 436, 146
-0.99845, 265, 73, 280, 104
-0.998452, 445, 185, 460, 216
-0.998452, 273, 69, 400, 100
-0.998453, 441, 143, 472, 158
-0.998454, 217, 183, 248, 198
-0.998455, 325, 143, 356, 158
-0.998456, 405, 155, 436, 170
-0.998456, 105, 177, 136, 192
-0.998457, 461, 233, 476, 264
-0.998457, 137, 157, 152, 188
-0.998458, 77, 193, 108, 208
-0.998461, 105, 175, 168, 190
-0.998461, 189, 173, 220, 188
-0.998462, 445, 197, 476, 212
-0.998467, 5, 143, 36, 158
-0.998469, 301, 147, 332, 162
-0.998472, 197, 75, 228, 90
-0.998472, 377, 97, 408, 112
-0.998472, 233, 185, 264, 200
-0.998475, 93, 155, 124, 170
-0.998477, 409, 201, 440, 216
-0.998478, 445, 237, 476, 252
-0.99848, 405, 113, 436, 128
-0.99848, 233, 153, 264, 168
-0.998481, 253, 187, 284, 202
-0.998483, 425, 223, 488, 238
-0.998484, 361, 117, 424, 132
-0.99849, 429, 151, 460, 166
-0.998491, 41, 165, 104, 180
-0.998491, 85, 179, 116, 194
-0.998493, 409, 161, 440, 176
-0.998493, 137, 175, 168, 190
-0.998498, 369, 127, 432, 142
-0.998507, 417, 153, 480, 168
-0.998507, 145, 175, 208, 190
-0.998507, 177, 175, 208, 190
-0.998511, 393, 207, 456, 222
-0.998511, 437, 221, 468, 236
-0.998512, 73, 161, 104, 176
-0.998512, 433, 199, 464, 214
-0.998513, 393, 131, 424, 146
-0.998514, 353, 133, 416, 148
-0.998516, 53, 165, 84, 180
-0.998517, 421, 201, 452, 216
-0.998517, 381, 107, 412, 122
-0.998519, 225, 63, 256, 78
-0.99852, 137, 169, 200, 184
-0.998522, 209, 185, 272, 200
-0.998522, 73, 159, 136, 174
-0.998523, 221, 159, 252, 174
-0.998524, 57, 195, 120, 210
-0.998524, 185, 183, 248, 198
-0.998525, 421, 187, 452, 202
-0.998526, 209, 69, 272, 84
-0.998526, 361, 109, 424, 124
-0.998534, 417, 169, 448, 184
-0.998536, 169, 175, 232, 190
-0.998537, 393, 201, 456, 216
-0.998539, 105, 169, 168, 184
-0.998539, 17, 165, 80, 180
-0.998541, 217, 155, 280, 170
-0.998542, 385, 163, 448, 178
-0.998546, 313, 141, 376, 156
-0.998547, 209, 163, 272, 178
-0.998549, 321, 95, 384, 110
-0.998549, 417, 191, 480, 206
-0.99855, 389, 113, 420, 128
-0.998552, 73, 173, 136, 188
-0.998552, 417, 177, 448, 192
-0.998553, 393, 135, 456, 150
-0.998557, 161, 181, 224, 196
-0.998558, 65, 195, 96, 210
-0.998559, 9, 171, 72, 186
-0.998561, 393, 173, 456, 188
-0.998564, 409, 231, 472, 246
-0.998564, 401, 129, 464, 144
-0.998565, 409, 185, 472, 200
-0.998566, 321, 89, 384, 104
-0.998566, 417, 239, 480, 254
-0.998566, 385, 157, 448, 172
-0.998566, 393, 123, 424, 138
-0.998566, 405, 125, 436, 140
-0.998568, 373, 119, 404, 134
-0.998572, 289, 253, 416, 284
-0.998572, 321, 315, 384, 330
-0.998573, 25, 197, 88, 212
-0.998573, 393, 143, 456, 158
-0.998573, 393, 213, 456, 228
-0.998574, 233, 187, 296, 202
-0.998574, 393, 195, 456, 210
-0.998575, 193, 157, 256, 172
-0.998577, 337, 139, 400, 154
-0.998578, 393, 179, 456, 194
-0.998578, 425, 205, 488, 220
-0.99858, 345, 313, 408, 328
-0.99858, 193, 75, 256, 90
-0.99858, 433, 185, 496, 200
-0.998582, 433, 229, 496, 244
-0.998583, 185, 163, 248, 178
-0.998584, 17, 159, 80, 174
-0.998584, 321, 309, 384, 324
-0.998586, 105, 163, 168, 178
-0.998586, 353, 101, 416, 116
-0.998588, 313, 105, 376, 120
-0.998588, 425, 199, 488, 214
-0.998589, 289, 151, 352, 166
-0.99859, 145, 269, 272, 300
-0.998592, 345, 93, 408, 108
-0.998592, 329, 113, 392, 128
-0.998592, 209, 63, 272, 78
-0.998592, 257, 189, 320, 204
-0.998593, 425, 211, 488, 226
-0.998594, 161, 101, 224, 116
-0.998596, 225, 149, 288, 164
-0.998599, 153, 135, 216, 150
-0.998599, 153, 121, 216, 136
-0.9986, 153, 129, 216, 144
-0.998601, 289, 145, 352, 160
-0.998603, 145, 163, 208, 178
-0.998605, 385, 311, 448, 326
-0.998608, 81, 195, 144, 210
-0.998608, 185, 169, 248, 184
-0.998609, 185, 311, 248, 326
-0.99861, 385, 113, 448, 128
-0.99861, 177, 83, 240, 98
-0.99861, 377, 149, 440, 164
-0.998611, 353, 203, 416, 218
-0.998613, 297, 317, 360, 332
-0.998614, 425, 169, 488, 184
-0.998614, 433, 147, 496, 162
-0.998614, 145, 145, 208, 160
-0.998615, 401, 219, 464, 234
-0.998615, 265, 149, 328, 164
-0.998615, 425, 193, 456, 208
-0.998616, 17, 217, 144, 248
-0.998617, 369, 211, 432, 226
-0.998618, 5, 65, 36, 320
-0.99862, 433, 177, 496, 192
-0.99862, 49, 159, 112, 174
-0.99862, 433, 141, 496, 156
-0.998621, 369, 185, 432, 200
-0.998622, 57, 189, 120, 204
-0.998623, 409, 123, 472, 138
-0.998623, 177, 241, 304, 272
-0.998623, 297, 311, 360, 326
-0.998623, 417, 293, 480, 308
-0.998624, 241, 155, 304, 170
-0.998624, 321, 199, 384, 214
-0.998624, 233, 75, 296, 90
-0.998624, 313, 83, 376, 98
-0.998624, 425, 159, 488, 174
-0.998627, 273, 83, 336, 98
-0.998627, 81, 179, 144, 194
-0.998628, 73, 167, 136, 182
-0.998628, 289, 105, 352, 120
-0.998629, 345, 83, 408, 98
-0.998629, 177, 91, 240, 106
-0.998629, 105, 153, 168, 168
-0.998629, 361, 305, 424, 320
-0.998632, 137, 153, 200, 168
-0.998634, 17, 191, 80, 206
-0.998635, 121, 209, 184, 224
-0.998637, 345, 123, 408, 138
-0.998637, 161, 113, 224, 128
-0.998637, 273, 99, 336, 114
-0.998638, 121, 201, 184, 216
-0.99864, 193, 151, 256, 166
-0.998641, 361, 139, 424, 154
-0.998641, 337, 107, 400, 122
-0.998641, 297, 89, 360, 104
-0.998642, 145, 305, 208, 320
-0.998642, 185, 305, 248, 320
-0.998642, 369, 249, 496, 280
-0.998643, 369, 191, 432, 206
-0.998644, 313, 147, 376, 162
-0.998644, 25, 309, 88, 324
-0.998645, 273, 137, 336, 152
-0.998647, 169, 317, 232, 332
-0.998647, 321, 303, 384, 318
-0.998649, 185, 97, 248, 112
-0.998649, 385, 227, 448, 242
-0.998649, 305, 191, 368, 206
-0.99865, 377, 95, 440, 110
-0.998661, 1, 205, 128, 236
-0.998666, 345, 17, 376, 144
-0.998671, 411, 113, 426, 240
-0.998681, 421, 113, 436, 240
-0.998693, 353, 261, 480, 292
-0.998699, 193, 261, 320, 292
-0.998703, 427, 145, 442, 272
-0.99873, 241, 65, 272, 320
-0.998735, 129, 245, 256, 276
-0.998737, 17, 65, 48, 320
-0.998744, 65, 209, 192, 240
-0.998796, 399, 97, 414, 224
-0.998822, 241, 289, 368, 320
-0.998826, 241, 277, 368, 308
-0.998837, 1, 49, 256, 112
-0.998849, 405, 113, 420, 240
-0.998881, 97, 185, 224, 216
-0.998885, 19, 129, 34, 256
-0.998889, 437, 177, 452, 304
-0.998894, 433, 129, 448, 256
-0.9989, 305, 1, 432, 128
-0.99895, 137, 161, 152, 288
-0.998953, 209, 57, 336, 88
-0.998955, 301, 17, 332, 144
-0.998967, 67, 145, 82, 272
-0.998974, 97, 273, 352, 333
-0.998978, 81, 145, 96, 272
-0.998985, 129, 233, 256, 264
-0.99899, 417, 161, 432, 288
-0.998992, 149, 145, 164, 272
-0.999015, 391, 81, 406, 208
-0.999016, 77, 33, 108, 288
-0.999017, 81, 85, 208, 116
-0.999019, 29, 33, 60, 288
-0.999027, 97, 273, 224, 304
-0.999042, 9, 113, 24, 240
-0.999056, 129, 161, 144, 288
-0.999056, 175, 97, 190, 224
-0.999066, 313, 17, 344, 144
-0.999076, 95, 145, 110, 272
-0.999078, 123, 161, 138, 288
-0.999086, 193, 197, 320, 228
-0.999101, 353, 65, 368, 192
-0.999103, 57, 33, 88, 288
-0.999113, 75, 161, 90, 288
-0.999116, 155, 129, 170, 256
-0.999116, 25, 145, 40, 272
-0.999124, 347, 65, 362, 192
-0.999129, 379, 97, 394, 224
-0.999129, 1, 225, 500, 288
-0.999133, 103, 145, 118, 272
-0.999135, 143, 145, 158, 272
-0.999146, 1, 113, 16, 240
-0.999148, 117, 161, 132, 288
-0.999157, 313, 65, 328, 192
-0.99916, 451, 209, 466, 333
-0.999161, 89, 145, 104, 272
-0.999165, 193, 145, 208, 272
-0.999166, 55, 145, 70, 272
-0.999167, 161, 113, 176, 240
-0.999179, 183, 81, 198, 208
-0.999179, 129, 65, 256, 96
-0.999181, 219, 145, 234, 272
-0.999182, 385, 65, 400, 192
-0.999186, 271, 65, 286, 192
-0.999186, 133, 33, 164, 288
-0.99919, 195, 65, 210, 192
-0.999198, 43, 161, 58, 288
-0.999205, 61, 161, 76, 288
-0.999206, 431, 193, 446, 320
-0.999227, 443, 177, 458, 304
-0.999231, 33, 161, 48, 288
-0.99924, 361, 81, 376, 208
-0.999245, 299, 65, 314, 192
-0.999247, 307, 65, 322, 192
-0.999251, 439, 129, 454, 256
-0.999257, 337, 97, 352, 224
-0.999258, 205, 81, 220, 208
-0.999258, 369, 81, 384, 208
-0.999262, 457, 209, 472, 333
-0.999277, 211, 145, 226, 272
-0.999279, 189, 81, 204, 208
-0.999283, 89, 65, 120, 320
-0.999286, 105, 65, 136, 320
-0.999292, 261, 49, 276, 176
-0.999297, 253, 49, 268, 176
-0.99931, 465, 209, 480, 333
-0.999313, 167, 113, 182, 240
-0.999316, 25, 113, 88, 176
-0.999317, 385, 113, 400, 240
-0.99932, 199, 145, 214, 272
-0.999329, 321, 65, 336, 192
-0.999336, 263, 145, 278, 272
-0.999338, 109, 161, 124, 288
-0.99934, 247, 49, 262, 176
-0.999341, 485, 193, 500, 320
-0.999345, 215, 49, 230, 176
-0.999346, 49, 145, 64, 272
-0.999347, 45, 65, 76, 320
-0.99935, 239, 49, 254, 176
-0.999354, 327, 65, 342, 192
-0.999359, 465, 97, 480, 224
-0.999364, 225, 49, 240, 176
-0.999364, 485, 129, 500, 256
-0.999368, 187, 145, 202, 272
-0.999381, 453, 145, 468, 272
-0.999384, 231, 49, 246, 176
-0.999388, 87, 193, 102, 320
-0.999395, 475, 193, 490, 320
-0.999398, 205, 145, 220, 272
-0.9994, 409, 65, 424, 192
-0.999403, 411, 161, 426, 288
-0.999404, 277, 65, 292, 192
-0.999411, 459, 145, 474, 272
-0.999414, 225, 145, 240, 272
-0.999419, 427, 97, 442, 224
-0.99942, 117, 33, 148, 288
-0.99942, 247, 177, 262, 304
-0.999421, 425, 193, 440, 320
-0.999427, 65, 285, 192, 316
-0.999427, 369, 81, 496, 112
-0.999428, 283, 177, 298, 304
-0.99943, 471, 97, 486, 224
-0.999435, 257, 97, 272, 224
-0.999441, 181, 145, 196, 272
-0.999443, 237, 193, 252, 320
-0.999449, 19, 177, 34, 304
-0.999457, 393, 129, 408, 256
-0.999457, 273, 129, 288, 256
-0.999462, 269, 177, 284, 304
-0.999463, 373, 193, 388, 320
-0.999467, 313, 129, 328, 256
-0.999476, 211, 97, 226, 224
-0.999478, 417, 65, 432, 192
-0.999478, 293, 65, 308, 192
-0.999479, 73, 113, 88, 240
-0.999486, 335, 49, 350, 176
-0.999495, 477, 113, 492, 240
-0.999495, 289, 177, 304, 304
-0.999497, 231, 177, 246, 304
-0.999507, 257, 177, 272, 304
-0.999509, 399, 145, 414, 272
-0.999513, 399, 49, 414, 176
-0.999515, 275, 177, 290, 304
-0.999515, 447, 129, 462, 256
-0.999515, 219, 97, 234, 224
-0.999516, 283, 65, 298, 192
-0.999516, 257, 57, 384, 88
-0.99952, 81, 69, 208, 100
-0.999521, 465, 145, 480, 272
-0.999527, 137, 113, 152, 240
-0.999528, 15, 81, 30, 208
-0.999535, 225, 209, 240, 333
-0.999538, 379, 145, 394, 272
-0.999541, 31, 113, 46, 240
-0.999545, 123, 209, 138, 333
-0.999545, 195, 193, 210, 320
-0.999547, 457, 97, 472, 224
-0.99955, 367, 129, 382, 256
-0.999558, 307, 145, 322, 272
-0.999566, 153, 81, 168, 208
-0.999572, 43, 113, 58, 240
-0.999573, 237, 145, 252, 272
-0.999576, 75, 209, 90, 333
-0.999578, 127, 113, 142, 240
-0.999582, 323, 145, 338, 272
-0.999585, 287, 147, 302, 162
-0.999585, 433, 143, 448, 158
-0.999585, 345, 309, 360, 324
-0.999586, 335, 315, 350, 330
-0.999586, 105, 155, 120, 170
-0.999586, 13, 135, 28, 150
-0.999586, 169, 105, 184, 120
-0.999586, 383, 81, 398, 96
-0.999586, 191, 81, 206, 96
-0.999586, 77, 161, 92, 176
-0.999586, 447, 229, 462, 244
-0.999587, 307, 147, 322, 162
-0.999587, 479, 187, 494, 202
-0.999587, 201, 179, 216, 194
-0.999588, 227, 61, 242, 76
-0.999588, 361, 137, 376, 152
-0.999589, 21, 161, 36, 176
-0.999589, 343, 89, 358, 104
-0.999591, 273, 147, 288, 162
-0.999591, 227, 181, 242, 196
-0.999591, 31, 195, 46, 210
-0.999591, 343, 99, 358, 114
-0.999591, 69, 157, 84, 172
-0.999592, 451, 223, 466, 238
-0.999592, 211, 165, 226, 180
-0.999592, 21, 187, 36, 202
-0.999593, 361, 95, 376, 110
-0.999593, 463, 227, 478, 242
-0.999593, 435, 207, 450, 222
-0.999594, 437, 225, 452, 240
-0.999594, 233, 183, 248, 198
-0.999594, 381, 123, 396, 138
-0.999594, 265, 149, 280, 164
-0.999596, 51, 165, 66, 180
-0.999596, 335, 97, 350, 112
-0.999597, 375, 127, 390, 142
-0.999598, 199, 75, 214, 90
-0.999599, 121, 173, 136, 188
-0.999599, 341, 141, 356, 156
-0.999599, 239, 185, 254, 200
-0.999599, 93, 183, 108, 198
-0.999599, 155, 175, 170, 190
-0.9996, 109, 177, 124, 192
-0.9996, 83, 161, 98, 176
-0.999601, 349, 83, 364, 98
-0.999603, 441, 199, 456, 214
-0.999603, 65, 201, 80, 216
-0.999603, 397, 121, 412, 136
-0.999603, 205, 161, 220, 176
-0.999603, 257, 187, 272, 202
-0.999603, 315, 147, 330, 162
-0.999604, 411, 209, 426, 224
-0.999605, 13, 141, 28, 156
-0.999606, 351, 89, 366, 104
-0.999606, 339, 307, 354, 322
-0.999607, 113, 53, 240, 84
-0.999608, 369, 109, 384, 124
-0.999608, 327, 99, 342, 114
-0.999608, 349, 139, 364, 154
-0.999609, 355, 81, 370, 96
-0.99961, 91, 189, 106, 204
-0.999611, 179, 175, 194, 190
-0.999612, 245, 185, 260, 200
-0.999613, 415, 157, 430, 172
-0.999613, 445, 237, 460, 252
-0.999614, 91, 157, 106, 172
-0.999615, 23, 195, 38, 210
-0.999617, 421, 157, 436, 172
-0.999618, 149, 175, 164, 190
-0.999618, 185, 85, 200, 100
-0.999618, 7, 129, 22, 144
-0.999619, 353, 69, 480, 100
-0.999619, 63, 195, 78, 210
-0.999621, 221, 67, 236, 82
-0.999621, 387, 87, 402, 102
-0.999622, 267, 187, 282, 202
-0.999622, 431, 177, 446, 192
-0.999626, 429, 201, 444, 216
-0.999627, 141, 171, 156, 186
-0.999628, 441, 147, 456, 162
-0.999631, 407, 133, 422, 148
-0.999632, 21, 181, 36, 196
-0.999633, 349, 95, 364, 110
-0.999635, 19, 141, 34, 156
-0.999635, 241, 151, 256, 166
-0.999635, 251, 185, 266, 200
-0.999636, 417, 125, 432, 140
-0.999639, 423, 187, 438, 202
-0.999639, 389, 93, 404, 108
-0.99964, 455, 237, 470, 252
-0.999641, 47, 171, 62, 186
-0.999641, 433, 183, 448, 198
-0.999643, 457, 219, 472, 234
-0.999645, 441, 205, 456, 220
-0.999645, 375, 117, 390, 132
-0.999646, 233, 61, 248, 76
-0.999646, 421, 181, 436, 196
-0.999648, 81, 193, 96, 208
-0.999649, 67, 163, 82, 178
-0.999649, 453, 231, 468, 246
-0.999651, 227, 157, 242, 172
-0.999652, 405, 207, 420, 222
-0.999652, 87, 179, 102, 194
-0.999653, 437, 219, 452, 234
-0.999656, 417, 167, 432, 182
-0.999659, 25, 167, 40, 182
-0.999663, 411, 121, 426, 136
-0.999665, 115, 175, 130, 190
-0.999667, 185, 175, 200, 190
-0.999669, 135, 201, 150, 216
-0.999669, 417, 131, 432, 146
-0.999669, 75, 195, 90, 210
-0.999673, 233, 155, 248, 170
-0.999675, 191, 173, 206, 188
-0.999676, 397, 109, 412, 124
-0.999679, 57, 167, 72, 182
-0.999679, 387, 119, 402, 134
-0.999686, 437, 191, 452, 206
-0.999689, 381, 117, 396, 132
-0.99969, 431, 155, 446, 170
-0.999692, 217, 161, 232, 176
-0.999694, 403, 121, 418, 136
-0.999695, 393, 99, 408, 114
-0.999698, 427, 171, 442, 186
-0.999698, 445, 223, 460, 238
-0.999703, 427, 193, 442, 208
-0.999708, 405, 127, 420, 142
-0.99971, 435, 201, 450, 216
-0.99973, 399, 115, 414, 130
-0.999746, 69, 195, 84, 210
-0.999763, 411, 127, 426, 142
-0.999775, 423, 163, 438, 178
-0.999797, 337, 33, 464, 96
-1.00018, 161, 33, 416, 96
-1.00028, 1, 113, 128, 144
-1.00031, 289, 17, 320, 144
-1.00035, 337, 57, 464, 88
-1.00044, 257, 41, 500, 104
-1.00049, 209, 45, 336, 76
-1.00061, 161, 53, 288, 84
-1.00074, 33, 101, 160, 132
-1.00085, 257, 45, 384, 76
-1.0009, 1, 1, 128, 32
-1.00091, 113, 41, 240, 72
-1.00094, 37, 209, 68, 333
-1.00132, 65, 25, 320, 88
-1.00156, 1, 49, 128, 176
-1.00179, 97, 1, 352, 64
-1.00183, 257, 1, 500, 64
-1.0019, 9, 209, 40, 333
-1.00196, 157, 33, 188, 160
-1.00209, 161, 25, 288, 88
-1.00221, 1, 1, 256, 64
-1.00239, 1, 49, 128, 112
-1.00241, 1, 41, 500, 104
-1.00243, 1, 1, 128, 64
-1.0025, 289, 9, 416, 72
-1.00256, 33, 25, 160, 88
-1.00283, 1, 9, 500, 72
-1.00285, 161, 1, 288, 64
-1.00288, 49, 1, 176, 64
-1.00291, 97, 1, 224, 64
-1.00291, 369, 1, 496, 64
-1.00292, 209, 1, 336, 64
-1.00315, 1, 81, 128, 144
-1.00344, 153, 33, 216, 160
-1.00358, 401, 17, 432, 144
-1.00419, 1, 49, 64, 176
-1.00494, 49, 33, 176, 160
-1.00545, 469, 17, 500, 144
-1.00551, 49, 65, 80, 192
-1.00612, 21, 49, 52, 176
-1.00623, 441, 33, 472, 160
-1.00627, 145, 33, 176, 160
-1.00657, 453, 17, 484, 144
-1.00659, 97, 65, 128, 192
-1.00699, 33, 65, 64, 192
-1.0072, 109, 65, 140, 192
-1.00782, 81, 65, 144, 192
-1.00986, 385, 33, 448, 160
-1.01201, 1, 1, 128, 128
-1.01217, 1, 1, 64, 128
-1.01224, 49, 17, 112, 144
-1.01286, 81, 17, 144, 144
-1.01416, 25, 1, 88, 128
-1.01458, 105, 1, 168, 128
-1.01601, 433, 17, 496, 144
-1.01607, 25, 49, 88, 176
-1.0221, 409, 1, 472, 128
