1980
-0.537025, 1, 129, 500, 375
-0.645144, 1, 1, 500, 375
-0.694107, 1, 33, 500, 288
-0.733025, 225, 1, 480, 375
-0.767864, 1, 1, 256, 375
-0.786018, 65, 129, 320, 375
-0.791637, 129, 1, 384, 375
-0.866533, 161, 129, 416, 375
-0.88983, 1, 177, 500, 304
-0.901968, 97, 129, 224, 375
-0.906093, 145, 129, 272, 375
-0.918184, 1, 129, 128, 375
-0.918915, 1, 225, 500, 352
-0.920332, 49, 129, 176, 375
-0.921037, 33, 177, 288, 304
-0.928042, 129, 177, 384, 304
-0.930926, 321, 1, 448, 375
-0.931769, 49, 193, 176, 320
-0.932, 369, 129, 496, 375
-0.934966, 129, 1, 256, 375
-0.934966, 225, 1, 352, 375
-0.934973, 1, 209, 128, 336
-0.93787, 257, 65, 500, 320
-0.938166, 321, 129, 448, 375
-0.939183, 369, 1, 496, 375
-0.939264, 145, 193, 208, 320
-0.939441, 209, 129, 336, 375
-0.939906, 97, 209, 224, 336
-0.939922, 1, 1, 128, 375
-0.940457, 33, 241, 288, 368
-0.941485, 105, 209, 168, 336
-0.941806, 81, 1, 208, 375
-0.944988, 273, 1, 400, 375
-0.946857, 145, 161, 272, 288
-0.947447, 57, 193, 120, 320
-0.948964, 177, 1, 304, 375
-0.949824, 81, 193, 144, 320
-0.951845, 145, 201, 208, 264
-0.953084, 49, 217, 112, 280
-0.953427, 353, 177, 480, 304
-0.953746, 129, 225, 384, 352
-0.954942, 353, 33, 480, 288
-0.95499, 273, 129, 400, 375
-0.956631, 185, 161, 248, 288
-0.956847, 225, 193, 480, 320
-0.956887, 81, 209, 144, 272
-0.956909, 145, 33, 272, 288
-0.957582, 161, 33, 416, 288
-0.95864, 97, 233, 160, 296
-0.958896, 33, 33, 288, 288
-0.959344, 1, 129, 500, 256
-0.959727, 25, 209, 88, 336
-0.960857, 121, 241, 184, 304
-0.961049, 49, 241, 176, 368
-0.961139, 305, 33, 432, 288
-0.961838, 57, 241, 120, 304
-0.96207, 225, 33, 352, 288
-0.96228, 97, 161, 224, 288
-0.962608, 385, 177, 448, 304
-0.96297, 273, 193, 400, 320
-0.963044, 193, 129, 448, 256
-0.963089, 81, 33, 208, 288
-0.965059, 353, 201, 416, 264
-0.965304, 1, 161, 128, 288
-0.965341, 49, 209, 176, 272
-0.965542, 353, 177, 416, 304
-0.965566, 113, 209, 176, 272
-0.965724, 1, 209, 64, 336
-0.966354, 145, 145, 208, 272
-0.966822, 225, 193, 352, 320
-0.966969, 145, 225, 208, 288
-0.967035, 209, 161, 272, 288
-0.9682, 305, 193, 368, 256
-0.96842, 329, 209, 392, 272
-0.968496, 377, 177, 440, 240
-0.968685, 177, 201, 240, 264
-0.968803, 81, 241, 144, 368
-0.968828, 89, 257, 152, 320
-0.968909, 25, 225, 88, 288
-0.969834, 305, 177, 368, 304
-0.970324, 409, 185, 472, 248
-0.970452, 57, 241, 120, 368
-0.970665, 169, 209, 232, 336
-0.971829, 1, 225, 128, 288
-0.97212, 169, 177, 232, 240
-0.972149, 137, 241, 200, 368
-0.972458, 97, 233, 224, 296
-0.972811, 257, 241, 500, 368
-0.973134, 169, 225, 232, 288
-0.973359, 137, 177, 200, 240
-0.973503, 113, 273, 176, 336
-0.973523, 1, 249, 128, 312
-0.973681, 425, 161, 488, 288
-0.974276, 17, 33, 144, 288
-0.974285, 1, 129, 256, 256
-0.974294, 305, 217, 368, 280
-0.974333, 49, 233, 176, 296
-0.974587, 281, 201, 344, 264
-0.974605, 49, 145, 176, 272
-0.974805, 329, 193, 392, 320
-0.974843, 121, 161, 184, 288
-0.975351, 81, 145, 144, 272
-0.975487, 1, 225, 64, 288
-0.975592, 145, 241, 272, 368
-0.975963, 109, 233, 140, 296
-0.975966, 145, 249, 208, 312
-0.976128, 61, 209, 92, 272
-0.976377, 57, 193, 120, 256
-0.976558, 241, 193, 368, 256
-0.976733, 385, 209, 448, 272
-0.97674, 337, 201, 464, 264
-0.976751, 193, 169, 256, 232
-0.976909, 137, 209, 168, 336
-0.976912, 173, 201, 204, 264
-0.97708, 77, 217, 108, 280
-0.97715, 1, 249, 64, 312
-0.977192, 169, 265, 232, 328
-0.977263, 81, 185, 144, 248
-0.977448, 241, 145, 368, 272
-0.977678, 81, 193, 112, 320
-0.977803, 433, 185, 496, 248
-0.977917, 101, 193, 132, 320
-0.977936, 161, 169, 288, 232
-0.978196, 233, 201, 296, 264
-0.978274, 161, 201, 288, 264
-0.978458, 177, 225, 208, 288
-0.978459, 337, 241, 464, 368
-0.978546, 305, 145, 432, 272
-0.978758, 401, 177, 432, 240
-0.978897, 289, 201, 416, 264
-0.979081, 369, 129, 496, 256
-0.979116, 121, 209, 152, 272
-0.979149, 49, 257, 176, 320
-0.979355, 33, 249, 96, 312
-0.979645, 85, 241, 116, 304
-0.979943, 177, 209, 208, 336
-0.980222, 1, 161, 64, 288
-0.980227, 353, 225, 416, 288
-0.980264, 233, 177, 296, 304
-0.980303, 113, 201, 240, 264
-0.980327, 393, 225, 456, 352
-0.980334, 121, 193, 152, 320
-0.980336, 433, 241, 496, 368
-0.980437, 185, 201, 216, 264
-0.980616, 145, 273, 208, 336
-0.980722, 337, 193, 368, 256
-0.980889, 349, 209, 380, 272
-0.981171, 121, 249, 152, 312
-0.981173, 281, 225, 344, 288
-0.981267, 417, 177, 448, 240
-0.98139, 137, 241, 168, 304
-0.981456, 273, 193, 336, 320
-0.981488, 217, 177, 280, 240
-0.981582, 329, 185, 392, 248
-0.981755, 33, 161, 96, 288
-0.981758, 45, 209, 76, 272
-0.981837, 393, 241, 456, 304
-0.981884, 417, 209, 480, 272
-0.981928, 65, 193, 96, 320
-0.981963, 433, 161, 496, 224
-0.981964, 313, 193, 344, 256
-0.982101, 329, 233, 392, 296
-0.982127, 321, 177, 448, 240
-0.982137, 257, 209, 320, 272
-0.98221, 193, 241, 320, 368
-0.982469, 193, 241, 256, 368
-0.98248, 369, 193, 400, 256
-0.982668, 9, 201, 72, 264
-0.982723, 157, 177, 188, 304
-0.982871, 353, 177, 416, 240
-0.982884, 109, 265, 140, 328
-0.982888, 389, 185, 420, 248
-0.983024, 241, 225, 368, 288
-0.983119, 97, 209, 128, 272
-0.983134, 1, 201, 128, 264
-0.983141, 413, 201, 444, 264
-0.983348, 321, 217, 352, 280
-0.98338, 193, 241, 256, 304
-0.983428, 401, 161, 432, 288
-0.983484, 349, 193, 380, 320
-0.983633, 189, 161, 220, 288
-0.983706, 133, 209, 164, 272
-0.983721, 289, 241, 416, 368
-0.983733, 65, 265, 128, 328
-0.983858, 1, 209, 32, 336
-0.983916, 433, 185, 464, 248
-0.984293, 369, 177, 496, 240
-0.984401, 45, 209, 76, 336
-0.984556, 153, 201, 184, 264
-0.98457, 409, 161, 472, 224
-0.984629, 1, 225, 32, 288
-0.984719, 417, 249, 480, 312
-0.984849, 97, 257, 224, 320
-0.984983, 97, 249, 128, 312
-0.98499, 409, 313, 472, 375
-0.985011, 193, 145, 320, 272
-0.985057, 377, 161, 408, 288
-0.985124, 289, 225, 416, 288
-0.985163, 201, 161, 232, 288
-0.985177, 329, 145, 392, 272
-0.985292, 105, 185, 168, 248
-0.985295, 97, 129, 160, 375
-0.985309, 417, 177, 448, 304
-0.98531, 57, 145, 120, 272
-0.985607, 65, 185, 192, 248
-0.985628, 145, 225, 272, 288
-0.985699, 181, 169, 212, 232
-0.985766, 61, 233, 92, 296
-0.985769, 201, 201, 264, 264
-0.985788, 401, 201, 432, 264
-0.986091, 305, 225, 368, 352
-0.986142, 113, 177, 240, 240
-0.98628, 333, 217, 364, 280
-0.986334, 385, 129, 448, 256
-0.986456, 149, 233, 180, 296
-0.98652, 189, 225, 220, 288
-0.986627, 173, 161, 204, 288
-0.986676, 145, 129, 208, 375
-0.986867, 89, 241, 120, 368
-0.987021, 229, 161, 260, 288
-0.987136, 189, 265, 220, 328
-0.987151, 33, 193, 96, 256
-0.98717, 193, 225, 320, 288
-0.987213, 365, 177, 396, 304
-0.987223, 169, 113, 232, 240
-0.987232, 73, 249, 104, 312
-0.987235, 193, 177, 224, 240
-0.987362, 5, 249, 36, 312
-0.987387, 97, 113, 224, 240
-0.987482, 149, 225, 180, 352
-0.98752, 461, 185, 492, 248
-0.987521, 73, 193, 104, 256
-0.987545, 361, 241, 424, 368
-0.987588, 233, 233, 296, 296
-0.987591, 353, 225, 480, 288
-0.98765, 325, 193, 356, 256
-0.987838, 197, 201, 228, 264
-0.98785, 257, 145, 320, 272
-0.987903, 249, 201, 280, 264
-0.987912, 337, 177, 368, 304
-0.988062, 121, 241, 152, 368
-0.98811, 361, 217, 392, 280
-0.988168, 433, 129, 496, 375
-0.988185, 313, 177, 344, 304
-0.988521, 1, 81, 500, 208
-0.988532, 57, 129, 120, 375
-0.988556, 229, 169, 260, 232
-0.988582, 301, 193, 332, 256
-0.988602, 369, 249, 432, 312
-0.988692, 433, 177, 464, 304
-0.988726, 1, 1, 500, 128
-0.988908, 45, 233, 76, 296
-0.989072, 33, 209, 64, 336
-0.989175, 177, 265, 208, 328
-0.989192, 389, 193, 420, 320
-0.9892, 241, 177, 272, 240
-0.989235, 377, 205, 440, 236
-0.98936, 217, 161, 248, 288
-0.989412, 121, 273, 152, 336
-0.98945, 409, 193, 472, 224
-0.989465, 445, 185, 476, 248
-0.989466, 81, 217, 144, 248
-0.989468, 177, 129, 240, 375
-0.989523, 353, 209, 416, 240
-0.989589, 57, 253, 120, 284
-0.989599, 165, 177, 196, 240
-0.989599, 381, 209, 412, 272
-0.9896, 17, 209, 48, 336
-0.989804, 121, 129, 184, 375
-0.989849, 349, 185, 380, 248
-0.98986, 81, 233, 144, 264
-0.989986, 417, 205, 480, 236
-0.989995, 313, 217, 376, 248
-0.989997, 137, 201, 200, 232
-0.990021, 201, 313, 264, 375
-0.990023, 369, 249, 496, 312
-0.990027, 145, 225, 208, 256
-0.990101, 157, 265, 188, 328
-0.99015, 49, 213, 112, 244
-0.990185, 113, 213, 176, 244
-0.990198, 445, 161, 476, 288
-0.990213, 189, 209, 220, 336
-0.990218, 105, 249, 168, 280
-0.990231, 145, 297, 208, 360
-0.990233, 113, 281, 240, 344
-0.990234, 433, 305, 496, 368
-0.990247, 201, 129, 264, 375
-0.990275, 241, 177, 272, 304
-0.990292, 145, 161, 176, 288
-0.990301, 49, 229, 112, 260
-0.990307, 105, 241, 136, 368
-0.990331, 193, 265, 256, 328
-0.990366, 145, 257, 272, 320
-0.990442, 169, 289, 232, 352
-0.990446, 325, 161, 356, 288
-0.990465, 105, 225, 168, 256
-0.990483, 377, 193, 440, 224
-0.990515, 109, 209, 140, 272
-0.990525, 329, 205, 392, 236
-0.990707, 137, 213, 200, 244
-0.990724, 273, 225, 336, 256
-0.990814, 1, 273, 128, 336
-0.990842, 61, 185, 92, 248
-0.990854, 177, 209, 240, 240
-0.990915, 313, 229, 376, 260
-0.99094, 169, 153, 232, 216
-0.990974, 81, 245, 144, 276
-0.991013, 113, 237, 176, 268
-0.991026, 89, 273, 152, 304
-0.991069, 1, 161, 32, 288
-0.991088, 209, 169, 240, 232
-0.991099, 401, 257, 464, 288
-0.991145, 137, 237, 200, 268
-0.9912, 433, 193, 496, 224
-0.991201, 177, 229, 240, 260
-0.991244, 121, 281, 184, 312
-0.991257, 209, 169, 336, 232
-0.991291, 153, 281, 216, 312
-0.991301, 1, 201, 32, 264
-0.991325, 177, 341, 240, 372
-0.991332, 65, 281, 192, 344
-0.991333, 233, 225, 296, 256
-0.991342, 469, 161, 500, 288
-0.991376, 81, 201, 144, 232
-0.991385, 57, 241, 120, 272
-0.991417, 1, 249, 256, 312
-0.991435, 33, 209, 64, 272
-0.991494, 345, 193, 408, 224
-0.991502, 265, 345, 328, 375
-0.991512, 305, 241, 368, 304
-0.991514, 305, 201, 368, 232
-0.991516, 145, 113, 272, 240
-0.991522, 273, 237, 336, 268
-0.991528, 165, 225, 196, 288
-0.991541, 329, 241, 392, 368
-0.991609, 1, 217, 256, 280
-0.991615, 73, 241, 104, 368
-0.99162, 45, 185, 76, 248
-0.991635, 145, 273, 176, 336
-0.991647, 105, 201, 168, 232
-0.991654, 161, 245, 224, 276
-0.991697, 433, 257, 496, 288
-0.9917, 233, 237, 296, 268
-0.991703, 1, 225, 500, 288
-0.991708, 129, 193, 384, 256
-0.991713, 201, 173, 264, 204
-0.991719, 369, 249, 432, 280
-0.991722, 337, 225, 400, 256
-0.991749, 177, 197, 240, 228
-0.991786, 233, 345, 296, 375
-0.991805, 61, 241, 92, 368
-0.991818, 417, 113, 480, 240
-0.991826, 401, 325, 464, 356
-0.99183, 177, 173, 240, 204
-0.991843, 97, 261, 160, 292
-0.991863, 321, 249, 448, 312
-0.991898, 89, 281, 152, 344
-0.991952, 129, 265, 192, 296
-0.991984, 137, 189, 200, 220
-0.992005, 217, 197, 280, 228
-0.992056, 161, 269, 224, 300
-0.992089, 169, 293, 232, 324
-0.9921, 417, 217, 480, 248
-0.992102, 161, 225, 192, 352
-0.992115, 289, 213, 352, 244
-0.99213, 209, 313, 336, 375
-0.992142, 169, 185, 232, 216
-0.992151, 257, 233, 320, 296
-0.992164, 425, 241, 456, 368
-0.992175, 129, 293, 192, 324
-0.992177, 385, 217, 448, 248
-0.992179, 217, 209, 280, 240
-0.992179, 185, 241, 248, 272
-0.992188, 289, 345, 352, 375
-0.992204, 33, 253, 96, 284
-0.992213, 65, 265, 128, 296
-0.992237, 1, 233, 64, 264
-0.992238, 49, 201, 112, 232
-0.99225, 305, 129, 368, 256
-0.992254, 201, 113, 264, 240
-0.99227, 1, 257, 64, 288
-0.992277, 457, 161, 488, 288
-0.992281, 257, 213, 320, 244
-0.992284, 301, 177, 332, 304
-0.992315, 409, 181, 472, 212
-0.992344, 329, 341, 392, 372
-0.992357, 377, 337, 440, 368
-0.992357, 417, 269, 480, 300
-0.99236, 133, 273, 164, 336
-0.992387, 393, 245, 456, 276
-0.992395, 209, 185, 272, 216
-0.992398, 361, 221, 424, 252
-0.992462, 377, 261, 440, 292
-0.992464, 377, 209, 408, 240
-0.992483, 161, 225, 416, 288
-0.99249, 353, 341, 416, 372
-0.992491, 1, 193, 500, 256
-0.992513, 193, 253, 256, 284
-0.99252, 365, 205, 396, 236
-0.992558, 433, 333, 496, 364
-0.992558, 209, 225, 272, 256
-0.992577, 353, 205, 384, 236
-0.992583, 397, 201, 428, 232
-0.992588, 369, 181, 432, 212
-0.992596, 449, 161, 480, 224
-0.992604, 329, 225, 360, 256
-0.992611, 413, 205, 444, 236
-0.992614, 337, 237, 400, 268
-0.992618, 297, 241, 360, 272
-0.992648, 329, 213, 360, 244
-0.992653, 25, 213, 88, 244
-0.992669, 309, 225, 340, 288
-0.992685, 257, 177, 320, 240
-0.992691, 25, 233, 88, 264
-0.992697, 369, 237, 432, 268
-0.992705, 177, 229, 208, 260
-0.992715, 317, 217, 348, 248
-0.992727, 89, 253, 120, 284
-0.992743, 353, 313, 480, 375
-0.99275, 21, 225, 52, 288
-0.992751, 313, 229, 344, 260
-0.992765, 201, 337, 264, 368
-0.992766, 433, 201, 464, 232
-0.992768, 177, 209, 208, 240
-0.992769, 369, 313, 432, 375
-0.992781, 121, 209, 152, 240
-0.992783, 341, 213, 372, 244
-0.992792, 1, 129, 64, 375
-0.992795, 433, 177, 496, 208
-0.992809, 1, 209, 64, 240
-0.992811, 417, 185, 448, 216
-0.992815, 109, 253, 140, 284
-0.992826, 401, 213, 432, 244
-0.992831, 361, 217, 392, 248
-0.992833, 185, 265, 248, 296
-0.992843, 457, 193, 488, 224
-0.992844, 345, 249, 408, 280
-0.99287, 97, 285, 160, 316
-0.992874, 417, 245, 480, 276
-0.992875, 109, 265, 140, 296
-0.992888, 469, 201, 500, 232
-0.992894, 425, 209, 456, 272
-0.992898, 97, 217, 128, 248
-0.992899, 73, 213, 104, 244
-0.992907, 265, 201, 328, 232
-0.99292, 129, 253, 192, 284
-0.992928, 133, 209, 164, 240
-0.992931, 33, 193, 288, 256
-0.992936, 445, 193, 476, 224
-0.992939, 389, 145, 420, 272
-0.992954, 341, 201, 372, 232
-0.992959, 133, 237, 164, 268
-0.99298, 377, 197, 408, 228
-0.992981, 389, 213, 420, 244
-0.992989, 121, 233, 152, 264
-0.99299, 121, 253, 152, 284
-0.992994, 149, 229, 180, 260
-0.993006, 1, 221, 64, 252
-0.993007, 157, 281, 188, 312
-0.993008, 77, 229, 108, 260
-0.993009, 61, 213, 92, 244
-0.993017, 137, 285, 168, 316
-0.993017, 109, 241, 140, 272
-0.993025, 177, 281, 240, 312
-0.993033, 189, 277, 220, 308
-0.993034, 189, 229, 220, 260
-0.993039, 437, 257, 468, 288
-0.993039, 433, 189, 464, 220
-0.993047, 153, 257, 216, 288
-0.993052, 329, 201, 360, 232
-0.993059, 425, 325, 456, 356
-0.99306, 1, 269, 64, 300
-0.993068, 401, 337, 464, 368
-0.993068, 189, 337, 220, 368
-0.993069, 457, 205, 488, 236
-0.993076, 69, 145, 100, 272
-0.993083, 385, 185, 416, 216
-0.993103, 257, 209, 500, 272
-0.993107, 1, 245, 64, 276
-0.993111, 1, 281, 64, 312
-0.993114, 57, 277, 120, 308
-0.993116, 165, 209, 196, 240
-0.993118, 257, 233, 288, 264
-0.993136, 177, 281, 208, 312
-0.993139, 313, 197, 344, 228
-0.993144, 101, 201, 132, 232
-0.993146, 413, 253, 444, 284
-0.99315, 409, 225, 440, 288
-0.993151, 397, 189, 428, 220
-0.993154, 125, 277, 156, 308
-0.993158, 165, 225, 196, 256
-0.993159, 201, 241, 232, 368
-0.993165, 153, 333, 216, 364
-0.993168, 129, 221, 160, 252
-0.993168, 61, 229, 92, 260
-0.99317, 225, 173, 256, 204
-0.993185, 353, 193, 384, 224
-0.993193, 433, 157, 496, 188
-0.993195, 177, 197, 208, 228
-0.993196, 161, 293, 192, 324
-0.993196, 365, 193, 396, 224
-0.993203, 277, 345, 308, 375
-0.993208, 149, 201, 180, 232
-0.993208, 445, 205, 476, 236
-0.99321, 313, 189, 376, 220
-0.993211, 341, 225, 372, 256
-0.993212, 261, 221, 292, 252
-0.993218, 133, 249, 164, 280
-0.993225, 249, 189, 312, 220
-0.993227, 113, 277, 144, 308
-0.993228, 177, 241, 208, 272
-0.993236, 165, 197, 196, 228
-0.993241, 89, 241, 120, 272
-0.993241, 61, 253, 92, 284
-0.993258, 305, 313, 432, 375
-0.993267, 153, 217, 184, 248
-0.993268, 449, 261, 480, 292
-0.993272, 189, 265, 220, 296
-0.993272, 177, 293, 208, 324
-0.993273, 181, 173, 212, 204
-0.993273, 249, 205, 280, 236
-0.993273, 149, 241, 180, 272
-0.993276, 413, 217, 444, 248
-0.993279, 189, 209, 220, 240
-0.993281, 377, 229, 408, 260
-0.993281, 301, 233, 332, 264
-0.993299, 425, 257, 456, 288
-0.993299, 85, 217, 116, 248
-0.9933, 201, 281, 232, 312
-0.9933, 305, 213, 336, 244
-0.9933, 97, 273, 128, 304
-0.993305, 101, 229, 132, 260
-0.993312, 49, 221, 176, 252
-0.993318, 201, 261, 232, 292
-0.993325, 201, 249, 232, 312
-0.993327, 5, 257, 36, 288
-0.99333, 265, 345, 296, 375
-0.993348, 401, 249, 432, 280
-0.993349, 237, 193, 268, 224
-0.99335, 469, 189, 500, 220
-0.993352, 109, 213, 140, 244
-0.993354, 457, 181, 488, 212
-0.993355, 137, 269, 168, 300
-0.993358, 189, 293, 220, 324
-0.993362, 361, 229, 392, 260
-0.993366, 433, 317, 496, 348
-0.993369, 1, 225, 32, 256
-0.993369, 269, 233, 300, 264
-0.993378, 193, 193, 224, 224
-0.993378, 77, 245, 108, 276
-0.993379, 457, 217, 488, 248
-0.993379, 121, 297, 184, 360
-0.99338, 45, 253, 76, 284
-0.993383, 381, 245, 412, 276
-0.993386, 245, 225, 276, 256
-0.993391, 149, 293, 180, 324
-0.993408, 117, 197, 148, 228
-0.993414, 405, 337, 436, 368
-0.993421, 77, 201, 108, 232
-0.993427, 461, 157, 492, 188
-0.99343, 305, 333, 368, 364
-0.993431, 45, 233, 76, 264
-0.993432, 445, 333, 476, 364
-0.993444, 289, 345, 320, 375
-0.993445, 401, 177, 432, 208
-0.993446, 145, 177, 208, 208
-0.99345, 133, 161, 164, 288
-0.99345, 33, 281, 96, 312
-0.993451, 361, 129, 424, 256
-0.993452, 193, 173, 224, 204
-0.993453, 429, 213, 460, 244
-0.993456, 49, 213, 80, 244
-0.99346, 1, 237, 32, 268
-0.993461, 313, 345, 344, 375
-0.993464, 217, 249, 280, 280
-0.993464, 333, 189, 364, 220
-0.993468, 269, 201, 300, 264
-0.993469, 41, 273, 104, 336
-0.993473, 61, 241, 92, 272
-0.993474, 237, 345, 268, 375
-0.993475, 241, 201, 304, 232
-0.99348, 209, 237, 272, 268
-0.993482, 1, 213, 32, 244
-0.993482, 345, 341, 376, 372
-0.993482, 177, 185, 208, 216
-0.993483, 273, 333, 336, 364
-0.993497, 25, 269, 88, 300
-0.9935, 105, 297, 168, 328
-0.993505, 393, 229, 456, 260
-0.993524, 121, 145, 152, 272
-0.993534, 233, 333, 296, 364
-0.993538, 377, 129, 440, 375
-0.99355, 97, 145, 128, 272
-0.993556, 49, 233, 176, 264
-0.993566, 417, 233, 480, 264
-0.993585, 1, 177, 128, 240
-0.993588, 25, 201, 88, 232
-0.993599, 353, 329, 416, 360
-0.993602, 1, 253, 128, 284
-0.993603, 377, 325, 440, 356
-0.993607, 345, 181, 408, 212
-0.993644, 153, 345, 216, 375
-0.99366, 193, 325, 256, 356
-0.993681, 193, 161, 256, 192
-0.993694, 241, 177, 304, 208
-0.993701, 289, 189, 352, 220
-0.993718, 461, 161, 492, 224
-0.993766, 121, 185, 152, 248
-0.993788, 353, 201, 480, 232
-0.993828, 273, 169, 400, 232
-0.993836, 321, 213, 448, 244
-0.993851, 185, 1, 248, 375
-0.993852, 1, 273, 256, 336
-0.993956, 97, 249, 224, 280
-0.993982, 225, 185, 480, 248
-0.993989, 97, 273, 128, 336
-0.993991, 97, 129, 352, 256
-0.994009, 425, 313, 456, 375
-0.994045, 257, 225, 288, 288
-0.994101, 97, 185, 128, 248
-0.994102, 409, 129, 472, 375
-0.994111, 421, 129, 452, 256
-0.994113, 401, 209, 432, 336
-0.994134, 57, 257, 88, 320
-0.994144, 85, 193, 116, 256
-0.994151, 53, 161, 84, 288
-0.994166, 41, 161, 72, 288
-0.994181, 187, 201, 202, 264
-0.994271, 145, 1, 208, 375
-0.99434, 313, 313, 376, 375
-0.99437, 85, 209, 100, 272
-0.994458, 123, 249, 138, 312
-0.994486, 1, 229, 128, 260
-0.994583, 349, 145, 380, 272
-0.994645, 121, 1, 184, 375
-0.994678, 65, 209, 192, 240
-0.994714, 345, 129, 408, 375
-0.994799, 65, 209, 80, 272
-0.994808, 1, 217, 128, 248
-0.994923, 129, 249, 144, 312
-0.99494, 465, 257, 496, 320
-0.994944, 273, 201, 400, 232
-0.995005, 201, 225, 232, 288
-0.99502, 97, 249, 352, 312
-0.995025, 241, 217, 368, 248
-0.995038, 377, 1, 440, 375
-0.995055, 143, 209, 158, 272
-0.995115, 185, 289, 216, 352
-0.995119, 217, 225, 280, 352
-0.995123, 97, 1, 160, 375
-0.995137, 1, 273, 64, 336
-0.995176, 193, 257, 320, 320
-0.995206, 129, 229, 256, 260
-0.995209, 331, 209, 346, 272
-0.995213, 209, 201, 240, 264
-0.995214, 79, 209, 94, 272
-0.995218, 65, 161, 192, 224
-0.995232, 367, 193, 382, 256
-0.995265, 33, 249, 64, 312
-0.995271, 185, 225, 200, 288
-0.995311, 17, 249, 48, 312
-0.995318, 257, 313, 384, 375
-0.99538, 423, 177, 438, 240
-0.995385, 1, 249, 500, 312
-0.995411, 423, 201, 438, 264
-0.995422, 133, 185, 164, 248
-0.99545, 289, 201, 320, 264
-0.99545, 449, 209, 480, 272
-0.995495, 377, 233, 408, 296
-0.995504, 73, 225, 88, 288
-0.99551, 91, 225, 106, 288
-0.995521, 397, 177, 412, 240
-0.995547, 49, 245, 176, 276
-0.995593, 393, 249, 424, 312
-0.995617, 341, 201, 356, 264
-0.995623, 119, 225, 134, 288
-0.995637, 59, 225, 74, 288
-0.995679, 105, 249, 120, 312
-0.995716, 149, 177, 180, 240
-0.995738, 337, 1, 400, 375
-0.995738, 191, 225, 206, 288
-0.995749, 417, 193, 432, 256
-0.995755, 181, 201, 196, 264
-0.995756, 229, 209, 260, 272
-0.995756, 113, 213, 240, 244
-0.995765, 433, 273, 496, 336
-0.995773, 161, 205, 288, 236
-0.995821, 429, 177, 444, 240
-0.995825, 49, 269, 176, 300
-0.995837, 173, 297, 204, 360
-0.995859, 139, 249, 154, 312
-0.995885, 157, 289, 188, 352
-0.995913, 113, 305, 240, 368
-0.995925, 465, 241, 496, 368
-0.995925, 125, 209, 140, 272
-0.995934, 253, 193, 284, 320
-0.995948, 417, 1, 480, 375
-0.995957, 437, 241, 468, 368
-0.995969, 113, 225, 128, 288
-0.995969, 241, 153, 304, 216
-0.99597, 1, 1, 64, 375
-0.995973, 351, 209, 366, 272
-0.995986, 129, 169, 384, 232
-0.995987, 49, 257, 176, 288
-0.995992, 353, 189, 480, 220
-0.995997, 85, 233, 100, 296
-0.996, 369, 213, 496, 244
-0.996034, 319, 193, 334, 256
-0.996055, 257, 229, 384, 260
-0.996055, 429, 249, 460, 312
-0.99608, 147, 249, 162, 312
-0.99609, 161, 177, 288, 208
-0.996109, 131, 209, 146, 272
-0.996136, 113, 113, 176, 240
-0.996145, 257, 345, 384, 375
-0.996155, 97, 225, 112, 288
-0.996159, 305, 229, 432, 260
-0.996169, 321, 65, 384, 320
-0.996195, 361, 209, 376, 272
-0.996201, 57, 1, 120, 375
-0.996205, 113, 201, 240, 232
-0.996206, 49, 169, 112, 232
-0.996216, 325, 201, 340, 264
-0.996256, 345, 233, 376, 296
-0.99627, 453, 257, 484, 320
-0.99628, 161, 193, 288, 224
-0.996283, 385, 193, 400, 256
-0.996284, 1, 241, 128, 272
-0.99629, 99, 249, 114, 312
-0.9963, 195, 265, 210, 328
-0.996307, 369, 153, 496, 216
-0.996309, 411, 193, 426, 256
-0.99634, 273, 249, 400, 312
-0.99634, 197, 201, 212, 264
-0.996341, 137, 209, 152, 272
-0.996343, 33, 169, 288, 232
-0.996354, 353, 253, 480, 284
-0.996357, 373, 217, 388, 280
-0.996372, 1, 225, 16, 288
-0.996375, 111, 249, 126, 312
-0.996423, 373, 193, 388, 256
-0.996426, 161, 145, 288, 208
-0.996433, 365, 129, 396, 256
-0.996439, 7, 225, 22, 288
-0.99644, 155, 209, 170, 272
-0.996465, 185, 113, 216, 240
-0.996468, 225, 205, 352, 236
-0.996486, 337, 313, 400, 375
-0.996493, 225, 193, 352, 224
-0.996498, 63, 249, 78, 312
-0.9965, 317, 225, 348, 352
-0.996526, 265, 313, 328, 375
-0.99654, 305, 169, 368, 232
-0.996548, 469, 209, 500, 272
-0.996564, 97, 277, 224, 308
-0.996568, 377, 209, 408, 336
-0.996574, 343, 225, 358, 288
-0.996577, 25, 129, 88, 375
-0.996602, 461, 177, 476, 240
-0.996602, 161, 345, 288, 375
-0.996609, 179, 177, 194, 240
-0.996614, 97, 261, 224, 292
-0.996627, 273, 225, 304, 288
-0.99664, 55, 201, 70, 264
-0.99665, 117, 249, 132, 312
-0.996656, 1, 257, 16, 320
-0.996679, 25, 1, 88, 375
-0.996708, 69, 249, 84, 312
-0.996715, 175, 201, 190, 264
-0.996728, 153, 233, 168, 296
-0.996734, 95, 201, 110, 264
-0.996743, 161, 129, 192, 256
-0.996759, 405, 177, 420, 240
-0.996762, 79, 249, 94, 312
-0.996762, 195, 169, 210, 232
-0.996763, 1, 281, 32, 344
-0.996782, 73, 201, 88, 264
-0.996795, 351, 185, 366, 248
-0.996802, 1, 177, 64, 240
-0.996814, 177, 229, 304, 260
-0.99682, 413, 217, 428, 280
-0.99682, 179, 225, 194, 288
-0.996821, 391, 177, 406, 240
-0.996832, 185, 169, 200, 232
-0.996859, 201, 265, 216, 328
-0.99687, 435, 185, 450, 248
-0.996871, 265, 209, 280, 272
-0.996881, 429, 201, 444, 264
-0.996893, 225, 161, 480, 224
-0.996893, 131, 273, 146, 336
-0.9969, 197, 241, 212, 304
-0.996909, 7, 249, 22, 312
-0.996913, 447, 177, 462, 240
-0.996917, 91, 249, 106, 312
-0.99694, 467, 185, 482, 248
-0.996947, 441, 177, 456, 240
-0.996979, 379, 193, 394, 256
-0.996981, 7, 193, 22, 256
-0.996988, 305, 341, 432, 372
-0.996991, 413, 241, 444, 368
-0.996993, 393, 265, 456, 328
-0.997026, 473, 185, 488, 248
-0.997043, 225, 1, 288, 375
-0.99705, 53, 225, 68, 288
-0.997063, 401, 201, 416, 264
-0.997072, 1, 205, 128, 236
-0.997101, 259, 201, 274, 264
-0.997111, 159, 265, 174, 328
-0.997117, 455, 193, 470, 256
-0.997126, 65, 185, 80, 248
-0.997136, 313, 185, 328, 248
-0.997137, 241, 169, 256, 232
-0.997141, 213, 169, 228, 232
-0.997151, 29, 161, 60, 288
-0.997158, 169, 201, 184, 264
-0.997161, 163, 193, 178, 256
-0.997171, 253, 193, 268, 256
-0.997176, 149, 209, 164, 272
-0.997206, 161, 289, 288, 352
-0.997216, 171, 265, 186, 328
-0.997229, 203, 177, 218, 240
-0.997235, 375, 205, 390, 236
-0.997245, 281, 177, 344, 240
-0.997255, 357, 185, 372, 248
-0.997257, 337, 225, 352, 288
-0.997261, 333, 185, 348, 248
-0.997266, 407, 217, 422, 280
-0.997271, 367, 217, 382, 280
-0.997286, 205, 113, 236, 240
-0.997313, 177, 313, 240, 375
-0.997315, 325, 225, 340, 288
-0.997317, 247, 177, 262, 240
-0.99732, 401, 113, 432, 240
-0.997333, 335, 213, 350, 244
-0.99734, 145, 241, 272, 272
-0.997364, 85, 265, 116, 328
-0.997365, 379, 217, 394, 280
-0.997366, 57, 249, 72, 312
-0.997367, 187, 209, 202, 240
-0.99738, 417, 169, 432, 232
-0.997386, 449, 241, 480, 368
-0.997396, 395, 217, 410, 280
-0.997398, 305, 245, 432, 276
-0.997398, 181, 265, 196, 328
-0.997402, 249, 65, 312, 320
-0.997405, 235, 169, 250, 232
-0.997409, 385, 153, 448, 216
-0.997415, 365, 205, 380, 236
-0.997427, 189, 265, 204, 328
-0.997468, 193, 145, 256, 208
-0.997469, 319, 217, 334, 280
-0.997472, 1, 201, 16, 264
-0.997475, 203, 201, 218, 264
-0.997477, 329, 169, 360, 232
-0.997486, 65, 197, 192, 228
-0.997488, 47, 209, 62, 272
-0.997488, 45, 257, 76, 320
-0.99749, 429, 161, 460, 224
-0.99749, 227, 169, 242, 232
-0.997493, 85, 185, 100, 248
-0.997497, 105, 225, 120, 288
-0.997514, 477, 161, 492, 224
-0.99753, 129, 153, 192, 216
-0.99754, 1, 273, 128, 304
-0.997548, 305, 201, 320, 264
-0.997567, 153, 185, 168, 248
-0.997571, 125, 273, 140, 336
-0.997604, 37, 225, 52, 288
-0.997611, 271, 201, 286, 264
-0.99762, 297, 1, 360, 375
-0.997622, 257, 1, 320, 375
-0.997623, 173, 241, 188, 304
-0.997632, 209, 345, 336, 375
-0.997637, 209, 313, 240, 375
-0.997643, 101, 257, 116, 288
-0.997646, 449, 305, 480, 368
-0.997654, 289, 177, 320, 304
-0.997654, 193, 313, 448, 375
-0.997663, 167, 241, 182, 304
-0.997673, 149, 273, 164, 336
-0.997688, 137, 273, 152, 336
-0.997697, 419, 201, 434, 232
-0.997704, 483, 185, 498, 248
-0.997709, 361, 225, 392, 352
-0.997712, 345, 153, 408, 216
-0.997719, 471, 249, 486, 312
-0.99772, 389, 205, 404, 236
-0.997721, 111, 261, 126, 292
-0.997738, 31, 225, 46, 288
-0.997738, 365, 169, 396, 232
-0.99774, 97, 273, 352, 336
-0.997743, 177, 217, 304, 248
-0.997743, 449, 113, 480, 240
-0.997745, 33, 297, 288, 360
-0.997758, 433, 201, 448, 232
-0.997763, 193, 241, 320, 272
-0.997781, 449, 233, 480, 296
-0.99779, 337, 241, 368, 368
-0.997791, 181, 229, 196, 260
-0.997792, 119, 201, 134, 264
-0.997793, 289, 189, 416, 220
-0.997796, 369, 337, 496, 368
-0.997819, 241, 241, 368, 272
-0.997828, 381, 213, 396, 244
-0.997831, 343, 225, 358, 256
-0.997837, 123, 253, 138, 284
-0.997844, 377, 169, 408, 232
-0.997847, 469, 305, 500, 368
-0.997856, 395, 205, 410, 236
-0.997861, 353, 213, 368, 244
-0.997875, 189, 229, 204, 260
-0.99789, 397, 225, 428, 288
-0.997891, 217, 113, 248, 240
-0.997894, 123, 209, 138, 240
-0.997929, 173, 113, 204, 240
-0.997934, 405, 201, 420, 232
-0.997938, 325, 225, 340, 256
-0.997957, 347, 213, 362, 244
-0.99797, 145, 261, 272, 292
-0.997978, 17, 297, 144, 360
-0.997984, 463, 201, 478, 232
-0.997994, 145, 229, 160, 260
-0.998, 189, 129, 220, 375
-0.998004, 113, 189, 240, 220
-0.99804, 315, 225, 330, 256
-0.998041, 125, 241, 140, 272
-0.998045, 133, 253, 148, 284
-0.998046, 473, 201, 488, 232
-0.998048, 193, 249, 448, 312
-0.99805, 341, 213, 356, 244
-0.99806, 245, 225, 276, 288
-0.998061, 421, 185, 436, 216
-0.998065, 153, 129, 184, 375
-0.998069, 341, 201, 356, 232
-0.99807, 197, 289, 228, 352
-0.998072, 375, 217, 390, 248
-0.998079, 273, 233, 288, 264
-0.998082, 123, 221, 138, 252
-0.998083, 383, 197, 398, 228
-0.998106, 365, 217, 380, 248
-0.998113, 401, 213, 416, 244
-0.998122, 129, 297, 256, 328
-0.998124, 415, 213, 430, 244
-0.998124, 411, 193, 426, 224
-0.998139, 451, 201, 466, 232
-0.998144, 129, 273, 144, 304
-0.998146, 81, 289, 208, 320
-0.998153, 337, 289, 464, 352
-0.99816, 181, 217, 196, 248
-0.99817, 87, 213, 102, 244
-0.998175, 285, 225, 316, 288
-0.99818, 87, 229, 102, 260
-0.998184, 443, 185, 458, 216
-0.998196, 353, 241, 480, 272
-0.998207, 123, 273, 138, 304
-0.998214, 439, 197, 454, 228
-0.998224, 117, 273, 132, 304
-0.998228, 67, 213, 82, 244
-0.998249, 463, 189, 478, 220
-0.998258, 355, 201, 370, 232
-0.998261, 369, 265, 496, 296
-0.998264, 425, 205, 440, 236
-0.998266, 145, 273, 272, 304
-0.998285, 323, 213, 338, 244
-0.998296, 337, 225, 352, 256
-0.9983, 161, 313, 288, 375
-0.9983, 99, 217, 114, 248
-0.998309, 101, 129, 132, 375
-0.998313, 335, 201, 350, 232
-0.99832, 457, 201, 472, 232
-0.998323, 389, 217, 404, 248
-0.998324, 409, 213, 424, 244
-0.998326, 145, 213, 160, 244
-0.998329, 189, 355, 220, 370
-0.998329, 313, 199, 344, 214
-0.998329, 101, 239, 132, 254
-0.998329, 209, 357, 240, 372
-0.998331, 353, 325, 480, 356
-0.998332, 189, 281, 220, 296
-0.998333, 469, 201, 500, 216
-0.998333, 401, 191, 432, 206
-0.998333, 189, 225, 220, 240
-0.998335, 45, 255, 76, 270
-0.998336, 1, 233, 32, 248
-0.998337, 97, 211, 128, 226
-0.998338, 165, 227, 196, 242
-0.998339, 93, 271, 124, 286
-0.99834, 149, 249, 180, 264
-0.99834, 337, 203, 368, 218
-0.99834, 245, 205, 276, 220
-0.998341, 225, 181, 352, 212
-0.998342, 353, 225, 480, 256
-0.998342, 417, 185, 448, 200
-0.998343, 1, 201, 32, 216
-0.998343, 469, 271, 500, 286
-0.998343, 189, 349, 220, 364
-0.998343, 353, 177, 480, 208
-0.998346, 389, 221, 420, 236
-0.998346, 301, 233, 332, 248
-0.998346, 373, 223, 404, 238
-0.998347, 77, 213, 108, 228
-0.998347, 347, 197, 362, 228
-0.998347, 289, 347, 320, 362
-0.998347, 199, 273, 214, 304
-0.998349, 169, 277, 200, 292
-0.998349, 105, 229, 136, 244
-0.99835, 109, 207, 140, 222
-0.998351, 413, 201, 444, 216
-0.998352, 437, 195, 468, 210
-0.998352, 121, 237, 152, 252
-0.998352, 165, 221, 196, 236
-0.998353, 463, 213, 478, 244
-0.998354, 353, 199, 384, 214
-0.998354, 385, 189, 416, 204
-0.998355, 185, 201, 216, 216
-0.998355, 425, 327, 456, 342
-0.998356, 155, 229, 170, 260
-0.998357, 61, 253, 92, 268
-0.998357, 277, 355, 308, 370
-0.998358, 93, 223, 124, 238
-0.998358, 189, 231, 220, 246
-0.998359, 133, 297, 164, 312
-0.998359, 449, 195, 480, 210
-0.998359, 189, 335, 220, 350
-0.998359, 425, 215, 456, 230
-0.99836, 337, 257, 400, 320
-0.99836, 401, 199, 432, 214
-0.998361, 389, 203, 420, 218
-0.998362, 137, 275, 168, 290
-0.998362, 177, 215, 208, 230
-0.998363, 325, 197, 340, 228
-0.998363, 149, 241, 180, 256
-0.998363, 113, 153, 240, 216
-0.998364, 149, 201, 180, 216
-0.998365, 109, 273, 124, 304
-0.998367, 129, 211, 160, 226
-0.998368, 457, 213, 488, 228
-0.998368, 205, 293, 236, 308
-0.998369, 401, 185, 432, 200
-0.998369, 431, 189, 446, 220
-0.99837, 133, 239, 164, 254
-0.998371, 349, 225, 380, 240
-0.998374, 333, 209, 364, 224
-0.998374, 177, 241, 208, 256
-0.998374, 61, 231, 92, 246
-0.998374, 417, 193, 448, 208
-0.998375, 325, 235, 356, 250
-0.998376, 225, 175, 256, 190
-0.998378, 157, 279, 188, 294
-0.998379, 313, 217, 344, 232
-0.998379, 453, 267, 484, 282
-0.99838, 121, 227, 152, 242
-0.998381, 173, 297, 204, 312
-0.998386, 133, 229, 164, 244
-0.998386, 149, 227, 180, 242
-0.998388, 101, 245, 116, 276
-0.998388, 1, 197, 16, 228
-0.998389, 181, 275, 212, 290
-0.99839, 137, 245, 168, 260
-0.998391, 129, 251, 160, 266
-0.998391, 101, 249, 132, 264
-0.998392, 273, 349, 304, 364
-0.998395, 117, 253, 132, 284
-0.998395, 81, 253, 112, 268
-0.998396, 115, 217, 130, 248
-0.998397, 437, 211, 468, 226
-0.998398, 249, 241, 280, 256
-0.998398, 109, 261, 140, 276
-0.998399, 173, 209, 204, 224
-0.998399, 365, 203, 396, 218
-0.998399, 401, 217, 432, 232
-0.9984, 403, 249, 418, 280
-0.998403, 257, 355, 288, 370
-0.998404, 457, 213, 472, 244
-0.998405, 7, 201, 22, 232
-0.998405, 165, 203, 196, 218
-0.998411, 241, 357, 272, 372
-0.998413, 257, 349, 288, 364
-0.998414, 417, 257, 448, 272
-0.998414, 361, 209, 424, 224
-0.998414, 89, 259, 120, 274
-0.998416, 73, 231, 104, 246
-0.998416, 185, 209, 216, 224
-0.998417, 177, 221, 208, 236
-0.998419, 117, 213, 148, 228
-0.998419, 445, 261, 476, 276
-0.99842, 177, 229, 208, 244
-0.998421, 485, 193, 500, 224
-0.998421, 275, 345, 290, 375
-0.998421, 185, 293, 216, 308
-0.998422, 361, 221, 392, 236
-0.998422, 221, 355, 252, 370
-0.998422, 399, 193, 414, 224
-0.998423, 465, 113, 496, 240
-0.998423, 349, 205, 380, 220
-0.998424, 145, 299, 176, 314
-0.998424, 457, 201, 488, 216
-0.998424, 313, 237, 344, 252
-0.998425, 385, 215, 416, 230
-0.998426, 393, 207, 456, 222
-0.998426, 161, 281, 176, 312
-0.998427, 121, 245, 152, 260
-0.998429, 187, 197, 202, 228
-0.998429, 73, 213, 88, 244
-0.99843, 113, 255, 144, 270
-0.998436, 109, 267, 140, 282
-0.998437, 441, 201, 472, 216
-0.998437, 179, 197, 194, 228
-0.998439, 433, 261, 464, 276
-0.998441, 177, 277, 192, 308
-0.998441, 147, 285, 162, 316
-0.998444, 131, 241, 146, 272
-0.998446, 199, 261, 214, 292
-0.998446, 313, 225, 344, 240
-0.998447, 449, 207, 480, 222
-0.998448, 461, 233, 492, 296
-0.998453, 187, 289, 202, 320
-0.998455, 113, 341, 240, 372
-0.998455, 425, 209, 456, 224
-0.998455, 81, 233, 96, 264
-0.998457, 237, 351, 268, 366
-0.998458, 413, 213, 444, 228
-0.998459, 161, 297, 192, 312
-0.998461, 479, 193, 494, 224
-0.998462, 93, 221, 108, 252
-0.998462, 349, 219, 380, 234
-0.998462, 417, 207, 480, 222
-0.998464, 329, 215, 360, 230
-0.998464, 81, 213, 96, 244
-0.998466, 181, 293, 196, 324
-0.99847, 197, 209, 212, 240
-0.998472, 373, 215, 404, 230
-0.998475, 359, 221, 374, 252
-0.998478, 261, 237, 292, 252
-0.99848, 105, 213, 168, 228
-0.998483, 329, 213, 344, 244
-0.998486, 153, 201, 168, 232
-0.99849, 109, 273, 140, 288
-0.998492, 89, 247, 152, 262
-0.998492, 321, 213, 384, 228
-0.998493, 65, 229, 80, 260
-0.998494, 267, 225, 282, 256
-0.998494, 315, 193, 330, 224
-0.9985, 81, 223, 144, 238
-0.9985, 193, 273, 208, 304
-0.998501, 57, 253, 120, 268
-0.998501, 109, 185, 140, 248
-0.998503, 361, 215, 392, 230
-0.998506, 1, 169, 500, 232
-0.998506, 329, 223, 360, 238
-0.998508, 145, 225, 208, 240
-0.998512, 253, 197, 268, 228
-0.998512, 95, 241, 110, 272
-0.998513, 49, 231, 112, 246
-0.998516, 153, 281, 168, 312
-0.998522, 213, 225, 244, 288
-0.998524, 313, 213, 328, 244
-0.998531, 225, 353, 288, 368
-0.998531, 329, 229, 360, 244
-0.998532, 439, 257, 454, 288
-0.998533, 305, 229, 368, 244
-0.998534, 137, 233, 152, 264
-0.998534, 137, 203, 200, 218
-0.998534, 117, 237, 132, 268
-0.998534, 225, 333, 352, 364
-0.998534, 195, 229, 210, 260
-0.998535, 289, 313, 352, 375
-0.998536, 97, 217, 128, 232
-0.998539, 81, 229, 144, 244
-0.998539, 429, 203, 460, 218
-0.998542, 469, 207, 500, 222
-0.998543, 161, 333, 288, 364
-0.998543, 367, 193, 382, 224
-0.998543, 449, 257, 464, 288
-0.998544, 61, 213, 76, 244
-0.998545, 353, 215, 416, 230
-0.998547, 401, 205, 432, 220
-0.998547, 117, 197, 132, 228
-0.998547, 313, 221, 376, 236
-0.998548, 313, 235, 376, 250
-0.998555, 265, 231, 328, 246
-0.998555, 145, 243, 208, 258
-0.998557, 313, 231, 344, 246
-0.998557, 81, 215, 144, 230
-0.99856, 121, 239, 184, 254
-0.998561, 305, 257, 432, 288
-0.998563, 105, 229, 168, 244
-0.998565, 401, 259, 464, 274
-0.998565, 131, 209, 146, 240
-0.998566, 97, 253, 160, 268
-0.998567, 425, 213, 488, 228
-0.998568, 385, 213, 448, 228
-0.998569, 283, 345, 298, 375
-0.998569, 377, 193, 392, 224
-0.998572, 397, 211, 428, 226
-0.998572, 105, 221, 168, 236
-0.998573, 469, 189, 484, 220
-0.998574, 353, 203, 416, 218
-0.998577, 81, 275, 144, 290
-0.998577, 165, 129, 196, 375
-0.998577, 121, 247, 184, 262
-0.998577, 289, 235, 352, 250
-0.998578, 203, 285, 218, 316
-0.998579, 57, 217, 120, 232
-0.99858, 153, 295, 216, 310
-0.998581, 191, 241, 206, 272
-0.998582, 185, 355, 248, 370
-0.998582, 81, 237, 144, 252
-0.998583, 139, 285, 154, 316
-0.998583, 177, 209, 240, 224
-0.998583, 49, 225, 112, 240
-0.998584, 331, 233, 346, 264
-0.998585, 137, 209, 200, 224
-0.998585, 397, 181, 412, 212
-0.998587, 381, 209, 412, 224
-0.998587, 265, 355, 328, 370
-0.998589, 137, 219, 200, 234
-0.998591, 349, 213, 380, 228
-0.998591, 249, 349, 312, 364
-0.998591, 67, 253, 82, 284
-0.998592, 417, 201, 480, 216
-0.998592, 377, 201, 440, 216
-0.998594, 417, 265, 480, 280
-0.998595, 329, 227, 392, 242
-0.998598, 413, 207, 444, 222
-0.998599, 247, 185, 262, 216
-0.998603, 121, 271, 184, 286
-0.998606, 171, 289, 186, 320
-0.998607, 129, 279, 192, 294
-0.998609, 321, 205, 384, 220
-0.998609, 207, 265, 222, 296
-0.998609, 153, 277, 216, 292
-0.99861, 409, 181, 424, 212
-0.998612, 361, 221, 424, 236
-0.998612, 147, 245, 162, 276
-0.998613, 241, 241, 304, 256
-0.998613, 369, 209, 400, 224
-0.998614, 169, 197, 232, 212
-0.998615, 145, 231, 208, 246
-0.998616, 65, 259, 128, 274
-0.998616, 217, 359, 280, 374
-0.99862, 265, 237, 328, 252
-0.99862, 145, 237, 208, 252
-0.998623, 257, 225, 320, 240
-0.998623, 105, 277, 168, 292
-0.998624, 479, 205, 494, 236
-0.998625, 425, 259, 488, 274
-0.998626, 369, 195, 432, 210
-0.998628, 185, 349, 248, 364
-0.998628, 313, 237, 328, 268
-0.998629, 377, 261, 440, 276
-0.99863, 175, 209, 190, 240
-0.998633, 395, 245, 410, 276
-0.998636, 307, 225, 322, 256
-0.998638, 105, 207, 168, 222
-0.998638, 97, 261, 160, 276
-0.998639, 393, 193, 456, 208
-0.998639, 65, 269, 128, 284
-0.99864, 129, 297, 192, 312
-0.99864, 369, 251, 432, 266
-0.99864, 57, 245, 120, 260
-0.998641, 225, 235, 288, 250
-0.998643, 57, 237, 120, 252
-0.998646, 201, 175, 264, 190
-0.998646, 177, 221, 240, 236
-0.998647, 155, 217, 170, 248
-0.998649, 353, 231, 416, 246
-0.99865, 1, 257, 64, 272
-0.998651, 409, 331, 472, 346
-0.998652, 185, 241, 248, 256
-0.998652, 177, 203, 240, 218
-0.998653, 281, 225, 344, 240
-0.998653, 233, 129, 296, 256
-0.998656, 217, 205, 280, 220
-0.998656, 145, 249, 208, 264
-0.998657, 81, 209, 144, 224
-0.998659, 97, 267, 160, 282
-0.998659, 25, 255, 88, 270
-0.99866, 289, 347, 352, 362
-0.998661, 177, 297, 240, 312
-0.998664, 57, 209, 120, 224
-0.998664, 233, 229, 296, 244
-0.998667, 177, 231, 240, 246
-0.998668, 297, 203, 360, 218
-0.99867, 369, 341, 432, 356
-0.99867, 297, 211, 360, 226
-0.998671, 393, 187, 456, 202
-0.998672, 145, 165, 272, 196
-0.998673, 121, 253, 184, 268
-0.998673, 169, 179, 232, 194
-0.998675, 145, 197, 208, 212
-0.998675, 241, 359, 304, 374
-0.998675, 393, 219, 456, 234
-0.998676, 337, 221, 400, 236
-0.998677, 417, 219, 480, 234
-0.998678, 209, 197, 272, 212
-0.998681, 273, 219, 336, 234
-0.998681, 1, 233, 64, 248
-0.998684, 81, 201, 144, 216
-0.998685, 177, 215, 240, 230
-0.998689, 345, 253, 408, 268
-0.998691, 169, 271, 232, 286
-0.998693, 313, 345, 376, 360
-0.998694, 257, 211, 320, 226
-0.998694, 161, 345, 224, 360
-0.998694, 409, 271, 472, 286
-0.998695, 345, 343, 408, 358
-0.998697, 369, 189, 432, 204
-0.998698, 433, 271, 496, 286
-0.998699, 1, 209, 64, 224
-0.9987, 17, 227, 80, 242
-0.998701, 161, 351, 224, 366
-0.998701, 121, 291, 184, 306
-0.998702, 233, 247, 296, 262
-0.998702, 1, 287, 64, 302
-0.998702, 297, 241, 360, 256
-0.998703, 145, 285, 272, 316
-0.998705, 297, 197, 360, 212
-0.998705, 225, 347, 288, 362
-0.998706, 25, 233, 88, 248
-0.998706, 153, 283, 216, 298
-0.998707, 369, 183, 432, 198
-0.998707, 177, 247, 240, 262
-0.998708, 153, 289, 216, 304
-0.998709, 329, 243, 392, 258
-0.998714, 33, 185, 64, 248
-0.998736, 81, 145, 112, 272
-0.998752, 225, 145, 352, 208
-0.99878, 129, 129, 160, 375
-0.998797, 305, 225, 336, 352
-0.99881, 141, 129, 172, 375
-0.998817, 113, 129, 144, 375
-0.998823, 1, 193, 128, 224
-0.998894, 401, 153, 432, 216
-0.998908, 433, 129, 464, 256
-0.99891, 221, 225, 252, 352
-0.998937, 433, 129, 464, 375
-0.998941, 145, 209, 160, 336
-0.998948, 333, 241, 364, 304
-0.99896, 297, 225, 328, 288
-0.998993, 289, 65, 352, 320
-0.999, 189, 193, 204, 320
-0.999005, 85, 193, 100, 320
-0.999009, 193, 253, 320, 284
-0.99902, 73, 129, 104, 375
-0.999025, 89, 129, 120, 375
-0.999047, 33, 285, 160, 316
-0.999054, 161, 153, 192, 216
-0.999061, 225, 313, 288, 375
-0.999071, 281, 145, 344, 272
-0.999081, 95, 193, 110, 320
-0.999092, 1, 225, 16, 352
-0.999095, 413, 129, 444, 375
-0.999098, 125, 193, 140, 320
-0.999108, 153, 193, 168, 320
-0.99911, 397, 161, 412, 288
-0.99912, 7, 177, 22, 304
-0.99912, 457, 129, 488, 375
-0.999121, 183, 193, 198, 320
-0.999129, 273, 329, 400, 360
-0.999138, 113, 193, 128, 320
-0.999139, 135, 193, 150, 320
-0.999161, 221, 129, 252, 375
-0.999173, 337, 129, 368, 256
-0.999175, 423, 161, 438, 288
-0.999177, 67, 177, 82, 304
-0.999188, 313, 129, 344, 256
-0.999193, 197, 161, 212, 288
-0.999193, 59, 209, 74, 336
-0.999203, 77, 225, 92, 352
-0.999212, 119, 209, 134, 336
-0.999221, 201, 145, 232, 208
-0.999221, 65, 225, 80, 352
-0.999226, 445, 129, 476, 375
-0.999235, 365, 177, 380, 304
-0.999237, 209, 97, 240, 352
-0.999242, 71, 225, 86, 352
-0.999254, 17, 161, 48, 288
-0.99926, 7, 225, 22, 352
-0.999264, 101, 241, 116, 368
-0.999267, 191, 145, 206, 272
-0.999279, 5, 129, 36, 375
-0.999283, 1, 177, 16, 304
-0.999291, 113, 177, 240, 208
-0.999292, 101, 193, 116, 320
-0.999301, 189, 313, 220, 375
-0.999304, 385, 161, 400, 288
-0.999308, 179, 145, 194, 272
-0.999315, 81, 301, 208, 332
-0.999316, 159, 209, 174, 336
-0.999317, 173, 193, 188, 320
-0.999317, 391, 161, 406, 288
-0.999323, 79, 177, 94, 304
-0.999323, 431, 177, 446, 304
-0.999341, 321, 97, 448, 224
-0.999346, 167, 177, 182, 304
-0.999348, 239, 161, 254, 288
-0.999351, 197, 241, 212, 368
-0.999351, 315, 177, 330, 304
-0.999361, 233, 161, 248, 288
-0.999361, 43, 209, 58, 336
-0.999364, 213, 161, 228, 288
-0.999367, 281, 241, 344, 368
-0.999371, 375, 177, 390, 304
-0.999372, 65, 185, 192, 216
-0.999376, 209, 97, 336, 224
-0.999377, 469, 129, 500, 375
-0.999379, 223, 161, 238, 288
-0.999379, 73, 177, 88, 304
-0.999382, 439, 161, 454, 288
-0.999383, 125, 241, 140, 368
-0.999387, 107, 193, 122, 320
-0.999391, 327, 161, 342, 288
-0.999392, 351, 177, 366, 304
-0.999396, 225, 169, 352, 200
-0.999402, 245, 161, 260, 288
-0.999404, 107, 241, 122, 368
-0.999412, 417, 161, 432, 288
-0.999412, 153, 145, 168, 272
-0.999413, 53, 209, 68, 336
-0.999413, 357, 193, 372, 320
-0.999415, 29, 209, 44, 336
-0.999415, 203, 161, 218, 288
-0.999418, 395, 209, 410, 336
-0.99942, 447, 177, 462, 304
-0.999423, 471, 161, 486, 288
-0.999436, 37, 209, 52, 336
-0.999439, 403, 177, 418, 304
-0.999447, 139, 241, 154, 368
-0.999451, 87, 241, 102, 368
-0.999451, 463, 177, 478, 304
-0.999462, 17, 209, 32, 336
-0.999463, 411, 161, 426, 288
-0.999467, 133, 241, 148, 368
-0.999473, 185, 145, 200, 272
-0.999475, 177, 129, 208, 375
-0.999475, 23, 209, 38, 336
-0.999481, 187, 241, 202, 368
-0.999484, 343, 161, 358, 288
-0.999487, 439, 241, 454, 368
-0.999489, 143, 161, 158, 288
-0.999505, 95, 241, 110, 368
-0.999507, 321, 177, 336, 304
-0.999509, 161, 161, 176, 288
-0.999509, 313, 129, 344, 375
-0.999512, 241, 241, 368, 368
-0.999532, 417, 33, 480, 288
-0.999534, 369, 277, 496, 308
-0.999534, 333, 129, 364, 375
-0.999535, 337, 177, 352, 304
-0.999538, 171, 241, 186, 368
-0.999544, 213, 249, 244, 312
-0.999546, 445, 193, 460, 208
-0.999546, 427, 203, 442, 218
-0.999547, 197, 205, 212, 220
-0.999547, 115, 255, 130, 270
-0.999548, 201, 293, 216, 308
-0.999548, 477, 177, 492, 304
-0.999549, 103, 215, 118, 230
-0.999549, 165, 225, 180, 352
-0.999549, 375, 231, 390, 246
-0.999551, 137, 253, 152, 268
-0.999551, 81, 231, 96, 246
-0.999551, 281, 355, 296, 370
-0.999552, 257, 355, 272, 370
-0.999553, 109, 145, 140, 272
-0.999554, 179, 209, 194, 224
-0.999554, 163, 297, 178, 312
-0.999554, 365, 201, 380, 216
-0.999555, 401, 257, 416, 272
-0.999555, 465, 269, 480, 284
-0.999556, 203, 241, 218, 368
-0.999557, 135, 281, 150, 296
-0.999557, 145, 243, 160, 258
-0.999557, 463, 213, 478, 228
-0.999557, 163, 201, 178, 216
-0.999558, 381, 223, 396, 238
-0.999559, 153, 241, 168, 368
-0.999559, 143, 211, 158, 226
-0.99956, 399, 217, 414, 232
-0.99956, 95, 249, 110, 264
-0.999561, 471, 201, 486, 216
-0.999561, 423, 255, 438, 270
-0.999561, 95, 227, 110, 242
-0.999562, 5, 207, 20, 222
-0.999562, 253, 177, 268, 304
-0.999563, 463, 129, 478, 256
-0.999563, 109, 275, 124, 290
-0.999564, 389, 203, 404, 218
-0.999564, 175, 277, 190, 292
-0.999564, 343, 229, 358, 244
-0.999566, 145, 233, 160, 248
-0.999566, 431, 263, 446, 278
-0.999566, 327, 211, 342, 226
-0.999567, 325, 223, 340, 238
-0.999568, 177, 297, 192, 312
-0.999568, 431, 225, 446, 352
-0.999569, 351, 211, 366, 226
-0.999569, 415, 211, 430, 226
-0.999569, 433, 197, 448, 212
-0.999571, 189, 295, 204, 310
-0.999571, 471, 241, 486, 368
-0.999572, 271, 243, 286, 258
-0.999572, 149, 297, 164, 312
-0.999573, 439, 205, 454, 220
-0.999574, 393, 217, 408, 232
-0.999575, 373, 221, 388, 236
-0.999576, 335, 227, 350, 242
-0.999576, 229, 353, 244, 368
-0.999577, 129, 275, 144, 290
-0.999577, 197, 273, 212, 288
-0.999579, 113, 217, 128, 232
-0.99958, 447, 261, 462, 276
-0.99958, 335, 213, 350, 228
-0.999581, 133, 247, 148, 262
-0.999581, 323, 217, 338, 232
-0.999581, 275, 349, 290, 364
-0.999582, 265, 237, 280, 252
-0.999583, 125, 255, 140, 270
-0.999583, 309, 193, 324, 320
-0.999584, 241, 351, 256, 366
-0.999585, 407, 253, 422, 268
-0.999585, 171, 295, 186, 310
-0.999586, 277, 239, 292, 254
-0.999586, 207, 295, 222, 310
-0.999586, 455, 263, 470, 278
-0.999586, 153, 227, 168, 242
-0.999587, 131, 253, 146, 268
-0.999587, 275, 357, 290, 372
-0.999587, 301, 129, 332, 256
-0.999588, 405, 217, 420, 232
-0.999589, 97, 217, 112, 232
-0.99959, 421, 201, 436, 216
-0.99959, 455, 207, 470, 222
-0.999591, 113, 241, 128, 368
-0.999591, 281, 349, 296, 364
-0.999591, 389, 209, 404, 336
-0.999591, 357, 219, 372, 234
-0.999591, 317, 225, 332, 240
-0.999592, 187, 215, 202, 230
-0.999592, 269, 351, 284, 366
-0.999594, 423, 213, 438, 228
-0.999595, 247, 351, 262, 366
-0.999596, 123, 225, 138, 240
-0.999597, 485, 205, 500, 220
-0.999602, 181, 227, 196, 242
-0.999602, 55, 161, 70, 288
-0.999603, 61, 161, 76, 288
-0.999606, 395, 205, 410, 220
-0.999606, 179, 203, 194, 218
-0.999607, 235, 355, 250, 370
-0.999607, 179, 221, 194, 236
-0.999608, 365, 207, 380, 222
-0.999609, 119, 161, 134, 288
-0.999609, 329, 229, 344, 244
-0.999609, 157, 299, 172, 314
-0.99961, 407, 211, 422, 226
-0.99961, 123, 213, 138, 228
-0.99961, 81, 165, 208, 196
-0.99961, 439, 259, 454, 274
-0.999613, 117, 273, 132, 288
-0.999613, 443, 199, 458, 214
-0.999613, 405, 205, 420, 220
-0.999614, 385, 215, 400, 230
-0.999615, 311, 231, 326, 246
-0.999615, 187, 221, 202, 236
-0.999616, 271, 237, 286, 252
-0.999618, 183, 297, 198, 312
-0.999619, 357, 207, 372, 222
-0.999619, 87, 231, 102, 246
-0.999619, 473, 207, 488, 222
-0.999623, 233, 233, 264, 296
-0.999623, 233, 129, 264, 375
-0.999626, 415, 205, 430, 220
-0.999627, 327, 235, 342, 250
-0.999627, 455, 201, 470, 216
-0.999628, 321, 153, 448, 216
-0.999629, 123, 273, 138, 288
-0.999632, 343, 217, 358, 232
-0.999632, 93, 145, 108, 272
-0.999636, 351, 217, 366, 232
-0.999638, 333, 221, 348, 236
-0.999641, 103, 259, 118, 274
-0.999642, 193, 281, 320, 312
-0.999643, 433, 203, 448, 218
-0.999649, 5, 201, 20, 216
-0.99965, 189, 231, 204, 246
-0.999651, 463, 207, 478, 222
-0.999651, 457, 161, 472, 288
-0.999652, 421, 209, 436, 336
-0.999654, 381, 209, 396, 224
-0.999656, 477, 129, 492, 256
-0.99966, 87, 145, 102, 272
-0.99966, 113, 329, 240, 360
-0.99966, 177, 241, 192, 368
-0.999662, 303, 177, 318, 304
-0.999666, 401, 211, 416, 226
-0.999667, 203, 113, 218, 240
-0.999667, 375, 215, 390, 230
-0.999668, 375, 129, 390, 256
-0.999669, 111, 267, 126, 282
-0.999674, 357, 213, 372, 228
-0.999677, 377, 129, 408, 375
-0.999684, 383, 209, 398, 336
-0.999685, 317, 231, 332, 246
-0.999686, 477, 241, 492, 368
-0.999687, 403, 225, 418, 352
-0.999689, 125, 247, 140, 262
-0.999691, 61, 129, 92, 375
-0.999694, 369, 225, 384, 352
-0.999695, 365, 219, 380, 234
-0.999695, 323, 229, 338, 244
-0.999696, 431, 209, 446, 224
-0.999699, 329, 209, 344, 336
-0.999701, 209, 241, 224, 368
-0.999703, 357, 129, 372, 256
-0.999706, 451, 129, 466, 256
-0.999707, 371, 209, 386, 224
-0.999711, 49, 129, 80, 375
-0.999711, 423, 113, 438, 240
-0.999713, 187, 209, 202, 224
-0.999721, 197, 113, 212, 240
-0.999726, 213, 113, 228, 240
-0.999726, 429, 129, 444, 256
-0.999726, 43, 161, 58, 288
-0.999727, 387, 209, 402, 224
-0.999728, 405, 129, 420, 256
-0.999732, 485, 161, 500, 288
-0.999733, 469, 113, 484, 240
-0.999733, 49, 161, 64, 288
-0.999733, 395, 211, 410, 226
-0.999735, 445, 241, 460, 368
-0.999738, 343, 241, 358, 368
-0.999741, 133, 145, 148, 272
-0.999741, 173, 145, 188, 272
-0.999742, 465, 241, 480, 368
-0.999745, 321, 313, 352, 375
-0.999747, 267, 193, 282, 320
-0.99975, 125, 145, 140, 272
-0.999752, 137, 297, 168, 360
-0.999756, 13, 161, 28, 288
-0.999756, 421, 207, 436, 222
-0.999758, 369, 165, 496, 196
-0.99976, 113, 145, 128, 272
-0.999761, 367, 129, 382, 256
-0.999761, 413, 241, 428, 368
-0.999765, 417, 153, 448, 216
-0.999766, 321, 269, 448, 300
-0.999769, 167, 129, 182, 256
-0.999785, 1, 297, 64, 360
-0.999793, 273, 177, 400, 208
-0.999801, 437, 313, 468, 375
-0.999818, 389, 161, 420, 224
-0.99982, 363, 213, 378, 228
-0.999827, 33, 301, 160, 332
-0.999827, 365, 129, 396, 375
-0.999829, 353, 65, 384, 320
-0.999842, 401, 129, 432, 375
-0.99985, 369, 153, 496, 184
-0.99987, 389, 129, 420, 375
-0.999894, 257, 253, 384, 284
-0.999897, 177, 297, 304, 328
-0.999908, 193, 321, 320, 352
-0.999912, 1, 273, 500, 336
-0.99992, 1, 297, 500, 360
-1.00007, 37, 129, 68, 375
-1.00007, 353, 313, 480, 344
-1.00008, 201, 33, 264, 288
-1.00009, 65, 345, 192, 375
-1.00011, 193, 265, 320, 296
-1.00012, 393, 289, 456, 352
-1.00014, 17, 129, 48, 375
-1.00014, 225, 157, 352, 188
-1.00016, 301, 65, 332, 320
-1.00017, 173, 33, 204, 288
-1.00017, 245, 65, 276, 320
-1.00019, 225, 129, 288, 375
-1.00021, 449, 33, 480, 288
-1.00023, 421, 33, 452, 288
-1.00024, 461, 33, 492, 288
-1.00026, 1, 145, 256, 208
-1.00026, 169, 33, 232, 288
-1.00027, 161, 33, 192, 288
-1.00027, 1, 113, 128, 240
-1.00028, 97, 33, 160, 288
-1.00028, 141, 33, 172, 288
-1.00029, 257, 65, 288, 320
-1.0003, 329, 33, 360, 288
-1.00031, 221, 33, 252, 288
-1.00031, 101, 33, 132, 288
-1.00032, 41, 297, 104, 360
-1.00035, 193, 33, 224, 288
-1.00035, 113, 317, 240, 348
-1.00035, 437, 33, 468, 288
-1.00037, 305, 317, 432, 348
-1.00038, 233, 33, 264, 288
-1.00039, 389, 241, 420, 368
-1.00039, 353, 141, 480, 172
-1.0004, 289, 273, 416, 336
-1.00041, 381, 33, 412, 288
-1.00041, 401, 33, 432, 288
-1.00044, 369, 289, 496, 320
-1.00046, 313, 33, 344, 288
-1.0005, 229, 113, 260, 240
-1.00051, 161, 153, 288, 184
-1.00052, 113, 129, 240, 192
-1.00054, 97, 153, 224, 184
-1.00056, 369, 301, 496, 332
-1.00056, 321, 165, 448, 196
-1.00058, 365, 33, 396, 288
-1.00058, 289, 65, 320, 320
-1.00061, 125, 33, 156, 288
-1.00061, 205, 1, 236, 256
-1.00065, 305, 285, 432, 316
-1.00065, 257, 289, 500, 352
-1.00067, 65, 329, 192, 360
-1.0007, 161, 81, 416, 208
-1.00071, 353, 129, 480, 192
-1.00072, 1, 181, 128, 212
-1.00072, 245, 129, 276, 256
-1.00072, 1, 313, 128, 344
-1.00073, 273, 273, 400, 304
-1.00075, 65, 305, 192, 368
-1.00079, 85, 33, 116, 288
-1.00079, 5, 33, 36, 288
-1.0008, 73, 33, 104, 288
-1.00081, 321, 301, 448, 332
-1.00081, 269, 65, 300, 320
-1.00082, 341, 33, 372, 288
-1.00083, 1, 325, 128, 356
-1.00084, 193, 309, 320, 340
-1.00086, 265, 177, 296, 304
-1.00087, 241, 289, 368, 320
-1.0009, 113, 33, 144, 288
-1.00092, 193, 137, 448, 200
-1.00092, 273, 165, 400, 196
-1.00095, 49, 317, 176, 348
-1.00098, 33, 165, 160, 196
-1.00099, 129, 141, 256, 172
-1.00099, 121, 33, 184, 288
-1.001, 49, 149, 176, 180
-1.001, 49, 33, 80, 288
-1.001, 321, 153, 448, 184
-1.00101, 1, 337, 128, 368
-1.00102, 273, 301, 400, 332
-1.00105, 209, 141, 336, 172
-1.00106, 369, 121, 496, 152
-1.00106, 29, 1, 60, 256
-1.00106, 257, 317, 384, 348
-1.00106, 65, 137, 192, 168
-1.00107, 129, 117, 256, 148
-1.00107, 177, 117, 304, 148
-1.00107, 225, 117, 352, 148
-1.00107, 273, 121, 400, 152
-1.00107, 321, 121, 448, 152
-1.00107, 65, 125, 192, 156
-1.00107, 17, 129, 144, 160
-1.00107, 113, 129, 240, 160
-1.00107, 161, 129, 288, 160
-1.00107, 209, 129, 336, 160
-1.00107, 257, 133, 384, 164
-1.00107, 305, 133, 432, 164
-1.00107, 1, 141, 128, 172
-1.00107, 273, 145, 400, 176
-1.00107, 1, 153, 128, 184
-1.00109, 17, 33, 48, 288
-1.00114, 241, 273, 368, 336
-1.00117, 61, 33, 92, 288
-1.00121, 141, 113, 172, 240
-1.00123, 377, 33, 440, 288
-1.00132, 65, 65, 320, 192
-1.00133, 349, 241, 380, 368
-1.00145, 105, 161, 168, 224
-1.00158, 145, 33, 208, 288
-1.0017, 233, 225, 264, 352
-1.00171, 409, 129, 472, 192
-1.00175, 277, 177, 308, 304
-1.00179, 65, 297, 128, 360
-1.00181, 1, 1, 256, 128
-1.00183, 193, 289, 256, 352
-1.00186, 257, 129, 288, 256
-1.00188, 65, 121, 320, 184
-1.00192, 1, 1, 256, 64
-1.00202, 161, 105, 416, 168
-1.00205, 33, 73, 288, 136
-1.00205, 129, 73, 384, 136
-1.00206, 257, 33, 500, 96
-1.00206, 161, 49, 416, 112
-1.00207, 225, 33, 288, 288
-1.0021, 33, 97, 288, 160
-1.00211, 65, 25, 320, 88
-1.00211, 161, 25, 416, 88
-1.00211, 1, 49, 256, 112
-1.00212, 129, 1, 384, 64
-1.00212, 225, 1, 480, 64
-1.00212, 257, 81, 500, 144
-1.00213, 161, 121, 288, 184
-1.00217, 217, 153, 280, 216
-1.00218, 257, 57, 500, 120
-1.00219, 1, 145, 500, 208
-1.00227, 97, 145, 352, 208
-1.0023, 257, 113, 500, 176
-1.00247, 289, 129, 416, 192
-1.00249, 25, 169, 88, 232
-1.00259, 265, 225, 296, 352
-1.0026, 65, 33, 128, 288
-1.00263, 369, 105, 496, 168
-1.00276, 17, 1, 144, 64
-1.0028, 97, 105, 224, 168
-1.00283, 33, 129, 160, 192
-1.00288, 369, 81, 496, 144
-1.00288, 321, 105, 448, 168
-1.0029, 17, 153, 144, 216
-1.0029, 49, 97, 176, 224
-1.00291, 225, 1, 352, 64
-1.00291, 81, 9, 208, 72
-1.00291, 129, 9, 256, 72
-1.00291, 177, 9, 304, 72
-1.00291, 273, 9, 400, 72
-1.00291, 321, 9, 448, 72
-1.00291, 369, 9, 496, 72
-1.00291, 225, 25, 352, 88
-1.00291, 33, 33, 160, 96
-1.00291, 81, 33, 208, 96
-1.00291, 129, 33, 256, 96
-1.00291, 177, 33, 304, 96
-1.00291, 273, 33, 400, 96
-1.00291, 321, 33, 448, 96
-1.00291, 369, 33, 496, 96
-1.00291, 225, 49, 352, 112
-1.00291, 17, 57, 144, 120
-1.00291, 65, 57, 192, 120
-1.00291, 113, 57, 240, 120
-1.00291, 161, 57, 288, 120
-1.00291, 273, 57, 400, 120
-1.00291, 321, 57, 448, 120
-1.00291, 369, 57, 496, 120
-1.00291, 209, 73, 336, 136
-1.00291, 33, 81, 160, 144
-1.00291, 81, 81, 208, 144
-1.00291, 129, 81, 256, 144
-1.00291, 257, 81, 384, 144
-1.00291, 305, 81, 432, 144
-1.00291, 177, 97, 304, 160
-1.00291, 33, 105, 160, 168
-1.00291, 225, 105, 352, 168
-1.00291, 273, 105, 400, 168
-1.00301, 1, 121, 500, 184
-1.00301, 217, 257, 280, 320
-1.00313, 293, 225, 324, 352
-1.00328, 353, 33, 416, 288
-1.00353, 1, 1, 500, 64
-1.00354, 1, 49, 500, 112
-1.00369, 1, 25, 500, 88
-1.00373, 73, 161, 136, 224
-1.00374, 1, 89, 500, 152
-1.00394, 41, 33, 104, 288
-1.00397, 153, 129, 216, 192
-1.00398, 369, 289, 432, 352
-1.00405, 241, 225, 304, 352
-1.00414, 377, 113, 408, 240
-1.00415, 161, 33, 416, 160
-1.0045, 285, 129, 316, 256
-1.00452, 225, 129, 288, 192
-1.00454, 325, 113, 356, 240
-1.00484, 137, 97, 200, 224
-1.00485, 277, 225, 308, 352
-1.00499, 321, 49, 448, 176
-1.00532, 369, 81, 496, 208
-1.00542, 433, 137, 496, 200
-1.00545, 389, 97, 420, 224
-1.00548, 17, 1, 144, 128
-1.00555, 369, 1, 496, 128
-1.0056, 109, 97, 140, 224
-1.00563, 1, 33, 64, 288
-1.00567, 1, 113, 32, 240
-1.00569, 257, 1, 500, 128
-1.00588, 253, 241, 284, 368
-1.00592, 269, 129, 300, 256
-1.00594, 157, 81, 188, 208
-1.006, 161, 49, 288, 176
-1.00604, 429, 81, 460, 208
-1.00609, 89, 97, 120, 224
-1.00614, 289, 1, 416, 128
-1.00617, 113, 33, 240, 160
-1.0062, 241, 33, 368, 160
-1.00621, 257, 81, 500, 208
-1.00629, 353, 97, 384, 224
-1.00668, 49, 113, 80, 240
-1.00677, 97, 305, 160, 368
-1.00688, 1, 49, 128, 176
-1.00692, 305, 145, 368, 208
-1.00692, 273, 97, 400, 224
-1.00693, 457, 49, 488, 176
-1.00694, 273, 153, 336, 216
-1.00705, 105, 129, 168, 192
-1.00711, 49, 49, 176, 176
-1.00712, 65, 1, 192, 128
-1.00719, 337, 33, 368, 160
-1.0072, 469, 1, 500, 128
-1.00726, 297, 265, 360, 328
-1.00728, 241, 257, 304, 320
-1.00728, 445, 1, 476, 128
-1.00733, 445, 49, 476, 176
-1.00735, 241, 281, 304, 344
-1.00737, 69, 97, 100, 224
-1.00741, 9, 145, 72, 208
-1.00747, 469, 49, 500, 176
-1.00751, 249, 81, 280, 208
-1.00757, 349, 33, 380, 160
-1.00759, 265, 33, 296, 160
-1.00759, 361, 49, 392, 176
-1.0076, 25, 1, 56, 128
-1.00762, 397, 1, 428, 128
-1.0077, 273, 273, 336, 336
-1.0077, 377, 49, 408, 176
-1.00771, 297, 1, 328, 128
-1.00773, 317, 49, 348, 176
-1.00773, 433, 113, 496, 176
-1.00774, 1, 1, 32, 128
-1.00775, 149, 1, 180, 128
-1.00776, 305, 49, 336, 176
-1.00778, 325, 1, 356, 128
-1.00783, 17, 113, 48, 240
-1.00784, 117, 49, 148, 176
-1.00786, 421, 33, 452, 160
-1.00789, 297, 289, 360, 352
-1.0079, 329, 97, 392, 224
-1.00796, 233, 81, 296, 208
-1.00806, 193, 1, 320, 128
-1.00829, 201, 121, 264, 184
-1.00838, 353, 129, 416, 192
-1.00845, 377, 81, 440, 208
-1.00845, 49, 145, 112, 208
-1.00853, 345, 289, 408, 352
-1.00861, 217, 281, 280, 344
-1.00873, 81, 105, 144, 168
-1.00875, 81, 137, 144, 200
-1.00876, 153, 105, 216, 168
-1.00878, 121, 105, 184, 168
-1.009, 129, 129, 192, 192
-1.00901, 193, 97, 256, 160
-1.00901, 25, 121, 88, 184
-1.00901, 49, 121, 112, 184
-1.00901, 385, 121, 448, 184
-1.00915, 97, 81, 160, 144
-1.00915, 121, 81, 184, 144
-1.00915, 329, 121, 392, 184
-1.00916, 17, 113, 80, 240
-1.00993, 417, 49, 480, 176
-1.00997, 329, 49, 392, 176
-1.00998, 81, 97, 144, 224
-1.01004, 385, 1, 448, 128
-1.01013, 433, 1, 496, 128
-1.01013, 281, 49, 344, 176
-1.01026, 257, 33, 320, 160
-1.01031, 353, 81, 416, 208
-1.01052, 353, 33, 416, 160
-1.01057, 273, 97, 336, 224
-1.01088, 1, 1, 64, 128
-1.01091, 201, 33, 264, 160
-1.01111, 57, 97, 120, 224
-1.01117, 105, 49, 168, 176
-1.01127, 305, 49, 368, 176
-1.0113, 129, 33, 192, 160
-1.01133, 233, 33, 296, 160
-1.0114, 153, 1, 216, 128
-1.01163, 177, 33, 240, 160
-1.01173, 409, 1, 472, 128
-1.01195, 57, 1, 120, 128
-1.01224, 321, 1, 384, 128
-1.01247, 289, 1, 352, 128
-1.01263, 73, 49, 136, 176
-1.01283, 25, 65, 88, 192
-1.01331, 105, 1, 168, 128
-1.01338, 49, 49, 112, 176
-1.01341, 1, 49, 64, 176
-1.01351, 25, 1, 88, 128
-1.01416, 81, 1, 144, 128
-1.01499, 153, 49, 216, 176
