1973
-0.261994, 1, 1, 375, 500
-0.382883, 1, 161, 375, 416
-0.400926, 1, 257, 375, 500
-0.445087, 1, 65, 375, 320
-0.449022, 97, 1, 352, 500
-0.539624, 1, 1, 256, 500
-0.650628, 1, 257, 256, 500
-0.693751, 33, 97, 288, 352
-0.730709, 97, 193, 352, 448
-0.732086, 129, 97, 375, 352
-0.74589, 97, 1, 352, 256
-0.854859, 1, 1, 256, 256
-0.864696, 49, 1, 176, 500
-0.870107, 49, 257, 176, 500
-0.872384, 145, 1, 272, 500
-0.877684, 193, 1, 320, 500
-0.877694, 65, 129, 192, 384
-0.877746, 1, 161, 375, 288
-0.879417, 1, 321, 375, 448
-0.881539, 1, 369, 375, 496
-0.886419, 17, 129, 144, 384
-0.886485, 1, 225, 128, 480
-0.887498, 97, 1, 224, 500
-0.892273, 113, 161, 240, 416
-0.896643, 1, 113, 375, 240
-0.89671, 177, 65, 304, 320
-0.899926, 241, 161, 368, 416
-0.903284, 1, 209, 375, 336
-0.905015, 1, 273, 375, 400
-0.905026, 1, 1, 128, 500
-0.909923, 241, 1, 368, 500
-0.914059, 97, 257, 224, 500
-0.914964, 177, 257, 304, 500
-0.916265, 1, 321, 256, 448
-0.918824, 241, 257, 368, 500
-0.919124, 1, 1, 375, 128
-0.919137, 113, 33, 240, 288
-0.92006, 1, 49, 375, 176
-0.921714, 129, 321, 375, 448
-0.924906, 193, 161, 320, 416
-0.925787, 33, 257, 288, 384
-0.928619, 33, 177, 288, 304
-0.930416, 241, 1, 368, 256
-0.930755, 129, 369, 375, 496
-0.930985, 49, 289, 176, 416
-0.931346, 129, 161, 375, 288
-0.934223, 49, 353, 176, 480
-0.934594, 57, 337, 120, 464
-0.934783, 49, 33, 176, 288
-0.935903, 97, 113, 352, 240
-0.935968, 89, 273, 152, 400
-0.938984, 57, 289, 120, 416
-0.93918, 33, 369, 288, 496
-0.940239, 305, 369, 368, 496
-0.945288, 1, 337, 128, 464
-0.945422, 161, 369, 224, 496
-0.946323, 121, 337, 184, 464
-0.946958, 129, 209, 375, 336
-0.947559, 145, 305, 208, 432
-0.948607, 129, 337, 256, 464
-0.948673, 17, 209, 144, 336
-0.9488, 25, 369, 88, 496
-0.949467, 57, 345, 120, 408
-0.949583, 81, 161, 208, 288
-0.950817, 241, 369, 368, 496
-0.951434, 81, 225, 208, 352
-0.951454, 97, 1, 352, 128
-0.952048, 97, 49, 352, 176
-0.952526, 129, 257, 375, 384
-0.953045, 313, 409, 375, 472
-0.9532, 73, 225, 136, 352
-0.953792, 281, 369, 344, 496
-0.95435, 97, 321, 160, 448
-0.954479, 1, 33, 128, 288
-0.954837, 97, 161, 160, 288
-0.954919, 145, 289, 272, 416
-0.955238, 201, 337, 264, 464
-0.955351, 193, 353, 320, 480
-0.955429, 81, 289, 144, 352
-0.955597, 209, 305, 336, 432
-0.95589, 17, 161, 144, 288
-0.956039, 97, 209, 160, 336
-0.956078, 73, 177, 136, 304
-0.956226, 273, 409, 336, 472
-0.957054, 97, 273, 224, 400
-0.957345, 113, 273, 176, 400
-0.957861, 193, 161, 320, 288
-0.958461, 297, 385, 360, 448
-0.958569, 65, 113, 192, 240
-0.958819, 57, 321, 120, 384
-0.959085, 193, 113, 320, 240
-0.959512, 185, 289, 248, 416
-0.960366, 49, 241, 112, 368
-0.960656, 153, 153, 216, 216
-0.960853, 297, 361, 360, 424
-0.960978, 289, 433, 352, 496
-0.960989, 57, 433, 120, 496
-0.9615, 89, 425, 152, 488
-0.961883, 1, 97, 256, 224
-0.961924, 89, 337, 152, 400
-0.961973, 265, 161, 328, 288
-0.962038, 89, 257, 152, 320
-0.962545, 113, 137, 176, 200
-0.963468, 73, 129, 136, 256
-0.963745, 57, 369, 120, 432
-0.963805, 241, 193, 368, 320
-0.964555, 129, 401, 192, 464
-0.965057, 289, 321, 352, 448
-0.965218, 1, 369, 64, 496
-0.96542, 33, 425, 96, 488
-0.965498, 97, 97, 160, 160
-0.965524, 49, 161, 112, 288
-0.965649, 81, 369, 144, 496
-0.965698, 129, 129, 192, 256
-0.965763, 313, 433, 375, 496
-0.966092, 1, 257, 128, 384
-0.966144, 97, 361, 160, 424
-0.966458, 193, 49, 320, 176
-0.966483, 185, 145, 248, 208
-0.966833, 73, 145, 136, 208
-0.967035, 169, 145, 232, 272
-0.967136, 17, 385, 80, 448
-0.967272, 129, 129, 256, 256
-0.967276, 1, 33, 256, 160
-0.967473, 65, 393, 128, 456
-0.967794, 241, 433, 304, 496
-0.967807, 81, 121, 144, 184
-0.967838, 249, 369, 312, 496
-0.968233, 265, 433, 328, 496
-0.968458, 201, 129, 264, 256
-0.96866, 249, 409, 312, 472
-0.968754, 57, 257, 120, 500
-0.968911, 65, 257, 128, 320
-0.969143, 113, 273, 176, 336
-0.969425, 193, 1, 320, 128
-0.969585, 121, 209, 184, 336
-0.969646, 89, 81, 152, 208
-0.969664, 249, 305, 312, 432
-0.969726, 209, 257, 336, 384
-0.969995, 321, 361, 352, 424
-0.970132, 161, 401, 224, 464
-0.970304, 277, 409, 308, 472
-0.970413, 153, 177, 216, 240
-0.970422, 113, 81, 240, 208
-0.970466, 177, 321, 240, 384
-0.970546, 161, 257, 224, 384
-0.970821, 257, 97, 320, 224
-0.971056, 97, 169, 160, 232
-0.971118, 89, 401, 152, 464
-0.971519, 281, 209, 344, 336
-0.971875, 273, 385, 336, 448
-0.971957, 121, 81, 184, 208
-0.972053, 201, 81, 264, 208
-0.972126, 325, 353, 356, 480
-0.972423, 129, 209, 256, 336
-0.972911, 257, 209, 320, 336
-0.972924, 33, 353, 160, 416
-0.972988, 225, 257, 288, 384
-0.973031, 249, 377, 312, 440
-0.973081, 161, 129, 224, 192
-0.973153, 93, 353, 124, 416
-0.973276, 77, 289, 108, 416
-0.973437, 217, 417, 280, 480
-0.973655, 241, 145, 304, 272
-0.973759, 201, 353, 264, 416
-0.973885, 169, 425, 232, 488
-0.973886, 297, 401, 328, 464
-0.974107, 313, 337, 375, 400
-0.974166, 17, 361, 80, 424
-0.974241, 73, 193, 136, 256
-0.974252, 89, 257, 152, 500
-0.974299, 121, 113, 184, 176
-0.974309, 129, 33, 256, 160
-0.974334, 257, 169, 320, 232
-0.974467, 9, 321, 72, 448
-0.974534, 81, 233, 144, 296
-0.974589, 293, 433, 324, 496
-0.974662, 153, 297, 216, 360
-0.974705, 281, 329, 344, 392
-0.974718, 313, 417, 344, 480
-0.974875, 33, 377, 160, 440
-0.974879, 73, 161, 136, 416
-0.974881, 333, 409, 364, 472
-0.975015, 273, 201, 336, 264
-0.975048, 73, 169, 136, 232
-0.975125, 65, 145, 192, 208
-0.97519, 241, 401, 368, 464
-0.975335, 1, 433, 128, 496
-0.975365, 241, 33, 368, 160
-0.975406, 241, 433, 368, 496
-0.97543, 273, 353, 336, 416
-0.975511, 345, 369, 375, 432
-0.975517, 33, 321, 96, 448
-0.97553, 101, 273, 132, 400
-0.975545, 313, 337, 344, 464
-0.975833, 89, 273, 120, 400
-0.975861, 185, 281, 248, 344
-0.975991, 341, 353, 372, 480
-0.976054, 165, 401, 196, 464
-0.976068, 129, 321, 192, 384
-0.976084, 225, 305, 288, 432
-0.976329, 65, 401, 192, 464
-0.9764, 93, 337, 124, 464
-0.976405, 57, 233, 120, 296
-0.976501, 145, 425, 208, 488
-0.976618, 65, 305, 96, 432
-0.97664, 177, 377, 240, 440
-0.976752, 281, 433, 312, 496
-0.976767, 177, 161, 304, 224
-0.976852, 113, 249, 176, 312
-0.976863, 313, 209, 375, 336
-0.976977, 17, 193, 80, 320
-0.977057, 233, 321, 296, 384
-0.977159, 25, 241, 88, 368
-0.97719, 65, 297, 192, 360
-0.977331, 225, 377, 352, 440
-0.977367, 313, 305, 375, 432
-0.977554, 225, 369, 288, 496
-0.977822, 81, 273, 208, 336
-0.977824, 137, 257, 200, 384
-0.978, 129, 169, 192, 232
-0.978034, 225, 65, 288, 192
-0.978155, 17, 249, 144, 312
-0.978241, 97, 129, 160, 384
-0.978248, 125, 129, 156, 192
-0.978265, 81, 225, 112, 352
-0.978432, 25, 193, 88, 448
-0.97844, 177, 409, 304, 472
-0.978479, 45, 353, 76, 480
-0.978628, 65, 169, 192, 232
-0.978775, 289, 353, 320, 480
-0.978835, 249, 289, 312, 352
-0.978848, 241, 81, 368, 208
-0.978857, 201, 385, 264, 448
-0.978978, 345, 409, 375, 472
-0.979011, 109, 129, 140, 256
-0.979107, 297, 305, 360, 368
-0.979112, 309, 353, 340, 416
-0.979138, 225, 353, 352, 416
-0.979165, 273, 273, 336, 400
-0.979195, 193, 433, 320, 496
-0.9792, 93, 289, 124, 352
-0.979204, 101, 265, 132, 328
-0.979307, 145, 129, 176, 192
-0.979308, 121, 425, 184, 488
-0.979369, 17, 113, 144, 240
-0.979379, 73, 177, 104, 304
-0.979567, 177, 97, 240, 224
-0.979604, 145, 401, 176, 464
-0.979614, 121, 297, 184, 360
-0.979629, 105, 217, 168, 280
-0.979672, 9, 409, 72, 472
-0.979722, 89, 313, 152, 376
-0.979725, 329, 385, 360, 448
-0.979729, 73, 433, 104, 496
-0.979765, 57, 297, 120, 360
-0.979765, 49, 321, 176, 384
-0.979765, 53, 417, 84, 480
-0.979859, 193, 209, 320, 336
-0.979921, 97, 121, 224, 184
-0.979924, 121, 81, 152, 208
-0.979941, 97, 249, 224, 312
-0.980185, 249, 49, 312, 176
-0.98025, 77, 305, 108, 368
-0.980303, 273, 305, 336, 368
-0.98036, 113, 105, 144, 168
-0.980386, 193, 121, 256, 184
-0.980469, 309, 385, 340, 448
-0.980679, 109, 289, 140, 352
-0.980706, 101, 321, 132, 384
-0.980709, 153, 329, 216, 392
-0.980728, 297, 145, 360, 272
-0.980749, 1, 401, 128, 464
-0.980792, 81, 217, 208, 280
-0.98081, 137, 249, 200, 312
-0.980823, 153, 305, 184, 432
-0.980835, 93, 209, 124, 336
-0.98085, 41, 401, 104, 464
-0.98086, 113, 145, 144, 208
-0.98104, 261, 417, 292, 480
-0.981051, 105, 73, 168, 136
-0.981074, 49, 169, 112, 232
-0.981101, 129, 129, 160, 256
-0.981116, 145, 177, 208, 304
-0.981147, 241, 145, 368, 272
-0.98121, 185, 169, 248, 232
-0.981231, 33, 337, 96, 400
-0.981405, 129, 145, 256, 208
-0.981449, 81, 425, 208, 488
-0.981496, 121, 377, 184, 440
-0.981562, 297, 201, 360, 264
-0.981634, 161, 201, 224, 264
-0.981635, 301, 353, 332, 480
-0.981678, 1, 433, 64, 496
-0.981733, 49, 161, 112, 416
-0.981825, 65, 321, 96, 384
-0.981837, 225, 153, 288, 216
-0.981846, 49, 201, 112, 264
-0.981868, 81, 361, 112, 424
-0.981896, 177, 369, 208, 496
-0.981913, 157, 129, 188, 256
-0.981924, 33, 281, 96, 344
-0.981955, 153, 97, 216, 224
-0.98197, 165, 369, 196, 496
-0.982053, 241, 353, 304, 416
-0.982133, 9, 353, 40, 480
-0.982235, 165, 153, 196, 216
-0.982328, 205, 321, 236, 448
-0.98249, 241, 329, 368, 392
-0.982684, 333, 361, 364, 424
-0.982739, 5, 377, 36, 440
-0.982804, 201, 241, 264, 368
-0.982964, 9, 329, 72, 392
-0.982992, 209, 185, 336, 248
-0.983102, 209, 297, 272, 360
-0.98312, 181, 145, 212, 208
-0.983151, 1, 193, 64, 448
-0.98316, 81, 345, 208, 408
-0.983168, 185, 385, 216, 448
-0.983201, 117, 81, 148, 144
-0.983215, 25, 385, 56, 448
-0.983234, 177, 281, 304, 344
-0.983268, 177, 321, 304, 384
-0.983286, 225, 209, 352, 272
-0.983306, 85, 425, 116, 488
-0.983326, 49, 65, 176, 192
-0.983412, 33, 369, 64, 496
-0.983476, 189, 369, 220, 496
-0.983479, 281, 177, 344, 240
-0.983489, 1, 329, 128, 392
-0.983513, 137, 273, 200, 336
-0.983642, 325, 337, 356, 400
-0.983729, 181, 169, 212, 232
-0.98373, 17, 193, 144, 256
-0.983754, 41, 377, 72, 440
-0.98378, 105, 225, 136, 352
-0.983785, 85, 185, 116, 248
-0.983835, 169, 177, 200, 240
-0.983866, 101, 393, 132, 456
-0.983874, 153, 377, 216, 440
-0.983883, 185, 321, 216, 448
-0.983902, 289, 177, 320, 240
-0.983952, 225, 121, 288, 184
-0.983964, 121, 297, 152, 360
-0.984001, 129, 73, 192, 136
-0.984001, 137, 209, 200, 272
-0.984019, 97, 81, 224, 144
-0.984078, 33, 273, 160, 336
-0.984139, 153, 105, 216, 168
-0.984148, 97, 185, 128, 248
-0.984172, 153, 353, 184, 480
-0.984215, 81, 377, 208, 440
-0.984217, 89, 1, 152, 500
-0.984235, 337, 433, 368, 496
-0.984245, 101, 97, 132, 160
-0.98427, 113, 169, 240, 232
-0.984319, 221, 337, 252, 464
-0.984411, 73, 177, 104, 240
-0.98444, 185, 201, 248, 264
-0.98445, 185, 129, 216, 256
-0.984454, 49, 113, 176, 176
-0.984527, 109, 81, 140, 208
-0.984543, 325, 433, 356, 496
-0.984575, 121, 129, 184, 384
-0.984648, 225, 265, 288, 328
-0.984681, 145, 353, 208, 416
-0.984692, 97, 321, 224, 384
-0.98471, 113, 1, 176, 500
-0.984712, 73, 353, 104, 480
-0.984728, 101, 137, 132, 200
-0.984731, 177, 137, 304, 200
-0.984785, 169, 209, 232, 336
-0.984797, 301, 193, 332, 256
-0.984804, 277, 369, 308, 496
-0.984806, 89, 161, 120, 288
-0.984865, 129, 425, 256, 488
-0.984877, 105, 321, 136, 448
-0.984879, 221, 289, 252, 416
-0.984911, 161, 385, 288, 448
-0.98492, 33, 225, 160, 288
-0.984931, 289, 177, 320, 304
-0.984942, 165, 321, 196, 448
-0.984972, 289, 361, 320, 424
-0.985001, 141, 321, 172, 448
-0.985005, 81, 145, 112, 208
-0.98508, 341, 337, 372, 400
-0.985097, 233, 353, 264, 480
-0.985147, 17, 297, 144, 360
-0.985184, 21, 369, 52, 496
-0.985201, 273, 161, 336, 416
-0.985227, 57, 241, 88, 368
-0.985254, 109, 353, 140, 416
-0.985264, 89, 329, 120, 392
-0.985326, 161, 377, 192, 440
-0.985375, 121, 321, 152, 448
-0.985389, 129, 281, 256, 344
-0.985415, 277, 385, 308, 448
-0.985484, 193, 433, 256, 496
-0.985599, 201, 329, 264, 392
-0.985658, 89, 265, 120, 328
-0.985671, 65, 193, 192, 256
-0.985752, 145, 153, 176, 216
-0.98577, 209, 121, 240, 184
-0.985832, 117, 273, 148, 400
-0.985862, 125, 105, 156, 168
-0.98589, 121, 265, 152, 328
-0.985893, 177, 257, 240, 320
-0.986074, 169, 145, 200, 272
-0.986131, 177, 1, 240, 500
-0.986197, 117, 169, 148, 232
-0.986247, 85, 217, 116, 280
-0.986278, 125, 417, 156, 480
-0.986279, 301, 193, 332, 320
-0.986308, 305, 257, 368, 384
-0.986367, 305, 257, 368, 500
-0.986379, 137, 105, 168, 168
-0.986428, 321, 289, 352, 416
-0.98644, 193, 1, 320, 64
-0.986449, 69, 241, 100, 368
-0.986474, 193, 177, 256, 304
-0.986485, 177, 353, 304, 416
-0.986493, 25, 305, 88, 368
-0.986496, 225, 361, 256, 424
-0.986565, 233, 209, 296, 336
-0.986663, 165, 313, 196, 376
-0.98667, 225, 297, 352, 360
-0.986682, 61, 345, 92, 408
-0.986688, 81, 401, 112, 464
-0.986696, 249, 257, 312, 384
-0.98673, 273, 281, 336, 344
-0.986769, 53, 385, 84, 448
-0.986852, 65, 81, 128, 208
-0.986867, 113, 329, 144, 392
-0.986926, 289, 97, 352, 224
-0.986929, 133, 153, 164, 216
-0.986942, 197, 145, 228, 272
-0.986975, 97, 113, 128, 240
-0.987019, 129, 193, 256, 256
-0.987022, 297, 281, 360, 344
-0.98707, 197, 361, 228, 424
-0.987088, 201, 1, 264, 500
-0.987116, 173, 433, 204, 496
-0.987123, 185, 161, 248, 416
-0.987174, 141, 369, 172, 496
-0.987226, 209, 257, 272, 500
-0.987229, 289, 305, 320, 432
-0.987249, 141, 113, 172, 240
-0.987272, 161, 233, 224, 296
-0.987311, 17, 145, 144, 208
-0.987333, 249, 145, 312, 208
-0.987345, 121, 209, 152, 336
-0.987382, 173, 345, 204, 408
-0.987388, 273, 17, 336, 144
-0.987394, 241, 1, 304, 500
-0.987429, 201, 241, 264, 304
-0.987436, 9, 401, 40, 464
-0.987452, 277, 161, 308, 288
-0.987498, 193, 1, 256, 128
-0.987542, 37, 417, 68, 480
-0.987587, 153, 257, 216, 500
-0.98764, 57, 121, 120, 184
-0.987681, 185, 361, 216, 424
-0.987691, 17, 433, 48, 496
-0.987782, 41, 353, 72, 416
-0.987863, 209, 65, 272, 320
-0.987871, 161, 257, 192, 384
-0.987908, 1, 169, 128, 232
-0.987958, 113, 257, 176, 500
-0.988008, 249, 225, 312, 480
-0.988072, 265, 1, 328, 500
-0.988083, 97, 209, 128, 272
-0.98811, 73, 89, 136, 152
-0.988121, 129, 57, 256, 120
-0.988125, 113, 193, 176, 256
-0.988137, 161, 161, 224, 416
-0.988138, 17, 249, 80, 312
-0.988165, 25, 201, 88, 264
-0.988193, 49, 145, 112, 208
-0.988236, 337, 305, 368, 432
-0.988247, 241, 65, 304, 320
-0.988259, 201, 369, 232, 496
-0.988274, 189, 409, 220, 472
-0.988337, 233, 289, 264, 416
-0.988352, 277, 169, 308, 232
-0.988354, 41, 257, 104, 320
-0.988404, 301, 305, 332, 432
-0.98841, 257, 329, 320, 392
-0.988594, 189, 321, 220, 384
-0.988604, 305, 177, 368, 240
-0.988661, 141, 273, 172, 400
-0.988698, 25, 409, 56, 472
-0.988707, 189, 193, 220, 256
-0.988722, 93, 241, 124, 304
-0.988789, 113, 385, 144, 448
-0.988811, 61, 145, 92, 272
-0.988811, 225, 377, 288, 440
-0.988867, 313, 209, 344, 272
-0.988868, 297, 337, 328, 400
-0.988932, 249, 201, 312, 264
-0.988934, 281, 313, 312, 376
-0.988935, 313, 365, 375, 396
-0.988964, 297, 433, 360, 464
-0.988964, 105, 177, 136, 304
-0.989097, 177, 273, 208, 400
-0.989123, 153, 321, 184, 384
-0.989154, 149, 177, 180, 240
-0.989166, 313, 209, 344, 336
-0.98919, 177, 209, 304, 272
-0.989207, 57, 349, 120, 380
-0.98922, 225, 161, 352, 224
-0.989229, 297, 153, 360, 216
-0.989261, 273, 437, 336, 468
-0.989275, 57, 353, 88, 480
-0.989275, 49, 1, 112, 500
-0.98928, 101, 433, 132, 496
-0.989322, 157, 129, 188, 192
-0.989341, 73, 65, 136, 320
-0.989363, 89, 353, 152, 384
-0.98937, 157, 425, 188, 488
-0.989375, 129, 369, 160, 496
-0.989419, 1, 353, 32, 416
-0.989471, 133, 385, 164, 448
-0.989477, 213, 329, 244, 392
-0.98948, 177, 409, 208, 472
-0.989482, 181, 177, 212, 304
-0.9895, 129, 225, 256, 288
-0.989597, 205, 273, 236, 400
-0.989626, 121, 149, 184, 180
-0.989636, 113, 401, 240, 464
-0.989691, 193, 145, 224, 208
-0.989699, 289, 421, 352, 452
-0.989699, 313, 225, 375, 288
-0.989735, 257, 421, 320, 452
-0.989735, 129, 361, 256, 424
-0.989749, 249, 105, 312, 168
-0.989765, 313, 417, 375, 448
-0.989782, 265, 65, 328, 320
-0.989801, 81, 293, 144, 324
-0.98981, 177, 89, 304, 152
-0.989811, 89, 113, 120, 176
-0.989842, 177, 49, 240, 176
-0.989863, 81, 157, 144, 188
-0.989914, 49, 453, 112, 484
-0.989923, 145, 257, 272, 320
-0.989929, 297, 401, 360, 432
-0.989939, 1, 113, 128, 176
-0.989963, 65, 469, 128, 500
-0.989992, 193, 49, 320, 112
-0.989992, 305, 385, 368, 416
-0.989999, 81, 241, 112, 304
-0.990006, 241, 369, 272, 432
-0.990007, 49, 81, 176, 144
-0.990045, 201, 321, 232, 384
-0.99005, 145, 113, 272, 176
-0.990076, 5, 433, 36, 496
-0.990084, 193, 25, 320, 88
-0.990095, 49, 361, 112, 392
-0.99013, 37, 193, 68, 320
-0.990199, 121, 161, 184, 192
-0.990231, 133, 273, 164, 336
-0.990236, 129, 81, 160, 144
-0.990238, 65, 333, 128, 364
-0.990244, 97, 161, 128, 224
-0.990308, 305, 469, 368, 500
-0.990332, 185, 433, 216, 496
-0.990358, 281, 377, 344, 408
-0.990458, 137, 433, 200, 464
-0.990468, 169, 153, 232, 184
-0.9905, 225, 65, 288, 128
-0.990517, 173, 369, 204, 432
-0.990531, 85, 113, 116, 240
-0.990552, 177, 329, 240, 360
-0.990586, 177, 353, 240, 416
-0.990586, 57, 373, 120, 404
-0.990593, 257, 449, 320, 480
-0.99061, 69, 409, 100, 472
-0.990628, 17, 393, 80, 424
-0.990657, 241, 393, 272, 456
-0.99066, 161, 409, 224, 440
-0.990676, 245, 369, 276, 496
-0.990679, 113, 281, 176, 312
-0.990681, 273, 257, 336, 500
-0.990688, 217, 89, 280, 152
-0.99069, 105, 113, 168, 144
-0.990696, 81, 169, 144, 200
-0.9907, 1, 193, 32, 320
-0.990706, 169, 289, 200, 352
-0.99076, 193, 281, 224, 344
-0.990762, 145, 1, 208, 500
-0.990772, 89, 441, 152, 472
-0.990773, 193, 469, 256, 500
-0.990812, 129, 33, 192, 288
-0.990824, 269, 113, 300, 240
-0.990856, 169, 393, 232, 424
-0.990863, 13, 193, 44, 320
-0.990873, 169, 129, 200, 192
-0.990874, 81, 253, 144, 284
-0.990876, 17, 1, 80, 500
-0.990877, 177, 445, 240, 476
-0.990885, 89, 265, 152, 296
-0.990897, 73, 313, 136, 344
-0.990927, 49, 193, 80, 320
-0.990943, 73, 129, 104, 256
-0.990947, 97, 385, 160, 416
-0.99095, 225, 273, 352, 336
-0.990965, 201, 381, 264, 412
-0.990967, 201, 433, 232, 496
-0.990972, 233, 449, 296, 480
-0.990983, 273, 409, 336, 440
-0.990985, 77, 329, 108, 392
-0.990986, 57, 389, 120, 420
-0.990992, 273, 205, 336, 236
-0.990994, 97, 141, 160, 172
-0.991015, 81, 365, 144, 396
-0.991026, 1, 449, 64, 480
-0.991029, 269, 321, 300, 448
-0.991039, 193, 157, 256, 188
-0.991044, 209, 377, 240, 440
-0.991049, 1, 405, 64, 436
-0.991093, 97, 341, 160, 372
-0.991105, 41, 441, 104, 472
-0.991116, 81, 281, 144, 312
-0.991135, 313, 353, 375, 384
-0.991139, 313, 329, 344, 392
-0.991143, 33, 425, 96, 456
-0.991158, 201, 453, 264, 484
-0.991171, 297, 445, 360, 476
-0.991178, 33, 465, 96, 496
-0.991184, 161, 141, 224, 172
-0.991185, 97, 169, 352, 232
-0.991187, 1, 425, 375, 488
-0.99119, 185, 65, 248, 320
-0.991201, 121, 133, 184, 164
-0.991209, 61, 193, 92, 320
-0.991238, 201, 369, 264, 400
-0.991249, 33, 145, 288, 208
-0.991267, 65, 1, 192, 128
-0.991267, 17, 373, 80, 404
-0.991268, 297, 309, 360, 340
-0.991268, 137, 445, 200, 476
-0.991269, 137, 421, 200, 452
-0.991272, 273, 469, 336, 500
-0.991283, 97, 93, 160, 124
-0.991286, 73, 145, 136, 176
-0.991289, 1, 241, 64, 368
-0.991312, 137, 409, 200, 440
-0.991318, 193, 273, 224, 400
-0.991353, 145, 161, 208, 192
-0.991353, 33, 321, 64, 448
-0.991358, 65, 241, 128, 272
-0.991364, 73, 429, 136, 460
-0.991366, 233, 465, 296, 496
-0.991387, 105, 397, 168, 428
-0.991392, 97, 453, 160, 484
-0.991401, 33, 113, 96, 240
-0.991406, 61, 161, 92, 224
-0.991429, 153, 317, 216, 348
-0.99144, 197, 121, 228, 184
-0.991441, 129, 329, 192, 360
-0.991467, 129, 257, 160, 384
-0.99148, 225, 97, 256, 224
-0.991495, 1, 393, 375, 456
-0.991515, 273, 325, 336, 356
-0.99152, 241, 401, 304, 432
-0.991524, 241, 129, 368, 192
-0.991525, 249, 437, 312, 468
-0.991525, 245, 305, 276, 432
-0.991526, 17, 361, 48, 424
-0.991533, 105, 293, 168, 324
-0.991553, 149, 369, 180, 432
-0.991568, 137, 425, 168, 488
-0.991569, 185, 141, 248, 172
-0.991572, 73, 181, 136, 212
-0.991595, 65, 417, 128, 448
-0.991601, 145, 345, 208, 376
-0.991606, 1, 201, 64, 264
-0.991607, 161, 433, 224, 464
-0.991642, 113, 369, 144, 496
-0.991642, 281, 389, 344, 420
-0.991643, 113, 425, 176, 456
-0.991652, 73, 457, 136, 488
-0.991653, 193, 121, 256, 152
-0.991661, 241, 165, 304, 196
-0.991666, 289, 365, 352, 396
-0.991672, 277, 289, 308, 352
-0.991679, 201, 393, 264, 424
-0.991682, 17, 353, 80, 384
-0.991715, 33, 289, 288, 352
-0.991715, 73, 201, 104, 264
-0.991717, 209, 65, 240, 192
-0.991718, 57, 253, 120, 284
-0.991722, 237, 65, 268, 192
-0.991741, 273, 313, 336, 344
-0.991754, 105, 173, 168, 204
-0.991775, 33, 433, 288, 496
-0.99178, 113, 269, 176, 300
-0.99178, 281, 457, 344, 488
-0.991786, 241, 241, 368, 304
-0.991822, 193, 349, 256, 380
-0.991826, 49, 205, 112, 236
-0.991828, 89, 325, 152, 356
-0.99183, 1, 169, 375, 232
-0.991836, 89, 469, 152, 500
-0.991841, 113, 25, 240, 88
-0.991845, 81, 397, 144, 428
-0.991877, 153, 329, 216, 360
-0.99188, 241, 325, 304, 356
-0.991889, 129, 397, 192, 428
-0.991892, 177, 457, 240, 488
-0.991893, 217, 109, 280, 140
-0.991896, 73, 121, 136, 152
-0.991905, 25, 413, 88, 444
-0.991909, 177, 289, 240, 320
-0.991931, 25, 193, 56, 320
-0.991947, 145, 129, 208, 160
-0.991957, 153, 277, 216, 308
-0.991962, 257, 181, 320, 212
-0.991972, 97, 129, 160, 160
-0.991988, 257, 389, 320, 420
-0.992008, 129, 361, 192, 392
-0.992013, 153, 177, 216, 208
-0.992014, 57, 401, 120, 432
-0.992015, 1, 33, 128, 160
-0.992021, 217, 161, 280, 192
-0.992022, 265, 193, 328, 224
-0.992028, 105, 365, 168, 396
-0.992033, 249, 1, 312, 128
-0.992045, 1, 361, 256, 424
-0.992053, 253, 145, 284, 272
-0.992053, 89, 193, 152, 224
-0.992063, 161, 421, 224, 452
-0.992088, 49, 193, 112, 224
-0.992088, 25, 453, 88, 484
-0.992097, 145, 193, 208, 224
-0.992127, 289, 225, 352, 288
-0.992144, 49, 181, 112, 212
-0.99215, 209, 277, 272, 308
-0.992153, 73, 209, 136, 240
-0.99216, 241, 57, 368, 120
-0.992164, 169, 193, 200, 320
-0.992166, 265, 49, 328, 112
-0.992168, 17, 65, 80, 320
-0.992172, 57, 301, 120, 332
-0.992176, 301, 433, 332, 464
-0.992188, 81, 65, 144, 128
-0.992213, 1, 225, 64, 288
-0.992272, 325, 365, 356, 396
-0.992275, 277, 273, 308, 400
-0.992312, 313, 373, 344, 404
-0.99233, 281, 413, 312, 444
-0.992332, 93, 353, 124, 384
-0.992339, 281, 113, 312, 240
-0.992377, 225, 209, 288, 272
-0.992417, 281, 441, 312, 472
-0.992424, 65, 233, 320, 296
-0.992438, 289, 65, 352, 320
-0.992446, 109, 293, 140, 324
-0.99247, 141, 161, 172, 288
-0.992483, 89, 369, 120, 400
-0.992517, 229, 241, 260, 368
-0.992565, 117, 145, 148, 176
-0.992571, 97, 345, 352, 408
-0.992591, 33, 313, 288, 376
-0.992619, 285, 429, 316, 460
-0.992623, 45, 241, 76, 368
-0.992638, 189, 389, 220, 420
-0.992639, 85, 469, 116, 500
-0.992647, 129, 401, 375, 464
-0.992661, 89, 297, 120, 328
-0.992666, 321, 433, 352, 464
-0.992666, 337, 365, 368, 396
-0.992672, 289, 1, 352, 500
-0.992693, 341, 425, 372, 456
-0.992707, 137, 141, 168, 172
-0.992709, 241, 241, 272, 368
-0.992712, 137, 121, 168, 152
-0.992717, 165, 429, 196, 460
-0.992736, 317, 417, 348, 448
-0.992736, 325, 393, 356, 424
-0.992742, 97, 157, 128, 188
-0.992758, 69, 469, 100, 500
-0.992765, 113, 173, 144, 204
-0.992769, 293, 413, 324, 444
-0.99277, 345, 413, 375, 444
-0.99277, 149, 137, 180, 168
-0.992777, 101, 365, 132, 396
-0.992783, 109, 385, 140, 416
-0.992789, 161, 149, 192, 180
-0.992814, 201, 145, 232, 176
-0.992815, 157, 409, 188, 440
-0.992816, 125, 165, 156, 196
-0.992816, 185, 153, 216, 184
-0.992816, 73, 453, 104, 484
-0.992823, 329, 417, 360, 448
-0.992826, 257, 353, 288, 480
-0.99283, 221, 461, 252, 492
-0.992832, 85, 433, 116, 464
-0.992836, 325, 381, 356, 412
-0.992841, 121, 305, 152, 336
-0.992846, 341, 377, 372, 408
-0.992847, 77, 421, 108, 452
-0.992855, 113, 157, 144, 188
-0.992859, 125, 133, 156, 164
-0.992861, 137, 153, 168, 184
-0.99287, 81, 181, 112, 212
-0.992872, 341, 353, 372, 384
-0.992875, 101, 337, 132, 368
-0.992877, 309, 385, 340, 416
-0.992881, 85, 457, 116, 488
-0.992888, 269, 441, 300, 472
-0.992892, 325, 405, 356, 436
-0.992903, 101, 141, 132, 172
-0.992903, 93, 397, 124, 428
-0.992907, 149, 153, 180, 184
-0.99291, 173, 377, 204, 408
-0.992917, 89, 381, 120, 412
-0.992919, 301, 401, 332, 432
-0.992921, 305, 421, 336, 452
-0.992922, 121, 85, 152, 116
-0.992929, 209, 453, 240, 484
-0.992935, 53, 465, 84, 496
-0.992945, 25, 453, 56, 484
-0.992947, 97, 469, 128, 500
-0.992947, 297, 469, 328, 500
-0.992949, 77, 305, 108, 336
-0.99295, 297, 201, 328, 232
-0.992958, 85, 201, 116, 232
-0.992962, 273, 425, 304, 456
-0.992963, 253, 445, 284, 476
-0.992965, 341, 437, 372, 468
-0.992965, 141, 405, 172, 436
-0.992967, 153, 353, 184, 384
-0.99297, 209, 121, 240, 152
-0.992974, 189, 193, 220, 224
-0.992977, 73, 317, 104, 348
-0.992985, 237, 453, 268, 484
-0.992988, 145, 421, 176, 452
-0.992988, 105, 281, 136, 312
-0.992991, 129, 193, 375, 256
-0.992996, 165, 333, 196, 364
-0.993, 281, 317, 312, 348
-0.993, 101, 413, 132, 444
-0.993006, 293, 445, 324, 476
-0.993015, 113, 133, 144, 164
-0.993015, 165, 161, 196, 192
-0.99302, 165, 393, 196, 424
-0.993023, 209, 465, 240, 496
-0.993029, 109, 397, 140, 428
-0.99303, 5, 449, 36, 480
-0.993031, 105, 353, 136, 384
-0.993032, 277, 453, 308, 484
-0.99304, 1, 409, 256, 472
-0.993041, 185, 257, 248, 500
-0.993041, 1, 385, 256, 448
-0.993049, 61, 429, 92, 460
-0.993053, 1, 405, 32, 436
-0.993055, 265, 453, 296, 484
-0.993062, 325, 353, 356, 384
-0.993062, 261, 421, 292, 452
-0.993066, 97, 425, 128, 456
-0.993067, 85, 169, 116, 200
-0.993076, 241, 81, 368, 144
-0.99308, 169, 413, 200, 444
-0.993087, 41, 377, 72, 408
-0.993088, 73, 157, 104, 188
-0.993089, 173, 197, 204, 228
-0.993094, 37, 457, 68, 488
-0.993096, 125, 277, 156, 308
-0.993098, 65, 169, 96, 200
-0.993102, 121, 97, 152, 128
-0.993104, 201, 389, 232, 420
-0.993105, 173, 149, 204, 180
-0.993108, 181, 405, 212, 436
-0.993115, 129, 145, 375, 208
-0.993115, 185, 141, 216, 172
-0.993117, 109, 101, 140, 132
-0.993119, 313, 353, 344, 384
-0.993123, 293, 369, 324, 400
-0.993133, 93, 217, 124, 248
-0.993137, 305, 213, 336, 244
-0.993139, 41, 389, 72, 420
-0.993141, 221, 385, 252, 416
-0.993145, 85, 241, 116, 272
-0.993145, 289, 189, 320, 220
-0.993147, 1, 389, 32, 420
-0.993148, 101, 169, 132, 200
-0.993148, 305, 445, 336, 476
-0.993151, 9, 465, 40, 496
-0.993153, 213, 129, 244, 256
-0.993154, 73, 193, 104, 224
-0.993158, 169, 185, 200, 216
-0.993163, 165, 441, 196, 472
-0.993165, 313, 465, 344, 496
-0.993166, 221, 445, 252, 476
-0.993169, 41, 361, 72, 392
-0.993172, 185, 445, 216, 476
-0.993193, 1, 337, 256, 400
-0.993205, 241, 33, 368, 96
-0.993228, 99, 345, 114, 408
-0.993232, 265, 161, 296, 288
-0.993242, 1, 73, 128, 136
-0.993266, 1, 329, 375, 392
-0.993434, 129, 369, 375, 432
-0.993503, 65, 265, 320, 328
-0.993514, 313, 161, 375, 416
-0.993526, 153, 65, 216, 320
-0.993632, 175, 401, 190, 464
-0.99366, 193, 113, 320, 176
-0.993669, 129, 1, 256, 64
-0.993736, 157, 177, 188, 304
-0.9938, 181, 81, 212, 208
-0.99381, 241, 161, 272, 288
-0.993814, 105, 377, 120, 440
-0.993833, 177, 233, 304, 296
-0.993867, 301, 129, 332, 256
-0.993887, 217, 1, 280, 128
-0.993924, 65, 89, 320, 152
-0.993991, 333, 257, 364, 384
-0.994, 129, 425, 375, 488
-0.994005, 105, 345, 120, 408
-0.994074, 225, 161, 288, 416
-0.994105, 33, 193, 288, 256
-0.994127, 65, 429, 192, 460
-0.994149, 217, 241, 248, 368
-0.994179, 335, 361, 350, 424
-0.994264, 1, 297, 375, 360
-0.99427, 9, 145, 72, 272
-0.994282, 33, 349, 160, 380
-0.994301, 361, 409, 375, 472
-0.994308, 1, 449, 128, 480
-0.994314, 355, 409, 370, 472
-0.994361, 121, 33, 184, 160
-0.994403, 317, 361, 332, 424
-0.99445, 325, 401, 340, 464
-0.994483, 307, 417, 322, 480
-0.994497, 65, 153, 192, 184
-0.994499, 21, 321, 52, 448
-0.994536, 169, 1, 232, 128
-0.994539, 33, 49, 160, 112
-0.994566, 1, 169, 256, 232
-0.994567, 291, 401, 306, 464
-0.994568, 291, 433, 306, 496
-0.994607, 33, 113, 288, 176
-0.994634, 253, 65, 284, 192
-0.99466, 93, 353, 108, 416
-0.994684, 33, 389, 160, 420
-0.994707, 299, 425, 314, 488
-0.99473, 241, 433, 368, 464
-0.994737, 241, 9, 368, 72
-0.994744, 281, 409, 296, 472
-0.994753, 1, 461, 128, 492
-0.994769, 97, 165, 224, 196
-0.994816, 315, 417, 330, 480
-0.994896, 65, 453, 192, 484
-0.994903, 173, 377, 188, 440
-0.994935, 329, 361, 344, 424
-0.994938, 343, 409, 358, 472
-0.994944, 341, 369, 356, 432
-0.99497, 241, 413, 368, 444
-0.994977, 119, 137, 134, 200
-0.994993, 33, 361, 160, 392
-0.995011, 33, 377, 160, 408
-0.995023, 97, 1, 352, 64
-0.995043, 167, 409, 182, 472
-0.995057, 129, 121, 375, 184
-0.995061, 301, 401, 316, 464
-0.995076, 165, 81, 196, 208
-0.995094, 193, 457, 320, 488
-0.995116, 323, 425, 338, 488
-0.995125, 1, 273, 375, 336
-0.995126, 97, 285, 224, 316
-0.995143, 181, 385, 196, 448
-0.995148, 241, 369, 368, 400
-0.995175, 193, 193, 224, 320
-0.995181, 177, 469, 304, 500
-0.995192, 129, 445, 256, 476
-0.995222, 323, 361, 338, 424
-0.99524, 167, 145, 182, 208
-0.995243, 241, 445, 368, 476
-0.995252, 241, 105, 368, 168
-0.995269, 347, 353, 362, 416
-0.995274, 65, 177, 192, 208
-0.995278, 17, 241, 48, 368
-0.995278, 49, 65, 112, 320
-0.995306, 1, 137, 375, 200
-0.995316, 337, 401, 352, 464
-0.995322, 97, 425, 112, 488
-0.995323, 137, 129, 152, 192
-0.99533, 129, 289, 375, 352
-0.995342, 347, 377, 362, 440
-0.995355, 77, 433, 92, 496
-0.995364, 65, 441, 192, 472
-0.995389, 97, 137, 224, 168
-0.995404, 81, 57, 208, 120
-0.995411, 127, 105, 142, 168
-0.995427, 265, 65, 296, 192
-0.995427, 1, 241, 375, 304
-0.995439, 65, 301, 192, 332
-0.995457, 99, 385, 114, 448
-0.995458, 331, 401, 346, 464
-0.995518, 159, 401, 174, 464
-0.995529, 167, 385, 182, 448
-0.995529, 329, 425, 344, 488
-0.99554, 63, 337, 78, 400
-0.99554, 141, 209, 172, 336
-0.995541, 273, 417, 288, 480
-0.995554, 97, 65, 352, 128
-0.995562, 313, 145, 344, 272
-0.995566, 111, 385, 126, 448
-0.995586, 1, 437, 128, 468
-0.995606, 349, 409, 364, 472
-0.995613, 69, 417, 84, 480
-0.995622, 97, 25, 352, 88
-0.995624, 181, 409, 196, 472
-0.995628, 105, 401, 120, 464
-0.995634, 241, 385, 368, 416
-0.995644, 121, 281, 136, 344
-0.995645, 95, 289, 110, 352
-0.995647, 33, 273, 160, 304
-0.995704, 91, 433, 106, 496
-0.995711, 145, 65, 176, 192
-0.995714, 65, 193, 192, 224
-0.995737, 193, 169, 208, 232
-0.995755, 129, 153, 256, 184
-0.995767, 289, 257, 320, 384
-0.995772, 49, 413, 176, 444
-0.995775, 1, 409, 128, 440
-0.995785, 97, 33, 160, 288
-0.995786, 307, 393, 322, 456
-0.995789, 77, 305, 92, 368
-0.995792, 1, 217, 375, 280
-0.995797, 173, 145, 188, 208
-0.995809, 1, 369, 16, 432
-0.995827, 113, 273, 128, 336
-0.99584, 49, 329, 176, 360
-0.995841, 257, 305, 288, 432
-0.995844, 1, 193, 375, 256
-0.99587, 139, 417, 154, 480
-0.995884, 305, 257, 336, 384
-0.995891, 187, 385, 202, 448
-0.995891, 133, 417, 148, 480
-0.995903, 203, 145, 218, 208
-0.995904, 281, 433, 296, 496
-0.995917, 71, 321, 86, 384
-0.995921, 331, 337, 346, 400
-0.995927, 345, 225, 375, 352
-0.995932, 29, 241, 60, 368
-0.995933, 297, 33, 360, 160
-0.995947, 281, 49, 312, 176
-0.995948, 117, 81, 132, 144
-0.995979, 105, 257, 120, 320
-0.99599, 241, 357, 368, 388
-0.995996, 129, 321, 375, 384
-0.995998, 225, 209, 352, 240
-0.996016, 113, 137, 128, 200
-0.996036, 177, 441, 304, 472
-0.996037, 177, 165, 304, 196
-0.996041, 359, 433, 374, 496
-0.996045, 97, 361, 224, 392
-0.996055, 241, 113, 272, 240
-0.996061, 353, 433, 368, 496
-0.996064, 89, 289, 104, 352
-0.996076, 81, 265, 208, 296
-0.996082, 81, 253, 208, 284
-0.996097, 241, 469, 368, 500
-0.996098, 1, 1, 375, 64
-0.996103, 1, 421, 128, 452
-0.996106, 105, 289, 120, 352
-0.996111, 81, 1, 208, 64
-0.996133, 177, 325, 304, 356
-0.996137, 131, 129, 146, 192
-0.996143, 325, 337, 340, 400
-0.996143, 83, 289, 98, 352
-0.996147, 55, 385, 70, 448
-0.996154, 151, 113, 166, 176
-0.996157, 115, 313, 130, 376
-0.996174, 313, 385, 328, 448
-0.996186, 131, 265, 146, 328
-0.996189, 127, 305, 142, 368
-0.996207, 197, 97, 228, 224
-0.99621, 175, 169, 190, 232
-0.99621, 241, 353, 256, 416
-0.996231, 11, 433, 26, 496
-0.996234, 337, 337, 352, 400
-0.996239, 87, 409, 102, 472
-0.996255, 9, 369, 24, 432
-0.996257, 137, 97, 152, 160
-0.996264, 15, 401, 30, 464
-0.996268, 93, 193, 108, 256
-0.996272, 101, 321, 116, 384
-0.996277, 159, 121, 174, 184
-0.99628, 183, 169, 198, 232
-0.996284, 1, 73, 375, 136
-0.996294, 1, 113, 375, 176
-0.996295, 225, 397, 352, 428
-0.996297, 19, 377, 34, 440
-0.996304, 197, 361, 212, 424
-0.996307, 81, 241, 208, 272
-0.996308, 81, 393, 208, 424
-0.99631, 253, 257, 284, 384
-0.99631, 353, 377, 368, 440
-0.996344, 193, 137, 208, 200
-0.99635, 301, 177, 316, 240
-0.996359, 161, 153, 176, 216
-0.996361, 65, 25, 192, 88
-0.99637, 105, 113, 120, 176
-0.996371, 179, 145, 194, 208
-0.996372, 85, 433, 100, 496
-0.996372, 17, 153, 144, 184
-0.996375, 9, 305, 40, 432
-0.99638, 149, 401, 164, 464
-0.996381, 49, 165, 176, 196
-0.996393, 85, 185, 100, 248
-0.996394, 113, 429, 240, 460
-0.996396, 217, 329, 232, 392
-0.996398, 125, 137, 140, 200
-0.996407, 1, 253, 128, 284
-0.996428, 63, 417, 78, 480
-0.99643, 73, 225, 104, 480
-0.996436, 77, 169, 92, 232
-0.996442, 129, 337, 256, 368
-0.996463, 85, 225, 116, 480
-0.996463, 49, 317, 176, 348
-0.996472, 353, 353, 368, 416
-0.996473, 53, 305, 84, 432
-0.996499, 209, 193, 336, 224
-0.996499, 111, 113, 126, 176
-0.996509, 1, 25, 375, 88
-0.99651, 177, 429, 304, 460
-0.996524, 65, 469, 192, 500
-0.99653, 99, 185, 114, 248
-0.996531, 177, 153, 304, 184
-0.996547, 33, 285, 160, 316
-0.996559, 359, 361, 374, 424
-0.996559, 115, 353, 130, 416
-0.996574, 289, 377, 304, 440
-0.996575, 95, 321, 110, 384
-0.996581, 129, 81, 144, 144
-0.996588, 215, 433, 230, 496
-0.996597, 133, 297, 148, 360
-0.996599, 303, 433, 318, 464
-0.996601, 107, 321, 122, 384
-0.996632, 3, 393, 18, 456
-0.996647, 105, 137, 120, 200
-0.996653, 131, 393, 146, 456
-0.996657, 33, 385, 48, 448
-0.996658, 313, 201, 328, 264
-0.996664, 27, 377, 42, 440
-0.996675, 173, 425, 188, 488
-0.996688, 209, 121, 224, 184
-0.996709, 187, 409, 202, 472
-0.99671, 115, 249, 130, 312
-0.996714, 193, 193, 208, 256
-0.996715, 143, 137, 158, 200
-0.996729, 53, 361, 68, 424
-0.996729, 87, 361, 102, 424
-0.99676, 1, 241, 128, 272
-0.996767, 193, 417, 320, 448
-0.996772, 1, 49, 375, 112
-0.996786, 225, 145, 256, 272
-0.996788, 113, 457, 240, 488
-0.996803, 325, 209, 356, 336
-0.996824, 1, 333, 128, 364
-0.996831, 129, 349, 256, 380
-0.996862, 97, 109, 224, 140
-0.996887, 17, 301, 144, 332
-0.996888, 81, 349, 208, 380
-0.996902, 297, 433, 312, 464
-0.99692, 129, 409, 256, 440
-0.996924, 105, 385, 120, 416
-0.996951, 97, 349, 112, 380
-0.99696, 1, 41, 256, 104
-0.99697, 113, 297, 240, 328
-0.997002, 241, 309, 368, 340
-0.997015, 209, 1, 240, 128
-0.997019, 113, 469, 240, 500
-0.997028, 17, 197, 144, 228
-0.997033, 177, 401, 304, 432
-0.99704, 49, 137, 176, 168
-0.997043, 81, 221, 208, 252
-0.997049, 193, 365, 320, 396
-0.997076, 309, 433, 324, 464
-0.997082, 161, 277, 288, 308
-0.997111, 61, 225, 92, 480
-0.997117, 1, 1, 256, 64
-0.997121, 97, 257, 128, 500
-0.997156, 317, 373, 332, 404
-0.997164, 337, 365, 352, 396
-0.997169, 81, 17, 144, 144
-0.997173, 45, 225, 76, 480
-0.997178, 177, 337, 304, 368
-0.997214, 209, 109, 336, 140
-0.99723, 177, 309, 304, 340
-0.997236, 1, 369, 375, 432
-0.997249, 313, 1, 375, 500
-0.99726, 121, 129, 152, 384
-0.997303, 241, 457, 368, 488
-0.997327, 17, 209, 144, 240
-0.997366, 139, 153, 154, 184
-0.997372, 113, 209, 240, 240
-0.997395, 295, 413, 310, 444
-0.997409, 97, 313, 224, 344
-0.997409, 97, 325, 224, 356
-0.997438, 1, 313, 128, 344
-0.997442, 65, 205, 192, 236
-0.997452, 177, 289, 304, 320
-0.997455, 331, 381, 346, 412
-0.997455, 81, 381, 208, 412
-0.997468, 349, 365, 364, 396
-0.99749, 193, 5, 320, 36
-0.997491, 291, 433, 306, 464
-0.997496, 161, 377, 288, 408
-0.997506, 173, 413, 188, 444
-0.997506, 89, 453, 104, 484
-0.997507, 109, 257, 140, 500
-0.997508, 85, 129, 116, 384
-0.99751, 99, 465, 114, 496
-0.997512, 111, 385, 126, 416
-0.997548, 105, 97, 136, 352
-0.997553, 129, 121, 256, 152
-0.997562, 177, 353, 304, 384
-0.997571, 327, 369, 342, 400
-0.997574, 97, 373, 112, 404
-0.99758, 177, 121, 304, 152
-0.997583, 345, 381, 360, 412
-0.997605, 303, 421, 318, 452
-0.997626, 161, 101, 288, 132
-0.997628, 221, 49, 252, 176
-0.997629, 213, 445, 228, 476
-0.997645, 209, 181, 336, 212
-0.997647, 153, 129, 168, 160
-0.997651, 1, 177, 128, 208
-0.997671, 105, 397, 120, 428
-0.997679, 117, 141, 132, 172
-0.99769, 111, 405, 126, 436
-0.997703, 285, 413, 300, 444
-0.997711, 175, 381, 190, 412
-0.997717, 161, 409, 176, 440
-0.997726, 265, 257, 296, 384
-0.997736, 359, 365, 374, 396
-0.997743, 117, 165, 132, 196
-0.997751, 309, 421, 324, 452
-0.997755, 131, 149, 146, 180
-0.997756, 97, 97, 224, 128
-0.997764, 79, 309, 94, 340
-0.997771, 283, 441, 298, 472
-0.997789, 339, 397, 354, 428
-0.997796, 299, 445, 314, 476
-0.997798, 113, 177, 240, 208
-0.997801, 169, 393, 184, 424
-0.997807, 241, 321, 368, 352
-0.997814, 161, 201, 288, 232
-0.997816, 339, 385, 354, 416
-0.997832, 201, 153, 216, 184
-0.997836, 129, 393, 256, 424
-0.997845, 347, 417, 362, 448
-0.997848, 231, 465, 246, 496
-0.99785, 113, 93, 128, 124
-0.997851, 145, 141, 272, 172
-0.997856, 203, 389, 218, 420
-0.997858, 33, 1, 160, 64
-0.99786, 195, 145, 210, 176
-0.997864, 161, 89, 288, 120
-0.997865, 1, 65, 256, 128
-0.997866, 219, 457, 234, 488
-0.997879, 135, 133, 150, 164
-0.997891, 89, 185, 104, 216
-0.997892, 177, 389, 304, 420
-0.997894, 213, 377, 228, 408
-0.997903, 91, 361, 106, 392
-0.997909, 293, 445, 308, 476
-0.997935, 125, 153, 140, 184
-0.997937, 179, 401, 194, 432
-0.997941, 69, 129, 100, 384
-0.997957, 131, 301, 146, 332
-0.997957, 105, 409, 120, 440
-0.997966, 305, 405, 320, 436
-0.997967, 193, 17, 320, 48
-0.997973, 315, 429, 330, 460
-0.997974, 111, 157, 126, 188
-0.997975, 225, 341, 352, 372
-0.997979, 133, 165, 148, 196
-0.997981, 161, 233, 288, 264
-0.997983, 9, 225, 40, 480
-0.997984, 65, 121, 192, 152
-0.997985, 315, 385, 330, 416
-0.997992, 327, 393, 342, 424
-0.997993, 277, 421, 292, 452
-0.997997, 361, 417, 375, 448
-0.997997, 201, 133, 216, 164
-0.997999, 193, 221, 320, 252
-0.998004, 1, 229, 128, 260
-0.998005, 195, 197, 210, 228
-0.998005, 83, 469, 98, 500
-0.998013, 109, 293, 124, 324
-0.998018, 71, 469, 86, 500
-0.998025, 127, 137, 142, 168
-0.998037, 333, 393, 348, 424
-0.998038, 219, 445, 234, 476
-0.998039, 67, 333, 82, 364
-0.99804, 193, 61, 320, 92
-0.99804, 169, 145, 184, 176
-0.998045, 209, 137, 224, 168
-0.99805, 225, 165, 352, 196
-0.998052, 225, 297, 352, 328
-0.998054, 99, 425, 114, 456
-0.998061, 83, 449, 98, 480
-0.998067, 219, 121, 234, 152
-0.998069, 337, 409, 352, 440
-0.998069, 73, 325, 88, 356
-0.998073, 87, 301, 102, 332
-0.998075, 89, 201, 104, 232
-0.998084, 209, 125, 224, 156
-0.998085, 109, 373, 124, 404
-0.998088, 105, 361, 120, 392
-0.998094, 181, 433, 196, 464
-0.998094, 193, 41, 320, 72
-0.998097, 107, 105, 122, 136
-0.998097, 77, 469, 92, 500
-0.998099, 89, 469, 104, 500
-0.998104, 315, 417, 330, 448
-0.998105, 167, 413, 182, 444
-0.998109, 143, 141, 158, 172
-0.99811, 169, 193, 200, 448
-0.998114, 129, 77, 256, 108
-0.998117, 175, 165, 190, 196
-0.99812, 353, 421, 368, 452
-0.998121, 97, 297, 112, 328
-0.998122, 93, 437, 108, 468
-0.998125, 97, 197, 112, 228
-0.998132, 105, 469, 120, 500
-0.998134, 331, 353, 346, 384
-0.998138, 187, 437, 202, 468
-0.99814, 169, 161, 184, 192
-0.998147, 275, 453, 290, 484
-0.998148, 237, 361, 252, 392
-0.99815, 157, 161, 188, 416
-0.998155, 339, 425, 354, 456
-0.998157, 133, 97, 164, 352
-0.99816, 123, 169, 138, 200
-0.998161, 193, 29, 320, 60
-0.998164, 161, 137, 176, 168
-0.998179, 195, 385, 210, 416
-0.99818, 107, 137, 122, 168
-0.998183, 123, 289, 138, 320
-0.998187, 209, 73, 336, 104
-0.998192, 359, 445, 374, 476
-0.998197, 225, 453, 240, 484
-0.998198, 31, 449, 46, 480
-0.998199, 329, 413, 344, 444
-0.998206, 187, 393, 202, 424
-0.998207, 321, 357, 336, 388
-0.998207, 241, 221, 368, 252
-0.998207, 125, 301, 140, 332
-0.998212, 117, 153, 132, 184
-0.998212, 33, 225, 64, 480
-0.998214, 1, 165, 128, 196
-0.998216, 41, 453, 56, 484
-0.998216, 179, 413, 194, 444
-0.99822, 331, 429, 346, 460
-0.998222, 183, 161, 198, 192
-0.998223, 325, 429, 340, 460
-0.998224, 161, 177, 288, 208
-0.998229, 143, 357, 158, 388
-0.998233, 105, 333, 120, 364
-0.99824, 315, 209, 330, 240
-0.998241, 141, 425, 156, 456
-0.998241, 49, 109, 176, 140
-0.998246, 233, 453, 248, 484
-0.998248, 105, 157, 120, 188
-0.998253, 167, 433, 182, 464
-0.998254, 103, 349, 118, 380
-0.99826, 73, 433, 88, 464
-0.998261, 289, 317, 304, 348
-0.998263, 241, 97, 368, 128
-0.998268, 129, 265, 256, 296
-0.998269, 21, 193, 52, 448
-0.998272, 145, 365, 272, 396
-0.998294, 113, 189, 240, 220
-0.998348, 181, 193, 212, 448
-0.998374, 313, 371, 375, 386
-0.998396, 97, 371, 128, 386
-0.998397, 305, 407, 336, 422
-0.998398, 305, 423, 336, 438
-0.998399, 81, 153, 112, 168
-0.998399, 149, 363, 180, 378
-0.9984, 221, 469, 252, 484
-0.9984, 185, 195, 216, 210
-0.998401, 197, 383, 228, 398
-0.998402, 297, 475, 328, 490
-0.998404, 157, 425, 188, 440
-0.998404, 333, 443, 364, 458
-0.998404, 321, 471, 352, 486
-0.998405, 165, 149, 196, 164
-0.998405, 101, 347, 132, 362
-0.998405, 201, 485, 232, 500
-0.998406, 69, 451, 100, 466
-0.998406, 345, 443, 375, 458
-0.998407, 49, 93, 176, 124
-0.998407, 105, 363, 136, 378
-0.998408, 33, 401, 64, 416
-0.998409, 113, 111, 144, 126
-0.998412, 121, 431, 152, 446
-0.998412, 141, 157, 172, 172
-0.998412, 289, 435, 352, 450
-0.998413, 157, 157, 188, 172
-0.998413, 205, 149, 236, 164
-0.998414, 333, 413, 364, 428
-0.998415, 321, 391, 352, 406
-0.998415, 25, 457, 56, 472
-0.998416, 273, 443, 336, 458
-0.998417, 305, 449, 336, 464
-0.998417, 141, 165, 172, 180
-0.998418, 85, 185, 116, 200
-0.998419, 221, 483, 252, 498
-0.99842, 213, 125, 244, 140
-0.99842, 153, 357, 184, 372
-0.998421, 77, 203, 108, 218
-0.998421, 177, 393, 208, 408
-0.998422, 109, 169, 140, 184
-0.998422, 101, 387, 132, 402
-0.998423, 109, 357, 140, 372
-0.998423, 325, 407, 356, 422
-0.998424, 169, 417, 200, 432
-0.998424, 105, 291, 136, 306
-0.998425, 169, 439, 200, 454
-0.998427, 285, 319, 316, 334
-0.998428, 113, 141, 144, 156
-0.998428, 89, 299, 120, 314
-0.998429, 125, 145, 156, 160
-0.998429, 313, 379, 344, 394
-0.99843, 85, 175, 116, 190
-0.99843, 137, 363, 168, 378
-0.998431, 189, 395, 220, 410
-0.998432, 333, 419, 364, 434
-0.998432, 277, 483, 308, 498
-0.998433, 145, 151, 176, 166
-0.998434, 281, 431, 312, 446
-0.998434, 345, 379, 375, 394
-0.998434, 205, 477, 236, 492
-0.998435, 121, 157, 152, 172
-0.998435, 185, 161, 216, 176
-0.998436, 213, 453, 244, 468
-0.998436, 317, 427, 348, 442
-0.998436, 257, 447, 288, 462
-0.998438, 345, 373, 375, 388
-0.998438, 341, 367, 372, 382
-0.998438, 177, 411, 208, 426
-0.998438, 161, 339, 192, 354
-0.998439, 149, 143, 180, 158
-0.998439, 285, 475, 316, 490
-0.998441, 117, 307, 148, 322
-0.998442, 137, 427, 168, 442
-0.998442, 85, 371, 116, 386
-0.998443, 93, 431, 124, 446
-0.998443, 97, 175, 128, 190
-0.998443, 177, 143, 208, 158
-0.998444, 293, 411, 324, 426
-0.998446, 201, 395, 232, 410
-0.998447, 233, 459, 264, 474
-0.998448, 121, 169, 152, 184
-0.998448, 321, 399, 352, 414
-0.99845, 113, 147, 144, 162
-0.998452, 293, 425, 324, 440
-0.998453, 297, 207, 328, 222
-0.998454, 221, 459, 252, 474
-0.998454, 313, 385, 344, 400
-0.998455, 77, 473, 108, 488
-0.998455, 217, 475, 248, 490
-0.998456, 313, 437, 375, 452
-0.998457, 181, 153, 212, 168
-0.998458, 345, 417, 375, 432
-0.998459, 185, 403, 216, 418
-0.99846, 101, 475, 132, 490
-0.99846, 57, 357, 120, 372
-0.998461, 281, 437, 312, 452
-0.998464, 269, 445, 300, 460
-0.998464, 313, 373, 344, 388
-0.99847, 225, 273, 352, 304
-0.998471, 325, 385, 356, 400
-0.998471, 289, 417, 320, 432
-0.998472, 81, 479, 112, 494
-0.998472, 89, 355, 152, 370
-0.998472, 105, 483, 136, 498
-0.998474, 157, 419, 188, 434
-0.998475, 93, 155, 124, 170
-0.998476, 173, 165, 204, 180
-0.998477, 57, 363, 120, 378
-0.998478, 309, 393, 340, 408
-0.998479, 77, 437, 108, 452
-0.998479, 277, 415, 308, 430
-0.998481, 109, 153, 140, 168
-0.998482, 273, 417, 336, 432
-0.998484, 293, 451, 324, 466
-0.998486, 93, 481, 124, 496
-0.998493, 193, 145, 224, 160
-0.998493, 105, 297, 136, 312
-0.998494, 129, 151, 160, 166
-0.998496, 305, 443, 368, 458
-0.998498, 89, 365, 120, 380
-0.9985, 73, 173, 136, 188
-0.998501, 85, 465, 116, 480
-0.998503, 113, 175, 144, 190
-0.998503, 313, 417, 375, 432
-0.998505, 241, 453, 304, 468
-0.99851, 321, 441, 352, 456
-0.998512, 73, 483, 136, 498
-0.998512, 281, 129, 312, 384
-0.998512, 341, 437, 372, 452
-0.998512, 97, 361, 160, 376
-0.99852, 337, 429, 368, 444
-0.99852, 65, 473, 128, 488
-0.99852, 189, 485, 220, 500
-0.998522, 57, 351, 120, 366
-0.998522, 117, 33, 148, 288
-0.998524, 57, 463, 120, 478
-0.998524, 93, 353, 124, 368
-0.998525, 81, 299, 144, 314
-0.998526, 345, 257, 375, 500
-0.998526, 265, 449, 328, 464
-0.998529, 313, 379, 375, 394
-0.998531, 153, 155, 216, 170
-0.998532, 313, 429, 375, 444
-0.998533, 241, 149, 368, 180
-0.998537, 325, 369, 356, 384
-0.998538, 297, 397, 360, 412
-0.998538, 321, 435, 352, 450
-0.998538, 129, 147, 192, 162
-0.998541, 161, 145, 224, 160
-0.998542, 289, 411, 352, 426
-0.998542, 121, 407, 184, 422
-0.998544, 161, 163, 224, 178
-0.998544, 73, 433, 136, 448
-0.998544, 121, 153, 184, 168
-0.998545, 129, 161, 192, 176
-0.998546, 305, 429, 336, 444
-0.998546, 261, 257, 292, 500
-0.998546, 297, 405, 360, 420
-0.998549, 277, 421, 308, 436
-0.998549, 209, 85, 336, 116
-0.99855, 157, 413, 188, 428
-0.998551, 257, 423, 320, 438
-0.998551, 113, 171, 176, 186
-0.998551, 97, 401, 160, 416
-0.998552, 297, 423, 360, 438
-0.998552, 281, 379, 344, 394
-0.998552, 201, 459, 264, 474
-0.998552, 177, 445, 240, 460
-0.998554, 89, 267, 152, 282
-0.998556, 49, 369, 112, 384
-0.998557, 81, 367, 144, 382
-0.998559, 265, 437, 328, 452
-0.99856, 65, 335, 128, 350
-0.998562, 305, 385, 368, 400
-0.998562, 185, 483, 248, 498
-0.998563, 281, 449, 312, 464
-0.998563, 185, 155, 248, 170
-0.998563, 289, 429, 352, 444
-0.998565, 305, 443, 336, 458
-0.998565, 97, 179, 160, 194
-0.998566, 273, 209, 336, 224
-0.998566, 89, 385, 152, 400
-0.998567, 137, 437, 200, 452
-0.998568, 49, 457, 112, 472
-0.998568, 89, 165, 152, 180
-0.99857, 265, 431, 328, 446
-0.99857, 281, 473, 344, 488
-0.998571, 49, 377, 112, 392
-0.998571, 177, 393, 240, 408
-0.998574, 73, 439, 136, 454
-0.998576, 41, 451, 104, 466
-0.998576, 93, 359, 124, 374
-0.998576, 17, 387, 80, 402
-0.998577, 49, 389, 112, 404
-0.998578, 293, 431, 324, 446
-0.998582, 161, 411, 224, 426
-0.998583, 137, 451, 200, 466
-0.998583, 17, 393, 80, 408
-0.998584, 81, 305, 144, 320
-0.998585, 113, 5, 240, 36
-0.998585, 57, 395, 120, 410
-0.998587, 305, 481, 368, 496
-0.998587, 121, 431, 184, 446
-0.998588, 177, 451, 240, 466
-0.998589, 233, 459, 296, 474
-0.99859, 81, 445, 144, 460
-0.99859, 81, 153, 144, 168
-0.998591, 193, 477, 256, 492
-0.998593, 313, 365, 375, 380
-0.998593, 297, 449, 360, 464
-0.998593, 1, 141, 128, 172
-0.998593, 97, 463, 160, 478
-0.998593, 89, 393, 152, 408
-0.998594, 273, 483, 336, 498
-0.998594, 73, 179, 136, 194
-0.998595, 129, 245, 256, 276
-0.998595, 89, 473, 120, 488
-0.998595, 145, 357, 208, 372
-0.998595, 293, 445, 324, 460
-0.998596, 57, 345, 120, 360
-0.998596, 137, 399, 200, 414
-0.998598, 137, 167, 200, 182
-0.998598, 305, 435, 336, 450
-0.998598, 49, 383, 112, 398
-0.998598, 241, 417, 304, 432
-0.998598, 201, 451, 264, 466
-0.9986, 197, 161, 228, 416
-0.9986, 97, 97, 160, 112
-0.9986, 89, 475, 152, 490
-0.998601, 113, 285, 176, 300
-0.998604, 161, 405, 224, 420
-0.998604, 129, 363, 192, 378
-0.998604, 97, 429, 160, 444
-0.998606, 105, 119, 168, 134
-0.998606, 97, 277, 160, 292
-0.998606, 73, 251, 136, 266
-0.998607, 161, 437, 224, 452
-0.998608, 177, 333, 240, 348
-0.998609, 49, 479, 112, 494
-0.998609, 201, 465, 264, 480
-0.99861, 81, 261, 144, 276
-0.998611, 129, 413, 192, 428
-0.998612, 225, 447, 288, 462
-0.998612, 145, 431, 208, 446
-0.998612, 105, 143, 168, 158
-0.998613, 49, 205, 112, 220
-0.998613, 65, 329, 128, 344
-0.998614, 313, 353, 375, 368
-0.998614, 41, 437, 104, 452
-0.998614, 281, 385, 344, 400
-0.998614, 313, 471, 375, 486
-0.998615, 137, 445, 200, 460
-0.998615, 209, 483, 272, 498
-0.998617, 265, 321, 328, 336
-0.998619, 41, 469, 104, 484
-0.998619, 1, 407, 64, 422
-0.998621, 73, 313, 136, 328
-0.998622, 17, 373, 80, 388
-0.998622, 289, 363, 352, 378
-0.998623, 57, 129, 88, 384
-0.998623, 81, 293, 144, 308
-0.998624, 17, 355, 80, 370
-0.998624, 137, 423, 200, 438
-0.998625, 97, 289, 112, 416
-0.998625, 73, 159, 136, 174
-0.998626, 297, 311, 360, 326
-0.998626, 65, 425, 128, 440
-0.998627, 249, 485, 312, 500
-0.998627, 233, 473, 296, 488
-0.998627, 97, 407, 160, 422
-0.998628, 217, 161, 280, 176
-0.998628, 153, 329, 216, 344
-0.99863, 281, 443, 312, 458
-0.998635, 129, 65, 256, 96
-0.998638, 305, 257, 336, 500
-0.998665, 293, 439, 324, 454
-0.998678, 281, 225, 312, 480
-0.998683, 129, 221, 256, 252
-0.998711, 157, 257, 188, 500
-0.998769, 237, 257, 268, 500
-0.998776, 217, 225, 248, 480
-0.998815, 121, 225, 152, 480
-0.998823, 355, 369, 370, 496
-0.998873, 269, 129, 300, 384
-0.998873, 103, 273, 118, 400
-0.998876, 341, 369, 356, 496
-0.998877, 169, 97, 200, 352
-0.99889, 91, 289, 106, 416
-0.9989, 181, 97, 212, 352
-0.998929, 315, 337, 330, 464
-0.998932, 309, 369, 324, 496
-0.998938, 325, 225, 356, 480
-0.998949, 329, 337, 344, 464
-0.998957, 97, 209, 112, 336
-0.998967, 83, 289, 98, 416
-0.998968, 89, 241, 104, 368
-0.998974, 117, 129, 132, 256
-0.998993, 57, 369, 72, 496
-0.998997, 335, 353, 350, 480
-0.999006, 63, 337, 78, 464
-0.999006, 97, 337, 112, 464
-0.999031, 103, 209, 118, 336
-0.99904, 193, 257, 224, 500
-0.999043, 177, 353, 192, 480
-0.999053, 171, 353, 186, 480
-0.999054, 145, 1, 208, 128
-0.999057, 79, 241, 94, 368
-0.999071, 257, 97, 288, 352
-0.999083, 163, 337, 178, 464
-0.999089, 217, 65, 248, 320
-0.999091, 249, 193, 280, 448
-0.999091, 321, 337, 336, 464
-0.999091, 347, 369, 362, 496
-0.999095, 199, 321, 214, 448
-0.999096, 3, 353, 18, 480
-0.999097, 19, 353, 34, 480
-0.999099, 299, 353, 314, 480
-0.9991, 113, 257, 128, 384
-0.999105, 29, 353, 44, 480
-0.999107, 185, 369, 200, 496
-0.99911, 69, 321, 84, 448
-0.99911, 121, 81, 136, 208
-0.999111, 143, 129, 158, 256
-0.999114, 201, 129, 216, 256
-0.999114, 157, 129, 172, 256
-0.999117, 123, 321, 138, 448
-0.999123, 103, 337, 118, 464
-0.999124, 293, 193, 324, 448
-0.999126, 91, 193, 106, 320
-0.99913, 147, 337, 162, 464
-0.999131, 137, 225, 168, 480
-0.999134, 245, 65, 276, 320
-0.999135, 77, 289, 92, 416
-0.999144, 115, 369, 130, 496
-0.999147, 123, 129, 138, 256
-0.999155, 9, 353, 24, 480
-0.999163, 1, 25, 128, 88
-0.999164, 123, 209, 138, 336
-0.999171, 39, 369, 54, 496
-0.999171, 73, 241, 88, 368
-0.999171, 209, 305, 224, 432
-0.999172, 361, 369, 375, 496
-0.999173, 229, 65, 260, 320
-0.999176, 111, 209, 126, 336
-0.999192, 291, 369, 306, 496
-0.999196, 25, 97, 56, 352
-0.999199, 185, 305, 200, 432
-0.999202, 155, 289, 170, 416
-0.999202, 277, 33, 308, 288
-0.999206, 109, 321, 124, 448
-0.999207, 85, 161, 100, 288
-0.999218, 293, 161, 308, 288
-0.999223, 195, 145, 210, 272
-0.999225, 165, 129, 180, 256
-0.999227, 79, 161, 94, 288
-0.999229, 205, 33, 236, 288
-0.99924, 135, 321, 150, 448
-0.999246, 133, 81, 148, 208
-0.999247, 141, 289, 156, 416
-0.999251, 309, 321, 324, 448
-0.999256, 127, 257, 142, 384
-0.999257, 145, 49, 208, 176
-0.999261, 127, 81, 142, 208
-0.999272, 111, 113, 126, 240
-0.999279, 191, 353, 206, 480
-0.99928, 233, 289, 248, 416
-0.999281, 349, 305, 364, 432
-0.999287, 177, 305, 192, 432
-0.999288, 91, 353, 106, 480
-0.999288, 303, 177, 318, 304
-0.999293, 119, 273, 134, 400
-0.999294, 189, 129, 204, 256
-0.999299, 129, 129, 144, 256
-0.9993, 281, 321, 296, 448
-0.999306, 47, 369, 62, 496
-0.999312, 155, 177, 170, 304
-0.999314, 293, 97, 324, 352
-0.999316, 207, 129, 222, 256
-0.999322, 287, 161, 302, 288
-0.999323, 141, 353, 156, 480
-0.999332, 97, 161, 112, 288
-0.999332, 237, 353, 252, 480
-0.999345, 215, 321, 230, 448
-0.999348, 335, 305, 350, 432
-0.999348, 361, 321, 375, 448
-0.999352, 137, 1, 168, 256
-0.999353, 327, 289, 342, 416
-0.999354, 203, 369, 218, 496
-0.999355, 137, 129, 152, 256
-0.999356, 73, 161, 88, 288
-0.999359, 341, 321, 356, 448
-0.99936, 317, 289, 332, 416
-0.999362, 283, 369, 298, 496
-0.999373, 217, 273, 232, 400
-0.999373, 65, 241, 80, 368
-0.999377, 171, 305, 186, 432
-0.999379, 223, 289, 238, 416
-0.999381, 243, 289, 258, 416
-0.999384, 103, 161, 118, 288
-0.999387, 193, 305, 208, 432
-0.999388, 243, 353, 258, 480
-0.999391, 179, 129, 194, 256
-0.999393, 117, 209, 132, 336
-0.9994, 131, 177, 146, 304
-0.999401, 7, 193, 22, 320
-0.999409, 9, 129, 40, 384
-0.999413, 285, 113, 300, 240
-0.999415, 313, 193, 328, 320
-0.999418, 251, 305, 266, 432
-0.999418, 145, 97, 176, 352
-0.999432, 61, 193, 76, 320
-0.999435, 173, 161, 188, 288
-0.999436, 205, 257, 236, 500
-0.999438, 25, 193, 40, 320
-0.999439, 229, 113, 244, 240
-0.999439, 33, 193, 48, 320
-0.999446, 45, 129, 76, 384
-0.999447, 71, 369, 86, 496
-0.999448, 153, 369, 168, 496
-0.999449, 265, 1, 296, 256
-0.99945, 295, 113, 310, 240
-0.999454, 133, 273, 148, 400
-0.999464, 15, 193, 30, 320
-0.999465, 251, 369, 266, 496
-0.999472, 1, 193, 16, 320
-0.999473, 189, 193, 204, 320
-0.999474, 53, 305, 68, 432
-0.999479, 209, 369, 224, 496
-0.999481, 149, 113, 164, 240
-0.999483, 199, 257, 214, 384
-0.999483, 51, 193, 66, 320
-0.999484, 111, 161, 126, 288
-0.999486, 43, 193, 58, 320
-0.999486, 319, 209, 334, 336
-0.999487, 243, 241, 258, 368
-0.999499, 303, 305, 318, 432
-0.999502, 305, 161, 336, 416
-0.999574, 193, 65, 224, 320
-0.999597, 241, 457, 256, 472
-0.999598, 71, 333, 86, 348
-0.999598, 317, 385, 332, 400
-0.999599, 297, 483, 312, 498
-0.9996, 111, 483, 126, 498
-0.999605, 213, 123, 228, 138
-0.999605, 135, 137, 150, 152
-0.999606, 153, 183, 168, 198
-0.999608, 189, 485, 204, 500
-0.999609, 75, 327, 90, 342
-0.999609, 333, 393, 348, 408
-0.99961, 231, 475, 246, 490
-0.99961, 173, 423, 188, 438
-0.999611, 83, 173, 98, 188
-0.999612, 169, 373, 184, 388
-0.999612, 339, 387, 354, 402
-0.999613, 331, 399, 346, 414
-0.999614, 337, 399, 352, 414
-0.999614, 177, 393, 192, 408
-0.999614, 161, 409, 176, 424
-0.999615, 329, 363, 344, 378
-0.999615, 85, 473, 100, 488
-0.999616, 299, 425, 314, 440
-0.999616, 215, 449, 230, 464
-0.999617, 289, 485, 304, 500
-0.999617, 351, 435, 366, 450
-0.999618, 127, 143, 142, 158
-0.999619, 89, 203, 104, 218
-0.999619, 319, 379, 334, 394
-0.999619, 85, 483, 100, 498
-0.999619, 327, 371, 342, 386
-0.999619, 103, 391, 118, 406
-0.99962, 111, 293, 126, 308
-0.99962, 107, 177, 122, 192
-0.99962, 193, 145, 208, 160
-0.999621, 195, 193, 210, 208
-0.999623, 237, 365, 252, 380
-0.999624, 323, 365, 338, 380
-0.999624, 345, 385, 360, 400
-0.999625, 269, 447, 284, 462
-0.999625, 193, 393, 208, 408
-0.999625, 107, 115, 122, 130
-0.999626, 353, 429, 368, 444
-0.999627, 127, 305, 142, 320
-0.999627, 347, 421, 362, 436
-0.999628, 161, 415, 176, 430
-0.999628, 189, 443, 204, 458
-0.99963, 325, 435, 340, 450
-0.999631, 335, 365, 350, 380
-0.999631, 99, 369, 114, 384
-0.999631, 357, 363, 372, 378
-0.999631, 93, 365, 108, 380
-0.999633, 293, 431, 308, 446
-0.999634, 345, 437, 360, 452
-0.999634, 225, 453, 240, 468
-0.999634, 331, 385, 346, 400
-0.999634, 99, 481, 114, 496
-0.999634, 117, 153, 132, 168
-0.999634, 199, 387, 214, 402
-0.999635, 181, 407, 196, 422
-0.999636, 353, 419, 368, 434
-0.999637, 125, 167, 140, 182
-0.999638, 111, 415, 126, 430
-0.999638, 195, 153, 210, 168
-0.999639, 109, 357, 124, 372
-0.999639, 311, 441, 326, 456
-0.999641, 103, 349, 118, 364
-0.999642, 335, 433, 350, 448
-0.999642, 113, 95, 128, 110
-0.999642, 115, 173, 130, 188
-0.999644, 97, 359, 112, 374
-0.999644, 351, 371, 366, 386
-0.999646, 105, 481, 120, 496
-0.999646, 283, 417, 298, 432
-0.999646, 335, 439, 350, 454
-0.999646, 287, 479, 302, 494
-0.999646, 143, 155, 158, 170
-0.999646, 343, 431, 358, 446
-0.999648, 139, 431, 154, 446
-0.999649, 315, 429, 330, 444
-0.99965, 349, 377, 364, 392
-0.999651, 93, 479, 108, 494
-0.999651, 135, 151, 150, 166
-0.999652, 149, 361, 164, 376
-0.999652, 325, 441, 340, 456
-0.999652, 111, 401, 126, 416
-0.999653, 169, 163, 184, 178
-0.999655, 111, 379, 126, 394
-0.999657, 191, 199, 206, 214
-0.999658, 111, 475, 126, 490
-0.999658, 175, 163, 190, 178
-0.999659, 345, 97, 375, 352
-0.999659, 235, 459, 250, 474
-0.999659, 175, 387, 190, 402
-0.999659, 111, 385, 126, 400
-0.99966, 99, 431, 114, 446
-0.999663, 97, 465, 112, 480
-0.999663, 281, 449, 296, 464
-0.999664, 283, 443, 298, 458
-0.999664, 91, 473, 106, 488
-0.999665, 167, 389, 182, 404
-0.999668, 317, 443, 332, 458
-0.99967, 237, 161, 268, 416
-0.99967, 103, 469, 118, 484
-0.999674, 297, 411, 312, 426
-0.999674, 203, 393, 218, 408
-0.999677, 357, 369, 372, 384
-0.999678, 317, 435, 332, 450
-0.999679, 105, 399, 120, 414
-0.99968, 199, 147, 214, 162
-0.999681, 289, 415, 304, 430
-0.999682, 291, 449, 306, 464
-0.999688, 309, 429, 324, 444
-0.999691, 299, 431, 314, 446
-0.999692, 173, 381, 188, 396
-0.999703, 311, 435, 326, 450
-0.999707, 109, 409, 124, 424
-0.999708, 171, 415, 186, 430
-0.999713, 157, 65, 188, 320
-0.999713, 289, 441, 304, 456
-0.999714, 105, 475, 120, 490
-0.999717, 301, 447, 316, 462
-0.999725, 105, 385, 120, 400
-0.999736, 99, 475, 114, 490
-0.999741, 295, 443, 310, 458
-0.999742, 317, 373, 332, 388
-0.999749, 143, 361, 158, 376
-0.999754, 97, 353, 112, 368
-0.999758, 297, 437, 312, 452
-0.999758, 109, 391, 124, 406
-0.99977, 177, 413, 192, 428
-0.999776, 305, 435, 320, 450
-0.999801, 305, 441, 320, 456
-0.999838, 305, 65, 336, 320
-0.999859, 325, 97, 356, 352
-0.999873, 289, 1, 320, 256
-0.999883, 93, 33, 124, 288
-0.999936, 81, 33, 112, 288
-0.999976, 181, 1, 212, 256
-1.00009, 61, 33, 92, 288
-1.00022, 105, 1, 136, 256
-1.00036, 169, 1, 200, 256
-1.00051, 49, 33, 80, 288
-1.00057, 57, 17, 120, 144
-1.00063, 37, 33, 68, 288
-1.00071, 5, 33, 36, 288
-1.00081, 325, 1, 356, 256
-1.00085, 313, 65, 375, 320
-1.00087, 25, 1, 56, 256
-1.00093, 345, 1, 375, 256
-1.00181, 41, 65, 104, 192
-1.00229, 313, 97, 375, 224
-1.00315, 9, 49, 72, 176
-1.00354, 17, 1, 80, 128
-1.0083, 9, 97, 72, 224
