1875
-0.552344, 1, 65, 500, 320
-0.61092, 1, 1, 500, 332
-0.649977, 257, 1, 500, 332
-0.67513, 97, 1, 352, 332
-0.737307, 97, 65, 352, 320
-0.808278, 1, 1, 256, 332
-0.814154, 257, 33, 500, 288
-0.894992, 1, 161, 500, 288
-0.901523, 145, 65, 272, 320
-0.910525, 273, 1, 400, 332
-0.915228, 97, 65, 224, 320
-0.91552, 369, 1, 496, 332
-0.917994, 193, 65, 320, 320
-0.9186, 161, 1, 288, 332
-0.919423, 113, 1, 240, 332
-0.921744, 321, 1, 448, 332
-0.923322, 1, 209, 500, 332
-0.927893, 1, 97, 500, 224
-0.929814, 1, 209, 256, 332
-0.930413, 1, 1, 128, 332
-0.930633, 113, 177, 176, 304
-0.932299, 241, 65, 368, 320
-0.934381, 369, 65, 496, 320
-0.934465, 65, 1, 192, 332
-0.935052, 1, 33, 256, 288
-0.936455, 33, 65, 160, 320
-0.939437, 49, 161, 176, 288
-0.940163, 97, 129, 352, 256
-0.940745, 225, 1, 352, 332
-0.941355, 97, 209, 352, 332
-0.941624, 433, 81, 496, 144
-0.942807, 433, 81, 496, 208
-0.944184, 1, 161, 256, 288
-0.944405, 217, 209, 280, 332
-0.946437, 193, 177, 448, 304
-0.948034, 161, 209, 288, 332
-0.948168, 1, 49, 500, 176
-0.948181, 257, 97, 500, 224
-0.948611, 129, 145, 256, 272
-0.949088, 1, 177, 128, 304
-0.949437, 73, 193, 136, 320
-0.950519, 105, 129, 168, 256
-0.950793, 65, 209, 192, 332
-0.951852, 257, 49, 500, 176
-0.952435, 113, 193, 176, 256
-0.952553, 249, 177, 312, 304
-0.953209, 217, 217, 280, 280
-0.953715, 409, 97, 472, 224
-0.954748, 433, 105, 496, 168
-0.954754, 81, 169, 144, 232
-0.955611, 369, 81, 496, 208
-0.955666, 73, 193, 136, 256
-0.955956, 81, 113, 208, 240
-0.956435, 145, 145, 208, 272
-0.956554, 193, 233, 256, 296
-0.956792, 217, 257, 280, 320
-0.957032, 137, 209, 200, 332
-0.957697, 193, 209, 256, 332
-0.958049, 113, 209, 240, 332
-0.958073, 273, 145, 336, 272
-0.958114, 225, 177, 352, 304
-0.959085, 73, 145, 136, 272
-0.95971, 105, 169, 168, 232
-0.96082, 105, 233, 168, 296
-0.962449, 289, 65, 416, 320
-0.962707, 129, 81, 384, 208
-0.963104, 161, 209, 224, 332
-0.964444, 225, 113, 288, 240
-0.964701, 81, 129, 144, 192
-0.965282, 177, 257, 240, 320
-0.965698, 305, 49, 368, 176
-0.96653, 145, 217, 208, 280
-0.966893, 409, 89, 472, 152
-0.9671, 241, 177, 304, 240
-0.967482, 453, 65, 484, 192
-0.968161, 461, 105, 492, 168
-0.968241, 461, 81, 492, 144
-0.968778, 73, 233, 136, 296
-0.968841, 225, 161, 288, 288
-0.969125, 33, 113, 160, 240
-0.969139, 469, 81, 500, 208
-0.969143, 449, 81, 480, 144
-0.969193, 81, 97, 144, 224
-0.969863, 121, 145, 184, 208
-0.970324, 185, 145, 248, 272
-0.970589, 177, 113, 304, 240
-0.970643, 237, 225, 268, 288
-0.970721, 265, 81, 328, 208
-0.971241, 433, 129, 496, 256
-0.971397, 141, 193, 172, 256
-0.971441, 97, 225, 224, 288
-0.971759, 241, 265, 304, 328
-0.971876, 221, 233, 252, 296
-0.97191, 169, 233, 232, 296
-0.972464, 233, 209, 264, 332
-0.972509, 117, 217, 148, 280
-0.973062, 113, 169, 144, 232
-0.973203, 49, 209, 112, 332
-0.973306, 269, 169, 300, 232
-0.973308, 25, 249, 88, 312
-0.973376, 409, 113, 472, 176
-0.973386, 49, 233, 176, 296
-0.973465, 49, 233, 112, 296
-0.973484, 153, 257, 216, 320
-0.974081, 113, 113, 144, 240
-0.974096, 205, 233, 236, 296
-0.974273, 117, 161, 148, 288
-0.974502, 441, 81, 472, 208
-0.97459, 377, 89, 440, 152
-0.974705, 49, 193, 176, 256
-0.974789, 433, 33, 496, 160
-0.97488, 105, 121, 168, 184
-0.974922, 137, 169, 200, 232
-0.975324, 305, 65, 368, 128
-0.975412, 245, 265, 276, 328
-0.975422, 265, 177, 328, 240
-0.975627, 449, 105, 480, 168
-0.975683, 25, 209, 88, 332
-0.975731, 129, 177, 160, 304
-0.976068, 57, 169, 120, 232
-0.97607, 369, 89, 496, 152
-0.976175, 289, 97, 352, 224
-0.976336, 401, 49, 464, 176
-0.9764, 217, 257, 248, 320
-0.976577, 465, 129, 496, 192
-0.976594, 9, 209, 72, 272
-0.976736, 437, 81, 468, 144
-0.977129, 177, 201, 240, 264
-0.977233, 161, 241, 288, 304
-0.977402, 141, 177, 172, 304
-0.977472, 49, 145, 112, 208
-0.977607, 49, 161, 112, 288
-0.977615, 113, 65, 240, 192
-0.977732, 425, 65, 488, 320
-0.977791, 273, 161, 304, 288
-0.977833, 145, 265, 272, 328
-0.977964, 249, 201, 312, 264
-0.977996, 1, 1, 500, 128
-0.97823, 73, 257, 136, 320
-0.978731, 265, 73, 328, 136
-0.978738, 369, 33, 496, 160
-0.9788, 125, 153, 156, 216
-0.978956, 185, 105, 248, 168
-0.978977, 81, 169, 208, 232
-0.979036, 141, 129, 172, 256
-0.979063, 97, 169, 128, 232
-0.979145, 229, 257, 260, 320
-0.97922, 145, 33, 208, 96
-0.979239, 161, 209, 288, 272
-0.979269, 97, 257, 160, 320
-0.979331, 241, 105, 304, 168
-0.97937, 33, 153, 160, 216
-0.979451, 153, 217, 184, 280
-0.979675, 153, 193, 216, 256
-0.979702, 209, 113, 272, 176
-0.979737, 329, 49, 392, 176
-0.979756, 129, 241, 192, 304
-0.979799, 97, 145, 128, 272
-0.979991, 177, 161, 304, 288
-0.980035, 241, 65, 368, 192
-0.98005, 193, 233, 224, 296
-0.980157, 249, 241, 280, 304
-0.980215, 65, 129, 192, 192
-0.980249, 225, 209, 256, 272
-0.980416, 97, 193, 128, 256
-0.980571, 97, 33, 352, 160
-0.980685, 141, 169, 172, 232
-0.980823, 369, 129, 496, 256
-0.980842, 97, 249, 224, 312
-0.980866, 261, 193, 292, 320
-0.980931, 117, 193, 148, 256
-0.980981, 433, 129, 496, 192
-0.980992, 97, 201, 224, 264
-0.981056, 101, 193, 132, 320
-0.98108, 1, 113, 256, 240
-0.981097, 401, 65, 464, 128
-0.981098, 121, 241, 152, 304
-0.981119, 205, 265, 236, 328
-0.981138, 33, 185, 96, 248
-0.98116, 289, 169, 352, 232
-0.981236, 101, 233, 132, 296
-0.981367, 69, 225, 100, 288
-0.981398, 169, 129, 232, 192
-0.981587, 417, 177, 480, 304
-0.981614, 153, 209, 184, 332
-0.981633, 1, 161, 64, 288
-0.98176, 49, 209, 112, 272
-0.982041, 117, 209, 148, 332
-0.982041, 221, 209, 252, 332
-0.982051, 193, 137, 256, 200
-0.982169, 445, 129, 476, 192
-0.982371, 1, 217, 128, 280
-0.982568, 1, 185, 128, 248
-0.982631, 85, 169, 116, 232
-0.982732, 17, 257, 144, 320
-0.982769, 193, 33, 256, 96
-0.982783, 209, 177, 336, 240
-0.982795, 369, 121, 496, 184
-0.9828, 129, 193, 160, 256
-0.982837, 113, 129, 240, 192
-0.98287, 1, 209, 64, 332
-0.983005, 469, 33, 500, 160
-0.983072, 105, 129, 136, 192
-0.983114, 317, 65, 348, 192
-0.983256, 281, 145, 344, 208
-0.983334, 329, 57, 392, 120
-0.983373, 145, 129, 208, 192
-0.983437, 273, 145, 400, 272
-0.983507, 161, 145, 288, 208
-0.983609, 273, 33, 336, 160
-0.983689, 249, 193, 280, 256
-0.983736, 457, 113, 488, 240
-0.983777, 141, 233, 172, 296
-0.983779, 397, 89, 428, 152
-0.983883, 173, 233, 204, 296
-0.983885, 437, 105, 468, 168
-0.983915, 245, 209, 276, 332
-0.984055, 1, 217, 32, 280
-0.984094, 161, 161, 224, 224
-0.984137, 129, 129, 160, 256
-0.984169, 105, 81, 168, 208
-0.984181, 377, 97, 440, 224
-0.984299, 209, 265, 336, 328
-0.984352, 81, 65, 144, 320
-0.984433, 185, 209, 216, 332
-0.984434, 233, 153, 296, 216
-0.984638, 209, 209, 240, 332
-0.984662, 209, 209, 336, 272
-0.984694, 129, 105, 256, 168
-0.984729, 297, 1, 360, 128
-0.984783, 241, 233, 304, 296
-0.984925, 221, 105, 252, 168
-0.984967, 137, 65, 200, 320
-0.985024, 193, 257, 224, 320
-0.985214, 129, 97, 192, 224
-0.985288, 73, 209, 104, 332
-0.985335, 145, 145, 176, 208
-0.985363, 25, 145, 88, 272
-0.985364, 117, 113, 148, 176
-0.985411, 153, 145, 184, 272
-0.985412, 385, 89, 416, 152
-0.985545, 265, 65, 328, 320
-0.985566, 101, 257, 132, 320
-0.985608, 105, 65, 168, 320
-0.985608, 425, 81, 456, 144
-0.985655, 9, 185, 72, 248
-0.985849, 165, 161, 196, 288
-0.985909, 101, 97, 132, 224
-0.985931, 165, 209, 196, 332
-0.986027, 209, 233, 336, 296
-0.986044, 157, 169, 188, 232
-0.986047, 201, 97, 264, 224
-0.986157, 169, 97, 232, 224
-0.986262, 1, 49, 256, 176
-0.986357, 129, 273, 192, 332
-0.986361, 177, 65, 240, 128
-0.986391, 241, 81, 304, 144
-0.986405, 57, 225, 88, 288
-0.986467, 69, 201, 100, 264
-0.986575, 217, 65, 280, 320
-0.986583, 385, 177, 448, 304
-0.986587, 317, 57, 348, 120
-0.986588, 305, 209, 368, 332
-0.986599, 257, 265, 288, 328
-0.986604, 1, 233, 64, 296
-0.986607, 249, 161, 280, 288
-0.986649, 193, 121, 320, 184
-0.986936, 417, 153, 480, 216
-0.986959, 217, 193, 280, 256
-0.987016, 225, 129, 352, 256
-0.987022, 129, 217, 160, 280
-0.987035, 289, 49, 416, 176
-0.98705, 205, 209, 236, 272
-0.987087, 161, 33, 288, 160
-0.987135, 153, 193, 184, 256
-0.987197, 73, 105, 136, 168
-0.987284, 425, 57, 488, 120
-0.987312, 169, 17, 232, 80
-0.98739, 217, 89, 280, 152
-0.98739, 257, 153, 320, 216
-0.987426, 257, 169, 384, 232
-0.987484, 265, 209, 296, 272
-0.987532, 305, 41, 368, 104
-0.987534, 469, 129, 500, 256
-0.987616, 433, 85, 496, 116
-0.987651, 429, 97, 460, 224
-0.987674, 129, 169, 256, 232
-0.987795, 181, 257, 212, 320
-0.987804, 257, 1, 500, 128
-0.987822, 401, 65, 464, 320
-0.987914, 241, 65, 304, 320
-0.988086, 81, 33, 208, 96
-0.988135, 49, 257, 112, 320
-0.988147, 97, 273, 224, 332
-0.988168, 369, 193, 496, 320
-0.988198, 61, 177, 92, 304
-0.988319, 85, 145, 116, 272
-0.988339, 297, 81, 328, 208
-0.98842, 129, 17, 256, 80
-0.988611, 261, 241, 292, 304
-0.988682, 417, 201, 480, 264
-0.988723, 73, 137, 104, 200
-0.988796, 289, 65, 416, 128
-0.98884, 433, 101, 496, 132
-0.988877, 121, 33, 184, 96
-0.988908, 333, 57, 364, 120
-0.988922, 237, 97, 268, 160
-0.988926, 233, 129, 296, 192
-0.988992, 165, 201, 196, 264
-0.989059, 393, 97, 424, 224
-0.989116, 217, 145, 248, 272
-0.989193, 237, 97, 268, 224
-0.989221, 105, 237, 168, 268
-0.989435, 97, 189, 160, 220
-0.989448, 321, 161, 384, 288
-0.989452, 353, 97, 416, 160
-0.989455, 193, 57, 224, 120
-0.989491, 105, 177, 168, 208
-0.989542, 217, 277, 280, 308
-0.989624, 257, 265, 384, 328
-0.989651, 217, 261, 280, 292
-0.989654, 425, 113, 488, 144
-0.989841, 105, 125, 168, 156
-0.989851, 177, 41, 304, 104
-0.989856, 193, 253, 256, 284
-0.989866, 393, 89, 456, 120
-0.989869, 197, 209, 228, 332
-0.989888, 289, 89, 352, 152
-0.989897, 193, 229, 256, 260
-0.989922, 441, 33, 472, 160
-0.989948, 281, 177, 312, 240
-0.989963, 261, 97, 292, 160
-0.989963, 65, 237, 128, 268
-0.989985, 81, 201, 112, 264
-0.990055, 369, 65, 496, 128
-0.990063, 321, 161, 448, 288
-0.990085, 301, 65, 332, 128
-0.990087, 217, 229, 280, 260
-0.990099, 257, 177, 320, 208
-0.990103, 153, 269, 216, 300
-0.990127, 153, 233, 216, 264
-0.990139, 217, 249, 280, 280
-0.990166, 237, 201, 268, 264
-0.990194, 313, 1, 376, 332
-0.990203, 17, 273, 80, 332
-0.990258, 73, 185, 136, 216
-0.990283, 353, 81, 416, 208
-0.990295, 217, 289, 280, 320
-0.9903, 453, 161, 484, 224
-0.990306, 177, 265, 240, 296
-0.990324, 225, 217, 288, 248
-0.990343, 65, 65, 192, 192
-0.990354, 369, 145, 496, 208
-0.990366, 73, 173, 136, 204
-0.99037, 273, 201, 336, 264
-0.990447, 57, 193, 88, 256
-0.990463, 49, 105, 176, 168
-0.990509, 321, 61, 384, 92
-0.99056, 185, 277, 248, 308
-0.990561, 37, 241, 68, 304
-0.990602, 153, 57, 216, 120
-0.990627, 41, 233, 104, 264
-0.990633, 113, 165, 176, 196
-0.990643, 129, 197, 192, 228
-0.990721, 121, 265, 152, 328
-0.990751, 409, 101, 472, 132
-0.990827, 241, 49, 304, 176
-0.990829, 137, 33, 168, 96
-0.990847, 129, 121, 160, 184
-0.990861, 153, 221, 216, 252
-0.990864, 353, 57, 416, 120
-0.990873, 265, 89, 328, 120
-0.990875, 241, 205, 304, 236
-0.990904, 297, 73, 360, 104
-0.990913, 201, 217, 264, 248
-0.990916, 433, 125, 496, 156
-0.990929, 257, 193, 384, 256
-0.990937, 241, 81, 368, 144
-0.990965, 145, 253, 208, 284
-0.99098, 49, 249, 80, 312
-0.990988, 113, 213, 176, 244
-0.990989, 173, 33, 204, 96
-0.991004, 5, 193, 36, 320
-0.991023, 113, 249, 176, 280
-0.991028, 73, 197, 136, 228
-0.991044, 73, 145, 104, 272
-0.991052, 345, 53, 408, 84
-0.991076, 193, 241, 256, 272
-0.991085, 445, 129, 476, 256
-0.991086, 257, 189, 320, 220
-0.991098, 253, 217, 284, 280
-0.991111, 185, 65, 248, 320
-0.991124, 73, 153, 136, 184
-0.991127, 49, 157, 112, 188
-0.991153, 129, 225, 192, 256
-0.99116, 89, 193, 120, 320
-0.991171, 309, 145, 340, 272
-0.991175, 49, 249, 112, 280
-0.991186, 113, 97, 176, 160
-0.991186, 169, 249, 232, 280
-0.991188, 129, 237, 192, 268
-0.991223, 81, 217, 144, 248
-0.991229, 261, 145, 292, 272
-0.991248, 129, 281, 192, 312
-0.991268, 73, 249, 136, 280
-0.991279, 209, 113, 240, 176
-0.991285, 161, 281, 224, 312
-0.991285, 113, 261, 176, 292
-0.99131, 369, 93, 432, 124
-0.991334, 129, 177, 192, 208
-0.991344, 393, 77, 456, 108
-0.991375, 93, 129, 124, 192
-0.991396, 281, 49, 344, 112
-0.991421, 25, 245, 88, 276
-0.991447, 33, 225, 288, 288
-0.991455, 257, 145, 384, 208
-0.991457, 321, 209, 352, 332
-0.991464, 225, 17, 352, 144
-0.991475, 49, 113, 112, 240
-0.99148, 393, 177, 456, 240
-0.991482, 49, 121, 112, 184
-0.991488, 113, 153, 176, 184
-0.991511, 193, 289, 256, 320
-0.991511, 161, 65, 224, 320
-0.991531, 457, 17, 488, 144
-0.991544, 201, 33, 232, 96
-0.991554, 425, 105, 456, 168
-0.991568, 401, 113, 464, 144
-0.991601, 377, 265, 440, 328
-0.991614, 241, 109, 304, 140
-0.991637, 73, 113, 136, 144
-0.991644, 313, 177, 376, 240
-0.991669, 241, 289, 304, 320
-0.991683, 273, 73, 336, 104
-0.991701, 1, 213, 64, 244
-0.99171, 81, 129, 144, 160
-0.991722, 233, 173, 296, 204
-0.99175, 13, 225, 44, 288
-0.991755, 233, 193, 296, 224
-0.991755, 417, 161, 480, 192
-0.991774, 25, 257, 88, 288
-0.991781, 381, 65, 412, 192
-0.991818, 73, 141, 136, 172
-0.991826, 417, 81, 448, 208
-0.99183, 257, 97, 500, 160
-0.991845, 385, 113, 448, 176
-0.991867, 41, 221, 104, 252
-0.99187, 369, 201, 496, 264
-0.991876, 241, 277, 304, 308
-0.991886, 453, 1, 484, 64
-0.991906, 201, 113, 264, 144
-0.991921, 193, 53, 256, 84
-0.991931, 433, 73, 496, 104
-0.991939, 405, 161, 436, 288
-0.991944, 105, 201, 168, 232
-0.991957, 105, 113, 168, 144
-0.991958, 177, 97, 304, 160
-0.991967, 177, 217, 240, 248
-0.991984, 425, 177, 488, 240
-0.992003, 453, 117, 484, 148
-0.992008, 1, 185, 64, 216
-0.992014, 297, 61, 360, 92
-0.992024, 241, 249, 304, 280
-0.99203, 33, 185, 96, 216
-0.992035, 237, 121, 268, 184
-0.992039, 105, 273, 168, 304
-0.992053, 17, 233, 80, 264
-0.992054, 273, 201, 336, 232
-0.992067, 449, 85, 480, 116
-0.992075, 337, 1, 400, 332
-0.992144, 49, 145, 112, 176
-0.992181, 225, 161, 288, 192
-0.992188, 281, 189, 344, 220
-0.9922, 49, 197, 112, 228
-0.992204, 209, 101, 272, 132
-0.992207, 105, 225, 168, 256
-0.992221, 161, 257, 192, 320
-0.992224, 241, 93, 304, 124
-0.992225, 441, 101, 472, 132
-0.992247, 153, 161, 216, 192
-0.99225, 461, 105, 492, 136
-0.992261, 65, 257, 320, 320
-0.992271, 321, 49, 384, 80
-0.992289, 177, 129, 240, 160
-0.992291, 33, 173, 96, 204
-0.992299, 297, 129, 328, 256
-0.992299, 241, 261, 304, 292
-0.992314, 453, 57, 484, 120
-0.99232, 413, 73, 444, 136
-0.992332, 217, 253, 248, 284
-0.992342, 25, 161, 88, 224
-0.992359, 393, 209, 456, 272
-0.992366, 205, 233, 236, 264
-0.992397, 129, 121, 192, 152
-0.992401, 117, 113, 148, 144
-0.992415, 281, 193, 344, 320
-0.992428, 273, 113, 304, 240
-0.992434, 433, 145, 496, 176
-0.992439, 297, 145, 360, 272
-0.992452, 289, 173, 352, 204
-0.992465, 197, 253, 228, 284
-0.992466, 249, 105, 280, 168
-0.992474, 469, 121, 500, 152
-0.992475, 273, 173, 304, 204
-0.992482, 237, 253, 268, 284
-0.992489, 225, 269, 256, 300
-0.992492, 241, 273, 272, 304
-0.992496, 117, 237, 148, 268
-0.992509, 233, 229, 264, 260
-0.992525, 1, 221, 32, 252
-0.992526, 397, 113, 428, 176
-0.992526, 177, 153, 240, 184
-0.992529, 417, 173, 480, 204
-0.992531, 461, 85, 492, 116
-0.992541, 229, 213, 260, 244
-0.992552, 153, 49, 216, 80
-0.992556, 221, 229, 252, 260
-0.992557, 129, 121, 160, 152
-0.992567, 317, 33, 348, 96
-0.992567, 225, 121, 288, 152
-0.992577, 117, 181, 148, 212
-0.992577, 153, 105, 216, 168
-0.99259, 113, 169, 144, 200
-0.992597, 241, 237, 304, 268
-0.992599, 393, 181, 456, 212
-0.992601, 281, 161, 344, 192
-0.992605, 193, 233, 224, 264
-0.992605, 105, 113, 136, 144
-0.992608, 137, 141, 200, 172
-0.992611, 305, 209, 432, 332
-0.992618, 209, 269, 240, 300
-0.992627, 273, 81, 304, 144
-0.99263, 417, 205, 480, 236
-0.992648, 277, 129, 308, 192
-0.992652, 69, 225, 100, 256
-0.99266, 409, 129, 472, 160
-0.992683, 145, 257, 176, 320
-0.992696, 337, 57, 368, 88
-0.992702, 117, 217, 148, 248
-0.992706, 193, 205, 256, 236
-0.992711, 437, 113, 468, 144
-0.992721, 109, 125, 140, 156
-0.992727, 377, 65, 408, 128
-0.992737, 237, 241, 268, 272
-0.992738, 465, 137, 496, 168
-0.992742, 93, 185, 124, 216
-0.992744, 57, 233, 88, 264
-0.992751, 161, 61, 224, 92
-0.992754, 153, 293, 216, 324
-0.992758, 89, 165, 120, 196
-0.992768, 265, 185, 296, 216
-0.992772, 253, 285, 284, 316
-0.992776, 437, 89, 468, 120
-0.992779, 161, 221, 192, 252
-0.992784, 289, 101, 352, 132
-0.992786, 101, 173, 132, 204
-0.992793, 129, 181, 160, 212
-0.992801, 57, 249, 88, 280
-0.992811, 145, 201, 176, 232
-0.992812, 81, 261, 144, 292
-0.992814, 69, 237, 100, 268
-0.992815, 321, 61, 352, 92
-0.992819, 129, 9, 192, 72
-0.992827, 249, 253, 280, 284
-0.992834, 397, 93, 428, 124
-0.992835, 217, 241, 248, 272
-0.992842, 25, 145, 88, 176
-0.992847, 193, 273, 224, 304
-0.992849, 185, 257, 216, 288
-0.992855, 253, 241, 284, 272
-0.992857, 129, 109, 192, 140
-0.992858, 229, 285, 260, 316
-0.992862, 177, 233, 208, 264
-0.992862, 205, 221, 236, 252
-0.992871, 141, 177, 172, 208
-0.992873, 249, 113, 280, 240
-0.992877, 463, 81, 478, 144
-0.992896, 81, 273, 144, 304
-0.992906, 209, 137, 272, 168
-0.992906, 445, 129, 476, 160
-0.992918, 149, 221, 180, 252
-0.992925, 81, 189, 112, 220
-0.992925, 173, 273, 204, 304
-0.992926, 429, 101, 460, 132
-0.99293, 61, 137, 92, 200
-0.992933, 105, 185, 136, 216
-0.992943, 201, 125, 264, 156
-0.992944, 249, 205, 280, 236
-0.992962, 231, 233, 246, 296
-0.992965, 297, 45, 360, 76
-0.992971, 381, 93, 412, 124
-0.992972, 241, 217, 272, 248
-0.992972, 225, 301, 288, 332
-0.992983, 301, 69, 332, 100
-0.992985, 141, 121, 172, 184
-0.992987, 185, 245, 216, 276
-0.992988, 213, 285, 244, 316
-0.992989, 265, 297, 328, 328
-0.992995, 133, 193, 164, 224
-0.992997, 97, 197, 128, 228
-0.992998, 349, 53, 380, 84
-0.993014, 313, 209, 376, 240
-0.993017, 257, 165, 320, 196
-0.99302, 249, 217, 312, 248
-0.993022, 137, 209, 200, 240
-0.993024, 129, 237, 160, 268
-0.993025, 141, 237, 172, 268
-0.993031, 101, 233, 132, 264
-0.993039, 17, 269, 80, 300
-0.99304, 45, 233, 76, 264
-0.993043, 153, 197, 216, 228
-0.993046, 201, 49, 232, 80
-0.993053, 289, 33, 352, 288
-0.993055, 157, 285, 188, 316
-0.993061, 161, 233, 192, 264
-0.993066, 173, 249, 204, 280
-0.993073, 353, 33, 416, 160
-0.993077, 289, 81, 320, 112
-0.993081, 241, 285, 272, 316
-0.993094, 297, 17, 328, 144
-0.993097, 69, 213, 100, 244
-0.993099, 125, 165, 156, 196
-0.9931, 149, 273, 180, 304
-0.9931, 193, 61, 224, 92
-0.993103, 185, 285, 216, 316
-0.993108, 37, 245, 68, 276
-0.993109, 443, 89, 458, 152
-0.99311, 233, 101, 264, 132
-0.993113, 461, 73, 492, 104
-0.993124, 101, 153, 132, 184
-0.993135, 217, 217, 248, 248
-0.993144, 253, 297, 284, 328
-0.99315, 61, 249, 92, 312
-0.99315, 277, 185, 308, 216
-0.993151, 445, 157, 476, 188
-0.993155, 77, 173, 108, 204
-0.993155, 185, 209, 216, 272
-0.993158, 261, 261, 292, 292
-0.99316, 201, 285, 232, 316
-0.993162, 117, 197, 148, 228
-0.993164, 385, 105, 416, 136
-0.993182, 161, 273, 192, 304
-0.993186, 265, 197, 296, 228
-0.99319, 97, 245, 128, 276
-0.993196, 121, 133, 152, 164
-0.993202, 125, 269, 156, 300
-0.993205, 25, 257, 56, 320
-0.99321, 253, 109, 284, 140
-0.993218, 141, 165, 172, 196
-0.993235, 409, 81, 440, 112
-0.993237, 445, 141, 476, 172
-0.993239, 5, 209, 36, 240
-0.99324, 425, 1, 488, 332
-0.993241, 57, 221, 88, 252
-0.993245, 137, 269, 168, 300
-0.993248, 449, 81, 464, 144
-0.993252, 421, 81, 452, 112
-0.993258, 173, 289, 204, 320
-0.99326, 145, 189, 176, 220
-0.993268, 277, 85, 308, 116
-0.993275, 401, 177, 432, 208
-0.993282, 157, 197, 188, 228
-0.993283, 121, 249, 152, 280
-0.993284, 121, 153, 152, 184
-0.993287, 261, 169, 292, 200
-0.993288, 253, 221, 284, 252
-0.993291, 425, 117, 456, 148
-0.993293, 265, 297, 296, 328
-0.993297, 137, 281, 168, 312
-0.9933, 313, 73, 344, 104
-0.993302, 129, 225, 160, 256
-0.993305, 221, 109, 252, 140
-0.993308, 243, 209, 258, 272
-0.993311, 461, 9, 492, 40
-0.993312, 101, 257, 132, 288
-0.993316, 141, 125, 172, 156
-0.99332, 217, 137, 248, 200
-0.993321, 249, 193, 280, 224
-0.993325, 221, 185, 252, 248
-0.993327, 257, 169, 288, 232
-0.993332, 473, 89, 488, 152
-0.993356, 405, 65, 436, 192
-0.993369, 17, 129, 144, 192
-0.993408, 85, 241, 116, 304
-0.993409, 161, 1, 224, 332
-0.993409, 225, 233, 240, 296
-0.993469, 369, 249, 496, 312
-0.993481, 5, 193, 36, 256
-0.993496, 241, 17, 368, 80
-0.993499, 219, 225, 234, 288
-0.993542, 429, 33, 460, 160
-0.993545, 409, 97, 440, 160
-0.993549, 369, 177, 496, 240
-0.993561, 49, 145, 80, 272
-0.993644, 265, 273, 328, 332
-0.993645, 121, 217, 136, 280
-0.993669, 1, 169, 500, 232
-0.993682, 201, 49, 264, 176
-0.993684, 285, 81, 316, 144
-0.993713, 65, 161, 320, 224
-0.993729, 455, 81, 470, 144
-0.993751, 113, 57, 240, 120
-0.993758, 169, 129, 200, 192
-0.99376, 25, 161, 56, 288
-0.993773, 485, 89, 500, 152
-0.993785, 237, 233, 252, 296
-0.993894, 393, 145, 456, 208
-0.993926, 41, 209, 72, 272
-0.993954, 193, 129, 224, 192
-0.993954, 369, 185, 432, 248
-0.993972, 479, 89, 494, 152
-0.993993, 465, 105, 480, 168
-0.994022, 157, 193, 172, 256
-0.994028, 17, 65, 144, 192
-0.994029, 193, 249, 448, 312
-0.994029, 97, 237, 224, 268
-0.994075, 437, 57, 468, 120
-0.994081, 269, 177, 284, 240
-0.994108, 209, 1, 272, 64
-0.994152, 317, 185, 348, 248
-0.994163, 377, 65, 440, 128
-0.99417, 257, 129, 320, 192
-0.994172, 235, 257, 250, 320
-0.994174, 483, 113, 498, 176
-0.994181, 209, 169, 272, 232
-0.994262, 263, 249, 278, 312
-0.994266, 145, 265, 272, 296
-0.994271, 49, 237, 176, 268
-0.994284, 177, 285, 304, 316
-0.994289, 333, 169, 364, 232
-0.994304, 425, 1, 488, 64
-0.994308, 1, 241, 500, 304
-0.994377, 215, 257, 230, 320
-0.994404, 417, 193, 448, 320
-0.994406, 161, 65, 288, 128
-0.994408, 329, 153, 392, 216
-0.994411, 353, 273, 480, 332
-0.994424, 305, 241, 432, 304
-0.99445, 97, 221, 224, 252
-0.994456, 125, 81, 156, 208
-0.9945, 369, 89, 496, 120
-0.994503, 227, 257, 242, 320
-0.994531, 257, 145, 288, 208
-0.994544, 213, 233, 228, 296
-0.994547, 265, 97, 328, 160
-0.994556, 73, 169, 104, 232
-0.994564, 121, 1, 184, 332
-0.994619, 33, 165, 160, 196
-0.994634, 321, 177, 448, 240
-0.994639, 221, 257, 236, 320
-0.994662, 345, 33, 408, 96
-0.994673, 333, 161, 364, 288
-0.99472, 217, 65, 280, 128
-0.994722, 161, 217, 176, 280
-0.994727, 329, 209, 392, 332
-0.994753, 257, 57, 500, 120
-0.994762, 57, 65, 120, 320
-0.994793, 279, 169, 294, 232
-0.994815, 269, 273, 300, 332
-0.994822, 137, 201, 152, 264
-0.994832, 321, 1, 384, 128
-0.994861, 153, 65, 184, 192
-0.994861, 237, 209, 252, 272
-0.994872, 369, 225, 496, 288
-0.994884, 119, 169, 134, 232
-0.994906, 37, 161, 68, 288
-0.994914, 157, 121, 188, 184
-0.994959, 465, 1, 496, 64
-0.994965, 417, 233, 480, 296
-0.994971, 305, 209, 368, 272
-0.994974, 313, 97, 376, 224
-0.995013, 49, 225, 176, 256
-0.995013, 265, 1, 328, 332
-0.995076, 241, 257, 256, 320
-0.99508, 185, 1, 248, 332
-0.995082, 305, 89, 432, 152
-0.995083, 321, 1, 448, 128
-0.995098, 145, 253, 272, 284
-0.995105, 459, 113, 474, 176
-0.995123, 147, 169, 162, 232
-0.995131, 257, 121, 500, 184
-0.99515, 33, 249, 160, 280
-0.995153, 1, 181, 128, 212
-0.99517, 181, 57, 212, 120
-0.995182, 97, 253, 224, 284
-0.995205, 129, 137, 384, 200
-0.995218, 161, 225, 288, 256
-0.995218, 131, 193, 146, 256
-0.995218, 253, 241, 268, 304
-0.995223, 111, 193, 126, 256
-0.995224, 81, 209, 96, 272
-0.995224, 217, 97, 248, 224
-0.995227, 257, 273, 272, 332
-0.995227, 333, 33, 364, 96
-0.995232, 161, 241, 288, 272
-0.995237, 205, 145, 236, 272
-0.995255, 117, 129, 132, 192
-0.99527, 369, 109, 496, 140
-0.995279, 305, 41, 432, 104
-0.99528, 153, 25, 184, 88
-0.995284, 115, 233, 130, 296
-0.995292, 127, 161, 142, 224
-0.995294, 125, 193, 140, 256
-0.995298, 241, 1, 304, 332
-0.995337, 97, 17, 224, 144
-0.99534, 49, 193, 80, 320
-0.99536, 161, 213, 288, 244
-0.995361, 207, 233, 222, 296
-0.995369, 393, 1, 456, 332
-0.995386, 1, 185, 256, 248
-0.995401, 305, 113, 432, 176
-0.995407, 97, 113, 352, 176
-0.995424, 97, 1, 160, 332
-0.995435, 193, 273, 448, 332
-0.995441, 137, 153, 152, 216
-0.995463, 477, 113, 492, 176
-0.995488, 165, 113, 196, 240
-0.995489, 369, 65, 432, 320
-0.995496, 471, 121, 486, 184
-0.9955, 177, 17, 304, 80
-0.995515, 73, 225, 88, 288
-0.995519, 1, 233, 128, 264
-0.995566, 305, 17, 368, 80
-0.995569, 3, 217, 18, 280
-0.995572, 177, 161, 208, 288
-0.9956, 127, 217, 142, 280
-0.995633, 167, 217, 182, 280
-0.995644, 25, 129, 88, 192
-0.99565, 119, 193, 134, 256
-0.995658, 97, 81, 224, 144
-0.995663, 321, 209, 448, 272
-0.995673, 417, 129, 448, 256
-0.995679, 105, 169, 120, 232
-0.99571, 161, 17, 416, 80
-0.995721, 95, 161, 110, 224
-0.995765, 249, 129, 312, 256
-0.995797, 401, 89, 416, 152
-0.995815, 451, 121, 466, 184
-0.995833, 329, 89, 392, 152
-0.995848, 361, 1, 424, 332
-0.995848, 49, 209, 176, 240
-0.995858, 289, 113, 352, 176
-0.995861, 97, 273, 224, 304
-0.995863, 151, 201, 166, 264
-0.99587, 277, 201, 308, 264
-0.995883, 345, 49, 376, 112
-0.995889, 81, 169, 208, 200
-0.995893, 37, 209, 68, 332
-0.995908, 127, 121, 142, 184
-0.995917, 217, 1, 280, 332
-0.995939, 259, 225, 274, 288
-0.995956, 209, 265, 224, 328
-0.995965, 57, 169, 88, 232
-0.996008, 13, 129, 44, 256
-0.996008, 429, 145, 460, 272
-0.996008, 273, 209, 304, 332
-0.99601, 199, 241, 214, 304
-0.996014, 305, 61, 432, 92
-0.996021, 309, 1, 340, 128
-0.996025, 305, 273, 432, 332
-0.996029, 269, 265, 284, 328
-0.99603, 269, 209, 284, 272
-0.99606, 225, 41, 352, 104
-0.996072, 81, 149, 208, 180
-0.996075, 285, 161, 316, 288
-0.996077, 157, 145, 188, 208
-0.996079, 369, 121, 496, 152
-0.996084, 135, 233, 150, 296
-0.996087, 393, 177, 424, 304
-0.996087, 109, 145, 124, 208
-0.996106, 1, 213, 128, 244
-0.996122, 205, 97, 236, 224
-0.996131, 97, 125, 224, 156
-0.996132, 73, 201, 88, 264
-0.996139, 401, 65, 432, 128
-0.996144, 49, 9, 176, 72
-0.996149, 163, 193, 178, 256
-0.996156, 197, 57, 212, 120
-0.996156, 125, 241, 140, 304
-0.996158, 161, 201, 416, 264
-0.996179, 241, 105, 368, 168
-0.996206, 441, 201, 472, 264
-0.996245, 49, 185, 176, 216
-0.996246, 471, 65, 486, 128
-0.996252, 137, 177, 152, 240
-0.996257, 141, 233, 156, 296
-0.996268, 425, 209, 456, 272
-0.996273, 247, 233, 262, 296
-0.996278, 25, 225, 56, 288
-0.996285, 41, 161, 72, 224
-0.996293, 257, 161, 500, 224
-0.996297, 49, 125, 176, 156
-0.996297, 209, 145, 336, 208
-0.996298, 1, 201, 500, 264
-0.996313, 1, 145, 32, 272
-0.99633, 465, 1, 480, 64
-0.996339, 1, 1, 256, 128
-0.996341, 193, 233, 208, 296
-0.996348, 113, 169, 128, 232
-0.996379, 77, 97, 108, 224
-0.996409, 227, 105, 242, 168
-0.996415, 329, 265, 392, 328
-0.996417, 63, 233, 78, 296
-0.996422, 157, 169, 172, 232
-0.996423, 1, 105, 128, 168
-0.996426, 49, 197, 176, 228
-0.996438, 463, 145, 478, 208
-0.996457, 147, 233, 162, 296
-0.996483, 163, 169, 178, 232
-0.996488, 129, 285, 256, 316
-0.99649, 197, 153, 228, 216
-0.996493, 1, 273, 500, 332
-0.996519, 241, 177, 368, 208
-0.99652, 81, 113, 112, 176
-0.996535, 285, 169, 300, 232
-0.996561, 1, 145, 500, 208
-0.99658, 65, 1, 128, 332
-0.996612, 117, 105, 132, 168
-0.996625, 213, 209, 228, 272
-0.996634, 437, 81, 452, 144
-0.996637, 311, 73, 326, 136
-0.996638, 225, 209, 240, 272
-0.996655, 1, 33, 256, 96
-0.996665, 357, 49, 388, 176
-0.996667, 143, 25, 158, 88
-0.996668, 81, 233, 96, 296
-0.996687, 117, 65, 148, 320
-0.996691, 225, 285, 352, 316
-0.996697, 247, 273, 262, 332
-0.996703, 9, 217, 24, 280
-0.996715, 257, 209, 500, 272
-0.996719, 187, 233, 202, 296
-0.996722, 75, 145, 90, 208
-0.996727, 465, 65, 496, 320
-0.99676, 445, 113, 460, 176
-0.996771, 119, 113, 134, 144
-0.996775, 243, 209, 258, 240
-0.996775, 407, 81, 422, 144
-0.996775, 209, 209, 336, 240
-0.996788, 369, 1, 496, 64
-0.996794, 109, 121, 124, 184
-0.996799, 193, 181, 320, 212
-0.996811, 231, 209, 246, 272
-0.996823, 143, 193, 158, 256
-0.996825, 81, 185, 96, 248
-0.996827, 453, 177, 484, 304
-0.996829, 241, 197, 368, 228
-0.996842, 203, 265, 218, 328
-0.996848, 361, 209, 424, 332
-0.996887, 135, 113, 150, 176
-0.996891, 287, 121, 302, 184
-0.996893, 161, 41, 416, 104
-0.996895, 17, 209, 48, 332
-0.996905, 395, 89, 410, 152
-0.996909, 445, 89, 460, 120
-0.996925, 337, 169, 352, 232
-0.996932, 271, 153, 286, 216
-0.99695, 129, 113, 256, 144
-0.996965, 155, 233, 170, 296
-0.996986, 1, 129, 256, 192
-0.996989, 57, 241, 72, 304
-0.996992, 113, 137, 240, 168
-0.996994, 477, 65, 492, 128
-0.997018, 115, 257, 130, 320
-0.997025, 219, 233, 234, 264
-0.997026, 125, 97, 140, 160
-0.997032, 1, 217, 16, 248
-0.997033, 217, 221, 232, 252
-0.997044, 451, 85, 466, 116
-0.997049, 141, 121, 156, 184
-0.997053, 331, 193, 346, 256
-0.997068, 61, 113, 92, 240
-0.997069, 97, 185, 224, 216
-0.997079, 461, 105, 476, 136
-0.997097, 477, 121, 492, 152
-0.997097, 235, 257, 250, 288
-0.997099, 275, 193, 290, 256
-0.997111, 91, 201, 106, 264
-0.997133, 463, 85, 478, 116
-0.997136, 33, 149, 160, 180
-0.997154, 263, 273, 278, 332
-0.997155, 443, 101, 458, 132
-0.997165, 165, 221, 180, 252
-0.997167, 481, 85, 496, 116
-0.99717, 225, 233, 240, 264
-0.997182, 161, 73, 416, 136
-0.997192, 329, 57, 344, 120
-0.9972, 473, 105, 488, 136
-0.997205, 147, 145, 162, 208
-0.997212, 241, 57, 304, 120
-0.997214, 177, 257, 192, 320
-0.997221, 353, 129, 416, 192
-0.997222, 69, 225, 84, 256
-0.997225, 257, 241, 384, 304
-0.997226, 105, 65, 136, 320
-0.99723, 221, 113, 236, 176
-0.997233, 149, 33, 164, 96
-0.997234, 127, 117, 142, 148
-0.997236, 273, 77, 400, 108
-0.997243, 321, 113, 352, 240
-0.997247, 193, 273, 320, 304
-0.997248, 469, 85, 484, 116
-0.997256, 237, 161, 268, 288
-0.99726, 79, 221, 94, 252
-0.997261, 63, 237, 78, 268
-0.997265, 231, 237, 246, 268
-0.997265, 485, 65, 500, 128
-0.997282, 453, 57, 468, 120
-0.997292, 129, 201, 256, 232
-0.997297, 261, 249, 276, 280
-0.997305, 437, 105, 452, 168
-0.997307, 193, 161, 224, 288
-0.997325, 223, 253, 238, 284
-0.997325, 49, 277, 176, 308
-0.997328, 213, 233, 228, 264
-0.997336, 229, 249, 244, 280
-0.997342, 115, 169, 130, 200
-0.997343, 109, 225, 124, 288
-0.997347, 161, 225, 416, 288
-0.99735, 263, 185, 278, 248
-0.99735, 457, 137, 472, 200
-0.997359, 483, 113, 498, 144
-0.99736, 117, 125, 132, 156
-0.99737, 467, 109, 482, 140
-0.997372, 353, 41, 480, 104
-0.997374, 49, 261, 176, 292
-0.997377, 161, 145, 176, 208
-0.997378, 457, 85, 472, 116
-0.997382, 455, 105, 470, 136
-0.997383, 1, 193, 16, 256
-0.997385, 321, 57, 336, 120
-0.997397, 305, 1, 432, 64
-0.997399, 7, 217, 22, 248
-0.9974, 463, 57, 478, 120
-0.997404, 137, 177, 152, 208
-0.997412, 225, 297, 352, 328
-0.997413, 245, 65, 276, 320
-0.997415, 281, 25, 344, 88
-0.997429, 161, 161, 288, 192
-0.997436, 191, 257, 206, 320
-0.99744, 237, 269, 252, 300
-0.997443, 269, 177, 284, 208
-0.997444, 181, 233, 196, 296
-0.997452, 209, 253, 336, 284
-0.997472, 209, 241, 336, 272
-0.997473, 217, 249, 232, 280
-0.997476, 33, 113, 160, 144
-0.997486, 241, 253, 256, 284
-0.997511, 237, 237, 252, 268
-0.997513, 135, 121, 150, 152
-0.997517, 325, 17, 356, 144
-0.99752, 449, 109, 464, 140
-0.99753, 479, 101, 494, 132
-0.99753, 123, 237, 138, 268
-0.997532, 229, 265, 244, 296
-0.997543, 25, 1, 88, 332
-0.997553, 399, 89, 414, 120
-0.997553, 49, 137, 176, 168
-0.997566, 275, 169, 290, 200
-0.997568, 353, 273, 416, 332
-0.99758, 109, 189, 124, 220
-0.997582, 369, 77, 496, 108
-0.997589, 229, 277, 244, 308
-0.997595, 475, 81, 490, 112
-0.997605, 107, 177, 122, 208
-0.997607, 77, 233, 92, 264
-0.997608, 445, 1, 476, 256
-0.997612, 69, 237, 84, 268
-0.997615, 193, 125, 320, 156
-0.99762, 337, 49, 368, 176
-0.997631, 305, 137, 432, 200
-0.997632, 457, 121, 472, 152
-0.997632, 177, 113, 208, 240
-0.997646, 223, 265, 238, 296
-0.997659, 207, 229, 222, 260
-0.997664, 49, 81, 176, 144
-0.997684, 25, 97, 56, 224
-0.997685, 119, 225, 134, 256
-0.997692, 211, 249, 226, 280
-0.997696, 485, 101, 500, 132
-0.997711, 257, 285, 272, 316
-0.997713, 97, 41, 160, 104
-0.997724, 471, 121, 486, 152
-0.997728, 437, 93, 452, 124
-0.997745, 137, 81, 168, 208
-0.997746, 123, 165, 138, 196
-0.997751, 245, 273, 260, 304
-0.997763, 123, 129, 138, 160
-0.997778, 353, 53, 368, 84
-0.997787, 399, 101, 414, 132
-0.997794, 209, 221, 336, 252
-0.997796, 223, 277, 238, 308
-0.997804, 97, 165, 112, 196
-0.997813, 343, 57, 358, 88
-0.997816, 463, 121, 478, 152
-0.997818, 243, 221, 258, 252
-0.997827, 259, 237, 274, 268
-0.997827, 197, 57, 212, 88
-0.997836, 235, 225, 250, 256
-0.99784, 137, 197, 152, 228
-0.997842, 421, 33, 452, 288
-0.997846, 269, 189, 284, 220
-0.997858, 217, 277, 232, 308
-0.997859, 467, 141, 482, 172
-0.997859, 285, 49, 316, 176
-0.997865, 89, 97, 120, 224
-0.997867, 405, 93, 420, 124
-0.997869, 113, 45, 240, 76
-0.997873, 217, 265, 232, 296
-0.997876, 119, 185, 134, 216
-0.997877, 145, 125, 272, 156
-0.997881, 257, 185, 500, 248
-0.997892, 211, 261, 226, 292
-0.997902, 177, 297, 304, 328
-0.997913, 155, 193, 170, 224
-0.997919, 257, 57, 384, 88
-0.997925, 129, 173, 256, 204
-0.997929, 265, 261, 280, 292
-0.997933, 129, 33, 256, 64
-0.997938, 147, 189, 162, 220
-0.997943, 483, 125, 498, 156
-0.997965, 65, 249, 80, 280
-0.997966, 113, 113, 128, 144
-0.997966, 1, 193, 128, 224
-0.997972, 129, 185, 144, 216
-0.997974, 333, 61, 348, 92
-0.997978, 257, 165, 384, 196
-0.997988, 475, 133, 490, 164
-0.998, 57, 65, 120, 192
-0.998004, 239, 281, 254, 312
-0.998005, 245, 285, 260, 316
-0.998032, 1, 105, 500, 168
-0.998038, 55, 249, 70, 280
-0.998047, 147, 177, 162, 208
-0.99805, 251, 257, 266, 288
-0.998053, 393, 241, 456, 304
-0.998055, 281, 173, 296, 204
-0.998057, 203, 249, 218, 280
-0.99806, 223, 221, 238, 252
-0.998072, 211, 273, 226, 304
-0.998078, 215, 33, 230, 64
-0.99808, 125, 217, 140, 248
-0.998081, 463, 9, 478, 40
-0.998085, 461, 157, 476, 188
-0.998085, 61, 225, 76, 256
-0.998097, 129, 129, 144, 160
-0.998108, 73, 81, 136, 144
-0.998128, 315, 69, 330, 100
-0.99813, 131, 237, 146, 268
-0.99813, 197, 233, 212, 264
-0.998131, 249, 245, 264, 276
-0.998132, 81, 193, 96, 224
-0.998133, 1, 229, 16, 260
-0.998135, 309, 85, 324, 116
-0.998151, 335, 197, 350, 228
-0.998161, 161, 49, 224, 176
-0.998164, 155, 177, 170, 208
-0.998166, 451, 121, 466, 152
-0.998168, 235, 213, 250, 244
-0.998172, 111, 201, 126, 232
-0.998173, 129, 149, 256, 180
-0.998178, 139, 237, 154, 268
-0.998187, 111, 125, 126, 156
-0.998188, 193, 193, 320, 224
-0.99819, 113, 225, 128, 256
-0.99819, 1, 65, 500, 128
-0.99819, 237, 49, 268, 176
-0.998193, 177, 109, 304, 140
-0.998195, 129, 161, 144, 192
-0.998198, 329, 209, 344, 240
-0.998198, 323, 61, 338, 92
-0.998199, 255, 269, 270, 300
-0.998209, 443, 113, 458, 144
-0.998216, 103, 165, 118, 196
-0.998216, 193, 249, 208, 280
-0.998218, 205, 269, 220, 300
-0.998221, 183, 233, 198, 264
-0.998245, 209, 141, 336, 172
-0.998248, 177, 33, 304, 64
-0.99826, 337, 49, 464, 80
-0.99828, 369, 145, 496, 176
-0.998303, 369, 217, 432, 280
-0.998319, 321, 105, 448, 136
-0.998331, 353, 153, 416, 216
-0.998337, 1, 261, 128, 292
-0.998338, 225, 81, 352, 112
-0.998343, 161, 137, 288, 168
-0.998366, 177, 49, 304, 80
-0.998389, 141, 65, 172, 320
-0.998393, 129, 121, 160, 136
-0.998394, 269, 171, 300, 186
-0.998394, 193, 265, 224, 280
-0.998394, 81, 165, 112, 180
-0.998395, 97, 241, 128, 256
-0.998396, 201, 275, 232, 290
-0.998396, 69, 225, 100, 240
-0.998397, 85, 201, 116, 216
-0.998397, 265, 297, 296, 312
-0.998398, 121, 115, 152, 130
-0.998399, 77, 247, 108, 262
-0.9984, 129, 239, 160, 254
-0.998402, 241, 269, 272, 284
-0.998403, 457, 129, 488, 144
-0.998405, 57, 243, 88, 258
-0.998405, 109, 129, 140, 144
-0.998406, 297, 77, 328, 92
-0.998406, 121, 281, 152, 296
-0.998407, 33, 57, 288, 120
-0.998407, 217, 237, 248, 252
-0.998408, 253, 241, 284, 256
-0.998408, 317, 211, 348, 226
-0.998408, 433, 89, 496, 104
-0.998409, 265, 203, 296, 218
-0.998409, 221, 223, 252, 238
-0.998409, 109, 179, 140, 194
-0.998411, 445, 159, 476, 174
-0.998411, 109, 171, 140, 186
-0.998412, 397, 103, 428, 118
-0.998412, 225, 265, 256, 280
-0.998413, 5, 219, 36, 234
-0.998413, 97, 179, 128, 194
-0.998415, 265, 185, 296, 200
-0.998417, 241, 211, 272, 226
-0.998417, 65, 251, 96, 266
-0.998418, 469, 131, 500, 146
-0.998418, 453, 91, 484, 106
-0.99842, 349, 55, 380, 70
-0.99842, 137, 175, 168, 190
-0.998421, 97, 201, 128, 216
-0.998421, 145, 197, 176, 212
-0.998423, 137, 283, 168, 298
-0.998423, 253, 247, 284, 262
-0.998425, 133, 201, 164, 216
-0.998425, 141, 237, 172, 252
-0.998427, 345, 65, 376, 80
-0.998427, 213, 289, 244, 304
-0.998427, 221, 281, 252, 296
-0.998429, 225, 109, 352, 140
-0.998429, 209, 227, 240, 242
-0.998429, 129, 185, 160, 200
-0.99843, 433, 105, 496, 120
-0.998431, 425, 83, 456, 98
-0.998432, 93, 187, 124, 202
-0.998433, 213, 275, 244, 290
-0.998434, 161, 225, 192, 240
-0.998434, 469, 137, 500, 152
-0.998435, 429, 95, 460, 110
-0.998435, 57, 231, 88, 246
-0.998435, 185, 251, 216, 266
-0.99844, 241, 263, 272, 278
-0.99844, 133, 195, 164, 210
-0.998446, 17, 301, 144, 332
-0.998447, 245, 285, 276, 300
-0.998448, 437, 113, 468, 128
-0.998448, 425, 95, 488, 110
-0.998449, 401, 177, 432, 192
-0.99845, 237, 237, 268, 252
-0.99845, 193, 63, 224, 78
-0.99845, 461, 11, 492, 26
-0.99845, 125, 179, 156, 194
-0.998454, 441, 85, 472, 100
-0.998455, 185, 287, 216, 302
-0.998456, 237, 247, 268, 262
-0.998457, 197, 259, 228, 274
-0.998457, 77, 195, 108, 210
-0.998458, 369, 173, 496, 204
-0.998458, 221, 249, 252, 264
-0.998458, 309, 71, 340, 86
-0.998459, 225, 271, 256, 286
-0.998459, 209, 269, 240, 284
-0.998465, 97, 247, 128, 262
-0.998465, 141, 181, 172, 196
-0.99847, 241, 275, 272, 290
-0.998471, 173, 287, 204, 302
-0.998471, 397, 91, 428, 106
-0.998471, 65, 249, 128, 264
-0.998473, 225, 255, 256, 270
-0.998475, 161, 231, 192, 246
-0.998477, 97, 193, 128, 208
-0.998477, 205, 249, 236, 264
-0.998477, 469, 111, 500, 126
-0.998478, 433, 115, 496, 130
-0.998478, 465, 93, 496, 108
-0.998478, 177, 235, 208, 250
-0.998481, 165, 17, 196, 144
-0.998481, 233, 225, 264, 240
-0.998482, 113, 233, 144, 248
-0.998483, 145, 203, 176, 218
-0.998483, 233, 291, 264, 306
-0.998485, 401, 65, 432, 320
-0.998486, 185, 233, 248, 248
-0.998487, 385, 95, 416, 110
-0.998487, 433, 83, 496, 98
-0.998488, 229, 215, 260, 230
-0.998492, 5, 225, 36, 240
-0.998494, 445, 125, 476, 140
-0.998498, 213, 261, 244, 276
-0.998499, 69, 231, 100, 246
-0.9985, 101, 161, 132, 176
-0.998501, 153, 285, 184, 300
-0.998502, 325, 63, 356, 78
-0.998503, 209, 255, 240, 270
-0.998503, 105, 239, 168, 254
-0.998504, 89, 187, 152, 202
-0.998504, 217, 291, 280, 306
-0.998504, 465, 83, 496, 98
-0.998504, 397, 97, 428, 112
-0.998506, 237, 257, 268, 272
-0.998509, 153, 235, 216, 250
-0.99851, 401, 97, 464, 112
-0.998511, 81, 167, 144, 182
-0.998515, 465, 99, 496, 114
-0.998515, 469, 123, 500, 138
-0.998519, 121, 285, 184, 300
-0.998522, 53, 249, 84, 264
-0.998524, 369, 157, 496, 188
-0.998524, 81, 231, 144, 246
-0.998524, 109, 123, 140, 138
-0.998525, 217, 261, 280, 276
-0.998527, 109, 117, 140, 132
-0.998527, 113, 191, 176, 206
-0.998528, 209, 231, 272, 246
-0.998528, 449, 97, 480, 112
-0.998528, 73, 193, 136, 208
-0.998529, 233, 231, 264, 246
-0.998529, 321, 63, 384, 78
-0.99853, 441, 119, 472, 134
-0.998531, 437, 107, 468, 122
-0.998535, 129, 127, 160, 142
-0.998535, 105, 197, 168, 212
-0.998535, 205, 233, 236, 248
-0.998536, 97, 177, 160, 192
-0.998536, 193, 233, 224, 248
-0.998537, 241, 295, 304, 310
-0.998538, 409, 103, 472, 118
-0.998538, 33, 249, 96, 264
-0.998539, 161, 287, 224, 302
-0.998541, 105, 129, 168, 144
-0.998541, 117, 185, 148, 200
-0.998543, 433, 121, 496, 136
-0.998545, 221, 231, 252, 246
-0.998547, 393, 91, 456, 106
-0.998548, 257, 179, 320, 194
-0.998551, 185, 253, 248, 268
-0.998553, 65, 237, 128, 252
-0.998556, 105, 123, 168, 138
-0.998557, 437, 101, 468, 116
-0.998558, 333, 209, 364, 332
-0.998559, 469, 117, 500, 132
-0.998562, 225, 211, 288, 226
-0.998563, 209, 251, 272, 266
-0.998563, 217, 281, 280, 296
-0.998565, 345, 55, 408, 70
-0.998565, 289, 1, 352, 332
-0.998567, 129, 197, 192, 212
-0.99857, 433, 131, 496, 146
-0.99857, 185, 265, 248, 280
-0.99857, 269, 177, 300, 192
-0.998571, 257, 273, 384, 304
-0.998572, 209, 223, 272, 238
-0.998572, 441, 91, 472, 106
-0.998573, 41, 233, 104, 248
-0.998573, 465, 65, 480, 192
-0.998574, 257, 93, 320, 108
-0.998575, 475, 65, 490, 192
-0.998575, 257, 193, 320, 208
-0.998577, 153, 251, 216, 266
-0.998578, 461, 105, 492, 120
-0.998578, 249, 295, 280, 310
-0.99858, 93, 167, 124, 182
-0.998583, 449, 111, 480, 126
-0.998585, 113, 185, 176, 200
-0.998587, 113, 61, 240, 92
-0.998587, 193, 289, 256, 304
-0.998588, 217, 267, 280, 282
-0.998589, 81, 199, 144, 214
-0.998589, 117, 239, 148, 254
-0.998589, 401, 115, 464, 130
-0.998591, 337, 59, 368, 74
-0.998592, 113, 253, 176, 268
-0.998592, 65, 187, 128, 202
-0.998592, 105, 245, 168, 260
-0.998594, 129, 179, 192, 194
-0.998596, 369, 97, 432, 112
-0.998597, 49, 157, 112, 172
-0.998597, 41, 227, 104, 242
-0.998597, 221, 65, 252, 320
-0.998599, 305, 69, 368, 84
-0.998599, 433, 65, 464, 320
-0.9986, 453, 85, 484, 100
-0.9986, 177, 241, 240, 256
-0.998601, 105, 231, 168, 246
-0.998603, 113, 171, 176, 186
-0.998603, 121, 225, 184, 240
-0.998603, 73, 243, 136, 258
-0.998603, 217, 273, 280, 288
-0.998605, 257, 187, 320, 202
-0.998607, 369, 201, 496, 232
-0.998609, 81, 113, 208, 144
-0.99861, 233, 255, 296, 270
-0.99861, 401, 109, 464, 124
-0.99861, 289, 191, 352, 206
-0.998611, 273, 85, 336, 100
-0.998612, 73, 181, 136, 196
-0.998612, 153, 269, 216, 284
-0.998613, 261, 81, 292, 208
-0.998613, 105, 165, 168, 180
-0.998613, 265, 99, 328, 114
-0.998613, 1, 227, 64, 242
-0.998614, 81, 153, 144, 168
-0.998614, 33, 243, 96, 258
-0.998614, 57, 169, 120, 184
-0.998615, 449, 103, 480, 118
-0.998616, 297, 75, 360, 90
-0.998617, 105, 203, 168, 218
-0.998619, 129, 231, 192, 246
-0.998621, 145, 257, 208, 272
-0.998621, 401, 85, 464, 100
-0.998622, 233, 203, 296, 218
-0.998622, 177, 247, 240, 262
-0.998622, 201, 217, 264, 232
-0.998622, 137, 279, 200, 294
-0.998623, 409, 121, 472, 136
-0.998623, 225, 245, 288, 260
-0.998624, 233, 175, 296, 190
-0.998625, 65, 225, 128, 240
-0.998625, 433, 137, 496, 152
-0.998626, 153, 227, 216, 242
-0.998626, 193, 259, 256, 274
-0.998628, 81, 123, 144, 138
-0.998629, 241, 301, 304, 316
-0.99863, 1, 273, 128, 304
-0.99863, 249, 111, 312, 126
-0.998631, 113, 275, 176, 290
-0.998632, 457, 121, 488, 136
-0.998634, 285, 113, 316, 240
-0.998636, 89, 117, 152, 132
-0.998637, 33, 185, 96, 200
-0.998639, 273, 203, 336, 218
-0.99864, 201, 211, 264, 226
-0.99864, 113, 263, 176, 278
-0.998641, 185, 283, 248, 298
-0.998642, 73, 159, 136, 174
-0.998642, 49, 163, 112, 178
-0.998642, 265, 299, 328, 314
-0.998643, 161, 281, 224, 296
-0.998643, 217, 297, 280, 312
-0.998643, 121, 215, 184, 230
-0.998644, 217, 237, 280, 252
-0.998644, 153, 263, 216, 278
-0.998644, 209, 109, 272, 124
-0.998645, 453, 65, 468, 192
-0.998645, 177, 227, 240, 242
-0.998645, 265, 173, 328, 188
-0.998646, 33, 255, 96, 270
-0.998649, 129, 125, 192, 140
-0.998649, 193, 275, 256, 290
-0.99865, 113, 269, 176, 284
-0.998652, 89, 251, 152, 266
-0.998655, 129, 237, 192, 252
-0.998657, 241, 263, 304, 278
-0.998657, 385, 103, 448, 118
-0.998658, 161, 65, 224, 80
-0.998659, 313, 213, 376, 228
-0.998659, 321, 57, 384, 72
-0.998659, 65, 205, 128, 220
-0.99866, 89, 279, 152, 294
-0.99866, 121, 209, 184, 224
-0.99866, 73, 213, 136, 228
-0.998661, 273, 209, 336, 224
-0.99867, 123, 161, 138, 288
-0.998684, 241, 193, 256, 320
-0.998697, 117, 113, 132, 240
-0.998698, 185, 177, 248, 240
-0.99871, 209, 97, 336, 128
-0.998716, 321, 93, 448, 124
-0.998734, 193, 65, 320, 96
-0.998746, 271, 161, 286, 288
-0.998782, 193, 97, 224, 224
-0.998817, 143, 177, 158, 304
-0.99882, 485, 81, 500, 208
-0.998821, 447, 65, 462, 192
-0.998833, 459, 65, 474, 192
-0.998843, 161, 97, 288, 128
-0.998844, 133, 161, 148, 288
-0.998847, 153, 161, 168, 288
-0.998875, 25, 105, 88, 168
-0.998875, 235, 209, 250, 332
-0.998886, 143, 129, 158, 256
-0.998889, 377, 17, 408, 144
-0.998891, 129, 65, 160, 320
-0.998891, 1, 1, 64, 332
-0.998897, 337, 189, 464, 220
-0.998904, 353, 133, 480, 164
-0.998915, 247, 209, 262, 332
-0.998923, 117, 193, 132, 320
-0.998946, 273, 301, 400, 332
-0.998959, 165, 65, 196, 320
-0.998966, 241, 45, 368, 76
-0.998984, 289, 289, 416, 320
-0.998985, 111, 113, 126, 240
-0.998989, 201, 65, 232, 320
-0.998991, 471, 113, 486, 240
-0.998992, 369, 229, 496, 260
-0.998994, 309, 81, 324, 208
-0.998996, 123, 209, 138, 332
-0.999005, 161, 177, 416, 240
-0.999005, 17, 289, 144, 320
-0.999008, 65, 89, 320, 152
-0.999011, 77, 193, 92, 320
-0.999011, 277, 161, 292, 288
-0.999021, 163, 209, 178, 332
-0.999022, 111, 193, 126, 320
-0.99904, 257, 217, 384, 280
-0.999046, 353, 241, 416, 304
-0.99906, 33, 41, 160, 104
-0.999073, 225, 21, 352, 52
-0.999104, 101, 145, 116, 272
-0.999115, 315, 81, 330, 208
-0.999116, 455, 113, 470, 240
-0.999121, 113, 101, 240, 132
-0.99913, 135, 113, 150, 240
-0.999143, 159, 129, 174, 256
-0.999158, 97, 49, 128, 176
-0.999162, 181, 65, 212, 320
-0.999163, 289, 273, 352, 332
-0.999167, 223, 209, 238, 332
-0.999169, 263, 193, 278, 320
-0.999178, 81, 289, 208, 320
-0.999178, 441, 97, 456, 224
-0.999183, 449, 113, 464, 240
-0.999189, 289, 193, 416, 224
-0.999192, 229, 209, 244, 332
-0.999198, 153, 65, 184, 320
-0.999201, 217, 209, 232, 332
-0.999207, 129, 113, 144, 240
-0.999213, 465, 113, 480, 240
-0.999218, 273, 89, 400, 120
-0.99922, 211, 209, 226, 332
-0.999222, 273, 65, 304, 320
-0.999242, 481, 33, 496, 160
-0.999247, 353, 281, 480, 312
-0.999249, 123, 113, 138, 240
-0.999249, 305, 137, 368, 200
-0.999253, 69, 193, 84, 320
-0.999253, 133, 209, 148, 332
-0.999254, 369, 269, 496, 300
-0.999257, 319, 33, 334, 160
-0.999257, 155, 209, 170, 332
-0.999263, 353, 213, 480, 244
-0.999287, 285, 161, 300, 288
-0.999295, 429, 193, 460, 320
-0.999316, 149, 113, 164, 240
-0.999319, 77, 65, 108, 320
-0.999326, 165, 161, 180, 288
-0.999327, 201, 209, 216, 332
-0.999328, 149, 209, 164, 332
-0.999329, 93, 65, 124, 320
-0.999339, 369, 257, 496, 288
-0.99934, 83, 193, 98, 320
-0.999341, 181, 209, 196, 332
-0.999359, 381, 113, 412, 240
-0.999361, 275, 113, 290, 240
-0.999375, 269, 209, 284, 332
-0.999375, 77, 145, 92, 272
-0.999377, 129, 21, 256, 52
-0.999377, 95, 145, 110, 272
-0.999377, 257, 33, 288, 288
-0.999381, 231, 161, 246, 288
-0.999385, 1, 153, 64, 216
-0.999389, 257, 209, 384, 240
-0.999389, 401, 81, 416, 208
-0.99939, 175, 209, 190, 332
-0.999395, 195, 209, 210, 332
-0.9994, 305, 97, 432, 224
-0.999401, 71, 129, 86, 256
-0.999416, 89, 193, 104, 320
-0.99942, 187, 209, 202, 332
-0.999422, 85, 145, 100, 272
-0.999426, 63, 177, 78, 304
-0.999436, 461, 17, 476, 144
-0.999436, 269, 113, 284, 240
-0.999445, 305, 117, 432, 148
-0.999454, 479, 113, 494, 240
-0.999456, 281, 113, 296, 240
-0.999457, 171, 145, 186, 272
-0.999474, 369, 241, 496, 272
-0.999484, 289, 177, 416, 208
-0.999496, 471, 17, 486, 144
-0.999498, 81, 25, 208, 56
-0.999506, 309, 17, 324, 144
-0.999508, 169, 209, 184, 332
-0.999509, 325, 49, 340, 176
-0.999511, 253, 209, 268, 332
-0.999513, 225, 49, 256, 176
-0.999524, 331, 193, 346, 320
-0.999528, 313, 129, 328, 256
-0.99953, 309, 209, 340, 332
-0.999533, 221, 97, 236, 224
-0.999536, 21, 145, 36, 272
-0.999539, 9, 193, 24, 320
-0.999547, 177, 161, 192, 288
-0.999547, 407, 97, 422, 224
-0.99956, 235, 113, 250, 240
-0.999565, 165, 113, 180, 240
-0.99957, 291, 161, 306, 288
-0.999581, 145, 189, 272, 220
-0.999584, 177, 85, 304, 116
-0.999584, 1, 209, 16, 332
-0.999586, 105, 97, 120, 224
-0.999589, 395, 65, 410, 192
-0.999591, 125, 65, 140, 192
-0.999593, 439, 49, 454, 176
-0.999596, 485, 129, 500, 256
-0.999597, 115, 65, 130, 192
-0.9996, 303, 65, 318, 192
-0.999603, 261, 113, 276, 240
-0.999604, 15, 193, 30, 320
-0.99961, 453, 17, 468, 144
-0.999615, 439, 115, 454, 130
-0.999616, 309, 99, 324, 114
-0.999616, 331, 129, 346, 256
-0.999616, 227, 273, 242, 288
-0.999617, 305, 245, 432, 276
-0.999617, 317, 71, 332, 86
-0.999617, 53, 161, 68, 288
-0.999617, 105, 193, 120, 320
-0.999619, 227, 97, 242, 224
-0.999619, 103, 169, 118, 184
-0.999619, 223, 225, 238, 240
-0.99962, 217, 239, 232, 254
-0.99962, 405, 87, 420, 102
-0.99962, 457, 115, 472, 130
-0.99962, 243, 265, 258, 280
-0.99962, 315, 101, 330, 116
-0.999621, 239, 283, 254, 298
-0.999621, 253, 297, 268, 312
-0.999621, 469, 87, 484, 102
-0.999621, 469, 9, 484, 24
-0.999621, 225, 247, 240, 262
-0.999622, 361, 55, 376, 70
-0.999623, 147, 193, 162, 208
-0.999623, 341, 49, 356, 176
-0.999623, 411, 177, 426, 192
-0.999625, 241, 129, 256, 256
-0.999625, 107, 191, 122, 206
-0.999625, 451, 83, 466, 98
-0.999626, 117, 185, 132, 200
-0.999626, 445, 117, 460, 132
-0.999626, 305, 217, 432, 248
-0.999628, 269, 185, 284, 200
-0.999628, 287, 129, 302, 144
-0.999629, 223, 267, 238, 282
-0.999629, 455, 127, 470, 142
-0.99963, 191, 233, 206, 248
-0.999631, 175, 287, 190, 302
-0.999631, 405, 99, 420, 114
-0.999632, 417, 161, 432, 288
-0.999633, 167, 49, 182, 176
-0.999634, 231, 247, 246, 262
-0.999635, 485, 93, 500, 108
-0.999635, 285, 33, 316, 288
-0.999636, 11, 223, 26, 238
-0.999636, 241, 257, 256, 272
-0.999637, 241, 81, 256, 208
-0.999637, 91, 165, 106, 180
-0.999638, 463, 81, 478, 96
-0.999638, 129, 181, 144, 196
-0.999638, 69, 243, 84, 258
-0.999639, 321, 233, 448, 264
-0.999639, 241, 153, 368, 184
-0.99964, 219, 261, 234, 276
-0.99964, 215, 33, 230, 48
-0.99964, 81, 223, 96, 238
-0.99964, 233, 271, 248, 286
-0.999641, 325, 209, 340, 332
-0.999642, 463, 87, 478, 102
-0.999643, 259, 295, 274, 310
-0.999643, 481, 101, 496, 116
-0.999644, 331, 65, 346, 80
-0.999644, 129, 123, 144, 138
-0.999644, 461, 161, 476, 176
-0.999645, 235, 253, 250, 268
-0.999645, 129, 297, 256, 328
-0.999645, 271, 179, 286, 194
-0.999646, 437, 93, 452, 108
-0.999647, 247, 291, 262, 306
-0.999649, 235, 265, 250, 280
-0.999649, 217, 253, 232, 268
-0.99965, 343, 59, 358, 74
-0.99965, 109, 201, 124, 216
-0.99965, 167, 285, 182, 300
-0.999652, 233, 259, 248, 274
-0.999652, 95, 193, 110, 320
-0.999653, 3, 227, 18, 242
-0.999653, 463, 123, 478, 138
-0.999654, 471, 121, 486, 136
-0.999655, 187, 145, 202, 272
-0.999656, 257, 289, 272, 304
-0.999657, 431, 193, 446, 320
-0.999657, 483, 127, 498, 142
-0.999657, 451, 111, 466, 126
-0.999658, 481, 115, 496, 130
-0.999658, 137, 187, 152, 202
-0.999658, 55, 209, 70, 332
-0.999658, 469, 81, 484, 96
-0.999659, 59, 249, 74, 264
-0.999659, 337, 63, 352, 78
-0.999659, 227, 259, 242, 274
-0.999661, 165, 231, 180, 246
-0.999661, 263, 263, 278, 278
-0.999662, 249, 161, 264, 288
-0.999662, 407, 93, 422, 108
-0.999663, 353, 61, 480, 92
-0.999663, 125, 129, 140, 144
-0.999664, 483, 121, 498, 136
-0.999665, 435, 97, 450, 224
-0.999665, 251, 65, 266, 192
-0.999665, 201, 233, 216, 248
-0.999666, 45, 161, 60, 288
-0.999667, 137, 129, 152, 144
-0.999668, 471, 115, 486, 130
-0.999668, 305, 17, 432, 48
-0.99967, 229, 253, 244, 268
-0.999672, 207, 33, 222, 160
-0.999673, 71, 249, 86, 264
-0.999673, 207, 233, 222, 248
-0.999674, 213, 145, 228, 272
-0.999674, 457, 83, 472, 98
-0.999674, 239, 271, 254, 286
-0.999675, 213, 233, 228, 248
-0.999676, 423, 177, 438, 304
-0.999676, 179, 113, 194, 240
-0.999676, 257, 241, 272, 256
-0.999677, 331, 33, 346, 160
-0.999677, 119, 237, 134, 252
-0.999677, 81, 231, 96, 246
-0.999677, 223, 253, 238, 268
-0.999678, 477, 131, 492, 146
-0.999679, 351, 59, 366, 74
-0.999681, 221, 231, 236, 246
-0.999683, 319, 145, 334, 272
-0.999683, 261, 255, 276, 270
-0.999684, 257, 161, 272, 288
-0.999687, 71, 227, 86, 242
-0.999687, 155, 195, 170, 210
-0.999688, 275, 209, 290, 332
-0.99969, 27, 129, 42, 256
-0.99969, 337, 293, 464, 324
-0.999691, 473, 107, 488, 122
-0.999691, 451, 105, 466, 120
-0.999692, 477, 85, 492, 100
-0.999694, 451, 97, 466, 112
-0.999694, 337, 177, 352, 304
-0.999695, 243, 221, 258, 236
-0.999695, 445, 111, 460, 126
-0.999698, 23, 193, 38, 320
-0.999698, 309, 93, 324, 108
-0.999698, 457, 121, 472, 136
-0.999699, 211, 97, 226, 224
-0.9997, 113, 125, 128, 140
-0.999701, 123, 123, 138, 138
-0.999701, 463, 111, 478, 126
-0.999701, 465, 117, 480, 132
-0.999702, 95, 97, 110, 224
-0.999703, 217, 225, 232, 240
-0.999703, 463, 9, 478, 24
-0.999705, 479, 91, 494, 106
-0.999706, 275, 173, 290, 188
-0.999707, 227, 231, 242, 246
-0.999707, 135, 181, 150, 196
-0.999707, 165, 225, 180, 240
-0.999709, 259, 247, 274, 262
-0.99971, 97, 163, 112, 178
-0.999711, 477, 123, 492, 138
-0.999713, 159, 81, 174, 208
-0.999715, 443, 95, 458, 110
-0.999717, 399, 93, 414, 108
-0.999718, 233, 231, 248, 246
-0.99972, 287, 113, 302, 240
-0.999721, 117, 231, 132, 246
-0.999722, 447, 89, 462, 104
-0.999723, 471, 99, 486, 114
-0.999725, 241, 121, 368, 152
-0.999727, 451, 121, 466, 136
-0.999727, 209, 165, 336, 196
-0.99973, 447, 17, 462, 144
-0.99973, 209, 9, 336, 40
-0.999732, 321, 73, 448, 104
-0.999747, 121, 115, 136, 130
-0.999747, 17, 65, 80, 320
-0.999748, 461, 103, 476, 118
-0.99975, 3, 219, 18, 234
-0.999759, 65, 65, 96, 320
-0.99976, 257, 137, 384, 168
-0.999766, 289, 261, 416, 292
-0.999773, 441, 101, 456, 116
-0.999779, 65, 249, 80, 264
-0.999785, 289, 45, 416, 76
-0.999791, 65, 1, 320, 64
-0.999798, 241, 211, 256, 226
-0.999803, 197, 61, 212, 76
-0.999813, 233, 65, 264, 320
-0.999814, 161, 9, 288, 40
-0.999824, 337, 177, 400, 240
-0.999875, 301, 1, 332, 256
-0.999881, 305, 129, 432, 160
-0.999889, 97, 9, 160, 72
-0.999904, 49, 97, 112, 160
-0.999907, 381, 65, 412, 320
-0.999921, 1, 125, 128, 156
-0.999921, 257, 229, 384, 260
-0.999922, 305, 165, 432, 196
-0.999936, 65, 53, 192, 84
-0.999937, 53, 65, 84, 320
-0.99996, 265, 225, 328, 288
-1.00001, 41, 65, 72, 320
-1.00004, 329, 209, 392, 272
-1.00017, 257, 17, 500, 80
-1.0002, 405, 113, 436, 240
-1.00035, 377, 33, 440, 160
-1.00036, 113, 33, 176, 160
-1.0006, 13, 65, 44, 320
-1.00064, 317, 1, 348, 256
-1.00076, 25, 65, 56, 320
-1.00083, 349, 1, 380, 128
-1.00084, 273, 49, 304, 176
-1.00084, 441, 177, 472, 304
-1.00086, 401, 17, 432, 144
-1.00087, 353, 209, 384, 332
-1.00092, 1, 33, 500, 96
-1.00094, 465, 193, 496, 320
-1.00095, 149, 1, 180, 128
-1.00096, 49, 97, 80, 224
-1.00097, 369, 65, 400, 320
-1.00102, 369, 81, 400, 208
-1.0011, 341, 33, 372, 288
-1.0011, 329, 65, 360, 320
-1.00112, 1, 65, 32, 320
-1.00113, 1, 73, 128, 136
-1.00134, 357, 1, 388, 256
-1.00137, 261, 33, 292, 160
-1.00137, 25, 97, 88, 224
-1.00148, 113, 65, 144, 192
-1.00149, 201, 33, 232, 160
-1.00157, 321, 161, 352, 288
-1.00162, 193, 1, 256, 128
-1.00175, 333, 113, 364, 240
-1.0018, 1, 9, 128, 72
-1.00188, 361, 1, 392, 128
-1.00192, 273, 1, 400, 128
-1.00195, 1, 113, 64, 240
-1.002, 381, 193, 412, 320
-1.00203, 249, 65, 280, 192
-1.00211, 165, 65, 196, 192
-1.00213, 1, 1, 500, 64
-1.00216, 361, 161, 424, 288
-1.00222, 285, 209, 316, 332
-1.00243, 285, 1, 316, 128
-1.00248, 5, 81, 36, 208
-1.0025, 405, 209, 436, 332
-1.00256, 181, 65, 212, 192
-1.00259, 137, 17, 200, 144
-1.00277, 49, 1, 176, 128
-1.00284, 37, 113, 68, 240
-1.00311, 313, 33, 376, 288
-1.00316, 345, 65, 408, 320
-1.00376, 161, 1, 224, 128
-1.00448, 409, 1, 472, 128
-1.00504, 233, 1, 296, 128
-1.00577, 1, 1, 128, 128
-1.00704, 17, 49, 80, 176
-1.00797, 73, 17, 136, 144
-1.00874, 17, 1, 80, 128
-1.00954, 49, 1, 112, 128
