1954
-0.237574, 1, 33, 500, 288
-0.248797, 1, 1, 500, 375
-0.358806, 33, 1, 288, 375
-0.45278, 257, 1, 500, 375
-0.460514, 1, 129, 500, 375
-0.483901, 65, 33, 320, 288
-0.527335, 161, 1, 416, 375
-0.537544, 161, 65, 416, 320
-0.569443, 257, 1, 500, 256
-0.616552, 33, 129, 288, 375
-0.707795, 257, 97, 500, 352
-0.812299, 129, 1, 256, 256
-0.826473, 113, 1, 240, 375
-0.834253, 97, 97, 224, 352
-0.83802, 177, 1, 304, 256
-0.840955, 161, 1, 288, 375
-0.843825, 161, 97, 288, 352
-0.843963, 369, 1, 496, 375
-0.84591, 1, 65, 500, 192
-0.848779, 225, 65, 352, 320
-0.851413, 1, 65, 128, 320
-0.860963, 369, 1, 496, 256
-0.86209, 225, 1, 352, 375
-0.863468, 81, 1, 208, 256
-0.871483, 321, 1, 448, 256
-0.872087, 65, 1, 192, 375
-0.874452, 1, 1, 500, 128
-0.876075, 305, 1, 432, 375
-0.876807, 273, 65, 400, 320
-0.877787, 49, 97, 176, 352
-0.89051, 1, 1, 128, 375
-0.891748, 369, 97, 496, 352
-0.892043, 1, 177, 500, 304
-0.897338, 1, 81, 256, 208
-0.90248, 97, 17, 352, 144
-0.904052, 33, 177, 288, 304
-0.906437, 257, 1, 500, 128
-0.913102, 1, 113, 500, 240
-0.914448, 129, 81, 384, 208
-0.920445, 257, 49, 500, 176
-0.921457, 353, 1, 480, 128
-0.923359, 177, 81, 240, 208
-0.925064, 161, 193, 416, 320
-0.925805, 1, 33, 256, 160
-0.926548, 17, 81, 80, 208
-0.929854, 161, 145, 416, 272
-0.929909, 129, 17, 256, 144
-0.930315, 409, 1, 472, 128
-0.93039, 145, 161, 272, 288
-0.931093, 1, 81, 128, 208
-0.932627, 257, 113, 500, 240
-0.932999, 1, 225, 500, 352
-0.933145, 105, 49, 168, 176
-0.933248, 321, 97, 448, 352
-0.933371, 113, 97, 240, 224
-0.934863, 193, 1, 320, 128
-0.935726, 81, 177, 208, 304
-0.935972, 153, 17, 216, 144
-0.936691, 121, 97, 184, 224
-0.936985, 361, 1, 424, 128
-0.937241, 49, 49, 176, 176
-0.938039, 193, 1, 256, 128
-0.938611, 161, 161, 224, 288
-0.939369, 81, 65, 144, 192
-0.93938, 153, 241, 216, 304
-0.93963, 177, 81, 304, 208
-0.939709, 353, 49, 480, 176
-0.940669, 1, 129, 128, 256
-0.940936, 385, 1, 448, 128
-0.941648, 193, 161, 256, 288
-0.942124, 225, 1, 288, 128
-0.942801, 305, 1, 432, 128
-0.944606, 153, 209, 216, 336
-0.944717, 177, 209, 304, 336
-0.944813, 209, 81, 272, 208
-0.944848, 49, 65, 112, 192
-0.945327, 65, 129, 320, 256
-0.94567, 225, 65, 352, 192
-0.945725, 337, 1, 400, 128
-0.945734, 9, 97, 72, 160
-0.946582, 249, 1, 312, 128
-0.94701, 257, 161, 500, 288
-0.947594, 433, 17, 496, 144
-0.948046, 49, 97, 176, 224
-0.948956, 129, 161, 192, 288
-0.949358, 409, 49, 472, 176
-0.950058, 153, 97, 216, 224
-0.950454, 65, 241, 320, 368
-0.95144, 113, 225, 240, 352
-0.951966, 17, 177, 144, 304
-0.952053, 273, 65, 400, 192
-0.95271, 73, 161, 136, 288
-0.95277, 433, 65, 496, 192
-0.953102, 1, 129, 64, 256
-0.953284, 233, 65, 296, 192
-0.953474, 153, 217, 216, 280
-0.953505, 105, 161, 168, 288
-0.953762, 409, 17, 472, 80
-0.953967, 73, 113, 136, 240
-0.953968, 161, 1, 224, 256
-0.954119, 225, 225, 352, 352
-0.954489, 41, 89, 104, 152
-0.954667, 433, 129, 496, 256
-0.954851, 233, 193, 296, 320
-0.955222, 265, 65, 328, 192
-0.955469, 305, 65, 368, 192
-0.955675, 193, 241, 256, 368
-0.95589, 241, 1, 368, 128
-0.956134, 129, 33, 192, 160
-0.956168, 177, 89, 240, 152
-0.956349, 49, 113, 112, 240
-0.956545, 185, 1, 248, 256
-0.956573, 193, 161, 320, 288
-0.957116, 113, 233, 176, 296
-0.957386, 137, 97, 200, 160
-0.957632, 337, 49, 400, 176
-0.957646, 377, 49, 440, 176
-0.95776, 1, 177, 64, 240
-0.957884, 137, 1, 200, 256
-0.958007, 177, 241, 240, 304
-0.958164, 25, 161, 88, 288
-0.958782, 201, 233, 264, 296
-0.958795, 137, 153, 200, 216
-0.958943, 97, 113, 160, 240
-0.960028, 121, 177, 184, 240
-0.960938, 241, 225, 304, 288
-0.961801, 97, 97, 160, 352
-0.961835, 241, 161, 368, 288
-0.962113, 17, 121, 80, 184
-0.962116, 209, 81, 272, 144
-0.96232, 433, 41, 496, 104
-0.962452, 25, 185, 88, 248
-0.962601, 177, 145, 240, 208
-0.962691, 425, 121, 488, 184
-0.962777, 65, 81, 128, 144
-0.963065, 13, 81, 44, 208
-0.963145, 81, 193, 144, 256
-0.963242, 217, 145, 280, 272
-0.963256, 425, 97, 488, 160
-0.963526, 153, 265, 216, 328
-0.963686, 113, 1, 176, 256
-0.96373, 161, 177, 224, 240
-0.963825, 209, 65, 272, 320
-0.963994, 193, 241, 448, 368
-0.964172, 129, 257, 192, 320
-0.964323, 361, 121, 424, 184
-0.964435, 161, 97, 224, 352
-0.965029, 401, 129, 464, 192
-0.965062, 401, 105, 464, 168
-0.965081, 137, 97, 200, 352
-0.965319, 185, 265, 248, 328
-0.965598, 165, 241, 196, 304
-0.96566, 249, 1, 312, 64
-0.966155, 29, 81, 60, 208
-0.966167, 9, 97, 40, 160
-0.9663, 233, 241, 296, 368
-0.966369, 225, 113, 352, 240
-0.96671, 217, 1, 280, 64
-0.966869, 409, 97, 472, 224
-0.966979, 353, 113, 480, 240
-0.967282, 161, 121, 224, 184
-0.967413, 177, 17, 240, 80
-0.967495, 185, 97, 248, 352
-0.967539, 1, 153, 64, 216
-0.967623, 313, 145, 376, 272
-0.967826, 17, 33, 80, 160
-0.967901, 257, 177, 320, 304
-0.968008, 257, 201, 320, 264
-0.968193, 49, 185, 112, 248
-0.968246, 385, 17, 448, 80
-0.968302, 313, 1, 376, 128
-0.968312, 249, 65, 312, 320
-0.968359, 117, 49, 148, 176
-0.968489, 181, 81, 212, 208
-0.968493, 129, 209, 192, 336
-0.968534, 1, 33, 128, 160
-0.968543, 193, 169, 256, 232
-0.968739, 145, 241, 272, 304
-0.968889, 177, 241, 208, 304
-0.969051, 345, 97, 408, 224
-0.969107, 429, 1, 460, 128
-0.969204, 137, 129, 200, 192
-0.969423, 137, 33, 200, 96
-0.969479, 1, 89, 128, 152
-0.969966, 137, 33, 168, 160
-0.969988, 417, 1, 480, 256
-0.970096, 57, 209, 120, 336
-0.970351, 89, 65, 120, 192
-0.970403, 73, 65, 136, 320
-0.970448, 41, 81, 72, 208
-0.970518, 97, 209, 160, 336
-0.970594, 49, 89, 80, 152
-0.970604, 153, 81, 184, 208
-0.970648, 17, 185, 144, 248
-0.970652, 25, 217, 88, 280
-0.970703, 89, 65, 152, 128
-0.970886, 233, 201, 296, 264
-0.970927, 153, 17, 184, 144
-0.970998, 97, 105, 160, 168
-0.971211, 369, 161, 496, 288
-0.97133, 153, 241, 184, 304
-0.971453, 25, 97, 56, 160
-0.971482, 113, 201, 176, 264
-0.971527, 465, 65, 496, 192
-0.971578, 401, 1, 432, 128
-0.971635, 441, 1, 472, 128
-0.971691, 249, 129, 312, 256
-0.971878, 205, 1, 236, 128
-0.971885, 393, 57, 456, 120
-0.972022, 1, 225, 128, 352
-0.972052, 425, 153, 488, 216
-0.972054, 417, 1, 448, 128
-0.972173, 241, 249, 304, 312
-0.972244, 217, 177, 280, 240
-0.972252, 9, 65, 72, 320
-0.972297, 65, 105, 128, 168
-0.972517, 169, 17, 200, 144
-0.972538, 253, 1, 284, 128
-0.972543, 105, 49, 136, 176
-0.972559, 189, 161, 220, 288
-0.972612, 217, 265, 280, 328
-0.972686, 289, 161, 416, 288
-0.972814, 181, 17, 212, 144
-0.972851, 329, 153, 392, 216
-0.972905, 65, 217, 128, 280
-0.972973, 441, 17, 472, 80
-0.972984, 389, 1, 420, 128
-0.973017, 213, 81, 244, 208
-0.973063, 225, 153, 288, 216
-0.973141, 189, 241, 220, 304
-0.973149, 5, 177, 36, 240
-0.973175, 257, 81, 320, 144
-0.973198, 97, 233, 224, 296
-0.973352, 305, 113, 432, 240
-0.973419, 453, 97, 484, 224
-0.973472, 453, 33, 484, 160
-0.973474, 469, 81, 500, 144
-0.973542, 177, 209, 240, 272
-0.973624, 273, 1, 336, 64
-0.973661, 21, 177, 52, 240
-0.973742, 17, 129, 48, 256
-0.973773, 229, 1, 260, 128
-0.973907, 361, 1, 392, 128
-0.973913, 97, 169, 160, 232
-0.973944, 265, 225, 328, 288
-0.974109, 173, 145, 204, 272
-0.974116, 377, 1, 408, 128
-0.974135, 37, 89, 68, 152
-0.974219, 201, 145, 264, 208
-0.974307, 337, 9, 400, 72
-0.974363, 161, 217, 288, 280
-0.974418, 233, 81, 296, 144
-0.974487, 161, 217, 192, 280
-0.974613, 353, 17, 480, 80
-0.974716, 65, 193, 192, 256
-0.974733, 289, 233, 352, 296
-0.974993, 349, 1, 380, 128
-0.975122, 337, 65, 400, 128
-0.975233, 229, 81, 260, 208
-0.975239, 145, 265, 272, 328
-0.97528, 61, 89, 92, 152
-0.97529, 281, 73, 344, 136
-0.975341, 469, 201, 500, 264
-0.975415, 249, 209, 280, 272
-0.975505, 89, 217, 152, 280
-0.975627, 129, 177, 160, 240
-0.975649, 273, 209, 400, 336
-0.975754, 9, 121, 40, 184
-0.975769, 241, 1, 272, 128
-0.975817, 77, 65, 108, 192
-0.975836, 361, 17, 424, 80
-0.975883, 181, 209, 212, 336
-0.97589, 337, 113, 464, 176
-0.97593, 161, 89, 288, 152
-0.975984, 77, 81, 108, 144
-0.97604, 193, 81, 224, 208
-0.976042, 433, 73, 496, 136
-0.976068, 49, 33, 112, 288
-0.976114, 145, 217, 176, 280
-0.976193, 129, 97, 160, 224
-0.976236, 353, 145, 416, 208
-0.976255, 5, 129, 36, 256
-0.976462, 193, 17, 224, 144
-0.976468, 217, 1, 248, 128
-0.976517, 169, 97, 200, 224
-0.976541, 109, 185, 140, 248
-0.97659, 409, 145, 472, 272
-0.976598, 53, 81, 84, 208
-0.976627, 113, 89, 240, 152
-0.976632, 273, 1, 336, 128
-0.976746, 385, 129, 448, 256
-0.976869, 329, 113, 392, 176
-0.976933, 145, 73, 208, 136
-0.976937, 113, 169, 240, 232
-0.97712, 169, 209, 200, 336
-0.97714, 209, 1, 336, 64
-0.977227, 313, 33, 376, 288
-0.977297, 353, 137, 384, 200
-0.977323, 425, 97, 488, 352
-0.977376, 385, 1, 448, 256
-0.977396, 429, 105, 460, 168
-0.977522, 465, 161, 496, 288
-0.977593, 41, 113, 104, 176
-0.977612, 337, 145, 400, 272
-0.977659, 241, 81, 272, 208
-0.977672, 433, 17, 496, 80
-0.977707, 313, 73, 376, 136
-0.97771, 369, 57, 496, 120
-0.977715, 273, 65, 336, 320
-0.97773, 177, 161, 304, 224
-0.977734, 173, 217, 204, 280
-0.977787, 265, 1, 296, 128
-0.977837, 9, 153, 40, 216
-0.977851, 353, 1, 416, 256
-0.977879, 369, 97, 432, 160
-0.977936, 65, 81, 96, 208
-0.97798, 117, 97, 148, 224
-0.978013, 277, 233, 308, 296
-0.978029, 189, 89, 220, 152
-0.978047, 361, 65, 424, 128
-0.978053, 89, 241, 152, 304
-0.978133, 425, 17, 456, 80
-0.978263, 161, 161, 192, 288
-0.978276, 169, 1, 232, 375
-0.9783, 153, 97, 184, 160
-0.978422, 169, 89, 200, 152
-0.978488, 1, 217, 128, 280
-0.97859, 417, 105, 448, 168
-0.978731, 209, 81, 336, 144
-0.978792, 113, 41, 176, 104
-0.978797, 393, 81, 456, 144
-0.978873, 97, 257, 224, 320
-0.978922, 425, 129, 456, 192
-0.978931, 469, 57, 500, 120
-0.978958, 281, 225, 344, 352
-0.978963, 49, 225, 176, 352
-0.979, 49, 161, 112, 288
-0.979028, 249, 233, 280, 296
-0.979162, 185, 217, 216, 280
-0.979201, 201, 201, 264, 264
-0.979216, 441, 49, 472, 176
-0.979289, 209, 1, 272, 375
-0.979303, 21, 121, 52, 184
-0.979352, 141, 81, 172, 208
-0.979463, 81, 1, 208, 128
-0.979516, 145, 193, 272, 256
-0.979631, 201, 177, 232, 304
-0.979702, 201, 89, 232, 152
-0.979736, 413, 17, 444, 80
-0.979767, 101, 97, 132, 224
-0.979796, 229, 233, 260, 296
-0.979803, 145, 17, 272, 80
-0.979828, 425, 193, 488, 256
-0.979832, 81, 177, 112, 304
-0.979836, 465, 113, 496, 240
-0.979875, 325, 65, 356, 192
-0.98, 369, 209, 496, 336
-0.980012, 49, 17, 112, 144
-0.980054, 173, 153, 204, 216
-0.98014, 465, 161, 496, 224
-0.98022, 49, 105, 176, 168
-0.980377, 5, 177, 36, 304
-0.980387, 225, 241, 352, 304
-0.980425, 49, 73, 176, 136
-0.980432, 281, 113, 344, 240
-0.980445, 257, 65, 288, 192
-0.980495, 153, 1, 216, 64
-0.980538, 205, 241, 236, 368
-0.980654, 445, 121, 476, 184
-0.980709, 221, 9, 252, 72
-0.980737, 113, 1, 176, 375
-0.980783, 257, 73, 384, 136
-0.981018, 249, 1, 280, 64
-0.981035, 49, 177, 80, 240
-0.981062, 249, 177, 280, 304
-0.981118, 353, 137, 480, 200
-0.981192, 265, 201, 296, 264
-0.981197, 137, 97, 168, 160
-0.981209, 49, 129, 112, 375
-0.981226, 453, 33, 484, 96
-0.981317, 1, 201, 32, 264
-0.981344, 21, 201, 52, 264
-0.981353, 213, 89, 244, 152
-0.981423, 161, 137, 192, 200
-0.98143, 1, 177, 64, 304
-0.981541, 265, 257, 328, 320
-0.98156, 37, 177, 68, 240
-0.981576, 89, 73, 120, 136
-0.981579, 225, 209, 352, 272
-0.981584, 445, 97, 476, 160
-0.981596, 81, 17, 144, 144
-0.981604, 113, 145, 176, 208
-0.981627, 113, 177, 144, 304
-0.981655, 97, 265, 160, 328
-0.981712, 241, 81, 272, 144
-0.981713, 433, 177, 496, 304
-0.981734, 225, 161, 256, 224
-0.981773, 305, 65, 432, 128
-0.981824, 273, 1, 304, 64
-0.981844, 177, 265, 208, 328
-0.981849, 141, 241, 172, 304
-0.981856, 293, 225, 324, 288
-0.982041, 101, 161, 132, 288
-0.982078, 345, 65, 376, 192
-0.982088, 161, 265, 192, 328
-0.98214, 257, 1, 384, 64
-0.982148, 85, 193, 116, 256
-0.982155, 229, 81, 260, 144
-0.982241, 181, 177, 212, 240
-0.982248, 305, 129, 368, 192
-0.982287, 49, 217, 176, 280
-0.98238, 393, 17, 424, 80
-0.982397, 453, 153, 484, 216
-0.982409, 369, 49, 400, 176
-0.982475, 145, 33, 176, 96
-0.982505, 265, 225, 296, 288
-0.982512, 57, 241, 120, 304
-0.982581, 97, 185, 128, 248
-0.982591, 457, 105, 488, 168
-0.982633, 313, 65, 344, 192
-0.982651, 265, 193, 296, 320
-0.982731, 185, 65, 248, 128
-0.982742, 201, 233, 232, 296
-0.98277, 101, 73, 132, 136
-0.982815, 1, 161, 128, 224
-0.982905, 193, 17, 224, 80
-0.982917, 145, 177, 176, 304
-0.982919, 305, 225, 368, 352
-0.982976, 313, 1, 376, 64
-0.983014, 33, 209, 96, 336
-0.983031, 417, 49, 448, 176
-0.983066, 77, 217, 108, 280
-0.983067, 277, 1, 308, 128
-0.983082, 297, 65, 328, 192
-0.983168, 145, 137, 272, 200
-0.983302, 281, 201, 344, 264
-0.983302, 429, 49, 460, 176
-0.983314, 249, 1, 312, 375
-0.983319, 233, 161, 264, 288
-0.983381, 273, 65, 304, 192
-0.983383, 257, 169, 320, 232
-0.983392, 469, 225, 500, 288
-0.983456, 1, 201, 64, 264
-0.983526, 173, 121, 204, 184
-0.983715, 193, 225, 224, 352
-0.983795, 153, 193, 184, 256
-0.983862, 169, 177, 200, 240
-0.983864, 113, 65, 144, 128
-0.98394, 425, 217, 488, 280
-0.983952, 305, 153, 368, 216
-0.984001, 97, 105, 128, 168
-0.984016, 25, 161, 88, 224
-0.984042, 81, 49, 208, 112
-0.984063, 125, 161, 156, 288
-0.984093, 137, 1, 200, 375
-0.984112, 357, 49, 388, 176
-0.984115, 121, 241, 152, 304
-0.984137, 37, 33, 68, 160
-0.984152, 165, 25, 196, 88
-0.98418, 217, 105, 280, 168
-0.984184, 261, 1, 292, 64
-0.984248, 425, 1, 488, 375
-0.984267, 341, 1, 372, 64
-0.984299, 213, 265, 244, 328
-0.984313, 1, 121, 128, 184
-0.984334, 29, 129, 60, 256
-0.984337, 409, 129, 440, 192
-0.984345, 229, 265, 260, 328
-0.984362, 225, 153, 352, 216
-0.984418, 261, 81, 292, 144
-0.984516, 285, 65, 316, 192
-0.984612, 341, 145, 372, 208
-0.984641, 237, 1, 268, 64
-0.984643, 121, 105, 152, 168
-0.984651, 369, 89, 496, 152
-0.984676, 49, 161, 80, 288
-0.984764, 401, 97, 464, 352
-0.984792, 69, 193, 100, 320
-0.984799, 89, 1, 152, 375
-0.984873, 65, 161, 128, 224
-0.984943, 405, 49, 436, 176
-0.984961, 209, 265, 336, 328
-0.984967, 153, 161, 184, 224
-0.985042, 157, 209, 188, 336
-0.985055, 225, 129, 288, 192
-0.985159, 25, 33, 56, 160
-0.985172, 281, 177, 344, 304
-0.985221, 9, 73, 72, 136
-0.985226, 285, 1, 316, 64
-0.985382, 453, 145, 484, 272
-0.985511, 81, 113, 112, 240
-0.985571, 25, 153, 56, 216
-0.985602, 289, 113, 416, 176
-0.985615, 193, 265, 224, 328
-0.985655, 113, 113, 240, 176
-0.985671, 469, 113, 500, 176
-0.985704, 73, 193, 104, 256
-0.985719, 57, 33, 88, 160
-0.985794, 281, 209, 312, 336
-0.985823, 361, 1, 424, 375
-0.985832, 393, 153, 456, 216
-0.98592, 229, 241, 260, 368
-0.985923, 465, 17, 496, 144
-0.985965, 357, 113, 388, 176
-0.986033, 241, 273, 304, 336
-0.986099, 185, 121, 248, 184
-0.986129, 61, 113, 92, 176
-0.986151, 209, 161, 240, 224
-0.98616, 381, 49, 412, 176
-0.986174, 293, 201, 324, 264
-0.986179, 437, 145, 468, 208
-0.986193, 249, 57, 312, 120
-0.986212, 221, 145, 252, 272
-0.986453, 193, 169, 224, 232
-0.986455, 301, 73, 332, 136
-0.986477, 33, 121, 64, 184
-0.9865, 337, 241, 400, 304
-0.986526, 9, 1, 72, 375
-0.986538, 149, 273, 180, 336
-0.986539, 213, 137, 244, 200
-0.986543, 181, 17, 212, 80
-0.986572, 245, 153, 276, 216
-0.986596, 353, 41, 416, 104
-0.986655, 25, 177, 56, 304
-0.986786, 153, 245, 216, 276
-0.98681, 273, 137, 400, 200
-0.986819, 369, 225, 496, 288
-0.986824, 277, 209, 308, 272
-0.986831, 249, 225, 280, 352
-0.986843, 337, 1, 368, 128
-0.986898, 305, 217, 336, 280
-0.986908, 101, 233, 132, 296
-0.986975, 265, 145, 296, 272
-0.987029, 85, 105, 116, 168
-0.987064, 205, 17, 236, 80
-0.987088, 141, 185, 172, 248
-0.987103, 201, 129, 232, 256
-0.987309, 225, 129, 352, 192
-0.987364, 49, 113, 80, 176
-0.987366, 365, 145, 396, 208
-0.987431, 169, 1, 200, 64
-0.987486, 373, 121, 404, 184
-0.987504, 345, 113, 376, 176
-0.987531, 393, 49, 424, 176
-0.987614, 101, 209, 132, 272
-0.987645, 37, 177, 68, 304
-0.987658, 313, 217, 376, 280
-0.987721, 297, 1, 360, 375
-0.987739, 281, 129, 344, 192
-0.987772, 277, 161, 308, 288
-0.987774, 381, 17, 412, 80
-0.987832, 61, 177, 92, 240
-0.987864, 1, 225, 64, 352
-0.9879, 33, 209, 64, 272
-0.987977, 393, 121, 424, 184
-0.987995, 33, 1, 96, 375
-0.987996, 297, 49, 360, 112
-0.988006, 321, 1, 384, 375
-0.988013, 289, 73, 320, 136
-0.98806, 129, 41, 160, 104
-0.988063, 401, 1, 464, 375
-0.988082, 1, 241, 128, 304
-0.988096, 109, 105, 140, 168
-0.988101, 401, 57, 432, 120
-0.98811, 257, 137, 320, 200
-0.988156, 361, 177, 424, 304
-0.98825, 437, 97, 468, 224
-0.988361, 209, 105, 336, 168
-0.988434, 49, 241, 176, 304
-0.988437, 333, 113, 364, 240
-0.988504, 361, 113, 392, 240
-0.988547, 33, 189, 96, 220
-0.98862, 289, 161, 416, 224
-0.988633, 49, 153, 176, 216
-0.988655, 221, 193, 252, 320
-0.988667, 1, 225, 64, 288
-0.98871, 289, 257, 352, 320
-0.988738, 137, 169, 200, 200
-0.988749, 129, 41, 256, 104
-0.988806, 93, 17, 124, 144
-0.988826, 153, 265, 216, 296
-0.988887, 225, 185, 352, 248
-0.988909, 273, 233, 400, 296
-0.988927, 129, 281, 192, 344
-0.988938, 441, 145, 472, 272
-0.988956, 313, 129, 376, 375
-0.988976, 9, 101, 72, 132
-0.988991, 105, 1, 168, 128
-0.989035, 253, 129, 284, 256
-0.98905, 177, 265, 240, 296
-0.989175, 57, 1, 120, 375
-0.9892, 217, 241, 248, 368
-0.98924, 305, 1, 432, 64
-0.989278, 257, 241, 320, 368
-0.989281, 345, 129, 376, 256
-0.989328, 177, 93, 240, 124
-0.989449, 329, 41, 392, 104
-0.989451, 409, 109, 472, 140
-0.989461, 305, 209, 336, 336
-0.989464, 129, 261, 192, 292
-0.989489, 293, 177, 324, 304
-0.989505, 73, 265, 136, 328
-0.989516, 161, 165, 224, 196
-0.98955, 417, 149, 480, 180
-0.98956, 1, 81, 500, 144
-0.989604, 113, 177, 176, 208
-0.989644, 361, 113, 424, 144
-0.98965, 33, 193, 288, 256
-0.989658, 305, 105, 368, 168
-0.989771, 417, 21, 480, 52
-0.989783, 1, 185, 64, 216
-0.989817, 193, 253, 256, 284
-0.989912, 129, 217, 384, 280
-0.98992, 385, 109, 448, 140
-0.989924, 97, 281, 224, 344
-0.989937, 281, 1, 344, 32
-0.989941, 369, 241, 432, 304
-0.989943, 217, 57, 280, 120
-0.989975, 1, 125, 64, 156
-0.990048, 81, 193, 144, 224
-0.990057, 225, 161, 288, 192
-0.990074, 137, 101, 200, 132
-0.990085, 329, 161, 392, 192
-0.990088, 113, 245, 176, 276
-0.9901, 137, 121, 200, 152
-0.990129, 321, 225, 448, 352
-0.990137, 57, 193, 120, 224
-0.990143, 257, 201, 320, 232
-0.990159, 185, 165, 248, 196
-0.99016, 177, 21, 240, 52
-0.990163, 401, 225, 464, 288
-0.990172, 289, 1, 320, 128
-0.990206, 433, 53, 496, 84
-0.990225, 13, 33, 44, 160
-0.990235, 225, 9, 288, 40
-0.990239, 385, 133, 448, 164
-0.990263, 369, 169, 432, 232
-0.990265, 241, 221, 304, 252
-0.990275, 177, 153, 240, 184
-0.990454, 417, 121, 480, 152
-0.990481, 265, 225, 328, 256
-0.990494, 33, 225, 288, 288
-0.990532, 137, 153, 200, 184
-0.990541, 137, 213, 200, 244
-0.990545, 33, 201, 96, 232
-0.990551, 209, 273, 272, 304
-0.990554, 217, 85, 280, 116
-0.990589, 241, 253, 304, 284
-0.990597, 161, 117, 224, 148
-0.990612, 265, 241, 328, 272
-0.990614, 369, 161, 496, 224
-0.990627, 1, 173, 64, 204
-0.990637, 81, 221, 144, 252
-0.99066, 201, 241, 264, 272
-0.990671, 305, 1, 368, 32
-0.990674, 81, 205, 144, 236
-0.990675, 137, 37, 200, 68
-0.990686, 161, 137, 224, 168
-0.990691, 329, 149, 392, 180
-0.990706, 25, 229, 88, 260
-0.990706, 161, 181, 224, 212
-0.99074, 433, 105, 496, 136
-0.990768, 105, 217, 168, 248
-0.990824, 1, 81, 32, 208
-0.99083, 105, 189, 168, 220
-0.990863, 469, 209, 500, 336
-0.990883, 281, 257, 344, 288
-0.990886, 33, 89, 288, 152
-0.990898, 169, 277, 232, 308
-0.990901, 113, 65, 176, 128
-0.990912, 137, 225, 200, 256
-0.990915, 409, 57, 472, 88
-0.990922, 241, 241, 304, 272
-0.990926, 97, 257, 160, 288
-0.99094, 161, 81, 416, 144
-0.990947, 145, 281, 208, 312
-0.99095, 65, 113, 128, 144
-0.990952, 273, 49, 336, 112
-0.990972, 121, 53, 184, 84
-0.990977, 321, 89, 448, 152
-0.990979, 25, 121, 88, 152
-0.99098, 353, 149, 416, 180
-0.990983, 113, 105, 176, 136
-0.990986, 137, 181, 200, 212
-0.991009, 81, 181, 144, 212
-0.991016, 57, 241, 120, 272
-0.991017, 273, 1, 336, 375
-0.991019, 1, 197, 64, 228
-0.991047, 241, 265, 304, 296
-0.991072, 1, 113, 64, 144
-0.991072, 137, 241, 168, 368
-0.991093, 89, 109, 152, 140
-0.99111, 321, 145, 352, 272
-0.991131, 161, 225, 224, 256
-0.991136, 393, 145, 456, 176
-0.991161, 289, 241, 352, 272
-0.99117, 1, 17, 500, 80
-0.991172, 321, 69, 384, 100
-0.991198, 33, 93, 96, 124
-0.991246, 129, 65, 256, 128
-0.991264, 289, 41, 416, 104
-0.991267, 377, 97, 440, 352
-0.99127, 337, 117, 400, 148
-0.991273, 161, 209, 224, 240
-0.991274, 201, 13, 264, 44
-0.991282, 57, 49, 120, 112
-0.991282, 257, 1, 320, 32
-0.991287, 193, 57, 320, 120
-0.991295, 57, 205, 120, 236
-0.991305, 385, 61, 448, 92
-0.991316, 345, 13, 408, 44
-0.991332, 89, 245, 152, 276
-0.991339, 345, 97, 408, 352
-0.991348, 233, 205, 296, 236
-0.991361, 393, 21, 456, 52
-0.991362, 9, 217, 72, 248
-0.991373, 113, 277, 176, 308
-0.991382, 61, 129, 92, 256
-0.991383, 241, 85, 304, 116
-0.991404, 361, 65, 424, 96
-0.991406, 125, 209, 156, 336
-0.991409, 177, 241, 240, 272
-0.991415, 137, 141, 200, 172
-0.991418, 1, 141, 64, 172
-0.991427, 313, 249, 376, 312
-0.991435, 201, 225, 264, 256
-0.991436, 425, 97, 456, 224
-0.991449, 297, 73, 360, 104
-0.99146, 201, 145, 264, 176
-0.991473, 425, 217, 488, 248
-0.991516, 209, 101, 272, 132
-0.991526, 193, 177, 256, 208
-0.991542, 273, 77, 336, 108
-0.991551, 57, 217, 120, 248
-0.991551, 305, 153, 368, 184
-0.99156, 33, 57, 96, 120
-0.991614, 273, 209, 400, 272
-0.991626, 321, 249, 448, 312
-0.991661, 161, 105, 224, 136
-0.991672, 369, 21, 432, 52
-0.991693, 425, 41, 488, 72
-0.991705, 153, 25, 216, 56
-0.991705, 217, 261, 280, 292
-0.991721, 113, 121, 176, 152
-0.991737, 113, 233, 176, 264
-0.99174, 113, 205, 176, 236
-0.991752, 345, 137, 408, 168
-0.991756, 73, 257, 136, 288
-0.991769, 405, 129, 436, 256
-0.991771, 57, 181, 120, 212
-0.991776, 161, 1, 416, 64
-0.991794, 433, 161, 496, 192
-0.991796, 57, 89, 120, 120
-0.991811, 57, 229, 120, 260
-0.991864, 433, 93, 496, 124
-0.991867, 33, 217, 96, 248
-0.991873, 417, 137, 480, 168
-0.991889, 1, 153, 64, 184
-0.991889, 257, 9, 500, 72
-0.991907, 73, 77, 136, 108
-0.991928, 97, 145, 224, 208
-0.991953, 305, 165, 368, 196
-0.991963, 281, 169, 344, 232
-0.991977, 281, 209, 344, 240
-0.991977, 257, 129, 500, 192
-0.991993, 425, 237, 488, 268
-0.991995, 153, 89, 216, 120
-0.992004, 33, 65, 288, 128
-0.992038, 65, 169, 320, 232
-0.992044, 9, 249, 72, 312
-0.992123, 33, 249, 288, 312
-0.992145, 37, 185, 68, 216
-0.992168, 13, 97, 28, 160
-0.992187, 165, 245, 196, 276
-0.992201, 33, 25, 160, 88
-0.992209, 249, 113, 312, 176
-0.992252, 17, 193, 48, 224
-0.992271, 261, 241, 292, 368
-0.992319, 169, 269, 200, 300
-0.992333, 349, 157, 380, 188
-0.992338, 425, 145, 456, 176
-0.992351, 5, 189, 36, 220
-0.992397, 181, 261, 212, 292
-0.9924, 177, 245, 208, 276
-0.992407, 9, 125, 40, 156
-0.992416, 277, 249, 308, 280
-0.99242, 61, 189, 92, 220
-0.992436, 173, 165, 204, 196
-0.992448, 193, 93, 224, 124
-0.992463, 13, 101, 44, 132
-0.992483, 157, 265, 188, 296
-0.99249, 21, 181, 52, 212
-0.992494, 105, 189, 136, 220
-0.992495, 49, 189, 80, 220
-0.992502, 57, 209, 88, 336
-0.992503, 13, 169, 44, 200
-0.992507, 179, 241, 194, 304
-0.992509, 221, 161, 252, 192
-0.992513, 293, 241, 324, 272
-0.992527, 441, 17, 472, 48
-0.992544, 193, 265, 224, 296
-0.992545, 145, 257, 176, 288
-0.992552, 133, 177, 164, 208
-0.992563, 149, 245, 180, 276
-0.992567, 233, 161, 264, 192
-0.992571, 249, 221, 280, 252
-0.992574, 89, 129, 152, 192
-0.992577, 149, 101, 180, 132
-0.992582, 417, 129, 448, 160
-0.992583, 369, 201, 496, 264
-0.992584, 149, 129, 180, 256
-0.992588, 121, 177, 152, 208
-0.992596, 29, 197, 60, 228
-0.992599, 153, 173, 184, 204
-0.9926, 349, 145, 380, 176
-0.992613, 293, 253, 324, 284
-0.992615, 209, 297, 272, 360
-0.992615, 289, 1, 320, 32
-0.992616, 453, 101, 484, 132
-0.992626, 465, 81, 496, 112
-0.992631, 17, 205, 48, 236
-0.992639, 437, 149, 468, 180
-0.992649, 5, 201, 36, 232
-0.992652, 429, 113, 460, 144
-0.992657, 461, 229, 492, 260
-0.99266, 81, 197, 112, 228
-0.992674, 171, 241, 186, 304
-0.992675, 97, 41, 352, 104
-0.992684, 205, 93, 236, 124
-0.992686, 417, 113, 448, 144
-0.992705, 181, 93, 212, 124
-0.992707, 397, 117, 428, 148
-0.992714, 217, 89, 248, 120
-0.992715, 361, 117, 392, 148
-0.992722, 389, 97, 420, 224
-0.992742, 365, 153, 396, 184
-0.992744, 457, 113, 488, 144
-0.992744, 465, 101, 496, 132
-0.992759, 229, 257, 260, 288
-0.99276, 281, 237, 312, 268
-0.992764, 385, 113, 416, 144
-0.99277, 169, 97, 200, 128
-0.992777, 245, 157, 276, 188
-0.992795, 161, 117, 192, 148
-0.992806, 469, 213, 500, 244
-0.992808, 153, 33, 184, 64
-0.992809, 269, 237, 300, 268
-0.992812, 9, 157, 40, 188
-0.992815, 193, 253, 224, 284
-0.992819, 257, 1, 384, 32
-0.992819, 21, 125, 52, 156
-0.992831, 45, 201, 76, 232
-0.992834, 1, 225, 500, 288
-0.992838, 465, 189, 496, 220
-0.992838, 173, 153, 204, 184
-0.992841, 441, 105, 472, 136
-0.992843, 197, 21, 228, 52
-0.992851, 353, 133, 384, 164
-0.992854, 93, 197, 124, 228
-0.992856, 181, 273, 212, 304
-0.992867, 461, 161, 492, 192
-0.992871, 173, 177, 204, 208
-0.992876, 257, 65, 500, 128
-0.99288, 465, 69, 496, 100
-0.99288, 209, 169, 240, 200
-0.992887, 265, 201, 296, 232
-0.992888, 181, 25, 212, 56
-0.992893, 405, 105, 436, 136
-0.992893, 449, 153, 480, 184
-0.992898, 225, 13, 256, 44
-0.992907, 161, 157, 192, 188
-0.992909, 9, 113, 40, 144
-0.99291, 73, 221, 104, 252
-0.992912, 333, 161, 364, 192
-0.992912, 217, 261, 248, 292
-0.992914, 185, 241, 200, 304
-0.992914, 165, 241, 180, 304
-0.992915, 145, 249, 272, 280
-0.992918, 453, 89, 484, 120
-0.992925, 21, 225, 52, 352
-0.992928, 285, 225, 316, 256
-0.992929, 453, 37, 484, 68
-0.992933, 125, 217, 156, 248
-0.992934, 93, 77, 124, 108
-0.992935, 109, 65, 140, 96
-0.992935, 129, 265, 160, 296
-0.992935, 161, 281, 192, 312
-0.992942, 173, 129, 204, 160
-0.992943, 161, 241, 416, 304
-0.992943, 229, 89, 260, 120
-0.992945, 129, 105, 160, 136
-0.992945, 301, 1, 332, 32
-0.992946, 185, 233, 216, 264
-0.992949, 373, 109, 404, 140
-0.99295, 249, 253, 280, 284
-0.992953, 1, 169, 32, 200
-0.992962, 169, 257, 200, 288
-0.992962, 185, 165, 216, 196
-0.992964, 233, 273, 264, 304
-0.992964, 173, 113, 204, 144
-0.992964, 237, 9, 268, 40
-0.992966, 69, 201, 100, 232
-0.992969, 209, 17, 240, 48
-0.99297, 141, 213, 172, 244
-0.992971, 349, 117, 380, 148
-0.992973, 333, 149, 364, 180
-0.992981, 405, 129, 436, 160
-0.992983, 125, 53, 156, 84
-0.992986, 49, 273, 176, 336
-0.992988, 165, 29, 196, 60
-0.992989, 173, 209, 204, 240
-0.99299, 249, 209, 280, 240
-0.992991, 141, 41, 172, 72
-0.992992, 9, 145, 40, 176
-0.992993, 241, 49, 368, 112
-0.992996, 281, 261, 312, 292
-0.993, 201, 241, 232, 272
-0.993001, 413, 149, 444, 180
-0.993002, 1, 213, 32, 244
-0.993003, 21, 217, 52, 248
-0.993008, 117, 189, 148, 220
-0.993014, 137, 277, 168, 308
-0.993014, 249, 237, 280, 268
-0.993014, 305, 237, 336, 268
-0.993026, 433, 225, 496, 352
-0.993042, 373, 97, 404, 224
-0.993132, 337, 113, 464, 144
-0.993218, 385, 177, 448, 304
-0.993226, 191, 241, 206, 304
-0.993227, 1, 41, 500, 104
-0.993253, 17, 189, 144, 220
-0.993259, 1, 105, 500, 168
-0.99326, 369, 249, 496, 312
-0.993293, 1, 201, 128, 232
-0.993323, 477, 193, 492, 256
-0.993344, 25, 201, 40, 264
-0.993371, 161, 153, 416, 216
-0.993444, 21, 97, 36, 160
-0.99345, 31, 97, 46, 160
-0.993464, 53, 89, 68, 152
-0.993493, 37, 97, 52, 160
-0.993497, 209, 289, 336, 352
-0.993537, 77, 17, 108, 144
-0.993552, 145, 297, 272, 360
-0.993563, 159, 241, 174, 304
-0.993587, 113, 261, 240, 292
-0.993606, 193, 245, 320, 276
-0.99361, 97, 245, 224, 276
-0.993637, 167, 217, 182, 280
-0.993656, 129, 265, 384, 328
-0.993669, 11, 169, 26, 232
-0.993697, 161, 113, 288, 176
-0.993753, 483, 201, 498, 264
-0.993761, 19, 129, 34, 192
-0.993765, 93, 209, 124, 336
-0.993791, 175, 145, 190, 208
-0.993793, 49, 129, 176, 192
-0.993806, 257, 153, 500, 216
-0.993813, 297, 129, 328, 256
-0.993831, 21, 161, 36, 224
-0.993849, 213, 1, 244, 256
-0.993899, 63, 89, 78, 152
-0.993982, 483, 73, 498, 136
-0.994001, 43, 97, 58, 160
-0.994024, 69, 89, 84, 152
-0.994118, 201, 1, 232, 256
-0.99412, 177, 233, 304, 264
-0.994147, 175, 89, 190, 152
-0.994152, 1, 113, 256, 176
-0.994159, 225, 105, 480, 168
-0.994177, 313, 17, 344, 144
-0.994184, 439, 113, 454, 176
-0.994262, 145, 165, 272, 196
-0.994278, 149, 1, 180, 256
-0.994287, 225, 201, 480, 264
-0.994293, 169, 1, 200, 256
-0.994304, 181, 1, 212, 256
-0.99433, 273, 257, 400, 320
-0.994354, 173, 217, 188, 280
-0.994362, 97, 189, 224, 220
-0.994374, 1, 117, 128, 148
-0.994415, 1, 201, 500, 264
-0.994432, 177, 261, 304, 292
-0.994458, 477, 65, 492, 128
-0.994475, 1, 97, 128, 128
-0.994502, 353, 21, 480, 52
-0.994512, 167, 97, 182, 160
-0.994512, 453, 17, 468, 80
-0.994523, 109, 33, 140, 288
-0.994531, 197, 233, 212, 296
-0.994554, 49, 177, 64, 240
-0.994564, 475, 169, 490, 232
-0.994569, 225, 313, 352, 375
-0.99457, 175, 121, 190, 184
-0.994576, 467, 89, 482, 152
-0.994594, 129, 193, 384, 256
-0.994626, 13, 129, 28, 192
-0.994644, 129, 93, 256, 124
-0.994681, 81, 81, 96, 144
-0.994725, 81, 1, 208, 64
-0.994752, 19, 193, 34, 256
-0.994764, 161, 217, 176, 280
-0.994767, 439, 17, 454, 80
-0.994769, 29, 177, 44, 240
-0.994773, 285, 233, 300, 296
-0.994779, 87, 81, 102, 144
-0.994779, 469, 161, 484, 224
-0.994807, 433, 113, 448, 176
-0.994857, 117, 177, 132, 240
-0.994862, 49, 201, 176, 232
-0.994907, 337, 193, 400, 320
-0.994914, 75, 89, 90, 152
-0.994924, 353, 149, 480, 180
-0.994941, 257, 209, 272, 272
-0.994955, 1, 65, 128, 128
-0.994955, 337, 129, 464, 160
-0.994976, 33, 273, 288, 336
-0.994992, 31, 209, 46, 272
-0.994995, 161, 273, 288, 304
-0.995002, 445, 17, 460, 80
-0.995004, 1, 177, 500, 240
-0.995005, 111, 185, 126, 248
-0.995014, 155, 217, 170, 280
-0.995036, 229, 65, 260, 320
-0.995056, 273, 253, 400, 284
-0.995074, 99, 73, 114, 136
-0.995075, 203, 241, 218, 304
-0.995083, 31, 121, 46, 184
-0.995088, 369, 57, 496, 88
-0.995095, 269, 225, 284, 288
-0.99511, 433, 17, 448, 80
-0.995111, 483, 177, 498, 240
-0.995152, 225, 265, 352, 296
-0.995159, 145, 221, 272, 252
-0.995191, 267, 201, 282, 264
-0.995195, 113, 65, 128, 128
-0.995203, 181, 217, 196, 280
-0.995204, 427, 17, 442, 80
-0.995227, 197, 89, 212, 152
-0.995243, 245, 65, 276, 320
-0.995264, 217, 89, 232, 152
-0.995268, 209, 9, 336, 40
-0.995276, 449, 1, 480, 256
-0.995283, 421, 17, 436, 80
-0.995317, 65, 177, 192, 208
-0.995347, 415, 17, 430, 80
-0.995351, 169, 97, 200, 352
-0.995375, 305, 69, 432, 100
-0.995382, 25, 121, 40, 184
-0.995386, 181, 169, 196, 232
-0.995391, 137, 1, 168, 256
-0.995394, 187, 217, 202, 280
-0.995403, 81, 233, 208, 264
-0.995409, 75, 209, 90, 272
-0.99541, 275, 225, 290, 288
-0.995413, 147, 97, 162, 160
-0.995419, 41, 185, 56, 248
-0.995427, 121, 65, 152, 320
-0.995432, 257, 157, 384, 188
-0.995444, 225, 81, 352, 112
-0.99546, 181, 89, 196, 152
-0.995464, 203, 89, 218, 152
-0.995474, 475, 217, 490, 280
-0.995484, 1, 217, 128, 248
-0.995486, 273, 185, 400, 248
-0.995498, 177, 89, 304, 120
-0.9955, 97, 65, 128, 320
-0.995506, 49, 109, 176, 140
-0.99551, 225, 9, 240, 72
-0.995513, 35, 177, 50, 240
-0.995527, 141, 177, 156, 240
-0.995543, 97, 105, 224, 136
-0.995553, 293, 241, 308, 304
-0.995554, 197, 257, 212, 320
-0.995562, 153, 241, 168, 304
-0.995564, 171, 25, 186, 88
-0.995578, 465, 193, 480, 256
-0.99558, 253, 1, 268, 64
-0.995586, 409, 17, 424, 80
-0.995602, 471, 193, 486, 256
-0.995616, 469, 113, 484, 176
-0.995623, 259, 1, 274, 64
-0.995631, 211, 89, 226, 152
-0.995644, 105, 185, 120, 248
-0.995654, 149, 97, 180, 352
-0.995654, 181, 97, 212, 352
-0.995659, 445, 113, 460, 176
-0.995659, 279, 1, 294, 64
-0.99568, 113, 177, 240, 208
-0.995688, 145, 25, 272, 56
-0.995703, 229, 153, 244, 216
-0.995717, 191, 89, 206, 152
-0.995719, 291, 209, 306, 272
-0.995732, 13, 193, 28, 256
-0.995733, 181, 25, 196, 88
-0.995746, 481, 225, 496, 288
-0.99575, 353, 137, 368, 200
-0.995752, 105, 73, 120, 136
-0.995761, 93, 73, 108, 136
-0.995772, 403, 17, 418, 80
-0.995776, 181, 265, 196, 328
-0.995778, 149, 153, 164, 216
-0.995778, 97, 217, 224, 248
-0.99578, 465, 33, 480, 96
-0.99578, 321, 225, 448, 288
-0.995781, 225, 213, 352, 244
-0.995782, 97, 277, 224, 308
-0.995784, 175, 169, 190, 232
-0.995792, 369, 241, 496, 272
-0.995793, 231, 9, 246, 72
-0.995795, 197, 97, 228, 352
-0.9958, 1, 229, 128, 260
-0.995801, 1, 185, 16, 248
-0.995805, 155, 193, 170, 256
-0.995805, 177, 205, 304, 236
-0.995812, 87, 193, 102, 256
-0.995823, 281, 209, 296, 272
-0.995825, 129, 105, 384, 168
-0.995829, 217, 97, 248, 352
-0.995833, 155, 33, 170, 96
-0.995833, 197, 177, 212, 240
-0.995839, 243, 81, 258, 144
-0.995866, 189, 177, 204, 240
-0.995878, 49, 221, 176, 252
-0.995884, 447, 145, 462, 208
-0.99589, 359, 129, 374, 192
-0.995907, 153, 97, 168, 160
-0.995908, 353, 1, 368, 64
-0.995911, 273, 1, 288, 64
-0.995934, 137, 97, 152, 160
-0.995941, 347, 145, 362, 208
-0.995958, 161, 177, 288, 208
-0.995974, 1, 145, 256, 208
-0.995975, 433, 137, 448, 200
-0.99598, 191, 265, 206, 328
-0.99598, 225, 89, 240, 152
-0.995982, 285, 1, 300, 64
-0.995985, 427, 129, 442, 192
-0.995995, 177, 1, 192, 64
-0.995995, 233, 81, 248, 144
-0.995998, 147, 177, 162, 240
-0.996043, 133, 97, 164, 352
-0.996074, 13, 33, 44, 288
-0.996075, 273, 241, 400, 272
-0.996101, 49, 85, 176, 116
-0.996107, 193, 165, 320, 196
-0.996137, 17, 177, 144, 208
-0.996142, 273, 65, 304, 320
-0.996173, 361, 225, 424, 352
-0.996214, 129, 37, 256, 68
-0.996226, 257, 241, 500, 304
-0.996294, 257, 65, 288, 320
-0.996362, 65, 261, 192, 292
-0.996438, 353, 101, 480, 132
-0.996479, 225, 201, 352, 232
-0.996488, 225, 225, 352, 256
-0.99649, 109, 129, 140, 375
-0.9965, 1, 129, 500, 192
-0.996531, 81, 73, 208, 104
-0.99659, 209, 153, 336, 184
-0.996614, 65, 17, 320, 80
-0.996635, 333, 33, 364, 288
-0.996652, 409, 193, 472, 320
-0.996693, 257, 177, 500, 240
-0.996718, 145, 153, 272, 184
-0.996763, 369, 33, 496, 64
-0.996773, 21, 193, 36, 224
-0.996798, 81, 97, 112, 352
-0.996802, 469, 33, 500, 288
-0.996827, 429, 1, 460, 256
-0.99683, 161, 13, 288, 44
-0.996912, 49, 121, 176, 152
-0.996932, 297, 65, 328, 320
-0.996972, 1, 241, 128, 272
-0.996977, 465, 129, 496, 375
-0.99699, 289, 117, 416, 148
-0.997006, 13, 105, 28, 136
-0.997024, 15, 129, 30, 160
-0.997027, 175, 169, 190, 200
-0.997027, 33, 185, 48, 216
-0.997048, 113, 49, 240, 80
-0.997057, 61, 33, 92, 288
-0.997087, 161, 189, 288, 220
-0.997103, 97, 165, 224, 196
-0.997105, 161, 129, 416, 192
-0.99711, 19, 145, 34, 176
-0.997114, 27, 189, 42, 220
-0.997116, 39, 185, 54, 216
-0.997134, 33, 33, 64, 288
-0.997141, 97, 61, 224, 92
-0.997167, 49, 245, 176, 276
-0.997173, 129, 205, 256, 236
-0.997177, 175, 269, 190, 300
-0.997189, 305, 9, 432, 40
-0.99719, 437, 145, 452, 176
-0.997195, 321, 65, 352, 320
-0.99721, 287, 245, 302, 276
-0.997214, 477, 213, 492, 244
-0.997224, 13, 157, 28, 188
-0.997231, 45, 185, 60, 216
-0.997237, 169, 245, 184, 276
-0.997241, 349, 149, 364, 180
-0.997261, 17, 257, 144, 288
-0.997277, 197, 93, 212, 124
-0.997285, 431, 141, 446, 172
-0.997286, 485, 217, 500, 248
-0.997288, 33, 201, 48, 232
-0.997291, 161, 245, 176, 276
-0.997296, 15, 181, 30, 212
-0.997309, 49, 33, 80, 288
-0.997325, 477, 193, 492, 224
-0.997336, 25, 205, 40, 236
-0.997351, 97, 121, 224, 152
-0.997353, 175, 125, 190, 156
-0.997355, 345, 33, 376, 288
-0.997355, 13, 169, 28, 200
-0.99736, 285, 65, 316, 320
-0.997362, 467, 101, 482, 132
-0.997366, 39, 197, 54, 228
-0.997368, 25, 173, 40, 204
-0.997369, 121, 185, 136, 216
-0.997369, 145, 109, 272, 140
-0.99737, 425, 133, 440, 164
-0.99738, 167, 265, 182, 296
-0.997384, 195, 261, 210, 292
-0.997395, 321, 249, 448, 280
-0.997397, 273, 281, 400, 344
-0.997401, 321, 161, 448, 192
-0.997405, 365, 1, 396, 256
-0.997415, 483, 205, 498, 236
-0.997424, 177, 245, 192, 276
-0.997439, 257, 41, 500, 104
-0.997442, 27, 125, 42, 156
-0.997447, 175, 157, 190, 188
-0.997456, 303, 241, 318, 272
-0.997461, 187, 265, 202, 296
-0.997464, 305, 149, 432, 180
-0.997468, 369, 161, 496, 192
-0.997474, 419, 125, 434, 156
-0.997486, 445, 149, 460, 180
-0.997487, 183, 245, 198, 276
-0.997489, 343, 157, 358, 188
-0.997496, 235, 161, 250, 192
-0.997498, 59, 189, 74, 220
-0.997501, 19, 165, 34, 196
-0.997505, 257, 213, 272, 244
-0.997518, 73, 189, 88, 220
-0.997522, 365, 117, 380, 148
-0.99753, 431, 125, 446, 156
-0.997531, 329, 241, 392, 368
-0.997533, 417, 1, 448, 256
-0.997533, 165, 173, 180, 204
-0.997535, 49, 273, 176, 304
-0.997542, 401, 1, 432, 256
-0.997549, 51, 185, 66, 216
-0.997557, 181, 165, 196, 196
-0.997562, 483, 69, 498, 100
-0.997565, 1, 153, 500, 216
-0.997566, 369, 45, 496, 76
-0.997572, 483, 85, 498, 116
-0.997573, 181, 269, 196, 300
-0.997573, 97, 197, 112, 228
-0.997577, 147, 177, 162, 208
-0.997591, 241, 169, 368, 200
-0.997595, 193, 245, 208, 276
-0.9976, 175, 145, 190, 176
-0.997601, 289, 133, 416, 164
-0.997608, 475, 181, 490, 212
-0.997611, 295, 253, 310, 284
-0.997611, 369, 9, 496, 40
-0.997614, 137, 177, 152, 208
-0.997625, 79, 189, 94, 220
-0.997632, 9, 129, 40, 375
-0.997645, 473, 101, 488, 132
-0.997649, 67, 189, 82, 220
-0.997655, 453, 17, 468, 48
-0.997656, 129, 233, 256, 264
-0.997658, 1, 257, 500, 320
-0.997662, 21, 125, 36, 156
-0.997665, 25, 233, 40, 264
-0.997665, 361, 157, 376, 188
-0.997673, 425, 113, 440, 144
-0.997673, 475, 225, 490, 256
-0.997678, 469, 89, 484, 120
-0.997682, 431, 113, 446, 144
-0.997686, 207, 93, 222, 124
-0.997697, 229, 161, 244, 192
-0.997698, 309, 65, 340, 320
-0.997698, 27, 217, 42, 248
-0.997702, 295, 241, 310, 272
-0.997717, 469, 113, 484, 144
-0.997718, 191, 93, 206, 124
-0.997728, 11, 201, 26, 232
-0.997732, 369, 229, 496, 260
-0.99774, 461, 101, 476, 132
-0.997743, 485, 193, 500, 224
-0.997748, 159, 261, 174, 292
-0.997749, 355, 157, 370, 188
-0.99775, 481, 229, 496, 260
-0.997756, 295, 1, 310, 32
-0.997756, 367, 149, 382, 180
-0.997761, 355, 141, 370, 172
-0.997768, 479, 161, 494, 192
-0.997773, 377, 1, 408, 256
-0.997783, 453, 97, 484, 352
-0.997787, 215, 93, 230, 124
-0.997787, 9, 189, 24, 220
-0.997788, 249, 161, 264, 192
-0.997796, 437, 125, 452, 156
-0.997807, 485, 161, 500, 192
-0.99781, 151, 101, 166, 132
-0.99781, 419, 113, 434, 144
-0.997811, 89, 197, 104, 228
-0.997817, 167, 117, 182, 148
-0.997823, 1, 189, 16, 220
-0.997823, 155, 245, 170, 276
-0.997824, 201, 253, 216, 284
-0.997825, 243, 161, 258, 192
-0.997829, 115, 185, 130, 216
-0.99783, 483, 241, 498, 272
-0.997838, 181, 29, 196, 60
-0.997842, 221, 17, 236, 48
-0.997852, 167, 33, 182, 64
-0.997859, 391, 109, 406, 140
-0.997859, 175, 113, 190, 144
-0.997861, 485, 97, 500, 128
-0.997863, 451, 153, 466, 184
-0.997866, 359, 117, 374, 148
-0.997873, 437, 97, 468, 352
-0.997873, 157, 173, 172, 204
-0.997889, 103, 193, 118, 224
-0.997902, 167, 185, 182, 216
-0.997902, 145, 141, 272, 172
-0.997904, 475, 77, 490, 108
-0.99791, 467, 161, 482, 192
-0.997918, 287, 261, 302, 292
-0.99794, 233, 13, 248, 44
-0.997947, 17, 209, 32, 240
-0.99795, 173, 181, 188, 212
-0.997955, 119, 221, 134, 252
-0.997966, 473, 161, 488, 192
-0.997978, 9, 133, 24, 164
-0.997981, 225, 89, 240, 120
-0.997984, 69, 129, 100, 375
-0.997984, 11, 145, 26, 176
-0.997987, 153, 37, 168, 68
-0.997988, 279, 233, 294, 264
-0.997992, 257, 105, 384, 136
-0.997994, 389, 1, 420, 256
-0.998001, 481, 181, 496, 212
-0.998006, 21, 129, 52, 375
-0.99801, 193, 25, 320, 88
-0.998065, 353, 69, 480, 100
-0.998074, 257, 69, 384, 100
-0.998078, 33, 165, 160, 196
-0.998097, 321, 233, 448, 264
-0.99812, 369, 253, 496, 284
-0.998128, 241, 141, 368, 172
-0.99814, 33, 129, 64, 375
-0.998168, 145, 285, 272, 316
-0.998225, 193, 105, 320, 136
-0.998226, 21, 81, 36, 208
-0.99823, 33, 133, 160, 164
-0.998256, 49, 49, 176, 80
-0.998275, 57, 129, 88, 375
-0.998277, 193, 141, 320, 172
-0.998281, 1, 85, 128, 116
-0.998291, 161, 289, 416, 352
-0.998369, 29, 81, 44, 208
-0.998371, 49, 29, 176, 60
-0.998381, 321, 201, 448, 264
-0.998393, 273, 229, 400, 260
-0.998394, 129, 1, 256, 32
-0.998398, 297, 1, 360, 16
-0.998403, 153, 247, 216, 262
-0.998424, 425, 135, 456, 150
-0.998424, 157, 265, 188, 280
-0.998425, 85, 245, 116, 260
-0.998425, 53, 95, 84, 110
-0.998426, 181, 213, 212, 228
-0.998426, 145, 255, 176, 270
-0.998427, 13, 161, 44, 176
-0.998429, 9, 121, 40, 136
-0.99843, 65, 91, 96, 106
-0.998431, 25, 215, 56, 230
-0.998431, 361, 15, 392, 30
-0.998433, 49, 245, 80, 260
-0.998433, 293, 241, 324, 256
-0.998434, 65, 245, 96, 260
-0.998434, 37, 81, 52, 208
-0.998435, 173, 115, 204, 130
-0.998436, 469, 115, 500, 130
-0.998437, 193, 25, 224, 40
-0.998437, 209, 267, 240, 282
-0.998437, 229, 269, 260, 284
-0.998438, 181, 223, 212, 238
-0.998439, 133, 195, 164, 210
-0.998439, 249, 159, 280, 174
-0.998439, 461, 233, 492, 248
-0.998439, 217, 175, 248, 190
-0.998439, 15, 81, 30, 208
-0.99844, 161, 185, 192, 200
-0.99844, 241, 169, 272, 184
-0.99844, 309, 1, 340, 16
-0.99844, 229, 255, 260, 270
-0.998444, 465, 89, 496, 104
-0.998444, 333, 155, 364, 170
-0.998445, 161, 169, 192, 184
-0.998445, 153, 101, 184, 116
-0.998445, 461, 219, 492, 234
-0.998447, 77, 229, 108, 244
-0.998449, 9, 133, 40, 148
-0.998449, 145, 187, 176, 202
-0.998449, 53, 81, 68, 208
-0.99845, 129, 189, 160, 204
-0.998451, 437, 153, 468, 168
-0.998451, 61, 199, 92, 214
-0.998453, 465, 197, 496, 212
-0.998453, 81, 195, 144, 210
-0.998454, 153, 255, 216, 270
-0.998454, 165, 33, 196, 48
-0.998455, 177, 77, 304, 108
-0.998456, 221, 15, 252, 30
-0.998457, 177, 173, 240, 188
-0.998458, 249, 219, 280, 234
-0.998458, 281, 261, 312, 276
-0.998459, 161, 121, 192, 136
-0.99846, 13, 173, 44, 188
-0.998461, 233, 13, 264, 28
-0.998462, 269, 243, 300, 258
-0.998462, 161, 223, 192, 238
-0.998464, 297, 3, 328, 18
-0.998464, 29, 189, 60, 204
-0.998464, 9, 199, 72, 214
-0.998465, 205, 93, 236, 108
-0.998465, 117, 49, 132, 176
-0.998466, 445, 159, 476, 174
-0.998466, 401, 107, 464, 122
-0.998466, 417, 21, 480, 36
-0.998467, 181, 27, 212, 42
-0.998468, 121, 217, 184, 232
-0.998469, 157, 215, 188, 230
-0.998469, 197, 259, 228, 274
-0.99847, 345, 151, 376, 166
-0.99847, 177, 165, 240, 180
-0.998471, 413, 135, 444, 150
-0.998471, 177, 273, 208, 288
-0.998471, 465, 191, 496, 206
-0.998472, 37, 245, 68, 260
-0.998473, 325, 169, 356, 184
-0.998478, 461, 163, 492, 178
-0.998479, 73, 193, 104, 208
-0.998479, 161, 175, 192, 190
-0.99848, 21, 181, 52, 196
-0.99848, 193, 265, 224, 280
-0.998481, 205, 21, 236, 36
-0.998481, 409, 109, 440, 124
-0.998481, 333, 129, 364, 375
-0.998481, 129, 179, 160, 194
-0.998482, 97, 201, 128, 216
-0.998483, 43, 81, 58, 208
-0.998483, 361, 111, 424, 126
-0.998483, 25, 189, 88, 204
-0.998483, 181, 175, 212, 190
-0.998484, 321, 163, 384, 178
-0.998484, 9, 205, 40, 220
-0.998485, 345, 167, 376, 182
-0.998486, 137, 175, 200, 190
-0.998486, 61, 191, 92, 206
-0.998486, 249, 247, 280, 262
-0.998486, 157, 247, 188, 262
-0.998487, 117, 187, 148, 202
-0.998487, 153, 271, 216, 286
-0.998488, 465, 101, 496, 116
-0.998489, 161, 179, 224, 194
-0.998489, 185, 95, 248, 110
-0.99849, 1, 265, 128, 328
-0.998491, 325, 1, 356, 16
-0.998492, 121, 217, 152, 232
-0.998494, 153, 37, 184, 52
-0.998494, 177, 267, 208, 282
-0.998495, 305, 97, 432, 128
-0.998497, 21, 245, 52, 260
-0.998498, 169, 247, 200, 262
-0.998499, 153, 261, 216, 276
-0.998499, 417, 129, 448, 144
-0.9985, 5, 189, 36, 204
-0.998501, 145, 217, 208, 232
-0.998501, 417, 155, 480, 170
-0.998501, 417, 97, 448, 352
-0.998502, 357, 157, 388, 172
-0.998502, 121, 187, 184, 202
-0.998503, 281, 245, 312, 260
-0.998504, 41, 187, 72, 202
-0.998504, 173, 97, 204, 112
-0.998505, 357, 167, 388, 182
-0.998506, 193, 177, 208, 304
-0.998507, 17, 193, 48, 208
-0.998507, 201, 267, 264, 282
-0.998509, 221, 169, 252, 184
-0.998509, 25, 207, 56, 222
-0.998509, 145, 221, 176, 236
-0.99851, 449, 109, 480, 124
-0.998511, 145, 261, 176, 276
-0.998512, 393, 111, 424, 126
-0.998513, 49, 191, 112, 206
-0.998514, 177, 267, 240, 282
-0.998515, 49, 197, 112, 212
-0.998517, 137, 181, 200, 196
-0.998517, 121, 223, 184, 238
-0.998518, 465, 83, 496, 98
-0.998518, 81, 221, 144, 236
-0.99852, 37, 201, 68, 216
-0.998523, 9, 105, 40, 120
-0.998524, 173, 181, 204, 196
-0.998524, 9, 127, 40, 142
-0.998524, 145, 99, 208, 114
-0.998525, 225, 11, 288, 26
-0.998529, 9, 211, 40, 226
-0.998529, 377, 113, 408, 128
-0.998531, 425, 149, 456, 164
-0.998532, 241, 217, 304, 232
-0.998532, 89, 201, 152, 216
-0.998533, 429, 107, 460, 122
-0.998533, 429, 1, 444, 128
-0.998534, 241, 225, 304, 240
-0.998535, 137, 169, 200, 184
-0.998535, 421, 141, 452, 156
-0.998535, 241, 267, 304, 282
-0.998535, 13, 167, 44, 182
-0.998536, 401, 149, 464, 164
-0.998537, 137, 121, 200, 136
-0.998538, 333, 163, 364, 178
-0.998539, 289, 257, 352, 272
-0.99854, 241, 121, 368, 152
-0.99854, 185, 245, 216, 260
-0.998541, 217, 221, 280, 236
-0.998542, 277, 251, 308, 266
-0.998542, 201, 249, 264, 264
-0.998542, 33, 245, 96, 260
-0.998542, 177, 25, 240, 40
-0.998543, 1, 127, 64, 142
-0.998544, 273, 265, 400, 296
-0.998545, 345, 129, 376, 375
-0.998546, 329, 157, 392, 172
-0.998546, 469, 227, 500, 242
-0.998547, 193, 261, 256, 276
-0.998549, 177, 273, 240, 288
-0.998549, 209, 277, 336, 308
-0.99855, 177, 159, 240, 174
-0.998551, 281, 243, 344, 258
-0.998551, 441, 19, 472, 34
-0.998551, 137, 159, 200, 174
-0.998553, 161, 225, 224, 240
-0.998554, 161, 185, 224, 200
-0.998555, 9, 225, 72, 240
-0.998556, 241, 245, 304, 260
-0.998556, 293, 247, 324, 262
-0.998557, 57, 247, 120, 262
-0.998558, 409, 127, 472, 142
-0.998559, 141, 33, 156, 160
-0.998559, 161, 151, 224, 166
-0.998559, 229, 163, 260, 178
-0.99856, 257, 203, 320, 218
-0.99856, 13, 199, 44, 214
-0.998562, 193, 95, 224, 110
-0.998563, 105, 181, 168, 196
-0.998563, 425, 109, 488, 124
-0.998564, 137, 41, 200, 56
-0.998564, 197, 271, 228, 286
-0.998565, 121, 265, 184, 280
-0.998565, 201, 161, 264, 176
-0.998565, 365, 115, 396, 130
-0.998565, 453, 103, 484, 118
-0.998566, 49, 199, 80, 214
-0.998566, 173, 165, 204, 180
-0.998567, 209, 277, 272, 292
-0.998567, 217, 167, 280, 182
-0.998569, 9, 101, 72, 116
-0.998569, 249, 225, 280, 240
-0.998571, 265, 251, 328, 266
-0.998572, 241, 257, 304, 272
-0.998573, 161, 145, 224, 160
-0.998573, 161, 117, 224, 132
-0.998573, 217, 89, 280, 104
-0.998574, 33, 203, 96, 218
-0.998574, 345, 165, 408, 180
-0.998575, 177, 247, 240, 262
-0.998575, 393, 143, 456, 158
-0.998576, 25, 231, 88, 246
-0.998577, 1, 119, 64, 134
-0.998577, 97, 261, 160, 276
-0.998578, 273, 5, 336, 20
-0.998579, 1, 191, 64, 206
-0.998579, 1, 169, 64, 184
-0.99858, 137, 47, 200, 62
-0.99858, 49, 223, 112, 238
-0.998581, 161, 129, 224, 144
-0.998582, 417, 161, 480, 176
-0.998583, 91, 65, 106, 192
-0.998583, 469, 97, 484, 224
-0.998583, 289, 173, 416, 204
-0.998584, 97, 227, 160, 242
-0.998584, 425, 55, 488, 70
-0.998584, 297, 255, 328, 270
-0.998585, 105, 193, 168, 208
-0.998585, 201, 243, 264, 258
-0.998585, 345, 161, 376, 176
-0.998586, 161, 139, 224, 154
-0.998586, 49, 61, 176, 92
-0.998588, 113, 255, 176, 270
-0.998589, 415, 1, 430, 128
-0.998589, 97, 247, 160, 262
-0.998589, 193, 255, 256, 270
-0.99859, 249, 7, 312, 22
-0.99859, 377, 133, 440, 148
-0.99859, 233, 237, 296, 252
-0.998592, 305, 77, 368, 92
-0.998593, 185, 279, 248, 294
-0.998594, 11, 129, 26, 256
-0.998594, 161, 211, 224, 226
-0.998594, 121, 105, 184, 120
-0.998596, 137, 35, 200, 50
-0.998597, 193, 19, 256, 34
-0.998599, 9, 207, 72, 222
-0.998599, 265, 237, 328, 252
-0.9986, 137, 153, 200, 168
-0.9986, 321, 169, 384, 184
-0.998601, 385, 117, 448, 132
-0.998603, 9, 245, 72, 260
-0.998603, 477, 161, 492, 288
-0.998604, 85, 197, 116, 212
-0.998604, 81, 189, 144, 204
-0.998604, 435, 1, 450, 128
-0.998604, 105, 195, 136, 210
-0.998605, 209, 1, 224, 128
-0.998605, 425, 223, 488, 238
-0.998606, 353, 69, 416, 84
-0.998606, 217, 177, 280, 192
-0.998607, 273, 81, 336, 96
-0.998607, 265, 261, 328, 276
-0.998607, 161, 31, 224, 46
-0.998608, 353, 89, 480, 120
-0.998608, 177, 111, 240, 126
-0.998608, 161, 241, 224, 256
-0.99861, 137, 135, 200, 150
-0.99861, 337, 115, 400, 130
-0.998611, 257, 209, 320, 224
-0.998612, 137, 115, 200, 130
-0.998612, 361, 19, 424, 34
-0.998612, 17, 133, 80, 148
-0.998612, 225, 159, 288, 174
-0.998612, 1, 147, 64, 162
-0.998613, 153, 277, 216, 292
-0.998613, 329, 73, 392, 88
-0.998613, 121, 63, 184, 78
-0.998613, 137, 147, 200, 162
-0.998613, 161, 123, 224, 138
-0.998614, 25, 123, 88, 138
-0.998614, 157, 17, 172, 144
-0.998614, 21, 129, 36, 256
-0.998619, 423, 1, 438, 128
-0.998624, 225, 293, 352, 324
-0.99863, 25, 201, 56, 216
-0.998631, 321, 57, 448, 88
-0.998637, 409, 1, 424, 128
-0.998638, 181, 97, 196, 224
-0.998642, 97, 133, 224, 164
-0.998646, 181, 17, 196, 144
-0.998648, 175, 129, 190, 256
-0.998649, 177, 121, 304, 152
-0.998653, 455, 1, 470, 128
-0.998655, 273, 81, 400, 112
-0.99866, 147, 33, 162, 160
-0.998663, 123, 49, 138, 176
-0.998665, 165, 81, 180, 208
-0.998666, 165, 17, 180, 144
-0.998666, 191, 17, 206, 144
-0.998669, 45, 129, 76, 375
-0.998676, 99, 65, 114, 192
-0.998676, 261, 1, 276, 128
-0.998678, 187, 177, 202, 304
-0.998683, 129, 49, 144, 176
-0.998685, 59, 81, 74, 208
-0.998691, 105, 65, 120, 192
-0.998692, 135, 33, 150, 160
-0.998693, 445, 1, 460, 128
-0.998698, 175, 17, 190, 144
-0.998702, 197, 17, 212, 144
-0.998703, 255, 1, 270, 128
-0.998711, 485, 145, 500, 272
-0.998712, 479, 65, 494, 192
-0.998721, 1, 69, 128, 100
-0.998724, 403, 1, 418, 128
-0.998739, 81, 25, 208, 88
-0.998742, 377, 1, 392, 128
-0.998754, 111, 49, 126, 176
-0.998764, 477, 113, 492, 240
-0.998769, 371, 1, 386, 128
-0.99877, 175, 81, 190, 208
-0.998775, 249, 1, 264, 128
-0.998776, 225, 1, 240, 128
-0.998776, 395, 1, 410, 128
-0.998778, 257, 265, 500, 328
-0.998779, 365, 1, 380, 128
-0.99878, 1, 33, 32, 288
-0.998781, 383, 1, 398, 128
-0.998782, 85, 65, 100, 192
-0.998782, 85, 1, 116, 256
-0.998788, 237, 1, 252, 128
-0.998788, 389, 1, 404, 128
-0.998791, 227, 81, 242, 208
-0.998801, 359, 1, 374, 128
-0.998802, 225, 305, 352, 336
-0.998804, 267, 1, 282, 128
-0.998805, 243, 1, 258, 128
-0.998807, 235, 81, 250, 208
-0.998809, 97, 153, 224, 184
-0.998812, 471, 33, 486, 160
-0.998819, 215, 1, 230, 128
-0.998821, 351, 1, 366, 128
-0.998826, 65, 81, 80, 208
-0.998836, 231, 1, 246, 128
-0.998839, 181, 161, 196, 288
-0.998839, 217, 81, 232, 208
-0.998841, 209, 181, 336, 212
-0.998853, 199, 209, 214, 336
-0.998869, 145, 301, 272, 332
-0.998869, 125, 113, 140, 240
-0.998877, 187, 97, 202, 224
-0.998879, 197, 81, 212, 208
-0.998885, 203, 17, 218, 144
-0.998891, 27, 129, 42, 256
-0.998898, 321, 261, 448, 292
-0.998901, 167, 161, 182, 288
-0.998906, 273, 1, 288, 128
-0.998908, 139, 97, 154, 224
-0.998911, 461, 17, 476, 144
-0.998912, 131, 97, 146, 224
-0.998922, 369, 193, 496, 224
-0.998928, 243, 81, 258, 208
-0.998931, 211, 81, 226, 208
-0.998932, 461, 65, 476, 192
-0.998932, 147, 81, 162, 208
-0.998938, 181, 209, 196, 336
-0.99895, 205, 81, 220, 208
-0.998955, 485, 97, 500, 224
-0.99896, 369, 217, 496, 248
-0.998962, 337, 173, 464, 204
-0.998967, 113, 113, 128, 240
-0.998972, 1, 57, 128, 88
-0.998978, 199, 161, 214, 288
-0.998994, 273, 57, 400, 88
-0.998996, 15, 177, 30, 304
-0.999003, 73, 65, 88, 192
-0.999004, 97, 13, 224, 44
-0.999011, 153, 81, 168, 208
-0.999017, 75, 193, 90, 320
-0.999018, 249, 81, 264, 208
-0.999033, 115, 161, 130, 288
-0.999041, 119, 97, 134, 224
-0.999041, 263, 65, 278, 192
-0.999043, 159, 81, 174, 208
-0.999049, 241, 25, 368, 88
-0.999051, 173, 209, 188, 336
-0.999052, 129, 73, 256, 104
-0.999057, 471, 145, 486, 272
-0.999059, 79, 65, 94, 192
-0.999061, 209, 177, 224, 304
-0.999069, 187, 225, 202, 352
-0.999078, 279, 1, 294, 128
-0.999084, 449, 49, 464, 176
-0.999084, 281, 65, 296, 192
-0.999086, 27, 177, 42, 304
-0.999087, 255, 65, 270, 192
-0.999093, 321, 45, 448, 76
-0.999095, 209, 21, 336, 52
-0.999096, 255, 161, 270, 288
-0.999105, 341, 65, 356, 192
-0.999106, 437, 49, 452, 176
-0.999106, 257, 189, 384, 220
-0.999106, 209, 241, 224, 368
-0.999107, 429, 49, 444, 176
-0.999108, 463, 113, 478, 240
-0.999109, 121, 161, 136, 288
-0.999116, 367, 49, 382, 176
-0.999118, 327, 65, 342, 192
-0.999121, 95, 177, 110, 304
-0.999128, 349, 65, 364, 192
-0.999135, 455, 49, 470, 176
-0.999135, 243, 161, 258, 288
-0.999144, 105, 177, 120, 304
-0.999146, 273, 65, 288, 192
-0.999152, 83, 161, 98, 288
-0.999157, 485, 49, 500, 176
-0.99916, 373, 49, 388, 176
-0.999165, 357, 97, 388, 352
-0.999166, 45, 33, 60, 160
-0.999172, 103, 113, 118, 240
-0.999174, 423, 49, 438, 176
-0.999174, 483, 209, 498, 336
-0.999223, 209, 65, 336, 96
-0.999283, 405, 97, 436, 352
-0.999303, 305, 21, 432, 52
-0.99939, 1, 41, 256, 104
-0.999416, 385, 225, 448, 352
-0.999443, 73, 1, 104, 256
-0.999484, 373, 97, 404, 352
-0.999636, 1, 193, 16, 208
-0.999637, 229, 15, 244, 30
-0.999637, 403, 111, 418, 126
-0.999637, 149, 217, 164, 232
-0.999638, 167, 185, 182, 200
-0.999638, 187, 97, 202, 112
-0.999639, 257, 289, 500, 352
-0.999639, 333, 163, 348, 178
-0.999641, 237, 13, 252, 28
-0.999641, 469, 119, 484, 134
-0.999642, 119, 221, 134, 236
-0.999642, 289, 263, 304, 278
-0.999642, 485, 85, 500, 100
-0.999643, 199, 263, 214, 278
-0.999643, 167, 35, 182, 50
-0.999643, 137, 191, 152, 206
-0.999644, 175, 175, 190, 190
-0.999644, 471, 189, 486, 204
-0.999644, 143, 223, 158, 238
-0.999645, 477, 169, 492, 184
-0.999645, 295, 245, 310, 260
-0.999646, 19, 179, 34, 194
-0.999646, 19, 169, 34, 184
-0.999646, 191, 273, 206, 288
-0.999646, 351, 157, 366, 172
-0.999647, 483, 243, 498, 258
-0.999647, 271, 251, 286, 266
-0.999647, 215, 93, 230, 108
-0.999647, 469, 165, 484, 180
-0.999648, 483, 197, 498, 212
-0.999648, 477, 101, 492, 116
-0.999648, 121, 183, 136, 198
-0.999648, 43, 201, 58, 216
-0.99965, 237, 163, 252, 178
-0.99965, 13, 181, 28, 196
-0.999651, 203, 95, 218, 110
-0.999651, 129, 313, 384, 375
-0.999651, 475, 211, 490, 226
-0.999652, 25, 233, 40, 248
-0.999652, 167, 119, 182, 134
-0.999652, 21, 151, 36, 166
-0.999652, 267, 223, 282, 238
-0.999653, 397, 111, 412, 126
-0.999654, 389, 113, 404, 128
-0.999654, 13, 187, 28, 202
-0.999655, 29, 241, 44, 256
-0.999655, 177, 223, 192, 238
-0.999656, 199, 271, 214, 286
-0.999656, 127, 195, 142, 210
-0.999657, 243, 163, 258, 178
-0.999657, 281, 241, 296, 256
-0.999658, 179, 247, 194, 262
-0.999659, 363, 159, 378, 174
-0.99966, 295, 251, 310, 266
-0.999661, 25, 193, 40, 208
-0.999661, 453, 155, 468, 170
-0.999661, 471, 113, 486, 128
-0.999661, 171, 247, 186, 262
-0.999661, 175, 119, 190, 134
-0.999662, 357, 169, 372, 184
-0.999663, 175, 147, 190, 162
-0.999664, 483, 205, 498, 220
-0.999665, 289, 245, 304, 260
-0.999665, 27, 247, 42, 262
-0.999665, 485, 225, 500, 240
-0.999666, 257, 217, 272, 232
-0.999666, 199, 245, 214, 260
-0.999667, 117, 195, 132, 210
-0.999667, 373, 115, 388, 130
-0.999667, 419, 129, 434, 144
-0.999668, 17, 215, 32, 230
-0.999669, 345, 155, 360, 170
-0.99967, 461, 103, 476, 118
-0.99967, 223, 173, 238, 188
-0.999671, 191, 267, 206, 282
-0.999671, 175, 141, 190, 156
-0.999672, 49, 201, 64, 216
-0.999672, 19, 127, 34, 142
-0.999672, 419, 137, 434, 152
-0.999673, 381, 113, 396, 128
-0.999674, 447, 151, 462, 166
-0.999675, 21, 157, 36, 172
-0.999677, 31, 209, 46, 224
-0.999677, 445, 107, 460, 122
-0.999678, 483, 211, 498, 226
-0.99968, 485, 101, 500, 116
-0.999681, 27, 221, 42, 236
-0.999682, 453, 19, 468, 34
-0.999683, 303, 255, 318, 270
-0.999684, 13, 167, 28, 182
-0.999685, 479, 219, 494, 234
-0.999687, 481, 189, 496, 204
-0.999688, 175, 159, 190, 174
-0.99969, 433, 137, 448, 152
-0.99969, 177, 181, 192, 196
-0.99969, 13, 161, 28, 176
-0.999691, 93, 197, 108, 212
-0.999692, 435, 143, 450, 158
-0.999692, 297, 257, 312, 272
-0.999693, 197, 95, 212, 110
-0.999695, 11, 201, 26, 216
-0.999698, 15, 149, 30, 164
-0.999699, 55, 199, 70, 214
-0.9997, 23, 213, 38, 228
-0.999701, 477, 203, 492, 218
-0.999701, 13, 131, 28, 146
-0.999702, 37, 201, 52, 216
-0.999703, 175, 135, 190, 150
-0.999707, 427, 135, 442, 150
-0.999707, 117, 189, 132, 204
-0.999711, 305, 249, 320, 264
-0.999711, 281, 247, 296, 262
-0.999712, 467, 103, 482, 118
-0.999713, 357, 161, 372, 176
-0.999715, 289, 251, 304, 266
-0.999715, 21, 201, 36, 216
-0.999717, 175, 165, 190, 180
-0.999721, 19, 189, 34, 204
-0.999723, 485, 217, 500, 232
-0.999724, 27, 199, 42, 214
-0.999724, 13, 105, 28, 120
-0.999725, 367, 115, 382, 130
-0.999727, 477, 197, 492, 212
-0.999729, 175, 125, 190, 140
-0.999729, 109, 195, 124, 210
-0.999731, 21, 207, 36, 222
-0.999735, 15, 139, 30, 154
-0.999737, 483, 231, 498, 246
-0.999742, 475, 225, 490, 240
-0.99976, 385, 97, 416, 352
-0.999762, 19, 195, 34, 210
-0.999765, 99, 197, 114, 212
-0.999801, 347, 163, 362, 178
-0.999913, 33, 297, 288, 360
-0.999958, 305, 305, 432, 368
-1.00053, 97, 305, 224, 368
-1.00074, 1, 297, 128, 360
-1.00093, 49, 313, 176, 375
-1.00103, 225, 313, 480, 375
-1.00128, 369, 281, 496, 344
-1.00149, 1, 281, 500, 344
-1.0016, 321, 273, 448, 336
-1.00165, 369, 305, 496, 368
-1.00205, 1, 305, 500, 368
-1.0032, 1, 1, 128, 64
-1.00614, 409, 241, 472, 368
