1906
-0.296811, 1, 193, 335, 448
-0.331048, 1, 1, 335, 500
-0.391635, 1, 97, 335, 352
-0.444522, 1, 1, 335, 256
-0.487375, 1, 1, 256, 500
-0.571123, 1, 97, 256, 352
-0.641581, 1, 193, 256, 448
-0.708853, 65, 1, 320, 256
-0.845766, 65, 193, 192, 448
-0.850549, 113, 1, 240, 500
-0.857288, 129, 33, 256, 288
-0.859653, 177, 161, 304, 416
-0.860325, 177, 1, 304, 500
-0.865365, 113, 193, 240, 448
-0.865638, 1, 177, 335, 304
-0.86604, 17, 225, 144, 480
-0.876228, 1, 129, 335, 256
-0.877535, 65, 97, 192, 352
-0.878435, 17, 129, 144, 384
-0.882631, 65, 1, 192, 500
-0.885805, 1, 305, 335, 432
-0.887513, 177, 65, 304, 320
-0.892198, 193, 257, 320, 500
-0.895488, 17, 1, 144, 500
-0.897314, 1, 81, 335, 208
-0.900391, 1, 225, 335, 352
-0.908861, 1, 177, 256, 304
-0.914408, 1, 353, 335, 480
-0.915508, 1, 33, 335, 160
-0.918766, 1, 33, 128, 288
-0.919532, 65, 321, 320, 448
-0.92256, 81, 1, 208, 256
-0.927957, 209, 161, 335, 288
-0.92811, 65, 241, 320, 368
-0.928931, 1, 129, 256, 256
-0.930338, 97, 321, 224, 448
-0.936483, 105, 225, 168, 352
-0.936612, 65, 81, 320, 208
-0.938128, 113, 97, 240, 224
-0.939428, 17, 225, 144, 352
-0.939614, 265, 161, 328, 288
-0.940842, 145, 161, 272, 288
-0.941235, 137, 305, 200, 432
-0.942405, 49, 177, 176, 304
-0.9432, 1, 369, 256, 496
-0.943813, 161, 321, 224, 448
-0.945541, 145, 33, 208, 160
-0.946125, 97, 193, 224, 320
-0.94624, 113, 49, 240, 176
-0.946634, 33, 273, 160, 400
-0.947174, 233, 161, 296, 288
-0.94735, 209, 113, 335, 240
-0.947613, 193, 145, 256, 272
-0.948343, 273, 113, 335, 240
-0.948548, 105, 289, 168, 416
-0.948631, 65, 33, 320, 160
-0.950554, 89, 145, 152, 272
-0.950855, 65, 209, 128, 336
-0.952423, 25, 193, 88, 320
-0.952647, 145, 257, 208, 384
-0.952677, 193, 49, 320, 176
-0.952815, 81, 273, 144, 400
-0.953111, 33, 129, 160, 256
-0.953118, 137, 193, 200, 320
-0.953186, 161, 113, 288, 240
-0.953559, 273, 353, 335, 480
-0.954037, 113, 305, 176, 368
-0.954345, 81, 273, 208, 400
-0.954485, 49, 257, 112, 384
-0.954723, 145, 313, 208, 376
-0.955, 25, 233, 88, 296
-0.955512, 273, 153, 335, 216
-0.956239, 217, 113, 280, 240
-0.956568, 193, 337, 320, 464
-0.956958, 185, 65, 248, 192
-0.957374, 73, 281, 136, 344
-0.957679, 273, 177, 335, 240
-0.957781, 1, 241, 64, 368
-0.957786, 113, 369, 240, 496
-0.958412, 129, 257, 256, 384
-0.958696, 217, 169, 280, 232
-0.958989, 145, 209, 272, 336
-0.959106, 273, 65, 335, 192
-0.959839, 249, 169, 312, 232
-0.960431, 49, 249, 112, 312
-0.96057, 249, 193, 312, 256
-0.961, 33, 145, 96, 272
-0.961306, 129, 193, 192, 256
-0.962272, 65, 161, 128, 288
-0.962424, 273, 345, 335, 408
-0.96243, 33, 369, 160, 496
-0.962486, 97, 337, 160, 464
-0.962601, 89, 209, 152, 272
-0.962659, 249, 97, 312, 224
-0.9627, 1, 177, 128, 304
-0.963354, 93, 273, 124, 336
-0.964901, 185, 65, 248, 128
-0.965166, 161, 1, 288, 128
-0.965309, 97, 145, 224, 272
-0.965388, 33, 321, 160, 448
-0.965706, 113, 177, 176, 304
-0.965794, 153, 33, 216, 96
-0.965826, 161, 337, 224, 400
-0.965857, 173, 321, 204, 384
-0.965895, 273, 129, 335, 192
-0.966061, 89, 313, 152, 376
-0.966097, 113, 129, 176, 256
-0.966396, 105, 177, 168, 240
-0.966755, 169, 17, 232, 144
-0.96682, 97, 273, 160, 336
-0.966908, 273, 209, 335, 272
-0.967083, 249, 137, 312, 200
-0.967214, 273, 377, 335, 440
-0.967221, 145, 289, 208, 352
-0.96731, 49, 81, 176, 208
-0.967446, 217, 145, 280, 208
-0.967477, 137, 297, 168, 360
-0.967565, 145, 145, 208, 272
-0.967638, 193, 289, 320, 416
-0.967905, 65, 297, 192, 360
-0.968096, 169, 161, 232, 288
-0.968175, 185, 289, 248, 352
-0.968471, 209, 209, 335, 336
-0.968642, 273, 41, 335, 104
-0.968763, 121, 337, 184, 400
-0.968857, 49, 97, 112, 224
-0.968957, 121, 81, 184, 208
-0.96918, 49, 217, 176, 280
-0.969324, 201, 17, 264, 144
-0.969457, 65, 209, 128, 272
-0.969535, 161, 57, 224, 120
-0.96968, 145, 369, 208, 496
-0.969727, 169, 313, 232, 376
-0.970161, 97, 329, 224, 392
-0.970703, 209, 209, 335, 272
-0.970836, 25, 209, 88, 272
-0.970867, 177, 33, 240, 96
-0.970957, 193, 177, 256, 240
-0.970983, 145, 305, 272, 432
-0.971078, 169, 369, 232, 496
-0.971243, 169, 273, 232, 400
-0.971268, 305, 145, 335, 272
-0.971552, 225, 201, 288, 264
-0.971732, 305, 153, 335, 216
-0.971813, 89, 97, 152, 224
-0.971923, 105, 233, 168, 296
-0.971972, 53, 241, 84, 304
-0.972012, 169, 369, 232, 432
-0.972058, 121, 353, 184, 480
-0.972299, 129, 193, 192, 448
-0.972336, 245, 161, 276, 288
-0.972338, 105, 225, 168, 480
-0.97234, 273, 17, 335, 144
-0.972366, 129, 209, 256, 272
-0.972384, 293, 337, 324, 400
-0.972636, 249, 49, 312, 176
-0.972755, 177, 113, 240, 176
-0.972802, 93, 257, 124, 384
-0.972884, 273, 65, 335, 128
-0.97292, 73, 153, 136, 216
-0.97293, 89, 121, 152, 184
-0.972985, 273, 161, 335, 416
-0.972988, 217, 97, 280, 160
-0.973194, 1, 369, 64, 496
-0.973259, 33, 337, 96, 464
-0.973262, 1, 241, 128, 304
-0.973295, 289, 337, 320, 464
-0.973524, 293, 161, 324, 288
-0.973559, 185, 129, 248, 384
-0.97359, 221, 145, 252, 272
-0.973655, 209, 193, 272, 320
-0.973678, 1, 81, 128, 208
-0.973855, 129, 217, 192, 280
-0.973952, 73, 209, 104, 336
-0.974154, 193, 169, 320, 232
-0.974218, 157, 321, 188, 448
-0.974287, 49, 273, 112, 336
-0.97433, 9, 97, 72, 224
-0.97434, 65, 193, 192, 256
-0.974393, 1, 265, 64, 328
-0.974453, 137, 289, 168, 416
-0.974502, 65, 33, 192, 160
-0.974502, 65, 193, 128, 448
-0.97456, 169, 113, 232, 240
-0.974663, 225, 121, 288, 184
-0.974791, 81, 185, 144, 248
-0.9749, 89, 345, 152, 408
-0.974927, 301, 97, 332, 224
-0.975008, 145, 1, 208, 256
-0.975022, 285, 177, 316, 240
-0.975131, 57, 241, 88, 368
-0.975171, 161, 193, 224, 448
-0.975197, 249, 217, 312, 280
-0.975329, 193, 145, 256, 208
-0.975394, 169, 201, 232, 264
-0.975468, 177, 305, 208, 432
-0.975613, 205, 49, 236, 112
-0.975614, 145, 177, 272, 240
-0.975725, 49, 129, 112, 192
-0.975853, 97, 297, 128, 360
-0.975925, 129, 201, 160, 264
-0.976148, 185, 33, 248, 288
-0.976346, 285, 145, 316, 208
-0.976364, 273, 65, 335, 320
-0.976369, 209, 137, 335, 200
-0.976471, 41, 161, 104, 416
-0.976618, 49, 153, 112, 216
-0.97663, 289, 361, 320, 424
-0.976769, 169, 177, 232, 240
-0.976827, 185, 321, 216, 384
-0.976829, 121, 97, 184, 160
-0.976857, 161, 81, 224, 144
-0.976862, 265, 145, 296, 272
-0.976912, 141, 329, 172, 392
-0.977008, 201, 41, 264, 104
-0.977032, 281, 145, 312, 272
-0.977064, 185, 321, 248, 448
-0.977092, 53, 193, 84, 320
-0.977129, 273, 209, 335, 336
-0.977169, 129, 57, 256, 120
-0.9772, 185, 89, 248, 152
-0.977238, 25, 241, 88, 368
-0.977456, 101, 305, 132, 432
-0.977494, 185, 177, 216, 304
-0.977598, 209, 73, 272, 136
-0.977788, 113, 209, 144, 336
-0.9778, 209, 113, 240, 240
-0.977868, 193, 273, 256, 400
-0.977879, 113, 97, 240, 160
-0.97798, 209, 65, 272, 192
-0.97804, 249, 89, 312, 152
-0.978053, 169, 409, 232, 472
-0.978184, 233, 161, 264, 288
-0.978187, 17, 273, 144, 336
-0.978265, 145, 169, 208, 232
-0.978283, 113, 1, 240, 128
-0.978295, 305, 209, 335, 272
-0.978324, 249, 129, 312, 384
-0.97835, 153, 337, 184, 400
-0.978398, 201, 73, 232, 136
-0.978418, 121, 305, 152, 368
-0.978423, 97, 97, 160, 352
-0.978437, 65, 201, 96, 264
-0.978449, 305, 177, 335, 240
-0.978511, 73, 97, 136, 352
-0.978513, 273, 169, 304, 232
-0.978528, 201, 33, 232, 160
-0.978611, 149, 305, 180, 368
-0.978683, 265, 273, 328, 400
-0.978683, 97, 353, 224, 416
-0.978761, 249, 57, 312, 120
-0.978761, 17, 297, 144, 360
-0.978814, 137, 225, 168, 352
-0.978849, 113, 297, 240, 360
-0.978858, 293, 65, 324, 128
-0.978869, 1, 145, 64, 272
-0.978932, 225, 153, 256, 216
-0.978994, 193, 81, 320, 144
-0.978997, 105, 193, 136, 256
-0.979014, 193, 201, 256, 264
-0.979046, 209, 225, 272, 288
-0.979132, 273, 97, 335, 160
-0.979133, 125, 225, 156, 352
-0.979157, 189, 321, 220, 448
-0.97917, 9, 433, 72, 496
-0.979204, 249, 33, 312, 288
-0.979213, 169, 225, 232, 288
-0.979253, 81, 273, 112, 400
-0.979269, 289, 65, 320, 192
-0.979407, 105, 153, 168, 216
-0.97948, 217, 161, 280, 416
-0.979538, 177, 337, 304, 400
-0.979541, 9, 97, 72, 352
-0.979552, 209, 1, 335, 128
-0.979712, 9, 193, 72, 448
-0.979873, 97, 249, 224, 312
-0.979939, 161, 257, 192, 384
-0.979941, 209, 65, 272, 320
-0.980101, 1, 193, 64, 320
-0.98011, 121, 33, 184, 160
-0.980145, 185, 209, 248, 336
-0.980189, 249, 209, 312, 336
-0.980201, 73, 241, 136, 304
-0.980251, 121, 65, 184, 320
-0.980308, 101, 209, 132, 336
-0.980326, 161, 97, 224, 352
-0.980382, 245, 169, 276, 232
-0.98043, 125, 177, 156, 304
-0.980532, 149, 193, 180, 320
-0.980699, 25, 433, 56, 496
-0.980714, 137, 1, 200, 500
-0.980748, 81, 281, 112, 344
-0.980807, 137, 57, 200, 120
-0.98081, 129, 33, 256, 96
-0.980838, 125, 273, 156, 400
-0.980842, 289, 121, 320, 184
-0.980859, 209, 49, 335, 112
-0.98094, 41, 217, 72, 280
-0.980988, 81, 201, 112, 264
-0.981024, 1, 225, 64, 288
-0.981055, 257, 401, 320, 464
-0.981168, 57, 185, 120, 248
-0.981212, 293, 209, 324, 272
-0.981215, 181, 297, 212, 360
-0.981249, 109, 297, 140, 360
-0.981336, 253, 201, 284, 264
-0.981355, 97, 417, 160, 480
-0.981411, 33, 321, 160, 384
-0.981418, 85, 193, 116, 320
-0.981425, 189, 345, 220, 408
-0.981598, 261, 169, 292, 232
-0.981622, 273, 41, 304, 104
-0.981642, 41, 193, 72, 320
-0.981672, 117, 209, 148, 272
-0.981678, 201, 369, 264, 496
-0.981683, 29, 209, 60, 336
-0.981782, 189, 73, 220, 136
-0.981858, 29, 233, 60, 296
-0.981859, 137, 377, 200, 440
-0.981941, 149, 273, 180, 400
-0.981995, 17, 113, 80, 176
-0.982093, 301, 337, 332, 464
-0.982186, 205, 169, 236, 232
-0.982202, 209, 161, 240, 288
-0.982203, 177, 313, 304, 376
-0.982238, 169, 9, 232, 72
-0.982256, 161, 1, 224, 500
-0.982316, 305, 65, 335, 128
-0.982331, 89, 97, 152, 160
-0.982342, 193, 105, 320, 168
-0.982357, 57, 305, 120, 432
-0.982363, 177, 249, 240, 312
-0.982368, 49, 129, 176, 192
-0.982387, 97, 169, 224, 232
-0.982395, 213, 137, 244, 200
-0.982396, 29, 369, 60, 496
-0.982513, 237, 113, 268, 240
-0.98256, 89, 49, 152, 176
-0.982575, 189, 41, 220, 104
-0.982689, 305, 41, 335, 104
-0.982716, 249, 361, 312, 424
-0.982749, 293, 41, 324, 104
-0.982767, 185, 1, 248, 500
-0.982777, 57, 129, 88, 192
-0.9828, 17, 289, 80, 416
-0.982819, 85, 145, 116, 272
-0.982959, 105, 369, 168, 432
-0.982984, 17, 89, 80, 152
-0.982989, 145, 265, 208, 328
-0.983015, 185, 337, 248, 400
-0.983039, 33, 153, 160, 216
-0.983057, 113, 377, 240, 440
-0.98306, 101, 337, 132, 400
-0.983079, 177, 193, 208, 256
-0.983112, 145, 233, 272, 296
-0.983136, 157, 193, 188, 256
-0.983158, 57, 265, 88, 328
-0.983192, 305, 121, 335, 184
-0.98321, 189, 97, 220, 160
-0.983259, 105, 73, 168, 136
-0.98327, 189, 65, 220, 192
-0.983271, 249, 353, 312, 480
-0.983285, 129, 273, 256, 336
-0.983311, 193, 369, 320, 432
-0.983398, 33, 337, 96, 400
-0.98341, 189, 193, 220, 256
-0.983435, 261, 57, 292, 120
-0.983437, 233, 177, 264, 240
-0.983444, 125, 129, 156, 256
-0.98346, 177, 33, 208, 160
-0.983617, 281, 65, 312, 128
-0.983623, 149, 33, 180, 160
-0.983661, 305, 345, 335, 408
-0.983682, 17, 193, 144, 256
-0.983738, 273, 321, 335, 384
-0.983791, 273, 33, 304, 160
-0.983813, 113, 161, 144, 288
-0.983819, 121, 121, 184, 184
-0.98382, 65, 225, 96, 288
-0.983844, 273, 81, 304, 208
-0.983897, 129, 329, 160, 392
-0.983927, 33, 97, 160, 160
-0.983979, 81, 273, 208, 336
-0.984003, 49, 241, 176, 304
-0.98407, 273, 257, 335, 500
-0.984076, 17, 49, 80, 176
-0.984106, 105, 273, 136, 336
-0.984108, 273, 137, 304, 200
-0.984165, 137, 401, 200, 464
-0.984176, 161, 17, 192, 144
-0.984196, 177, 225, 208, 288
-0.984237, 193, 233, 224, 296
-0.984241, 273, 193, 304, 256
-0.984253, 57, 129, 88, 256
-0.98429, 65, 377, 128, 440
-0.984293, 49, 49, 112, 176
-0.984293, 121, 281, 184, 344
-0.984298, 249, 337, 312, 400
-0.98432, 37, 265, 68, 328
-0.984384, 161, 209, 224, 336
-0.984384, 17, 33, 144, 160
-0.984465, 137, 81, 168, 208
-0.98447, 169, 193, 200, 320
-0.984497, 113, 1, 176, 500
-0.984541, 273, 1, 335, 500
-0.984559, 73, 369, 136, 496
-0.984599, 161, 297, 192, 360
-0.984738, 49, 361, 176, 424
-0.98478, 301, 385, 332, 448
-0.984787, 133, 233, 164, 296
-0.98483, 137, 177, 168, 304
-0.984876, 49, 305, 112, 368
-0.984879, 273, 233, 335, 296
-0.984889, 201, 25, 232, 88
-0.984929, 293, 89, 324, 152
-0.984986, 105, 257, 136, 384
-0.985, 225, 433, 288, 496
-0.985045, 149, 217, 180, 280
-0.985078, 277, 369, 308, 496
-0.985087, 41, 65, 104, 320
-0.985115, 113, 121, 240, 184
-0.985122, 101, 129, 132, 256
-0.985242, 273, 89, 304, 152
-0.985247, 89, 249, 120, 312
-0.985255, 173, 241, 204, 368
-0.985262, 197, 161, 228, 288
-0.985283, 17, 177, 48, 304
-0.985345, 141, 337, 172, 464
-0.985408, 25, 137, 88, 200
-0.985428, 1, 217, 128, 280
-0.985455, 177, 345, 208, 408
-0.985514, 169, 377, 200, 440
-0.98552, 45, 273, 76, 400
-0.985619, 233, 1, 296, 500
-0.985636, 37, 353, 68, 416
-0.985648, 141, 89, 172, 152
-0.985652, 285, 17, 316, 144
-0.985674, 193, 25, 320, 88
-0.985705, 225, 97, 256, 224
-0.985752, 301, 313, 332, 376
-0.985757, 209, 1, 272, 500
-0.985878, 113, 145, 240, 208
-0.985937, 129, 33, 192, 96
-0.985942, 121, 281, 152, 344
-0.985967, 273, 345, 304, 408
-0.985991, 241, 305, 304, 432
-0.986039, 257, 425, 320, 488
-0.986068, 121, 177, 152, 240
-0.986075, 29, 377, 60, 440
-0.986116, 253, 113, 284, 240
-0.986129, 145, 97, 208, 224
-0.986133, 281, 385, 312, 448
-0.986137, 25, 177, 88, 240
-0.986154, 1, 121, 128, 184
-0.986201, 205, 113, 236, 176
-0.986266, 225, 41, 288, 104
-0.986307, 301, 49, 332, 176
-0.986319, 1, 377, 128, 440
-0.986321, 177, 169, 208, 232
-0.986324, 113, 129, 144, 192
-0.986381, 213, 217, 244, 280
-0.986394, 1, 137, 64, 200
-0.9865, 25, 257, 88, 320
-0.986531, 125, 321, 156, 448
-0.986547, 105, 217, 136, 280
-0.986555, 53, 217, 84, 280
-0.98658, 45, 145, 76, 272
-0.986651, 129, 105, 160, 168
-0.986745, 129, 401, 256, 464
-0.986753, 81, 33, 208, 96
-0.986789, 193, 241, 224, 368
-0.98679, 33, 417, 96, 480
-0.986821, 165, 25, 196, 88
-0.986831, 265, 193, 296, 320
-0.986851, 65, 105, 128, 168
-0.986876, 161, 145, 288, 208
-0.986943, 165, 369, 196, 496
-0.986974, 305, 89, 335, 152
-0.987036, 113, 305, 144, 432
-0.9871, 65, 353, 128, 416
-0.98711, 77, 97, 108, 224
-0.987221, 165, 345, 196, 408
-0.987235, 177, 257, 304, 320
-0.987268, 37, 97, 68, 224
-0.987526, 73, 161, 104, 288
-0.987561, 85, 129, 116, 192
-0.987579, 173, 73, 204, 136
-0.987589, 73, 153, 104, 216
-0.987595, 229, 129, 260, 192
-0.987656, 197, 257, 228, 320
-0.987661, 213, 49, 244, 176
-0.987683, 13, 369, 44, 496
-0.987687, 241, 201, 272, 264
-0.987716, 209, 241, 240, 304
-0.987718, 221, 177, 252, 240
-0.987736, 261, 129, 292, 192
-0.987737, 69, 129, 100, 192
-0.987806, 241, 257, 304, 384
-0.987858, 149, 145, 180, 272
-0.987868, 249, 33, 312, 96
-0.987943, 209, 249, 272, 312
-0.987966, 41, 1, 104, 500
-0.98801, 17, 409, 48, 472
-0.988027, 85, 305, 116, 368
-0.98806, 37, 433, 68, 496
-0.988092, 17, 369, 80, 432
-0.98811, 17, 241, 48, 304
-0.988154, 89, 1, 152, 500
-0.988191, 81, 73, 208, 136
-0.988249, 225, 17, 288, 144
-0.988322, 177, 353, 208, 480
-0.988348, 97, 161, 128, 224
-0.988349, 161, 337, 224, 368
-0.988387, 209, 433, 335, 496
-0.988416, 141, 193, 172, 256
-0.988431, 85, 353, 116, 416
-0.988457, 129, 241, 192, 304
-0.988489, 225, 353, 288, 480
-0.988508, 45, 329, 76, 392
-0.988512, 37, 321, 68, 448
-0.988548, 137, 273, 168, 336
-0.988563, 173, 49, 204, 112
-0.988593, 49, 417, 176, 480
-0.98863, 229, 97, 260, 160
-0.988642, 113, 393, 176, 456
-0.988682, 177, 281, 304, 344
-0.988683, 297, 289, 328, 416
-0.988694, 17, 241, 48, 368
-0.988704, 193, 369, 224, 432
-0.98875, 153, 25, 184, 88
-0.988763, 209, 233, 335, 296
-0.988772, 1, 1, 64, 500
-0.988787, 113, 305, 176, 336
-0.988819, 37, 105, 68, 168
-0.988821, 249, 313, 312, 376
-0.988874, 129, 73, 160, 136
-0.988918, 253, 209, 284, 336
-0.988938, 53, 193, 84, 256
-0.988978, 85, 177, 116, 240
-0.988979, 201, 313, 264, 376
-0.988982, 213, 209, 244, 336
-0.989011, 149, 65, 180, 128
-0.989096, 1, 185, 64, 248
-0.989101, 249, 113, 312, 176
-0.989117, 249, 257, 312, 500
-0.98912, 261, 65, 292, 192
-0.98916, 1, 345, 128, 408
-0.989169, 189, 169, 220, 232
-0.989191, 25, 233, 88, 264
-0.989195, 73, 249, 104, 312
-0.989217, 201, 369, 264, 432
-0.989236, 73, 285, 136, 316
-0.989308, 273, 17, 335, 80
-0.989322, 269, 369, 300, 432
-0.98934, 197, 281, 228, 344
-0.989343, 197, 369, 228, 496
-0.989363, 89, 393, 152, 456
-0.98938, 181, 369, 212, 432
-0.989392, 217, 73, 248, 136
-0.989403, 165, 217, 196, 280
-0.989404, 249, 209, 312, 240
-0.989436, 273, 161, 335, 192
-0.989453, 1, 225, 256, 288
-0.989484, 197, 113, 228, 240
-0.989574, 273, 221, 335, 252
-0.989582, 153, 325, 216, 356
-0.989658, 105, 213, 168, 244
-0.989667, 125, 81, 156, 208
-0.989677, 73, 297, 136, 328
-0.98976, 129, 201, 192, 232
-0.989839, 97, 293, 160, 324
-0.989848, 25, 245, 88, 276
-0.98986, 185, 65, 248, 96
-0.989867, 121, 425, 184, 488
-0.989872, 177, 393, 304, 456
-0.989924, 137, 341, 200, 372
-0.989979, 129, 221, 192, 252
-0.990014, 233, 209, 264, 336
-0.990019, 273, 389, 335, 420
-0.990022, 201, 77, 264, 108
-0.990042, 41, 257, 104, 500
-0.99007, 145, 301, 208, 332
-0.990074, 233, 265, 296, 328
-0.990113, 1, 329, 64, 392
-0.990193, 273, 205, 335, 236
-0.990202, 121, 321, 184, 352
-0.990225, 189, 17, 220, 144
-0.990247, 73, 201, 136, 232
-0.990255, 225, 209, 288, 240
-0.990259, 169, 145, 200, 272
-0.990302, 105, 233, 168, 264
-0.990318, 273, 177, 335, 208
-0.990353, 273, 345, 335, 376
-0.990388, 285, 289, 316, 416
-0.99043, 17, 257, 80, 288
-0.990438, 1, 257, 32, 384
-0.990449, 249, 161, 312, 192
-0.990466, 273, 361, 335, 392
-0.990488, 145, 105, 208, 168
-0.990515, 129, 145, 192, 208
-0.990517, 65, 201, 320, 264
-0.99054, 305, 193, 335, 320
-0.990547, 49, 237, 112, 268
-0.990559, 161, 353, 224, 384
-0.990563, 153, 369, 184, 496
-0.990575, 105, 201, 168, 232
-0.99058, 105, 369, 136, 496
-0.990602, 265, 193, 328, 224
-0.990604, 249, 221, 312, 252
-0.990609, 85, 337, 116, 464
-0.990645, 249, 177, 312, 208
-0.990654, 1, 409, 64, 472
-0.990715, 89, 189, 152, 220
-0.990744, 145, 313, 208, 344
-0.990797, 89, 309, 152, 340
-0.9908, 65, 337, 320, 400
-0.990859, 25, 289, 88, 352
-0.990862, 273, 145, 335, 176
-0.99088, 73, 153, 136, 184
-0.990911, 225, 181, 288, 212
-0.990947, 273, 373, 335, 404
-0.990957, 161, 61, 224, 92
-0.990974, 161, 433, 288, 496
-0.990976, 65, 1, 128, 500
-0.991005, 33, 65, 160, 128
-0.991028, 185, 197, 248, 228
-0.99103, 73, 221, 136, 252
-0.991032, 273, 49, 335, 80
-0.991041, 49, 301, 112, 332
-0.991104, 169, 365, 232, 396
-0.991116, 201, 97, 264, 128
-0.991118, 145, 289, 208, 320
-0.99113, 49, 289, 112, 320
-0.991157, 109, 81, 140, 208
-0.991163, 161, 237, 224, 268
-0.991172, 1, 433, 128, 496
-0.991208, 265, 69, 328, 100
-0.991213, 169, 393, 232, 424
-0.991217, 137, 233, 200, 264
-0.99122, 65, 141, 128, 172
-0.991235, 201, 17, 264, 80
-0.991242, 41, 269, 104, 300
-0.991256, 97, 425, 224, 488
-0.991288, 97, 281, 160, 312
-0.991289, 185, 345, 248, 376
-0.991314, 185, 177, 248, 208
-0.991371, 113, 345, 176, 376
-0.991378, 217, 165, 280, 196
-0.991389, 145, 49, 208, 80
-0.991397, 225, 81, 288, 112
-0.991398, 273, 93, 335, 124
-0.991406, 145, 9, 272, 72
-0.991406, 169, 109, 232, 140
-0.991427, 233, 197, 296, 228
-0.991427, 33, 393, 96, 456
-0.991431, 177, 37, 240, 68
-0.991434, 1, 273, 64, 304
-0.991444, 145, 33, 208, 64
-0.991446, 201, 433, 264, 496
-0.991457, 57, 117, 120, 148
-0.99147, 57, 253, 120, 284
-0.991481, 89, 137, 152, 168
-0.991489, 137, 405, 200, 436
-0.991496, 185, 53, 248, 84
-0.991505, 137, 353, 200, 384
-0.991523, 89, 349, 152, 380
-0.991534, 89, 121, 152, 152
-0.991576, 113, 189, 176, 220
-0.991588, 217, 141, 280, 172
-0.991593, 161, 73, 224, 104
-0.991603, 177, 217, 240, 248
-0.991612, 241, 93, 304, 124
-0.991619, 25, 221, 88, 252
-0.991631, 161, 93, 224, 124
-0.991633, 129, 249, 192, 280
-0.991639, 65, 273, 128, 304
-0.99165, 161, 249, 224, 280
-0.991661, 145, 189, 208, 220
-0.991662, 273, 105, 335, 136
-0.991667, 105, 405, 168, 436
-0.991697, 97, 149, 160, 180
-0.991707, 65, 129, 320, 192
-0.991729, 89, 361, 152, 392
-0.991732, 65, 169, 320, 232
-0.99176, 181, 113, 212, 240
-0.991764, 41, 105, 104, 168
-0.991777, 257, 281, 320, 344
-0.991785, 97, 321, 160, 352
-0.991797, 1, 285, 64, 316
-0.991807, 161, 201, 224, 232
-0.991815, 225, 221, 288, 252
-0.991852, 129, 113, 192, 144
-0.991856, 105, 89, 168, 120
-0.991858, 137, 33, 168, 160
-0.991883, 93, 281, 124, 312
-0.991884, 1, 201, 335, 264
-0.991892, 185, 333, 248, 364
-0.991895, 249, 353, 312, 384
-0.99191, 161, 413, 224, 444
-0.991926, 49, 153, 112, 184
-0.991934, 113, 357, 176, 388
-0.991938, 265, 125, 328, 156
-0.991941, 1, 449, 64, 480
-0.991947, 69, 257, 100, 384
-0.991962, 1, 313, 256, 376
-0.991971, 305, 161, 335, 192
-0.991971, 293, 225, 324, 352
-0.991981, 225, 129, 288, 160
-0.991987, 17, 133, 80, 164
-0.991994, 169, 377, 232, 408
-0.992004, 21, 129, 52, 256
-0.992009, 273, 37, 335, 68
-0.992015, 169, 333, 200, 364
-0.992025, 137, 301, 168, 332
-0.992028, 193, 165, 256, 196
-0.992045, 257, 437, 320, 468
-0.992046, 241, 65, 304, 96
-0.99206, 177, 321, 208, 352
-0.992093, 33, 121, 96, 152
-0.992101, 185, 225, 248, 480
-0.992104, 273, 401, 335, 432
-0.992109, 89, 105, 152, 136
-0.992116, 137, 77, 200, 108
-0.992119, 201, 209, 264, 240
-0.992134, 137, 61, 200, 92
-0.992146, 153, 341, 184, 372
-0.992152, 185, 289, 248, 320
-0.992153, 93, 293, 124, 324
-0.992161, 209, 197, 272, 228
-0.992164, 65, 385, 192, 448
-0.992173, 293, 161, 324, 192
-0.992201, 193, 141, 256, 172
-0.992205, 289, 349, 320, 380
-0.992211, 145, 325, 176, 356
-0.992212, 169, 313, 232, 344
-0.992213, 97, 161, 160, 192
-0.992213, 41, 141, 104, 172
-0.992221, 209, 113, 272, 144
-0.992227, 209, 245, 272, 276
-0.992239, 101, 305, 132, 336
-0.992253, 273, 233, 335, 264
-0.992254, 249, 105, 312, 136
-0.99226, 145, 365, 208, 396
-0.992276, 65, 361, 320, 424
-0.992313, 305, 221, 335, 252
-0.992334, 81, 293, 112, 324
-0.992349, 305, 1, 335, 128
-0.992394, 289, 177, 320, 208
-0.992399, 141, 337, 172, 368
-0.992411, 165, 217, 196, 248
-0.99242, 149, 225, 180, 256
-0.99242, 65, 105, 320, 168
-0.99243, 121, 309, 152, 340
-0.992444, 173, 345, 204, 376
-0.992462, 257, 209, 288, 240
-0.992465, 49, 265, 80, 296
-0.992498, 301, 345, 332, 376
-0.992499, 65, 265, 320, 328
-0.9925, 245, 205, 276, 236
-0.992504, 117, 213, 148, 244
-0.992521, 137, 313, 168, 344
-0.992523, 53, 253, 84, 284
-0.99253, 181, 333, 212, 364
-0.992554, 305, 73, 335, 104
-0.992556, 281, 381, 312, 412
-0.992562, 193, 341, 224, 372
-0.992581, 277, 49, 308, 80
-0.992584, 149, 237, 180, 268
-0.992584, 133, 201, 164, 232
-0.992586, 281, 165, 312, 196
-0.992603, 193, 69, 224, 100
-0.992641, 301, 389, 332, 420
-0.992648, 165, 229, 196, 260
-0.992651, 177, 233, 208, 264
-0.992651, 281, 221, 312, 252
-0.992666, 133, 229, 164, 260
-0.992667, 269, 217, 300, 248
-0.992676, 133, 217, 164, 248
-0.992695, 157, 329, 188, 360
-0.992695, 189, 105, 220, 136
-0.9927, 205, 77, 236, 108
-0.99272, 93, 317, 124, 348
-0.992724, 61, 241, 92, 272
-0.99273, 289, 149, 320, 180
-0.992731, 97, 273, 112, 336
-0.992733, 137, 241, 168, 272
-0.992734, 93, 345, 124, 376
-0.992736, 125, 297, 156, 328
-0.992741, 81, 281, 112, 312
-0.992743, 305, 181, 335, 212
-0.992743, 225, 165, 256, 196
-0.992752, 157, 317, 188, 348
-0.992752, 269, 201, 300, 232
-0.992764, 33, 257, 64, 384
-0.992771, 233, 213, 264, 244
-0.992775, 147, 297, 162, 360
-0.992785, 85, 201, 116, 232
-0.992802, 205, 49, 236, 80
-0.992814, 293, 225, 324, 256
-0.992821, 197, 245, 228, 276
-0.992828, 165, 241, 196, 272
-0.992832, 65, 289, 320, 352
-0.992836, 149, 253, 180, 284
-0.992837, 25, 445, 56, 476
-0.992844, 189, 353, 220, 384
-0.992849, 289, 369, 320, 400
-0.992853, 277, 37, 308, 68
-0.992854, 201, 89, 232, 120
-0.992858, 105, 205, 136, 236
-0.992858, 305, 149, 335, 180
-0.992859, 265, 161, 296, 192
-0.992863, 137, 289, 168, 320
-0.992869, 85, 305, 116, 336
-0.99287, 41, 229, 72, 260
-0.992871, 293, 73, 324, 104
-0.992872, 277, 145, 308, 176
-0.992873, 217, 81, 248, 112
-0.992876, 37, 277, 68, 308
-0.992881, 273, 177, 304, 208
-0.992883, 153, 353, 184, 384
-0.992884, 121, 201, 152, 232
-0.992885, 173, 205, 204, 236
-0.992886, 173, 357, 204, 388
-0.99289, 185, 201, 216, 232
-0.992891, 157, 201, 188, 232
-0.992891, 121, 229, 152, 260
-0.992913, 281, 65, 312, 96
-0.992913, 53, 277, 84, 308
-0.992914, 209, 369, 240, 496
-0.992916, 205, 177, 236, 208
-0.992921, 301, 93, 332, 124
-0.992927, 205, 61, 236, 92
-0.992928, 293, 213, 324, 244
-0.992932, 105, 293, 136, 324
-0.992942, 65, 201, 96, 232
-0.992952, 201, 113, 232, 144
-0.992954, 65, 81, 96, 208
-0.992957, 189, 57, 220, 88
-0.992957, 69, 289, 100, 320
-0.992964, 37, 453, 68, 484
-0.992968, 289, 189, 320, 220
-0.992971, 181, 73, 212, 104
-0.992973, 97, 193, 128, 224
-0.992975, 221, 209, 252, 240
-0.992977, 1, 361, 335, 424
-0.992977, 281, 205, 312, 236
-0.992977, 305, 105, 335, 136
-0.992979, 105, 217, 136, 248
-0.992985, 281, 393, 312, 424
-0.992986, 109, 193, 140, 224
-0.992988, 97, 357, 128, 388
-0.992992, 229, 77, 260, 108
-0.992994, 293, 57, 324, 88
-0.992997, 181, 93, 212, 124
-0.993024, 189, 233, 220, 264
-0.993028, 145, 101, 176, 132
-0.99303, 301, 377, 332, 408
-0.99304, 1, 137, 335, 200
-0.993041, 73, 245, 104, 276
-0.993041, 301, 357, 332, 388
-0.993046, 105, 277, 136, 308
-0.993048, 189, 305, 204, 368
-0.993048, 305, 233, 335, 264
-0.993051, 105, 229, 136, 260
-0.993052, 125, 321, 156, 352
-0.993054, 49, 289, 80, 320
-0.993056, 181, 309, 212, 340
-0.993067, 133, 85, 164, 116
-0.993069, 105, 137, 136, 168
-0.99307, 277, 361, 308, 392
-0.99307, 109, 317, 140, 348
-0.993073, 185, 221, 216, 252
-0.993076, 213, 141, 244, 172
-0.993086, 85, 145, 116, 176
-0.993088, 189, 321, 220, 352
-0.993092, 265, 369, 296, 496
-0.993307, 1, 225, 335, 288
-0.993341, 261, 17, 292, 144
-0.993377, 107, 273, 122, 336
-0.993405, 9, 97, 40, 224
-0.993442, 65, 401, 320, 464
-0.993521, 1, 313, 335, 376
-0.993578, 1, 337, 335, 400
-0.99361, 149, 97, 180, 224
-0.99363, 319, 153, 334, 216
-0.993641, 1, 281, 335, 344
-0.993668, 141, 289, 156, 352
-0.993677, 53, 49, 84, 176
-0.99377, 97, 337, 224, 368
-0.993775, 183, 313, 198, 376
-0.99379, 205, 257, 236, 384
-0.9938, 209, 177, 335, 208
-0.99383, 93, 81, 124, 208
-0.993881, 67, 225, 82, 288
-0.993921, 139, 217, 154, 280
-0.993966, 9, 1, 72, 256
-0.993983, 209, 217, 335, 248
-0.993996, 65, 57, 320, 120
-0.994009, 195, 321, 210, 384
-0.994057, 129, 369, 160, 496
-0.994085, 1, 41, 128, 104
-0.994149, 33, 145, 64, 272
-0.994281, 117, 369, 148, 496
-0.994293, 65, 297, 192, 328
-0.994318, 153, 329, 168, 392
-0.994323, 1, 261, 128, 292
-0.994331, 65, 317, 192, 348
-0.994339, 137, 129, 168, 256
-0.994353, 133, 209, 148, 272
-0.994359, 145, 213, 272, 244
-0.994451, 181, 201, 196, 264
-0.994453, 313, 153, 328, 216
-0.994467, 65, 201, 192, 232
-0.994472, 113, 233, 240, 264
-0.994485, 51, 257, 66, 320
-0.994491, 277, 193, 308, 320
-0.994507, 153, 297, 168, 360
-0.994516, 305, 241, 335, 368
-0.994524, 59, 233, 74, 296
-0.994544, 173, 329, 188, 392
-0.994559, 105, 297, 120, 360
-0.994562, 1, 169, 335, 232
-0.994575, 1, 81, 335, 144
-0.994591, 307, 169, 322, 232
-0.994594, 145, 233, 160, 296
-0.9946, 31, 385, 46, 448
-0.994617, 315, 177, 330, 240
-0.994624, 65, 225, 192, 256
-0.994625, 41, 345, 56, 408
-0.994634, 321, 209, 335, 272
-0.994639, 5, 193, 36, 320
-0.994646, 297, 153, 312, 216
-0.994663, 305, 345, 320, 408
-0.994694, 41, 369, 72, 496
-0.994705, 17, 281, 144, 312
-0.994734, 207, 233, 222, 296
-0.994735, 97, 353, 224, 384
-0.994758, 273, 273, 304, 400
-0.994788, 201, 329, 216, 392
-0.994822, 289, 345, 304, 408
-0.994836, 1, 113, 335, 176
-0.994837, 229, 145, 244, 208
-0.99487, 307, 137, 322, 200
-0.994882, 299, 337, 314, 400
-0.994883, 189, 329, 204, 392
-0.994897, 299, 177, 314, 240
-0.994913, 167, 337, 182, 400
-0.994933, 305, 209, 320, 272
-0.994937, 1, 81, 256, 144
-0.994939, 193, 57, 320, 88
-0.99497, 177, 349, 304, 380
-0.99498, 37, 369, 52, 432
-0.99499, 123, 185, 138, 248
-0.995022, 113, 289, 128, 352
-0.995034, 135, 281, 150, 344
-0.995045, 283, 137, 298, 200
-0.995076, 213, 1, 244, 128
-0.99508, 129, 69, 256, 100
-0.995082, 145, 201, 272, 232
-0.995089, 217, 241, 280, 368
-0.995121, 321, 177, 335, 240
-0.995126, 293, 177, 308, 240
-0.995154, 31, 425, 46, 488
-0.995169, 47, 329, 62, 392
-0.995176, 311, 209, 326, 272
-0.99518, 225, 33, 256, 160
-0.99519, 209, 229, 335, 260
-0.995199, 89, 289, 104, 352
-0.99526, 201, 73, 216, 136
-0.995263, 265, 169, 280, 232
-0.995264, 209, 41, 224, 104
-0.995305, 277, 161, 292, 224
-0.995312, 161, 337, 176, 400
-0.995316, 145, 321, 160, 384
-0.99532, 97, 213, 224, 244
-0.995333, 99, 337, 114, 400
-0.995335, 77, 49, 108, 176
-0.995378, 181, 225, 196, 288
-0.99538, 159, 313, 174, 376
-0.995382, 33, 241, 160, 272
-0.995389, 49, 281, 64, 344
-0.9954, 17, 297, 144, 328
-0.995403, 257, 169, 272, 232
-0.995407, 17, 221, 144, 252
-0.995423, 253, 257, 284, 384
-0.995428, 135, 305, 150, 368
-0.995468, 127, 209, 142, 272
-0.995476, 209, 145, 335, 176
-0.995504, 195, 289, 210, 352
-0.995505, 193, 81, 320, 112
-0.995525, 17, 317, 144, 348
-0.995552, 209, 165, 335, 196
-0.995563, 177, 377, 304, 408
-0.995564, 311, 337, 326, 400
-0.99559, 175, 225, 190, 288
-0.995592, 113, 325, 240, 356
-0.995597, 65, 285, 192, 316
-0.995604, 195, 89, 210, 152
-0.995615, 145, 245, 272, 276
-0.995631, 99, 297, 114, 360
-0.995649, 261, 201, 276, 264
-0.995665, 213, 233, 228, 296
-0.995668, 289, 137, 304, 200
-0.995673, 113, 177, 240, 208
-0.995678, 193, 101, 320, 132
-0.995685, 145, 337, 272, 368
-0.995685, 113, 193, 128, 256
-0.995695, 39, 433, 54, 496
-0.99571, 139, 193, 154, 256
-0.99572, 113, 113, 240, 144
-0.995735, 307, 73, 322, 136
-0.99574, 195, 345, 210, 408
-0.99575, 187, 217, 202, 280
-0.995755, 169, 97, 200, 224
-0.995756, 1, 33, 256, 96
-0.995758, 113, 313, 128, 376
-0.995762, 225, 121, 240, 184
-0.995769, 209, 257, 224, 320
-0.995779, 285, 41, 300, 104
-0.99578, 205, 1, 236, 256
-0.995783, 249, 169, 264, 232
-0.995784, 55, 297, 70, 360
-0.995784, 101, 241, 116, 304
-0.995794, 151, 217, 166, 280
-0.995813, 271, 177, 286, 240
-0.995815, 97, 189, 224, 220
-0.995816, 209, 69, 335, 100
-0.995855, 75, 233, 90, 296
-0.995855, 255, 201, 270, 264
-0.995858, 79, 209, 94, 272
-0.995866, 311, 41, 326, 104
-0.995883, 313, 121, 328, 184
-0.995896, 187, 193, 202, 256
-0.995904, 197, 49, 212, 112
-0.995914, 267, 201, 282, 264
-0.995922, 193, 365, 320, 396
-0.995929, 297, 57, 312, 120
-0.995953, 129, 37, 256, 68
-0.995954, 119, 297, 134, 360
-0.995955, 183, 337, 198, 400
-0.995959, 219, 49, 234, 112
-0.995972, 317, 345, 332, 408
-0.995975, 145, 193, 160, 256
-0.995986, 277, 185, 292, 248
-0.995989, 283, 161, 298, 224
-0.996011, 299, 209, 314, 272
-0.996026, 141, 257, 156, 320
-0.996034, 191, 65, 206, 128
-0.996036, 1, 49, 32, 176
-0.996036, 67, 201, 82, 264
-0.996037, 225, 257, 288, 500
-0.996052, 237, 65, 268, 192
-0.996052, 177, 65, 208, 320
-0.996086, 137, 193, 168, 448
-0.99609, 59, 129, 74, 192
-0.996094, 177, 45, 304, 76
-0.996099, 207, 65, 222, 128
-0.996118, 315, 65, 330, 128
-0.996136, 73, 201, 88, 264
-0.996147, 173, 369, 188, 432
-0.996158, 97, 365, 224, 396
-0.996165, 189, 65, 220, 320
-0.996171, 161, 193, 192, 448
-0.996181, 321, 121, 335, 184
-0.996187, 33, 121, 160, 152
-0.996193, 17, 209, 144, 240
-0.996207, 97, 257, 224, 288
-0.996216, 113, 313, 240, 344
-0.996225, 113, 101, 240, 132
-0.996232, 161, 177, 288, 208
-0.996242, 33, 337, 160, 368
-0.996243, 1, 425, 256, 488
-0.996243, 235, 161, 250, 224
-0.996244, 175, 201, 190, 264
-0.996248, 291, 369, 306, 432
-0.996255, 75, 113, 90, 176
-0.996261, 277, 57, 292, 120
-0.996283, 283, 369, 298, 432
-0.996285, 243, 177, 258, 240
-0.996302, 183, 289, 198, 352
-0.99631, 107, 233, 122, 296
-0.99631, 1, 49, 335, 112
-0.996317, 131, 233, 146, 296
-0.99632, 65, 9, 192, 72
-0.996329, 33, 165, 160, 196
-0.996336, 129, 57, 256, 88
-0.996341, 179, 369, 194, 432
-0.996343, 67, 257, 82, 320
-0.996347, 119, 209, 134, 272
-0.996358, 193, 389, 320, 420
-0.99637, 193, 113, 320, 144
-0.996373, 189, 161, 220, 416
-0.99638, 177, 193, 208, 448
-0.996384, 221, 169, 236, 232
-0.996388, 303, 49, 318, 112
-0.996401, 97, 405, 224, 436
-0.996404, 139, 329, 154, 392
-0.99641, 105, 337, 120, 400
-0.996412, 319, 161, 334, 192
-0.996416, 153, 65, 168, 128
-0.996418, 25, 65, 56, 192
-0.99642, 285, 65, 300, 128
-0.996431, 321, 73, 335, 136
-0.996436, 193, 129, 320, 160
-0.996447, 1, 249, 335, 312
-0.996451, 97, 377, 224, 408
-0.996453, 305, 65, 335, 320
-0.996455, 193, 205, 320, 236
-0.996481, 17, 137, 144, 168
-0.996485, 191, 317, 206, 348
-0.996538, 33, 153, 160, 184
-0.996557, 161, 233, 288, 264
-0.996571, 113, 301, 240, 332
-0.996579, 49, 257, 176, 288
-0.996622, 193, 337, 320, 368
-0.996649, 301, 161, 332, 416
-0.996661, 113, 393, 240, 424
-0.996668, 25, 321, 56, 448
-0.99667, 145, 189, 272, 220
-0.99671, 149, 193, 180, 448
-0.99672, 209, 193, 335, 224
-0.996721, 97, 289, 112, 320
-0.996722, 209, 97, 240, 352
-0.996733, 289, 193, 320, 448
-0.996741, 113, 81, 240, 112
-0.996741, 65, 237, 80, 268
-0.996766, 167, 337, 182, 368
-0.996772, 197, 333, 212, 364
-0.996774, 99, 305, 114, 336
-0.996783, 145, 297, 160, 328
-0.996799, 33, 193, 64, 448
-0.996829, 103, 277, 118, 308
-0.99684, 77, 161, 108, 416
-0.996852, 161, 321, 288, 352
-0.996862, 113, 125, 240, 156
-0.996868, 293, 33, 324, 288
-0.996888, 49, 189, 176, 220
-0.996901, 143, 241, 158, 272
-0.996905, 153, 333, 168, 364
-0.996917, 1, 409, 335, 472
-0.996936, 307, 161, 322, 192
-0.996942, 93, 193, 124, 448
-0.996962, 1, 381, 128, 412
-0.996973, 111, 297, 126, 328
-0.99698, 277, 33, 308, 288
-0.99699, 317, 221, 332, 252
-0.996999, 33, 365, 160, 396
-0.99705, 81, 57, 208, 88
-0.997053, 49, 349, 176, 380
-0.997071, 113, 165, 240, 196
-0.99708, 207, 237, 222, 268
-0.997085, 183, 325, 198, 356
-0.997088, 49, 109, 176, 140
-0.997094, 117, 225, 148, 480
-0.997102, 51, 265, 66, 296
-0.99711, 91, 289, 106, 320
-0.99712, 129, 97, 160, 352
-0.997149, 313, 161, 328, 192
-0.99715, 53, 161, 84, 416
-0.997162, 191, 333, 206, 364
-0.997167, 97, 1, 160, 256
-0.997168, 221, 97, 252, 352
-0.997169, 105, 297, 120, 328
-0.997186, 297, 161, 312, 192
-0.997186, 97, 1, 160, 128
-0.997217, 161, 449, 288, 480
-0.997225, 145, 289, 272, 320
-0.997231, 37, 97, 68, 352
-0.997246, 145, 361, 272, 392
-0.997263, 311, 221, 326, 252
-0.997267, 173, 333, 188, 364
-0.997272, 97, 245, 224, 276
-0.997273, 125, 209, 140, 240
-0.997277, 291, 177, 306, 208
-0.997287, 147, 329, 162, 360
-0.997289, 93, 277, 108, 308
-0.997301, 183, 205, 198, 236
-0.997307, 297, 177, 312, 208
-0.99732, 245, 161, 276, 416
-0.997366, 159, 341, 174, 372
-0.997367, 299, 345, 314, 376
-0.997369, 291, 165, 306, 196
-0.997369, 257, 205, 272, 236
-0.997392, 1, 401, 128, 464
-0.997407, 151, 305, 166, 336
-0.997433, 273, 161, 304, 416
-0.997434, 139, 225, 154, 256
-0.997445, 187, 305, 202, 336
-0.997448, 293, 345, 308, 376
-0.997458, 195, 93, 210, 124
-0.99746, 107, 309, 122, 340
-0.997463, 161, 161, 288, 192
-0.997471, 145, 313, 160, 344
-0.997481, 209, 253, 335, 284
-0.997483, 209, 241, 335, 272
-0.997489, 149, 245, 164, 276
-0.997501, 181, 229, 196, 260
-0.997502, 67, 249, 82, 280
-0.997505, 97, 273, 224, 304
-0.997517, 309, 173, 324, 204
-0.997527, 17, 97, 144, 128
-0.997527, 49, 269, 176, 300
-0.997528, 121, 309, 136, 340
-0.997542, 99, 345, 114, 376
-0.997543, 249, 1, 312, 128
-0.997544, 265, 33, 296, 288
-0.997547, 159, 237, 174, 268
-0.997578, 153, 321, 168, 352
-0.997586, 65, 161, 96, 416
-0.997589, 181, 217, 196, 248
-0.997602, 209, 441, 335, 472
-0.997603, 191, 345, 206, 376
-0.997605, 315, 345, 330, 376
-0.997624, 177, 269, 304, 300
-0.997624, 303, 177, 318, 208
-0.997636, 131, 213, 146, 244
-0.997664, 167, 349, 182, 380
-0.997671, 149, 233, 164, 264
-0.997671, 135, 309, 150, 340
-0.997674, 305, 221, 320, 252
-0.997677, 295, 381, 310, 412
-0.997681, 187, 225, 202, 256
-0.997681, 45, 345, 60, 376
-0.997683, 45, 257, 76, 500
-0.997685, 21, 97, 52, 352
-0.997687, 269, 213, 284, 244
-0.997688, 161, 409, 288, 440
-0.997692, 313, 149, 328, 180
-0.997693, 139, 293, 154, 324
-0.997694, 311, 73, 326, 104
-0.997699, 1, 385, 335, 448
-0.9977, 65, 1, 128, 256
-0.997712, 1, 353, 128, 384
-0.997716, 309, 353, 324, 384
-0.997718, 97, 137, 224, 168
-0.997718, 319, 181, 334, 212
-0.997725, 35, 385, 50, 416
-0.997726, 169, 221, 184, 252
-0.997728, 161, 257, 288, 288
-0.997733, 223, 129, 238, 160
-0.997736, 193, 293, 208, 324
-0.997739, 159, 329, 174, 360
-0.997744, 279, 161, 294, 192
-0.997745, 207, 249, 222, 280
-0.997747, 85, 285, 100, 316
-0.997748, 51, 277, 66, 308
-0.997751, 175, 237, 190, 268
-0.997753, 243, 209, 258, 240
-0.997759, 229, 161, 244, 192
-0.997762, 145, 341, 160, 372
-0.997768, 117, 213, 132, 244
-0.997769, 145, 65, 176, 320
-0.997776, 203, 77, 218, 108
-0.997803, 37, 373, 52, 404
-0.997804, 285, 165, 300, 196
-0.997814, 59, 253, 74, 284
-0.99782, 217, 1, 248, 256
-0.997826, 137, 241, 152, 272
-0.997832, 317, 69, 332, 100
-0.997833, 263, 205, 278, 236
-0.997835, 321, 149, 335, 180
-0.997837, 89, 301, 104, 332
-0.997844, 109, 285, 124, 316
-0.997846, 283, 209, 298, 240
-0.997848, 165, 1, 196, 256
-0.997848, 283, 197, 298, 228
-0.99785, 33, 417, 160, 448
-0.997852, 297, 221, 312, 252
-0.997854, 43, 357, 58, 388
-0.997856, 293, 357, 308, 388
-0.997861, 151, 93, 166, 124
-0.997865, 173, 345, 188, 376
-0.997868, 209, 73, 224, 104
-0.99787, 65, 177, 192, 208
-0.997872, 115, 309, 130, 340
-0.997875, 177, 205, 192, 236
-0.997877, 73, 245, 88, 276
-0.997882, 129, 229, 144, 260
-0.997895, 49, 333, 64, 364
-0.997898, 285, 381, 300, 412
-0.997902, 17, 177, 144, 208
-0.997906, 285, 177, 300, 208
-0.997917, 21, 193, 52, 448
-0.997922, 109, 273, 124, 304
-0.997924, 203, 337, 218, 368
-0.997924, 197, 353, 212, 384
-0.997931, 197, 321, 212, 352
-0.997933, 111, 205, 126, 236
-0.997935, 81, 69, 208, 100
-0.997943, 275, 205, 290, 236
-0.997944, 105, 193, 136, 448
-0.997948, 65, 45, 192, 76
-0.997949, 317, 397, 332, 428
-0.997954, 319, 93, 334, 124
-0.997963, 209, 1, 335, 64
-0.997966, 173, 249, 188, 280
-0.997973, 237, 209, 252, 240
-0.997977, 135, 201, 150, 232
-0.997981, 175, 217, 190, 248
-0.997987, 237, 65, 268, 320
-0.997988, 97, 417, 224, 448
-0.997988, 305, 257, 335, 500
-0.997989, 321, 105, 335, 136
-0.997999, 145, 85, 160, 116
-0.998002, 199, 61, 214, 92
-0.99801, 81, 153, 208, 184
-0.998013, 113, 457, 240, 488
-0.998015, 43, 445, 58, 476
-0.998016, 233, 161, 264, 416
-0.998023, 153, 221, 168, 252
-0.998031, 215, 77, 230, 108
-0.998032, 185, 349, 200, 380
-0.998033, 279, 49, 294, 80
-0.998034, 201, 233, 216, 264
-0.998037, 117, 129, 148, 384
-0.998045, 1, 189, 128, 220
-0.998046, 179, 337, 194, 368
-0.998048, 189, 201, 204, 232
-0.998051, 51, 289, 66, 320
-0.99813, 9, 97, 40, 352
-0.998133, 97, 97, 128, 352
-0.998154, 145, 149, 272, 180
-0.998161, 177, 33, 304, 64
-0.99818, 1, 25, 335, 88
-0.998201, 217, 305, 280, 432
-0.998231, 81, 65, 112, 320
-0.998273, 193, 281, 320, 312
-0.998274, 1, 453, 128, 484
-0.998289, 265, 257, 296, 500
-0.998298, 49, 377, 176, 408
-0.998316, 65, 97, 192, 128
-0.998329, 261, 161, 292, 416
-0.998353, 209, 401, 335, 432
-0.998374, 113, 313, 176, 328
-0.99838, 157, 97, 188, 352
-0.998418, 145, 337, 208, 352
-0.998421, 113, 307, 176, 322
-0.998421, 81, 33, 208, 64
-0.998422, 201, 193, 232, 448
-0.998422, 269, 159, 300, 174
-0.998422, 181, 77, 212, 92
-0.998424, 37, 285, 68, 300
-0.998424, 305, 401, 335, 416
-0.998424, 177, 215, 208, 230
-0.998424, 97, 361, 128, 376
-0.998425, 225, 173, 256, 188
-0.998425, 305, 105, 335, 120
-0.998427, 189, 101, 220, 116
-0.998429, 269, 203, 300, 218
-0.998429, 73, 119, 104, 134
-0.99843, 289, 361, 320, 376
-0.99843, 165, 351, 196, 366
-0.998432, 277, 65, 308, 80
-0.998433, 297, 219, 328, 234
-0.998434, 49, 237, 80, 252
-0.998434, 145, 225, 176, 240
-0.998436, 205, 75, 236, 90
-0.998437, 181, 319, 212, 334
-0.998437, 109, 207, 140, 222
-0.998438, 73, 291, 136, 306
-0.998439, 161, 343, 224, 358
-0.998441, 293, 73, 324, 88
-0.998441, 285, 199, 316, 214
-0.998442, 165, 215, 196, 230
-0.998443, 41, 229, 72, 244
-0.998444, 197, 251, 228, 266
-0.998444, 1, 61, 128, 92
-0.998446, 193, 357, 224, 372
-0.998446, 133, 217, 164, 232
-0.998446, 145, 257, 176, 272
-0.998447, 105, 221, 168, 236
-0.998447, 197, 237, 228, 252
-0.998447, 281, 391, 312, 406
-0.998449, 165, 235, 196, 250
-0.998449, 49, 285, 80, 300
-0.998449, 185, 205, 216, 220
-0.99845, 289, 181, 320, 196
-0.99845, 65, 251, 96, 266
-0.998451, 157, 321, 188, 336
-0.998454, 257, 207, 288, 222
-0.998455, 69, 293, 100, 308
-0.998455, 93, 321, 124, 336
-0.998457, 25, 241, 88, 256
-0.998457, 81, 303, 112, 318
-0.998458, 185, 335, 216, 350
-0.998459, 205, 59, 236, 74
-0.998459, 293, 231, 324, 246
-0.99846, 273, 173, 335, 188
-0.998461, 293, 159, 324, 174
-0.998461, 277, 53, 308, 68
-0.998461, 101, 289, 132, 304
-0.998463, 257, 225, 320, 240
-0.998466, 113, 319, 176, 334
-0.998466, 73, 297, 136, 312
-0.998467, 105, 301, 168, 316
-0.998467, 93, 349, 124, 364
-0.99847, 137, 297, 168, 312
-0.998471, 77, 285, 108, 300
-0.998471, 121, 319, 152, 334
-0.998471, 185, 73, 248, 88
-0.998471, 141, 347, 172, 362
-0.998474, 225, 215, 256, 230
-0.998476, 145, 137, 272, 168
-0.998477, 185, 239, 216, 254
-0.998478, 173, 363, 204, 378
-0.998479, 177, 233, 208, 248
-0.99848, 305, 159, 335, 174
-0.99848, 73, 283, 136, 298
-0.998482, 153, 347, 184, 362
-0.998483, 233, 217, 296, 232
-0.998484, 105, 303, 136, 318
-0.998484, 77, 203, 108, 218
-0.998484, 273, 223, 304, 238
-0.998485, 189, 107, 220, 122
-0.998485, 133, 231, 164, 246
-0.998486, 161, 327, 192, 342
-0.998487, 189, 69, 220, 84
-0.998488, 125, 225, 156, 240
-0.998489, 89, 313, 152, 328
-0.99849, 117, 307, 148, 322
-0.998491, 177, 353, 208, 368
-0.998492, 61, 237, 92, 252
-0.998492, 169, 337, 232, 352
-0.998493, 189, 257, 220, 500
-0.998494, 285, 385, 316, 400
-0.998494, 225, 79, 256, 94
-0.998494, 189, 341, 220, 356
-0.998495, 57, 291, 88, 306
-0.998496, 305, 73, 335, 88
-0.998497, 273, 219, 335, 234
-0.998499, 117, 219, 148, 234
-0.998499, 89, 319, 152, 334
-0.9985, 193, 75, 224, 90
-0.998501, 137, 343, 200, 358
-0.998501, 25, 235, 88, 250
-0.998502, 49, 269, 80, 284
-0.998503, 129, 205, 160, 220
-0.998503, 165, 227, 196, 242
-0.998503, 301, 393, 332, 408
-0.998504, 133, 241, 164, 256
-0.998505, 285, 173, 316, 188
-0.998506, 197, 245, 228, 260
-0.998506, 201, 81, 232, 96
-0.998507, 161, 335, 192, 350
-0.998507, 61, 243, 92, 258
-0.998507, 93, 355, 124, 370
-0.998507, 177, 309, 304, 340
-0.998508, 289, 355, 320, 370
-0.998508, 149, 243, 180, 258
-0.998508, 89, 309, 120, 324
-0.998508, 81, 303, 144, 318
-0.998509, 129, 205, 192, 220
-0.998509, 189, 349, 220, 364
-0.99851, 301, 179, 332, 194
-0.998514, 253, 215, 284, 230
-0.998515, 25, 247, 88, 262
-0.998519, 129, 229, 192, 244
-0.998519, 165, 249, 196, 264
-0.99852, 165, 343, 196, 358
-0.998522, 105, 273, 120, 400
-0.998523, 177, 347, 208, 362
-0.998524, 141, 341, 172, 356
-0.998525, 137, 307, 200, 322
-0.998525, 237, 215, 268, 230
-0.998529, 81, 297, 112, 312
-0.998529, 57, 257, 88, 272
-0.998534, 153, 251, 216, 266
-0.998537, 17, 259, 80, 274
-0.998538, 201, 79, 264, 94
-0.998539, 129, 327, 192, 342
-0.998539, 89, 215, 152, 230
-0.998539, 113, 213, 176, 228
-0.998539, 113, 213, 144, 228
-0.99854, 141, 325, 172, 340
-0.99854, 9, 225, 40, 480
-0.99854, 273, 351, 335, 366
-0.99854, 305, 165, 335, 180
-0.998541, 165, 221, 196, 236
-0.998541, 17, 253, 80, 268
-0.998542, 117, 299, 148, 314
-0.998542, 125, 313, 156, 328
-0.998544, 129, 223, 192, 238
-0.998544, 265, 199, 328, 214
-0.998545, 273, 393, 335, 408
-0.998548, 81, 291, 112, 306
-0.998548, 49, 245, 112, 260
-0.998551, 245, 209, 276, 224
-0.998552, 169, 355, 232, 370
-0.998552, 233, 211, 296, 226
-0.998553, 273, 163, 335, 178
-0.998554, 137, 303, 168, 318
-0.998554, 145, 335, 176, 350
-0.998554, 105, 295, 168, 310
-0.998554, 305, 225, 335, 240
-0.998556, 137, 315, 200, 330
-0.998556, 273, 179, 335, 194
-0.998556, 73, 207, 136, 222
-0.998558, 41, 297, 104, 312
-0.998558, 49, 465, 176, 496
-0.998558, 181, 325, 212, 340
-0.99856, 141, 315, 172, 330
-0.998561, 285, 225, 316, 240
-0.998561, 169, 349, 232, 364
-0.998562, 105, 233, 168, 248
-0.998566, 137, 297, 200, 312
-0.998566, 93, 295, 124, 310
-0.998566, 73, 201, 136, 216
-0.998568, 57, 307, 120, 322
-0.998571, 105, 205, 168, 220
-0.998572, 17, 397, 144, 428
-0.998572, 297, 173, 328, 188
-0.998572, 93, 279, 124, 294
-0.998572, 57, 251, 120, 266
-0.998572, 265, 217, 296, 232
-0.998572, 273, 361, 335, 376
-0.998576, 141, 251, 172, 266
-0.998576, 145, 351, 208, 366
-0.998576, 41, 291, 104, 306
-0.998576, 57, 65, 88, 320
-0.998577, 73, 157, 136, 172
-0.998577, 161, 373, 224, 388
-0.998579, 249, 173, 312, 188
-0.99858, 289, 349, 320, 364
-0.998581, 273, 401, 335, 416
-0.998583, 137, 321, 200, 336
-0.998585, 233, 223, 296, 238
-0.998585, 273, 231, 335, 246
-0.998585, 105, 289, 168, 304
-0.998585, 105, 227, 168, 242
-0.998587, 209, 217, 272, 232
-0.998588, 145, 357, 208, 372
-0.998588, 105, 347, 168, 362
-0.998589, 249, 179, 312, 194
-0.998592, 129, 255, 192, 270
-0.998595, 249, 205, 312, 220
-0.998595, 161, 327, 224, 342
-0.998596, 101, 315, 132, 330
-0.998597, 301, 351, 332, 366
-0.998599, 65, 85, 192, 116
-0.998599, 273, 387, 335, 402
-0.998599, 153, 341, 184, 356
-0.9986, 113, 313, 144, 328
-0.9986, 161, 363, 224, 378
-0.998601, 313, 161, 328, 288
-0.998601, 253, 65, 284, 320
-0.998601, 49, 263, 80, 278
-0.998602, 49, 281, 112, 296
-0.998602, 289, 165, 320, 180
-0.998605, 97, 199, 160, 214
-0.998607, 1, 81, 128, 112
-0.998608, 273, 55, 335, 70
-0.998608, 41, 259, 104, 274
-0.998609, 153, 35, 216, 50
-0.99861, 201, 85, 264, 100
-0.99861, 161, 67, 224, 82
-0.99861, 177, 61, 240, 76
-0.998613, 273, 381, 335, 396
-0.998613, 137, 235, 200, 250
-0.998614, 49, 121, 112, 136
-0.998615, 57, 313, 120, 328
-0.998617, 89, 123, 152, 138
-0.998617, 161, 77, 224, 92
-0.998617, 121, 353, 184, 368
-0.998617, 93, 301, 124, 316
-0.998618, 209, 211, 272, 226
-0.998618, 145, 215, 208, 230
-0.998618, 33, 229, 96, 244
-0.998618, 257, 157, 320, 172
-0.998618, 169, 401, 232, 416
-0.998619, 89, 355, 152, 370
-0.99862, 137, 415, 200, 430
-0.998621, 273, 367, 335, 382
-0.998621, 73, 163, 136, 178
-0.998622, 217, 179, 280, 194
-0.998622, 173, 335, 204, 350
-0.998622, 185, 199, 248, 214
-0.998622, 273, 45, 335, 60
-0.998623, 201, 91, 264, 106
-0.998625, 97, 415, 160, 430
-0.998626, 89, 277, 152, 292
-0.998627, 17, 265, 80, 280
-0.998627, 49, 237, 112, 252
-0.998627, 177, 293, 240, 308
-0.998628, 89, 151, 152, 166
-0.998628, 81, 225, 144, 240
-0.998628, 273, 71, 335, 86
-0.998629, 185, 67, 248, 82
-0.998629, 145, 245, 208, 260
-0.998631, 121, 249, 184, 264
-0.998632, 89, 361, 152, 376
-0.998632, 177, 55, 240, 70
-0.998632, 185, 205, 248, 220
-0.998633, 145, 57, 208, 72
-0.998633, 1, 287, 64, 302
-0.998634, 273, 63, 335, 78
-0.998634, 273, 103, 335, 118
-0.998635, 273, 373, 335, 388
-0.998638, 257, 213, 320, 228
-0.99864, 89, 117, 152, 132
-0.99864, 89, 285, 120, 300
-0.99864, 249, 355, 312, 370
-0.998641, 273, 97, 335, 112
-0.998641, 153, 203, 216, 218
-0.998642, 161, 109, 224, 124
-0.998642, 217, 171, 280, 186
-0.998643, 97, 283, 160, 298
-0.998644, 201, 101, 264, 116
-0.998648, 321, 161, 335, 288
-0.998652, 141, 289, 156, 416
-0.998669, 137, 309, 168, 324
-0.998683, 229, 129, 244, 256
-0.998695, 101, 309, 132, 324
-0.998714, 99, 257, 114, 384
-0.998717, 183, 305, 198, 432
-0.998723, 143, 225, 158, 352
-0.998756, 255, 161, 270, 288
-0.998765, 129, 25, 256, 56
-0.998773, 247, 161, 262, 288
-0.998776, 307, 161, 322, 288
-0.99879, 1, 465, 128, 496
-0.998804, 307, 81, 322, 208
-0.998806, 147, 273, 162, 400
-0.99881, 301, 161, 316, 288
-0.998814, 57, 257, 88, 500
-0.998816, 167, 321, 182, 448
-0.998824, 49, 449, 176, 480
-0.998824, 321, 113, 335, 240
-0.998828, 295, 145, 310, 272
-0.998828, 81, 257, 112, 500
-0.998842, 261, 161, 276, 288
-0.998843, 161, 429, 288, 460
-0.998849, 153, 321, 168, 448
-0.998851, 35, 369, 50, 496
-0.99886, 49, 273, 64, 400
-0.998872, 293, 337, 308, 464
-0.998886, 177, 21, 304, 52
-0.998905, 241, 161, 256, 288
-0.998911, 283, 129, 298, 256
-0.998914, 301, 97, 316, 224
-0.998917, 303, 337, 318, 464
-0.998923, 189, 289, 204, 416
-0.998925, 267, 161, 282, 288
-0.998925, 313, 113, 328, 240
-0.998935, 141, 177, 156, 304
-0.998936, 277, 145, 292, 272
-0.998944, 57, 193, 72, 320
-0.998951, 161, 321, 176, 448
-0.998952, 293, 81, 308, 208
-0.998957, 289, 129, 304, 256
-0.998957, 287, 337, 302, 464
-0.99897, 135, 225, 150, 352
-0.998976, 97, 193, 112, 320
-0.99898, 149, 225, 164, 352
-0.998982, 65, 393, 192, 424
-0.998984, 235, 145, 250, 272
-0.998993, 175, 321, 190, 448
-0.998999, 103, 209, 118, 336
-0.999, 93, 257, 108, 384
-0.999, 115, 225, 130, 352
-0.999008, 223, 113, 238, 240
-0.999009, 97, 445, 224, 476
-0.999009, 195, 305, 210, 432
-0.999011, 89, 209, 104, 336
-0.999025, 277, 257, 308, 500
-0.999028, 171, 193, 186, 320
-0.99903, 217, 113, 232, 240
-0.999044, 1, 429, 128, 460
-0.99905, 1, 1, 64, 128
-0.999053, 29, 369, 44, 496
-0.999054, 65, 193, 80, 320
-0.999057, 75, 209, 90, 336
-0.99907, 61, 241, 76, 368
-0.999083, 217, 193, 248, 448
-0.999083, 153, 273, 168, 400
-0.999092, 135, 273, 150, 400
-0.999098, 129, 161, 144, 288
-0.999106, 211, 33, 226, 160
-0.999109, 181, 241, 196, 368
-0.99911, 205, 33, 220, 160
-0.999113, 201, 161, 216, 288
-0.999116, 195, 81, 210, 208
-0.999117, 1, 9, 256, 72
-0.99912, 317, 65, 332, 192
-0.999124, 93, 145, 108, 272
-0.999129, 69, 33, 100, 288
-0.99913, 43, 337, 58, 464
-0.999138, 209, 293, 335, 324
-0.999139, 43, 193, 58, 320
-0.999141, 153, 33, 168, 160
-0.999142, 183, 193, 198, 320
-0.999142, 283, 33, 298, 160
-0.999144, 155, 193, 170, 320
-0.999147, 55, 241, 70, 368
-0.999154, 147, 321, 162, 448
-0.999157, 1, 109, 128, 140
-0.999161, 309, 337, 324, 464
-0.999166, 51, 145, 66, 272
-0.999167, 105, 321, 120, 448
-0.999172, 127, 209, 142, 336
-0.999174, 87, 273, 102, 400
-0.999175, 143, 65, 158, 192
-0.999177, 191, 177, 206, 304
-0.999179, 51, 193, 66, 320
-0.99918, 223, 49, 238, 176
-0.999182, 277, 81, 292, 208
-0.999188, 109, 209, 124, 336
-0.999201, 69, 241, 84, 368
-0.999202, 111, 289, 126, 416
-0.999203, 301, 33, 316, 160
-0.999209, 221, 161, 236, 288
-0.999215, 287, 81, 302, 208
-0.999218, 97, 337, 112, 464
-0.999218, 85, 161, 100, 288
-0.999228, 271, 113, 286, 240
-0.99923, 201, 321, 216, 448
-0.999239, 277, 33, 292, 160
-0.99924, 159, 273, 174, 400
-0.99924, 89, 97, 104, 224
-0.999241, 161, 17, 176, 144
-0.999248, 175, 257, 190, 384
-0.999248, 217, 33, 232, 160
-0.999251, 31, 177, 46, 304
-0.999252, 309, 33, 324, 160
-0.999253, 215, 161, 230, 288
-0.999255, 297, 289, 312, 416
-0.999255, 135, 145, 150, 272
-0.999259, 175, 369, 190, 496
-0.999261, 209, 241, 224, 368
-0.999264, 125, 289, 140, 416
-0.999266, 303, 289, 318, 416
-0.999267, 117, 305, 132, 432
-0.999275, 113, 33, 144, 288
-0.999275, 195, 241, 210, 368
-0.999276, 195, 33, 210, 160
-0.999286, 259, 113, 274, 240
-0.999287, 251, 113, 266, 240
-0.999287, 207, 161, 222, 288
-0.999288, 79, 161, 94, 288
-0.999289, 209, 421, 335, 452
-0.999295, 187, 33, 202, 160
-0.999296, 109, 369, 124, 496
-0.999296, 57, 145, 72, 272
-0.999301, 107, 145, 122, 272
-0.999302, 55, 289, 70, 416
-0.999302, 167, 17, 182, 144
-0.999306, 49, 321, 64, 448
-0.999308, 209, 453, 335, 484
-0.999313, 47, 97, 62, 224
-0.999317, 281, 369, 296, 496
-0.999322, 245, 113, 260, 240
-0.999325, 163, 193, 178, 320
-0.999327, 189, 353, 204, 480
-0.999328, 207, 353, 222, 480
-0.999331, 265, 113, 280, 240
-0.999331, 195, 353, 210, 480
-0.999335, 235, 97, 250, 224
-0.999337, 177, 193, 192, 320
-0.999364, 1, 433, 335, 496
-0.999367, 1, 49, 128, 80
-0.99946, 253, 257, 284, 500
-0.99947, 65, 21, 192, 52
-0.999486, 21, 1, 52, 256
-0.999613, 1, 1, 32, 256
-0.999618, 1, 441, 128, 472
-0.999636, 51, 283, 66, 298
-0.999636, 129, 229, 144, 244
-0.999637, 97, 307, 112, 322
-0.999638, 161, 339, 176, 354
-0.999638, 153, 325, 168, 340
-0.999639, 145, 343, 160, 358
-0.999639, 167, 251, 182, 266
-0.99964, 281, 159, 296, 174
-0.99964, 97, 353, 112, 368
-0.99964, 313, 395, 328, 410
-0.999641, 187, 309, 202, 324
-0.999643, 135, 319, 150, 334
-0.999644, 79, 295, 94, 310
-0.999644, 109, 317, 124, 332
-0.999644, 277, 219, 292, 234
-0.999644, 77, 117, 92, 132
-0.999645, 145, 319, 160, 334
-0.999647, 175, 243, 190, 258
-0.999651, 209, 77, 224, 92
-0.999652, 265, 215, 280, 230
-0.999652, 153, 343, 168, 358
-0.999653, 161, 255, 176, 270
-0.999653, 117, 305, 132, 320
-0.999654, 195, 103, 210, 118
-0.999654, 129, 313, 144, 328
-0.999654, 127, 223, 142, 238
-0.999655, 285, 389, 300, 404
-0.999656, 207, 251, 222, 266
-0.999656, 253, 215, 268, 230
-0.999658, 161, 461, 288, 492
-0.999659, 289, 165, 304, 180
-0.999659, 295, 383, 310, 398
-0.99966, 177, 249, 192, 264
-0.99966, 187, 355, 202, 370
-0.99966, 147, 325, 162, 340
-0.999661, 243, 211, 258, 226
-0.999662, 143, 233, 158, 248
-0.999662, 137, 241, 152, 256
-0.999663, 133, 205, 148, 220
-0.999663, 293, 175, 308, 190
-0.999664, 187, 205, 202, 220
-0.999664, 125, 205, 140, 220
-0.999664, 161, 247, 176, 262
-0.999665, 309, 167, 324, 182
-0.999665, 99, 291, 114, 306
-0.999666, 303, 179, 318, 194
-0.99967, 321, 221, 335, 236
-0.999671, 137, 231, 152, 246
-0.999675, 293, 359, 308, 374
-0.999676, 181, 209, 196, 224
-0.999677, 191, 335, 206, 350
-0.999678, 271, 217, 286, 232
-0.999679, 291, 225, 306, 240
-0.999679, 173, 335, 188, 350
-0.99968, 141, 293, 156, 308
-0.99968, 181, 225, 196, 240
-0.99968, 309, 159, 324, 174
-0.999681, 287, 173, 302, 188
-0.999682, 153, 319, 168, 334
-0.999683, 89, 301, 104, 316
-0.999684, 105, 287, 120, 302
-0.999686, 155, 253, 170, 268
-0.999686, 141, 313, 156, 328
-0.999687, 69, 257, 100, 500
-0.999687, 51, 277, 66, 292
-0.999687, 175, 343, 190, 358
-0.999689, 185, 231, 200, 246
-0.999689, 127, 217, 142, 232
-0.999689, 197, 333, 212, 348
-0.999691, 133, 219, 148, 234
-0.999692, 151, 313, 166, 328
-0.999692, 315, 225, 330, 240
-0.999694, 103, 317, 118, 332
-0.999694, 205, 241, 220, 256
-0.999697, 189, 315, 204, 330
-0.999697, 311, 179, 326, 194
-0.999697, 147, 305, 162, 320
-0.999697, 307, 225, 322, 240
-0.999699, 303, 349, 318, 364
-0.999701, 153, 331, 168, 346
-0.999703, 67, 243, 82, 258
-0.999703, 301, 173, 316, 188
-0.999704, 147, 331, 162, 346
-0.999707, 143, 239, 158, 254
-0.999708, 283, 221, 298, 236
-0.999709, 65, 249, 80, 264
-0.99971, 87, 289, 102, 304
-0.999711, 97, 315, 112, 330
-0.999713, 167, 347, 182, 362
-0.999713, 181, 217, 196, 232
-0.999714, 197, 339, 212, 354
-0.999715, 121, 217, 136, 232
-0.999715, 107, 277, 122, 292
-0.999716, 93, 281, 108, 296
-0.999718, 297, 347, 312, 362
-0.99972, 147, 337, 162, 352
-0.99972, 51, 271, 66, 286
-0.999721, 211, 245, 226, 260
-0.999722, 181, 203, 196, 218
-0.999725, 159, 345, 174, 360
-0.999726, 303, 165, 318, 180
-0.999728, 193, 351, 208, 366
-0.999731, 139, 251, 154, 266
-0.999735, 149, 249, 164, 264
-0.999736, 191, 321, 206, 336
-0.999737, 101, 281, 116, 296
-0.999739, 135, 313, 150, 328
-0.999742, 309, 173, 324, 188
-0.999744, 301, 225, 316, 240
-0.999747, 317, 349, 332, 364
-0.99975, 67, 259, 82, 274
-0.999753, 123, 311, 138, 326
-0.999753, 143, 299, 158, 314
-0.999755, 167, 341, 182, 356
-0.999756, 63, 237, 78, 252
-0.999756, 317, 163, 332, 178
-0.999757, 153, 337, 168, 352
-0.999757, 291, 353, 306, 368
-0.999759, 111, 303, 126, 318
-0.999764, 59, 261, 74, 276
-0.999766, 85, 295, 100, 310
-0.999768, 51, 265, 66, 280
-0.999775, 107, 297, 122, 312
-0.999777, 117, 311, 132, 326
-0.99978, 183, 327, 198, 342
-0.999781, 125, 211, 140, 226
-0.999786, 193, 327, 208, 342
-0.999789, 103, 307, 118, 322
-0.999797, 111, 311, 126, 326
-0.9998, 95, 297, 110, 312
-0.999802, 93, 287, 108, 302
-0.999837, 37, 1, 68, 256
-0.999844, 143, 245, 158, 260
-0.999862, 133, 1, 164, 256
-0.999921, 113, 433, 240, 464
-0.999975, 241, 257, 272, 500
-1.0004, 97, 1, 128, 256
-1.00044, 1, 17, 128, 80
-1.00093, 229, 257, 260, 500
-1.00209, 1, 1, 335, 64
-1.00381, 33, 1, 96, 128
-1.00735, 65, 1, 128, 128
