1964
-0.299266, 1, 129, 500, 375
-0.395516, 1, 1, 500, 375
-0.404742, 1, 33, 500, 288
-0.413136, 257, 1, 500, 375
-0.480435, 33, 1, 288, 375
-0.501534, 129, 1, 384, 375
-0.554422, 129, 129, 384, 375
-0.567088, 225, 65, 480, 320
-0.619675, 33, 129, 288, 375
-0.681454, 97, 33, 352, 288
-0.717195, 1, 33, 256, 288
-0.830177, 321, 97, 448, 352
-0.842632, 1, 145, 500, 272
-0.844532, 353, 1, 480, 375
-0.845497, 369, 33, 496, 288
-0.854041, 113, 97, 240, 352
-0.856657, 369, 129, 496, 375
-0.858845, 225, 129, 352, 375
-0.859489, 81, 1, 208, 375
-0.86106, 161, 65, 288, 320
-0.861832, 273, 97, 400, 352
-0.863693, 65, 97, 192, 352
-0.863883, 17, 129, 144, 375
-0.866747, 1, 193, 500, 320
-0.870492, 1, 1, 128, 375
-0.874304, 1, 97, 500, 224
-0.875767, 113, 1, 240, 256
-0.876355, 129, 1, 256, 375
-0.883157, 1, 241, 500, 368
-0.889832, 305, 1, 432, 375
-0.890332, 241, 1, 368, 375
-0.893816, 97, 129, 352, 256
-0.894711, 177, 1, 304, 375
-0.896106, 1, 1, 128, 256
-0.898306, 1, 1, 500, 128
-0.898757, 33, 177, 288, 304
-0.904954, 193, 177, 448, 304
-0.90518, 321, 1, 448, 256
-0.905621, 209, 33, 336, 288
-0.905842, 49, 1, 176, 256
-0.908749, 257, 1, 384, 256
-0.908864, 257, 97, 500, 224
-0.914957, 161, 225, 416, 352
-0.919057, 65, 225, 320, 352
-0.92205, 321, 129, 448, 256
-0.922324, 257, 241, 500, 368
-0.923803, 1, 193, 128, 320
-0.924893, 305, 241, 432, 368
-0.925473, 369, 161, 496, 288
-0.926371, 113, 145, 240, 272
-0.927436, 257, 161, 384, 288
-0.927488, 393, 193, 456, 320
-0.928438, 353, 241, 480, 368
-0.928503, 401, 129, 464, 256
-0.929369, 321, 81, 448, 208
-0.9298, 425, 145, 488, 272
-0.929986, 65, 177, 192, 304
-0.930432, 1, 49, 500, 176
-0.930479, 153, 129, 216, 256
-0.931117, 1, 241, 128, 368
-0.931288, 1, 129, 256, 256
-0.931673, 409, 241, 472, 368
-0.93267, 129, 193, 256, 320
-0.93442, 321, 193, 448, 320
-0.934505, 417, 49, 480, 176
-0.935007, 57, 241, 120, 368
-0.935506, 41, 177, 104, 304
-0.935982, 377, 241, 440, 368
-0.936688, 369, 49, 496, 176
-0.937265, 353, 193, 416, 320
-0.937701, 25, 241, 88, 368
-0.938324, 329, 225, 392, 352
-0.938659, 97, 33, 352, 160
-0.938839, 1, 145, 128, 272
-0.939315, 257, 209, 384, 336
-0.939325, 65, 241, 192, 368
-0.939355, 129, 129, 192, 256
-0.939758, 225, 177, 288, 304
-0.940094, 129, 17, 256, 144
-0.940359, 177, 113, 304, 240
-0.940568, 129, 81, 384, 208
-0.940808, 1, 241, 64, 368
-0.941017, 417, 153, 480, 216
-0.941138, 25, 233, 88, 296
-0.941194, 369, 113, 496, 240
-0.941559, 209, 241, 272, 368
-0.941725, 433, 97, 496, 224
-0.941736, 169, 193, 232, 320
-0.941745, 257, 49, 500, 176
-0.942623, 49, 97, 176, 224
-0.942998, 193, 241, 320, 368
-0.943596, 345, 81, 408, 208
-0.943829, 257, 97, 320, 224
-0.944094, 209, 193, 336, 320
-0.944312, 241, 113, 368, 240
-0.944326, 353, 241, 416, 368
-0.944589, 233, 241, 296, 368
-0.945018, 97, 65, 224, 192
-0.945474, 393, 65, 456, 192
-0.945499, 1, 81, 256, 208
-0.946304, 9, 161, 72, 288
-0.947638, 377, 129, 440, 256
-0.948077, 233, 97, 296, 224
-0.948222, 105, 129, 168, 256
-0.948378, 113, 81, 176, 208
-0.948604, 289, 145, 352, 272
-0.949152, 193, 113, 256, 240
-0.949343, 65, 193, 128, 256
-0.94991, 433, 193, 496, 320
-0.950763, 25, 257, 88, 320
-0.951103, 393, 225, 456, 288
-0.951207, 49, 241, 112, 304
-0.95123, 113, 185, 176, 248
-0.951338, 89, 33, 152, 160
-0.951784, 161, 201, 224, 264
-0.951977, 201, 193, 264, 320
-0.95223, 233, 209, 296, 272
-0.952497, 305, 97, 368, 224
-0.95266, 41, 209, 104, 272
-0.952731, 209, 193, 272, 256
-0.952871, 201, 65, 264, 192
-0.953068, 129, 241, 256, 368
-0.953217, 33, 177, 96, 240
-0.95322, 209, 217, 272, 280
-0.953576, 385, 137, 448, 200
-0.953697, 97, 177, 160, 304
-0.953934, 9, 193, 72, 256
-0.954478, 345, 225, 408, 288
-0.954794, 65, 281, 128, 344
-0.954921, 121, 177, 184, 304
-0.954955, 377, 273, 440, 336
-0.95528, 329, 289, 392, 352
-0.955325, 281, 97, 344, 224
-0.955444, 137, 169, 200, 232
-0.955962, 169, 129, 232, 192
-0.956013, 233, 49, 296, 176
-0.956165, 65, 129, 128, 256
-0.9564, 425, 65, 488, 128
-0.95665, 369, 305, 432, 368
-0.956811, 169, 305, 232, 368
-0.957049, 249, 193, 312, 320
-0.957157, 33, 289, 96, 352
-0.957653, 73, 193, 136, 320
-0.957802, 145, 1, 208, 128
-0.957867, 313, 145, 376, 272
-0.958022, 137, 137, 200, 200
-0.958035, 177, 65, 304, 192
-0.958272, 353, 249, 416, 312
-0.958694, 209, 121, 272, 184
-0.958774, 425, 185, 488, 248
-0.95878, 49, 1, 176, 128
-0.958822, 9, 161, 72, 224
-0.958829, 409, 257, 472, 320
-0.959014, 329, 265, 392, 328
-0.95937, 145, 305, 208, 368
-0.959556, 233, 233, 296, 296
-0.959574, 137, 281, 200, 344
-0.959609, 233, 113, 296, 176
-0.959679, 113, 145, 176, 208
-0.959679, 377, 249, 440, 312
-0.959871, 257, 185, 320, 248
-0.959986, 17, 113, 80, 240
-0.960027, 297, 241, 360, 368
-0.960058, 169, 1, 232, 128
-0.960083, 289, 193, 352, 320
-0.960116, 433, 129, 496, 192
-0.960356, 393, 185, 456, 248
-0.960486, 273, 65, 400, 192
-0.960583, 113, 33, 176, 160
-0.960978, 1, 241, 64, 304
-0.96114, 249, 145, 312, 272
-0.961269, 201, 305, 264, 368
-0.961753, 409, 281, 472, 344
-0.961798, 81, 241, 144, 368
-0.961867, 353, 281, 416, 344
-0.961875, 137, 81, 200, 208
-0.961882, 49, 49, 176, 176
-0.961924, 185, 201, 248, 264
-0.962043, 297, 305, 360, 368
-0.96258, 433, 209, 496, 272
-0.962752, 433, 33, 496, 288
-0.962899, 145, 193, 208, 320
-0.963078, 257, 305, 320, 368
-0.963342, 81, 81, 144, 208
-0.963707, 49, 201, 176, 264
-0.963769, 369, 65, 432, 192
-0.963773, 121, 305, 184, 368
-0.963899, 401, 113, 464, 176
-0.964116, 89, 193, 152, 256
-0.964225, 225, 305, 288, 368
-0.964291, 369, 217, 432, 280
-0.964509, 1, 17, 128, 144
-0.964609, 433, 1, 496, 128
-0.964893, 57, 233, 88, 296
-0.964957, 97, 305, 160, 368
-0.965015, 401, 65, 464, 128
-0.965034, 185, 225, 248, 288
-0.965152, 413, 257, 444, 320
-0.965158, 425, 41, 488, 104
-0.965386, 177, 241, 240, 368
-0.965436, 209, 241, 272, 304
-0.965618, 337, 105, 400, 168
-0.965642, 321, 17, 448, 144
-0.965805, 41, 129, 104, 375
-0.966265, 393, 161, 456, 224
-0.966501, 41, 129, 104, 256
-0.966725, 257, 209, 320, 272
-0.966728, 225, 65, 352, 192
-0.966815, 353, 129, 416, 192
-0.966873, 321, 241, 384, 304
-0.966922, 241, 233, 272, 296
-0.966925, 153, 145, 184, 272
-0.966971, 17, 281, 144, 344
-0.967035, 145, 241, 208, 368
-0.967254, 337, 97, 400, 352
-0.967309, 221, 193, 252, 320
-0.967395, 341, 225, 372, 352
-0.967496, 393, 305, 456, 368
-0.967581, 401, 129, 464, 375
-0.967649, 25, 241, 56, 304
-0.967706, 233, 185, 296, 248
-0.967832, 337, 145, 464, 208
-0.967878, 281, 97, 344, 160
-0.96797, 433, 241, 496, 368
-0.967983, 441, 145, 472, 272
-0.968043, 1, 249, 128, 312
-0.96835, 357, 241, 388, 368
-0.968367, 73, 305, 136, 368
-0.96867, 289, 177, 352, 240
-0.968755, 73, 169, 136, 232
-0.968778, 433, 225, 464, 352
-0.968836, 193, 1, 448, 128
-0.968934, 1, 217, 64, 280
-0.969021, 213, 225, 244, 288
-0.969108, 45, 225, 76, 288
-0.969196, 1, 289, 64, 352
-0.969221, 257, 241, 320, 368
-0.969318, 413, 241, 444, 368
-0.969348, 361, 249, 392, 312
-0.969395, 453, 97, 484, 224
-0.969409, 1, 1, 256, 128
-0.969537, 365, 281, 396, 344
-0.969588, 313, 97, 376, 160
-0.969711, 49, 65, 112, 192
-0.969738, 33, 153, 96, 216
-0.969822, 425, 105, 488, 168
-0.969988, 41, 201, 72, 264
-0.970009, 125, 185, 156, 248
-0.970148, 429, 161, 460, 288
-0.970202, 273, 105, 400, 168
-0.970265, 65, 209, 96, 272
-0.970282, 409, 289, 440, 352
-0.970327, 385, 241, 416, 368
-0.970364, 401, 89, 464, 152
-0.970372, 469, 1, 500, 128
-0.970374, 1, 265, 64, 328
-0.970475, 89, 49, 152, 112
-0.97049, 425, 153, 456, 216
-0.9705, 133, 145, 164, 272
-0.970586, 261, 225, 292, 288
-0.970599, 353, 73, 416, 136
-0.97063, 121, 57, 184, 120
-0.970651, 53, 177, 84, 240
-0.970696, 45, 161, 76, 288
-0.970823, 425, 129, 488, 375
-0.970861, 417, 193, 448, 320
-0.97088, 85, 241, 116, 368
-0.97088, 177, 233, 304, 296
-0.971013, 385, 193, 416, 320
-0.97109, 161, 201, 288, 264
-0.971112, 65, 281, 192, 344
-0.971113, 193, 1, 256, 128
-0.971134, 353, 129, 416, 256
-0.971134, 161, 153, 224, 216
-0.971252, 113, 209, 176, 272
-0.971282, 305, 121, 368, 184
-0.971325, 305, 297, 432, 360
-0.9714, 369, 289, 496, 352
-0.971654, 305, 257, 432, 320
-0.971707, 337, 225, 464, 288
-0.971754, 213, 193, 244, 256
-0.971774, 257, 233, 384, 296
-0.971794, 409, 33, 472, 288
-0.97181, 97, 281, 160, 344
-0.971892, 1, 1, 64, 128
-0.97197, 309, 97, 340, 224
-0.972001, 121, 241, 184, 368
-0.972183, 153, 17, 216, 80
-0.972211, 257, 233, 320, 296
-0.972214, 229, 193, 260, 256
-0.972217, 257, 17, 384, 144
-0.972225, 37, 281, 68, 344
-0.972294, 161, 137, 192, 200
-0.972342, 41, 161, 72, 224
-0.972433, 345, 313, 408, 375
-0.972564, 113, 209, 240, 272
-0.972778, 273, 185, 304, 248
-0.972812, 1, 177, 128, 240
-0.972833, 413, 129, 444, 256
-0.972869, 441, 137, 472, 200
-0.97288, 1, 129, 64, 375
-0.972934, 165, 129, 196, 256
-0.973, 429, 233, 460, 296
-0.97303, 33, 225, 64, 352
-0.973054, 97, 81, 160, 144
-0.97308, 177, 1, 304, 128
-0.973155, 57, 289, 88, 352
-0.973285, 161, 305, 288, 368
-0.973291, 193, 281, 256, 344
-0.973301, 1, 97, 128, 224
-0.973304, 441, 161, 472, 224
-0.973311, 241, 193, 368, 256
-0.973341, 1, 177, 32, 304
-0.973353, 305, 281, 368, 344
-0.973363, 65, 209, 96, 336
-0.973393, 453, 169, 484, 232
-0.973462, 405, 121, 436, 184
-0.973464, 73, 257, 136, 320
-0.973471, 385, 17, 448, 144
-0.973476, 77, 257, 108, 320
-0.973482, 385, 257, 416, 320
-0.973508, 17, 1, 80, 64
-0.973712, 1, 169, 32, 232
-0.973785, 9, 137, 72, 200
-0.973848, 321, 105, 448, 168
-0.97392, 421, 297, 452, 360
-0.973925, 397, 241, 428, 368
-0.973937, 297, 129, 360, 375
-0.973945, 437, 257, 468, 320
-0.973983, 145, 137, 272, 200
-0.973987, 33, 313, 96, 375
-0.974027, 57, 17, 120, 80
-0.974039, 69, 185, 100, 248
-0.974075, 385, 33, 448, 288
-0.974103, 393, 297, 424, 360
-0.974131, 353, 257, 480, 320
-0.974135, 189, 129, 220, 256
-0.974197, 169, 1, 232, 256
-0.974285, 265, 49, 328, 176
-0.974321, 153, 169, 184, 232
-0.974347, 241, 241, 272, 368
-0.974352, 373, 249, 404, 312
-0.974402, 113, 1, 176, 64
-0.974423, 433, 281, 496, 344
-0.974564, 177, 305, 208, 368
-0.974656, 129, 49, 160, 176
-0.974675, 1, 201, 128, 264
-0.974747, 25, 289, 56, 352
-0.974765, 453, 113, 484, 176
-0.974786, 21, 161, 52, 224
-0.974807, 433, 65, 464, 128
-0.974928, 229, 217, 260, 280
-0.974944, 369, 169, 496, 232
-0.974945, 169, 281, 232, 344
-0.974946, 161, 81, 224, 208
-0.97496, 213, 241, 244, 368
-0.974971, 137, 209, 200, 272
-0.974979, 453, 161, 484, 288
-0.975011, 257, 113, 320, 176
-0.975045, 129, 233, 256, 296
-0.975061, 381, 209, 412, 272
-0.975081, 277, 233, 308, 296
-0.975103, 253, 97, 284, 224
-0.975104, 401, 217, 432, 280
-0.975111, 149, 137, 180, 200
-0.975113, 413, 145, 444, 208
-0.975135, 265, 97, 296, 224
-0.975231, 261, 225, 292, 352
-0.975393, 337, 257, 368, 320
-0.975457, 157, 305, 188, 368
-0.975515, 381, 281, 412, 344
-0.975536, 101, 193, 132, 256
-0.975568, 13, 161, 44, 288
-0.975578, 361, 225, 392, 288
-0.97559, 225, 305, 352, 368
-0.975691, 201, 81, 264, 144
-0.975698, 373, 305, 404, 368
-0.975754, 33, 145, 64, 272
-0.975787, 189, 305, 220, 368
-0.975884, 401, 265, 432, 328
-0.975944, 185, 1, 248, 64
-0.975957, 313, 161, 376, 224
-0.975972, 233, 257, 296, 320
-0.975979, 257, 129, 384, 192
-0.976003, 49, 153, 176, 216
-0.976004, 25, 265, 56, 328
-0.976015, 113, 33, 176, 96
-0.976039, 413, 225, 444, 288
-0.976042, 1, 225, 128, 288
-0.976102, 233, 121, 264, 184
-0.976108, 233, 57, 296, 120
-0.976113, 193, 201, 224, 264
-0.976124, 65, 305, 192, 368
-0.976207, 369, 113, 496, 176
-0.976209, 225, 89, 288, 152
-0.976213, 141, 97, 172, 224
-0.976241, 433, 65, 464, 192
-0.976243, 361, 193, 392, 320
-0.976329, 37, 257, 68, 320
-0.976365, 377, 113, 440, 176
-0.976417, 245, 193, 276, 320
-0.976476, 377, 57, 440, 120
-0.976476, 121, 89, 184, 152
-0.97648, 253, 201, 284, 264
-0.976521, 21, 225, 52, 352
-0.976621, 81, 193, 112, 256
-0.976623, 345, 33, 408, 160
-0.97664, 153, 233, 184, 296
-0.976664, 353, 73, 480, 136
-0.976701, 121, 113, 184, 176
-0.976748, 233, 177, 264, 304
-0.976785, 229, 241, 260, 368
-0.976823, 57, 145, 88, 272
-0.976828, 65, 1, 128, 128
-0.976846, 113, 305, 240, 368
-0.976852, 397, 193, 428, 320
-0.976859, 469, 129, 500, 256
-0.976863, 177, 113, 208, 240
-0.976866, 81, 129, 144, 375
-0.976874, 257, 177, 288, 304
-0.976889, 373, 241, 404, 368
-0.976918, 193, 121, 320, 184
-0.976928, 53, 201, 84, 264
-0.976993, 225, 97, 288, 352
-0.977054, 65, 217, 128, 280
-0.977062, 13, 113, 44, 240
-0.977183, 145, 281, 176, 344
-0.977258, 361, 97, 424, 352
-0.977259, 373, 193, 404, 320
-0.977261, 417, 233, 480, 296
-0.977274, 201, 129, 232, 256
-0.977287, 205, 129, 236, 192
-0.977312, 145, 305, 176, 368
-0.977474, 297, 97, 328, 224
-0.977516, 369, 1, 496, 128
-0.977547, 241, 193, 272, 256
-0.977625, 209, 305, 240, 368
-0.977646, 173, 137, 204, 200
-0.977646, 353, 297, 384, 360
-0.977652, 137, 177, 168, 240
-0.977665, 157, 241, 188, 368
-0.977772, 49, 241, 176, 304
-0.977805, 445, 65, 476, 128
-0.977854, 305, 49, 368, 176
-0.977876, 161, 105, 224, 168
-0.977904, 461, 49, 492, 176
-0.977913, 137, 145, 168, 208
-0.977917, 417, 305, 480, 368
-0.977965, 129, 169, 256, 232
-0.978019, 121, 97, 184, 352
-0.978025, 9, 313, 72, 375
-0.978068, 65, 177, 192, 240
-0.978099, 69, 233, 100, 296
-0.978165, 25, 1, 88, 128
-0.978165, 201, 193, 232, 320
-0.978268, 129, 281, 256, 344
-0.978312, 173, 201, 204, 264
-0.978323, 369, 193, 496, 256
-0.978344, 157, 281, 188, 344
-0.978348, 453, 89, 484, 152
-0.978362, 393, 121, 424, 184
-0.978394, 173, 193, 204, 320
-0.978404, 25, 193, 56, 256
-0.978406, 273, 193, 304, 320
-0.978559, 257, 249, 288, 312
-0.978613, 221, 305, 252, 368
-0.978643, 461, 137, 492, 200
-0.978692, 413, 193, 444, 256
-0.978743, 225, 257, 256, 320
-0.978778, 277, 305, 308, 368
-0.978787, 325, 145, 356, 272
-0.978788, 81, 177, 112, 304
-0.97879, 305, 177, 336, 240
-0.978883, 301, 305, 332, 368
-0.978918, 225, 97, 352, 160
-0.978955, 105, 257, 168, 320
-0.979004, 341, 233, 372, 296
-0.979011, 153, 209, 184, 272
-0.979017, 145, 41, 208, 104
-0.979068, 125, 97, 156, 224
-0.979094, 17, 305, 144, 368
-0.979129, 193, 41, 256, 104
-0.979193, 225, 265, 352, 328
-0.979211, 321, 305, 352, 368
-0.979231, 245, 49, 276, 176
-0.979247, 429, 113, 460, 240
-0.979256, 401, 113, 432, 240
-0.979292, 61, 257, 92, 320
-0.979297, 153, 193, 184, 320
-0.979333, 289, 305, 320, 368
-0.979349, 401, 1, 464, 375
-0.979406, 465, 169, 496, 232
-0.979436, 237, 305, 268, 368
-0.979508, 161, 233, 224, 296
-0.979544, 141, 209, 172, 272
-0.979552, 117, 33, 148, 160
-0.979556, 109, 297, 140, 360
-0.979558, 281, 121, 344, 184
-0.979584, 329, 169, 360, 232
-0.979611, 217, 281, 280, 344
-0.979617, 425, 1, 488, 375
-0.979672, 5, 257, 36, 320
-0.979688, 273, 81, 400, 144
-0.979737, 69, 297, 100, 360
-0.979741, 217, 113, 248, 176
-0.979752, 265, 305, 296, 368
-0.979762, 353, 313, 480, 375
-0.979836, 49, 49, 176, 112
-0.979985, 309, 97, 340, 160
-0.979988, 89, 17, 152, 80
-0.979999, 469, 17, 500, 80
-0.980007, 377, 89, 440, 152
-0.980024, 45, 209, 76, 336
-0.980101, 233, 1, 296, 128
-0.980107, 133, 297, 164, 360
-0.980125, 153, 129, 216, 375
-0.980272, 401, 41, 464, 104
-0.980311, 381, 81, 412, 208
-0.980336, 337, 97, 368, 224
-0.98034, 281, 97, 312, 224
-0.980352, 249, 305, 280, 368
-0.98036, 121, 73, 152, 136
-0.980368, 141, 193, 172, 320
-0.980427, 17, 65, 80, 192
-0.980489, 289, 201, 352, 264
-0.980491, 49, 257, 80, 320
-0.980501, 37, 305, 68, 368
-0.980516, 357, 65, 388, 192
-0.980518, 97, 25, 224, 88
-0.980526, 297, 145, 328, 272
-0.980563, 233, 129, 264, 256
-0.980575, 401, 241, 432, 304
-0.980578, 241, 281, 304, 344
-0.980601, 421, 49, 452, 176
-0.980612, 177, 177, 240, 240
-0.980717, 273, 241, 304, 368
-0.980722, 405, 49, 436, 176
-0.980757, 273, 169, 400, 232
-0.980832, 89, 281, 120, 344
-0.980836, 97, 137, 224, 200
-0.980851, 441, 89, 472, 152
-0.980863, 81, 97, 208, 160
-0.980957, 337, 289, 368, 352
-0.980974, 313, 57, 376, 120
-0.981011, 137, 1, 200, 256
-0.981181, 185, 105, 248, 168
-0.981184, 433, 185, 464, 248
-0.98127, 213, 281, 244, 344
-0.981284, 277, 145, 308, 272
-0.981287, 461, 65, 492, 128
-0.981394, 121, 305, 152, 368
-0.9814, 201, 225, 232, 288
-0.981402, 113, 97, 144, 224
-0.981405, 185, 97, 248, 352
-0.981445, 389, 233, 420, 296
-0.981535, 1, 1, 64, 256
-0.981538, 137, 1, 200, 375
-0.981558, 321, 97, 352, 224
-0.98164, 65, 161, 96, 224
-0.981822, 1, 153, 128, 216
-0.981825, 365, 73, 396, 136
-0.981846, 445, 209, 476, 272
-0.98185, 409, 1, 472, 128
-0.981926, 173, 281, 204, 344
-0.981949, 89, 257, 120, 320
-0.981959, 353, 273, 384, 336
-0.981983, 33, 1, 96, 375
-0.981998, 1, 241, 32, 368
-0.982084, 453, 41, 484, 104
-0.98213, 325, 137, 356, 200
-0.982132, 309, 145, 340, 272
-0.982159, 273, 97, 336, 352
-0.982167, 425, 273, 456, 336
-0.982179, 201, 241, 232, 368
-0.982234, 121, 145, 152, 272
-0.982251, 273, 209, 304, 272
-0.982279, 289, 105, 320, 168
-0.982324, 177, 273, 304, 336
-0.982363, 321, 169, 448, 232
-0.982557, 297, 1, 360, 256
-0.982566, 449, 49, 480, 176
-0.982778, 73, 113, 104, 240
-0.982857, 141, 49, 172, 176
-0.982984, 233, 65, 264, 192
-0.983048, 109, 145, 140, 272
-0.983056, 1, 129, 32, 256
-0.98324, 89, 33, 152, 288
-0.983335, 33, 129, 160, 192
-0.98334, 289, 193, 416, 256
-0.983406, 217, 49, 248, 176
-0.983415, 25, 97, 56, 224
-0.983463, 81, 1, 208, 64
-0.983495, 177, 1, 208, 128
-0.983628, 113, 1, 176, 256
-0.983743, 177, 9, 304, 72
-0.983759, 113, 193, 144, 320
-0.984024, 193, 1, 256, 256
-0.98405, 353, 49, 480, 112
-0.98411, 393, 49, 424, 176
-0.984122, 385, 129, 416, 256
-0.984132, 113, 49, 240, 112
-0.984221, 17, 25, 144, 88
-0.984233, 457, 1, 488, 128
-0.984496, 221, 97, 252, 224
-0.984527, 145, 1, 176, 128
-0.984541, 129, 113, 256, 176
-0.98458, 457, 209, 488, 336
-0.984699, 337, 161, 368, 288
-0.984804, 129, 1, 160, 128
-0.984843, 57, 1, 120, 375
-0.984937, 273, 1, 336, 256
-0.985023, 33, 73, 160, 136
-0.985078, 81, 73, 208, 136
-0.985144, 89, 113, 120, 240
-0.985169, 161, 1, 224, 375
-0.985428, 41, 1, 104, 256
-0.985437, 209, 1, 240, 128
-0.985497, 97, 177, 128, 304
-0.98577, 105, 33, 136, 160
-0.985824, 345, 1, 408, 375
-0.985895, 249, 97, 312, 352
-0.985954, 369, 25, 496, 88
-0.986019, 329, 241, 360, 368
-0.986054, 285, 193, 316, 320
-0.986177, 369, 65, 400, 192
-0.986218, 177, 97, 304, 160
-0.986221, 145, 241, 176, 368
-0.986367, 33, 105, 160, 168
-0.98637, 177, 177, 304, 240
-0.986447, 1, 49, 128, 112
-0.986543, 201, 1, 264, 375
-0.986582, 189, 193, 220, 320
-0.986589, 369, 1, 432, 375
-0.986661, 129, 193, 160, 320
-0.9867, 445, 241, 476, 368
-0.986728, 113, 257, 240, 320
-0.986817, 129, 73, 256, 136
-0.986909, 45, 113, 76, 240
-0.987308, 97, 241, 128, 368
-0.987343, 225, 169, 352, 232
-0.987422, 1, 1, 32, 128
-0.987442, 153, 97, 184, 224
-0.987477, 61, 97, 92, 224
-0.987617, 245, 145, 276, 272
-0.987642, 161, 33, 288, 96
-0.9877, 241, 57, 368, 120
-0.987828, 209, 253, 272, 284
-0.987932, 369, 241, 432, 272
-0.987952, 25, 193, 88, 224
-0.987986, 109, 241, 140, 368
-0.988046, 377, 297, 440, 328
-0.988063, 225, 125, 288, 156
-0.988168, 9, 1, 72, 375
-0.988179, 305, 1, 368, 128
-0.988179, 25, 257, 88, 288
-0.988184, 33, 237, 96, 268
-0.988205, 385, 133, 448, 164
-0.988214, 417, 173, 480, 204
-0.988325, 65, 201, 128, 232
-0.988343, 89, 193, 152, 224
-0.988353, 1, 49, 32, 176
-0.988386, 197, 81, 228, 208
-0.98839, 33, 209, 288, 272
-0.988404, 201, 133, 264, 164
-0.988413, 97, 1, 160, 375
-0.988493, 401, 253, 464, 284
-0.988507, 377, 253, 440, 284
-0.988512, 217, 225, 280, 256
-0.988522, 269, 49, 300, 176
-0.988543, 25, 285, 88, 316
-0.988562, 409, 277, 472, 308
-0.988597, 401, 145, 464, 176
-0.988717, 137, 141, 200, 172
-0.988743, 249, 125, 312, 156
-0.988751, 57, 277, 120, 308
-0.988784, 69, 161, 100, 288
-0.988793, 17, 177, 80, 208
-0.988823, 1, 249, 64, 280
-0.988875, 241, 1, 304, 375
-0.988877, 49, 257, 112, 288
-0.988892, 329, 301, 392, 332
-0.988937, 241, 237, 304, 268
-0.988948, 169, 241, 200, 368
-0.988966, 377, 281, 440, 312
-0.988987, 129, 137, 384, 200
-0.989, 49, 189, 112, 220
-0.989016, 161, 201, 416, 264
-0.98902, 25, 297, 88, 328
-0.989033, 17, 205, 80, 236
-0.989045, 169, 133, 232, 164
-0.989052, 129, 1, 256, 64
-0.989062, 329, 289, 392, 320
-0.989063, 65, 305, 128, 336
-0.989087, 193, 145, 320, 208
-0.989098, 25, 269, 88, 300
-0.989122, 377, 265, 440, 296
-0.989139, 33, 313, 96, 344
-0.989141, 417, 185, 480, 216
-0.989207, 257, 177, 500, 240
-0.989212, 241, 217, 304, 248
-0.989234, 329, 253, 392, 284
-0.989236, 337, 241, 400, 272
-0.98926, 113, 201, 176, 232
-0.989269, 197, 1, 228, 128
-0.989269, 297, 1, 360, 375
-0.989288, 417, 157, 480, 188
-0.989297, 169, 149, 232, 180
-0.989355, 409, 265, 472, 296
-0.989357, 1, 193, 64, 224
-0.989359, 213, 145, 244, 272
-0.98937, 193, 233, 256, 264
-0.989386, 9, 165, 72, 196
-0.989417, 153, 25, 216, 56
-0.989419, 129, 305, 384, 368
-0.989465, 165, 1, 196, 128
-0.989487, 257, 225, 500, 288
-0.989553, 129, 241, 160, 368
-0.989572, 329, 269, 392, 300
-0.989573, 177, 65, 208, 192
-0.989595, 273, 121, 336, 152
-0.989655, 445, 1, 476, 128
-0.989673, 337, 1, 400, 256
-0.989691, 417, 289, 480, 320
-0.989746, 121, 153, 184, 184
-0.989757, 65, 289, 128, 320
-0.989759, 337, 49, 368, 176
-0.98977, 317, 193, 348, 320
-0.989774, 425, 69, 488, 100
-0.989809, 353, 293, 416, 324
-0.989849, 9, 309, 72, 340
-0.989872, 377, 317, 440, 348
-0.989883, 33, 233, 288, 296
-0.98996, 361, 1, 424, 256
-0.989969, 105, 309, 168, 340
-0.989971, 257, 105, 500, 168
-0.989974, 417, 129, 480, 160
-0.989977, 249, 193, 312, 224
-0.990007, 193, 145, 256, 176
-0.990047, 217, 201, 280, 232
-0.990049, 209, 265, 272, 296
-0.990069, 153, 229, 216, 260
-0.990086, 209, 33, 336, 96
-0.990089, 393, 233, 456, 264
-0.990108, 417, 81, 480, 112
-0.990125, 273, 33, 400, 96
-0.990162, 33, 185, 288, 248
-0.990168, 1, 217, 64, 248
-0.990169, 1, 1, 128, 64
-0.990176, 1, 281, 500, 344
-0.990183, 433, 141, 496, 172
-0.990195, 409, 301, 472, 332
-0.990205, 193, 205, 256, 236
-0.990207, 353, 313, 416, 344
-0.990264, 49, 213, 112, 244
-0.990264, 417, 57, 480, 88
-0.990306, 353, 141, 416, 172
-0.990326, 273, 185, 336, 216
-0.990331, 97, 57, 160, 88
-0.990335, 89, 205, 152, 236
-0.990341, 137, 309, 200, 340
-0.990356, 297, 121, 360, 152
-0.990358, 305, 137, 368, 168
-0.990372, 241, 257, 304, 288
-0.990398, 105, 181, 168, 212
-0.990409, 417, 209, 480, 240
-0.990414, 201, 121, 264, 152
-0.990415, 169, 241, 232, 272
-0.990441, 225, 137, 288, 168
-0.990457, 137, 209, 200, 240
-0.990468, 129, 177, 192, 208
-0.990509, 417, 45, 480, 76
-0.990511, 153, 161, 216, 192
-0.990538, 113, 73, 176, 104
-0.990538, 265, 109, 328, 140
-0.990544, 353, 253, 416, 284
-0.990569, 161, 309, 224, 340
-0.990579, 185, 77, 248, 108
-0.990595, 185, 221, 248, 252
-0.990615, 49, 325, 112, 356
-0.990683, 33, 225, 96, 256
-0.99069, 225, 289, 480, 352
-0.990705, 345, 225, 408, 256
-0.990707, 353, 281, 416, 312
-0.990708, 9, 153, 72, 184
-0.990723, 401, 113, 464, 144
-0.990724, 1, 265, 64, 296
-0.990732, 129, 233, 192, 264
-0.990737, 393, 157, 456, 188
-0.990754, 433, 197, 496, 228
-0.990756, 1, 185, 500, 248
-0.990775, 217, 241, 280, 272
-0.990787, 1, 121, 500, 184
-0.99079, 169, 205, 232, 236
-0.990793, 145, 277, 208, 308
-0.990809, 193, 65, 320, 128
-0.990819, 233, 113, 296, 144
-0.990848, 353, 265, 416, 296
-0.99087, 369, 217, 432, 248
-0.990871, 225, 1, 352, 64
-0.990877, 177, 21, 240, 52
-0.990895, 73, 77, 136, 108
-0.990912, 1, 305, 256, 368
-0.990922, 1, 229, 64, 260
-0.990926, 185, 9, 248, 40
-0.990933, 209, 81, 272, 112
-0.990936, 113, 213, 176, 244
-0.990952, 73, 325, 136, 356
-0.990964, 1, 145, 500, 208
-0.99098, 169, 265, 232, 296
-0.990982, 185, 309, 248, 340
-0.990991, 433, 101, 496, 132
-0.991001, 161, 249, 416, 312
-0.991008, 57, 245, 120, 276
-0.991022, 73, 265, 136, 296
-0.991023, 113, 85, 176, 116
-0.991039, 1, 225, 500, 288
-0.991061, 65, 33, 128, 288
-0.99109, 105, 289, 168, 320
-0.99109, 345, 93, 408, 124
-0.991121, 401, 197, 464, 228
-0.991126, 97, 141, 160, 172
-0.991162, 217, 309, 280, 340
-0.991249, 225, 1, 288, 256
-0.991396, 265, 1, 328, 128
-0.991463, 33, 281, 288, 344
-0.99157, 305, 57, 432, 120
-0.991611, 369, 1, 496, 64
-0.991696, 1, 305, 500, 368
-0.99173, 409, 253, 440, 284
-0.99179, 33, 161, 288, 224
-0.991834, 257, 153, 500, 216
-0.991842, 237, 249, 268, 280
-0.991876, 229, 129, 260, 160
-0.9919, 261, 245, 292, 276
-0.991908, 217, 257, 248, 288
-0.991912, 409, 293, 440, 324
-0.991914, 441, 165, 472, 196
-0.991916, 125, 197, 156, 228
-0.991927, 413, 281, 444, 312
-0.991941, 361, 289, 392, 320
-0.991953, 25, 253, 56, 284
-0.991954, 365, 249, 396, 280
-0.991992, 257, 121, 288, 152
-0.992045, 225, 245, 256, 276
-0.992061, 201, 133, 232, 164
-0.992071, 161, 113, 416, 176
-0.992097, 389, 289, 420, 320
-0.992107, 1, 257, 500, 320
-0.992119, 29, 301, 60, 332
-0.992128, 61, 313, 92, 344
-0.992139, 49, 201, 176, 232
-0.992141, 61, 293, 92, 324
-0.99216, 321, 1, 384, 375
-0.992169, 213, 129, 244, 160
-0.992177, 401, 241, 432, 272
-0.992179, 41, 293, 72, 324
-0.992182, 417, 269, 448, 300
-0.992185, 1, 173, 32, 204
-0.99219, 29, 185, 60, 216
-0.992197, 49, 305, 80, 336
-0.992198, 137, 181, 168, 212
-0.992203, 33, 241, 64, 272
-0.992217, 1, 137, 256, 200
-0.992228, 429, 157, 460, 188
-0.992243, 397, 133, 428, 164
-0.992247, 369, 301, 400, 332
-0.992253, 381, 301, 412, 332
-0.992259, 245, 121, 276, 152
-0.992259, 377, 241, 408, 272
-0.992259, 249, 241, 280, 272
-0.992261, 265, 1, 328, 375
-0.992268, 97, 197, 128, 228
-0.992292, 393, 301, 424, 332
-0.992306, 49, 185, 80, 216
-0.992308, 17, 189, 48, 220
-0.992328, 229, 261, 260, 292
-0.992329, 85, 193, 116, 224
-0.992332, 265, 233, 296, 264
-0.992332, 149, 173, 180, 204
-0.992338, 49, 189, 176, 220
-0.992356, 357, 261, 388, 292
-0.992367, 409, 137, 440, 168
-0.992367, 41, 205, 72, 236
-0.992371, 17, 201, 48, 232
-0.992374, 453, 169, 484, 200
-0.992396, 197, 145, 228, 176
-0.9924, 417, 149, 448, 180
-0.9924, 429, 173, 460, 204
-0.992408, 53, 197, 84, 228
-0.992409, 441, 141, 472, 172
-0.992412, 301, 121, 332, 152
-0.992421, 177, 25, 208, 56
-0.992429, 277, 233, 308, 264
-0.99244, 225, 229, 256, 260
-0.992442, 205, 225, 236, 256
-0.992443, 109, 193, 140, 224
-0.992446, 389, 237, 420, 268
-0.992447, 53, 237, 84, 268
-0.992472, 185, 141, 216, 172
-0.992477, 441, 153, 472, 184
-0.992485, 69, 193, 100, 224
-0.992487, 405, 305, 436, 336
-0.992487, 157, 141, 188, 172
-0.992488, 53, 257, 84, 288
-0.99249, 437, 269, 468, 300
-0.99249, 25, 289, 56, 320
-0.992495, 421, 297, 452, 328
-0.992495, 53, 221, 84, 252
-0.992496, 65, 241, 96, 272
-0.992499, 137, 149, 168, 180
-0.9925, 377, 253, 408, 284
-0.992501, 41, 173, 72, 204
-0.992504, 77, 261, 108, 292
-0.992505, 213, 141, 244, 172
-0.992508, 13, 173, 44, 204
-0.992511, 257, 257, 288, 288
-0.992513, 381, 313, 412, 344
-0.992523, 201, 237, 232, 268
-0.992525, 341, 289, 372, 320
-0.992538, 1, 201, 32, 232
-0.992539, 37, 313, 68, 344
-0.992546, 453, 105, 484, 136
-0.992546, 401, 317, 432, 348
-0.99255, 269, 121, 300, 152
-0.992551, 25, 273, 56, 304
-0.992556, 453, 157, 484, 188
-0.992557, 217, 193, 232, 256
-0.992563, 453, 93, 484, 124
-0.992566, 125, 185, 156, 216
-0.992572, 173, 137, 204, 168
-0.992584, 389, 249, 420, 280
-0.992586, 185, 153, 216, 184
-0.992589, 169, 161, 200, 192
-0.9926, 373, 285, 404, 316
-0.992601, 465, 173, 496, 204
-0.992608, 245, 261, 276, 292
-0.99261, 17, 161, 48, 192
-0.992615, 29, 201, 60, 232
-0.992615, 425, 237, 456, 268
-0.992619, 221, 77, 252, 108
-0.99262, 1, 185, 32, 216
-0.992622, 29, 173, 60, 204
-0.992624, 337, 265, 368, 296
-0.992624, 65, 269, 96, 300
-0.992633, 313, 125, 344, 156
-0.992637, 265, 193, 296, 224
-0.99264, 157, 161, 188, 192
-0.99265, 401, 269, 432, 300
-0.992652, 281, 129, 312, 160
-0.992653, 41, 229, 72, 260
-0.992653, 341, 253, 372, 284
-0.992654, 433, 249, 464, 280
-0.992656, 417, 169, 448, 200
-0.992658, 49, 317, 80, 348
-0.992659, 41, 257, 72, 288
-0.992661, 153, 213, 184, 244
-0.992667, 153, 233, 184, 264
-0.992675, 357, 277, 388, 308
-0.992676, 53, 209, 84, 240
-0.992678, 141, 309, 172, 340
-0.99268, 261, 133, 292, 164
-0.992684, 369, 317, 400, 348
-0.992689, 61, 281, 92, 312
-0.992693, 289, 117, 320, 148
-0.992696, 21, 241, 52, 272
-0.992699, 273, 245, 304, 276
-0.992699, 41, 281, 72, 312
-0.992701, 73, 305, 104, 336
-0.992746, 305, 293, 432, 324
-0.992842, 337, 153, 464, 184
-0.992844, 17, 289, 144, 320
-0.992848, 43, 233, 58, 296
-0.992855, 257, 129, 500, 192
-0.992917, 273, 9, 400, 72
-0.99293, 61, 217, 76, 280
-0.992939, 17, 277, 144, 308
-0.992945, 1, 245, 128, 276
-0.992956, 161, 225, 416, 288
-0.992973, 1, 261, 128, 292
-0.993107, 129, 161, 384, 224
-0.99312, 49, 225, 64, 288
-0.993122, 305, 261, 432, 292
-0.993146, 221, 217, 236, 280
-0.993161, 257, 249, 500, 312
-0.993172, 369, 285, 496, 316
-0.993266, 77, 257, 92, 320
-0.993275, 67, 193, 82, 256
-0.993292, 225, 125, 352, 156
-0.993296, 129, 73, 384, 136
-0.993345, 369, 141, 496, 172
-0.993453, 453, 161, 468, 224
-0.993463, 405, 217, 420, 280
-0.99347, 257, 201, 500, 264
-0.993471, 173, 129, 188, 192
-0.993481, 305, 281, 432, 312
-0.993485, 353, 257, 480, 288
-0.993493, 1, 193, 128, 224
-0.993517, 385, 289, 400, 352
-0.993528, 67, 225, 82, 288
-0.993528, 321, 241, 448, 272
-0.993546, 49, 201, 64, 264
-0.993548, 79, 201, 94, 264
-0.993548, 33, 301, 160, 332
-0.993551, 73, 233, 88, 296
-0.993559, 385, 249, 400, 312
-0.99357, 35, 249, 50, 312
-0.993589, 431, 145, 446, 208
-0.993606, 177, 225, 304, 256
-0.993607, 361, 249, 376, 312
-0.99362, 239, 121, 254, 184
-0.993643, 129, 273, 384, 336
-0.99365, 55, 217, 70, 280
-0.993663, 177, 133, 304, 164
-0.993683, 1, 181, 128, 212
-0.993741, 129, 133, 256, 164
-0.993758, 429, 265, 444, 328
-0.993761, 29, 265, 44, 328
-0.99377, 231, 193, 246, 256
-0.993794, 225, 313, 480, 375
-0.993802, 263, 241, 278, 304
-0.993808, 257, 233, 384, 264
-0.993808, 421, 145, 436, 208
-0.993832, 437, 153, 452, 216
-0.993834, 321, 221, 448, 252
-0.993847, 411, 289, 426, 352
-0.993863, 129, 205, 256, 236
-0.99387, 213, 129, 228, 192
-0.993878, 257, 81, 500, 144
-0.993881, 455, 137, 470, 200
-0.993889, 225, 257, 352, 288
-0.993906, 229, 233, 244, 296
-0.993917, 379, 289, 394, 352
-0.99394, 401, 289, 416, 352
-0.993945, 177, 197, 304, 228
-0.993965, 269, 225, 284, 288
-0.993978, 369, 129, 496, 160
-0.993992, 193, 241, 320, 272
-0.993993, 407, 129, 422, 192
-0.994031, 367, 265, 382, 328
-0.994043, 369, 297, 496, 328
-0.994091, 391, 209, 406, 272
-0.994092, 169, 305, 184, 368
-0.994114, 57, 161, 72, 224
-0.994142, 401, 249, 416, 312
-0.994158, 417, 121, 432, 184
-0.994171, 237, 193, 252, 256
-0.994183, 13, 169, 28, 232
-0.994183, 81, 297, 96, 360
-0.994192, 483, 9, 498, 72
-0.994192, 417, 217, 432, 280
-0.994214, 97, 145, 224, 176
-0.994226, 373, 241, 388, 304
-0.994233, 449, 137, 464, 200
-0.994241, 369, 273, 496, 304
-0.994248, 459, 177, 474, 240
-0.994262, 447, 161, 462, 224
-0.994276, 265, 193, 280, 256
-0.994287, 165, 209, 180, 272
-0.994298, 253, 193, 268, 256
-0.9943, 1, 209, 128, 240
-0.994306, 289, 121, 416, 152
-0.994342, 43, 169, 58, 232
-0.994342, 187, 305, 202, 368
-0.994355, 45, 265, 60, 328
-0.994364, 193, 305, 208, 368
-0.994369, 59, 193, 74, 256
-0.99437, 473, 17, 488, 80
-0.994376, 179, 305, 194, 368
-0.994384, 381, 217, 396, 280
-0.994386, 1, 97, 500, 160
-0.994387, 391, 297, 406, 360
-0.994414, 161, 305, 176, 368
-0.994425, 75, 297, 90, 360
-0.994425, 65, 33, 320, 96
-0.994431, 321, 141, 448, 172
-0.994443, 305, 305, 432, 336
-0.994459, 467, 169, 482, 232
-0.99446, 425, 289, 440, 352
-0.99447, 281, 233, 296, 296
-0.99447, 39, 297, 54, 360
-0.994473, 321, 317, 448, 348
-0.994481, 51, 257, 66, 320
-0.994492, 65, 105, 320, 168
-0.994499, 49, 153, 64, 216
-0.994505, 369, 241, 496, 272
-0.994506, 1, 169, 16, 232
-0.994514, 33, 161, 48, 224
-0.994514, 207, 201, 222, 264
-0.994525, 73, 201, 88, 264
-0.994529, 431, 289, 446, 352
-0.994546, 377, 265, 392, 328
-0.994547, 257, 137, 384, 168
-0.994553, 367, 217, 382, 280
-0.994592, 203, 305, 218, 368
-0.994595, 427, 225, 442, 288
-0.994608, 277, 185, 292, 248
-0.994619, 393, 257, 408, 320
-0.994629, 459, 65, 474, 128
-0.994635, 235, 217, 250, 280
-0.994641, 245, 225, 260, 288
-0.994643, 19, 177, 34, 240
-0.994645, 149, 297, 164, 360
-0.994649, 223, 193, 238, 256
-0.994658, 455, 113, 470, 176
-0.994671, 97, 189, 224, 220
-0.994673, 249, 1, 312, 256
-0.994674, 145, 253, 272, 284
-0.994674, 369, 313, 496, 344
-0.994679, 167, 137, 182, 200
-0.994695, 151, 169, 166, 232
-0.994699, 145, 177, 160, 240
-0.9947, 369, 173, 496, 204
-0.994706, 129, 193, 144, 256
-0.994719, 223, 305, 238, 368
-0.994744, 209, 305, 224, 368
-0.994769, 211, 225, 226, 288
-0.99478, 257, 233, 272, 296
-0.994799, 33, 297, 48, 360
-0.994801, 215, 305, 230, 368
-0.994803, 321, 165, 448, 196
-0.994804, 427, 193, 442, 256
-0.994805, 27, 161, 42, 224
-0.994815, 437, 33, 468, 288
-0.994822, 87, 249, 102, 312
-0.994847, 465, 1, 496, 256
-0.994855, 155, 209, 170, 272
-0.994867, 177, 121, 304, 152
-0.99487, 155, 305, 170, 368
-0.994883, 423, 249, 438, 312
-0.994888, 97, 313, 224, 344
-0.994896, 449, 57, 464, 120
-0.994898, 295, 185, 310, 248
-0.994914, 111, 297, 126, 360
-0.994917, 369, 185, 496, 216
-0.994923, 229, 305, 244, 368
-0.994929, 37, 185, 52, 248
-0.994932, 457, 89, 472, 152
-0.99494, 161, 233, 176, 296
-0.994945, 51, 289, 66, 352
-0.994979, 467, 41, 482, 104
-0.99498, 167, 241, 182, 304
-0.994994, 295, 305, 310, 368
-0.995001, 111, 185, 126, 248
-0.995003, 147, 145, 162, 208
-0.995003, 105, 281, 120, 344
-0.995025, 97, 25, 224, 56
-0.995027, 315, 305, 330, 368
-0.99503, 49, 161, 176, 192
-0.995032, 27, 241, 42, 304
-0.995032, 79, 233, 94, 296
-0.995055, 287, 305, 302, 368
-0.995062, 239, 305, 254, 368
-0.995065, 235, 249, 250, 312
-0.995067, 415, 265, 430, 328
-0.995075, 399, 113, 414, 176
-0.995079, 307, 305, 322, 368
-0.995097, 173, 281, 188, 344
-0.9951, 243, 193, 258, 256
-0.995101, 321, 105, 448, 136
-0.995106, 43, 193, 58, 256
-0.99513, 449, 65, 480, 320
-0.995191, 81, 265, 208, 296
-0.995196, 1, 65, 500, 128
-0.995245, 65, 289, 192, 320
-0.995262, 437, 129, 468, 375
-0.995276, 177, 145, 304, 176
-0.9953, 113, 41, 240, 72
-0.995353, 161, 49, 416, 112
-0.995383, 17, 313, 144, 344
-0.995544, 257, 41, 500, 104
-0.995547, 337, 89, 464, 120
-0.995555, 257, 245, 384, 276
-0.99556, 1, 65, 256, 128
-0.995579, 33, 257, 288, 320
-0.995597, 145, 309, 272, 340
-0.995601, 49, 53, 176, 84
-0.995603, 369, 201, 496, 232
-0.995603, 1, 233, 128, 264
-0.995623, 81, 325, 208, 356
-0.995624, 49, 217, 176, 248
-0.995632, 45, 129, 76, 375
-0.995656, 49, 73, 176, 104
-0.995675, 129, 233, 256, 264
-0.995705, 273, 109, 400, 140
-0.995706, 257, 309, 384, 340
-0.99575, 177, 265, 304, 296
-0.995753, 369, 37, 496, 68
-0.995757, 209, 213, 336, 244
-0.99576, 273, 93, 400, 124
-0.995771, 17, 325, 144, 356
-0.995781, 257, 17, 500, 80
-0.995826, 97, 277, 224, 308
-0.995839, 97, 73, 224, 104
-0.995895, 321, 17, 448, 80
-0.995908, 65, 249, 192, 280
-0.995958, 369, 57, 496, 88
-0.995969, 33, 1, 288, 64
-0.995984, 33, 141, 160, 172
-0.996046, 353, 77, 480, 108
-0.996053, 49, 173, 176, 204
-0.996076, 225, 189, 352, 220
-0.996166, 145, 25, 272, 56
-0.996182, 225, 269, 352, 300
-0.996182, 257, 209, 384, 240
-0.996195, 425, 33, 456, 288
-0.996246, 193, 309, 320, 340
-0.996324, 341, 97, 372, 352
-0.996337, 145, 277, 272, 308
-0.996338, 129, 85, 256, 116
-0.996339, 129, 177, 256, 208
-0.996342, 129, 325, 256, 356
-0.99638, 217, 97, 248, 352
-0.996431, 273, 329, 400, 360
-0.996442, 305, 177, 432, 208
-0.996452, 1, 33, 500, 96
-0.996462, 237, 125, 252, 156
-0.996464, 411, 297, 426, 328
-0.996467, 447, 161, 462, 192
-0.996493, 1, 169, 128, 200
-0.996503, 225, 113, 352, 144
-0.996546, 129, 221, 256, 252
-0.996549, 113, 157, 240, 188
-0.996556, 453, 161, 468, 192
-0.996556, 221, 257, 236, 288
-0.996565, 161, 5, 288, 36
-0.996567, 195, 137, 210, 168
-0.996577, 21, 177, 36, 208
-0.996579, 177, 325, 304, 356
-0.996611, 377, 293, 392, 324
-0.996637, 165, 129, 196, 375
-0.996646, 211, 133, 226, 164
-0.99665, 227, 245, 242, 276
-0.996661, 89, 129, 120, 375
-0.996678, 27, 257, 42, 288
-0.996681, 321, 329, 448, 360
-0.996694, 369, 117, 496, 148
-0.996701, 413, 97, 444, 352
-0.996706, 1, 69, 128, 100
-0.996713, 413, 253, 428, 284
-0.996723, 401, 301, 416, 332
-0.996724, 145, 73, 272, 104
-0.996726, 387, 301, 402, 332
-0.996727, 265, 121, 280, 152
-0.996774, 73, 129, 104, 375
-0.996782, 225, 293, 352, 324
-0.99679, 11, 169, 26, 200
-0.996798, 419, 129, 434, 160
-0.996804, 369, 229, 496, 260
-0.996806, 81, 89, 208, 120
-0.99682, 69, 305, 84, 336
-0.996824, 165, 33, 196, 288
-0.996824, 377, 241, 392, 272
-0.99684, 405, 245, 420, 276
-0.996848, 391, 245, 406, 276
-0.996849, 63, 305, 78, 336
-0.996874, 129, 61, 256, 92
-0.996874, 371, 245, 386, 276
-0.996879, 441, 161, 456, 192
-0.996885, 237, 253, 252, 284
-0.996891, 53, 297, 68, 328
-0.996891, 383, 245, 398, 276
-0.996894, 225, 325, 352, 356
-0.996895, 117, 1, 148, 256
-0.996898, 281, 233, 296, 264
-0.996905, 357, 65, 388, 320
-0.996908, 369, 329, 496, 360
-0.996914, 321, 189, 448, 220
-0.996923, 247, 245, 262, 276
-0.996923, 121, 197, 136, 228
-0.996931, 373, 257, 388, 288
-0.996931, 133, 193, 148, 224
-0.996937, 1, 221, 128, 252
-0.996944, 271, 121, 286, 152
-0.996946, 85, 197, 100, 228
-0.996949, 45, 193, 60, 224
-0.996956, 229, 129, 244, 160
-0.996962, 193, 65, 224, 320
-0.996972, 1, 157, 128, 188
-0.996977, 37, 253, 52, 284
-0.996981, 421, 253, 436, 284
-0.996985, 371, 297, 386, 328
-0.996988, 369, 25, 496, 56
-0.996989, 405, 281, 420, 312
-0.996995, 329, 129, 360, 375
-0.997003, 77, 265, 92, 296
-0.997011, 369, 97, 400, 352
-0.997012, 53, 313, 68, 344
-0.997012, 421, 297, 436, 328
-0.997014, 209, 1, 240, 256
-0.997051, 189, 141, 204, 172
-0.997055, 1, 57, 128, 88
-0.99706, 33, 241, 48, 272
-0.997063, 33, 17, 160, 48
-0.997063, 217, 129, 232, 160
-0.997069, 229, 257, 244, 288
-0.997087, 23, 189, 38, 220
-0.997099, 165, 165, 180, 196
-0.9971, 379, 261, 394, 292
-0.997105, 35, 185, 50, 216
-0.997106, 77, 293, 92, 324
-0.997111, 71, 257, 86, 288
-0.997144, 427, 281, 442, 312
-0.99715, 41, 305, 56, 336
-0.997151, 205, 133, 220, 164
-0.997162, 413, 241, 428, 272
-0.997174, 53, 261, 68, 292
-0.997185, 145, 181, 160, 212
-0.997186, 369, 105, 496, 136
-0.997187, 389, 257, 404, 288
-0.997187, 431, 269, 446, 300
-0.997195, 25, 201, 40, 232
-0.997199, 29, 189, 44, 220
-0.9972, 415, 281, 430, 312
-0.997202, 397, 97, 428, 352
-0.997205, 15, 201, 30, 232
-0.997205, 257, 221, 384, 252
-0.997207, 221, 245, 236, 276
-0.997211, 289, 81, 416, 112
-0.997213, 27, 293, 42, 324
-0.997213, 129, 1, 384, 64
-0.997222, 81, 277, 96, 308
-0.997223, 63, 185, 78, 216
-0.997225, 193, 89, 320, 120
-0.997238, 257, 177, 384, 208
-0.997245, 47, 293, 62, 324
-0.997249, 63, 261, 78, 292
-0.997259, 381, 309, 396, 340
-0.997262, 35, 305, 50, 336
-0.997263, 387, 289, 402, 320
-0.997268, 113, 193, 128, 224
-0.997273, 57, 193, 72, 224
-0.997273, 253, 97, 284, 352
-0.997277, 363, 289, 378, 320
-0.997279, 161, 41, 288, 72
-0.99728, 271, 237, 286, 268
-0.997281, 33, 129, 64, 375
-0.997285, 37, 293, 52, 324
-0.997288, 393, 301, 408, 332
-0.997299, 243, 129, 258, 160
-0.997303, 411, 265, 426, 296
-0.997306, 453, 149, 468, 180
-0.997306, 369, 217, 496, 248
-0.99731, 45, 277, 60, 308
-0.997311, 173, 153, 188, 184
-0.997314, 403, 261, 418, 292
-0.997315, 407, 133, 422, 164
-0.997317, 425, 169, 440, 200
-0.997321, 1, 117, 128, 148
-0.997322, 361, 253, 376, 284
-0.997322, 79, 305, 94, 336
-0.997324, 43, 241, 58, 272
-0.997329, 47, 181, 62, 212
-0.997333, 199, 149, 214, 180
-0.997336, 249, 133, 264, 164
-0.997343, 259, 121, 274, 152
-0.997346, 425, 129, 456, 375
-0.997351, 61, 217, 76, 248
-0.997353, 137, 181, 152, 212
-0.997358, 259, 241, 274, 272
-0.997358, 427, 253, 442, 284
-0.997359, 153, 129, 184, 375
-0.997359, 413, 137, 428, 168
-0.997364, 435, 157, 450, 188
-0.997368, 73, 197, 88, 228
-0.997369, 461, 169, 476, 200
-0.99737, 153, 33, 184, 288
-0.997371, 461, 129, 492, 375
-0.997373, 29, 269, 44, 300
-0.997374, 447, 149, 462, 180
-0.997376, 59, 293, 74, 324
-0.997377, 57, 97, 88, 352
-0.997381, 303, 117, 318, 148
-0.997384, 475, 17, 490, 48
-0.997388, 47, 305, 62, 336
-0.997392, 459, 69, 474, 100
-0.9974, 313, 117, 328, 148
-0.997406, 189, 153, 204, 184
-0.99741, 413, 125, 428, 156
-0.997413, 235, 73, 250, 104
-0.997415, 113, 1, 240, 32
-0.997418, 397, 289, 412, 320
-0.997421, 193, 29, 320, 60
-0.997428, 177, 33, 208, 288
-0.997437, 53, 285, 68, 316
-0.997439, 409, 309, 424, 340
-0.99744, 383, 277, 398, 308
-0.997441, 397, 249, 412, 280
-0.997443, 223, 137, 238, 168
-0.997445, 219, 233, 234, 264
-0.997447, 225, 225, 240, 256
-0.997449, 127, 201, 142, 232
-0.997449, 73, 241, 88, 272
-0.997453, 173, 273, 188, 304
-0.997466, 423, 269, 438, 300
-0.99747, 205, 97, 236, 352
-0.997475, 95, 193, 110, 224
-0.997479, 241, 97, 272, 352
-0.997483, 179, 153, 194, 184
-0.997486, 265, 245, 280, 276
-0.997494, 85, 249, 100, 280
-0.997496, 17, 129, 48, 375
-0.99751, 81, 125, 208, 156
-0.997539, 229, 97, 260, 352
-0.997555, 141, 65, 172, 320
-0.997557, 97, 301, 224, 332
-0.997562, 81, 13, 208, 44
-0.99757, 65, 101, 192, 132
-0.997572, 109, 97, 140, 352
-0.997576, 381, 97, 412, 352
-0.997588, 129, 265, 256, 296
-0.997593, 65, 37, 192, 68
-0.997611, 49, 237, 176, 268
-0.99763, 241, 13, 368, 44
-0.997658, 1, 1, 128, 32
-0.997678, 277, 129, 308, 375
-0.997694, 317, 129, 348, 375
-0.99772, 301, 129, 332, 375
-0.99781, 33, 1, 64, 256
-0.997835, 125, 97, 156, 352
-0.997876, 1, 97, 32, 352
-0.99795, 161, 25, 416, 88
-0.997991, 9, 1, 40, 256
-0.998062, 265, 129, 296, 375
-0.998064, 101, 1, 132, 256
-0.998068, 409, 1, 440, 256
-0.998166, 321, 33, 352, 288
-0.998313, 61, 1, 92, 256
-0.998325, 289, 129, 320, 375
-0.998335, 169, 229, 232, 244
-0.998345, 1, 1, 500, 64
-0.998349, 455, 113, 470, 240
-0.99836, 97, 193, 160, 208
-0.998382, 33, 205, 96, 220
-0.998385, 369, 309, 432, 324
-0.998389, 25, 257, 88, 272
-0.998391, 49, 195, 112, 210
-0.998391, 65, 203, 128, 218
-0.998395, 73, 195, 136, 210
-0.998396, 433, 145, 448, 272
-0.998397, 225, 133, 288, 148
-0.998402, 409, 277, 472, 292
-0.998407, 393, 147, 456, 162
-0.998407, 25, 193, 88, 208
-0.998409, 329, 303, 392, 318
-0.998412, 209, 251, 272, 266
-0.998415, 241, 245, 304, 260
-0.998416, 409, 183, 472, 198
-0.998417, 285, 1, 316, 256
-0.998418, 409, 291, 472, 306
-0.998421, 161, 137, 224, 152
-0.998423, 33, 241, 96, 256
-0.998425, 377, 293, 440, 308
-0.998427, 9, 181, 72, 196
-0.998428, 201, 139, 264, 154
-0.998429, 409, 265, 472, 280
-0.998433, 225, 125, 288, 140
-0.998434, 25, 273, 88, 288
-0.998434, 337, 291, 400, 306
-0.998435, 401, 153, 464, 168
-0.998436, 369, 275, 432, 290
-0.998437, 369, 241, 432, 256
-0.998437, 329, 283, 392, 298
-0.998439, 377, 137, 440, 152
-0.99844, 65, 295, 128, 310
-0.998441, 417, 145, 480, 160
-0.998443, 49, 261, 112, 276
-0.998444, 25, 291, 88, 306
-0.998445, 65, 285, 128, 300
-0.998449, 377, 285, 440, 300
-0.998449, 329, 257, 392, 272
-0.99845, 201, 235, 264, 250
-0.998451, 45, 1, 76, 256
-0.998451, 145, 235, 208, 250
-0.998452, 377, 299, 440, 314
-0.998452, 25, 211, 88, 226
-0.998452, 201, 133, 264, 148
-0.998455, 377, 267, 440, 282
-0.998455, 25, 199, 88, 214
-0.998456, 305, 33, 336, 288
-0.998456, 409, 159, 472, 174
-0.998456, 73, 211, 136, 226
-0.998459, 361, 247, 424, 262
-0.99846, 409, 283, 472, 298
-0.99846, 269, 97, 284, 224
-0.99846, 425, 177, 488, 192
-0.998462, 145, 145, 208, 160
-0.998462, 49, 275, 112, 290
-0.998466, 77, 209, 92, 336
-0.998466, 97, 199, 160, 214
-0.998467, 177, 143, 240, 158
-0.998468, 25, 267, 88, 282
-0.998469, 1, 253, 64, 268
-0.99847, 311, 97, 326, 224
-0.998472, 73, 307, 136, 322
-0.998472, 409, 271, 472, 286
-0.998473, 177, 129, 208, 375
-0.998473, 201, 223, 264, 238
-0.998474, 25, 305, 88, 320
-0.998475, 9, 187, 72, 202
-0.998475, 25, 297, 88, 312
-0.998475, 329, 265, 392, 280
-0.99848, 25, 283, 88, 298
-0.99848, 265, 213, 328, 228
-0.99848, 1, 265, 64, 280
-0.998483, 129, 151, 192, 166
-0.998484, 329, 277, 392, 292
-0.998484, 409, 301, 472, 316
-0.998484, 439, 145, 454, 272
-0.998484, 425, 165, 488, 180
-0.998484, 377, 315, 440, 330
-0.998485, 401, 253, 464, 268
-0.998485, 33, 187, 96, 202
-0.998486, 257, 131, 320, 146
-0.998487, 105, 211, 168, 226
-0.998489, 353, 149, 416, 164
-0.99849, 209, 269, 272, 284
-0.99849, 9, 175, 72, 190
-0.99849, 209, 259, 272, 274
-0.998491, 401, 133, 464, 148
-0.998492, 433, 153, 496, 168
-0.998493, 337, 245, 400, 260
-0.998496, 273, 121, 336, 136
-0.998497, 33, 317, 96, 332
-0.9985, 41, 247, 104, 262
-0.9985, 169, 243, 232, 258
-0.998505, 49, 211, 112, 226
-0.998505, 201, 145, 264, 160
-0.998506, 1, 209, 64, 224
-0.998509, 353, 301, 416, 316
-0.998512, 65, 301, 128, 316
-0.998514, 425, 75, 488, 90
-0.998516, 1, 197, 64, 212
-0.998519, 249, 123, 312, 138
-0.998519, 393, 243, 456, 258
-0.998519, 137, 179, 200, 194
-0.998522, 121, 159, 184, 174
-0.998522, 49, 255, 112, 270
-0.998524, 329, 271, 392, 286
-0.998524, 61, 267, 92, 282
-0.998524, 393, 267, 424, 282
-0.998525, 437, 273, 468, 288
-0.998525, 453, 103, 484, 118
-0.998525, 373, 299, 404, 314
-0.998526, 9, 167, 72, 182
-0.998526, 257, 217, 288, 232
-0.998526, 177, 151, 240, 166
-0.998526, 125, 213, 156, 228
-0.998526, 417, 139, 480, 154
-0.998527, 149, 145, 180, 160
-0.998528, 361, 219, 424, 234
-0.998528, 57, 191, 88, 206
-0.998528, 361, 261, 424, 276
-0.998529, 241, 217, 304, 232
-0.998529, 185, 205, 248, 220
-0.99853, 373, 245, 404, 260
-0.998531, 393, 293, 424, 308
-0.998531, 209, 203, 240, 218
-0.998534, 177, 21, 208, 36
-0.998535, 389, 137, 420, 152
-0.998535, 425, 197, 488, 212
-0.998536, 269, 213, 300, 228
-0.998536, 417, 183, 448, 198
-0.998537, 25, 299, 56, 314
-0.998537, 9, 221, 72, 236
-0.998537, 329, 309, 392, 324
-0.998537, 425, 191, 488, 206
-0.998537, 241, 237, 304, 252
-0.998537, 181, 151, 212, 166
-0.998538, 281, 207, 344, 222
-0.998538, 57, 267, 120, 282
-0.998539, 1, 259, 64, 274
-0.998539, 169, 43, 232, 58
-0.998539, 137, 185, 168, 200
-0.998541, 417, 293, 448, 308
-0.998541, 377, 253, 440, 268
-0.998543, 145, 25, 208, 40
-0.998543, 9, 185, 40, 200
-0.998543, 113, 205, 176, 220
-0.998543, 33, 251, 64, 266
-0.998544, 213, 263, 244, 278
-0.998544, 417, 151, 448, 166
-0.998544, 53, 199, 84, 214
-0.998544, 137, 255, 168, 270
-0.998545, 281, 129, 344, 144
-0.998545, 393, 261, 424, 276
-0.998546, 353, 283, 416, 298
-0.998546, 433, 171, 496, 186
-0.998547, 81, 275, 112, 290
-0.998547, 301, 121, 332, 136
-0.998548, 209, 201, 272, 216
-0.998548, 201, 231, 232, 246
-0.998548, 417, 81, 480, 96
-0.998548, 1, 247, 64, 262
-0.998549, 41, 273, 72, 288
-0.998549, 37, 317, 68, 332
-0.998549, 57, 283, 88, 298
-0.99855, 269, 243, 300, 258
-0.99855, 153, 151, 216, 166
-0.998551, 41, 295, 72, 310
-0.998551, 193, 83, 256, 98
-0.998551, 21, 193, 52, 208
-0.998551, 249, 133, 280, 148
-0.998551, 425, 57, 488, 72
-0.998552, 1, 203, 64, 218
-0.998552, 369, 293, 400, 308
-0.998553, 353, 267, 416, 282
-0.998554, 405, 263, 436, 278
-0.998554, 97, 201, 128, 216
-0.998554, 201, 127, 264, 142
-0.998555, 25, 257, 56, 272
-0.998557, 381, 313, 412, 328
-0.998558, 225, 265, 256, 280
-0.998559, 421, 157, 452, 172
-0.998561, 33, 203, 64, 218
-0.998561, 153, 271, 184, 286
-0.998563, 389, 305, 420, 320
-0.998563, 1, 193, 32, 208
-0.998563, 413, 269, 444, 284
-0.998564, 437, 165, 468, 180
-0.998567, 377, 265, 408, 280
-0.998567, 261, 131, 292, 146
-0.99857, 93, 195, 124, 210
-0.99857, 385, 239, 416, 254
-0.99857, 405, 149, 436, 164
-0.99857, 409, 251, 440, 266
-0.998571, 189, 145, 220, 160
-0.998571, 33, 311, 64, 326
-0.998572, 37, 193, 68, 208
-0.998574, 57, 295, 88, 310
-0.998575, 481, 1, 496, 128
-0.998575, 353, 269, 384, 284
-0.998575, 5, 177, 36, 192
-0.998576, 369, 259, 400, 274
-0.998577, 245, 243, 276, 258
-0.998578, 41, 301, 72, 316
-0.998578, 77, 267, 108, 282
-0.998579, 233, 125, 264, 140
-0.998579, 53, 257, 84, 272
-0.99858, 171, 129, 186, 256
-0.998581, 245, 255, 276, 270
-0.998584, 393, 313, 424, 328
-0.998585, 57, 273, 88, 288
-0.998586, 21, 201, 52, 216
-0.998586, 61, 301, 92, 316
-0.998587, 245, 123, 276, 138
-0.998589, 89, 241, 104, 368
-0.998589, 53, 211, 84, 226
-0.998589, 361, 253, 392, 268
-0.998592, 265, 249, 296, 264
-0.998592, 69, 193, 100, 208
-0.998594, 441, 171, 472, 186
-0.998595, 353, 281, 384, 296
-0.998596, 437, 177, 468, 192
-0.998598, 273, 235, 304, 250
-0.998599, 405, 289, 436, 304
-0.9986, 369, 287, 400, 302
-0.998604, 197, 135, 228, 150
-0.998605, 49, 309, 80, 324
-0.998606, 421, 279, 452, 294
-0.998606, 261, 125, 292, 140
-0.998608, 373, 305, 404, 320
-0.998611, 399, 241, 414, 368
-0.998611, 137, 149, 168, 164
-0.998613, 121, 205, 152, 220
-0.998613, 213, 141, 244, 156
-0.998617, 405, 129, 436, 144
-0.998617, 217, 129, 248, 144
-0.998618, 245, 249, 276, 264
-0.998619, 253, 263, 284, 278
-0.998619, 409, 277, 440, 292
-0.998622, 125, 189, 156, 204
-0.998624, 381, 289, 412, 304
-0.998625, 163, 145, 178, 272
-0.998625, 217, 135, 248, 150
-0.998627, 109, 199, 140, 214
-0.998627, 257, 243, 288, 258
-0.998631, 417, 263, 448, 278
-0.998631, 441, 153, 472, 168
-0.998632, 405, 305, 436, 320
-0.998632, 153, 233, 184, 248
-0.998634, 153, 173, 184, 188
-0.998634, 409, 257, 440, 272
-0.998636, 37, 185, 68, 200
-0.998637, 389, 1, 420, 256
-0.99864, 361, 299, 392, 314
-0.998642, 237, 135, 268, 150
-0.998646, 217, 225, 248, 240
-0.998647, 357, 263, 388, 278
-0.99865, 417, 287, 448, 302
-0.998652, 213, 269, 244, 284
-0.998653, 433, 147, 464, 162
-0.998653, 33, 225, 48, 352
-0.998658, 473, 1, 488, 128
-0.998659, 237, 263, 268, 278
-0.998661, 225, 259, 256, 274
-0.998661, 257, 257, 288, 272
-0.998661, 81, 199, 112, 214
-0.998662, 405, 193, 420, 320
-0.998668, 29, 305, 60, 320
-0.99867, 113, 193, 144, 208
-0.998671, 447, 145, 462, 272
-0.998672, 201, 141, 232, 156
-0.998674, 409, 299, 440, 314
-0.998676, 225, 249, 256, 264
-0.998678, 357, 289, 388, 304
-0.998678, 129, 197, 160, 212
-0.998678, 457, 175, 488, 190
-0.998678, 365, 269, 396, 284
-0.998679, 243, 225, 258, 352
-0.998703, 83, 225, 98, 352
-0.998708, 387, 241, 402, 368
-0.998716, 69, 205, 100, 220
-0.998716, 411, 241, 426, 368
-0.998721, 229, 1, 260, 256
-0.998734, 195, 113, 210, 240
-0.998734, 219, 177, 234, 304
-0.998738, 431, 193, 446, 320
-0.998741, 367, 241, 382, 368
-0.998748, 305, 97, 320, 224
-0.998755, 383, 193, 398, 320
-0.99876, 439, 193, 454, 320
-0.99876, 145, 129, 160, 256
-0.998771, 157, 129, 172, 256
-0.998771, 421, 193, 436, 320
-0.998773, 141, 65, 156, 192
-0.998773, 361, 241, 376, 368
-0.998775, 457, 161, 472, 288
-0.998779, 467, 33, 482, 160
-0.998779, 395, 193, 410, 320
-0.998783, 225, 193, 240, 320
-0.998793, 231, 177, 246, 304
-0.998793, 429, 241, 444, 368
-0.998794, 427, 129, 442, 256
-0.998794, 213, 177, 228, 304
-0.998798, 137, 129, 152, 256
-0.998801, 423, 241, 438, 368
-0.998801, 151, 113, 166, 240
-0.998804, 219, 241, 234, 368
-0.998807, 237, 241, 252, 368
-0.998816, 377, 193, 392, 320
-0.998817, 263, 97, 278, 224
-0.998818, 39, 241, 54, 368
-0.998818, 85, 33, 116, 288
-0.99882, 285, 177, 300, 304
-0.998823, 67, 241, 82, 368
-0.998829, 37, 177, 52, 304
-0.998833, 57, 129, 72, 256
-0.998834, 243, 97, 258, 224
-0.998834, 251, 193, 266, 320
-0.998836, 463, 129, 478, 256
-0.99884, 45, 161, 60, 288
-0.998849, 237, 177, 252, 304
-0.998852, 485, 113, 500, 240
-0.998856, 13, 113, 28, 240
-0.998866, 213, 241, 228, 368
-0.998866, 273, 177, 288, 304
-0.998866, 389, 193, 404, 320
-0.998871, 129, 1, 160, 256
-0.998875, 177, 193, 192, 320
-0.998876, 407, 113, 422, 240
-0.99888, 27, 241, 42, 368
-0.998884, 59, 241, 74, 368
-0.998886, 147, 49, 162, 176
-0.99889, 7, 177, 22, 304
-0.998893, 133, 49, 148, 176
-0.998893, 237, 97, 252, 224
-0.998898, 83, 177, 98, 304
-0.998899, 321, 113, 336, 240
-0.998899, 343, 225, 358, 352
-0.9989, 335, 145, 350, 272
-0.998902, 393, 241, 408, 368
-0.998907, 275, 97, 290, 224
-0.998912, 331, 97, 346, 224
-0.998915, 255, 241, 270, 368
-0.998917, 479, 129, 494, 256
-0.998918, 281, 225, 296, 352
-0.998922, 1, 177, 16, 304
-0.998923, 377, 241, 392, 368
-0.998924, 47, 241, 62, 368
-0.99893, 457, 65, 472, 192
-0.998934, 177, 145, 192, 272
-0.998934, 89, 177, 104, 304
-0.998934, 23, 161, 38, 288
-0.998935, 447, 49, 462, 176
-0.998941, 361, 193, 376, 320
-0.99895, 53, 241, 68, 368
-0.998957, 57, 177, 72, 304
-0.998963, 423, 33, 438, 160
-0.998965, 419, 113, 434, 240
-0.998971, 349, 225, 364, 352
-0.998972, 201, 129, 216, 256
-0.998974, 13, 161, 28, 288
-0.998977, 471, 129, 486, 256
-0.998977, 285, 129, 300, 256
-0.998978, 1, 241, 16, 368
-0.998978, 257, 97, 272, 224
-0.99898, 249, 241, 264, 368
-0.998981, 127, 97, 142, 224
-0.998988, 397, 81, 412, 208
-0.998992, 51, 177, 66, 304
-0.998992, 415, 193, 430, 320
-0.998993, 71, 193, 86, 320
-0.998995, 163, 193, 178, 320
-0.998995, 99, 241, 114, 368
-0.998995, 169, 241, 184, 368
-0.999, 261, 241, 276, 368
-0.999002, 23, 113, 38, 240
-0.999004, 297, 129, 312, 256
-0.999006, 31, 177, 46, 304
-0.999007, 151, 161, 166, 288
-0.999007, 237, 49, 252, 176
-0.999012, 465, 81, 480, 208
-0.999014, 279, 161, 294, 288
-0.999015, 51, 129, 66, 256
-0.999016, 63, 161, 78, 288
-0.999017, 189, 113, 204, 240
-0.999018, 163, 241, 178, 368
-0.999019, 479, 65, 494, 192
-0.999025, 433, 65, 448, 192
-0.999029, 449, 97, 464, 224
-0.99903, 123, 17, 138, 144
-0.999031, 369, 1, 400, 256
-0.999043, 275, 241, 290, 368
-0.999046, 435, 241, 450, 368
-0.999052, 73, 129, 88, 256
-0.999054, 231, 241, 246, 368
-0.999059, 207, 113, 222, 240
-0.999059, 405, 241, 420, 368
-0.999165, 341, 1, 372, 256
-0.999205, 73, 33, 104, 288
-0.999213, 273, 1, 304, 256
-0.999322, 21, 1, 52, 256
-0.99971, 221, 225, 236, 240
-0.99971, 61, 265, 76, 280
-0.999711, 219, 269, 234, 284
-0.999711, 379, 289, 394, 304
-0.999712, 397, 297, 412, 312
-0.999713, 247, 267, 262, 282
-0.999714, 245, 221, 260, 236
-0.999715, 33, 247, 48, 262
-0.999715, 49, 267, 64, 282
-0.999715, 363, 295, 378, 310
-0.999716, 115, 195, 130, 210
-0.999716, 425, 275, 440, 290
-0.999717, 73, 197, 88, 212
-0.999717, 127, 189, 142, 204
-0.999717, 167, 279, 182, 294
-0.999719, 197, 137, 212, 152
-0.999719, 419, 293, 434, 308
-0.99972, 401, 239, 416, 254
-0.99972, 143, 195, 158, 210
-0.999721, 243, 135, 258, 150
-0.999722, 431, 269, 446, 284
-0.999722, 1, 185, 16, 200
-0.999723, 425, 259, 440, 274
-0.999723, 221, 141, 236, 156
-0.999724, 413, 131, 428, 146
-0.999724, 23, 253, 38, 268
-0.999725, 361, 261, 376, 276
-0.999725, 61, 309, 76, 324
-0.999725, 21, 199, 36, 214
-0.999726, 397, 291, 412, 306
-0.999727, 371, 303, 386, 318
-0.999727, 191, 151, 206, 166
-0.999727, 155, 265, 170, 280
-0.999727, 375, 283, 390, 298
-0.999727, 359, 289, 374, 304
-0.999728, 103, 193, 118, 208
-0.999729, 251, 219, 266, 234
-0.999731, 261, 131, 276, 146
-0.999731, 69, 275, 84, 290
-0.999731, 251, 135, 266, 150
-0.999733, 61, 255, 76, 270
-0.999734, 151, 257, 166, 272
-0.999734, 123, 207, 138, 222
-0.999734, 267, 125, 282, 140
-0.999734, 45, 285, 60, 300
-0.999734, 47, 273, 62, 288
-0.999735, 85, 205, 100, 220
-0.999735, 207, 145, 222, 160
-0.999735, 5, 175, 20, 190
-0.999735, 283, 235, 298, 250
-0.999735, 421, 183, 436, 198
-0.999736, 225, 269, 240, 284
-0.999738, 375, 273, 390, 288
-0.999738, 59, 271, 74, 286
-0.999738, 453, 157, 468, 172
-0.999738, 447, 161, 462, 176
-0.999738, 81, 287, 96, 302
-0.999739, 367, 251, 382, 266
-0.999739, 195, 143, 210, 158
-0.999739, 447, 151, 462, 166
-0.999741, 139, 151, 154, 166
-0.999741, 69, 309, 84, 324
-0.999742, 51, 261, 66, 276
-0.999742, 381, 265, 396, 280
-0.999742, 389, 263, 404, 278
-0.999743, 409, 275, 424, 290
-0.999743, 49, 295, 64, 310
-0.999743, 273, 237, 288, 252
-0.999745, 229, 261, 244, 276
-0.999746, 421, 265, 436, 280
-0.999747, 451, 177, 466, 192
-0.999747, 197, 149, 212, 164
-0.999748, 415, 245, 430, 260
-0.999749, 453, 143, 468, 158
-0.99975, 421, 301, 436, 316
-0.99975, 367, 281, 382, 296
-0.999751, 227, 247, 242, 262
-0.999752, 231, 137, 246, 152
-0.999752, 27, 303, 42, 318
-0.999756, 67, 263, 82, 278
-0.999756, 51, 301, 66, 316
-0.999758, 419, 131, 434, 146
-0.999758, 99, 199, 114, 214
-0.999758, 415, 269, 430, 284
-0.999759, 465, 175, 480, 190
-0.99976, 407, 133, 422, 148
-0.999761, 53, 277, 68, 292
-0.999762, 35, 307, 50, 322
-0.999763, 401, 303, 416, 318
-0.999766, 69, 257, 84, 272
-0.999767, 77, 299, 92, 314
-0.999767, 405, 249, 420, 264
-0.999767, 139, 189, 154, 204
-0.999767, 453, 163, 468, 178
-0.999768, 455, 171, 470, 186
-0.999768, 389, 299, 404, 314
-0.99977, 237, 251, 252, 266
-0.999771, 215, 141, 230, 156
-0.999772, 55, 285, 70, 300
-0.999773, 165, 271, 180, 286
-0.999776, 409, 261, 424, 276
-0.999777, 417, 287, 432, 302
-0.999778, 237, 135, 252, 150
-0.999778, 385, 289, 400, 304
-0.99978, 407, 293, 422, 308
-0.999782, 13, 179, 28, 194
-0.999782, 219, 253, 234, 268
-0.999786, 173, 275, 188, 290
-0.999786, 91, 199, 106, 214
-0.999786, 249, 1, 280, 256
-0.999788, 213, 133, 228, 148
-0.999789, 81, 277, 96, 292
-0.99979, 381, 251, 396, 266
-0.999791, 403, 263, 418, 278
-0.999792, 167, 233, 182, 248
-0.999792, 367, 267, 382, 282
-0.999805, 387, 305, 402, 320
-0.999807, 271, 243, 286, 258
-0.999807, 75, 263, 90, 278
-0.99981, 373, 259, 388, 274
-0.999813, 71, 303, 86, 318
-0.99982, 413, 255, 428, 270
-0.999824, 379, 297, 394, 312
-0.999829, 133, 195, 148, 210
-0.999832, 29, 257, 44, 272
-0.99984, 73, 205, 88, 220
-0.99984, 371, 289, 386, 304
-0.99984, 413, 299, 428, 314
-0.999842, 237, 125, 252, 140
-0.999844, 79, 293, 94, 308
-0.99986, 77, 269, 92, 284
-0.999989, 261, 1, 292, 256
