1889
-0.431442, 1, 65, 500, 320
-0.59344, 1, 1, 500, 333
-0.623982, 225, 65, 480, 320
-0.630049, 33, 1, 288, 333
-0.643125, 193, 1, 448, 333
-0.684688, 1, 65, 256, 320
-0.720221, 129, 65, 384, 320
-0.871399, 257, 65, 384, 320
-0.88177, 353, 65, 480, 320
-0.884412, 33, 65, 160, 320
-0.886807, 209, 65, 336, 320
-0.891629, 305, 65, 432, 320
-0.894042, 113, 65, 240, 320
-0.897266, 1, 97, 500, 224
-0.902198, 161, 65, 288, 320
-0.909677, 193, 1, 320, 333
-0.909897, 321, 1, 448, 333
-0.9105, 113, 1, 240, 333
-0.912732, 33, 1, 160, 333
-0.914972, 273, 1, 400, 333
-0.915048, 257, 97, 500, 224
-0.918665, 65, 113, 320, 240
-0.922872, 1, 193, 500, 320
-0.924014, 369, 1, 496, 333
-0.932533, 1, 49, 500, 176
-0.934779, 161, 161, 416, 288
-0.93608, 1, 145, 500, 272
-0.936213, 161, 113, 416, 240
-0.941058, 273, 97, 336, 224
-0.945102, 177, 113, 304, 240
-0.94532, 241, 113, 304, 240
-0.945644, 257, 97, 384, 224
-0.945982, 353, 97, 480, 224
-0.94618, 201, 113, 264, 240
-0.949141, 9, 97, 72, 224
-0.950936, 305, 97, 432, 224
-0.951523, 1, 97, 128, 224
-0.952271, 433, 97, 496, 224
-0.952468, 65, 97, 192, 224
-0.952902, 129, 113, 256, 240
-0.953519, 297, 97, 360, 224
-0.95385, 73, 97, 136, 224
-0.953876, 401, 97, 464, 224
-0.954378, 177, 129, 240, 256
-0.954929, 129, 65, 384, 192
-0.955217, 153, 129, 216, 256
-0.956218, 345, 97, 408, 224
-0.956545, 33, 97, 96, 224
-0.956988, 129, 113, 192, 240
-0.957932, 65, 177, 320, 304
-0.960176, 337, 193, 464, 320
-0.960206, 257, 145, 500, 272
-0.961652, 289, 209, 416, 333
-0.962398, 377, 97, 440, 224
-0.962437, 257, 209, 500, 333
-0.962822, 345, 209, 408, 333
-0.962878, 321, 97, 384, 224
-0.962913, 249, 161, 312, 288
-0.96325, 1, 65, 256, 192
-0.963788, 369, 177, 432, 304
-0.963796, 353, 145, 480, 272
-0.964172, 177, 169, 240, 232
-0.964908, 273, 105, 336, 168
-0.965351, 105, 113, 168, 240
-0.966059, 273, 145, 400, 272
-0.966151, 193, 161, 320, 288
-0.966614, 329, 105, 392, 168
-0.967232, 233, 113, 296, 176
-0.967239, 1, 113, 64, 176
-0.968092, 209, 169, 272, 232
-0.969412, 145, 193, 208, 320
-0.969749, 81, 113, 144, 176
-0.970132, 33, 113, 96, 176
-0.970206, 297, 105, 360, 168
-0.97038, 121, 113, 184, 176
-0.970387, 161, 65, 288, 192
-0.970473, 233, 169, 296, 232
-0.970695, 409, 161, 472, 288
-0.970992, 425, 97, 488, 160
-0.971049, 1, 145, 128, 272
-0.971192, 57, 113, 120, 176
-0.971567, 201, 121, 264, 184
-0.97157, 25, 145, 88, 272
-0.971626, 153, 81, 216, 208
-0.97305, 257, 49, 500, 176
-0.97318, 377, 97, 440, 160
-0.97366, 225, 161, 288, 288
-0.973772, 1, 145, 64, 272
-0.974187, 1, 49, 128, 176
-0.974305, 209, 65, 336, 192
-0.974495, 393, 209, 456, 333
-0.974522, 233, 113, 264, 240
-0.974748, 1, 169, 64, 232
-0.97478, 257, 105, 384, 168
-0.974896, 65, 49, 192, 176
-0.974912, 193, 145, 256, 208
-0.974955, 25, 161, 88, 224
-0.975113, 305, 49, 368, 176
-0.975195, 261, 113, 292, 240
-0.975209, 297, 65, 360, 320
-0.975249, 177, 177, 240, 304
-0.97547, 129, 193, 256, 320
-0.975472, 145, 113, 208, 176
-0.97553, 353, 97, 416, 160
-0.975594, 177, 113, 240, 176
-0.975766, 289, 97, 320, 224
-0.975922, 257, 65, 320, 320
-0.975982, 1, 193, 128, 320
-0.975997, 273, 153, 336, 216
-0.976072, 401, 97, 464, 160
-0.976236, 369, 193, 432, 256
-0.976559, 337, 49, 464, 176
-0.976641, 9, 49, 72, 176
-0.976676, 161, 209, 416, 333
-0.97699, 249, 145, 312, 208
-0.97719, 265, 273, 328, 333
-0.977291, 1, 97, 32, 224
-0.977291, 353, 65, 416, 320
-0.977497, 1, 89, 64, 152
-0.977503, 57, 161, 120, 224
-0.977579, 113, 65, 240, 192
-0.977701, 189, 113, 220, 240
-0.97771, 217, 113, 248, 240
-0.977763, 177, 81, 240, 208
-0.977778, 113, 177, 176, 240
-0.977899, 217, 65, 280, 192
-0.977951, 137, 169, 200, 232
-0.978009, 273, 49, 400, 176
-0.978034, 121, 65, 184, 192
-0.978574, 81, 193, 208, 320
-0.978678, 137, 193, 200, 256
-0.97881, 297, 129, 360, 192
-0.978848, 97, 65, 160, 192
-0.978932, 161, 65, 224, 320
-0.978934, 121, 65, 184, 320
-0.978949, 81, 145, 208, 272
-0.97907, 33, 49, 96, 176
-0.979171, 57, 65, 120, 320
-0.979249, 433, 145, 496, 272
-0.979329, 81, 113, 208, 176
-0.979411, 277, 97, 308, 224
-0.979583, 177, 113, 304, 176
-0.979627, 273, 161, 336, 288
-0.97966, 17, 137, 80, 200
-0.979685, 161, 145, 224, 208
-0.979785, 245, 113, 276, 240
-0.979856, 393, 249, 456, 312
-0.979888, 329, 145, 392, 272
-0.980151, 393, 65, 456, 320
-0.980167, 401, 153, 464, 216
-0.980205, 297, 153, 360, 216
-0.980397, 145, 169, 272, 232
-0.980446, 49, 145, 112, 272
-0.980619, 465, 97, 496, 224
-0.980712, 409, 217, 472, 280
-0.980731, 237, 113, 268, 176
-0.980817, 69, 97, 100, 224
-0.98085, 241, 65, 304, 192
-0.980913, 321, 137, 384, 200
-0.980928, 1, 113, 128, 176
-0.980971, 321, 65, 384, 320
-0.981055, 113, 161, 176, 288
-0.981074, 81, 145, 144, 208
-0.981133, 21, 97, 52, 224
-0.981234, 433, 137, 496, 200
-0.981241, 53, 113, 84, 176
-0.981264, 325, 97, 356, 224
-0.981297, 369, 97, 496, 160
-0.981458, 113, 113, 144, 240
-0.981483, 1, 65, 64, 320
-0.981577, 393, 177, 456, 240
-0.981602, 217, 145, 280, 208
-0.98175, 205, 113, 236, 240
-0.981869, 329, 49, 392, 176
-0.981894, 1, 161, 128, 224
-0.981899, 1, 169, 32, 232
-0.982026, 41, 137, 104, 200
-0.982062, 321, 97, 448, 160
-0.982141, 305, 81, 368, 144
-0.982156, 361, 137, 424, 200
-0.982175, 25, 193, 88, 320
-0.982276, 177, 113, 208, 240
-0.982284, 25, 65, 88, 320
-0.982331, 241, 273, 304, 333
-0.982403, 137, 145, 200, 208
-0.982452, 361, 49, 424, 176
-0.982513, 297, 145, 360, 272
-0.982565, 281, 97, 312, 160
-0.982587, 45, 97, 76, 224
-0.98262, 97, 209, 160, 272
-0.982758, 65, 193, 128, 320
-0.982785, 165, 113, 196, 240
-0.982827, 81, 89, 144, 152
-0.982858, 81, 65, 144, 320
-0.982865, 449, 97, 480, 224
-0.982914, 201, 193, 264, 320
-0.982957, 93, 113, 124, 176
-0.983014, 393, 97, 424, 224
-0.983054, 237, 169, 268, 232
-0.983067, 353, 97, 384, 224
-0.98308, 321, 217, 448, 280
-0.983174, 241, 193, 368, 320
-0.983192, 201, 65, 264, 320
-0.983276, 113, 209, 176, 333
-0.983319, 217, 193, 280, 256
-0.98333, 1, 145, 32, 272
-0.983361, 41, 113, 72, 176
-0.98343, 121, 233, 184, 296
-0.9835, 221, 169, 252, 232
-0.983524, 273, 129, 336, 192
-0.983559, 109, 113, 140, 176
-0.983625, 93, 97, 124, 224
-0.983638, 313, 97, 344, 224
-0.98371, 265, 49, 328, 176
-0.98376, 209, 169, 240, 232
-0.983843, 413, 97, 444, 224
-0.983862, 5, 105, 36, 168
-0.983882, 177, 209, 304, 333
-0.983945, 249, 161, 280, 224
-0.983987, 425, 65, 488, 320
-0.984015, 289, 209, 352, 333
-0.984055, 301, 97, 332, 224
-0.984069, 353, 217, 416, 280
-0.984095, 133, 97, 164, 224
-0.984102, 353, 193, 480, 256
-0.984172, 97, 185, 224, 248
-0.984172, 225, 65, 288, 320
-0.984192, 129, 121, 256, 184
-0.984227, 41, 89, 104, 152
-0.984247, 437, 97, 468, 224
-0.984256, 305, 249, 432, 312
-0.98427, 81, 113, 112, 176
-0.984315, 49, 185, 176, 248
-0.984391, 121, 89, 184, 152
-0.984398, 73, 49, 136, 176
-0.984421, 29, 113, 60, 176
-0.984432, 193, 169, 320, 232
-0.984437, 209, 97, 272, 160
-0.984447, 417, 193, 480, 256
-0.984512, 89, 193, 152, 320
-0.984551, 273, 249, 336, 312
-0.984608, 257, 113, 288, 176
-0.984655, 145, 145, 272, 208
-0.984742, 357, 97, 388, 160
-0.98479, 81, 97, 112, 224
-0.984797, 269, 105, 300, 168
-0.984809, 13, 169, 44, 232
-0.984828, 381, 97, 412, 224
-0.984885, 329, 105, 360, 168
-0.984902, 457, 97, 488, 160
-0.984944, 169, 193, 232, 256
-0.984946, 341, 97, 372, 224
-0.984976, 1, 201, 64, 264
-0.984985, 69, 121, 100, 184
-0.985174, 145, 193, 272, 256
-0.985313, 97, 161, 224, 224
-0.985486, 309, 105, 340, 168
-0.985531, 57, 97, 88, 224
-0.985594, 281, 81, 344, 144
-0.985611, 469, 97, 500, 160
-0.985655, 409, 121, 472, 184
-0.985671, 81, 233, 144, 296
-0.985723, 81, 169, 144, 232
-0.985745, 253, 161, 284, 288
-0.985857, 293, 97, 324, 160
-0.985923, 161, 89, 288, 152
-0.98593, 249, 89, 312, 152
-0.985933, 33, 97, 64, 224
-0.986098, 133, 113, 164, 176
-0.986111, 1, 89, 128, 152
-0.986125, 33, 185, 96, 248
-0.986202, 153, 113, 184, 240
-0.986224, 273, 273, 400, 333
-0.986228, 225, 121, 256, 184
-0.986402, 381, 97, 412, 160
-0.986496, 445, 97, 476, 160
-0.986518, 257, 177, 320, 240
-0.986542, 365, 97, 396, 224
-0.986568, 385, 273, 448, 333
-0.98669, 209, 145, 336, 208
-0.986727, 17, 137, 144, 200
-0.986767, 409, 209, 440, 333
-0.987044, 205, 113, 236, 176
-0.987158, 105, 137, 168, 200
-0.987192, 57, 249, 120, 312
-0.98721, 225, 145, 256, 208
-0.987215, 305, 193, 432, 256
-0.987278, 97, 209, 224, 272
-0.987297, 257, 81, 384, 144
-0.9873, 345, 105, 376, 168
-0.987391, 257, 153, 384, 216
-0.987411, 329, 81, 392, 144
-0.987412, 145, 113, 176, 176
-0.987423, 393, 49, 456, 176
-0.987697, 369, 97, 400, 160
-0.987697, 17, 113, 48, 176
-0.987764, 297, 241, 360, 304
-0.987814, 353, 121, 480, 184
-0.988089, 289, 273, 352, 333
-0.988106, 121, 113, 152, 176
-0.988132, 425, 97, 456, 224
-0.98816, 1, 201, 128, 264
-0.988176, 181, 113, 212, 176
-0.988193, 1, 193, 64, 320
-0.988254, 369, 265, 496, 328
-0.988299, 257, 129, 384, 192
-0.988314, 57, 193, 120, 256
-0.988385, 193, 193, 256, 256
-0.988389, 433, 169, 496, 232
-0.988424, 417, 209, 480, 333
-0.988444, 369, 153, 496, 216
-0.988472, 161, 89, 224, 152
-0.988475, 293, 265, 324, 328
-0.988518, 5, 145, 36, 208
-0.988587, 433, 97, 464, 160
-0.988592, 81, 89, 208, 152
-0.988604, 209, 89, 336, 152
-0.988632, 345, 177, 408, 240
-0.988657, 193, 113, 224, 176
-0.988659, 421, 97, 452, 160
-0.98869, 161, 113, 192, 176
-0.98872, 433, 49, 496, 176
-0.98874, 333, 137, 364, 200
-0.988882, 305, 145, 432, 208
-0.988932, 185, 89, 248, 152
-0.988991, 21, 89, 52, 152
-0.989005, 237, 161, 268, 288
-0.989061, 265, 169, 296, 232
-0.989079, 273, 105, 336, 136
-0.989094, 393, 97, 424, 160
-0.9891, 329, 217, 392, 280
-0.989121, 353, 73, 416, 136
-0.989132, 193, 273, 320, 333
-0.989183, 281, 273, 312, 333
-0.989355, 197, 177, 228, 240
-0.989424, 257, 185, 384, 248
-0.989507, 193, 193, 320, 256
-0.989613, 97, 257, 160, 320
-0.989623, 145, 209, 176, 272
-0.989683, 193, 145, 224, 208
-0.989693, 385, 121, 448, 184
-0.989789, 313, 193, 376, 256
-0.989932, 405, 177, 436, 240
-0.98997, 161, 169, 192, 232
-0.990013, 137, 117, 200, 148
-0.990019, 209, 177, 240, 304
-0.990056, 65, 137, 192, 200
-0.990085, 41, 89, 72, 152
-0.990143, 73, 145, 136, 272
-0.99017, 33, 265, 160, 328
-0.990274, 241, 209, 304, 333
-0.990319, 465, 137, 496, 200
-0.990345, 385, 225, 448, 288
-0.990356, 1, 113, 64, 144
-0.990435, 313, 193, 376, 320
-0.990444, 105, 65, 136, 192
-0.990477, 313, 105, 376, 136
-0.990478, 9, 49, 40, 176
-0.990528, 321, 161, 384, 224
-0.990538, 33, 113, 96, 144
-0.990541, 353, 1, 416, 333
-0.990563, 305, 153, 336, 216
-0.990572, 233, 165, 296, 196
-0.990581, 273, 177, 336, 208
-0.990594, 209, 173, 272, 204
-0.990606, 33, 257, 96, 320
-0.990641, 305, 121, 432, 184
-0.99067, 153, 217, 216, 280
-0.99068, 257, 249, 384, 312
-0.990689, 233, 117, 296, 148
-0.990695, 321, 241, 384, 304
-0.99071, 153, 1, 216, 333
-0.990768, 185, 117, 248, 148
-0.990777, 409, 97, 440, 160
-0.990777, 417, 201, 448, 264
-0.990782, 185, 161, 216, 288
-0.990814, 229, 193, 260, 256
-0.990817, 185, 173, 248, 204
-0.990837, 205, 145, 236, 208
-0.990843, 209, 1, 272, 333
-0.990873, 89, 117, 152, 148
-0.990888, 57, 1, 120, 333
-0.990889, 137, 185, 168, 248
-0.990892, 369, 73, 496, 136
-0.990911, 317, 129, 348, 192
-0.990918, 393, 161, 424, 288
-0.990942, 257, 209, 384, 272
-0.990953, 113, 117, 176, 148
-0.990954, 369, 217, 496, 280
-0.990959, 249, 185, 312, 216
-0.991013, 185, 1, 248, 333
-0.991038, 65, 97, 96, 160
-0.991046, 369, 169, 432, 232
-0.991085, 253, 89, 284, 152
-0.991088, 345, 249, 408, 312
-0.991091, 161, 117, 224, 148
-0.9911, 57, 113, 120, 144
-0.991107, 297, 1, 360, 333
-0.991149, 265, 209, 328, 333
-0.991158, 305, 137, 368, 168
-0.991169, 25, 161, 88, 192
-0.991172, 241, 1, 304, 333
-0.991183, 305, 73, 432, 136
-0.991184, 145, 265, 208, 328
-0.991207, 69, 153, 100, 216
-0.991224, 177, 177, 208, 240
-0.991244, 49, 161, 176, 224
-0.991246, 161, 169, 224, 200
-0.991281, 409, 101, 472, 132
-0.991281, 321, 169, 448, 232
-0.991305, 13, 161, 44, 288
-0.991306, 281, 129, 344, 160
-0.991308, 33, 1, 96, 333
-0.991309, 169, 189, 232, 220
-0.991332, 297, 153, 360, 184
-0.99134, 97, 1, 160, 333
-0.991351, 185, 129, 248, 160
-0.991367, 137, 173, 200, 204
-0.99138, 337, 105, 400, 136
-0.991422, 9, 201, 72, 232
-0.991431, 433, 101, 496, 132
-0.991433, 381, 193, 412, 320
-0.991444, 225, 161, 256, 288
-0.991446, 145, 137, 208, 168
-0.991468, 209, 121, 272, 152
-0.991469, 97, 17, 352, 144
-0.991497, 5, 81, 36, 144
-0.991519, 281, 165, 344, 196
-0.991523, 1, 265, 64, 328
-0.991526, 345, 137, 408, 168
-0.991552, 241, 133, 304, 164
-0.991579, 29, 49, 60, 176
-0.991602, 369, 241, 496, 304
-0.991624, 225, 105, 480, 168
-0.991631, 433, 73, 496, 136
-0.991642, 1, 125, 64, 156
-0.991643, 137, 205, 200, 236
-0.991662, 249, 185, 280, 248
-0.991666, 361, 273, 424, 333
-0.991673, 1, 173, 64, 204
-0.991687, 41, 133, 104, 164
-0.991702, 377, 101, 440, 132
-0.991703, 273, 153, 336, 184
-0.991705, 225, 185, 288, 216
-0.991708, 241, 145, 304, 176
-0.991711, 217, 133, 280, 164
-0.99175, 25, 161, 56, 224
-0.99177, 401, 161, 464, 192
-0.991778, 105, 213, 168, 244
-0.991795, 41, 145, 104, 176
-0.991815, 377, 197, 440, 228
-0.991824, 289, 117, 352, 148
-0.991832, 433, 141, 496, 172
-0.99184, 129, 185, 192, 216
-0.99187, 33, 241, 160, 304
-0.991889, 273, 141, 336, 172
-0.991893, 249, 297, 312, 328
-0.991899, 25, 101, 88, 132
-0.9919, 313, 117, 376, 148
-0.991905, 377, 1, 440, 333
-0.991918, 201, 153, 264, 184
-0.991921, 321, 273, 448, 333
-0.991933, 49, 209, 176, 272
-0.991965, 177, 153, 240, 184
-0.991977, 129, 1, 192, 333
-0.992001, 9, 185, 72, 216
-0.992004, 49, 161, 112, 192
-0.992008, 209, 197, 272, 228
-0.992012, 97, 181, 160, 212
-0.992042, 177, 205, 240, 236
-0.992072, 401, 1, 464, 333
-0.992077, 289, 177, 352, 240
-0.99208, 405, 241, 436, 304
-0.992084, 97, 233, 224, 296
-0.992087, 417, 161, 448, 288
-0.99209, 65, 125, 128, 156
-0.992109, 317, 153, 348, 216
-0.992115, 329, 1, 392, 333
-0.992121, 385, 185, 448, 216
-0.992123, 257, 117, 320, 148
-0.992143, 409, 213, 472, 244
-0.992147, 241, 105, 304, 136
-0.992148, 369, 209, 432, 240
-0.992154, 257, 165, 320, 196
-0.992155, 113, 129, 176, 160
-0.992176, 1, 161, 64, 192
-0.992191, 377, 73, 440, 136
-0.992192, 65, 145, 128, 176
-0.992215, 273, 253, 336, 284
-0.992254, 425, 153, 488, 184
-0.992263, 73, 169, 136, 200
-0.992285, 393, 149, 456, 180
-0.992287, 1, 149, 64, 180
-0.992288, 9, 137, 72, 168
-0.992296, 57, 217, 120, 280
-0.992298, 289, 237, 352, 268
-0.9923, 1, 101, 64, 132
-0.992313, 153, 157, 216, 188
-0.99232, 393, 245, 456, 276
-0.99233, 113, 105, 176, 136
-0.992339, 273, 145, 304, 272
-0.992347, 1, 65, 64, 128
-0.992356, 401, 229, 464, 260
-0.992362, 377, 297, 440, 328
-0.992374, 385, 173, 448, 204
-0.992382, 89, 105, 152, 136
-0.992385, 193, 185, 256, 216
-0.992398, 297, 249, 360, 280
-0.992405, 345, 125, 408, 156
-0.992406, 169, 177, 200, 304
-0.992413, 1, 113, 256, 176
-0.992429, 361, 221, 424, 252
-0.992429, 385, 265, 448, 296
-0.99243, 417, 193, 480, 224
-0.992442, 377, 121, 440, 152
-0.99246, 225, 297, 288, 328
-0.992473, 269, 273, 300, 333
-0.992474, 53, 193, 84, 320
-0.992495, 409, 173, 472, 204
-0.992498, 417, 273, 480, 333
-0.992502, 321, 241, 384, 272
-0.99251, 377, 285, 440, 316
-0.992517, 417, 125, 480, 156
-0.99252, 281, 265, 344, 296
-0.992539, 321, 149, 384, 180
-0.992544, 105, 225, 168, 256
-0.992564, 185, 141, 248, 172
-0.992567, 1, 1, 64, 333
-0.992599, 65, 229, 128, 260
-0.992619, 289, 93, 352, 124
-0.99263, 33, 233, 96, 296
-0.992633, 1, 201, 32, 264
-0.992634, 49, 197, 112, 228
-0.992651, 241, 65, 272, 192
-0.992655, 369, 137, 432, 168
-0.992669, 369, 149, 432, 180
-0.99268, 1, 169, 32, 200
-0.992683, 1, 189, 32, 220
-0.992704, 409, 137, 472, 168
-0.992707, 145, 105, 208, 136
-0.99271, 89, 141, 152, 172
-0.992717, 313, 105, 344, 136
-0.99273, 221, 173, 252, 204
-0.992754, 1, 109, 32, 140
-0.992755, 241, 285, 304, 316
-0.992755, 73, 185, 136, 216
-0.992767, 97, 193, 160, 224
-0.992769, 409, 73, 472, 136
-0.992772, 285, 145, 316, 208
-0.992777, 233, 177, 264, 208
-0.992783, 285, 105, 316, 136
-0.992784, 21, 113, 52, 144
-0.992789, 321, 221, 384, 252
-0.992796, 41, 113, 72, 144
-0.992804, 33, 185, 96, 216
-0.992807, 129, 161, 192, 192
-0.992808, 105, 237, 168, 268
-0.992811, 261, 65, 292, 192
-0.992818, 165, 193, 196, 256
-0.992822, 333, 105, 364, 136
-0.992828, 13, 169, 44, 200
-0.992831, 273, 105, 304, 136
-0.99284, 145, 117, 176, 148
-0.992845, 433, 165, 496, 196
-0.992848, 89, 153, 152, 184
-0.99285, 313, 93, 376, 124
-0.992852, 253, 165, 284, 196
-0.992854, 305, 169, 368, 200
-0.992861, 265, 285, 328, 316
-0.992861, 57, 113, 88, 144
-0.992871, 237, 117, 268, 148
-0.992875, 345, 201, 408, 232
-0.992877, 209, 65, 240, 192
-0.992879, 245, 177, 276, 208
-0.992894, 309, 249, 340, 312
-0.992895, 353, 185, 416, 216
-0.992897, 209, 109, 272, 140
-0.992906, 433, 113, 496, 144
-0.992906, 153, 217, 216, 248
-0.992907, 297, 105, 328, 136
-0.99291, 69, 113, 100, 144
-0.992913, 313, 149, 344, 180
-0.992913, 217, 193, 248, 256
-0.992925, 233, 165, 264, 196
-0.992932, 293, 157, 324, 188
-0.992944, 373, 129, 404, 192
-0.992946, 377, 161, 440, 192
-0.99295, 157, 117, 188, 148
-0.992952, 33, 209, 96, 272
-0.992969, 233, 189, 264, 220
-0.992974, 313, 181, 376, 212
-0.992985, 17, 265, 80, 296
-0.992988, 97, 165, 160, 196
-0.992991, 329, 137, 360, 168
-0.993004, 265, 1, 328, 333
-0.993005, 133, 117, 164, 148
-0.993005, 209, 177, 240, 208
-0.993006, 297, 161, 328, 288
-0.993007, 1, 17, 256, 144
-0.99301, 325, 249, 356, 280
-0.99301, 113, 117, 144, 148
-0.993016, 185, 117, 216, 148
-0.993018, 197, 117, 228, 148
-0.993019, 1, 201, 32, 232
-0.99302, 9, 241, 72, 304
-0.993032, 5, 157, 36, 188
-0.993039, 173, 117, 204, 148
-0.993046, 453, 105, 484, 136
-0.993063, 277, 169, 308, 200
-0.993066, 221, 97, 252, 160
-0.993074, 149, 169, 180, 232
-0.993081, 261, 113, 292, 144
-0.993084, 25, 169, 56, 200
-0.993102, 269, 181, 300, 212
-0.993108, 73, 125, 104, 156
-0.99311, 225, 117, 256, 148
-0.993112, 129, 89, 160, 152
-0.993114, 189, 169, 220, 200
-0.993119, 93, 113, 124, 144
-0.993122, 353, 105, 384, 136
-0.993127, 205, 153, 236, 184
-0.99313, 469, 101, 500, 132
-0.993135, 425, 101, 456, 132
-0.993164, 305, 273, 336, 333
-0.993167, 441, 101, 472, 132
-0.993168, 181, 145, 212, 208
-0.99317, 205, 165, 236, 196
-0.993172, 53, 129, 84, 160
-0.993173, 277, 141, 308, 172
-0.993175, 81, 113, 112, 144
-0.993176, 249, 121, 280, 152
-0.993187, 209, 117, 240, 148
-0.993188, 13, 185, 44, 216
-0.993194, 289, 177, 320, 208
-0.993195, 217, 189, 248, 220
-0.993196, 21, 101, 52, 132
-0.9932, 265, 165, 296, 196
-0.993206, 365, 105, 396, 136
-0.993207, 373, 145, 404, 272
-0.993207, 377, 105, 408, 136
-0.993208, 289, 141, 320, 172
-0.993208, 465, 141, 496, 172
-0.993215, 181, 193, 212, 224
-0.993223, 185, 129, 216, 160
-0.993224, 245, 189, 276, 220
-0.993229, 313, 261, 344, 292
-0.993229, 273, 117, 304, 148
-0.993235, 13, 201, 44, 232
-0.993239, 125, 181, 156, 212
-0.993241, 209, 133, 240, 164
-0.993251, 73, 145, 104, 176
-0.993255, 313, 137, 344, 168
-0.993263, 237, 133, 268, 164
-0.993272, 221, 161, 252, 192
-0.993273, 237, 301, 268, 332
-0.993279, 249, 133, 280, 164
-0.993279, 337, 241, 368, 272
-0.99328, 185, 217, 248, 280
-0.993281, 393, 101, 424, 132
-0.993285, 269, 129, 300, 160
-0.993287, 165, 173, 196, 204
-0.993289, 165, 197, 196, 228
-0.993296, 225, 133, 256, 164
-0.9933, 173, 137, 204, 168
-0.993307, 405, 101, 436, 132
-0.993307, 329, 153, 360, 184
-0.99331, 225, 145, 256, 176
-0.993312, 29, 157, 60, 188
-0.993312, 381, 181, 412, 212
-0.993314, 117, 65, 148, 192
-0.99332, 1, 105, 500, 168
-0.993321, 45, 197, 76, 228
-0.993325, 153, 137, 184, 168
-0.993327, 209, 205, 240, 236
-0.993331, 113, 181, 144, 212
-0.993331, 273, 225, 336, 288
-0.993333, 309, 161, 340, 192
-0.993335, 65, 185, 96, 216
-0.993339, 301, 145, 332, 176
-0.993344, 257, 185, 288, 216
-0.99335, 241, 153, 272, 184
-0.99335, 161, 249, 288, 312
-0.993351, 121, 265, 184, 328
-0.993351, 261, 285, 292, 316
-0.993353, 137, 169, 168, 200
-0.993358, 277, 297, 308, 328
-0.993361, 189, 145, 220, 176
-0.993364, 269, 153, 300, 184
-0.993366, 341, 141, 372, 172
-0.993373, 41, 101, 72, 132
-0.993373, 321, 117, 352, 148
-0.993375, 125, 217, 156, 280
-0.993381, 129, 213, 160, 244
-0.993386, 417, 225, 448, 256
-0.993389, 305, 173, 336, 204
-0.99339, 337, 49, 368, 176
-0.993391, 145, 241, 208, 304
-0.993394, 53, 141, 84, 172
-0.993396, 377, 137, 408, 168
-0.993396, 305, 245, 336, 276
-0.993398, 309, 117, 340, 148
-0.993398, 209, 233, 336, 296
-0.993399, 145, 205, 176, 236
-0.993404, 1, 97, 32, 128
-0.993404, 293, 129, 324, 160
-0.993404, 265, 297, 296, 328
-0.993405, 277, 277, 308, 308
-0.993406, 409, 181, 440, 212
-0.993409, 193, 189, 224, 220
-0.993409, 133, 129, 164, 160
-0.99341, 197, 209, 228, 240
-0.993411, 281, 157, 312, 188
-0.993412, 97, 121, 352, 184
-0.993413, 137, 185, 168, 216
-0.993416, 37, 125, 68, 156
-0.993426, 261, 141, 292, 172
-0.993428, 85, 165, 116, 196
-0.993432, 369, 193, 400, 224
-0.993437, 25, 197, 56, 228
-0.99344, 305, 81, 336, 144
-0.993441, 89, 149, 120, 180
-0.993464, 117, 161, 148, 288
-0.993504, 57, 145, 88, 272
-0.993516, 125, 185, 156, 248
-0.993516, 405, 161, 436, 288
-0.993551, 305, 49, 336, 176
-0.993551, 1, 193, 32, 320
-0.993564, 333, 81, 364, 144
-0.993572, 257, 137, 288, 200
-0.993581, 181, 65, 212, 192
-0.993638, 89, 145, 120, 208
-0.993638, 385, 273, 416, 333
-0.993713, 165, 145, 196, 208
-0.99372, 145, 217, 272, 280
-0.993726, 369, 209, 400, 333
-0.99374, 313, 265, 376, 328
-0.993774, 97, 265, 224, 328
-0.993777, 105, 209, 136, 272
-0.993778, 25, 193, 56, 320
-0.993787, 169, 241, 232, 304
-0.993787, 25, 137, 56, 200
-0.993794, 113, 89, 144, 152
-0.993795, 249, 249, 312, 312
-0.993837, 45, 49, 76, 176
-0.993844, 429, 193, 460, 256
-0.993844, 145, 161, 176, 288
-0.993854, 57, 49, 88, 176
-0.993854, 149, 65, 180, 192
-0.993874, 257, 273, 288, 333
-0.993908, 101, 193, 132, 320
-0.993953, 237, 145, 268, 208
-0.993993, 357, 121, 388, 184
-0.993997, 349, 49, 380, 176
-0.994071, 433, 1, 496, 333
-0.99409, 181, 209, 212, 272
-0.99411, 273, 145, 304, 208
-0.994117, 93, 89, 124, 152
-0.994119, 257, 257, 500, 320
-0.994181, 417, 225, 448, 288
-0.994187, 429, 145, 460, 272
-0.994206, 113, 177, 144, 240
-0.99421, 101, 145, 132, 208
-0.994217, 165, 65, 196, 192
-0.994227, 13, 193, 44, 256
-0.99427, 417, 153, 448, 216
-0.994347, 1, 169, 256, 232
-0.994352, 421, 209, 452, 333
-0.994405, 293, 121, 324, 184
-0.994428, 201, 201, 232, 264
-0.994472, 229, 65, 260, 192
-0.99449, 381, 185, 412, 248
-0.99456, 361, 145, 392, 272
-0.994564, 53, 89, 84, 152
-0.994604, 69, 145, 100, 272
-0.994619, 241, 105, 368, 136
-0.994627, 277, 169, 308, 232
-0.994639, 37, 153, 68, 216
-0.994656, 81, 89, 112, 152
-0.994668, 73, 49, 104, 176
-0.994708, 81, 169, 112, 232
-0.994733, 297, 209, 328, 333
-0.994762, 325, 49, 356, 176
-0.994811, 141, 145, 172, 208
-0.994822, 285, 161, 316, 288
-0.994824, 37, 161, 68, 288
-0.994846, 377, 49, 408, 176
-0.99494, 361, 49, 392, 176
-0.994956, 329, 161, 360, 224
-0.995005, 97, 97, 352, 160
-0.995041, 13, 209, 44, 333
-0.995043, 433, 161, 464, 224
-0.99511, 321, 81, 352, 144
-0.995111, 193, 65, 224, 192
-0.995112, 193, 169, 448, 232
-0.995139, 361, 209, 392, 272
-0.99515, 295, 97, 310, 160
-0.995156, 177, 117, 304, 148
-0.995167, 349, 209, 380, 333
-0.99518, 345, 201, 376, 264
-0.99518, 249, 225, 312, 288
-0.995184, 85, 233, 116, 296
-0.995225, 257, 137, 500, 200
-0.995274, 193, 165, 320, 196
-0.995275, 197, 177, 228, 304
-0.99529, 11, 105, 26, 168
-0.995301, 297, 217, 360, 280
-0.995325, 453, 137, 484, 200
-0.995326, 39, 113, 54, 176
-0.995358, 261, 193, 292, 256
-0.995374, 257, 233, 500, 296
-0.995393, 125, 161, 156, 224
-0.995393, 293, 241, 324, 304
-0.995451, 93, 49, 124, 176
-0.995462, 53, 193, 84, 256
-0.995474, 217, 265, 280, 328
-0.995493, 285, 49, 316, 176
-0.995493, 465, 49, 496, 176
-0.995507, 141, 89, 172, 152
-0.995518, 51, 113, 66, 176
-0.995541, 109, 241, 140, 304
-0.995558, 289, 105, 416, 136
-0.995566, 321, 209, 352, 333
-0.99557, 81, 117, 208, 148
-0.995586, 425, 241, 488, 304
-0.995602, 129, 49, 160, 176
-0.995606, 1, 129, 500, 192
-0.995617, 393, 249, 424, 312
-0.995619, 345, 81, 376, 144
-0.995626, 247, 113, 262, 176
-0.99564, 63, 113, 78, 176
-0.995658, 17, 113, 144, 144
-0.995695, 41, 209, 72, 333
-0.995696, 9, 169, 24, 232
-0.995706, 129, 137, 160, 200
-0.995717, 1, 65, 128, 128
-0.995755, 1, 145, 256, 208
-0.995769, 157, 193, 188, 320
-0.995774, 161, 193, 416, 256
-0.995791, 17, 169, 32, 232
-0.995814, 337, 145, 368, 272
-0.995816, 133, 145, 164, 272
-0.99583, 145, 165, 272, 196
-0.995831, 69, 113, 84, 176
-0.995834, 161, 177, 288, 208
-0.995843, 269, 113, 284, 176
-0.995883, 279, 105, 294, 168
-0.995888, 107, 113, 122, 176
-0.995889, 57, 113, 72, 176
-0.995895, 273, 193, 304, 320
-0.995908, 349, 145, 380, 272
-0.995924, 95, 113, 110, 176
-0.99594, 85, 145, 116, 272
-0.995959, 17, 113, 32, 176
-0.995965, 5, 105, 20, 168
-0.995976, 477, 97, 492, 160
-0.995977, 85, 113, 100, 176
-0.995996, 241, 161, 368, 192
-0.996006, 483, 97, 498, 160
-0.996011, 117, 113, 132, 176
-0.996092, 45, 113, 60, 176
-0.996096, 129, 117, 256, 148
-0.996104, 241, 161, 256, 224
-0.99611, 79, 113, 94, 176
-0.996111, 225, 241, 288, 304
-0.996119, 257, 81, 500, 144
-0.996146, 219, 169, 234, 232
-0.996167, 1, 169, 16, 232
-0.996169, 65, 193, 320, 256
-0.996174, 287, 97, 302, 160
-0.996196, 311, 105, 326, 168
-0.996204, 261, 113, 276, 176
-0.996204, 123, 113, 138, 176
-0.996207, 193, 273, 256, 333
-0.996223, 1, 153, 500, 216
-0.996225, 1, 89, 256, 152
-0.996245, 353, 101, 480, 132
-0.996249, 253, 113, 268, 176
-0.996249, 471, 97, 486, 160
-0.996259, 335, 105, 350, 168
-0.996286, 329, 105, 344, 168
-0.996287, 343, 105, 358, 168
-0.996293, 101, 113, 116, 176
-0.99632, 1, 65, 32, 320
-0.996329, 321, 105, 336, 168
-0.996337, 81, 181, 208, 212
-0.996346, 353, 197, 480, 228
-0.996389, 301, 97, 316, 160
-0.996392, 385, 97, 400, 160
-0.996418, 25, 145, 56, 272
-0.996419, 321, 229, 448, 260
-0.996422, 349, 105, 364, 168
-0.996433, 237, 121, 252, 184
-0.996446, 465, 97, 480, 160
-0.996462, 465, 145, 496, 272
-0.996464, 209, 145, 336, 176
-0.996469, 1, 181, 128, 212
-0.99648, 371, 97, 386, 160
-0.996493, 97, 153, 352, 216
-0.996539, 129, 209, 160, 333
-0.996573, 177, 189, 304, 220
-0.996602, 353, 213, 480, 244
-0.996618, 157, 113, 172, 176
-0.996648, 25, 113, 40, 176
-0.996648, 231, 121, 246, 184
-0.996651, 5, 145, 20, 208
-0.996653, 31, 113, 46, 176
-0.996664, 17, 161, 144, 192
-0.996665, 129, 133, 256, 164
-0.996677, 393, 49, 424, 176
-0.996679, 271, 169, 286, 232
-0.996693, 1, 133, 128, 164
-0.996694, 445, 49, 476, 176
-0.996697, 193, 113, 208, 176
-0.99673, 225, 169, 240, 232
-0.996747, 1, 177, 500, 240
-0.996749, 147, 113, 162, 176
-0.996758, 129, 113, 144, 176
-0.996764, 49, 129, 176, 160
-0.996776, 457, 97, 472, 160
-0.996797, 179, 113, 194, 176
-0.996805, 305, 245, 432, 276
-0.996842, 357, 105, 372, 168
-0.996852, 241, 125, 368, 156
-0.996859, 353, 133, 480, 164
-0.996863, 15, 137, 30, 200
-0.996879, 199, 113, 214, 176
-0.996888, 187, 113, 202, 176
-0.996889, 177, 129, 304, 160
-0.996908, 305, 257, 432, 288
-0.996913, 377, 121, 392, 184
-0.996918, 377, 65, 408, 320
-0.996922, 241, 201, 304, 264
-0.996941, 419, 97, 434, 160
-0.996947, 447, 97, 462, 160
-0.99695, 19, 89, 34, 152
-0.996956, 379, 97, 394, 160
-0.996973, 231, 169, 246, 232
-0.996976, 145, 153, 272, 184
-0.996977, 129, 201, 256, 232
-0.996985, 171, 113, 186, 176
-0.996986, 251, 169, 266, 232
-0.996989, 437, 97, 452, 160
-0.99699, 305, 149, 432, 180
-0.997005, 401, 65, 432, 320
-0.997022, 225, 185, 352, 216
-0.997047, 137, 113, 152, 176
-0.997048, 209, 113, 224, 176
-0.997055, 321, 145, 336, 208
-0.997059, 13, 65, 44, 320
-0.997062, 293, 257, 308, 320
-0.997063, 305, 137, 432, 168
-0.997077, 309, 209, 340, 333
-0.997097, 129, 189, 256, 220
-0.997099, 225, 121, 240, 184
-0.9971, 25, 161, 40, 224
-0.997107, 393, 97, 408, 160
-0.997122, 273, 49, 304, 176
-0.997141, 413, 97, 428, 160
-0.997141, 277, 65, 308, 320
-0.997156, 425, 97, 440, 160
-0.99718, 185, 177, 200, 240
-0.997198, 193, 65, 320, 128
-0.997207, 97, 265, 352, 328
-0.997211, 301, 257, 316, 320
-0.997215, 353, 185, 480, 216
-0.997221, 1, 193, 128, 224
-0.997235, 365, 105, 380, 168
-0.997244, 1, 249, 500, 312
-0.99725, 329, 65, 360, 320
-0.997252, 207, 169, 222, 232
-0.997254, 309, 145, 340, 272
-0.997255, 97, 217, 352, 280
-0.997265, 337, 273, 400, 333
-0.997272, 213, 177, 228, 240
-0.997287, 313, 153, 328, 216
-0.99729, 481, 121, 496, 184
-0.997299, 353, 293, 480, 324
-0.997304, 407, 97, 422, 160
-0.997305, 399, 97, 414, 160
-0.997307, 365, 65, 396, 320
-0.99732, 333, 137, 348, 200
-0.99733, 155, 201, 170, 264
-0.997337, 219, 145, 234, 208
-0.997341, 33, 89, 48, 152
-0.997344, 209, 145, 224, 208
-0.997355, 259, 137, 274, 200
-0.997356, 163, 113, 178, 176
-0.997359, 45, 89, 60, 152
-0.997362, 7, 81, 22, 144
-0.997372, 475, 137, 490, 200
-0.997373, 193, 105, 320, 136
-0.997377, 297, 65, 328, 320
-0.99739, 265, 169, 280, 232
-0.997391, 113, 213, 240, 244
-0.997396, 1, 101, 128, 132
-0.9974, 145, 273, 272, 333
-0.997405, 257, 161, 272, 224
-0.997418, 317, 65, 348, 320
-0.997419, 97, 169, 224, 200
-0.99742, 289, 273, 416, 304
-0.99742, 89, 145, 104, 208
-0.997422, 413, 65, 444, 320
-0.997423, 177, 193, 192, 256
-0.997451, 347, 137, 362, 200
-0.997477, 409, 49, 440, 176
-0.997492, 49, 141, 176, 172
-0.997497, 229, 145, 244, 208
-0.997511, 257, 137, 384, 168
-0.997512, 431, 97, 446, 160
-0.997512, 219, 113, 234, 176
-0.997514, 285, 273, 300, 333
-0.997517, 1, 81, 16, 144
-0.99752, 239, 185, 254, 248
-0.997521, 73, 273, 136, 333
-0.997556, 277, 161, 292, 224
-0.997564, 273, 201, 336, 264
-0.997564, 1, 189, 16, 220
-0.997567, 25, 89, 40, 152
-0.997576, 145, 209, 160, 272
-0.997577, 315, 105, 330, 136
-0.997582, 327, 153, 342, 216
-0.997586, 1, 257, 256, 320
-0.997589, 433, 217, 496, 280
-0.997591, 369, 161, 496, 192
-0.997593, 203, 145, 218, 208
-0.997597, 349, 65, 380, 320
-0.9976, 145, 185, 160, 248
-0.9976, 257, 149, 384, 180
-0.997602, 189, 65, 220, 320
-0.997612, 25, 65, 56, 320
-0.997616, 321, 105, 336, 136
-0.997625, 193, 169, 208, 232
-0.997626, 289, 181, 416, 212
-0.997633, 469, 121, 484, 184
-0.997636, 437, 65, 468, 320
-0.997636, 39, 89, 54, 152
-0.997667, 289, 125, 416, 156
-0.997678, 59, 89, 74, 152
-0.997683, 213, 65, 244, 320
-0.997696, 13, 81, 28, 144
-0.997701, 295, 101, 310, 132
-0.997711, 37, 65, 68, 320
-0.997713, 369, 261, 496, 292
-0.997715, 79, 137, 94, 200
-0.997719, 305, 105, 320, 136
-0.997722, 233, 193, 248, 256
-0.997725, 41, 201, 56, 264
-0.99773, 69, 89, 84, 152
-0.997731, 429, 49, 460, 176
-0.997736, 283, 153, 298, 216
-0.997738, 1, 209, 500, 272
-0.997743, 13, 201, 28, 264
-0.997754, 81, 193, 208, 224
-0.997756, 305, 165, 432, 196
-0.997757, 177, 65, 208, 320
-0.997776, 287, 105, 302, 136
-0.997778, 1, 145, 128, 176
-0.997782, 125, 89, 140, 152
-0.997784, 277, 265, 292, 328
-0.997787, 257, 89, 272, 152
-0.997787, 369, 281, 496, 312
-0.997787, 177, 169, 192, 232
-0.99779, 267, 89, 282, 152
-0.997792, 307, 81, 322, 144
-0.997792, 397, 265, 412, 328
-0.997793, 133, 65, 164, 320
-0.997793, 265, 65, 296, 320
-0.997794, 389, 65, 420, 320
-0.997801, 279, 109, 294, 140
-0.997816, 17, 169, 32, 200
-0.997823, 11, 109, 26, 140
-0.997831, 5, 169, 20, 200
-0.997833, 327, 105, 342, 136
-0.997836, 289, 93, 416, 124
-0.99784, 21, 113, 36, 144
-0.997851, 305, 213, 432, 244
-0.997857, 65, 153, 192, 184
-0.997861, 109, 65, 140, 320
-0.997872, 259, 121, 274, 152
-0.997879, 225, 173, 240, 204
-0.997884, 97, 105, 224, 136
-0.997885, 17, 205, 144, 236
-0.997886, 187, 117, 202, 148
-0.997887, 369, 145, 496, 176
-0.997889, 333, 105, 348, 136
-0.997892, 69, 65, 100, 320
-0.997895, 67, 113, 82, 144
-0.997896, 145, 101, 272, 132
-0.997897, 57, 65, 88, 320
-0.997906, 233, 65, 264, 320
-0.997911, 175, 117, 190, 148
-0.997915, 49, 113, 64, 144
-0.997917, 161, 65, 192, 320
-0.997928, 425, 65, 456, 320
-0.997929, 35, 113, 50, 144
-0.997936, 7, 189, 22, 220
-0.997938, 65, 193, 96, 320
-0.99794, 241, 249, 368, 280
-0.997941, 209, 297, 336, 328
-0.997955, 289, 293, 416, 324
-0.99797, 337, 193, 368, 320
-0.99798, 369, 121, 496, 152
-0.997981, 193, 201, 320, 232
-0.997995, 159, 117, 174, 148
-0.997995, 11, 169, 26, 200
-0.997998, 25, 169, 40, 200
-0.997998, 49, 101, 176, 132
-0.998003, 257, 233, 384, 264
-0.998011, 217, 169, 232, 200
-0.998025, 5, 109, 20, 140
-0.998026, 1, 225, 256, 288
-0.998033, 59, 113, 74, 144
-0.99804, 245, 65, 276, 320
-0.998046, 249, 177, 264, 208
-0.99805, 137, 117, 152, 148
-0.998053, 77, 113, 92, 144
-0.998073, 49, 257, 176, 288
-0.998083, 339, 105, 354, 136
-0.998085, 369, 225, 496, 256
-0.998085, 29, 117, 44, 148
-0.998098, 247, 117, 262, 148
-0.998113, 369, 173, 496, 204
-0.998135, 457, 65, 488, 320
-0.998137, 311, 161, 326, 192
-0.998141, 239, 169, 254, 200
-0.998145, 149, 65, 180, 320
-0.998147, 165, 117, 180, 148
-0.998149, 251, 133, 266, 164
-0.998158, 129, 241, 384, 304
-0.998164, 243, 185, 258, 216
-0.998167, 279, 169, 294, 200
-0.99817, 15, 185, 30, 216
-0.998172, 65, 225, 192, 256
-0.998174, 369, 249, 496, 280
-0.998175, 113, 233, 240, 264
-0.998177, 233, 189, 248, 220
-0.998178, 65, 241, 192, 272
-0.998178, 91, 113, 106, 144
-0.998201, 201, 65, 232, 320
-0.998206, 237, 121, 252, 152
-0.998209, 3, 201, 18, 232
-0.998213, 81, 65, 112, 320
-0.998218, 321, 161, 352, 288
-0.998218, 1, 261, 128, 292
-0.998219, 185, 185, 200, 216
-0.998228, 181, 117, 196, 148
-0.99823, 241, 173, 368, 204
-0.998231, 253, 121, 268, 152
-0.998235, 161, 73, 416, 136
-0.99824, 207, 173, 222, 204
-0.998243, 269, 117, 284, 148
-0.998245, 183, 133, 198, 164
-0.998248, 147, 117, 162, 148
-0.998254, 69, 141, 84, 172
-0.998254, 153, 117, 168, 148
-0.99826, 345, 105, 360, 136
-0.998263, 215, 181, 230, 212
-0.998267, 69, 129, 84, 160
-0.998276, 113, 209, 144, 333
-0.998277, 205, 117, 220, 148
-0.998282, 337, 141, 352, 172
-0.998286, 59, 125, 74, 156
-0.998292, 261, 133, 276, 164
-0.998297, 257, 209, 500, 272
-0.998301, 131, 117, 146, 148
-0.998302, 315, 149, 330, 180
-0.998308, 475, 101, 490, 132
-0.998319, 41, 113, 56, 144
-0.99832, 85, 113, 100, 144
-0.998331, 249, 157, 280, 172
-0.998331, 369, 249, 432, 312
-0.998332, 177, 207, 208, 222
-0.998333, 165, 129, 196, 144
-0.998333, 265, 177, 296, 192
-0.998334, 289, 171, 320, 186
-0.998334, 65, 121, 96, 136
-0.998334, 309, 117, 340, 132
-0.998334, 21, 109, 52, 124
-0.998334, 323, 149, 338, 180
-0.998334, 261, 121, 292, 136
-0.998335, 133, 213, 164, 228
-0.998335, 333, 245, 364, 260
-0.998335, 425, 105, 456, 120
-0.998335, 49, 161, 80, 176
-0.998336, 121, 217, 152, 232
-0.998336, 169, 135, 200, 150
-0.998336, 447, 101, 462, 132
-0.998336, 269, 109, 300, 124
-0.998337, 261, 311, 292, 326
-0.998338, 413, 105, 444, 120
-0.998338, 301, 173, 332, 188
-0.998338, 189, 211, 220, 226
-0.998338, 259, 161, 274, 192
-0.998339, 201, 127, 232, 142
-0.99834, 177, 127, 208, 142
-0.99834, 165, 175, 196, 190
-0.99834, 37, 203, 68, 218
-0.998341, 257, 139, 288, 154
-0.998341, 201, 169, 216, 200
-0.998342, 381, 147, 412, 162
-0.998342, 21, 197, 52, 212
-0.998343, 29, 209, 60, 224
-0.998343, 57, 127, 88, 142
-0.998344, 125, 117, 140, 148
-0.998344, 117, 119, 148, 134
-0.998344, 201, 209, 232, 224
-0.998344, 277, 185, 308, 200
-0.998345, 231, 121, 246, 152
-0.998347, 245, 181, 276, 196
-0.998347, 1, 107, 32, 122
-0.998347, 287, 165, 302, 196
-0.998348, 333, 155, 364, 170
-0.998348, 341, 135, 372, 150
-0.998348, 381, 105, 412, 120
-0.998349, 349, 127, 380, 142
-0.998349, 93, 185, 124, 200
-0.998349, 457, 105, 488, 120
-0.998349, 141, 207, 172, 222
-0.99835, 397, 105, 428, 120
-0.998353, 289, 117, 320, 132
-0.998354, 13, 183, 44, 198
-0.998354, 121, 65, 152, 320
-0.998355, 205, 181, 236, 196
-0.998355, 261, 157, 292, 172
-0.998356, 273, 157, 304, 172
-0.998357, 293, 179, 324, 194
-0.998357, 189, 131, 220, 146
-0.998357, 241, 197, 272, 212
-0.998358, 241, 141, 272, 156
-0.998359, 221, 171, 252, 186
-0.998359, 469, 103, 500, 118
-0.998359, 209, 205, 224, 236
-0.99836, 137, 177, 168, 192
-0.99836, 165, 207, 196, 222
-0.99836, 485, 101, 500, 132
-0.998361, 105, 185, 136, 200
-0.998361, 317, 171, 348, 186
-0.998362, 25, 173, 56, 188
-0.998363, 321, 147, 352, 162
-0.998364, 41, 123, 72, 138
-0.998366, 297, 151, 328, 166
-0.998369, 205, 167, 236, 182
-0.998369, 197, 117, 212, 148
-0.998371, 309, 161, 340, 176
-0.998371, 105, 117, 136, 132
-0.998372, 213, 127, 244, 142
-0.998373, 225, 185, 256, 200
-0.998373, 189, 125, 220, 140
-0.998373, 229, 201, 260, 216
-0.998374, 161, 121, 192, 136
-0.998375, 9, 205, 24, 236
-0.998376, 441, 105, 472, 120
-0.998376, 351, 105, 366, 136
-0.998377, 231, 169, 246, 200
-0.998378, 217, 121, 248, 136
-0.998378, 293, 163, 324, 178
-0.998378, 257, 193, 288, 208
-0.998378, 369, 105, 400, 120
-0.998379, 309, 147, 340, 162
-0.99838, 75, 125, 90, 156
-0.99838, 465, 101, 480, 132
-0.99838, 213, 205, 244, 220
-0.99838, 369, 105, 384, 136
-0.99838, 1, 209, 32, 224
-0.99838, 85, 115, 116, 130
-0.998382, 165, 181, 196, 196
-0.998383, 273, 169, 288, 200
-0.998384, 181, 173, 212, 188
-0.998385, 81, 193, 112, 320
-0.998385, 241, 165, 272, 180
-0.998385, 257, 115, 288, 130
-0.998387, 253, 173, 284, 188
-0.998388, 341, 107, 372, 122
-0.998389, 321, 155, 352, 170
-0.99839, 153, 207, 184, 222
-0.998391, 13, 177, 44, 192
-0.998392, 129, 183, 160, 198
-0.998392, 233, 177, 264, 192
-0.998393, 277, 171, 308, 186
-0.998393, 385, 105, 400, 136
-0.998393, 193, 119, 224, 134
-0.998394, 221, 165, 252, 180
-0.998394, 17, 203, 48, 218
-0.998395, 229, 121, 260, 136
-0.998398, 29, 105, 44, 136
-0.9984, 1, 187, 32, 202
-0.998401, 357, 133, 388, 148
-0.998401, 435, 101, 450, 132
-0.998402, 65, 115, 96, 130
-0.998407, 353, 105, 384, 120
-0.998408, 17, 201, 32, 232
-0.998408, 225, 193, 256, 208
-0.998409, 181, 119, 212, 134
-0.998409, 13, 117, 44, 132
-0.99841, 189, 129, 204, 160
-0.998411, 145, 117, 176, 132
-0.998412, 293, 107, 324, 122
-0.998413, 129, 117, 160, 132
-0.998414, 329, 141, 344, 172
-0.998416, 221, 177, 252, 192
-0.998417, 1, 195, 32, 210
-0.998423, 281, 179, 312, 194
-0.998424, 285, 157, 316, 172
-0.998426, 329, 107, 360, 122
-0.99843, 29, 165, 60, 180
-0.998431, 25, 117, 56, 132
-0.998431, 93, 65, 124, 320
-0.998433, 297, 157, 328, 172
-0.998433, 237, 187, 268, 202
-0.998433, 313, 107, 344, 122
-0.998434, 265, 187, 296, 202
-0.998435, 117, 183, 148, 198
-0.998435, 369, 131, 400, 146
-0.998435, 273, 115, 304, 130
-0.998436, 225, 117, 240, 148
-0.99844, 281, 181, 296, 212
-0.998442, 15, 157, 30, 188
-0.998442, 111, 113, 126, 144
-0.998442, 219, 117, 234, 148
-0.998443, 193, 171, 224, 186
-0.998445, 45, 115, 76, 130
-0.998447, 441, 145, 472, 272
-0.998447, 205, 121, 236, 136
-0.998455, 455, 101, 470, 132
-0.99846, 275, 185, 290, 216
-0.998462, 273, 109, 336, 124
-0.998463, 117, 117, 132, 148
-0.998463, 311, 117, 326, 148
-0.998465, 85, 125, 100, 156
-0.998475, 265, 163, 296, 178
-0.998477, 361, 105, 376, 136
-0.998478, 1, 113, 32, 128
-0.998478, 429, 153, 444, 184
-0.998484, 209, 173, 240, 188
-0.998485, 217, 167, 280, 182
-0.998486, 191, 177, 206, 208
-0.998486, 375, 105, 390, 136
-0.998489, 285, 209, 316, 333
-0.99849, 195, 129, 210, 160
-0.998494, 281, 105, 312, 120
-0.998496, 233, 171, 264, 186
-0.998497, 177, 173, 240, 188
-0.998499, 309, 153, 340, 168
-0.998508, 5, 203, 36, 218
-0.998508, 209, 281, 336, 312
-0.99851, 293, 165, 308, 196
-0.998511, 425, 101, 440, 132
-0.998511, 241, 261, 368, 292
-0.998518, 105, 113, 120, 144
-0.99852, 287, 177, 302, 208
-0.998521, 299, 153, 314, 184
-0.998525, 33, 115, 96, 130
-0.998527, 31, 165, 46, 196
-0.998528, 175, 197, 190, 228
-0.99853, 9, 169, 40, 184
-0.998537, 343, 137, 358, 168
-0.998543, 113, 183, 176, 198
-0.998547, 241, 163, 304, 178
-0.998552, 233, 177, 296, 192
-0.998554, 89, 165, 104, 196
-0.998558, 265, 173, 280, 204
-0.998558, 201, 177, 264, 192
-0.998559, 317, 117, 332, 148
-0.998565, 313, 107, 376, 122
-0.998565, 201, 209, 216, 240
-0.998566, 45, 125, 60, 156
-0.998567, 253, 165, 284, 180
-0.998568, 97, 113, 112, 144
-0.998569, 273, 167, 336, 182
-0.998569, 247, 165, 262, 196
-0.998571, 1, 115, 64, 130
-0.998573, 221, 193, 236, 224
-0.998574, 121, 117, 184, 132
-0.998574, 289, 133, 304, 164
-0.998576, 265, 115, 328, 130
-0.998576, 273, 177, 336, 192
-0.998578, 161, 119, 224, 134
-0.998578, 9, 205, 72, 220
-0.998579, 305, 153, 368, 168
-0.998579, 249, 169, 312, 184
-0.998585, 75, 137, 90, 168
-0.998585, 89, 183, 152, 198
-0.998586, 73, 115, 136, 130
-0.998587, 1, 187, 64, 202
-0.998588, 193, 165, 256, 180
-0.998591, 65, 213, 192, 244
-0.998591, 345, 105, 408, 120
-0.998592, 185, 173, 200, 204
-0.998593, 441, 101, 456, 132
-0.998594, 289, 117, 304, 148
-0.998595, 177, 127, 240, 142
-0.998596, 393, 101, 408, 132
-0.998597, 137, 209, 200, 224
-0.998598, 131, 181, 146, 212
-0.998598, 137, 179, 200, 194
-0.9986, 265, 157, 328, 172
-0.998602, 231, 133, 246, 164
-0.998602, 241, 115, 304, 130
-0.998604, 201, 123, 264, 138
-0.998605, 191, 165, 206, 196
-0.998606, 313, 141, 376, 156
-0.998607, 1, 97, 16, 128
-0.998607, 409, 163, 472, 178
-0.998607, 287, 289, 302, 320
-0.998608, 401, 105, 464, 120
-0.998608, 209, 189, 272, 204
-0.99861, 97, 117, 160, 132
-0.99861, 241, 141, 304, 156
-0.998613, 305, 117, 368, 132
-0.998614, 17, 165, 80, 180
-0.998615, 225, 121, 288, 136
-0.998615, 337, 137, 400, 152
-0.998624, 249, 185, 312, 200
-0.998624, 153, 173, 216, 188
-0.998628, 169, 199, 232, 214
-0.998629, 305, 171, 368, 186
-0.998629, 369, 105, 432, 120
-0.99863, 353, 131, 416, 146
-0.998631, 305, 147, 368, 162
-0.998635, 385, 187, 448, 202
-0.998636, 209, 135, 272, 150
-0.998636, 129, 129, 192, 144
-0.998636, 1, 109, 64, 124
-0.998637, 17, 199, 80, 214
-0.998637, 161, 181, 224, 196
-0.998643, 193, 183, 256, 198
-0.998644, 177, 133, 240, 148
-0.998644, 137, 185, 200, 200
-0.998645, 425, 105, 488, 120
-0.998646, 41, 155, 104, 170
-0.998647, 281, 151, 344, 166
-0.998649, 273, 145, 336, 160
-0.99865, 153, 129, 216, 144
-0.99865, 121, 135, 184, 150
-0.99865, 201, 143, 264, 158
-0.998651, 49, 187, 112, 202
-0.998651, 361, 137, 424, 152
-0.998655, 233, 193, 296, 208
-0.998657, 145, 137, 208, 152
-0.998658, 33, 123, 96, 138
-0.998658, 17, 229, 144, 260
-0.998659, 313, 135, 376, 150
-0.99866, 377, 205, 440, 220
-0.998662, 385, 193, 448, 208
-0.998662, 49, 161, 112, 176
-0.998663, 1, 171, 64, 186
-0.998664, 329, 115, 392, 130
-0.998665, 113, 177, 176, 192
-0.998665, 393, 169, 456, 184
-0.998666, 1, 121, 64, 136
-0.998666, 9, 177, 72, 192
-0.998667, 65, 179, 128, 194
-0.998667, 225, 183, 288, 198
-0.998668, 33, 205, 96, 220
-0.998668, 377, 299, 440, 314
-0.998668, 249, 313, 312, 328
-0.998668, 57, 193, 120, 208
-0.998668, 209, 201, 272, 216
-0.998669, 217, 315, 280, 330
-0.99867, 57, 123, 120, 138
-0.99867, 185, 209, 248, 224
-0.99867, 177, 141, 240, 156
-0.99867, 377, 131, 440, 146
-0.998671, 25, 187, 88, 202
-0.998672, 145, 203, 208, 218
-0.998672, 377, 199, 440, 214
-0.998672, 49, 199, 112, 214
-0.998673, 177, 191, 240, 206
-0.998673, 385, 149, 448, 164
-0.998673, 73, 157, 136, 172
-0.998673, 161, 167, 224, 182
-0.998674, 9, 131, 72, 146
-0.998674, 185, 117, 248, 132
-0.998674, 201, 149, 264, 164
-0.998674, 281, 137, 344, 152
-0.998675, 233, 307, 296, 322
-0.998675, 361, 147, 424, 162
-0.998676, 1, 41, 128, 104
-0.998676, 273, 103, 336, 118
-0.998677, 257, 281, 320, 296
-0.998678, 369, 167, 432, 182
-0.998678, 305, 201, 432, 232
-0.998679, 265, 121, 328, 136
-0.998679, 433, 113, 496, 128
-0.99868, 401, 247, 464, 262
-0.99868, 17, 159, 80, 174
-0.998681, 105, 189, 168, 204
-0.998681, 249, 147, 312, 162
-0.998681, 409, 157, 472, 172
-0.998682, 9, 137, 72, 152
-0.998683, 401, 179, 464, 194
-0.998684, 113, 207, 176, 222
-0.998684, 97, 129, 160, 144
-0.998684, 409, 225, 472, 240
-0.998684, 1, 81, 500, 144
-0.998685, 73, 151, 136, 166
-0.998686, 81, 189, 144, 204
-0.998686, 345, 203, 408, 218
-0.998686, 409, 215, 472, 230
-0.998687, 361, 153, 424, 168
-0.998687, 33, 139, 96, 154
-0.998688, 89, 175, 152, 190
-0.998688, 329, 129, 392, 144
-0.998689, 369, 221, 432, 236
-0.998689, 369, 111, 432, 126
-0.998691, 233, 157, 296, 172
-0.998691, 137, 215, 200, 230
-0.998705, 145, 301, 272, 332
-0.998722, 1, 273, 128, 304
-0.998737, 141, 209, 172, 333
-0.998765, 469, 65, 500, 320
-0.998769, 369, 89, 496, 120
-0.998793, 241, 93, 368, 124
-0.998821, 161, 213, 288, 244
-0.998835, 209, 217, 272, 280
-0.998841, 265, 113, 280, 240
-0.998862, 17, 241, 144, 272
-0.998885, 303, 97, 318, 224
-0.998886, 249, 209, 280, 333
-0.998889, 15, 97, 30, 224
-0.998895, 293, 97, 308, 224
-0.998895, 193, 113, 208, 240
-0.998905, 257, 113, 272, 240
-0.998912, 369, 237, 496, 268
-0.998922, 257, 221, 384, 252
-0.998936, 3, 97, 18, 224
-0.998944, 1, 217, 128, 248
-0.998963, 231, 113, 246, 240
-0.998964, 251, 113, 266, 240
-0.998965, 283, 97, 298, 224
-0.998973, 199, 113, 214, 240
-0.998977, 225, 113, 240, 240
-0.99898, 21, 97, 36, 224
-0.99898, 241, 113, 256, 240
-0.998984, 9, 97, 24, 224
-0.998991, 313, 97, 328, 224
-0.998999, 479, 97, 494, 224
-0.999012, 343, 97, 358, 224
-0.99903, 485, 97, 500, 224
-0.999034, 271, 113, 286, 240
-0.999044, 219, 113, 234, 240
-0.999044, 329, 57, 392, 120
-0.999045, 77, 97, 92, 224
-0.99906, 337, 97, 352, 224
-0.999077, 469, 97, 484, 224
-0.999079, 205, 113, 220, 240
-0.999083, 277, 97, 292, 224
-0.999086, 187, 113, 202, 240
-0.999088, 185, 209, 216, 333
-0.999092, 439, 97, 454, 224
-0.9991, 229, 209, 260, 333
-0.999112, 179, 129, 194, 256
-0.999118, 63, 97, 78, 224
-0.999119, 51, 97, 66, 224
-0.999123, 325, 97, 340, 224
-0.999125, 127, 113, 142, 240
-0.999129, 355, 97, 370, 224
-0.999137, 57, 97, 72, 224
-0.999142, 331, 97, 346, 224
-0.999143, 213, 113, 228, 240
-0.999148, 409, 97, 424, 224
-0.999148, 367, 97, 382, 224
-0.999155, 69, 97, 84, 224
-0.999157, 455, 97, 470, 224
-0.999158, 49, 269, 176, 300
-0.999165, 27, 97, 42, 224
-0.999178, 97, 97, 112, 224
-0.999186, 461, 97, 476, 224
-0.9992, 45, 97, 60, 224
-0.999201, 401, 97, 416, 224
-0.999204, 427, 97, 442, 224
-0.999206, 111, 97, 126, 224
-0.999207, 83, 97, 98, 224
-0.999218, 161, 113, 176, 240
-0.999221, 445, 97, 460, 224
-0.999224, 349, 97, 364, 224
-0.999232, 167, 113, 182, 240
-0.999234, 377, 97, 392, 224
-0.999235, 319, 97, 334, 224
-0.999235, 91, 97, 106, 224
-0.999237, 393, 209, 424, 333
-0.999238, 35, 97, 50, 224
-0.999246, 103, 97, 118, 224
-0.999252, 1, 161, 16, 288
-0.999253, 117, 97, 132, 224
-0.999254, 419, 97, 434, 224
-0.999263, 113, 273, 240, 304
-0.999285, 97, 257, 224, 288
-0.999288, 257, 201, 384, 232
-0.999289, 155, 113, 170, 240
-0.99929, 129, 289, 256, 320
-0.999295, 15, 161, 30, 288
-0.999298, 147, 113, 162, 240
-0.9993, 395, 97, 410, 224
-0.999312, 453, 145, 484, 272
-0.999314, 433, 97, 448, 224
-0.999315, 387, 97, 402, 224
-0.999332, 187, 177, 202, 304
-0.999336, 173, 113, 188, 240
-0.999352, 49, 281, 176, 312
-0.999361, 7, 145, 22, 272
-0.999367, 137, 97, 152, 224
-0.999377, 411, 161, 426, 288
-0.999381, 193, 93, 320, 124
-0.999389, 361, 97, 376, 224
-0.999396, 17, 49, 32, 176
-0.999403, 209, 221, 336, 252
-0.999419, 101, 145, 132, 272
-0.999432, 1, 289, 128, 320
-0.999438, 177, 265, 304, 296
-0.999447, 259, 161, 274, 288
-0.999451, 69, 145, 84, 272
-0.99946, 161, 225, 288, 256
-0.999469, 215, 177, 230, 304
-0.99947, 243, 161, 258, 288
-0.999482, 177, 193, 192, 320
-0.999483, 145, 249, 272, 280
-0.999484, 371, 145, 386, 272
-0.999485, 9, 49, 24, 176
-0.999485, 29, 49, 44, 176
-0.999485, 433, 161, 448, 288
-0.999485, 123, 65, 138, 192
-0.999496, 179, 81, 194, 208
-0.999497, 421, 209, 436, 333
-0.999499, 419, 161, 434, 288
-0.999502, 405, 177, 420, 304
-0.999504, 25, 177, 40, 304
-0.999507, 209, 177, 224, 304
-0.999509, 397, 193, 412, 320
-0.999512, 253, 161, 268, 288
-0.999515, 23, 49, 38, 176
-0.999526, 267, 161, 282, 288
-0.999531, 209, 65, 224, 192
-0.999531, 233, 177, 248, 304
-0.999531, 105, 193, 120, 320
-0.999534, 3, 49, 18, 176
-0.999536, 209, 237, 336, 268
-0.999536, 113, 209, 128, 333
-0.999536, 67, 49, 82, 176
-0.999539, 353, 49, 368, 176
-0.999542, 197, 177, 212, 304
-0.999542, 159, 65, 174, 192
-0.999551, 159, 117, 174, 132
-0.999551, 281, 163, 296, 178
-0.999552, 389, 105, 404, 120
-0.999552, 5, 107, 20, 122
-0.999552, 243, 177, 258, 192
-0.999552, 337, 49, 352, 176
-0.999552, 231, 189, 246, 204
-0.999552, 209, 209, 224, 224
-0.999552, 81, 157, 96, 172
-0.999552, 303, 177, 318, 192
-0.999552, 67, 127, 82, 142
-0.999553, 195, 173, 210, 188
-0.999554, 189, 119, 204, 134
-0.999555, 277, 157, 292, 172
-0.999555, 217, 181, 232, 196
-0.999555, 203, 119, 218, 134
-0.999555, 253, 143, 268, 158
-0.999555, 331, 249, 346, 264
-0.999555, 117, 117, 132, 132
-0.999556, 457, 105, 472, 120
-0.999556, 59, 115, 74, 130
-0.999558, 177, 209, 192, 224
-0.999558, 1, 171, 16, 186
-0.999559, 197, 65, 212, 192
-0.999559, 37, 49, 52, 176
-0.999559, 27, 171, 42, 186
-0.999559, 255, 193, 270, 208
-0.99956, 59, 161, 74, 288
-0.99956, 91, 115, 106, 130
-0.99956, 353, 135, 368, 150
-0.99956, 261, 137, 276, 152
-0.99956, 233, 181, 248, 196
-0.99956, 249, 195, 264, 210
-0.99956, 187, 173, 202, 188
-0.999561, 403, 183, 418, 198
-0.999561, 207, 179, 222, 194
-0.999561, 127, 119, 142, 134
-0.999561, 269, 121, 284, 136
-0.999562, 283, 173, 298, 188
-0.999562, 151, 115, 166, 130
-0.999562, 191, 179, 206, 194
-0.999563, 183, 119, 198, 134
-0.999563, 225, 65, 240, 192
-0.999564, 271, 189, 286, 204
-0.999564, 201, 175, 216, 190
-0.999566, 197, 125, 212, 140
-0.999567, 17, 111, 32, 126
-0.999568, 445, 161, 460, 288
-0.999568, 307, 119, 322, 134
-0.999568, 137, 181, 152, 196
-0.999569, 9, 169, 24, 184
-0.99957, 239, 183, 254, 198
-0.99957, 175, 121, 190, 136
-0.99957, 5, 113, 20, 128
-0.99957, 373, 105, 388, 120
-0.99957, 33, 167, 48, 182
-0.999571, 273, 175, 288, 190
-0.999571, 203, 125, 218, 140
-0.999571, 377, 145, 392, 272
-0.999572, 365, 133, 380, 148
-0.999572, 265, 65, 280, 192
-0.999572, 259, 65, 274, 192
-0.999573, 277, 187, 292, 202
-0.999573, 239, 193, 254, 208
-0.999575, 229, 123, 244, 138
-0.999575, 117, 185, 132, 200
-0.999576, 65, 117, 80, 132
-0.999576, 211, 173, 226, 188
-0.999576, 1, 195, 16, 210
-0.999576, 297, 115, 312, 130
-0.999576, 313, 117, 328, 132
-0.999577, 169, 121, 184, 136
-0.999577, 233, 201, 248, 216
-0.999577, 235, 65, 250, 192
-0.999578, 245, 183, 260, 198
-0.999578, 143, 117, 158, 132
-0.999579, 381, 133, 396, 148
-0.999579, 391, 195, 406, 210
-0.99958, 309, 49, 324, 176
-0.99958, 265, 191, 280, 206
-0.99958, 215, 65, 230, 192
-0.999581, 271, 115, 286, 130
-0.999581, 39, 117, 54, 132
-0.999581, 139, 161, 154, 288
-0.999582, 301, 155, 316, 170
-0.999582, 331, 153, 346, 168
-0.999582, 325, 253, 340, 268
-0.999583, 287, 115, 302, 130
-0.999583, 245, 65, 260, 192
-0.999583, 81, 115, 96, 130
-0.999583, 249, 175, 264, 190
-0.999584, 225, 177, 240, 192
-0.999584, 137, 117, 152, 132
-0.999585, 229, 171, 244, 186
-0.999585, 225, 177, 240, 304
-0.999587, 169, 65, 184, 192
-0.999588, 73, 115, 88, 130
-0.999588, 427, 193, 442, 320
-0.999589, 371, 131, 386, 146
-0.99959, 363, 105, 378, 120
-0.999591, 233, 195, 248, 210
-0.999592, 7, 187, 22, 202
-0.999593, 343, 49, 358, 176
-0.999593, 187, 65, 202, 192
-0.999593, 161, 161, 176, 288
-0.999593, 275, 163, 290, 178
-0.999594, 415, 209, 430, 333
-0.999594, 337, 107, 352, 122
-0.999596, 45, 115, 60, 130
-0.999596, 205, 169, 220, 184
-0.999596, 301, 107, 316, 122
-0.999597, 327, 49, 342, 176
-0.999597, 263, 165, 278, 180
-0.999598, 197, 119, 212, 134
-0.999598, 27, 177, 42, 192
-0.999599, 151, 65, 166, 192
-0.999599, 75, 161, 90, 288
-0.999601, 203, 65, 218, 192
-0.999601, 153, 193, 168, 320
-0.999601, 315, 145, 330, 160
-0.999601, 353, 107, 368, 122
-0.999602, 313, 107, 328, 122
-0.999602, 323, 107, 338, 122
-0.999602, 215, 121, 230, 136
-0.999606, 331, 107, 346, 122
-0.999606, 241, 169, 256, 184
-0.999607, 343, 107, 358, 122
-0.999607, 209, 121, 224, 136
-0.999608, 289, 161, 304, 288
-0.999608, 51, 115, 66, 130
-0.999611, 321, 145, 336, 160
-0.999613, 275, 169, 290, 184
-0.999614, 223, 121, 238, 136
-0.999614, 245, 189, 260, 204
-0.999616, 31, 117, 46, 132
-0.999616, 397, 189, 412, 204
-0.999616, 3, 207, 18, 222
-0.999616, 131, 183, 146, 198
-0.999619, 15, 169, 30, 184
-0.999626, 1, 69, 128, 100
-0.999627, 123, 183, 138, 198
-0.999633, 11, 111, 26, 126
-0.999633, 311, 153, 326, 168
-0.999634, 279, 117, 294, 132
-0.999636, 295, 105, 310, 120
-0.999642, 21, 117, 36, 132
-0.999642, 1, 189, 16, 204
-0.999644, 247, 167, 262, 182
-0.999647, 21, 169, 36, 184
-0.999651, 307, 109, 322, 124
-0.999652, 17, 205, 32, 220
-0.99966, 321, 151, 336, 166
-0.999661, 285, 107, 300, 122
-0.999666, 255, 165, 270, 180
-0.999671, 9, 205, 24, 220
-0.999674, 269, 163, 284, 178
-0.999675, 217, 173, 232, 188
-0.999675, 437, 209, 468, 333
-0.999684, 279, 111, 294, 126
-0.999786, 1, 1, 500, 128
-0.999807, 1, 57, 128, 88
-0.999808, 81, 293, 208, 324
-0.999842, 161, 237, 288, 268
-0.999885, 1, 273, 500, 333
-0.999956, 161, 277, 288, 308
-1.00001, 1, 81, 128, 112
-1.00005, 1, 301, 128, 332
-1.00008, 273, 65, 400, 96
-1.00012, 193, 249, 320, 280
-1.00018, 97, 93, 224, 124
-1.00022, 289, 81, 416, 112
-1.00025, 321, 65, 448, 96
-1.0003, 257, 57, 384, 120
-1.0004, 1, 45, 128, 76
-1.00043, 225, 73, 352, 104
-1.00043, 49, 65, 176, 96
-1.00046, 65, 81, 192, 112
-1.0005, 1, 41, 256, 104
-1.00056, 193, 241, 256, 304
-1.00058, 1, 1, 128, 32
-1.00064, 225, 57, 352, 88
-1.00065, 369, 61, 496, 92
-1.00068, 249, 65, 312, 128
-1.00069, 261, 209, 292, 333
-1.00069, 257, 57, 500, 120
-1.0007, 185, 33, 248, 160
-1.0007, 305, 53, 432, 84
-1.00079, 129, 81, 256, 112
-1.00081, 65, 65, 320, 128
-1.00088, 169, 273, 232, 333
-1.00089, 177, 61, 304, 92
-1.00089, 369, 1, 496, 32
-1.00093, 97, 61, 224, 92
-1.00094, 1, 17, 128, 48
-1.00096, 369, 49, 496, 80
-1.00098, 241, 45, 368, 76
-1.00099, 49, 9, 176, 40
-1.00118, 1, 41, 64, 104
-1.00132, 153, 33, 216, 160
-1.0014, 49, 49, 176, 112
-1.0015, 289, 33, 416, 96
-1.00161, 1, 17, 128, 80
-1.00173, 1, 17, 256, 80
-1.00176, 193, 33, 448, 96
-1.00178, 97, 41, 352, 104
-1.00182, 369, 33, 496, 96
-1.00187, 97, 17, 160, 144
-1.002, 257, 1, 500, 64
-1.0021, 241, 33, 368, 96
-1.00211, 97, 1, 352, 64
-1.00212, 1, 57, 500, 120
-1.00239, 49, 1, 176, 64
-1.00245, 193, 41, 320, 104
-1.00259, 369, 1, 496, 64
-1.00267, 113, 65, 240, 128
-1.00271, 321, 1, 448, 64
-1.00272, 65, 25, 192, 88
-1.00283, 113, 33, 240, 96
-1.00288, 97, 1, 224, 64
-1.00291, 241, 1, 368, 64
-1.00291, 145, 9, 272, 72
-1.00291, 193, 9, 320, 72
-1.00304, 1, 33, 500, 96
-1.00342, 117, 17, 148, 144
-1.00348, 129, 17, 256, 144
-1.00353, 1, 1, 500, 64
-1.00358, 449, 193, 480, 320
-1.004, 209, 17, 336, 144
-1.00479, 1, 1, 128, 128
-1.00483, 241, 17, 304, 144
-1.00533, 105, 17, 136, 144
-1.00791, 1, 1, 64, 128
-1.00917, 65, 1, 192, 128
-1.01029, 121, 17, 184, 144
-1.0112, 25, 1, 88, 128
-1.01172, 273, 1, 400, 128
-1.01221, 337, 1, 464, 128
-1.01363, 193, 1, 448, 128
-1.01396, 209, 17, 272, 144
-1.01415, 57, 1, 120, 128
-1.01458, 329, 1, 392, 128
-1.01539, 385, 1, 448, 128
-1.01646, 305, 1, 368, 128
-1.01656, 361, 1, 424, 128
-1.01805, 433, 1, 496, 128
-1.0188, 409, 1, 472, 128
-1.0189, 281, 1, 344, 128
