1964
-0.460179, 1, 1, 500, 375
-0.486526, 1, 33, 500, 288
-0.518849, 1, 129, 500, 375
-0.558415, 1, 1, 256, 375
-0.603689, 193, 1, 448, 375
-0.666257, 129, 129, 384, 375
-0.669396, 1, 33, 256, 288
-0.672352, 97, 1, 352, 375
-0.705041, 129, 1, 384, 256
-0.742095, 257, 33, 500, 288
-0.742447, 1, 129, 256, 375
-0.808421, 225, 129, 480, 375
-0.882939, 257, 33, 384, 288
-0.888254, 177, 1, 304, 256
-0.889471, 241, 1, 368, 375
-0.895145, 1, 161, 500, 288
-0.896027, 193, 1, 320, 375
-0.896957, 97, 1, 224, 256
-0.898347, 113, 97, 240, 352
-0.90338, 1, 81, 500, 208
-0.903821, 1, 97, 128, 352
-0.903958, 225, 129, 352, 375
-0.908463, 113, 1, 240, 375
-0.914373, 177, 97, 304, 352
-0.915876, 289, 1, 416, 375
-0.921938, 305, 97, 432, 352
-0.922707, 33, 97, 288, 224
-0.922707, 1, 1, 128, 375
-0.924981, 65, 97, 192, 352
-0.925178, 1, 33, 500, 160
-0.92613, 1, 241, 500, 368
-0.929551, 33, 1, 160, 256
-0.929863, 257, 241, 500, 368
-0.933371, 353, 97, 480, 352
-0.934472, 193, 145, 448, 272
-0.93573, 337, 1, 464, 375
-0.939434, 217, 129, 280, 256
-0.941576, 305, 1, 432, 256
-0.941889, 305, 209, 432, 336
-0.942778, 161, 81, 416, 208
-0.942817, 225, 193, 480, 320
-0.942986, 129, 241, 384, 368
-0.943682, 129, 17, 384, 144
-0.943853, 97, 161, 352, 288
-0.947111, 1, 49, 256, 176
-0.947344, 33, 241, 288, 368
-0.947711, 177, 113, 304, 240
-0.948455, 49, 1, 176, 375
-0.950247, 81, 241, 208, 368
-0.950418, 257, 97, 500, 224
-0.950764, 249, 33, 312, 160
-0.951002, 177, 33, 304, 160
-0.95182, 241, 161, 368, 288
-0.951987, 89, 193, 152, 320
-0.952073, 329, 193, 392, 320
-0.953782, 113, 97, 240, 224
-0.954272, 241, 65, 368, 192
-0.954644, 1, 1, 256, 128
-0.954795, 225, 241, 352, 368
-0.955777, 89, 241, 152, 368
-0.956545, 17, 129, 80, 256
-0.956799, 209, 81, 272, 208
-0.957641, 169, 97, 232, 224
-0.957693, 305, 209, 368, 336
-0.958059, 249, 81, 312, 208
-0.958255, 353, 209, 416, 336
-0.958821, 241, 177, 304, 304
-0.958968, 209, 129, 272, 192
-0.959139, 193, 177, 256, 304
-0.959139, 193, 177, 320, 304
-0.96024, 273, 17, 336, 144
-0.960641, 113, 49, 240, 176
-0.960762, 153, 49, 216, 176
-0.960898, 241, 129, 304, 256
-0.961253, 129, 161, 256, 288
-0.961934, 329, 201, 392, 264
-0.962477, 1, 145, 256, 272
-0.962672, 1, 145, 128, 272
-0.963819, 241, 17, 368, 144
-0.964702, 217, 177, 280, 304
-0.965269, 129, 241, 256, 368
-0.965402, 377, 177, 440, 304
-0.965908, 201, 153, 264, 216
-0.96599, 273, 65, 336, 192
-0.966082, 89, 265, 152, 328
-0.966172, 257, 113, 384, 240
-0.966789, 257, 49, 500, 176
-0.966798, 353, 225, 480, 352
-0.967128, 265, 41, 328, 104
-0.967279, 297, 257, 360, 320
-0.967466, 217, 313, 280, 375
-0.967517, 169, 169, 232, 232
-0.967582, 233, 153, 296, 216
-0.967677, 201, 241, 264, 368
-0.967714, 169, 145, 232, 272
-0.967746, 1, 241, 128, 368
-0.967805, 193, 129, 256, 256
-0.967915, 369, 1, 496, 256
-0.967935, 209, 273, 272, 336
-0.967982, 281, 241, 344, 368
-0.968222, 145, 1, 208, 128
-0.968792, 393, 241, 456, 368
-0.968911, 409, 161, 472, 288
-0.96893, 9, 153, 72, 216
-0.96924, 49, 113, 176, 240
-0.96962, 225, 193, 288, 256
-0.970221, 337, 161, 464, 288
-0.970581, 113, 177, 176, 304
-0.97076, 297, 1, 360, 128
-0.970891, 329, 241, 392, 368
-0.971044, 81, 193, 208, 320
-0.97112, 121, 241, 184, 368
-0.97122, 209, 233, 272, 296
-0.971471, 201, 177, 264, 240
-0.971499, 249, 105, 312, 168
-0.971499, 121, 185, 184, 248
-0.971575, 81, 297, 144, 360
-0.971891, 369, 225, 432, 288
-0.972046, 1, 193, 128, 320
-0.972058, 145, 97, 208, 224
-0.972097, 265, 145, 328, 272
-0.972545, 49, 65, 176, 192
-0.972559, 289, 1, 416, 128
-0.972658, 241, 305, 272, 368
-0.97275, 121, 33, 184, 160
-0.97275, 9, 81, 72, 208
-0.972924, 193, 305, 256, 368
-0.973462, 265, 17, 328, 80
-0.973494, 49, 209, 112, 336
-0.973646, 169, 1, 232, 128
-0.973873, 177, 153, 304, 216
-0.973997, 249, 65, 312, 128
-0.974138, 169, 145, 232, 208
-0.974319, 1, 65, 128, 192
-0.974416, 225, 17, 288, 144
-0.97454, 161, 33, 224, 288
-0.974769, 313, 225, 376, 288
-0.974857, 393, 257, 456, 320
-0.975024, 1, 193, 256, 320
-0.975101, 169, 65, 232, 128
-0.975365, 121, 129, 184, 256
-0.975508, 161, 313, 224, 375
-0.975535, 225, 97, 288, 352
-0.975697, 297, 81, 360, 208
-0.975729, 129, 25, 192, 88
-0.975747, 297, 89, 360, 152
-0.975772, 273, 73, 336, 136
-0.97585, 33, 129, 96, 192
-0.975857, 261, 33, 292, 160
-0.975987, 185, 113, 248, 176
-0.976007, 257, 129, 288, 256
-0.976079, 9, 33, 72, 160
-0.976396, 297, 25, 360, 88
-0.976401, 65, 161, 128, 288
-0.976425, 213, 145, 244, 208
-0.976554, 249, 177, 312, 240
-0.976828, 97, 241, 128, 368
-0.97697, 177, 49, 240, 176
-0.977019, 353, 161, 416, 288
-0.977094, 129, 1, 256, 128
-0.977158, 121, 1, 184, 256
-0.977175, 345, 225, 408, 288
-0.977185, 353, 201, 384, 264
-0.977243, 145, 49, 208, 112
-0.977311, 313, 281, 376, 344
-0.977564, 249, 33, 312, 288
-0.977693, 129, 185, 256, 248
-0.977935, 257, 1, 500, 128
-0.977968, 241, 273, 272, 336
-0.977986, 237, 241, 268, 368
-0.978018, 185, 89, 248, 152
-0.978065, 161, 105, 224, 168
-0.978067, 257, 241, 320, 368
-0.978111, 193, 49, 224, 176
-0.978158, 269, 81, 300, 208
-0.978217, 237, 249, 268, 312
-0.978234, 177, 241, 304, 368
-0.978282, 257, 153, 320, 216
-0.9783, 137, 97, 200, 160
-0.97831, 169, 33, 232, 96
-0.978441, 257, 313, 320, 375
-0.978468, 177, 65, 208, 128
-0.978597, 261, 41, 292, 104
-0.978601, 261, 65, 292, 128
-0.978636, 145, 305, 272, 368
-0.978644, 129, 161, 256, 224
-0.97886, 201, 65, 264, 320
-0.978979, 217, 105, 280, 168
-0.978996, 209, 81, 272, 144
-0.979199, 361, 193, 392, 320
-0.979207, 81, 1, 208, 128
-0.979234, 241, 33, 368, 96
-0.979336, 113, 265, 176, 328
-0.979377, 289, 297, 352, 360
-0.979395, 321, 217, 448, 280
-0.979404, 249, 257, 312, 320
-0.97946, 181, 49, 212, 176
-0.979589, 241, 41, 304, 104
-0.979657, 121, 161, 184, 224
-0.979667, 177, 129, 304, 192
-0.979754, 217, 113, 248, 240
-0.979814, 121, 97, 184, 352
-0.979976, 65, 305, 192, 368
-0.979996, 329, 145, 392, 272
-0.980036, 289, 273, 416, 336
-0.980133, 237, 129, 268, 256
-0.980176, 301, 17, 332, 144
-0.98021, 113, 305, 176, 368
-0.980231, 41, 113, 104, 240
-0.980234, 229, 305, 260, 368
-0.980332, 105, 81, 168, 208
-0.980357, 297, 161, 360, 288
-0.980401, 265, 153, 296, 216
-0.980474, 73, 185, 136, 248
-0.980545, 189, 73, 220, 136
-0.980633, 281, 65, 312, 128
-0.980663, 281, 1, 344, 256
-0.980668, 353, 201, 416, 264
-0.980774, 185, 241, 248, 304
-0.98082, 241, 289, 368, 352
-0.980859, 417, 113, 480, 240
-0.980868, 17, 313, 80, 375
-0.980896, 241, 313, 368, 375
-0.980936, 281, 17, 312, 144
-0.980938, 225, 265, 256, 328
-0.98104, 297, 17, 328, 80
-0.981144, 281, 65, 312, 192
-0.981176, 81, 113, 144, 240
-0.98122, 233, 177, 264, 304
-0.981244, 297, 1, 360, 64
-0.981269, 33, 17, 160, 144
-0.981289, 289, 225, 352, 288
-0.981349, 297, 65, 360, 128
-0.981413, 305, 177, 368, 240
-0.981437, 341, 209, 372, 336
-0.981438, 233, 233, 296, 296
-0.981501, 177, 241, 240, 368
-0.981513, 97, 193, 160, 256
-0.981567, 329, 177, 392, 240
-0.981602, 377, 193, 440, 256
-0.98167, 417, 129, 480, 192
-0.981717, 193, 49, 224, 112
-0.981729, 201, 145, 232, 208
-0.981814, 221, 241, 252, 368
-0.981816, 201, 209, 264, 272
-0.981823, 109, 241, 140, 368
-0.981856, 337, 209, 368, 272
-0.981988, 113, 89, 240, 152
-0.982028, 93, 273, 124, 336
-0.982046, 233, 129, 296, 192
-0.982117, 9, 1, 72, 256
-0.982159, 65, 281, 192, 344
-0.982177, 233, 225, 264, 288
-0.982189, 25, 129, 56, 256
-0.982229, 193, 97, 224, 224
-0.98233, 321, 1, 352, 128
-0.982346, 57, 297, 120, 360
-0.982381, 273, 257, 336, 320
-0.982402, 113, 193, 144, 320
-0.982474, 265, 129, 328, 192
-0.982507, 13, 129, 44, 256
-0.982564, 225, 225, 288, 352
-0.982629, 245, 177, 276, 304
-0.982703, 281, 41, 312, 104
-0.982734, 433, 313, 496, 375
-0.982865, 365, 217, 396, 280
-0.982953, 241, 89, 368, 152
-0.982974, 257, 169, 384, 232
-0.983014, 417, 209, 480, 336
-0.983025, 337, 193, 464, 256
-0.983048, 297, 41, 328, 104
-0.983068, 289, 49, 416, 176
-0.983102, 57, 273, 120, 336
-0.983114, 209, 177, 240, 304
-0.98317, 409, 177, 472, 240
-0.983173, 377, 129, 440, 256
-0.983188, 393, 217, 456, 280
-0.983254, 257, 81, 288, 208
-0.983315, 113, 105, 176, 168
-0.983342, 225, 265, 352, 328
-0.983416, 269, 145, 300, 272
-0.983419, 273, 209, 400, 272
-0.983537, 329, 257, 392, 320
-0.983559, 145, 73, 208, 136
-0.983564, 133, 177, 164, 240
-0.983583, 257, 193, 288, 256
-0.983591, 205, 97, 236, 224
-0.983597, 1, 313, 128, 375
-0.983612, 337, 257, 464, 320
-0.983613, 1, 153, 128, 216
-0.983633, 177, 1, 208, 128
-0.983648, 401, 313, 464, 375
-0.98373, 193, 177, 320, 240
-0.983768, 125, 49, 156, 176
-0.983782, 321, 113, 448, 240
-0.983837, 305, 201, 368, 264
-0.983877, 273, 233, 400, 296
-0.983905, 313, 241, 344, 368
-0.983967, 417, 249, 480, 312
-0.984017, 205, 121, 236, 184
-0.984025, 177, 41, 208, 104
-0.984079, 249, 129, 312, 375
-0.984084, 225, 1, 288, 256
-0.984141, 393, 153, 456, 216
-0.984151, 169, 49, 200, 176
-0.98425, 113, 137, 240, 200
-0.98426, 149, 177, 180, 240
-0.98427, 217, 185, 248, 248
-0.984283, 209, 233, 336, 296
-0.984295, 281, 169, 344, 232
-0.984299, 317, 265, 348, 328
-0.984423, 241, 65, 368, 128
-0.984434, 265, 281, 328, 344
-0.984452, 9, 129, 72, 192
-0.984459, 417, 217, 480, 280
-0.984531, 109, 185, 140, 248
-0.98455, 13, 145, 44, 208
-0.984564, 49, 121, 176, 184
-0.984633, 189, 1, 220, 128
-0.984648, 197, 169, 228, 232
-0.984761, 65, 185, 192, 248
-0.984774, 137, 313, 200, 375
-0.984777, 161, 41, 288, 104
-0.984827, 97, 297, 128, 360
-0.984845, 221, 177, 252, 304
-0.984894, 81, 257, 208, 320
-0.984951, 1, 25, 64, 88
-0.98499, 409, 289, 472, 352
-0.985053, 229, 193, 260, 256
-0.985054, 417, 193, 448, 320
-0.985068, 417, 153, 480, 216
-0.985095, 45, 137, 76, 200
-0.985147, 161, 9, 288, 72
-0.985179, 177, 97, 304, 160
-0.985183, 57, 113, 120, 176
-0.985257, 25, 201, 88, 264
-0.985259, 81, 241, 144, 304
-0.985354, 405, 241, 436, 304
-0.98547, 253, 89, 284, 152
-0.985501, 253, 145, 284, 208
-0.985517, 281, 17, 312, 80
-0.985517, 197, 97, 228, 160
-0.985559, 177, 129, 240, 375
-0.985563, 105, 265, 136, 328
-0.985563, 17, 281, 144, 344
-0.98557, 257, 177, 288, 304
-0.985615, 201, 1, 264, 128
-0.985634, 113, 65, 240, 128
-0.985634, 113, 113, 240, 176
-0.985674, 145, 193, 208, 320
-0.985686, 17, 89, 80, 152
-0.985799, 297, 65, 328, 128
-0.985826, 145, 1, 208, 64
-0.985853, 85, 241, 116, 368
-0.985855, 49, 161, 176, 224
-0.985898, 145, 241, 208, 368
-0.985943, 57, 209, 120, 272
-0.985974, 49, 97, 176, 160
-0.98599, 1, 129, 128, 192
-0.98606, 317, 57, 348, 120
-0.986154, 25, 145, 56, 208
-0.986185, 261, 17, 292, 80
-0.986215, 433, 281, 496, 344
-0.98623, 145, 137, 208, 200
-0.98624, 161, 65, 288, 128
-0.986398, 329, 185, 360, 248
-0.98643, 101, 193, 132, 320
-0.986599, 133, 97, 164, 160
-0.986599, 85, 305, 116, 368
-0.986618, 25, 177, 88, 304
-0.986626, 249, 201, 312, 264
-0.986668, 269, 89, 300, 152
-0.986688, 289, 97, 352, 352
-0.98675, 209, 57, 272, 120
-0.98675, 177, 209, 240, 272
-0.986796, 145, 185, 208, 248
-0.986813, 1, 145, 32, 272
-0.986867, 281, 89, 312, 152
-0.986886, 337, 313, 464, 375
-0.986919, 1, 161, 32, 224
-0.986933, 329, 209, 360, 336
-0.986987, 241, 289, 304, 352
-0.98699, 429, 241, 460, 368
-0.987018, 229, 121, 260, 184
-0.987047, 321, 97, 384, 160
-0.987061, 217, 113, 248, 176
-0.98707, 221, 225, 252, 288
-0.98708, 197, 145, 228, 272
-0.987086, 161, 1, 224, 375
-0.987099, 369, 113, 496, 240
-0.987106, 421, 249, 452, 312
-0.987123, 109, 305, 140, 368
-0.987147, 45, 129, 76, 256
-0.987304, 277, 161, 308, 224
-0.987354, 141, 49, 172, 176
-0.987378, 121, 177, 152, 240
-0.987396, 129, 161, 160, 288
-0.987414, 145, 97, 176, 224
-0.987433, 185, 281, 248, 344
-0.987441, 341, 273, 372, 336
-0.98754, 129, 65, 160, 128
-0.987565, 361, 313, 424, 375
-0.987577, 165, 177, 196, 240
-0.987612, 249, 33, 280, 160
-0.987708, 113, 33, 240, 96
-0.987786, 353, 105, 416, 168
-0.98783, 161, 97, 192, 224
-0.987904, 189, 25, 220, 88
-0.987915, 225, 113, 352, 176
-0.987975, 189, 145, 220, 208
-0.987996, 433, 177, 496, 240
-0.988041, 329, 281, 360, 344
-0.988078, 193, 313, 224, 375
-0.988089, 309, 289, 340, 352
-0.98815, 289, 145, 352, 208
-0.988166, 413, 217, 444, 280
-0.988192, 193, 313, 320, 375
-0.988286, 313, 313, 376, 375
-0.988293, 273, 9, 400, 72
-0.988372, 237, 97, 268, 160
-0.988418, 113, 281, 240, 344
-0.988431, 157, 33, 188, 160
-0.988451, 149, 153, 180, 216
-0.98846, 117, 273, 148, 336
-0.988462, 257, 233, 320, 296
-0.988494, 49, 65, 112, 192
-0.988505, 9, 1, 72, 375
-0.988512, 49, 97, 112, 352
-0.988529, 281, 113, 312, 240
-0.988579, 289, 1, 352, 375
-0.988582, 329, 97, 392, 352
-0.988593, 373, 209, 404, 336
-0.988609, 317, 17, 348, 80
-0.988611, 121, 241, 184, 304
-0.988675, 241, 17, 304, 80
-0.988748, 249, 65, 280, 128
-0.98879, 353, 281, 480, 344
-0.988898, 353, 113, 480, 176
-0.988939, 353, 233, 384, 296
-0.988953, 209, 201, 336, 264
-0.988957, 273, 105, 336, 168
-0.988976, 249, 1, 312, 375
-0.988983, 217, 297, 248, 360
-0.989005, 37, 65, 68, 192
-0.989072, 305, 65, 336, 192
-0.989139, 9, 129, 72, 375
-0.989185, 425, 225, 456, 288
-0.989254, 33, 41, 160, 104
-0.989293, 241, 129, 272, 192
-0.989353, 89, 217, 152, 280
-0.989371, 145, 265, 208, 328
-0.989384, 337, 233, 368, 296
-0.989386, 349, 161, 380, 288
-0.989422, 337, 209, 400, 240
-0.989437, 129, 209, 160, 336
-0.989439, 169, 1, 232, 64
-0.989489, 129, 209, 256, 272
-0.989517, 113, 81, 176, 144
-0.989521, 17, 257, 144, 320
-0.989587, 305, 265, 336, 328
-0.989602, 245, 169, 276, 232
-0.989606, 337, 289, 400, 352
-0.989616, 125, 33, 156, 96
-0.98965, 301, 241, 332, 368
-0.989672, 201, 1, 232, 128
-0.989673, 33, 73, 160, 136
-0.989703, 105, 33, 168, 96
-0.989719, 241, 81, 272, 208
-0.989739, 97, 161, 160, 224
-0.989758, 337, 169, 464, 232
-0.989761, 161, 233, 288, 296
-0.989764, 333, 161, 364, 288
-0.989772, 209, 137, 272, 168
-0.989776, 269, 185, 300, 248
-0.989778, 217, 333, 280, 364
-0.989795, 1, 193, 64, 256
-0.989812, 1, 209, 128, 272
-0.989832, 225, 1, 288, 375
-0.989852, 253, 297, 284, 360
-0.989863, 65, 209, 192, 272
-0.989938, 405, 225, 436, 352
-0.989939, 401, 217, 432, 280
-0.989944, 153, 129, 216, 375
-0.989958, 369, 225, 432, 256
-0.989958, 61, 121, 92, 184
-0.989971, 33, 161, 96, 224
-0.989982, 289, 65, 416, 128
-0.98999, 137, 1, 200, 375
-0.990007, 289, 33, 416, 96
-0.990021, 1, 57, 64, 120
-0.990045, 201, 73, 232, 136
-0.990046, 265, 41, 328, 72
-0.990052, 121, 189, 184, 220
-0.990081, 129, 257, 256, 320
-0.990104, 369, 169, 432, 232
-0.990111, 185, 105, 216, 168
-0.990128, 393, 121, 456, 184
-0.990198, 121, 305, 152, 368
-0.990287, 113, 1, 240, 64
-0.990298, 173, 97, 204, 224
-0.990369, 297, 273, 360, 304
-0.99042, 209, 49, 240, 176
-0.990427, 405, 153, 436, 216
-0.990444, 317, 49, 348, 176
-0.990451, 317, 233, 348, 296
-0.990456, 313, 1, 376, 375
-0.990499, 453, 297, 484, 360
-0.9905, 281, 177, 344, 208
-0.990502, 17, 153, 80, 184
-0.990534, 289, 297, 416, 360
-0.990577, 89, 281, 152, 312
-0.990596, 121, 129, 184, 192
-0.990603, 161, 177, 224, 208
-0.990604, 273, 129, 304, 192
-0.990607, 165, 49, 196, 112
-0.990631, 217, 89, 248, 152
-0.990633, 169, 97, 200, 160
-0.990655, 249, 241, 280, 368
-0.990656, 65, 345, 128, 375
-0.990664, 405, 145, 436, 272
-0.990691, 305, 1, 368, 256
-0.990702, 193, 341, 256, 372
-0.990753, 1, 289, 64, 352
-0.990775, 129, 97, 160, 224
-0.990779, 185, 121, 248, 152
-0.990784, 345, 177, 376, 240
-0.990793, 417, 241, 448, 368
-0.99082, 245, 193, 276, 256
-0.990827, 329, 81, 392, 208
-0.990855, 141, 65, 172, 128
-0.990866, 201, 189, 264, 220
-0.990873, 337, 225, 400, 256
-0.990882, 97, 97, 160, 352
-0.990894, 217, 241, 280, 272
-0.990901, 257, 137, 384, 200
-0.990915, 289, 161, 416, 288
-0.99092, 145, 161, 208, 224
-0.990943, 105, 201, 168, 232
-0.990952, 137, 153, 168, 216
-0.990971, 217, 277, 280, 308
-0.990972, 17, 185, 144, 248
-0.990978, 201, 153, 264, 184
-0.990994, 97, 185, 128, 248
-0.990994, 377, 217, 408, 280
-0.991012, 281, 29, 344, 60
-0.991037, 241, 161, 304, 192
-0.991048, 57, 129, 88, 256
-0.991053, 369, 249, 432, 312
-0.991079, 73, 313, 104, 375
-0.991113, 297, 261, 360, 292
-0.991125, 169, 37, 232, 68
-0.991138, 81, 293, 144, 324
-0.991152, 1, 1, 64, 64
-0.991154, 361, 105, 392, 168
-0.99116, 257, 29, 320, 60
-0.991167, 241, 193, 304, 224
-0.991198, 297, 285, 360, 316
-0.991223, 169, 345, 232, 375
-0.991224, 89, 113, 152, 176
-0.99125, 25, 141, 88, 172
-0.991256, 225, 177, 288, 208
-0.991256, 73, 197, 136, 228
-0.991263, 369, 213, 432, 244
-0.991268, 1, 165, 64, 196
-0.991272, 201, 177, 264, 208
-0.991288, 1, 97, 32, 224
-0.991302, 129, 33, 192, 64
-0.991312, 233, 345, 296, 375
-0.991315, 185, 141, 248, 172
-0.991322, 241, 333, 304, 364
-0.991331, 377, 97, 440, 352
-0.991333, 265, 141, 328, 172
-0.991337, 209, 301, 272, 332
-0.991338, 257, 261, 320, 292
-0.991375, 225, 105, 288, 136
-0.991405, 265, 53, 328, 84
-0.991407, 433, 337, 496, 368
-0.99142, 297, 41, 360, 72
-0.991421, 249, 129, 312, 160
-0.99143, 393, 229, 456, 260
-0.991433, 141, 161, 172, 288
-0.991437, 25, 205, 88, 236
-0.991439, 409, 289, 472, 320
-0.991458, 329, 289, 392, 320
-0.991468, 97, 241, 128, 304
-0.991472, 173, 17, 204, 80
-0.991485, 161, 157, 224, 188
-0.991494, 201, 265, 264, 296
-0.9915, 145, 189, 208, 220
-0.991512, 169, 105, 232, 136
-0.991513, 265, 93, 328, 124
-0.991524, 265, 65, 328, 96
-0.991526, 169, 189, 232, 220
-0.991533, 201, 165, 264, 196
-0.991549, 225, 149, 288, 180
-0.991557, 305, 189, 368, 220
-0.99156, 145, 45, 208, 76
-0.991568, 209, 93, 272, 124
-0.991581, 289, 105, 416, 168
-0.991588, 205, 305, 236, 368
-0.991604, 369, 137, 496, 200
-0.991623, 129, 177, 192, 208
-0.991625, 377, 345, 440, 375
-0.99167, 153, 133, 216, 164
-0.991672, 401, 341, 464, 372
-0.991674, 313, 205, 376, 236
-0.991681, 1, 137, 256, 200
-0.99169, 185, 241, 248, 272
-0.991694, 425, 129, 488, 375
-0.991701, 393, 257, 456, 288
-0.991739, 129, 109, 192, 140
-0.991742, 49, 313, 80, 375
-0.991753, 153, 57, 216, 88
-0.991771, 97, 145, 352, 208
-0.991772, 157, 105, 188, 168
-0.991773, 273, 165, 336, 196
-0.991776, 201, 229, 264, 260
-0.991807, 417, 253, 480, 284
-0.991811, 169, 77, 232, 108
-0.991813, 113, 209, 144, 272
-0.991814, 249, 81, 312, 112
-0.991816, 257, 345, 320, 375
-0.991831, 89, 269, 152, 300
-0.991833, 185, 301, 248, 332
-0.991843, 241, 41, 304, 72
-0.991845, 209, 289, 272, 320
-0.991848, 441, 265, 472, 328
-0.991852, 361, 201, 424, 232
-0.991853, 57, 333, 120, 364
-0.99188, 49, 133, 112, 164
-0.991892, 105, 293, 168, 324
-0.991895, 249, 177, 312, 208
-0.991904, 297, 297, 360, 328
-0.991906, 225, 229, 288, 260
-0.991908, 297, 81, 360, 112
-0.991916, 249, 233, 280, 296
-0.991936, 409, 213, 472, 244
-0.991949, 261, 113, 292, 176
-0.991953, 73, 209, 136, 240
-0.991956, 9, 345, 72, 375
-0.991957, 281, 161, 312, 288
-0.991959, 201, 1, 264, 375
-0.99196, 345, 345, 408, 375
-0.991972, 365, 193, 396, 256
-0.99198, 241, 273, 304, 304
-0.992016, 169, 93, 232, 124
-0.992022, 369, 217, 496, 280
-0.992024, 129, 201, 192, 232
-0.992039, 433, 321, 496, 352
-0.992045, 389, 217, 420, 280
-0.992054, 377, 245, 440, 276
-0.992067, 409, 153, 472, 184
-0.992074, 89, 345, 152, 375
-0.992084, 405, 193, 436, 256
-0.992096, 337, 237, 400, 268
-0.992117, 305, 29, 368, 60
-0.992119, 293, 81, 324, 208
-0.99212, 161, 145, 224, 176
-0.992121, 225, 1, 352, 64
-0.992122, 265, 289, 328, 320
-0.992122, 33, 1, 96, 375
-0.992123, 49, 185, 112, 248
-0.99213, 297, 65, 360, 96
-0.99214, 289, 137, 320, 200
-0.99214, 293, 273, 324, 336
-0.992146, 209, 201, 272, 232
-0.992146, 225, 145, 256, 208
-0.992153, 401, 269, 464, 300
-0.992169, 305, 221, 368, 252
-0.99217, 241, 117, 304, 148
-0.992184, 317, 81, 348, 144
-0.992185, 137, 97, 200, 128
-0.992204, 17, 217, 80, 248
-0.992214, 353, 297, 416, 328
-0.992215, 321, 345, 384, 375
-0.992227, 301, 233, 332, 296
-0.992242, 273, 105, 336, 136
-0.992253, 433, 289, 496, 320
-0.992253, 361, 145, 392, 272
-0.992258, 297, 53, 360, 84
-0.992267, 409, 129, 472, 160
-0.992271, 217, 321, 280, 352
-0.992279, 121, 269, 184, 300
-0.992285, 297, 245, 360, 276
-0.992289, 209, 125, 272, 156
-0.992291, 1, 317, 64, 348
-0.992315, 145, 73, 208, 104
-0.992321, 321, 277, 384, 308
-0.992324, 433, 161, 496, 288
-0.992331, 337, 113, 400, 144
-0.992335, 233, 261, 296, 292
-0.992335, 105, 333, 168, 364
-0.992336, 237, 269, 268, 300
-0.992337, 417, 113, 448, 240
-0.992357, 249, 41, 280, 104
-0.992358, 249, 321, 312, 352
-0.99237, 209, 73, 272, 104
-0.992379, 349, 205, 380, 236
-0.992382, 145, 97, 176, 160
-0.992449, 205, 193, 236, 256
-0.992467, 13, 81, 44, 208
-0.992494, 161, 281, 288, 344
-0.992501, 317, 193, 348, 320
-0.992502, 45, 113, 76, 176
-0.992507, 245, 329, 276, 360
-0.992532, 153, 201, 184, 264
-0.992552, 165, 73, 196, 136
-0.992572, 181, 313, 212, 375
-0.992589, 209, 145, 240, 176
-0.992596, 1, 97, 128, 160
-0.992603, 233, 257, 264, 288
-0.99261, 233, 169, 264, 232
-0.992614, 261, 37, 292, 68
-0.992618, 33, 113, 288, 176
-0.992621, 129, 177, 384, 240
-0.992625, 33, 305, 288, 368
-0.992629, 329, 257, 360, 320
-0.992653, 429, 177, 460, 304
-0.992654, 273, 85, 304, 116
-0.992657, 237, 285, 268, 316
-0.992662, 205, 157, 236, 188
-0.992671, 233, 241, 264, 272
-0.992673, 97, 1, 160, 256
-0.992687, 361, 217, 392, 248
-0.992697, 25, 149, 56, 180
-0.992709, 385, 161, 416, 288
-0.992712, 449, 129, 480, 192
-0.992716, 261, 85, 292, 116
-0.992733, 229, 229, 260, 260
-0.992734, 109, 197, 140, 228
-0.992739, 217, 189, 248, 220
-0.992757, 261, 73, 292, 104
-0.992766, 93, 277, 124, 308
-0.992772, 297, 37, 328, 68
-0.99279, 233, 133, 264, 164
-0.992796, 257, 193, 288, 224
-0.992803, 81, 281, 112, 344
-0.992805, 145, 185, 176, 216
-0.992813, 193, 145, 224, 176
-0.992822, 189, 89, 220, 120
-0.992828, 129, 193, 160, 224
-0.992831, 189, 69, 220, 100
-0.992845, 333, 221, 364, 252
-0.992852, 177, 73, 208, 104
-0.992852, 261, 49, 292, 80
-0.992853, 273, 73, 304, 104
-0.992854, 153, 177, 184, 304
-0.992861, 181, 33, 212, 64
-0.992875, 193, 45, 224, 76
-0.992884, 237, 297, 268, 328
-0.992884, 281, 33, 312, 64
-0.99289, 241, 309, 272, 340
-0.992899, 209, 173, 240, 204
-0.992905, 173, 45, 204, 76
-0.992914, 201, 345, 232, 375
-0.992919, 305, 269, 336, 300
-0.992919, 221, 261, 252, 292
-0.992926, 261, 61, 292, 92
-0.99293, 13, 157, 44, 188
-0.992931, 365, 229, 396, 260
-0.992939, 225, 281, 256, 312
-0.992947, 421, 257, 452, 288
-0.992947, 233, 333, 264, 364
-0.992962, 193, 145, 448, 208
-0.992964, 193, 157, 224, 188
-0.992964, 433, 281, 464, 312
-0.992966, 405, 225, 436, 256
-0.992968, 209, 129, 240, 160
-0.992973, 297, 73, 328, 104
-0.992975, 177, 61, 208, 92
-0.992977, 69, 341, 100, 372
-0.992979, 221, 293, 252, 324
-0.992981, 245, 345, 276, 375
-0.99299, 97, 201, 128, 232
-0.992992, 37, 145, 68, 176
-0.992995, 265, 161, 296, 192
-0.992995, 277, 173, 308, 204
-0.993001, 305, 193, 336, 320
-0.993004, 285, 73, 316, 104
-0.993016, 197, 177, 228, 208
-0.993016, 217, 117, 248, 148
-0.993021, 253, 149, 284, 180
-0.993028, 189, 345, 220, 375
-0.993029, 85, 345, 116, 375
-0.993036, 225, 313, 480, 375
-0.99304, 329, 181, 360, 212
-0.99304, 49, 137, 80, 168
-0.99305, 221, 241, 252, 272
-0.993056, 285, 85, 316, 116
-0.99306, 401, 345, 432, 375
-0.993062, 193, 57, 224, 88
-0.993066, 105, 277, 136, 308
-0.993076, 297, 85, 328, 116
-0.993079, 221, 341, 252, 372
-0.99308, 237, 189, 268, 220
-0.993081, 317, 29, 348, 60
-0.993087, 117, 185, 148, 216
-0.993089, 265, 177, 296, 208
-0.99309, 157, 193, 188, 224
-0.993091, 425, 269, 456, 300
-0.993094, 437, 269, 468, 300
-0.993095, 193, 109, 224, 140
-0.993098, 309, 289, 340, 320
-0.9931, 177, 85, 208, 116
-0.993113, 353, 237, 384, 268
-0.993125, 317, 69, 348, 100
-0.993127, 341, 281, 372, 312
-0.993128, 89, 293, 120, 324
-0.993132, 297, 61, 328, 92
-0.993142, 229, 317, 260, 348
-0.993142, 245, 137, 276, 168
-0.993142, 249, 269, 280, 300
-0.993146, 349, 217, 380, 248
-0.993147, 137, 145, 168, 176
-0.993158, 385, 217, 416, 248
-0.993158, 221, 141, 252, 172
-0.993159, 405, 237, 436, 268
-0.993164, 317, 81, 348, 112
-0.993164, 281, 45, 312, 76
-0.993166, 297, 49, 328, 80
-0.993169, 129, 181, 160, 212
-0.99317, 133, 97, 164, 128
-0.99317, 281, 61, 312, 92
-0.993176, 57, 209, 88, 240
-0.99318, 405, 253, 436, 284
-0.993184, 417, 157, 448, 188
-0.993184, 97, 257, 352, 320
-0.993186, 265, 105, 296, 136
-0.993187, 421, 281, 452, 312
-0.993187, 297, 25, 328, 56
-0.993191, 165, 181, 196, 212
-0.993191, 265, 345, 296, 375
-0.993192, 205, 189, 236, 220
-0.993195, 125, 61, 156, 92
-0.993204, 193, 33, 224, 64
-0.993209, 433, 293, 464, 324
-0.993213, 117, 97, 148, 224
-0.993215, 121, 205, 152, 236
-0.993217, 249, 281, 280, 312
-0.993218, 249, 85, 280, 116
-0.993218, 201, 89, 232, 120
-0.993221, 305, 129, 432, 192
-0.993222, 445, 289, 476, 320
-0.993227, 281, 97, 312, 128
-0.993232, 337, 209, 368, 240
-0.993235, 257, 329, 288, 360
-0.993236, 201, 77, 232, 108
-0.993236, 145, 197, 176, 228
-0.993239, 321, 57, 352, 88
-0.993243, 97, 345, 128, 375
-0.993244, 445, 333, 476, 364
-0.993255, 385, 229, 416, 260
-0.993255, 269, 25, 300, 56
-0.993369, 441, 241, 472, 368
-0.99339, 369, 65, 496, 192
-0.993463, 33, 233, 160, 296
-0.993481, 353, 89, 480, 152
-0.993602, 29, 1, 60, 128
-0.993615, 105, 1, 168, 375
-0.993617, 169, 193, 232, 320
-0.993739, 441, 193, 472, 320
-0.993827, 293, 129, 324, 256
-0.993909, 113, 233, 240, 296
-0.993932, 161, 89, 416, 152
-0.993935, 241, 305, 256, 368
-0.994002, 1, 97, 500, 160
-0.994062, 353, 97, 416, 352
-0.994075, 161, 25, 416, 88
-0.994115, 17, 9, 144, 72
-0.994126, 249, 289, 264, 352
-0.994135, 73, 241, 104, 368
-0.994167, 225, 225, 480, 288
-0.994191, 265, 193, 328, 320
-0.994214, 193, 157, 320, 188
-0.994223, 145, 181, 272, 212
-0.994283, 289, 241, 320, 368
-0.994322, 357, 241, 388, 368
-0.99434, 217, 145, 232, 208
-0.99436, 249, 265, 264, 328
-0.994361, 145, 145, 208, 272
-0.994377, 353, 97, 416, 224
-0.994379, 257, 273, 500, 336
-0.994391, 177, 337, 304, 368
-0.994398, 97, 281, 352, 344
-0.994445, 225, 169, 480, 232
-0.994481, 109, 49, 140, 176
-0.9945, 321, 221, 448, 252
-0.994547, 243, 273, 258, 336
-0.994556, 33, 177, 288, 240
-0.99457, 243, 241, 258, 304
-0.994596, 1, 313, 500, 375
-0.994603, 211, 145, 226, 208
-0.994642, 255, 305, 270, 368
-0.994653, 141, 241, 172, 368
-0.994666, 57, 1, 120, 375
-0.994721, 145, 1, 176, 128
-0.994766, 197, 41, 212, 104
-0.994776, 1, 177, 500, 240
-0.994803, 1, 25, 256, 88
-0.994834, 193, 169, 320, 200
-0.994849, 229, 81, 260, 208
-0.994905, 1, 81, 256, 144
-0.994923, 273, 281, 400, 312
-0.994953, 237, 241, 252, 304
-0.994963, 97, 33, 160, 160
-0.995022, 89, 193, 120, 320
-0.995029, 361, 1, 424, 375
-0.99503, 201, 65, 216, 128
-0.995063, 257, 121, 500, 184
-0.995091, 453, 241, 484, 368
-0.995103, 457, 129, 488, 256
-0.995117, 337, 1, 400, 375
-0.995143, 273, 153, 288, 216
-0.995153, 1, 345, 128, 375
-0.995174, 353, 201, 368, 264
-0.995181, 1, 49, 256, 112
-0.995201, 49, 345, 176, 375
-0.995201, 209, 241, 240, 368
-0.995218, 161, 65, 416, 128
-0.995238, 1, 281, 256, 344
-0.995257, 177, 145, 304, 176
-0.995342, 97, 273, 112, 336
-0.995343, 377, 217, 392, 280
-0.995401, 235, 273, 250, 336
-0.995407, 367, 209, 382, 272
-0.995422, 257, 249, 500, 312
-0.995429, 193, 201, 448, 264
-0.995465, 129, 113, 384, 176
-0.995502, 433, 65, 496, 192
-0.995508, 97, 197, 224, 228
-0.995511, 277, 65, 292, 128
-0.995517, 241, 189, 368, 220
-0.995521, 269, 41, 284, 104
-0.995527, 215, 169, 230, 232
-0.995556, 191, 65, 206, 128
-0.995566, 361, 201, 376, 264
-0.995601, 269, 81, 284, 144
-0.995604, 205, 153, 220, 216
-0.995617, 261, 33, 292, 288
-0.995638, 241, 33, 368, 64
-0.995656, 279, 161, 294, 224
-0.995656, 249, 313, 264, 375
-0.995698, 321, 233, 448, 264
-0.995752, 1, 1, 256, 64
-0.995769, 441, 145, 472, 272
-0.995769, 289, 269, 416, 300
-0.995775, 225, 145, 240, 208
-0.995816, 343, 209, 358, 272
-0.995824, 349, 113, 380, 240
-0.995842, 97, 1, 352, 64
-0.995854, 81, 285, 208, 316
-0.995874, 161, 41, 288, 72
-0.995874, 103, 273, 118, 336
-0.995884, 159, 177, 174, 240
-0.995895, 177, 257, 304, 320
-0.995924, 1, 193, 64, 320
-0.995936, 299, 17, 314, 80
-0.99595, 129, 169, 256, 200
-0.995979, 129, 345, 256, 375
-0.995991, 145, 193, 272, 224
-0.996004, 19, 153, 34, 216
-0.996011, 305, 17, 320, 80
-0.996016, 113, 185, 128, 248
-0.996017, 249, 233, 264, 296
-0.996055, 235, 217, 250, 280
-0.996064, 117, 265, 132, 328
-0.996067, 117, 305, 132, 368
-0.996075, 341, 177, 356, 240
-0.996078, 151, 177, 166, 240
-0.996091, 199, 89, 214, 152
-0.996107, 317, 97, 348, 224
-0.996113, 73, 193, 104, 320
-0.996128, 209, 273, 336, 304
-0.99613, 13, 161, 28, 224
-0.996135, 349, 225, 364, 288
-0.996139, 1, 329, 128, 360
-0.99614, 33, 137, 160, 168
-0.996146, 145, 125, 272, 156
-0.996146, 185, 1, 216, 256
-0.996148, 1, 289, 500, 352
-0.996149, 373, 145, 404, 272
-0.996153, 91, 305, 106, 368
-0.996162, 65, 181, 192, 212
-0.996195, 65, 201, 320, 264
-0.996197, 337, 261, 464, 292
-0.996198, 415, 217, 430, 280
-0.996202, 111, 273, 126, 336
-0.996235, 193, 185, 320, 216
-0.996243, 189, 25, 204, 88
-0.996255, 425, 1, 488, 375
-0.996256, 225, 345, 352, 375
-0.996266, 401, 129, 464, 375
-0.99627, 113, 105, 240, 136
-0.99627, 33, 293, 160, 324
-0.996273, 241, 85, 368, 116
-0.996274, 245, 185, 260, 248
-0.996278, 315, 265, 330, 328
-0.996282, 241, 225, 368, 256
-0.996284, 289, 293, 416, 324
-0.996305, 267, 145, 282, 208
-0.99631, 49, 81, 80, 208
-0.996312, 1, 153, 128, 184
-0.99633, 321, 209, 448, 240
-0.996332, 321, 265, 336, 328
-0.996335, 393, 209, 424, 336
-0.996337, 235, 305, 250, 368
-0.996343, 299, 41, 314, 104
-0.996343, 231, 249, 246, 312
-0.996346, 205, 41, 220, 104
-0.996349, 277, 41, 292, 104
-0.996353, 225, 185, 240, 248
-0.996358, 225, 333, 352, 364
-0.996363, 433, 249, 448, 312
-0.996365, 231, 185, 246, 248
-0.996367, 109, 145, 140, 272
-0.996376, 1, 241, 64, 368
-0.996382, 331, 257, 346, 320
-0.996391, 239, 185, 254, 248
-0.996402, 97, 297, 112, 360
-0.996409, 167, 177, 182, 240
-0.996409, 111, 297, 126, 360
-0.996415, 259, 193, 274, 256
-0.996432, 25, 145, 40, 208
-0.996442, 191, 89, 206, 152
-0.996444, 231, 129, 246, 192
-0.996461, 213, 121, 228, 184
-0.996464, 197, 241, 228, 368
-0.996468, 445, 273, 460, 336
-0.99647, 129, 313, 384, 375
-0.996481, 241, 297, 368, 328
-0.996482, 241, 45, 368, 76
-0.996486, 269, 17, 284, 80
-0.996487, 261, 65, 276, 128
-0.996487, 469, 129, 500, 256
-0.996489, 25, 177, 56, 304
-0.996505, 241, 73, 368, 104
-0.996509, 241, 177, 368, 208
-0.996515, 283, 17, 298, 80
-0.996517, 165, 161, 196, 288
-0.99653, 241, 61, 368, 92
-0.996561, 233, 97, 264, 352
-0.996567, 113, 93, 240, 124
-0.996581, 257, 73, 500, 136
-0.996581, 309, 265, 324, 328
-0.996607, 161, 25, 288, 56
-0.996609, 321, 289, 336, 352
-0.996609, 123, 193, 138, 256
-0.996612, 339, 281, 354, 344
-0.996613, 329, 49, 360, 176
-0.996623, 207, 65, 222, 128
-0.996629, 113, 41, 240, 72
-0.996644, 123, 305, 138, 368
-0.996657, 421, 233, 436, 296
-0.996662, 181, 41, 196, 104
-0.996672, 205, 129, 220, 192
-0.996678, 257, 25, 500, 88
-0.996688, 429, 129, 460, 256
-0.996696, 61, 121, 76, 184
-0.996697, 225, 233, 240, 296
-0.996712, 299, 65, 314, 128
-0.996713, 369, 345, 496, 375
-0.996719, 113, 157, 240, 188
-0.996721, 285, 153, 300, 216
-0.996723, 283, 81, 298, 144
-0.996736, 81, 297, 208, 328
-0.996753, 129, 141, 256, 172
-0.996753, 49, 197, 176, 228
-0.99676, 49, 333, 176, 364
-0.996764, 209, 237, 336, 268
-0.996773, 313, 41, 328, 104
-0.996786, 81, 273, 208, 304
-0.996788, 311, 17, 326, 80
-0.996806, 181, 73, 196, 136
-0.996809, 193, 105, 320, 136
-0.996811, 321, 57, 336, 120
-0.996816, 305, 41, 320, 104
-0.996819, 173, 33, 204, 288
-0.99682, 17, 1, 48, 128
-0.996824, 283, 41, 298, 104
-0.996841, 103, 305, 118, 368
-0.996846, 311, 289, 326, 352
-0.996865, 353, 197, 480, 228
-0.996867, 359, 233, 374, 296
-0.996882, 353, 285, 480, 316
-0.996882, 439, 257, 454, 320
-0.996882, 257, 49, 500, 112
-0.996884, 265, 193, 280, 256
-0.99689, 321, 1, 448, 64
-0.996894, 329, 289, 344, 352
-0.996895, 47, 137, 62, 200
-0.996903, 225, 285, 352, 316
-0.996923, 263, 169, 278, 232
-0.996928, 407, 217, 422, 280
-0.996937, 373, 193, 388, 256
-0.996943, 427, 225, 442, 288
-0.996944, 383, 225, 398, 288
-0.996946, 161, 237, 288, 268
-0.996954, 133, 49, 148, 112
-0.996958, 139, 177, 154, 240
-0.996967, 55, 129, 70, 192
-0.996986, 201, 33, 232, 288
-0.996987, 65, 313, 192, 344
-0.996993, 221, 121, 236, 184
-0.996995, 277, 89, 292, 152
-0.996996, 81, 1, 144, 375
-0.997004, 161, 313, 288, 344
-0.997009, 255, 265, 270, 328
-0.997009, 323, 17, 338, 80
-0.997016, 1, 153, 500, 216
-0.997022, 177, 93, 304, 124
-0.997028, 233, 105, 248, 168
-0.99703, 1, 281, 128, 312
-0.99705, 427, 257, 442, 320
-0.997051, 241, 209, 256, 272
-0.997055, 25, 81, 56, 208
-0.997055, 281, 1, 312, 256
-0.997056, 401, 1, 464, 375
-0.997057, 263, 105, 278, 168
-0.997061, 97, 333, 224, 364
-0.99707, 291, 17, 306, 80
-0.997077, 273, 185, 288, 248
-0.997079, 253, 193, 268, 256
-0.997087, 201, 313, 216, 375
-0.997088, 263, 41, 278, 104
-0.997091, 123, 265, 138, 328
-0.997093, 273, 237, 400, 268
-0.997094, 273, 213, 400, 244
-0.997102, 195, 17, 210, 80
-0.997103, 289, 345, 416, 375
-0.997112, 1, 49, 32, 176
-0.997113, 91, 273, 106, 336
-0.997114, 33, 97, 160, 128
-0.997116, 31, 145, 46, 208
-0.99713, 1, 121, 500, 184
-0.997134, 97, 233, 352, 296
-0.997135, 199, 145, 214, 208
-0.997136, 321, 249, 448, 280
-0.997137, 209, 89, 224, 152
-0.997145, 165, 153, 180, 216
-0.997149, 143, 41, 158, 104
-0.997149, 143, 65, 158, 128
-0.99715, 257, 329, 272, 360
-0.997153, 129, 1, 160, 256
-0.997154, 161, 53, 288, 84
-0.997198, 161, 69, 288, 100
-0.997202, 33, 125, 160, 156
-0.997212, 249, 129, 280, 375
-0.997231, 337, 113, 464, 144
-0.997243, 249, 269, 264, 300
-0.997254, 113, 193, 128, 224
-0.997255, 257, 165, 384, 196
-0.997268, 161, 241, 192, 368
-0.997316, 193, 129, 320, 160
-0.997324, 209, 145, 224, 176
-0.99733, 209, 157, 224, 188
-0.997373, 337, 113, 368, 240
-0.99738, 321, 185, 448, 216
-0.997386, 257, 1, 500, 64
-0.997393, 241, 321, 368, 352
-0.997396, 351, 205, 366, 236
-0.997427, 235, 257, 250, 288
-0.997433, 353, 333, 480, 364
-0.997474, 377, 221, 392, 252
-0.997485, 195, 45, 210, 76
-0.997496, 209, 177, 224, 208
-0.9975, 17, 209, 144, 240
-0.997508, 273, 257, 400, 288
-0.997512, 245, 281, 260, 312
-0.997518, 257, 97, 500, 160
-0.997535, 65, 1, 192, 64
-0.997536, 301, 1, 332, 256
-0.997536, 221, 97, 252, 352
-0.997541, 185, 145, 216, 272
-0.997544, 241, 97, 368, 128
-0.997547, 193, 117, 320, 148
-0.99755, 441, 273, 456, 304
-0.997564, 353, 125, 480, 156
-0.997571, 337, 297, 464, 328
-0.997585, 209, 253, 336, 284
-0.997587, 129, 225, 256, 256
-0.997593, 337, 273, 464, 304
-0.9976, 17, 185, 144, 216
-0.997605, 219, 145, 234, 176
-0.997606, 193, 81, 320, 112
-0.997626, 33, 269, 160, 300
-0.997629, 161, 325, 288, 356
-0.997632, 393, 113, 424, 240
-0.997632, 49, 157, 176, 188
-0.997638, 73, 97, 136, 352
-0.997644, 269, 41, 284, 72
-0.997658, 195, 33, 210, 64
-0.997664, 241, 145, 368, 176
-0.997666, 249, 33, 280, 288
-0.997671, 95, 281, 110, 312
-0.997672, 149, 1, 180, 256
-0.99768, 129, 253, 256, 284
-0.997683, 445, 285, 460, 316
-0.997706, 239, 269, 254, 300
-0.997711, 415, 225, 430, 256
-0.997724, 203, 141, 218, 172
-0.997727, 33, 33, 64, 288
-0.997728, 129, 293, 256, 324
-0.99773, 97, 81, 224, 112
-0.99774, 249, 293, 264, 324
-0.997748, 57, 177, 88, 304
-0.997753, 369, 33, 496, 96
-0.997767, 435, 257, 450, 288
-0.997781, 225, 309, 352, 340
-0.997784, 239, 301, 254, 332
-0.997789, 429, 257, 444, 288
-0.99779, 465, 241, 496, 368
-0.997795, 343, 221, 358, 252
-0.997798, 1, 73, 500, 136
-0.997807, 203, 157, 218, 188
-0.997815, 159, 185, 174, 216
-0.997816, 235, 281, 250, 312
-0.997824, 289, 29, 416, 60
-0.997825, 9, 225, 40, 352
-0.99783, 277, 85, 292, 116
-0.997853, 97, 29, 224, 60
-0.997856, 21, 153, 36, 184
-0.997869, 435, 281, 450, 312
-0.99787, 369, 229, 496, 260
-0.997876, 289, 73, 416, 104
-0.997883, 161, 1, 192, 256
-0.997902, 321, 1, 352, 256
-0.997905, 149, 189, 164, 220
-0.997905, 203, 89, 218, 120
-0.997913, 243, 253, 258, 284
-0.997922, 265, 149, 280, 180
-0.997927, 251, 329, 266, 360
-0.997935, 49, 109, 176, 140
-0.997939, 321, 33, 384, 160
-0.99794, 249, 237, 264, 268
-0.99794, 241, 233, 256, 264
-0.997942, 363, 205, 378, 236
-0.997952, 371, 217, 386, 248
-0.997956, 123, 197, 138, 228
-0.997958, 369, 137, 496, 168
-0.997972, 299, 29, 314, 60
-0.997972, 27, 149, 42, 180
-0.997977, 37, 149, 52, 180
-0.997982, 441, 261, 456, 292
-0.997982, 191, 81, 206, 112
-0.997987, 421, 233, 436, 264
-0.997995, 189, 33, 204, 64
-0.998001, 223, 189, 238, 220
-0.998009, 197, 69, 212, 100
-0.998013, 65, 217, 192, 248
-0.998018, 273, 29, 288, 60
-0.99802, 129, 265, 256, 296
-0.998022, 277, 165, 292, 196
-0.998025, 235, 241, 250, 272
-0.998029, 167, 181, 182, 212
-0.99803, 215, 161, 230, 192
-0.998038, 135, 189, 150, 220
-0.99804, 201, 345, 216, 375
-0.998047, 197, 57, 212, 88
-0.998047, 269, 85, 284, 116
-0.998048, 255, 313, 270, 344
-0.99805, 245, 333, 260, 364
-0.998051, 277, 73, 292, 104
-0.998055, 261, 193, 276, 224
-0.998056, 81, 261, 208, 292
-0.998062, 233, 269, 248, 300
-0.998064, 57, 137, 72, 168
-0.998065, 283, 29, 298, 60
-0.998073, 269, 69, 284, 100
-0.998074, 243, 317, 258, 348
-0.998078, 149, 97, 180, 352
-0.998078, 179, 45, 194, 76
-0.998078, 405, 225, 420, 256
-0.998079, 305, 29, 320, 60
-0.998083, 249, 313, 264, 344
-0.998083, 423, 253, 438, 284
-0.998085, 369, 213, 496, 244
-0.998093, 229, 237, 244, 268
-0.998097, 343, 209, 358, 240
-0.998102, 49, 169, 176, 200
-0.998111, 433, 269, 448, 300
-0.998116, 369, 317, 496, 348
-0.998119, 269, 53, 284, 84
-0.998122, 1, 201, 500, 264
-0.998123, 279, 185, 294, 216
-0.998123, 45, 145, 60, 176
-0.998126, 1, 241, 256, 304
-0.998131, 265, 29, 280, 60
-0.998131, 355, 237, 370, 268
-0.998134, 277, 41, 292, 72
-0.998138, 107, 201, 122, 232
-0.99814, 219, 177, 234, 208
-0.998154, 309, 273, 324, 304
-0.998161, 129, 97, 160, 352
-0.998164, 129, 1, 160, 128
-0.998166, 1, 49, 500, 112
-0.998171, 283, 41, 298, 72
-0.998173, 117, 205, 132, 236
-0.998176, 129, 277, 256, 308
-0.998179, 415, 237, 430, 268
-0.998181, 1, 197, 128, 228
-0.998186, 213, 189, 228, 220
-0.998192, 233, 337, 248, 368
-0.998195, 207, 345, 222, 375
-0.998196, 51, 141, 66, 172
-0.998207, 225, 141, 240, 172
-0.998211, 1, 1, 500, 64
-0.998214, 227, 117, 242, 148
-0.99822, 61, 65, 92, 192
-0.998234, 263, 85, 278, 116
-0.998235, 219, 341, 234, 372
-0.998242, 193, 197, 320, 228
-0.998245, 299, 73, 314, 104
-0.998247, 195, 345, 210, 375
-0.99825, 417, 253, 432, 284
-0.998252, 283, 165, 298, 196
-0.998253, 249, 185, 264, 216
-0.998253, 185, 97, 216, 352
-0.998254, 15, 161, 30, 192
-0.998256, 299, 41, 314, 72
-0.998258, 207, 73, 222, 104
-0.998261, 227, 269, 242, 300
-0.998261, 21, 1, 52, 256
-0.998264, 211, 129, 226, 160
-0.998265, 451, 293, 466, 324
-0.998274, 259, 345, 274, 375
-0.998275, 353, 65, 480, 128
-0.998283, 255, 273, 270, 304
-0.998283, 231, 193, 246, 224
-0.998287, 189, 45, 204, 76
-0.998296, 197, 89, 212, 120
-0.998298, 1, 165, 128, 196
-0.998301, 189, 57, 204, 88
-0.998301, 71, 341, 86, 372
-0.998303, 239, 333, 254, 364
-0.998304, 197, 141, 212, 172
-0.99831, 203, 169, 218, 200
-0.998314, 271, 149, 286, 180
-0.99832, 165, 197, 180, 228
-0.99832, 191, 69, 206, 100
-0.99832, 409, 237, 424, 268
-0.998322, 81, 53, 208, 84
-0.998322, 191, 93, 206, 124
-0.998322, 271, 193, 286, 224
-0.998323, 255, 137, 270, 168
-0.998329, 109, 97, 140, 352
-0.998336, 97, 117, 224, 148
-0.998336, 143, 145, 158, 176
-0.998339, 321, 29, 336, 60
-0.998341, 313, 29, 328, 60
-0.998342, 111, 301, 126, 332
-0.998344, 277, 53, 292, 84
-0.998345, 423, 221, 438, 252
-0.998364, 241, 125, 368, 156
-0.998366, 173, 241, 204, 368
-0.998376, 197, 179, 228, 194
-0.998377, 277, 167, 308, 182
-0.998377, 89, 295, 120, 310
-0.998378, 49, 361, 80, 375
-0.99838, 253, 151, 284, 166
-0.998381, 193, 39, 224, 54
-0.998381, 361, 213, 392, 228
-0.998381, 337, 233, 368, 248
-0.998383, 173, 55, 204, 70
-0.998383, 217, 341, 248, 356
-0.998383, 285, 139, 316, 154
-0.998383, 221, 201, 252, 216
-0.998384, 53, 211, 84, 226
-0.998384, 53, 221, 84, 236
-0.998384, 297, 45, 328, 60
-0.998384, 329, 219, 360, 234
-0.998385, 417, 253, 448, 268
-0.998385, 189, 143, 220, 158
-0.998385, 305, 275, 336, 290
-0.998386, 237, 293, 268, 308
-0.998386, 93, 281, 124, 296
-0.998387, 185, 349, 216, 364
-0.998387, 233, 255, 264, 270
-0.998387, 21, 215, 52, 230
-0.998389, 201, 345, 232, 360
-0.99839, 177, 85, 208, 100
-0.99839, 273, 75, 304, 90
-0.998391, 425, 267, 456, 282
-0.998391, 297, 77, 328, 92
-0.998393, 249, 281, 280, 296
-0.998393, 273, 93, 304, 108
-0.998395, 1, 113, 128, 144
-0.998395, 137, 145, 168, 160
-0.998396, 257, 195, 288, 210
-0.998396, 265, 359, 296, 374
-0.998396, 193, 173, 224, 188
-0.998396, 245, 349, 276, 364
-0.998396, 397, 227, 428, 242
-0.998397, 341, 289, 372, 304
-0.998398, 225, 297, 256, 312
-0.998398, 297, 83, 328, 98
-0.998398, 229, 337, 260, 352
-0.998399, 177, 65, 208, 80
-0.998399, 61, 359, 92, 374
-0.998399, 225, 285, 256, 300
-0.9984, 265, 165, 296, 180
-0.9984, 229, 305, 260, 320
-0.9984, 189, 151, 220, 166
-0.998401, 33, 213, 64, 228
-0.998401, 269, 189, 300, 204
-0.998403, 289, 61, 416, 92
-0.998405, 273, 33, 304, 48
-0.998405, 133, 199, 164, 214
-0.998406, 209, 175, 240, 190
-0.998406, 81, 145, 208, 176
-0.998408, 193, 163, 224, 178
-0.998408, 381, 221, 412, 236
-0.998408, 205, 185, 236, 200
-0.998408, 353, 231, 384, 246
-0.998409, 177, 77, 208, 92
-0.998411, 273, 201, 400, 232
-0.998412, 385, 227, 416, 242
-0.998413, 341, 283, 372, 298
-0.998414, 1, 215, 32, 230
-0.998414, 189, 69, 220, 84
-0.998415, 221, 271, 252, 286
-0.998417, 217, 185, 248, 200
-0.998417, 213, 117, 244, 132
-0.998418, 177, 71, 208, 86
-0.998418, 317, 145, 348, 272
-0.998419, 221, 277, 252, 292
-0.998421, 409, 235, 440, 250
-0.998424, 345, 219, 376, 234
-0.998424, 261, 59, 292, 74
-0.998425, 329, 185, 360, 200
-0.998426, 261, 65, 292, 80
-0.998426, 229, 231, 260, 246
-0.998429, 293, 361, 324, 375
-0.998429, 173, 45, 204, 60
-0.99843, 285, 85, 316, 100
-0.99843, 193, 45, 224, 60
-0.998432, 189, 75, 220, 90
-0.998432, 73, 145, 104, 272
-0.998432, 261, 71, 292, 86
-0.998432, 209, 139, 240, 154
-0.998434, 189, 87, 220, 102
-0.998434, 241, 313, 272, 328
-0.998434, 261, 53, 292, 68
-0.998437, 229, 261, 260, 276
-0.998437, 273, 81, 304, 96
-0.998439, 217, 147, 248, 162
-0.998441, 289, 85, 416, 116
-0.998442, 189, 81, 220, 96
-0.998449, 49, 1, 112, 256
-0.99845, 81, 249, 208, 280
-0.998453, 261, 77, 292, 92
-0.998453, 361, 219, 392, 234
-0.998453, 297, 39, 328, 54
-0.998454, 261, 89, 292, 104
-0.998454, 421, 259, 452, 274
-0.998459, 365, 229, 396, 244
-0.99846, 121, 199, 152, 214
-0.99846, 33, 151, 64, 166
-0.998461, 297, 33, 328, 48
-0.998461, 237, 287, 268, 302
-0.998463, 113, 309, 240, 340
-0.998464, 1, 25, 500, 88
-0.998465, 229, 247, 260, 262
-0.998465, 81, 1, 208, 32
-0.998466, 349, 213, 380, 228
-0.998467, 285, 35, 316, 50
-0.998469, 233, 267, 264, 282
-0.998469, 261, 47, 292, 62
-0.998471, 409, 229, 440, 244
-0.998471, 253, 361, 284, 375
-0.998472, 129, 1, 256, 32
-0.998473, 33, 81, 160, 112
-0.998473, 121, 193, 184, 208
-0.998473, 377, 229, 440, 244
-0.998475, 273, 87, 304, 102
-0.998475, 321, 173, 448, 204
-0.998478, 181, 37, 212, 52
-0.99848, 233, 135, 264, 150
-0.99848, 177, 301, 304, 332
-0.998482, 401, 351, 432, 366
-0.998483, 33, 41, 160, 72
-0.998487, 213, 1, 244, 128
-0.998487, 273, 39, 304, 54
-0.998488, 205, 151, 236, 166
-0.998488, 337, 219, 400, 234
-0.998489, 129, 193, 160, 208
-0.99849, 225, 195, 256, 210
-0.998496, 441, 97, 472, 224
-0.998496, 109, 197, 140, 212
-0.998497, 17, 161, 48, 176
-0.998498, 237, 191, 268, 206
-0.998498, 205, 165, 236, 180
-0.998501, 261, 83, 292, 98
-0.998502, 201, 157, 232, 172
-0.998502, 229, 237, 260, 252
-0.998504, 233, 191, 296, 206
-0.998507, 185, 241, 216, 368
-0.998508, 261, 41, 292, 56
-0.998513, 1, 317, 128, 348
-0.998515, 241, 307, 272, 322
-0.998516, 337, 225, 400, 240
-0.998518, 213, 191, 244, 206
-0.99852, 265, 41, 328, 56
-0.99852, 217, 335, 280, 350
-0.998521, 145, 189, 176, 204
-0.998521, 201, 145, 232, 160
-0.998521, 265, 35, 328, 50
-0.998526, 261, 35, 292, 50
-0.998531, 297, 273, 360, 288
-0.998532, 297, 285, 360, 300
-0.998536, 113, 199, 176, 214
-0.998537, 337, 231, 400, 246
-0.998539, 17, 215, 80, 230
-0.998539, 237, 281, 268, 296
-0.998545, 21, 155, 52, 170
-0.998546, 161, 173, 224, 188
-0.998549, 161, 187, 224, 202
-0.99855, 337, 207, 400, 222
-0.998552, 245, 333, 276, 348
-0.998552, 237, 273, 268, 288
-0.998552, 333, 225, 364, 240
-0.998553, 9, 155, 72, 170
-0.998555, 273, 185, 336, 200
-0.998555, 217, 143, 280, 158
-0.998556, 201, 185, 264, 200
-0.998557, 185, 191, 248, 206
-0.998558, 209, 193, 272, 208
-0.998558, 81, 291, 144, 306
-0.99856, 217, 239, 280, 254
-0.99856, 89, 279, 152, 294
-0.998564, 337, 213, 400, 228
-0.998564, 377, 235, 440, 250
-0.998564, 25, 129, 56, 375
-0.998567, 161, 195, 224, 210
-0.998569, 369, 221, 432, 236
-0.998569, 393, 353, 456, 368
-0.998574, 57, 345, 120, 360
-0.998574, 289, 279, 352, 294
-0.998576, 217, 149, 280, 164
-0.998583, 329, 353, 392, 368
-0.998583, 217, 341, 280, 356
-0.998584, 225, 281, 288, 296
-0.998584, 297, 291, 360, 306
-0.998586, 241, 361, 304, 375
-0.998587, 257, 143, 320, 158
-0.998587, 209, 275, 272, 290
-0.998587, 265, 47, 328, 62
-0.998587, 273, 361, 336, 375
-0.998589, 257, 275, 320, 290
-0.998589, 9, 163, 72, 178
-0.998591, 49, 361, 112, 375
-0.998592, 349, 207, 380, 222
-0.998592, 161, 37, 224, 52
-0.998592, 289, 305, 416, 336
-0.998594, 293, 97, 324, 352
-0.998596, 161, 13, 288, 44
-0.998598, 33, 29, 160, 60
-0.998598, 201, 169, 264, 184
-0.998599, 161, 97, 192, 352
-0.998599, 169, 43, 232, 58
-0.998601, 161, 181, 224, 196
-0.998601, 241, 39, 304, 54
-0.998602, 73, 217, 136, 232
-0.998602, 161, 167, 224, 182
-0.998603, 297, 267, 360, 282
-0.998603, 241, 185, 304, 200
-0.998603, 209, 137, 272, 152
-0.998605, 265, 53, 328, 68
-0.998605, 265, 59, 328, 74
-0.998607, 241, 169, 304, 184
-0.998607, 209, 245, 272, 260
-0.998607, 193, 161, 256, 176
-0.998607, 185, 309, 248, 324
-0.998608, 257, 269, 320, 284
-0.998608, 121, 187, 184, 202
-0.998609, 257, 355, 320, 370
-0.998609, 393, 259, 456, 274
-0.99861, 193, 345, 256, 360
-0.998612, 297, 33, 360, 48
-0.998612, 369, 351, 432, 366
-0.998612, 329, 293, 392, 308
-0.998613, 81, 285, 144, 300
-0.998613, 9, 359, 72, 374
-0.998614, 233, 275, 296, 290
-0.998614, 297, 297, 360, 312
-0.998615, 265, 103, 328, 118
-0.998615, 417, 289, 480, 304
-0.998615, 33, 209, 96, 224
-0.998616, 265, 65, 328, 80
-0.998617, 1, 173, 64, 188
-0.998618, 169, 159, 232, 174
-0.998619, 313, 207, 376, 222
-0.998621, 217, 353, 280, 368
-0.998622, 169, 145, 232, 160
-0.998622, 81, 301, 144, 316
-0.998624, 241, 333, 304, 348
-0.998626, 201, 199, 264, 214
-0.998626, 433, 337, 496, 352
-0.998626, 297, 41, 360, 56
-0.998628, 305, 227, 368, 242
-0.998629, 193, 153, 256, 168
-0.998629, 201, 179, 264, 194
-0.998629, 417, 263, 480, 278
-0.99863, 249, 137, 312, 152
-0.998633, 273, 175, 336, 190
-0.998633, 401, 125, 464, 140
-0.998633, 153, 59, 216, 74
-0.998633, 193, 359, 256, 374
-0.998634, 73, 207, 136, 222
-0.998634, 193, 143, 256, 158
-0.998636, 265, 71, 328, 86
-0.998637, 185, 127, 248, 142
-0.998637, 217, 303, 280, 318
-0.998638, 169, 349, 232, 364
-0.998638, 393, 265, 456, 280
-0.99864, 305, 183, 368, 198
-0.998641, 97, 193, 160, 208
-0.998641, 121, 41, 184, 56
-0.998643, 41, 143, 104, 158
-0.998643, 121, 285, 184, 300
-0.998645, 217, 359, 280, 374
-0.998646, 129, 53, 192, 68
-0.998646, 105, 297, 168, 312
-0.998646, 417, 155, 480, 170
-0.998646, 233, 159, 296, 174
-0.998646, 81, 349, 144, 364
-0.998647, 161, 313, 224, 328
-0.998647, 73, 195, 136, 210
-0.998649, 201, 285, 264, 300
-0.998649, 153, 65, 216, 80
-0.998649, 25, 149, 88, 164
-0.998649, 257, 149, 320, 164
-0.99865, 129, 177, 192, 192
-0.998651, 209, 269, 272, 284
-0.998651, 9, 209, 72, 224
-0.998651, 297, 261, 360, 276
-0.998652, 297, 81, 360, 96
-0.998652, 297, 357, 360, 372
-0.998653, 213, 1, 244, 256
-0.998654, 209, 85, 272, 100
-0.998654, 185, 119, 248, 134
-0.998656, 169, 87, 232, 102
-0.998658, 145, 109, 208, 124
-0.998665, 273, 97, 304, 352
-0.998668, 277, 97, 292, 224
-0.99868, 201, 49, 216, 176
-0.998717, 333, 97, 364, 352
-0.998749, 393, 81, 456, 208
-0.998752, 45, 65, 76, 320
-0.998772, 369, 1, 496, 64
-0.998782, 209, 129, 240, 375
-0.998783, 9, 65, 40, 320
-0.998793, 269, 49, 284, 176
-0.998821, 265, 97, 280, 224
-0.998833, 99, 241, 114, 368
-0.998841, 313, 129, 344, 375
-0.998893, 245, 241, 260, 368
-0.998905, 277, 33, 292, 160
-0.998954, 271, 145, 286, 272
-0.998971, 211, 145, 226, 272
-0.998976, 271, 97, 286, 224
-0.99898, 195, 49, 210, 176
-0.998982, 259, 129, 274, 256
-0.998984, 49, 17, 112, 144
-0.998985, 261, 129, 292, 375
-0.998992, 191, 1, 206, 128
-0.999007, 105, 241, 120, 368
-0.999014, 217, 97, 232, 224
-0.999027, 231, 241, 246, 368
-0.999031, 255, 177, 270, 304
-0.999035, 113, 241, 128, 368
-0.999041, 253, 129, 268, 256
-0.999041, 331, 225, 346, 352
-0.999049, 357, 209, 372, 336
-0.999053, 237, 241, 252, 368
-0.999067, 23, 129, 38, 256
-0.999071, 197, 129, 228, 375
-0.999071, 377, 193, 392, 320
-0.999071, 235, 177, 250, 304
-0.999074, 365, 193, 380, 320
-0.999077, 245, 177, 260, 304
-0.999083, 465, 193, 496, 320
-0.999092, 119, 241, 134, 368
-0.999093, 207, 97, 222, 224
-0.999097, 265, 1, 280, 128
-0.999099, 219, 177, 234, 304
-0.999103, 277, 145, 292, 272
-0.999106, 189, 65, 204, 192
-0.999106, 369, 1, 496, 128
-0.999107, 283, 81, 298, 208
-0.99911, 301, 33, 316, 160
-0.999134, 117, 1, 148, 256
-0.999143, 197, 1, 212, 128
-0.999145, 323, 1, 338, 128
-0.999146, 229, 129, 244, 256
-0.999148, 233, 1, 264, 256
-0.999154, 223, 129, 238, 256
-0.999158, 319, 241, 334, 368
-0.99916, 295, 33, 310, 160
-0.999162, 251, 241, 266, 368
-0.999184, 15, 145, 30, 272
-0.999187, 121, 193, 136, 320
-0.999193, 325, 241, 340, 368
-0.999193, 457, 97, 488, 352
-0.999195, 225, 177, 240, 304
-0.999196, 263, 49, 278, 176
-0.999196, 265, 145, 280, 272
-0.999199, 351, 193, 366, 320
-0.999199, 371, 193, 386, 320
-0.999203, 183, 49, 198, 176
-0.999206, 29, 129, 44, 256
-0.99922, 271, 1, 286, 128
-0.999221, 201, 97, 216, 224
-0.999232, 93, 241, 108, 368
-0.999233, 365, 97, 396, 352
-0.999241, 283, 129, 298, 256
-0.999248, 425, 97, 456, 352
-0.999249, 113, 193, 128, 320
-0.999255, 1, 257, 500, 320
-0.99926, 235, 113, 250, 240
-0.99926, 443, 241, 458, 368
-0.999267, 383, 209, 398, 336
-0.999279, 127, 193, 142, 320
-0.999283, 125, 241, 140, 368
-0.999291, 37, 177, 68, 304
-0.999302, 421, 193, 436, 320
-0.999303, 345, 209, 360, 336
-0.999307, 297, 81, 312, 208
-0.999314, 53, 81, 68, 208
-0.999316, 413, 161, 428, 288
-0.999318, 57, 129, 72, 256
-0.999319, 313, 241, 328, 368
-0.999322, 207, 33, 222, 160
-0.999323, 247, 113, 262, 240
-0.999323, 9, 145, 24, 272
-0.999331, 359, 161, 374, 288
-0.999332, 159, 97, 174, 224
-0.999336, 15, 97, 30, 224
-0.999337, 177, 1, 192, 128
-0.99934, 167, 97, 182, 224
-0.999348, 135, 33, 150, 160
-0.999352, 97, 97, 128, 352
-0.999354, 241, 129, 256, 256
-0.999355, 429, 193, 444, 320
-0.999361, 123, 49, 138, 176
-0.999366, 143, 49, 158, 176
-0.99937, 259, 1, 274, 128
-0.999381, 149, 65, 164, 192
-0.999397, 105, 193, 120, 320
-0.999398, 51, 129, 66, 256
-0.999407, 195, 97, 210, 224
-0.999409, 41, 129, 56, 256
-0.99941, 389, 97, 420, 352
-0.999412, 337, 193, 352, 320
-0.999414, 317, 17, 332, 144
-0.999419, 257, 49, 272, 176
-0.999433, 173, 65, 188, 192
-0.999436, 135, 81, 150, 208
-0.999445, 371, 145, 386, 272
-0.999445, 133, 209, 148, 336
-0.999448, 365, 145, 380, 272
-0.999452, 337, 241, 352, 368
-0.999452, 3, 113, 18, 240
-0.999453, 307, 209, 322, 336
-0.999457, 283, 17, 298, 144
-0.99946, 329, 49, 344, 176
-0.999467, 1, 225, 500, 288
-0.999467, 35, 129, 50, 256
-0.999469, 125, 97, 140, 224
-0.999472, 185, 1, 200, 128
-0.999476, 419, 145, 434, 272
-0.999478, 411, 209, 426, 336
-0.999481, 143, 97, 158, 224
-0.999482, 351, 145, 366, 272
-0.999483, 171, 17, 186, 144
-0.999484, 133, 161, 148, 288
-0.999485, 433, 33, 496, 288
-0.999488, 283, 177, 298, 304
-0.999492, 213, 17, 228, 144
-0.999493, 351, 241, 366, 368
-0.999498, 47, 65, 62, 192
-0.999502, 289, 129, 304, 256
-0.999504, 257, 241, 272, 368
-0.999507, 3, 161, 18, 288
-0.999509, 291, 81, 306, 208
-0.999518, 319, 193, 334, 320
-0.999519, 225, 81, 240, 208
-0.999522, 323, 49, 338, 176
-0.999523, 437, 241, 452, 368
-0.999523, 225, 241, 240, 368
-0.999537, 435, 193, 450, 320
-0.999538, 431, 241, 446, 368
-0.99954, 307, 1, 322, 128
-0.999547, 141, 161, 156, 288
-0.999547, 205, 161, 220, 288
-0.999549, 179, 97, 194, 224
-0.99955, 365, 241, 380, 368
-0.999553, 353, 97, 384, 352
-0.999563, 237, 33, 268, 160
-0.999584, 7, 329, 22, 344
-0.999584, 69, 219, 84, 234
-0.999585, 417, 253, 432, 268
-0.999585, 309, 281, 324, 296
-0.999586, 323, 183, 338, 198
-0.999587, 207, 85, 222, 100
-0.999588, 227, 275, 242, 290
-0.999588, 305, 39, 320, 54
-0.999589, 419, 227, 434, 242
-0.999589, 431, 265, 446, 280
-0.999589, 299, 39, 314, 54
-0.999589, 161, 187, 176, 202
-0.99959, 277, 41, 292, 56
-0.99959, 235, 285, 250, 300
-0.99959, 251, 277, 266, 292
-0.99959, 247, 245, 262, 260
-0.99959, 307, 275, 322, 290
-0.99959, 61, 359, 76, 374
-0.999591, 419, 237, 434, 252
-0.999591, 239, 337, 254, 352
-0.999591, 313, 33, 328, 48
-0.999592, 231, 189, 246, 204
-0.999594, 243, 263, 258, 278
-0.999594, 217, 189, 232, 204
-0.999595, 259, 347, 274, 362
-0.999595, 167, 193, 182, 208
-0.999595, 245, 287, 260, 302
-0.999596, 197, 77, 212, 92
-0.999596, 267, 361, 282, 375
-0.999597, 347, 217, 362, 232
-0.999597, 179, 45, 194, 60
-0.999597, 197, 67, 212, 82
-0.999597, 241, 249, 256, 264
-0.999598, 229, 239, 244, 254
-0.999598, 31, 153, 46, 168
-0.999599, 143, 193, 158, 208
-0.9996, 333, 185, 348, 200
-0.9996, 57, 33, 88, 288
-0.9996, 47, 143, 62, 158
-0.9996, 269, 59, 284, 74
-0.999601, 269, 65, 284, 80
-0.999601, 247, 297, 262, 312
-0.999601, 201, 151, 216, 166
-0.999601, 269, 53, 284, 68
-0.999601, 351, 235, 366, 250
-0.999602, 237, 241, 252, 256
-0.999603, 269, 71, 284, 86
-0.999604, 249, 239, 264, 254
-0.999604, 405, 351, 420, 366
-0.999604, 195, 57, 210, 72
-0.999604, 301, 139, 316, 154
-0.999605, 241, 295, 256, 310
-0.999606, 411, 223, 426, 238
-0.999607, 217, 163, 232, 178
-0.999607, 147, 149, 162, 164
-0.999608, 357, 229, 372, 244
-0.999609, 269, 77, 284, 92
-0.99961, 133, 193, 148, 208
-0.999611, 209, 181, 224, 196
-0.999611, 269, 47, 284, 62
-0.999612, 361, 207, 376, 222
-0.999612, 189, 37, 204, 52
-0.999615, 41, 147, 56, 162
-0.999615, 385, 221, 400, 236
-0.999616, 213, 155, 228, 170
-0.999616, 243, 271, 258, 286
-0.999616, 277, 87, 292, 102
-0.999616, 195, 49, 210, 64
-0.999617, 435, 285, 450, 300
-0.999619, 223, 147, 238, 162
-0.999619, 437, 263, 452, 278
-0.999619, 333, 225, 348, 240
-0.999621, 305, 33, 320, 48
-0.999622, 235, 261, 250, 276
-0.999622, 223, 193, 238, 208
-0.999623, 269, 83, 284, 98
-0.999623, 207, 171, 222, 186
-0.999624, 215, 177, 230, 192
-0.999624, 425, 257, 440, 272
-0.999628, 349, 209, 364, 224
-0.999628, 17, 215, 32, 230
-0.999628, 235, 247, 250, 262
-0.99963, 167, 181, 182, 196
-0.99963, 199, 85, 214, 100
-0.99963, 289, 35, 304, 50
-0.999631, 21, 161, 36, 176
-0.999631, 241, 301, 256, 316
-0.999633, 211, 145, 226, 160
-0.999633, 435, 257, 450, 272
-0.999635, 377, 223, 392, 238
-0.999635, 191, 87, 206, 102
-0.999641, 243, 237, 258, 252
-0.999641, 251, 311, 266, 326
-0.999643, 199, 37, 214, 52
-0.999645, 265, 151, 280, 166
-0.999646, 239, 193, 254, 208
-0.999646, 151, 189, 166, 204
-0.999647, 437, 271, 452, 286
-0.99965, 117, 197, 132, 212
-0.99965, 281, 189, 296, 204
-0.999653, 371, 217, 386, 232
-0.999653, 217, 147, 232, 162
-0.999653, 205, 143, 220, 158
-0.999656, 299, 33, 314, 48
-0.999656, 449, 295, 464, 310
-0.999658, 283, 35, 298, 50
-0.999658, 441, 281, 456, 296
-0.999658, 231, 195, 246, 210
-0.999658, 265, 35, 280, 50
-0.999659, 413, 231, 428, 246
-0.99966, 241, 309, 256, 324
-0.999661, 379, 229, 394, 244
-0.999661, 113, 203, 128, 218
-0.999661, 405, 129, 436, 375
-0.999664, 209, 187, 224, 202
-0.999665, 273, 35, 288, 50
-0.999673, 269, 41, 284, 56
-0.999676, 251, 305, 266, 320
-0.999685, 25, 153, 40, 168
-0.999688, 195, 43, 210, 58
-0.99969, 239, 277, 254, 292
-0.999694, 445, 289, 460, 304
-0.999697, 207, 165, 222, 180
-0.999702, 123, 199, 138, 214
-0.999702, 257, 331, 272, 346
-0.999704, 245, 281, 260, 296
-0.999707, 235, 269, 250, 284
-0.999709, 109, 195, 124, 210
-0.999717, 343, 223, 358, 238
-0.999724, 207, 151, 222, 166
-0.999733, 469, 129, 500, 375
-0.999734, 441, 129, 472, 375
-0.999739, 249, 271, 264, 286
-0.999757, 207, 157, 222, 172
-0.99991, 173, 129, 204, 375
-0.999986, 469, 33, 500, 288
-0.999995, 337, 1, 368, 256
-1.00013, 57, 129, 88, 375
-1.00015, 69, 97, 100, 352
-1.0002, 457, 1, 488, 256
-1.00024, 105, 1, 136, 256
-1.00027, 81, 97, 112, 352
-1.00034, 441, 33, 472, 288
-1.00038, 377, 97, 408, 352
-1.00066, 409, 33, 472, 288
-1.00075, 413, 33, 444, 288
-1.00097, 353, 1, 384, 256
-1.00107, 401, 33, 432, 288
-1.00107, 93, 1, 124, 256
-1.00107, 369, 1, 400, 256
-1.00115, 69, 1, 100, 256
-1.00119, 81, 1, 112, 256
-1.0012, 425, 1, 456, 256
-1.00123, 389, 1, 420, 256
-1.00179, 25, 241, 88, 368
-1.00234, 337, 1, 400, 256
-1.00307, 73, 1, 136, 256
-1.00392, 73, 49, 136, 176
-1.00444, 361, 49, 424, 176
-1.00509, 433, 17, 496, 144
-1.00517, 361, 1, 424, 256
-1.00678, 385, 1, 448, 256
-1.00706, 409, 33, 472, 160
-1.00905, 73, 1, 136, 128
-1.01265, 385, 33, 448, 160
-1.01476, 345, 1, 408, 128
