1892
-0.29127, 1, 65, 500, 320
-0.319821, 1, 1, 500, 333
-0.447345, 1, 1, 256, 333
-0.471153, 1, 65, 256, 320
-0.555775, 193, 1, 448, 333
-0.622686, 161, 65, 416, 320
-0.680779, 97, 1, 352, 333
-0.801456, 257, 65, 500, 320
-0.829092, 17, 1, 144, 333
-0.834187, 17, 65, 144, 320
-0.857334, 65, 1, 192, 333
-0.858793, 1, 113, 500, 240
-0.862449, 273, 65, 400, 320
-0.8698, 1, 161, 500, 288
-0.87188, 193, 65, 320, 320
-0.873627, 65, 65, 192, 320
-0.88746, 1, 209, 500, 333
-0.890985, 113, 65, 240, 320
-0.891362, 1, 97, 256, 224
-0.89185, 321, 65, 448, 320
-0.90349, 273, 1, 400, 333
-0.904878, 161, 1, 288, 333
-0.910475, 225, 1, 352, 333
-0.911599, 113, 1, 240, 333
-0.916535, 193, 113, 448, 240
-0.917519, 1, 161, 256, 288
-0.920671, 1, 65, 500, 192
-0.923367, 369, 65, 496, 320
-0.924876, 321, 1, 448, 333
-0.926017, 17, 97, 144, 224
-0.929207, 25, 81, 88, 208
-0.929774, 97, 97, 352, 224
-0.930396, 33, 209, 288, 333
-0.933901, 369, 1, 496, 333
-0.934577, 257, 209, 500, 333
-0.934689, 73, 49, 136, 176
-0.935383, 257, 161, 500, 288
-0.935891, 97, 49, 352, 176
-0.937554, 33, 33, 160, 160
-0.938174, 97, 161, 352, 288
-0.938649, 273, 97, 400, 224
-0.939143, 1, 49, 256, 176
-0.939149, 17, 193, 144, 320
-0.941953, 65, 209, 128, 333
-0.943118, 113, 97, 240, 224
-0.943129, 1, 177, 64, 304
-0.94517, 393, 193, 456, 320
-0.945236, 257, 113, 320, 240
-0.94569, 25, 89, 88, 152
-0.94618, 225, 81, 288, 208
-0.94689, 225, 209, 352, 333
-0.947342, 25, 193, 88, 320
-0.947945, 161, 97, 288, 224
-0.948035, 49, 49, 112, 176
-0.948113, 129, 209, 384, 333
-0.948593, 177, 209, 240, 272
-0.948703, 97, 193, 224, 320
-0.94939, 209, 161, 336, 288
-0.949562, 305, 161, 432, 288
-0.950538, 345, 113, 408, 240
-0.951385, 217, 145, 280, 272
-0.951494, 177, 113, 240, 240
-0.951546, 257, 161, 320, 288
-0.952037, 65, 73, 128, 136
-0.952281, 81, 33, 144, 96
-0.952318, 289, 209, 416, 333
-0.953279, 17, 1, 80, 128
-0.953645, 297, 81, 360, 208
-0.954061, 161, 209, 288, 333
-0.954501, 153, 105, 216, 168
-0.955356, 225, 97, 352, 224
-0.955511, 193, 65, 448, 192
-0.955799, 161, 145, 288, 272
-0.956753, 33, 65, 96, 128
-0.957189, 281, 209, 344, 333
-0.957215, 65, 233, 128, 296
-0.957287, 153, 113, 216, 240
-0.957624, 81, 49, 208, 176
-0.957793, 129, 97, 192, 224
-0.958164, 105, 65, 168, 192
-0.958665, 177, 193, 240, 320
-0.958745, 321, 113, 448, 240
-0.958843, 105, 113, 168, 240
-0.959034, 113, 145, 240, 272
-0.959216, 393, 145, 456, 272
-0.9593, 369, 209, 432, 333
-0.959488, 25, 233, 88, 296
-0.959542, 369, 161, 432, 288
-0.959916, 1, 145, 128, 272
-0.960384, 145, 161, 208, 288
-0.960408, 57, 49, 120, 112
-0.960428, 257, 225, 320, 288
-0.96048, 73, 97, 136, 224
-0.960496, 321, 97, 384, 224
-0.960697, 353, 177, 480, 304
-0.96091, 1, 217, 64, 280
-0.961204, 1, 1, 500, 128
-0.961249, 393, 201, 456, 264
-0.961284, 249, 97, 312, 160
-0.961566, 273, 105, 336, 168
-0.962345, 65, 97, 128, 160
-0.962594, 201, 97, 264, 224
-0.962815, 49, 145, 176, 272
-0.962873, 385, 225, 448, 288
-0.963942, 257, 209, 320, 333
-0.964105, 297, 129, 360, 256
-0.964691, 25, 193, 88, 256
-0.964922, 41, 1, 104, 128
-0.964951, 217, 193, 280, 256
-0.965075, 361, 161, 424, 224
-0.965282, 33, 257, 96, 320
-0.965797, 297, 97, 360, 160
-0.96589, 425, 209, 488, 333
-0.965896, 25, 33, 88, 288
-0.9662, 1, 65, 64, 192
-0.966251, 313, 209, 376, 333
-0.966308, 313, 265, 376, 328
-0.966318, 233, 217, 296, 280
-0.966521, 217, 121, 280, 184
-0.966528, 137, 185, 200, 248
-0.966565, 337, 105, 400, 168
-0.966573, 225, 89, 288, 152
-0.96679, 217, 193, 280, 320
-0.966879, 297, 169, 360, 232
-0.966922, 281, 217, 344, 280
-0.967028, 17, 81, 144, 144
-0.967124, 97, 17, 160, 144
-0.967226, 161, 185, 224, 248
-0.967328, 129, 105, 192, 168
-0.967617, 369, 129, 496, 256
-0.967637, 81, 1, 144, 256
-0.967765, 89, 209, 152, 333
-0.967996, 281, 265, 344, 328
-0.968052, 1, 129, 64, 256
-0.968063, 177, 49, 304, 176
-0.968117, 289, 193, 352, 256
-0.968289, 9, 65, 72, 128
-0.968428, 25, 113, 88, 176
-0.968553, 241, 49, 368, 176
-0.968586, 361, 121, 424, 184
-0.968788, 201, 233, 264, 296
-0.968918, 257, 65, 320, 320
-0.968921, 401, 265, 464, 328
-0.969038, 93, 33, 124, 96
-0.969583, 169, 65, 232, 320
-0.969603, 73, 257, 136, 320
-0.969656, 353, 257, 416, 320
-0.970021, 169, 153, 232, 216
-0.970046, 153, 129, 216, 192
-0.970058, 345, 161, 408, 288
-0.970213, 9, 1, 72, 64
-0.970247, 121, 177, 184, 304
-0.970249, 257, 153, 320, 216
-0.970275, 25, 73, 56, 136
-0.970351, 65, 73, 96, 136
-0.970354, 97, 65, 160, 128
-0.970407, 1, 161, 64, 224
-0.970488, 153, 209, 216, 272
-0.970619, 45, 81, 76, 144
-0.970903, 65, 97, 192, 224
-0.970998, 93, 33, 124, 160
-0.971004, 17, 225, 144, 288
-0.971043, 49, 97, 112, 224
-0.971043, 369, 113, 432, 240
-0.97111, 17, 105, 144, 168
-0.971369, 105, 121, 168, 184
-0.971622, 209, 185, 336, 248
-0.971646, 1, 193, 64, 256
-0.972119, 85, 73, 116, 136
-0.972302, 49, 1, 112, 256
-0.972496, 249, 49, 312, 176
-0.972549, 425, 225, 488, 288
-0.97258, 257, 105, 384, 168
-0.972667, 29, 97, 60, 224
-0.972841, 1, 241, 64, 304
-0.972909, 129, 161, 192, 224
-0.973076, 193, 129, 256, 192
-0.973124, 161, 209, 288, 272
-0.973134, 281, 97, 312, 160
-0.973143, 241, 225, 368, 288
-0.973233, 17, 137, 80, 200
-0.97324, 433, 161, 496, 288
-0.973553, 97, 1, 352, 128
-0.973558, 25, 145, 88, 272
-0.973572, 273, 273, 400, 333
-0.973588, 25, 97, 56, 160
-0.97361, 433, 185, 496, 248
-0.973787, 81, 49, 112, 176
-0.97387, 241, 273, 304, 333
-0.973957, 13, 161, 44, 288
-0.973991, 337, 129, 400, 192
-0.973994, 241, 121, 304, 184
-0.974032, 193, 65, 256, 320
-0.974049, 265, 177, 328, 240
-0.974073, 337, 209, 400, 333
-0.974517, 33, 201, 64, 264
-0.974517, 297, 65, 360, 320
-0.974537, 249, 81, 280, 208
-0.974577, 241, 193, 304, 256
-0.974942, 385, 177, 448, 240
-0.974997, 257, 161, 384, 288
-0.975116, 305, 121, 368, 184
-0.97522, 193, 185, 256, 248
-0.975239, 329, 65, 392, 320
-0.975419, 177, 105, 240, 168
-0.975428, 293, 105, 324, 168
-0.975594, 265, 129, 328, 192
-0.975621, 1, 65, 64, 320
-0.975654, 17, 41, 144, 104
-0.975823, 17, 25, 80, 88
-0.975855, 377, 273, 440, 333
-0.975897, 129, 49, 256, 176
-0.975954, 337, 153, 400, 216
-0.975959, 249, 249, 312, 312
-0.975964, 265, 113, 296, 240
-0.975979, 185, 209, 216, 272
-0.976096, 313, 193, 376, 256
-0.976387, 153, 65, 216, 192
-0.976431, 181, 105, 212, 168
-0.976452, 205, 209, 236, 272
-0.976462, 193, 97, 320, 160
-0.976464, 161, 121, 288, 184
-0.976526, 273, 177, 400, 240
-0.976757, 33, 177, 64, 304
-0.976761, 93, 209, 124, 333
-0.976887, 285, 97, 316, 224
-0.976973, 53, 49, 84, 176
-0.977018, 277, 225, 308, 288
-0.977034, 261, 97, 292, 160
-0.977234, 245, 177, 276, 304
-0.977342, 425, 249, 488, 312
-0.97746, 177, 233, 240, 296
-0.977472, 225, 249, 288, 312
-0.977513, 77, 49, 108, 112
-0.977637, 177, 65, 240, 192
-0.977639, 157, 169, 188, 232
-0.977659, 273, 65, 336, 192
-0.977679, 105, 97, 168, 160
-0.977719, 305, 241, 368, 304
-0.977842, 173, 113, 204, 240
-0.977904, 281, 241, 344, 304
-0.977992, 321, 257, 448, 320
-0.977996, 113, 65, 176, 320
-0.978049, 1, 9, 128, 72
-0.978064, 69, 209, 100, 333
-0.97813, 201, 89, 264, 152
-0.978318, 369, 81, 496, 208
-0.978368, 25, 169, 88, 232
-0.978417, 305, 153, 432, 216
-0.978519, 361, 233, 424, 296
-0.97852, 417, 233, 448, 296
-0.978575, 1, 249, 128, 312
-0.978616, 357, 97, 388, 224
-0.978704, 49, 161, 112, 288
-0.978705, 25, 49, 56, 176
-0.97871, 97, 105, 224, 168
-0.97871, 113, 49, 144, 176
-0.978736, 65, 1, 128, 333
-0.978757, 65, 33, 96, 160
-0.97882, 265, 217, 296, 280
-0.978851, 161, 97, 192, 224
-0.978863, 321, 177, 448, 240
-0.978895, 365, 121, 396, 184
-0.978928, 113, 225, 176, 288
-0.978947, 145, 113, 176, 240
-0.978985, 217, 65, 280, 320
-0.979102, 53, 233, 84, 296
-0.979115, 353, 65, 416, 320
-0.979166, 369, 257, 496, 320
-0.97926, 65, 49, 192, 112
-0.979431, 1, 1, 256, 128
-0.979483, 297, 177, 328, 240
-0.979542, 97, 209, 224, 272
-0.979593, 425, 201, 456, 264
-0.979665, 389, 161, 420, 288
-0.979818, 353, 233, 480, 296
-0.979821, 145, 65, 208, 320
-0.979839, 169, 97, 200, 160
-0.979875, 241, 129, 272, 256
-0.979899, 341, 113, 372, 240
-0.979979, 337, 225, 400, 288
-0.979983, 161, 233, 288, 296
-0.980003, 361, 185, 424, 248
-0.980167, 241, 249, 368, 312
-0.980273, 81, 209, 112, 333
-0.980337, 353, 105, 384, 168
-0.980392, 369, 113, 400, 240
-0.980392, 185, 193, 216, 320
-0.9804, 237, 81, 268, 208
-0.980424, 97, 273, 160, 333
-0.980511, 289, 209, 416, 272
-0.980558, 305, 129, 336, 256
-0.980603, 421, 193, 452, 320
-0.980649, 17, 185, 144, 248
-0.980651, 157, 161, 188, 288
-0.980703, 129, 129, 192, 192
-0.980723, 65, 73, 192, 136
-0.98077, 201, 49, 264, 176
-0.980836, 193, 273, 320, 333
-0.980842, 253, 129, 284, 256
-0.980847, 241, 153, 368, 216
-0.980871, 129, 49, 192, 176
-0.980878, 145, 81, 208, 144
-0.980905, 433, 241, 464, 304
-0.980932, 29, 177, 60, 240
-0.980978, 97, 1, 224, 128
-0.981012, 1, 105, 64, 168
-0.981018, 73, 1, 136, 128
-0.981032, 193, 113, 224, 240
-0.981084, 369, 193, 496, 256
-0.981131, 73, 257, 104, 320
-0.981138, 297, 145, 360, 208
-0.981203, 437, 217, 468, 280
-0.981265, 273, 273, 304, 333
-0.981274, 97, 233, 224, 296
-0.981281, 105, 33, 168, 96
-0.981319, 41, 25, 104, 88
-0.981324, 337, 201, 400, 264
-0.98139, 437, 209, 468, 333
-0.981431, 81, 129, 208, 192
-0.981433, 309, 169, 340, 232
-0.981499, 25, 1, 56, 128
-0.981516, 113, 33, 144, 96
-0.981528, 405, 193, 436, 256
-0.981554, 49, 249, 176, 312
-0.981685, 385, 129, 448, 192
-0.98171, 393, 153, 456, 216
-0.981761, 13, 161, 44, 224
-0.981899, 29, 225, 60, 288
-0.98192, 281, 121, 312, 184
-0.981931, 209, 129, 336, 192
-0.981997, 297, 209, 328, 272
-0.982018, 41, 105, 72, 168
-0.982067, 305, 105, 432, 168
-0.9821, 389, 233, 420, 296
-0.982125, 401, 193, 432, 320
-0.982137, 37, 57, 68, 120
-0.982179, 249, 89, 280, 152
-0.982219, 293, 265, 324, 328
-0.982267, 361, 209, 424, 272
-0.982281, 205, 97, 236, 224
-0.982292, 1, 137, 128, 200
-0.982346, 161, 185, 288, 248
-0.982623, 137, 105, 168, 168
-0.982648, 53, 105, 84, 168
-0.98266, 317, 193, 348, 256
-0.982691, 225, 193, 256, 256
-0.982757, 41, 33, 72, 160
-0.982801, 53, 257, 84, 320
-0.982805, 233, 161, 296, 224
-0.982823, 245, 225, 276, 288
-0.98286, 209, 273, 272, 333
-0.982928, 313, 217, 376, 280
-0.983029, 325, 97, 356, 224
-0.983108, 25, 1, 88, 333
-0.983144, 125, 81, 156, 208
-0.983184, 225, 129, 256, 256
-0.983186, 293, 129, 324, 192
-0.983187, 309, 209, 340, 333
-0.983201, 405, 217, 436, 280
-0.983234, 385, 113, 416, 240
-0.983306, 169, 137, 200, 200
-0.983354, 89, 1, 152, 333
-0.983409, 49, 57, 80, 120
-0.983412, 305, 113, 336, 176
-0.983418, 177, 185, 208, 248
-0.983431, 237, 89, 268, 152
-0.983436, 41, 81, 72, 208
-0.983442, 129, 153, 256, 216
-0.983456, 17, 273, 144, 333
-0.98351, 29, 121, 60, 184
-0.983524, 385, 169, 416, 232
-0.983532, 257, 193, 288, 320
-0.983543, 237, 113, 268, 176
-0.983597, 113, 209, 144, 333
-0.983612, 105, 201, 168, 264
-0.983618, 385, 65, 448, 320
-0.983626, 73, 97, 104, 160
-0.983655, 333, 105, 364, 168
-0.983656, 297, 81, 328, 208
-0.983782, 157, 193, 188, 256
-0.983897, 217, 217, 248, 280
-0.984031, 57, 209, 120, 272
-0.984105, 321, 49, 448, 176
-0.98415, 105, 1, 136, 128
-0.98418, 105, 57, 136, 120
-0.984237, 393, 209, 424, 272
-0.984285, 449, 209, 480, 272
-0.984409, 229, 233, 260, 296
-0.984428, 41, 249, 72, 312
-0.984469, 97, 273, 128, 333
-0.98449, 113, 97, 144, 160
-0.984572, 261, 241, 292, 304
-0.984741, 321, 161, 384, 288
-0.984807, 65, 97, 96, 224
-0.984895, 289, 129, 416, 192
-0.984937, 337, 177, 400, 240
-0.984958, 393, 97, 456, 224
-0.984964, 305, 233, 432, 296
-0.984987, 65, 233, 96, 296
-0.985014, 9, 137, 40, 200
-0.985062, 445, 241, 476, 304
-0.985163, 433, 273, 496, 333
-0.985168, 157, 105, 188, 168
-0.985295, 273, 81, 336, 144
-0.98534, 97, 97, 128, 160
-0.985366, 389, 209, 420, 333
-0.985367, 9, 209, 40, 272
-0.9854, 17, 241, 48, 304
-0.985412, 369, 169, 496, 232
-0.985422, 257, 177, 288, 240
-0.985585, 329, 49, 392, 176
-0.985622, 373, 161, 404, 288
-0.985721, 317, 257, 348, 320
-0.985749, 1, 241, 32, 304
-0.985822, 157, 145, 188, 208
-0.985836, 277, 201, 308, 264
-0.985897, 405, 273, 436, 333
-0.98592, 21, 209, 52, 333
-0.985922, 369, 265, 400, 328
-0.986069, 201, 129, 232, 192
-0.986187, 105, 249, 168, 312
-0.986222, 337, 129, 464, 192
-0.986308, 241, 81, 368, 144
-0.986315, 13, 113, 44, 240
-0.986418, 93, 81, 124, 208
-0.986419, 377, 241, 408, 304
-0.986459, 81, 185, 208, 248
-0.986467, 341, 209, 372, 333
-0.986477, 113, 265, 144, 328
-0.986541, 321, 97, 352, 160
-0.986607, 289, 209, 320, 333
-0.986649, 1, 9, 32, 72
-0.986661, 257, 265, 288, 328
-0.986661, 401, 129, 432, 256
-0.986676, 17, 9, 48, 72
-0.986683, 225, 81, 256, 208
-0.986696, 65, 49, 96, 112
-0.986725, 53, 97, 84, 224
-0.986746, 145, 97, 272, 160
-0.986747, 73, 161, 136, 288
-0.986764, 233, 177, 264, 304
-0.986804, 17, 161, 144, 224
-0.986815, 205, 209, 236, 333
-0.986883, 57, 209, 88, 333
-0.986891, 329, 177, 360, 240
-0.98698, 313, 81, 344, 208
-0.98709, 45, 193, 76, 256
-0.987108, 285, 145, 316, 272
-0.987123, 41, 225, 72, 288
-0.987171, 269, 121, 300, 184
-0.987191, 13, 49, 44, 176
-0.987229, 205, 185, 236, 248
-0.987262, 309, 89, 340, 152
-0.987307, 245, 177, 276, 240
-0.987324, 93, 225, 124, 288
-0.987324, 233, 257, 264, 320
-0.987362, 377, 129, 408, 192
-0.987401, 297, 233, 328, 296
-0.987428, 153, 209, 216, 333
-0.987448, 269, 161, 300, 288
-0.987453, 309, 225, 340, 288
-0.987512, 449, 177, 480, 304
-0.98754, 329, 273, 360, 333
-0.987543, 261, 65, 292, 192
-0.987544, 329, 241, 360, 304
-0.987692, 97, 257, 224, 320
-0.987699, 289, 153, 320, 216
-0.987731, 113, 1, 176, 333
-0.987749, 345, 129, 376, 192
-0.987793, 373, 153, 404, 216
-0.987856, 25, 49, 56, 112
-0.987873, 25, 145, 56, 208
-0.987925, 81, 25, 208, 88
-0.987946, 193, 105, 224, 168
-0.987967, 1, 161, 32, 288
-0.988033, 145, 129, 176, 192
-0.988047, 89, 9, 152, 72
-0.988159, 401, 241, 432, 304
-0.988164, 81, 37, 144, 68
-0.988258, 193, 161, 256, 224
-0.98826, 133, 129, 164, 256
-0.988261, 169, 213, 232, 244
-0.988261, 29, 1, 60, 64
-0.988271, 21, 201, 52, 264
-0.988286, 249, 121, 280, 184
-0.988324, 105, 97, 136, 224
-0.988354, 97, 161, 160, 288
-0.988354, 193, 153, 320, 216
-0.988376, 121, 129, 152, 256
-0.988453, 373, 209, 404, 333
-0.98847, 189, 185, 220, 248
-0.988483, 41, 97, 104, 128
-0.988491, 1, 1, 64, 333
-0.988514, 325, 177, 356, 304
-0.98852, 421, 257, 452, 320
-0.98853, 345, 257, 376, 320
-0.988533, 49, 1, 112, 64
-0.98862, 17, 101, 80, 132
-0.988681, 245, 153, 276, 216
-0.988771, 205, 161, 236, 288
-0.988775, 25, 85, 88, 116
-0.988837, 41, 161, 72, 224
-0.988872, 245, 257, 276, 320
-0.988896, 41, 73, 104, 104
-0.988902, 153, 249, 216, 312
-0.988911, 89, 225, 152, 288
-0.988944, 437, 193, 468, 256
-0.988947, 85, 273, 116, 333
-0.988975, 125, 81, 156, 144
-0.988988, 65, 93, 128, 124
-0.988988, 169, 161, 200, 288
-0.989016, 273, 65, 304, 192
-0.989032, 161, 217, 192, 280
-0.989081, 313, 145, 344, 208
-0.989098, 77, 233, 108, 296
-0.989109, 173, 209, 204, 272
-0.989121, 45, 209, 76, 333
-0.989197, 389, 265, 420, 328
-0.989361, 273, 109, 336, 140
-0.989362, 65, 105, 128, 136
-0.989369, 225, 225, 288, 256
-0.989369, 361, 65, 424, 192
-0.98941, 145, 257, 272, 320
-0.989426, 177, 81, 240, 144
-0.989427, 153, 105, 216, 136
-0.989507, 225, 1, 288, 333
-0.989521, 1, 97, 256, 160
-0.9896, 81, 49, 144, 80
-0.989605, 73, 257, 136, 288
-0.989655, 1, 209, 32, 333
-0.98968, 113, 101, 176, 132
-0.98972, 169, 1, 232, 333
-0.989759, 305, 97, 368, 128
-0.989783, 357, 209, 388, 333
-0.989792, 401, 225, 464, 256
-0.989809, 25, 113, 88, 144
-0.989884, 385, 213, 448, 244
-0.98989, 257, 217, 320, 248
-0.989903, 65, 81, 128, 112
-0.989908, 257, 233, 320, 264
-0.989912, 17, 73, 80, 104
-0.989967, 257, 1, 320, 333
-0.989996, 25, 201, 88, 232
-0.990003, 417, 113, 480, 240
-0.990007, 9, 13, 72, 44
-0.990023, 281, 273, 344, 304
-0.990073, 297, 33, 360, 160
-0.990131, 265, 97, 328, 128
-0.990138, 1, 237, 64, 268
-0.990138, 233, 181, 296, 212
-0.99014, 249, 289, 312, 320
-0.990148, 25, 253, 88, 284
-0.990148, 337, 117, 400, 148
-0.990168, 201, 1, 264, 333
-0.990188, 393, 201, 456, 232
-0.990213, 305, 209, 368, 240
-0.990255, 1, 129, 256, 192
-0.990276, 297, 1, 360, 333
-0.990342, 377, 97, 440, 160
-0.990359, 281, 217, 344, 248
-0.990414, 361, 165, 424, 196
-0.990419, 169, 121, 232, 152
-0.990428, 337, 81, 400, 144
-0.990429, 145, 1, 208, 333
-0.990438, 177, 225, 240, 256
-0.990439, 265, 177, 328, 208
-0.990442, 297, 113, 360, 144
-0.990454, 89, 273, 152, 304
-0.990456, 337, 65, 368, 192
-0.99048, 65, 233, 320, 296
-0.990487, 233, 241, 296, 272
-0.990492, 353, 177, 416, 208
-0.990494, 81, 61, 144, 92
-0.990494, 437, 161, 468, 288
-0.990507, 297, 169, 360, 200
-0.990516, 1, 249, 64, 280
-0.990562, 377, 225, 440, 256
-0.990584, 225, 97, 288, 128
-0.990593, 425, 225, 488, 256
-0.990627, 17, 189, 80, 220
-0.990636, 1, 1, 32, 128
-0.990638, 1, 225, 64, 256
-0.990638, 133, 177, 164, 304
-0.990646, 413, 145, 444, 272
-0.990667, 1, 153, 256, 216
-0.9907, 73, 229, 136, 260
-0.990703, 273, 293, 336, 324
-0.990709, 241, 125, 304, 156
-0.990731, 33, 233, 96, 264
-0.990739, 193, 117, 256, 148
-0.990791, 17, 153, 80, 184
-0.990803, 417, 193, 480, 224
-0.990806, 249, 113, 312, 144
-0.990819, 177, 73, 304, 136
-0.990849, 153, 141, 216, 172
-0.990865, 17, 133, 80, 164
-0.990869, 1, 185, 500, 248
-0.99087, 145, 213, 208, 244
-0.99088, 161, 105, 416, 168
-0.990883, 217, 121, 280, 152
-0.990891, 369, 261, 432, 292
-0.990894, 177, 65, 208, 192
-0.99091, 165, 209, 196, 333
-0.990922, 273, 121, 336, 152
-0.990924, 1, 209, 500, 272
-0.99093, 89, 285, 152, 316
-0.990941, 257, 245, 320, 276
-0.99096, 145, 117, 208, 148
-0.990963, 129, 161, 192, 192
-0.990982, 353, 97, 480, 160
-0.990989, 49, 61, 112, 92
-0.991005, 193, 213, 256, 244
-0.991008, 281, 229, 344, 260
-0.991026, 353, 1, 416, 333
-0.991027, 161, 185, 416, 248
-0.991058, 65, 289, 128, 320
-0.991074, 217, 213, 280, 244
-0.991093, 57, 277, 120, 308
-0.991097, 409, 65, 472, 320
-0.991109, 9, 61, 72, 92
-0.991114, 305, 277, 368, 308
-0.991125, 393, 181, 456, 212
-0.991129, 385, 237, 448, 268
-0.991146, 329, 1, 392, 333
-0.991179, 321, 257, 384, 288
-0.991225, 153, 153, 216, 184
-0.991227, 305, 181, 368, 212
-0.991253, 89, 97, 152, 128
-0.991268, 33, 265, 96, 296
-0.991269, 209, 301, 272, 332
-0.991303, 329, 105, 392, 136
-0.991317, 65, 245, 128, 276
-0.991318, 193, 65, 224, 192
-0.991335, 129, 173, 192, 204
-0.991339, 297, 261, 360, 292
-0.99135, 433, 213, 496, 244
-0.991372, 257, 189, 320, 220
-0.991393, 201, 233, 264, 264
-0.991401, 1, 209, 256, 272
-0.991406, 105, 121, 168, 152
-0.991411, 385, 277, 448, 308
-0.991448, 249, 277, 312, 308
-0.991452, 89, 73, 152, 104
-0.991473, 345, 301, 408, 332
-0.99149, 337, 161, 400, 192
-0.991494, 409, 265, 472, 296
-0.991505, 361, 125, 424, 156
-0.991507, 297, 73, 360, 136
-0.99152, 345, 265, 408, 296
-0.991527, 49, 121, 112, 184
-0.991532, 297, 193, 360, 224
-0.991546, 297, 289, 360, 320
-0.991549, 353, 241, 416, 272
-0.991551, 321, 129, 384, 160
-0.991564, 393, 1, 456, 333
-0.991565, 1, 173, 64, 204
-0.99157, 233, 253, 296, 284
-0.991579, 73, 117, 136, 148
-0.991589, 89, 301, 152, 332
-0.991591, 169, 201, 232, 232
-0.991591, 105, 45, 168, 76
-0.991594, 185, 105, 248, 136
-0.991596, 225, 85, 288, 116
-0.991597, 393, 169, 456, 200
-0.991621, 417, 161, 480, 224
-0.991625, 137, 225, 200, 256
-0.99163, 49, 41, 112, 72
-0.991631, 1, 85, 64, 116
-0.991641, 1, 129, 500, 192
-0.991685, 25, 1, 88, 32
-0.991687, 193, 129, 448, 192
-0.991689, 257, 201, 500, 264
-0.991697, 1, 25, 64, 56
-0.991711, 409, 237, 472, 268
-0.991729, 81, 1, 112, 128
-0.99175, 273, 205, 336, 236
-0.991762, 329, 277, 392, 308
-0.991763, 193, 133, 256, 164
-0.991763, 273, 209, 304, 333
-0.991779, 297, 245, 360, 276
-0.991795, 409, 213, 472, 244
-0.991797, 257, 161, 320, 192
-0.991802, 225, 109, 288, 140
-0.991803, 33, 169, 96, 200
-0.991813, 1, 213, 64, 244
-0.991823, 121, 9, 184, 72
-0.991826, 177, 237, 240, 268
-0.99183, 305, 221, 368, 252
-0.991981, 61, 93, 92, 124
-0.992001, 1, 161, 500, 224
-0.992094, 433, 65, 496, 320
-0.992109, 161, 225, 416, 288
-0.992162, 97, 129, 352, 192
-0.992167, 17, 113, 144, 144
-0.992217, 173, 101, 204, 132
-0.992225, 349, 109, 380, 140
-0.992228, 221, 177, 252, 304
-0.992251, 1, 177, 256, 240
-0.992268, 101, 33, 132, 64
-0.992314, 177, 209, 208, 240
-0.99232, 41, 97, 72, 128
-0.99233, 17, 93, 144, 124
-0.992344, 77, 97, 108, 224
-0.992345, 41, 81, 72, 112
-0.992349, 81, 201, 144, 264
-0.992374, 265, 225, 296, 256
-0.992378, 145, 161, 176, 288
-0.992388, 29, 189, 60, 220
-0.992392, 73, 73, 104, 104
-0.992403, 13, 1, 44, 128
-0.99241, 25, 77, 56, 108
-0.992411, 285, 217, 316, 248
-0.992417, 201, 209, 232, 240
-0.992449, 257, 241, 288, 272
-0.992462, 29, 93, 60, 124
-0.992467, 33, 201, 64, 232
-0.992475, 1, 233, 500, 296
-0.992485, 25, 105, 56, 136
-0.992487, 253, 229, 284, 260
-0.992496, 241, 85, 272, 116
-0.992508, 425, 145, 456, 272
-0.992526, 61, 253, 92, 284
-0.992545, 53, 105, 84, 136
-0.99256, 89, 33, 120, 64
-0.992568, 285, 105, 316, 136
-0.992582, 161, 217, 192, 248
-0.992583, 53, 73, 84, 104
-0.992584, 177, 265, 240, 328
-0.992607, 261, 181, 292, 212
-0.992612, 337, 113, 368, 144
-0.992617, 389, 165, 420, 196
-0.99262, 113, 37, 144, 68
-0.992621, 257, 93, 288, 124
-0.992627, 33, 257, 288, 320
-0.992637, 185, 105, 216, 136
-0.992641, 305, 217, 336, 248
-0.992641, 249, 181, 280, 212
-0.992644, 425, 225, 456, 256
-0.992645, 245, 249, 276, 280
-0.992646, 365, 117, 396, 148
-0.992646, 1, 21, 32, 52
-0.99265, 297, 105, 328, 136
-0.992672, 237, 229, 268, 260
-0.992676, 49, 257, 80, 288
-0.992679, 289, 117, 320, 148
-0.992681, 85, 85, 116, 116
-0.99269, 13, 13, 44, 44
-0.992697, 277, 117, 308, 148
-0.992711, 437, 249, 468, 280
-0.992712, 181, 117, 212, 148
-0.992729, 157, 173, 188, 204
-0.992733, 25, 65, 56, 96
-0.992733, 213, 229, 244, 260
-0.992734, 201, 113, 232, 144
-0.992735, 69, 105, 100, 136
-0.992739, 113, 105, 144, 136
-0.992753, 273, 129, 304, 160
-0.99276, 277, 289, 308, 320
-0.99276, 261, 113, 292, 144
-0.992776, 37, 65, 68, 96
-0.992783, 309, 169, 340, 200
-0.992797, 81, 277, 112, 308
-0.992807, 233, 241, 264, 272
-0.992809, 301, 117, 332, 148
-0.992811, 97, 281, 128, 312
-0.992813, 377, 165, 408, 196
-0.992826, 425, 201, 456, 232
-0.992826, 273, 101, 304, 132
-0.992834, 65, 265, 96, 296
-0.992839, 285, 229, 316, 260
-0.99284, 369, 297, 400, 328
-0.992841, 401, 197, 432, 228
-0.992842, 189, 213, 220, 244
-0.99285, 105, 93, 136, 124
-0.992852, 393, 221, 424, 252
-0.992852, 245, 121, 276, 152
-0.992854, 413, 225, 444, 256
-0.992856, 389, 233, 420, 264
-0.99286, 257, 285, 288, 316
-0.992867, 409, 269, 440, 300
-0.992868, 437, 229, 468, 260
-0.992871, 393, 285, 424, 316
-0.992872, 225, 229, 256, 260
-0.992873, 329, 101, 360, 132
-0.992877, 353, 121, 384, 152
-0.992878, 25, 13, 56, 44
-0.992878, 157, 161, 188, 192
-0.99288, 9, 161, 40, 192
-0.992881, 53, 1, 84, 128
-0.992881, 337, 125, 368, 156
-0.992882, 385, 245, 416, 276
-0.992884, 81, 101, 112, 132
-0.992895, 389, 177, 420, 208
-0.992895, 25, 133, 56, 164
-0.992904, 297, 173, 328, 204
-0.99291, 37, 253, 68, 284
-0.992914, 317, 213, 348, 244
-0.992916, 93, 53, 124, 84
-0.992917, 125, 101, 156, 132
-0.992923, 269, 237, 300, 268
-0.992931, 425, 189, 456, 220
-0.992939, 253, 217, 284, 248
-0.992939, 257, 241, 500, 304
-0.992941, 325, 269, 356, 300
-0.992947, 293, 129, 324, 160
-0.992951, 401, 209, 432, 240
-0.992956, 93, 97, 124, 128
-0.992957, 1, 237, 32, 268
-0.992959, 41, 189, 72, 220
-0.99296, 237, 301, 268, 332
-0.992966, 153, 105, 184, 136
-0.992966, 13, 249, 44, 280
-0.992966, 293, 285, 324, 316
-0.992982, 105, 269, 136, 300
-0.992984, 41, 109, 72, 140
-0.992986, 425, 253, 456, 284
-0.992991, 413, 209, 444, 240
-0.992997, 185, 225, 216, 256
-0.992999, 73, 45, 104, 76
-0.993005, 257, 297, 288, 328
-0.993006, 333, 177, 364, 208
-0.993007, 25, 117, 56, 148
-0.993014, 17, 173, 48, 204
-0.993019, 377, 153, 408, 184
-0.993019, 425, 237, 456, 268
-0.99302, 29, 241, 60, 272
-0.99302, 197, 101, 228, 132
-0.99302, 313, 109, 344, 140
-0.993026, 449, 241, 480, 272
-0.993035, 137, 65, 168, 192
-0.993041, 221, 217, 252, 248
-0.993045, 221, 117, 252, 148
-0.993045, 389, 193, 420, 224
-0.993052, 273, 213, 304, 244
-0.993059, 113, 117, 144, 148
-0.993059, 97, 65, 128, 96
-0.993064, 89, 225, 120, 256
-0.993105, 49, 81, 64, 144
-0.993108, 97, 105, 224, 136
-0.993214, 1, 105, 500, 168
-0.99327, 225, 161, 480, 224
-0.993371, 57, 185, 120, 248
-0.993377, 81, 153, 208, 216
-0.993424, 273, 109, 400, 140
-0.993471, 33, 177, 48, 240
-0.993478, 35, 201, 50, 264
-0.993492, 249, 73, 312, 136
-0.993577, 55, 73, 70, 136
-0.993667, 1, 73, 256, 136
-0.993711, 129, 153, 384, 216
-0.993717, 149, 65, 180, 192
-0.99372, 97, 33, 112, 96
-0.993827, 63, 81, 78, 144
-0.993872, 75, 89, 90, 152
-0.993972, 241, 229, 368, 260
-0.994032, 17, 81, 144, 112
-0.994055, 17, 233, 144, 264
-0.99407, 109, 145, 140, 272
-0.994105, 161, 213, 288, 244
-0.994117, 161, 109, 288, 140
-0.994141, 33, 257, 160, 288
-0.994171, 17, 69, 144, 100
-0.994224, 85, 73, 100, 136
-0.994225, 125, 33, 156, 160
-0.994289, 245, 33, 276, 160
-0.994302, 225, 265, 480, 328
-0.994342, 273, 121, 400, 152
-0.994348, 241, 173, 368, 204
-0.994348, 461, 193, 492, 320
-0.994348, 217, 209, 232, 272
-0.994385, 17, 57, 144, 88
-0.994398, 69, 89, 84, 152
-0.994398, 289, 173, 416, 204
-0.994443, 301, 105, 316, 168
-0.994443, 79, 65, 94, 128
-0.994469, 161, 225, 288, 256
-0.994472, 287, 97, 302, 160
-0.994493, 113, 213, 240, 244
-0.994495, 321, 261, 448, 292
-0.994503, 121, 73, 184, 136
-0.994567, 167, 145, 182, 208
-0.994644, 49, 161, 80, 288
-0.994751, 177, 97, 304, 128
-0.994765, 63, 249, 78, 312
-0.994774, 121, 1, 184, 128
-0.994775, 17, 45, 144, 76
-0.994794, 281, 217, 296, 280
-0.994803, 439, 225, 454, 288
-0.994821, 41, 185, 56, 248
-0.994832, 81, 225, 208, 256
-0.994844, 289, 81, 416, 144
-0.994845, 209, 217, 336, 248
-0.994847, 1, 265, 64, 328
-0.994906, 1, 41, 256, 104
-0.994928, 357, 161, 388, 288
-0.994961, 293, 97, 308, 160
-0.994978, 171, 185, 186, 248
-0.994987, 469, 145, 500, 272
-0.994987, 265, 89, 280, 152
-0.994998, 43, 65, 58, 128
-0.995018, 29, 65, 44, 128
-0.995023, 31, 89, 46, 152
-0.995059, 129, 257, 384, 320
-0.99508, 287, 217, 302, 280
-0.995087, 99, 273, 114, 333
-0.995092, 17, 221, 144, 252
-0.995115, 75, 273, 90, 333
-0.99513, 359, 105, 374, 168
-0.995132, 349, 49, 380, 176
-0.995133, 185, 97, 200, 160
-0.995153, 257, 97, 384, 128
-0.995173, 49, 1, 176, 64
-0.995186, 401, 193, 416, 256
-0.995188, 87, 49, 102, 112
-0.995202, 311, 193, 326, 256
-0.995207, 379, 121, 394, 184
-0.995231, 191, 105, 206, 168
-0.995273, 105, 145, 168, 208
-0.995281, 37, 89, 52, 152
-0.995288, 205, 209, 220, 272
-0.995308, 321, 209, 448, 240
-0.995323, 161, 121, 288, 152
-0.995341, 369, 233, 496, 264
-0.995354, 193, 65, 224, 320
-0.995376, 263, 177, 278, 240
-0.99538, 69, 233, 84, 296
-0.995396, 73, 65, 88, 128
-0.995397, 373, 121, 388, 184
-0.995419, 121, 97, 136, 160
-0.99542, 103, 33, 118, 96
-0.995439, 395, 217, 410, 280
-0.995456, 1, 217, 16, 280
-0.995491, 17, 269, 144, 300
-0.995494, 37, 65, 52, 128
-0.995499, 439, 201, 454, 264
-0.99551, 177, 89, 192, 152
-0.995517, 185, 209, 200, 272
-0.995524, 93, 65, 108, 128
-0.995542, 271, 217, 286, 280
-0.995543, 289, 221, 416, 252
-0.995552, 223, 225, 238, 288
-0.995552, 211, 209, 226, 272
-0.995563, 43, 89, 58, 152
-0.995569, 209, 125, 336, 156
-0.995592, 97, 81, 352, 144
-0.995593, 29, 65, 60, 320
-0.995593, 277, 241, 292, 304
-0.995602, 377, 65, 408, 192
-0.995615, 439, 249, 454, 312
-0.995617, 193, 201, 208, 264
-0.995623, 49, 161, 112, 224
-0.995626, 25, 161, 40, 224
-0.995635, 271, 97, 286, 160
-0.995635, 369, 189, 496, 220
-0.995638, 107, 97, 122, 160
-0.995655, 209, 109, 336, 140
-0.995662, 225, 241, 352, 272
-0.995664, 273, 289, 400, 320
-0.995676, 341, 97, 356, 160
-0.995679, 369, 253, 496, 284
-0.995682, 113, 117, 240, 148
-0.995682, 241, 265, 368, 296
-0.995689, 305, 161, 432, 192
-0.995691, 305, 273, 432, 304
-0.995699, 109, 273, 124, 333
-0.995702, 89, 273, 104, 333
-0.995703, 161, 153, 176, 216
-0.995703, 123, 25, 138, 88
-0.995714, 281, 97, 296, 160
-0.995735, 337, 73, 464, 136
-0.995737, 23, 137, 38, 200
-0.995763, 69, 273, 84, 333
-0.995767, 295, 225, 310, 288
-0.995772, 81, 121, 144, 184
-0.995772, 403, 217, 418, 280
-0.995773, 17, 193, 144, 224
-0.995795, 311, 169, 326, 232
-0.995809, 161, 237, 288, 268
-0.995811, 427, 193, 442, 256
-0.995815, 55, 225, 70, 288
-0.995816, 193, 285, 320, 316
-0.995847, 1, 133, 128, 164
-0.995849, 261, 241, 276, 304
-0.995852, 209, 185, 336, 216
-0.995854, 17, 33, 144, 64
-0.995867, 199, 209, 214, 272
-0.995881, 113, 25, 128, 88
-0.995902, 451, 209, 466, 272
-0.995924, 257, 97, 500, 160
-0.995949, 241, 233, 256, 296
-0.995951, 445, 233, 460, 296
-0.995963, 259, 217, 274, 280
-0.995971, 75, 233, 90, 296
-0.995984, 149, 105, 164, 168
-0.995985, 429, 233, 444, 296
-0.995988, 19, 241, 34, 304
-0.995997, 321, 209, 336, 272
-0.99601, 295, 265, 310, 328
-0.996014, 103, 73, 118, 136
-0.996018, 179, 185, 194, 248
-0.996027, 55, 105, 70, 168
-0.99603, 1, 21, 128, 52
-0.996032, 29, 137, 44, 200
-0.996045, 65, 37, 192, 68
-0.996063, 33, 245, 160, 276
-0.996072, 83, 97, 98, 160
-0.996076, 65, 161, 96, 288
-0.996079, 163, 121, 178, 184
-0.996086, 433, 193, 448, 256
-0.996092, 433, 1, 496, 333
-0.996125, 325, 49, 356, 176
-0.996128, 197, 105, 212, 168
-0.99613, 353, 221, 480, 252
-0.996134, 253, 241, 268, 304
-0.996143, 269, 177, 284, 240
-0.996146, 321, 249, 448, 280
-0.996158, 433, 105, 496, 168
-0.996158, 407, 193, 422, 256
-0.996159, 401, 169, 416, 232
-0.996183, 307, 113, 322, 176
-0.996185, 47, 193, 62, 256
-0.996186, 301, 209, 316, 272
-0.996188, 83, 273, 98, 333
-0.996195, 209, 205, 336, 236
-0.996206, 407, 169, 422, 232
-0.996207, 241, 253, 368, 284
-0.996221, 17, 209, 144, 240
-0.99624, 65, 77, 192, 108
-0.996249, 395, 161, 410, 224
-0.996256, 31, 233, 46, 296
-0.996268, 323, 185, 338, 248
-0.996286, 113, 73, 128, 136
-0.996303, 1, 265, 500, 328
-0.996306, 61, 57, 76, 120
-0.996308, 313, 217, 328, 280
-0.99631, 367, 105, 382, 168
-0.996312, 61, 1, 92, 256
-0.996329, 301, 265, 316, 328
-0.996343, 81, 93, 208, 124
-0.996344, 255, 265, 270, 328
-0.996349, 305, 177, 320, 240
-0.996363, 259, 97, 274, 160
-0.996366, 1, 157, 128, 188
-0.996367, 413, 193, 428, 256
-0.996376, 49, 57, 64, 120
-0.996381, 281, 121, 296, 184
-0.996388, 201, 129, 216, 192
-0.996389, 65, 49, 192, 80
-0.996394, 387, 121, 402, 184
-0.9964, 337, 177, 464, 208
-0.9964, 39, 161, 54, 224
-0.996417, 59, 97, 74, 128
-0.996456, 157, 121, 172, 184
-0.996466, 229, 233, 244, 296
-0.996466, 327, 265, 342, 328
-0.996467, 263, 137, 278, 200
-0.996468, 265, 209, 280, 272
-0.996471, 77, 1, 108, 256
-0.996475, 257, 301, 384, 332
-0.996491, 175, 129, 190, 192
-0.996498, 317, 185, 332, 248
-0.996507, 89, 1, 120, 256
-0.996512, 287, 121, 302, 184
-0.996518, 353, 105, 368, 168
-0.996528, 393, 241, 408, 304
-0.996534, 127, 97, 142, 160
-0.996556, 33, 181, 160, 212
-0.996621, 209, 49, 240, 176
-0.996636, 1, 145, 128, 176
-0.996645, 281, 65, 312, 320
-0.996656, 181, 65, 212, 320
-0.996659, 305, 197, 432, 228
-0.996663, 73, 97, 88, 128
-0.996673, 305, 233, 432, 264
-0.996679, 113, 1, 144, 256
-0.996694, 257, 185, 384, 216
-0.996701, 225, 33, 288, 160
-0.996701, 193, 301, 320, 332
-0.996731, 369, 289, 496, 320
-0.996739, 17, 65, 48, 320
-0.996756, 1, 9, 128, 40
-0.996768, 81, 273, 208, 304
-0.996768, 65, 65, 192, 96
-0.996783, 257, 17, 500, 144
-0.996812, 97, 237, 224, 268
-0.996818, 181, 209, 196, 240
-0.996819, 241, 277, 368, 308
-0.996824, 353, 65, 384, 320
-0.996834, 161, 133, 288, 164
-0.99686, 65, 89, 80, 120
-0.99687, 353, 165, 480, 196
-0.996875, 99, 285, 114, 316
-0.996882, 39, 185, 54, 216
-0.996893, 81, 197, 208, 228
-0.996901, 191, 105, 206, 136
-0.996933, 285, 49, 316, 176
-0.996957, 97, 129, 224, 160
-0.996967, 65, 101, 80, 132
-0.996982, 129, 153, 256, 184
-0.996992, 113, 73, 240, 136
-0.997011, 33, 281, 160, 312
-0.997013, 55, 81, 70, 112
-0.997038, 161, 181, 288, 212
-0.997042, 321, 125, 448, 156
-0.997051, 1, 81, 500, 144
-0.997055, 97, 145, 128, 272
-0.997058, 321, 301, 448, 332
-0.997064, 153, 65, 184, 320
-0.997068, 123, 37, 138, 68
-0.997097, 95, 37, 110, 68
-0.997117, 45, 1, 76, 256
-0.99712, 65, 213, 192, 244
-0.997133, 263, 181, 278, 212
-0.997173, 369, 205, 496, 236
-0.997173, 351, 109, 366, 140
-0.997188, 43, 89, 58, 120
-0.997209, 101, 1, 132, 256
-0.997219, 193, 265, 320, 296
-0.997221, 161, 85, 288, 116
-0.997221, 365, 65, 396, 320
-0.99723, 61, 257, 76, 288
-0.997232, 29, 93, 44, 124
-0.997232, 129, 165, 256, 196
-0.997244, 65, 117, 192, 148
-0.997264, 225, 161, 352, 192
-0.997268, 185, 101, 200, 132
-0.997284, 161, 249, 288, 280
-0.997287, 33, 169, 160, 200
-0.997288, 53, 97, 68, 128
-0.997292, 353, 113, 480, 144
-0.997297, 293, 65, 324, 320
-0.997299, 259, 241, 274, 272
-0.997305, 165, 153, 180, 184
-0.997307, 81, 153, 208, 184
-0.997313, 47, 101, 62, 132
-0.997334, 213, 209, 228, 240
-0.997337, 97, 249, 224, 280
-0.997338, 325, 65, 356, 320
-0.997344, 273, 149, 400, 180
-0.997344, 205, 65, 236, 320
-0.997346, 115, 33, 130, 64
-0.997364, 63, 73, 78, 104
-0.997378, 369, 265, 496, 296
-0.997393, 45, 189, 60, 220
-0.997426, 73, 85, 88, 116
-0.997427, 7, 21, 22, 52
-0.997429, 69, 253, 84, 284
-0.997429, 287, 113, 302, 144
-0.997463, 77, 73, 92, 104
-0.997468, 33, 181, 48, 212
-0.997469, 103, 33, 118, 64
-0.997472, 217, 65, 248, 320
-0.997475, 369, 277, 496, 308
-0.997476, 359, 109, 374, 140
-0.997484, 265, 89, 280, 120
-0.997506, 253, 245, 268, 276
-0.997517, 35, 85, 50, 116
-0.997529, 169, 65, 200, 320
-0.997531, 229, 65, 260, 320
-0.997539, 35, 201, 50, 232
-0.997561, 257, 197, 384, 228
-0.997561, 273, 209, 400, 240
-0.997573, 161, 201, 288, 232
-0.997573, 439, 221, 454, 252
-0.997576, 179, 97, 194, 128
-0.997578, 401, 165, 416, 196
-0.997585, 193, 117, 208, 148
-0.997589, 51, 69, 66, 100
-0.99759, 79, 101, 94, 132
-0.997593, 171, 101, 186, 132
-0.997594, 383, 161, 398, 192
-0.997605, 257, 229, 272, 260
-0.997608, 265, 65, 296, 320
-0.997614, 371, 113, 386, 144
-0.997615, 89, 277, 104, 308
-0.997616, 1, 21, 16, 52
-0.997617, 113, 49, 240, 112
-0.997621, 1, 225, 16, 256
-0.997623, 97, 1, 224, 64
-0.997629, 269, 221, 284, 252
-0.997635, 485, 297, 500, 328
-0.997647, 287, 217, 302, 248
-0.997655, 263, 225, 278, 256
-0.997657, 119, 97, 134, 128
-0.997659, 389, 65, 420, 320
-0.997665, 1, 237, 16, 268
-0.997669, 29, 77, 44, 108
-0.99767, 57, 69, 72, 100
-0.997678, 309, 169, 324, 200
-0.99768, 83, 77, 98, 108
-0.997687, 293, 121, 308, 152
-0.997687, 273, 241, 288, 272
-0.997693, 319, 209, 334, 240
-0.997702, 49, 81, 64, 112
-0.997706, 395, 221, 410, 252
-0.997707, 281, 289, 296, 320
-0.997708, 425, 217, 440, 248
-0.99771, 321, 137, 448, 168
-0.997711, 247, 225, 262, 256
-0.997717, 97, 57, 352, 120
-0.997727, 29, 105, 44, 136
-0.997737, 275, 221, 290, 252
-0.997739, 169, 165, 184, 196
-0.997741, 281, 101, 296, 132
-0.997748, 125, 101, 140, 132
-0.997752, 403, 281, 418, 312
-0.997752, 395, 161, 410, 192
-0.997753, 29, 65, 44, 96
-0.997754, 85, 161, 116, 288
-0.997755, 299, 217, 314, 248
-0.997757, 261, 121, 276, 152
-0.997759, 71, 109, 86, 140
-0.997763, 93, 73, 108, 104
-0.99777, 301, 109, 316, 140
-0.997775, 13, 21, 28, 52
-0.997779, 99, 89, 114, 120
-0.997781, 187, 209, 202, 240
-0.997786, 41, 77, 56, 108
-0.997791, 109, 33, 124, 64
-0.997792, 59, 109, 74, 140
-0.997795, 79, 89, 94, 120
-0.997797, 197, 213, 212, 244
-0.997798, 441, 249, 456, 280
-0.997803, 51, 193, 66, 224
-0.997809, 227, 229, 242, 260
-0.997809, 383, 297, 398, 328
-0.997813, 439, 189, 454, 220
-0.997814, 243, 245, 258, 276
-0.997816, 35, 73, 50, 104
-0.997817, 287, 101, 302, 132
-0.997829, 341, 65, 372, 320
-0.997837, 225, 85, 352, 116
-0.997846, 327, 269, 342, 300
-0.997848, 113, 297, 240, 328
-0.997851, 293, 101, 308, 132
-0.997856, 81, 141, 208, 172
-0.997862, 65, 113, 80, 144
-0.99787, 309, 217, 324, 248
-0.997874, 219, 213, 234, 244
-0.997877, 305, 65, 336, 320
-0.997879, 71, 69, 86, 100
-0.997879, 265, 237, 280, 268
-0.997884, 465, 97, 496, 224
-0.99789, 311, 97, 326, 128
-0.997891, 21, 25, 36, 56
-0.997899, 273, 133, 400, 164
-0.997903, 387, 245, 402, 276
-0.997906, 281, 117, 296, 148
-0.997907, 409, 197, 424, 228
-0.99791, 23, 161, 38, 192
-0.997914, 359, 121, 374, 152
-0.997918, 237, 233, 252, 264
-0.997923, 89, 53, 104, 84
-0.997923, 403, 205, 418, 236
-0.997924, 87, 41, 102, 72
-0.997925, 269, 181, 284, 212
-0.997925, 287, 289, 302, 320
-0.997932, 293, 217, 308, 248
-0.997934, 79, 113, 94, 144
-0.997939, 303, 229, 318, 260
-0.997942, 75, 269, 90, 300
-0.997945, 207, 213, 222, 244
-0.997952, 173, 217, 188, 248
-0.997954, 339, 269, 354, 300
-0.997959, 341, 101, 356, 132
-0.997961, 219, 225, 234, 256
-0.997965, 423, 269, 438, 300
-0.997974, 5, 65, 36, 320
-0.99798, 367, 125, 382, 156
-0.99798, 391, 285, 406, 316
-0.997981, 117, 269, 132, 300
-0.998001, 161, 49, 192, 176
-0.998048, 33, 1, 288, 64
-0.998077, 361, 49, 392, 176
-0.998081, 253, 65, 284, 320
-0.998132, 125, 65, 156, 320
-0.998192, 369, 125, 496, 156
-0.998196, 241, 65, 272, 320
-0.998198, 353, 101, 480, 132
-0.998232, 141, 65, 172, 320
-0.998243, 1, 57, 500, 120
-0.998271, 97, 25, 224, 56
-0.998275, 113, 177, 240, 208
-0.99828, 81, 261, 208, 292
-0.9983, 409, 121, 472, 184
-0.998333, 321, 285, 448, 316
-0.998338, 321, 149, 448, 180
-0.998355, 81, 39, 144, 54
-0.998356, 17, 105, 80, 120
-0.998371, 113, 45, 240, 76
-0.998377, 25, 89, 88, 104
-0.998378, 73, 103, 136, 118
-0.998388, 169, 213, 232, 228
-0.998396, 17, 111, 80, 126
-0.998409, 105, 103, 168, 118
-0.998411, 145, 105, 208, 120
-0.998419, 81, 285, 208, 316
-0.99842, 65, 97, 128, 112
-0.99842, 397, 81, 428, 208
-0.998433, 221, 33, 252, 160
-0.998434, 273, 107, 336, 122
-0.998439, 237, 249, 268, 264
-0.998439, 233, 235, 264, 250
-0.998439, 437, 245, 468, 260
-0.99844, 29, 11, 60, 26
-0.99844, 157, 221, 188, 236
-0.99844, 177, 219, 208, 234
-0.99844, 425, 265, 456, 280
-0.99844, 309, 215, 340, 230
-0.998441, 337, 125, 368, 140
-0.998441, 425, 195, 456, 210
-0.998442, 305, 225, 336, 240
-0.998442, 261, 297, 292, 312
-0.998443, 433, 259, 464, 274
-0.998443, 385, 161, 416, 176
-0.998445, 33, 77, 64, 92
-0.998445, 301, 133, 332, 148
-0.998446, 349, 317, 380, 332
-0.998447, 233, 127, 264, 142
-0.998448, 285, 111, 316, 126
-0.998448, 41, 103, 104, 118
-0.998448, 113, 47, 144, 62
-0.998448, 437, 237, 468, 252
-0.998449, 249, 127, 312, 142
-0.998449, 57, 87, 120, 102
-0.99845, 269, 221, 300, 236
-0.99845, 65, 263, 96, 278
-0.998452, 273, 129, 304, 144
-0.998453, 273, 239, 304, 254
-0.998453, 365, 127, 396, 142
-0.998453, 77, 81, 108, 96
-0.998454, 305, 107, 336, 122
-0.998454, 241, 93, 272, 108
-0.998454, 309, 169, 340, 184
-0.998455, 285, 129, 316, 144
-0.998456, 81, 283, 112, 298
-0.998457, 65, 265, 128, 280
-0.998457, 93, 53, 124, 68
-0.998458, 425, 221, 456, 236
-0.998458, 289, 219, 320, 234
-0.998458, 289, 117, 320, 132
-0.998459, 365, 309, 396, 324
-0.998459, 25, 117, 56, 132
-0.998463, 265, 221, 328, 236
-0.998464, 165, 215, 196, 230
-0.998464, 113, 227, 144, 242
-0.998465, 417, 271, 448, 286
-0.998465, 157, 101, 188, 116
-0.998466, 189, 211, 220, 226
-0.998467, 157, 171, 188, 186
-0.998467, 49, 265, 80, 280
-0.998468, 401, 233, 464, 248
-0.998468, 245, 187, 276, 202
-0.99847, 81, 87, 112, 102
-0.99847, 389, 237, 420, 252
-0.99847, 57, 81, 120, 96
-0.998474, 217, 123, 280, 138
-0.998474, 405, 277, 436, 292
-0.998475, 377, 295, 408, 310
-0.998477, 365, 121, 396, 136
-0.998479, 49, 129, 176, 160
-0.998479, 377, 65, 408, 320
-0.998479, 273, 229, 304, 244
-0.99848, 241, 303, 272, 318
-0.998481, 285, 235, 316, 250
-0.998482, 169, 113, 200, 128
-0.998482, 249, 247, 280, 262
-0.998482, 41, 95, 104, 110
-0.998482, 65, 115, 128, 130
-0.998483, 417, 233, 448, 248
-0.998483, 225, 137, 352, 168
-0.998483, 257, 225, 288, 240
-0.998484, 61, 255, 92, 270
-0.998484, 81, 45, 144, 60
-0.998486, 337, 317, 368, 332
-0.998488, 169, 99, 200, 114
-0.998489, 257, 101, 288, 116
-0.998489, 17, 117, 80, 132
-0.998491, 437, 251, 468, 266
-0.998491, 93, 283, 124, 298
-0.998492, 25, 83, 88, 98
-0.998492, 53, 71, 84, 86
-0.998492, 17, 67, 80, 82
-0.998493, 105, 37, 136, 52
-0.998493, 41, 109, 104, 124
-0.998493, 185, 115, 216, 130
-0.998493, 233, 231, 296, 246
-0.998493, 257, 185, 288, 200
-0.998494, 25, 65, 56, 80
-0.998495, 29, 191, 60, 206
-0.998497, 185, 117, 248, 132
-0.998499, 25, 205, 88, 220
-0.998499, 61, 79, 92, 94
-0.998499, 265, 101, 328, 116
-0.998503, 1, 251, 64, 266
-0.998503, 389, 167, 420, 182
-0.998504, 93, 97, 124, 112
-0.998504, 393, 217, 456, 232
-0.998505, 89, 41, 120, 56
-0.998505, 237, 229, 268, 244
-0.998507, 5, 25, 36, 40
-0.998509, 249, 241, 312, 256
-0.998509, 261, 243, 292, 258
-0.998509, 349, 121, 380, 136
-0.99851, 225, 237, 288, 252
-0.998511, 49, 75, 112, 90
-0.998511, 401, 227, 464, 242
-0.998513, 225, 119, 256, 134
-0.998513, 73, 109, 136, 124
-0.998514, 281, 103, 312, 118
-0.998515, 297, 177, 360, 192
-0.998515, 241, 301, 304, 316
-0.998515, 389, 173, 420, 188
-0.998516, 225, 129, 288, 144
-0.998516, 213, 117, 244, 132
-0.998516, 249, 129, 280, 144
-0.998518, 281, 123, 312, 138
-0.998518, 305, 175, 336, 190
-0.998519, 217, 181, 280, 196
-0.998521, 77, 75, 108, 90
-0.998521, 161, 113, 224, 128
-0.998521, 99, 17, 114, 144
-0.998522, 105, 109, 168, 124
-0.998524, 249, 237, 280, 252
-0.998525, 61, 89, 92, 104
-0.998525, 137, 103, 168, 118
-0.998525, 233, 243, 264, 258
-0.998525, 281, 115, 344, 130
-0.998526, 377, 167, 408, 182
-0.998527, 425, 227, 456, 242
-0.998527, 69, 111, 100, 126
-0.998528, 17, 77, 80, 92
-0.998528, 25, 71, 56, 86
-0.998529, 265, 187, 328, 202
-0.998529, 113, 105, 144, 120
-0.99853, 177, 219, 240, 234
-0.99853, 81, 51, 144, 66
-0.99853, 25, 109, 56, 124
-0.998536, 177, 169, 304, 200
-0.998536, 305, 107, 368, 122
-0.998536, 225, 245, 288, 260
-0.998537, 49, 91, 80, 106
-0.998537, 177, 213, 208, 228
-0.998537, 233, 187, 296, 202
-0.998538, 17, 197, 80, 212
-0.998538, 17, 99, 80, 114
-0.998539, 337, 117, 400, 132
-0.998539, 257, 121, 320, 136
-0.998539, 201, 213, 232, 228
-0.998542, 81, 231, 144, 246
-0.998542, 65, 259, 128, 274
-0.998543, 25, 263, 88, 278
-0.998549, 209, 231, 272, 246
-0.998549, 393, 189, 456, 204
-0.998551, 305, 211, 368, 226
-0.998551, 353, 311, 384, 326
-0.998552, 73, 271, 136, 286
-0.998553, 25, 103, 56, 118
-0.998553, 241, 87, 272, 102
-0.998554, 61, 101, 92, 116
-0.998554, 89, 97, 152, 112
-0.998554, 177, 229, 240, 244
-0.998555, 145, 285, 272, 316
-0.998555, 193, 109, 224, 124
-0.998556, 217, 223, 280, 238
-0.998557, 257, 295, 320, 310
-0.998557, 45, 111, 76, 126
-0.998558, 197, 115, 228, 130
-0.998558, 29, 197, 60, 212
-0.998559, 105, 227, 168, 242
-0.99856, 365, 303, 396, 318
-0.998561, 297, 101, 360, 116
-0.998561, 393, 197, 456, 212
-0.998563, 425, 223, 488, 238
-0.998563, 237, 121, 268, 136
-0.998564, 17, 165, 80, 180
-0.998564, 257, 177, 320, 192
-0.998565, 137, 223, 200, 238
-0.998565, 357, 115, 388, 130
-0.998566, 249, 123, 280, 138
-0.998567, 1, 25, 64, 40
-0.998567, 361, 169, 424, 184
-0.998568, 257, 193, 320, 208
-0.998568, 257, 231, 320, 246
-0.998569, 241, 181, 272, 196
-0.99857, 17, 139, 80, 154
-0.998571, 401, 239, 464, 254
-0.998571, 425, 229, 488, 244
-0.998574, 1, 227, 64, 242
-0.998574, 157, 107, 188, 122
-0.998574, 25, 97, 56, 112
-0.998575, 161, 119, 224, 134
-0.998576, 145, 217, 208, 232
-0.998576, 225, 57, 352, 120
-0.998576, 65, 67, 128, 82
-0.998577, 345, 113, 376, 128
-0.998578, 329, 269, 392, 284
-0.998579, 377, 225, 440, 240
-0.998579, 249, 285, 312, 300
-0.998579, 261, 125, 292, 140
-0.99858, 401, 275, 464, 290
-0.99858, 81, 57, 144, 72
-0.998581, 61, 95, 92, 110
-0.998581, 33, 203, 64, 218
-0.998582, 345, 127, 408, 142
-0.998585, 233, 197, 296, 212
-0.998585, 377, 235, 440, 250
-0.998586, 353, 307, 416, 322
-0.998586, 45, 83, 76, 98
-0.998587, 377, 241, 440, 256
-0.998588, 1, 187, 64, 202
-0.998589, 241, 115, 304, 130
-0.99859, 297, 267, 360, 282
-0.998591, 25, 257, 88, 272
-0.998591, 1, 241, 64, 256
-0.998591, 41, 115, 104, 130
-0.998591, 225, 97, 288, 112
-0.998591, 25, 89, 56, 104
-0.998591, 1, 235, 64, 250
-0.998592, 1, 15, 64, 30
-0.998593, 65, 253, 128, 268
-0.998594, 417, 211, 480, 226
-0.998595, 281, 121, 344, 136
-0.998596, 273, 127, 336, 142
-0.998596, 281, 215, 344, 230
-0.998596, 41, 69, 104, 84
-0.998597, 261, 231, 292, 246
-0.998598, 17, 159, 80, 174
-0.998598, 297, 191, 360, 206
-0.998598, 385, 287, 448, 302
-0.998598, 153, 157, 216, 172
-0.998599, 353, 301, 416, 316
-0.998599, 37, 103, 68, 118
-0.9986, 425, 237, 488, 252
-0.9986, 225, 307, 288, 322
-0.998601, 121, 97, 184, 112
-0.998601, 209, 87, 272, 102
-0.998602, 201, 129, 264, 144
-0.998602, 209, 191, 272, 206
-0.998602, 241, 103, 304, 118
-0.998602, 297, 229, 360, 244
-0.998602, 369, 263, 432, 278
-0.998603, 177, 107, 240, 122
-0.998603, 273, 283, 336, 298
-0.998604, 17, 145, 80, 160
-0.998604, 401, 281, 464, 296
-0.998604, 241, 223, 304, 238
-0.998604, 41, 197, 72, 212
-0.998606, 81, 73, 144, 88
-0.998607, 281, 289, 344, 304
-0.998607, 425, 199, 488, 214
-0.998617, 45, 97, 76, 112
-0.998631, 57, 113, 88, 128
-0.998642, 57, 107, 88, 122
-0.998644, 369, 301, 496, 332
-0.998655, 125, 101, 156, 116
-0.998657, 109, 99, 140, 114
-0.998671, 439, 193, 454, 320
-0.998678, 181, 109, 212, 124
-0.998688, 169, 105, 200, 120
-0.998696, 369, 153, 496, 184
-0.998709, 297, 33, 328, 160
-0.99872, 305, 93, 432, 124
-0.998727, 29, 97, 44, 224
-0.998755, 49, 297, 176, 328
-0.998766, 425, 65, 456, 320
-0.998777, 73, 49, 88, 176
-0.998787, 261, 129, 276, 256
-0.998792, 67, 49, 82, 176
-0.998807, 255, 177, 270, 304
-0.998818, 337, 161, 368, 288
-0.998825, 35, 161, 50, 288
-0.998828, 405, 65, 436, 320
-0.998832, 401, 161, 416, 288
-0.998842, 27, 161, 42, 288
-0.998844, 265, 81, 280, 208
-0.998885, 129, 25, 256, 88
-0.998926, 261, 209, 276, 333
-0.998927, 1, 301, 128, 332
-0.998929, 259, 81, 274, 208
-0.998936, 105, 177, 168, 240
-0.99894, 255, 129, 270, 256
-0.998941, 161, 113, 176, 240
-0.998948, 87, 49, 102, 176
-0.998949, 173, 97, 188, 224
-0.99895, 105, 17, 120, 144
-0.998961, 375, 97, 390, 224
-0.998963, 195, 113, 210, 240
-0.998968, 453, 129, 484, 256
-0.998977, 359, 97, 374, 224
-0.998987, 249, 129, 264, 256
-0.99899, 341, 97, 356, 224
-0.998992, 445, 65, 476, 320
-0.998997, 35, 65, 50, 192
-0.998997, 103, 209, 118, 333
-0.998998, 187, 193, 202, 320
-0.998999, 57, 49, 72, 176
-0.999005, 47, 81, 62, 208
-0.999007, 167, 81, 182, 208
-0.999021, 173, 145, 188, 272
-0.999022, 243, 81, 258, 208
-0.999023, 201, 113, 216, 240
-0.999023, 81, 49, 96, 176
-0.999029, 295, 81, 310, 208
-0.999034, 433, 193, 448, 320
-0.999039, 87, 209, 102, 333
-0.999043, 77, 209, 92, 333
-0.999044, 277, 113, 292, 240
-0.999045, 251, 81, 266, 208
-0.999046, 97, 33, 352, 96
-0.999051, 445, 209, 460, 333
-0.999057, 27, 33, 42, 160
-0.999059, 267, 129, 282, 256
-0.999062, 387, 113, 402, 240
-0.999064, 73, 97, 88, 224
-0.999072, 145, 269, 272, 300
-0.999077, 309, 113, 324, 240
-0.999077, 177, 145, 304, 176
-0.99908, 409, 193, 424, 320
-0.999084, 151, 113, 166, 240
-0.999089, 301, 145, 316, 272
-0.999089, 301, 81, 316, 208
-0.999089, 393, 209, 408, 333
-0.99909, 69, 209, 84, 333
-0.999092, 93, 17, 108, 144
-0.999092, 381, 113, 396, 240
-0.999094, 113, 81, 240, 112
-0.999106, 113, 49, 128, 176
-0.999112, 29, 209, 44, 333
-0.999117, 81, 165, 208, 196
-0.999119, 369, 97, 384, 224
-0.999127, 247, 209, 262, 333
-0.99913, 217, 193, 232, 320
-0.99913, 47, 177, 62, 304
-0.99913, 387, 161, 402, 288
-0.999131, 323, 209, 338, 333
-0.999132, 93, 209, 108, 333
-0.999135, 139, 113, 154, 240
-0.999136, 285, 81, 300, 208
-0.999136, 313, 33, 344, 160
-0.999137, 115, 193, 130, 320
-0.999142, 185, 129, 200, 256
-0.999146, 59, 97, 74, 224
-0.999148, 311, 161, 326, 288
-0.999148, 39, 17, 54, 144
-0.99915, 369, 137, 496, 168
-0.999157, 107, 65, 122, 192
-0.999163, 1, 193, 16, 320
-0.999166, 237, 81, 252, 208
-0.99917, 393, 113, 408, 240
-0.99917, 179, 97, 194, 224
-0.999174, 301, 209, 316, 333
-0.999178, 73, 153, 136, 216
-0.999179, 67, 97, 82, 224
-0.999181, 209, 113, 224, 240
-0.999181, 129, 81, 144, 208
-0.999189, 11, 161, 26, 288
-0.99919, 109, 209, 124, 333
-0.999192, 167, 161, 182, 288
-0.99921, 45, 33, 60, 160
-0.999216, 145, 113, 160, 240
-0.999219, 239, 129, 254, 256
-0.99922, 51, 33, 66, 160
-0.999221, 41, 81, 56, 208
-0.999222, 401, 113, 416, 240
-0.999225, 21, 161, 36, 288
-0.999232, 451, 177, 466, 304
-0.999241, 121, 65, 136, 192
-0.999242, 215, 81, 230, 208
-0.999254, 395, 161, 410, 288
-0.999254, 353, 113, 368, 240
-0.99926, 23, 113, 38, 240
-0.999263, 21, 65, 36, 192
-0.999269, 179, 145, 194, 272
-0.999269, 223, 113, 238, 240
-0.999272, 125, 129, 140, 256
-0.999274, 409, 129, 424, 256
-0.999276, 59, 209, 74, 333
-0.999279, 223, 209, 238, 333
-0.999283, 335, 97, 350, 224
-0.999285, 271, 81, 286, 208
-0.999291, 53, 97, 68, 224
-0.999291, 347, 113, 362, 240
-0.999292, 179, 209, 194, 333
-0.999297, 229, 129, 244, 256
-0.9993, 293, 129, 308, 256
-0.999304, 381, 161, 396, 288
-0.999305, 209, 161, 224, 288
-0.99931, 33, 17, 48, 144
-0.999318, 135, 65, 150, 192
-0.999319, 315, 113, 330, 240
-0.999332, 35, 113, 50, 240
-0.999336, 35, 209, 50, 333
-0.999337, 225, 149, 352, 180
-0.999338, 419, 209, 434, 333
-0.999338, 115, 113, 130, 240
-0.999338, 331, 193, 346, 320
-0.999348, 293, 209, 308, 333
-0.999352, 79, 97, 94, 224
-0.999355, 223, 161, 238, 288
-0.999356, 403, 209, 418, 333
-0.999359, 355, 209, 370, 333
-0.99936, 119, 17, 134, 144
-0.999363, 387, 209, 402, 333
-0.999368, 307, 209, 322, 333
-0.999373, 285, 129, 300, 256
-0.999377, 241, 73, 368, 104
-0.999381, 41, 161, 56, 288
-0.999382, 203, 161, 218, 288
-0.999389, 313, 65, 328, 192
-0.999451, 257, 73, 500, 136
-0.999452, 225, 65, 288, 128
-0.999474, 49, 17, 176, 48
-0.999477, 461, 65, 492, 320
-0.99953, 113, 57, 240, 88
-0.99964, 1, 23, 16, 38
-0.999641, 439, 259, 454, 274
-0.999642, 281, 111, 296, 126
-0.999642, 153, 105, 168, 120
-0.999642, 399, 291, 414, 306
-0.999643, 249, 129, 264, 144
-0.999643, 143, 103, 158, 118
-0.999644, 69, 267, 84, 282
-0.999644, 265, 125, 280, 140
-0.999644, 169, 107, 184, 122
-0.999646, 47, 113, 62, 128
-0.999646, 165, 163, 180, 178
-0.999646, 311, 217, 326, 232
-0.999646, 373, 127, 388, 142
-0.999647, 237, 245, 252, 260
-0.999648, 289, 117, 304, 132
-0.99965, 99, 37, 114, 52
-0.99965, 83, 77, 98, 92
-0.999652, 389, 161, 404, 176
-0.999653, 87, 49, 102, 64
-0.999653, 477, 311, 492, 326
-0.999654, 263, 225, 278, 240
-0.999654, 423, 225, 438, 240
-0.999654, 351, 107, 366, 122
-0.999655, 123, 47, 138, 62
-0.999655, 255, 235, 270, 250
-0.999655, 281, 117, 296, 132
-0.999656, 433, 263, 448, 278
-0.999658, 169, 171, 184, 186
-0.999658, 9, 25, 24, 40
-0.999658, 123, 107, 138, 122
-0.999659, 485, 299, 500, 314
-0.999659, 361, 119, 376, 134
-0.999661, 39, 81, 54, 96
-0.999661, 253, 249, 268, 264
-0.999663, 313, 225, 328, 240
-0.999663, 65, 257, 80, 272
-0.999664, 257, 129, 272, 144
-0.999664, 71, 91, 86, 106
-0.999664, 263, 185, 278, 200
-0.999665, 373, 121, 388, 136
-0.999665, 53, 257, 68, 272
-0.999666, 281, 105, 296, 120
-0.999666, 271, 223, 286, 238
-0.999668, 259, 241, 274, 256
-0.999669, 393, 291, 408, 306
-0.99967, 309, 177, 324, 192
-0.999671, 45, 97, 60, 112
-0.999671, 265, 101, 280, 116
-0.999672, 275, 241, 290, 256
-0.999673, 45, 81, 60, 96
-0.999673, 253, 303, 268, 318
-0.999675, 67, 117, 82, 132
-0.999675, 351, 317, 366, 332
-0.999675, 447, 251, 462, 266
-0.999676, 33, 87, 48, 102
-0.999676, 283, 289, 298, 304
-0.999676, 267, 231, 282, 246
-0.999677, 79, 107, 94, 122
-0.999677, 197, 117, 212, 132
-0.999678, 427, 267, 442, 282
-0.999679, 37, 189, 52, 204
-0.99968, 33, 97, 48, 112
-0.99968, 321, 215, 336, 230
-0.99968, 91, 41, 106, 56
-0.999681, 235, 239, 250, 254
-0.999683, 403, 285, 418, 300
-0.999683, 53, 95, 68, 110
-0.999683, 437, 97, 468, 224
-0.999685, 111, 97, 126, 112
-0.999686, 203, 113, 218, 128
-0.999686, 441, 253, 456, 268
-0.999686, 433, 191, 448, 206
-0.999686, 383, 297, 398, 312
-0.999687, 359, 111, 374, 126
-0.999687, 253, 181, 268, 196
-0.999688, 99, 289, 114, 304
-0.999688, 273, 231, 288, 246
-0.999691, 57, 85, 72, 100
-0.999691, 187, 113, 202, 128
-0.999691, 263, 93, 278, 108
-0.999692, 101, 283, 116, 298
-0.999696, 287, 123, 302, 138
-0.999697, 253, 123, 268, 138
-0.999698, 1, 229, 16, 244
-0.999698, 43, 87, 58, 102
-0.999699, 169, 101, 184, 116
-0.999699, 375, 301, 390, 316
-0.9997, 369, 115, 384, 130
-0.999702, 419, 273, 434, 288
-0.999702, 51, 101, 66, 116
-0.999703, 59, 257, 74, 272
-0.999704, 35, 201, 50, 216
-0.999707, 243, 245, 258, 260
-0.999708, 163, 153, 178, 168
-0.999709, 215, 213, 230, 228
-0.99971, 43, 103, 58, 118
-0.99971, 79, 113, 94, 128
-0.999712, 413, 277, 428, 292
-0.999716, 253, 241, 268, 256
-0.999719, 69, 101, 84, 116
-0.99972, 259, 123, 274, 138
-0.999721, 367, 307, 382, 322
-0.999723, 57, 111, 72, 126
-0.999726, 361, 311, 376, 326
-0.99973, 351, 113, 366, 128
-0.999733, 127, 41, 142, 56
-0.999733, 55, 197, 70, 212
-0.99974, 47, 199, 62, 214
-0.99974, 195, 109, 210, 124
-0.999741, 115, 103, 130, 118
-0.999744, 57, 101, 72, 116
-0.999744, 179, 215, 194, 230
-0.999745, 131, 101, 146, 116
-0.999746, 41, 199, 56, 214
-0.999756, 63, 101, 78, 116
-0.999757, 29, 103, 44, 118
-0.999761, 51, 83, 66, 98
-0.999761, 73, 113, 88, 128
-0.999762, 125, 101, 140, 116
-0.999764, 39, 97, 54, 112
-0.999766, 79, 101, 94, 116
-0.999776, 63, 111, 78, 126
-0.999782, 65, 93, 80, 108
-0.999783, 185, 105, 200, 120
-0.999784, 63, 87, 78, 102
-0.999785, 59, 263, 74, 278
-0.999797, 175, 103, 190, 118
-0.999804, 59, 93, 74, 108
-0.999814, 433, 137, 496, 200
-0.999818, 45, 193, 60, 208
-0.999819, 73, 107, 88, 122
-1.00042, 369, 33, 496, 160
-1.00046, 81, 177, 144, 240
-1.00048, 1, 33, 500, 96
-1.00132, 161, 49, 288, 112
-1.00133, 145, 1, 272, 128
-1.00167, 145, 209, 176, 333
-1.00174, 225, 49, 480, 112
-1.0018, 289, 57, 416, 120
-1.00195, 425, 97, 456, 224
-1.00202, 413, 97, 444, 224
-1.00204, 161, 1, 416, 64
-1.00211, 1, 9, 500, 72
-1.00212, 257, 1, 500, 64
-1.00212, 257, 25, 500, 88
-1.00236, 145, 1, 272, 64
-1.00238, 209, 33, 336, 96
-1.00246, 233, 33, 264, 160
-1.00257, 1, 113, 32, 240
-1.00266, 261, 17, 292, 144
-1.00275, 425, 65, 488, 192
-1.00288, 369, 41, 496, 104
-1.00291, 225, 9, 352, 72
-1.00291, 273, 9, 400, 72
-1.00291, 321, 9, 448, 72
-1.00291, 369, 17, 496, 80
-1.00291, 273, 33, 400, 96
-1.00291, 321, 33, 448, 96
-1.00304, 249, 1, 312, 128
-1.00312, 201, 1, 264, 128
-1.00322, 197, 17, 228, 144
-1.00341, 137, 1, 168, 128
-1.00368, 241, 1, 368, 128
-1.00371, 173, 17, 204, 144
-1.00423, 385, 49, 448, 176
-1.00665, 177, 17, 240, 144
-1.00845, 289, 1, 416, 128
-1.00973, 193, 1, 320, 128
-1.01136, 273, 17, 336, 144
-1.01146, 361, 17, 424, 144
-1.01347, 321, 1, 384, 128
-1.01421, 433, 17, 496, 144
-1.01645, 409, 17, 472, 144
-1.01776, 153, 17, 216, 144
-1.02039, 385, 1, 448, 128
