1887
-0.356121, 1, 1, 500, 332
-0.452733, 1, 1, 500, 256
-0.465751, 129, 1, 384, 332
-0.501341, 225, 1, 480, 332
-0.627505, 225, 65, 480, 320
-0.65536, 33, 1, 288, 332
-0.665985, 129, 65, 384, 320
-0.812072, 33, 1, 288, 256
-0.861887, 225, 1, 352, 332
-0.862304, 321, 1, 448, 256
-0.862723, 273, 65, 400, 320
-0.870517, 273, 1, 400, 332
-0.876886, 321, 1, 448, 332
-0.879194, 369, 1, 496, 256
-0.881752, 225, 33, 352, 288
-0.886263, 177, 1, 304, 332
-0.890676, 145, 1, 272, 256
-0.891474, 369, 1, 496, 332
-0.900766, 129, 1, 256, 332
-0.900789, 1, 209, 500, 332
-0.913402, 65, 33, 192, 288
-0.91428, 65, 1, 192, 332
-0.915637, 1, 49, 500, 176
-0.916806, 1, 113, 500, 240
-0.918177, 97, 193, 352, 320
-0.9237, 257, 49, 500, 176
-0.924692, 1, 1, 500, 128
-0.925712, 1, 161, 500, 288
-0.93077, 161, 17, 416, 144
-0.932643, 257, 1, 500, 128
-0.93371, 17, 1, 144, 332
-0.935704, 257, 97, 500, 224
-0.938518, 161, 129, 416, 256
-0.939815, 113, 193, 240, 320
-0.940638, 65, 49, 320, 176
-0.94271, 65, 97, 320, 224
-0.942989, 257, 209, 500, 332
-0.943526, 257, 33, 384, 160
-0.944183, 129, 193, 192, 320
-0.944961, 225, 81, 352, 208
-0.945923, 305, 65, 432, 192
-0.946059, 313, 1, 376, 128
-0.947116, 17, 65, 144, 320
-0.947429, 353, 17, 480, 144
-0.947811, 249, 257, 312, 320
-0.948353, 305, 1, 432, 128
-0.948879, 65, 1, 320, 128
-0.950292, 161, 65, 416, 192
-0.950956, 273, 33, 336, 160
-0.951878, 273, 241, 336, 304
-0.952922, 273, 193, 336, 320
-0.954915, 209, 33, 336, 160
-0.955523, 257, 161, 500, 288
-0.956547, 289, 113, 416, 240
-0.956624, 1, 209, 256, 332
-0.956948, 233, 209, 296, 332
-0.957546, 377, 177, 440, 304
-0.958325, 401, 1, 464, 128
-0.958397, 433, 1, 496, 128
-0.959244, 281, 81, 344, 208
-0.959301, 369, 113, 496, 240
-0.959559, 217, 265, 280, 328
-0.961358, 321, 161, 448, 288
-0.961405, 225, 209, 352, 332
-0.962059, 233, 97, 296, 224
-0.962848, 321, 49, 384, 176
-0.962876, 257, 137, 320, 200
-0.962994, 177, 193, 304, 320
-0.963052, 369, 161, 496, 288
-0.963074, 105, 33, 168, 160
-0.963235, 345, 81, 408, 208
-0.963482, 257, 129, 320, 256
-0.963487, 257, 81, 320, 208
-0.964101, 433, 49, 496, 176
-0.964149, 193, 1, 256, 128
-0.964216, 161, 145, 288, 272
-0.96422, 161, 1, 288, 128
-0.96429, 321, 73, 384, 136
-0.964339, 137, 193, 200, 256
-0.964544, 289, 209, 416, 332
-0.964604, 273, 265, 336, 328
-0.965272, 249, 33, 312, 160
-0.965428, 353, 65, 480, 192
-0.965832, 313, 9, 376, 72
-0.965907, 377, 185, 440, 248
-0.966125, 225, 145, 352, 272
-0.966458, 65, 33, 192, 160
-0.966529, 377, 129, 440, 256
-0.967035, 81, 33, 144, 160
-0.967184, 233, 233, 296, 296
-0.967357, 401, 193, 464, 320
-0.967474, 345, 17, 408, 144
-0.967653, 401, 113, 464, 240
-0.967902, 261, 249, 292, 312
-0.967918, 265, 57, 328, 120
-0.968117, 121, 217, 184, 280
-0.968292, 409, 65, 472, 192
-0.96848, 145, 49, 272, 176
-0.968794, 177, 97, 304, 224
-0.969113, 385, 257, 448, 320
-0.969535, 265, 81, 328, 144
-0.969842, 289, 57, 352, 120
-0.969862, 193, 265, 320, 328
-0.96994, 65, 145, 320, 272
-0.970008, 305, 33, 368, 96
-0.970345, 281, 105, 344, 168
-0.970577, 225, 121, 288, 184
-0.970747, 457, 1, 488, 128
-0.971299, 225, 33, 288, 160
-0.971727, 433, 49, 496, 112
-0.971933, 369, 209, 496, 332
-0.97217, 385, 121, 448, 184
-0.97244, 225, 145, 288, 272
-0.972455, 313, 1, 376, 256
-0.972457, 377, 81, 440, 208
-0.972747, 113, 1, 240, 128
-0.972952, 345, 89, 408, 152
-0.973005, 193, 273, 256, 332
-0.973083, 257, 65, 384, 128
-0.973202, 249, 113, 312, 176
-0.973219, 281, 145, 344, 272
-0.973575, 65, 193, 192, 320
-0.973679, 249, 257, 280, 320
-0.973687, 273, 249, 304, 312
-0.973712, 401, 1, 464, 64
-0.974034, 345, 1, 408, 64
-0.974143, 201, 97, 264, 224
-0.974199, 377, 1, 440, 128
-0.974225, 265, 273, 296, 332
-0.974579, 361, 241, 424, 304
-0.974673, 65, 129, 192, 256
-0.974715, 113, 209, 240, 272
-0.974856, 273, 161, 400, 288
-0.974998, 369, 153, 432, 216
-0.975149, 281, 25, 344, 88
-0.975401, 385, 233, 448, 296
-0.975483, 249, 33, 312, 96
-0.975604, 433, 81, 496, 144
-0.975631, 313, 97, 376, 224
-0.975737, 377, 97, 440, 160
-0.975743, 129, 145, 192, 272
-0.975884, 273, 217, 336, 280
-0.97604, 369, 209, 432, 272
-0.976154, 153, 193, 216, 320
-0.976333, 345, 33, 408, 96
-0.976362, 345, 65, 408, 128
-0.976366, 209, 209, 272, 332
-0.976369, 265, 209, 296, 332
-0.976633, 225, 89, 288, 152
-0.976798, 353, 177, 416, 304
-0.976829, 457, 1, 488, 64
-0.976831, 81, 81, 208, 208
-0.976896, 225, 241, 352, 304
-0.977061, 409, 121, 472, 184
-0.977154, 97, 33, 160, 96
-0.977193, 289, 81, 352, 144
-0.977272, 113, 145, 240, 272
-0.977311, 433, 25, 496, 88
-0.977472, 137, 177, 168, 304
-0.977493, 353, 113, 416, 176
-0.977651, 433, 1, 496, 64
-0.977895, 225, 105, 352, 168
-0.978383, 273, 1, 336, 64
-0.978424, 273, 33, 400, 96
-0.978509, 369, 49, 496, 112
-0.978539, 145, 169, 208, 232
-0.978738, 281, 65, 344, 320
-0.978779, 273, 89, 400, 152
-0.978855, 289, 121, 416, 184
-0.97895, 233, 145, 296, 208
-0.979028, 325, 1, 356, 128
-0.979068, 149, 193, 180, 256
-0.979142, 393, 193, 424, 320
-0.979212, 277, 33, 308, 160
-0.979278, 193, 17, 256, 80
-0.979319, 445, 33, 476, 160
-0.979321, 305, 1, 432, 64
-0.979406, 161, 145, 224, 272
-0.979558, 277, 273, 308, 332
-0.979778, 257, 193, 320, 256
-0.979843, 409, 73, 472, 136
-0.979849, 257, 65, 320, 320
-0.979892, 129, 209, 160, 272
-0.979975, 229, 257, 260, 320
-0.980013, 393, 153, 456, 216
-0.980017, 361, 1, 424, 256
-0.980018, 393, 241, 424, 304
-0.980153, 285, 249, 316, 312
-0.980247, 425, 1, 488, 256
-0.980336, 129, 97, 256, 224
-0.980351, 225, 65, 288, 320
-0.980405, 289, 161, 416, 224
-0.980456, 369, 265, 496, 328
-0.980472, 185, 49, 248, 176
-0.980534, 345, 73, 376, 136
-0.980551, 369, 17, 496, 80
-0.980612, 337, 49, 368, 176
-0.980616, 469, 1, 500, 128
-0.980638, 281, 153, 344, 216
-0.980698, 469, 57, 500, 120
-0.98071, 385, 185, 416, 248
-0.980738, 169, 1, 232, 128
-0.980808, 161, 49, 224, 176
-0.98086, 405, 129, 436, 256
-0.98087, 233, 169, 296, 232
-0.980891, 257, 9, 384, 72
-0.980906, 241, 57, 304, 120
-0.981043, 209, 81, 336, 144
-0.981102, 209, 137, 336, 200
-0.98119, 177, 209, 240, 332
-0.981238, 201, 121, 264, 184
-0.981244, 469, 49, 500, 176
-0.981381, 257, 1, 320, 332
-0.981432, 209, 241, 272, 304
-0.981495, 285, 129, 316, 192
-0.981513, 241, 265, 368, 328
-0.981612, 465, 81, 496, 144
-0.981614, 393, 209, 456, 272
-0.981745, 145, 273, 272, 332
-0.981937, 289, 49, 320, 112
-0.981941, 393, 145, 424, 272
-0.98198, 337, 1, 400, 256
-0.981984, 305, 65, 432, 128
-0.982041, 377, 1, 440, 64
-0.98206, 369, 73, 496, 136
-0.982164, 377, 73, 440, 136
-0.982188, 281, 1, 344, 332
-0.982215, 113, 249, 240, 312
-0.982226, 89, 145, 152, 272
-0.982226, 105, 193, 168, 320
-0.98232, 305, 113, 368, 176
-0.982425, 369, 153, 496, 216
-0.982473, 265, 121, 296, 184
-0.982592, 385, 1, 448, 256
-0.98274, 337, 1, 368, 128
-0.982824, 97, 1, 160, 256
-0.982853, 81, 81, 144, 208
-0.982866, 433, 265, 496, 328
-0.982892, 225, 33, 352, 96
-0.982902, 369, 177, 496, 240
-0.982932, 289, 33, 320, 160
-0.982944, 137, 49, 200, 176
-0.98296, 277, 193, 308, 320
-0.983012, 161, 201, 224, 264
-0.983199, 405, 145, 436, 208
-0.98322, 321, 41, 448, 104
-0.983321, 457, 25, 488, 88
-0.983373, 225, 33, 288, 96
-0.983409, 161, 169, 288, 232
-0.983507, 433, 1, 464, 128
-0.983579, 177, 97, 240, 224
-0.983595, 405, 193, 436, 320
-0.983602, 253, 209, 284, 332
-0.983653, 349, 1, 380, 128
-0.983688, 209, 57, 336, 120
-0.983751, 353, 185, 416, 248
-0.983793, 425, 113, 488, 240
-0.983804, 289, 249, 416, 312
-0.983822, 281, 177, 344, 240
-0.983857, 337, 105, 464, 168
-0.983889, 393, 273, 424, 332
-0.984038, 457, 49, 488, 112
-0.984127, 409, 49, 472, 112
-0.984157, 361, 273, 424, 332
-0.984208, 313, 1, 344, 128
-0.984233, 385, 25, 448, 88
-0.984272, 381, 161, 412, 288
-0.984304, 149, 193, 180, 320
-0.984469, 73, 49, 136, 112
-0.984482, 369, 1, 432, 332
-0.98457, 233, 1, 296, 64
-0.984595, 349, 65, 380, 192
-0.984623, 137, 241, 200, 304
-0.984728, 325, 1, 356, 64
-0.984842, 301, 233, 332, 296
-0.984871, 321, 185, 448, 248
-0.984873, 81, 33, 208, 96
-0.984874, 289, 217, 416, 280
-0.98489, 177, 25, 304, 88
-0.984894, 277, 129, 308, 256
-0.984897, 209, 1, 336, 64
-0.984932, 89, 225, 152, 288
-0.984935, 273, 145, 304, 208
-0.984969, 445, 49, 476, 112
-0.984969, 345, 145, 408, 208
-0.985015, 257, 161, 320, 224
-0.985016, 129, 1, 192, 128
-0.985021, 193, 217, 320, 280
-0.98507, 445, 1, 476, 64
-0.985086, 405, 113, 436, 176
-0.985121, 369, 129, 496, 192
-0.985161, 277, 49, 308, 112
-0.985209, 301, 57, 332, 120
-0.985289, 265, 65, 296, 192
-0.985373, 345, 129, 408, 256
-0.985414, 109, 33, 140, 96
-0.98542, 113, 17, 144, 144
-0.98542, 289, 81, 320, 208
-0.985433, 169, 1, 232, 64
-0.985505, 357, 81, 388, 144
-0.985548, 393, 217, 424, 280
-0.985622, 129, 1, 256, 64
-0.985639, 113, 185, 240, 248
-0.98566, 137, 65, 200, 320
-0.985694, 161, 193, 192, 256
-0.985736, 409, 257, 472, 320
-0.985811, 177, 241, 304, 304
-0.98583, 241, 209, 272, 332
-0.985897, 313, 241, 376, 304
-0.985966, 233, 209, 296, 272
-0.985996, 193, 145, 256, 272
-0.985996, 433, 209, 496, 332
-0.986008, 193, 145, 256, 208
-0.986137, 469, 1, 500, 64
-0.98614, 281, 129, 344, 192
-0.986227, 409, 25, 472, 88
-0.986229, 405, 81, 436, 208
-0.986344, 161, 49, 288, 112
-0.986366, 225, 185, 352, 248
-0.986465, 217, 57, 280, 120
-0.986496, 405, 201, 436, 264
-0.986536, 185, 89, 248, 152
-0.986543, 113, 193, 176, 256
-0.986552, 397, 1, 428, 128
-0.986596, 217, 273, 248, 332
-0.986714, 313, 209, 376, 332
-0.986721, 393, 153, 424, 216
-0.986743, 369, 49, 432, 112
-0.98675, 73, 89, 136, 152
-0.986786, 193, 1, 256, 256
-0.986796, 433, 113, 496, 176
-0.986803, 17, 33, 144, 160
-0.986871, 97, 249, 160, 312
-0.986957, 345, 217, 408, 280
-0.987098, 301, 33, 332, 160
-0.987103, 349, 1, 380, 64
-0.987128, 293, 105, 324, 168
-0.987154, 417, 1, 480, 332
-0.98717, 369, 241, 496, 304
-0.987178, 289, 273, 416, 332
-0.987186, 313, 1, 376, 332
-0.987294, 169, 161, 232, 224
-0.987337, 185, 249, 248, 312
-0.987405, 337, 41, 368, 104
-0.987495, 301, 193, 332, 320
-0.987508, 369, 201, 496, 264
-0.987557, 161, 177, 192, 304
-0.987575, 445, 25, 476, 88
-0.9876, 125, 209, 156, 332
-0.987679, 161, 129, 288, 192
-0.987713, 265, 113, 296, 240
-0.987732, 309, 81, 340, 208
-0.987733, 409, 233, 472, 296
-0.987814, 417, 129, 448, 192
-0.987814, 241, 277, 304, 308
-0.987914, 269, 225, 300, 288
-0.988087, 385, 121, 416, 184
-0.988181, 273, 185, 400, 248
-0.988242, 309, 81, 340, 144
-0.988271, 129, 265, 192, 328
-0.988279, 457, 65, 488, 192
-0.988298, 333, 65, 364, 128
-0.9883, 269, 81, 300, 144
-0.988317, 233, 1, 296, 332
-0.988338, 81, 1, 144, 332
-0.988365, 161, 97, 288, 160
-0.988393, 277, 105, 308, 168
-0.988403, 281, 225, 312, 288
-0.988468, 405, 177, 436, 240
-0.988537, 233, 121, 264, 184
-0.988669, 57, 49, 120, 176
-0.98867, 233, 257, 296, 288
-0.988677, 97, 33, 128, 160
-0.9887, 337, 1, 368, 64
-0.988767, 381, 209, 412, 272
-0.988845, 233, 81, 264, 208
-0.988858, 401, 177, 464, 240
-0.988864, 105, 57, 168, 120
-0.988872, 113, 97, 176, 224
-0.988891, 177, 193, 304, 256
-0.988931, 325, 49, 356, 176
-0.989025, 309, 33, 340, 96
-0.989054, 469, 33, 500, 96
-0.98908, 413, 233, 444, 296
-0.989085, 281, 73, 312, 136
-0.989086, 273, 257, 336, 288
-0.989119, 65, 193, 192, 256
-0.989121, 273, 193, 304, 256
-0.989153, 85, 49, 116, 176
-0.98918, 413, 257, 444, 320
-0.989282, 105, 169, 168, 232
-0.989285, 289, 145, 320, 272
-0.989388, 149, 145, 180, 272
-0.989391, 169, 169, 200, 232
-0.989412, 425, 113, 456, 240
-0.989418, 277, 81, 308, 208
-0.989464, 313, 137, 376, 200
-0.989582, 177, 49, 240, 112
-0.989647, 273, 237, 336, 268
-0.989651, 209, 1, 272, 332
-0.989681, 145, 65, 208, 128
-0.989717, 313, 17, 376, 48
-0.98973, 433, 49, 464, 176
-0.989768, 289, 209, 320, 332
-0.989774, 297, 265, 360, 328
-0.989866, 137, 197, 200, 228
-0.989958, 409, 97, 472, 160
-0.989994, 221, 113, 252, 176
-0.989998, 65, 217, 192, 280
-0.990027, 233, 33, 264, 160
-0.990052, 217, 273, 280, 304
-0.990052, 81, 113, 144, 176
-0.990078, 349, 25, 380, 88
-0.990083, 321, 145, 384, 272
-0.990088, 65, 105, 192, 168
-0.990104, 409, 1, 440, 64
-0.990141, 249, 245, 312, 276
-0.990169, 433, 1, 464, 64
-0.99017, 377, 197, 440, 228
-0.990175, 205, 1, 236, 128
-0.990188, 105, 89, 168, 152
-0.990204, 417, 1, 448, 128
-0.990207, 93, 41, 124, 104
-0.990225, 193, 169, 256, 232
-0.990232, 345, 1, 408, 332
-0.99026, 377, 161, 408, 224
-0.990283, 145, 73, 272, 136
-0.99039, 241, 129, 304, 160
-0.990435, 357, 105, 388, 168
-0.990436, 313, 69, 376, 100
-0.990458, 241, 161, 368, 224
-0.990495, 301, 209, 332, 272
-0.99051, 361, 81, 392, 208
-0.990512, 265, 277, 328, 308
-0.990541, 241, 217, 368, 280
-0.990597, 265, 17, 296, 144
-0.990612, 313, 29, 376, 60
-0.990623, 389, 97, 420, 224
-0.990626, 345, 97, 376, 160
-0.99066, 245, 233, 276, 296
-0.99066, 169, 273, 232, 332
-0.990676, 321, 5, 384, 36
-0.990712, 249, 129, 280, 192
-0.990738, 121, 249, 152, 312
-0.990773, 65, 57, 192, 120
-0.99083, 129, 209, 192, 240
-0.990855, 121, 225, 184, 256
-0.990857, 105, 37, 168, 68
-0.990878, 417, 113, 480, 144
-0.990889, 285, 177, 316, 240
-0.990899, 385, 261, 448, 292
-0.990958, 241, 289, 304, 320
-0.991, 425, 9, 488, 40
-0.99103, 221, 9, 252, 72
-0.991042, 329, 81, 392, 112
-0.991047, 217, 285, 280, 316
-0.991066, 73, 1, 136, 64
-0.991099, 353, 69, 416, 100
-0.991104, 433, 53, 496, 84
-0.991111, 117, 225, 148, 288
-0.991126, 129, 25, 256, 88
-0.991134, 265, 161, 296, 288
-0.99115, 257, 89, 320, 120
-0.991167, 233, 113, 296, 144
-0.9912, 345, 5, 408, 36
-0.991203, 265, 41, 296, 104
-0.991208, 249, 49, 312, 80
-0.991215, 73, 1, 136, 256
-0.991233, 265, 61, 328, 92
-0.991237, 225, 89, 480, 152
-0.991241, 249, 97, 280, 160
-0.991243, 265, 137, 328, 168
-0.991249, 417, 177, 448, 304
-0.99125, 393, 1, 456, 32
-0.991271, 17, 161, 144, 288
-0.991311, 129, 273, 384, 332
-0.991315, 369, 89, 400, 152
-0.991316, 209, 261, 272, 292
-0.991372, 289, 77, 352, 108
-0.991387, 65, 241, 192, 304
-0.991395, 193, 273, 256, 304
-0.991402, 289, 65, 352, 96
-0.991421, 105, 1, 168, 332
-0.991426, 377, 121, 440, 152
-0.991437, 369, 213, 432, 244
-0.991437, 301, 265, 332, 328
-0.991454, 385, 89, 416, 152
-0.991458, 385, 149, 448, 180
-0.991518, 33, 33, 160, 96
-0.991522, 273, 45, 336, 76
-0.991551, 353, 21, 416, 52
-0.991557, 321, 25, 352, 88
-0.991561, 377, 185, 440, 216
-0.991579, 65, 81, 192, 144
-0.991641, 329, 89, 360, 152
-0.991673, 125, 17, 156, 144
-0.991701, 377, 109, 440, 140
-0.991719, 433, 33, 464, 96
-0.991733, 385, 249, 448, 280
-0.991749, 417, 65, 480, 96
-0.99175, 429, 113, 460, 176
-0.991757, 273, 289, 336, 320
-0.991765, 121, 25, 152, 88
-0.991772, 257, 77, 320, 108
-0.991785, 233, 33, 296, 64
-0.991802, 65, 169, 192, 232
-0.991803, 265, 169, 296, 232
-0.991805, 257, 149, 320, 180
-0.991808, 353, 201, 416, 232
-0.991818, 221, 97, 252, 224
-0.991818, 373, 209, 404, 332
-0.991837, 401, 13, 464, 44
-0.991838, 273, 101, 336, 132
-0.99184, 297, 129, 360, 160
-0.991863, 393, 17, 424, 80
-0.991863, 17, 81, 144, 208
-0.991865, 377, 273, 440, 304
-0.991866, 385, 237, 448, 268
-0.991869, 433, 81, 496, 112
-0.991881, 269, 249, 300, 280
-0.991894, 313, 113, 344, 176
-0.991903, 313, 41, 376, 72
-0.991907, 345, 57, 408, 88
-0.99192, 209, 249, 272, 280
-0.991942, 377, 137, 440, 168
-0.991955, 361, 93, 424, 124
-0.991958, 225, 145, 288, 176
-0.991979, 409, 261, 472, 292
-0.991984, 353, 185, 416, 216
-0.992011, 281, 33, 344, 64
-0.992011, 377, 165, 440, 196
-0.992013, 193, 9, 256, 40
-0.992017, 289, 5, 352, 36
-0.99202, 361, 253, 424, 284
-0.992026, 81, 41, 144, 72
-0.992038, 217, 129, 280, 160
-0.992043, 273, 125, 336, 156
-0.992046, 241, 61, 304, 92
-0.992049, 329, 177, 392, 240
-0.992056, 313, 97, 376, 128
-0.992076, 97, 217, 352, 280
-0.99208, 293, 153, 324, 216
-0.992081, 201, 117, 264, 148
-0.992088, 345, 33, 408, 64
-0.992088, 401, 129, 464, 160
-0.992102, 145, 33, 208, 96
-0.992103, 433, 269, 496, 300
-0.992109, 265, 113, 328, 144
-0.992111, 289, 89, 352, 120
-0.992112, 345, 129, 408, 160
-0.992114, 425, 37, 488, 68
-0.992123, 193, 21, 256, 52
-0.992125, 201, 41, 264, 72
-0.99213, 89, 193, 152, 256
-0.992146, 425, 21, 488, 52
-0.992163, 73, 25, 136, 88
-0.992164, 373, 97, 404, 224
-0.992171, 273, 269, 304, 300
-0.992177, 241, 173, 304, 204
-0.992182, 289, 269, 352, 300
-0.992184, 453, 73, 484, 136
-0.99219, 393, 209, 456, 240
-0.992198, 305, 145, 336, 208
-0.992229, 225, 93, 288, 124
-0.992229, 257, 257, 288, 288
-0.992231, 281, 177, 344, 208
-0.992234, 185, 153, 248, 184
-0.992239, 369, 137, 400, 200
-0.992243, 221, 1, 252, 128
-0.992246, 129, 1, 192, 332
-0.992273, 289, 113, 352, 144
-0.992275, 345, 109, 408, 140
-0.992281, 65, 273, 192, 332
-0.99229, 193, 285, 256, 316
-0.99233, 161, 293, 224, 324
-0.992331, 297, 53, 360, 84
-0.992353, 433, 93, 496, 124
-0.992356, 369, 81, 432, 112
-0.992374, 225, 157, 288, 188
-0.992377, 121, 237, 184, 268
-0.99238, 345, 141, 408, 172
-0.992394, 225, 237, 288, 268
-0.992394, 129, 249, 384, 312
-0.992407, 313, 57, 344, 120
-0.99244, 233, 185, 296, 216
-0.992448, 161, 205, 224, 236
-0.992458, 201, 141, 264, 172
-0.992466, 273, 225, 336, 256
-0.992478, 161, 193, 224, 224
-0.992478, 81, 53, 144, 84
-0.992483, 185, 105, 248, 136
-0.992489, 265, 281, 296, 312
-0.992493, 249, 145, 280, 272
-0.992495, 385, 25, 448, 56
-0.9925, 289, 141, 352, 172
-0.992504, 353, 173, 416, 204
-0.992513, 385, 53, 448, 84
-0.992514, 245, 97, 276, 224
-0.992525, 453, 9, 484, 40
-0.992529, 245, 277, 276, 308
-0.99253, 225, 257, 480, 320
-0.992538, 225, 9, 288, 40
-0.992545, 129, 249, 192, 280
-0.992559, 385, 97, 448, 128
-0.99256, 249, 233, 312, 264
-0.992565, 281, 257, 312, 288
-0.992571, 277, 237, 308, 268
-0.992574, 273, 21, 336, 52
-0.992579, 161, 1, 224, 256
-0.992598, 361, 241, 424, 272
-0.992601, 257, 213, 320, 244
-0.992608, 357, 57, 388, 120
-0.992632, 281, 301, 344, 332
-0.992634, 393, 225, 456, 256
-0.992638, 117, 33, 148, 64
-0.992651, 281, 189, 344, 220
-0.992653, 241, 301, 304, 332
-0.992654, 385, 201, 416, 232
-0.992657, 89, 241, 152, 272
-0.992682, 149, 197, 180, 228
-0.992687, 245, 33, 276, 160
-0.992689, 297, 245, 360, 276
-0.992691, 149, 169, 180, 232
-0.992695, 257, 189, 320, 220
-0.992697, 73, 93, 136, 124
-0.992698, 301, 145, 332, 272
-0.992707, 257, 225, 288, 288
-0.992708, 225, 45, 288, 76
-0.992708, 257, 269, 288, 300
-0.992713, 353, 161, 416, 192
-0.992726, 325, 17, 356, 48
-0.992748, 233, 265, 264, 296
-0.992755, 225, 25, 480, 88
-0.99283, 449, 33, 480, 64
-0.992846, 389, 189, 420, 220
-0.992849, 405, 89, 436, 152
-0.992851, 177, 193, 208, 256
-0.992854, 293, 137, 324, 168
-0.99286, 341, 73, 372, 104
-0.992866, 293, 53, 324, 84
-0.992877, 277, 281, 308, 312
-0.99289, 457, 53, 488, 84
-0.992893, 277, 129, 308, 160
-0.992894, 469, 57, 500, 88
-0.992895, 421, 49, 452, 176
-0.992896, 289, 245, 320, 276
-0.992928, 469, 89, 500, 120
-0.992944, 393, 257, 424, 288
-0.99296, 337, 21, 368, 52
-0.992963, 401, 149, 432, 180
-0.992979, 353, 81, 384, 112
-0.992997, 301, 233, 332, 264
-0.992998, 393, 269, 424, 300
-0.992998, 281, 45, 312, 76
-0.993004, 337, 1, 368, 32
-0.993008, 453, 21, 484, 52
-0.993016, 465, 9, 496, 40
-0.993031, 241, 253, 272, 284
-0.993032, 265, 133, 296, 164
-0.993039, 221, 273, 252, 304
-0.993046, 349, 1, 380, 32
-0.993046, 245, 289, 276, 320
-0.99305, 129, 221, 160, 252
-0.993058, 137, 205, 168, 236
-0.99308, 105, 37, 136, 68
-0.99309, 393, 237, 424, 268
-0.993096, 265, 113, 296, 144
-0.993103, 441, 1, 472, 32
-0.993103, 405, 177, 436, 208
-0.993109, 297, 217, 360, 280
-0.993112, 285, 69, 316, 100
-0.993122, 441, 45, 472, 76
-0.993134, 185, 193, 248, 256
-0.993136, 125, 145, 156, 272
-0.993145, 257, 65, 500, 128
-0.993147, 301, 245, 332, 276
-0.993149, 229, 117, 260, 148
-0.99315, 389, 281, 420, 312
-0.993151, 461, 37, 492, 68
-0.993156, 405, 205, 436, 236
-0.993161, 289, 277, 320, 308
-0.993162, 245, 265, 276, 296
-0.993179, 413, 261, 444, 292
-0.99318, 393, 217, 424, 248
-0.993186, 349, 29, 380, 60
-0.993189, 425, 117, 456, 148
-0.993191, 297, 77, 328, 108
-0.993193, 217, 89, 248, 152
-0.993195, 105, 1, 168, 64
-0.993196, 437, 57, 468, 88
-0.993198, 389, 145, 420, 176
-0.993198, 437, 13, 468, 44
-0.993199, 271, 249, 286, 312
-0.993204, 1, 209, 500, 272
-0.99321, 405, 121, 436, 152
-0.993217, 381, 177, 412, 208
-0.993218, 441, 113, 472, 144
-0.993225, 269, 49, 300, 80
-0.993228, 321, 5, 352, 36
-0.993232, 305, 61, 336, 92
-0.993248, 285, 149, 316, 180
-0.99325, 405, 217, 436, 248
-0.993251, 385, 133, 416, 164
-0.993252, 421, 1, 452, 32
-0.993253, 337, 61, 368, 92
-0.993255, 237, 33, 268, 96
-0.993259, 273, 61, 304, 92
-0.993264, 437, 33, 468, 64
-0.993268, 377, 189, 408, 220
-0.993276, 233, 281, 264, 312
-0.993285, 293, 125, 324, 156
-0.993288, 361, 93, 392, 124
-0.99329, 249, 129, 280, 160
-0.993291, 329, 113, 392, 176
-0.9933, 401, 189, 432, 220
-0.993301, 325, 97, 356, 224
-0.993304, 357, 69, 388, 100
-0.993305, 265, 237, 296, 268
-0.993311, 273, 173, 304, 204
-0.993311, 169, 193, 200, 224
-0.993314, 405, 137, 436, 168
-0.993314, 457, 77, 488, 108
-0.993318, 209, 1, 240, 32
-0.993321, 273, 81, 304, 112
-0.993327, 93, 41, 124, 72
-0.993327, 289, 93, 320, 124
-0.993332, 349, 13, 380, 44
-0.993333, 213, 109, 244, 140
-0.993334, 393, 161, 424, 192
-0.993334, 321, 29, 352, 60
-0.993337, 257, 293, 288, 324
-0.993344, 281, 185, 312, 216
-0.993345, 337, 33, 368, 64
-0.993346, 249, 241, 280, 272
-0.993348, 293, 257, 324, 288
-0.993354, 301, 269, 332, 300
-0.993354, 205, 1, 236, 64
-0.99336, 153, 185, 184, 216
-0.993365, 381, 217, 412, 248
-0.993366, 265, 145, 296, 176
-0.993366, 221, 17, 252, 48
-0.99337, 465, 21, 496, 52
-0.99337, 405, 109, 436, 140
-0.993374, 409, 9, 440, 40
-0.993382, 301, 221, 332, 252
-0.993383, 309, 85, 340, 116
-0.993384, 349, 41, 380, 72
-0.993388, 393, 17, 424, 48
-0.993391, 277, 293, 308, 324
-0.993394, 421, 129, 452, 160
-0.993395, 241, 109, 272, 140
-0.993396, 161, 49, 416, 112
-0.993397, 129, 233, 160, 264
-0.993397, 113, 241, 144, 272
-0.993407, 279, 241, 294, 304
-0.99341, 221, 97, 252, 128
-0.993412, 309, 1, 340, 32
-0.993412, 233, 133, 264, 164
-0.993414, 293, 113, 324, 144
-0.993417, 293, 173, 324, 204
-0.993418, 413, 233, 444, 264
-0.993419, 185, 293, 216, 324
-0.993422, 165, 181, 196, 212
-0.993424, 393, 177, 424, 208
-0.993425, 465, 269, 496, 300
-0.99343, 377, 81, 408, 112
-0.993453, 257, 113, 500, 176
-0.993477, 185, 1, 248, 332
-0.993526, 297, 81, 328, 144
-0.993562, 237, 145, 268, 208
-0.993572, 193, 1, 224, 128
-0.993573, 169, 121, 232, 184
-0.993595, 161, 225, 224, 288
-0.993598, 385, 49, 416, 176
-0.99361, 113, 161, 240, 224
-0.993637, 263, 257, 278, 320
-0.993642, 209, 265, 336, 296
-0.993663, 65, 105, 320, 168
-0.993713, 393, 1, 456, 332
-0.993736, 361, 17, 392, 144
-0.993763, 193, 185, 448, 248
-0.993812, 129, 89, 192, 152
-0.99382, 301, 1, 332, 64
-0.993822, 209, 81, 240, 208
-0.993823, 141, 241, 172, 304
-0.993863, 257, 233, 500, 296
-0.993866, 65, 129, 192, 192
-0.993868, 193, 137, 448, 200
-0.993871, 65, 129, 128, 256
-0.993932, 225, 1, 480, 64
-0.993953, 113, 177, 144, 304
-0.993956, 145, 145, 208, 208
-0.994011, 209, 217, 272, 280
-0.994044, 281, 265, 296, 328
-0.9941, 373, 185, 404, 248
-0.99415, 65, 41, 320, 104
-0.994181, 93, 9, 124, 72
-0.994187, 417, 209, 448, 272
-0.994188, 433, 241, 496, 304
-0.994193, 113, 97, 240, 160
-0.99422, 225, 253, 352, 284
-0.994246, 381, 273, 412, 332
-0.994247, 137, 185, 168, 248
-0.994254, 253, 49, 284, 112
-0.994286, 153, 97, 216, 224
-0.994304, 329, 113, 360, 176
-0.994314, 417, 105, 448, 168
-0.99433, 287, 249, 302, 312
-0.994361, 289, 273, 320, 332
-0.994366, 321, 241, 352, 304
-0.994381, 129, 1, 384, 64
-0.994426, 225, 277, 352, 308
-0.99444, 177, 285, 304, 316
-0.994499, 97, 193, 352, 256
-0.9945, 445, 81, 476, 208
-0.994502, 193, 265, 224, 328
-0.994553, 297, 25, 328, 88
-0.994566, 277, 25, 308, 88
-0.994567, 257, 265, 272, 328
-0.994581, 273, 77, 400, 108
-0.994607, 337, 97, 368, 224
-0.994608, 417, 185, 448, 248
-0.99461, 193, 1, 224, 64
-0.994647, 113, 209, 240, 240
-0.994689, 253, 169, 284, 232
-0.994765, 173, 193, 204, 320
-0.994805, 229, 209, 260, 332
-0.994812, 305, 5, 432, 36
-0.994838, 237, 97, 268, 160
-0.994853, 1, 241, 500, 304
-0.994861, 233, 129, 264, 256
-0.99488, 137, 33, 168, 160
-0.994943, 1, 185, 500, 248
-0.994948, 253, 25, 284, 88
-0.994982, 385, 1, 416, 128
-0.994997, 161, 129, 192, 256
-0.995014, 461, 273, 492, 332
-0.995029, 213, 241, 244, 304
-0.995034, 161, 1, 224, 332
-0.995049, 81, 193, 144, 320
-0.995095, 65, 65, 320, 128
-0.995123, 257, 161, 500, 224
-0.995141, 445, 105, 476, 168
-0.99515, 17, 97, 144, 160
-0.995162, 457, 1, 472, 64
-0.995174, 113, 221, 240, 252
-0.995177, 373, 33, 404, 160
-0.995186, 361, 1, 392, 64
-0.995197, 251, 273, 266, 332
-0.995228, 321, 209, 352, 332
-0.995247, 257, 209, 500, 272
-0.995265, 105, 113, 168, 176
-0.995266, 273, 273, 288, 332
-0.995336, 485, 57, 500, 120
-0.995337, 289, 33, 416, 64
-0.995342, 273, 65, 400, 96
-0.995351, 145, 121, 208, 184
-0.995357, 305, 17, 432, 48
-0.995393, 249, 73, 280, 136
-0.995397, 225, 289, 352, 320
-0.995404, 213, 209, 244, 332
-0.995416, 421, 1, 452, 64
-0.995444, 105, 273, 168, 332
-0.995512, 57, 1, 120, 332
-0.995551, 129, 197, 256, 228
-0.995579, 165, 49, 196, 176
-0.995596, 33, 249, 288, 312
-0.995605, 409, 201, 424, 264
-0.995636, 289, 133, 416, 164
-0.995653, 131, 225, 146, 288
-0.995659, 273, 89, 400, 120
-0.99566, 405, 233, 420, 296
-0.995676, 153, 89, 216, 152
-0.995677, 97, 129, 352, 192
-0.995678, 369, 53, 496, 84
-0.995688, 85, 1, 116, 128
-0.995701, 369, 269, 496, 300
-0.995733, 17, 121, 144, 184
-0.995739, 105, 81, 136, 208
-0.995757, 463, 1, 478, 64
-0.995831, 225, 109, 352, 140
-0.995835, 17, 73, 144, 136
-0.995853, 161, 193, 176, 256
-0.995855, 177, 253, 304, 284
-0.995863, 243, 257, 258, 320
-0.995867, 181, 1, 212, 128
-0.995882, 181, 49, 212, 176
-0.995884, 149, 201, 164, 264
-0.995887, 369, 25, 496, 56
-0.995936, 113, 129, 240, 192
-0.99594, 137, 217, 152, 280
-0.995943, 1, 9, 128, 72
-0.995944, 193, 241, 320, 272
-0.995959, 257, 17, 384, 48
-0.995981, 479, 49, 494, 112
-0.996022, 287, 273, 302, 332
-0.996036, 181, 129, 212, 256
-0.996044, 237, 265, 252, 328
-0.99605, 73, 137, 136, 200
-0.99605, 461, 49, 476, 112
-0.996052, 369, 37, 496, 68
-0.996089, 225, 133, 352, 164
-0.9961, 485, 273, 500, 332
-0.996115, 161, 265, 288, 296
-0.996119, 257, 53, 384, 84
-0.99614, 455, 25, 470, 88
-0.996147, 287, 41, 302, 104
-0.996178, 355, 81, 370, 144
-0.996181, 293, 241, 308, 304
-0.996201, 93, 113, 124, 240
-0.996204, 477, 1, 492, 64
-0.996212, 1, 201, 256, 264
-0.996217, 115, 33, 130, 96
-0.99622, 361, 73, 376, 136
-0.996232, 297, 49, 312, 112
-0.996234, 121, 25, 184, 88
-0.996235, 357, 145, 388, 272
-0.996275, 225, 89, 352, 120
-0.996276, 353, 77, 480, 108
-0.996288, 33, 273, 288, 332
-0.996292, 289, 173, 416, 204
-0.996293, 449, 25, 464, 88
-0.996307, 305, 145, 432, 176
-0.996308, 289, 129, 304, 192
-0.996333, 407, 145, 422, 208
-0.996365, 417, 153, 480, 216
-0.996372, 307, 57, 322, 120
-0.996374, 471, 1, 486, 64
-0.99638, 391, 177, 406, 240
-0.996436, 143, 201, 158, 264
-0.996436, 315, 233, 330, 296
-0.996438, 155, 193, 170, 256
-0.99645, 281, 129, 296, 192
-0.996464, 1, 273, 500, 332
-0.996465, 285, 225, 300, 288
-0.996466, 209, 145, 336, 176
-0.996483, 225, 121, 352, 152
-0.996489, 369, 149, 496, 180
-0.996489, 369, 181, 496, 212
-0.996505, 337, 65, 464, 96
-0.996531, 1, 129, 500, 192
-0.996531, 193, 53, 320, 84
-0.996544, 355, 57, 370, 120
-0.996549, 289, 273, 416, 304
-0.996553, 257, 1, 384, 32
-0.996562, 285, 105, 300, 168
-0.996574, 369, 193, 496, 224
-0.996581, 97, 33, 224, 64
-0.996618, 415, 233, 430, 296
-0.996619, 289, 245, 416, 276
-0.99664, 273, 261, 400, 292
-0.99666, 281, 41, 296, 104
-0.996662, 333, 1, 364, 256
-0.996673, 109, 41, 124, 104
-0.996678, 399, 193, 414, 256
-0.996678, 353, 113, 480, 144
-0.996688, 467, 81, 482, 144
-0.996693, 41, 105, 104, 168
-0.996704, 113, 233, 240, 264
-0.996707, 369, 9, 496, 40
-0.996727, 275, 113, 290, 176
-0.996745, 395, 273, 410, 332
-0.99676, 251, 249, 266, 312
-0.996763, 97, 153, 352, 216
-0.996778, 81, 1, 208, 64
-0.996785, 383, 193, 398, 256
-0.996793, 473, 49, 488, 112
-0.996811, 349, 65, 364, 128
-0.996816, 189, 209, 220, 332
-0.996841, 281, 265, 296, 296
-0.996847, 369, 169, 496, 200
-0.99689, 467, 49, 482, 112
-0.996901, 167, 193, 182, 256
-0.996908, 81, 197, 208, 228
-0.996919, 1, 225, 256, 288
-0.996931, 291, 65, 306, 128
-0.996935, 427, 129, 442, 192
-0.996963, 295, 129, 310, 192
-0.996964, 209, 77, 336, 108
-0.99697, 177, 41, 304, 72
-0.996971, 113, 245, 240, 276
-0.996983, 225, 37, 352, 68
-0.996993, 335, 89, 350, 152
-0.997015, 275, 249, 290, 280
-0.997018, 397, 161, 412, 224
-0.997023, 1, 33, 500, 96
-0.99703, 225, 65, 352, 96
-0.997034, 341, 17, 356, 80
-0.997043, 289, 161, 416, 192
-0.997059, 325, 17, 340, 80
-0.997059, 473, 81, 488, 144
-0.997071, 393, 217, 408, 280
-0.997073, 293, 273, 308, 332
-0.997077, 421, 121, 436, 184
-0.997079, 305, 221, 432, 252
-0.997081, 287, 261, 302, 292
-0.997085, 145, 297, 272, 328
-0.9971, 483, 89, 498, 152
-0.997116, 321, 53, 448, 84
-0.997131, 305, 105, 320, 168
-0.997131, 161, 185, 288, 216
-0.997142, 317, 1, 348, 256
-0.997151, 131, 249, 146, 312
-0.997163, 415, 209, 430, 272
-0.997171, 455, 49, 470, 112
-0.997175, 353, 33, 368, 96
-0.997178, 125, 233, 140, 296
-0.997179, 369, 281, 496, 312
-0.997179, 209, 1, 336, 32
-0.997184, 231, 265, 246, 328
-0.997185, 415, 257, 430, 320
-0.99719, 273, 101, 400, 132
-0.99721, 281, 277, 296, 308
-0.997211, 369, 125, 496, 156
-0.997216, 305, 201, 432, 232
-0.997217, 33, 1, 288, 64
-0.997229, 233, 121, 248, 184
-0.997234, 241, 241, 368, 272
-0.997246, 285, 153, 300, 216
-0.997264, 331, 1, 346, 64
-0.997268, 265, 233, 280, 296
-0.997269, 361, 1, 376, 64
-0.997293, 343, 65, 358, 128
-0.997304, 289, 121, 416, 152
-0.99731, 269, 253, 284, 284
-0.997322, 129, 1, 256, 32
-0.997327, 371, 89, 386, 152
-0.997328, 389, 1, 420, 256
-0.997348, 307, 153, 322, 216
-0.997357, 405, 177, 420, 240
-0.997363, 269, 113, 284, 176
-0.99737, 225, 273, 240, 332
-0.997371, 405, 65, 436, 320
-0.997374, 313, 57, 328, 120
-0.997377, 273, 185, 400, 216
-0.997381, 177, 197, 304, 228
-0.997387, 221, 1, 236, 64
-0.997391, 193, 301, 320, 332
-0.997391, 461, 25, 476, 88
-0.997404, 285, 65, 300, 128
-0.997406, 129, 277, 256, 308
-0.997424, 353, 205, 480, 236
-0.997425, 209, 193, 272, 256
-0.997426, 299, 241, 314, 304
-0.997428, 351, 1, 366, 64
-0.997442, 1, 161, 500, 224
-0.997457, 275, 277, 290, 308
-0.99746, 417, 177, 432, 240
-0.997472, 399, 217, 414, 280
-0.997482, 275, 169, 290, 232
-0.997483, 451, 1, 466, 64
-0.997496, 369, 257, 496, 288
-0.997499, 469, 25, 484, 88
-0.997509, 289, 233, 416, 264
-0.997511, 251, 277, 266, 308
-0.997512, 161, 209, 288, 240
-0.997516, 369, 241, 496, 272
-0.997518, 321, 185, 448, 216
-0.997518, 413, 1, 428, 64
-0.997527, 315, 81, 330, 144
-0.997527, 353, 97, 480, 128
-0.997531, 279, 73, 294, 136
-0.997534, 281, 245, 296, 276
-0.997534, 145, 169, 272, 200
-0.997535, 17, 209, 144, 272
-0.997538, 285, 33, 316, 288
-0.997545, 433, 113, 448, 176
-0.997547, 291, 105, 306, 168
-0.997554, 49, 41, 176, 72
-0.997568, 113, 257, 240, 288
-0.997574, 257, 241, 272, 304
-0.997577, 137, 265, 152, 328
-0.997578, 239, 113, 254, 176
-0.997579, 1, 105, 500, 168
-0.997587, 327, 81, 342, 144
-0.997597, 289, 285, 416, 316
-0.997601, 427, 105, 442, 168
-0.997602, 271, 225, 286, 288
-0.997603, 209, 25, 336, 56
-0.997611, 121, 25, 136, 88
-0.997611, 415, 113, 430, 176
-0.997616, 407, 273, 422, 332
-0.997626, 185, 225, 248, 288
-0.99763, 273, 49, 288, 112
-0.997633, 361, 105, 376, 168
-0.997635, 395, 249, 410, 312
-0.99764, 421, 1, 436, 64
-0.997647, 115, 37, 130, 68
-0.997654, 193, 49, 224, 176
-0.99766, 461, 73, 476, 136
-0.99766, 449, 1, 480, 256
-0.997669, 381, 97, 396, 160
-0.997672, 321, 57, 336, 120
-0.997673, 267, 169, 282, 232
-0.997675, 483, 1, 498, 64
-0.997676, 229, 89, 244, 152
-0.99768, 269, 81, 284, 144
-0.99769, 175, 169, 190, 232
-0.997693, 177, 113, 304, 144
-0.997695, 383, 161, 398, 224
-0.997697, 417, 145, 432, 208
-0.9977, 287, 273, 302, 304
-0.997703, 269, 33, 300, 288
-0.997704, 347, 33, 362, 96
-0.997707, 243, 33, 258, 96
-0.997712, 149, 177, 164, 240
-0.997712, 345, 1, 376, 256
-0.997715, 209, 165, 336, 196
-0.997715, 161, 249, 224, 312
-0.997716, 161, 101, 288, 132
-0.997736, 275, 265, 290, 296
-0.997746, 193, 229, 320, 260
-0.997746, 1, 177, 256, 240
-0.997761, 263, 257, 278, 288
-0.997775, 269, 277, 284, 308
-0.997776, 65, 209, 192, 240
-0.997786, 97, 45, 224, 76
-0.997793, 221, 145, 252, 272
-0.997806, 289, 249, 304, 280
-0.997807, 253, 65, 284, 320
-0.997811, 257, 145, 384, 176
-0.997847, 293, 237, 308, 268
-0.997852, 321, 257, 448, 288
-0.997872, 161, 149, 288, 180
-0.997905, 225, 185, 352, 216
-0.997909, 57, 1, 120, 128
-0.997909, 131, 221, 146, 252
-0.997955, 177, 13, 304, 44
-0.997998, 359, 69, 374, 100
-0.997999, 225, 217, 352, 248
-0.998007, 357, 33, 388, 288
-0.998016, 369, 301, 496, 332
-0.998021, 301, 65, 332, 320
-0.998026, 461, 1, 492, 256
-0.998031, 33, 229, 160, 260
-0.998034, 343, 17, 358, 48
-0.998035, 141, 209, 156, 240
-0.998041, 65, 109, 192, 140
-0.998061, 109, 1, 140, 256
-0.998066, 287, 129, 302, 160
-0.998077, 469, 9, 484, 40
-0.998121, 313, 129, 344, 256
-0.998143, 121, 33, 136, 64
-0.998148, 385, 197, 400, 228
-0.998151, 149, 201, 164, 232
-0.998154, 295, 49, 310, 80
-0.998157, 457, 1, 472, 32
-0.998159, 245, 281, 260, 312
-0.998159, 353, 217, 480, 248
-0.998167, 241, 65, 272, 320
-0.998169, 451, 33, 466, 64
-0.998175, 149, 65, 180, 192
-0.998176, 97, 1, 128, 256
-0.998178, 351, 29, 366, 60
-0.998195, 391, 197, 406, 228
-0.998195, 261, 285, 276, 316
-0.998197, 257, 261, 272, 292
-0.998208, 407, 237, 422, 268
-0.998214, 469, 37, 484, 68
-0.99822, 257, 273, 272, 304
-0.998235, 65, 57, 192, 88
-0.998236, 241, 261, 256, 292
-0.998243, 159, 197, 174, 228
-0.998255, 331, 9, 346, 40
-0.998256, 475, 5, 490, 36
-0.998258, 343, 29, 358, 60
-0.998273, 303, 57, 318, 88
-0.998281, 241, 229, 368, 260
-0.998282, 405, 145, 420, 176
-0.998293, 407, 217, 422, 248
-0.998293, 485, 61, 500, 92
-0.998303, 113, 21, 240, 52
-0.998314, 305, 255, 336, 270
-0.998314, 405, 221, 436, 236
-0.998316, 421, 5, 452, 20
-0.998317, 293, 147, 324, 162
-0.998317, 405, 209, 436, 224
-0.998317, 393, 305, 424, 320
-0.998318, 413, 75, 444, 90
-0.998319, 273, 59, 304, 74
-0.998319, 357, 81, 372, 112
-0.99832, 325, 11, 356, 26
-0.99832, 389, 171, 420, 186
-0.99832, 357, 1, 388, 16
-0.998321, 129, 227, 160, 242
-0.998321, 437, 43, 468, 58
-0.998321, 397, 253, 428, 268
-0.998321, 385, 219, 416, 234
-0.998322, 401, 155, 432, 170
-0.998322, 289, 265, 320, 280
-0.998323, 457, 15, 488, 30
-0.998323, 349, 31, 380, 46
-0.998323, 393, 239, 424, 254
-0.998323, 277, 85, 308, 100
-0.998324, 293, 127, 324, 142
-0.998324, 265, 145, 296, 160
-0.998324, 233, 119, 264, 134
-0.998327, 281, 69, 312, 84
-0.998327, 349, 85, 380, 100
-0.998328, 337, 13, 368, 28
-0.99833, 221, 117, 252, 132
-0.99833, 265, 125, 296, 140
-0.99833, 349, 37, 380, 52
-0.998331, 453, 21, 484, 36
-0.998331, 333, 71, 364, 86
-0.998332, 393, 163, 424, 178
-0.998332, 249, 255, 280, 270
-0.998332, 405, 113, 436, 128
-0.998333, 297, 83, 328, 98
-0.998333, 125, 233, 156, 248
-0.998334, 241, 277, 272, 292
-0.998335, 305, 261, 336, 276
-0.998336, 389, 283, 420, 298
-0.998336, 437, 63, 468, 78
-0.998337, 257, 245, 288, 260
-0.998338, 289, 279, 320, 294
-0.998338, 261, 291, 292, 306
-0.998338, 241, 295, 272, 310
-0.998338, 277, 149, 308, 164
-0.998339, 145, 65, 176, 320
-0.99834, 377, 201, 408, 216
-0.998341, 145, 205, 176, 220
-0.998341, 391, 185, 406, 216
-0.998343, 401, 195, 432, 210
-0.998345, 389, 149, 420, 164
-0.998348, 337, 19, 368, 34
-0.998349, 405, 123, 436, 138
-0.998349, 413, 261, 444, 276
-0.99835, 405, 189, 436, 204
-0.998351, 449, 51, 480, 66
-0.998352, 441, 115, 472, 130
-0.998352, 261, 131, 292, 146
-0.998353, 287, 237, 302, 268
-0.998353, 165, 195, 196, 210
-0.998354, 321, 29, 352, 44
-0.998355, 297, 63, 328, 78
-0.998355, 109, 41, 124, 72
-0.998356, 469, 7, 500, 22
-0.998357, 337, 7, 368, 22
-0.998357, 425, 117, 456, 132
-0.998359, 357, 73, 388, 88
-0.998359, 441, 35, 472, 50
-0.99836, 141, 211, 172, 226
-0.99836, 401, 193, 416, 224
-0.99836, 229, 125, 260, 140
-0.998362, 97, 39, 128, 54
-0.998364, 249, 131, 280, 146
-0.998365, 453, 31, 484, 46
-0.998365, 405, 215, 436, 230
-0.998365, 463, 9, 478, 40
-0.998365, 381, 209, 412, 224
-0.998366, 293, 135, 324, 150
-0.998368, 437, 13, 468, 28
-0.998369, 133, 221, 164, 236
-0.99837, 393, 259, 424, 274
-0.998371, 301, 249, 332, 264
-0.998372, 465, 1, 496, 16
-0.998374, 277, 49, 308, 64
-0.998378, 449, 45, 480, 60
-0.998378, 281, 139, 312, 154
-0.998379, 245, 289, 276, 304
-0.99838, 465, 91, 496, 106
-0.998381, 145, 53, 272, 84
-0.998381, 161, 69, 288, 100
-0.998382, 325, 17, 356, 32
-0.998383, 289, 247, 320, 262
-0.998383, 449, 57, 464, 88
-0.998384, 253, 261, 284, 276
-0.998384, 441, 3, 472, 18
-0.998385, 81, 113, 112, 240
-0.998388, 345, 79, 376, 94
-0.998388, 293, 137, 308, 168
-0.99839, 337, 31, 368, 46
-0.998391, 33, 241, 160, 272
-0.998392, 453, 37, 484, 52
-0.998392, 485, 285, 500, 316
-0.998396, 389, 277, 420, 292
-0.998396, 229, 277, 260, 292
-0.998397, 129, 33, 144, 64
-0.998397, 301, 243, 332, 258
-0.998397, 275, 237, 290, 268
-0.998398, 281, 285, 312, 300
-0.998398, 337, 1, 368, 16
-0.998399, 289, 57, 320, 72
-0.9984, 241, 281, 304, 296
-0.998401, 225, 205, 352, 236
-0.998402, 281, 239, 312, 254
-0.998404, 281, 129, 296, 160
-0.998405, 321, 23, 352, 38
-0.998406, 385, 191, 416, 206
-0.998409, 485, 297, 500, 328
-0.998409, 345, 73, 376, 88
-0.99841, 401, 149, 432, 164
-0.998413, 301, 237, 332, 252
-0.998414, 393, 269, 408, 300
-0.998414, 293, 277, 308, 308
-0.998417, 363, 1, 378, 32
-0.998418, 235, 265, 250, 296
-0.998419, 393, 271, 424, 286
-0.99842, 277, 131, 308, 146
-0.998425, 289, 253, 320, 268
-0.998425, 165, 193, 180, 224
-0.998425, 233, 263, 296, 278
-0.998429, 121, 65, 152, 192
-0.998431, 237, 263, 268, 278
-0.998431, 233, 271, 264, 286
-0.998432, 465, 57, 496, 72
-0.998434, 241, 275, 304, 290
-0.998434, 293, 141, 324, 156
-0.998435, 285, 45, 300, 76
-0.998437, 393, 265, 424, 280
-0.998438, 161, 129, 288, 160
-0.998438, 369, 229, 496, 260
-0.998441, 453, 3, 484, 18
-0.998447, 389, 199, 420, 214
-0.998447, 457, 9, 488, 24
-0.998448, 277, 245, 308, 260
-0.998449, 277, 113, 292, 144
-0.998449, 281, 257, 344, 272
-0.998454, 113, 41, 144, 56
-0.998455, 153, 199, 184, 214
-0.998456, 257, 257, 320, 272
-0.998457, 265, 251, 328, 266
-0.998457, 241, 301, 368, 332
-0.998457, 277, 267, 308, 282
-0.998459, 285, 259, 316, 274
-0.998459, 235, 113, 250, 144
-0.998463, 253, 271, 284, 286
-0.998471, 265, 279, 296, 294
-0.998474, 313, 65, 328, 96
-0.998475, 241, 287, 304, 302
-0.998476, 409, 205, 424, 236
-0.998476, 233, 257, 296, 272
-0.998479, 245, 283, 276, 298
-0.998482, 225, 269, 288, 284
-0.998483, 281, 233, 296, 264
-0.998487, 251, 261, 266, 292
-0.998489, 273, 263, 336, 278
-0.99849, 353, 69, 368, 100
-0.99849, 483, 9, 498, 40
-0.998493, 217, 279, 280, 294
-0.998497, 397, 181, 412, 212
-0.998499, 255, 293, 270, 324
-0.9985, 81, 185, 208, 216
-0.998505, 273, 269, 336, 284
-0.998505, 265, 285, 296, 300
-0.998508, 383, 209, 398, 240
-0.998508, 369, 137, 496, 168
-0.998513, 295, 249, 310, 280
-0.998514, 365, 85, 380, 116
-0.998515, 137, 201, 200, 216
-0.998515, 265, 263, 296, 278
-0.99852, 291, 69, 306, 100
-0.998521, 313, 29, 376, 44
-0.998526, 277, 273, 308, 288
-0.998532, 269, 265, 284, 296
-0.998532, 265, 281, 328, 296
-0.998534, 461, 41, 476, 72
-0.998534, 137, 207, 200, 222
-0.998535, 479, 57, 494, 88
-0.998535, 281, 245, 344, 260
-0.998535, 485, 273, 500, 304
-0.998537, 345, 73, 408, 88
-0.998538, 347, 61, 362, 92
-0.998538, 265, 273, 296, 288
-0.99854, 249, 269, 312, 284
-0.998543, 241, 251, 304, 266
-0.99855, 253, 277, 284, 292
-0.998551, 415, 257, 430, 288
-0.998554, 317, 245, 332, 276
-0.998554, 117, 35, 148, 50
-0.998555, 263, 269, 278, 300
-0.998556, 1, 57, 500, 120
-0.99856, 417, 117, 480, 132
-0.998562, 429, 1, 444, 32
-0.998565, 321, 15, 384, 30
-0.99857, 125, 241, 140, 272
-0.998571, 377, 199, 440, 214
-0.998575, 321, 7, 384, 22
-0.99858, 321, 77, 384, 92
-0.998581, 97, 293, 224, 324
-0.998581, 385, 263, 448, 278
-0.998581, 129, 215, 192, 230
-0.998582, 105, 39, 168, 54
-0.998582, 313, 23, 376, 38
-0.998582, 249, 131, 312, 146
-0.998582, 315, 233, 330, 264
-0.998582, 273, 275, 336, 290
-0.998587, 265, 257, 296, 272
-0.998587, 349, 17, 364, 48
-0.998594, 225, 1, 256, 256
-0.998594, 437, 1, 468, 256
-0.998595, 345, 79, 408, 94
-0.998595, 455, 45, 470, 76
-0.998597, 273, 141, 336, 156
-0.998598, 313, 35, 376, 50
-0.9986, 209, 263, 272, 278
-0.998601, 299, 237, 314, 268
-0.998601, 401, 11, 464, 26
-0.998606, 287, 149, 302, 180
-0.998607, 233, 293, 296, 308
-0.998608, 433, 9, 496, 24
-0.998609, 377, 269, 440, 284
-0.998609, 377, 121, 440, 136
-0.998609, 313, 71, 376, 86
-0.998609, 475, 37, 490, 68
-0.998609, 417, 3, 480, 18
-0.99861, 409, 71, 472, 86
-0.998612, 475, 21, 490, 52
-0.998612, 201, 285, 264, 300
-0.998613, 273, 287, 336, 302
-0.998613, 249, 137, 312, 152
-0.998613, 289, 85, 352, 100
-0.998614, 455, 113, 470, 144
-0.998614, 433, 57, 496, 72
-0.998617, 257, 91, 320, 106
-0.998618, 369, 209, 432, 224
-0.998618, 281, 63, 344, 78
-0.998619, 277, 279, 308, 294
-0.99862, 337, 1, 352, 32
-0.99862, 131, 253, 146, 284
-0.998621, 385, 151, 448, 166
-0.998621, 289, 251, 352, 266
-0.998622, 377, 217, 440, 232
-0.998622, 457, 21, 472, 52
-0.998622, 273, 239, 336, 254
-0.998625, 321, 83, 384, 98
-0.998626, 469, 81, 484, 112
-0.998627, 265, 57, 328, 72
-0.998627, 273, 293, 336, 308
-0.998628, 345, 67, 408, 82
-0.998629, 265, 147, 328, 162
-0.998631, 345, 11, 408, 26
-0.998631, 377, 193, 440, 208
-0.998631, 417, 123, 480, 138
-0.998632, 129, 221, 192, 236
-0.998632, 385, 257, 448, 272
-0.998633, 329, 1, 392, 16
-0.998633, 459, 77, 474, 108
-0.998634, 337, 21, 352, 52
-0.998635, 121, 229, 184, 244
-0.998636, 225, 111, 288, 126
-0.998637, 145, 195, 208, 210
-0.998639, 329, 89, 392, 104
-0.998639, 289, 91, 352, 106
-0.998639, 353, 41, 368, 72
-0.99864, 377, 275, 440, 290
-0.998641, 249, 293, 264, 324
-0.998641, 397, 169, 412, 200
-0.998641, 345, 33, 408, 48
-0.998642, 353, 5, 416, 20
-0.998642, 325, 17, 340, 48
-0.998644, 461, 53, 476, 84
-0.998644, 225, 125, 288, 140
-0.998644, 377, 113, 440, 128
-0.998645, 209, 293, 272, 308
-0.998645, 241, 45, 304, 60
-0.998646, 481, 89, 496, 120
-0.998646, 385, 127, 448, 142
-0.99865, 365, 73, 380, 104
-0.998651, 65, 97, 192, 128
-0.998651, 361, 85, 424, 100
-0.998652, 385, 185, 400, 216
-0.998652, 353, 27, 416, 42
-0.998653, 229, 269, 244, 300
-0.998653, 273, 131, 336, 146
-0.998654, 265, 85, 328, 100
-0.998654, 425, 19, 488, 34
-0.998655, 313, 41, 376, 56
-0.998655, 201, 273, 264, 288
-0.998656, 249, 245, 312, 260
-0.998656, 225, 119, 288, 134
-0.998656, 393, 5, 456, 20
-0.998657, 241, 63, 304, 78
-0.998657, 257, 97, 320, 112
-0.998658, 345, 39, 408, 54
-0.998658, 193, 9, 256, 24
-0.998658, 385, 251, 448, 266
-0.998658, 121, 235, 184, 250
-0.998659, 419, 117, 434, 148
-0.998659, 361, 91, 424, 106
-0.998659, 249, 51, 312, 66
-0.99866, 241, 149, 304, 164
-0.99866, 369, 223, 432, 238
-0.998662, 265, 75, 328, 90
-0.998663, 353, 191, 416, 206
-0.998664, 305, 65, 368, 80
-0.998665, 185, 155, 248, 170
-0.998665, 433, 63, 496, 78
-0.998665, 427, 113, 442, 144
-0.998665, 305, 137, 320, 168
-0.998666, 225, 245, 288, 260
-0.998667, 385, 241, 448, 256
-0.998667, 361, 263, 424, 278
-0.998667, 425, 1, 456, 256
-0.998668, 273, 27, 336, 42
-0.998668, 293, 261, 308, 292
-0.998668, 385, 143, 448, 158
-0.998668, 369, 185, 432, 200
-0.998668, 65, 121, 192, 152
-0.998669, 305, 1, 368, 16
-0.998669, 273, 109, 336, 124
-0.998669, 345, 141, 408, 156
-0.998669, 201, 43, 264, 58
-0.998669, 289, 289, 304, 320
-0.998669, 417, 129, 480, 144
-0.998671, 225, 141, 288, 156
-0.998671, 233, 35, 296, 50
-0.998671, 393, 185, 456, 200
-0.998671, 193, 15, 256, 30
-0.998672, 385, 157, 448, 172
-0.998672, 409, 263, 472, 278
-0.998674, 217, 131, 280, 146
-0.998675, 353, 21, 416, 36
-0.998675, 193, 279, 256, 294
-0.998676, 217, 251, 280, 266
-0.998676, 377, 175, 440, 190
-0.998676, 273, 51, 336, 66
-0.998676, 285, 61, 300, 92
-0.998677, 121, 243, 184, 258
-0.998677, 377, 137, 440, 152
-0.998678, 249, 181, 312, 196
-0.998678, 417, 217, 432, 248
-0.99868, 269, 251, 300, 266
-0.998684, 221, 49, 252, 176
-0.998685, 225, 1, 240, 32
-0.998685, 125, 229, 140, 260
-0.998689, 355, 57, 370, 88
-0.998689, 407, 193, 422, 224
-0.998693, 157, 65, 188, 320
-0.998702, 113, 101, 240, 132
-0.998703, 163, 181, 178, 212
-0.998706, 447, 45, 462, 76
-0.998713, 275, 289, 290, 320
-0.998725, 271, 113, 286, 144
-0.998726, 377, 33, 408, 288
-0.998728, 461, 65, 476, 96
-0.99873, 467, 53, 482, 84
-0.998732, 177, 89, 304, 120
-0.998733, 161, 29, 288, 60
-0.998738, 149, 189, 164, 220
-0.998746, 463, 25, 478, 56
-0.998748, 435, 1, 450, 32
-0.998754, 49, 253, 176, 284
-0.998773, 1, 81, 500, 144
-0.998812, 201, 209, 232, 332
-0.998824, 133, 33, 164, 288
-0.998844, 85, 1, 116, 256
-0.998852, 463, 1, 478, 128
-0.998859, 113, 65, 240, 96
-0.998887, 469, 1, 484, 128
-0.998889, 265, 209, 280, 332
-0.998893, 33, 29, 160, 60
-0.998928, 121, 1, 152, 256
-0.998936, 485, 1, 500, 128
-0.998944, 137, 129, 168, 256
-0.998946, 275, 193, 290, 320
-0.998954, 147, 193, 162, 320
-0.998962, 407, 193, 422, 320
-0.998985, 135, 209, 150, 332
-0.998998, 457, 1, 472, 128
-0.999005, 475, 1, 490, 128
-0.999008, 347, 49, 362, 176
-0.999008, 97, 169, 224, 200
-0.999019, 329, 1, 344, 128
-0.999021, 17, 105, 144, 136
-0.999022, 33, 197, 160, 228
-0.999023, 141, 193, 156, 320
-0.999023, 485, 49, 500, 176
-0.999035, 17, 145, 144, 208
-0.999068, 285, 65, 300, 192
-0.999075, 65, 77, 192, 108
-0.999081, 343, 1, 358, 128
-0.999085, 213, 65, 244, 320
-0.999086, 351, 1, 366, 128
-0.999115, 407, 145, 422, 272
-0.999122, 113, 85, 240, 116
-0.999129, 305, 297, 432, 328
-0.99915, 413, 193, 428, 320
-0.999151, 81, 157, 208, 188
-0.999153, 455, 49, 470, 176
-0.999154, 457, 113, 488, 240
-0.999155, 81, 281, 208, 312
-0.999161, 163, 177, 178, 304
-0.999169, 129, 117, 256, 148
-0.999171, 449, 17, 464, 144
-0.999175, 113, 129, 144, 256
-0.99918, 49, 265, 176, 296
-0.999184, 281, 209, 296, 332
-0.999188, 415, 145, 430, 272
-0.999195, 401, 177, 416, 304
-0.999202, 353, 49, 368, 176
-0.999208, 293, 33, 308, 160
-0.999217, 359, 65, 374, 192
-0.99922, 41, 97, 104, 224
-0.999223, 279, 65, 294, 192
-0.999227, 259, 209, 274, 332
-0.999233, 1, 153, 256, 216
-0.999237, 479, 49, 494, 176
-0.99924, 157, 177, 172, 304
-0.999244, 197, 97, 228, 224
-0.999246, 169, 1, 200, 128
-0.999247, 401, 129, 416, 256
-0.999251, 323, 1, 338, 128
-0.999257, 283, 17, 298, 144
-0.999263, 287, 177, 302, 304
-0.999267, 169, 177, 184, 304
-0.99927, 341, 49, 356, 176
-0.999288, 273, 65, 288, 192
-0.999291, 129, 209, 144, 332
-0.999299, 121, 17, 136, 144
-0.999312, 277, 113, 292, 240
-0.999338, 111, 33, 126, 160
-0.999343, 337, 1, 352, 128
-0.999343, 315, 33, 330, 160
-0.999356, 135, 161, 150, 288
-0.999358, 283, 129, 298, 256
-0.999364, 335, 49, 350, 176
-0.999371, 253, 209, 268, 332
-0.999372, 407, 81, 422, 208
-0.999373, 443, 1, 458, 128
-0.999378, 277, 17, 292, 144
-0.999379, 301, 33, 316, 160
-0.999381, 169, 33, 200, 288
-0.999386, 17, 233, 144, 296
-0.999394, 417, 97, 432, 224
-0.999395, 473, 49, 488, 176
-0.9994, 389, 161, 404, 288
-0.999405, 149, 145, 164, 272
-0.999406, 149, 1, 180, 128
-0.999407, 289, 129, 304, 256
-0.999409, 49, 297, 176, 328
-0.99941, 419, 193, 434, 320
-0.999412, 357, 1, 372, 128
-0.999416, 467, 65, 482, 192
-0.999417, 465, 209, 496, 332
-0.999423, 397, 1, 412, 128
-0.999424, 293, 209, 308, 332
-0.999427, 305, 161, 320, 288
-0.99943, 105, 33, 120, 160
-0.999431, 307, 33, 322, 160
-0.999432, 329, 49, 344, 176
-0.999435, 365, 81, 380, 208
-0.999442, 413, 1, 428, 128
-0.999443, 305, 81, 320, 208
-0.999445, 201, 1, 232, 256
-0.999453, 217, 1, 232, 128
-0.999458, 17, 117, 144, 148
-0.999477, 243, 33, 258, 160
-0.999479, 403, 1, 418, 128
-0.99948, 435, 1, 450, 128
-0.999483, 267, 65, 282, 192
-0.999484, 295, 161, 310, 288
-0.999484, 395, 177, 410, 304
-0.999485, 233, 97, 248, 224
-0.999488, 363, 1, 378, 128
-0.999491, 225, 81, 240, 208
-0.999491, 429, 113, 444, 240
-0.9995, 129, 1, 144, 128
-0.999501, 461, 65, 476, 192
-0.999505, 345, 69, 360, 84
-0.999505, 485, 283, 500, 298
-0.999506, 255, 287, 270, 302
-0.999506, 419, 121, 434, 136
-0.999507, 307, 141, 322, 156
-0.999507, 475, 55, 490, 70
-0.999507, 291, 81, 306, 208
-0.999507, 293, 49, 308, 64
-0.999507, 281, 149, 296, 164
-0.999507, 315, 245, 330, 260
-0.999508, 301, 247, 316, 262
-0.999508, 139, 211, 154, 226
-0.999508, 483, 307, 498, 322
-0.999509, 247, 295, 262, 310
-0.99951, 469, 37, 484, 52
-0.99951, 295, 139, 310, 154
-0.999511, 429, 1, 444, 16
-0.999511, 485, 289, 500, 304
-0.999511, 463, 9, 478, 24
-0.999512, 481, 313, 496, 328
-0.999512, 485, 275, 500, 290
-0.999512, 341, 31, 356, 46
-0.999512, 271, 289, 286, 304
-0.999513, 107, 43, 122, 58
-0.999513, 317, 257, 332, 272
-0.999513, 283, 143, 298, 158
-0.999513, 267, 127, 282, 142
-0.999513, 469, 47, 484, 62
-0.999514, 265, 269, 280, 284
-0.999514, 455, 53, 470, 68
-0.999515, 263, 251, 278, 266
-0.999515, 415, 261, 430, 276
-0.999515, 303, 59, 318, 74
-0.999516, 181, 167, 196, 182
-0.999516, 347, 41, 362, 56
-0.999516, 229, 273, 244, 288
-0.999517, 247, 97, 262, 224
-0.999517, 411, 233, 426, 248
-0.999517, 243, 289, 258, 304
-0.999518, 361, 85, 376, 100
-0.999518, 453, 41, 468, 56
-0.999518, 177, 177, 192, 304
-0.999519, 419, 1, 434, 128
-0.999519, 167, 197, 182, 212
-0.999519, 295, 283, 310, 298
-0.99952, 317, 251, 332, 266
-0.99952, 365, 1, 380, 16
-0.999521, 315, 81, 330, 208
-0.999522, 211, 1, 226, 128
-0.999523, 235, 119, 250, 134
-0.999525, 315, 237, 330, 252
-0.999525, 297, 55, 312, 70
-0.999527, 199, 1, 214, 128
-0.999529, 443, 49, 458, 176
-0.999529, 393, 277, 408, 292
-0.999529, 119, 41, 134, 56
-0.999529, 455, 115, 470, 130
-0.99953, 409, 215, 424, 230
-0.99953, 321, 81, 336, 208
-0.99953, 277, 263, 292, 278
-0.999532, 405, 239, 420, 254
-0.999532, 281, 243, 296, 258
-0.999532, 353, 41, 368, 56
-0.999532, 391, 191, 406, 206
-0.999533, 429, 1, 444, 128
-0.999534, 471, 9, 486, 24
-0.999534, 351, 75, 366, 90
-0.999535, 257, 293, 272, 308
-0.999535, 235, 267, 250, 282
-0.999536, 469, 55, 484, 70
-0.999537, 255, 273, 270, 288
-0.999538, 383, 193, 398, 320
-0.999538, 329, 19, 344, 34
-0.999539, 397, 167, 412, 182
-0.999539, 129, 227, 144, 242
-0.99954, 265, 287, 280, 302
-0.999542, 259, 267, 274, 282
-0.999543, 451, 59, 466, 74
-0.999543, 277, 287, 292, 302
-0.999545, 237, 17, 252, 144
-0.999545, 287, 131, 302, 146
-0.999546, 293, 247, 308, 262
-0.999547, 425, 117, 440, 132
-0.999547, 397, 199, 412, 214
-0.999548, 485, 297, 500, 312
-0.999548, 481, 57, 496, 72
-0.999548, 269, 161, 284, 288
-0.999549, 457, 1, 472, 16
-0.999549, 381, 215, 396, 230
-0.999549, 113, 45, 128, 60
-0.99955, 383, 209, 398, 224
-0.99955, 289, 263, 304, 278
-0.99955, 241, 263, 256, 278
-0.999552, 287, 149, 302, 164
-0.999555, 265, 281, 280, 296
-0.999556, 269, 261, 284, 276
-0.999556, 453, 35, 468, 50
-0.999557, 261, 275, 276, 290
-0.999558, 257, 259, 272, 274
-0.999558, 437, 49, 452, 176
-0.999558, 401, 193, 416, 208
-0.999558, 391, 199, 406, 214
-0.99956, 141, 145, 156, 272
-0.99956, 425, 65, 440, 192
-0.999561, 333, 13, 348, 28
-0.999561, 99, 1, 114, 128
-0.999562, 341, 19, 356, 34
-0.999564, 269, 249, 284, 264
-0.999564, 421, 145, 436, 272
-0.999566, 477, 7, 492, 22
-0.999566, 129, 233, 144, 248
-0.999566, 357, 79, 372, 94
-0.999567, 351, 31, 366, 46
-0.999567, 271, 113, 286, 240
-0.999569, 297, 113, 312, 240
-0.999571, 287, 273, 302, 288
-0.999571, 385, 201, 400, 216
-0.999572, 247, 209, 262, 332
-0.999574, 159, 129, 174, 256
-0.999575, 135, 223, 150, 238
-0.999575, 275, 245, 290, 260
-0.999581, 131, 35, 146, 50
-0.999582, 485, 63, 500, 78
-0.999582, 263, 259, 278, 274
-0.999585, 465, 1, 480, 16
-0.999586, 291, 257, 306, 272
-0.999588, 405, 149, 420, 164
-0.99959, 169, 129, 184, 256
-0.999592, 283, 259, 298, 274
-0.999593, 253, 97, 268, 224
-0.999593, 249, 285, 264, 300
-0.999593, 139, 217, 154, 232
-0.999594, 151, 203, 166, 218
-0.999598, 239, 81, 254, 208
-0.999599, 287, 251, 302, 266
-0.999602, 145, 207, 160, 222
-0.999602, 161, 197, 176, 212
-0.999605, 237, 177, 252, 304
-0.999606, 251, 279, 266, 294
-0.999607, 113, 39, 128, 54
-0.999607, 295, 241, 310, 256
-0.999608, 261, 65, 276, 192
-0.999608, 135, 17, 150, 144
-0.999608, 371, 81, 386, 208
-0.999613, 125, 35, 140, 50
-0.999614, 269, 275, 284, 290
-0.999614, 125, 161, 140, 288
-0.999615, 107, 81, 122, 208
-0.999615, 457, 7, 472, 22
-0.999619, 315, 209, 330, 332
-0.999619, 311, 145, 326, 272
-0.999619, 49, 33, 112, 288
-0.999619, 283, 265, 298, 280
-0.999624, 275, 269, 290, 284
-0.999625, 325, 209, 340, 332
-0.999627, 99, 49, 114, 176
-0.999628, 357, 71, 372, 86
-0.999629, 249, 33, 264, 160
-0.999632, 389, 209, 404, 332
-0.999632, 353, 97, 368, 224
-0.999633, 433, 209, 464, 332
-0.999634, 271, 283, 286, 298
-0.999634, 413, 49, 428, 176
-0.999636, 87, 49, 102, 176
-0.999637, 289, 279, 304, 294
-0.999637, 231, 1, 246, 128
-0.999638, 383, 145, 398, 272
-0.999644, 281, 249, 296, 264
-0.999644, 269, 255, 284, 270
-0.999649, 119, 35, 134, 50
-0.99965, 271, 17, 286, 144
-0.999654, 205, 1, 220, 128
-0.999654, 395, 97, 410, 224
-0.999663, 419, 49, 434, 176
-0.999668, 329, 97, 344, 224
-0.999673, 275, 251, 290, 266
-0.999687, 281, 281, 296, 296
-0.999702, 281, 271, 296, 286
-0.999734, 275, 277, 290, 292
-0.999882, 189, 1, 220, 256
-0.999928, 1, 1, 500, 64
-0.999934, 73, 65, 104, 192
-0.999972, 369, 145, 400, 272
-1.00006, 17, 185, 144, 248
-1.00018, 73, 33, 104, 288
-1.00022, 469, 97, 500, 224
-1.00022, 1, 129, 256, 192
-1.00066, 33, 1, 96, 332
-1.00074, 193, 145, 224, 272
-1.0008, 437, 129, 468, 256
-1.00105, 361, 193, 392, 320
-1.00116, 61, 1, 92, 256
-1.00137, 345, 145, 376, 272
-1.00141, 69, 113, 100, 240
-1.00157, 1, 65, 32, 320
-1.00158, 17, 65, 48, 320
-1.00159, 445, 193, 476, 320
-1.00161, 33, 1, 64, 256
-1.00165, 17, 209, 144, 332
-1.00168, 45, 65, 76, 320
-1.00219, 17, 265, 144, 328
-1.00223, 137, 81, 168, 208
-1.00224, 325, 161, 356, 288
-1.00241, 1, 1, 64, 332
-1.00251, 209, 129, 240, 256
-1.00258, 93, 161, 124, 288
-1.00444, 73, 1, 104, 128
-1.00468, 61, 65, 92, 192
-1.00497, 81, 161, 112, 288
-1.00541, 33, 49, 96, 176
-1.00571, 457, 161, 488, 288
-1.00655, 61, 17, 92, 144
-1.00739, 469, 145, 500, 272
-1.0074, 81, 209, 112, 332
-1.00755, 69, 161, 100, 288
-1.00776, 33, 1, 96, 128
-1.00779, 337, 193, 368, 320
-1.00795, 25, 33, 88, 288
-1.00852, 1, 1, 64, 256
-1.00865, 425, 161, 488, 288
-1.009, 41, 145, 104, 272
-1.01179, 57, 193, 120, 320
-1.01387, 9, 33, 72, 160
-1.014, 17, 97, 80, 224
-1.01403, 33, 209, 96, 332
-1.01458, 9, 209, 72, 332
-1.01478, 17, 161, 80, 288
