1968
-0.378662, 1, 1, 500, 364
-0.492601, 225, 1, 480, 364
-0.522702, 97, 1, 352, 364
-0.527007, 1, 65, 500, 320
-0.621047, 1, 1, 256, 364
-0.641806, 129, 97, 384, 352
-0.690277, 193, 1, 448, 256
-0.731655, 1, 97, 256, 352
-0.734137, 257, 97, 500, 352
-0.808117, 97, 1, 352, 256
-0.848966, 1, 1, 256, 256
-0.854745, 193, 1, 320, 364
-0.861099, 177, 97, 304, 352
-0.864682, 1, 241, 500, 364
-0.866567, 273, 1, 400, 364
-0.879132, 225, 97, 352, 352
-0.882391, 161, 241, 416, 364
-0.888047, 81, 97, 208, 352
-0.88928, 145, 1, 272, 364
-0.89012, 129, 97, 256, 352
-0.890782, 257, 1, 384, 256
-0.891049, 321, 1, 448, 364
-0.891839, 97, 1, 224, 364
-0.895356, 33, 1, 160, 364
-0.897736, 1, 193, 500, 320
-0.90043, 129, 193, 384, 320
-0.903605, 305, 65, 432, 320
-0.903702, 193, 1, 320, 256
-0.904178, 1, 241, 256, 364
-0.908594, 129, 1, 256, 256
-0.909965, 193, 225, 320, 352
-0.910095, 169, 241, 232, 364
-0.917192, 241, 225, 368, 352
-0.917774, 145, 225, 272, 352
-0.917822, 1, 1, 500, 128
-0.917857, 369, 1, 496, 364
-0.918079, 1, 145, 500, 272
-0.918659, 273, 241, 336, 364
-0.921515, 257, 193, 500, 320
-0.921533, 257, 241, 500, 364
-0.924042, 81, 1, 208, 256
-0.924624, 289, 193, 352, 320
-0.925417, 249, 209, 312, 336
-0.925942, 97, 241, 224, 364
-0.926216, 353, 1, 480, 256
-0.9268, 145, 225, 208, 352
-0.927005, 209, 225, 272, 352
-0.929251, 353, 97, 480, 352
-0.930663, 129, 145, 384, 272
-0.931, 225, 1, 480, 128
-0.93214, 241, 177, 368, 304
-0.932557, 33, 193, 288, 320
-0.933676, 289, 193, 416, 320
-0.937218, 297, 241, 360, 364
-0.937873, 169, 257, 232, 320
-0.937913, 313, 193, 376, 320
-0.937922, 145, 241, 208, 304
-0.938829, 169, 289, 232, 352
-0.939897, 1, 241, 128, 364
-0.940542, 273, 145, 336, 272
-0.941104, 121, 241, 184, 364
-0.941321, 169, 177, 232, 304
-0.941358, 289, 241, 416, 364
-0.942023, 273, 201, 336, 264
-0.942322, 1, 97, 128, 352
-0.942606, 49, 225, 176, 352
-0.943826, 225, 49, 480, 176
-0.944334, 129, 81, 384, 208
-0.944531, 33, 1, 160, 256
-0.944556, 129, 177, 256, 304
-0.944588, 241, 217, 304, 280
-0.944788, 193, 177, 320, 304
-0.944851, 281, 289, 344, 352
-0.945156, 1, 97, 500, 224
-0.945281, 145, 265, 208, 328
-0.945315, 257, 145, 500, 272
-0.945827, 97, 1, 352, 128
-0.946536, 209, 129, 336, 256
-0.946611, 209, 225, 272, 288
-0.946668, 89, 241, 152, 364
-0.946682, 297, 201, 360, 264
-0.946805, 281, 233, 344, 296
-0.947373, 169, 217, 232, 280
-0.947917, 273, 1, 400, 128
-0.948112, 193, 289, 256, 352
-0.949143, 145, 129, 208, 256
-0.949757, 129, 177, 192, 304
-0.950137, 241, 305, 304, 364
-0.950453, 233, 185, 296, 248
-0.950886, 289, 265, 352, 328
-0.951288, 329, 185, 392, 248
-0.95145, 193, 177, 256, 304
-0.951847, 193, 265, 256, 328
-0.952927, 169, 81, 232, 208
-0.952945, 305, 289, 368, 352
-0.953004, 249, 161, 312, 288
-0.953228, 161, 129, 288, 256
-0.953709, 217, 297, 280, 360
-0.953713, 321, 1, 384, 128
-0.953746, 145, 81, 272, 208
-0.953864, 257, 129, 384, 256
-0.953944, 169, 129, 232, 256
-0.95402, 145, 305, 208, 364
-0.954216, 297, 1, 360, 64
-0.954877, 217, 97, 280, 224
-0.955499, 33, 145, 288, 272
-0.955812, 193, 129, 256, 256
-0.955841, 81, 177, 208, 304
-0.95616, 297, 145, 360, 272
-0.956384, 65, 241, 128, 364
-0.956408, 121, 249, 184, 312
-0.957038, 209, 65, 336, 192
-0.95724, 321, 241, 384, 364
-0.957426, 197, 241, 228, 364
-0.957685, 1, 49, 500, 176
-0.957711, 193, 65, 256, 192
-0.958047, 417, 169, 480, 232
-0.958472, 265, 177, 328, 240
-0.959135, 313, 225, 376, 288
-0.959861, 305, 177, 368, 240
-0.96034, 281, 17, 344, 144
-0.960443, 353, 161, 480, 288
-0.960568, 241, 249, 304, 312
-0.96101, 41, 225, 104, 352
-0.96107, 217, 161, 280, 288
-0.961094, 105, 193, 168, 320
-0.961248, 113, 129, 240, 256
-0.961345, 401, 305, 464, 364
-0.961423, 361, 305, 424, 364
-0.961457, 197, 257, 228, 320
-0.961539, 257, 281, 320, 344
-0.961593, 233, 49, 296, 176
-0.961765, 185, 185, 248, 248
-0.962046, 225, 1, 352, 128
-0.962442, 257, 81, 320, 208
-0.962459, 153, 153, 216, 216
-0.96249, 337, 17, 400, 80
-0.962666, 65, 249, 128, 312
-0.962949, 433, 281, 496, 344
-0.963039, 209, 217, 336, 280
-0.963226, 9, 241, 72, 364
-0.963312, 193, 129, 256, 192
-0.963516, 129, 185, 192, 248
-0.963613, 433, 161, 496, 288
-0.96362, 257, 97, 500, 224
-0.963666, 369, 1, 496, 128
-0.963806, 209, 185, 272, 248
-0.963942, 169, 121, 232, 184
-0.964251, 177, 225, 208, 352
-0.964396, 145, 289, 272, 352
-0.964586, 97, 257, 160, 320
-0.964601, 273, 1, 336, 64
-0.964616, 321, 1, 448, 128
-0.964714, 433, 241, 496, 364
-0.964768, 97, 1, 160, 64
-0.965071, 301, 201, 332, 264
-0.965149, 161, 225, 288, 288
-0.965155, 257, 153, 320, 216
-0.965267, 329, 145, 392, 272
-0.965537, 433, 1, 496, 128
-0.965826, 177, 153, 240, 216
-0.965856, 301, 241, 332, 364
-0.9659, 305, 145, 432, 272
-0.965904, 377, 1, 440, 128
-0.965918, 337, 305, 400, 364
-0.965944, 289, 289, 320, 352
-0.966089, 433, 193, 496, 256
-0.966163, 313, 193, 344, 320
-0.966223, 337, 193, 400, 320
-0.966395, 289, 225, 320, 288
-0.966447, 193, 73, 256, 136
-0.966447, 209, 297, 336, 360
-0.966505, 121, 289, 184, 352
-0.966677, 285, 241, 316, 364
-0.96676, 173, 241, 204, 304
-0.967079, 345, 1, 408, 128
-0.967231, 301, 289, 332, 352
-0.967269, 433, 305, 496, 364
-0.967444, 185, 97, 248, 352
-0.96745, 353, 241, 480, 364
-0.967492, 285, 201, 316, 264
-0.967696, 257, 297, 384, 360
-0.967751, 33, 81, 288, 208
-0.967771, 317, 241, 348, 364
-0.967803, 1, 1, 256, 128
-0.967811, 297, 193, 328, 320
-0.967971, 137, 1, 200, 64
-0.96821, 193, 289, 224, 352
-0.968276, 209, 297, 240, 360
-0.968335, 129, 265, 256, 328
-0.968342, 137, 129, 200, 192
-0.968602, 313, 241, 344, 304
-0.968642, 193, 249, 320, 312
-0.968682, 233, 65, 296, 128
-0.96872, 9, 297, 72, 360
-0.968778, 177, 1, 304, 128
-0.968854, 217, 265, 280, 328
-0.969088, 273, 241, 304, 364
-0.9691, 317, 201, 348, 264
-0.96928, 145, 217, 208, 280
-0.969431, 273, 185, 400, 248
-0.96953, 265, 257, 328, 320
-0.969552, 217, 209, 248, 272
-0.969563, 201, 153, 264, 216
-0.969839, 157, 241, 188, 304
-0.969871, 313, 289, 344, 352
-0.969874, 321, 185, 448, 248
-0.970204, 173, 265, 204, 328
-0.970271, 173, 217, 204, 280
-0.970347, 301, 241, 332, 304
-0.970547, 241, 241, 368, 304
-0.970569, 73, 1, 136, 64
-0.970679, 265, 193, 296, 320
-0.970756, 369, 9, 432, 72
-0.970774, 409, 161, 472, 288
-0.970881, 1, 177, 64, 240
-0.970944, 385, 185, 448, 248
-0.971025, 285, 193, 316, 320
-0.971044, 221, 209, 252, 336
-0.971099, 233, 153, 296, 216
-0.971108, 165, 289, 196, 352
-0.971131, 353, 185, 416, 248
-0.971201, 193, 177, 320, 240
-0.971214, 17, 257, 80, 320
-0.971248, 289, 265, 320, 328
-0.971346, 401, 281, 464, 344
-0.971427, 249, 1, 312, 64
-0.971498, 269, 305, 300, 364
-0.9715, 345, 241, 408, 364
-0.971735, 161, 241, 192, 364
-0.971761, 193, 273, 320, 336
-0.971802, 113, 1, 240, 128
-0.971837, 297, 25, 360, 88
-0.971844, 273, 97, 336, 352
-0.971943, 305, 1, 336, 64
-0.972171, 273, 209, 400, 272
-0.972193, 249, 1, 312, 128
-0.972228, 361, 281, 424, 344
-0.972376, 209, 241, 240, 364
-0.972379, 369, 241, 432, 364
-0.97238, 329, 201, 360, 264
-0.972397, 313, 265, 376, 328
-0.972405, 265, 185, 296, 248
-0.972444, 1, 193, 128, 320
-0.972489, 301, 265, 332, 328
-0.972724, 201, 129, 232, 192
-0.972797, 177, 297, 208, 360
-0.972803, 217, 121, 280, 184
-0.973045, 241, 265, 368, 328
-0.973076, 1, 1, 64, 64
-0.973089, 221, 297, 252, 360
-0.973114, 433, 113, 496, 240
-0.973148, 65, 129, 192, 256
-0.973326, 41, 241, 104, 304
-0.973343, 153, 289, 184, 352
-0.973355, 393, 241, 456, 364
-0.973362, 245, 241, 276, 364
-0.973403, 153, 265, 184, 328
-0.973424, 249, 65, 312, 320
-0.973427, 257, 305, 288, 364
-0.973455, 265, 129, 328, 192
-0.973487, 113, 233, 240, 296
-0.973503, 265, 209, 296, 272
-0.973557, 337, 281, 400, 344
-0.973573, 153, 185, 216, 248
-0.973772, 153, 1, 216, 128
-0.973904, 121, 241, 152, 364
-0.973921, 81, 193, 144, 320
-0.973943, 225, 97, 288, 352
-0.974227, 289, 49, 416, 176
-0.974383, 97, 289, 224, 352
-0.974523, 49, 249, 176, 312
-0.974537, 325, 1, 356, 64
-0.974638, 185, 257, 216, 320
-0.974664, 233, 305, 264, 364
-0.974767, 329, 241, 360, 364
-0.974892, 281, 153, 344, 216
-0.974978, 337, 177, 368, 240
-0.975041, 409, 1, 472, 128
-0.975112, 201, 97, 264, 160
-0.975209, 145, 241, 176, 364
-0.975257, 121, 225, 184, 288
-0.975291, 281, 177, 312, 240
-0.97538, 321, 305, 448, 364
-0.975456, 273, 1, 400, 64
-0.975458, 205, 129, 236, 256
-0.975732, 297, 97, 360, 352
-0.97589, 277, 225, 308, 288
-0.975893, 369, 113, 496, 240
-0.975895, 369, 305, 496, 364
-0.97607, 241, 185, 272, 248
-0.976169, 313, 265, 344, 328
-0.976198, 129, 153, 256, 216
-0.976346, 181, 81, 212, 208
-0.976421, 1, 249, 128, 312
-0.976428, 177, 1, 240, 256
-0.976453, 241, 65, 272, 192
-0.976491, 401, 305, 432, 364
-0.976496, 325, 297, 356, 360
-0.976675, 49, 1, 112, 64
-0.976676, 169, 89, 232, 152
-0.976717, 245, 297, 276, 360
-0.976779, 333, 193, 364, 320
-0.97681, 65, 1, 192, 128
-0.976813, 193, 1, 320, 64
-0.976823, 73, 225, 104, 352
-0.976841, 145, 185, 272, 248
-0.976847, 469, 185, 500, 248
-0.976924, 209, 153, 336, 216
-0.976965, 273, 25, 336, 88
-0.977043, 81, 193, 208, 256
-0.977128, 125, 249, 156, 312
-0.977162, 113, 153, 176, 216
-0.977173, 237, 129, 268, 256
-0.97719, 257, 97, 320, 160
-0.97724, 233, 89, 296, 152
-0.977274, 257, 161, 384, 224
-0.9773, 369, 177, 496, 240
-0.977321, 93, 241, 124, 364
-0.97741, 393, 17, 456, 80
-0.977427, 177, 1, 240, 64
-0.977446, 225, 1, 288, 128
-0.977453, 253, 193, 284, 320
-0.97747, 305, 145, 336, 272
-0.977556, 305, 49, 368, 176
-0.977624, 221, 81, 252, 208
-0.977627, 457, 169, 488, 232
-0.977661, 97, 233, 160, 296
-0.977754, 285, 145, 316, 272
-0.977812, 241, 65, 272, 128
-0.977859, 201, 1, 264, 64
-0.977868, 65, 225, 192, 288
-0.977953, 197, 177, 228, 304
-0.977954, 313, 1, 376, 256
-0.977973, 221, 89, 252, 152
-0.977977, 329, 161, 392, 224
-0.978002, 433, 145, 496, 208
-0.978017, 369, 17, 400, 80
-0.978051, 349, 185, 380, 248
-0.97808, 305, 281, 432, 344
-0.978085, 121, 113, 184, 240
-0.97811, 257, 241, 288, 364
-0.978126, 145, 241, 176, 304
-0.978135, 345, 1, 376, 64
-0.97814, 233, 241, 264, 364
-0.978159, 389, 305, 420, 364
-0.978242, 225, 153, 256, 216
-0.978279, 365, 305, 396, 364
-0.978307, 285, 1, 316, 64
-0.978335, 197, 233, 228, 296
-0.97836, 325, 225, 356, 288
-0.978604, 181, 121, 212, 184
-0.978648, 185, 17, 248, 144
-0.97866, 277, 281, 308, 344
-0.978718, 417, 1, 480, 64
-0.978899, 137, 1, 168, 64
-0.979035, 185, 225, 216, 288
-0.979051, 165, 193, 196, 320
-0.979187, 161, 97, 224, 352
-0.9792, 469, 161, 500, 224
-0.979243, 209, 273, 240, 336
-0.979253, 225, 185, 256, 248
-0.979305, 229, 217, 260, 280
-0.979415, 133, 193, 164, 320
-0.979481, 465, 281, 496, 344
-0.979502, 205, 81, 236, 208
-0.979599, 253, 153, 284, 216
-0.979631, 341, 305, 372, 364
-0.979679, 241, 129, 304, 192
-0.979724, 269, 73, 300, 136
-0.979736, 445, 305, 476, 364
-0.980013, 161, 129, 192, 256
-0.980015, 129, 121, 256, 184
-0.980037, 141, 297, 172, 360
-0.980051, 357, 17, 388, 80
-0.980188, 109, 1, 140, 64
-0.980232, 325, 1, 356, 128
-0.980238, 161, 217, 192, 280
-0.980298, 425, 297, 456, 360
-0.98039, 289, 1, 352, 256
-0.980436, 137, 105, 200, 168
-0.980474, 113, 1, 240, 64
-0.980475, 329, 25, 360, 88
-0.98048, 33, 297, 96, 360
-0.980586, 185, 73, 216, 136
-0.980637, 73, 1, 136, 128
-0.980672, 349, 1, 380, 128
-0.980691, 369, 33, 432, 96
-0.980716, 225, 121, 352, 184
-0.980791, 133, 241, 164, 364
-0.98081, 73, 241, 104, 304
-0.980924, 281, 1, 312, 128
-0.980931, 145, 81, 208, 208
-0.980986, 369, 281, 496, 344
-0.981014, 161, 185, 192, 248
-0.98105, 241, 129, 272, 192
-0.981093, 253, 209, 284, 272
-0.98112, 17, 233, 80, 296
-0.981147, 181, 161, 212, 288
-0.981196, 1, 305, 128, 364
-0.981211, 325, 177, 356, 240
-0.981234, 321, 25, 448, 88
-0.981272, 413, 297, 444, 360
-0.981367, 441, 177, 472, 240
-0.981384, 353, 49, 480, 176
-0.981446, 165, 1, 196, 64
-0.981455, 257, 129, 288, 256
-0.981474, 321, 209, 448, 272
-0.981494, 225, 1, 288, 64
-0.981536, 325, 265, 356, 328
-0.981567, 465, 129, 496, 256
-0.981583, 165, 129, 196, 192
-0.981638, 85, 1, 116, 64
-0.981674, 209, 233, 240, 296
-0.981721, 261, 49, 292, 176
-0.98174, 85, 249, 116, 312
-0.981769, 61, 249, 92, 312
-0.981857, 345, 49, 408, 176
-0.981941, 177, 129, 304, 192
-0.981982, 449, 161, 480, 288
-0.982, 353, 161, 416, 224
-0.982001, 273, 1, 304, 64
-0.982069, 41, 265, 104, 328
-0.982072, 361, 193, 424, 320
-0.982095, 97, 1, 160, 128
-0.982137, 273, 49, 336, 112
-0.982202, 105, 177, 168, 240
-0.98228, 49, 1, 176, 64
-0.982285, 81, 81, 208, 208
-0.982314, 377, 305, 408, 364
-0.982378, 457, 305, 488, 364
-0.982519, 49, 297, 176, 360
-0.98253, 153, 193, 184, 320
-0.982533, 253, 185, 284, 248
-0.98254, 369, 9, 496, 72
-0.982565, 353, 305, 384, 364
-0.982619, 205, 153, 236, 216
-0.982634, 41, 169, 104, 232
-0.982663, 137, 97, 200, 352
-0.982669, 273, 145, 304, 272
-0.982673, 105, 25, 168, 88
-0.982716, 109, 225, 140, 352
-0.982766, 369, 1, 400, 128
-0.98277, 73, 225, 136, 288
-0.982802, 265, 145, 296, 208
-0.982849, 353, 145, 416, 272
-0.982868, 201, 185, 232, 248
-0.98296, 293, 177, 324, 240
-0.982961, 257, 1, 320, 364
-0.982985, 237, 153, 268, 216
-0.983083, 409, 201, 472, 264
-0.983116, 345, 25, 376, 88
-0.983207, 81, 145, 208, 208
-0.983336, 17, 297, 48, 360
-0.983372, 225, 129, 256, 256
-0.98341, 277, 249, 308, 312
-0.983411, 193, 81, 224, 208
-0.983427, 1, 193, 64, 320
-0.983446, 377, 49, 440, 176
-0.983446, 177, 89, 304, 152
-0.983497, 189, 145, 220, 208
-0.983522, 73, 185, 136, 248
-0.983538, 433, 97, 496, 352
-0.983578, 469, 177, 500, 304
-0.98358, 273, 25, 400, 88
-0.983603, 229, 65, 260, 128
-0.983603, 141, 121, 172, 184
-0.983615, 137, 41, 200, 104
-0.983626, 281, 97, 344, 224
-0.983651, 433, 1, 496, 256
-0.983678, 305, 153, 368, 216
-0.983728, 17, 169, 144, 232
-0.983864, 169, 153, 200, 216
-0.983868, 469, 305, 500, 364
-0.983869, 221, 129, 252, 192
-0.983907, 277, 129, 308, 192
-0.983922, 141, 265, 172, 328
-0.983955, 153, 1, 216, 256
-0.984076, 81, 25, 144, 88
-0.984144, 305, 97, 368, 224
-0.984152, 433, 33, 496, 96
-0.984202, 289, 257, 416, 320
-0.984213, 305, 97, 432, 224
-0.984407, 209, 65, 240, 128
-0.984421, 213, 185, 244, 248
-0.984428, 89, 25, 120, 88
-0.984471, 397, 17, 428, 80
-0.984497, 273, 65, 304, 192
-0.984524, 173, 193, 204, 256
-0.984535, 41, 217, 104, 280
-0.984543, 281, 25, 312, 88
-0.984555, 97, 297, 160, 360
-0.984624, 257, 65, 288, 128
-0.984656, 193, 49, 256, 112
-0.98466, 281, 1, 344, 364
-0.984679, 57, 297, 120, 360
-0.984687, 413, 17, 444, 80
-0.984707, 341, 281, 372, 344
-0.984729, 65, 169, 192, 232
-0.984793, 25, 1, 88, 64
-0.984802, 169, 65, 232, 128
-0.984843, 445, 281, 476, 344
-0.984876, 397, 1, 428, 128
-0.985084, 157, 153, 188, 216
-0.985092, 313, 177, 344, 240
-0.985175, 289, 233, 416, 296
-0.985211, 345, 209, 408, 272
-0.985231, 209, 193, 240, 320
-0.985291, 201, 89, 232, 152
-0.985325, 149, 193, 180, 256
-0.985376, 429, 169, 460, 232
-0.985387, 337, 225, 368, 288
-0.985415, 365, 281, 396, 344
-0.98542, 269, 49, 300, 112
-0.985433, 409, 113, 472, 240
-0.985438, 121, 1, 184, 128
-0.985539, 393, 161, 456, 224
-0.985566, 317, 145, 348, 272
-0.985583, 17, 145, 144, 272
-0.985669, 385, 129, 448, 256
-0.985708, 121, 193, 152, 320
-0.985819, 265, 73, 328, 136
-0.985847, 329, 145, 360, 272
-0.985871, 241, 49, 368, 112
-0.985881, 41, 177, 104, 304
-0.985944, 401, 49, 464, 176
-0.986021, 233, 1, 296, 364
-0.986057, 305, 161, 432, 224
-0.986141, 337, 1, 400, 256
-0.98615, 201, 1, 264, 256
-0.98623, 1, 281, 128, 344
-0.986285, 81, 145, 144, 272
-0.986289, 321, 1, 448, 64
-0.986301, 233, 193, 264, 320
-0.986323, 349, 193, 380, 320
-0.986405, 129, 225, 384, 288
-0.986552, 165, 81, 196, 208
-0.986604, 49, 273, 176, 336
-0.986608, 161, 57, 288, 120
-0.986616, 261, 1, 292, 128
-0.986719, 113, 121, 176, 184
-0.986768, 13, 241, 44, 364
-0.986818, 413, 1, 444, 128
-0.986868, 337, 41, 400, 104
-0.986978, 433, 49, 496, 176
-0.987024, 289, 49, 320, 176
-0.987037, 225, 41, 288, 104
-0.987146, 153, 245, 216, 276
-0.987161, 353, 153, 480, 216
-0.987196, 329, 97, 392, 352
-0.987224, 313, 1, 376, 364
-0.987231, 401, 1, 464, 256
-0.987232, 129, 297, 384, 360
-0.987288, 169, 289, 232, 320
-0.987301, 169, 261, 232, 292
-0.987408, 1, 153, 64, 216
-0.987456, 377, 209, 440, 272
-0.987471, 181, 1, 212, 128
-0.987489, 409, 41, 472, 104
-0.987497, 401, 1, 464, 364
-0.987501, 177, 1, 240, 364
-0.987647, 17, 1, 144, 128
-0.987678, 113, 1, 176, 256
-0.987679, 381, 1, 412, 128
-0.987713, 1, 257, 256, 320
-0.98773, 345, 241, 376, 364
-0.9878, 433, 177, 496, 208
-0.987813, 437, 161, 468, 288
-0.987817, 57, 25, 120, 88
-0.987879, 145, 145, 176, 272
-0.98789, 33, 193, 160, 256
-0.987906, 81, 121, 208, 184
-0.988001, 289, 241, 352, 272
-0.988018, 249, 217, 312, 248
-0.988019, 153, 1, 216, 364
-0.988072, 121, 249, 184, 280
-0.988078, 369, 241, 400, 364
-0.988085, 281, 285, 344, 316
-0.98811, 385, 241, 416, 364
-0.988178, 169, 273, 232, 304
-0.988191, 405, 241, 436, 364
-0.988248, 193, 129, 224, 256
-0.988256, 145, 257, 208, 288
-0.988294, 1, 1, 128, 64
-0.988357, 273, 229, 336, 260
-0.988375, 193, 285, 256, 316
-0.988438, 153, 125, 216, 156
-0.988487, 169, 217, 232, 248
-0.988498, 377, 1, 440, 364
-0.988541, 273, 205, 336, 236
-0.988547, 193, 185, 448, 248
-0.988569, 97, 257, 352, 320
-0.988578, 209, 221, 272, 252
-0.988589, 61, 241, 92, 364
-0.98864, 305, 1, 336, 128
-0.988672, 145, 289, 208, 320
-0.98868, 433, 257, 496, 320
-0.988733, 369, 1, 432, 256
-0.98874, 249, 25, 312, 88
-0.988764, 241, 305, 304, 336
-0.988805, 281, 261, 344, 292
-0.988877, 369, 201, 496, 264
-0.988884, 385, 57, 448, 120
-0.9889, 281, 301, 344, 332
-0.988936, 297, 205, 360, 236
-0.988962, 209, 305, 272, 336
-0.988969, 257, 137, 320, 168
-0.989, 193, 257, 256, 288
-0.989034, 345, 1, 408, 364
-0.989068, 225, 89, 352, 152
-0.989081, 169, 229, 232, 260
-0.989083, 193, 269, 256, 300
-0.989128, 433, 1, 464, 128
-0.989131, 97, 185, 352, 248
-0.989134, 293, 1, 324, 128
-0.989145, 417, 189, 480, 220
-0.989181, 241, 249, 304, 280
-0.989189, 209, 1, 272, 364
-0.989197, 145, 269, 208, 300
-0.989239, 49, 245, 112, 276
-0.989267, 177, 245, 240, 276
-0.989303, 225, 1, 288, 256
-0.989305, 337, 197, 400, 228
-0.989356, 85, 193, 116, 320
-0.989382, 73, 245, 136, 276
-0.989455, 265, 125, 328, 156
-0.989499, 33, 241, 64, 364
-0.98953, 185, 301, 248, 332
-0.98953, 377, 37, 440, 68
-0.989533, 249, 229, 312, 260
-0.989533, 145, 305, 208, 336
-0.989542, 305, 217, 368, 248
-0.989567, 201, 33, 232, 160
-0.989573, 193, 25, 320, 88
-0.989583, 201, 237, 264, 268
-0.989585, 161, 25, 224, 88
-0.989634, 281, 273, 344, 304
-0.989642, 385, 185, 448, 216
-0.989699, 305, 49, 432, 112
-0.989726, 297, 21, 360, 52
-0.989726, 177, 137, 240, 168
-0.98973, 433, 1, 496, 364
-0.989735, 281, 217, 344, 248
-0.989742, 137, 233, 200, 264
-0.989824, 281, 1, 344, 32
-0.989854, 97, 249, 160, 280
-0.989857, 33, 81, 160, 208
-0.989864, 337, 21, 400, 52
-0.989864, 273, 137, 400, 200
-0.989872, 305, 305, 368, 336
-0.989893, 265, 249, 328, 280
-0.989906, 81, 1, 144, 364
-0.989915, 177, 149, 240, 180
-0.989916, 417, 241, 448, 364
-0.98992, 369, 33, 496, 96
-0.989942, 137, 145, 200, 176
-0.989943, 209, 209, 272, 240
-0.989957, 321, 37, 384, 68
-0.989975, 465, 241, 496, 364
-0.989986, 81, 41, 208, 104
-0.990036, 257, 305, 500, 364
-0.99004, 49, 225, 80, 352
-0.990053, 337, 17, 368, 144
-0.990061, 233, 289, 296, 320
-0.990072, 437, 241, 468, 364
-0.99009, 353, 185, 416, 216
-0.990115, 257, 281, 500, 344
-0.990122, 113, 261, 176, 292
-0.99019, 289, 193, 352, 224
-0.990191, 305, 285, 368, 316
-0.990228, 33, 233, 288, 296
-0.990254, 137, 1, 200, 32
-0.990273, 25, 249, 88, 280
-0.990294, 433, 301, 496, 332
-0.990303, 305, 265, 368, 296
-0.990305, 177, 205, 240, 236
-0.990307, 297, 229, 360, 260
-0.990343, 329, 185, 392, 216
-0.990368, 257, 289, 320, 320
-0.990392, 337, 305, 400, 336
-0.990392, 1, 225, 128, 288
-0.990401, 137, 193, 200, 224
-0.990403, 377, 21, 440, 52
-0.990405, 1, 1, 64, 128
-0.990431, 433, 165, 496, 196
-0.990444, 177, 121, 240, 152
-0.990445, 89, 1, 152, 256
-0.990459, 409, 177, 472, 208
-0.990488, 121, 301, 184, 332
-0.990491, 133, 113, 164, 240
-0.9905, 257, 153, 320, 184
-0.990502, 225, 125, 288, 156
-0.990505, 305, 317, 368, 348
-0.99051, 57, 189, 120, 220
-0.990518, 121, 1, 184, 364
-0.99055, 357, 241, 388, 364
-0.990567, 233, 85, 296, 116
-0.990579, 233, 205, 296, 236
-0.990587, 369, 197, 432, 228
-0.990622, 377, 305, 440, 336
-0.990627, 361, 193, 392, 320
-0.990631, 105, 185, 168, 216
-0.990646, 257, 209, 500, 272
-0.990683, 1, 189, 64, 220
-0.990697, 225, 33, 256, 160
-0.990705, 161, 1, 224, 32
-0.990716, 193, 85, 256, 116
-0.99073, 169, 177, 232, 208
-0.990736, 137, 181, 200, 212
-0.990763, 33, 185, 96, 216
-0.990813, 129, 97, 256, 160
-0.99082, 9, 261, 72, 292
-0.990858, 257, 17, 320, 48
-0.990886, 353, 321, 416, 352
-0.990899, 241, 261, 304, 292
-0.990914, 81, 193, 144, 224
-0.990916, 233, 65, 296, 96
-0.990962, 49, 1, 112, 128
-0.990996, 153, 157, 216, 188
-0.991, 217, 137, 280, 168
-0.991001, 393, 197, 456, 228
-0.991019, 33, 289, 288, 352
-0.991019, 129, 317, 192, 348
-0.99102, 241, 277, 304, 308
-0.991022, 297, 41, 360, 72
-0.991026, 289, 177, 352, 208
-0.991069, 65, 257, 128, 288
-0.991073, 401, 321, 464, 352
-0.991086, 453, 113, 484, 240
-0.991099, 185, 321, 248, 352
-0.991105, 129, 129, 192, 160
-0.991122, 193, 161, 256, 192
-0.99113, 265, 189, 328, 220
-0.991134, 1, 145, 128, 208
-0.991145, 321, 229, 384, 260
-0.991155, 321, 9, 384, 40
-0.991169, 433, 201, 496, 232
-0.991182, 185, 69, 248, 100
-0.99119, 1, 249, 64, 280
-0.991191, 285, 97, 316, 224
-0.991197, 233, 1, 296, 32
-0.991198, 377, 321, 440, 352
-0.991291, 121, 13, 184, 44
-0.991309, 201, 1, 264, 32
-0.99131, 289, 129, 352, 160
-0.99132, 265, 317, 328, 348
-0.991321, 161, 325, 224, 356
-0.991338, 97, 1, 160, 32
-0.991341, 97, 33, 160, 64
-0.991348, 97, 13, 160, 44
-0.99135, 401, 305, 464, 336
-0.991354, 337, 49, 400, 80
-0.991355, 305, 253, 368, 284
-0.991359, 161, 1, 416, 64
-0.991366, 281, 141, 344, 172
-0.991367, 225, 317, 288, 348
-0.991371, 121, 285, 184, 316
-0.991463, 89, 1, 120, 128
-0.991684, 225, 229, 352, 260
-0.991698, 1, 177, 500, 240
-0.991721, 1, 297, 500, 360
-0.991733, 289, 113, 416, 176
-0.991813, 409, 97, 472, 352
-0.991878, 341, 145, 372, 272
-0.991886, 197, 261, 228, 292
-0.991931, 297, 229, 328, 260
-0.991955, 193, 257, 448, 320
-0.992015, 217, 217, 248, 248
-0.992022, 165, 233, 196, 264
-0.992025, 469, 169, 500, 200
-0.992037, 291, 289, 306, 352
-0.992048, 173, 245, 204, 276
-0.992063, 193, 249, 224, 280
-0.992111, 161, 245, 192, 276
-0.992116, 197, 289, 228, 320
-0.992146, 301, 285, 332, 316
-0.99216, 77, 17, 108, 144
-0.992161, 289, 289, 320, 320
-0.992169, 249, 305, 280, 336
-0.992171, 293, 241, 324, 272
-0.992178, 309, 261, 340, 292
-0.992179, 309, 229, 340, 260
-0.992208, 269, 305, 300, 336
-0.992224, 193, 273, 224, 304
-0.992226, 177, 285, 208, 316
-0.992245, 73, 245, 104, 276
-0.992253, 249, 1, 280, 128
-0.99226, 305, 305, 336, 336
-0.992272, 309, 249, 340, 280
-0.992282, 281, 205, 312, 236
-0.99229, 353, 145, 384, 272
-0.992318, 457, 173, 488, 204
-0.992321, 129, 161, 384, 224
-0.992331, 133, 249, 164, 280
-0.992332, 177, 209, 208, 240
-0.992333, 173, 261, 204, 292
-0.992347, 145, 97, 176, 224
-0.992351, 209, 301, 240, 332
-0.992356, 237, 305, 268, 336
-0.99236, 265, 209, 296, 240
-0.992375, 309, 205, 340, 236
-0.992375, 293, 273, 324, 304
-0.992377, 153, 257, 184, 288
-0.992378, 321, 261, 352, 292
-0.992383, 285, 229, 316, 260
-0.992389, 181, 121, 212, 152
-0.99239, 81, 249, 208, 280
-0.992409, 225, 249, 352, 280
-0.992416, 209, 217, 336, 248
-0.992422, 281, 305, 312, 336
-0.992422, 453, 185, 484, 216
-0.992423, 329, 217, 360, 248
-0.99243, 269, 73, 300, 104
-0.992433, 161, 269, 192, 300
-0.992435, 317, 305, 348, 336
-0.992438, 293, 305, 324, 336
-0.992463, 469, 185, 500, 216
-0.992465, 287, 201, 302, 264
-0.992471, 313, 285, 344, 316
-0.992474, 153, 233, 184, 264
-0.992479, 209, 285, 240, 316
-0.99249, 365, 25, 396, 56
-0.992491, 321, 249, 352, 280
-0.992492, 309, 273, 340, 304
-0.992493, 289, 217, 320, 248
-0.992494, 325, 17, 356, 48
-0.992494, 177, 273, 208, 304
-0.992494, 289, 253, 320, 284
-0.992498, 345, 37, 376, 68
-0.992501, 329, 205, 360, 236
-0.992503, 441, 177, 472, 208
-0.992509, 165, 289, 196, 320
-0.992534, 201, 145, 232, 176
-0.992544, 121, 249, 152, 280
-0.992551, 277, 129, 308, 160
-0.992571, 61, 249, 92, 280
-0.992578, 221, 301, 252, 332
-0.992591, 373, 37, 404, 68
-0.992591, 161, 145, 192, 176
-0.992594, 153, 285, 184, 316
-0.992601, 289, 141, 320, 172
-0.99261, 297, 201, 312, 264
-0.992615, 177, 305, 208, 336
-0.99262, 169, 221, 200, 252
-0.992621, 145, 245, 176, 276
-0.992626, 237, 81, 268, 112
-0.992628, 109, 1, 140, 128
-0.99263, 141, 121, 172, 152
-0.992631, 321, 201, 336, 264
-0.992634, 105, 245, 136, 276
-0.992636, 253, 133, 284, 164
-0.992644, 201, 133, 232, 164
-0.992646, 319, 289, 334, 352
-0.99265, 309, 201, 324, 264
-0.992653, 85, 245, 116, 276
-0.992654, 149, 305, 180, 336
-0.992665, 301, 217, 332, 248
-0.992675, 329, 305, 360, 336
-0.992682, 289, 121, 320, 152
-0.992684, 433, 189, 464, 220
-0.992687, 297, 205, 328, 236
-0.992701, 291, 225, 306, 288
-0.992706, 341, 197, 372, 228
-0.992711, 269, 141, 300, 172
-0.992714, 285, 21, 316, 52
-0.992714, 145, 145, 176, 176
-0.992715, 129, 241, 256, 272
-0.992721, 89, 37, 120, 68
-0.992725, 353, 17, 384, 48
-0.992729, 161, 125, 192, 156
-0.992734, 421, 185, 452, 216
-0.992735, 273, 221, 304, 252
-0.992749, 449, 241, 480, 364
-0.992755, 181, 133, 212, 164
-0.992759, 221, 85, 252, 116
-0.99276, 113, 97, 176, 352
-0.992761, 137, 13, 168, 44
-0.992764, 201, 121, 232, 152
-0.992766, 181, 149, 212, 180
-0.992768, 241, 69, 272, 100
-0.992769, 145, 269, 176, 300
-0.99277, 321, 237, 352, 268
-0.992772, 305, 33, 336, 64
-0.992772, 281, 241, 312, 272
-0.992779, 277, 1, 308, 32
-0.992779, 325, 193, 356, 224
-0.992781, 249, 85, 280, 116
-0.992788, 225, 233, 480, 296
-0.992795, 161, 1, 192, 32
-0.9928, 193, 301, 224, 332
-0.9928, 325, 317, 356, 348
-0.992801, 41, 249, 72, 280
-0.992802, 185, 1, 216, 32
-0.992804, 1, 185, 256, 248
-0.992816, 241, 121, 272, 152
-0.992818, 365, 185, 396, 216
-0.992823, 277, 289, 308, 320
-0.992823, 177, 233, 208, 264
-0.992824, 389, 25, 420, 56
-0.992827, 377, 185, 408, 216
-0.992829, 209, 261, 240, 292
-0.992836, 13, 249, 44, 280
-0.992842, 241, 141, 272, 172
-0.992845, 149, 133, 180, 164
-0.992846, 225, 149, 256, 180
-0.992847, 317, 217, 348, 248
-0.992855, 313, 193, 344, 224
-0.992857, 185, 85, 216, 116
-0.992859, 329, 33, 360, 64
-0.99286, 185, 261, 216, 292
-0.992864, 405, 189, 436, 220
-0.992873, 469, 301, 500, 332
-0.992876, 323, 225, 338, 288
-0.992885, 297, 1, 328, 32
-0.992889, 373, 317, 404, 348
-0.99289, 373, 305, 404, 336
-0.992897, 225, 137, 256, 168
-0.99292, 145, 257, 272, 288
-0.99293, 305, 289, 320, 352
-0.99295, 257, 209, 384, 240
-0.992954, 241, 305, 368, 336
-0.992958, 189, 241, 204, 304
-0.992997, 177, 233, 192, 296
-0.992999, 311, 281, 326, 344
-0.99301, 145, 285, 272, 316
-0.993011, 33, 145, 288, 208
-0.993055, 353, 185, 480, 216
-0.993099, 1, 81, 64, 208
-0.993142, 469, 81, 500, 208
-0.993147, 285, 305, 300, 364
-0.993149, 327, 201, 342, 264
-0.993157, 295, 265, 310, 328
-0.993159, 199, 257, 214, 320
-0.993161, 297, 289, 312, 352
-0.993163, 219, 297, 234, 360
-0.993195, 33, 25, 160, 88
-0.993195, 257, 161, 500, 224
-0.993212, 225, 289, 352, 320
-0.993236, 167, 233, 182, 296
-0.993247, 297, 225, 312, 288
-0.993328, 193, 261, 320, 292
-0.993338, 321, 197, 448, 228
-0.993346, 353, 57, 480, 120
-0.993356, 97, 193, 128, 320
-0.993381, 145, 301, 272, 332
-0.993402, 129, 25, 256, 88
-0.993405, 1, 241, 32, 364
-0.993441, 145, 229, 272, 260
-0.993444, 177, 241, 304, 272
-0.993463, 275, 185, 290, 248
-0.99354, 193, 305, 320, 336
-0.993584, 145, 217, 272, 248
-0.993606, 57, 1, 120, 256
-0.993641, 381, 49, 412, 176
-0.993656, 177, 289, 192, 352
-0.993658, 337, 201, 352, 264
-0.993669, 325, 289, 340, 352
-0.99367, 301, 265, 316, 328
-0.993682, 179, 209, 194, 272
-0.993684, 373, 161, 404, 288
-0.993697, 65, 1, 320, 64
-0.993709, 213, 297, 228, 360
-0.993728, 191, 297, 206, 360
-0.993748, 183, 233, 198, 296
-0.993763, 257, 9, 500, 72
-0.993766, 329, 241, 344, 304
-0.99378, 347, 185, 362, 248
-0.993786, 1, 1, 500, 64
-0.99379, 167, 289, 182, 352
-0.993815, 279, 305, 294, 364
-0.993844, 1, 249, 128, 280
-0.993876, 311, 305, 326, 364
-0.993878, 97, 97, 160, 224
-0.993928, 241, 261, 368, 292
-0.993929, 281, 185, 296, 248
-0.99393, 173, 265, 188, 328
-0.993983, 97, 261, 224, 292
-0.993986, 185, 305, 200, 364
-0.994002, 193, 273, 320, 304
-0.994007, 313, 257, 328, 320
-0.994013, 309, 97, 340, 224
-0.994021, 41, 1, 104, 364
-0.994021, 413, 49, 444, 176
-0.994028, 321, 249, 336, 312
-0.994039, 315, 201, 330, 264
-0.994051, 157, 265, 172, 328
-0.994074, 121, 49, 184, 176
-0.994097, 179, 265, 194, 328
-0.994117, 219, 217, 234, 280
-0.994169, 317, 225, 332, 288
-0.994178, 227, 209, 242, 272
-0.994181, 341, 177, 356, 240
-0.994191, 303, 225, 318, 288
-0.994228, 441, 113, 472, 240
-0.994229, 227, 185, 242, 248
-0.994244, 167, 257, 182, 320
-0.994252, 1, 225, 500, 288
-0.994265, 213, 257, 228, 320
-0.994274, 231, 297, 246, 360
-0.994281, 289, 265, 304, 328
-0.994291, 307, 249, 322, 312
-0.9943, 303, 201, 318, 264
-0.994315, 33, 209, 288, 272
-0.99434, 257, 305, 272, 364
-0.994353, 159, 241, 174, 304
-0.994381, 273, 285, 400, 316
-0.994424, 17, 189, 144, 220
-0.994426, 1, 145, 64, 272
-0.994432, 145, 269, 272, 300
-0.994433, 283, 225, 298, 288
-0.994481, 33, 193, 64, 320
-0.994483, 247, 305, 262, 364
-0.994486, 273, 305, 288, 364
-0.99452, 129, 137, 384, 200
-0.994523, 61, 177, 92, 304
-0.994541, 267, 305, 282, 364
-0.994548, 225, 297, 240, 360
-0.994557, 185, 201, 200, 264
-0.994575, 403, 305, 418, 364
-0.994596, 269, 185, 284, 248
-0.994599, 293, 177, 308, 240
-0.994636, 415, 305, 430, 364
-0.994641, 289, 305, 416, 336
-0.994695, 189, 265, 204, 328
-0.994712, 297, 97, 328, 224
-0.994724, 453, 305, 468, 364
-0.994727, 333, 297, 348, 360
-0.994741, 241, 297, 256, 360
-0.994762, 313, 49, 344, 176
-0.994764, 233, 185, 248, 248
-0.994768, 273, 241, 400, 272
-0.994779, 117, 145, 148, 272
-0.994791, 221, 185, 236, 248
-0.994794, 409, 305, 424, 364
-0.994797, 387, 305, 402, 364
-0.994801, 21, 193, 52, 320
-0.994803, 321, 1, 336, 64
-0.994804, 453, 1, 484, 128
-0.994804, 297, 1, 312, 64
-0.994806, 289, 185, 416, 216
-0.994822, 273, 17, 400, 48
-0.994826, 161, 289, 176, 352
-0.994848, 287, 177, 302, 240
-0.994864, 311, 225, 326, 288
-0.994866, 97, 285, 224, 316
-0.99487, 421, 305, 436, 364
-0.994872, 395, 305, 410, 364
-0.99489, 1, 1, 64, 364
-0.994895, 329, 97, 392, 224
-0.994903, 237, 17, 268, 144
-0.994914, 129, 125, 256, 156
-0.994927, 445, 305, 460, 364
-0.994932, 481, 161, 496, 224
-0.994954, 311, 1, 326, 64
-0.994985, 81, 237, 208, 268
-0.994988, 335, 225, 350, 288
-0.995004, 97, 189, 224, 220
-0.995007, 257, 41, 500, 104
-0.995015, 69, 249, 84, 312
-0.995018, 177, 1, 304, 32
-0.995049, 425, 129, 456, 256
-0.995056, 357, 1, 372, 64
-0.995064, 465, 33, 496, 160
-0.995081, 259, 185, 274, 248
-0.995092, 369, 49, 400, 176
-0.995103, 209, 121, 336, 152
-0.995108, 237, 217, 252, 280
-0.995129, 247, 153, 262, 216
-0.99513, 81, 89, 208, 152
-0.99513, 241, 153, 256, 216
-0.995132, 149, 17, 180, 144
-0.995133, 205, 257, 220, 320
-0.995171, 151, 305, 166, 364
-0.995178, 335, 257, 350, 320
-0.995183, 197, 297, 212, 360
-0.99519, 333, 177, 348, 240
-0.995197, 365, 305, 380, 364
-0.995206, 205, 289, 220, 352
-0.995211, 151, 257, 166, 320
-0.995236, 193, 217, 208, 280
-0.995248, 85, 241, 100, 304
-0.99527, 97, 305, 224, 336
-0.99527, 239, 185, 254, 248
-0.99528, 347, 1, 362, 64
-0.995302, 77, 241, 92, 304
-0.995308, 341, 305, 356, 364
-0.995328, 459, 305, 474, 364
-0.995332, 209, 145, 336, 176
-0.995334, 65, 201, 192, 232
-0.995346, 289, 265, 416, 296
-0.995351, 201, 129, 216, 192
-0.995358, 275, 217, 290, 280
-0.995375, 327, 265, 342, 328
-0.995385, 1, 257, 500, 320
-0.995386, 377, 305, 392, 364
-0.995402, 161, 41, 416, 104
-0.995421, 145, 177, 272, 208
-0.995424, 241, 1, 368, 32
-0.995426, 351, 305, 366, 364
-0.995453, 209, 205, 336, 236
-0.995471, 353, 185, 368, 248
-0.995477, 273, 225, 400, 256
-0.995485, 369, 17, 384, 80
-0.995493, 193, 169, 320, 200
-0.995496, 173, 209, 188, 272
-0.995497, 241, 185, 368, 216
-0.995517, 357, 305, 372, 364
-0.995518, 369, 305, 496, 336
-0.995528, 427, 297, 442, 360
-0.995542, 255, 153, 270, 216
-0.995543, 273, 197, 400, 228
-0.995551, 211, 233, 226, 296
-0.995563, 471, 169, 486, 232
-0.99557, 19, 297, 34, 360
-0.995577, 343, 209, 358, 272
-0.995586, 129, 137, 256, 168
-0.99559, 129, 81, 384, 144
-0.9956, 269, 209, 284, 272
-0.995612, 213, 33, 244, 160
-0.995645, 241, 273, 368, 304
-0.995658, 193, 1, 208, 64
-0.99567, 33, 113, 160, 176
-0.99567, 97, 177, 224, 208
-0.995675, 177, 85, 304, 116
-0.995676, 129, 149, 256, 180
-0.995686, 167, 193, 182, 256
-0.995692, 353, 97, 416, 352
-0.995725, 481, 289, 496, 352
-0.995741, 273, 29, 400, 60
-0.995747, 263, 153, 278, 216
-0.995762, 73, 177, 104, 304
-0.995777, 5, 169, 20, 232
-0.995788, 275, 1, 290, 64
-0.995802, 231, 73, 246, 136
-0.995803, 159, 1, 174, 64
-0.995806, 337, 257, 464, 320
-0.995818, 321, 41, 448, 72
-0.995845, 209, 317, 336, 348
-0.995903, 273, 41, 400, 72
-0.995936, 281, 65, 312, 320
-0.99595, 289, 321, 416, 352
-0.995952, 289, 89, 416, 152
-0.995974, 181, 97, 212, 352
-0.995974, 1, 261, 128, 292
-0.99598, 273, 173, 400, 204
-0.995985, 369, 121, 496, 184
-0.996088, 49, 261, 176, 292
-0.996101, 369, 197, 496, 228
-0.996117, 89, 97, 152, 352
-0.996124, 353, 173, 480, 204
-0.996134, 161, 205, 288, 236
-0.996149, 9, 193, 40, 320
-0.996164, 113, 65, 240, 128
-0.996169, 161, 317, 288, 348
-0.996171, 129, 105, 384, 168
-0.996192, 201, 97, 232, 352
-0.996196, 133, 1, 164, 128
-0.996204, 353, 321, 480, 352
-0.996209, 33, 49, 160, 112
-0.996234, 113, 1, 240, 32
-0.996248, 169, 233, 184, 264
-0.996269, 1, 97, 64, 352
-0.996273, 257, 129, 500, 192
-0.996275, 225, 133, 352, 164
-0.996278, 385, 97, 448, 352
-0.996419, 113, 325, 240, 356
-0.99642, 49, 177, 176, 208
-0.996426, 209, 157, 336, 188
-0.996446, 193, 13, 320, 44
-0.996472, 301, 97, 332, 352
-0.996484, 321, 21, 448, 52
-0.996509, 97, 273, 224, 304
-0.996578, 193, 189, 320, 220
-0.996587, 177, 133, 304, 164
-0.996593, 209, 69, 336, 100
-0.996608, 321, 209, 448, 240
-0.996613, 1, 121, 256, 184
-0.996654, 291, 241, 306, 272
-0.996661, 1, 309, 128, 340
-0.996661, 49, 309, 176, 340
-0.996678, 369, 33, 496, 64
-0.996689, 177, 245, 192, 276
-0.996696, 301, 241, 316, 272
-0.996733, 309, 229, 324, 260
-0.996744, 1, 153, 500, 216
-0.996773, 121, 1, 152, 128
-0.996807, 255, 305, 270, 336
-0.996827, 269, 305, 284, 336
-0.996829, 291, 285, 306, 316
-0.996831, 161, 17, 192, 144
-0.996845, 81, 145, 208, 176
-0.996861, 317, 305, 332, 336
-0.996864, 179, 233, 194, 264
-0.996877, 33, 41, 288, 104
-0.996887, 225, 97, 256, 352
-0.996901, 129, 165, 256, 196
-0.99692, 307, 241, 322, 272
-0.996923, 397, 49, 428, 176
-0.996928, 241, 53, 368, 84
-0.996947, 269, 97, 300, 352
-0.996951, 167, 249, 182, 280
-0.996952, 315, 289, 330, 320
-0.996962, 263, 305, 278, 336
-0.996966, 305, 277, 320, 308
-0.996971, 145, 189, 272, 220
-0.996974, 321, 9, 448, 40
-0.996984, 303, 289, 318, 320
-0.99699, 281, 305, 296, 336
-0.996997, 331, 249, 346, 280
-0.996999, 65, 1, 192, 32
-0.997031, 81, 125, 208, 156
-0.99704, 159, 257, 174, 288
-0.997052, 313, 65, 344, 320
-0.997053, 1, 201, 500, 264
-0.997066, 249, 305, 264, 336
-0.997067, 227, 213, 242, 244
-0.997071, 213, 97, 244, 352
-0.997081, 295, 229, 310, 260
-0.997087, 289, 253, 416, 284
-0.997088, 297, 285, 312, 316
-0.997106, 301, 229, 316, 260
-0.997106, 189, 241, 204, 272
-0.997107, 309, 305, 324, 336
-0.997119, 275, 305, 290, 336
-0.99713, 97, 225, 224, 256
-0.997139, 237, 97, 268, 352
-0.997144, 323, 305, 338, 336
-0.997146, 323, 229, 338, 260
-0.997158, 157, 245, 172, 276
-0.997164, 33, 237, 160, 268
-0.997165, 175, 265, 190, 296
-0.997168, 313, 241, 328, 272
-0.997169, 1, 25, 500, 88
-0.997169, 113, 17, 240, 48
-0.997174, 161, 65, 288, 96
-0.997174, 163, 237, 178, 268
-0.997174, 203, 253, 218, 284
-0.997195, 369, 97, 496, 160
-0.997207, 65, 321, 192, 352
-0.997208, 257, 65, 500, 128
-0.997216, 321, 253, 336, 284
-0.997221, 481, 165, 496, 196
-0.997231, 243, 305, 258, 336
-0.997234, 287, 305, 302, 336
-0.997236, 319, 241, 334, 272
-0.997246, 193, 33, 320, 64
-0.997255, 85, 241, 100, 272
-0.997264, 285, 205, 300, 236
-0.997273, 211, 257, 226, 288
-0.99728, 303, 305, 318, 336
-0.997295, 165, 285, 180, 316
-0.997298, 129, 249, 144, 280
-0.997298, 329, 237, 344, 268
-0.997298, 369, 17, 496, 48
-0.997309, 305, 205, 320, 236
-0.997309, 149, 249, 164, 280
-0.997311, 313, 265, 328, 296
-0.997317, 161, 113, 288, 144
-0.997331, 175, 221, 190, 252
-0.997334, 339, 205, 354, 236
-0.997338, 189, 253, 204, 284
-0.997339, 315, 221, 330, 252
-0.997352, 293, 297, 308, 328
-0.997364, 81, 161, 208, 192
-0.997369, 269, 201, 284, 232
-0.997372, 221, 213, 236, 244
-0.997373, 173, 289, 188, 320
-0.997375, 331, 205, 346, 236
-0.997403, 321, 205, 336, 236
-0.997404, 211, 305, 226, 336
-0.997404, 161, 97, 192, 352
-0.997406, 309, 289, 324, 320
-0.997418, 169, 221, 184, 252
-0.997427, 295, 253, 310, 284
-0.997435, 189, 205, 204, 236
-0.997448, 219, 301, 234, 332
-0.997448, 237, 305, 252, 336
-0.997452, 303, 261, 318, 292
-0.997453, 297, 273, 312, 304
-0.997458, 225, 301, 240, 332
-0.997463, 465, 97, 496, 352
-0.997467, 167, 269, 182, 300
-0.99748, 291, 217, 306, 248
-0.997487, 213, 285, 228, 316
-0.9975, 257, 89, 500, 152
-0.997502, 181, 1, 212, 256
-0.997508, 325, 269, 340, 300
-0.99751, 185, 229, 200, 260
-0.997512, 201, 1, 232, 256
-0.997515, 159, 285, 174, 316
-0.997522, 463, 173, 478, 204
-0.99753, 275, 205, 290, 236
-0.997531, 75, 245, 90, 276
-0.997532, 473, 169, 488, 200
-0.997541, 115, 245, 130, 276
-0.997543, 257, 65, 288, 320
-0.997563, 183, 209, 198, 240
-0.997564, 273, 125, 400, 156
-0.997567, 481, 177, 496, 208
-0.997595, 273, 137, 400, 168
-0.997599, 17, 201, 144, 232
-0.997602, 1, 173, 128, 204
-0.997603, 197, 249, 212, 280
-0.997607, 329, 1, 360, 256
-0.997608, 325, 285, 340, 316
-0.997613, 305, 53, 432, 84
-0.997616, 301, 217, 316, 248
-0.99762, 385, 161, 416, 288
-0.997637, 317, 277, 332, 308
-0.997638, 123, 249, 138, 280
-0.99765, 209, 105, 336, 136
-0.997652, 189, 305, 204, 336
-0.997653, 159, 125, 174, 156
-0.997654, 321, 293, 448, 324
-0.997666, 153, 261, 168, 292
-0.997666, 97, 213, 224, 244
-0.997669, 69, 249, 84, 280
-0.997669, 165, 297, 180, 328
-0.997676, 455, 177, 470, 208
-0.997677, 311, 253, 326, 284
-0.997678, 233, 209, 248, 240
-0.997682, 331, 261, 346, 292
-0.997684, 1, 1, 32, 128
-0.997689, 281, 217, 296, 248
-0.997689, 331, 305, 346, 336
-0.997694, 469, 185, 484, 216
-0.997698, 13, 249, 28, 280
-0.997707, 97, 249, 112, 280
-0.997707, 349, 21, 364, 52
-0.997709, 137, 249, 152, 280
-0.997711, 49, 33, 176, 64
-0.997712, 285, 249, 300, 280
-0.997723, 329, 193, 344, 224
-0.997726, 313, 205, 328, 236
-0.997727, 257, 161, 384, 192
-0.997727, 481, 301, 496, 332
-0.997728, 231, 301, 246, 332
-0.99774, 189, 285, 204, 316
-0.997749, 285, 1, 300, 32
-0.997751, 181, 261, 196, 292
-0.997753, 309, 217, 324, 248
-0.997753, 369, 5, 496, 36
-0.997754, 289, 229, 304, 260
-0.997761, 337, 305, 352, 336
-0.997764, 293, 1, 308, 32
-0.997767, 197, 261, 212, 292
-0.997768, 231, 81, 246, 112
-0.997781, 49, 293, 176, 324
-0.997783, 307, 125, 322, 156
-0.997784, 225, 85, 352, 116
-0.997788, 179, 285, 194, 316
-0.997788, 289, 261, 304, 292
-0.997793, 463, 189, 478, 220
-0.997797, 299, 21, 314, 52
-0.997798, 291, 125, 306, 156
-0.997799, 17, 1, 144, 32
-0.997809, 279, 1, 294, 32
-0.997817, 319, 265, 334, 296
-0.997818, 203, 129, 218, 160
-0.997822, 5, 145, 36, 272
-0.997824, 311, 277, 326, 308
-0.997831, 301, 121, 316, 152
-0.997837, 61, 249, 76, 280
-0.997838, 293, 309, 308, 340
-0.997843, 369, 209, 496, 240
-0.997937, 113, 201, 240, 232
-0.997949, 145, 101, 272, 132
-0.997969, 33, 65, 288, 128
-0.998009, 325, 97, 356, 352
-0.998012, 353, 161, 480, 192
-0.998025, 293, 1, 324, 256
-0.998031, 369, 289, 496, 320
-0.998038, 1, 1, 64, 256
-0.998053, 193, 49, 320, 80
-0.998081, 397, 129, 428, 256
-0.998095, 257, 73, 384, 104
-0.99817, 373, 1, 404, 256
-0.998173, 385, 193, 448, 320
-0.99819, 17, 321, 144, 352
-0.998224, 257, 149, 384, 180
-0.998226, 353, 53, 480, 84
-0.998254, 97, 45, 224, 76
-0.998277, 169, 1, 200, 256
-0.998282, 465, 1, 496, 256
-0.998291, 205, 241, 220, 364
-0.998316, 329, 241, 344, 364
-0.998323, 161, 257, 224, 272
-0.998325, 281, 245, 344, 260
-0.998327, 345, 1, 376, 256
-0.998333, 169, 287, 232, 302
-0.998337, 301, 241, 316, 364
-0.998351, 153, 249, 216, 264
-0.998356, 185, 299, 248, 314
-0.998361, 161, 263, 224, 278
-0.998372, 169, 273, 232, 288
-0.998373, 323, 241, 338, 364
-0.998377, 433, 181, 496, 196
-0.998379, 169, 293, 232, 308
-0.998381, 289, 113, 416, 144
-0.998382, 273, 253, 336, 268
-0.998388, 281, 259, 344, 274
-0.998389, 65, 13, 192, 44
-0.998389, 281, 235, 344, 250
-0.998391, 121, 253, 184, 268
-0.998397, 169, 279, 232, 294
-0.9984, 291, 241, 306, 364
-0.9984, 315, 241, 330, 364
-0.998402, 1, 161, 128, 192
-0.998403, 233, 219, 296, 234
-0.998407, 137, 259, 200, 274
-0.998408, 209, 227, 272, 242
-0.99841, 281, 265, 344, 280
-0.998413, 145, 243, 208, 258
-0.998415, 269, 1, 300, 256
-0.998416, 233, 225, 296, 240
-0.998418, 321, 221, 448, 252
-0.99842, 281, 287, 344, 302
-0.998421, 145, 97, 176, 352
-0.998423, 209, 221, 272, 236
-0.998427, 193, 289, 256, 304
-0.998434, 161, 181, 224, 196
-0.998436, 193, 269, 256, 284
-0.998438, 185, 225, 200, 352
-0.998441, 193, 259, 256, 274
-0.998445, 433, 189, 496, 204
-0.998446, 169, 239, 232, 254
-0.998446, 257, 219, 320, 234
-0.998447, 177, 217, 240, 232
-0.998449, 137, 267, 200, 282
-0.99845, 309, 241, 324, 364
-0.99845, 81, 259, 144, 274
-0.998452, 241, 249, 304, 264
-0.998452, 1, 297, 128, 328
-0.998453, 297, 207, 360, 222
-0.998453, 321, 185, 384, 200
-0.998454, 357, 1, 388, 256
-0.998455, 281, 179, 344, 194
-0.998455, 17, 255, 80, 270
-0.998457, 281, 295, 344, 310
-0.998463, 433, 175, 496, 190
-0.998463, 49, 249, 112, 264
-0.998464, 193, 283, 256, 298
-0.998465, 209, 301, 272, 316
-0.998465, 193, 275, 256, 290
-0.998465, 117, 251, 148, 266
-0.998466, 289, 181, 320, 196
-0.998466, 373, 321, 404, 336
-0.998467, 209, 153, 240, 168
-0.998467, 389, 199, 420, 214
-0.998468, 161, 299, 224, 314
-0.998468, 145, 293, 208, 308
-0.998469, 349, 185, 380, 200
-0.998469, 177, 249, 240, 264
-0.998469, 281, 281, 344, 296
-0.998469, 249, 77, 280, 92
-0.99847, 321, 189, 352, 204
-0.99847, 313, 297, 344, 312
-0.998471, 185, 183, 248, 198
-0.998471, 129, 183, 192, 198
-0.998472, 89, 259, 120, 274
-0.998472, 281, 193, 296, 320
-0.998472, 165, 127, 196, 142
-0.998472, 313, 193, 328, 320
-0.998473, 353, 39, 384, 54
-0.998474, 409, 25, 440, 40
-0.998474, 281, 229, 344, 244
-0.998475, 325, 321, 356, 336
-0.998476, 145, 191, 176, 206
-0.998477, 437, 185, 468, 200
-0.998479, 361, 195, 392, 210
-0.998479, 309, 229, 340, 244
-0.998479, 209, 215, 272, 230
-0.99848, 281, 271, 344, 286
-0.99848, 409, 183, 472, 198
-0.99848, 369, 49, 400, 64
-0.99848, 277, 301, 308, 316
-0.99848, 469, 187, 500, 202
-0.99848, 345, 189, 408, 204
-0.998481, 273, 209, 336, 224
-0.998481, 213, 241, 228, 364
-0.998481, 241, 125, 272, 140
-0.998482, 133, 187, 164, 202
-0.998483, 213, 321, 244, 336
-0.998483, 269, 73, 300, 88
-0.998484, 137, 321, 168, 336
-0.998484, 49, 257, 112, 272
-0.998485, 261, 97, 292, 112
-0.998485, 285, 285, 316, 300
-0.998485, 233, 213, 296, 228
-0.998485, 221, 155, 252, 170
-0.998486, 289, 267, 320, 282
-0.998488, 169, 223, 232, 238
-0.99849, 237, 301, 268, 316
-0.998491, 373, 197, 404, 212
-0.998491, 125, 263, 156, 278
-0.998491, 129, 257, 160, 272
-0.998492, 113, 259, 176, 274
-0.998492, 237, 83, 268, 98
-0.998492, 161, 271, 192, 286
-0.998492, 153, 155, 216, 170
-0.998493, 205, 131, 236, 146
-0.998494, 145, 277, 208, 292
-0.998494, 97, 189, 160, 204
-0.998497, 157, 183, 188, 198
-0.998498, 297, 187, 360, 202
-0.998498, 201, 253, 264, 268
-0.998498, 325, 193, 340, 320
-0.998499, 289, 125, 320, 140
-0.998499, 181, 125, 212, 140
-0.9985, 257, 143, 320, 158
-0.998501, 457, 189, 488, 204
-0.998501, 325, 251, 356, 266
-0.998504, 345, 31, 376, 46
-0.998505, 197, 155, 228, 170
-0.998505, 261, 133, 292, 148
-0.998505, 181, 155, 212, 170
-0.998506, 289, 227, 320, 242
-0.998506, 145, 283, 208, 298
-0.998507, 61, 259, 92, 274
-0.998507, 209, 295, 272, 310
-0.998509, 9, 257, 40, 272
-0.998509, 157, 297, 188, 312
-0.998511, 201, 321, 264, 336
-0.998512, 145, 193, 208, 208
-0.998513, 185, 305, 248, 320
-0.998513, 297, 253, 360, 268
-0.998513, 177, 209, 240, 224
-0.998514, 233, 255, 296, 270
-0.998514, 345, 45, 376, 60
-0.998514, 193, 183, 224, 198
-0.998514, 199, 241, 214, 364
-0.998514, 449, 181, 480, 196
-0.998515, 241, 231, 304, 246
-0.998515, 173, 271, 204, 286
-0.998515, 281, 221, 344, 236
-0.998515, 41, 259, 72, 274
-0.998515, 177, 185, 208, 200
-0.998515, 401, 189, 464, 204
-0.998516, 177, 293, 208, 308
-0.998516, 333, 187, 364, 202
-0.998517, 1, 183, 64, 198
-0.998518, 321, 281, 448, 312
-0.998518, 169, 233, 232, 248
-0.998519, 97, 251, 160, 266
-0.998519, 257, 181, 320, 196
-0.99852, 273, 301, 336, 316
-0.998521, 73, 249, 136, 264
-0.998521, 141, 259, 172, 274
-0.998522, 21, 259, 52, 274
-0.998522, 321, 23, 352, 38
-0.998522, 289, 279, 320, 294
-0.998523, 169, 189, 232, 204
-0.998523, 305, 227, 368, 242
-0.998523, 321, 45, 384, 60
-0.998524, 145, 185, 176, 200
-0.998524, 105, 199, 168, 214
-0.998524, 433, 195, 496, 210
-0.998525, 177, 277, 208, 292
-0.998526, 261, 211, 292, 226
-0.998526, 201, 245, 264, 260
-0.998527, 113, 265, 176, 280
-0.998527, 177, 125, 240, 140
-0.998528, 361, 197, 424, 212
-0.998529, 209, 181, 272, 196
-0.998529, 233, 299, 296, 314
-0.998529, 325, 47, 356, 62
-0.99853, 297, 23, 360, 38
-0.99853, 257, 237, 320, 252
-0.99853, 161, 279, 192, 294
-0.998532, 177, 155, 240, 170
-0.998532, 313, 277, 344, 292
-0.998532, 209, 233, 272, 248
-0.998533, 301, 297, 332, 312
-0.998533, 265, 125, 328, 140
-0.998534, 209, 295, 240, 310
-0.998534, 317, 267, 348, 282
-0.998535, 321, 17, 384, 32
-0.998535, 77, 255, 108, 270
-0.998535, 233, 95, 296, 110
-0.998535, 149, 267, 180, 282
-0.998535, 177, 149, 240, 164
-0.998538, 305, 321, 368, 336
-0.998538, 121, 189, 184, 204
-0.998539, 329, 219, 360, 234
-0.998541, 145, 237, 208, 252
-0.998541, 129, 249, 160, 264
-0.998541, 129, 323, 192, 338
-0.998541, 9, 249, 72, 264
-0.998542, 321, 181, 352, 196
-0.998543, 285, 219, 316, 234
-0.998544, 303, 193, 318, 320
-0.998544, 401, 199, 464, 214
-0.998545, 337, 51, 400, 66
-0.998545, 241, 263, 304, 278
-0.998547, 309, 291, 340, 306
-0.998547, 305, 183, 336, 198
-0.998547, 241, 243, 304, 258
-0.99855, 105, 259, 136, 274
-0.99855, 337, 201, 400, 216
-0.998551, 417, 317, 480, 332
-0.998552, 325, 207, 356, 222
-0.998552, 137, 299, 200, 314
-0.998552, 305, 285, 368, 300
-0.998553, 153, 133, 216, 148
-0.998554, 57, 263, 120, 278
-0.998555, 161, 305, 224, 320
-0.998556, 165, 249, 196, 264
-0.998556, 257, 135, 320, 150
-0.998556, 241, 305, 304, 320
-0.998557, 273, 187, 336, 202
-0.998557, 177, 325, 240, 340
-0.998558, 353, 321, 416, 336
-0.998559, 9, 261, 72, 276
-0.998559, 129, 153, 192, 168
-0.99856, 113, 33, 240, 64
-0.99856, 313, 305, 376, 320
-0.99856, 313, 285, 344, 300
-0.998561, 197, 303, 228, 318
-0.998561, 281, 215, 344, 230
-0.998561, 153, 125, 216, 140
-0.998563, 225, 125, 288, 140
-0.998564, 313, 245, 344, 260
-0.998564, 1, 201, 64, 216
-0.998564, 177, 213, 208, 228
-0.998566, 369, 19, 432, 34
-0.998569, 221, 303, 252, 318
-0.998571, 141, 253, 172, 268
-0.998572, 177, 287, 208, 302
-0.998576, 457, 175, 488, 190
-0.998578, 193, 281, 224, 296
-0.998579, 289, 261, 320, 276
-0.99858, 301, 243, 332, 258
-0.99858, 289, 273, 320, 288
-0.998581, 153, 249, 184, 264
-0.998584, 173, 243, 204, 258
-0.998584, 129, 81, 256, 112
-0.998585, 161, 265, 192, 280
-0.998587, 285, 241, 300, 364
-0.99859, 289, 239, 320, 254
-0.998594, 197, 287, 228, 302
-0.998594, 317, 259, 348, 274
-0.998594, 465, 181, 496, 196
-0.998594, 193, 275, 224, 290
-0.9986, 209, 301, 240, 316
-0.998602, 319, 193, 334, 320
-0.998603, 301, 279, 332, 294
-0.998604, 289, 233, 320, 248
-0.998604, 469, 171, 500, 186
-0.998607, 313, 239, 344, 254
-0.998609, 177, 265, 208, 280
-0.998612, 301, 263, 332, 278
-0.998616, 273, 209, 304, 224
-0.998618, 335, 241, 350, 364
-0.998625, 289, 297, 320, 312
-0.998626, 193, 267, 224, 282
-0.998626, 293, 291, 324, 306
-0.998627, 305, 269, 336, 284
-0.998628, 197, 253, 228, 268
-0.998631, 217, 217, 248, 232
-0.998632, 393, 1, 424, 256
-0.998635, 309, 253, 340, 268
-0.998639, 191, 241, 206, 364
-0.99864, 1, 129, 500, 192
-0.998642, 157, 243, 188, 258
-0.998643, 33, 97, 96, 352
-0.998649, 177, 255, 208, 270
-0.998649, 297, 285, 328, 300
-0.998652, 161, 259, 192, 274
-0.998654, 301, 235, 332, 250
-0.998655, 289, 245, 320, 260
-0.998666, 261, 217, 292, 232
-0.998671, 165, 237, 196, 252
-0.998672, 197, 297, 228, 312
-0.998675, 221, 223, 252, 238
-0.998675, 177, 249, 208, 264
-0.998679, 289, 255, 320, 270
-0.998697, 297, 193, 312, 320
-0.998723, 219, 241, 234, 364
-0.998724, 255, 241, 270, 364
-0.998731, 249, 241, 264, 364
-0.998732, 197, 259, 228, 274
-0.99876, 433, 1, 464, 256
-0.998763, 331, 193, 346, 320
-0.998779, 85, 225, 100, 352
-0.998796, 1, 89, 128, 152
-0.998801, 179, 209, 194, 336
-0.998843, 133, 33, 164, 288
-0.998845, 337, 97, 368, 352
-0.998852, 79, 225, 94, 352
-0.998872, 267, 241, 282, 364
-0.998882, 275, 193, 290, 320
-0.998889, 291, 193, 306, 320
-0.998895, 115, 225, 130, 352
-0.998898, 417, 1, 448, 256
-0.998901, 173, 241, 188, 364
-0.998902, 233, 1, 264, 256
-0.998904, 337, 233, 464, 296
-0.998921, 279, 241, 294, 364
-0.998928, 273, 241, 288, 364
-0.998929, 453, 97, 484, 352
-0.998938, 239, 225, 254, 352
-0.99894, 167, 241, 182, 364
-0.998943, 157, 225, 172, 352
-0.998945, 265, 193, 280, 320
-0.998946, 309, 129, 324, 256
-0.998962, 257, 193, 272, 320
-0.998971, 193, 1, 208, 128
-0.998971, 139, 225, 154, 352
-0.998972, 261, 241, 276, 364
-0.998974, 93, 241, 108, 364
-0.998975, 241, 129, 256, 256
-0.998981, 337, 193, 352, 320
-0.998982, 457, 161, 472, 288
-0.998988, 275, 145, 290, 272
-0.999, 147, 241, 162, 364
-0.999006, 217, 129, 232, 256
-0.999012, 153, 1, 184, 256
-0.999018, 199, 193, 214, 320
-0.99902, 133, 241, 148, 364
-0.999023, 89, 1, 120, 256
-0.999028, 277, 1, 292, 128
-0.999031, 207, 97, 222, 224
-0.999033, 405, 1, 436, 256
-0.999047, 191, 193, 206, 320
-0.999059, 121, 241, 136, 364
-0.999073, 147, 193, 162, 320
-0.999074, 175, 129, 190, 256
-0.999077, 245, 81, 260, 208
-0.999077, 109, 241, 124, 364
-0.999089, 231, 161, 246, 288
-0.99909, 463, 161, 478, 288
-0.999096, 315, 145, 330, 272
-0.999097, 285, 145, 300, 272
-0.999104, 301, 145, 316, 272
-0.999104, 181, 161, 196, 288
-0.999105, 345, 193, 360, 320
-0.999108, 225, 209, 240, 336
-0.999122, 441, 97, 472, 352
-0.99913, 77, 1, 108, 256
-0.999133, 201, 81, 216, 208
-0.99914, 343, 241, 358, 364
-0.999141, 233, 209, 248, 336
-0.999147, 269, 129, 284, 256
-0.999155, 295, 1, 310, 128
-0.999158, 227, 81, 242, 208
-0.99917, 133, 193, 148, 320
-0.999176, 247, 161, 262, 288
-0.999181, 201, 129, 216, 256
-0.999181, 209, 177, 224, 304
-0.999184, 221, 1, 252, 256
-0.999184, 33, 89, 288, 152
-0.999186, 451, 161, 466, 288
-0.999186, 127, 241, 142, 364
-0.999189, 253, 81, 268, 208
-0.999198, 163, 113, 178, 240
-0.999199, 99, 225, 114, 352
-0.999199, 173, 193, 188, 320
-0.999201, 255, 129, 270, 256
-0.999203, 219, 193, 234, 320
-0.999207, 239, 81, 254, 208
-0.999212, 213, 81, 228, 208
-0.999219, 377, 1, 392, 128
-0.999222, 225, 161, 240, 288
-0.999222, 401, 1, 416, 128
-0.999229, 15, 225, 30, 352
-0.999238, 349, 241, 364, 364
-0.999245, 221, 81, 236, 208
-0.999245, 469, 129, 484, 256
-0.99925, 167, 193, 182, 320
-0.999258, 185, 81, 200, 208
-0.999269, 481, 129, 496, 256
-0.999271, 355, 241, 370, 364
-0.999279, 73, 225, 88, 352
-0.999291, 383, 1, 398, 128
-0.999295, 343, 145, 358, 272
-0.999296, 353, 161, 368, 288
-0.999298, 391, 1, 406, 128
-0.9993, 333, 145, 348, 272
-0.999301, 283, 97, 298, 224
-0.999304, 337, 1, 352, 128
-0.999305, 265, 49, 280, 176
-0.999307, 179, 81, 194, 208
-0.999308, 327, 145, 342, 272
-0.999309, 327, 1, 342, 128
-0.999327, 141, 177, 156, 304
-0.999333, 291, 145, 306, 272
-0.999333, 393, 241, 408, 364
-0.999334, 377, 241, 392, 364
-0.999335, 157, 177, 172, 304
-0.99934, 169, 129, 184, 256
-0.999341, 261, 129, 276, 256
-0.999341, 7, 241, 22, 364
-0.999348, 361, 161, 376, 288
-0.999348, 245, 1, 276, 256
-0.999351, 383, 241, 398, 364
-0.999353, 259, 65, 274, 192
-0.999356, 121, 193, 136, 320
-0.999359, 431, 241, 446, 364
-0.999362, 361, 1, 376, 128
-0.999363, 289, 1, 304, 128
-0.999364, 193, 81, 208, 208
-0.999366, 481, 177, 496, 304
-0.999368, 321, 145, 336, 272
-0.999369, 365, 241, 380, 364
-0.999369, 427, 1, 442, 128
-0.999378, 445, 1, 476, 256
-0.999402, 101, 33, 132, 288
-0.999412, 117, 1, 148, 256
-0.999452, 429, 97, 460, 352
-0.999537, 97, 49, 160, 176
-0.999552, 349, 97, 380, 352
-0.999642, 213, 283, 228, 298
-0.999643, 97, 259, 112, 274
-0.999644, 329, 281, 344, 296
-0.999644, 35, 259, 50, 274
-0.999644, 107, 259, 122, 274
-0.999645, 331, 207, 346, 222
-0.999647, 173, 279, 188, 294
-0.999648, 339, 219, 354, 234
-0.999649, 231, 303, 246, 318
-0.999649, 91, 255, 106, 270
-0.99965, 179, 279, 194, 294
-0.99965, 213, 291, 228, 306
-0.999651, 179, 229, 194, 244
-0.999651, 15, 249, 30, 264
-0.999651, 175, 271, 190, 286
-0.999651, 9, 319, 24, 334
-0.999652, 225, 303, 240, 318
-0.999653, 71, 257, 86, 272
-0.999655, 299, 271, 314, 286
-0.999657, 349, 223, 364, 238
-0.999657, 169, 287, 184, 302
-0.999658, 119, 259, 134, 274
-0.999659, 311, 281, 326, 296
-0.999659, 323, 247, 338, 262
-0.999659, 275, 211, 290, 226
-0.99966, 481, 173, 496, 188
-0.99966, 227, 209, 242, 224
-0.999661, 169, 267, 184, 282
-0.999661, 45, 259, 60, 274
-0.999661, 147, 259, 162, 274
-0.999664, 53, 255, 68, 270
-0.999664, 165, 279, 180, 294
-0.999665, 311, 229, 326, 244
-0.999665, 145, 249, 160, 264
-0.999666, 139, 325, 154, 340
-0.999666, 289, 287, 304, 302
-0.999666, 261, 219, 276, 234
-0.999668, 317, 277, 332, 292
-0.999669, 169, 273, 184, 288
-0.99967, 21, 259, 36, 274
-0.99967, 373, 319, 388, 334
-0.99967, 193, 249, 208, 264
-0.999672, 311, 271, 326, 286
-0.999673, 131, 249, 146, 264
-0.999675, 229, 221, 244, 236
-0.999677, 153, 265, 168, 280
-0.999677, 237, 225, 252, 240
-0.999678, 213, 303, 228, 318
-0.99968, 275, 217, 290, 232
-0.99968, 115, 245, 130, 260
-0.999681, 79, 255, 94, 270
-0.999682, 219, 301, 234, 316
-0.999682, 327, 287, 342, 302
-0.999684, 269, 209, 284, 224
-0.999685, 175, 265, 190, 280
-0.999685, 329, 263, 344, 278
-0.999685, 161, 243, 176, 258
-0.999687, 481, 167, 496, 182
-0.999689, 325, 275, 340, 290
-0.999689, 311, 265, 326, 280
-0.99969, 213, 297, 228, 312
-0.99969, 305, 273, 320, 288
-0.999691, 339, 209, 354, 224
-0.999692, 199, 251, 214, 266
-0.999692, 211, 261, 226, 276
-0.999693, 297, 281, 312, 296
-0.999694, 299, 295, 314, 310
-0.999694, 315, 295, 330, 310
-0.999694, 289, 263, 304, 278
-0.999694, 287, 253, 302, 268
-0.999697, 301, 231, 316, 246
-0.999698, 303, 265, 318, 280
-0.9997, 157, 249, 172, 264
-0.999701, 189, 257, 204, 272
-0.999704, 159, 263, 174, 278
-0.999704, 285, 219, 300, 234
-0.999707, 223, 223, 238, 238
-0.999709, 187, 245, 202, 260
-0.999709, 151, 251, 166, 266
-0.99971, 163, 269, 178, 284
-0.99971, 207, 251, 222, 266
-0.999711, 283, 209, 298, 224
-0.999711, 291, 239, 306, 254
-0.999712, 293, 297, 308, 312
-0.999712, 317, 233, 332, 248
-0.999715, 163, 251, 178, 266
-0.999717, 319, 289, 334, 304
-0.99972, 179, 259, 194, 274
-0.999721, 199, 259, 214, 274
-0.999721, 481, 179, 496, 194
-0.999723, 333, 253, 348, 268
-0.999723, 329, 245, 344, 260
-0.999724, 189, 209, 204, 224
-0.99973, 299, 245, 314, 260
-0.999731, 303, 287, 318, 302
-0.999731, 325, 237, 340, 252
-0.999732, 307, 243, 322, 258
-0.999734, 227, 215, 242, 230
-0.999734, 297, 261, 312, 276
-0.999737, 313, 259, 328, 274
-0.999739, 179, 251, 194, 266
-0.999743, 321, 267, 336, 282
-0.999743, 311, 235, 326, 250
-0.999745, 319, 283, 334, 298
-0.999751, 323, 261, 338, 276
-0.999752, 171, 243, 186, 258
-0.999752, 309, 287, 324, 302
-0.999752, 293, 233, 308, 248
-0.999754, 221, 215, 236, 230
-0.999754, 305, 259, 320, 274
-0.999755, 313, 253, 328, 268
-0.999757, 315, 243, 330, 258
-0.999758, 205, 257, 220, 272
-0.999762, 173, 253, 188, 268
-0.999763, 305, 279, 320, 294
-0.999765, 323, 253, 338, 268
-0.999766, 169, 259, 184, 274
-0.999769, 305, 237, 320, 252
-0.999769, 13, 255, 28, 270
-0.99977, 159, 257, 174, 272
-0.99977, 113, 97, 144, 352
-0.999771, 173, 237, 188, 252
-0.999778, 179, 235, 194, 250
-0.999783, 303, 253, 318, 268
-0.999784, 185, 239, 200, 254
-0.999785, 5, 65, 36, 320
-0.999789, 293, 255, 308, 270
-0.99979, 291, 245, 306, 260
-0.99979, 167, 235, 182, 250
-0.999799, 297, 239, 312, 254
-0.999803, 49, 113, 112, 240
-0.999805, 295, 287, 310, 302
-0.999811, 179, 245, 194, 260
-0.999831, 393, 97, 424, 352
-0.999831, 417, 97, 448, 352
-0.999897, 65, 1, 96, 256
-0.999921, 17, 97, 48, 352
-0.999938, 373, 97, 404, 352
-1.00004, 85, 97, 116, 352
-1.00008, 33, 1, 96, 256
-1.00008, 405, 97, 436, 352
-1.00012, 361, 97, 392, 352
-1.00025, 1, 49, 500, 112
-1.00029, 65, 97, 96, 352
-1.00043, 29, 97, 60, 352
-1.00057, 45, 65, 76, 320
-1.00081, 17, 1, 48, 256
-1.00084, 33, 1, 64, 256
-1.00091, 1, 89, 500, 152
-1.00108, 353, 97, 416, 224
-1.0012, 25, 1, 88, 128
-1.00168, 73, 97, 136, 224
-1.00176, 65, 97, 128, 352
-1.00178, 25, 113, 88, 240
-1.00237, 49, 49, 112, 176
-1.00295, 73, 49, 136, 176
-1.00723, 25, 49, 88, 176
