1978
-0.101886, 1, 1, 500, 375
-0.238154, 1, 1, 500, 256
-0.308603, 65, 1, 320, 375
-0.358018, 1, 97, 500, 352
-0.398103, 193, 1, 448, 375
-0.439176, 1, 1, 256, 256
-0.49045, 193, 1, 448, 256
-0.512051, 1, 97, 256, 352
-0.602204, 97, 1, 352, 256
-0.613462, 161, 97, 416, 352
-0.772984, 257, 129, 500, 375
-0.813354, 17, 1, 144, 375
-0.827208, 81, 1, 208, 375
-0.829304, 17, 1, 144, 256
-0.834998, 209, 1, 336, 375
-0.836278, 145, 1, 272, 256
-0.836966, 97, 1, 224, 256
-0.840488, 305, 1, 432, 375
-0.844379, 1, 81, 500, 208
-0.844836, 1, 97, 128, 352
-0.84519, 257, 1, 384, 375
-0.849509, 145, 1, 272, 375
-0.852162, 257, 1, 384, 256
-0.853591, 1, 17, 500, 144
-0.856441, 97, 129, 224, 375
-0.859392, 321, 65, 448, 320
-0.860821, 193, 1, 320, 256
-0.866393, 49, 97, 176, 352
-0.868547, 1, 129, 500, 256
-0.870394, 369, 33, 496, 288
-0.872554, 353, 1, 480, 375
-0.881081, 1, 177, 500, 304
-0.888542, 1, 17, 256, 144
-0.889578, 1, 97, 256, 224
-0.899948, 193, 129, 320, 375
-0.899973, 97, 33, 352, 160
-0.900277, 225, 1, 480, 128
-0.903029, 225, 49, 480, 176
-0.905196, 1, 225, 500, 352
-0.906905, 145, 129, 272, 375
-0.910188, 97, 81, 352, 208
-0.910636, 241, 97, 368, 352
-0.915038, 97, 1, 160, 128
-0.915893, 273, 1, 400, 128
-0.918663, 209, 1, 336, 128
-0.91948, 33, 1, 160, 128
-0.920569, 49, 81, 112, 208
-0.9215, 361, 49, 424, 176
-0.921591, 97, 49, 160, 176
-0.921993, 129, 241, 384, 368
-0.922293, 1, 145, 256, 272
-0.922508, 153, 1, 216, 128
-0.923091, 73, 1, 136, 128
-0.923453, 81, 49, 208, 176
-0.923723, 33, 49, 160, 176
-0.923994, 73, 49, 136, 176
-0.924586, 1, 97, 128, 224
-0.924633, 145, 1, 272, 128
-0.925769, 177, 17, 240, 144
-0.928501, 49, 1, 112, 128
-0.928503, 233, 1, 296, 128
-0.928659, 17, 17, 80, 144
-0.930022, 153, 49, 216, 176
-0.930157, 1, 209, 256, 336
-0.93019, 113, 97, 240, 224
-0.930539, 121, 1, 184, 128
-0.931454, 121, 49, 184, 176
-0.931466, 129, 129, 384, 256
-0.932459, 97, 1, 224, 128
-0.932599, 177, 49, 304, 176
-0.932795, 361, 1, 424, 128
-0.933958, 305, 65, 432, 192
-0.934225, 1, 65, 64, 192
-0.935095, 273, 1, 336, 128
-0.935217, 65, 97, 192, 224
-0.935714, 1, 241, 128, 368
-0.935898, 209, 1, 272, 128
-0.936987, 161, 113, 224, 240
-0.937017, 89, 97, 152, 224
-0.937374, 25, 97, 88, 224
-0.937941, 297, 1, 360, 128
-0.938325, 369, 97, 496, 224
-0.938499, 129, 49, 256, 176
-0.939942, 57, 33, 120, 96
-0.940403, 129, 193, 384, 320
-0.940838, 353, 49, 480, 176
-0.940922, 257, 49, 320, 176
-0.941668, 225, 113, 480, 240
-0.942165, 17, 193, 144, 320
-0.942407, 257, 177, 500, 304
-0.942449, 321, 1, 448, 128
-0.943145, 81, 65, 144, 128
-0.943809, 121, 25, 184, 88
-0.944217, 81, 41, 144, 104
-0.944538, 177, 65, 240, 192
-0.94455, 353, 145, 416, 272
-0.944984, 161, 1, 224, 64
-0.945215, 337, 1, 400, 128
-0.945396, 369, 57, 432, 120
-0.945588, 225, 49, 352, 176
-0.945759, 81, 17, 144, 80
-0.945789, 129, 97, 192, 224
-0.946568, 337, 145, 464, 272
-0.946611, 153, 57, 216, 120
-0.946773, 177, 25, 240, 88
-0.946783, 105, 57, 168, 120
-0.947408, 129, 49, 192, 112
-0.947412, 73, 177, 136, 304
-0.947559, 201, 65, 264, 192
-0.947659, 369, 129, 496, 375
-0.948182, 17, 145, 144, 272
-0.948397, 65, 97, 128, 160
-0.949519, 57, 129, 120, 256
-0.949598, 33, 225, 96, 352
-0.949829, 153, 241, 216, 368
-0.95036, 33, 17, 96, 80
-0.950964, 185, 49, 248, 112
-0.951226, 321, 177, 384, 304
-0.951492, 1, 1, 64, 64
-0.952427, 201, 1, 264, 64
-0.953125, 113, 177, 240, 304
-0.953212, 129, 73, 192, 136
-0.953746, 161, 97, 288, 224
-0.953859, 193, 241, 320, 368
-0.953969, 81, 121, 144, 184
-0.954163, 329, 65, 392, 192
-0.954314, 113, 1, 176, 64
-0.954955, 257, 57, 320, 120
-0.954998, 233, 49, 296, 176
-0.955131, 217, 49, 280, 112
-0.955153, 257, 241, 500, 368
-0.955174, 89, 89, 152, 152
-0.955576, 201, 25, 264, 88
-0.955759, 65, 161, 192, 288
-0.955921, 57, 9, 120, 72
-0.955976, 329, 41, 392, 104
-0.956085, 289, 177, 416, 304
-0.956202, 49, 241, 176, 368
-0.95643, 25, 41, 88, 104
-0.956456, 273, 113, 400, 240
-0.957501, 105, 145, 168, 272
-0.957685, 377, 97, 440, 224
-0.95777, 153, 33, 216, 96
-0.957939, 41, 129, 104, 192
-0.958285, 145, 193, 208, 320
-0.958466, 369, 1, 496, 128
-0.95909, 1, 161, 64, 288
-0.95909, 289, 161, 352, 288
-0.959549, 305, 225, 368, 352
-0.959849, 305, 1, 368, 64
-0.959947, 41, 89, 104, 152
-0.960025, 113, 97, 176, 160
-0.96015, 161, 145, 288, 272
-0.960401, 225, 17, 288, 80
-0.960566, 113, 241, 176, 368
-0.960622, 401, 65, 464, 192
-0.960774, 281, 225, 344, 352
-0.96078, 9, 105, 72, 168
-0.960799, 81, 177, 144, 240
-0.960944, 33, 249, 96, 312
-0.961009, 137, 121, 200, 184
-0.961028, 9, 209, 72, 336
-0.961067, 161, 153, 224, 216
-0.961089, 321, 161, 384, 224
-0.961119, 97, 193, 160, 320
-0.961277, 1, 41, 64, 104
-0.961289, 289, 33, 352, 96
-0.961347, 57, 57, 120, 120
-0.961634, 353, 161, 416, 224
-0.961675, 249, 1, 312, 64
-0.961945, 153, 81, 216, 144
-0.962177, 177, 73, 240, 136
-0.962246, 177, 161, 240, 288
-0.962282, 1, 65, 64, 128
-0.962316, 329, 129, 392, 256
-0.96235, 137, 1, 200, 64
-0.962749, 361, 81, 424, 144
-0.96314, 1, 153, 64, 216
-0.963158, 273, 225, 400, 352
-0.96331, 57, 241, 120, 368
-0.96339, 97, 57, 224, 120
-0.963489, 337, 193, 400, 256
-0.963634, 25, 145, 88, 272
-0.963673, 81, 1, 144, 256
-0.963704, 33, 1, 96, 256
-0.963741, 77, 49, 108, 176
-0.963852, 297, 57, 360, 120
-0.963991, 89, 145, 152, 208
-0.964174, 249, 33, 312, 96
-0.964218, 193, 97, 256, 160
-0.964522, 169, 49, 200, 112
-0.96464, 241, 161, 368, 288
-0.964908, 225, 97, 352, 224
-0.964937, 93, 1, 124, 128
-0.965012, 345, 33, 408, 288
-0.965012, 97, 33, 224, 96
-0.965206, 185, 241, 248, 368
-0.96523, 1, 25, 128, 88
-0.965332, 129, 241, 256, 368
-0.965711, 321, 73, 384, 136
-0.965759, 281, 49, 344, 176
-0.965781, 17, 17, 48, 144
-0.965781, 25, 65, 88, 128
-0.965802, 185, 1, 216, 128
-0.965829, 105, 49, 136, 176
-0.966051, 281, 1, 344, 64
-0.966111, 241, 81, 304, 144
-0.966236, 161, 113, 224, 176
-0.966312, 201, 145, 264, 272
-0.966407, 289, 241, 352, 304
-0.966451, 9, 1, 72, 256
-0.966717, 321, 65, 448, 128
-0.966872, 353, 97, 416, 224
-0.966943, 145, 33, 272, 96
-0.96696, 433, 81, 496, 208
-0.967038, 33, 49, 64, 176
-0.967045, 33, 97, 64, 224
-0.967051, 169, 49, 200, 176
-0.96711, 145, 57, 272, 120
-0.967118, 65, 97, 192, 160
-0.967249, 73, 1, 104, 128
-0.967367, 69, 17, 100, 80
-0.967411, 409, 73, 472, 136
-0.967421, 297, 217, 360, 280
-0.967454, 209, 73, 272, 136
-0.967464, 305, 113, 368, 240
-0.967522, 353, 25, 416, 88
-0.96753, 249, 241, 312, 368
-0.967661, 125, 1, 156, 128
-0.967786, 93, 97, 124, 224
-0.96803, 49, 41, 176, 104
-0.968153, 153, 201, 216, 264
-0.968159, 81, 25, 112, 88
-0.96826, 129, 1, 256, 64
-0.96827, 113, 1, 144, 128
-0.968323, 185, 1, 248, 256
-0.968347, 273, 41, 400, 104
-0.968366, 81, 9, 208, 72
-0.968407, 281, 265, 344, 328
-0.968456, 281, 49, 312, 112
-0.968574, 169, 1, 200, 128
-0.968816, 377, 1, 408, 128
-0.968891, 281, 1, 312, 128
-0.968986, 153, 1, 216, 256
-0.969263, 205, 17, 236, 80
-0.96927, 109, 57, 140, 120
-0.969394, 97, 65, 128, 128
-0.969396, 81, 97, 112, 160
-0.969428, 385, 1, 448, 128
-0.969446, 361, 105, 424, 168
-0.969452, 89, 249, 152, 312
-0.969471, 377, 145, 440, 208
-0.969534, 125, 81, 156, 208
-0.969562, 9, 1, 40, 64
-0.969593, 29, 1, 60, 64
-0.96962, 81, 241, 144, 368
-0.969654, 113, 81, 240, 144
-0.969673, 233, 1, 264, 128
-0.969736, 353, 129, 416, 192
-0.969761, 149, 25, 180, 88
-0.969812, 157, 49, 188, 176
-0.96982, 137, 49, 168, 176
-0.969827, 69, 81, 100, 144
-0.969835, 17, 145, 144, 208
-0.969845, 101, 17, 132, 80
-0.969853, 209, 57, 336, 120
-0.969862, 1, 113, 64, 240
-0.969902, 49, 177, 112, 304
-0.969906, 49, 97, 112, 352
-0.970014, 297, 161, 360, 224
-0.970121, 189, 33, 220, 96
-0.970233, 121, 193, 184, 320
-0.970296, 305, 193, 368, 256
-0.970454, 17, 65, 48, 192
-0.970515, 1, 49, 32, 176
-0.970519, 129, 65, 160, 128
-0.970524, 113, 153, 176, 216
-0.970799, 221, 1, 252, 128
-0.970801, 281, 305, 344, 368
-0.970884, 117, 81, 148, 144
-0.970957, 157, 57, 188, 120
-0.970972, 169, 25, 200, 88
-0.970987, 89, 49, 120, 176
-0.971081, 41, 225, 104, 288
-0.971124, 153, 177, 216, 240
-0.971135, 257, 1, 384, 64
-0.971154, 265, 1, 296, 128
-0.971172, 189, 1, 220, 64
-0.971202, 9, 129, 72, 375
-0.971259, 121, 41, 152, 104
-0.971338, 193, 25, 320, 88
-0.971345, 177, 177, 240, 240
-0.971354, 209, 1, 336, 64
-0.971415, 53, 81, 84, 208
-0.971632, 221, 1, 252, 64
-0.971646, 161, 1, 192, 64
-0.971728, 45, 1, 76, 128
-0.971731, 85, 57, 116, 120
-0.971756, 105, 209, 168, 272
-0.971871, 57, 1, 120, 256
-0.971956, 65, 145, 128, 208
-0.971965, 121, 33, 184, 288
-0.972122, 353, 1, 384, 128
-0.972122, 189, 97, 220, 224
-0.972234, 33, 65, 160, 128
-0.972325, 321, 1, 384, 256
-0.972365, 305, 65, 368, 192
-0.972408, 1, 257, 128, 320
-0.972601, 61, 1, 92, 128
-0.97272, 21, 25, 52, 88
-0.972763, 217, 41, 248, 104
-0.972787, 369, 33, 432, 288
-0.972809, 73, 225, 136, 288
-0.972867, 113, 129, 176, 192
-0.972887, 365, 1, 396, 128
-0.972892, 97, 137, 224, 200
-0.973055, 97, 97, 128, 160
-0.973184, 181, 57, 212, 120
-0.973305, 145, 1, 176, 128
-0.973341, 25, 153, 88, 216
-0.973373, 209, 1, 272, 256
-0.973375, 33, 1, 160, 64
-0.973385, 293, 1, 324, 128
-0.973441, 129, 145, 192, 272
-0.973508, 393, 121, 456, 184
-0.973542, 113, 185, 176, 248
-0.973566, 65, 49, 96, 176
-0.973585, 201, 153, 264, 216
-0.973669, 53, 105, 84, 168
-0.973681, 257, 289, 320, 352
-0.973694, 189, 49, 220, 176
-0.973802, 357, 49, 388, 112
-0.973814, 17, 121, 144, 184
-0.973846, 145, 129, 208, 375
-0.973889, 273, 145, 336, 208
-0.973992, 1, 41, 32, 104
-0.974053, 17, 89, 144, 152
-0.974147, 305, 89, 432, 152
-0.974295, 233, 25, 264, 88
-0.974296, 97, 129, 160, 375
-0.97433, 329, 137, 392, 200
-0.974418, 9, 265, 72, 328
-0.97443, 249, 129, 312, 256
-0.97445, 389, 1, 420, 128
-0.974479, 377, 145, 440, 272
-0.974508, 297, 1, 328, 64
-0.974515, 249, 1, 280, 128
-0.974554, 57, 257, 120, 320
-0.974615, 169, 241, 232, 304
-0.97463, 33, 1, 64, 128
-0.974649, 209, 17, 240, 144
-0.974682, 321, 41, 448, 104
-0.974775, 369, 57, 496, 120
-0.974835, 33, 1, 96, 375
-0.974904, 409, 17, 472, 144
-0.975069, 1, 1, 32, 128
-0.975073, 433, 73, 496, 136
-0.975097, 185, 145, 216, 272
-0.975127, 409, 49, 472, 112
-0.975172, 25, 177, 88, 240
-0.975175, 141, 65, 172, 128
-0.975226, 249, 1, 280, 64
-0.975261, 13, 153, 44, 216
-0.975304, 161, 161, 288, 224
-0.975409, 5, 97, 36, 224
-0.97541, 157, 1, 188, 128
-0.975458, 289, 49, 320, 176
-0.975586, 169, 97, 200, 224
-0.975598, 137, 225, 200, 288
-0.975641, 113, 97, 144, 224
-0.975682, 265, 81, 328, 144
-0.975723, 45, 137, 76, 200
-0.975762, 201, 65, 232, 128
-0.975823, 285, 73, 316, 136
-0.975901, 265, 105, 328, 168
-0.975913, 57, 1, 120, 375
-0.975962, 401, 97, 464, 160
-0.97598, 257, 153, 384, 216
-0.976013, 397, 49, 428, 176
-0.976067, 273, 65, 400, 128
-0.976284, 89, 1, 152, 375
-0.976299, 329, 17, 392, 80
-0.9763, 233, 49, 264, 112
-0.97631, 173, 1, 204, 64
-0.976317, 177, 193, 304, 320
-0.976319, 157, 97, 188, 224
-0.976395, 305, 1, 336, 128
-0.976436, 249, 145, 312, 208
-0.976446, 69, 113, 100, 176
-0.976506, 197, 1, 228, 128
-0.976593, 81, 169, 208, 232
-0.976612, 193, 273, 256, 336
-0.976643, 133, 33, 164, 96
-0.976735, 65, 97, 96, 224
-0.97676, 57, 73, 88, 136
-0.976862, 41, 105, 72, 168
-0.976922, 33, 145, 64, 208
-0.976934, 277, 49, 308, 176
-0.976998, 273, 209, 336, 272
-0.977033, 233, 1, 264, 64
-0.977054, 169, 97, 232, 352
-0.977082, 145, 273, 208, 336
-0.977114, 169, 281, 232, 344
-0.977176, 313, 249, 344, 312
-0.977231, 209, 289, 336, 352
-0.977305, 257, 41, 288, 104
-0.977339, 305, 289, 368, 352
-0.977374, 349, 73, 380, 136
-0.977386, 269, 73, 300, 136
-0.977394, 69, 41, 100, 104
-0.977413, 149, 1, 180, 64
-0.977423, 121, 129, 184, 375
-0.977432, 77, 97, 108, 224
-0.977439, 369, 89, 496, 152
-0.977468, 241, 105, 304, 168
-0.977498, 113, 113, 240, 176
-0.977502, 53, 33, 84, 96
-0.977532, 365, 65, 396, 192
-0.977535, 321, 129, 448, 192
-0.977548, 177, 81, 304, 144
-0.977743, 121, 1, 152, 64
-0.977801, 345, 41, 376, 104
-0.977813, 337, 1, 400, 375
-0.977849, 329, 97, 392, 160
-0.977905, 397, 65, 428, 128
-0.977906, 329, 129, 392, 375
-0.97791, 357, 25, 388, 88
-0.977936, 297, 81, 360, 144
-0.978016, 9, 1, 72, 375
-0.978018, 209, 121, 272, 184
-0.97805, 201, 177, 264, 240
-0.9782, 297, 1, 360, 256
-0.978207, 297, 1, 360, 375
-0.978208, 337, 169, 464, 232
-0.978223, 357, 129, 388, 256
-0.978318, 97, 41, 128, 104
-0.978372, 73, 97, 136, 352
-0.978399, 157, 81, 188, 144
-0.978471, 9, 225, 72, 288
-0.97855, 137, 153, 200, 216
-0.978623, 41, 9, 72, 72
-0.978673, 85, 1, 116, 64
-0.978706, 177, 313, 240, 375
-0.978731, 321, 217, 384, 280
-0.978754, 225, 81, 352, 144
-0.978872, 117, 113, 148, 176
-0.978947, 357, 161, 388, 224
-0.978989, 205, 81, 236, 208
-0.979176, 281, 1, 312, 64
-0.979213, 25, 193, 56, 320
-0.979266, 289, 177, 416, 240
-0.979276, 269, 49, 300, 112
-0.97938, 381, 49, 412, 112
-0.979477, 221, 65, 252, 192
-0.979477, 369, 113, 496, 176
-0.979485, 9, 65, 40, 128
-0.979492, 225, 265, 352, 328
-0.979524, 341, 177, 372, 304
-0.979543, 209, 241, 272, 368
-0.979646, 145, 1, 208, 375
-0.979724, 341, 161, 372, 224
-0.979815, 341, 193, 372, 256
-0.979828, 345, 65, 376, 192
-0.979848, 385, 49, 416, 176
-0.979886, 393, 33, 456, 288
-0.979917, 85, 177, 116, 304
-0.979942, 121, 1, 184, 375
-0.979959, 161, 105, 288, 168
-0.979985, 193, 137, 224, 200
-0.979999, 197, 161, 228, 224
-0.980008, 193, 185, 320, 248
-0.980085, 137, 105, 168, 168
-0.980149, 145, 249, 208, 312
-0.980207, 361, 1, 424, 64
-0.980282, 177, 1, 240, 375
-0.980341, 329, 1, 360, 64
-0.98042, 213, 65, 244, 128
-0.980455, 137, 97, 168, 224
-0.980461, 57, 169, 120, 232
-0.980468, 177, 113, 208, 176
-0.980492, 321, 161, 352, 288
-0.980523, 269, 1, 300, 64
-0.980531, 89, 129, 120, 192
-0.980558, 97, 177, 128, 304
-0.980642, 353, 129, 416, 375
-0.980646, 17, 169, 144, 232
-0.980672, 401, 113, 464, 240
-0.980708, 313, 225, 344, 352
-0.980741, 409, 49, 440, 112
-0.980794, 361, 1, 424, 375
-0.980898, 337, 193, 464, 320
-0.980958, 45, 65, 76, 128
-0.98099, 309, 1, 340, 64
-0.981019, 145, 137, 272, 200
-0.981031, 169, 81, 200, 144
-0.981064, 225, 161, 288, 288
-0.981093, 53, 9, 84, 72
-0.981163, 241, 313, 304, 375
-0.981242, 369, 145, 496, 208
-0.981303, 113, 169, 144, 232
-0.981324, 17, 129, 80, 192
-0.981327, 177, 201, 240, 264
-0.981328, 373, 169, 404, 232
-0.981342, 257, 185, 320, 248
-0.981431, 113, 249, 240, 312
-0.981471, 305, 65, 336, 128
-0.981512, 301, 265, 332, 328
-0.981532, 33, 233, 160, 296
-0.981559, 265, 233, 328, 296
-0.981584, 305, 265, 368, 328
-0.981609, 201, 1, 264, 375
-0.98161, 33, 145, 64, 272
-0.981623, 69, 193, 100, 320
-0.981639, 289, 113, 352, 176
-0.981717, 405, 97, 436, 224
-0.981776, 73, 257, 104, 320
-0.981792, 201, 41, 232, 104
-0.981809, 469, 97, 500, 224
-0.981822, 313, 281, 344, 344
-0.981827, 209, 161, 240, 224
-0.981854, 369, 49, 400, 112
-0.981956, 341, 129, 372, 256
-0.981972, 273, 1, 336, 375
-0.982016, 273, 201, 400, 264
-0.982029, 137, 1, 168, 64
-0.982076, 385, 145, 416, 208
-0.982127, 37, 209, 68, 336
-0.982138, 209, 161, 336, 224
-0.982149, 69, 241, 100, 368
-0.982154, 29, 105, 60, 168
-0.982163, 185, 201, 216, 264
-0.982189, 325, 1, 356, 128
-0.982279, 57, 249, 88, 312
-0.982284, 397, 137, 428, 200
-0.982399, 433, 97, 496, 160
-0.982436, 461, 49, 492, 176
-0.982454, 17, 113, 48, 240
-0.982457, 249, 177, 312, 304
-0.98249, 385, 129, 416, 256
-0.982537, 285, 25, 316, 88
-0.982543, 193, 129, 320, 192
-0.982559, 325, 265, 356, 328
-0.982585, 113, 257, 176, 320
-0.982658, 185, 169, 216, 232
-0.98266, 345, 1, 376, 64
-0.982706, 293, 49, 324, 112
-0.98272, 1, 89, 32, 152
-0.982787, 293, 241, 324, 368
-0.982809, 33, 33, 64, 96
-0.98285, 129, 201, 256, 264
-0.982868, 289, 297, 320, 360
-0.982921, 17, 201, 144, 264
-0.982933, 297, 25, 328, 88
-0.983039, 265, 49, 296, 176
-0.983043, 45, 129, 76, 256
-0.983057, 325, 225, 356, 352
-0.983064, 465, 73, 496, 136
-0.983112, 225, 177, 288, 240
-0.983164, 161, 313, 288, 375
-0.983201, 153, 305, 216, 368
-0.983253, 197, 145, 228, 272
-0.98332, 305, 137, 368, 200
-0.98334, 325, 241, 356, 304
-0.983366, 233, 49, 264, 176
-0.983395, 321, 241, 384, 304
-0.983421, 161, 121, 192, 184
-0.983521, 305, 305, 336, 368
-0.983545, 353, 185, 384, 248
-0.983558, 65, 265, 192, 328
-0.983641, 213, 97, 244, 160
-0.983768, 141, 241, 172, 368
-0.983776, 337, 1, 464, 64
-0.983873, 93, 177, 124, 240
-0.983914, 189, 81, 220, 144
-0.984033, 273, 241, 400, 304
-0.984034, 197, 105, 228, 168
-0.984084, 229, 89, 260, 152
-0.98416, 361, 73, 392, 136
-0.984192, 273, 129, 400, 192
-0.984295, 105, 137, 136, 200
-0.984401, 161, 177, 192, 304
-0.98443, 309, 177, 340, 304
-0.984457, 53, 193, 84, 320
-0.984517, 345, 193, 408, 320
-0.984521, 373, 145, 404, 272
-0.984573, 161, 273, 288, 336
-0.984576, 341, 17, 372, 144
-0.984627, 401, 1, 432, 128
-0.98467, 325, 185, 356, 248
-0.984788, 245, 49, 276, 112
-0.984791, 189, 209, 220, 336
-0.984794, 209, 233, 336, 296
-0.984812, 233, 1, 296, 256
-0.984817, 321, 217, 352, 280
-0.984873, 41, 225, 72, 288
-0.98491, 57, 241, 88, 368
-0.984911, 253, 65, 284, 192
-0.984964, 13, 105, 44, 168
-0.985108, 33, 169, 64, 232
-0.985413, 273, 265, 400, 328
-0.985438, 273, 97, 336, 224
-0.985451, 297, 129, 360, 375
-0.985514, 357, 97, 388, 160
-0.985563, 181, 137, 212, 200
-0.98561, 109, 145, 140, 272
-0.985653, 45, 249, 76, 312
-0.985721, 301, 217, 332, 280
-0.985726, 81, 241, 112, 368
-0.985755, 193, 97, 256, 352
-0.985783, 293, 97, 324, 160
-0.985787, 129, 241, 160, 368
-0.985809, 125, 137, 156, 200
-0.985836, 241, 313, 368, 375
-0.98593, 433, 1, 496, 256
-0.986048, 153, 241, 184, 368
-0.986072, 113, 281, 240, 344
-0.986105, 265, 1, 328, 256
-0.986179, 353, 177, 384, 304
-0.986232, 169, 225, 200, 352
-0.986235, 113, 305, 240, 368
-0.986378, 97, 33, 352, 96
-0.986505, 209, 129, 240, 256
-0.986514, 241, 105, 368, 168
-0.986525, 21, 241, 52, 368
-0.986642, 33, 73, 288, 136
-0.986693, 265, 97, 328, 352
-0.98673, 109, 225, 140, 352
-0.986874, 321, 201, 448, 264
-0.986875, 225, 97, 288, 224
-0.986905, 97, 225, 128, 352
-0.986939, 121, 193, 152, 320
-0.987013, 433, 33, 496, 160
-0.987038, 457, 97, 488, 224
-0.98708, 297, 97, 328, 224
-0.987237, 433, 129, 496, 256
-0.98726, 249, 1, 312, 375
-0.987293, 225, 209, 352, 272
-0.987296, 369, 33, 496, 96
-0.987424, 81, 225, 208, 288
-0.987452, 1, 9, 256, 72
-0.987493, 173, 145, 204, 272
-0.98754, 81, 41, 144, 72
-0.987868, 65, 53, 128, 84
-0.988035, 273, 289, 400, 352
-0.988054, 209, 57, 272, 88
-0.988096, 129, 57, 384, 120
-0.988102, 225, 57, 480, 120
-0.988122, 225, 1, 288, 375
-0.988151, 125, 129, 156, 256
-0.988164, 177, 21, 240, 52
-0.988167, 121, 81, 184, 112
-0.988228, 49, 41, 112, 72
-0.988308, 177, 33, 240, 64
-0.988334, 113, 21, 176, 52
-0.988366, 137, 145, 168, 272
-0.988372, 57, 29, 120, 60
-0.988378, 57, 17, 120, 48
-0.988432, 337, 49, 400, 80
-0.988484, 65, 101, 128, 132
-0.988501, 177, 45, 240, 76
-0.988522, 81, 65, 144, 96
-0.988551, 369, 61, 432, 92
-0.98856, 153, 33, 216, 64
-0.988607, 1, 33, 256, 96
-0.988615, 177, 1, 240, 32
-0.988648, 1, 81, 500, 144
-0.98865, 121, 33, 184, 64
-0.988674, 1, 145, 32, 272
-0.988678, 201, 37, 264, 68
-0.988693, 161, 61, 224, 92
-0.988752, 185, 65, 248, 96
-0.988758, 57, 129, 120, 160
-0.988769, 65, 81, 128, 112
-0.988781, 81, 25, 144, 56
-0.988899, 105, 57, 168, 88
-0.988912, 145, 17, 208, 48
-0.988921, 17, 25, 80, 56
-0.988954, 409, 49, 440, 176
-0.988996, 1, 281, 128, 344
-0.989003, 17, 45, 80, 76
-0.989016, 105, 45, 168, 76
-0.989025, 133, 193, 164, 320
-0.989031, 297, 193, 328, 320
-0.989042, 129, 1, 384, 64
-0.989055, 301, 49, 332, 176
-0.989105, 329, 61, 392, 92
-0.989126, 369, 73, 432, 104
-0.989169, 129, 273, 384, 336
-0.989209, 41, 257, 104, 288
-0.989214, 321, 241, 448, 368
-0.989228, 149, 177, 180, 304
-0.98923, 321, 85, 384, 116
-0.989293, 297, 65, 360, 96
-0.989302, 89, 93, 152, 124
-0.989325, 217, 25, 280, 56
-0.989329, 17, 9, 80, 40
-0.98935, 265, 53, 328, 84
-0.989405, 333, 65, 364, 192
-0.989461, 89, 13, 152, 44
-0.989466, 193, 25, 448, 88
-0.989482, 329, 73, 392, 104
-0.989486, 9, 241, 40, 368
-0.989497, 201, 225, 232, 352
-0.989499, 137, 185, 200, 216
-0.989534, 137, 53, 200, 84
-0.989546, 41, 89, 104, 120
-0.989549, 169, 177, 232, 208
-0.989555, 153, 5, 216, 36
-0.989566, 201, 9, 264, 40
-0.98957, 233, 69, 296, 100
-0.989703, 1, 161, 64, 192
-0.98975, 33, 97, 288, 160
-0.989841, 145, 73, 208, 104
-0.989845, 313, 161, 376, 192
-0.989889, 249, 1, 312, 32
-0.989897, 377, 129, 440, 375
-0.989908, 313, 9, 376, 40
-0.989915, 225, 45, 288, 76
-0.989926, 345, 149, 408, 180
-0.98994, 1, 105, 500, 168
-0.989945, 121, 101, 184, 132
-0.989955, 49, 5, 112, 36
-0.989959, 169, 165, 232, 196
-0.989976, 233, 57, 296, 88
-0.989977, 1, 97, 64, 128
-0.989986, 273, 1, 336, 32
-0.989994, 97, 117, 160, 148
-0.990031, 153, 197, 216, 228
-0.990049, 177, 77, 240, 108
-0.990059, 313, 33, 376, 64
-0.990067, 73, 1, 136, 32
-0.990082, 277, 241, 308, 368
-0.990098, 1, 57, 500, 120
-0.990111, 1, 17, 500, 80
-0.990136, 81, 193, 208, 256
-0.990173, 9, 57, 72, 88
-0.990179, 361, 49, 424, 80
-0.990179, 1, 185, 256, 248
-0.990184, 41, 57, 104, 88
-0.990201, 81, 153, 144, 184
-0.990212, 241, 33, 304, 64
-0.990229, 145, 93, 208, 124
-0.990244, 209, 69, 272, 100
-0.990253, 385, 1, 448, 375
-0.990262, 213, 241, 244, 368
-0.990306, 121, 69, 184, 100
-0.990316, 289, 145, 352, 176
-0.990323, 105, 1, 168, 32
-0.990323, 41, 141, 104, 172
-0.990339, 281, 257, 344, 288
-0.990354, 273, 21, 336, 52
-0.990357, 81, 185, 144, 216
-0.990362, 97, 133, 160, 164
-0.990366, 65, 289, 192, 352
-0.990371, 25, 77, 88, 108
-0.990372, 417, 97, 448, 224
-0.990376, 297, 229, 360, 260
-0.990401, 137, 129, 200, 160
-0.990413, 129, 5, 192, 36
-0.990425, 417, 81, 480, 112
-0.990425, 313, 45, 376, 76
-0.990439, 329, 173, 392, 204
-0.990463, 1, 153, 500, 216
-0.990465, 57, 69, 120, 100
-0.990523, 25, 153, 88, 184
-0.990529, 289, 269, 352, 300
-0.990561, 177, 197, 240, 228
-0.990579, 129, 81, 384, 144
-0.990589, 1, 137, 256, 200
-0.990607, 169, 89, 232, 120
-0.990618, 361, 85, 424, 116
-0.990619, 209, 177, 240, 304
-0.990655, 297, 205, 360, 236
-0.99068, 361, 161, 424, 192
-0.99071, 105, 173, 168, 204
-0.990714, 209, 173, 272, 204
-0.990717, 257, 69, 320, 100
-0.990732, 297, 245, 360, 276
-0.990735, 313, 189, 376, 220
-0.990742, 121, 141, 184, 172
-0.990745, 225, 9, 288, 40
-0.990754, 81, 257, 144, 288
-0.990783, 297, 217, 360, 248
-0.99079, 1, 129, 500, 192
-0.990795, 113, 193, 176, 224
-0.990823, 289, 45, 352, 76
-0.990824, 289, 289, 352, 320
-0.990827, 41, 109, 104, 140
-0.990849, 169, 113, 232, 144
-0.990921, 169, 153, 232, 184
-0.990924, 265, 301, 328, 332
-0.99094, 353, 181, 416, 212
-0.990944, 225, 81, 480, 144
-0.990945, 361, 101, 424, 132
-0.990956, 337, 193, 400, 224
-0.990988, 1, 69, 64, 100
-0.990998, 397, 145, 428, 272
-0.991031, 289, 313, 416, 375
-0.991031, 433, 93, 496, 124
-0.991034, 225, 85, 288, 116
-0.991038, 1, 161, 256, 224
-0.99105, 281, 33, 344, 64
-0.991059, 73, 117, 136, 148
-0.991065, 193, 101, 256, 132
-0.99108, 361, 117, 424, 148
-0.991107, 401, 57, 464, 88
-0.991109, 401, 97, 464, 128
-0.991116, 345, 29, 408, 60
-0.99116, 89, 81, 152, 112
-0.991175, 97, 105, 160, 136
-0.9912, 265, 81, 328, 112
-0.991202, 137, 173, 200, 204
-0.991256, 161, 125, 224, 156
-0.991262, 249, 177, 312, 208
-0.991437, 13, 161, 44, 288
-0.99148, 261, 113, 292, 240
-0.991696, 129, 225, 256, 288
-0.991698, 321, 233, 448, 296
-0.991747, 297, 145, 328, 272
-0.991806, 69, 21, 100, 52
-0.991811, 97, 33, 224, 64
-0.991969, 101, 57, 132, 88
-0.991995, 225, 1, 480, 64
-0.991998, 49, 25, 176, 56
-0.992001, 69, 33, 100, 64
-0.992002, 161, 169, 416, 232
-0.992011, 113, 61, 144, 92
-0.992071, 17, 61, 144, 92
-0.992073, 97, 53, 224, 84
-0.992086, 97, 25, 128, 56
-0.992089, 109, 37, 140, 68
-0.992117, 125, 25, 156, 56
-0.992132, 165, 57, 196, 88
-0.992142, 201, 13, 232, 44
-0.992146, 89, 41, 120, 72
-0.992154, 85, 29, 116, 60
-0.992166, 105, 1, 136, 32
-0.992174, 205, 61, 236, 92
-0.99218, 101, 69, 132, 100
-0.992182, 89, 53, 120, 84
-0.992197, 185, 33, 216, 64
-0.992202, 77, 53, 108, 84
-0.992219, 229, 241, 260, 368
-0.99223, 113, 89, 144, 120
-0.99224, 357, 65, 388, 96
-0.992242, 281, 53, 312, 84
-0.992247, 201, 37, 232, 68
-0.992258, 53, 17, 84, 48
-0.992261, 113, 49, 144, 80
-0.992269, 301, 1, 332, 32
-0.992275, 185, 45, 216, 76
-0.992281, 85, 17, 116, 48
-0.992292, 213, 33, 244, 64
-0.992324, 145, 21, 176, 52
-0.992324, 153, 57, 184, 88
-0.992327, 185, 1, 216, 32
-0.992337, 73, 85, 104, 116
-0.992352, 165, 29, 196, 60
-0.992353, 177, 209, 304, 272
-0.992355, 221, 65, 252, 96
-0.992356, 97, 13, 128, 44
-0.992357, 109, 25, 140, 56
-0.992364, 1, 57, 32, 88
-0.99237, 173, 41, 204, 72
-0.992377, 229, 9, 260, 40
-0.992379, 213, 49, 244, 80
-0.99238, 233, 45, 264, 76
-0.99238, 17, 153, 48, 184
-0.992401, 41, 21, 72, 52
-0.992408, 165, 17, 196, 48
-0.992408, 17, 53, 48, 84
-0.99241, 313, 9, 344, 40
-0.992413, 341, 65, 372, 96
-0.992414, 173, 69, 204, 100
-0.992416, 25, 1, 56, 32
-0.99242, 193, 65, 224, 96
-0.992428, 133, 69, 164, 100
-0.99243, 349, 49, 380, 80
-0.992431, 373, 49, 404, 80
-0.992431, 285, 177, 316, 304
-0.992443, 261, 65, 292, 96
-0.992457, 221, 21, 252, 52
-0.992458, 53, 45, 84, 76
-0.992459, 45, 33, 76, 64
-0.992481, 145, 17, 272, 48
-0.992494, 257, 1, 288, 32
-0.992497, 129, 37, 160, 68
-0.992498, 349, 85, 380, 116
-0.992518, 21, 37, 52, 68
-0.992529, 1, 93, 32, 124
-0.992529, 173, 49, 188, 112
-0.99253, 5, 45, 36, 76
-0.992532, 29, 13, 60, 44
-0.992533, 113, 73, 144, 104
-0.992537, 285, 1, 316, 32
-0.992543, 65, 129, 96, 160
-0.992546, 449, 49, 480, 176
-0.992555, 61, 85, 92, 116
-0.992555, 65, 97, 96, 128
-0.992557, 197, 141, 228, 172
-0.992565, 177, 21, 208, 52
-0.992568, 217, 1, 248, 32
-0.99257, 1, 265, 256, 328
-0.99257, 37, 61, 68, 92
-0.992571, 109, 101, 140, 132
-0.992577, 125, 57, 156, 88
-0.992579, 297, 13, 328, 44
-0.992579, 153, 33, 184, 64
-0.992587, 149, 129, 180, 160
-0.992591, 9, 17, 40, 48
-0.992605, 49, 137, 80, 168
-0.992608, 125, 49, 140, 112
-0.99261, 97, 69, 224, 100
-0.99261, 237, 57, 268, 88
-0.992612, 177, 65, 304, 96
-0.992615, 237, 33, 268, 64
-0.992616, 397, 61, 428, 92
-0.992623, 91, 25, 106, 88
-0.992623, 317, 257, 348, 288
-0.992626, 201, 25, 232, 56
-0.992635, 361, 77, 392, 108
-0.992637, 29, 25, 60, 56
-0.992641, 361, 53, 392, 84
-0.992642, 321, 73, 448, 104
-0.992643, 73, 9, 104, 40
-0.992644, 57, 29, 88, 60
-0.992652, 125, 81, 156, 112
-0.992653, 113, 13, 144, 44
-0.992654, 53, 65, 84, 96
-0.992658, 193, 201, 224, 232
-0.992661, 305, 53, 432, 84
-0.992663, 173, 5, 204, 36
-0.992668, 189, 21, 220, 52
-0.992671, 273, 1, 304, 32
-0.992672, 193, 153, 224, 184
-0.992674, 97, 101, 128, 132
-0.992677, 13, 1, 44, 32
-0.992677, 85, 65, 116, 96
-0.992681, 125, 13, 156, 44
-0.992682, 89, 121, 120, 152
-0.992684, 17, 65, 48, 96
-0.992686, 321, 237, 352, 268
-0.992687, 181, 57, 212, 88
-0.99269, 101, 117, 132, 148
-0.992696, 5, 33, 36, 64
-0.992701, 153, 73, 184, 104
-0.992703, 393, 153, 424, 184
-0.992705, 1, 5, 32, 36
-0.992708, 201, 1, 232, 32
-0.992709, 113, 153, 144, 184
-0.992714, 101, 81, 132, 112
-0.992718, 301, 145, 332, 176
-0.992723, 353, 29, 384, 60
-0.992733, 101, 133, 132, 164
-0.992735, 33, 45, 64, 76
-0.992736, 113, 137, 144, 168
-0.992749, 53, 253, 84, 284
-0.992751, 65, 53, 96, 84
-0.992759, 161, 129, 192, 160
-0.992759, 301, 293, 332, 324
-0.992779, 345, 165, 376, 196
-0.992782, 329, 65, 360, 96
-0.992791, 197, 49, 228, 80
-0.992794, 193, 145, 448, 208
-0.9928, 37, 149, 68, 180
-0.992801, 317, 281, 348, 312
-0.992801, 83, 17, 98, 80
-0.992803, 81, 105, 112, 136
-0.992804, 113, 113, 144, 144
-0.992806, 185, 185, 216, 216
-0.992822, 17, 37, 144, 68
-0.992859, 17, 149, 144, 180
-0.992863, 49, 89, 176, 120
-0.992899, 161, 249, 288, 312
-0.992911, 177, 33, 304, 64
-0.992953, 165, 57, 180, 120
-0.993032, 245, 161, 276, 288
-0.993037, 107, 97, 122, 160
-0.993074, 1, 193, 500, 256
-0.993081, 257, 65, 384, 96
-0.993086, 79, 89, 94, 152
-0.993104, 205, 1, 220, 64
-0.993125, 161, 193, 416, 256
-0.993134, 113, 81, 240, 112
-0.993172, 217, 129, 280, 375
-0.993183, 17, 101, 144, 132
-0.993191, 17, 49, 144, 80
-0.993213, 107, 57, 122, 120
-0.993221, 185, 25, 200, 88
-0.993229, 145, 45, 272, 76
-0.99324, 243, 1, 258, 64
-0.993244, 161, 105, 416, 168
-0.993256, 81, 9, 208, 40
-0.993257, 209, 1, 336, 32
-0.993278, 1, 241, 256, 304
-0.993278, 129, 249, 384, 312
-0.993294, 313, 97, 344, 224
-0.993315, 165, 17, 180, 80
-0.993414, 179, 49, 194, 112
-0.993417, 369, 85, 496, 116
-0.993445, 113, 57, 128, 120
-0.993481, 135, 65, 150, 128
-0.993481, 97, 21, 224, 52
-0.993499, 97, 97, 224, 128
-0.993502, 119, 65, 134, 128
-0.993549, 283, 49, 298, 112
-0.993564, 101, 33, 116, 96
-0.993565, 299, 1, 314, 64
-0.993608, 69, 89, 84, 152
-0.993626, 29, 1, 44, 64
-0.993681, 197, 1, 212, 64
-0.993681, 75, 17, 90, 80
-0.993706, 133, 25, 148, 88
-0.993713, 63, 105, 78, 168
-0.993734, 1, 25, 128, 56
-0.993759, 369, 73, 496, 104
-0.993816, 87, 105, 102, 168
-0.993833, 209, 13, 336, 44
-0.993834, 23, 1, 38, 64
-0.993838, 57, 105, 72, 168
-0.99388, 119, 25, 134, 88
-0.993893, 433, 1, 496, 375
-0.993896, 291, 49, 306, 112
-0.993912, 433, 97, 496, 352
-0.993921, 69, 25, 84, 88
-0.993924, 81, 41, 96, 104
-0.993948, 23, 25, 38, 88
-0.993957, 1, 225, 500, 288
-0.993958, 95, 97, 110, 160
-0.993963, 129, 1, 256, 32
-0.993969, 1, 65, 16, 128
-0.993976, 209, 53, 336, 84
-0.994017, 257, 53, 384, 84
-0.994025, 237, 9, 252, 72
-0.994031, 123, 89, 138, 152
-0.994054, 257, 29, 384, 60
-0.994067, 257, 17, 384, 48
-0.994067, 233, 33, 248, 96
-0.994068, 57, 33, 72, 96
-0.994079, 63, 33, 78, 96
-0.994087, 101, 73, 116, 136
-0.994099, 369, 49, 384, 112
-0.994108, 297, 49, 312, 112
-0.994118, 33, 137, 160, 168
-0.994141, 65, 305, 320, 368
-0.994154, 1, 257, 500, 320
-0.994167, 191, 33, 206, 96
-0.994173, 321, 85, 448, 116
-0.994182, 173, 9, 188, 72
-0.994183, 101, 97, 116, 160
-0.994197, 117, 89, 132, 152
-0.99421, 99, 9, 114, 72
-0.994213, 191, 1, 206, 64
-0.994229, 1, 89, 16, 152
-0.994233, 113, 141, 240, 172
-0.994245, 17, 1, 144, 32
-0.99427, 5, 41, 20, 104
-0.99427, 191, 57, 206, 120
-0.994275, 223, 33, 238, 96
-0.994292, 197, 41, 212, 104
-0.994317, 159, 33, 174, 96
-0.994324, 1, 261, 128, 292
-0.994326, 211, 161, 226, 224
-0.994355, 159, 57, 174, 120
-0.994367, 305, 1, 320, 64
-0.994368, 353, 57, 480, 88
-0.994377, 249, 25, 264, 88
-0.994384, 305, 137, 432, 168
-0.9944, 257, 1, 272, 64
-0.994418, 177, 181, 304, 212
-0.994424, 125, 25, 140, 88
-0.994447, 35, 1, 50, 64
-0.99447, 411, 73, 426, 136
-0.994484, 97, 109, 224, 140
-0.994497, 141, 25, 156, 88
-0.994498, 273, 77, 400, 108
-0.994502, 97, 129, 352, 192
-0.994506, 33, 13, 160, 44
-0.994522, 277, 49, 292, 112
-0.994535, 257, 1, 384, 32
-0.994554, 1, 209, 256, 272
-0.994564, 95, 57, 110, 120
-0.994567, 363, 65, 378, 128
-0.994575, 161, 77, 288, 108
-0.994596, 361, 25, 376, 88
-0.994601, 129, 217, 384, 280
-0.994622, 411, 49, 426, 112
-0.994634, 15, 1, 30, 64
-0.994645, 17, 1, 48, 256
-0.994648, 243, 25, 258, 88
-0.994651, 1, 161, 128, 192
-0.994668, 211, 1, 226, 64
-0.994669, 145, 121, 272, 152
-0.994676, 273, 173, 400, 204
-0.994676, 141, 65, 156, 128
-0.994683, 257, 169, 500, 232
-0.994694, 257, 305, 500, 368
-0.994696, 321, 273, 448, 336
-0.994697, 305, 97, 432, 128
-0.994738, 301, 73, 316, 136
-0.99474, 203, 41, 218, 104
-0.994746, 85, 65, 100, 128
-0.994748, 279, 73, 294, 136
-0.994765, 179, 1, 194, 64
-0.994765, 257, 41, 384, 72
-0.994766, 45, 1, 60, 64
-0.994788, 337, 153, 464, 184
-0.994789, 107, 33, 122, 96
-0.994789, 185, 49, 200, 112
-0.9948, 49, 121, 176, 152
-0.994808, 51, 17, 66, 80
-0.994816, 295, 25, 310, 88
-0.99482, 129, 73, 144, 136
-0.99482, 229, 1, 244, 64
-0.994825, 211, 25, 226, 88
-0.994832, 291, 1, 306, 64
-0.994865, 153, 73, 168, 136
-0.994881, 179, 25, 194, 88
-0.99491, 403, 57, 418, 120
-0.994911, 15, 65, 30, 128
-0.994918, 75, 65, 90, 128
-0.994919, 229, 57, 244, 120
-0.99492, 193, 97, 320, 128
-0.99492, 211, 65, 226, 128
-0.994928, 129, 169, 144, 232
-0.994936, 93, 1, 108, 64
-0.994965, 145, 165, 272, 196
-0.994973, 353, 41, 368, 104
-0.994993, 319, 281, 334, 344
-0.995011, 17, 201, 144, 232
-0.995012, 119, 113, 134, 176
-0.995014, 97, 125, 224, 156
-0.99503, 97, 173, 224, 204
-0.995039, 113, 17, 128, 80
-0.995047, 225, 81, 352, 112
-0.995085, 159, 9, 174, 72
-0.995094, 173, 81, 188, 144
-0.995099, 201, 65, 216, 128
-0.995105, 17, 173, 144, 204
-0.995107, 35, 169, 50, 232
-0.995114, 97, 189, 224, 220
-0.995122, 417, 49, 432, 112
-0.995125, 61, 9, 76, 72
-0.995144, 149, 1, 164, 64
-0.995151, 147, 73, 162, 136
-0.995154, 187, 113, 202, 176
-0.995155, 369, 141, 496, 172
-0.995166, 65, 65, 80, 128
-0.995189, 135, 105, 150, 168
-0.995192, 325, 265, 340, 328
-0.995196, 149, 33, 164, 96
-0.995204, 251, 1, 266, 64
-0.995204, 355, 65, 370, 128
-0.995207, 373, 33, 404, 288
-0.995209, 221, 1, 236, 64
-0.995224, 217, 25, 232, 88
-0.995226, 329, 241, 344, 304
-0.99523, 285, 1, 300, 64
-0.995231, 335, 249, 350, 312
-0.995239, 29, 33, 44, 96
-0.995245, 411, 113, 426, 176
-0.99525, 33, 73, 160, 104
-0.995251, 289, 157, 416, 188
-0.995261, 105, 1, 120, 64
-0.995264, 257, 249, 500, 312
-0.995264, 303, 41, 318, 104
-0.995276, 305, 41, 432, 72
-0.995281, 359, 89, 374, 152
-0.995294, 125, 129, 140, 192
-0.995295, 51, 105, 66, 168
-0.995296, 367, 161, 382, 224
-0.995299, 345, 57, 360, 120
-0.995306, 305, 9, 432, 40
-0.995316, 195, 105, 210, 168
-0.995354, 369, 97, 496, 128
-0.995394, 193, 133, 320, 164
-0.995427, 321, 121, 448, 152
-0.995479, 217, 1, 248, 256
-0.995481, 257, 197, 384, 228
-0.995508, 49, 257, 176, 288
-0.99553, 257, 121, 500, 184
-0.99554, 17, 245, 144, 276
-0.995548, 97, 153, 224, 184
-0.995582, 225, 153, 352, 184
-0.995603, 357, 65, 388, 320
-0.99562, 329, 241, 392, 368
-0.995659, 193, 1, 224, 256
-0.995712, 353, 173, 480, 204
-0.995732, 1, 89, 128, 120
-0.995774, 209, 309, 336, 340
-0.995781, 17, 189, 144, 220
-0.99579, 225, 273, 352, 304
-0.9958, 321, 109, 448, 140
-0.995826, 161, 297, 416, 360
-0.995836, 5, 1, 36, 256
-0.995855, 385, 33, 416, 288
-0.995899, 257, 201, 500, 264
-0.995914, 337, 185, 464, 216
-0.995946, 17, 273, 144, 304
-0.995952, 85, 1, 116, 256
-0.995965, 145, 97, 272, 128
-0.995977, 161, 193, 288, 224
-0.996006, 1, 305, 500, 368
-0.996106, 69, 1, 100, 256
-0.996109, 161, 109, 288, 140
-0.996121, 289, 185, 416, 216
-0.996147, 409, 1, 472, 375
-0.996157, 161, 209, 288, 240
-0.996166, 345, 33, 376, 288
-0.99618, 113, 201, 240, 232
-0.996195, 49, 1, 80, 256
-0.996208, 49, 97, 80, 352
-0.996218, 369, 129, 496, 160
-0.99632, 109, 1, 140, 256
-0.996324, 369, 109, 496, 140
-0.996341, 37, 1, 68, 256
-0.996341, 161, 145, 288, 176
-0.996359, 25, 129, 56, 375
-0.996362, 113, 241, 240, 272
-0.996371, 125, 97, 156, 352
-0.996389, 209, 261, 336, 292
-0.996413, 85, 129, 116, 375
-0.996446, 129, 281, 256, 312
-0.996477, 129, 269, 256, 300
-0.996558, 257, 281, 500, 344
-0.99658, 1, 281, 500, 344
-0.996583, 65, 269, 192, 300
-0.996584, 209, 329, 336, 360
-0.996592, 241, 113, 368, 144
-0.996593, 337, 29, 464, 60
-0.996596, 69, 97, 100, 352
-0.996607, 111, 61, 126, 92
-0.996621, 205, 1, 236, 256
-0.996631, 397, 33, 428, 288
-0.996633, 97, 257, 224, 288
-0.99664, 1, 93, 16, 124
-0.996647, 137, 33, 168, 288
-0.996657, 141, 25, 156, 56
-0.996671, 189, 97, 220, 352
-0.996675, 117, 69, 132, 100
-0.996676, 13, 97, 44, 352
-0.996687, 105, 53, 120, 84
-0.996696, 177, 1, 208, 256
-0.996737, 145, 129, 176, 375
-0.996746, 91, 33, 106, 64
-0.996777, 127, 61, 142, 92
-0.996807, 225, 177, 352, 208
-0.99684, 225, 285, 352, 316
-0.996841, 1, 97, 32, 352
-0.996859, 257, 141, 384, 172
-0.996859, 113, 213, 240, 244
-0.996865, 257, 225, 500, 288
-0.996877, 103, 29, 118, 60
-0.996879, 113, 129, 144, 375
-0.996885, 113, 49, 128, 80
-0.996895, 177, 129, 208, 375
-0.996902, 125, 1, 156, 256
-0.996904, 37, 97, 68, 352
-0.996934, 109, 1, 124, 32
-0.996939, 257, 209, 384, 240
-0.996944, 165, 1, 196, 256
-0.99695, 371, 53, 386, 84
-0.996963, 121, 41, 136, 72
-0.99697, 97, 37, 112, 68
-0.996976, 85, 29, 100, 60
-0.996987, 109, 33, 124, 64
-0.996988, 127, 21, 142, 52
-0.997005, 65, 245, 192, 276
-0.997009, 59, 33, 74, 64
-0.997012, 209, 217, 336, 248
-0.997016, 189, 33, 204, 64
-0.997018, 1, 125, 128, 156
-0.997023, 213, 57, 228, 88
-0.997026, 75, 85, 90, 116
-0.997027, 69, 21, 84, 52
-0.99703, 83, 17, 98, 48
-0.997037, 65, 201, 192, 232
-0.997045, 1, 113, 128, 144
-0.997048, 345, 65, 360, 96
-0.997054, 303, 9, 318, 40
-0.997055, 89, 49, 104, 80
-0.997063, 305, 197, 432, 228
-0.997064, 209, 145, 224, 176
-0.997067, 175, 57, 190, 88
-0.997074, 169, 17, 184, 48
-0.997078, 19, 45, 34, 76
-0.997082, 25, 33, 40, 64
-0.997083, 129, 317, 256, 348
-0.997088, 203, 145, 218, 176
-0.997093, 1, 285, 128, 316
-0.997103, 233, 1, 264, 256
-0.997106, 55, 61, 70, 92
-0.997109, 9, 45, 24, 76
-0.997115, 97, 1, 128, 256
-0.997119, 97, 229, 224, 260
-0.99713, 177, 281, 304, 312
-0.99713, 273, 321, 400, 352
-0.997133, 193, 165, 320, 196
-0.997134, 83, 41, 98, 72
-0.997135, 113, 21, 128, 52
-0.997145, 179, 29, 194, 60
-0.997153, 117, 1, 132, 32
-0.997161, 3, 53, 18, 84
-0.997162, 199, 33, 214, 64
-0.997162, 91, 21, 106, 52
-0.997175, 257, 249, 384, 280
-0.997184, 289, 225, 416, 256
-0.997189, 135, 25, 150, 56
-0.997196, 185, 53, 200, 84
-0.9972, 223, 29, 238, 60
-0.9972, 125, 81, 140, 112
-0.997206, 325, 65, 356, 320
-0.997209, 167, 57, 182, 88
-0.997217, 111, 73, 126, 104
-0.99722, 209, 37, 224, 68
-0.997221, 133, 37, 148, 68
-0.997227, 33, 213, 160, 244
-0.997235, 209, 249, 336, 280
-0.997241, 173, 41, 188, 72
-0.997242, 75, 21, 90, 52
-0.997243, 67, 129, 82, 160
-0.997245, 97, 25, 112, 56
-0.997248, 353, 9, 480, 40
-0.997249, 121, 53, 136, 84
-0.997258, 273, 237, 400, 268
-0.99727, 413, 73, 428, 104
-0.997289, 281, 1, 312, 256
-0.99729, 361, 49, 376, 80
-0.997291, 215, 37, 230, 68
-0.997301, 119, 89, 134, 120
-0.997312, 225, 237, 352, 268
-0.997317, 95, 61, 110, 92
-0.997323, 135, 69, 150, 100
-0.997325, 317, 9, 332, 40
-0.997329, 147, 21, 162, 52
-0.997334, 115, 37, 130, 68
-0.997334, 59, 45, 74, 76
-0.997344, 105, 69, 120, 100
-0.997354, 193, 121, 320, 152
-0.997364, 103, 13, 118, 44
-0.997371, 323, 273, 338, 304
-0.99738, 239, 45, 254, 76
-0.997386, 135, 53, 150, 84
-0.997387, 83, 53, 98, 84
-0.99739, 31, 153, 46, 184
-0.997391, 11, 57, 26, 88
-0.997401, 223, 17, 238, 48
-0.997406, 189, 21, 204, 52
-0.997407, 117, 133, 132, 164
-0.997412, 59, 21, 74, 52
-0.997412, 205, 21, 220, 52
-0.997417, 227, 49, 242, 80
-0.99742, 201, 129, 232, 375
-0.99742, 127, 33, 142, 64
-0.997429, 23, 17, 38, 48
-0.997431, 27, 1, 42, 32
-0.997435, 143, 37, 158, 68
-0.997438, 97, 97, 128, 352
-0.997448, 273, 273, 400, 304
-0.997449, 239, 9, 254, 40
-0.997454, 351, 85, 366, 116
-0.997461, 271, 65, 286, 96
-0.997464, 359, 65, 374, 96
-0.997469, 189, 69, 204, 100
-0.997478, 295, 5, 310, 36
-0.997498, 353, 45, 480, 76
-0.997498, 281, 53, 296, 84
-0.997501, 1, 105, 16, 136
-0.997501, 169, 77, 184, 108
-0.997511, 179, 9, 194, 40
-0.997515, 51, 45, 66, 76
-0.997517, 111, 101, 126, 132
-0.997524, 241, 33, 256, 64
-0.997524, 281, 1, 296, 32
-0.997528, 101, 121, 116, 152
-0.997535, 59, 137, 74, 168
-0.997537, 265, 1, 280, 32
-0.997541, 233, 41, 248, 72
-0.997542, 29, 57, 44, 88
-0.997542, 341, 85, 356, 116
-0.997548, 97, 305, 224, 336
-0.997549, 389, 49, 404, 80
-0.997551, 7, 97, 22, 128
-0.997554, 405, 137, 420, 168
-0.997559, 199, 9, 214, 40
-0.99757, 227, 65, 242, 96
-0.99757, 325, 1, 340, 32
-0.997572, 221, 61, 236, 92
-0.997575, 121, 25, 136, 56
-0.997579, 103, 41, 118, 72
-0.99758, 197, 141, 212, 172
-0.997581, 181, 41, 196, 72
-0.997582, 355, 49, 370, 80
-0.997583, 311, 5, 326, 36
-0.997585, 119, 149, 134, 180
-0.997586, 319, 285, 334, 316
-0.997587, 207, 61, 222, 92
-0.997588, 231, 5, 246, 36
-0.997592, 65, 45, 80, 76
-0.997593, 383, 49, 398, 80
-0.997594, 245, 5, 260, 36
-0.997599, 311, 21, 326, 52
-0.997601, 71, 33, 86, 64
-0.997602, 161, 17, 176, 48
-0.997611, 195, 69, 210, 100
-0.997613, 67, 9, 82, 40
-0.997615, 49, 161, 176, 192
-0.997618, 145, 193, 160, 224
-0.997621, 249, 1, 280, 256
-0.997621, 85, 65, 100, 96
-0.997622, 215, 17, 230, 48
-0.997624, 249, 25, 264, 56
-0.997632, 409, 33, 440, 288
-0.997717, 465, 33, 496, 288
-0.997719, 289, 309, 416, 340
-0.99775, 157, 129, 188, 375
-0.997769, 241, 101, 368, 132
-0.997793, 309, 1, 340, 256
-0.997795, 153, 1, 184, 256
-0.997801, 241, 125, 368, 156
-0.997823, 385, 129, 416, 375
-0.997887, 341, 129, 372, 375
-0.997923, 433, 177, 496, 304
-0.998073, 293, 1, 324, 256
-0.998091, 369, 129, 400, 375
-0.998162, 269, 1, 300, 256
-0.998236, 301, 129, 332, 375
-0.998344, 89, 1, 104, 128
-0.998363, 49, 33, 112, 48
-0.998365, 81, 55, 144, 70
-0.998373, 177, 23, 240, 38
-0.998373, 73, 39, 136, 54
-0.998374, 57, 19, 120, 34
-0.998376, 177, 67, 240, 82
-0.998377, 49, 45, 112, 60
-0.998381, 81, 49, 144, 64
-0.998389, 99, 1, 114, 128
-0.998397, 57, 25, 120, 40
-0.998397, 125, 1, 140, 128
-0.998398, 185, 39, 248, 54
-0.998402, 89, 27, 152, 42
-0.998403, 97, 71, 160, 86
-0.998405, 121, 69, 184, 84
-0.998408, 153, 33, 216, 48
-0.998411, 89, 65, 152, 80
-0.998412, 177, 61, 240, 76
-0.998414, 21, 17, 36, 144
-0.998422, 295, 1, 310, 128
-0.998423, 329, 69, 392, 84
-0.998425, 177, 49, 240, 64
-0.99843, 153, 41, 216, 56
-0.998435, 153, 75, 216, 90
-0.998435, 17, 41, 80, 56
-0.998436, 329, 85, 392, 100
-0.998439, 201, 59, 264, 74
-0.998443, 81, 105, 144, 120
-0.998443, 45, 49, 60, 176
-0.998445, 73, 33, 136, 48
-0.998446, 121, 23, 184, 38
-0.998447, 105, 77, 168, 92
-0.998447, 273, 3, 336, 18
-0.998448, 329, 79, 392, 94
-0.998448, 121, 51, 184, 66
-0.998449, 1, 49, 64, 64
-0.998452, 81, 81, 144, 96
-0.998452, 65, 87, 128, 102
-0.998453, 57, 55, 120, 70
-0.998456, 369, 67, 432, 82
-0.998456, 97, 41, 160, 56
-0.998456, 169, 153, 232, 168
-0.998458, 337, 53, 400, 68
-0.998458, 41, 39, 104, 54
-0.998461, 113, 91, 176, 106
-0.998463, 353, 61, 416, 76
-0.998463, 49, 61, 112, 76
-0.998463, 41, 263, 104, 278
-0.998464, 17, 27, 80, 42
-0.998464, 97, 99, 160, 114
-0.998464, 369, 73, 432, 88
-0.998465, 153, 61, 216, 76
-0.998467, 209, 69, 272, 84
-0.998467, 169, 189, 232, 204
-0.998468, 89, 49, 104, 176
-0.998469, 81, 17, 144, 32
-0.998471, 137, 49, 152, 176
-0.998471, 121, 45, 184, 60
-0.998472, 1, 165, 64, 180
-0.998472, 153, 17, 216, 32
-0.998472, 35, 97, 50, 224
-0.998475, 1, 1, 64, 16
-0.998475, 65, 93, 128, 108
-0.998476, 177, 29, 240, 44
-0.998476, 417, 89, 480, 104
-0.998478, 209, 7, 272, 22
-0.998478, 81, 195, 144, 210
-0.998479, 209, 31, 272, 46
-0.998481, 201, 19, 264, 34
-0.998482, 225, 61, 288, 76
-0.998482, 137, 189, 200, 204
-0.998483, 249, 73, 312, 88
-0.998486, 345, 159, 408, 174
-0.998486, 265, 55, 328, 70
-0.998488, 1, 55, 64, 70
-0.998489, 153, 27, 216, 42
-0.998489, 313, 165, 376, 180
-0.99849, 329, 91, 392, 106
-0.99849, 185, 17, 200, 144
-0.998493, 377, 59, 440, 74
-0.998494, 25, 13, 88, 28
-0.998494, 57, 137, 120, 152
-0.998495, 121, 59, 184, 74
-0.998496, 25, 51, 88, 66
-0.998497, 129, 33, 192, 48
-0.998497, 177, 9, 240, 24
-0.998498, 225, 55, 288, 70
-0.998499, 201, 45, 264, 60
-0.998499, 193, 79, 256, 94
-0.9985, 169, 165, 232, 180
-0.9985, 65, 127, 128, 142
-0.998501, 193, 1, 256, 16
-0.998501, 21, 27, 52, 42
-0.998502, 153, 55, 216, 70
-0.998502, 121, 131, 184, 146
-0.998502, 49, 257, 112, 272
-0.998503, 161, 125, 224, 140
-0.998503, 65, 67, 128, 82
-0.998504, 297, 29, 328, 44
-0.998504, 1, 1, 32, 16
-0.998504, 129, 79, 192, 94
-0.998505, 261, 65, 292, 80
-0.998505, 113, 141, 176, 156
-0.998505, 15, 49, 30, 176
-0.998505, 157, 137, 188, 152
-0.998506, 1, 71, 64, 86
-0.998507, 17, 1, 48, 16
-0.998507, 153, 33, 184, 48
-0.998507, 233, 49, 264, 64
-0.998507, 145, 23, 176, 38
-0.998508, 73, 75, 136, 90
-0.998508, 37, 61, 68, 76
-0.99851, 13, 53, 44, 68
-0.998511, 353, 165, 416, 180
-0.998511, 221, 53, 252, 68
-0.998512, 121, 41, 152, 56
-0.998512, 105, 7, 136, 22
-0.998512, 169, 1, 232, 16
-0.998512, 353, 153, 416, 168
-0.998512, 173, 59, 204, 74
-0.998512, 189, 43, 220, 58
-0.998512, 169, 183, 232, 198
-0.998513, 53, 257, 84, 272
-0.998513, 183, 65, 198, 192
-0.998514, 153, 47, 184, 62
-0.998514, 349, 159, 380, 174
-0.998514, 29, 1, 60, 16
-0.998515, 393, 63, 424, 78
-0.998515, 365, 87, 396, 102
-0.998515, 165, 23, 196, 38
-0.998515, 357, 81, 388, 96
-0.998516, 65, 99, 128, 114
-0.998516, 249, 7, 312, 22
-0.998517, 145, 67, 208, 82
-0.998517, 1, 57, 32, 72
-0.998518, 69, 85, 100, 100
-0.998518, 13, 59, 44, 74
-0.998519, 169, 159, 232, 174
-0.998519, 33, 19, 96, 34
-0.998521, 201, 1, 232, 16
-0.998521, 385, 151, 416, 166
-0.998522, 49, 53, 80, 68
-0.998522, 49, 75, 112, 90
-0.998522, 161, 63, 192, 78
-0.998522, 289, 97, 320, 352
-0.998523, 233, 1, 296, 16
-0.998524, 191, 17, 206, 144
-0.998524, 181, 71, 212, 86
-0.998525, 41, 147, 104, 162
-0.998525, 221, 73, 252, 88
-0.998525, 297, 235, 360, 250
-0.998525, 377, 53, 408, 68
-0.998526, 113, 153, 144, 168
-0.998526, 109, 53, 140, 68
-0.998526, 297, 1, 360, 16
-0.998528, 1, 41, 32, 56
-0.998528, 361, 53, 424, 68
-0.998529, 177, 195, 240, 210
-0.99853, 105, 1, 168, 16
-0.99853, 89, 127, 120, 142
-0.998531, 361, 67, 392, 82
-0.998531, 289, 77, 352, 92
-0.998534, 79, 1, 94, 128
-0.998534, 233, 79, 296, 94
-0.998535, 283, 1, 298, 128
-0.998535, 81, 261, 144, 276
-0.998535, 369, 91, 432, 106
-0.998535, 121, 39, 184, 54
-0.998536, 61, 49, 76, 176
-0.998536, 153, 205, 216, 220
-0.998537, 25, 69, 88, 84
-0.998537, 133, 1, 148, 128
-0.998537, 129, 147, 192, 162
-0.998538, 297, 205, 360, 220
-0.998538, 153, 145, 216, 160
-0.998538, 289, 1, 304, 128
-0.998538, 145, 133, 208, 148
-0.998538, 85, 95, 116, 110
-0.998538, 223, 1, 238, 128
-0.998538, 297, 225, 360, 240
-0.998539, 37, 67, 68, 82
-0.998539, 61, 59, 92, 74
-0.99854, 201, 19, 232, 34
-0.99854, 201, 33, 232, 48
-0.99854, 97, 11, 160, 26
-0.99854, 177, 15, 240, 30
-0.99854, 197, 165, 228, 180
-0.998541, 153, 71, 184, 86
-0.998541, 341, 87, 372, 102
-0.998541, 209, 37, 272, 52
-0.998541, 69, 99, 100, 114
-0.998541, 41, 91, 104, 106
-0.998542, 41, 101, 104, 116
-0.998542, 189, 9, 220, 24
-0.998543, 305, 11, 336, 26
-0.998543, 33, 25, 64, 40
-0.998544, 25, 41, 56, 56
-0.998544, 405, 57, 436, 72
-0.998545, 145, 197, 208, 212
-0.998545, 81, 133, 144, 148
-0.998545, 313, 49, 376, 64
-0.998545, 417, 79, 480, 94
-0.998546, 101, 73, 132, 88
-0.998547, 53, 87, 84, 102
-0.998547, 109, 93, 140, 108
-0.998548, 167, 49, 182, 176
-0.998548, 157, 41, 188, 56
-0.99855, 133, 41, 164, 56
-0.998551, 269, 73, 300, 88
-0.998552, 181, 23, 212, 38
-0.998553, 303, 1, 318, 128
-0.998553, 173, 39, 204, 54
-0.998555, 43, 97, 58, 224
-0.998556, 233, 9, 264, 24
-0.998557, 69, 91, 100, 106
-0.998558, 153, 131, 184, 146
-0.998559, 139, 1, 154, 128
-0.998559, 141, 135, 172, 150
-0.998559, 1, 105, 32, 120
-0.99856, 17, 67, 48, 82
-0.998562, 49, 65, 80, 80
-0.998562, 53, 31, 84, 46
-0.998564, 81, 67, 112, 82
-0.998566, 375, 1, 390, 128
-0.998568, 349, 67, 380, 82
-0.998568, 65, 17, 96, 32
-0.998568, 217, 5, 248, 20
-0.998568, 105, 85, 136, 100
-0.998568, 281, 53, 312, 68
-0.998569, 49, 39, 80, 54
-0.99857, 69, 131, 100, 146
-0.99857, 221, 67, 252, 82
-0.998571, 175, 49, 190, 176
-0.998571, 273, 1, 304, 16
-0.998574, 189, 149, 220, 164
-0.998574, 69, 47, 100, 62
-0.998574, 109, 59, 140, 74
-0.998575, 285, 1, 316, 16
-0.998576, 173, 47, 204, 62
-0.998577, 95, 49, 110, 176
-0.998577, 61, 37, 92, 52
-0.998577, 169, 53, 200, 68
-0.998579, 125, 65, 156, 80
-0.998579, 281, 11, 312, 26
-0.99858, 261, 5, 292, 20
-0.99858, 141, 31, 172, 46
-0.998581, 49, 143, 80, 158
-0.998582, 21, 47, 52, 62
-0.998582, 177, 29, 208, 44
-0.998583, 305, 1, 336, 16
-0.998584, 61, 23, 92, 38
-0.998584, 99, 97, 114, 224
-0.998585, 21, 157, 52, 172
-0.998585, 1, 63, 32, 78
-0.998587, 109, 25, 140, 40
-0.998588, 49, 97, 64, 224
-0.99859, 233, 59, 264, 74
-0.99859, 117, 33, 132, 160
-0.998594, 1, 69, 32, 84
-0.998594, 201, 27, 232, 42
-0.998595, 235, 1, 250, 128
-0.998596, 213, 39, 244, 54
-0.998598, 49, 23, 80, 38
-0.998602, 121, 23, 152, 38
-0.998604, 381, 1, 396, 128
-0.998604, 133, 75, 164, 90
-0.998604, 199, 97, 214, 224
-0.998605, 85, 19, 116, 34
-0.998605, 313, 129, 344, 375
-0.998606, 121, 35, 152, 50
-0.998612, 65, 31, 96, 46
-0.998614, 165, 69, 196, 84
-0.998619, 163, 1, 178, 128
-0.998625, 105, 41, 136, 56
-0.998627, 89, 43, 120, 58
-0.998627, 271, 1, 286, 128
-0.998629, 181, 65, 212, 80
-0.998633, 77, 27, 108, 42
-0.998634, 397, 129, 428, 375
-0.998634, 145, 1, 160, 128
-0.998634, 185, 37, 216, 52
-0.998634, 201, 39, 232, 54
-0.998636, 101, 35, 132, 50
-0.998637, 97, 63, 128, 78
-0.998639, 9, 33, 24, 160
-0.99864, 89, 51, 120, 66
-0.998641, 217, 59, 248, 74
-0.998646, 1, 81, 16, 208
-0.998649, 159, 49, 174, 176
-0.998651, 93, 97, 108, 224
-0.998653, 55, 81, 70, 208
-0.998656, 123, 65, 138, 192
-0.998656, 165, 31, 196, 46
-0.998657, 1, 47, 32, 62
-0.998658, 93, 25, 124, 40
-0.998658, 129, 65, 144, 192
-0.998659, 113, 73, 144, 88
-0.998659, 171, 1, 186, 128
-0.998659, 201, 67, 232, 82
-0.998668, 113, 65, 144, 80
-0.998668, 109, 47, 140, 62
-0.998683, 81, 33, 112, 48
-0.998685, 83, 49, 98, 176
-0.998689, 39, 49, 54, 176
-0.998691, 389, 1, 404, 128
-0.998698, 25, 97, 40, 224
-0.998699, 205, 61, 236, 76
-0.998706, 105, 1, 120, 128
-0.998708, 77, 57, 108, 72
-0.998711, 103, 49, 118, 176
-0.998712, 369, 1, 384, 128
-0.998714, 97, 57, 128, 72
-0.998724, 31, 49, 46, 176
-0.998731, 193, 65, 208, 192
-0.998733, 215, 17, 230, 144
-0.998734, 105, 97, 120, 224
-0.998746, 409, 49, 424, 176
-0.998756, 143, 49, 158, 176
-0.998765, 87, 97, 102, 224
-0.998767, 207, 97, 222, 224
-0.998776, 67, 49, 82, 176
-0.998777, 183, 113, 198, 240
-0.99878, 199, 17, 214, 144
-0.998783, 209, 145, 224, 272
-0.998789, 37, 1, 52, 128
-0.998789, 177, 97, 192, 224
-0.998794, 79, 193, 94, 320
-0.9988, 19, 97, 34, 224
-0.998808, 397, 1, 412, 128
-0.998808, 109, 49, 124, 176
-0.998811, 371, 65, 386, 192
-0.998813, 49, 1, 64, 128
-0.998821, 73, 1, 88, 128
-0.998823, 149, 49, 164, 176
-0.998824, 1, 33, 16, 160
-0.99883, 27, 1, 42, 128
-0.998835, 111, 1, 126, 128
-0.998836, 59, 1, 74, 128
-0.998837, 209, 17, 224, 144
-0.99885, 453, 1, 484, 256
-0.998856, 359, 1, 374, 128
-0.99886, 229, 33, 244, 160
-0.99886, 295, 49, 310, 176
-0.998861, 117, 97, 132, 224
-0.998867, 15, 1, 30, 128
-0.998871, 277, 49, 292, 176
-0.998874, 403, 1, 418, 128
-0.998876, 241, 1, 256, 128
-0.998877, 189, 113, 204, 240
-0.998889, 13, 97, 28, 224
-0.998891, 65, 1, 80, 128
-0.998902, 63, 97, 78, 224
-0.998902, 77, 49, 92, 176
-0.99891, 129, 113, 144, 240
-0.998916, 257, 1, 272, 128
-0.998926, 277, 1, 292, 128
-0.998929, 171, 97, 186, 224
-0.99893, 401, 49, 416, 176
-0.998938, 289, 49, 304, 176
-0.998941, 363, 129, 378, 256
-0.998941, 199, 145, 214, 272
-0.998942, 213, 97, 228, 224
-0.998942, 177, 1, 192, 128
-0.998955, 33, 177, 48, 304
-0.998957, 351, 33, 366, 160
-0.998959, 39, 193, 54, 320
-0.998963, 365, 65, 380, 192
-0.998965, 105, 177, 120, 304
-0.998974, 329, 209, 344, 336
-0.998981, 153, 1, 168, 128
-0.998982, 335, 161, 350, 288
-0.998986, 7, 97, 22, 224
-0.998987, 369, 145, 384, 272
-0.998987, 479, 97, 494, 224
-0.999, 309, 1, 324, 128
-0.999002, 283, 65, 298, 192
-0.999012, 263, 65, 278, 192
-0.999012, 323, 209, 338, 336
-0.999027, 247, 1, 262, 128
-0.99903, 303, 49, 318, 176
-0.999031, 43, 1, 58, 128
-0.999035, 323, 1, 338, 128
-0.999046, 369, 297, 496, 360
-0.999067, 345, 193, 360, 320
-0.999067, 139, 97, 154, 224
-0.999069, 123, 113, 138, 240
-0.999071, 359, 65, 374, 192
-0.999071, 419, 65, 434, 192
-0.999075, 317, 225, 332, 352
-0.999081, 89, 161, 104, 288
-0.999081, 41, 145, 56, 272
-0.999081, 335, 241, 350, 368
-0.999087, 81, 113, 96, 240
-0.999091, 111, 145, 126, 272
-0.999131, 217, 97, 248, 352
-0.999181, 369, 225, 496, 288
-0.999285, 421, 1, 452, 256
-0.999503, 269, 97, 300, 352
-0.999575, 65, 313, 192, 375
-0.999681, 441, 1, 472, 256
-0.999682, 17, 313, 144, 375
-0.999689, 115, 91, 130, 106
-0.99969, 233, 39, 248, 54
-0.99969, 209, 39, 224, 54
-0.99969, 167, 231, 182, 246
-0.999692, 185, 31, 200, 46
-0.999693, 193, 65, 208, 80
-0.999694, 117, 73, 132, 88
-0.999694, 207, 141, 222, 156
-0.999694, 103, 37, 118, 52
-0.999694, 345, 77, 360, 92
-0.999695, 73, 21, 88, 36
-0.999695, 131, 73, 146, 88
-0.999696, 125, 197, 140, 212
-0.999696, 1, 109, 16, 124
-0.999696, 291, 7, 306, 22
-0.999697, 127, 87, 142, 102
-0.999697, 213, 13, 228, 28
-0.999697, 135, 65, 150, 80
-0.999698, 25, 21, 40, 36
-0.999698, 173, 43, 188, 58
-0.999698, 209, 163, 224, 178
-0.999699, 245, 9, 260, 24
-0.999699, 207, 67, 222, 82
-0.999699, 179, 23, 194, 38
-0.9997, 351, 87, 366, 102
-0.9997, 389, 153, 404, 168
-0.999701, 345, 87, 360, 102
-0.999701, 239, 9, 254, 24
-0.999702, 57, 67, 72, 82
-0.999702, 111, 47, 126, 62
-0.999703, 61, 35, 76, 50
-0.999703, 57, 19, 72, 34
-0.999704, 75, 85, 90, 100
-0.999705, 199, 111, 214, 126
-0.999705, 111, 59, 126, 74
-0.999705, 19, 51, 34, 66
-0.999705, 109, 3, 124, 18
-0.999706, 223, 59, 238, 74
-0.999707, 227, 67, 242, 82
-0.999707, 277, 5, 292, 20
-0.999707, 35, 153, 50, 168
-0.999709, 203, 153, 218, 168
-0.999709, 1, 75, 16, 90
-0.999709, 61, 51, 76, 66
-0.99971, 123, 29, 138, 44
-0.999712, 181, 67, 196, 82
-0.999712, 159, 73, 174, 88
-0.999713, 405, 63, 420, 78
-0.999713, 175, 63, 190, 78
-0.999714, 215, 67, 230, 82
-0.999714, 169, 33, 184, 48
-0.999714, 383, 161, 398, 176
-0.999714, 165, 129, 180, 144
-0.999715, 101, 25, 116, 40
-0.999715, 135, 25, 150, 40
-0.999716, 7, 55, 22, 70
-0.999718, 123, 67, 138, 82
-0.999719, 175, 71, 190, 86
-0.999719, 215, 19, 230, 34
-0.999719, 395, 151, 410, 166
-0.99972, 183, 37, 198, 52
-0.999721, 11, 67, 26, 82
-0.999722, 95, 67, 110, 82
-0.999723, 29, 69, 44, 84
-0.999724, 101, 31, 116, 46
-0.999725, 153, 31, 168, 46
-0.999725, 359, 65, 374, 80
-0.999727, 87, 55, 102, 70
-0.999728, 63, 23, 78, 38
-0.999728, 89, 37, 104, 52
-0.999729, 237, 59, 252, 74
-0.999729, 399, 63, 414, 78
-0.99973, 99, 17, 114, 32
-0.99973, 17, 71, 32, 86
-0.999731, 3, 103, 18, 118
-0.999732, 189, 39, 204, 54
-0.999732, 79, 25, 94, 40
-0.999732, 71, 129, 86, 144
-0.999733, 113, 31, 128, 46
-0.999733, 199, 63, 214, 78
-0.999734, 137, 73, 152, 88
-0.999734, 167, 67, 182, 82
-0.999734, 93, 23, 108, 38
-0.999735, 7, 49, 22, 64
-0.999736, 207, 147, 222, 162
-0.999736, 59, 45, 74, 60
-0.999737, 57, 25, 72, 40
-0.999737, 135, 33, 150, 48
-0.999738, 197, 147, 212, 162
-0.999739, 189, 25, 204, 40
-0.999739, 117, 39, 132, 54
-0.999741, 223, 33, 238, 48
-0.999741, 121, 93, 136, 108
-0.999742, 211, 61, 226, 76
-0.999742, 237, 45, 252, 60
-0.999744, 53, 61, 68, 76
-0.999745, 87, 21, 102, 36
-0.999745, 179, 29, 194, 44
-0.999745, 3, 97, 18, 112
-0.999748, 127, 21, 142, 36
-0.999748, 99, 49, 114, 64
-0.999749, 111, 71, 126, 86
-0.999752, 95, 29, 110, 44
-0.999756, 179, 47, 194, 62
-0.999757, 227, 39, 242, 54
-0.999759, 117, 25, 132, 40
-0.99976, 13, 47, 28, 62
-0.999761, 91, 61, 106, 76
-0.999762, 85, 31, 100, 46
-0.999764, 111, 25, 126, 40
-0.999769, 121, 85, 136, 100
-0.99977, 69, 29, 84, 44
-0.999773, 127, 35, 142, 50
-0.999774, 103, 69, 118, 84
-0.999774, 199, 39, 214, 54
-0.999774, 283, 1, 298, 16
-0.999774, 1, 53, 16, 68
-0.999775, 111, 65, 126, 80
-0.999776, 81, 55, 96, 70
-0.99978, 25, 47, 40, 62
-0.999785, 217, 61, 232, 76
-0.999786, 129, 65, 144, 80
-0.999793, 117, 67, 132, 82
-0.999794, 119, 61, 134, 76
-0.999795, 175, 57, 190, 72
-0.999795, 205, 61, 220, 76
-0.999799, 95, 43, 110, 58
-0.999803, 143, 29, 158, 44
-0.999812, 193, 31, 208, 46
-0.99983, 173, 51, 188, 66
-0.999872, 241, 97, 304, 352
-0.999919, 369, 273, 496, 336
-0.999965, 249, 97, 280, 352
-0.999999, 369, 249, 496, 312
-1.00008, 229, 129, 260, 375
-1.00009, 469, 129, 500, 375
-1.00009, 453, 97, 484, 352
-1.00029, 429, 97, 460, 352
-1.00047, 441, 97, 472, 352
-1.0006, 409, 129, 440, 375
-1.00066, 369, 193, 496, 256
-1.00081, 369, 241, 496, 368
-1.00114, 409, 161, 472, 288
-1.00319, 201, 193, 264, 320
-1.00405, 401, 129, 464, 375
-1.00581, 385, 209, 448, 336
-1.00594, 409, 225, 472, 352
-1.00717, 433, 241, 496, 368
-1.01136, 353, 241, 416, 368
