1960
-0.420999, 1, 1, 500, 375
-0.518754, 1, 33, 500, 288
-0.524714, 1, 129, 500, 375
-0.667981, 1, 1, 256, 375
-0.66903, 193, 1, 448, 375
-0.688276, 97, 1, 352, 375
-0.798413, 33, 97, 288, 352
-0.846467, 1, 1, 256, 256
-0.851703, 97, 1, 352, 256
-0.858061, 257, 65, 500, 320
-0.893158, 33, 1, 160, 375
-0.901161, 33, 129, 160, 375
-0.906392, 113, 1, 240, 375
-0.909991, 161, 129, 416, 375
-0.91021, 1, 225, 500, 352
-0.91123, 225, 1, 352, 375
-0.912864, 17, 1, 144, 256
-0.914777, 273, 1, 400, 375
-0.918702, 1, 145, 500, 272
-0.922917, 353, 65, 480, 320
-0.923503, 113, 1, 240, 256
-0.92541, 161, 1, 288, 375
-0.92608, 225, 1, 352, 256
-0.927915, 161, 1, 288, 256
-0.928711, 353, 1, 480, 375
-0.933477, 305, 65, 432, 320
-0.933763, 1, 1, 500, 128
-0.934721, 33, 209, 288, 336
-0.938515, 1, 49, 500, 176
-0.942308, 97, 97, 224, 352
-0.944698, 1, 97, 500, 224
-0.945749, 241, 129, 368, 375
-0.946179, 1, 161, 256, 288
-0.94876, 1, 81, 256, 208
-0.950258, 225, 209, 480, 336
-0.950594, 17, 49, 80, 176
-0.951174, 161, 129, 288, 375
-0.952034, 33, 225, 160, 352
-0.956076, 337, 209, 464, 336
-0.957926, 129, 209, 384, 336
-0.962866, 25, 281, 88, 344
-0.963375, 425, 193, 488, 320
-0.963496, 401, 209, 464, 336
-0.964894, 33, 241, 96, 368
-0.964996, 97, 17, 352, 144
-0.965018, 97, 161, 352, 288
-0.965159, 225, 161, 480, 288
-0.965754, 369, 241, 432, 304
-0.966457, 129, 225, 192, 352
-0.966536, 49, 177, 176, 304
-0.966676, 113, 225, 240, 352
-0.966874, 377, 81, 440, 208
-0.967026, 57, 225, 120, 352
-0.967231, 145, 1, 208, 128
-0.967823, 337, 81, 464, 208
-0.968173, 369, 161, 496, 288
-0.968309, 1, 49, 128, 176
-0.968358, 369, 209, 432, 336
-0.968563, 225, 49, 480, 176
-0.969455, 225, 1, 480, 128
-0.97007, 17, 305, 80, 368
-0.970095, 49, 305, 112, 368
-0.970544, 9, 129, 72, 256
-0.970765, 17, 177, 80, 304
-0.971157, 185, 1, 248, 128
-0.971767, 289, 241, 416, 368
-0.972393, 161, 225, 288, 352
-0.972496, 1, 1, 64, 128
-0.972723, 17, 65, 80, 128
-0.973081, 417, 217, 480, 280
-0.973711, 49, 129, 112, 256
-0.974108, 345, 209, 408, 336
-0.974297, 385, 265, 448, 328
-0.974715, 361, 273, 424, 336
-0.974996, 297, 289, 360, 352
-0.975163, 321, 161, 448, 288
-0.975391, 209, 241, 336, 368
-0.975424, 273, 1, 336, 128
-0.975606, 225, 1, 352, 128
-0.975629, 33, 129, 96, 192
-0.975701, 65, 1, 192, 256
-0.975977, 241, 193, 368, 320
-0.976146, 97, 113, 352, 240
-0.976198, 17, 89, 80, 152
-0.976285, 369, 89, 432, 152
-0.976397, 33, 129, 160, 256
-0.976458, 73, 305, 136, 368
-0.976519, 1, 41, 64, 104
-0.976622, 393, 81, 456, 144
-0.976859, 361, 217, 424, 280
-0.976893, 321, 241, 384, 368
-0.976928, 105, 241, 168, 368
-0.976988, 161, 177, 288, 304
-0.977335, 257, 113, 500, 240
-0.97741, 353, 153, 416, 216
-0.977642, 369, 225, 496, 288
-0.977682, 385, 193, 448, 256
-0.977838, 401, 65, 464, 192
-0.977945, 25, 217, 88, 280
-0.978217, 105, 313, 168, 375
-0.978269, 393, 233, 456, 296
-0.978306, 1, 1, 256, 128
-0.978486, 57, 249, 120, 312
-0.97856, 145, 33, 208, 96
-0.978801, 177, 1, 304, 128
-0.978807, 321, 257, 448, 320
-0.978863, 329, 145, 392, 208
-0.978944, 353, 65, 416, 192
-0.978944, 425, 145, 488, 272
-0.979007, 1, 305, 128, 368
-0.979064, 433, 81, 496, 144
-0.97907, 361, 161, 424, 288
-0.979085, 409, 257, 472, 320
-0.979261, 73, 281, 136, 344
-0.979646, 17, 273, 144, 336
-0.980146, 49, 193, 80, 320
-0.980159, 89, 145, 152, 272
-0.980202, 265, 281, 328, 344
-0.98022, 241, 225, 304, 352
-0.980238, 405, 249, 436, 312
-0.980346, 329, 145, 392, 272
-0.980485, 361, 185, 424, 248
-0.980552, 89, 113, 152, 176
-0.980662, 129, 1, 256, 128
-0.980955, 305, 33, 432, 160
-0.981102, 345, 249, 408, 312
-0.981163, 321, 281, 384, 344
-0.981473, 9, 177, 72, 240
-0.981605, 417, 225, 448, 288
-0.981692, 321, 257, 384, 320
-0.981759, 401, 161, 464, 288
-0.981788, 329, 209, 392, 272
-0.981863, 45, 273, 76, 336
-0.981973, 49, 169, 112, 232
-0.982095, 405, 209, 436, 336
-0.982144, 401, 225, 432, 288
-0.982171, 33, 257, 96, 320
-0.98227, 17, 129, 80, 375
-0.982282, 33, 169, 160, 232
-0.982381, 257, 241, 320, 304
-0.982417, 273, 193, 336, 320
-0.982463, 373, 241, 404, 304
-0.982484, 121, 81, 184, 144
-0.982527, 65, 81, 128, 144
-0.98253, 129, 241, 192, 304
-0.982674, 5, 25, 36, 88
-0.982873, 281, 193, 344, 256
-0.98288, 433, 249, 496, 312
-0.982888, 73, 81, 136, 208
-0.983, 65, 177, 128, 304
-0.983011, 421, 193, 452, 320
-0.983012, 185, 33, 248, 96
-0.983033, 1, 89, 128, 152
-0.983219, 225, 233, 288, 296
-0.983332, 177, 225, 240, 352
-0.983366, 389, 233, 420, 296
-0.983387, 1, 177, 128, 304
-0.98343, 1, 153, 64, 216
-0.983519, 401, 169, 464, 232
-0.983574, 361, 217, 392, 280
-0.983759, 49, 249, 176, 312
-0.983771, 57, 241, 88, 368
-0.983907, 413, 193, 444, 256
-0.98404, 57, 313, 88, 375
-0.984048, 281, 1, 344, 64
-0.984086, 49, 209, 176, 272
-0.98412, 257, 281, 384, 344
-0.984177, 185, 9, 248, 72
-0.984376, 241, 265, 304, 328
-0.984407, 369, 73, 496, 136
-0.984443, 369, 33, 496, 160
-0.984462, 321, 185, 384, 248
-0.984472, 353, 17, 416, 144
-0.984536, 321, 185, 448, 248
-0.984604, 281, 25, 344, 88
-0.984638, 393, 57, 456, 120
-0.984638, 433, 241, 496, 368
-0.984855, 17, 145, 144, 208
-0.984857, 433, 201, 464, 264
-0.984875, 397, 81, 428, 144
-0.984893, 185, 57, 248, 120
-0.984951, 89, 193, 152, 320
-0.98506, 117, 105, 148, 168
-0.985096, 361, 305, 424, 368
-0.985204, 273, 305, 336, 368
-0.985271, 369, 97, 496, 160
-0.985399, 5, 81, 36, 208
-0.9854, 409, 281, 472, 344
-0.98542, 97, 289, 160, 352
-0.985452, 241, 1, 304, 128
-0.985458, 241, 17, 304, 80
-0.985474, 449, 209, 480, 272
-0.985585, 433, 81, 496, 208
-0.985711, 33, 281, 64, 344
-0.985763, 433, 193, 496, 256
-0.985897, 345, 65, 408, 128
-0.985963, 189, 1, 220, 128
-0.985971, 161, 57, 224, 120
-0.985976, 49, 297, 176, 360
-0.986002, 241, 233, 368, 296
-0.986007, 393, 17, 456, 144
-0.986117, 217, 225, 280, 352
-0.986152, 41, 81, 104, 208
-0.986189, 393, 209, 424, 336
-0.986212, 25, 33, 88, 288
-0.986225, 17, 113, 144, 176
-0.986256, 181, 33, 212, 96
-0.986331, 161, 49, 224, 176
-0.986338, 273, 129, 400, 256
-0.986539, 321, 193, 384, 320
-0.98655, 73, 145, 136, 208
-0.986583, 321, 305, 384, 368
-0.986594, 1, 57, 128, 120
-0.986641, 93, 313, 124, 375
-0.986714, 225, 161, 288, 288
-0.986784, 161, 233, 288, 296
-0.986796, 297, 177, 360, 304
-0.986814, 369, 273, 496, 336
-0.986836, 41, 57, 104, 120
-0.98685, 417, 257, 448, 320
-0.986914, 309, 281, 340, 344
-0.986965, 257, 49, 384, 176
-0.987021, 273, 201, 400, 264
-0.987047, 209, 145, 336, 272
-0.987143, 249, 217, 312, 280
-0.987149, 453, 193, 484, 320
-0.987237, 49, 17, 112, 144
-0.987244, 273, 241, 336, 368
-0.987244, 409, 193, 472, 256
-0.987281, 273, 257, 400, 320
-0.987287, 37, 49, 68, 112
-0.987288, 129, 41, 256, 104
-0.987305, 173, 1, 204, 128
-0.987307, 469, 81, 500, 144
-0.987335, 169, 233, 232, 296
-0.987443, 417, 105, 480, 168
-0.987464, 369, 129, 432, 192
-0.987469, 305, 281, 432, 344
-0.987511, 321, 145, 448, 208
-0.987523, 17, 113, 48, 240
-0.987542, 241, 305, 368, 368
-0.98761, 41, 177, 104, 304
-0.987612, 41, 241, 72, 368
-0.987625, 217, 25, 280, 88
-0.987656, 97, 209, 160, 272
-0.987715, 81, 105, 208, 168
-0.987731, 425, 33, 488, 288
-0.987735, 1, 89, 32, 152
-0.987766, 129, 177, 192, 304
-0.987774, 17, 25, 48, 88
-0.98778, 121, 49, 184, 176
-0.987783, 257, 241, 288, 304
-0.987799, 13, 113, 44, 176
-0.98781, 129, 265, 192, 328
-0.987868, 225, 209, 288, 272
-0.98788, 201, 177, 264, 304
-0.987911, 49, 129, 112, 375
-0.987935, 209, 273, 336, 336
-0.987985, 57, 265, 88, 328
-0.988011, 201, 225, 264, 288
-0.988025, 177, 1, 240, 256
-0.98804, 201, 1, 232, 128
-0.988106, 169, 25, 200, 88
-0.988153, 57, 193, 120, 256
-0.988175, 321, 225, 448, 288
-0.988208, 433, 57, 496, 120
-0.988262, 37, 161, 68, 288
-0.988279, 369, 201, 496, 264
-0.988317, 57, 105, 120, 168
-0.988359, 405, 273, 436, 336
-0.988412, 329, 185, 360, 248
-0.98844, 161, 65, 288, 192
-0.988463, 401, 161, 432, 288
-0.988532, 401, 193, 432, 256
-0.988712, 129, 1, 192, 375
-0.988752, 353, 241, 384, 304
-0.988784, 129, 65, 384, 192
-0.988804, 33, 161, 64, 224
-0.988848, 49, 217, 80, 280
-0.988871, 273, 217, 336, 280
-0.988872, 113, 81, 144, 144
-0.988914, 145, 297, 208, 360
-0.988929, 133, 225, 164, 352
-0.988937, 193, 9, 224, 72
-0.988951, 193, 17, 320, 80
-0.98903, 345, 201, 376, 264
-0.989041, 113, 233, 240, 296
-0.989061, 145, 9, 208, 72
-0.989103, 281, 257, 344, 320
-0.989118, 65, 225, 128, 288
-0.989158, 113, 145, 144, 272
-0.989266, 293, 289, 324, 352
-0.989272, 25, 33, 56, 160
-0.989279, 465, 177, 496, 304
-0.989283, 357, 137, 388, 200
-0.98932, 369, 249, 496, 312
-0.98933, 369, 145, 496, 208
-0.989467, 297, 169, 360, 232
-0.989516, 433, 193, 464, 320
-0.989539, 41, 1, 104, 375
-0.989577, 169, 1, 232, 375
-0.989583, 161, 209, 288, 272
-0.989591, 321, 73, 448, 136
-0.989685, 69, 241, 100, 304
-0.989693, 161, 257, 288, 320
-0.989696, 121, 105, 184, 168
-0.989699, 185, 201, 248, 264
-0.989712, 421, 81, 452, 144
-0.989758, 369, 169, 496, 232
-0.989769, 97, 313, 224, 375
-0.989772, 9, 241, 72, 368
-0.989816, 385, 65, 448, 320
-0.98988, 193, 1, 256, 375
-0.989942, 461, 209, 492, 272
-0.990138, 421, 65, 452, 192
-0.990178, 129, 209, 192, 272
-0.99031, 225, 241, 480, 304
-0.990317, 113, 161, 240, 288
-0.990326, 289, 305, 416, 368
-0.990329, 25, 301, 88, 332
-0.990333, 381, 209, 412, 336
-0.990339, 113, 129, 176, 256
-0.990352, 1, 241, 128, 304
-0.99037, 297, 241, 360, 368
-0.990375, 49, 281, 112, 344
-0.990396, 385, 269, 448, 300
-0.990407, 113, 81, 240, 144
-0.990453, 97, 113, 224, 240
-0.990473, 81, 49, 208, 112
-0.990567, 57, 289, 88, 352
-0.990569, 77, 305, 108, 368
-0.990576, 409, 169, 440, 232
-0.990576, 425, 221, 488, 252
-0.99058, 269, 273, 300, 336
-0.990626, 33, 33, 160, 96
-0.990629, 369, 249, 432, 280
-0.99064, 209, 1, 272, 128
-0.990649, 217, 257, 280, 320
-0.990664, 1, 129, 64, 192
-0.990711, 369, 209, 400, 336
-0.990745, 385, 289, 448, 352
-0.990777, 129, 73, 160, 136
-0.990779, 45, 193, 76, 256
-0.990798, 129, 9, 256, 72
-0.9908, 141, 57, 172, 120
-0.9908, 121, 145, 152, 208
-0.99083, 385, 85, 448, 116
-0.990874, 97, 73, 160, 136
-0.99088, 257, 217, 288, 280
-0.990887, 385, 81, 416, 144
-0.990899, 433, 129, 496, 192
-0.990932, 409, 233, 472, 264
-0.990957, 417, 241, 448, 368
-0.990959, 329, 129, 392, 375
-0.99097, 29, 305, 60, 368
-0.990973, 33, 193, 96, 256
-0.99098, 413, 145, 444, 272
-0.991009, 113, 49, 240, 176
-0.99102, 377, 237, 440, 268
-0.991045, 385, 209, 416, 272
-0.991073, 57, 305, 120, 336
-0.991123, 393, 273, 424, 336
-0.991155, 409, 205, 472, 236
-0.991163, 281, 289, 344, 320
-0.991198, 73, 321, 136, 352
-0.991199, 97, 257, 224, 320
-0.991218, 401, 217, 464, 248
-0.991221, 17, 313, 80, 344
-0.991229, 417, 141, 480, 172
-0.991234, 57, 257, 120, 288
-0.991252, 153, 209, 216, 272
-0.991276, 41, 165, 104, 196
-0.991287, 273, 169, 400, 232
-0.991302, 161, 37, 224, 68
-0.99133, 41, 317, 104, 348
-0.991331, 145, 49, 208, 80
-0.991346, 429, 225, 460, 288
-0.99136, 25, 289, 88, 320
-0.991386, 1, 1, 64, 256
-0.991448, 409, 257, 472, 288
-0.99145, 33, 145, 96, 176
-0.991502, 425, 129, 488, 375
-0.99151, 249, 161, 312, 288
-0.991531, 9, 85, 72, 116
-0.991539, 73, 337, 136, 368
-0.991552, 185, 45, 248, 76
-0.991557, 425, 145, 456, 272
-0.99158, 17, 105, 80, 136
-0.991586, 401, 57, 432, 120
-0.991603, 329, 197, 392, 228
-0.991607, 385, 97, 448, 128
-0.991608, 397, 65, 428, 192
-0.991611, 97, 49, 160, 176
-0.991627, 1, 217, 128, 280
-0.991646, 89, 113, 152, 144
-0.991649, 5, 1, 36, 128
-0.991666, 17, 1, 80, 375
-0.991673, 353, 233, 416, 264
-0.9917, 409, 85, 472, 116
-0.991714, 185, 57, 216, 120
-0.991724, 21, 137, 52, 200
-0.99175, 273, 9, 304, 72
-0.99175, 409, 81, 440, 144
-0.991768, 361, 85, 424, 116
-0.991772, 273, 145, 336, 272
-0.991774, 377, 225, 440, 256
-0.99178, 305, 217, 368, 280
-0.991792, 53, 161, 84, 224
-0.991832, 153, 241, 216, 368
-0.991833, 25, 129, 88, 160
-0.991844, 337, 149, 400, 180
-0.991867, 329, 49, 392, 176
-0.991894, 273, 145, 400, 208
-0.991904, 21, 81, 52, 144
-0.991909, 337, 257, 400, 288
-0.991913, 129, 57, 192, 120
-0.991914, 269, 241, 300, 368
-0.991916, 337, 213, 400, 244
-0.991919, 97, 137, 160, 200
-0.991923, 113, 209, 240, 272
-0.991927, 49, 337, 112, 368
-0.991932, 305, 193, 368, 224
-0.991937, 17, 117, 80, 148
-0.991939, 225, 41, 352, 104
-0.991953, 1, 61, 64, 92
-0.991957, 69, 225, 100, 352
-0.991959, 369, 65, 432, 128
-0.991969, 409, 101, 472, 132
-0.991971, 305, 289, 368, 320
-0.991973, 433, 89, 496, 120
-0.991974, 345, 289, 408, 320
-0.991976, 225, 237, 288, 268
-0.991979, 393, 149, 456, 180
-0.992, 193, 57, 256, 88
-0.992029, 25, 233, 88, 264
-0.992031, 57, 97, 120, 128
-0.992031, 273, 1, 400, 64
-0.992037, 249, 49, 312, 112
-0.99204, 193, 185, 320, 248
-0.992045, 57, 269, 120, 300
-0.992055, 209, 49, 272, 112
-0.992059, 329, 277, 392, 308
-0.992067, 281, 301, 344, 332
-0.992092, 81, 93, 144, 124
-0.992093, 73, 161, 136, 192
-0.992107, 305, 305, 336, 368
-0.992119, 113, 297, 144, 360
-0.992126, 437, 97, 468, 160
-0.992135, 345, 245, 408, 276
-0.992138, 369, 161, 432, 192
-0.992138, 1, 73, 64, 104
-0.992159, 361, 209, 424, 240
-0.99216, 33, 273, 96, 304
-0.992167, 257, 277, 320, 308
-0.992169, 25, 57, 88, 88
-0.992173, 105, 325, 168, 356
-0.992176, 193, 1, 256, 32
-0.992182, 17, 205, 80, 236
-0.992184, 105, 129, 136, 192
-0.992193, 49, 185, 112, 216
-0.992194, 105, 249, 168, 312
-0.992211, 1, 165, 64, 196
-0.992212, 349, 177, 380, 240
-0.992213, 313, 301, 376, 332
-0.992219, 293, 1, 324, 64
-0.992219, 273, 249, 304, 312
-0.992223, 409, 269, 472, 300
-0.992224, 9, 193, 72, 224
-0.992232, 121, 101, 184, 132
-0.992247, 273, 13, 336, 44
-0.992258, 33, 69, 96, 100
-0.992261, 153, 337, 216, 368
-0.992268, 353, 121, 480, 184
-0.992271, 269, 1, 300, 128
-0.992276, 361, 97, 424, 128
-0.992281, 9, 181, 72, 212
-0.992294, 25, 221, 88, 252
-0.992307, 177, 41, 304, 104
-0.992309, 65, 245, 128, 276
-0.99231, 241, 21, 304, 52
-0.992313, 249, 249, 312, 280
-0.992315, 1, 49, 64, 80
-0.992322, 369, 137, 400, 200
-0.992367, 425, 161, 488, 224
-0.992375, 57, 205, 120, 236
-0.992379, 209, 49, 336, 176
-0.992379, 169, 13, 232, 44
-0.992387, 209, 209, 336, 272
-0.9924, 385, 73, 448, 104
-0.992403, 113, 337, 176, 368
-0.992408, 105, 1, 168, 375
-0.99243, 469, 105, 500, 168
-0.992449, 361, 261, 424, 292
-0.992453, 153, 61, 216, 92
-0.992455, 369, 281, 432, 312
-0.99246, 433, 101, 496, 132
-0.992462, 81, 241, 144, 368
-0.992464, 161, 1, 224, 32
-0.992469, 137, 33, 200, 64
-0.992471, 117, 113, 148, 144
-0.992478, 1, 33, 64, 64
-0.992483, 1, 193, 128, 256
-0.992496, 369, 49, 496, 112
-0.992499, 121, 217, 152, 280
-0.992499, 65, 229, 128, 260
-0.992502, 129, 249, 192, 280
-0.992504, 97, 281, 224, 344
-0.992526, 57, 85, 120, 116
-0.992532, 105, 89, 168, 120
-0.992536, 113, 113, 176, 144
-0.992537, 73, 1, 136, 375
-0.992555, 241, 33, 304, 64
-0.992555, 233, 265, 296, 296
-0.992559, 105, 309, 168, 340
-0.992563, 217, 25, 280, 56
-0.992569, 13, 33, 44, 64
-0.992573, 433, 205, 496, 236
-0.992586, 1, 153, 64, 184
-0.992588, 149, 33, 180, 96
-0.992589, 25, 329, 88, 360
-0.99259, 161, 161, 224, 288
-0.992592, 89, 273, 152, 304
-0.992602, 369, 137, 432, 168
-0.992602, 257, 177, 320, 240
-0.992602, 321, 281, 352, 344
-0.992615, 121, 193, 152, 320
-0.992619, 437, 217, 468, 248
-0.99263, 25, 153, 88, 216
-0.992636, 49, 49, 80, 112
-0.992639, 33, 25, 64, 88
-0.992646, 289, 205, 352, 236
-0.992651, 265, 33, 328, 64
-0.992654, 17, 345, 80, 375
-0.992661, 57, 217, 120, 248
-0.992676, 273, 1, 336, 32
-0.992676, 321, 245, 384, 276
-0.992683, 321, 173, 384, 204
-0.992696, 65, 109, 128, 140
-0.992705, 449, 213, 480, 244
-0.99271, 361, 265, 392, 328
-0.992713, 1, 25, 32, 56
-0.992714, 397, 89, 428, 120
-0.992721, 257, 305, 320, 336
-0.992732, 81, 173, 144, 204
-0.992755, 137, 233, 200, 264
-0.992756, 185, 29, 248, 60
-0.992771, 177, 41, 208, 72
-0.992771, 321, 341, 384, 372
-0.992783, 345, 73, 408, 104
-0.992785, 281, 269, 344, 300
-0.992792, 429, 229, 460, 260
-0.992792, 1, 209, 256, 272
-0.992796, 33, 81, 96, 112
-0.992797, 101, 165, 132, 196
-0.992804, 129, 281, 192, 312
-0.992808, 389, 161, 420, 224
-0.992808, 89, 297, 152, 328
-0.992812, 321, 1, 384, 375
-0.992818, 161, 233, 224, 264
-0.992828, 33, 49, 64, 80
-0.992829, 297, 177, 360, 208
-0.99283, 201, 13, 264, 44
-0.99283, 281, 313, 344, 344
-0.992837, 361, 193, 424, 224
-0.992846, 33, 245, 96, 276
-0.992855, 361, 65, 424, 320
-0.992856, 309, 285, 340, 316
-0.992859, 89, 169, 152, 232
-0.992887, 241, 289, 304, 352
-0.992899, 353, 209, 384, 336
-0.9929, 113, 93, 144, 124
-0.992909, 49, 1, 176, 128
-0.992909, 65, 65, 192, 192
-0.992911, 69, 253, 100, 284
-0.992913, 437, 205, 468, 236
-0.992932, 173, 233, 204, 296
-0.992933, 93, 317, 124, 348
-0.992952, 349, 205, 380, 236
-0.992953, 417, 269, 448, 300
-0.992966, 49, 57, 80, 88
-0.99297, 193, 45, 224, 76
-0.992972, 413, 237, 444, 268
-0.992999, 397, 245, 428, 276
-0.992999, 409, 101, 440, 132
-0.993002, 101, 109, 132, 140
-0.99301, 61, 305, 92, 336
-0.993015, 105, 169, 136, 232
-0.993017, 241, 49, 304, 176
-0.993025, 25, 49, 56, 112
-0.993031, 293, 297, 324, 328
-0.993039, 405, 257, 436, 288
-0.99304, 369, 153, 400, 184
-0.993046, 409, 89, 440, 120
-0.993048, 413, 225, 444, 256
-0.993055, 257, 253, 288, 284
-0.993068, 425, 205, 456, 236
-0.993076, 41, 281, 72, 312
-0.99308, 357, 141, 388, 172
-0.993086, 189, 5, 220, 36
-0.993088, 361, 241, 392, 272
-0.993094, 425, 33, 488, 160
-0.993106, 121, 289, 184, 352
-0.993107, 129, 101, 160, 132
-0.993108, 361, 213, 392, 244
-0.993109, 297, 313, 360, 375
-0.99311, 401, 229, 432, 260
-0.99312, 209, 1, 240, 32
-0.993136, 57, 317, 88, 348
-0.99314, 125, 81, 156, 112
-0.993143, 425, 217, 456, 248
-0.993149, 381, 241, 412, 272
-0.993155, 337, 205, 368, 236
-0.993161, 121, 153, 152, 184
-0.993167, 381, 253, 412, 284
-0.993167, 413, 197, 444, 228
-0.993169, 281, 49, 344, 112
-0.993173, 365, 261, 396, 292
-0.993175, 181, 61, 212, 92
-0.993176, 173, 29, 204, 60
-0.993176, 129, 249, 160, 312
-0.993192, 29, 309, 60, 340
-0.993201, 301, 1, 332, 32
-0.993201, 253, 237, 284, 268
-0.993207, 201, 41, 232, 104
-0.993209, 385, 93, 416, 124
-0.99323, 33, 293, 64, 324
-0.993234, 81, 337, 112, 368
-0.993241, 429, 261, 460, 292
-0.993244, 101, 153, 132, 184
-0.993246, 53, 269, 84, 300
-0.993252, 105, 341, 136, 372
-0.993258, 377, 165, 408, 196
-0.993262, 1, 93, 32, 124
-0.993263, 373, 217, 404, 280
-0.993263, 57, 237, 88, 268
-0.993264, 373, 145, 404, 272
-0.993268, 329, 193, 360, 224
-0.993269, 33, 37, 64, 68
-0.993272, 113, 165, 144, 196
-0.993277, 37, 65, 68, 192
-0.993277, 65, 161, 96, 288
-0.993281, 165, 41, 196, 72
-0.993282, 129, 105, 160, 168
-0.993283, 149, 49, 180, 80
-0.993284, 17, 45, 48, 76
-0.993286, 397, 77, 428, 108
-0.993287, 361, 229, 392, 260
-0.993289, 141, 61, 172, 92
-0.993293, 461, 209, 492, 240
-0.993296, 353, 193, 384, 224
-0.993297, 249, 21, 280, 52
-0.993299, 429, 257, 460, 320
-0.993303, 425, 89, 456, 120
-0.993306, 101, 85, 132, 116
-0.993308, 449, 225, 480, 256
-0.99331, 397, 101, 428, 132
-0.993313, 373, 277, 404, 308
-0.993322, 249, 265, 280, 296
-0.993325, 41, 73, 72, 104
-0.993326, 277, 13, 308, 44
-0.993337, 225, 217, 480, 280
-0.993338, 193, 313, 320, 375
-0.99334, 357, 277, 388, 308
-0.993341, 33, 61, 64, 92
-0.993347, 17, 149, 48, 180
-0.993347, 273, 277, 304, 308
-0.993348, 125, 217, 156, 248
-0.993348, 25, 169, 56, 200
-0.993351, 49, 225, 80, 256
-0.993362, 77, 305, 108, 336
-0.993371, 33, 185, 64, 216
-0.993372, 193, 17, 224, 48
-0.993377, 193, 29, 224, 60
-0.993377, 13, 137, 44, 168
-0.993379, 45, 213, 76, 244
-0.993379, 449, 81, 480, 112
-0.993379, 1, 77, 32, 108
-0.993382, 1, 53, 32, 84
-0.993383, 405, 269, 436, 300
-0.993385, 201, 57, 232, 88
-0.993387, 381, 229, 412, 260
-0.993388, 65, 265, 96, 296
-0.993394, 81, 321, 112, 352
-0.993397, 9, 125, 40, 156
-0.993406, 417, 249, 448, 280
-0.993406, 377, 265, 408, 296
-0.993409, 93, 341, 124, 372
-0.99341, 381, 81, 412, 112
-0.993414, 453, 129, 484, 160
-0.993418, 41, 201, 72, 232
-0.993423, 393, 257, 424, 288
-0.993425, 301, 309, 332, 340
-0.993426, 429, 193, 460, 224
-0.993427, 45, 305, 76, 336
-0.993428, 49, 165, 80, 196
-0.993428, 61, 329, 92, 360
-0.993428, 93, 329, 124, 360
-0.993429, 261, 273, 292, 304
-0.993432, 233, 1, 296, 375
-0.993436, 309, 197, 340, 228
-0.993437, 437, 81, 468, 112
-0.993437, 273, 245, 304, 276
-0.993441, 469, 89, 500, 120
-0.993442, 297, 21, 328, 52
-0.993442, 349, 245, 380, 276
-0.993445, 353, 261, 384, 292
-0.993445, 413, 209, 444, 240
-0.993445, 373, 213, 404, 244
-0.993447, 53, 73, 84, 104
-0.993453, 101, 177, 132, 208
-0.993459, 1, 281, 64, 344
-0.993466, 129, 305, 160, 368
-0.993481, 449, 81, 480, 144
-0.993484, 41, 81, 104, 144
-0.993523, 181, 225, 212, 352
-0.993563, 33, 241, 288, 304
-0.993595, 17, 305, 48, 368
-0.993632, 145, 225, 176, 352
-0.993641, 17, 9, 80, 72
-0.993694, 437, 145, 468, 272
-0.993698, 337, 161, 368, 288
-0.993711, 1, 49, 32, 112
-0.993761, 305, 49, 368, 176
-0.993811, 281, 129, 344, 375
-0.993821, 369, 1, 432, 375
-0.993885, 245, 233, 276, 296
-0.993887, 253, 265, 284, 328
-0.993889, 161, 1, 192, 128
-0.993944, 465, 129, 496, 256
-0.993963, 161, 225, 192, 352
-0.993967, 369, 193, 400, 256
-0.993985, 469, 241, 500, 304
-0.993988, 337, 313, 464, 375
-0.993992, 1, 169, 256, 232
-0.994003, 113, 241, 144, 368
-0.994018, 137, 97, 200, 224
-0.994051, 101, 145, 132, 272
-0.99406, 321, 97, 448, 160
-0.994062, 409, 97, 440, 224
-0.994066, 37, 1, 68, 128
-0.994115, 89, 129, 152, 375
-0.994131, 49, 73, 176, 136
-0.994138, 369, 305, 400, 368
-0.994151, 1, 1, 32, 64
-0.994151, 429, 177, 460, 240
-0.994152, 305, 49, 432, 112
-0.994168, 415, 249, 430, 312
-0.99417, 433, 81, 464, 208
-0.994174, 105, 1, 168, 128
-0.994175, 285, 209, 316, 336
-0.994204, 393, 105, 456, 168
-0.994224, 101, 81, 132, 208
-0.994383, 97, 153, 224, 216
-0.994398, 25, 33, 88, 96
-0.994427, 257, 193, 288, 320
-0.994441, 377, 153, 440, 216
-0.994467, 105, 105, 136, 168
-0.994469, 177, 289, 240, 352
-0.994492, 417, 281, 448, 344
-0.994505, 377, 169, 408, 232
-0.994509, 145, 233, 176, 296
-0.994525, 53, 113, 84, 240
-0.994537, 145, 297, 272, 360
-0.99454, 385, 81, 416, 208
-0.994632, 389, 161, 420, 288
-0.994636, 273, 25, 400, 88
-0.994639, 241, 1, 304, 256
-0.994643, 213, 17, 244, 144
-0.99466, 297, 1, 328, 128
-0.994723, 417, 225, 432, 288
-0.994782, 153, 1, 216, 256
-0.994786, 161, 129, 288, 256
-0.994829, 225, 265, 480, 328
-0.994844, 407, 225, 422, 288
-0.994861, 145, 33, 176, 160
-0.994863, 249, 1, 280, 128
-0.994886, 161, 73, 288, 136
-0.994888, 281, 281, 312, 344
-0.994906, 353, 145, 384, 272
-0.994962, 405, 145, 436, 208
-0.994964, 377, 265, 408, 328
-0.994979, 309, 177, 340, 240
-0.994992, 1, 193, 500, 256
-0.995006, 1, 265, 256, 328
-0.995031, 233, 233, 264, 296
-0.995048, 49, 33, 112, 96
-0.995054, 249, 313, 312, 375
-0.995076, 249, 17, 280, 80
-0.9951, 25, 1, 88, 128
-0.99512, 189, 49, 220, 176
-0.995135, 381, 241, 396, 304
-0.995171, 193, 161, 320, 224
-0.995172, 305, 33, 368, 288
-0.995206, 269, 225, 300, 288
-0.995213, 45, 305, 76, 368
-0.995236, 345, 1, 408, 375
-0.99524, 385, 57, 416, 120
-0.995261, 433, 273, 496, 336
-0.995269, 485, 89, 500, 152
-0.995313, 49, 217, 176, 248
-0.995316, 181, 1, 212, 64
-0.995332, 81, 129, 208, 192
-0.99534, 409, 105, 440, 168
-0.995362, 77, 281, 108, 344
-0.995384, 33, 169, 160, 200
-0.995402, 29, 33, 44, 96
-0.995426, 337, 161, 368, 224
-0.995435, 57, 241, 88, 304
-0.995437, 281, 1, 344, 375
-0.995441, 33, 113, 64, 176
-0.99546, 465, 185, 496, 248
-0.995469, 1, 313, 256, 375
-0.995475, 97, 209, 352, 272
-0.995476, 257, 193, 500, 256
-0.995484, 469, 57, 500, 120
-0.995493, 357, 305, 388, 368
-0.995507, 457, 129, 488, 192
-0.995508, 401, 145, 464, 208
-0.995528, 281, 1, 344, 256
-0.99554, 61, 273, 76, 336
-0.995597, 425, 201, 440, 264
-0.995606, 1, 137, 256, 200
-0.995665, 237, 25, 268, 88
-0.99567, 225, 97, 352, 224
-0.995682, 333, 209, 364, 272
-0.995716, 109, 273, 140, 336
-0.995754, 431, 193, 446, 256
-0.995755, 305, 129, 368, 375
-0.995771, 57, 49, 88, 176
-0.995808, 1, 249, 500, 312
-0.995818, 213, 217, 244, 280
-0.995834, 17, 277, 144, 308
-0.995868, 53, 273, 68, 336
-0.995879, 49, 245, 176, 276
-0.995929, 229, 161, 260, 288
-0.995931, 353, 269, 480, 300
-0.995939, 191, 33, 206, 96
-0.995942, 237, 225, 268, 352
-0.995951, 129, 233, 384, 296
-0.995966, 209, 1, 272, 64
-0.995991, 423, 233, 438, 296
-0.995996, 449, 185, 480, 248
-0.995998, 409, 257, 424, 320
-0.996002, 121, 81, 136, 144
-0.996003, 129, 185, 256, 248
-0.996023, 341, 209, 372, 336
-0.996036, 31, 297, 46, 360
-0.996038, 201, 65, 264, 192
-0.996038, 1, 217, 500, 280
-0.996043, 297, 1, 360, 128
-0.996043, 385, 33, 416, 160
-0.996052, 375, 241, 390, 304
-0.996064, 371, 137, 386, 200
-0.996069, 17, 157, 144, 188
-0.996075, 45, 137, 76, 200
-0.99608, 1, 1, 128, 128
-0.996089, 161, 17, 416, 80
-0.996089, 33, 205, 160, 236
-0.996094, 129, 105, 144, 168
-0.996115, 97, 273, 352, 336
-0.996141, 133, 209, 164, 272
-0.996159, 1, 97, 128, 128
-0.996159, 399, 81, 414, 144
-0.99616, 425, 105, 456, 168
-0.996162, 133, 177, 164, 304
-0.996193, 35, 41, 50, 104
-0.996199, 129, 49, 160, 112
-0.996208, 1, 313, 128, 344
-0.996236, 81, 109, 208, 140
-0.996239, 67, 257, 82, 320
-0.996243, 257, 289, 500, 352
-0.996247, 63, 217, 78, 280
-0.996251, 345, 89, 408, 152
-0.996268, 449, 233, 480, 296
-0.996269, 137, 185, 200, 248
-0.996276, 17, 289, 144, 320
-0.996292, 269, 193, 300, 320
-0.996297, 65, 297, 80, 360
-0.996302, 1, 301, 128, 332
-0.996317, 417, 1, 480, 375
-0.996351, 305, 129, 368, 256
-0.996372, 49, 261, 176, 292
-0.996376, 445, 241, 476, 368
-0.996377, 73, 297, 88, 360
-0.996379, 121, 97, 184, 352
-0.996391, 369, 257, 384, 320
-0.99641, 369, 229, 496, 260
-0.996423, 1, 113, 256, 176
-0.996424, 53, 49, 68, 112
-0.996445, 177, 49, 208, 176
-0.99646, 129, 81, 160, 208
-0.996461, 313, 17, 376, 80
-0.996472, 1, 65, 16, 128
-0.996478, 17, 109, 144, 140
-0.99648, 455, 201, 470, 264
-0.996489, 241, 129, 304, 375
-0.996498, 271, 249, 286, 312
-0.996527, 421, 257, 436, 320
-0.996528, 311, 281, 326, 344
-0.996528, 49, 233, 176, 264
-0.996535, 373, 217, 388, 280
-0.996547, 145, 45, 272, 76
-0.996552, 7, 25, 22, 88
-0.996553, 465, 225, 496, 352
-0.996556, 49, 33, 112, 288
-0.996578, 261, 233, 276, 296
-0.996584, 193, 49, 448, 112
-0.996592, 161, 97, 288, 160
-0.996592, 57, 201, 72, 264
-0.996593, 201, 1, 216, 64
-0.996596, 463, 209, 478, 272
-0.996602, 33, 181, 160, 212
-0.996608, 9, 241, 72, 304
-0.996621, 393, 1, 456, 375
-0.996622, 1, 273, 500, 336
-0.99663, 449, 209, 464, 272
-0.99666, 387, 233, 402, 296
-0.996665, 265, 153, 328, 216
-0.996665, 47, 177, 62, 240
-0.996676, 123, 113, 138, 176
-0.996684, 27, 129, 42, 192
-0.996684, 1, 289, 256, 352
-0.99669, 121, 129, 184, 192
-0.99669, 449, 145, 480, 272
-0.996706, 353, 213, 480, 244
-0.996708, 353, 1, 480, 64
-0.99671, 257, 1, 320, 375
-0.99672, 1, 1, 256, 64
-0.996734, 17, 145, 144, 176
-0.996737, 411, 185, 426, 248
-0.996756, 43, 281, 58, 344
-0.996759, 37, 281, 52, 344
-0.99676, 29, 241, 60, 368
-0.996763, 23, 25, 38, 88
-0.996765, 145, 57, 160, 120
-0.996771, 69, 233, 84, 296
-0.996772, 37, 153, 52, 216
-0.996776, 103, 313, 118, 375
-0.996791, 33, 113, 64, 240
-0.996835, 405, 185, 420, 248
-0.99684, 135, 81, 150, 144
-0.996846, 195, 1, 210, 64
-0.99685, 329, 121, 392, 184
-0.99685, 217, 169, 280, 232
-0.996853, 241, 245, 368, 276
-0.996856, 1, 41, 16, 104
-0.996873, 477, 89, 492, 152
-0.996876, 475, 65, 490, 128
-0.996876, 401, 233, 416, 296
-0.996879, 59, 305, 74, 368
-0.996886, 185, 25, 200, 88
-0.996888, 367, 217, 382, 280
-0.99691, 97, 313, 112, 375
-0.996929, 33, 193, 160, 224
-0.996932, 415, 273, 430, 336
-0.996933, 337, 241, 464, 272
-0.996951, 213, 177, 244, 304
-0.996972, 485, 65, 500, 128
-0.996977, 33, 57, 288, 120
-0.996978, 321, 281, 448, 312
-0.996981, 1, 325, 128, 356
-0.996991, 427, 257, 442, 320
-0.996994, 217, 1, 280, 256
-0.996999, 273, 73, 400, 136
-0.99701, 97, 305, 352, 368
-0.99702, 281, 1, 312, 128
-0.997041, 7, 81, 22, 144
-0.997046, 363, 241, 378, 304
-0.997047, 273, 297, 400, 328
-0.997049, 181, 289, 196, 352
-0.997055, 325, 177, 356, 304
-0.997065, 257, 1, 500, 64
-0.997079, 305, 257, 432, 288
-0.997086, 377, 145, 392, 208
-0.997093, 59, 57, 74, 120
-0.997096, 15, 97, 30, 160
-0.997099, 369, 89, 496, 120
-0.997102, 21, 113, 36, 176
-0.997106, 433, 217, 448, 280
-0.997124, 17, 133, 144, 164
-0.997125, 441, 97, 456, 160
-0.997134, 13, 17, 28, 80
-0.997141, 1, 89, 256, 152
-0.997159, 101, 241, 132, 368
-0.997162, 439, 193, 454, 256
-0.997178, 113, 57, 240, 88
-0.997179, 305, 241, 336, 368
-0.997186, 433, 241, 464, 368
-0.99719, 267, 225, 282, 288
-0.997205, 161, 237, 288, 268
-0.997213, 131, 209, 146, 272
-0.997219, 337, 197, 464, 228
-0.997235, 369, 101, 496, 132
-0.99724, 171, 25, 186, 88
-0.997244, 305, 281, 320, 344
-0.997267, 177, 265, 304, 296
-0.997267, 49, 9, 176, 72
-0.997275, 23, 313, 38, 375
-0.997279, 177, 21, 304, 52
-0.99729, 405, 81, 420, 144
-0.997304, 277, 233, 292, 296
-0.997307, 273, 201, 400, 232
-0.997317, 137, 209, 152, 272
-0.997317, 175, 265, 190, 328
-0.997325, 139, 57, 154, 120
-0.997338, 443, 217, 458, 280
-0.997339, 129, 73, 144, 136
-0.997345, 97, 185, 352, 248
-0.997345, 283, 273, 298, 336
-0.997355, 165, 33, 180, 96
-0.99736, 363, 137, 378, 200
-0.99736, 65, 341, 192, 372
-0.99737, 393, 225, 408, 288
-0.997376, 225, 225, 256, 352
-0.997393, 1, 169, 500, 232
-0.997406, 379, 217, 394, 280
-0.997408, 111, 97, 126, 160
-0.997414, 325, 281, 340, 344
-0.997436, 397, 57, 412, 120
-0.997439, 331, 185, 346, 248
-0.997445, 257, 121, 384, 184
-0.997445, 305, 121, 432, 184
-0.997451, 49, 309, 176, 340
-0.997453, 369, 77, 496, 108
-0.99746, 195, 57, 210, 120
-0.99746, 373, 281, 388, 344
-0.997466, 281, 49, 344, 176
-0.997482, 1, 145, 500, 208
-0.997486, 217, 129, 280, 375
-0.997492, 273, 285, 400, 316
-0.997494, 1, 341, 128, 372
-0.9975, 201, 57, 216, 120
-0.997521, 1, 121, 128, 152
-0.997548, 289, 9, 304, 72
-0.99755, 411, 81, 426, 144
-0.997564, 25, 37, 40, 68
-0.997577, 329, 33, 392, 288
-0.997578, 345, 177, 360, 240
-0.997579, 423, 81, 438, 144
-0.997583, 257, 241, 288, 368
-0.997592, 369, 193, 384, 256
-0.997598, 71, 257, 86, 288
-0.9976, 127, 109, 142, 140
-0.997603, 193, 9, 320, 40
-0.99762, 225, 65, 352, 128
-0.997625, 5, 21, 20, 52
-0.997628, 113, 205, 240, 236
-0.997629, 413, 101, 428, 132
-0.997629, 169, 233, 184, 296
-0.997631, 189, 37, 204, 68
-0.997635, 33, 45, 160, 76
-0.997635, 207, 1, 222, 64
-0.997658, 321, 225, 448, 256
-0.997661, 453, 213, 468, 244
-0.997669, 19, 29, 34, 60
-0.997669, 353, 113, 416, 240
-0.997673, 421, 281, 436, 344
-0.997676, 319, 281, 334, 344
-0.997677, 113, 165, 128, 196
-0.997685, 1, 9, 16, 72
-0.997686, 199, 45, 214, 76
-0.997695, 25, 129, 56, 375
-0.997698, 429, 97, 460, 352
-0.9977, 383, 153, 398, 216
-0.9977, 127, 137, 142, 200
-0.997705, 7, 57, 22, 120
-0.997705, 225, 281, 352, 312
-0.997706, 55, 57, 70, 88
-0.997708, 401, 113, 464, 240
-0.997709, 245, 177, 276, 304
-0.997714, 115, 109, 130, 140
-0.997715, 369, 141, 496, 172
-0.997718, 309, 305, 324, 368
-0.997722, 119, 161, 134, 224
-0.997723, 115, 121, 130, 184
-0.997728, 393, 89, 408, 152
-0.997734, 417, 201, 432, 264
-0.997743, 197, 33, 212, 96
-0.997743, 329, 97, 392, 224
-0.997745, 1, 229, 128, 260
-0.997748, 193, 313, 448, 375
-0.997749, 321, 89, 448, 120
-0.997751, 49, 321, 176, 352
-0.997754, 97, 45, 224, 76
-0.997755, 193, 221, 320, 252
-0.99776, 113, 97, 240, 128
-0.997767, 13, 25, 28, 56
-0.997772, 255, 233, 270, 296
-0.997775, 273, 233, 400, 264
-0.997778, 273, 269, 400, 300
-0.99778, 135, 97, 150, 128
-0.997786, 407, 93, 422, 124
-0.997792, 419, 105, 434, 168
-0.997795, 135, 113, 150, 176
-0.997796, 171, 29, 186, 60
-0.997798, 433, 161, 448, 224
-0.997802, 431, 221, 446, 252
-0.997816, 435, 257, 450, 320
-0.997819, 179, 233, 194, 296
-0.997826, 413, 257, 428, 288
-0.997832, 145, 61, 160, 92
-0.997841, 421, 257, 436, 288
-0.997842, 399, 209, 414, 272
-0.997852, 297, 1, 312, 64
-0.997852, 117, 65, 148, 192
-0.997856, 97, 281, 224, 312
-0.99786, 189, 1, 204, 64
-0.997872, 119, 165, 134, 196
-0.997873, 65, 73, 80, 136
-0.997873, 205, 33, 220, 96
-0.997874, 193, 61, 208, 92
-0.997874, 193, 37, 320, 68
-0.997876, 441, 217, 456, 248
-0.997877, 31, 41, 46, 72
-0.997879, 467, 89, 482, 152
-0.99788, 1, 17, 500, 80
-0.997912, 353, 257, 480, 288
-0.997917, 1, 77, 128, 108
-0.997919, 145, 33, 272, 64
-0.997932, 461, 213, 476, 244
-0.997937, 45, 97, 76, 352
-0.997945, 97, 217, 224, 248
-0.997958, 1, 257, 128, 288
-0.997961, 289, 149, 416, 180
-0.997964, 401, 85, 416, 116
-0.997964, 145, 153, 272, 216
-0.997967, 193, 49, 320, 80
-0.997968, 131, 213, 146, 244
-0.997984, 113, 9, 240, 40
-0.997992, 193, 49, 208, 80
-0.997994, 109, 109, 124, 140
-0.998002, 123, 97, 138, 128
-0.998011, 373, 145, 388, 176
-0.998017, 3, 85, 18, 116
-0.99802, 273, 313, 400, 344
-0.998021, 133, 109, 148, 140
-0.998034, 133, 1, 164, 128
-0.998037, 237, 1, 268, 128
-0.998043, 321, 185, 448, 216
-0.998044, 29, 1, 60, 256
-0.998053, 403, 237, 418, 268
-0.998056, 113, 233, 240, 264
-0.998063, 369, 25, 496, 88
-0.998081, 203, 9, 218, 40
-0.998091, 415, 193, 430, 224
-0.998091, 259, 253, 274, 284
-0.998093, 1, 297, 500, 360
-0.998095, 209, 113, 336, 176
-0.998099, 425, 269, 440, 300
-0.998103, 273, 49, 304, 176
-0.998114, 377, 241, 392, 272
-0.998115, 81, 165, 208, 196
-0.998126, 61, 61, 76, 92
-0.998128, 409, 33, 440, 160
-0.998133, 193, 297, 320, 328
-0.998136, 161, 121, 288, 184
-0.998139, 413, 89, 428, 120
-0.998151, 421, 225, 436, 256
-0.998163, 121, 109, 136, 140
-0.998172, 439, 205, 454, 236
-0.998172, 377, 257, 392, 288
-0.998183, 305, 213, 432, 244
-0.998187, 129, 21, 256, 52
-0.998188, 273, 1, 400, 32
-0.998193, 257, 153, 500, 216
-0.998194, 437, 229, 452, 260
-0.998197, 177, 277, 304, 308
-0.998199, 273, 189, 400, 220
-0.998203, 273, 173, 400, 204
-0.998205, 469, 65, 500, 192
-0.99821, 361, 137, 376, 168
-0.998212, 419, 101, 434, 132
-0.998215, 177, 21, 192, 52
-0.998215, 425, 197, 440, 228
-0.998217, 385, 245, 400, 276
-0.998218, 59, 309, 74, 340
-0.998226, 257, 13, 384, 44
-0.998237, 97, 265, 224, 296
-0.998238, 81, 177, 208, 240
-0.998238, 225, 309, 352, 340
-0.99824, 33, 33, 288, 96
-0.998248, 37, 289, 52, 320
-0.998256, 1, 61, 128, 92
-0.998258, 379, 157, 394, 188
-0.998259, 267, 257, 282, 288
-0.998264, 67, 237, 82, 268
-0.998266, 423, 237, 438, 268
-0.998275, 413, 245, 428, 276
-0.998275, 241, 257, 368, 288
-0.998275, 151, 53, 166, 84
-0.998282, 413, 229, 428, 260
-0.998286, 65, 297, 192, 328
-0.998286, 401, 97, 416, 128
-0.998286, 321, 161, 448, 192
-0.998289, 1, 9, 128, 72
-0.998296, 225, 25, 352, 56
-0.998297, 53, 69, 68, 100
-0.9983, 321, 25, 448, 88
-0.998302, 97, 325, 224, 356
-0.998306, 125, 157, 140, 188
-0.998308, 69, 301, 84, 332
-0.998314, 371, 277, 386, 308
-0.998314, 309, 289, 324, 320
-0.998317, 355, 205, 370, 236
-0.998318, 45, 281, 60, 312
-0.998324, 395, 85, 410, 116
-0.998325, 21, 51, 52, 66
-0.998325, 57, 301, 88, 316
-0.998325, 401, 265, 432, 280
-0.998326, 61, 273, 92, 288
-0.998326, 199, 61, 214, 92
-0.998327, 293, 291, 324, 306
-0.998327, 57, 249, 88, 264
-0.998327, 273, 29, 304, 44
-0.998328, 113, 167, 144, 182
-0.998328, 77, 323, 108, 338
-0.998329, 33, 297, 64, 312
-0.99833, 141, 61, 172, 76
-0.99833, 25, 25, 40, 56
-0.99833, 437, 199, 468, 214
-0.99833, 45, 313, 76, 328
-0.99833, 465, 77, 496, 92
-0.998331, 393, 105, 424, 120
-0.998332, 367, 137, 382, 168
-0.998333, 97, 179, 128, 194
-0.998333, 45, 55, 76, 70
-0.998333, 357, 251, 388, 266
-0.998333, 209, 225, 240, 352
-0.998333, 101, 161, 132, 176
-0.998334, 177, 59, 208, 74
-0.998334, 1, 65, 500, 128
-0.998334, 33, 39, 64, 54
-0.998336, 93, 335, 124, 350
-0.998336, 149, 53, 180, 68
-0.998337, 437, 141, 468, 156
-0.998337, 461, 221, 492, 236
-0.998339, 385, 83, 416, 98
-0.998339, 173, 51, 204, 66
-0.998339, 117, 97, 132, 128
-0.99834, 421, 273, 452, 288
-0.998341, 209, 11, 240, 26
-0.998341, 381, 257, 412, 272
-0.998341, 17, 1, 48, 256
-0.998342, 267, 237, 282, 268
-0.998342, 53, 67, 84, 82
-0.998343, 353, 141, 384, 156
-0.998345, 333, 297, 364, 312
-0.998346, 413, 249, 444, 264
-0.998346, 433, 111, 464, 126
-0.998347, 285, 17, 316, 32
-0.998347, 457, 97, 488, 112
-0.998348, 457, 211, 488, 226
-0.998349, 29, 311, 60, 326
-0.99835, 125, 87, 156, 102
-0.998352, 193, 17, 224, 32
-0.998352, 33, 59, 64, 74
-0.998353, 417, 197, 448, 212
-0.998354, 305, 297, 336, 312
-0.99836, 413, 261, 444, 276
-0.99836, 373, 213, 404, 228
-0.99836, 197, 59, 228, 74
-0.99836, 81, 337, 112, 352
-0.998361, 365, 239, 396, 254
-0.998364, 269, 277, 300, 292
-0.998364, 93, 323, 124, 338
-0.998365, 373, 161, 404, 176
-0.998366, 369, 261, 400, 276
-0.998366, 253, 255, 284, 270
-0.998366, 173, 33, 204, 48
-0.998366, 121, 217, 152, 232
-0.998366, 289, 303, 320, 318
-0.998367, 61, 307, 92, 322
-0.998367, 425, 219, 456, 234
-0.998368, 419, 269, 434, 300
-0.99837, 117, 93, 148, 108
-0.99837, 113, 107, 144, 122
-0.998372, 189, 7, 220, 22
-0.998372, 93, 329, 124, 344
-0.998372, 377, 167, 408, 182
-0.998374, 49, 277, 80, 292
-0.998376, 361, 279, 392, 294
-0.998377, 365, 155, 396, 170
-0.998379, 33, 47, 64, 62
-0.99838, 381, 245, 412, 260
-0.998381, 425, 267, 456, 282
-0.998381, 73, 317, 104, 332
-0.998382, 417, 203, 448, 218
-0.998384, 107, 321, 122, 352
-0.998384, 165, 45, 196, 60
-0.998387, 295, 289, 310, 320
-0.998387, 13, 39, 44, 54
-0.998388, 117, 173, 148, 188
-0.99839, 69, 259, 100, 274
-0.99839, 385, 235, 416, 250
-0.99839, 345, 205, 360, 236
-0.998393, 369, 255, 400, 270
-0.998395, 107, 345, 122, 375
-0.998395, 305, 193, 336, 320
-0.998396, 369, 169, 496, 200
-0.998397, 431, 269, 446, 300
-0.998398, 405, 227, 436, 242
-0.998399, 313, 287, 344, 302
-0.998399, 409, 91, 440, 106
-0.9984, 45, 61, 76, 76
-0.998405, 21, 45, 52, 60
-0.998405, 405, 197, 436, 212
-0.99841, 437, 205, 468, 220
-0.998412, 405, 239, 436, 254
-0.998412, 183, 37, 198, 68
-0.998412, 3, 73, 18, 104
-0.998414, 185, 41, 216, 56
-0.998414, 119, 153, 134, 184
-0.998417, 57, 321, 88, 336
-0.998417, 361, 213, 392, 228
-0.998418, 381, 251, 412, 266
-0.998418, 1, 45, 16, 76
-0.998419, 397, 85, 428, 100
-0.998424, 95, 337, 110, 368
-0.998424, 101, 111, 132, 126
-0.998426, 409, 97, 440, 352
-0.998428, 357, 147, 388, 162
-0.998429, 405, 111, 436, 126
-0.99843, 469, 97, 500, 112
-0.998432, 329, 207, 360, 222
-0.998433, 321, 101, 448, 132
-0.998435, 137, 217, 152, 248
-0.998435, 421, 101, 452, 116
-0.998436, 1, 27, 32, 42
-0.998436, 365, 245, 396, 260
-0.998439, 441, 105, 472, 120
-0.99844, 53, 197, 68, 228
-0.99844, 47, 181, 62, 212
-0.998442, 61, 217, 76, 248
-0.998443, 195, 33, 210, 64
-0.998443, 451, 201, 466, 232
-0.998444, 449, 221, 480, 236
-0.998444, 35, 153, 50, 184
-0.998445, 417, 233, 448, 248
-0.998446, 405, 233, 436, 248
-0.998449, 285, 145, 316, 272
-0.998449, 139, 77, 154, 108
-0.998449, 101, 87, 132, 102
-0.998451, 181, 65, 212, 80
-0.998451, 177, 61, 304, 92
-0.998452, 373, 209, 388, 240
-0.998457, 453, 79, 484, 94
-0.998458, 401, 271, 432, 286
-0.998459, 373, 279, 404, 294
-0.99846, 341, 211, 372, 226
-0.998461, 433, 209, 448, 240
-0.998462, 119, 121, 134, 152
-0.998463, 367, 245, 382, 276
-0.998464, 101, 167, 132, 182
-0.998464, 363, 205, 378, 236
-0.998465, 117, 333, 132, 364
-0.998465, 393, 241, 424, 256
-0.998471, 425, 225, 456, 240
-0.998472, 401, 99, 432, 114
-0.998474, 401, 249, 432, 264
-0.998475, 393, 91, 424, 106
-0.998476, 125, 113, 156, 128
-0.998477, 113, 119, 144, 134
-0.998482, 391, 237, 406, 268
-0.998483, 171, 41, 186, 72
-0.998485, 405, 105, 436, 120
-0.998486, 101, 173, 132, 188
-0.998489, 375, 289, 390, 320
-0.998489, 257, 25, 500, 88
-0.998493, 25, 129, 40, 160
-0.998497, 57, 315, 88, 330
-0.998502, 421, 107, 452, 122
-0.998506, 173, 39, 204, 54
-0.998506, 129, 341, 256, 372
-0.998507, 325, 285, 340, 316
-0.998511, 39, 165, 54, 196
-0.998513, 437, 225, 468, 240
-0.998514, 33, 53, 64, 68
-0.998515, 13, 97, 44, 352
-0.998522, 445, 215, 476, 230
-0.998528, 9, 33, 40, 48
-0.998528, 353, 207, 384, 222
-0.998529, 73, 325, 88, 356
-0.998532, 187, 49, 202, 80
-0.998535, 165, 33, 180, 64
-0.99854, 413, 267, 444, 282
-0.99854, 177, 281, 192, 312
-0.99854, 429, 231, 460, 246
-0.998541, 37, 45, 52, 76
-0.998541, 385, 157, 400, 188
-0.998544, 377, 95, 440, 110
-0.998545, 17, 313, 80, 328
-0.998546, 407, 249, 422, 280
-0.998549, 177, 197, 304, 228
-0.998551, 401, 267, 464, 282
-0.998551, 401, 99, 464, 114
-0.998552, 385, 89, 448, 104
-0.998554, 113, 113, 144, 128
-0.998554, 371, 257, 386, 288
-0.998557, 419, 89, 434, 120
-0.998558, 425, 225, 488, 240
-0.998559, 377, 269, 440, 284
-0.998559, 397, 237, 412, 268
-0.998561, 205, 57, 220, 88
-0.998565, 53, 277, 68, 308
-0.998566, 427, 93, 442, 124
-0.998568, 447, 213, 462, 244
-0.998572, 171, 265, 186, 296
-0.998572, 361, 89, 424, 104
-0.998573, 329, 207, 392, 222
-0.998574, 417, 205, 480, 220
-0.998575, 1, 9, 16, 40
-0.998578, 25, 307, 88, 322
-0.99858, 417, 231, 480, 246
-0.998581, 75, 305, 90, 336
-0.998583, 73, 245, 88, 276
-0.998584, 49, 315, 112, 330
-0.998585, 103, 89, 118, 120
-0.998586, 405, 181, 420, 212
-0.998588, 485, 97, 500, 128
-0.998589, 407, 105, 422, 136
-0.998591, 377, 103, 440, 118
-0.998592, 25, 301, 88, 316
-0.998594, 47, 61, 62, 92
-0.998595, 25, 319, 88, 334
-0.998595, 1, 121, 500, 184
-0.998596, 169, 17, 232, 32
-0.998596, 353, 249, 416, 264
-0.998596, 33, 165, 96, 180
-0.998597, 153, 39, 216, 54
-0.998601, 433, 215, 496, 230
-0.998602, 17, 33, 144, 64
-0.998608, 433, 101, 496, 116
-0.998609, 401, 221, 464, 236
-0.99861, 385, 275, 448, 290
-0.99861, 369, 289, 496, 320
-0.998611, 377, 229, 392, 260
-0.998613, 259, 269, 274, 300
-0.998613, 17, 59, 80, 74
-0.998616, 281, 295, 344, 310
-0.998617, 337, 213, 400, 228
-0.998618, 81, 173, 144, 188
-0.998618, 281, 287, 344, 302
-0.998618, 409, 105, 472, 120
-0.998619, 73, 109, 136, 124
-0.99862, 89, 117, 152, 132
-0.998622, 49, 57, 176, 88
-0.998623, 153, 45, 216, 60
-0.998625, 33, 171, 96, 186
-0.998626, 113, 113, 176, 128
-0.998626, 393, 231, 456, 246
-0.998626, 345, 243, 408, 258
-0.998627, 377, 251, 440, 266
-0.998627, 57, 271, 120, 286
-0.998627, 73, 329, 136, 344
-0.99863, 65, 321, 128, 336
-0.998632, 377, 241, 440, 256
-0.998633, 57, 309, 120, 324
-0.998634, 25, 135, 88, 150
-0.998635, 57, 261, 120, 276
-0.998636, 409, 93, 472, 108
-0.998636, 17, 113, 80, 128
-0.998636, 401, 215, 464, 230
-0.998636, 385, 197, 448, 212
-0.998636, 33, 157, 96, 172
-0.998637, 25, 145, 88, 160
-0.998638, 401, 83, 464, 98
-0.998639, 145, 61, 208, 76
-0.998645, 329, 257, 392, 272
-0.998645, 49, 277, 112, 292
-0.998648, 337, 157, 400, 172
-0.998648, 73, 87, 136, 102
-0.998648, 433, 79, 496, 94
-0.998649, 329, 251, 392, 266
-0.998651, 177, 39, 240, 54
-0.998652, 361, 215, 424, 230
-0.998652, 17, 121, 80, 136
-0.998653, 73, 335, 136, 350
-0.998653, 49, 335, 112, 350
-0.998654, 1, 245, 128, 276
-0.998654, 361, 259, 424, 274
-0.998654, 353, 165, 416, 180
-0.998655, 425, 265, 488, 280
-0.998656, 281, 303, 344, 318
-0.998657, 9, 95, 72, 110
-0.998657, 401, 237, 464, 252
-0.998658, 1, 79, 64, 94
-0.998659, 73, 359, 136, 374
-0.998659, 73, 167, 136, 182
-0.99866, 337, 283, 400, 298
-0.998661, 321, 299, 384, 314
-0.998662, 41, 177, 104, 192
-0.998662, 361, 191, 424, 206
-0.998663, 393, 65, 424, 320
-0.998664, 41, 185, 104, 200
-0.998664, 17, 129, 80, 144
-0.998664, 9, 199, 72, 214
-0.998665, 369, 235, 432, 250
-0.998666, 177, 45, 240, 60
-0.998666, 273, 17, 336, 32
-0.998667, 17, 53, 80, 68
-0.998667, 73, 341, 136, 356
-0.998667, 305, 289, 368, 304
-0.998667, 65, 245, 128, 260
-0.998668, 193, 63, 256, 78
-0.998668, 297, 203, 360, 218
-0.99867, 9, 25, 72, 40
-0.99867, 65, 255, 128, 270
-0.998671, 57, 351, 120, 366
-0.998671, 409, 273, 472, 288
-0.998671, 25, 359, 88, 374
-0.998672, 25, 295, 88, 310
-0.998673, 17, 107, 80, 122
-0.998673, 417, 199, 480, 214
-0.998673, 1, 179, 64, 194
-0.998673, 177, 1, 208, 256
-0.998673, 89, 273, 152, 288
-0.998674, 385, 161, 448, 176
-0.998674, 17, 205, 80, 220
-0.998674, 273, 29, 336, 44
-0.998674, 1, 65, 64, 80
-0.998675, 1, 165, 64, 180
-0.998675, 57, 223, 120, 238
-0.998675, 241, 25, 304, 40
-0.998676, 33, 151, 96, 166
-0.998676, 97, 87, 160, 102
-0.998676, 385, 203, 448, 218
-0.998677, 401, 111, 464, 126
-0.998678, 321, 297, 448, 328
-0.998679, 33, 289, 96, 304
-0.998679, 289, 209, 352, 224
-0.998679, 41, 191, 104, 206
-0.998679, 337, 289, 400, 304
-0.998679, 33, 79, 96, 94
-0.998681, 1, 71, 64, 86
-0.998681, 1, 85, 64, 100
-0.998682, 49, 205, 112, 220
-0.998682, 17, 219, 80, 234
-0.998684, 329, 171, 392, 186
-0.998684, 33, 325, 96, 340
-0.998684, 17, 101, 80, 116
-0.998684, 417, 259, 480, 274
-0.998684, 369, 149, 432, 164
-0.998684, 25, 239, 88, 254
-0.998685, 241, 273, 304, 288
-0.998685, 49, 197, 112, 212
-0.998686, 113, 339, 176, 354
-0.998686, 73, 315, 136, 330
-0.998686, 145, 51, 208, 66
-0.998687, 321, 73, 448, 104
-0.998702, 209, 233, 336, 264
-0.998709, 225, 321, 352, 352
-0.998717, 185, 129, 248, 375
-0.998719, 241, 53, 368, 84
-0.998725, 97, 253, 224, 284
-0.998728, 397, 113, 428, 240
-0.998738, 113, 153, 240, 184
-0.99874, 61, 209, 76, 336
-0.998741, 209, 137, 336, 200
-0.998754, 321, 173, 448, 204
-0.99876, 161, 253, 288, 284
-0.998763, 257, 213, 384, 244
-0.998767, 369, 113, 496, 144
-0.998768, 1, 65, 32, 320
-0.998773, 65, 129, 96, 375
-0.998781, 353, 129, 480, 160
-0.998797, 113, 313, 240, 344
-0.998808, 113, 301, 240, 332
-0.998836, 97, 137, 352, 200
-0.99884, 321, 341, 448, 372
-0.998848, 225, 269, 352, 300
-0.998863, 441, 33, 472, 160
-0.998865, 369, 65, 496, 96
-0.998881, 369, 301, 496, 332
-0.998916, 305, 329, 432, 360
-0.998916, 257, 337, 384, 368
-0.998924, 65, 89, 192, 120
-0.998926, 225, 197, 352, 228
-0.998934, 417, 209, 432, 336
-0.998945, 249, 113, 312, 240
-0.99895, 397, 17, 428, 144
-0.998953, 161, 177, 192, 304
-0.998955, 97, 121, 224, 152
-0.998969, 427, 193, 442, 320
-0.998985, 145, 329, 272, 360
-0.998992, 273, 137, 400, 168
-0.999001, 1, 1, 16, 128
-0.999008, 129, 109, 256, 140
-0.999009, 67, 209, 82, 336
-0.999024, 273, 29, 400, 60
-0.999025, 55, 193, 70, 320
-0.99904, 49, 69, 176, 100
-0.99905, 273, 65, 400, 96
-0.999051, 453, 65, 484, 192
-0.999059, 129, 69, 256, 100
-0.999073, 89, 81, 120, 208
-0.999073, 369, 153, 496, 184
-0.999078, 97, 33, 224, 64
-0.999081, 193, 185, 320, 216
-0.999094, 289, 245, 416, 276
-0.999095, 1, 89, 500, 152
-0.999095, 337, 313, 464, 344
-0.999099, 209, 89, 336, 152
-0.99911, 225, 73, 480, 136
-0.999122, 257, 97, 500, 160
-0.999152, 407, 209, 422, 336
-0.999166, 453, 33, 484, 288
-0.999175, 7, 1, 22, 128
-0.999217, 463, 193, 478, 320
-0.999217, 49, 177, 64, 304
-0.999222, 13, 241, 44, 368
-0.999235, 253, 1, 284, 256
-0.999274, 135, 209, 150, 336
-0.999296, 317, 241, 348, 368
-0.999307, 257, 129, 500, 192
-0.999307, 371, 209, 386, 336
-0.999323, 457, 193, 472, 320
-0.999323, 49, 241, 64, 368
-0.999326, 413, 161, 428, 288
-0.999327, 27, 17, 42, 144
-0.999328, 441, 97, 472, 352
-0.999335, 199, 1, 214, 128
-0.999343, 403, 65, 418, 192
-0.999361, 117, 129, 148, 375
-0.999377, 189, 1, 220, 256
-0.999383, 31, 129, 46, 256
-0.999387, 193, 225, 224, 352
-0.999396, 379, 225, 394, 352
-0.999407, 179, 1, 194, 128
-0.999413, 7, 81, 22, 208
-0.999417, 421, 97, 436, 224
-0.999417, 427, 65, 442, 192
-0.999421, 145, 161, 176, 288
-0.999422, 173, 1, 188, 128
-0.999436, 37, 145, 52, 272
-0.999439, 1, 65, 16, 192
-0.99944, 423, 241, 438, 368
-0.999446, 321, 1, 384, 128
-0.999448, 397, 209, 412, 336
-0.999449, 381, 129, 412, 375
-0.99945, 361, 129, 392, 375
-0.999451, 205, 1, 220, 128
-0.999451, 431, 145, 446, 272
-0.999457, 73, 225, 88, 352
-0.999457, 187, 1, 202, 128
-0.99946, 23, 113, 38, 240
-0.999463, 443, 81, 458, 208
-0.999466, 43, 161, 58, 288
-0.999467, 423, 145, 438, 272
-0.999468, 407, 161, 422, 288
-0.99947, 127, 129, 142, 256
-0.999471, 15, 97, 30, 224
-0.999472, 415, 65, 430, 192
-0.999474, 81, 241, 112, 368
-0.999475, 309, 1, 340, 128
-0.999475, 325, 1, 356, 128
-0.999478, 435, 193, 450, 320
-0.99948, 317, 1, 348, 256
-0.999482, 33, 49, 48, 176
-0.999492, 395, 17, 410, 144
-0.999495, 397, 65, 412, 192
-0.999496, 389, 209, 404, 336
-0.9995, 277, 1, 292, 128
-0.9995, 455, 145, 470, 272
-0.999509, 61, 129, 76, 256
-0.999512, 55, 241, 70, 368
-0.999513, 409, 65, 424, 192
-0.999517, 441, 193, 456, 320
-0.999519, 365, 241, 380, 368
-0.999522, 399, 161, 414, 288
-0.999523, 279, 225, 294, 352
-0.999527, 241, 1, 272, 256
-0.999529, 469, 129, 500, 375
-0.999532, 161, 129, 224, 375
-0.999534, 349, 33, 380, 288
-0.999538, 57, 49, 72, 176
-0.999539, 305, 129, 336, 375
-0.99954, 67, 161, 82, 288
-0.99954, 437, 145, 452, 272
-0.999543, 469, 177, 484, 304
-0.999549, 433, 65, 448, 192
-0.999554, 381, 1, 412, 256
-0.999554, 105, 129, 136, 375
-0.999555, 119, 145, 134, 272
-0.999556, 449, 193, 464, 320
-0.999558, 429, 1, 460, 256
-0.999563, 167, 17, 182, 144
-0.999568, 103, 359, 118, 374
-0.999569, 383, 257, 398, 272
-0.999569, 1, 17, 16, 32
-0.99957, 111, 179, 126, 194
-0.999571, 195, 41, 210, 56
-0.999571, 109, 119, 124, 134
-0.999571, 377, 151, 392, 166
-0.999572, 121, 109, 136, 124
-0.999572, 135, 107, 150, 122
-0.999576, 1, 53, 16, 68
-0.999576, 61, 275, 76, 290
-0.999576, 345, 213, 360, 228
-0.999577, 415, 257, 430, 272
-0.999577, 143, 49, 158, 176
-0.999577, 377, 243, 392, 258
-0.999578, 65, 65, 80, 192
-0.999578, 47, 61, 62, 76
-0.999579, 45, 283, 60, 298
-0.999579, 365, 247, 380, 262
-0.999579, 27, 65, 42, 192
-0.999579, 333, 129, 364, 375
-0.999579, 485, 91, 500, 106
-0.99958, 457, 221, 472, 236
-0.99958, 107, 173, 122, 188
-0.99958, 129, 89, 144, 104
-0.999581, 51, 279, 66, 294
-0.999581, 205, 15, 220, 30
-0.999581, 435, 233, 450, 248
-0.999582, 149, 53, 164, 68
-0.999582, 399, 233, 414, 248
-0.999582, 35, 55, 50, 70
-0.999583, 387, 161, 402, 176
-0.999583, 141, 225, 156, 352
-0.999584, 145, 65, 160, 80
-0.999584, 369, 33, 400, 288
-0.999584, 189, 45, 204, 60
-0.999585, 183, 37, 198, 52
-0.999585, 147, 225, 162, 352
-0.999585, 181, 241, 196, 368
-0.999585, 403, 85, 418, 100
-0.999586, 403, 111, 418, 126
-0.999586, 445, 217, 460, 232
-0.999586, 199, 71, 214, 86
-0.999586, 419, 91, 434, 106
-0.999588, 279, 275, 294, 290
-0.999588, 417, 263, 432, 278
-0.999589, 433, 223, 448, 238
-0.999589, 447, 105, 462, 120
-0.999591, 483, 65, 498, 192
-0.999591, 55, 129, 70, 256
-0.999591, 405, 247, 420, 262
-0.999593, 33, 43, 48, 58
-0.999594, 377, 157, 392, 172
-0.999595, 171, 45, 186, 60
-0.999595, 399, 241, 414, 256
-0.999596, 225, 17, 256, 144
-0.999596, 309, 129, 340, 256
-0.999597, 55, 67, 70, 82
-0.999598, 133, 113, 148, 128
-0.9996, 193, 17, 208, 144
-0.9996, 123, 91, 138, 106
-0.999602, 373, 289, 388, 304
-0.999602, 461, 145, 476, 272
-0.999604, 43, 241, 58, 368
-0.999604, 417, 235, 432, 250
-0.999605, 455, 207, 470, 222
-0.999605, 285, 209, 300, 336
-0.999606, 189, 61, 204, 76
-0.999607, 109, 241, 124, 368
-0.999607, 417, 247, 432, 262
-0.999608, 289, 1, 320, 256
-0.999608, 449, 81, 464, 208
-0.999609, 217, 1, 232, 128
-0.999609, 175, 23, 190, 38
-0.99961, 373, 283, 388, 298
-0.999611, 67, 321, 82, 336
-0.999611, 407, 267, 422, 282
-0.999612, 51, 33, 66, 160
-0.999613, 117, 165, 132, 180
-0.999613, 375, 213, 390, 228
-0.999614, 407, 97, 422, 112
-0.999614, 375, 259, 390, 274
-0.999614, 419, 101, 434, 116
-0.999615, 429, 241, 444, 368
-0.99962, 127, 117, 142, 132
-0.999621, 257, 255, 272, 270
-0.999621, 199, 7, 214, 22
-0.999621, 397, 87, 412, 102
-0.999622, 41, 97, 56, 224
-0.999624, 253, 1, 268, 128
-0.999624, 109, 167, 124, 182
-0.999624, 389, 1, 404, 128
-0.999624, 407, 103, 422, 118
-0.999625, 431, 265, 446, 280
-0.999627, 373, 161, 388, 288
-0.999628, 5, 91, 20, 106
-0.999629, 115, 119, 130, 134
-0.99963, 351, 207, 366, 222
-0.99963, 129, 241, 144, 368
-0.999631, 351, 161, 366, 288
-0.999632, 379, 279, 394, 294
-0.999633, 171, 209, 186, 336
-0.999633, 369, 145, 384, 160
-0.999633, 451, 221, 466, 236
-0.999634, 461, 215, 476, 230
-0.999635, 417, 229, 432, 244
-0.999635, 369, 207, 384, 222
-0.999636, 357, 209, 372, 336
-0.999637, 411, 249, 426, 264
-0.999637, 257, 129, 288, 375
-0.999638, 409, 113, 424, 128
-0.999638, 147, 59, 162, 74
-0.999639, 171, 31, 186, 46
-0.999639, 61, 315, 76, 330
-0.99964, 411, 197, 426, 212
-0.99964, 19, 49, 34, 176
-0.99964, 109, 111, 124, 126
-0.999641, 439, 221, 454, 236
-0.999641, 71, 259, 86, 274
-0.999641, 437, 105, 452, 120
-0.999643, 427, 225, 442, 240
-0.999644, 171, 39, 186, 54
-0.999644, 141, 177, 156, 304
-0.999644, 409, 239, 424, 254
-0.999645, 403, 91, 418, 106
-0.999645, 293, 1, 308, 128
-0.999645, 455, 215, 470, 230
-0.999646, 113, 173, 128, 188
-0.999646, 409, 1, 440, 256
-0.999647, 47, 113, 62, 240
-0.999648, 431, 203, 446, 218
-0.999648, 127, 215, 142, 230
-0.999651, 101, 173, 116, 188
-0.999652, 35, 1, 50, 128
-0.999653, 229, 161, 244, 288
-0.999654, 161, 161, 416, 224
-0.999654, 373, 253, 388, 268
-0.999654, 345, 207, 360, 222
-0.999655, 417, 197, 432, 212
-0.999655, 423, 233, 438, 248
-0.999656, 361, 141, 376, 156
-0.999656, 251, 225, 266, 352
-0.999657, 189, 39, 204, 54
-0.999657, 73, 161, 88, 288
-0.999658, 425, 201, 440, 216
-0.999658, 481, 177, 496, 304
-0.999659, 241, 225, 256, 352
-0.999659, 485, 113, 500, 240
-0.999659, 475, 161, 490, 288
-0.999661, 485, 97, 500, 112
-0.999662, 53, 1, 84, 256
-0.999663, 33, 49, 48, 64
-0.999665, 383, 251, 398, 266
-0.999666, 133, 219, 148, 234
-0.999667, 115, 113, 130, 128
-0.999668, 277, 129, 308, 375
-0.999669, 101, 65, 116, 192
-0.999672, 271, 225, 286, 352
-0.999672, 371, 151, 386, 166
-0.999672, 363, 177, 378, 304
-0.999673, 211, 17, 226, 144
-0.999676, 247, 161, 262, 288
-0.999677, 425, 267, 440, 282
-0.999678, 429, 231, 444, 246
-0.999678, 413, 93, 428, 108
-0.999679, 465, 79, 480, 94
-0.999684, 413, 269, 428, 284
-0.999685, 27, 41, 42, 56
-0.999686, 55, 57, 70, 72
-0.999686, 97, 113, 352, 176
-0.999687, 119, 173, 134, 188
-0.999687, 419, 107, 434, 122
-0.999689, 1, 23, 16, 38
-0.999689, 445, 225, 460, 240
-0.99969, 17, 29, 32, 44
-0.999691, 189, 225, 204, 352
-0.999698, 319, 241, 334, 368
-0.999698, 187, 49, 202, 176
-0.999699, 109, 97, 124, 224
-0.999699, 223, 1, 238, 128
-0.9997, 439, 33, 454, 160
-0.999702, 11, 25, 26, 40
-0.999702, 465, 241, 480, 368
-0.999703, 341, 161, 356, 288
-0.999704, 279, 177, 294, 304
-0.999706, 13, 33, 28, 160
-0.999707, 67, 113, 82, 240
-0.999707, 401, 17, 416, 144
-0.999709, 225, 225, 240, 352
-0.999711, 379, 129, 394, 256
-0.999711, 439, 227, 454, 242
-0.999711, 37, 225, 52, 352
-0.999711, 23, 35, 38, 50
-0.999714, 357, 161, 372, 288
-0.999714, 407, 17, 422, 144
-0.999715, 285, 1, 300, 128
-0.999717, 129, 177, 144, 304
-0.999719, 223, 177, 238, 304
-0.999719, 137, 65, 152, 192
-0.99972, 161, 225, 176, 352
-0.999721, 233, 225, 248, 352
-0.999721, 195, 65, 210, 80
-0.999722, 145, 1, 160, 128
-0.999724, 261, 193, 276, 320
-0.999727, 277, 1, 308, 256
-0.999736, 419, 269, 434, 284
-0.999738, 121, 115, 136, 130
-0.99975, 125, 129, 156, 256
-0.99975, 465, 33, 496, 288
-0.999758, 413, 103, 428, 118
-0.999762, 121, 33, 152, 288
-0.999763, 127, 111, 142, 126
-0.99977, 97, 89, 352, 152
-0.999805, 237, 129, 268, 375
-0.999816, 329, 225, 360, 352
-0.999827, 41, 1, 72, 256
-0.999834, 349, 129, 380, 375
-0.999844, 121, 1, 184, 256
-0.999869, 329, 33, 360, 288
-0.999908, 201, 1, 232, 256
-0.999915, 201, 49, 232, 176
-0.999918, 1, 41, 500, 104
-0.999942, 181, 177, 212, 304
-0.999961, 165, 1, 196, 256
-0.999978, 293, 129, 324, 375
-0.999991, 373, 65, 404, 192
-1.00003, 345, 49, 376, 176
-1.0001, 169, 129, 200, 375
-1.00012, 133, 97, 164, 352
-1.00013, 265, 33, 296, 288
-1.00014, 73, 33, 136, 160
-1.00019, 441, 1, 472, 256
-1.00021, 101, 33, 132, 288
-1.00022, 305, 1, 336, 256
-1.00022, 221, 129, 252, 375
-1.00024, 457, 129, 488, 375
-1.00026, 189, 129, 220, 375
-1.00028, 141, 1, 172, 256
-1.00031, 225, 1, 256, 256
-1.00032, 209, 129, 240, 375
-1.00039, 57, 1, 88, 128
-1.00039, 269, 129, 300, 256
-1.00041, 65, 33, 96, 288
-1.00041, 201, 177, 232, 304
-1.00042, 321, 129, 352, 375
-1.00043, 213, 1, 244, 256
-1.00046, 149, 129, 180, 375
-1.00049, 93, 129, 124, 375
-1.00057, 77, 129, 108, 375
-1.00058, 429, 17, 460, 144
-1.0007, 317, 49, 348, 176
-1.00078, 77, 177, 108, 304
-1.00083, 77, 33, 108, 288
-1.00084, 273, 97, 400, 160
-1.00088, 357, 49, 388, 176
-1.00091, 157, 49, 188, 176
-1.00091, 65, 113, 96, 240
-1.001, 373, 1, 404, 128
-1.00106, 153, 1, 184, 256
-1.00118, 261, 49, 292, 176
-1.00126, 337, 113, 368, 240
-1.00127, 105, 33, 136, 160
-1.00134, 89, 33, 120, 288
-1.00134, 73, 33, 136, 288
-1.00138, 193, 129, 256, 256
-1.00159, 249, 49, 280, 176
-1.00162, 357, 97, 388, 224
-1.00168, 257, 145, 288, 272
-1.0017, 333, 49, 364, 176
-1.00213, 217, 113, 280, 240
-1.00219, 245, 129, 276, 256
-1.00497, 97, 1, 160, 256
-1.00567, 161, 113, 224, 240
-1.00683, 281, 97, 344, 224
