1874
-0.306776, 1, 33, 500, 288
-0.320769, 33, 1, 288, 334
-0.33464, 1, 1, 500, 334
-0.420162, 129, 1, 384, 334
-0.493044, 33, 1, 288, 256
-0.543941, 225, 1, 480, 334
-0.649235, 193, 33, 448, 288
-0.833274, 33, 33, 160, 288
-0.842604, 113, 1, 240, 256
-0.847744, 1, 1, 128, 334
-0.849471, 65, 1, 192, 334
-0.859477, 177, 1, 304, 334
-0.86177, 193, 33, 320, 288
-0.866596, 113, 1, 240, 334
-0.875095, 257, 1, 384, 334
-0.877919, 273, 1, 400, 256
-0.879747, 1, 145, 500, 272
-0.882459, 1, 1, 500, 128
-0.885098, 1, 65, 500, 192
-0.896167, 33, 145, 288, 272
-0.899608, 321, 1, 448, 256
-0.90234, 321, 1, 448, 334
-0.902588, 161, 1, 416, 128
-0.904152, 369, 1, 496, 334
-0.906847, 33, 65, 288, 192
-0.909324, 33, 1, 288, 128
-0.911125, 1, 193, 500, 320
-0.918303, 257, 17, 500, 144
-0.920324, 241, 1, 304, 128
-0.921565, 257, 1, 384, 128
-0.921591, 1, 1, 64, 128
-0.921929, 9, 65, 72, 192
-0.922318, 129, 81, 384, 208
-0.924496, 369, 1, 496, 256
-0.9254, 193, 1, 320, 128
-0.925787, 1, 193, 256, 320
-0.927479, 1, 81, 128, 208
-0.929107, 65, 65, 192, 192
-0.932447, 33, 145, 160, 272
-0.932876, 193, 65, 320, 192
-0.933705, 89, 65, 152, 192
-0.934519, 289, 1, 352, 128
-0.935163, 49, 81, 112, 208
-0.935221, 321, 1, 384, 128
-0.936001, 1, 1, 128, 128
-0.936761, 49, 145, 112, 272
-0.937143, 249, 49, 312, 176
-0.93772, 145, 17, 272, 144
-0.937962, 241, 49, 368, 176
-0.938098, 81, 1, 208, 128
-0.939203, 241, 97, 304, 224
-0.93959, 89, 17, 152, 144
-0.939771, 257, 65, 500, 192
-0.940828, 145, 65, 272, 192
-0.942094, 25, 57, 88, 120
-0.94228, 225, 49, 288, 176
-0.942876, 129, 193, 384, 320
-0.943638, 209, 1, 272, 128
-0.944076, 25, 17, 88, 144
-0.944456, 113, 65, 176, 192
-0.944592, 113, 1, 176, 128
-0.944986, 57, 33, 120, 160
-0.94602, 129, 129, 384, 256
-0.946115, 265, 1, 328, 128
-0.947028, 33, 193, 160, 320
-0.949404, 305, 1, 432, 128
-0.949915, 217, 97, 280, 224
-0.950011, 137, 97, 200, 224
-0.950125, 81, 57, 144, 120
-0.951023, 129, 65, 192, 128
-0.951131, 65, 1, 128, 64
-0.951162, 33, 1, 96, 64
-0.951303, 225, 193, 480, 320
-0.95133, 81, 129, 208, 256
-0.951341, 49, 57, 112, 120
-0.951464, 89, 129, 152, 256
-0.951825, 241, 49, 304, 112
-0.951931, 9, 145, 72, 272
-0.952245, 129, 129, 256, 256
-0.952979, 177, 113, 304, 240
-0.953106, 225, 193, 288, 320
-0.953165, 241, 73, 304, 136
-0.953654, 273, 65, 336, 192
-0.953666, 17, 81, 80, 144
-0.95417, 329, 1, 392, 64
-0.95463, 49, 193, 112, 320
-0.954872, 49, 81, 112, 144
-0.955137, 41, 25, 104, 88
-0.955406, 1, 57, 64, 120
-0.956293, 337, 49, 400, 176
-0.9563, 105, 65, 168, 128
-0.956526, 257, 1, 320, 64
-0.957079, 137, 17, 200, 144
-0.95731, 361, 1, 424, 128
-0.957394, 241, 25, 304, 88
-0.95741, 201, 49, 264, 176
-0.957739, 241, 97, 368, 224
-0.958128, 49, 153, 112, 216
-0.958168, 81, 193, 208, 320
-0.95827, 281, 1, 344, 64
-0.958351, 177, 209, 304, 334
-0.958693, 217, 1, 280, 64
-0.958931, 225, 105, 288, 168
-0.959185, 201, 65, 264, 128
-0.959661, 161, 81, 224, 208
-0.95997, 329, 41, 392, 104
-0.960205, 225, 145, 288, 272
-0.960457, 1, 33, 64, 96
-0.960618, 185, 1, 248, 128
-0.961873, 13, 1, 44, 128
-0.961994, 185, 209, 248, 334
-0.962025, 65, 33, 128, 96
-0.96214, 225, 113, 480, 240
-0.962184, 1, 1, 64, 64
-0.962304, 129, 209, 256, 334
-0.962426, 17, 193, 80, 320
-0.962456, 73, 33, 136, 288
-0.962517, 361, 33, 424, 96
-0.96285, 289, 49, 416, 176
-0.963104, 9, 33, 72, 288
-0.963464, 81, 137, 144, 200
-0.963492, 257, 145, 320, 272
-0.963805, 353, 1, 480, 128
-0.964553, 113, 129, 176, 256
-0.964586, 305, 17, 368, 80
-0.964681, 145, 97, 208, 160
-0.964691, 265, 65, 328, 128
-0.964889, 137, 145, 200, 272
-0.965095, 49, 33, 112, 288
-0.965235, 65, 57, 96, 120
-0.965469, 257, 97, 320, 160
-0.965869, 9, 121, 72, 184
-0.966039, 257, 129, 320, 192
-0.966114, 233, 185, 296, 248
-0.966291, 209, 161, 336, 288
-0.966408, 65, 65, 192, 128
-0.966623, 105, 41, 168, 104
-0.96679, 233, 153, 296, 216
-0.966904, 129, 193, 192, 320
-0.966944, 161, 65, 288, 128
-0.967123, 113, 89, 176, 152
-0.967166, 185, 145, 248, 272
-0.967536, 105, 33, 168, 288
-0.967646, 137, 137, 200, 200
-0.967823, 337, 49, 464, 176
-0.968163, 1, 57, 128, 120
-0.96823, 201, 41, 264, 104
-0.968314, 177, 65, 240, 128
-0.968583, 49, 193, 112, 256
-0.968684, 353, 1, 416, 64
-0.968688, 245, 73, 276, 136
-0.968978, 353, 1, 384, 64
-0.968987, 9, 145, 72, 208
-0.969052, 249, 1, 280, 128
-0.969071, 41, 233, 104, 296
-0.969104, 9, 65, 40, 192
-0.969143, 233, 129, 296, 192
-0.969408, 81, 89, 144, 152
-0.96964, 153, 41, 216, 104
-0.969825, 401, 1, 464, 128
-0.969845, 9, 65, 40, 128
-0.969872, 361, 49, 424, 176
-0.969881, 81, 177, 144, 304
-0.970006, 137, 249, 200, 312
-0.970052, 193, 249, 256, 312
-0.970159, 65, 97, 96, 224
-0.97032, 233, 65, 264, 128
-0.970372, 29, 33, 60, 160
-0.970433, 225, 1, 352, 64
-0.970434, 217, 1, 280, 256
-0.970453, 41, 1, 72, 64
-0.970478, 77, 65, 108, 192
-0.970657, 37, 57, 68, 120
-0.970717, 161, 137, 224, 200
-0.970728, 49, 105, 112, 168
-0.970803, 137, 33, 200, 288
-0.970908, 1, 1, 32, 128
-0.970949, 137, 65, 168, 128
-0.97098, 337, 17, 368, 80
-0.970985, 9, 201, 72, 264
-0.971008, 185, 97, 248, 224
-0.971038, 9, 113, 40, 176
-0.971045, 337, 1, 368, 128
-0.971154, 369, 129, 496, 256
-0.971431, 153, 1, 216, 64
-0.971611, 209, 65, 336, 128
-0.971612, 57, 81, 88, 144
-0.971633, 245, 49, 276, 176
-0.971641, 193, 145, 256, 208
-0.971698, 77, 57, 108, 120
-0.971705, 161, 129, 224, 256
-0.971802, 105, 137, 168, 200
-0.97182, 17, 233, 80, 296
-0.971827, 161, 193, 224, 320
-0.97184, 349, 1, 380, 128
-0.971855, 257, 97, 288, 224
-0.971866, 17, 169, 80, 232
-0.971989, 265, 1, 296, 128
-0.972188, 209, 177, 272, 240
-0.97228, 57, 145, 88, 272
-0.972328, 105, 193, 168, 320
-0.972347, 69, 81, 100, 144
-0.972552, 245, 17, 276, 80
-0.972573, 109, 65, 140, 192
-0.972576, 329, 65, 392, 128
-0.97265, 61, 153, 92, 216
-0.972652, 169, 257, 232, 320
-0.972736, 1, 89, 128, 152
-0.972741, 249, 193, 312, 320
-0.97282, 425, 113, 488, 240
-0.972863, 93, 49, 124, 176
-0.972875, 9, 1, 40, 64
-0.972895, 89, 17, 152, 80
-0.973136, 353, 33, 384, 96
-0.973248, 201, 89, 264, 152
-0.973358, 393, 1, 456, 64
-0.97337, 33, 145, 160, 208
-0.973427, 113, 17, 176, 80
-0.973461, 137, 65, 168, 192
-0.973476, 53, 57, 84, 120
-0.973866, 273, 9, 400, 72
-0.97395, 329, 1, 392, 256
-0.974044, 121, 113, 184, 176
-0.974269, 369, 113, 432, 240
-0.974388, 245, 49, 276, 112
-0.974493, 53, 81, 84, 208
-0.974499, 129, 41, 256, 104
-0.974547, 65, 241, 128, 304
-0.974611, 293, 1, 324, 128
-0.974657, 193, 41, 320, 104
-0.974726, 153, 73, 216, 136
-0.974794, 305, 41, 368, 104
-0.974829, 93, 49, 124, 112
-0.974884, 161, 1, 288, 64
-0.974951, 101, 1, 132, 128
-0.974985, 1, 1, 128, 64
-0.975152, 65, 33, 96, 160
-0.975157, 33, 201, 160, 264
-0.975311, 81, 113, 144, 176
-0.975316, 281, 89, 344, 152
-0.975415, 245, 97, 276, 224
-0.975431, 289, 97, 416, 224
-0.97566, 125, 65, 156, 192
-0.97579, 209, 273, 272, 334
-0.975872, 161, 89, 288, 152
-0.975886, 257, 97, 288, 160
-0.975947, 257, 65, 384, 128
-0.97595, 125, 65, 156, 128
-0.976144, 161, 33, 224, 160
-0.976157, 1, 113, 128, 176
-0.976178, 241, 33, 304, 288
-0.976183, 225, 209, 288, 272
-0.976223, 101, 129, 132, 256
-0.976309, 169, 97, 232, 160
-0.976339, 233, 33, 264, 160
-0.976423, 57, 129, 120, 192
-0.97643, 269, 97, 300, 224
-0.976436, 297, 49, 360, 176
-0.976643, 369, 57, 432, 120
-0.976669, 257, 145, 384, 272
-0.976673, 113, 65, 240, 128
-0.976708, 257, 153, 320, 216
-0.976758, 257, 177, 320, 240
-0.976777, 433, 1, 496, 128
-0.976843, 65, 33, 96, 96
-0.97693, 169, 233, 232, 296
-0.97699, 97, 209, 160, 272
-0.977013, 77, 1, 108, 64
-0.977104, 33, 129, 96, 192
-0.977199, 1, 33, 128, 96
-0.977252, 209, 89, 336, 152
-0.977305, 65, 17, 192, 80
-0.977558, 193, 225, 256, 288
-0.977639, 65, 89, 192, 152
-0.977678, 69, 145, 100, 272
-0.97776, 129, 257, 256, 320
-0.977801, 129, 41, 192, 104
-0.977864, 177, 1, 240, 64
-0.978002, 277, 1, 308, 128
-0.978031, 273, 41, 400, 104
-0.97807, 365, 33, 396, 96
-0.978073, 309, 1, 340, 128
-0.978099, 417, 65, 480, 192
-0.978226, 21, 1, 52, 64
-0.978282, 137, 177, 200, 240
-0.978294, 269, 97, 300, 160
-0.978321, 65, 1, 96, 64
-0.978344, 25, 57, 56, 120
-0.978363, 85, 113, 116, 240
-0.978378, 65, 273, 128, 334
-0.978421, 105, 241, 168, 304
-0.978485, 53, 33, 84, 160
-0.978561, 245, 105, 276, 168
-0.978594, 121, 129, 152, 256
-0.978653, 353, 49, 384, 176
-0.978656, 337, 1, 464, 64
-0.978703, 257, 49, 288, 176
-0.978897, 177, 25, 240, 88
-0.9789, 289, 65, 352, 128
-0.97891, 169, 33, 232, 288
-0.97892, 325, 1, 356, 128
-0.978951, 89, 1, 152, 334
-0.978962, 89, 1, 120, 128
-0.979075, 169, 97, 200, 224
-0.979101, 233, 41, 264, 104
-0.979156, 29, 33, 60, 96
-0.979295, 277, 49, 308, 176
-0.979307, 49, 201, 80, 264
-0.979327, 149, 65, 180, 192
-0.979336, 281, 33, 344, 96
-0.979342, 13, 33, 44, 96
-0.979398, 41, 161, 72, 224
-0.979401, 353, 57, 384, 120
-0.979625, 225, 97, 256, 224
-0.979632, 393, 65, 456, 192
-0.979663, 65, 1, 128, 334
-0.979742, 161, 161, 224, 224
-0.979769, 65, 241, 192, 304
-0.979769, 233, 89, 264, 152
-0.979993, 5, 89, 36, 152
-0.980027, 273, 33, 336, 288
-0.980097, 1, 137, 32, 200
-0.980121, 21, 81, 52, 144
-0.980131, 53, 193, 84, 320
-0.980145, 53, 1, 84, 64
-0.980166, 157, 105, 188, 168
-0.980191, 237, 161, 268, 288
-0.980263, 225, 249, 288, 312
-0.980267, 265, 129, 296, 192
-0.98032, 281, 113, 344, 176
-0.980341, 241, 161, 272, 224
-0.980352, 113, 97, 240, 160
-0.980377, 109, 73, 140, 136
-0.980387, 265, 1, 296, 64
-0.980423, 41, 49, 72, 176
-0.980432, 113, 17, 240, 80
-0.980529, 1, 113, 32, 240
-0.980576, 117, 1, 148, 128
-0.980577, 401, 129, 464, 256
-0.980631, 193, 121, 256, 184
-0.980669, 85, 137, 116, 200
-0.980702, 97, 137, 224, 200
-0.980764, 113, 161, 176, 224
-0.980775, 17, 241, 144, 304
-0.980792, 33, 177, 160, 240
-0.98081, 289, 49, 320, 176
-0.980889, 41, 1, 72, 128
-0.980915, 45, 81, 76, 144
-0.981019, 161, 145, 288, 208
-0.981064, 285, 65, 316, 128
-0.981112, 101, 1, 132, 64
-0.981191, 377, 129, 440, 192
-0.981215, 281, 89, 312, 152
-0.981271, 129, 225, 192, 288
-0.981277, 113, 33, 144, 96
-0.981307, 261, 177, 292, 240
-0.98147, 41, 273, 104, 334
-0.981473, 317, 1, 348, 64
-0.981484, 9, 1, 72, 334
-0.981784, 433, 113, 496, 176
-0.981892, 41, 233, 72, 296
-0.98199, 161, 169, 288, 232
-0.982026, 49, 41, 176, 104
-0.982067, 153, 113, 184, 240
-0.982198, 89, 73, 120, 136
-0.982236, 305, 1, 336, 64
-0.982246, 253, 145, 284, 208
-0.982251, 161, 65, 192, 128
-0.982356, 177, 113, 304, 176
-0.982374, 177, 97, 208, 160
-0.982423, 153, 1, 216, 334
-0.982564, 225, 209, 352, 334
-0.982663, 193, 201, 256, 264
-0.982674, 149, 65, 180, 128
-0.982742, 137, 1, 168, 128
-0.982795, 185, 177, 248, 240
-0.982797, 121, 1, 184, 334
-0.982816, 177, 249, 304, 312
-0.982864, 141, 129, 172, 256
-0.982909, 53, 33, 84, 96
-0.983053, 209, 1, 272, 334
-0.983059, 401, 25, 464, 88
-0.983183, 257, 89, 384, 152
-0.983192, 353, 33, 480, 96
-0.983323, 257, 25, 288, 88
-0.983377, 89, 265, 152, 328
-0.983396, 365, 49, 396, 176
-0.983516, 73, 217, 136, 280
-0.983542, 305, 1, 368, 256
-0.98357, 77, 273, 108, 334
-0.983626, 289, 1, 320, 64
-0.98364, 261, 145, 292, 272
-0.983778, 101, 25, 132, 88
-0.983789, 41, 97, 72, 224
-0.983816, 41, 25, 72, 88
-0.983966, 13, 113, 44, 240
-0.983974, 69, 241, 100, 304
-0.983986, 269, 73, 300, 136
-0.984009, 337, 193, 464, 320
-0.984028, 157, 17, 188, 144
-0.984033, 113, 233, 240, 296
-0.984046, 341, 41, 372, 104
-0.98412, 281, 145, 344, 272
-0.984209, 145, 89, 176, 152
-0.984213, 33, 1, 96, 334
-0.984242, 77, 33, 108, 96
-0.98426, 209, 137, 336, 200
-0.984314, 53, 177, 84, 240
-0.984381, 81, 97, 112, 160
-0.984436, 117, 129, 148, 192
-0.984445, 193, 1, 256, 256
-0.984452, 97, 185, 160, 248
-0.984499, 133, 193, 164, 320
-0.984561, 217, 1, 248, 128
-0.984593, 129, 105, 160, 168
-0.984598, 157, 249, 188, 312
-0.98463, 41, 193, 72, 320
-0.984663, 257, 65, 288, 128
-0.984719, 361, 1, 392, 128
-0.984732, 289, 209, 416, 334
-0.98474, 385, 249, 448, 312
-0.98483, 221, 65, 252, 128
-0.984933, 377, 1, 440, 256
-0.984946, 89, 193, 120, 320
-0.984979, 417, 1, 480, 64
-0.985007, 121, 193, 152, 320
-0.985039, 177, 273, 304, 334
-0.985065, 337, 129, 400, 256
-0.98508, 17, 265, 80, 328
-0.985096, 401, 137, 464, 200
-0.985202, 165, 129, 196, 192
-0.985257, 37, 145, 68, 272
-0.98533, 181, 81, 212, 208
-0.985348, 321, 57, 448, 120
-0.985395, 321, 1, 384, 334
-0.98542, 145, 129, 176, 192
-0.985551, 193, 209, 320, 272
-0.985555, 277, 1, 308, 64
-0.985561, 213, 209, 244, 334
-0.985615, 249, 273, 312, 334
-0.985617, 153, 177, 184, 240
-0.985651, 129, 209, 256, 272
-0.985662, 305, 97, 368, 160
-0.98582, 169, 1, 200, 64
-0.985854, 249, 209, 312, 272
-0.98594, 393, 97, 456, 160
-0.986018, 233, 1, 264, 64
-0.986021, 385, 209, 448, 334
-0.986031, 61, 129, 92, 192
-0.986075, 225, 145, 256, 208
-0.986087, 93, 105, 124, 168
-0.986188, 21, 105, 52, 168
-0.986201, 365, 57, 396, 120
-0.986222, 113, 185, 240, 248
-0.98624, 89, 1, 120, 64
-0.986297, 229, 249, 260, 312
-0.986334, 13, 137, 44, 200
-0.986346, 81, 265, 208, 328
-0.98642, 213, 129, 244, 256
-0.986452, 433, 1, 496, 256
-0.986468, 145, 273, 208, 334
-0.986504, 65, 113, 192, 176
-0.986505, 73, 193, 136, 256
-0.986516, 85, 233, 116, 296
-0.986561, 161, 185, 224, 248
-0.986589, 97, 137, 128, 200
-0.986673, 1, 41, 32, 104
-0.986694, 265, 153, 296, 216
-0.986699, 209, 65, 240, 128
-0.9867, 65, 105, 96, 168
-0.986713, 205, 1, 236, 128
-0.986736, 137, 41, 168, 104
-0.986966, 105, 113, 136, 176
-0.987082, 29, 233, 60, 296
-0.98714, 105, 177, 136, 304
-0.987197, 161, 209, 224, 272
-0.987219, 257, 129, 384, 192
-0.987226, 137, 201, 200, 264
-0.987254, 217, 1, 248, 64
-0.987272, 361, 97, 424, 160
-0.987331, 133, 137, 164, 200
-0.987362, 281, 113, 312, 176
-0.987364, 153, 177, 184, 304
-0.987425, 433, 1, 496, 334
-0.987451, 297, 65, 328, 128
-0.987463, 281, 97, 312, 224
-0.987494, 237, 185, 268, 248
-0.987566, 17, 273, 144, 334
-0.987613, 409, 249, 472, 312
-0.987687, 197, 265, 228, 328
-0.987745, 97, 241, 128, 304
-0.987747, 225, 193, 256, 320
-0.987772, 241, 1, 304, 334
-0.987786, 377, 153, 440, 216
-0.987823, 97, 161, 224, 224
-0.987906, 57, 233, 88, 296
-0.987946, 297, 97, 360, 224
-0.987955, 165, 177, 196, 240
-0.987967, 97, 65, 352, 128
-0.987967, 73, 153, 104, 216
-0.987987, 37, 121, 68, 184
-0.988008, 33, 209, 64, 272
-0.988076, 433, 209, 496, 334
-0.988082, 25, 161, 56, 288
-0.98812, 353, 1, 416, 256
-0.988131, 49, 85, 112, 116
-0.988161, 77, 193, 108, 320
-0.988188, 209, 185, 336, 248
-0.988198, 345, 209, 408, 334
-0.988285, 89, 25, 120, 88
-0.988287, 213, 65, 244, 192
-0.988342, 241, 85, 304, 116
-0.988403, 209, 25, 240, 88
-0.988513, 25, 65, 88, 96
-0.988519, 77, 17, 108, 144
-0.988522, 213, 249, 244, 312
-0.988614, 337, 97, 400, 160
-0.988626, 141, 241, 172, 304
-0.988633, 177, 1, 208, 128
-0.988688, 65, 273, 96, 334
-0.988748, 157, 1, 188, 64
-0.988754, 409, 1, 440, 64
-0.988758, 365, 1, 396, 64
-0.988781, 353, 249, 416, 312
-0.988828, 337, 129, 400, 192
-0.988848, 73, 25, 136, 56
-0.988868, 225, 161, 352, 224
-0.98888, 241, 1, 304, 32
-0.988994, 109, 201, 140, 264
-0.989, 25, 93, 88, 124
-0.989046, 169, 49, 200, 176
-0.989056, 265, 1, 328, 334
-0.989092, 241, 53, 304, 84
-0.989097, 185, 1, 248, 334
-0.989106, 17, 81, 80, 112
-0.989123, 113, 73, 176, 104
-0.989169, 197, 25, 228, 88
-0.989192, 353, 129, 480, 192
-0.989202, 409, 161, 472, 224
-0.989239, 385, 273, 448, 334
-0.989253, 241, 73, 304, 104
-0.989272, 337, 97, 464, 160
-0.989322, 153, 153, 184, 216
-0.989322, 89, 193, 120, 256
-0.989324, 117, 241, 148, 304
-0.989349, 189, 1, 220, 64
-0.98935, 353, 41, 416, 72
-0.989351, 49, 1, 112, 32
-0.989371, 89, 77, 152, 108
-0.989394, 209, 69, 272, 100
-0.989398, 329, 41, 392, 72
-0.989427, 81, 209, 208, 272
-0.989467, 169, 193, 200, 320
-0.98948, 177, 137, 208, 200
-0.989534, 329, 57, 392, 88
-0.989547, 81, 137, 144, 168
-0.989568, 149, 41, 180, 104
-0.989571, 73, 65, 136, 96
-0.989577, 121, 89, 184, 120
-0.989597, 33, 41, 288, 104
-0.989602, 181, 129, 212, 256
-0.98962, 49, 157, 112, 188
-0.989658, 409, 1, 472, 256
-0.989688, 217, 89, 280, 120
-0.989711, 329, 1, 392, 32
-0.989733, 1, 137, 256, 200
-0.989754, 289, 9, 352, 40
-0.989771, 425, 25, 488, 88
-0.989841, 361, 1, 424, 334
-0.989886, 25, 21, 88, 52
-0.989902, 241, 41, 304, 72
-0.989906, 5, 193, 36, 320
-0.98999, 81, 93, 144, 124
-0.989999, 1, 69, 64, 100
-0.990017, 193, 81, 224, 208
-0.990043, 161, 1, 416, 64
-0.990044, 57, 97, 120, 128
-0.990053, 353, 1, 416, 32
-0.990088, 25, 5, 88, 36
-0.990089, 257, 209, 288, 334
-0.990093, 25, 81, 56, 208
-0.990143, 113, 17, 176, 48
-0.990172, 265, 93, 328, 124
-0.990176, 385, 1, 448, 334
-0.990184, 217, 1, 280, 32
-0.990192, 1, 65, 256, 128
-0.990217, 225, 145, 256, 272
-0.990217, 329, 29, 392, 60
-0.990239, 257, 133, 320, 164
-0.990277, 249, 13, 312, 44
-0.990286, 353, 53, 416, 84
-0.990308, 1, 5, 64, 36
-0.990369, 49, 65, 112, 96
-0.990442, 457, 33, 488, 160
-0.990448, 313, 13, 376, 44
-0.990448, 181, 209, 212, 334
-0.990451, 73, 13, 136, 44
-0.990452, 33, 9, 288, 72
-0.990464, 1, 45, 64, 76
-0.990496, 417, 89, 480, 152
-0.990527, 233, 137, 296, 168
-0.990539, 241, 97, 304, 128
-0.990546, 217, 17, 280, 48
-0.990548, 241, 149, 304, 180
-0.990586, 281, 77, 344, 108
-0.990603, 225, 185, 288, 216
-0.990612, 129, 181, 192, 212
-0.990621, 89, 53, 152, 84
-0.990629, 137, 73, 200, 104
-0.990642, 113, 265, 176, 328
-0.990675, 9, 145, 72, 176
-0.990683, 41, 261, 104, 292
-0.990689, 1, 177, 256, 240
-0.990716, 33, 89, 288, 152
-0.990741, 281, 137, 344, 200
-0.990745, 369, 153, 496, 216
-0.990772, 177, 85, 240, 116
-0.990773, 41, 209, 104, 240
-0.990776, 153, 89, 216, 120
-0.99078, 73, 1, 136, 32
-0.99079, 153, 273, 216, 304
-0.990799, 413, 145, 444, 272
-0.990809, 393, 49, 456, 112
-0.990841, 165, 145, 196, 272
-0.990856, 249, 145, 280, 272
-0.990871, 409, 1, 472, 334
-0.990874, 9, 205, 72, 236
-0.990947, 65, 53, 128, 84
-0.990953, 49, 197, 112, 228
-0.990962, 409, 193, 472, 320
-0.990968, 281, 65, 344, 96
-0.990972, 209, 57, 272, 88
-0.990979, 201, 153, 264, 184
-0.991, 41, 245, 104, 276
-0.991004, 1, 57, 64, 88
-0.991006, 265, 1, 328, 32
-0.991008, 17, 169, 80, 200
-0.991028, 393, 1, 456, 32
-0.991033, 209, 281, 272, 312
-0.991046, 105, 137, 168, 168
-0.991052, 113, 29, 176, 60
-0.991054, 41, 33, 104, 64
-0.991075, 105, 41, 168, 72
-0.99108, 217, 101, 280, 132
-0.991085, 305, 37, 368, 68
-0.991097, 217, 29, 280, 60
-0.991103, 257, 29, 320, 60
-0.99111, 369, 29, 432, 60
-0.991119, 241, 165, 304, 196
-0.991148, 41, 229, 104, 260
-0.991161, 113, 61, 176, 92
-0.991162, 201, 129, 232, 256
-0.991164, 1, 97, 64, 128
-0.99118, 201, 45, 264, 76
-0.991196, 81, 149, 144, 180
-0.991213, 177, 269, 240, 300
-0.99122, 33, 141, 96, 172
-0.991236, 225, 197, 288, 228
-0.991261, 129, 137, 192, 168
-0.991267, 1, 157, 64, 188
-0.991273, 257, 273, 384, 334
-0.991289, 57, 273, 120, 304
-0.991303, 413, 65, 444, 192
-0.991312, 161, 141, 224, 172
-0.991322, 185, 285, 248, 316
-0.991329, 161, 173, 224, 204
-0.99134, 73, 249, 136, 280
-0.991349, 145, 105, 208, 136
-0.991356, 137, 193, 200, 224
-0.991387, 9, 193, 72, 224
-0.991395, 129, 249, 192, 280
-0.991398, 169, 53, 232, 84
-0.991401, 49, 21, 112, 52
-0.991402, 169, 257, 232, 288
-0.991407, 249, 189, 312, 220
-0.991427, 145, 9, 208, 40
-0.99144, 353, 249, 480, 312
-0.99144, 393, 13, 456, 44
-0.991483, 49, 181, 112, 212
-0.991489, 57, 145, 120, 176
-0.991494, 265, 105, 328, 136
-0.991499, 329, 69, 392, 100
-0.991526, 97, 1, 160, 32
-0.99156, 65, 37, 128, 68
-0.991569, 193, 5, 256, 36
-0.991575, 25, 181, 88, 212
-0.991588, 401, 133, 464, 164
-0.991589, 353, 65, 416, 96
-0.991593, 177, 29, 240, 60
-0.991598, 337, 13, 400, 44
-0.991602, 33, 53, 96, 84
-0.991607, 137, 29, 200, 60
-0.991615, 1, 73, 500, 136
-0.991629, 137, 261, 200, 292
-0.99163, 337, 49, 368, 176
-0.991645, 225, 209, 288, 240
-0.991652, 9, 241, 72, 272
-0.991669, 209, 301, 272, 332
-0.991677, 33, 225, 288, 288
-0.991691, 1, 17, 64, 48
-0.991692, 17, 265, 80, 296
-0.991712, 193, 233, 256, 264
-0.991726, 65, 261, 128, 292
-0.991757, 25, 105, 88, 136
-0.991765, 25, 157, 88, 188
-0.991768, 193, 57, 448, 120
-0.991795, 121, 101, 184, 132
-0.991807, 29, 209, 60, 334
-0.991813, 301, 65, 332, 192
-0.991843, 225, 249, 352, 312
-0.991918, 57, 81, 88, 112
-0.991954, 373, 1, 404, 128
-0.99209, 245, 85, 276, 116
-0.992092, 81, 57, 96, 120
-0.992107, 129, 89, 384, 152
-0.992107, 353, 45, 384, 76
-0.992136, 429, 81, 460, 208
-0.992164, 193, 17, 224, 144
-0.992175, 1, 201, 256, 264
-0.992215, 57, 157, 88, 188
-0.992228, 273, 145, 304, 272
-0.992238, 305, 121, 432, 184
-0.992245, 409, 1, 440, 128
-0.992249, 249, 1, 280, 32
-0.992285, 41, 5, 72, 36
-0.992294, 13, 73, 44, 104
-0.992334, 13, 5, 44, 36
-0.992392, 249, 65, 264, 128
-0.992446, 353, 1, 384, 32
-0.992458, 333, 17, 364, 48
-0.992489, 77, 85, 108, 116
-0.992494, 233, 89, 264, 120
-0.992508, 245, 49, 276, 80
-0.992524, 137, 69, 168, 100
-0.992529, 101, 25, 132, 56
-0.992529, 1, 141, 32, 172
-0.992529, 33, 61, 64, 92
-0.992541, 233, 73, 264, 104
-0.992542, 97, 57, 128, 88
-0.992557, 333, 1, 364, 32
-0.992566, 317, 9, 348, 40
-0.992571, 121, 73, 152, 104
-0.992572, 365, 33, 380, 96
-0.992595, 81, 1, 112, 32
-0.992616, 73, 61, 104, 92
-0.992623, 101, 1, 132, 32
-0.992626, 41, 173, 72, 204
-0.992636, 353, 57, 384, 88
-0.992646, 1, 89, 128, 120
-0.992664, 341, 49, 372, 80
-0.992664, 365, 57, 396, 88
-0.992682, 345, 13, 376, 44
-0.992687, 5, 97, 36, 128
-0.992687, 69, 101, 100, 132
-0.992692, 257, 1, 500, 64
-0.992692, 241, 209, 368, 272
-0.992692, 69, 1, 100, 32
-0.992693, 289, 61, 320, 92
-0.992693, 269, 133, 300, 164
-0.992701, 137, 89, 168, 120
-0.992703, 57, 65, 88, 96
-0.992703, 177, 85, 304, 116
-0.992708, 85, 65, 116, 96
-0.992715, 245, 73, 276, 104
-0.992743, 257, 13, 288, 44
-0.992744, 93, 137, 124, 168
-0.992745, 57, 101, 88, 132
-0.992745, 13, 141, 44, 172
-0.992752, 1, 65, 32, 96
-0.992757, 29, 49, 60, 80
-0.992757, 157, 181, 188, 212
-0.992758, 397, 65, 428, 192
-0.992767, 245, 165, 276, 196
-0.992774, 101, 13, 132, 44
-0.992781, 245, 21, 276, 52
-0.992784, 17, 57, 48, 88
-0.992786, 365, 45, 396, 76
-0.992787, 29, 5, 60, 36
-0.992788, 237, 1, 268, 32
-0.99279, 21, 17, 52, 48
-0.992795, 161, 25, 416, 88
-0.992797, 241, 181, 272, 212
-0.992799, 73, 273, 104, 304
-0.992799, 237, 61, 268, 92
-0.992801, 257, 101, 288, 132
-0.992803, 425, 1, 456, 128
-0.992804, 269, 89, 300, 120
-0.992816, 353, 33, 384, 64
-0.99282, 117, 137, 148, 168
-0.99282, 237, 153, 268, 184
-0.992823, 61, 21, 92, 52
-0.992825, 469, 49, 500, 176
-0.992826, 65, 261, 96, 292
-0.992841, 89, 93, 120, 124
-0.992844, 257, 37, 288, 68
-0.99285, 59, 57, 74, 120
-0.992855, 105, 77, 136, 108
-0.992857, 261, 189, 292, 220
-0.992862, 33, 249, 288, 312
-0.992863, 177, 89, 208, 120
-0.992864, 81, 253, 112, 284
-0.992865, 281, 93, 312, 124
-0.992866, 57, 1, 88, 32
-0.992869, 289, 77, 320, 108
-0.99288, 245, 97, 276, 128
-0.992902, 101, 41, 132, 72
-0.992908, 329, 33, 360, 64
-0.992909, 81, 17, 112, 48
-0.992911, 157, 89, 188, 120
-0.992915, 97, 129, 352, 192
-0.992918, 89, 265, 120, 296
-0.99292, 113, 37, 144, 68
-0.992925, 261, 1, 292, 32
-0.992929, 137, 141, 168, 172
-0.992933, 69, 245, 100, 276
-0.992936, 1, 77, 32, 108
-0.992938, 45, 61, 76, 92
-0.992942, 273, 1, 304, 32
-0.992944, 157, 253, 188, 284
-0.992944, 81, 145, 112, 176
-0.992949, 249, 153, 280, 184
-0.99295, 105, 137, 136, 168
-0.992953, 45, 93, 76, 124
-0.992955, 121, 17, 152, 48
-0.992962, 45, 161, 76, 192
-0.992965, 193, 69, 320, 100
-0.992967, 125, 89, 156, 120
-0.992968, 29, 29, 60, 60
-0.992972, 69, 153, 100, 184
-0.992979, 241, 9, 368, 40
-0.992981, 261, 149, 292, 180
-0.992988, 269, 13, 300, 44
-0.992991, 1, 9, 32, 40
-0.992991, 233, 49, 264, 80
-0.992993, 81, 29, 112, 60
-0.992995, 49, 213, 80, 244
-0.992996, 81, 241, 112, 272
-0.992999, 13, 45, 44, 76
-0.993002, 1, 1, 500, 64
-0.993011, 41, 25, 72, 56
-0.993012, 169, 137, 200, 168
-0.993014, 225, 149, 256, 180
-0.993021, 253, 137, 284, 168
-0.993035, 169, 181, 200, 212
-0.993045, 245, 33, 276, 64
-0.993045, 13, 85, 44, 116
-0.993046, 305, 1, 336, 32
-0.993046, 89, 45, 120, 76
-0.993049, 357, 69, 388, 100
-0.993051, 249, 301, 280, 332
-0.993053, 257, 85, 288, 116
-0.993054, 53, 201, 84, 232
-0.993055, 67, 57, 82, 120
-0.993057, 17, 101, 48, 132
-0.993058, 365, 1, 396, 32
-0.993059, 57, 245, 88, 276
-0.993059, 149, 73, 180, 104
-0.993061, 1, 205, 32, 236
-0.993061, 321, 145, 448, 272
-0.993073, 113, 61, 144, 92
-0.993081, 257, 89, 500, 152
-0.993088, 293, 89, 324, 120
-0.993092, 289, 1, 320, 32
-0.993102, 49, 225, 80, 256
-0.993104, 1, 153, 32, 184
-0.993108, 181, 269, 212, 300
-0.993113, 5, 109, 36, 140
-0.99312, 233, 105, 264, 136
-0.993171, 1, 49, 500, 112
-0.99322, 73, 57, 88, 120
-0.99322, 65, 85, 192, 116
-0.993224, 359, 1, 374, 64
-0.993436, 1, 137, 500, 200
-0.99349, 297, 1, 360, 334
-0.993508, 369, 65, 496, 128
-0.993508, 385, 81, 416, 208
-0.993516, 281, 209, 344, 334
-0.993518, 63, 153, 78, 216
-0.993534, 15, 65, 30, 128
-0.993594, 71, 1, 86, 64
-0.993594, 87, 65, 102, 128
-0.9936, 1, 177, 500, 240
-0.99369, 1, 101, 128, 132
-0.993723, 145, 69, 272, 100
-0.993724, 201, 209, 232, 334
-0.993762, 225, 85, 352, 116
-0.993773, 445, 33, 476, 160
-0.993791, 257, 17, 272, 80
-0.993798, 273, 153, 400, 216
-0.993809, 369, 177, 496, 240
-0.993831, 251, 41, 266, 104
-0.993835, 35, 1, 50, 64
-0.993868, 305, 257, 432, 320
-0.993903, 1, 5, 128, 36
-0.993929, 81, 73, 208, 104
-0.993952, 59, 81, 74, 144
-0.993959, 1, 137, 16, 200
-0.993963, 257, 33, 500, 96
-0.993991, 255, 73, 270, 136
-0.994015, 69, 81, 84, 144
-0.994028, 81, 81, 96, 144
-0.994048, 377, 161, 440, 288
-0.994058, 129, 153, 384, 216
-0.994069, 305, 1, 432, 32
-0.994104, 1, 97, 500, 160
-0.994108, 17, 113, 32, 176
-0.994122, 341, 17, 356, 80
-0.994128, 353, 1, 368, 64
-0.994148, 35, 33, 50, 96
-0.994151, 93, 65, 108, 128
-0.994153, 43, 1, 58, 64
-0.994156, 1, 65, 128, 96
-0.994198, 129, 89, 256, 120
-0.994223, 81, 137, 208, 168
-0.99424, 347, 9, 362, 72
-0.99426, 7, 105, 22, 168
-0.994266, 241, 69, 368, 100
-0.994287, 369, 273, 496, 334
-0.994288, 1, 201, 500, 264
-0.994294, 25, 1, 40, 64
-0.994307, 75, 81, 90, 144
-0.994313, 273, 193, 304, 320
-0.994335, 469, 1, 500, 128
-0.99435, 5, 73, 20, 136
-0.99439, 245, 209, 276, 334
-0.994393, 65, 1, 80, 64
-0.994437, 1, 113, 16, 176
-0.994439, 77, 1, 92, 64
-0.994456, 7, 49, 22, 112
-0.99446, 243, 65, 258, 128
-0.994486, 49, 57, 64, 120
-0.994495, 1, 113, 256, 176
-0.994512, 49, 1, 176, 32
-0.994523, 365, 113, 396, 240
-0.994523, 177, 57, 304, 88
-0.994539, 337, 225, 464, 288
-0.994555, 137, 65, 152, 128
-0.994558, 151, 65, 166, 128
-0.994561, 313, 209, 376, 334
-0.994573, 7, 137, 22, 200
-0.994599, 365, 1, 380, 64
-0.994643, 33, 149, 160, 180
-0.994652, 53, 201, 68, 264
-0.994654, 373, 209, 404, 334
-0.99466, 81, 33, 112, 288
-0.994663, 105, 1, 120, 64
-0.994675, 261, 81, 276, 144
-0.994687, 21, 73, 36, 136
-0.994704, 269, 97, 284, 160
-0.994711, 275, 97, 290, 160
-0.994735, 251, 17, 266, 80
-0.994738, 73, 25, 88, 88
-0.994742, 13, 89, 28, 152
-0.994749, 193, 97, 320, 128
-0.994791, 1, 77, 128, 108
-0.9948, 131, 65, 146, 128
-0.994839, 49, 97, 176, 128
-0.994851, 129, 249, 384, 312
-0.994892, 225, 57, 352, 88
-0.994903, 263, 105, 278, 168
-0.994939, 273, 53, 400, 84
-0.994945, 87, 89, 102, 152
-0.994955, 249, 89, 264, 152
-0.994997, 57, 153, 72, 216
-0.995004, 41, 25, 56, 88
-0.995049, 397, 17, 428, 144
-0.995058, 273, 177, 400, 240
-0.995059, 355, 33, 370, 96
-0.995061, 257, 41, 272, 104
-0.995064, 93, 33, 124, 288
-0.995078, 143, 65, 158, 128
-0.995084, 27, 81, 42, 144
-0.995107, 193, 217, 448, 280
-0.995147, 65, 33, 96, 288
-0.995161, 161, 5, 288, 36
-0.995167, 67, 33, 82, 96
-0.995204, 281, 97, 296, 160
-0.995204, 17, 209, 48, 334
-0.995218, 9, 33, 40, 288
-0.995222, 97, 177, 352, 240
-0.995242, 11, 1, 26, 64
-0.995247, 65, 245, 192, 276
-0.995258, 33, 209, 160, 240
-0.995283, 105, 33, 120, 96
-0.995284, 59, 177, 74, 240
-0.995286, 23, 113, 38, 176
-0.995293, 275, 129, 290, 192
-0.995302, 113, 57, 240, 88
-0.995307, 237, 65, 252, 128
-0.995322, 1, 137, 128, 168
-0.995354, 69, 153, 84, 216
-0.995372, 367, 65, 382, 128
-0.995382, 113, 253, 240, 284
-0.995412, 161, 105, 176, 168
-0.995418, 1, 41, 16, 104
-0.995423, 33, 273, 288, 334
-0.995427, 193, 113, 448, 176
-0.995435, 257, 105, 272, 168
-0.995451, 289, 145, 320, 272
-0.995489, 161, 41, 288, 72
-0.995493, 1, 25, 500, 88
-0.995504, 371, 33, 386, 96
-0.995509, 331, 9, 346, 72
-0.995513, 193, 133, 320, 164
-0.995515, 359, 57, 374, 120
-0.99553, 245, 41, 260, 104
-0.995541, 241, 37, 368, 68
-0.995548, 1, 249, 500, 312
-0.995549, 113, 33, 144, 288
-0.995561, 65, 209, 96, 334
-0.995561, 177, 97, 192, 160
-0.995564, 263, 177, 278, 240
-0.995571, 1, 1, 16, 64
-0.995573, 193, 193, 448, 256
-0.995573, 167, 105, 182, 168
-0.995579, 117, 73, 132, 136
-0.995583, 65, 17, 192, 48
-0.995631, 83, 1, 98, 64
-0.99564, 35, 57, 50, 120
-0.995643, 59, 1, 74, 64
-0.995662, 225, 137, 480, 200
-0.995681, 263, 33, 278, 96
-0.995688, 161, 145, 288, 176
-0.995717, 129, 33, 160, 288
-0.995721, 33, 33, 64, 288
-0.995732, 33, 161, 160, 192
-0.995738, 267, 1, 282, 64
-0.995749, 33, 185, 160, 216
-0.995754, 289, 65, 304, 128
-0.995765, 79, 25, 94, 88
-0.995782, 193, 29, 320, 60
-0.995786, 287, 89, 302, 152
-0.995799, 305, 17, 432, 48
-0.995804, 45, 217, 60, 280
-0.995816, 129, 273, 384, 334
-0.995829, 125, 65, 140, 128
-0.995843, 193, 17, 320, 48
-0.995846, 139, 137, 154, 200
-0.995863, 241, 97, 368, 128
-0.995872, 129, 25, 256, 56
-0.995879, 53, 81, 68, 144
-0.995894, 157, 65, 172, 128
-0.995894, 87, 273, 102, 334
-0.9959, 317, 81, 348, 208
-0.995903, 243, 89, 258, 152
-0.995912, 231, 249, 246, 312
-0.995912, 397, 209, 428, 334
-0.995937, 225, 161, 480, 224
-0.995945, 141, 33, 172, 288
-0.995976, 401, 113, 432, 240
-0.995982, 1, 197, 128, 228
-0.995984, 177, 1, 192, 64
-0.996003, 99, 57, 114, 120
-0.996012, 17, 233, 144, 264
-0.996019, 169, 177, 184, 240
-0.996064, 33, 37, 160, 68
-0.99608, 95, 137, 110, 200
-0.996082, 89, 241, 104, 304
-0.996096, 113, 265, 240, 296
-0.996098, 81, 241, 96, 304
-0.9961, 265, 129, 280, 192
-0.99611, 65, 257, 192, 288
-0.996114, 321, 1, 336, 64
-0.996121, 161, 253, 288, 284
-0.996134, 245, 1, 276, 256
-0.99614, 353, 1, 480, 32
-0.996143, 441, 113, 472, 240
-0.996146, 173, 129, 188, 192
-0.996159, 1, 245, 128, 276
-0.996167, 33, 173, 160, 204
-0.996168, 145, 101, 272, 132
-0.996168, 349, 33, 364, 96
-0.996171, 51, 233, 66, 296
-0.99619, 13, 137, 28, 200
-0.996218, 41, 57, 56, 120
-0.99624, 273, 85, 400, 116
-0.996241, 209, 25, 224, 88
-0.996251, 53, 33, 84, 288
-0.996253, 225, 65, 240, 128
-0.996255, 65, 57, 192, 88
-0.996263, 239, 41, 254, 104
-0.996264, 155, 97, 170, 160
-0.996267, 315, 1, 330, 64
-0.996299, 173, 249, 188, 312
-0.996306, 231, 65, 246, 128
-0.996316, 101, 137, 116, 200
-0.996323, 225, 241, 480, 304
-0.996326, 75, 241, 90, 304
-0.996334, 161, 189, 288, 220
-0.996343, 97, 41, 224, 72
-0.996346, 1, 21, 128, 52
-0.996351, 111, 49, 126, 112
-0.996351, 163, 65, 178, 128
-0.996355, 79, 265, 94, 328
-0.996363, 183, 97, 198, 160
-0.996366, 321, 49, 448, 80
-0.996371, 237, 89, 252, 152
-0.996373, 61, 129, 76, 192
-0.996379, 75, 153, 90, 216
-0.996381, 123, 241, 138, 304
-0.996383, 127, 129, 142, 192
-0.996389, 425, 129, 456, 256
-0.996397, 25, 49, 40, 112
-0.996398, 241, 21, 368, 52
-0.9964, 53, 1, 68, 64
-0.996407, 1, 53, 128, 84
-0.99643, 1, 261, 128, 292
-0.996436, 241, 137, 368, 168
-0.99644, 21, 1, 52, 256
-0.99647, 385, 129, 416, 256
-0.996529, 97, 201, 352, 264
-0.996573, 353, 37, 480, 68
-0.996595, 1, 225, 500, 288
-0.996605, 161, 265, 288, 296
-0.996615, 17, 273, 144, 304
-0.996622, 33, 221, 160, 252
-0.996637, 177, 285, 304, 316
-0.996651, 49, 197, 176, 228
-0.996652, 365, 41, 380, 72
-0.996657, 97, 105, 224, 136
-0.996682, 321, 153, 448, 216
-0.996704, 177, 157, 304, 188
-0.996719, 289, 233, 416, 296
-0.996757, 113, 241, 240, 272
-0.996774, 165, 1, 196, 256
-0.99679, 225, 153, 352, 184
-0.996798, 369, 129, 496, 160
-0.996805, 209, 301, 336, 332
-0.996823, 385, 209, 416, 334
-0.996838, 153, 65, 184, 320
-0.996857, 457, 113, 488, 240
-0.996872, 249, 85, 264, 116
-0.996891, 59, 157, 74, 188
-0.996904, 1, 141, 16, 172
-0.996925, 161, 173, 288, 204
-0.996955, 353, 1, 384, 256
-0.996963, 35, 13, 50, 44
-0.996996, 289, 97, 416, 128
-0.997005, 43, 5, 58, 36
-0.997018, 113, 13, 240, 44
-0.997018, 7, 141, 22, 172
-0.997045, 249, 73, 264, 104
-0.997049, 81, 29, 208, 60
-0.997075, 417, 209, 448, 334
-0.997082, 1, 273, 500, 334
-0.99709, 65, 233, 192, 264
-0.997097, 129, 277, 256, 308
-0.997101, 65, 273, 192, 304
-0.997124, 337, 1, 368, 256
-0.997127, 265, 33, 296, 288
-0.997132, 15, 69, 30, 100
-0.997133, 83, 85, 98, 116
-0.997235, 465, 193, 496, 320
-0.997253, 113, 225, 240, 256
-0.997257, 97, 193, 224, 224
-0.997272, 353, 45, 368, 76
-0.997298, 369, 201, 496, 264
-0.997305, 129, 213, 256, 244
-0.997319, 61, 81, 76, 112
-0.997326, 25, 5, 40, 36
-0.99733, 321, 193, 448, 256
-0.997355, 127, 73, 142, 104
-0.997358, 257, 85, 272, 116
-0.997362, 305, 29, 432, 60
-0.997367, 169, 181, 184, 212
-0.997371, 351, 13, 366, 44
-0.997372, 161, 121, 288, 152
-0.997394, 367, 53, 382, 84
-0.997437, 331, 13, 346, 44
-0.997451, 357, 57, 372, 88
-0.997461, 1, 125, 128, 156
-0.997472, 341, 21, 356, 52
-0.997483, 193, 201, 320, 232
-0.997484, 277, 33, 308, 288
-0.997485, 359, 45, 374, 76
-0.997497, 357, 9, 372, 40
-0.997498, 259, 1, 274, 32
-0.997518, 275, 133, 290, 164
-0.997521, 33, 45, 48, 76
-0.997526, 213, 33, 244, 288
-0.997542, 225, 265, 480, 328
-0.997543, 249, 49, 264, 80
-0.997557, 263, 37, 278, 68
-0.997558, 9, 61, 24, 92
-0.997559, 259, 21, 274, 52
-0.997567, 225, 109, 352, 140
-0.997571, 97, 1, 224, 32
-0.997602, 69, 1, 84, 32
-0.997611, 321, 61, 448, 92
-0.997612, 161, 241, 288, 272
-0.997617, 95, 1, 110, 32
-0.997623, 225, 281, 352, 312
-0.997623, 247, 153, 262, 184
-0.997627, 177, 217, 304, 248
-0.997632, 75, 25, 90, 56
-0.997639, 17, 97, 32, 128
-0.997639, 251, 1, 266, 32
-0.997643, 77, 85, 92, 116
-0.997651, 97, 125, 224, 156
-0.997654, 77, 257, 92, 288
-0.997656, 83, 253, 98, 284
-0.997657, 35, 57, 50, 88
-0.997657, 289, 73, 416, 104
-0.997658, 71, 65, 86, 96
-0.997659, 35, 25, 50, 56
-0.997664, 79, 101, 94, 132
-0.997664, 257, 125, 384, 156
-0.997665, 71, 81, 86, 112
-0.997665, 365, 69, 380, 100
-0.997665, 209, 189, 336, 220
-0.997665, 13, 141, 28, 172
-0.997673, 233, 1, 264, 256
-0.997675, 89, 85, 104, 116
-0.997684, 225, 165, 352, 196
-0.997711, 253, 17, 268, 48
-0.997714, 105, 1, 120, 32
-0.997717, 343, 1, 358, 32
-0.997728, 129, 289, 256, 320
-0.997733, 363, 5, 378, 36
-0.997741, 81, 61, 96, 92
-0.997742, 265, 101, 280, 132
-0.997742, 97, 181, 224, 212
-0.997753, 65, 65, 80, 96
-0.997767, 135, 69, 150, 100
-0.997767, 353, 141, 480, 172
-0.997785, 55, 93, 70, 124
-0.997785, 139, 141, 154, 172
-0.997789, 265, 13, 280, 44
-0.997796, 127, 137, 142, 168
-0.997796, 269, 133, 284, 164
-0.9978, 57, 65, 72, 96
-0.997806, 3, 9, 18, 40
-0.997812, 255, 73, 270, 104
-0.997824, 353, 13, 480, 44
-0.997825, 63, 1, 78, 32
-0.997843, 55, 173, 70, 204
-0.997845, 243, 69, 258, 100
-0.997846, 7, 77, 22, 108
-0.997854, 61, 101, 76, 132
-0.997855, 87, 273, 102, 304
-0.997857, 71, 101, 86, 132
-0.997857, 365, 161, 396, 288
-0.997857, 197, 1, 228, 256
-0.997861, 353, 25, 480, 56
-0.997863, 57, 193, 72, 224
-0.997865, 263, 89, 278, 120
-0.997865, 241, 177, 368, 208
-0.997871, 141, 69, 156, 100
-0.997875, 335, 1, 350, 32
-0.9979, 69, 21, 84, 52
-0.997909, 87, 65, 102, 96
-0.997915, 75, 1, 90, 32
-0.997918, 3, 45, 18, 76
-0.997936, 433, 209, 464, 334
-0.997938, 349, 97, 380, 224
-0.997942, 173, 253, 188, 284
-0.997943, 257, 101, 272, 132
-0.99795, 369, 1, 384, 32
-0.997959, 241, 89, 256, 120
-0.997964, 65, 157, 80, 188
-0.997975, 99, 137, 114, 168
-0.99798, 265, 145, 280, 176
-0.997982, 105, 49, 120, 80
-0.997985, 321, 129, 448, 160
-0.997988, 85, 97, 100, 128
-0.997989, 129, 301, 256, 332
-0.997991, 131, 85, 146, 116
-0.997993, 325, 9, 340, 40
-0.997994, 145, 201, 272, 232
-0.997996, 105, 137, 120, 168
-0.997996, 81, 149, 208, 180
-0.997997, 35, 1, 50, 32
-0.998002, 55, 81, 70, 112
-0.998003, 1, 153, 16, 184
-0.998003, 251, 105, 266, 136
-0.998007, 1, 205, 16, 236
-0.998014, 51, 213, 66, 244
-0.998023, 349, 1, 364, 32
-0.998026, 253, 157, 268, 188
-0.998028, 91, 257, 106, 288
-0.99803, 85, 149, 100, 180
-0.998031, 73, 245, 88, 276
-0.998036, 371, 65, 386, 96
-0.998037, 247, 165, 262, 196
-0.998046, 11, 5, 26, 36
-0.998062, 21, 77, 36, 108
-0.998067, 257, 37, 272, 68
-0.998072, 337, 117, 464, 148
-0.998074, 81, 1, 96, 32
-0.998082, 287, 93, 302, 124
-0.998091, 289, 33, 320, 288
-0.998096, 347, 45, 362, 76
-0.998099, 71, 153, 86, 184
-0.9981, 159, 73, 174, 104
-0.9981, 69, 261, 84, 292
-0.998102, 245, 105, 260, 136
-0.998103, 121, 17, 136, 48
-0.998104, 357, 33, 372, 64
-0.998106, 93, 141, 108, 172
-0.998108, 255, 53, 270, 84
-0.998111, 241, 201, 368, 232
-0.998122, 265, 181, 280, 212
-0.998124, 365, 33, 396, 288
-0.998125, 325, 1, 356, 256
-0.998125, 41, 41, 56, 72
-0.998129, 265, 1, 280, 32
-0.998134, 93, 65, 108, 96
-0.998136, 151, 69, 166, 100
-0.99814, 163, 177, 178, 208
-0.998142, 119, 77, 134, 108
-0.998155, 257, 305, 384, 334
-0.998163, 113, 25, 128, 56
-0.998165, 259, 161, 274, 192
-0.998168, 81, 273, 96, 304
-0.998168, 23, 105, 38, 136
-0.998174, 51, 61, 66, 92
-0.998175, 145, 133, 272, 164
-0.998175, 99, 61, 114, 92
-0.998208, 209, 269, 336, 300
-0.998278, 97, 165, 224, 196
-0.998279, 321, 85, 448, 116
-0.99832, 453, 1, 484, 256
-0.99832, 177, 229, 304, 260
-0.998331, 353, 153, 480, 184
-0.998356, 7, 1, 22, 128
-0.99836, 49, 85, 112, 100
-0.998369, 49, 109, 176, 140
-0.998381, 49, 125, 176, 156
-0.998389, 269, 91, 300, 106
-0.99839, 57, 5, 88, 20
-0.998391, 289, 77, 320, 92
-0.998391, 33, 23, 64, 38
-0.998392, 365, 73, 396, 88
-0.998393, 13, 141, 44, 156
-0.998393, 81, 25, 112, 40
-0.998393, 237, 19, 268, 34
-0.998394, 89, 95, 120, 110
-0.998394, 49, 285, 176, 316
-0.998394, 153, 137, 184, 152
-0.998395, 249, 301, 280, 316
-0.998396, 293, 1, 324, 16
-0.998397, 37, 89, 68, 104
-0.998398, 85, 147, 116, 162
-0.998398, 69, 273, 100, 288
-0.998399, 85, 275, 116, 290
-0.9984, 253, 151, 284, 166
-0.998401, 241, 87, 304, 102
-0.998401, 97, 67, 128, 82
-0.998401, 41, 95, 72, 110
-0.998402, 265, 153, 296, 168
-0.998403, 249, 81, 280, 96
-0.998403, 1, 79, 32, 94
-0.998404, 49, 213, 80, 228
-0.998404, 353, 15, 384, 30
-0.998405, 141, 71, 172, 86
-0.998405, 289, 85, 320, 100
-0.998405, 33, 13, 64, 28
-0.998406, 113, 67, 144, 82
-0.998406, 237, 7, 268, 22
-0.998408, 325, 19, 356, 34
-0.99841, 165, 191, 196, 206
-0.99841, 161, 101, 192, 116
-0.99841, 1, 207, 32, 222
-0.99841, 9, 51, 40, 66
-0.99841, 29, 35, 60, 50
-0.99841, 217, 151, 248, 166
-0.998411, 29, 43, 60, 58
-0.998411, 261, 191, 292, 206
-0.998413, 101, 55, 132, 70
-0.998413, 229, 67, 260, 82
-0.998413, 105, 79, 136, 94
-0.998414, 329, 13, 360, 28
-0.998415, 121, 83, 152, 98
-0.998416, 273, 9, 336, 24
-0.998417, 101, 39, 132, 54
-0.998419, 225, 97, 256, 112
-0.998421, 5, 109, 36, 124
-0.998421, 169, 139, 200, 154
-0.998421, 49, 223, 80, 238
-0.998422, 69, 155, 100, 170
-0.998422, 281, 9, 312, 24
-0.998423, 153, 183, 184, 198
-0.998423, 69, 3, 100, 18
-0.998427, 249, 33, 280, 48
-0.998427, 241, 13, 272, 28
-0.998428, 109, 137, 140, 152
-0.998428, 85, 57, 116, 72
-0.998432, 41, 175, 72, 190
-0.998434, 353, 67, 384, 82
-0.998434, 257, 1, 288, 16
-0.998434, 101, 13, 132, 28
-0.998434, 257, 159, 288, 174
-0.998434, 261, 105, 292, 120
-0.998435, 365, 43, 396, 58
-0.998436, 245, 57, 276, 72
-0.998436, 29, 29, 60, 44
-0.998437, 345, 59, 376, 74
-0.998438, 9, 89, 72, 104
-0.998438, 1, 9, 32, 24
-0.99844, 17, 95, 80, 110
-0.99844, 9, 149, 40, 164
-0.998441, 333, 7, 364, 22
-0.998441, 101, 33, 132, 48
-0.998442, 67, 97, 82, 224
-0.998443, 21, 21, 52, 36
-0.998443, 241, 67, 304, 82
-0.998444, 57, 95, 88, 110
-0.998446, 293, 7, 324, 22
-0.998446, 41, 29, 72, 44
-0.998448, 69, 85, 100, 100
-0.998449, 57, 103, 88, 118
-0.998452, 73, 31, 136, 46
-0.998453, 229, 91, 260, 106
-0.998457, 101, 21, 132, 36
-0.998457, 77, 95, 108, 110
-0.998461, 337, 51, 368, 66
-0.998461, 13, 57, 44, 72
-0.998464, 237, 1, 268, 16
-0.998465, 45, 5, 76, 20
-0.998466, 241, 183, 272, 198
-0.998466, 269, 11, 300, 26
-0.998466, 117, 75, 148, 90
-0.998468, 97, 61, 128, 76
-0.998468, 125, 89, 156, 104
-0.998469, 73, 81, 88, 208
-0.998469, 9, 73, 40, 88
-0.99847, 245, 63, 276, 78
-0.998471, 305, 9, 336, 24
-0.998471, 353, 73, 480, 104
-0.998471, 49, 91, 112, 106
-0.998471, 29, 57, 60, 72
-0.998472, 101, 27, 132, 42
-0.998472, 13, 85, 44, 100
-0.998474, 241, 3, 304, 18
-0.998474, 345, 47, 408, 62
-0.998474, 365, 67, 396, 82
-0.998474, 165, 185, 196, 200
-0.998474, 129, 71, 160, 86
-0.998475, 9, 103, 40, 118
-0.998475, 361, 3, 392, 18
-0.998475, 13, 65, 44, 80
-0.998476, 9, 63, 72, 78
-0.998476, 353, 97, 480, 128
-0.99848, 69, 63, 100, 78
-0.998482, 241, 157, 272, 172
-0.998482, 241, 81, 304, 96
-0.998482, 289, 67, 320, 82
-0.998483, 73, 101, 104, 116
-0.998485, 81, 31, 112, 46
-0.998485, 329, 55, 392, 70
-0.998486, 241, 75, 304, 90
-0.998486, 245, 97, 276, 112
-0.998488, 245, 51, 276, 66
-0.998492, 241, 93, 304, 108
-0.998493, 353, 257, 480, 288
-0.998493, 241, 9, 304, 24
-0.998494, 97, 139, 160, 154
-0.998494, 353, 59, 416, 74
-0.998495, 329, 61, 392, 76
-0.998498, 257, 15, 288, 30
-0.998498, 359, 1, 374, 128
-0.998498, 65, 27, 96, 42
-0.998499, 113, 73, 176, 88
-0.998499, 313, 3, 376, 18
-0.9985, 49, 157, 112, 172
-0.998501, 49, 3, 112, 18
-0.998501, 361, 1, 424, 16
-0.998502, 81, 147, 144, 162
-0.998504, 89, 87, 152, 102
-0.998504, 329, 41, 392, 56
-0.998506, 361, 61, 392, 76
-0.998507, 241, 61, 304, 76
-0.998507, 209, 75, 272, 90
-0.998507, 81, 3, 112, 18
-0.998508, 257, 135, 320, 150
-0.998508, 57, 97, 120, 112
-0.998509, 1, 57, 64, 72
-0.998509, 33, 7, 64, 22
-0.998511, 25, 29, 88, 44
-0.998511, 1, 79, 64, 94
-0.998512, 237, 73, 268, 88
-0.998512, 249, 7, 280, 22
-0.998513, 73, 25, 136, 40
-0.998513, 1, 65, 16, 192
-0.998515, 337, 11, 400, 26
-0.998515, 353, 41, 384, 56
-0.998516, 265, 135, 296, 150
-0.998516, 241, 103, 304, 118
-0.998517, 341, 13, 372, 28
-0.998518, 13, 79, 44, 94
-0.998524, 317, 13, 348, 28
-0.998525, 33, 63, 64, 78
-0.998525, 1, 9, 64, 24
-0.998525, 361, 53, 424, 68
-0.998526, 1, 1, 16, 128
-0.998526, 93, 141, 124, 156
-0.998528, 113, 19, 176, 34
-0.998528, 337, 19, 368, 34
-0.998529, 89, 1, 152, 16
-0.998529, 17, 101, 80, 116
-0.998531, 25, 5, 88, 20
-0.998533, 357, 55, 388, 70
-0.998533, 297, 11, 360, 26
-0.998534, 101, 1, 132, 16
-0.998535, 353, 41, 416, 56
-0.998535, 217, 99, 280, 114
-0.998537, 61, 97, 76, 224
-0.998539, 241, 15, 304, 30
-0.998539, 233, 155, 296, 170
-0.99854, 89, 95, 152, 110
-0.998541, 33, 65, 96, 80
-0.998544, 7, 81, 22, 208
-0.998545, 17, 1, 32, 128
-0.998546, 65, 63, 128, 78
-0.998547, 57, 103, 120, 118
-0.998547, 233, 185, 296, 200
-0.998549, 241, 55, 304, 70
-0.99855, 209, 283, 272, 298
-0.998552, 57, 157, 88, 172
-0.998553, 9, 207, 72, 222
-0.998553, 245, 87, 276, 102
-0.998554, 113, 89, 176, 104
-0.998555, 13, 9, 44, 24
-0.998555, 89, 63, 152, 78
-0.998555, 321, 49, 384, 64
-0.998558, 209, 69, 272, 84
-0.998558, 81, 81, 144, 96
-0.998559, 313, 17, 376, 32
-0.998561, 353, 9, 384, 24
-0.998561, 329, 67, 392, 82
-0.998562, 93, 49, 108, 176
-0.998563, 265, 97, 328, 112
-0.998565, 353, 65, 416, 80
-0.998567, 281, 79, 344, 94
-0.998568, 25, 23, 88, 38
-0.998573, 217, 91, 280, 106
-0.998573, 1, 107, 64, 122
-0.998574, 209, 249, 336, 280
-0.998574, 129, 99, 192, 114
-0.998577, 65, 37, 128, 52
-0.998578, 25, 35, 88, 50
-0.99858, 17, 175, 80, 190
-0.99858, 259, 1, 274, 128
-0.998581, 281, 67, 344, 82
-0.998582, 369, 47, 432, 62
-0.998582, 209, 53, 272, 68
-0.998582, 281, 85, 344, 100
-0.998583, 129, 185, 192, 200
-0.998583, 217, 9, 280, 24
-0.998583, 73, 19, 136, 34
-0.998583, 9, 153, 72, 168
-0.998584, 209, 1, 272, 16
-0.998584, 137, 85, 200, 100
-0.998584, 241, 47, 304, 62
-0.998584, 41, 205, 104, 220
-0.998584, 241, 149, 304, 164
-0.998587, 81, 101, 144, 116
-0.998587, 25, 83, 88, 98
-0.99859, 257, 35, 320, 50
-0.998591, 49, 29, 112, 44
-0.998591, 217, 37, 280, 52
-0.998591, 73, 57, 136, 72
-0.998592, 81, 69, 144, 84
-0.998593, 137, 137, 200, 152
-0.998594, 225, 195, 288, 210
-0.998596, 281, 73, 344, 88
-0.998597, 209, 185, 272, 200
-0.998598, 41, 213, 104, 228
-0.998598, 153, 99, 216, 114
-0.998598, 225, 143, 288, 158
-0.998598, 305, 265, 432, 296
-0.998599, 25, 1, 40, 128
-0.998599, 265, 105, 328, 120
-0.998599, 249, 193, 312, 208
-0.9986, 137, 191, 200, 206
-0.998601, 169, 259, 232, 274
-0.998601, 169, 145, 232, 160
-0.998601, 251, 17, 266, 144
-0.998602, 305, 39, 368, 54
-0.998602, 273, 113, 400, 144
-0.998603, 393, 7, 456, 22
-0.998603, 113, 83, 176, 98
-0.998604, 273, 3, 336, 18
-0.998605, 201, 63, 264, 78
-0.998606, 49, 275, 112, 290
-0.998606, 249, 41, 312, 56
-0.998607, 49, 197, 112, 212
-0.998608, 201, 155, 264, 170
-0.998608, 153, 185, 216, 200
-0.998609, 13, 65, 28, 192
-0.998609, 9, 73, 72, 88
-0.998609, 329, 35, 392, 50
-0.99861, 153, 107, 216, 122
-0.99861, 57, 83, 88, 98
-0.998612, 209, 15, 272, 30
-0.998612, 217, 105, 280, 120
-0.998614, 393, 23, 456, 38
-0.998614, 137, 91, 200, 106
-0.998614, 193, 149, 256, 164
-0.998614, 257, 141, 320, 156
-0.998615, 57, 183, 120, 198
-0.998616, 353, 71, 416, 86
-0.998617, 133, 65, 148, 192
-0.998617, 49, 23, 112, 38
-0.998617, 105, 39, 168, 54
-0.998617, 9, 201, 72, 216
-0.998617, 169, 253, 232, 268
-0.998633, 273, 149, 400, 180
-0.998641, 43, 1, 58, 128
-0.99865, 369, 49, 496, 80
-0.998653, 177, 33, 208, 288
-0.998665, 79, 81, 94, 208
-0.998675, 259, 97, 274, 224
-0.99868, 465, 1, 496, 256
-0.998681, 353, 47, 384, 62
-0.998688, 35, 1, 50, 128
-0.998695, 365, 1, 380, 128
-0.998706, 119, 65, 134, 192
-0.998715, 1, 113, 16, 240
-0.998733, 87, 65, 102, 192
-0.998758, 349, 1, 364, 128
-0.998769, 299, 1, 314, 128
-0.998777, 339, 1, 354, 128
-0.998778, 405, 33, 436, 288
-0.998782, 1, 285, 128, 316
-0.998782, 65, 297, 192, 328
-0.998793, 61, 145, 76, 272
-0.998794, 111, 129, 126, 256
-0.998795, 19, 65, 34, 192
-0.998802, 259, 49, 274, 176
-0.998805, 55, 193, 70, 320
-0.998806, 113, 65, 128, 192
-0.998821, 139, 65, 154, 192
-0.998838, 265, 33, 280, 160
-0.998838, 125, 65, 140, 192
-0.998838, 265, 97, 280, 224
-0.998846, 157, 97, 172, 224
-0.998857, 291, 1, 306, 128
-0.998864, 271, 97, 286, 224
-0.998876, 301, 1, 332, 256
-0.998876, 117, 129, 132, 256
-0.99888, 97, 129, 112, 256
-0.998884, 105, 1, 120, 128
-0.998889, 285, 209, 316, 334
-0.998893, 253, 81, 268, 208
-0.998894, 25, 65, 40, 192
-0.998908, 99, 49, 114, 176
-0.998915, 71, 145, 86, 272
-0.998923, 277, 97, 292, 224
-0.998925, 167, 97, 182, 224
-0.998927, 271, 1, 286, 128
-0.998928, 329, 1, 344, 128
-0.998935, 105, 129, 120, 256
-0.998935, 81, 33, 96, 160
-0.998936, 173, 97, 188, 224
-0.998937, 367, 49, 382, 176
-0.998944, 65, 49, 80, 176
-0.998948, 151, 65, 166, 192
-0.998951, 137, 145, 152, 272
-0.998953, 89, 113, 104, 240
-0.998958, 145, 65, 160, 192
-0.998959, 125, 129, 140, 256
-0.998959, 307, 1, 322, 128
-0.998959, 289, 49, 304, 176
-0.998977, 13, 113, 28, 240
-0.99898, 245, 49, 260, 176
-0.998986, 79, 145, 94, 272
-0.998995, 417, 1, 448, 256
-0.998995, 247, 97, 262, 224
-0.998997, 281, 1, 296, 128
-0.998999, 71, 33, 86, 160
-0.999003, 107, 49, 122, 176
-0.999019, 231, 209, 246, 334
-0.999029, 313, 1, 328, 128
-0.999032, 131, 129, 146, 256
-0.999062, 145, 113, 160, 240
-0.999066, 283, 65, 298, 192
-0.999069, 33, 49, 48, 176
-0.999077, 57, 33, 72, 160
-0.999079, 115, 1, 130, 128
-0.999083, 241, 97, 256, 224
-0.999089, 237, 161, 252, 288
-0.99909, 337, 97, 368, 224
-0.99909, 295, 49, 310, 176
-0.999095, 55, 81, 70, 208
-0.999112, 441, 1, 472, 256
-0.999116, 47, 49, 62, 176
-0.999118, 319, 1, 334, 128
-0.999123, 227, 97, 242, 224
-0.999133, 109, 177, 124, 304
-0.999134, 53, 145, 68, 272
-0.999135, 7, 145, 22, 272
-0.999144, 181, 81, 196, 208
-0.999153, 393, 33, 424, 288
-0.999156, 41, 49, 56, 176
-0.999157, 121, 1, 136, 128
-0.999161, 141, 193, 156, 320
-0.999169, 231, 145, 246, 272
-0.99917, 245, 1, 260, 128
-0.999174, 123, 177, 138, 304
-0.999176, 95, 1, 110, 128
-0.999177, 49, 193, 64, 320
-0.999184, 151, 1, 166, 128
-0.99919, 161, 49, 176, 176
-0.999197, 453, 209, 484, 334
-0.999199, 361, 49, 376, 176
-0.999201, 149, 193, 164, 320
-0.999243, 135, 193, 150, 320
-0.999243, 239, 49, 254, 176
-0.99926, 91, 193, 106, 320
-0.99926, 117, 193, 132, 320
-0.999262, 151, 129, 166, 256
-0.999264, 19, 113, 34, 240
-0.999273, 217, 1, 232, 128
-0.999275, 135, 1, 150, 128
-0.999277, 271, 49, 286, 176
-0.99928, 61, 193, 76, 320
-0.999286, 97, 177, 112, 304
-0.999287, 129, 1, 144, 128
-0.999288, 229, 1, 244, 128
-0.99929, 265, 145, 280, 272
-0.999293, 283, 113, 298, 240
-0.999294, 375, 1, 390, 128
-0.999298, 355, 49, 370, 176
-0.999305, 229, 49, 244, 176
-0.999307, 157, 1, 172, 128
-0.999313, 237, 1, 252, 128
-0.999313, 157, 145, 172, 272
-0.999316, 65, 1, 80, 128
-0.999324, 129, 209, 144, 334
-0.999328, 167, 145, 182, 272
-0.999337, 223, 49, 238, 176
-0.99934, 103, 209, 118, 334
-0.999354, 233, 97, 248, 224
-0.999355, 29, 145, 44, 272
-0.999356, 173, 177, 188, 304
-0.999356, 303, 49, 318, 176
-0.999366, 429, 1, 460, 256
-0.999397, 433, 161, 496, 288
-0.999583, 13, 147, 28, 162
-0.999584, 55, 5, 70, 20
-0.999584, 135, 139, 150, 154
-0.999584, 59, 195, 74, 210
-0.999584, 353, 1, 368, 16
-0.999584, 105, 49, 120, 64
-0.999585, 311, 7, 326, 22
-0.999585, 11, 111, 26, 126
-0.999585, 105, 41, 120, 56
-0.999585, 375, 61, 390, 76
-0.999586, 137, 71, 152, 86
-0.999586, 81, 3, 96, 18
-0.999587, 49, 5, 64, 20
-0.999589, 129, 85, 144, 100
-0.999589, 71, 83, 86, 98
-0.999589, 257, 101, 272, 116
-0.999591, 169, 137, 184, 152
-0.999591, 245, 71, 260, 86
-0.999591, 15, 9, 30, 24
-0.999591, 277, 105, 292, 120
-0.999592, 63, 5, 78, 20
-0.999593, 235, 153, 250, 168
-0.999593, 307, 1, 322, 16
-0.999595, 7, 61, 22, 76
-0.999595, 53, 215, 68, 230
-0.999596, 375, 43, 390, 58
-0.999596, 169, 177, 184, 192
-0.999596, 17, 81, 32, 96
-0.999596, 7, 207, 22, 222
-0.999597, 341, 11, 356, 26
-0.999598, 239, 67, 254, 82
-0.999598, 107, 55, 122, 70
-0.999598, 57, 101, 72, 116
-0.9996, 3, 9, 18, 24
-0.9996, 317, 9, 332, 24
-0.9996, 79, 103, 94, 118
-0.999601, 267, 153, 282, 168
-0.999601, 261, 159, 276, 174
-0.999602, 263, 17, 278, 32
-0.999602, 247, 155, 262, 170
-0.999602, 375, 71, 390, 86
-0.999602, 257, 77, 272, 92
-0.999603, 87, 101, 102, 116
-0.999603, 273, 11, 288, 26
-0.999603, 365, 53, 380, 68
-0.999605, 375, 53, 390, 68
-0.999605, 171, 189, 186, 204
-0.999606, 57, 177, 72, 192
-0.999607, 1, 141, 16, 156
-0.999607, 361, 69, 376, 84
-0.999608, 7, 81, 22, 96
-0.999608, 263, 101, 278, 116
-0.999609, 249, 17, 264, 32
-0.999611, 93, 95, 108, 110
-0.999612, 73, 103, 88, 118
-0.999612, 51, 221, 66, 236
-0.999613, 323, 11, 338, 26
-0.999613, 11, 69, 26, 84
-0.999613, 63, 105, 78, 120
-0.999613, 353, 9, 368, 24
-0.999616, 159, 183, 174, 198
-0.999617, 75, 29, 90, 44
-0.999619, 255, 23, 270, 38
-0.999619, 359, 63, 374, 78
-0.999619, 109, 139, 124, 154
-0.999619, 175, 137, 190, 152
-0.99962, 341, 23, 356, 38
-0.99962, 33, 47, 48, 62
-0.99962, 269, 37, 284, 52
-0.999624, 9, 9, 24, 24
-0.999626, 65, 157, 80, 172
-0.999626, 253, 157, 268, 172
-0.999628, 1, 153, 16, 168
-0.999628, 81, 97, 96, 112
-0.999629, 265, 107, 280, 122
-0.999631, 85, 87, 100, 102
-0.999635, 5, 109, 20, 124
-0.999637, 83, 151, 98, 166
-0.999638, 95, 1, 110, 16
-0.999638, 53, 95, 68, 110
-0.999638, 87, 275, 102, 290
-0.999639, 355, 57, 370, 72
-0.999639, 33, 53, 48, 68
-0.99964, 33, 41, 48, 56
-0.999641, 125, 77, 140, 92
-0.999641, 7, 141, 22, 156
-0.999644, 35, 35, 50, 50
-0.999644, 257, 11, 272, 26
-0.999644, 253, 1, 268, 16
-0.999647, 111, 1, 126, 16
-0.999647, 35, 29, 50, 44
-0.999648, 267, 135, 282, 150
-0.999649, 3, 55, 18, 70
-0.999649, 263, 41, 278, 56
-0.999649, 1, 207, 16, 222
-0.99965, 97, 141, 112, 156
-0.999653, 249, 51, 264, 66
-0.999653, 91, 145, 106, 160
-0.999653, 81, 61, 96, 76
-0.999657, 131, 73, 146, 88
-0.999659, 15, 75, 30, 90
-0.99966, 367, 73, 382, 88
-0.999662, 71, 155, 86, 170
-0.999664, 105, 1, 120, 16
-0.999667, 35, 7, 50, 22
-0.999669, 329, 13, 344, 28
-0.999671, 385, 1, 416, 128
-0.999671, 35, 59, 50, 74
-0.999673, 103, 139, 118, 154
-0.999673, 59, 159, 74, 174
-0.999675, 27, 7, 42, 22
-0.999681, 381, 33, 412, 288
-0.999682, 335, 17, 350, 32
-0.999682, 349, 51, 364, 66
-0.999683, 257, 83, 272, 98
-0.999684, 275, 135, 290, 150
-0.999691, 345, 17, 360, 32
-0.999691, 249, 87, 264, 102
-0.999693, 57, 83, 72, 98
-0.999699, 35, 17, 50, 32
-0.9997, 43, 7, 58, 22
-0.999701, 251, 75, 266, 90
-0.999703, 365, 59, 380, 74
-0.999716, 365, 5, 380, 20
-0.999717, 261, 33, 276, 48
-0.999719, 357, 47, 372, 62
-0.999725, 35, 23, 50, 38
-0.999726, 169, 183, 184, 198
-0.999728, 365, 43, 380, 58
-0.999733, 351, 15, 366, 30
-0.999739, 359, 9, 374, 24
-0.999745, 367, 65, 382, 80
-0.999819, 469, 97, 500, 224
-0.9999, 313, 65, 344, 320
-1.00366, 313, 145, 376, 272
