1910
-0.406634, 1, 1, 333, 500
-0.429284, 1, 129, 333, 384
-0.43817, 1, 225, 333, 480
-0.556998, 33, 1, 288, 500
-0.608602, 1, 33, 333, 288
-0.642541, 33, 225, 288, 480
-0.683951, 1, 129, 256, 384
-0.848245, 209, 193, 333, 448
-0.856988, 161, 193, 288, 448
-0.880548, 193, 97, 320, 352
-0.883747, 65, 33, 320, 288
-0.883781, 161, 1, 288, 500
-0.89371, 81, 1, 208, 500
-0.894544, 113, 225, 240, 480
-0.895987, 49, 225, 176, 480
-0.896892, 1, 225, 333, 352
-0.900328, 145, 97, 272, 352
-0.904055, 209, 1, 333, 500
-0.905352, 97, 129, 224, 384
-0.909838, 1, 97, 128, 352
-0.912443, 1, 145, 333, 272
-0.915608, 17, 1, 144, 500
-0.916309, 1, 225, 128, 480
-0.921682, 49, 97, 176, 352
-0.929052, 193, 209, 320, 336
-0.929207, 65, 241, 320, 368
-0.931821, 1, 193, 256, 320
-0.932565, 1, 273, 333, 400
-0.936173, 1, 337, 333, 464
-0.936808, 145, 209, 272, 336
-0.942184, 169, 209, 232, 336
-0.943465, 209, 209, 272, 336
-0.943638, 257, 257, 320, 384
-0.944426, 209, 257, 272, 384
-0.945324, 145, 209, 208, 336
-0.945343, 209, 1, 333, 256
-0.946095, 209, 257, 333, 384
-0.946639, 145, 257, 272, 384
-0.94717, 97, 33, 224, 288
-0.947498, 273, 193, 333, 320
-0.9475, 65, 129, 320, 256
-0.947549, 81, 225, 208, 352
-0.948612, 161, 1, 288, 256
-0.950771, 233, 193, 296, 320
-0.951221, 169, 257, 232, 384
-0.951997, 169, 249, 232, 312
-0.954385, 233, 257, 296, 384
-0.9561, 89, 233, 152, 296
-0.956358, 49, 1, 176, 256
-0.956444, 1, 193, 128, 320
-0.956993, 81, 177, 208, 304
-0.957912, 25, 233, 88, 296
-0.958011, 1, 97, 333, 224
-0.958153, 257, 265, 320, 328
-0.958413, 25, 225, 88, 352
-0.958878, 121, 193, 184, 320
-0.95964, 89, 225, 152, 352
-0.96108, 1, 49, 333, 176
-0.96121, 137, 225, 200, 288
-0.9616, 137, 257, 200, 384
-0.962412, 177, 161, 304, 288
-0.962771, 49, 193, 112, 320
-0.962777, 209, 321, 333, 448
-0.964091, 193, 225, 256, 288
-0.964961, 209, 265, 272, 328
-0.9653, 33, 337, 288, 464
-0.965456, 1, 193, 64, 320
-0.966985, 265, 265, 296, 328
-0.967448, 25, 177, 88, 304
-0.968206, 9, 209, 72, 272
-0.968349, 49, 225, 112, 288
-0.968945, 257, 193, 320, 448
-0.969093, 217, 193, 280, 448
-0.969367, 193, 113, 320, 240
-0.969557, 185, 193, 248, 448
-0.970131, 241, 321, 304, 448
-0.970226, 1, 1, 128, 256
-0.97051, 233, 257, 296, 320
-0.970891, 89, 177, 152, 304
-0.971354, 129, 161, 256, 288
-0.971414, 137, 265, 200, 328
-0.971584, 217, 305, 280, 432
-0.9718, 1, 65, 256, 192
-0.972237, 265, 257, 296, 384
-0.972451, 113, 241, 176, 304
-0.972612, 1, 233, 64, 296
-0.972732, 209, 161, 272, 288
-0.972854, 169, 225, 232, 288
-0.972897, 161, 337, 288, 464
-0.972932, 249, 129, 312, 256
-0.973236, 221, 209, 252, 336
-0.973488, 209, 209, 240, 336
-0.973513, 273, 321, 333, 448
-0.973678, 57, 201, 120, 264
-0.973681, 33, 241, 160, 368
-0.973756, 113, 241, 176, 368
-0.973995, 1, 1, 333, 128
-0.974043, 273, 129, 333, 256
-0.974598, 189, 249, 220, 312
-0.974868, 293, 273, 324, 336
-0.974887, 233, 257, 264, 384
-0.975072, 97, 225, 224, 288
-0.975388, 17, 233, 144, 296
-0.975433, 49, 241, 112, 368
-0.975437, 209, 345, 272, 408
-0.975657, 101, 233, 132, 296
-0.975742, 193, 225, 224, 352
-0.975806, 57, 249, 120, 312
-0.975974, 177, 145, 240, 272
-0.976311, 169, 209, 200, 336
-0.976643, 113, 201, 176, 264
-0.976746, 213, 257, 244, 384
-0.97683, 161, 193, 224, 448
-0.976958, 273, 241, 333, 304
-0.976993, 177, 225, 304, 288
-0.977108, 233, 265, 264, 328
-0.977433, 1, 289, 256, 416
-0.977561, 177, 361, 240, 424
-0.977783, 145, 257, 272, 320
-0.977831, 249, 337, 312, 400
-0.977888, 157, 209, 188, 336
-0.978103, 277, 193, 308, 320
-0.978201, 161, 193, 224, 256
-0.978496, 193, 321, 256, 448
-0.978621, 249, 209, 280, 336
-0.978632, 177, 97, 240, 352
-0.978658, 301, 257, 332, 384
-0.978736, 153, 161, 216, 288
-0.978872, 193, 257, 320, 320
-0.978905, 13, 209, 44, 272
-0.978945, 201, 257, 232, 320
-0.978993, 81, 249, 208, 312
-0.979001, 169, 249, 200, 312
-0.979121, 277, 273, 308, 400
-0.979202, 57, 233, 88, 296
-0.979274, 249, 177, 312, 240
-0.979324, 289, 273, 320, 400
-0.979435, 181, 209, 212, 336
-0.979512, 201, 97, 264, 352
-0.97967, 1, 145, 128, 272
-0.979697, 201, 233, 232, 296
-0.979741, 249, 97, 312, 352
-0.980005, 177, 385, 240, 448
-0.980121, 273, 169, 333, 232
-0.980176, 17, 209, 144, 272
-0.980407, 113, 201, 240, 264
-0.980433, 29, 241, 60, 304
-0.980642, 25, 225, 88, 480
-0.980696, 141, 209, 172, 336
-0.980824, 73, 225, 104, 288
-0.980871, 137, 161, 200, 416
-0.98092, 129, 249, 160, 312
-0.980957, 65, 145, 128, 272
-0.980967, 245, 273, 276, 400
-0.981283, 33, 337, 160, 464
-0.981351, 137, 257, 200, 500
-0.981486, 89, 225, 152, 480
-0.981523, 233, 209, 264, 336
-0.981862, 273, 97, 333, 352
-0.982001, 17, 361, 80, 424
-0.982108, 189, 225, 220, 288
-0.982185, 33, 201, 96, 264
-0.982243, 209, 337, 333, 400
-0.982372, 265, 193, 296, 320
-0.982523, 49, 377, 112, 440
-0.982589, 173, 257, 204, 384
-0.982599, 225, 97, 288, 352
-0.982981, 273, 329, 333, 392
-0.983006, 157, 257, 188, 384
-0.983019, 1, 233, 32, 296
-0.983025, 57, 225, 88, 352
-0.98304, 257, 201, 320, 264
-0.983061, 149, 265, 180, 328
-0.983097, 89, 209, 152, 272
-0.983282, 121, 225, 152, 288
-0.983305, 209, 169, 333, 232
-0.983377, 233, 201, 296, 264
-0.983406, 1, 241, 64, 368
-0.983412, 141, 225, 172, 288
-0.983418, 113, 129, 176, 384
-0.983431, 225, 233, 288, 296
-0.983566, 49, 161, 112, 416
-0.983652, 185, 193, 248, 256
-0.983658, 153, 369, 216, 432
-0.983724, 29, 225, 60, 352
-0.983787, 293, 193, 324, 320
-0.983886, 97, 225, 128, 352
-0.983944, 129, 209, 160, 336
-0.983946, 217, 225, 248, 288
-0.983988, 97, 97, 224, 224
-0.984084, 177, 65, 304, 192
-0.984136, 265, 1, 328, 500
-0.984316, 9, 193, 40, 320
-0.984372, 209, 369, 272, 432
-0.984626, 161, 225, 192, 288
-0.984845, 137, 201, 200, 264
-0.984871, 37, 209, 68, 272
-0.985004, 17, 337, 80, 464
-0.985117, 141, 257, 172, 384
-0.985182, 113, 225, 176, 480
-0.985192, 193, 177, 224, 304
-0.985539, 73, 177, 104, 304
-0.985543, 213, 265, 244, 328
-0.985667, 117, 249, 148, 312
-0.985673, 225, 177, 288, 240
-0.985716, 129, 353, 256, 416
-0.985732, 177, 225, 208, 288
-0.985883, 1, 225, 64, 480
-0.985898, 113, 145, 176, 272
-0.986151, 73, 129, 136, 384
-0.986193, 177, 145, 240, 208
-0.98621, 145, 113, 272, 240
-0.986449, 113, 353, 240, 480
-0.98645, 81, 353, 144, 416
-0.986486, 77, 249, 108, 312
-0.986558, 17, 233, 48, 296
-0.986583, 161, 185, 288, 248
-0.986775, 193, 281, 320, 344
-0.986782, 209, 369, 333, 496
-0.986931, 285, 249, 316, 312
-0.986981, 45, 233, 76, 296
-0.987028, 33, 17, 288, 144
-0.987242, 25, 385, 88, 448
-0.987288, 217, 97, 280, 224
-0.987322, 1, 209, 32, 272
-0.987335, 89, 233, 120, 296
-0.987408, 209, 201, 272, 264
-0.987461, 129, 353, 192, 416
-0.987473, 177, 337, 240, 400
-0.98751, 201, 1, 264, 500
-0.987566, 113, 377, 240, 440
-0.987628, 105, 353, 168, 416
-0.987704, 41, 353, 104, 416
-0.987706, 209, 193, 333, 256
-0.98781, 285, 321, 316, 448
-0.987812, 213, 377, 244, 440
-0.987857, 129, 257, 160, 384
-0.987884, 189, 361, 220, 424
-0.987889, 269, 321, 300, 448
-0.987929, 225, 321, 256, 448
-0.988042, 85, 225, 116, 352
-0.988063, 277, 297, 308, 360
-0.988195, 241, 1, 304, 500
-0.988197, 221, 337, 252, 400
-0.988209, 177, 265, 240, 296
-0.98823, 25, 97, 88, 352
-0.988309, 109, 225, 140, 352
-0.988386, 253, 337, 284, 400
-0.988415, 225, 273, 288, 304
-0.988443, 121, 1, 184, 500
-0.988546, 233, 361, 296, 424
-0.9886, 49, 129, 176, 256
-0.988623, 17, 65, 144, 192
-0.988671, 89, 245, 152, 276
-0.988673, 33, 353, 160, 416
-0.988694, 97, 177, 128, 304
-0.988758, 65, 201, 192, 264
-0.988797, 297, 321, 328, 448
-0.988909, 117, 177, 148, 304
-0.988978, 45, 177, 76, 304
-0.98898, 57, 257, 120, 500
-0.988993, 153, 1, 216, 500
-0.989016, 25, 245, 88, 276
-0.989032, 165, 361, 196, 424
-0.989104, 261, 129, 292, 256
-0.989106, 49, 401, 112, 464
-0.989111, 245, 249, 276, 312
-0.989176, 249, 269, 312, 300
-0.989249, 85, 177, 116, 304
-0.989356, 209, 377, 333, 440
-0.98942, 25, 129, 88, 256
-0.989451, 245, 273, 276, 336
-0.989599, 201, 265, 264, 296
-0.989626, 257, 321, 288, 448
-0.989635, 49, 209, 80, 272
-0.989649, 237, 321, 268, 448
-0.989684, 89, 393, 152, 456
-0.989709, 205, 353, 236, 416
-0.989776, 281, 273, 312, 336
-0.989778, 201, 385, 232, 448
-0.989824, 201, 393, 264, 456
-0.989824, 57, 177, 88, 304
-0.989835, 57, 337, 120, 464
-0.989878, 137, 177, 200, 240
-0.989886, 281, 177, 312, 240
-0.989928, 201, 89, 264, 152
-0.989929, 177, 1, 240, 500
-0.989932, 1, 233, 256, 296
-0.989938, 45, 225, 76, 352
-0.989958, 137, 253, 200, 284
-0.99002, 1, 145, 64, 272
-0.990033, 97, 273, 224, 400
-0.990049, 169, 113, 232, 176
-0.990061, 153, 265, 216, 296
-0.99009, 13, 257, 44, 384
-0.99013, 45, 361, 76, 424
-0.990143, 233, 337, 264, 400
-0.990268, 129, 265, 192, 296
-0.990274, 209, 153, 272, 216
-0.990275, 57, 241, 120, 272
-0.990332, 249, 281, 312, 312
-0.990373, 21, 177, 52, 304
-0.990398, 261, 185, 292, 248
-0.990433, 205, 337, 236, 464
-0.990456, 293, 169, 324, 232
-0.990463, 301, 249, 332, 312
-0.990519, 97, 49, 224, 176
-0.990519, 161, 253, 224, 284
-0.990525, 289, 129, 320, 256
-0.990552, 201, 277, 264, 308
-0.990566, 269, 337, 300, 400
-0.990576, 97, 257, 160, 288
-0.990618, 273, 269, 333, 300
-0.990654, 177, 369, 208, 432
-0.990692, 57, 1, 120, 500
-0.990715, 169, 353, 232, 480
-0.990788, 65, 377, 192, 440
-0.990851, 81, 353, 208, 416
-0.990862, 273, 281, 333, 312
-0.990882, 177, 105, 304, 168
-0.990943, 273, 257, 333, 288
-0.990972, 1, 237, 64, 268
-0.990973, 217, 161, 248, 288
-0.990977, 97, 233, 160, 264
-0.991022, 225, 261, 288, 292
-0.991068, 201, 273, 232, 400
-0.991071, 145, 193, 176, 256
-0.991089, 273, 145, 333, 208
-0.991124, 89, 185, 152, 248
-0.991191, 93, 209, 124, 272
-0.9912, 205, 145, 236, 272
-0.991207, 89, 1, 152, 500
-0.991214, 249, 153, 312, 216
-0.991217, 185, 397, 248, 428
-0.991222, 25, 209, 56, 272
-0.991253, 65, 253, 128, 284
-0.991256, 161, 377, 288, 440
-0.991277, 121, 233, 184, 264
-0.991329, 1, 241, 32, 368
-0.991412, 117, 201, 148, 264
-0.991459, 265, 369, 328, 496
-0.991459, 25, 257, 88, 288
-0.991478, 209, 145, 333, 208
-0.991494, 1, 97, 64, 352
-0.99152, 209, 345, 272, 376
-0.991581, 57, 369, 88, 432
-0.99159, 185, 253, 248, 284
-0.991596, 25, 233, 88, 264
-0.991601, 153, 97, 216, 224
-0.991605, 113, 265, 176, 328
-0.991613, 89, 161, 152, 224
-0.991679, 205, 209, 236, 272
-0.991681, 209, 129, 272, 192
-0.991687, 273, 129, 304, 256
-0.991694, 17, 177, 144, 240
-0.991699, 1, 249, 64, 280
-0.991773, 69, 241, 100, 368
-0.991808, 113, 245, 176, 276
-0.991832, 241, 161, 272, 288
-0.991833, 209, 305, 333, 368
-0.991843, 33, 177, 64, 304
-0.991847, 265, 273, 296, 304
-0.991864, 57, 225, 120, 256
-0.991906, 249, 289, 312, 352
-0.991936, 181, 161, 212, 288
-0.991966, 257, 361, 320, 424
-0.992024, 225, 313, 288, 376
-0.992037, 89, 257, 152, 320
-0.992039, 169, 365, 232, 396
-0.992056, 113, 145, 240, 208
-0.99206, 1, 377, 128, 440
-0.992063, 33, 257, 160, 320
-0.992067, 177, 277, 240, 308
-0.99208, 17, 1, 80, 500
-0.992093, 149, 269, 180, 300
-0.992098, 225, 285, 288, 316
-0.992103, 113, 221, 176, 252
-0.992127, 153, 225, 216, 256
-0.992163, 193, 233, 256, 264
-0.992173, 229, 273, 260, 304
-0.992215, 9, 369, 72, 400
-0.992247, 189, 261, 220, 292
-0.992247, 301, 129, 332, 256
-0.992252, 101, 241, 132, 272
-0.992253, 273, 205, 333, 236
-0.992281, 169, 197, 232, 228
-0.992302, 209, 265, 240, 296
-0.992309, 129, 377, 192, 440
-0.99232, 185, 169, 248, 232
-0.992322, 177, 217, 240, 248
-0.992339, 153, 353, 184, 416
-0.992351, 33, 353, 64, 416
-0.99236, 281, 337, 312, 400
-0.992363, 129, 209, 192, 240
-0.992365, 233, 341, 296, 372
-0.992367, 161, 161, 288, 224
-0.992377, 293, 281, 324, 312
-0.992382, 273, 177, 333, 208
-0.992413, 165, 261, 196, 292
-0.992428, 1, 225, 64, 256
-0.992437, 169, 385, 232, 416
-0.992484, 209, 357, 272, 388
-0.992488, 249, 213, 312, 244
-0.992525, 257, 341, 320, 372
-0.992531, 137, 277, 200, 308
-0.992551, 265, 189, 328, 220
-0.992553, 65, 169, 192, 232
-0.992559, 49, 265, 112, 296
-0.992571, 121, 253, 152, 284
-0.992581, 1, 201, 256, 264
-0.992586, 13, 233, 44, 264
-0.992588, 177, 269, 208, 300
-0.992589, 229, 145, 260, 272
-0.992593, 217, 221, 280, 252
-0.992631, 201, 409, 264, 440
-0.992632, 53, 241, 84, 272
-0.992659, 49, 397, 112, 428
-0.992671, 217, 385, 280, 416
-0.99269, 185, 273, 248, 336
-0.99269, 225, 261, 256, 292
-0.992745, 9, 337, 72, 400
-0.992758, 33, 241, 64, 272
-0.992773, 73, 241, 104, 272
-0.992774, 133, 265, 164, 296
-0.992775, 1, 245, 32, 276
-0.992781, 169, 241, 232, 272
-0.992789, 25, 385, 88, 416
-0.992793, 265, 261, 296, 292
-0.992801, 97, 209, 160, 240
-0.992806, 177, 253, 208, 284
-0.992813, 249, 257, 312, 288
-0.992816, 21, 245, 52, 276
-0.992825, 233, 361, 296, 392
-0.992839, 1, 261, 64, 292
-0.992847, 209, 397, 240, 428
-0.992849, 25, 221, 88, 252
-0.99285, 253, 273, 284, 304
-0.992866, 301, 265, 332, 296
-0.992869, 117, 241, 148, 272
-0.992877, 153, 153, 216, 216
-0.992894, 129, 197, 192, 228
-0.992898, 245, 261, 276, 292
-0.992919, 209, 173, 272, 204
-0.992921, 145, 377, 208, 408
-0.992943, 49, 385, 112, 416
-0.992947, 77, 253, 108, 284
-0.992962, 241, 277, 272, 308
-0.992967, 97, 365, 160, 396
-0.992974, 281, 277, 312, 308
-0.99298, 209, 205, 272, 236
-0.992984, 153, 185, 216, 216
-0.993008, 65, 253, 96, 284
-0.993011, 217, 277, 248, 308
-0.993012, 165, 273, 196, 304
-0.993024, 169, 113, 232, 144
-0.993036, 65, 365, 128, 396
-0.993043, 65, 201, 96, 264
-0.993046, 241, 197, 304, 228
-0.993047, 209, 101, 272, 132
-0.993048, 149, 257, 180, 288
-0.993052, 193, 185, 256, 216
-0.993062, 233, 173, 296, 204
-0.993065, 161, 397, 224, 428
-0.99309, 117, 229, 148, 260
-0.993105, 89, 249, 120, 280
-0.993113, 281, 265, 312, 296
-0.993121, 153, 213, 216, 244
-0.993132, 245, 289, 276, 320
-0.993132, 145, 237, 208, 268
-0.993132, 213, 253, 244, 284
-0.993134, 193, 97, 256, 224
-0.993135, 49, 205, 112, 236
-0.993139, 201, 253, 232, 284
-0.993144, 53, 253, 84, 284
-0.993145, 185, 101, 248, 132
-0.993155, 145, 365, 208, 396
-0.993157, 189, 249, 220, 280
-0.993158, 225, 341, 256, 372
-0.99316, 41, 229, 72, 260
-0.993166, 177, 149, 240, 180
-0.993172, 89, 221, 152, 252
-0.993198, 29, 257, 60, 288
-0.993202, 137, 253, 168, 284
-0.993203, 121, 365, 184, 396
-0.993205, 33, 373, 96, 404
-0.993215, 233, 209, 264, 272
-0.993217, 77, 265, 108, 296
-0.993226, 101, 229, 132, 260
-0.993229, 129, 161, 192, 192
-0.993233, 221, 405, 252, 436
-0.993234, 57, 381, 88, 412
-0.993235, 193, 273, 224, 304
-0.993258, 185, 165, 248, 196
-0.993259, 197, 393, 228, 424
-0.993259, 257, 321, 320, 352
-0.993261, 193, 381, 256, 412
-0.993262, 1, 361, 32, 424
-0.993262, 257, 165, 320, 196
-0.993268, 89, 397, 152, 428
-0.993285, 1, 233, 32, 264
-0.993295, 265, 285, 296, 316
-0.993296, 153, 65, 216, 320
-0.993296, 209, 161, 272, 192
-0.993304, 201, 133, 264, 164
-0.993305, 245, 341, 276, 372
-0.993308, 205, 277, 236, 308
-0.993308, 169, 353, 232, 384
-0.99332, 17, 201, 80, 232
-0.993324, 97, 113, 224, 176
-0.993326, 17, 257, 48, 288
-0.99333, 241, 65, 304, 192
-0.993339, 37, 369, 68, 400
-0.993342, 33, 401, 160, 464
-0.993346, 209, 397, 272, 428
-0.993352, 109, 253, 140, 284
-0.993369, 49, 409, 112, 440
-0.99337, 65, 257, 96, 320
-0.993371, 249, 177, 280, 240
-0.993372, 193, 369, 256, 400
-0.993373, 189, 193, 220, 256
-0.993379, 65, 229, 96, 260
-0.993401, 245, 357, 276, 388
-0.993408, 49, 369, 80, 400
-0.993411, 141, 197, 172, 228
-0.993411, 89, 165, 152, 196
-0.993412, 261, 341, 292, 372
-0.993416, 137, 233, 168, 264
-0.993429, 57, 397, 88, 428
-0.993437, 5, 257, 36, 288
-0.993438, 145, 401, 272, 464
-0.99344, 165, 365, 196, 396
-0.99344, 249, 293, 312, 324
-0.993442, 205, 353, 236, 384
-0.993443, 209, 385, 240, 416
-0.993444, 153, 281, 184, 312
-0.993445, 257, 365, 320, 396
-0.993445, 153, 101, 216, 132
-0.993455, 25, 221, 56, 252
-0.99346, 229, 385, 260, 416
-0.993461, 5, 221, 36, 252
-0.993461, 113, 177, 240, 240
-0.993467, 153, 201, 184, 232
-0.993468, 177, 365, 208, 396
-0.99347, 85, 225, 116, 256
-0.993471, 97, 197, 160, 228
-0.993479, 209, 369, 272, 496
-0.993484, 89, 237, 120, 268
-0.993488, 193, 89, 256, 120
-0.993488, 197, 233, 228, 264
-0.993489, 209, 249, 272, 280
-0.993503, 161, 377, 192, 408
-0.993504, 5, 369, 36, 400
-0.993505, 257, 137, 320, 168
-0.993505, 65, 137, 128, 200
-0.993506, 45, 381, 76, 412
-0.993506, 181, 105, 212, 136
-0.993506, 193, 193, 224, 224
-0.993514, 185, 393, 216, 424
-0.993521, 205, 221, 236, 252
-0.993525, 161, 221, 192, 252
-0.993529, 129, 397, 192, 428
-0.993529, 137, 277, 168, 308
-0.993531, 25, 369, 56, 400
-0.993532, 285, 205, 316, 236
-0.993532, 121, 353, 184, 384
-0.993535, 165, 249, 196, 280
-0.993539, 121, 213, 152, 244
-0.993543, 253, 209, 284, 240
-0.993549, 109, 357, 140, 388
-0.993549, 233, 365, 264, 396
-0.993555, 273, 117, 333, 148
-0.993556, 301, 173, 332, 204
-0.993557, 149, 365, 180, 396
-0.993561, 73, 209, 136, 240
-0.993563, 173, 385, 204, 416
-0.99358, 233, 101, 296, 132
-0.99358, 209, 409, 240, 440
-0.99358, 221, 225, 252, 256
-0.993583, 197, 381, 228, 412
-0.993585, 189, 365, 220, 396
-0.993586, 249, 117, 312, 148
-0.993588, 181, 237, 212, 268
-0.993588, 285, 341, 316, 372
-0.993589, 301, 197, 332, 228
-0.993591, 233, 217, 264, 248
-0.993595, 273, 209, 304, 240
-0.993596, 277, 289, 308, 320
-0.993604, 293, 293, 324, 324
-0.993604, 45, 393, 76, 424
-0.993605, 193, 149, 224, 180
-0.993605, 209, 209, 240, 240
-0.993605, 241, 153, 304, 184
-0.993611, 233, 397, 296, 428
-0.993614, 149, 221, 180, 252
-0.993619, 217, 149, 280, 180
-0.993621, 193, 117, 224, 148
-0.993623, 213, 289, 244, 320
-0.993627, 165, 193, 196, 224
-0.993631, 269, 193, 300, 224
-0.993637, 293, 185, 324, 216
-0.993639, 189, 205, 220, 236
-0.993639, 69, 377, 100, 408
-0.993643, 33, 389, 64, 420
-0.993645, 177, 213, 208, 244
-0.993649, 141, 161, 172, 288
-0.993651, 193, 105, 224, 136
-0.993651, 209, 181, 240, 212
-0.993652, 177, 197, 208, 228
-0.993653, 73, 153, 136, 184
-0.993653, 273, 341, 304, 372
-0.993654, 141, 209, 172, 240
-0.993656, 33, 361, 96, 392
-0.99366, 41, 253, 72, 284
-0.993661, 153, 161, 216, 192
-0.993661, 225, 409, 288, 440
-0.993662, 105, 269, 168, 300
-0.993666, 85, 397, 116, 428
-0.993667, 73, 397, 104, 428
-0.993668, 97, 397, 128, 428
-0.993675, 73, 365, 104, 396
-0.993679, 113, 149, 176, 180
-0.993682, 225, 329, 288, 360
-0.993684, 65, 169, 128, 232
-0.993687, 217, 185, 280, 216
-0.993698, 89, 409, 152, 440
-0.993702, 113, 169, 176, 232
-0.993723, 225, 121, 288, 152
-0.993732, 1, 213, 64, 244
-0.993733, 153, 173, 216, 204
-0.993739, 153, 345, 216, 408
-0.993739, 105, 181, 168, 212
-0.993742, 49, 137, 112, 168
-0.993751, 241, 185, 304, 216
-0.993783, 49, 253, 176, 284
-0.99385, 13, 257, 44, 320
-0.993851, 273, 1, 333, 256
-0.993883, 105, 209, 136, 272
-0.993887, 249, 201, 280, 264
-0.993941, 193, 65, 256, 128
-0.993948, 217, 257, 232, 320
-0.99396, 41, 337, 72, 464
-0.99398, 49, 65, 112, 320
-0.993986, 17, 129, 144, 192
-0.993997, 233, 369, 296, 496
-0.994002, 33, 241, 160, 272
-0.99404, 249, 313, 312, 376
-0.994045, 297, 337, 328, 400
-0.994105, 117, 353, 148, 416
-0.994197, 161, 81, 288, 144
-0.994202, 17, 361, 48, 424
-0.994218, 229, 241, 260, 304
-0.99422, 65, 257, 320, 320
-0.994229, 277, 201, 308, 264
-0.994263, 169, 161, 200, 288
-0.994294, 161, 329, 288, 392
-0.99434, 153, 49, 216, 176
-0.994351, 1, 353, 256, 416
-0.994378, 185, 105, 216, 168
-0.994403, 193, 129, 224, 256
-0.99449, 221, 193, 252, 256
-0.994527, 209, 185, 240, 248
-0.994528, 189, 273, 220, 400
-0.994554, 189, 385, 220, 448
-0.994564, 193, 265, 320, 296
-0.994616, 317, 257, 332, 320
-0.994657, 193, 49, 256, 176
-0.994694, 265, 241, 296, 304
-0.994699, 17, 17, 144, 144
-0.994712, 97, 81, 224, 144
-0.994728, 279, 265, 294, 328
-0.994761, 273, 257, 288, 320
-0.994765, 205, 153, 236, 216
-0.994771, 129, 201, 160, 264
-0.994791, 177, 89, 240, 152
-0.994794, 81, 401, 208, 464
-0.994794, 289, 297, 320, 360
-0.994801, 161, 137, 288, 200
-0.994822, 225, 97, 288, 160
-0.994844, 207, 257, 222, 320
-0.99486, 77, 201, 108, 264
-0.99489, 193, 145, 224, 208
-0.994903, 9, 257, 72, 320
-0.994922, 65, 177, 320, 240
-0.994933, 105, 137, 168, 200
-0.994952, 61, 233, 76, 296
-0.994957, 161, 17, 288, 144
-0.994969, 105, 353, 136, 416
-0.995014, 237, 257, 252, 320
-0.99502, 1, 177, 333, 240
-0.995021, 297, 193, 328, 256
-0.995034, 169, 201, 200, 264
-0.995038, 113, 249, 240, 280
-0.995044, 121, 329, 184, 392
-0.995051, 195, 233, 210, 296
-0.995055, 129, 269, 256, 300
-0.995063, 185, 241, 200, 304
-0.995072, 133, 177, 164, 240
-0.995073, 295, 273, 310, 336
-0.995134, 113, 321, 240, 384
-0.995164, 165, 273, 196, 336
-0.995174, 1, 209, 333, 272
-0.995188, 57, 369, 88, 496
-0.995189, 207, 233, 222, 296
-0.995203, 225, 369, 256, 496
-0.995258, 35, 233, 50, 296
-0.995261, 69, 369, 100, 432
-0.99528, 265, 209, 296, 272
-0.995316, 249, 129, 312, 192
-0.995327, 157, 161, 188, 288
-0.995338, 1, 241, 333, 304
-0.995346, 1, 377, 256, 440
-0.99535, 177, 257, 192, 320
-0.99538, 267, 265, 282, 328
-0.995385, 113, 49, 176, 176
-0.995387, 131, 241, 146, 304
-0.995398, 33, 81, 160, 144
-0.9954, 71, 225, 86, 288
-0.995407, 143, 257, 158, 320
-0.995408, 209, 81, 333, 144
-0.995414, 113, 229, 240, 260
-0.995435, 115, 233, 130, 296
-0.995445, 233, 369, 264, 432
-0.995451, 201, 233, 216, 296
-0.995464, 77, 393, 108, 456
-0.99547, 123, 217, 138, 280
-0.995512, 153, 73, 216, 136
-0.995518, 1, 385, 64, 448
-0.995565, 157, 201, 188, 264
-0.995576, 145, 337, 208, 464
-0.995615, 159, 257, 174, 320
-0.995616, 273, 289, 333, 352
-0.995639, 225, 193, 256, 448
-0.995644, 233, 185, 264, 248
-0.995651, 97, 113, 160, 176
-0.995668, 7, 233, 22, 296
-0.995695, 209, 281, 333, 312
-0.995717, 197, 257, 212, 320
-0.995783, 1, 209, 16, 272
-0.995783, 129, 145, 192, 208
-0.995788, 9, 185, 72, 248
-0.995821, 265, 193, 296, 448
-0.995825, 245, 193, 276, 448
-0.995886, 171, 241, 186, 304
-0.995901, 65, 137, 192, 200
-0.995907, 209, 17, 333, 144
-0.995929, 311, 265, 326, 328
-0.995932, 177, 345, 208, 408
-0.995949, 169, 337, 200, 464
-0.995951, 301, 265, 316, 328
-0.996005, 9, 145, 40, 272
-0.996009, 53, 393, 84, 456
-0.99601, 101, 233, 116, 296
-0.996023, 179, 233, 194, 296
-0.996029, 289, 273, 304, 336
-0.996047, 139, 225, 154, 288
-0.996053, 191, 257, 206, 320
-0.996058, 49, 105, 176, 168
-0.996065, 145, 113, 208, 176
-0.996071, 1, 265, 333, 328
-0.996072, 161, 253, 288, 284
-0.996093, 257, 105, 320, 168
-0.996094, 29, 337, 60, 464
-0.996104, 79, 257, 94, 320
-0.996146, 125, 241, 140, 304
-0.996163, 243, 265, 258, 328
-0.996184, 165, 265, 180, 328
-0.996187, 289, 297, 304, 360
-0.996192, 285, 193, 316, 448
-0.996196, 153, 233, 168, 296
-0.996206, 89, 129, 152, 256
-0.996208, 7, 209, 22, 272
-0.996209, 201, 321, 264, 384
-0.996223, 227, 273, 242, 336
-0.996257, 129, 217, 144, 280
-0.996269, 261, 273, 276, 336
-0.996272, 249, 273, 264, 336
-0.996332, 209, 129, 240, 384
-0.996362, 273, 81, 333, 208
-0.996409, 87, 225, 102, 288
-0.996412, 171, 265, 186, 328
-0.996423, 97, 273, 224, 336
-0.996427, 137, 257, 152, 320
-0.996431, 1, 233, 16, 296
-0.996443, 183, 265, 198, 328
-0.99646, 21, 225, 36, 288
-0.996465, 65, 153, 320, 216
-0.996498, 213, 225, 244, 480
-0.996501, 297, 161, 328, 416
-0.996503, 213, 225, 228, 288
-0.996516, 81, 233, 96, 296
-0.996522, 145, 225, 160, 288
-0.996543, 189, 193, 220, 448
-0.99658, 289, 249, 304, 312
-0.996583, 233, 337, 248, 400
-0.996584, 249, 337, 264, 400
-0.996614, 1, 361, 333, 424
-0.996627, 81, 57, 208, 120
-0.996664, 71, 249, 86, 312
-0.996675, 33, 257, 96, 320
-0.996681, 27, 209, 42, 272
-0.996686, 81, 265, 208, 296
-0.996697, 61, 209, 76, 272
-0.996699, 161, 273, 224, 336
-0.996712, 273, 33, 333, 160
-0.99672, 153, 265, 168, 328
-0.996732, 89, 393, 120, 456
-0.996733, 161, 57, 288, 120
-0.996743, 1, 153, 128, 216
-0.996753, 209, 341, 333, 372
-0.996771, 55, 233, 70, 296
-0.996781, 199, 361, 214, 424
-0.996784, 37, 209, 52, 272
-0.996784, 107, 233, 122, 296
-0.9968, 201, 225, 232, 480
-0.996803, 13, 209, 28, 272
-0.996817, 29, 241, 44, 304
-0.996821, 85, 369, 116, 432
-0.996823, 93, 249, 108, 312
-0.996841, 297, 257, 328, 500
-0.996863, 169, 193, 200, 448
-0.99687, 207, 353, 222, 416
-0.996879, 87, 257, 102, 320
-0.996879, 165, 241, 180, 304
-0.996903, 273, 261, 288, 292
-0.996911, 1, 229, 128, 260
-0.996933, 13, 241, 28, 304
-0.996947, 211, 385, 226, 448
-0.996969, 33, 385, 64, 448
-0.997014, 33, 289, 160, 416
-0.997024, 253, 313, 284, 376
-0.997025, 47, 225, 62, 288
-0.997038, 265, 337, 280, 400
-0.997044, 255, 281, 270, 344
-0.997046, 113, 217, 240, 248
-0.997046, 45, 337, 76, 400
-0.997052, 203, 261, 218, 292
-0.997055, 223, 337, 238, 400
-0.997055, 237, 265, 252, 296
-0.997061, 265, 297, 296, 360
-0.997065, 169, 353, 184, 416
-0.997066, 255, 337, 270, 400
-0.997082, 161, 213, 288, 244
-0.997082, 299, 277, 314, 308
-0.997083, 217, 377, 232, 440
-0.997085, 193, 193, 320, 224
-0.997112, 159, 233, 174, 296
-0.997113, 105, 337, 168, 464
-0.997129, 59, 361, 74, 424
-0.997131, 239, 337, 254, 400
-0.997169, 215, 265, 230, 296
-0.997173, 169, 177, 200, 240
-0.997174, 193, 401, 320, 464
-0.997183, 1, 105, 128, 168
-0.997189, 175, 269, 190, 300
-0.997213, 225, 241, 240, 304
-0.997244, 41, 233, 56, 296
-0.997245, 107, 209, 122, 272
-0.99726, 317, 265, 332, 296
-0.997274, 179, 361, 194, 424
-0.997283, 157, 193, 188, 448
-0.997285, 61, 241, 76, 272
-0.997302, 177, 225, 304, 256
-0.997303, 255, 257, 270, 320
-0.997304, 283, 297, 298, 360
-0.99731, 1, 253, 128, 284
-0.997332, 245, 225, 276, 288
-0.997333, 181, 337, 212, 464
-0.997341, 191, 265, 206, 296
-0.997347, 129, 353, 160, 416
-0.997366, 55, 209, 70, 272
-0.997378, 81, 1, 208, 128
-0.997378, 113, 205, 240, 236
-0.997382, 129, 73, 192, 136
-0.997384, 225, 377, 240, 440
-0.997393, 197, 265, 212, 296
-0.997396, 49, 229, 176, 260
-0.997409, 271, 337, 286, 400
-0.997413, 161, 269, 176, 300
-0.997414, 221, 269, 236, 300
-0.997423, 189, 369, 204, 432
-0.997433, 205, 385, 220, 448
-0.997445, 111, 237, 126, 268
-0.997445, 53, 361, 68, 424
-0.997471, 213, 353, 228, 416
-0.997481, 153, 193, 168, 256
-0.997492, 209, 181, 333, 212
-0.997494, 253, 97, 284, 352
-0.997511, 189, 217, 204, 280
-0.997512, 285, 337, 300, 400
-0.997519, 65, 393, 96, 456
-0.997521, 141, 261, 156, 292
-0.997522, 283, 273, 298, 304
-0.997523, 105, 237, 120, 268
-0.997526, 269, 177, 284, 240
-0.997529, 7, 241, 22, 272
-0.99753, 33, 177, 96, 240
-0.997543, 275, 185, 290, 248
-0.997543, 93, 217, 108, 280
-0.997551, 219, 233, 234, 296
-0.997561, 71, 253, 86, 284
-0.997567, 145, 377, 176, 440
-0.997575, 249, 225, 312, 288
-0.997583, 129, 397, 256, 428
-0.997598, 311, 273, 326, 304
-0.997599, 227, 277, 242, 308
-0.997603, 283, 177, 298, 240
-0.997607, 297, 177, 312, 240
-0.997613, 197, 121, 228, 184
-0.997616, 291, 337, 306, 400
-0.997623, 129, 249, 144, 280
-0.997634, 47, 361, 62, 424
-0.997634, 69, 369, 84, 432
-0.997662, 209, 213, 333, 244
-0.997671, 117, 209, 132, 272
-0.997676, 277, 337, 292, 400
-0.99771, 17, 49, 144, 112
-0.997711, 181, 257, 196, 288
-0.997724, 225, 97, 256, 352
-0.997724, 249, 1, 312, 256
-0.997725, 221, 401, 252, 464
-0.997728, 43, 201, 58, 264
-0.997728, 243, 269, 258, 300
-0.99773, 231, 249, 246, 312
-0.997731, 269, 273, 284, 304
-0.997741, 309, 241, 324, 304
-0.99775, 233, 73, 296, 136
-0.997751, 25, 225, 56, 480
-0.997753, 81, 81, 144, 208
-0.997756, 265, 97, 296, 352
-0.997757, 233, 385, 296, 448
-0.997767, 49, 365, 176, 396
-0.997767, 69, 201, 84, 264
-0.99777, 303, 169, 318, 232
-0.997771, 207, 209, 222, 272
-0.997772, 273, 81, 333, 144
-0.997773, 101, 209, 116, 272
-0.997774, 49, 397, 176, 428
-0.997794, 45, 225, 76, 480
-0.997803, 209, 57, 333, 120
-0.997816, 315, 337, 330, 400
-0.997818, 231, 369, 246, 432
-0.99782, 185, 1, 248, 256
-0.997824, 9, 113, 72, 176
-0.997829, 1, 329, 128, 392
-0.997831, 291, 177, 306, 240
-0.99784, 225, 81, 256, 208
-0.99784, 193, 337, 224, 464
-0.997841, 291, 281, 306, 312
-0.997852, 309, 169, 324, 232
-0.997864, 193, 97, 224, 352
-0.997869, 117, 225, 148, 480
-0.997871, 297, 337, 312, 400
-0.997879, 85, 249, 100, 280
-0.997887, 97, 225, 128, 480
-0.997889, 303, 241, 318, 304
-0.997896, 169, 261, 184, 292
-0.997896, 79, 249, 94, 280
-0.997901, 123, 241, 138, 272
-0.997903, 217, 161, 248, 224
-0.997905, 239, 233, 254, 296
-0.997906, 181, 269, 196, 300
-0.997911, 57, 225, 88, 480
-0.997914, 209, 253, 333, 284
-0.997914, 307, 329, 322, 392
-0.997915, 117, 241, 132, 272
-0.997918, 249, 249, 264, 312
-0.997921, 255, 177, 270, 240
-0.997924, 69, 161, 100, 416
-0.997928, 63, 385, 78, 448
-0.997929, 33, 217, 160, 248
-0.997931, 81, 261, 96, 292
-0.997931, 159, 201, 174, 264
-0.997931, 231, 225, 246, 288
-0.997942, 145, 365, 272, 396
-0.997953, 245, 361, 276, 424
-0.997957, 263, 177, 278, 240
-0.997958, 1, 153, 333, 216
-0.997964, 145, 281, 272, 344
-0.997967, 117, 161, 148, 224
-0.997968, 259, 201, 274, 264
-0.997977, 99, 241, 114, 272
-0.997978, 1, 401, 256, 464
-0.997996, 155, 269, 170, 300
-0.998011, 305, 281, 320, 312
-0.998018, 147, 265, 162, 296
-0.998026, 145, 161, 176, 416
-0.998028, 263, 281, 278, 312
-0.998043, 277, 97, 308, 352
-0.998049, 249, 281, 264, 312
-0.998054, 157, 177, 188, 240
-0.998055, 17, 233, 32, 264
-0.998058, 35, 241, 50, 272
-0.998061, 71, 241, 86, 272
-0.998061, 225, 1, 288, 256
-0.998064, 1, 321, 256, 384
-0.998067, 221, 397, 236, 428
-0.998071, 161, 49, 224, 112
-0.998073, 23, 245, 38, 276
-0.998086, 173, 97, 204, 352
-0.998121, 141, 257, 172, 500
-0.998123, 129, 381, 256, 412
-0.998128, 227, 401, 242, 432
-0.998128, 255, 273, 270, 304
-0.998129, 13, 249, 28, 280
-0.998133, 93, 253, 108, 284
-0.998135, 169, 273, 184, 304
-0.998137, 123, 253, 138, 284
-0.998137, 5, 225, 36, 480
-0.998139, 209, 257, 224, 288
-0.998142, 277, 273, 292, 304
-0.998143, 301, 145, 332, 208
-0.998152, 253, 341, 268, 372
-0.998152, 129, 161, 160, 288
-0.998163, 195, 253, 210, 284
-0.998164, 121, 229, 136, 260
-0.998176, 215, 281, 230, 312
-0.99818, 209, 269, 224, 300
-0.998194, 209, 381, 333, 412
-0.9982, 1, 89, 256, 152
-0.998205, 209, 169, 333, 200
-0.998212, 153, 257, 168, 288
-0.998227, 175, 257, 190, 288
-0.998231, 187, 253, 202, 284
-0.998232, 135, 253, 150, 284
-0.998247, 227, 261, 242, 292
-0.998254, 257, 285, 272, 316
-0.998256, 289, 265, 304, 296
-0.998257, 161, 241, 288, 272
-0.998261, 65, 329, 192, 392
-0.998266, 241, 97, 272, 352
-0.998266, 1, 241, 16, 272
-0.998266, 301, 267, 332, 282
-0.998267, 41, 253, 72, 268
-0.998269, 209, 293, 240, 308
-0.99827, 1, 367, 32, 382
-0.998271, 245, 343, 276, 358
-0.998271, 59, 385, 74, 416
-0.998272, 87, 261, 102, 292
-0.998272, 213, 257, 244, 272
-0.998272, 177, 391, 208, 406
-0.998273, 241, 293, 272, 308
-0.998274, 281, 471, 312, 486
-0.998274, 145, 225, 176, 240
-0.998275, 65, 371, 96, 386
-0.998276, 237, 269, 268, 284
-0.998277, 97, 97, 128, 352
-0.998277, 181, 361, 212, 376
-0.998278, 5, 233, 36, 248
-0.998278, 289, 301, 320, 316
-0.998279, 45, 385, 76, 400
-0.998279, 185, 369, 216, 384
-0.99828, 233, 363, 264, 378
-0.998282, 269, 301, 300, 316
-0.998284, 145, 205, 176, 220
-0.998284, 193, 391, 224, 406
-0.998286, 285, 341, 316, 356
-0.998287, 61, 379, 92, 394
-0.998287, 53, 391, 84, 406
-0.998288, 53, 373, 84, 388
-0.998288, 145, 401, 208, 464
-0.998289, 149, 259, 180, 274
-0.998289, 233, 343, 264, 358
-0.998289, 257, 343, 288, 358
-0.99829, 149, 371, 180, 386
-0.998291, 165, 369, 196, 384
-0.998291, 33, 241, 64, 256
-0.998293, 245, 365, 276, 380
-0.998293, 89, 237, 120, 252
-0.998293, 145, 199, 176, 214
-0.998294, 1, 185, 32, 248
-0.998294, 69, 237, 100, 252
-0.998295, 233, 263, 264, 278
-0.998298, 57, 345, 88, 408
-0.998298, 121, 239, 152, 254
-0.9983, 301, 291, 332, 306
-0.998302, 85, 243, 116, 258
-0.998303, 161, 379, 192, 394
-0.998305, 109, 257, 140, 272
-0.998305, 233, 287, 264, 302
-0.998306, 149, 379, 180, 394
-0.998307, 273, 263, 304, 278
-0.998309, 205, 359, 236, 374
-0.998312, 129, 129, 160, 384
-0.998312, 129, 225, 160, 480
-0.998313, 65, 129, 320, 192
-0.998316, 41, 235, 72, 250
-0.998316, 253, 293, 284, 308
-0.998319, 113, 233, 144, 248
-0.99832, 221, 345, 252, 360
-0.998322, 225, 289, 288, 352
-0.998322, 73, 245, 104, 260
-0.998324, 209, 287, 240, 302
-0.998325, 145, 277, 176, 292
-0.998326, 201, 277, 232, 292
-0.998328, 209, 275, 272, 290
-0.998329, 185, 275, 216, 290
-0.998331, 241, 275, 304, 290
-0.998332, 53, 397, 84, 412
-0.998333, 1, 257, 32, 272
-0.998336, 41, 373, 72, 388
-0.998336, 33, 259, 64, 274
-0.998338, 137, 251, 168, 266
-0.998339, 117, 263, 148, 278
-0.998342, 9, 265, 40, 280
-0.998345, 1, 245, 32, 260
-0.998348, 245, 359, 276, 374
-0.99835, 273, 145, 304, 208
-0.998353, 161, 281, 288, 312
-0.998355, 261, 263, 292, 278
-0.998356, 161, 101, 288, 132
-0.998356, 29, 253, 60, 268
-0.998357, 273, 293, 304, 308
-0.998357, 137, 259, 168, 274
-0.998359, 169, 263, 200, 278
-0.998361, 161, 181, 288, 212
-0.998365, 181, 253, 212, 268
-0.998367, 289, 291, 320, 306
-0.99837, 317, 285, 332, 316
-0.998371, 65, 261, 96, 276
-0.998371, 113, 153, 240, 184
-0.998373, 21, 263, 52, 278
-0.998373, 77, 265, 108, 280
-0.998374, 33, 205, 160, 236
-0.998374, 17, 257, 48, 272
-0.998375, 53, 369, 68, 400
-0.998376, 209, 281, 272, 296
-0.998377, 45, 241, 76, 256
-0.998382, 93, 257, 124, 272
-0.998384, 133, 271, 164, 286
-0.998384, 223, 345, 238, 376
-0.998386, 53, 251, 84, 266
-0.998393, 53, 257, 84, 272
-0.998395, 281, 271, 312, 286
-0.998396, 49, 237, 64, 268
-0.998396, 63, 373, 78, 404
-0.998396, 145, 265, 176, 280
-0.998397, 177, 269, 240, 284
-0.9984, 57, 243, 88, 258
-0.998401, 1, 221, 16, 252
-0.998401, 153, 1, 216, 128
-0.998403, 197, 397, 228, 412
-0.998403, 217, 409, 248, 424
-0.998413, 89, 255, 152, 270
-0.998416, 297, 273, 328, 288
-0.998416, 101, 237, 132, 252
-0.998419, 189, 259, 220, 274
-0.998421, 209, 269, 272, 284
-0.998421, 13, 239, 44, 254
-0.998423, 117, 245, 148, 260
-0.998424, 297, 285, 328, 300
-0.998425, 17, 251, 48, 266
-0.998426, 265, 287, 296, 302
-0.998426, 1, 251, 32, 266
-0.998428, 157, 265, 188, 280
-0.998429, 249, 267, 280, 282
-0.998433, 209, 401, 240, 416
-0.998438, 65, 255, 96, 270
-0.998441, 241, 269, 304, 284
-0.998442, 201, 259, 232, 274
-0.998444, 33, 247, 64, 262
-0.998445, 157, 277, 188, 292
-0.998453, 13, 245, 44, 260
-0.998454, 153, 267, 216, 282
-0.998461, 69, 381, 84, 412
-0.998461, 169, 97, 200, 224
-0.998462, 97, 249, 128, 264
-0.998465, 117, 251, 148, 266
-0.998466, 249, 281, 312, 296
-0.998468, 249, 281, 280, 296
-0.998473, 57, 253, 120, 268
-0.998473, 85, 225, 116, 480
-0.998473, 137, 261, 200, 276
-0.998473, 25, 251, 88, 266
-0.998474, 233, 281, 264, 296
-0.998474, 217, 263, 248, 278
-0.998479, 265, 275, 328, 290
-0.998479, 133, 377, 164, 440
-0.998482, 213, 281, 244, 296
-0.998487, 89, 249, 152, 264
-0.998489, 161, 169, 288, 200
-0.998492, 113, 97, 176, 224
-0.998492, 169, 275, 200, 290
-0.998494, 25, 257, 88, 272
-0.998494, 177, 263, 240, 278
-0.998496, 101, 393, 132, 456
-0.998496, 245, 287, 276, 302
-0.998499, 77, 259, 108, 274
-0.9985, 265, 287, 328, 302
-0.998502, 241, 113, 272, 240
-0.998503, 25, 245, 88, 260
-0.998505, 129, 265, 160, 280
-0.998506, 181, 269, 212, 284
-0.998506, 193, 357, 320, 388
-0.998509, 163, 257, 178, 288
-0.998512, 25, 233, 40, 264
-0.998516, 201, 249, 216, 280
-0.998518, 221, 281, 236, 312
-0.998518, 185, 81, 216, 144
-0.998518, 249, 275, 280, 290
-0.99852, 177, 277, 240, 292
-0.99852, 185, 169, 216, 232
-0.99853, 301, 279, 332, 294
-0.99853, 77, 251, 108, 266
-0.998531, 113, 33, 240, 96
-0.998531, 11, 221, 26, 252
-0.998531, 97, 243, 160, 258
-0.998532, 265, 269, 296, 284
-0.998533, 21, 257, 36, 288
-0.998535, 265, 341, 280, 372
-0.998535, 201, 271, 232, 286
-0.998537, 261, 145, 292, 208
-0.998537, 89, 237, 104, 268
-0.998544, 137, 273, 200, 288
-0.998546, 193, 133, 320, 164
-0.998547, 303, 265, 318, 296
-0.99855, 247, 341, 262, 372
-0.998551, 121, 267, 184, 282
-0.998552, 285, 277, 316, 292
-0.998552, 73, 239, 136, 254
-0.998558, 285, 289, 300, 320
-0.998558, 129, 353, 256, 384
-0.998561, 169, 269, 200, 284
-0.998562, 29, 249, 44, 280
-0.998562, 57, 247, 120, 262
-0.998565, 279, 261, 294, 292
-0.998572, 97, 261, 160, 276
-0.998572, 213, 275, 244, 290
-0.998573, 249, 65, 280, 192
-0.998573, 65, 253, 80, 284
-0.998574, 41, 237, 56, 268
-0.998577, 101, 243, 132, 258
-0.998579, 109, 225, 124, 256
-0.998584, 225, 269, 256, 284
-0.998586, 197, 265, 228, 280
-0.998586, 121, 257, 152, 272
-0.998587, 241, 263, 304, 278
-0.99859, 285, 283, 316, 298
-0.998592, 57, 259, 120, 274
-0.998597, 49, 377, 176, 408
-0.9986, 209, 287, 272, 302
-0.9986, 255, 353, 270, 384
-0.998601, 265, 269, 328, 284
-0.998604, 169, 257, 232, 272
-0.998605, 9, 237, 72, 252
-0.998608, 117, 129, 148, 384
-0.998609, 273, 281, 333, 296
-0.99861, 215, 397, 230, 428
-0.998612, 81, 129, 112, 384
-0.998614, 201, 263, 264, 278
-0.998616, 233, 405, 248, 436
-0.998617, 113, 249, 176, 264
-0.998619, 185, 399, 248, 414
-0.99862, 1, 245, 64, 260
-0.998622, 229, 341, 244, 372
-0.998623, 113, 235, 176, 250
-0.998624, 213, 385, 228, 416
-0.998624, 209, 361, 272, 376
-0.998627, 233, 277, 248, 308
-0.998627, 135, 241, 150, 272
-0.998634, 137, 255, 200, 270
-0.998636, 265, 281, 296, 296
-0.998639, 213, 269, 244, 284
-0.998639, 141, 249, 156, 280
-0.998652, 57, 233, 120, 248
-0.998654, 241, 287, 304, 302
-0.998654, 61, 229, 76, 260
-0.998656, 229, 275, 260, 290
-0.998656, 265, 275, 296, 290
-0.998658, 1, 251, 64, 266
-0.99866, 149, 271, 180, 286
-0.998662, 311, 289, 326, 320
-0.998662, 177, 397, 304, 428
-0.998664, 113, 255, 176, 270
-0.998664, 233, 343, 296, 358
-0.998665, 49, 265, 112, 280
-0.998667, 25, 263, 88, 278
-0.998669, 265, 293, 328, 308
-0.99867, 185, 283, 248, 298
-0.998671, 27, 261, 42, 292
-0.998671, 41, 129, 104, 192
-0.998672, 49, 241, 112, 256
-0.998677, 49, 401, 112, 416
-0.998678, 205, 97, 236, 160
-0.998678, 137, 249, 200, 264
-0.998679, 161, 369, 224, 384
-0.998682, 267, 261, 282, 292
-0.998683, 273, 263, 333, 278
-0.998688, 209, 345, 272, 360
-0.998688, 25, 81, 88, 208
-0.998688, 153, 203, 216, 218
-0.99869, 135, 229, 150, 260
-0.998691, 113, 229, 176, 244
-0.998692, 1, 257, 64, 272
-0.998696, 121, 243, 184, 258
-0.998698, 249, 353, 264, 384
-0.998701, 193, 411, 256, 426
-0.998702, 169, 393, 232, 408
-0.998703, 97, 267, 160, 282
-0.998704, 161, 197, 224, 212
-0.998704, 169, 251, 232, 266
-0.998705, 25, 373, 88, 388
-0.998705, 161, 97, 192, 352
-0.998707, 273, 191, 333, 206
-0.998709, 1, 265, 64, 280
-0.99871, 225, 293, 288, 308
-0.99871, 217, 367, 280, 382
-0.99871, 137, 225, 200, 240
-0.998711, 177, 361, 240, 376
-0.998711, 239, 341, 254, 372
-0.998713, 129, 209, 192, 224
-0.998713, 161, 231, 224, 246
-0.998715, 257, 307, 320, 322
-0.998716, 65, 369, 128, 384
-0.998717, 137, 279, 200, 294
-0.998717, 137, 381, 200, 396
-0.998719, 113, 273, 176, 288
-0.998719, 201, 257, 264, 272
-0.99872, 25, 391, 88, 406
-0.99872, 153, 241, 216, 256
-0.998721, 89, 367, 152, 382
-0.998721, 121, 371, 184, 386
-0.998722, 57, 213, 120, 228
-0.998723, 97, 365, 224, 396
-0.998723, 225, 355, 288, 370
-0.998724, 265, 341, 328, 356
-0.998724, 73, 265, 136, 280
-0.998726, 1, 371, 64, 386
-0.998726, 169, 113, 232, 128
-0.998727, 49, 395, 112, 410
-0.998727, 121, 365, 184, 380
-0.998728, 33, 235, 96, 250
-0.998728, 193, 235, 256, 250
-0.998728, 161, 225, 224, 240
-0.998728, 249, 361, 312, 376
-0.99873, 57, 375, 120, 390
-0.99873, 185, 367, 248, 382
-0.998731, 97, 211, 160, 226
-0.998732, 113, 165, 240, 196
-0.998732, 209, 173, 272, 188
-0.998733, 129, 215, 192, 230
-0.998733, 185, 245, 248, 260
-0.998733, 169, 209, 232, 224
-0.998734, 249, 207, 312, 222
-0.998735, 71, 229, 86, 260
-0.998735, 165, 337, 196, 400
-0.998736, 273, 205, 333, 220
-0.998737, 217, 227, 280, 242
-0.998738, 97, 221, 160, 236
-0.998738, 209, 219, 272, 234
-0.998739, 249, 215, 312, 230
-0.99874, 185, 221, 248, 236
-0.99874, 9, 231, 72, 246
-0.998741, 113, 159, 176, 174
-0.998741, 265, 197, 328, 212
-0.998741, 241, 301, 304, 316
-0.998741, 177, 215, 240, 230
-0.998741, 259, 341, 274, 372
-0.998742, 129, 203, 192, 218
-0.998746, 249, 181, 312, 196
-0.998746, 273, 185, 333, 200
-0.998747, 273, 471, 333, 486
-0.998747, 273, 211, 333, 226
-0.998747, 217, 409, 280, 424
-0.998747, 161, 399, 224, 414
-0.998748, 241, 221, 304, 236
-0.998749, 121, 359, 184, 374
-0.998751, 241, 367, 304, 382
-0.998751, 1, 377, 128, 408
-0.998751, 177, 177, 240, 192
-0.998751, 193, 197, 256, 212
-0.998752, 193, 107, 256, 122
-0.998752, 201, 149, 264, 164
-0.998752, 217, 179, 280, 194
-0.998753, 137, 231, 200, 246
-0.998754, 129, 167, 192, 182
-0.998754, 137, 153, 168, 216
-0.998757, 101, 145, 132, 208
-0.998766, 99, 253, 114, 284
-0.998767, 227, 385, 242, 416
-0.998771, 209, 245, 224, 276
-0.998772, 177, 113, 304, 144
-0.998776, 129, 237, 144, 268
-0.998781, 161, 157, 288, 188
-0.998785, 29, 221, 44, 252
-0.998786, 215, 209, 230, 336
-0.998786, 223, 209, 238, 336
-0.998789, 69, 257, 100, 500
-0.99879, 185, 389, 200, 420
-0.998791, 53, 97, 84, 352
-0.998795, 189, 81, 220, 208
-0.998801, 115, 225, 130, 256
-0.998801, 1, 365, 128, 396
-0.998802, 219, 293, 234, 324
-0.998805, 53, 249, 68, 280
-0.998811, 209, 293, 333, 324
-0.998812, 63, 361, 78, 392
-0.998813, 297, 257, 312, 384
-0.998814, 207, 393, 222, 424
-0.998827, 177, 365, 192, 396
-0.998832, 25, 97, 56, 352
-0.998842, 95, 229, 110, 260
-0.998843, 33, 409, 160, 440
-0.998844, 21, 269, 36, 300
-0.998848, 1, 337, 333, 400
-0.998852, 199, 393, 214, 424
-0.998853, 255, 273, 270, 400
-0.998853, 209, 329, 240, 392
-0.998854, 113, 193, 240, 224
-0.998858, 149, 277, 164, 308
-0.998864, 291, 273, 306, 400
-0.998869, 297, 265, 312, 296
-0.998871, 205, 209, 220, 336
-0.998883, 157, 201, 172, 232
-0.998884, 233, 257, 248, 384
-0.998887, 169, 361, 184, 392
-0.998891, 271, 241, 286, 368
-0.998896, 313, 257, 328, 384
-0.998898, 229, 209, 244, 336
-0.9989, 113, 33, 176, 288
-0.998903, 105, 177, 136, 240
-0.998906, 215, 253, 230, 284
-0.998912, 285, 337, 300, 368
-0.998914, 15, 369, 30, 400
-0.998915, 197, 237, 212, 268
-0.998918, 43, 249, 58, 280
-0.99892, 185, 209, 200, 336
-0.998924, 233, 313, 264, 376
-0.998925, 209, 145, 333, 176
-0.998931, 247, 273, 262, 400
-0.998941, 113, 177, 240, 208
-0.998941, 193, 9, 320, 72
-0.998946, 261, 273, 276, 400
-0.998947, 169, 209, 184, 336
-0.998948, 227, 257, 242, 384
-0.998949, 235, 209, 250, 336
-0.998953, 279, 193, 294, 320
-0.998954, 215, 257, 230, 384
-0.99896, 279, 257, 294, 384
-0.998965, 157, 209, 172, 336
-0.998969, 241, 257, 256, 384
-0.99897, 13, 97, 44, 352
-0.99898, 175, 209, 190, 336
-0.99898, 193, 209, 208, 336
-0.998983, 17, 109, 144, 140
-0.998989, 209, 101, 333, 132
-0.998996, 305, 273, 320, 400
-0.999003, 209, 129, 240, 192
-0.99901, 267, 193, 282, 320
-0.99901, 37, 97, 68, 352
-0.999018, 209, 329, 333, 360
-0.999028, 9, 337, 40, 464
-0.999034, 163, 225, 178, 352
-0.999035, 89, 1, 152, 256
-0.999036, 217, 49, 280, 176
-0.999037, 145, 225, 160, 352
-0.999039, 157, 337, 188, 464
-0.999044, 285, 273, 300, 400
-0.999049, 287, 193, 302, 320
-0.999051, 113, 341, 240, 372
-0.999053, 157, 257, 172, 384
-0.99906, 179, 257, 194, 384
-0.999063, 1, 397, 128, 428
-0.999064, 1, 265, 128, 296
-0.999066, 251, 209, 266, 336
-0.999071, 199, 209, 214, 336
-0.999073, 33, 141, 160, 172
-0.999077, 241, 193, 256, 320
-0.999083, 151, 209, 166, 336
-0.999088, 65, 153, 192, 184
-0.99909, 205, 257, 220, 384
-0.999095, 89, 417, 152, 480
-0.999099, 33, 25, 160, 88
-0.999102, 21, 193, 36, 320
-0.999107, 221, 273, 236, 400
-0.999108, 189, 257, 204, 384
-0.999117, 273, 193, 288, 320
-0.999139, 173, 257, 188, 384
-0.99915, 257, 209, 272, 336
-0.999155, 1, 65, 256, 128
-0.999157, 49, 193, 176, 224
-0.999158, 1, 129, 32, 384
-0.999161, 97, 121, 224, 152
-0.999163, 97, 141, 224, 172
-0.999164, 161, 89, 288, 120
-0.999165, 235, 321, 250, 448
-0.999171, 65, 165, 192, 196
-0.999173, 7, 193, 22, 320
-0.999174, 307, 193, 322, 320
-0.999176, 61, 225, 76, 352
-0.999181, 195, 257, 210, 384
-0.999183, 65, 129, 96, 256
-0.99919, 151, 257, 166, 384
-0.999195, 137, 209, 152, 336
-0.999197, 297, 193, 312, 320
-0.9992, 49, 125, 176, 156
-0.999205, 33, 353, 160, 384
-0.999214, 229, 321, 244, 448
-0.999226, 209, 157, 333, 188
-0.999246, 163, 177, 178, 304
-0.999247, 317, 177, 332, 304
-0.999248, 113, 337, 144, 464
-0.999253, 17, 97, 144, 128
-0.999255, 81, 353, 208, 384
-0.999259, 95, 225, 110, 352
-0.999268, 33, 225, 48, 352
-0.999269, 69, 225, 84, 352
-0.999271, 15, 193, 30, 320
-0.999274, 69, 177, 84, 304
-0.999282, 209, 369, 333, 400
-0.999297, 75, 193, 90, 320
-0.999301, 127, 241, 142, 368
-0.999307, 271, 321, 286, 448
-0.999309, 223, 337, 238, 464
-0.99931, 269, 369, 300, 496
-0.999311, 113, 225, 128, 352
-0.999314, 1, 193, 16, 320
-0.99932, 89, 177, 104, 304
-0.999324, 39, 193, 54, 320
-0.999334, 1, 89, 333, 152
-0.999336, 97, 97, 224, 128
-0.999339, 161, 145, 288, 176
-0.999341, 169, 305, 232, 432
-0.999346, 271, 129, 286, 256
-0.999347, 27, 193, 42, 320
-0.999348, 101, 225, 116, 352
-0.999354, 297, 321, 312, 448
-0.999356, 281, 321, 296, 448
-0.999359, 145, 409, 272, 440
-0.999362, 81, 409, 208, 440
-0.999364, 143, 177, 158, 304
-0.999364, 81, 241, 96, 368
-0.999373, 289, 65, 320, 320
-0.999377, 87, 241, 102, 368
-0.999378, 17, 85, 144, 116
-0.999383, 49, 193, 64, 320
-0.999389, 315, 321, 330, 448
-0.999392, 131, 193, 146, 320
-0.9994, 41, 329, 104, 392
-0.999401, 63, 177, 78, 304
-0.999406, 97, 85, 224, 116
-0.999408, 95, 177, 110, 304
-0.999411, 303, 321, 318, 448
-0.999413, 287, 321, 302, 448
-0.999416, 309, 321, 324, 448
-0.999422, 107, 161, 122, 288
-0.999422, 13, 241, 28, 368
-0.999426, 23, 257, 38, 384
-0.99943, 17, 421, 144, 452
-0.999435, 17, 153, 144, 184
-0.999436, 55, 225, 70, 352
-0.999444, 137, 257, 152, 384
-0.999444, 33, 177, 48, 304
-0.999449, 265, 321, 280, 448
-0.999453, 247, 321, 262, 448
-0.999457, 107, 225, 122, 352
-0.99946, 125, 193, 140, 320
-0.999463, 119, 177, 134, 304
-0.999463, 229, 161, 244, 288
-0.999466, 33, 113, 64, 240
-0.999472, 101, 161, 116, 288
-0.999474, 85, 129, 116, 256
-0.999475, 81, 193, 96, 320
-0.999475, 259, 321, 274, 448
-0.99948, 161, 341, 288, 372
-0.999483, 119, 241, 134, 368
-0.999495, 287, 129, 302, 256
-0.9995, 57, 177, 72, 304
-0.999511, 301, 65, 332, 320
-0.999511, 65, 177, 192, 208
-0.999519, 113, 177, 128, 304
-0.999521, 299, 145, 314, 272
-0.999522, 293, 129, 308, 256
-0.999522, 213, 353, 228, 368
-0.999522, 99, 247, 114, 262
-0.999523, 209, 359, 224, 374
-0.999524, 251, 343, 266, 358
-0.999525, 117, 255, 132, 270
-0.999526, 97, 259, 112, 274
-0.999531, 241, 321, 256, 448
-0.999531, 209, 337, 224, 464
-0.999533, 285, 307, 300, 322
-0.999535, 13, 251, 28, 266
-0.999535, 15, 239, 30, 254
-0.999535, 137, 255, 152, 270
-0.999538, 219, 145, 234, 272
-0.999538, 221, 289, 236, 304
-0.999539, 111, 233, 126, 248
-0.99954, 265, 271, 280, 286
-0.999542, 59, 383, 74, 398
-0.999542, 59, 395, 74, 410
-0.999544, 71, 245, 86, 260
-0.999547, 255, 355, 270, 370
-0.999547, 57, 371, 72, 386
-0.999553, 307, 129, 322, 256
-0.999553, 129, 247, 144, 262
-0.999554, 1, 247, 16, 262
-0.999554, 209, 161, 224, 288
-0.999555, 21, 267, 36, 282
-0.999556, 247, 359, 262, 374
-0.999556, 87, 251, 102, 266
-0.999557, 125, 259, 140, 274
-0.999557, 117, 249, 132, 264
-0.999558, 57, 97, 120, 224
-0.999561, 223, 349, 238, 364
-0.999561, 289, 271, 304, 286
-0.999561, 185, 263, 200, 278
-0.999561, 145, 77, 272, 108
-0.999562, 221, 269, 236, 284
-0.999562, 235, 369, 250, 496
-0.999562, 277, 129, 292, 256
-0.999562, 91, 263, 106, 278
-0.999562, 1, 237, 16, 252
-0.999564, 75, 241, 90, 368
-0.999566, 249, 129, 264, 256
-0.999567, 161, 265, 176, 280
-0.999568, 285, 287, 300, 302
-0.999568, 311, 291, 326, 306
-0.999568, 53, 353, 68, 480
-0.999568, 285, 293, 300, 308
-0.999568, 211, 397, 226, 412
-0.999569, 217, 295, 232, 310
-0.999569, 99, 253, 114, 268
-0.99957, 63, 377, 78, 392
-0.99957, 81, 267, 96, 282
-0.999572, 291, 293, 306, 308
-0.999572, 191, 273, 206, 288
-0.999573, 285, 301, 300, 316
-0.999573, 185, 275, 200, 290
-0.999573, 257, 129, 272, 256
-0.999574, 117, 243, 132, 258
-0.999575, 299, 273, 314, 288
-0.999575, 37, 247, 52, 262
-0.999575, 23, 253, 38, 268
-0.999576, 151, 275, 166, 290
-0.999577, 227, 267, 242, 282
-0.99958, 297, 285, 312, 300
-0.99958, 209, 271, 224, 286
-0.999581, 1, 129, 128, 160
-0.999582, 169, 265, 184, 280
-0.999582, 183, 161, 198, 288
-0.999583, 303, 285, 318, 300
-0.999583, 217, 337, 232, 464
-0.999585, 235, 161, 250, 288
-0.999587, 243, 271, 258, 286
-0.999588, 61, 249, 76, 264
-0.999588, 317, 129, 332, 256
-0.999588, 167, 273, 182, 400
-0.999588, 161, 293, 288, 324
-0.99959, 291, 307, 306, 322
-0.999591, 291, 301, 306, 316
-0.999591, 47, 241, 62, 368
-0.999592, 63, 255, 78, 270
-0.999593, 79, 253, 94, 268
-0.999595, 217, 399, 232, 414
-0.9996, 233, 277, 248, 292
-0.9996, 131, 259, 146, 274
-0.999601, 317, 287, 332, 302
-0.999602, 223, 401, 238, 416
-0.999602, 145, 271, 160, 286
-0.999602, 21, 261, 36, 276
-0.999603, 251, 289, 266, 304
-0.999604, 177, 267, 192, 282
-0.999606, 265, 129, 280, 256
-0.999607, 209, 285, 224, 300
-0.999607, 265, 287, 280, 302
-0.999612, 151, 263, 166, 278
-0.999612, 207, 257, 222, 272
-0.999613, 293, 277, 308, 292
-0.999613, 227, 287, 242, 302
-0.999619, 209, 469, 333, 500
-0.999625, 183, 337, 198, 464
-0.999625, 63, 243, 78, 258
-0.999626, 195, 161, 210, 288
-0.999628, 229, 409, 244, 424
-0.999628, 137, 261, 152, 276
-0.999629, 215, 275, 230, 290
-0.999634, 203, 337, 218, 464
-0.999634, 257, 291, 272, 306
-0.999637, 217, 263, 232, 278
-0.999638, 189, 337, 204, 464
-0.999638, 245, 277, 260, 292
-0.999638, 61, 369, 76, 496
-0.999639, 305, 279, 320, 294
-0.999641, 193, 33, 320, 96
-0.999641, 145, 125, 272, 156
-0.999642, 113, 109, 240, 140
-0.999642, 47, 337, 62, 464
-0.999643, 69, 251, 84, 266
-0.999645, 17, 169, 144, 200
-0.999645, 309, 273, 324, 288
-0.999646, 165, 273, 180, 288
-0.99965, 171, 277, 186, 292
-0.99965, 189, 161, 204, 288
-0.999651, 241, 145, 256, 272
-0.999655, 269, 279, 284, 294
-0.999658, 123, 245, 138, 260
-0.999658, 199, 259, 214, 274
-0.99966, 81, 329, 144, 392
-0.99966, 291, 287, 306, 302
-0.99966, 1, 185, 128, 216
-0.999661, 247, 283, 262, 298
-0.999664, 89, 257, 104, 272
-0.999665, 81, 261, 96, 276
-0.999666, 237, 265, 252, 280
-0.999667, 281, 281, 296, 296
-0.999669, 287, 277, 302, 292
-0.999669, 257, 281, 272, 296
-0.999671, 111, 239, 126, 254
-0.999674, 153, 269, 168, 284
-0.999675, 75, 259, 90, 274
-0.999677, 183, 269, 198, 284
-0.999681, 277, 271, 292, 286
-0.999685, 309, 285, 324, 300
-0.999686, 171, 271, 186, 286
-0.999688, 221, 275, 236, 290
-0.999689, 105, 239, 120, 254
-0.999689, 215, 289, 230, 304
-0.999692, 177, 161, 192, 288
-0.999692, 271, 273, 286, 288
-0.9997, 143, 265, 158, 280
-0.999701, 227, 273, 242, 288
-0.999709, 69, 257, 84, 272
-0.999709, 313, 279, 328, 294
-0.99971, 121, 49, 184, 112
-0.999711, 203, 269, 218, 284
-0.999714, 317, 269, 332, 284
-0.99972, 213, 65, 244, 192
-0.999722, 123, 253, 138, 268
-0.999729, 7, 243, 22, 258
-0.999733, 227, 279, 242, 294
-0.999743, 217, 283, 232, 298
-0.999743, 299, 279, 314, 294
-0.999747, 129, 329, 256, 360
-0.999753, 129, 253, 144, 268
-0.999762, 159, 271, 174, 286
-0.999763, 191, 267, 206, 282
-0.999771, 177, 273, 192, 288
-0.999773, 81, 337, 144, 464
-0.999777, 69, 65, 100, 320
-0.999778, 215, 269, 230, 284
-0.999779, 97, 73, 224, 104
-0.999781, 197, 267, 212, 282
-0.999788, 177, 409, 240, 472
-0.999791, 209, 89, 333, 120
-0.999793, 211, 263, 226, 278
-0.999795, 273, 265, 288, 280
-0.999798, 205, 263, 220, 278
-0.999801, 201, 81, 232, 208
-0.999811, 237, 271, 252, 286
-0.999811, 193, 409, 320, 440
-0.999834, 193, 1, 224, 256
-0.999839, 113, 9, 240, 72
-0.999883, 17, 73, 144, 104
-0.999885, 265, 1, 296, 256
-0.999903, 253, 1, 284, 256
-0.999925, 205, 33, 236, 288
-0.999928, 209, 77, 333, 108
-0.999944, 81, 61, 208, 92
-0.999948, 65, 421, 192, 452
-0.999957, 169, 313, 232, 376
-0.999989, 113, 281, 240, 312
-0.999992, 89, 65, 152, 128
-0.999997, 49, 1, 176, 64
-1.00003, 41, 153, 104, 216
-1.00003, 209, 457, 333, 488
-1.00003, 17, 145, 80, 208
-1.00005, 1, 401, 333, 464
-1.00006, 281, 369, 312, 496
-1.00006, 209, 309, 333, 340
-1.00007, 277, 1, 308, 256
-1.00007, 141, 65, 172, 320
-1.00007, 33, 41, 288, 104
-1.0001, 273, 81, 304, 208
-1.00011, 161, 1, 192, 256
-1.00011, 209, 61, 333, 92
-1.00012, 73, 89, 136, 152
-1.00013, 121, 401, 184, 464
-1.00013, 1, 61, 128, 92
-1.00014, 161, 65, 288, 96
-1.00015, 109, 33, 140, 288
-1.00016, 237, 369, 268, 496
-1.00017, 297, 369, 328, 496
-1.00019, 65, 113, 128, 176
-1.00026, 33, 441, 160, 472
-1.00027, 65, 109, 192, 140
-1.00028, 129, 53, 256, 84
-1.00031, 233, 1, 264, 256
-1.00031, 145, 33, 272, 64
-1.00031, 121, 33, 152, 288
-1.00034, 1, 129, 333, 192
-1.00035, 17, 49, 144, 80
-1.00035, 177, 17, 304, 48
-1.00036, 173, 1, 204, 256
-1.00036, 65, 297, 320, 360
-1.00036, 65, 49, 192, 80
-1.0004, 49, 37, 176, 68
-1.0004, 113, 425, 240, 456
-1.00043, 21, 65, 52, 192
-1.00043, 193, 33, 320, 64
-1.00046, 53, 1, 84, 256
-1.00046, 177, 421, 304, 452
-1.00047, 97, 1, 128, 256
-1.00048, 177, 49, 304, 80
-1.0005, 177, 49, 208, 176
-1.0005, 65, 17, 192, 48
-1.00052, 97, 37, 224, 68
-1.00053, 81, 437, 208, 468
-1.00054, 113, 293, 240, 324
-1.00055, 129, 17, 256, 48
-1.00056, 217, 1, 248, 256
-1.00057, 161, 457, 288, 488
-1.00057, 17, 469, 144, 500
-1.00059, 129, 1, 256, 32
-1.0006, 81, 33, 112, 288
-1.00063, 61, 321, 92, 448
-1.00063, 1, 1, 128, 32
-1.00063, 33, 337, 160, 368
-1.00064, 17, 25, 144, 56
-1.00064, 237, 65, 268, 192
-1.00066, 33, 97, 96, 160
-1.00066, 193, 5, 320, 36
-1.00068, 1, 1, 256, 64
-1.00069, 81, 425, 208, 488
-1.00069, 1, 37, 128, 68
-1.00069, 157, 49, 188, 176
-1.0007, 1, 97, 64, 224
-1.0007, 177, 433, 304, 464
-1.00071, 49, 5, 176, 36
-1.00073, 25, 1, 88, 256
-1.00078, 33, 425, 160, 488
-1.00078, 261, 81, 292, 208
-1.00081, 301, 81, 332, 208
-1.00086, 69, 369, 100, 496
-1.00092, 41, 1, 72, 256
-1.00095, 29, 1, 60, 256
-1.00096, 53, 113, 84, 240
-1.00098, 1, 313, 333, 376
-1.00099, 125, 337, 156, 464
-1.00099, 209, 433, 333, 496
-1.00099, 1, 1, 128, 64
-1.00103, 49, 49, 112, 176
-1.00116, 101, 97, 132, 224
-1.0012, 13, 1, 44, 256
-1.00122, 33, 65, 64, 192
-1.00123, 161, 25, 224, 88
-1.00123, 1, 425, 256, 488
-1.00123, 161, 305, 288, 368
-1.00124, 117, 129, 148, 256
-1.00124, 1, 33, 32, 288
-1.00133, 97, 89, 160, 152
-1.00135, 101, 337, 132, 464
-1.00136, 129, 1, 192, 128
-1.00147, 21, 113, 52, 240
-1.00148, 1, 65, 333, 128
-1.00154, 161, 1, 192, 128
-1.00154, 121, 49, 152, 176
-1.00158, 253, 369, 284, 496
-1.00178, 25, 73, 88, 136
-1.00179, 157, 113, 188, 240
-1.00182, 25, 409, 88, 472
-1.00185, 1, 41, 333, 104
-1.00185, 241, 49, 304, 112
-1.00188, 81, 1, 144, 128
-1.00195, 1, 89, 64, 152
-1.00195, 269, 33, 300, 160
-1.00197, 41, 289, 72, 416
-1.00197, 201, 1, 264, 128
-1.00199, 33, 281, 160, 344
-1.002, 133, 49, 164, 176
-1.0021, 17, 289, 80, 416
-1.00213, 185, 41, 248, 104
-1.00216, 49, 425, 112, 488
-1.00216, 109, 49, 140, 176
-1.00217, 85, 369, 116, 496
-1.00218, 97, 41, 160, 104
-1.00222, 137, 113, 168, 240
-1.00228, 137, 337, 168, 464
-1.0023, 1, 17, 333, 80
-1.00232, 41, 49, 104, 112
-1.00236, 121, 113, 184, 176
-1.00243, 285, 81, 316, 208
-1.00245, 145, 49, 176, 176
-1.00248, 121, 25, 184, 88
-1.00248, 149, 1, 180, 128
-1.0025, 45, 65, 76, 192
-1.00252, 209, 41, 272, 104
-1.00253, 65, 49, 128, 112
-1.00253, 285, 33, 316, 160
-1.00258, 161, 425, 288, 488
-1.00266, 17, 33, 80, 160
-1.00272, 1, 289, 333, 352
-1.00272, 225, 1, 288, 128
-1.0028, 81, 297, 208, 360
-1.00286, 33, 305, 160, 368
-1.00291, 205, 17, 236, 144
-1.00297, 85, 81, 116, 208
-1.00313, 249, 17, 280, 144
-1.00329, 173, 1, 204, 128
-1.00337, 1, 425, 333, 488
-1.00341, 97, 1, 128, 128
-1.00342, 21, 17, 52, 144
-1.00345, 65, 81, 96, 208
-1.00362, 249, 17, 312, 144
-1.0046, 177, 1, 240, 128
-1.00473, 57, 289, 120, 416
-1.00506, 41, 1, 104, 128
-1.00542, 105, 1, 168, 128
-1.00681, 1, 1, 64, 256
-1.00934, 113, 289, 176, 416
-1.01009, 81, 289, 144, 416
