1947
-0.330603, 1, 1, 500, 256
-0.463813, 1, 1, 500, 375
-0.489614, 1, 129, 500, 375
-0.518105, 257, 1, 500, 375
-0.594791, 257, 1, 500, 256
-0.636936, 1, 1, 256, 375
-0.671897, 161, 1, 416, 375
-0.704031, 33, 1, 288, 256
-0.712486, 161, 1, 416, 256
-0.779229, 193, 129, 448, 375
-0.799069, 1, 129, 256, 375
-0.830983, 97, 129, 352, 375
-0.848364, 353, 1, 480, 375
-0.862956, 353, 1, 480, 256
-0.882118, 81, 1, 208, 256
-0.886049, 369, 129, 496, 375
-0.888554, 273, 1, 400, 256
-0.891245, 33, 1, 160, 256
-0.891262, 193, 1, 320, 256
-0.891508, 49, 1, 176, 375
-0.891748, 129, 1, 256, 256
-0.900315, 1, 1, 500, 128
-0.902022, 97, 1, 224, 375
-0.905608, 209, 1, 336, 375
-0.907602, 305, 1, 432, 375
-0.909274, 145, 1, 272, 375
-0.909811, 81, 129, 208, 375
-0.91117, 1, 209, 500, 336
-0.91117, 129, 129, 256, 375
-0.913351, 1, 1, 128, 375
-0.915886, 241, 129, 368, 375
-0.917204, 1, 145, 500, 272
-0.917467, 257, 1, 384, 375
-0.917606, 33, 129, 160, 375
-0.924145, 1, 81, 500, 208
-0.926561, 193, 129, 320, 375
-0.929318, 321, 97, 448, 352
-0.935193, 433, 113, 496, 240
-0.936747, 433, 161, 496, 288
-0.938073, 193, 1, 448, 128
-0.941764, 433, 241, 496, 368
-0.941886, 257, 225, 500, 352
-0.942101, 433, 49, 496, 176
-0.943682, 1, 1, 256, 128
-0.94518, 369, 113, 496, 240
-0.949163, 369, 161, 496, 288
-0.949451, 369, 209, 496, 336
-0.951086, 257, 49, 500, 176
-0.951751, 97, 1, 352, 128
-0.952201, 433, 201, 496, 264
-0.953323, 1, 209, 256, 336
-0.953615, 401, 17, 464, 144
-0.955684, 369, 65, 496, 192
-0.956874, 425, 1, 488, 128
-0.957371, 409, 161, 472, 288
-0.957828, 257, 145, 500, 272
-0.957958, 409, 97, 472, 224
-0.958529, 433, 121, 496, 184
-0.959024, 417, 49, 480, 112
-0.96001, 169, 297, 232, 360
-0.96003, 401, 209, 464, 336
-0.960242, 337, 17, 464, 144
-0.961506, 161, 209, 416, 336
-0.961656, 161, 145, 416, 272
-0.961914, 257, 1, 384, 128
-0.962669, 137, 297, 200, 360
-0.962673, 97, 65, 352, 192
-0.962938, 417, 25, 480, 88
-0.96313, 1, 161, 256, 288
-0.963455, 257, 97, 500, 224
-0.964068, 145, 1, 272, 128
-0.964666, 433, 169, 496, 232
-0.964977, 433, 73, 496, 136
-0.965521, 145, 145, 208, 272
-0.96558, 469, 113, 500, 240
-0.966203, 113, 297, 176, 360
-0.966242, 469, 161, 500, 288
-0.966271, 145, 161, 208, 224
-0.966318, 401, 209, 464, 272
-0.966512, 193, 297, 256, 360
-0.966626, 217, 297, 280, 360
-0.966748, 321, 1, 384, 128
-0.966917, 433, 233, 496, 296
-0.966974, 17, 209, 144, 336
-0.967903, 65, 17, 192, 144
-0.968075, 289, 1, 352, 128
-0.96826, 453, 113, 484, 240
-0.968332, 97, 225, 224, 352
-0.968384, 193, 1, 320, 128
-0.968428, 385, 81, 448, 208
-0.968865, 17, 1, 144, 128
-0.969013, 401, 81, 464, 144
-0.969047, 249, 297, 312, 360
-0.969465, 453, 161, 484, 288
-0.969608, 145, 209, 272, 336
-0.969669, 353, 17, 416, 144
-0.96981, 273, 297, 336, 360
-0.96982, 1, 209, 64, 336
-0.970331, 81, 297, 144, 360
-0.970626, 461, 129, 492, 192
-0.971154, 321, 225, 448, 352
-0.971174, 449, 209, 480, 336
-0.971316, 113, 145, 240, 272
-0.971705, 193, 1, 256, 128
-0.97171, 153, 1, 216, 128
-0.971794, 1, 97, 256, 224
-0.971805, 401, 1, 464, 256
-0.972105, 169, 169, 232, 232
-0.972208, 433, 129, 496, 375
-0.972293, 249, 1, 312, 128
-0.972615, 377, 17, 440, 144
-0.972651, 321, 81, 448, 208
-0.972849, 433, 1, 496, 256
-0.972942, 469, 1, 500, 128
-0.973098, 361, 17, 424, 80
-0.973177, 297, 297, 360, 360
-0.973243, 425, 297, 488, 360
-0.973376, 453, 33, 484, 160
-0.97347, 161, 65, 288, 192
-0.973523, 393, 25, 456, 88
-0.97355, 89, 1, 152, 128
-0.973557, 433, 97, 496, 160
-0.973833, 465, 209, 496, 272
-0.973868, 49, 145, 176, 272
-0.973987, 169, 145, 232, 272
-0.974173, 49, 1, 112, 128
-0.974219, 433, 145, 496, 208
-0.97422, 377, 209, 440, 336
-0.974334, 433, 257, 496, 320
-0.974504, 401, 233, 464, 296
-0.974594, 441, 161, 472, 288
-0.974857, 225, 1, 288, 128
-0.974991, 445, 209, 476, 272
-0.975034, 469, 49, 500, 112
-0.975119, 409, 113, 472, 176
-0.975189, 465, 241, 496, 368
-0.975304, 1, 289, 64, 352
-0.975375, 17, 1, 80, 128
-0.975533, 321, 297, 384, 360
-0.975553, 113, 81, 240, 208
-0.975748, 161, 297, 288, 360
-0.975802, 361, 65, 424, 192
-0.975984, 469, 49, 500, 176
-0.975993, 25, 209, 88, 336
-0.976041, 177, 297, 208, 360
-0.976266, 193, 209, 320, 336
-0.97635, 129, 1, 192, 128
-0.976443, 157, 153, 188, 216
-0.976513, 209, 297, 336, 360
-0.976541, 177, 65, 240, 192
-0.976628, 121, 169, 184, 232
-0.976655, 401, 289, 464, 352
-0.976854, 409, 137, 472, 200
-0.976914, 113, 297, 240, 360
-0.977033, 105, 209, 168, 336
-0.977221, 57, 297, 120, 360
-0.977453, 353, 297, 416, 360
-0.977521, 49, 209, 112, 336
-0.977595, 369, 209, 496, 272
-0.977664, 449, 129, 480, 192
-0.977691, 249, 65, 312, 192
-0.977697, 65, 297, 192, 360
-0.977706, 321, 145, 448, 272
-0.977731, 121, 145, 184, 272
-0.977736, 437, 241, 468, 368
-0.977807, 157, 297, 188, 360
-0.977915, 453, 89, 484, 152
-0.978069, 153, 209, 216, 336
-0.978111, 189, 297, 220, 360
-0.978147, 1, 49, 256, 176
-0.978165, 153, 97, 216, 224
-0.97827, 201, 1, 264, 256
-0.978276, 161, 145, 288, 272
-0.978313, 321, 17, 384, 80
-0.978356, 377, 297, 440, 360
-0.978368, 393, 185, 456, 248
-0.978643, 353, 209, 416, 336
-0.978652, 201, 297, 232, 360
-0.978668, 9, 33, 72, 96
-0.978748, 273, 209, 400, 336
-0.978818, 217, 65, 280, 192
-0.978983, 257, 1, 320, 256
-0.9792, 193, 209, 256, 336
-0.979331, 81, 209, 144, 336
-0.979394, 361, 1, 424, 256
-0.979705, 213, 297, 244, 360
-0.979726, 145, 297, 176, 360
-0.979823, 129, 209, 192, 336
-0.979832, 273, 65, 336, 192
-0.979961, 369, 129, 496, 192
-0.979966, 437, 113, 468, 240
-0.980045, 437, 25, 468, 88
-0.980228, 105, 1, 168, 256
-0.980228, 281, 1, 344, 256
-0.980287, 453, 169, 484, 232
-0.980396, 33, 289, 96, 352
-0.980478, 457, 9, 488, 72
-0.980677, 225, 297, 256, 360
-0.980698, 145, 193, 208, 256
-0.980712, 377, 209, 440, 272
-0.980721, 129, 273, 192, 336
-0.980791, 145, 161, 176, 224
-0.980944, 41, 17, 104, 80
-0.980945, 273, 65, 400, 192
-0.980946, 81, 1, 144, 256
-0.981003, 469, 233, 500, 296
-0.981015, 257, 209, 320, 336
-0.981051, 113, 161, 240, 224
-0.981076, 313, 209, 376, 336
-0.981127, 297, 17, 360, 80
-0.981152, 129, 297, 160, 360
-0.981176, 257, 297, 384, 360
-0.981178, 209, 65, 336, 192
-0.981188, 49, 41, 112, 104
-0.981223, 457, 233, 488, 296
-0.981244, 305, 1, 368, 256
-0.981255, 413, 41, 444, 104
-0.981316, 145, 1, 208, 256
-0.981344, 169, 161, 200, 224
-0.981351, 441, 1, 472, 128
-0.981418, 433, 1, 496, 64
-0.981493, 1, 9, 64, 72
-0.98158, 353, 25, 480, 88
-0.981707, 1, 265, 64, 328
-0.981852, 453, 49, 484, 112
-0.982166, 353, 105, 480, 168
-0.982219, 417, 33, 448, 160
-0.982264, 273, 145, 400, 272
-0.982285, 1, 209, 32, 336
-0.98236, 33, 97, 160, 224
-0.982404, 429, 161, 460, 288
-0.982428, 469, 89, 500, 152
-0.982462, 377, 73, 440, 136
-0.982484, 9, 57, 72, 120
-0.982508, 225, 209, 288, 336
-0.982544, 401, 81, 432, 144
-0.982573, 401, 265, 464, 328
-0.982613, 153, 273, 216, 336
-0.982716, 353, 217, 416, 280
-0.982759, 81, 17, 144, 80
-0.982887, 369, 297, 496, 360
-0.982956, 385, 145, 448, 272
-0.983015, 33, 313, 96, 375
-0.983058, 237, 297, 268, 360
-0.983079, 469, 9, 500, 72
-0.983162, 305, 297, 432, 360
-0.983194, 261, 297, 292, 360
-0.983219, 17, 297, 144, 360
-0.983287, 249, 273, 312, 336
-0.983306, 281, 225, 344, 352
-0.983332, 117, 297, 148, 360
-0.983352, 249, 297, 280, 360
-0.983398, 329, 1, 392, 256
-0.983511, 49, 1, 112, 256
-0.983528, 441, 49, 472, 112
-0.983548, 169, 145, 200, 272
-0.983554, 401, 17, 432, 144
-0.983644, 465, 169, 496, 232
-0.983804, 297, 81, 360, 144
-0.98381, 169, 1, 232, 256
-0.983816, 293, 297, 324, 360
-0.983889, 169, 145, 232, 208
-0.983893, 421, 17, 452, 80
-0.983966, 409, 1, 472, 375
-0.984029, 281, 297, 312, 360
-0.984061, 185, 193, 248, 256
-0.984091, 209, 273, 272, 336
-0.984202, 177, 273, 240, 336
-0.984303, 353, 233, 480, 296
-0.984352, 145, 129, 208, 375
-0.984368, 393, 49, 456, 112
-0.984512, 305, 81, 368, 208
-0.984527, 445, 249, 476, 312
-0.984533, 361, 49, 424, 112
-0.984569, 369, 185, 496, 248
-0.984593, 393, 17, 424, 80
-0.984661, 1, 145, 128, 272
-0.984699, 305, 17, 432, 80
-0.984876, 1, 41, 128, 104
-0.984948, 149, 145, 180, 272
-0.98496, 193, 145, 256, 272
-0.985, 121, 81, 184, 144
-0.985016, 129, 185, 256, 248
-0.985124, 105, 297, 136, 360
-0.985129, 65, 153, 192, 216
-0.98514, 433, 201, 464, 264
-0.98515, 409, 129, 472, 375
-0.985191, 429, 17, 460, 144
-0.985204, 1, 313, 64, 375
-0.985221, 305, 297, 336, 360
-0.985414, 1, 265, 32, 328
-0.985444, 385, 105, 448, 168
-0.985495, 369, 273, 496, 336
-0.985564, 361, 129, 424, 256
-0.985602, 337, 49, 464, 112
-0.985608, 401, 41, 432, 104
-0.985622, 305, 273, 368, 336
-0.985674, 49, 65, 112, 192
-0.985734, 73, 65, 136, 192
-0.985736, 153, 73, 216, 136
-0.985747, 317, 297, 348, 360
-0.985828, 65, 33, 96, 96
-0.985865, 193, 65, 256, 128
-0.985872, 273, 273, 336, 336
-0.985875, 265, 81, 328, 144
-0.985883, 441, 297, 472, 360
-0.985922, 1, 81, 64, 144
-0.985954, 353, 81, 480, 144
-0.985966, 1, 1, 64, 256
-0.985968, 425, 209, 456, 336
-0.986055, 457, 297, 488, 360
-0.986063, 329, 1, 360, 128
-0.986108, 413, 65, 444, 128
-0.986132, 25, 1, 88, 256
-0.986138, 129, 65, 192, 192
-0.986147, 97, 273, 160, 336
-0.986204, 85, 297, 116, 360
-0.986218, 57, 273, 120, 336
-0.986238, 409, 1, 472, 64
-0.986244, 441, 49, 472, 176
-0.986313, 209, 145, 336, 272
-0.986322, 105, 81, 168, 208
-0.986325, 1, 17, 128, 80
-0.986338, 409, 17, 440, 80
-0.986351, 121, 129, 184, 375
-0.986352, 65, 17, 192, 80
-0.986354, 97, 153, 160, 216
-0.986386, 89, 73, 152, 136
-0.986503, 33, 73, 96, 136
-0.986533, 385, 137, 448, 200
-0.986599, 169, 129, 232, 375
-0.986788, 433, 1, 496, 375
-0.986809, 349, 1, 380, 128
-0.986939, 329, 297, 360, 360
-0.986952, 401, 65, 432, 192
-0.986979, 289, 217, 352, 280
-0.987026, 1, 73, 128, 136
-0.987032, 437, 121, 468, 184
-0.987037, 145, 137, 208, 200
-0.987063, 121, 193, 184, 256
-0.987123, 429, 177, 460, 240
-0.987146, 329, 273, 392, 336
-0.987162, 1, 129, 64, 256
-0.987207, 217, 129, 280, 375
-0.987221, 361, 1, 424, 375
-0.987269, 369, 153, 496, 216
-0.987319, 1, 49, 128, 176
-0.987374, 181, 161, 212, 224
-0.987415, 225, 33, 288, 288
-0.987441, 417, 201, 448, 264
-0.987448, 257, 17, 384, 80
-0.987491, 469, 297, 500, 360
-0.987598, 201, 177, 232, 240
-0.987663, 193, 73, 224, 136
-0.987733, 9, 289, 40, 352
-0.987737, 397, 297, 428, 360
-0.987742, 273, 17, 336, 80
-0.987745, 157, 177, 188, 240
-0.987791, 425, 225, 456, 288
-0.987796, 389, 17, 420, 144
-0.987869, 97, 65, 224, 128
-0.987872, 349, 297, 380, 360
-0.987927, 205, 1, 236, 128
-0.987956, 425, 289, 456, 352
-0.987974, 161, 17, 224, 80
-0.98798, 161, 273, 288, 336
-0.987996, 241, 73, 304, 136
-0.988021, 301, 1, 332, 128
-0.988087, 313, 1, 344, 128
-0.988095, 193, 153, 224, 216
-0.988151, 337, 1, 400, 375
-0.988188, 217, 81, 280, 144
-0.988234, 1, 273, 128, 336
-0.988238, 265, 225, 328, 288
-0.988276, 385, 297, 416, 360
-0.988299, 41, 177, 104, 240
-0.988334, 113, 1, 176, 375
-0.988362, 409, 161, 472, 224
-0.988373, 385, 1, 448, 375
-0.98839, 121, 145, 184, 208
-0.98841, 433, 209, 496, 240
-0.988432, 329, 209, 392, 272
-0.988433, 297, 129, 360, 375
-0.988438, 121, 17, 184, 80
-0.98846, 353, 273, 416, 336
-0.988506, 249, 17, 312, 80
-0.98853, 13, 193, 44, 320
-0.988578, 157, 1, 188, 128
-0.988599, 373, 17, 404, 80
-0.988621, 57, 73, 120, 136
-0.988645, 5, 1, 36, 128
-0.98865, 441, 169, 472, 232
-0.988657, 209, 273, 336, 336
-0.988663, 289, 89, 416, 152
-0.988667, 1, 193, 64, 256
-0.988669, 321, 209, 448, 272
-0.988694, 145, 185, 176, 248
-0.988706, 245, 1, 276, 128
-0.988742, 9, 129, 72, 375
-0.98876, 17, 65, 80, 192
-0.988771, 357, 17, 388, 80
-0.988821, 337, 65, 400, 192
-0.988852, 181, 145, 212, 272
-0.988874, 377, 273, 440, 336
-0.988939, 361, 297, 392, 360
-0.989015, 237, 65, 268, 192
-0.98904, 193, 129, 256, 375
-0.989074, 177, 1, 208, 128
-0.989081, 185, 17, 248, 80
-0.989092, 73, 297, 104, 360
-0.989109, 49, 273, 176, 336
-0.989135, 49, 177, 176, 240
-0.989144, 113, 273, 240, 336
-0.989231, 1, 49, 32, 112
-0.98924, 89, 1, 152, 375
-0.989267, 285, 1, 316, 128
-0.98927, 377, 233, 440, 296
-0.989279, 221, 1, 252, 128
-0.989332, 433, 237, 496, 268
-0.989332, 417, 33, 480, 64
-0.989399, 209, 153, 272, 216
-0.989435, 273, 129, 336, 375
-0.989478, 57, 145, 120, 272
-0.989508, 21, 17, 52, 144
-0.989509, 289, 273, 416, 336
-0.989576, 337, 129, 400, 375
-0.989587, 265, 1, 296, 128
-0.989599, 153, 165, 216, 196
-0.989618, 405, 201, 436, 264
-0.989637, 413, 297, 444, 360
-0.989696, 193, 1, 224, 128
-0.9897, 89, 145, 152, 272
-0.989739, 65, 129, 128, 375
-0.989793, 385, 209, 416, 272
-0.989802, 185, 1, 248, 375
-0.989805, 49, 49, 176, 112
-0.989806, 433, 137, 496, 168
-0.98981, 337, 49, 400, 112
-0.98982, 401, 81, 464, 112
-0.989846, 429, 81, 460, 144
-0.989896, 417, 49, 480, 80
-0.9899, 433, 125, 496, 156
-0.989932, 97, 129, 160, 375
-0.989933, 41, 1, 72, 128
-0.989954, 241, 129, 304, 375
-0.989955, 193, 153, 320, 216
-0.989961, 313, 145, 376, 272
-0.989965, 125, 209, 156, 336
-0.989966, 137, 1, 200, 375
-0.989966, 137, 177, 200, 208
-0.989971, 73, 49, 136, 112
-0.990014, 149, 97, 180, 224
-0.990064, 49, 73, 176, 136
-0.990078, 53, 1, 84, 128
-0.990093, 145, 1, 176, 128
-0.990097, 437, 145, 468, 208
-0.990125, 177, 185, 304, 248
-0.990159, 373, 297, 404, 360
-0.990168, 241, 89, 368, 152
-0.990222, 37, 209, 68, 336
-0.990226, 13, 57, 44, 120
-0.990236, 377, 97, 440, 128
-0.990236, 401, 313, 464, 375
-0.990254, 193, 145, 224, 272
-0.990263, 225, 17, 288, 80
-0.990281, 189, 65, 220, 192
-0.99029, 253, 65, 284, 192
-0.990296, 353, 193, 416, 256
-0.99031, 61, 297, 92, 360
-0.99032, 137, 145, 168, 272
-0.990334, 329, 233, 392, 296
-0.990338, 417, 65, 480, 96
-0.99034, 145, 73, 272, 136
-0.990396, 329, 17, 360, 80
-0.990403, 465, 257, 496, 320
-0.99041, 441, 89, 472, 152
-0.990411, 401, 93, 464, 124
-0.990466, 101, 17, 132, 144
-0.990467, 433, 253, 496, 284
-0.99049, 425, 41, 456, 104
-0.990542, 13, 33, 44, 96
-0.990555, 145, 209, 176, 336
-0.990559, 353, 145, 416, 208
-0.990573, 41, 33, 72, 96
-0.990574, 209, 1, 272, 375
-0.990595, 281, 1, 344, 375
-0.990599, 241, 97, 304, 160
-0.990643, 57, 1, 120, 375
-0.990652, 377, 85, 440, 116
-0.990681, 233, 1, 264, 128
-0.990696, 73, 1, 104, 128
-0.990709, 1, 73, 32, 136
-0.990739, 425, 81, 488, 112
-0.990753, 193, 81, 320, 144
-0.990787, 377, 209, 408, 336
-0.990814, 441, 273, 472, 336
-0.990817, 1, 297, 64, 328
-0.990819, 393, 209, 424, 336
-0.990828, 433, 221, 496, 252
-0.990853, 133, 153, 164, 216
-0.990854, 125, 1, 156, 128
-0.990857, 433, 157, 496, 188
-0.990864, 401, 197, 464, 228
-0.990883, 353, 93, 416, 124
-0.99089, 25, 209, 56, 336
-0.990891, 317, 17, 348, 80
-0.990902, 297, 105, 360, 168
-0.990905, 57, 209, 88, 336
-0.990975, 425, 113, 456, 240
-0.991015, 41, 297, 104, 328
-0.991016, 145, 17, 272, 80
-0.991021, 321, 145, 448, 208
-0.991025, 33, 265, 96, 328
-0.99104, 433, 173, 496, 204
-0.991041, 193, 17, 320, 80
-0.991045, 401, 301, 464, 332
-0.991046, 425, 21, 488, 52
-0.991055, 425, 301, 488, 332
-0.991063, 113, 209, 144, 336
-0.991078, 401, 217, 464, 248
-0.991083, 73, 297, 136, 328
-0.99109, 369, 1, 496, 64
-0.991093, 385, 1, 448, 64
-0.991098, 9, 41, 72, 72
-0.991106, 341, 17, 372, 80
-0.991124, 153, 49, 216, 112
-0.991148, 33, 57, 64, 120
-0.991153, 413, 209, 444, 336
-0.991163, 113, 137, 240, 200
-0.991164, 417, 105, 480, 136
-0.991177, 337, 301, 400, 332
-0.991221, 85, 1, 116, 128
-0.991235, 361, 105, 424, 168
-0.991237, 297, 301, 360, 332
-0.991241, 21, 289, 52, 352
-0.99126, 1, 177, 128, 240
-0.991269, 161, 297, 416, 360
-0.99127, 353, 81, 416, 144
-0.991283, 377, 25, 440, 56
-0.991284, 53, 57, 84, 120
-0.991297, 161, 177, 224, 208
-0.991303, 77, 209, 108, 336
-0.991328, 337, 145, 400, 272
-0.991329, 273, 301, 336, 332
-0.991338, 161, 1, 224, 375
-0.991344, 241, 65, 368, 128
-0.99136, 369, 129, 432, 375
-0.991365, 389, 65, 420, 192
-0.991401, 1, 193, 32, 256
-0.991403, 129, 165, 192, 196
-0.991409, 129, 297, 192, 328
-0.991416, 289, 49, 416, 112
-0.991418, 217, 297, 280, 328
-0.991444, 401, 241, 464, 272
-0.99145, 413, 81, 444, 208
-0.991453, 41, 129, 104, 375
-0.991487, 369, 301, 432, 332
-0.991488, 365, 209, 396, 336
-0.991497, 53, 33, 84, 96
-0.99151, 313, 1, 376, 375
-0.991523, 329, 89, 392, 152
-0.991528, 377, 45, 440, 76
-0.99154, 401, 21, 464, 52
-0.991549, 169, 297, 232, 328
-0.991576, 169, 273, 200, 336
-0.991585, 101, 73, 132, 136
-0.991595, 1, 17, 32, 80
-0.991598, 377, 217, 440, 248
-0.9916, 93, 225, 124, 352
-0.991601, 409, 149, 472, 180
-0.991609, 97, 297, 160, 328
-0.991633, 433, 93, 496, 124
-0.991668, 73, 89, 136, 120
-0.991701, 257, 1, 320, 375
-0.991716, 241, 225, 304, 288
-0.991717, 169, 185, 200, 248
-0.991724, 241, 301, 304, 332
-0.991754, 361, 17, 392, 144
-0.991772, 177, 161, 240, 192
-0.991787, 233, 1, 296, 375
-0.991813, 157, 209, 188, 336
-0.991817, 297, 57, 360, 120
-0.991842, 353, 221, 416, 252
-0.991846, 193, 297, 256, 328
-0.991878, 41, 313, 104, 344
-0.991878, 185, 337, 248, 368
-0.991878, 329, 221, 392, 252
-0.991888, 113, 1, 144, 128
-0.991899, 433, 197, 496, 228
-0.991935, 129, 273, 160, 336
-0.991946, 217, 337, 280, 368
-0.991958, 409, 117, 472, 148
-0.991967, 33, 145, 96, 272
-0.991982, 73, 313, 136, 344
-0.992008, 313, 317, 376, 348
-0.99201, 289, 233, 416, 296
-0.992031, 1, 285, 64, 316
-0.992038, 401, 285, 464, 316
-0.99204, 49, 297, 80, 360
-0.992045, 257, 289, 320, 320
-0.992045, 337, 317, 400, 348
-0.992047, 33, 345, 96, 375
-0.992055, 185, 273, 216, 336
-0.992075, 49, 85, 112, 116
-0.992078, 205, 73, 236, 136
-0.992081, 313, 97, 376, 128
-0.992097, 177, 209, 208, 336
-0.992098, 401, 229, 464, 260
-0.992107, 25, 33, 56, 96
-0.992118, 33, 41, 96, 72
-0.992123, 145, 97, 208, 160
-0.992131, 53, 9, 84, 72
-0.99214, 97, 85, 160, 116
-0.99215, 181, 185, 212, 248
-0.992167, 465, 237, 496, 268
-0.99218, 81, 97, 208, 160
-0.992195, 461, 125, 492, 156
-0.992212, 457, 209, 488, 240
-0.99222, 17, 1, 80, 375
-0.992235, 409, 137, 472, 168
-0.992241, 209, 209, 240, 336
-0.992244, 145, 153, 208, 184
-0.99225, 401, 113, 432, 176
-0.99225, 361, 317, 424, 348
-0.992253, 377, 73, 440, 104
-0.992268, 217, 145, 280, 272
-0.992279, 25, 89, 88, 120
-0.992283, 57, 345, 120, 375
-0.992285, 461, 153, 492, 184
-0.992302, 1, 345, 64, 375
-0.992305, 313, 289, 376, 320
-0.99231, 9, 313, 72, 344
-0.99232, 469, 141, 500, 172
-0.992322, 105, 165, 168, 196
-0.992323, 453, 237, 484, 268
-0.99234, 65, 97, 128, 160
-0.992365, 465, 221, 496, 252
-0.992369, 161, 337, 224, 368
-0.992373, 201, 65, 232, 192
-0.992379, 433, 289, 496, 320
-0.992381, 281, 289, 344, 320
-0.992389, 257, 89, 320, 120
-0.992392, 297, 193, 360, 256
-0.992399, 65, 101, 128, 132
-0.992405, 401, 185, 464, 216
-0.992413, 265, 57, 328, 120
-0.992414, 385, 317, 448, 348
-0.992416, 337, 21, 400, 52
-0.99242, 433, 29, 464, 60
-0.992442, 213, 273, 244, 336
-0.992448, 221, 209, 252, 336
-0.992451, 337, 105, 400, 136
-0.992455, 169, 73, 232, 104
-0.992465, 197, 209, 228, 336
-0.99247, 257, 297, 500, 360
-0.992481, 1, 77, 64, 108
-0.992481, 161, 169, 192, 200
-0.992497, 305, 17, 336, 80
-0.992504, 113, 177, 176, 208
-0.992509, 377, 61, 440, 92
-0.992512, 225, 89, 288, 120
-0.992516, 57, 45, 120, 76
-0.992523, 145, 97, 208, 128
-0.992526, 137, 337, 200, 368
-0.992528, 297, 21, 360, 52
-0.992531, 461, 37, 492, 68
-0.992534, 377, 17, 408, 144
-0.992537, 153, 49, 216, 176
-0.992544, 65, 161, 128, 224
-0.992561, 65, 297, 320, 360
-0.992574, 445, 209, 476, 240
-0.992578, 281, 221, 344, 252
-0.992586, 33, 289, 64, 352
-0.992586, 409, 313, 472, 344
-0.992586, 289, 333, 352, 364
-0.9926, 421, 37, 452, 68
-0.992602, 173, 161, 204, 192
-0.992604, 25, 285, 88, 316
-0.992606, 469, 209, 500, 240
-0.992609, 265, 81, 296, 144
-0.992612, 121, 189, 184, 220
-0.992624, 57, 325, 120, 356
-0.992636, 241, 337, 304, 368
-0.992636, 57, 285, 120, 316
-0.992637, 149, 165, 180, 196
-0.992651, 81, 345, 144, 375
-0.992652, 193, 89, 256, 152
-0.992652, 309, 81, 340, 144
-0.992654, 81, 285, 144, 316
-0.992661, 305, 225, 368, 256
-0.992662, 121, 153, 184, 184
-0.992662, 157, 181, 188, 212
-0.992667, 353, 289, 416, 320
-0.99267, 469, 77, 500, 108
-0.99268, 289, 93, 352, 124
-0.992697, 145, 85, 208, 116
-0.992704, 449, 129, 480, 160
-0.99271, 265, 333, 328, 364
-0.992711, 457, 141, 488, 172
-0.992715, 433, 341, 496, 372
-0.99272, 433, 201, 464, 232
-0.992722, 81, 41, 112, 104
-0.992727, 97, 313, 160, 344
-0.992732, 377, 145, 440, 176
-0.992747, 121, 85, 184, 116
-0.992749, 449, 77, 480, 108
-0.992751, 41, 101, 104, 132
-0.992751, 157, 273, 188, 336
-0.99276, 81, 325, 144, 356
-0.992765, 409, 161, 472, 192
-0.992765, 449, 37, 480, 68
-0.992766, 469, 53, 500, 84
-0.992771, 241, 225, 368, 288
-0.992778, 121, 97, 184, 128
-0.992782, 337, 233, 400, 264
-0.992783, 145, 177, 176, 208
-0.992787, 81, 17, 112, 80
-0.992788, 471, 129, 486, 192
-0.992796, 73, 33, 136, 64
-0.992799, 141, 273, 172, 336
-0.992802, 353, 149, 416, 180
-0.992803, 9, 29, 72, 60
-0.99281, 73, 73, 104, 136
-0.992816, 401, 113, 432, 240
-0.992822, 345, 329, 408, 360
-0.992825, 369, 329, 432, 360
-0.992826, 449, 165, 480, 196
-0.992829, 337, 49, 400, 80
-0.99283, 257, 105, 320, 136
-0.992837, 57, 73, 120, 104
-0.992843, 413, 81, 444, 112
-0.992865, 453, 221, 484, 252
-0.992865, 433, 149, 464, 180
-0.992873, 445, 249, 476, 280
-0.99288, 9, 169, 72, 232
-0.99289, 449, 113, 480, 144
-0.992896, 405, 97, 436, 128
-0.992904, 65, 9, 96, 72
-0.992908, 449, 153, 480, 184
-0.992912, 445, 1, 476, 64
-0.992916, 225, 65, 256, 192
-0.99293, 161, 157, 192, 188
-0.99293, 81, 297, 112, 328
-0.992939, 345, 301, 376, 332
-0.992942, 389, 93, 420, 124
-0.992948, 1, 297, 32, 328
-0.992948, 345, 65, 376, 192
-0.992963, 237, 81, 268, 144
-0.992971, 409, 45, 440, 76
-0.992973, 113, 65, 144, 128
-0.992976, 357, 301, 388, 332
-0.992978, 405, 25, 436, 56
-0.992979, 169, 137, 200, 200
-0.992979, 461, 113, 492, 144
-0.992988, 197, 177, 228, 208
-0.992988, 453, 89, 484, 120
-0.99299, 185, 161, 216, 192
-0.992993, 401, 85, 432, 116
-0.992993, 1, 285, 32, 316
-0.993006, 213, 177, 244, 240
-0.993008, 429, 301, 460, 332
-0.993009, 61, 297, 92, 328
-0.993012, 161, 97, 192, 224
-0.993018, 21, 297, 52, 328
-0.993019, 333, 301, 364, 332
-0.993021, 349, 209, 380, 336
-0.993043, 449, 17, 480, 48
-0.993046, 465, 249, 496, 280
-0.993049, 321, 301, 352, 332
-0.993049, 469, 165, 500, 196
-0.993053, 13, 41, 44, 72
-0.993059, 469, 305, 500, 336
-0.99306, 433, 241, 464, 272
-0.993063, 449, 49, 480, 80
-0.993066, 245, 297, 276, 328
-0.993069, 33, 297, 64, 328
-0.993069, 269, 301, 300, 332
-0.993072, 169, 181, 200, 212
-0.993073, 357, 221, 388, 252
-0.993075, 469, 65, 500, 96
-0.993081, 369, 93, 400, 124
-0.993081, 93, 297, 124, 328
-0.993083, 45, 297, 76, 328
-0.993095, 441, 301, 472, 332
-0.993096, 293, 301, 324, 332
-0.9931, 337, 81, 368, 144
-0.993104, 369, 301, 400, 332
-0.993105, 417, 25, 448, 56
-0.993106, 213, 65, 244, 192
-0.993113, 445, 141, 476, 172
-0.993115, 229, 297, 260, 328
-0.993116, 201, 297, 232, 328
-0.993119, 309, 301, 340, 332
-0.993119, 393, 301, 424, 332
-0.993121, 189, 73, 220, 104
-0.993135, 105, 297, 136, 328
-0.993148, 457, 305, 488, 336
-0.993149, 413, 301, 444, 332
-0.993154, 381, 301, 412, 332
-0.99316, 433, 117, 464, 148
-0.993164, 281, 301, 312, 332
-0.993164, 245, 209, 276, 336
-0.993165, 453, 65, 484, 96
-0.993173, 257, 301, 288, 332
-0.993174, 73, 313, 104, 344
-0.993176, 117, 297, 148, 328
-0.993186, 213, 297, 244, 328
-0.993189, 129, 297, 160, 328
-0.993194, 141, 297, 172, 328
-0.993199, 153, 297, 184, 328
-0.9932, 57, 41, 88, 72
-0.993205, 469, 25, 500, 56
-0.993205, 161, 49, 288, 112
-0.993208, 345, 225, 376, 256
-0.993209, 357, 317, 388, 348
-0.993212, 483, 137, 498, 200
-0.993212, 397, 217, 428, 248
-0.993218, 401, 73, 432, 104
-0.993218, 385, 105, 416, 136
-0.993222, 417, 209, 448, 240
-0.993223, 33, 97, 160, 160
-0.993227, 445, 197, 476, 228
-0.993228, 353, 93, 384, 124
-0.993231, 345, 317, 376, 348
-0.993233, 265, 193, 328, 256
-0.993234, 1, 41, 32, 72
-0.993234, 413, 65, 444, 96
-0.993234, 389, 81, 420, 112
-0.993236, 437, 221, 468, 252
-0.993237, 457, 197, 488, 228
-0.993237, 97, 217, 160, 280
-0.993239, 253, 89, 284, 120
-0.993243, 69, 41, 100, 72
-0.993244, 333, 93, 364, 124
-0.993244, 213, 337, 244, 368
-0.993245, 197, 337, 228, 368
-0.993245, 197, 165, 228, 196
-0.993246, 61, 313, 92, 344
-0.993252, 467, 201, 482, 264
-0.993252, 421, 53, 452, 84
-0.993253, 365, 105, 396, 136
-0.993254, 429, 81, 460, 112
-0.993255, 369, 221, 400, 252
-0.99326, 33, 41, 64, 72
-0.99326, 469, 97, 500, 128
-0.993265, 437, 17, 468, 48
-0.993269, 185, 297, 216, 328
-0.99327, 225, 337, 256, 368
-0.993276, 245, 337, 276, 368
-0.993279, 137, 81, 168, 208
-0.99328, 145, 189, 176, 220
-0.993286, 97, 97, 160, 160
-0.99329, 165, 297, 196, 328
-0.993295, 89, 313, 120, 344
-0.993298, 393, 53, 424, 84
-0.993302, 353, 105, 384, 136
-0.993305, 437, 161, 468, 192
-0.993316, 121, 57, 184, 120
-0.993334, 325, 81, 356, 144
-0.99334, 13, 9, 44, 72
-0.993352, 201, 273, 232, 336
-0.993375, 401, 225, 432, 288
-0.99342, 65, 217, 192, 280
-0.993433, 469, 49, 484, 112
-0.993605, 463, 33, 478, 96
-0.993633, 475, 209, 490, 272
-0.993688, 257, 17, 500, 80
-0.993762, 455, 129, 470, 192
-0.993775, 105, 65, 136, 192
-0.993809, 113, 41, 240, 104
-0.993823, 465, 129, 480, 192
-0.993884, 417, 161, 448, 288
-0.993906, 281, 65, 312, 192
-0.993932, 13, 241, 44, 368
-0.993975, 477, 129, 492, 192
-0.993984, 1, 161, 256, 224
-0.993993, 257, 209, 288, 336
-0.994012, 453, 201, 468, 264
-0.99404, 257, 217, 500, 280
-0.994052, 177, 217, 304, 280
-0.994104, 329, 209, 360, 336
-0.994107, 483, 49, 498, 112
-0.994121, 273, 209, 304, 336
-0.994153, 273, 145, 336, 272
-0.994213, 113, 217, 240, 280
-0.994307, 475, 49, 490, 112
-0.994312, 481, 217, 496, 280
-0.994313, 389, 113, 420, 240
-0.994316, 145, 97, 272, 160
-0.994328, 173, 97, 204, 224
-0.994384, 265, 65, 296, 192
-0.994393, 273, 113, 400, 176
-0.99443, 1, 297, 500, 360
-0.994471, 461, 209, 476, 272
-0.994473, 257, 193, 384, 256
-0.994533, 317, 209, 348, 336
-0.994536, 293, 209, 324, 336
-0.994584, 177, 297, 192, 360
-0.994597, 475, 89, 490, 152
-0.994636, 333, 65, 364, 192
-0.994655, 163, 297, 178, 360
-0.994681, 215, 297, 230, 360
-0.99469, 183, 297, 198, 360
-0.994748, 205, 297, 220, 360
-0.994765, 233, 225, 264, 352
-0.994772, 257, 273, 500, 336
-0.994779, 169, 297, 184, 360
-0.994784, 205, 161, 236, 288
-0.99479, 191, 297, 206, 360
-0.994812, 297, 65, 328, 192
-0.994884, 483, 73, 498, 136
-0.9949, 199, 297, 214, 360
-0.994928, 321, 185, 448, 248
-0.994942, 227, 297, 242, 360
-0.994942, 401, 161, 432, 288
-0.994973, 1, 249, 128, 312
-0.994974, 153, 297, 168, 360
-0.994989, 1, 17, 500, 80
-0.994997, 353, 217, 480, 248
-0.995048, 463, 57, 478, 120
-0.995061, 467, 225, 482, 288
-0.995066, 257, 49, 500, 112
-0.995069, 1, 273, 256, 336
-0.995076, 305, 209, 336, 336
-0.995109, 455, 49, 470, 112
-0.995116, 161, 129, 288, 192
-0.995119, 473, 233, 488, 296
-0.995145, 129, 177, 256, 208
-0.995169, 65, 129, 192, 192
-0.995193, 1, 73, 500, 136
-0.995199, 217, 145, 248, 272
-0.995242, 353, 105, 480, 136
-0.995258, 469, 1, 500, 256
-0.995289, 469, 169, 484, 232
-0.99529, 143, 297, 158, 360
-0.995316, 1, 225, 128, 288
-0.995325, 257, 89, 500, 152
-0.995345, 483, 113, 498, 176
-0.995349, 221, 297, 236, 360
-0.995353, 175, 153, 190, 216
-0.995384, 447, 209, 462, 272
-0.995386, 157, 153, 172, 216
-0.995426, 453, 169, 468, 232
-0.995447, 3, 257, 18, 320
-0.995452, 453, 17, 468, 80
-0.99547, 449, 129, 464, 192
-0.995477, 463, 161, 478, 224
-0.995494, 459, 233, 474, 296
-0.995517, 337, 301, 464, 332
-0.99552, 65, 297, 192, 328
-0.995526, 167, 169, 182, 232
-0.995553, 17, 153, 144, 216
-0.995558, 475, 169, 490, 232
-0.995578, 423, 17, 438, 80
-0.995589, 469, 129, 500, 375
-0.995596, 465, 81, 480, 144
-0.995629, 233, 297, 248, 360
-0.995638, 149, 153, 164, 216
-0.995641, 117, 49, 148, 176
-0.995651, 273, 137, 400, 200
-0.995654, 33, 17, 288, 80
-0.995661, 1, 177, 500, 240
-0.995701, 129, 297, 144, 360
-0.995712, 457, 1, 488, 256
-0.99572, 369, 65, 400, 192
-0.995746, 257, 301, 384, 332
-0.995764, 135, 297, 150, 360
-0.995771, 453, 225, 468, 288
-0.995777, 259, 297, 274, 360
-0.995783, 445, 25, 460, 88
-0.995784, 241, 297, 256, 360
-0.99582, 471, 9, 486, 72
-0.995831, 1, 41, 256, 104
-0.995869, 251, 297, 266, 360
-0.995872, 337, 89, 464, 120
-0.995882, 93, 81, 124, 208
-0.995885, 33, 185, 288, 248
-0.995895, 241, 41, 368, 104
-0.995931, 161, 273, 416, 336
-0.995945, 429, 65, 460, 192
-0.995947, 61, 49, 92, 176
-0.99596, 295, 297, 310, 360
-0.995965, 17, 297, 144, 328
-0.995969, 303, 297, 318, 360
-0.995971, 123, 297, 138, 360
-0.996, 337, 25, 464, 56
-0.996021, 267, 297, 282, 360
-0.99603, 281, 297, 296, 360
-0.996031, 369, 237, 496, 268
-0.996073, 477, 25, 492, 88
-0.996085, 373, 145, 404, 272
-0.996089, 289, 93, 416, 124
-0.996136, 449, 129, 480, 375
-0.996146, 5, 281, 20, 344
-0.996151, 483, 9, 498, 72
-0.996152, 321, 65, 352, 192
-0.996154, 117, 297, 132, 360
-0.996155, 309, 297, 324, 360
-0.99616, 287, 297, 302, 360
-0.996164, 1, 129, 128, 192
-0.996186, 181, 169, 196, 232
-0.996194, 273, 297, 288, 360
-0.996206, 461, 9, 476, 72
-0.99621, 419, 41, 434, 104
-0.996217, 353, 153, 480, 184
-0.996232, 409, 17, 424, 80
-0.996234, 413, 41, 428, 104
-0.996237, 437, 17, 452, 80
-0.996256, 157, 49, 188, 176
-0.996268, 157, 177, 172, 240
-0.996277, 189, 169, 204, 232
-0.996279, 485, 193, 500, 256
-0.996289, 77, 33, 92, 96
-0.996297, 413, 81, 428, 144
-0.9963, 481, 169, 496, 232
-0.996304, 1, 273, 500, 336
-0.996319, 113, 297, 240, 328
-0.996335, 447, 233, 462, 296
-0.996337, 469, 105, 484, 168
-0.996343, 333, 297, 348, 360
-0.996345, 1, 41, 500, 104
-0.996385, 317, 297, 332, 360
-0.996386, 209, 301, 336, 332
-0.996388, 49, 165, 176, 196
-0.99641, 327, 297, 342, 360
-0.996427, 1, 49, 32, 176
-0.996429, 1, 153, 500, 216
-0.996433, 73, 65, 104, 192
-0.996444, 93, 297, 108, 360
-0.996445, 111, 297, 126, 360
-0.996445, 445, 297, 460, 360
-0.996455, 433, 1, 464, 256
-0.996457, 175, 177, 190, 240
-0.996467, 479, 297, 494, 360
-0.996481, 407, 73, 422, 136
-0.996488, 1, 161, 32, 288
-0.996528, 429, 201, 444, 264
-0.996535, 193, 105, 320, 168
-0.996535, 129, 165, 256, 196
-0.996539, 103, 297, 118, 360
-0.996548, 439, 217, 454, 280
-0.996556, 339, 297, 354, 360
-0.996559, 459, 297, 474, 360
-0.996583, 257, 145, 500, 208
-0.996591, 195, 169, 210, 232
-0.996594, 453, 297, 468, 360
-0.99663, 125, 145, 156, 272
-0.996646, 213, 177, 228, 240
-0.996654, 11, 273, 26, 336
-0.996656, 349, 297, 364, 360
-0.996659, 465, 297, 480, 360
-0.996663, 1, 97, 500, 160
-0.996666, 129, 185, 384, 248
-0.996669, 87, 297, 102, 360
-0.996673, 423, 201, 438, 264
-0.996682, 471, 125, 486, 156
-0.996692, 439, 289, 454, 352
-0.996701, 445, 105, 460, 168
-0.996708, 369, 125, 496, 156
-0.996717, 473, 297, 488, 360
-0.99672, 455, 105, 470, 168
-0.996721, 129, 17, 384, 80
-0.996723, 151, 177, 166, 240
-0.996742, 7, 49, 22, 112
-0.996745, 201, 161, 216, 224
-0.996757, 257, 185, 500, 248
-0.996762, 163, 145, 178, 208
-0.996778, 11, 73, 26, 136
-0.99679, 473, 237, 488, 268
-0.996842, 353, 285, 480, 316
-0.996854, 1, 41, 128, 72
-0.996856, 353, 137, 480, 168
-0.99686, 161, 301, 288, 332
-0.996867, 17, 345, 144, 375
-0.99687, 289, 225, 416, 256
-0.996872, 357, 297, 372, 360
-0.99688, 485, 297, 500, 360
-0.996886, 469, 209, 484, 240
-0.996888, 33, 73, 288, 136
-0.996905, 479, 221, 494, 252
-0.996909, 467, 237, 482, 268
-0.996916, 401, 297, 416, 360
-0.996919, 81, 145, 112, 272
-0.996925, 379, 17, 394, 80
-0.996925, 395, 297, 410, 360
-0.99694, 367, 297, 382, 360
-0.996956, 475, 153, 490, 184
-0.996958, 367, 17, 382, 80
-0.996959, 369, 205, 496, 236
-0.996969, 483, 209, 498, 240
-0.996975, 417, 17, 432, 80
-0.996977, 481, 141, 496, 172
-0.996983, 309, 81, 340, 208
-0.996986, 409, 297, 424, 360
-0.996987, 129, 153, 384, 216
-0.996994, 445, 1, 476, 256
-0.996994, 161, 225, 416, 288
-0.99701, 389, 161, 420, 288
-0.997013, 389, 297, 404, 360
-0.997023, 455, 125, 470, 156
-0.997036, 443, 177, 458, 240
-0.997038, 321, 17, 336, 80
-0.997039, 475, 73, 490, 104
-0.997048, 431, 17, 446, 80
-0.997053, 411, 217, 426, 280
-0.997066, 467, 249, 482, 312
-0.99707, 447, 257, 462, 320
-0.997154, 469, 153, 484, 184
-0.997178, 241, 93, 368, 124
-0.997181, 129, 337, 256, 368
-0.997193, 353, 189, 480, 220
-0.997194, 397, 1, 428, 256
-0.997205, 41, 49, 72, 176
-0.997217, 165, 165, 180, 196
-0.997286, 1, 217, 500, 280
-0.997292, 353, 37, 480, 68
-0.997299, 129, 81, 384, 144
-0.997304, 463, 73, 478, 104
-0.997314, 361, 145, 392, 272
-0.997318, 305, 105, 432, 136
-0.997322, 201, 1, 232, 256
-0.997348, 353, 77, 480, 108
-0.997349, 453, 233, 468, 264
-0.997359, 161, 289, 288, 320
-0.997365, 173, 1, 204, 256
-0.997397, 453, 209, 468, 240
-0.997401, 289, 317, 416, 348
-0.997413, 81, 337, 208, 368
-0.997414, 49, 177, 176, 208
-0.997414, 171, 161, 186, 192
-0.997416, 461, 125, 476, 156
-0.997417, 1, 313, 128, 344
-0.997422, 465, 57, 480, 88
-0.997426, 353, 313, 480, 344
-0.997428, 479, 237, 494, 268
-0.997431, 257, 113, 500, 176
-0.997438, 129, 1, 160, 256
-0.997443, 209, 129, 336, 192
-0.997444, 177, 341, 304, 372
-0.997449, 369, 249, 496, 280
-0.99745, 463, 37, 478, 68
-0.997458, 353, 49, 480, 80
-0.997464, 289, 21, 416, 52
-0.997474, 345, 145, 376, 272
-0.997486, 33, 77, 160, 108
-0.997488, 49, 249, 176, 312
-0.997494, 485, 81, 500, 112
-0.997495, 293, 1, 324, 256
-0.997518, 455, 137, 470, 168
-0.997536, 481, 153, 496, 184
-0.997543, 385, 1, 416, 256
-0.997543, 477, 209, 492, 240
-0.997547, 483, 53, 498, 84
-0.997548, 477, 37, 492, 68
-0.997548, 373, 1, 404, 256
-0.997549, 257, 249, 500, 312
-0.997554, 241, 333, 368, 364
-0.997563, 49, 313, 176, 344
-0.997565, 159, 181, 174, 212
-0.997573, 485, 221, 500, 252
-0.997578, 461, 157, 476, 188
-0.997585, 1, 285, 128, 316
-0.997585, 461, 237, 476, 268
-0.997589, 209, 289, 336, 320
-0.997591, 329, 1, 360, 256
-0.997602, 471, 141, 486, 172
-0.997609, 117, 1, 148, 256
-0.997625, 257, 289, 384, 320
-0.997627, 249, 145, 312, 272
-0.997628, 413, 1, 444, 256
-0.997636, 485, 237, 500, 268
-0.997665, 321, 237, 448, 268
-0.99768, 483, 117, 498, 148
-0.9977, 3, 297, 18, 328
-0.997711, 425, 29, 440, 60
-0.997714, 161, 41, 416, 104
-0.997717, 81, 89, 208, 120
-0.997725, 167, 177, 182, 208
-0.997725, 49, 325, 176, 356
-0.997731, 161, 89, 288, 120
-0.99775, 141, 1, 172, 256
-0.997751, 17, 201, 144, 264
-0.997766, 349, 1, 380, 256
-0.997767, 241, 225, 368, 256
-0.997774, 213, 1, 244, 256
-0.997777, 473, 221, 488, 252
-0.997779, 105, 1, 136, 256
-0.997782, 321, 329, 448, 360
-0.997789, 431, 25, 446, 56
-0.997795, 467, 225, 482, 256
-0.997797, 53, 1, 84, 256
-0.997797, 317, 1, 348, 256
-0.997802, 469, 45, 484, 76
-0.997813, 179, 161, 194, 192
-0.997832, 69, 1, 100, 256
-0.997833, 455, 157, 470, 188
-0.997842, 89, 1, 120, 256
-0.997864, 445, 25, 460, 56
-0.997865, 211, 173, 226, 204
-0.997871, 483, 65, 498, 96
-0.997875, 467, 85, 482, 116
-0.997881, 281, 1, 312, 256
-0.997881, 447, 149, 462, 180
-0.997883, 465, 141, 480, 172
-0.997883, 1, 1, 32, 256
-0.997885, 357, 301, 372, 332
-0.997886, 225, 345, 352, 375
-0.997892, 447, 241, 462, 272
-0.997897, 483, 41, 498, 72
-0.997904, 65, 285, 192, 316
-0.997912, 473, 57, 488, 88
-0.997914, 1, 29, 128, 60
-0.997926, 447, 205, 462, 236
-0.997952, 437, 129, 468, 375
-0.997962, 129, 193, 256, 224
-0.997965, 65, 41, 192, 72
-0.997966, 457, 221, 472, 252
-0.997972, 153, 165, 168, 196
-0.997978, 481, 129, 496, 160
-0.997979, 1, 325, 128, 356
-0.997986, 85, 297, 100, 328
-0.997994, 469, 73, 484, 104
-0.997997, 417, 41, 432, 72
-0.998, 305, 1, 336, 256
-0.998003, 153, 129, 184, 375
-0.998005, 353, 165, 480, 196
-0.998005, 97, 325, 224, 356
-0.998006, 197, 73, 212, 104
-0.998006, 1, 53, 128, 84
-0.998006, 1, 89, 128, 120
-0.99801, 273, 145, 400, 176
-0.99801, 453, 49, 468, 80
-0.99802, 473, 113, 488, 144
-0.998022, 351, 301, 366, 332
-0.998026, 459, 209, 474, 240
-0.998029, 49, 101, 176, 132
-0.998042, 457, 249, 472, 280
-0.998042, 147, 177, 162, 208
-0.998046, 369, 329, 496, 360
-0.998047, 97, 309, 224, 340
-0.998057, 173, 177, 188, 208
-0.998059, 449, 137, 464, 168
-0.998062, 177, 157, 304, 188
-0.998065, 193, 329, 320, 360
-0.998069, 181, 129, 212, 375
-0.998076, 91, 297, 106, 328
-0.99808, 455, 169, 470, 200
-0.99809, 343, 301, 358, 332
-0.998104, 361, 1, 392, 256
-0.998105, 465, 113, 480, 144
-0.998105, 129, 129, 384, 192
-0.998106, 21, 297, 36, 328
-0.998112, 337, 301, 352, 332
-0.998112, 305, 213, 432, 244
-0.998116, 423, 41, 438, 72
-0.998119, 161, 1, 192, 256
-0.998123, 241, 317, 368, 348
-0.998132, 337, 65, 464, 96
-0.998137, 403, 101, 418, 132
-0.998142, 411, 97, 426, 128
-0.998149, 439, 29, 454, 60
-0.998154, 419, 25, 434, 56
-0.998154, 77, 297, 92, 328
-0.998155, 363, 301, 378, 332
-0.998155, 113, 73, 240, 104
-0.998167, 113, 285, 240, 316
-0.998173, 9, 293, 24, 324
-0.998176, 321, 301, 336, 332
-0.998177, 371, 301, 386, 332
-0.99818, 409, 81, 424, 112
-0.998182, 13, 1, 44, 256
-0.998185, 391, 93, 406, 124
-0.998185, 455, 73, 470, 104
-0.998192, 13, 129, 44, 256
-0.998198, 185, 161, 200, 192
-0.998199, 331, 301, 346, 332
-0.9982, 471, 113, 486, 240
-0.998203, 47, 297, 62, 328
-0.998203, 249, 33, 280, 288
-0.998204, 449, 125, 464, 156
-0.998204, 273, 301, 288, 332
-0.998207, 357, 65, 388, 192
-0.998208, 159, 161, 174, 192
-0.99821, 353, 269, 480, 300
-0.998214, 337, 9, 464, 40
-0.99822, 485, 165, 500, 196
-0.998221, 71, 297, 86, 328
-0.998222, 101, 297, 116, 328
-0.998225, 441, 301, 456, 332
-0.998239, 205, 113, 236, 240
-0.998244, 455, 17, 470, 48
-0.998249, 37, 1, 68, 256
-0.998251, 401, 85, 416, 116
-0.998256, 25, 1, 56, 256
-0.998257, 385, 93, 400, 124
-0.998258, 225, 1, 256, 256
-0.99827, 307, 301, 322, 332
-0.998272, 39, 297, 54, 328
-0.998272, 83, 313, 98, 344
-0.998273, 305, 289, 432, 320
-0.998275, 423, 77, 438, 108
-0.99828, 193, 105, 320, 136
-0.99828, 129, 153, 256, 184
-0.998283, 97, 101, 224, 132
-0.998284, 57, 145, 88, 272
-0.998286, 1, 101, 128, 132
-0.998291, 263, 301, 278, 332
-0.998294, 417, 73, 432, 104
-0.998301, 65, 297, 80, 328
-0.998302, 219, 297, 234, 328
-0.998303, 17, 41, 32, 72
-0.998308, 1, 281, 16, 312
-0.998312, 261, 1, 292, 256
-0.998319, 53, 297, 68, 328
-0.998322, 315, 301, 330, 332
-0.998325, 435, 301, 450, 332
-0.998328, 479, 301, 494, 332
-0.998334, 15, 297, 30, 328
-0.998335, 473, 97, 488, 128
-0.998336, 33, 297, 48, 328
-0.998338, 369, 345, 496, 375
-0.998338, 3, 265, 18, 296
-0.998343, 227, 301, 242, 332
-0.998347, 457, 61, 472, 92
-0.998348, 27, 297, 42, 328
-0.998349, 467, 249, 482, 280
-0.998352, 447, 229, 462, 260
-0.998358, 279, 301, 294, 332
-0.99836, 325, 303, 356, 318
-0.998361, 265, 343, 296, 358
-0.998362, 61, 299, 92, 314
-0.998362, 433, 217, 464, 232
-0.998362, 345, 303, 376, 318
-0.998363, 445, 29, 476, 44
-0.998363, 33, 97, 288, 160
-0.998363, 353, 107, 384, 122
-0.998363, 309, 303, 340, 318
-0.998364, 361, 221, 376, 252
-0.998364, 433, 37, 464, 52
-0.998364, 93, 301, 124, 316
-0.998364, 405, 95, 436, 110
-0.998365, 421, 33, 452, 48
-0.998365, 357, 151, 388, 166
-0.998365, 181, 301, 212, 316
-0.998365, 205, 301, 236, 316
-0.998367, 325, 355, 356, 370
-0.998367, 393, 93, 424, 108
-0.998368, 105, 301, 136, 316
-0.998369, 245, 303, 276, 318
-0.998369, 485, 301, 500, 332
-0.998371, 425, 299, 456, 314
-0.998371, 257, 105, 384, 136
-0.998372, 445, 205, 476, 220
-0.998372, 437, 79, 468, 94
-0.998373, 253, 343, 284, 358
-0.998374, 197, 75, 228, 90
-0.998374, 181, 353, 212, 368
-0.998374, 45, 47, 76, 62
-0.998375, 483, 129, 498, 256
-0.998375, 191, 161, 206, 192
-0.998375, 305, 349, 336, 364
-0.998376, 373, 305, 404, 320
-0.998376, 469, 173, 500, 188
-0.998376, 77, 299, 108, 314
-0.998376, 161, 301, 192, 316
-0.998377, 465, 257, 496, 272
-0.998377, 413, 77, 444, 92
-0.998378, 305, 45, 432, 76
-0.998378, 177, 347, 208, 362
-0.998378, 441, 163, 472, 178
-0.998379, 203, 165, 218, 196
-0.998379, 441, 53, 472, 68
-0.998379, 137, 301, 168, 316
-0.99838, 325, 349, 356, 364
-0.998381, 441, 149, 472, 164
-0.998381, 65, 43, 96, 58
-0.998381, 453, 75, 484, 90
-0.998383, 29, 45, 60, 60
-0.998383, 421, 211, 452, 226
-0.998383, 469, 95, 500, 110
-0.998385, 59, 297, 74, 328
-0.998385, 381, 301, 396, 332
-0.998388, 293, 303, 324, 318
-0.998388, 469, 305, 500, 320
-0.998389, 385, 305, 416, 320
-0.998389, 117, 301, 148, 316
-0.998389, 189, 173, 220, 188
-0.998389, 441, 47, 472, 62
-0.998392, 21, 299, 52, 314
-0.998394, 453, 305, 484, 320
-0.998396, 469, 77, 500, 92
-0.998396, 453, 231, 484, 246
-0.998396, 261, 303, 292, 318
-0.998397, 273, 303, 304, 318
-0.998397, 401, 87, 432, 102
-0.998398, 453, 95, 484, 110
-0.998399, 165, 129, 196, 375
-0.9984, 425, 187, 456, 202
-0.9984, 365, 107, 396, 122
-0.998401, 145, 183, 176, 198
-0.998402, 433, 201, 464, 216
-0.998403, 449, 115, 480, 130
-0.998407, 1, 293, 32, 308
-0.998408, 457, 149, 488, 164
-0.998408, 469, 161, 484, 288
-0.99841, 437, 245, 468, 260
-0.998411, 413, 305, 444, 320
-0.998412, 445, 225, 476, 240
-0.998413, 441, 87, 472, 102
-0.998414, 401, 81, 432, 96
-0.998414, 409, 213, 440, 228
-0.998419, 433, 25, 464, 40
-0.99842, 9, 45, 40, 60
-0.998421, 461, 43, 492, 58
-0.998421, 397, 217, 428, 232
-0.998421, 401, 101, 432, 116
-0.998422, 469, 55, 500, 70
-0.998423, 477, 97, 492, 224
-0.998423, 401, 305, 432, 320
-0.998427, 441, 305, 472, 320
-0.998429, 449, 37, 480, 52
-0.998431, 413, 47, 444, 62
-0.998434, 469, 89, 500, 104
-0.998436, 449, 171, 480, 186
-0.998436, 449, 155, 480, 170
-0.998437, 421, 27, 452, 42
-0.998441, 189, 33, 220, 288
-0.998442, 425, 305, 456, 320
-0.998442, 5, 299, 36, 314
-0.998445, 449, 135, 480, 150
-0.998446, 455, 161, 470, 288
-0.998447, 173, 175, 204, 190
-0.998448, 249, 129, 280, 375
-0.998451, 469, 149, 500, 164
-0.998452, 1, 249, 256, 312
-0.998452, 197, 129, 228, 375
-0.998452, 153, 165, 184, 180
-0.998454, 161, 179, 192, 194
-0.998455, 449, 121, 480, 136
-0.998455, 475, 33, 490, 160
-0.998457, 241, 213, 368, 244
-0.998462, 445, 217, 476, 232
-0.998462, 385, 107, 416, 122
-0.998462, 465, 233, 496, 248
-0.998466, 453, 247, 484, 262
-0.998466, 449, 81, 480, 96
-0.998467, 433, 207, 464, 222
-0.998467, 193, 177, 320, 208
-0.998468, 453, 89, 484, 104
-0.998471, 469, 211, 500, 226
-0.998473, 429, 85, 460, 100
-0.998475, 237, 33, 268, 288
-0.998476, 483, 33, 498, 160
-0.998478, 461, 221, 492, 236
-0.998478, 433, 241, 496, 256
-0.998479, 449, 141, 480, 156
-0.99848, 453, 165, 484, 180
-0.99848, 445, 237, 476, 252
-0.998483, 469, 83, 500, 98
-0.998484, 149, 171, 180, 186
-0.998486, 209, 129, 240, 375
-0.998488, 421, 39, 452, 54
-0.998488, 181, 165, 212, 180
-0.998493, 413, 83, 444, 98
-0.998493, 145, 177, 176, 192
-0.998495, 49, 29, 176, 60
-0.998497, 169, 163, 200, 178
-0.998502, 145, 171, 208, 186
-0.998504, 445, 253, 476, 268
-0.998505, 469, 163, 500, 178
-0.998505, 433, 157, 496, 172
-0.99851, 393, 103, 456, 118
-0.998511, 469, 241, 500, 256
-0.998514, 193, 317, 320, 348
-0.998514, 461, 155, 492, 170
-0.998516, 401, 83, 464, 98
-0.998516, 417, 35, 480, 50
-0.998517, 465, 227, 496, 242
-0.998518, 469, 137, 500, 152
-0.99852, 449, 127, 480, 142
-0.998521, 161, 171, 192, 186
-0.998523, 457, 211, 488, 226
-0.998526, 141, 129, 172, 375
-0.998526, 461, 37, 492, 52
-0.998527, 417, 53, 480, 68
-0.998527, 241, 17, 368, 48
-0.998531, 81, 189, 208, 220
-0.998532, 457, 239, 488, 254
-0.998533, 137, 181, 200, 196
-0.998534, 225, 81, 352, 112
-0.998534, 445, 211, 476, 226
-0.998537, 433, 143, 496, 158
-0.998537, 433, 209, 496, 224
-0.998541, 209, 41, 336, 72
-0.998542, 161, 77, 288, 108
-0.998543, 409, 209, 472, 224
-0.998543, 169, 175, 232, 190
-0.998544, 483, 81, 498, 208
-0.998544, 81, 153, 208, 184
-0.998549, 401, 95, 464, 110
-0.998551, 193, 225, 320, 256
-0.998553, 465, 49, 480, 176
-0.998554, 433, 255, 496, 270
-0.998556, 433, 135, 496, 150
-0.998556, 145, 165, 208, 180
-0.998557, 469, 119, 500, 134
-0.99856, 125, 97, 156, 224
-0.99856, 93, 145, 124, 272
-0.998563, 433, 127, 496, 142
-0.998563, 401, 43, 464, 58
-0.998565, 433, 247, 496, 262
-0.998565, 377, 97, 440, 112
-0.998565, 417, 77, 480, 92
-0.998567, 353, 107, 416, 122
-0.998569, 9, 47, 72, 62
-0.998569, 461, 127, 492, 142
-0.99857, 465, 247, 496, 262
-0.99857, 401, 305, 464, 320
-0.998571, 377, 91, 440, 106
-0.998571, 463, 113, 478, 240
-0.998571, 321, 341, 448, 372
-0.998574, 401, 215, 464, 230
-0.998574, 417, 89, 480, 104
-0.998575, 433, 305, 496, 320
-0.998575, 145, 325, 272, 356
-0.998575, 353, 97, 416, 112
-0.998576, 433, 151, 496, 166
-0.998578, 1, 217, 256, 280
-0.998582, 433, 165, 496, 180
-0.998582, 409, 29, 472, 44
-0.998582, 221, 129, 252, 375
-0.998586, 433, 173, 496, 188
-0.998586, 433, 223, 496, 238
-0.998587, 73, 129, 104, 375
-0.998588, 121, 163, 184, 178
-0.998589, 417, 63, 480, 78
-0.99859, 1, 299, 64, 314
-0.998594, 433, 235, 496, 250
-0.998598, 433, 119, 496, 134
-0.998599, 145, 105, 272, 136
-0.9986, 377, 305, 440, 320
-0.9986, 469, 143, 500, 158
-0.998601, 433, 31, 464, 46
-0.998603, 385, 27, 448, 42
-0.998604, 433, 217, 496, 232
-0.998609, 433, 97, 496, 112
-0.99861, 241, 303, 304, 318
-0.998614, 345, 305, 408, 320
-0.998614, 297, 303, 360, 318
-0.998616, 177, 301, 240, 316
-0.998616, 225, 343, 288, 358
-0.998617, 273, 303, 336, 318
-0.998619, 57, 99, 120, 114
-0.99862, 33, 45, 96, 60
-0.99862, 169, 167, 232, 182
-0.998621, 105, 301, 168, 316
-0.998621, 81, 301, 144, 316
-0.998624, 241, 249, 368, 312
-0.998624, 137, 301, 200, 316
-0.998625, 425, 83, 488, 98
-0.998626, 97, 165, 160, 180
-0.998626, 25, 299, 88, 314
-0.998626, 281, 225, 344, 240
-0.998627, 461, 161, 476, 288
-0.998627, 49, 299, 112, 314
-0.998631, 393, 151, 456, 166
-0.998631, 401, 323, 464, 338
-0.998631, 217, 303, 280, 318
-0.998632, 305, 225, 368, 240
-0.998632, 177, 347, 240, 362
-0.998634, 33, 351, 96, 366
-0.998635, 417, 69, 480, 84
-0.998635, 137, 347, 200, 362
-0.998635, 249, 343, 312, 358
-0.998637, 105, 319, 168, 334
-0.998638, 377, 83, 440, 98
-0.998639, 313, 349, 376, 364
-0.99864, 321, 303, 384, 318
-0.99864, 377, 323, 440, 338
-0.998643, 281, 349, 344, 364
-0.998644, 377, 219, 440, 234
-0.998644, 201, 343, 264, 358
-0.998644, 401, 109, 464, 124
-0.998644, 89, 341, 152, 356
-0.998645, 417, 299, 480, 314
-0.998645, 121, 171, 184, 186
-0.998646, 169, 353, 232, 368
-0.998646, 73, 319, 136, 334
-0.998647, 329, 105, 392, 120
-0.998647, 113, 341, 176, 356
-0.998648, 1, 201, 64, 216
-0.998649, 145, 159, 208, 174
-0.998651, 353, 151, 416, 166
-0.998651, 177, 325, 240, 340
-0.998652, 217, 353, 280, 368
-0.998652, 433, 325, 496, 340
-0.998653, 1, 41, 64, 56
-0.998654, 289, 343, 352, 358
-0.998654, 169, 189, 232, 204
-0.998655, 73, 169, 136, 184
-0.998655, 401, 115, 464, 130
-0.998656, 305, 355, 368, 370
-0.998657, 409, 345, 472, 360
-0.998657, 241, 105, 304, 120
-0.998657, 377, 45, 440, 60
-0.998657, 457, 113, 472, 240
-0.998657, 153, 103, 216, 118
-0.998657, 137, 193, 200, 208
-0.998658, 433, 203, 496, 218
-0.998658, 225, 321, 288, 336
-0.998658, 401, 235, 464, 250
-0.998658, 401, 201, 464, 216
-0.998659, 433, 111, 496, 126
-0.998659, 1, 293, 64, 308
-0.998659, 345, 323, 408, 338
-0.998659, 273, 321, 336, 336
-0.99866, 9, 53, 72, 68
-0.99866, 393, 299, 456, 314
-0.99866, 49, 319, 112, 334
-0.99866, 145, 341, 208, 356
-0.998661, 425, 351, 488, 366
-0.998661, 41, 341, 104, 356
-0.998661, 393, 241, 456, 256
-0.998664, 169, 161, 232, 176
-0.998664, 129, 319, 192, 334
-0.998665, 9, 351, 72, 366
-0.998665, 329, 151, 392, 166
-0.998665, 121, 99, 184, 114
-0.998666, 249, 321, 312, 336
-0.998666, 113, 347, 176, 362
-0.998666, 201, 325, 264, 340
-0.998668, 65, 341, 128, 356
-0.998668, 73, 351, 136, 366
-0.998669, 113, 177, 176, 192
-0.99867, 193, 353, 256, 368
-0.99867, 145, 325, 208, 340
-0.998685, 449, 193, 464, 320
-0.998692, 477, 161, 492, 288
-0.998701, 337, 129, 368, 375
-0.998724, 465, 1, 480, 128
-0.998735, 459, 65, 474, 192
-0.998755, 459, 209, 474, 336
-0.998767, 369, 129, 400, 375
-0.998769, 129, 21, 256, 52
-0.99877, 89, 129, 120, 375
-0.998774, 451, 113, 466, 240
-0.998775, 467, 209, 482, 336
-0.998777, 1, 17, 128, 48
-0.998782, 257, 41, 384, 72
-0.9988, 483, 177, 498, 304
-0.998822, 483, 241, 498, 368
-0.998828, 129, 129, 160, 375
-0.99883, 193, 21, 320, 52
-0.998833, 1, 249, 500, 312
-0.998835, 457, 1, 472, 128
-0.998846, 21, 65, 52, 192
-0.998848, 145, 313, 272, 344
-0.998855, 1, 249, 128, 280
-0.998867, 477, 241, 492, 368
-0.998892, 281, 129, 312, 375
-0.998897, 273, 345, 400, 375
-0.998918, 449, 241, 464, 368
-0.998926, 97, 221, 224, 252
-0.998935, 65, 65, 192, 96
-0.998943, 237, 129, 268, 375
-0.998945, 129, 33, 256, 64
-0.998945, 293, 129, 324, 375
-0.998958, 1, 177, 128, 208
-0.998979, 289, 81, 416, 112
-0.999008, 177, 189, 304, 220
-0.999014, 3, 209, 18, 336
-0.999023, 5, 129, 36, 375
-0.999024, 313, 129, 344, 375
-0.999042, 109, 129, 140, 375
-0.999057, 441, 161, 456, 288
-0.99906, 225, 141, 352, 172
-0.999065, 37, 129, 68, 375
-0.999066, 49, 221, 176, 252
-0.999079, 33, 237, 160, 268
-0.999082, 413, 49, 428, 176
-0.999082, 129, 105, 384, 168
-0.999094, 349, 129, 380, 375
-0.999095, 129, 45, 256, 76
-0.999098, 389, 97, 420, 352
-0.999101, 145, 225, 272, 256
-0.999108, 1, 189, 128, 220
-0.999108, 273, 237, 400, 268
-0.999131, 265, 129, 296, 375
-0.999131, 445, 113, 460, 240
-0.999148, 439, 209, 454, 336
-0.999159, 325, 129, 356, 375
-0.999162, 451, 1, 466, 128
-0.99917, 13, 209, 28, 336
-0.99917, 65, 17, 192, 48
-0.999177, 453, 65, 468, 192
-0.99918, 167, 145, 182, 272
-0.999196, 413, 129, 444, 375
-0.999204, 175, 145, 190, 272
-0.999247, 407, 17, 422, 144
-0.99925, 185, 145, 200, 272
-0.999262, 153, 145, 168, 272
-0.999264, 425, 129, 456, 375
-0.999272, 353, 177, 480, 208
-0.999273, 341, 1, 356, 128
-0.999282, 49, 53, 176, 84
-0.999284, 1, 265, 128, 296
-0.999291, 423, 33, 438, 160
-0.999292, 407, 65, 422, 192
-0.999295, 1, 153, 128, 184
-0.999299, 357, 1, 372, 128
-0.999301, 1, 1, 16, 128
-0.999301, 349, 1, 364, 128
-0.999305, 317, 1, 332, 128
-0.999309, 413, 1, 428, 128
-0.999327, 331, 1, 346, 128
-0.999327, 191, 145, 206, 272
-0.999327, 13, 1, 28, 128
-0.999332, 205, 1, 220, 128
-0.999332, 293, 1, 308, 128
-0.999334, 61, 129, 92, 375
-0.999343, 443, 1, 458, 128
-0.999345, 191, 1, 206, 128
-0.999351, 7, 1, 22, 128
-0.999353, 223, 1, 238, 128
-0.999358, 305, 133, 432, 164
-0.999358, 33, 137, 288, 200
-0.999365, 323, 1, 338, 128
-0.999367, 299, 1, 314, 128
-0.999373, 305, 1, 320, 128
-0.999374, 401, 129, 432, 375
-0.999383, 257, 1, 272, 128
-0.999385, 159, 1, 174, 128
-0.999385, 63, 1, 78, 128
-0.999386, 201, 145, 216, 272
-0.999387, 363, 1, 378, 128
-0.999389, 245, 1, 260, 128
-0.999389, 167, 1, 182, 128
-0.999392, 251, 1, 266, 128
-0.999394, 289, 9, 416, 40
-0.999395, 79, 1, 94, 128
-0.999395, 397, 17, 412, 144
-0.999397, 289, 61, 416, 92
-0.999405, 161, 145, 176, 272
-0.999408, 445, 65, 460, 192
-0.999408, 229, 1, 244, 128
-0.999409, 271, 1, 286, 128
-0.99941, 207, 145, 222, 272
-0.99941, 157, 193, 172, 320
-0.999411, 1, 129, 500, 192
-0.999411, 185, 1, 200, 128
-0.999411, 217, 1, 232, 128
-0.999415, 137, 209, 152, 336
-0.999415, 117, 1, 132, 128
-0.999422, 27, 209, 42, 336
-0.999422, 439, 113, 454, 240
-0.999425, 199, 1, 214, 128
-0.999426, 139, 1, 154, 128
-0.999427, 177, 1, 192, 128
-0.999429, 193, 213, 320, 244
-0.99943, 237, 1, 252, 128
-0.999431, 147, 145, 162, 272
-0.999432, 153, 1, 168, 128
-0.999434, 111, 17, 126, 144
-0.999434, 127, 17, 142, 144
-0.999435, 431, 161, 446, 288
-0.999437, 127, 209, 142, 336
-0.999438, 241, 29, 368, 60
-0.999441, 201, 65, 216, 192
-0.999442, 113, 249, 240, 312
-0.999442, 371, 209, 386, 336
-0.999442, 53, 1, 68, 128
-0.999442, 211, 1, 226, 128
-0.999446, 43, 1, 58, 128
-0.999446, 311, 1, 326, 128
-0.999449, 133, 1, 148, 128
-0.99945, 61, 209, 76, 336
-0.999451, 387, 225, 402, 352
-0.999452, 257, 65, 272, 192
-0.999452, 419, 81, 434, 208
-0.999453, 305, 201, 432, 232
-0.999455, 19, 1, 34, 128
-0.999455, 17, 129, 48, 375
-0.999456, 285, 1, 300, 128
-0.999456, 91, 1, 106, 128
-0.999457, 145, 225, 160, 352
-0.999459, 51, 209, 66, 336
-0.999462, 391, 17, 406, 144
-0.999464, 113, 209, 128, 336
-0.999468, 5, 161, 20, 288
-0.999469, 67, 209, 82, 336
-0.99947, 277, 1, 292, 128
-0.999472, 33, 17, 48, 144
-0.999473, 263, 1, 278, 128
-0.999474, 401, 65, 416, 192
-0.999474, 69, 1, 84, 128
-0.999474, 81, 209, 96, 336
-0.999475, 421, 209, 436, 336
-0.999475, 75, 209, 90, 336
-0.999476, 267, 65, 282, 192
-0.999478, 433, 225, 448, 352
-0.99948, 99, 1, 114, 128
-0.999481, 161, 97, 176, 224
-0.999481, 251, 65, 266, 192
-0.999483, 35, 209, 50, 336
-0.999487, 145, 1, 160, 128
-0.999487, 93, 209, 108, 336
-0.999488, 239, 65, 254, 192
-0.999491, 427, 225, 442, 352
-0.999492, 1, 201, 128, 232
-0.999493, 289, 157, 416, 188
-0.999494, 435, 1, 450, 128
-0.999494, 99, 209, 114, 336
-0.999496, 155, 97, 170, 224
-0.99955, 49, 129, 80, 375
-0.999585, 301, 303, 316, 318
-0.999586, 271, 303, 286, 318
-0.999586, 453, 79, 468, 94
-0.999588, 407, 305, 422, 320
-0.999589, 439, 25, 454, 40
-0.999589, 405, 99, 420, 114
-0.999589, 213, 177, 228, 192
-0.999589, 411, 103, 426, 118
-0.99959, 469, 233, 484, 248
-0.99959, 371, 151, 386, 166
-0.999592, 447, 245, 462, 260
-0.999593, 397, 105, 412, 120
-0.999593, 425, 83, 440, 98
-0.999593, 409, 79, 424, 94
-0.999594, 423, 211, 438, 226
-0.999597, 473, 223, 488, 238
-0.999598, 23, 299, 38, 314
-0.999598, 483, 77, 498, 92
-0.999598, 455, 51, 470, 66
-0.999599, 199, 79, 214, 94
-0.999599, 159, 177, 174, 192
-0.9996, 387, 107, 402, 122
-0.9996, 445, 305, 460, 320
-0.999601, 461, 147, 476, 162
-0.999602, 449, 217, 464, 232
-0.999602, 419, 305, 434, 320
-0.999602, 479, 247, 494, 262
-0.999603, 189, 171, 204, 186
-0.999603, 453, 227, 468, 242
-0.999604, 447, 253, 462, 268
-0.999605, 471, 143, 486, 158
-0.999605, 403, 105, 418, 120
-0.999605, 453, 85, 468, 100
-0.999605, 13, 45, 28, 60
-0.999609, 467, 227, 482, 242
-0.99961, 467, 219, 482, 234
-0.99961, 415, 81, 430, 96
-0.999611, 483, 95, 498, 110
-0.999611, 473, 247, 488, 262
-0.999612, 473, 57, 488, 72
-0.999612, 425, 305, 440, 320
-0.999613, 197, 169, 212, 184
-0.999613, 437, 305, 452, 320
-0.999613, 403, 85, 418, 100
-0.999613, 455, 157, 470, 172
-0.999613, 1, 299, 16, 314
-0.999614, 439, 31, 454, 46
-0.999617, 421, 39, 436, 54
-0.999619, 431, 33, 446, 48
-0.99962, 419, 45, 434, 60
-0.99962, 469, 77, 484, 92
-0.999622, 475, 87, 490, 102
-0.999622, 457, 217, 472, 232
-0.999622, 5, 45, 20, 60
-0.999622, 469, 51, 484, 66
-0.999624, 207, 173, 222, 188
-0.999624, 475, 151, 490, 166
-0.999626, 461, 245, 476, 260
-0.999626, 429, 209, 444, 224
-0.999628, 473, 65, 488, 80
-0.999628, 167, 183, 182, 198
-0.999628, 485, 227, 500, 242
-0.999629, 485, 83, 500, 98
-0.999629, 463, 169, 478, 184
-0.999629, 161, 169, 176, 184
-0.99963, 177, 163, 192, 178
-0.999631, 485, 149, 500, 164
-0.999631, 483, 211, 498, 226
-0.999631, 451, 239, 466, 254
-0.999634, 483, 71, 498, 86
-0.999634, 483, 61, 498, 76
-0.999635, 455, 141, 470, 156
-0.999637, 199, 73, 214, 88
-0.999637, 427, 39, 442, 54
-0.999638, 161, 183, 176, 198
-0.999639, 475, 73, 490, 88
-0.999639, 481, 165, 496, 180
-0.999641, 459, 211, 474, 226
-0.999649, 477, 229, 492, 244
-0.99965, 153, 171, 168, 186
-0.999651, 475, 119, 490, 134
-0.999655, 467, 91, 482, 106
-0.999658, 479, 237, 494, 252
-0.999659, 457, 237, 472, 252
-0.999659, 165, 163, 180, 178
-0.999659, 465, 121, 480, 136
-0.999661, 471, 133, 486, 148
-0.999663, 465, 57, 480, 72
-0.999663, 175, 173, 190, 188
-0.999664, 461, 155, 476, 170
-0.999665, 465, 63, 480, 78
-0.999665, 463, 37, 478, 52
-0.999668, 469, 157, 484, 172
-0.999669, 455, 135, 470, 150
-0.999671, 433, 27, 448, 42
-0.999673, 469, 149, 484, 164
-0.999673, 409, 85, 424, 100
-0.999673, 445, 29, 460, 44
-0.999674, 483, 55, 498, 70
-0.999681, 461, 131, 476, 146
-0.999681, 467, 247, 482, 262
-0.999682, 457, 251, 472, 266
-0.999683, 471, 165, 486, 180
-0.999683, 463, 233, 478, 248
-0.999684, 479, 145, 494, 160
-0.999687, 171, 163, 186, 178
-0.999688, 463, 69, 478, 84
-0.999692, 167, 171, 182, 186
-0.999692, 465, 163, 480, 178
-0.999693, 469, 71, 484, 86
-0.999694, 467, 239, 482, 254
-0.999695, 461, 137, 476, 152
-0.999696, 475, 79, 490, 94
-0.999697, 463, 75, 478, 90
-0.999698, 463, 85, 478, 100
-0.9997, 469, 211, 484, 226
-0.999701, 477, 39, 492, 54
-0.999705, 485, 221, 500, 236
-0.999705, 455, 163, 470, 178
-0.999712, 453, 245, 468, 260
-0.999715, 485, 89, 500, 104
-0.999717, 483, 155, 498, 170
-0.99973, 479, 221, 494, 236
-0.999734, 165, 177, 180, 192
-0.999743, 481, 139, 496, 154
-0.999759, 471, 127, 486, 142
-0.999769, 473, 239, 488, 254
-0.999776, 455, 127, 470, 142
-0.999776, 453, 209, 468, 224
-0.999785, 475, 157, 490, 172
-0.999865, 193, 249, 320, 312
-0.999894, 241, 161, 368, 224
-1.0002, 161, 249, 416, 312
