1980
-0.574364, 1, 129, 500, 375
-0.626623, 33, 1, 288, 375
-0.65813, 1, 33, 500, 288
-0.677037, 225, 1, 480, 375
-0.708868, 193, 129, 448, 375
-0.71595, 1, 1, 500, 375
-0.75451, 129, 1, 384, 375
-0.762143, 97, 129, 352, 375
-0.858173, 1, 129, 256, 375
-0.865868, 193, 129, 320, 375
-0.873626, 33, 33, 288, 288
-0.895607, 241, 1, 368, 375
-0.898478, 225, 33, 480, 288
-0.898899, 161, 1, 288, 375
-0.904404, 241, 129, 368, 375
-0.910258, 161, 225, 416, 352
-0.911029, 1, 241, 500, 368
-0.912988, 145, 129, 272, 375
-0.916215, 113, 1, 240, 375
-0.926369, 161, 225, 288, 352
-0.930307, 65, 225, 320, 352
-0.934197, 225, 145, 288, 272
-0.935376, 161, 177, 416, 304
-0.939502, 241, 193, 304, 320
-0.93956, 97, 129, 224, 375
-0.940397, 209, 209, 336, 336
-0.940537, 289, 1, 416, 375
-0.944966, 177, 145, 304, 272
-0.946112, 97, 129, 352, 256
-0.946579, 65, 1, 192, 375
-0.946609, 177, 33, 304, 288
-0.946689, 201, 209, 264, 336
-0.946852, 289, 129, 416, 375
-0.947566, 241, 33, 368, 288
-0.948602, 177, 225, 240, 352
-0.949151, 369, 1, 496, 375
-0.949811, 1, 193, 500, 320
-0.952505, 257, 129, 500, 256
-0.953133, 257, 241, 500, 368
-0.953296, 49, 129, 176, 375
-0.953423, 225, 145, 352, 272
-0.953859, 65, 177, 320, 304
-0.954297, 241, 209, 304, 272
-0.954768, 1, 97, 500, 224
-0.955815, 353, 129, 480, 375
-0.956811, 265, 209, 328, 336
-0.957024, 177, 241, 240, 304
-0.957583, 249, 129, 312, 256
-0.960449, 201, 233, 264, 296
-0.96081, 217, 209, 280, 272
-0.961156, 1, 145, 500, 272
-0.961813, 225, 169, 288, 232
-0.962669, 241, 233, 304, 296
-0.963064, 257, 193, 384, 320
-0.963144, 113, 241, 240, 368
-0.963156, 201, 145, 264, 272
-0.963277, 257, 193, 500, 320
-0.963335, 241, 241, 304, 368
-0.963947, 137, 281, 200, 344
-0.964107, 265, 209, 328, 272
-0.964152, 129, 33, 256, 288
-0.964539, 337, 241, 464, 368
-0.964561, 1, 1, 128, 375
-0.964607, 289, 33, 416, 288
-0.96539, 153, 225, 216, 352
-0.965498, 401, 313, 464, 375
-0.965668, 241, 145, 304, 208
-0.965902, 249, 185, 312, 248
-0.965917, 369, 1, 496, 256
-0.967022, 233, 129, 296, 375
-0.967597, 201, 257, 264, 320
-0.967612, 289, 241, 416, 368
-0.96811, 1, 33, 500, 160
-0.969356, 217, 145, 280, 208
-0.969443, 225, 81, 480, 208
-0.969485, 177, 177, 240, 304
-0.970175, 249, 145, 280, 272
-0.970229, 249, 145, 280, 208
-0.970602, 161, 249, 288, 312
-0.971173, 129, 241, 192, 368
-0.971241, 1, 129, 128, 375
-0.971578, 269, 209, 300, 272
-0.971712, 345, 265, 408, 328
-0.971944, 253, 193, 284, 320
-0.972349, 169, 265, 232, 328
-0.972834, 177, 97, 304, 224
-0.973218, 113, 289, 176, 352
-0.973478, 161, 225, 288, 288
-0.973611, 249, 201, 280, 264
-0.973641, 145, 249, 208, 312
-0.974141, 393, 289, 456, 352
-0.974498, 145, 273, 272, 336
-0.974778, 257, 97, 384, 224
-0.975286, 353, 241, 416, 368
-0.9754, 181, 241, 212, 304
-0.97549, 177, 153, 304, 216
-0.975729, 261, 145, 292, 272
-0.976106, 49, 1, 176, 256
-0.976454, 425, 313, 488, 375
-0.976479, 241, 257, 304, 320
-0.97721, 225, 209, 256, 336
-0.977518, 113, 161, 240, 288
-0.977594, 177, 217, 240, 280
-0.977704, 369, 297, 432, 360
-0.977879, 237, 145, 268, 272
-0.977996, 209, 209, 336, 272
-0.978007, 313, 273, 376, 336
-0.978192, 225, 281, 288, 344
-0.978272, 261, 185, 292, 248
-0.978487, 209, 129, 272, 375
-0.978592, 265, 193, 296, 320
-0.978738, 249, 225, 280, 288
-0.978795, 393, 241, 456, 368
-0.978933, 133, 289, 164, 352
-0.979036, 265, 145, 328, 208
-0.979089, 257, 113, 320, 176
-0.979216, 205, 233, 236, 296
-0.979539, 209, 97, 272, 224
-0.979613, 1, 33, 128, 288
-0.979691, 225, 249, 352, 312
-0.980234, 181, 225, 212, 352
-0.980327, 329, 241, 392, 368
-0.980332, 213, 209, 244, 336
-0.980559, 229, 225, 260, 288
-0.980658, 273, 161, 336, 288
-0.980664, 249, 169, 280, 232
-0.980709, 97, 81, 352, 208
-0.980844, 97, 281, 224, 344
-0.980884, 257, 129, 320, 375
-0.981131, 237, 169, 268, 232
-0.981302, 241, 209, 272, 336
-0.981339, 193, 241, 224, 304
-0.981419, 369, 313, 496, 375
-0.981557, 409, 313, 440, 375
-0.981676, 225, 137, 352, 200
-0.981755, 153, 281, 184, 344
-0.981867, 225, 185, 352, 248
-0.982205, 265, 233, 328, 296
-0.982213, 289, 265, 416, 328
-0.982274, 321, 313, 448, 375
-0.982287, 305, 241, 368, 368
-0.982413, 225, 281, 352, 344
-0.982579, 177, 177, 304, 240
-0.982595, 289, 105, 352, 168
-0.982642, 185, 129, 248, 375
-0.982644, 65, 225, 192, 352
-0.982721, 201, 177, 264, 240
-0.982724, 357, 265, 388, 328
-0.982749, 193, 145, 256, 208
-0.982863, 1, 129, 256, 256
-0.982884, 409, 81, 472, 208
-0.982975, 201, 209, 232, 336
-0.983039, 273, 145, 304, 272
-0.983056, 257, 81, 320, 208
-0.983181, 273, 185, 336, 248
-0.983199, 429, 313, 460, 375
-0.983239, 469, 57, 500, 120
-0.983553, 433, 33, 496, 160
-0.983798, 417, 289, 480, 352
-0.983862, 337, 289, 400, 352
-0.983869, 289, 273, 352, 336
-0.98392, 277, 209, 308, 336
-0.983937, 249, 289, 312, 352
-0.98399, 401, 129, 464, 192
-0.983997, 353, 113, 480, 240
-0.984073, 153, 305, 216, 368
-0.984088, 433, 57, 496, 120
-0.984327, 225, 161, 352, 224
-0.984376, 169, 241, 200, 304
-0.984459, 345, 313, 408, 375
-0.984469, 121, 313, 184, 375
-0.984564, 249, 249, 280, 312
-0.984615, 129, 193, 192, 320
-0.984898, 97, 305, 224, 368
-0.985045, 217, 233, 248, 296
-0.985058, 321, 289, 448, 352
-0.98529, 217, 201, 248, 264
-0.985301, 305, 81, 432, 208
-0.985318, 169, 225, 200, 352
-0.985334, 261, 153, 292, 216
-0.985698, 81, 257, 208, 320
-0.985777, 161, 201, 288, 264
-0.985869, 181, 265, 212, 328
-0.985941, 257, 113, 384, 176
-0.985973, 217, 121, 280, 184
-0.985995, 169, 281, 200, 344
-0.98606, 445, 313, 476, 375
-0.986241, 241, 281, 272, 344
-0.986247, 285, 201, 316, 264
-0.986369, 237, 145, 268, 208
-0.986416, 273, 185, 304, 248
-0.986453, 237, 201, 268, 264
-0.986517, 273, 145, 400, 272
-0.986664, 185, 305, 248, 368
-0.986796, 313, 97, 376, 160
-0.986845, 389, 313, 420, 375
-0.986923, 337, 265, 464, 328
-0.987068, 369, 257, 432, 320
-0.987187, 357, 241, 388, 368
-0.987207, 177, 297, 304, 360
-0.987289, 253, 97, 284, 224
-0.987395, 265, 233, 296, 296
-0.987625, 229, 265, 260, 328
-0.987647, 429, 289, 460, 352
-0.987867, 153, 177, 216, 304
-0.987925, 369, 289, 496, 352
-0.988002, 49, 305, 176, 368
-0.988132, 89, 273, 152, 336
-0.988157, 417, 289, 448, 352
-0.988262, 253, 241, 284, 368
-0.988295, 369, 65, 496, 192
-0.988312, 177, 129, 304, 192
-0.988321, 289, 209, 352, 272
-0.988519, 249, 121, 280, 184
-0.988521, 257, 1, 500, 128
-0.988671, 205, 209, 236, 272
-0.988709, 337, 273, 368, 336
-0.988735, 305, 249, 368, 312
-0.988891, 401, 129, 464, 256
-0.988947, 97, 225, 160, 352
-0.989109, 353, 121, 416, 184
-0.98916, 273, 289, 400, 352
-0.989195, 265, 1, 328, 375
-0.98926, 369, 97, 432, 160
-0.989303, 241, 213, 304, 244
-0.989307, 201, 281, 264, 344
-0.989322, 289, 193, 320, 320
-0.989402, 369, 17, 496, 144
-0.989437, 189, 177, 220, 304
-0.989516, 369, 241, 400, 368
-0.989523, 233, 225, 296, 256
-0.989601, 177, 245, 240, 276
-0.989674, 137, 241, 168, 368
-0.989751, 257, 209, 384, 272
-0.989756, 469, 49, 500, 176
-0.989763, 177, 129, 240, 256
-0.989807, 193, 1, 256, 375
-0.989879, 225, 145, 256, 272
-0.990009, 217, 1, 280, 375
-0.990036, 393, 329, 456, 360
-0.990067, 249, 201, 312, 232
-0.990151, 241, 153, 304, 184
-0.99016, 433, 241, 496, 368
-0.990219, 193, 217, 224, 280
-0.990244, 129, 281, 384, 344
-0.990298, 225, 49, 352, 176
-0.990312, 409, 317, 472, 348
-0.99035, 265, 241, 296, 368
-0.99037, 209, 233, 272, 264
-0.990372, 201, 265, 264, 296
-0.990377, 225, 173, 288, 204
-0.990398, 241, 1, 304, 375
-0.990403, 321, 97, 448, 160
-0.990416, 441, 289, 472, 352
-0.99042, 345, 269, 408, 300
-0.990467, 129, 249, 384, 312
-0.990509, 89, 297, 152, 360
-0.990519, 257, 229, 320, 260
-0.99058, 17, 241, 144, 368
-0.990591, 281, 113, 344, 240
-0.990628, 281, 225, 312, 288
-0.99064, 369, 273, 400, 336
-0.990685, 361, 321, 424, 352
-0.990712, 217, 153, 280, 184
-0.990758, 193, 265, 224, 328
-0.990798, 369, 65, 496, 128
-0.990799, 313, 297, 376, 360
-0.99084, 433, 321, 496, 352
-0.990844, 265, 129, 296, 192
-0.990876, 113, 233, 240, 296
-0.990921, 33, 273, 160, 336
-0.990951, 257, 33, 320, 288
-0.990957, 265, 213, 328, 244
-0.990962, 225, 201, 288, 232
-0.990968, 129, 289, 192, 320
-0.990971, 257, 141, 320, 172
-0.990995, 201, 145, 232, 272
-0.991002, 377, 137, 440, 200
-0.991034, 113, 209, 240, 272
-0.99104, 201, 245, 264, 276
-0.99105, 305, 277, 368, 308
-0.991149, 177, 269, 240, 300
-0.991224, 233, 237, 296, 268
-0.991224, 157, 257, 188, 320
-0.991234, 145, 261, 208, 292
-0.991263, 433, 81, 496, 208
-0.991278, 225, 189, 288, 220
-0.991313, 273, 297, 336, 360
-0.991339, 209, 213, 272, 244
-0.991409, 213, 145, 244, 272
-0.991425, 301, 97, 332, 160
-0.991429, 425, 333, 488, 364
-0.991432, 129, 33, 384, 160
-0.991466, 257, 165, 320, 196
-0.991507, 169, 193, 232, 256
-0.991527, 209, 305, 272, 368
-0.991531, 249, 293, 312, 324
-0.991563, 385, 317, 448, 348
-0.991589, 121, 301, 184, 332
-0.991616, 121, 297, 152, 360
-0.991631, 285, 113, 316, 176
-0.991641, 157, 225, 188, 352
-0.991644, 369, 333, 432, 364
-0.991652, 265, 189, 328, 220
-0.991655, 433, 129, 496, 256
-0.991664, 393, 345, 456, 375
-0.991668, 145, 225, 208, 288
-0.991685, 233, 141, 296, 172
-0.991697, 297, 193, 360, 320
-0.991718, 233, 249, 296, 280
-0.991776, 401, 137, 464, 168
-0.991788, 241, 281, 304, 312
-0.991814, 201, 141, 264, 172
-0.991829, 153, 281, 216, 312
-0.991834, 161, 129, 224, 375
-0.99184, 185, 233, 248, 264
-0.991852, 401, 289, 432, 352
-0.991855, 297, 105, 360, 136
-0.991891, 209, 105, 336, 168
-0.991906, 209, 281, 272, 312
-0.991916, 377, 113, 440, 240
-0.991917, 257, 241, 320, 272
-0.991919, 233, 81, 296, 208
-0.991988, 201, 201, 264, 232
-0.991996, 129, 113, 256, 240
-0.992008, 113, 313, 176, 344
-0.992027, 281, 117, 344, 148
-0.992042, 337, 281, 400, 312
-0.992062, 433, 129, 496, 192
-0.992096, 201, 165, 264, 196
-0.992103, 169, 257, 232, 288
-0.992154, 273, 233, 400, 296
-0.992165, 249, 149, 280, 180
-0.992172, 145, 313, 208, 344
-0.992182, 225, 273, 480, 336
-0.992196, 241, 269, 304, 300
-0.992201, 193, 153, 256, 184
-0.992204, 273, 201, 336, 232
-0.992244, 369, 129, 496, 192
-0.992245, 89, 301, 152, 332
-0.992268, 281, 229, 344, 260
-0.992275, 129, 177, 256, 240
-0.992276, 217, 293, 280, 324
-0.992287, 337, 89, 400, 152
-0.992302, 289, 217, 352, 248
-0.99232, 385, 305, 448, 336
-0.992343, 241, 97, 272, 224
-0.992398, 1, 297, 500, 360
-0.992402, 265, 153, 328, 184
-0.992405, 257, 205, 288, 236
-0.992407, 269, 97, 300, 224
-0.992414, 281, 285, 344, 316
-0.99242, 425, 89, 488, 152
-0.992423, 433, 61, 496, 92
-0.992429, 245, 221, 276, 252
-0.992466, 329, 321, 392, 352
-0.992467, 369, 89, 496, 152
-0.992469, 409, 305, 472, 336
-0.992477, 1, 81, 256, 208
-0.992489, 257, 109, 320, 140
-0.992524, 249, 177, 312, 208
-0.992592, 409, 129, 440, 192
-0.9926, 273, 89, 400, 152
-0.992601, 145, 249, 208, 280
-0.992605, 445, 317, 476, 348
-0.992609, 361, 129, 424, 160
-0.992626, 273, 225, 304, 256
-0.992631, 357, 269, 388, 300
-0.992648, 337, 309, 400, 340
-0.992652, 305, 265, 368, 296
-0.992669, 345, 333, 408, 364
-0.992674, 433, 309, 496, 340
-0.992676, 225, 305, 352, 368
-0.99268, 393, 149, 456, 180
-0.992685, 425, 345, 488, 375
-0.992688, 65, 177, 192, 304
-0.992689, 169, 305, 232, 336
-0.992704, 281, 129, 344, 375
-0.992717, 177, 221, 240, 252
-0.992728, 225, 229, 256, 260
-0.992737, 361, 309, 424, 340
-0.992738, 401, 105, 464, 168
-0.992746, 177, 245, 208, 276
-0.992749, 209, 33, 272, 288
-0.992749, 249, 173, 280, 204
-0.992772, 449, 329, 480, 360
-0.992773, 321, 101, 384, 132
-0.992778, 249, 237, 280, 268
-0.992784, 129, 297, 160, 328
-0.992793, 257, 193, 288, 224
-0.992807, 429, 325, 460, 356
-0.99282, 269, 213, 300, 244
-0.99282, 261, 225, 292, 256
-0.99285, 353, 193, 480, 320
-0.992851, 353, 345, 416, 375
-0.992856, 273, 313, 400, 375
-0.992864, 257, 129, 320, 160
-0.992865, 129, 1, 192, 375
-0.992869, 81, 289, 144, 320
-0.99288, 469, 61, 500, 92
-0.992889, 389, 321, 420, 352
-0.992893, 369, 281, 432, 312
-0.992899, 237, 169, 268, 200
-0.9929, 401, 333, 432, 364
-0.9929, 321, 113, 384, 144
-0.992901, 417, 325, 448, 356
-0.992922, 217, 305, 280, 336
-0.992931, 245, 209, 276, 240
-0.992938, 273, 193, 304, 224
-0.99294, 417, 153, 480, 216
-0.992943, 201, 189, 264, 220
-0.992947, 177, 49, 304, 176
-0.992952, 137, 129, 200, 375
-0.992955, 105, 277, 168, 308
-0.99297, 369, 269, 432, 300
-0.992971, 209, 241, 240, 272
-0.992972, 253, 161, 284, 192
-0.99299, 237, 233, 268, 264
-0.99302, 189, 245, 220, 276
-0.993021, 173, 265, 204, 296
-0.993031, 113, 265, 176, 328
-0.993037, 401, 293, 464, 324
-0.993039, 369, 145, 432, 176
-0.993043, 237, 189, 268, 220
-0.993047, 253, 137, 284, 168
-0.993051, 229, 245, 260, 276
-0.993079, 265, 237, 296, 268
-0.993093, 265, 169, 296, 200
-0.9931, 337, 241, 368, 368
-0.993107, 425, 145, 488, 176
-0.993107, 429, 337, 460, 368
-0.993117, 405, 321, 436, 352
-0.993118, 389, 289, 420, 352
-0.993119, 429, 313, 460, 344
-0.993124, 189, 261, 220, 292
-0.993124, 337, 277, 368, 308
-0.993136, 233, 157, 264, 188
-0.993145, 185, 177, 248, 208
-0.993148, 353, 97, 416, 224
-0.993148, 89, 313, 152, 344
-0.993149, 385, 241, 416, 368
-0.993151, 401, 89, 464, 120
-0.993152, 229, 217, 260, 248
-0.993155, 373, 317, 404, 348
-0.993156, 237, 281, 268, 312
-0.993158, 305, 105, 336, 136
-0.993164, 249, 97, 312, 128
-0.993168, 293, 109, 324, 140
-0.99317, 245, 253, 276, 284
-0.993173, 129, 273, 192, 304
-0.993179, 177, 281, 240, 312
-0.993183, 433, 49, 496, 80
-0.993189, 213, 229, 244, 260
-0.993193, 277, 289, 308, 352
-0.993194, 285, 221, 316, 252
-0.993199, 145, 285, 176, 316
-0.9932, 185, 273, 216, 304
-0.993206, 225, 261, 256, 292
-0.993212, 161, 217, 416, 280
-0.993217, 277, 237, 308, 268
-0.99322, 405, 141, 436, 172
-0.993222, 217, 129, 280, 160
-0.993225, 433, 73, 496, 104
-0.993235, 261, 181, 292, 212
-0.993239, 145, 341, 208, 372
-0.993241, 281, 209, 312, 240
-0.993244, 305, 329, 368, 360
-0.993249, 269, 141, 300, 172
-0.993251, 369, 269, 400, 300
-0.993252, 361, 293, 424, 324
-0.993252, 113, 333, 176, 364
-0.993266, 441, 305, 472, 336
-0.993269, 173, 281, 204, 312
-0.993273, 417, 313, 448, 344
-0.993274, 137, 313, 168, 344
-0.993274, 409, 125, 472, 156
-0.993288, 469, 73, 500, 104
-0.993295, 153, 1, 216, 375
-0.993295, 461, 317, 492, 348
-0.993296, 245, 293, 276, 324
-0.993299, 313, 289, 376, 320
-0.993303, 117, 301, 148, 332
-0.993313, 405, 309, 436, 340
-0.993313, 457, 313, 488, 375
-0.993314, 201, 261, 232, 292
-0.99332, 177, 169, 240, 232
-0.993324, 197, 229, 228, 260
-0.993329, 269, 157, 300, 188
-0.993332, 165, 253, 196, 284
-0.993337, 441, 341, 472, 372
-0.993343, 273, 297, 336, 328
-0.993363, 157, 285, 188, 316
-0.993368, 313, 277, 344, 308
-0.993368, 229, 205, 260, 236
-0.993376, 257, 249, 288, 280
-0.993377, 369, 257, 432, 288
-0.993379, 433, 1, 496, 375
-0.993382, 145, 329, 208, 360
-0.993392, 193, 301, 256, 332
-0.993403, 385, 333, 416, 364
-0.993413, 125, 313, 156, 344
-0.993413, 145, 301, 208, 332
-0.993433, 229, 137, 260, 168
-0.993433, 469, 89, 500, 120
-0.993433, 241, 137, 272, 168
-0.993434, 157, 273, 188, 304
-0.993434, 317, 101, 348, 132
-0.993439, 417, 341, 448, 372
-0.993448, 249, 265, 280, 296
-0.993451, 345, 257, 408, 288
-0.993454, 333, 265, 364, 296
-0.993467, 381, 273, 412, 304
-0.993467, 393, 309, 424, 340
-0.99347, 337, 297, 400, 328
-0.993471, 133, 313, 164, 375
-0.993477, 417, 137, 448, 168
-0.99348, 149, 313, 180, 344
-0.993483, 405, 345, 436, 375
-0.99349, 361, 317, 392, 348
-0.993492, 273, 181, 304, 212
-0.993497, 169, 333, 232, 364
-0.993499, 177, 209, 240, 240
-0.993502, 213, 261, 244, 292
-0.993504, 469, 49, 500, 80
-0.993507, 377, 97, 440, 128
-0.993509, 209, 217, 240, 248
-0.993512, 285, 141, 316, 172
-0.993513, 225, 193, 256, 224
-0.993514, 441, 81, 472, 112
-0.993518, 161, 313, 192, 344
-0.99352, 425, 89, 488, 120
-0.993524, 285, 289, 316, 320
-0.993525, 257, 281, 288, 312
-0.993526, 425, 101, 488, 132
-0.993528, 429, 81, 460, 208
-0.993529, 197, 273, 228, 304
-0.993531, 265, 341, 328, 372
-0.993532, 381, 261, 412, 292
-0.993535, 393, 145, 424, 176
-0.993537, 173, 309, 204, 340
-0.993538, 293, 209, 324, 240
-0.993541, 257, 293, 288, 324
-0.993542, 301, 277, 332, 308
-0.993543, 273, 177, 336, 208
-0.993548, 433, 133, 496, 164
-0.993549, 141, 297, 172, 328
-0.993551, 265, 129, 296, 160
-0.993555, 361, 329, 392, 360
-0.993557, 305, 117, 336, 148
-0.993558, 349, 281, 380, 312
-0.993562, 289, 233, 320, 264
-0.993562, 361, 257, 392, 288
-0.993566, 329, 101, 360, 132
-0.993566, 129, 237, 192, 268
-0.993567, 33, 257, 288, 320
-0.993571, 113, 313, 144, 344
-0.993575, 345, 141, 408, 172
-0.993576, 289, 93, 352, 124
-0.993584, 373, 329, 404, 360
-0.993591, 369, 281, 400, 312
-0.993593, 177, 165, 240, 196
-0.993596, 269, 297, 300, 328
-0.993598, 453, 341, 484, 372
-0.993598, 217, 205, 248, 236
-0.9936, 281, 273, 344, 304
-0.9936, 461, 329, 492, 360
-0.993602, 281, 105, 312, 136
-0.993604, 169, 189, 232, 220
-0.993604, 145, 177, 208, 208
-0.993606, 221, 173, 252, 204
-0.993607, 325, 277, 356, 308
-0.993611, 185, 309, 216, 340
-0.993613, 345, 241, 408, 304
-0.993617, 193, 165, 224, 196
-0.993619, 317, 113, 348, 144
-0.99362, 293, 121, 324, 152
-0.993621, 113, 285, 144, 316
-0.993624, 253, 289, 284, 352
-0.99363, 297, 305, 360, 336
-0.993632, 105, 289, 168, 320
-0.993635, 81, 341, 144, 372
-0.993666, 161, 241, 288, 272
-0.993675, 369, 153, 496, 216
-0.993696, 73, 241, 136, 368
-0.993792, 225, 129, 256, 192
-0.99383, 425, 33, 488, 96
-0.993853, 161, 277, 288, 308
-0.993855, 1, 273, 500, 336
-0.993922, 305, 81, 368, 208
-0.993924, 133, 265, 164, 328
-0.993927, 193, 145, 448, 208
-0.993947, 321, 137, 448, 200
-0.993971, 121, 241, 184, 304
-0.993995, 353, 289, 384, 352
-0.994003, 269, 201, 284, 264
-0.994008, 425, 241, 456, 368
-0.994049, 193, 121, 256, 184
-0.994134, 161, 305, 192, 368
-0.994148, 97, 177, 352, 240
-0.994225, 361, 313, 392, 375
-0.994325, 469, 89, 500, 152
-0.994384, 97, 153, 352, 216
-0.994399, 173, 305, 204, 368
-0.994407, 381, 257, 412, 320
-0.994441, 273, 177, 400, 240
-0.994469, 209, 221, 336, 252
-0.994507, 317, 273, 348, 336
-0.994527, 183, 241, 198, 304
-0.994528, 161, 265, 288, 296
-0.994537, 257, 137, 272, 200
-0.994587, 309, 241, 340, 368
-0.994591, 377, 313, 408, 375
-0.994612, 333, 249, 364, 312
-0.994631, 149, 313, 180, 375
-0.994647, 193, 81, 320, 144
-0.994671, 329, 81, 392, 208
-0.994674, 177, 177, 208, 304
-0.99468, 249, 81, 312, 144
-0.994698, 225, 249, 480, 312
-0.994758, 441, 129, 472, 192
-0.994771, 249, 129, 280, 375
-0.994772, 65, 233, 192, 296
-0.99478, 485, 57, 500, 120
-0.994783, 369, 41, 496, 104
-0.994784, 305, 273, 336, 336
-0.99479, 279, 217, 294, 280
-0.994821, 289, 1, 352, 375
-0.994837, 261, 177, 276, 240
-0.994844, 189, 241, 204, 304
-0.994847, 185, 305, 216, 368
-0.994863, 301, 121, 332, 184
-0.994868, 65, 305, 320, 368
-0.994874, 177, 161, 304, 192
-0.994898, 181, 217, 212, 280
-0.994951, 65, 217, 320, 280
-0.994986, 329, 121, 392, 184
-0.995, 257, 113, 500, 176
-0.995014, 285, 137, 316, 200
-0.995051, 33, 281, 288, 344
-0.995061, 285, 145, 316, 272
-0.995091, 257, 313, 500, 375
-0.995109, 369, 129, 432, 375
-0.99511, 297, 201, 328, 264
-0.995117, 263, 217, 278, 280
-0.995122, 409, 65, 472, 128
-0.995125, 257, 209, 272, 272
-0.995128, 161, 253, 288, 284
-0.995169, 409, 113, 440, 240
-0.995218, 273, 137, 400, 200
-0.995233, 251, 145, 266, 208
-0.995303, 273, 161, 304, 224
-0.995312, 353, 329, 480, 360
-0.995346, 285, 217, 300, 280
-0.995349, 195, 241, 210, 304
-0.995364, 267, 153, 282, 216
-0.99538, 141, 289, 156, 352
-0.995429, 129, 129, 256, 192
-0.995436, 461, 1, 492, 128
-0.995465, 353, 241, 480, 304
-0.995477, 193, 169, 448, 232
-0.995541, 439, 313, 454, 375
-0.995545, 213, 233, 228, 296
-0.995557, 229, 97, 260, 224
-0.99557, 201, 241, 216, 304
-0.995574, 177, 177, 304, 208
-0.995575, 449, 313, 464, 375
-0.995583, 177, 241, 192, 304
-0.995641, 129, 153, 256, 216
-0.995644, 469, 33, 500, 96
-0.995675, 193, 193, 448, 256
-0.995682, 359, 265, 374, 328
-0.995691, 155, 281, 170, 344
-0.995694, 113, 57, 240, 120
-0.995711, 441, 241, 472, 368
-0.995715, 147, 289, 162, 352
-0.995732, 321, 193, 384, 320
-0.995733, 249, 169, 264, 232
-0.995742, 313, 97, 344, 160
-0.995744, 249, 313, 312, 375
-0.99575, 219, 233, 234, 296
-0.995753, 135, 289, 150, 352
-0.995781, 217, 257, 248, 320
-0.995789, 353, 317, 480, 348
-0.995792, 113, 289, 240, 320
-0.995822, 401, 241, 432, 368
-0.995837, 209, 209, 336, 240
-0.995842, 269, 177, 284, 240
-0.99586, 207, 233, 222, 296
-0.995908, 441, 65, 472, 192
-0.995929, 153, 169, 216, 232
-0.995933, 209, 233, 336, 264
-0.995944, 479, 57, 494, 120
-0.995955, 241, 225, 256, 288
-0.995964, 455, 305, 470, 368
-0.995969, 117, 273, 148, 336
-0.995984, 233, 33, 296, 288
-0.995991, 125, 225, 156, 352
-0.996006, 241, 281, 368, 312
-0.996031, 197, 145, 228, 208
-0.996038, 205, 273, 236, 336
-0.996041, 225, 153, 352, 184
-0.996043, 225, 193, 352, 224
-0.996052, 161, 229, 288, 260
-0.996065, 429, 121, 460, 184
-0.996065, 353, 273, 368, 336
-0.996091, 369, 249, 400, 312
-0.996127, 251, 209, 266, 272
-0.996137, 357, 241, 388, 304
-0.996141, 393, 265, 456, 328
-0.996151, 225, 161, 256, 224
-0.996153, 289, 273, 416, 304
-0.996176, 177, 265, 192, 328
-0.996193, 225, 165, 352, 196
-0.996196, 225, 269, 352, 300
-0.996244, 49, 49, 176, 176
-0.996251, 265, 289, 296, 352
-0.996272, 447, 289, 462, 352
-0.996314, 445, 57, 476, 120
-0.996322, 249, 281, 264, 344
-0.996324, 457, 57, 488, 120
-0.996345, 245, 145, 260, 208
-0.996355, 255, 177, 270, 240
-0.996365, 249, 249, 264, 312
-0.99637, 433, 313, 448, 375
-0.996399, 279, 193, 294, 256
-0.996425, 297, 145, 328, 272
-0.996432, 291, 193, 306, 256
-0.996443, 177, 149, 304, 180
-0.996461, 171, 281, 186, 344
-0.996462, 129, 1, 384, 256
-0.996463, 97, 261, 224, 292
-0.996463, 81, 97, 208, 224
-0.996466, 161, 281, 176, 344
-0.996469, 81, 145, 208, 208
-0.996476, 161, 305, 416, 368
-0.996483, 221, 297, 252, 360
-0.99649, 437, 289, 452, 352
-0.996503, 177, 189, 304, 220
-0.996512, 65, 57, 192, 120
-0.996527, 413, 241, 444, 368
-0.996535, 225, 141, 352, 172
-0.996536, 305, 193, 432, 320
-0.996539, 305, 129, 368, 375
-0.996551, 377, 65, 440, 192
-0.996563, 237, 129, 268, 375
-0.996565, 225, 177, 352, 208
-0.996565, 183, 281, 198, 344
-0.996606, 293, 281, 324, 344
-0.996646, 225, 293, 352, 324
-0.996652, 285, 177, 316, 240
-0.996672, 197, 305, 228, 368
-0.996679, 269, 225, 284, 288
-0.996693, 297, 129, 360, 192
-0.996702, 265, 129, 296, 375
-0.996715, 441, 81, 472, 144
-0.996722, 225, 25, 352, 88
-0.996728, 243, 273, 258, 336
-0.996744, 219, 201, 234, 264
-0.996754, 419, 313, 434, 375
-0.996763, 211, 209, 226, 272
-0.996768, 397, 137, 428, 200
-0.996769, 265, 265, 328, 328
-0.996813, 235, 233, 250, 296
-0.99684, 225, 249, 352, 280
-0.99686, 297, 97, 312, 160
-0.99686, 373, 265, 388, 328
-0.996892, 313, 1, 376, 375
-0.996905, 177, 301, 304, 332
-0.996936, 193, 265, 208, 328
-0.996942, 273, 65, 400, 128
-0.996959, 409, 313, 424, 375
-0.996963, 227, 225, 242, 288
-0.996964, 329, 97, 360, 160
-0.996967, 235, 201, 250, 264
-0.996987, 113, 301, 240, 332
-0.997003, 431, 289, 446, 352
-0.997026, 297, 73, 360, 136
-0.997026, 185, 161, 216, 224
-0.997031, 263, 129, 278, 192
-0.997037, 305, 325, 432, 356
-0.997039, 171, 249, 186, 312
-0.997075, 307, 113, 322, 176
-0.997117, 161, 49, 288, 112
-0.997124, 337, 97, 400, 352
-0.997126, 337, 269, 464, 300
-0.997148, 353, 305, 480, 336
-0.997163, 105, 1, 168, 375
-0.997172, 353, 341, 480, 372
-0.997179, 97, 313, 224, 344
-0.997193, 273, 153, 288, 216
-0.997198, 483, 61, 498, 92
-0.99722, 375, 305, 390, 368
-0.997224, 255, 289, 270, 352
-0.997239, 425, 313, 440, 375
-0.997244, 97, 129, 352, 192
-0.997252, 473, 57, 488, 120
-0.997264, 321, 33, 448, 96
-0.997275, 129, 305, 144, 368
-0.997291, 161, 289, 288, 320
-0.997295, 289, 285, 416, 316
-0.997307, 365, 265, 380, 328
-0.997347, 457, 89, 488, 152
-0.997362, 285, 193, 300, 256
-0.997365, 321, 73, 448, 136
-0.997368, 403, 305, 418, 368
-0.997378, 293, 97, 324, 224
-0.997405, 113, 249, 240, 280
-0.997407, 255, 249, 270, 312
-0.997413, 113, 49, 240, 176
-0.997426, 347, 273, 362, 336
-0.997431, 321, 33, 384, 160
-0.997431, 65, 301, 192, 332
-0.997433, 1, 249, 500, 312
-0.997438, 349, 313, 380, 375
-0.997444, 425, 289, 440, 352
-0.997455, 291, 217, 306, 280
-0.997455, 245, 201, 260, 264
-0.997484, 369, 1, 432, 375
-0.997486, 483, 33, 498, 96
-0.997487, 81, 177, 208, 240
-0.997489, 33, 81, 160, 144
-0.997491, 345, 97, 376, 160
-0.997493, 379, 265, 394, 328
-0.9975, 1, 137, 128, 200
-0.997503, 361, 89, 392, 152
-0.997513, 199, 265, 214, 328
-0.997517, 409, 333, 424, 364
-0.997552, 145, 217, 272, 248
-0.997565, 321, 33, 448, 160
-0.99758, 199, 217, 214, 280
-0.997586, 415, 289, 430, 352
-0.997591, 265, 173, 280, 204
-0.997609, 297, 137, 312, 200
-0.997637, 461, 313, 476, 375
-0.997646, 437, 325, 452, 356
-0.997666, 225, 1, 352, 128
-0.997685, 269, 205, 284, 236
-0.997703, 445, 317, 460, 348
-0.997711, 177, 137, 304, 168
-0.997722, 269, 129, 284, 192
-0.997724, 259, 221, 274, 252
-0.997742, 243, 169, 258, 232
-0.997743, 305, 337, 432, 368
-0.997746, 291, 113, 306, 176
-0.997748, 1, 297, 128, 360
-0.997748, 249, 173, 264, 204
-0.997753, 459, 317, 474, 348
-0.997757, 243, 249, 258, 312
-0.997786, 453, 321, 468, 352
-0.997791, 197, 169, 228, 232
-0.997792, 145, 201, 272, 232
-0.997794, 275, 241, 290, 304
-0.997798, 205, 209, 220, 272
-0.997799, 441, 113, 472, 240
-0.997802, 241, 229, 256, 260
-0.997804, 225, 201, 240, 264
-0.997808, 145, 265, 160, 328
-0.99781, 355, 273, 370, 304
-0.99783, 445, 329, 460, 360
-0.997831, 415, 129, 430, 192
-0.997861, 297, 193, 312, 256
-0.997863, 397, 313, 412, 375
-0.997864, 279, 225, 294, 256
-0.997868, 421, 129, 436, 192
-0.997868, 345, 1, 408, 375
-0.997875, 387, 297, 402, 360
-0.997877, 151, 313, 166, 375
-0.997888, 365, 289, 380, 352
-0.99789, 263, 201, 278, 232
-0.997894, 135, 297, 150, 328
-0.997896, 261, 105, 292, 168
-0.9979, 209, 169, 240, 232
-0.997905, 177, 249, 192, 280
-0.997906, 263, 241, 278, 304
-0.997924, 209, 305, 240, 368
-0.997925, 209, 49, 272, 176
-0.997929, 269, 229, 284, 260
-0.997931, 361, 269, 376, 300
-0.997937, 285, 225, 300, 256
-0.99794, 481, 81, 496, 144
-0.997941, 275, 189, 290, 220
-0.997945, 435, 313, 450, 344
-0.997946, 313, 97, 328, 160
-0.997964, 1, 161, 128, 224
-0.997966, 193, 193, 224, 256
-0.997966, 249, 149, 264, 180
-0.997967, 257, 229, 384, 260
-0.99797, 303, 137, 318, 200
-0.997971, 177, 289, 192, 352
-0.997975, 305, 313, 432, 344
-0.997979, 369, 137, 496, 168
-0.997979, 381, 313, 396, 375
-0.997981, 257, 137, 272, 168
-0.997989, 257, 81, 500, 144
-0.997997, 193, 217, 208, 280
-0.998002, 113, 273, 240, 304
-0.998003, 259, 181, 274, 212
-0.998038, 257, 209, 384, 240
-0.998042, 269, 189, 284, 220
-0.998045, 187, 217, 202, 280
-0.998047, 143, 293, 158, 324
-0.998057, 217, 129, 248, 375
-0.998078, 263, 233, 278, 264
-0.998079, 273, 109, 400, 140
-0.998084, 251, 217, 266, 248
-0.998084, 187, 245, 202, 276
-0.998098, 251, 121, 266, 184
-0.998104, 161, 177, 192, 304
-0.998112, 185, 265, 200, 296
-0.998113, 369, 57, 496, 88
-0.998114, 353, 285, 480, 316
-0.998118, 289, 153, 352, 216
-0.998125, 439, 57, 454, 120
-0.998126, 379, 321, 394, 352
-0.99813, 285, 129, 316, 375
-0.99813, 237, 121, 268, 184
-0.998132, 189, 129, 220, 256
-0.998132, 33, 289, 160, 320
-0.998138, 185, 305, 200, 368
-0.998139, 197, 129, 228, 375
-0.998142, 349, 277, 364, 308
-0.998142, 49, 313, 176, 344
-0.998148, 365, 49, 396, 176
-0.998151, 235, 177, 250, 240
-0.998171, 247, 281, 262, 312
-0.998174, 271, 217, 286, 248
-0.998179, 239, 129, 254, 192
-0.998183, 283, 241, 298, 304
-0.998193, 157, 313, 172, 375
-0.998196, 409, 137, 424, 200
-0.9982, 49, 277, 176, 308
-0.998203, 381, 289, 396, 352
-0.998205, 139, 265, 154, 328
-0.998216, 373, 269, 388, 300
-0.998216, 305, 145, 432, 176
-0.998229, 485, 73, 500, 104
-0.998237, 193, 245, 208, 276
-0.99824, 365, 313, 380, 375
-0.998241, 369, 149, 496, 180
-0.998242, 265, 149, 280, 180
-0.998244, 279, 289, 294, 352
-0.998245, 205, 273, 220, 336
-0.998246, 431, 325, 446, 356
-0.998251, 129, 301, 144, 332
-0.998253, 249, 237, 264, 268
-0.998258, 403, 321, 418, 352
-0.998262, 315, 273, 330, 336
-0.998263, 259, 161, 274, 192
-0.998266, 191, 305, 206, 368
-0.998272, 213, 241, 228, 272
-0.998275, 133, 265, 148, 328
-0.99828, 411, 321, 426, 352
-0.998284, 253, 289, 268, 320
-0.998284, 179, 265, 194, 296
-0.998287, 389, 353, 420, 368
-0.998288, 257, 113, 272, 176
-0.998288, 333, 271, 364, 286
-0.998288, 401, 341, 432, 356
-0.99829, 193, 239, 224, 254
-0.998291, 153, 283, 184, 298
-0.998291, 397, 317, 428, 332
-0.998292, 243, 161, 258, 192
-0.998292, 441, 311, 472, 326
-0.998292, 373, 269, 404, 284
-0.998293, 157, 257, 188, 272
-0.998293, 277, 245, 308, 260
-0.998293, 369, 333, 400, 348
-0.998294, 33, 33, 288, 160
-0.998295, 421, 341, 452, 356
-0.998295, 341, 285, 372, 300
-0.998296, 225, 269, 256, 284
-0.998296, 309, 105, 324, 136
-0.998296, 479, 73, 494, 104
-0.998297, 245, 217, 260, 248
-0.998298, 225, 193, 256, 208
-0.9983, 277, 295, 308, 310
-0.9983, 195, 265, 210, 296
-0.998302, 273, 161, 304, 176
-0.998303, 289, 117, 320, 132
-0.998304, 229, 159, 260, 174
-0.998304, 449, 93, 480, 108
-0.998305, 241, 213, 272, 228
-0.998305, 173, 259, 204, 274
-0.998307, 239, 241, 254, 272
-0.998308, 241, 295, 272, 310
-0.998308, 433, 89, 464, 104
-0.998308, 277, 219, 308, 234
-0.998308, 135, 313, 150, 375
-0.998311, 141, 289, 172, 304
-0.998311, 397, 333, 428, 348
-0.998311, 221, 187, 252, 202
-0.998312, 353, 283, 384, 298
-0.998312, 201, 271, 232, 286
-0.998312, 405, 347, 436, 362
-0.998313, 369, 327, 400, 342
-0.998314, 241, 205, 272, 220
-0.998314, 241, 141, 272, 156
-0.998314, 245, 269, 276, 284
-0.998314, 129, 301, 160, 316
-0.998314, 265, 143, 296, 158
-0.998315, 229, 221, 260, 236
-0.998315, 241, 245, 272, 260
-0.998316, 313, 279, 344, 294
-0.998316, 457, 321, 488, 336
-0.998318, 465, 327, 496, 342
-0.998318, 229, 277, 260, 292
-0.998319, 423, 325, 438, 356
-0.99832, 273, 189, 304, 204
-0.998321, 269, 169, 300, 184
-0.998322, 305, 111, 336, 126
-0.998322, 257, 183, 288, 198
-0.998323, 409, 289, 424, 352
-0.998324, 253, 195, 284, 210
-0.998325, 129, 313, 160, 328
-0.998326, 245, 253, 276, 268
-0.998329, 201, 265, 232, 280
-0.998329, 433, 347, 464, 362
-0.99833, 413, 317, 444, 332
-0.998331, 113, 241, 144, 368
-0.998333, 253, 295, 284, 310
-0.998334, 185, 267, 216, 282
-0.998336, 433, 339, 464, 354
-0.998338, 229, 165, 260, 180
-0.998338, 181, 281, 212, 296
-0.998339, 129, 307, 160, 322
-0.998339, 229, 257, 260, 272
-0.99834, 273, 97, 400, 128
-0.998341, 145, 249, 176, 312
-0.998343, 237, 195, 268, 210
-0.998343, 449, 339, 480, 354
-0.998343, 325, 241, 356, 368
-0.998346, 373, 319, 404, 334
-0.998348, 321, 273, 336, 336
-0.998349, 169, 285, 200, 300
-0.998349, 385, 257, 400, 320
-0.99835, 237, 287, 268, 302
-0.998354, 405, 147, 436, 162
-0.998355, 273, 205, 304, 220
-0.998355, 469, 61, 500, 76
-0.998356, 293, 111, 324, 126
-0.998356, 453, 333, 468, 364
-0.998356, 273, 239, 304, 254
-0.998357, 253, 245, 284, 260
-0.998357, 385, 333, 416, 348
-0.998359, 445, 317, 476, 332
-0.998361, 385, 321, 416, 336
-0.998362, 173, 253, 204, 268
-0.998364, 349, 271, 380, 286
-0.998365, 229, 247, 260, 262
-0.998366, 235, 229, 250, 260
-0.998367, 469, 91, 500, 106
-0.998368, 205, 241, 236, 256
-0.998368, 161, 105, 416, 168
-0.998369, 331, 273, 346, 336
-0.998371, 405, 323, 436, 338
-0.998372, 257, 177, 288, 192
-0.998373, 233, 239, 264, 254
-0.998374, 281, 231, 312, 246
-0.998374, 333, 279, 364, 294
-0.998374, 403, 337, 418, 368
-0.998375, 189, 275, 220, 290
-0.998376, 137, 295, 168, 310
-0.998376, 225, 263, 256, 278
-0.998378, 295, 105, 310, 136
-0.998378, 265, 233, 296, 248
-0.998383, 433, 121, 448, 184
-0.998383, 291, 225, 306, 256
-0.998383, 433, 333, 464, 348
-0.998385, 193, 245, 224, 260
-0.998385, 469, 73, 500, 88
-0.998386, 409, 335, 440, 350
-0.998387, 1, 185, 256, 248
-0.998392, 253, 231, 284, 246
-0.998392, 477, 61, 492, 92
-0.998393, 245, 179, 276, 194
-0.998393, 277, 225, 308, 240
-0.998394, 237, 171, 268, 186
-0.998394, 253, 143, 284, 158
-0.998395, 255, 205, 270, 236
-0.998398, 261, 239, 292, 254
-0.998399, 249, 157, 280, 172
-0.9984, 353, 257, 480, 288
-0.9984, 441, 81, 456, 144
-0.998401, 475, 33, 490, 96
-0.998402, 237, 189, 268, 204
-0.998405, 413, 329, 444, 344
-0.998406, 257, 189, 288, 204
-0.998407, 225, 109, 352, 140
-0.998407, 153, 289, 184, 304
-0.998408, 229, 227, 260, 242
-0.998409, 463, 329, 478, 360
-0.998411, 273, 213, 304, 228
-0.998411, 389, 327, 420, 342
-0.998414, 181, 247, 212, 262
-0.998414, 245, 219, 276, 234
-0.998415, 425, 145, 456, 208
-0.998418, 281, 237, 296, 268
-0.99842, 145, 97, 272, 160
-0.99842, 483, 49, 498, 80
-0.998421, 221, 239, 252, 254
-0.998422, 257, 201, 288, 216
-0.998423, 321, 101, 448, 132
-0.998423, 257, 171, 288, 186
-0.998428, 265, 219, 296, 234
-0.99843, 353, 277, 384, 292
-0.998432, 221, 233, 236, 264
-0.998432, 229, 229, 244, 260
-0.998433, 449, 333, 480, 348
-0.998436, 245, 239, 276, 254
-0.998438, 417, 323, 448, 338
-0.998439, 409, 141, 424, 172
-0.998439, 249, 165, 280, 180
-0.998439, 429, 327, 460, 342
-0.998441, 433, 321, 464, 336
-0.998442, 277, 213, 292, 244
-0.998444, 401, 129, 464, 375
-0.998452, 201, 261, 216, 292
-0.998456, 257, 213, 288, 228
-0.99846, 221, 233, 252, 248
-0.99846, 445, 323, 476, 338
-0.998462, 333, 297, 364, 360
-0.998462, 265, 33, 296, 288
-0.998465, 73, 1, 136, 375
-0.998466, 469, 67, 500, 82
-0.998467, 265, 195, 296, 210
-0.998471, 241, 233, 272, 248
-0.998476, 279, 201, 294, 232
-0.99848, 245, 225, 276, 240
-0.998492, 265, 227, 296, 242
-0.998493, 429, 81, 460, 144
-0.998496, 285, 213, 300, 244
-0.998502, 401, 329, 464, 344
-0.998503, 239, 185, 254, 216
-0.998504, 417, 323, 480, 338
-0.998505, 249, 151, 280, 166
-0.998508, 257, 321, 384, 352
-0.998509, 97, 341, 224, 372
-0.998513, 249, 229, 312, 244
-0.998515, 379, 269, 394, 300
-0.998515, 361, 271, 392, 286
-0.998517, 233, 159, 296, 174
-0.99852, 385, 317, 400, 348
-0.998526, 271, 165, 286, 196
-0.99853, 201, 271, 264, 286
-0.998531, 249, 209, 312, 224
-0.998537, 241, 215, 304, 230
-0.998539, 301, 109, 316, 140
-0.998543, 241, 165, 304, 180
-0.998546, 217, 237, 280, 252
-0.998546, 257, 207, 288, 222
-0.998547, 241, 223, 304, 238
-0.998548, 345, 193, 408, 320
-0.998553, 345, 273, 408, 288
-0.99856, 241, 237, 304, 252
-0.998561, 393, 323, 456, 338
-0.998561, 305, 279, 368, 294
-0.998563, 199, 241, 214, 272
-0.998565, 201, 265, 264, 280
-0.998565, 177, 245, 240, 260
-0.99857, 367, 265, 382, 296
-0.998572, 201, 245, 264, 260
-0.998574, 315, 109, 330, 140
-0.998576, 401, 335, 464, 350
-0.998579, 241, 153, 304, 168
-0.998579, 207, 241, 222, 272
-0.99858, 225, 205, 288, 220
-0.99858, 369, 325, 432, 340
-0.998581, 257, 121, 384, 152
-0.998583, 149, 289, 164, 320
-0.998585, 217, 169, 280, 184
-0.998588, 265, 203, 328, 218
-0.998588, 247, 253, 262, 284
-0.998589, 217, 225, 280, 240
-0.998589, 443, 341, 458, 372
-0.99859, 161, 1, 288, 128
-0.998595, 225, 189, 288, 204
-0.998595, 145, 287, 208, 302
-0.998598, 225, 175, 288, 190
-0.998607, 263, 245, 278, 276
-0.998607, 433, 329, 496, 344
-0.998607, 187, 277, 202, 308
-0.998611, 161, 265, 224, 280
-0.998612, 241, 143, 304, 158
-0.998617, 433, 1, 496, 256
-0.998619, 249, 297, 312, 312
-0.998621, 209, 219, 272, 234
-0.998621, 393, 345, 456, 360
-0.998621, 201, 147, 264, 162
-0.998623, 169, 253, 232, 268
-0.998623, 385, 317, 448, 332
-0.998625, 265, 215, 328, 230
-0.998628, 225, 195, 288, 210
-0.998628, 275, 241, 290, 272
-0.998628, 249, 197, 312, 212
-0.998629, 193, 239, 256, 254
-0.998629, 201, 259, 264, 274
-0.998629, 241, 287, 304, 302
-0.998631, 225, 231, 288, 246
-0.998632, 289, 111, 352, 126
-0.998635, 225, 243, 288, 258
-0.998636, 409, 317, 472, 332
-0.998637, 201, 163, 264, 178
-0.998637, 425, 337, 488, 352
-0.99864, 265, 191, 328, 206
-0.998641, 371, 325, 386, 356
-0.998641, 265, 165, 328, 180
-0.998643, 201, 153, 264, 168
-0.998643, 257, 171, 320, 186
-0.998643, 337, 279, 400, 294
-0.998643, 147, 313, 162, 344
-0.998646, 121, 309, 184, 324
-0.998646, 297, 177, 360, 240
-0.998646, 257, 233, 272, 264
-0.998646, 361, 331, 424, 346
-0.998647, 265, 235, 328, 250
-0.998649, 207, 261, 222, 292
-0.998649, 241, 251, 304, 266
-0.998649, 249, 245, 312, 260
-0.998651, 209, 211, 272, 226
-0.998654, 177, 277, 240, 292
-0.998654, 171, 253, 186, 284
-0.998658, 265, 221, 328, 236
-0.998662, 209, 287, 272, 302
-0.998663, 177, 17, 304, 80
-0.998664, 393, 151, 456, 166
-0.998664, 217, 141, 280, 156
-0.998665, 427, 313, 442, 344
-0.998665, 129, 297, 192, 312
-0.998667, 401, 145, 464, 160
-0.998667, 241, 281, 304, 296
-0.998669, 201, 279, 264, 294
-0.998669, 129, 257, 192, 272
-0.99867, 81, 237, 208, 268
-0.998671, 261, 145, 276, 272
-0.998672, 401, 351, 464, 366
-0.998673, 273, 209, 336, 224
-0.998674, 337, 323, 400, 338
-0.998678, 17, 185, 144, 248
-0.998679, 265, 157, 328, 172
-0.998679, 209, 293, 272, 308
-0.998679, 169, 259, 232, 274
-0.99868, 249, 161, 264, 192
-0.998681, 235, 217, 250, 248
-0.998682, 421, 313, 436, 344
-0.998683, 289, 227, 352, 242
-0.998684, 353, 267, 416, 282
-0.998685, 225, 181, 288, 196
-0.998685, 433, 337, 448, 368
-0.998685, 241, 275, 304, 290
-0.998686, 121, 303, 184, 318
-0.998687, 217, 253, 280, 268
-0.998688, 397, 321, 412, 352
-0.998689, 177, 271, 240, 286
-0.99869, 169, 283, 232, 298
-0.99869, 233, 269, 296, 284
-0.99869, 257, 115, 320, 130
-0.998692, 225, 301, 288, 316
-0.998693, 113, 315, 176, 330
-0.998693, 433, 67, 496, 82
-0.998694, 329, 285, 392, 300
-0.998694, 409, 97, 472, 112
-0.998694, 193, 231, 256, 246
-0.998695, 397, 333, 412, 364
-0.998695, 265, 151, 328, 166
-0.998695, 281, 117, 344, 132
-0.998695, 361, 343, 424, 358
-0.998697, 433, 93, 496, 108
-0.998699, 185, 185, 248, 200
-0.998699, 257, 333, 384, 364
-0.9987, 81, 309, 144, 324
-0.9987, 313, 117, 376, 132
-0.998702, 159, 285, 174, 316
-0.998702, 289, 287, 352, 302
-0.998703, 121, 291, 184, 306
-0.998703, 369, 337, 432, 352
-0.998703, 425, 343, 488, 358
-0.998703, 145, 271, 208, 286
-0.998704, 273, 33, 400, 96
-0.998705, 81, 303, 144, 318
-0.998706, 249, 177, 312, 192
-0.998706, 361, 139, 424, 154
-0.998707, 213, 229, 228, 260
-0.998708, 425, 59, 488, 74
-0.998708, 193, 191, 256, 206
-0.998709, 113, 329, 240, 360
-0.99871, 145, 315, 208, 330
-0.99871, 313, 273, 376, 288
-0.998712, 361, 147, 424, 162
-0.998712, 233, 263, 296, 278
-0.998713, 105, 285, 168, 300
-0.998714, 369, 283, 432, 298
-0.998714, 137, 263, 200, 278
-0.998714, 305, 297, 432, 328
-0.998714, 361, 319, 424, 334
-0.998714, 193, 169, 256, 184
-0.998714, 273, 295, 336, 310
-0.998717, 289, 221, 352, 236
-0.998717, 257, 217, 500, 280
-0.998717, 443, 305, 458, 336
-0.998718, 265, 185, 328, 200
-0.998718, 201, 175, 264, 190
-0.998718, 89, 291, 152, 306
-0.998719, 369, 349, 432, 364
-0.998719, 175, 285, 190, 316
-0.998719, 267, 145, 282, 272
-0.99872, 201, 205, 264, 220
-0.99872, 257, 137, 320, 152
-0.99872, 145, 251, 208, 266
-0.998721, 145, 281, 208, 296
-0.998721, 433, 99, 496, 114
-0.998722, 241, 257, 304, 272
-0.998723, 169, 235, 232, 250
-0.998725, 261, 265, 292, 328
-0.998726, 243, 269, 258, 300
-0.998726, 269, 241, 284, 272
-0.998728, 161, 313, 288, 344
-0.998729, 181, 281, 196, 312
-0.998747, 481, 89, 496, 120
-0.998751, 213, 261, 228, 292
-0.998752, 257, 57, 500, 120
-0.998753, 415, 137, 430, 168
-0.998758, 417, 325, 432, 356
-0.998758, 293, 201, 308, 232
-0.998758, 375, 309, 390, 340
-0.998764, 369, 93, 496, 124
-0.998767, 245, 33, 276, 288
-0.998767, 49, 341, 176, 372
-0.998778, 129, 81, 384, 144
-0.998793, 255, 129, 270, 256
-0.998794, 265, 193, 280, 320
-0.9988, 321, 105, 336, 136
-0.998806, 257, 193, 272, 224
-0.998807, 185, 129, 216, 375
-0.998807, 301, 193, 332, 320
-0.99881, 49, 105, 176, 168
-0.998817, 169, 285, 184, 316
-0.998821, 139, 313, 154, 344
-0.998822, 273, 193, 288, 320
-0.998826, 443, 81, 458, 112
-0.998827, 349, 193, 380, 320
-0.998827, 249, 129, 264, 256
-0.998832, 265, 137, 280, 168
-0.998835, 65, 33, 192, 96
-0.998838, 325, 277, 340, 308
-0.998838, 391, 317, 406, 348
-0.998839, 305, 133, 432, 164
-0.998845, 209, 145, 240, 208
-0.998846, 223, 221, 238, 252
-0.998856, 297, 141, 312, 172
-0.998858, 457, 305, 472, 336
-0.998859, 291, 213, 306, 244
-0.998862, 305, 121, 320, 152
-0.998863, 275, 141, 290, 172
-0.998868, 409, 309, 424, 340
-0.998876, 255, 177, 270, 304
-0.998883, 453, 129, 484, 192
-0.998886, 331, 277, 346, 308
-0.998887, 403, 145, 418, 176
-0.998891, 265, 161, 280, 192
-0.998901, 273, 105, 304, 168
-0.998912, 17, 301, 144, 332
-0.998933, 97, 177, 224, 208
-0.998947, 97, 129, 160, 375
-0.998953, 65, 289, 128, 352
-0.998955, 289, 261, 416, 292
-0.998956, 105, 57, 168, 120
-0.998967, 225, 305, 352, 336
-0.99899, 241, 209, 256, 336
-0.998991, 49, 325, 176, 356
-0.998996, 161, 337, 288, 368
-0.999012, 273, 145, 288, 272
-0.999017, 279, 193, 294, 320
-0.999032, 227, 209, 242, 336
-0.999049, 425, 57, 456, 120
-0.999056, 183, 225, 198, 352
-0.999079, 1, 137, 256, 200
-0.999081, 241, 345, 368, 375
-0.999084, 285, 193, 300, 320
-0.999121, 209, 225, 224, 352
-0.999129, 259, 225, 274, 352
-0.999131, 261, 97, 276, 224
-0.999132, 1, 225, 500, 288
-0.999134, 249, 177, 264, 304
-0.999143, 225, 97, 288, 160
-0.999154, 257, 33, 500, 96
-0.999154, 321, 113, 448, 144
-0.999154, 157, 225, 188, 288
-0.99916, 189, 225, 204, 352
-0.999166, 129, 149, 256, 180
-0.999166, 241, 1, 368, 64
-0.999177, 195, 225, 210, 352
-0.999178, 233, 209, 248, 336
-0.99918, 203, 225, 218, 352
-0.999187, 215, 209, 230, 336
-0.999195, 225, 97, 352, 128
-0.999198, 173, 129, 204, 375
-0.999198, 177, 125, 304, 156
-0.999212, 49, 1, 112, 375
-0.999218, 177, 225, 192, 352
-0.999229, 221, 209, 236, 336
-0.999244, 243, 145, 258, 272
-0.999252, 297, 129, 328, 375
-0.999254, 483, 49, 498, 176
-0.999256, 145, 57, 208, 120
-0.999307, 209, 317, 336, 348
-0.999312, 33, 105, 288, 168
-0.999326, 291, 193, 306, 320
-0.999326, 321, 161, 448, 224
-0.999329, 235, 161, 250, 288
-0.999331, 279, 145, 294, 272
-0.999331, 97, 225, 224, 256
-0.999339, 369, 69, 496, 100
-0.999345, 477, 33, 492, 160
-0.99935, 437, 153, 468, 216
-0.999351, 17, 57, 144, 120
-0.999372, 375, 241, 390, 368
-0.999384, 369, 241, 384, 368
-0.999386, 271, 241, 286, 368
-0.999391, 369, 117, 496, 148
-0.999396, 273, 181, 400, 212
-0.999403, 33, 65, 288, 128
-0.999412, 225, 57, 352, 120
-0.999415, 255, 81, 270, 208
-0.999415, 249, 241, 264, 368
-0.999425, 203, 177, 218, 304
-0.999429, 97, 61, 224, 92
-0.999434, 285, 145, 300, 272
-0.999438, 139, 225, 154, 352
-0.99944, 129, 165, 256, 196
-0.999443, 361, 241, 376, 368
-0.999458, 145, 53, 272, 84
-0.99946, 369, 17, 496, 80
-0.99947, 197, 145, 212, 272
-0.999471, 265, 241, 280, 368
-0.999475, 171, 225, 186, 352
-0.999479, 161, 325, 288, 356
-0.999484, 385, 241, 400, 368
-0.999489, 233, 33, 264, 288
-0.99949, 353, 241, 368, 368
-0.999493, 145, 225, 160, 352
-0.999495, 161, 129, 192, 375
-0.999505, 283, 241, 298, 368
-0.999509, 217, 145, 232, 272
-0.99951, 409, 1, 472, 375
-0.999511, 217, 263, 232, 278
-0.999511, 251, 293, 266, 308
-0.999512, 311, 111, 326, 126
-0.999513, 253, 249, 268, 264
-0.999513, 187, 267, 202, 282
-0.999513, 279, 211, 294, 226
-0.999513, 399, 321, 414, 336
-0.999513, 367, 321, 382, 336
-0.999516, 297, 145, 312, 160
-0.999517, 437, 339, 452, 354
-0.999518, 247, 255, 262, 270
-0.999518, 269, 235, 284, 250
-0.999518, 317, 111, 332, 126
-0.99952, 249, 217, 264, 232
-0.999521, 401, 353, 416, 368
-0.999523, 271, 167, 286, 182
-0.999524, 131, 309, 146, 324
-0.999524, 445, 345, 460, 360
-0.999525, 391, 327, 406, 342
-0.999526, 385, 319, 400, 334
-0.999527, 279, 205, 294, 220
-0.99953, 267, 157, 282, 172
-0.999532, 257, 147, 272, 162
-0.999532, 381, 333, 396, 348
-0.999533, 237, 227, 252, 242
-0.999533, 485, 83, 500, 98
-0.999533, 259, 183, 274, 198
-0.999534, 255, 215, 270, 230
-0.999535, 257, 295, 272, 310
-0.999535, 223, 237, 238, 252
-0.999536, 137, 193, 168, 320
-0.999537, 157, 287, 172, 302
-0.999538, 175, 287, 190, 302
-0.999538, 211, 265, 226, 280
-0.999539, 243, 279, 258, 294
-0.999539, 479, 83, 494, 98
-0.999539, 447, 85, 462, 100
-0.999541, 251, 229, 266, 244
-0.999541, 201, 265, 216, 280
-0.999542, 263, 233, 278, 248
-0.999542, 305, 111, 320, 126
-0.999542, 409, 321, 424, 336
-0.999543, 399, 347, 414, 362
-0.999544, 243, 169, 258, 184
-0.999545, 259, 239, 274, 254
-0.999546, 463, 321, 478, 336
-0.999547, 131, 303, 146, 318
-0.999547, 249, 287, 264, 302
-0.999548, 295, 113, 310, 128
-0.999548, 289, 229, 304, 244
-0.999548, 241, 245, 256, 260
-0.999548, 477, 73, 492, 88
-0.999549, 277, 241, 292, 368
-0.99955, 251, 151, 266, 166
-0.99955, 269, 217, 284, 232
-0.99955, 197, 245, 212, 260
-0.999551, 405, 327, 420, 342
-0.999551, 441, 89, 456, 104
-0.999551, 189, 247, 204, 262
-0.999551, 255, 177, 270, 192
-0.999551, 439, 333, 454, 348
-0.999553, 271, 207, 286, 222
-0.999553, 211, 243, 226, 258
-0.999553, 269, 229, 284, 244
-0.999553, 475, 89, 490, 104
-0.999554, 223, 161, 238, 288
-0.999554, 243, 225, 258, 240
-0.999555, 235, 237, 250, 252
-0.999555, 247, 159, 262, 174
-0.999556, 279, 217, 294, 232
-0.999557, 273, 193, 400, 224
-0.999558, 265, 183, 280, 198
-0.999558, 181, 283, 196, 298
-0.999558, 437, 315, 452, 330
-0.999559, 415, 329, 430, 344
-0.99956, 191, 277, 206, 292
-0.99956, 445, 315, 460, 330
-0.999562, 183, 249, 198, 264
-0.999562, 467, 327, 482, 342
-0.999563, 143, 293, 158, 308
-0.999563, 347, 279, 362, 294
-0.999564, 377, 271, 392, 286
-0.999564, 267, 173, 282, 188
-0.999565, 401, 333, 416, 348
-0.999565, 191, 177, 206, 304
-0.999566, 477, 65, 492, 80
-0.999566, 373, 321, 388, 336
-0.999566, 407, 343, 422, 358
-0.999567, 157, 225, 172, 352
-0.999567, 407, 147, 422, 162
-0.999567, 285, 223, 300, 238
-0.999568, 297, 193, 312, 320
-0.999569, 209, 145, 224, 272
-0.999569, 245, 237, 260, 252
-0.99957, 481, 91, 496, 106
-0.999571, 421, 325, 436, 340
-0.999572, 249, 223, 264, 238
-0.999572, 267, 243, 282, 258
-0.999573, 385, 325, 400, 340
-0.999573, 353, 281, 368, 296
-0.999573, 259, 171, 274, 186
-0.999576, 217, 239, 232, 254
-0.999577, 229, 145, 244, 272
-0.999581, 353, 81, 480, 112
-0.999583, 279, 227, 294, 242
-0.999583, 149, 291, 164, 306
-0.999585, 441, 81, 456, 208
-0.999586, 261, 177, 276, 192
-0.999586, 267, 189, 282, 204
-0.999588, 261, 197, 276, 212
-0.999588, 305, 157, 432, 188
-0.999589, 445, 241, 460, 368
-0.99959, 183, 177, 198, 304
-0.999591, 275, 189, 290, 204
-0.999591, 271, 97, 286, 224
-0.999592, 457, 65, 488, 192
-0.999592, 377, 327, 392, 342
-0.999593, 461, 329, 476, 344
-0.999595, 165, 225, 180, 352
-0.999597, 137, 297, 152, 312
-0.999598, 395, 241, 410, 368
-0.999598, 237, 187, 252, 202
-0.999598, 431, 327, 446, 342
-0.999598, 257, 141, 272, 156
-0.999598, 347, 241, 362, 368
-0.999599, 305, 97, 336, 224
-0.999599, 445, 335, 460, 350
-0.999601, 1, 129, 128, 256
-0.999603, 241, 97, 256, 224
-0.999603, 129, 133, 256, 164
-0.999603, 209, 329, 336, 360
-0.999604, 297, 161, 328, 224
-0.999604, 297, 241, 328, 368
-0.999607, 369, 105, 496, 136
-0.999608, 291, 145, 306, 272
-0.999608, 129, 189, 256, 220
-0.999609, 271, 223, 286, 238
-0.999609, 483, 59, 498, 74
-0.999611, 409, 335, 424, 350
-0.999614, 151, 225, 166, 352
-0.999616, 249, 173, 264, 188
-0.999617, 431, 81, 446, 208
-0.999617, 177, 253, 192, 268
-0.999618, 243, 231, 258, 246
-0.999618, 429, 321, 444, 336
-0.999618, 405, 241, 420, 368
-0.999618, 271, 195, 286, 210
-0.999621, 485, 71, 500, 86
-0.999621, 57, 73, 120, 136
-0.999621, 379, 321, 394, 336
-0.999625, 259, 223, 274, 238
-0.999627, 483, 1, 498, 128
-0.999629, 249, 81, 264, 208
-0.999634, 457, 317, 472, 332
-0.999636, 289, 241, 304, 368
-0.999636, 421, 113, 436, 240
-0.99964, 265, 203, 280, 218
-0.999642, 371, 269, 386, 284
-0.999644, 439, 241, 454, 368
-0.999644, 447, 327, 462, 342
-0.999645, 455, 331, 470, 346
-0.999649, 361, 271, 376, 286
-0.999652, 355, 275, 370, 290
-0.999658, 437, 327, 452, 342
-0.999666, 1, 161, 256, 224
-0.999668, 435, 321, 450, 336
-0.999675, 131, 225, 146, 352
-0.999676, 1, 345, 128, 375
-0.999678, 33, 77, 160, 108
-0.999678, 305, 209, 432, 272
-0.999679, 65, 249, 192, 280
-0.999679, 237, 49, 268, 176
-0.99968, 417, 241, 432, 368
-0.999688, 415, 113, 430, 240
-0.999693, 427, 241, 442, 368
-0.999698, 369, 45, 496, 76
-0.9997, 203, 129, 218, 256
-0.999709, 1, 329, 128, 360
-0.999711, 297, 145, 312, 272
-0.999715, 225, 33, 352, 64
-0.999717, 345, 17, 408, 80
-0.999718, 273, 241, 400, 272
-0.999718, 445, 321, 460, 336
-0.999725, 447, 81, 462, 208
-0.999735, 323, 241, 338, 368
-0.999735, 433, 241, 448, 368
-0.999743, 457, 113, 472, 240
-0.999746, 173, 177, 188, 304
-0.999748, 311, 241, 326, 368
-0.999751, 455, 241, 470, 368
-0.999759, 409, 113, 424, 240
-0.999759, 303, 225, 318, 352
-0.999769, 329, 241, 344, 368
-0.999773, 471, 33, 486, 160
-0.999774, 483, 65, 498, 80
-0.999774, 303, 129, 318, 256
-0.999776, 477, 81, 492, 208
-0.999778, 457, 323, 472, 338
-0.999784, 341, 241, 356, 368
-0.999786, 1, 113, 128, 176
-0.999788, 295, 241, 310, 368
-0.999795, 173, 177, 204, 240
-0.999797, 281, 97, 312, 224
-0.9998, 317, 241, 332, 368
-0.9998, 335, 241, 350, 368
-0.999801, 411, 241, 426, 368
-0.999804, 309, 97, 324, 224
-0.999806, 169, 145, 232, 208
-0.999809, 465, 1, 496, 256
-0.999811, 375, 33, 390, 160
-0.999817, 263, 49, 278, 176
-0.999817, 49, 65, 176, 96
-0.999817, 435, 145, 450, 272
-0.999819, 297, 97, 312, 224
-0.99982, 429, 129, 444, 256
-0.999825, 1, 241, 128, 304
-0.999829, 1, 177, 500, 240
-0.999833, 421, 65, 436, 192
-0.999836, 125, 241, 140, 368
-0.999839, 113, 25, 240, 88
-0.999846, 383, 33, 398, 160
-0.999846, 361, 73, 424, 136
-0.999849, 49, 53, 176, 84
-0.999851, 425, 129, 456, 256
-0.999852, 403, 129, 418, 256
-0.999853, 309, 193, 324, 320
-0.999856, 373, 193, 388, 320
-0.999859, 373, 81, 388, 208
-0.99986, 229, 97, 244, 224
-0.999861, 443, 129, 458, 256
-0.999861, 465, 65, 480, 192
-0.999861, 1, 177, 128, 208
-0.999864, 361, 193, 376, 320
-0.999864, 211, 97, 226, 224
-0.999871, 145, 129, 176, 375
-0.999874, 449, 129, 464, 256
-0.999881, 455, 65, 470, 192
-0.999882, 145, 201, 208, 264
-0.999883, 351, 193, 366, 320
-0.999883, 379, 193, 394, 320
-0.999894, 463, 113, 478, 240
-0.999896, 169, 217, 200, 280
-0.999897, 259, 1, 274, 128
-0.999898, 109, 297, 140, 360
-0.9999, 289, 37, 416, 68
-0.999902, 241, 85, 368, 116
-0.999904, 315, 193, 330, 320
-0.999904, 223, 113, 238, 240
-0.999905, 379, 81, 394, 208
-0.999906, 449, 33, 464, 160
-0.999907, 277, 97, 292, 224
-0.999907, 367, 81, 382, 208
-0.99991, 161, 93, 288, 124
-0.99991, 401, 129, 432, 375
-0.999913, 209, 45, 336, 76
-0.999914, 253, 1, 268, 128
-0.999917, 17, 1, 80, 375
-0.999917, 191, 129, 206, 256
-0.999918, 439, 33, 454, 160
-0.99992, 353, 161, 480, 192
-0.999921, 361, 65, 376, 192
-0.999923, 471, 81, 486, 208
-0.999937, 1, 105, 500, 168
-0.999944, 273, 25, 400, 56
-0.999963, 233, 305, 264, 368
-0.999967, 369, 97, 400, 352
-0.999972, 97, 81, 224, 144
-0.999976, 177, 105, 304, 136
-0.999986, 17, 193, 144, 320
-0.999987, 277, 33, 308, 288
-0.999992, 209, 21, 336, 52
-0.999998, 413, 153, 444, 216
-0.999999, 161, 81, 288, 112
-0.999999, 17, 189, 144, 220
-1, 129, 57, 384, 120
-1.00001, 57, 313, 120, 375
-1.00002, 321, 305, 352, 368
-1.00005, 321, 9, 448, 72
-1.00006, 65, 165, 192, 196
-1.00008, 125, 129, 156, 375
-1.0001, 337, 193, 368, 320
-1.0001, 49, 89, 176, 120
-1.0001, 381, 129, 412, 375
-1.00011, 345, 129, 376, 375
-1.00012, 369, 233, 432, 296
-1.00012, 65, 141, 192, 172
-1.00013, 225, 57, 352, 88
-1.00017, 1, 149, 128, 180
-1.00017, 329, 129, 360, 375
-1.00017, 453, 113, 484, 240
-1.00017, 441, 105, 472, 168
-1.00017, 337, 33, 464, 64
-1.00018, 1, 317, 128, 348
-1.00018, 1, 273, 128, 304
-1.00018, 449, 153, 480, 216
-1.00019, 97, 77, 224, 108
-1.00022, 289, 33, 320, 288
-1.00022, 413, 129, 444, 375
-1.00022, 65, 129, 192, 160
-1.00023, 273, 49, 400, 80
-1.00023, 453, 241, 484, 368
-1.00023, 161, 41, 288, 72
-1.00025, 309, 129, 340, 375
-1.00026, 425, 129, 456, 375
-1.00026, 385, 121, 416, 184
-1.00026, 97, 105, 224, 168
-1.00026, 289, 85, 416, 116
-1.00029, 353, 17, 480, 48
-1.0003, 105, 177, 168, 304
-1.00032, 365, 97, 396, 224
-1.00033, 161, 33, 416, 96
-1.00033, 217, 33, 248, 288
-1.00034, 33, 209, 160, 272
-1.00035, 1, 153, 500, 216
-1.00036, 397, 129, 428, 256
-1.00039, 213, 97, 244, 224
-1.00039, 409, 105, 440, 168
-1.00042, 437, 1, 468, 256
-1.00043, 81, 57, 144, 120
-1.00047, 289, 81, 320, 144
-1.0005, 469, 305, 500, 368
-1.00051, 97, 129, 128, 375
-1.00051, 441, 129, 472, 375
-1.00053, 357, 129, 388, 375
-1.00054, 261, 49, 292, 176
-1.00055, 305, 1, 336, 256
-1.00058, 33, 33, 288, 96
-1.0006, 193, 33, 224, 288
-1.00062, 289, 33, 352, 288
-1.00066, 61, 129, 92, 375
-1.00066, 17, 161, 80, 224
-1.00066, 205, 33, 236, 288
-1.00067, 425, 33, 456, 288
-1.00067, 417, 65, 448, 192
-1.00068, 453, 1, 484, 256
-1.0007, 73, 129, 104, 375
-1.0007, 201, 97, 232, 224
-1.00073, 1, 129, 500, 192
-1.00073, 9, 137, 72, 200
-1.00073, 1, 201, 500, 264
-1.00074, 113, 129, 144, 375
-1.00074, 249, 49, 280, 176
-1.00074, 153, 97, 216, 224
-1.00077, 129, 1, 256, 64
-1.00077, 325, 1, 356, 256
-1.00077, 1, 41, 500, 104
-1.00079, 85, 129, 116, 375
-1.00079, 361, 1, 392, 256
-1.00082, 25, 113, 88, 176
-1.00083, 161, 9, 416, 72
-1.00083, 65, 9, 320, 72
-1.00084, 1, 81, 128, 208
-1.00086, 345, 1, 376, 256
-1.00086, 49, 97, 80, 352
-1.00087, 405, 1, 436, 256
-1.00088, 105, 33, 136, 288
-1.00088, 381, 1, 412, 256
-1.00089, 381, 1, 412, 128
-1.00089, 77, 33, 108, 288
-1.00091, 273, 81, 336, 144
-1.00092, 37, 97, 68, 352
-1.00093, 249, 57, 312, 120
-1.00094, 369, 177, 496, 240
-1.00095, 89, 249, 152, 312
-1.00099, 5, 129, 36, 375
-1.00099, 89, 1, 120, 256
-1.001, 1, 65, 500, 128
-1.00101, 353, 145, 416, 208
-1.00102, 185, 33, 248, 288
-1.00107, 405, 65, 436, 192
-1.00108, 469, 97, 500, 224
-1.00111, 457, 97, 488, 352
-1.00111, 149, 1, 180, 256
-1.00112, 17, 97, 48, 352
-1.00112, 137, 145, 200, 208
-1.00112, 321, 185, 448, 248
-1.00112, 65, 33, 96, 288
-1.00113, 373, 193, 404, 320
-1.00114, 169, 49, 232, 112
-1.00115, 117, 1, 148, 256
-1.00116, 1, 33, 128, 96
-1.00117, 249, 25, 312, 88
-1.00118, 385, 81, 416, 208
-1.00118, 393, 1, 424, 256
-1.00118, 181, 33, 212, 288
-1.0012, 53, 1, 84, 256
-1.00121, 33, 297, 96, 360
-1.00122, 345, 65, 376, 192
-1.00125, 129, 1, 160, 256
-1.00125, 169, 33, 200, 288
-1.00129, 469, 129, 500, 375
-1.00134, 121, 217, 184, 280
-1.00135, 425, 129, 488, 375
-1.00137, 369, 193, 432, 320
-1.00138, 317, 65, 348, 192
-1.00142, 209, 73, 272, 136
-1.00143, 325, 193, 356, 320
-1.00144, 37, 1, 68, 256
-1.00144, 393, 41, 456, 104
-1.00145, 21, 1, 52, 256
-1.00149, 65, 9, 192, 72
-1.00154, 49, 97, 112, 160
-1.00155, 1, 33, 32, 288
-1.00157, 313, 193, 344, 320
-1.00165, 65, 145, 128, 208
-1.00171, 433, 265, 496, 328
-1.00172, 273, 17, 400, 144
-1.00175, 313, 17, 376, 80
-1.00176, 241, 33, 304, 160
-1.00179, 57, 49, 120, 112
-1.0018, 449, 17, 480, 144
-1.00181, 377, 1, 440, 256
-1.00182, 257, 9, 500, 72
-1.00184, 297, 33, 360, 160
-1.00187, 41, 241, 104, 368
-1.00195, 369, 201, 496, 264
-1.00202, 209, 9, 272, 72
-1.00205, 393, 193, 456, 320
-1.00211, 57, 33, 120, 160
-1.00211, 217, 49, 280, 112
-1.00215, 89, 49, 152, 176
-1.00218, 33, 1, 160, 128
-1.00218, 113, 1, 240, 128
-1.00223, 393, 161, 456, 224
-1.00227, 9, 297, 72, 360
-1.00228, 465, 241, 496, 368
-1.00231, 17, 9, 144, 72
-1.00242, 345, 113, 376, 240
-1.00247, 125, 177, 156, 304
-1.00248, 33, 129, 96, 375
-1.0025, 153, 121, 216, 184
-1.00252, 409, 33, 472, 288
-1.00254, 1, 17, 500, 80
-1.00257, 129, 177, 192, 240
-1.00258, 333, 65, 364, 192
-1.00258, 385, 129, 416, 256
-1.00264, 77, 241, 108, 368
-1.00264, 49, 233, 112, 296
-1.00264, 49, 257, 112, 320
-1.00265, 1, 193, 64, 256
-1.00267, 89, 185, 152, 248
-1.00269, 241, 1, 272, 128
-1.00272, 321, 161, 384, 224
-1.00285, 285, 49, 316, 176
-1.00285, 317, 113, 348, 240
-1.00288, 137, 33, 200, 96
-1.00288, 361, 1, 392, 128
-1.00292, 65, 169, 128, 232
-1.00295, 177, 129, 208, 256
-1.00298, 57, 129, 120, 375
-1.00299, 209, 1, 272, 128
-1.00299, 113, 33, 144, 160
-1.00304, 353, 33, 416, 160
-1.00304, 149, 177, 180, 304
-1.00307, 305, 33, 336, 160
-1.0031, 17, 265, 80, 328
-1.00314, 45, 241, 76, 368
-1.00314, 385, 193, 416, 320
-1.00318, 273, 33, 336, 96
-1.00318, 17, 241, 80, 368
-1.00323, 361, 193, 392, 320
-1.00329, 257, 1, 288, 128
-1.00333, 81, 33, 144, 96
-1.00336, 321, 1, 384, 256
-1.00341, 9, 129, 40, 256
-1.00342, 429, 33, 460, 160
-1.00343, 193, 49, 256, 112
-1.00345, 81, 81, 144, 144
-1.00348, 41, 169, 104, 232
-1.0035, 49, 121, 112, 184
-1.00356, 57, 241, 88, 368
-1.00361, 101, 241, 132, 368
-1.00364, 113, 49, 176, 176
-1.00365, 61, 49, 92, 176
-1.00368, 333, 113, 364, 240
-1.00368, 129, 145, 192, 272
-1.00368, 437, 161, 468, 288
-1.00379, 65, 1, 128, 256
-1.00386, 21, 177, 52, 304
-1.00392, 305, 145, 368, 272
-1.00393, 137, 33, 168, 160
-1.00394, 209, 49, 240, 176
-1.00395, 101, 33, 132, 160
-1.00406, 109, 193, 140, 320
-1.00411, 29, 241, 60, 368
-1.00416, 165, 129, 196, 256
-1.0043, 469, 145, 500, 272
-1.00432, 17, 113, 80, 240
-1.00446, 329, 17, 360, 144
-1.0045, 189, 81, 220, 208
-1.00454, 17, 193, 80, 320
-1.00462, 73, 33, 104, 160
-1.00462, 125, 49, 156, 176
-1.00464, 57, 161, 88, 288
-1.00464, 405, 193, 436, 320
-1.00467, 49, 81, 80, 208
-1.00468, 89, 225, 120, 352
-1.00469, 409, 33, 472, 160
-1.00469, 9, 129, 72, 375
-1.0047, 113, 113, 144, 240
-1.00473, 17, 241, 48, 368
-1.00476, 177, 81, 240, 208
-1.0048, 89, 1, 152, 256
-1.00495, 41, 193, 72, 320
-1.005, 49, 177, 112, 304
-1.00502, 41, 129, 72, 256
-1.00506, 41, 33, 104, 288
-1.00509, 341, 17, 372, 144
-1.0051, 97, 177, 128, 304
-1.00513, 161, 33, 224, 288
-1.00516, 229, 1, 260, 128
-1.00516, 329, 129, 392, 256
-1.00517, 273, 49, 304, 176
-1.00519, 5, 225, 36, 352
-1.00551, 137, 33, 200, 288
-1.00568, 65, 113, 128, 240
-1.00591, 97, 113, 160, 240
-1.00591, 353, 1, 416, 256
-1.00636, 153, 49, 216, 176
-1.0065, 1, 33, 64, 288
-1.00662, 89, 1, 152, 128
-1.00664, 73, 193, 136, 320
-1.00665, 41, 81, 104, 208
-1.00669, 121, 1, 184, 128
-1.00669, 113, 1, 176, 256
-1.00687, 385, 17, 448, 144
-1.0074, 185, 1, 248, 128
-1.00753, 121, 97, 184, 224
-1.00809, 161, 1, 224, 128
-1.00811, 17, 65, 80, 192
-1.00827, 273, 33, 336, 160
-1.00906, 41, 129, 104, 256
-1.00931, 353, 145, 416, 272
-1.00992, 433, 193, 496, 320
-1.01045, 9, 17, 72, 144
-1.01097, 33, 17, 96, 144
