1927
-0.440031, 1, 65, 500, 320
-0.53503, 1, 1, 500, 375
-0.619247, 161, 1, 416, 375
-0.649987, 161, 97, 416, 352
-0.676601, 65, 65, 320, 320
-0.67819, 1, 1, 256, 375
-0.681966, 257, 1, 500, 375
-0.703519, 257, 65, 500, 320
-0.84264, 161, 1, 416, 256
-0.874677, 33, 65, 160, 320
-0.87814, 161, 65, 288, 320
-0.881845, 209, 65, 336, 320
-0.885021, 113, 65, 240, 320
-0.886463, 289, 65, 416, 320
-0.888135, 1, 81, 500, 208
-0.896406, 353, 65, 480, 320
-0.903312, 49, 1, 176, 375
-0.907046, 305, 1, 432, 375
-0.910856, 113, 1, 240, 375
-0.915422, 193, 1, 320, 375
-0.919287, 369, 1, 496, 375
-0.921498, 1, 1, 128, 375
-0.923157, 257, 1, 384, 375
-0.925125, 225, 81, 480, 208
-0.926881, 65, 81, 320, 208
-0.929322, 297, 81, 360, 208
-0.932662, 1, 177, 500, 304
-0.935709, 113, 65, 176, 192
-0.935827, 1, 129, 500, 256
-0.935984, 289, 81, 416, 208
-0.936068, 329, 81, 392, 208
-0.936302, 1, 33, 500, 160
-0.937122, 353, 81, 416, 208
-0.938776, 1, 241, 500, 368
-0.939254, 1, 65, 128, 192
-0.943094, 265, 97, 328, 224
-0.943653, 65, 65, 192, 192
-0.943675, 289, 97, 352, 160
-0.944033, 41, 89, 104, 152
-0.944502, 337, 81, 464, 208
-0.944845, 369, 89, 432, 152
-0.945862, 329, 89, 392, 152
-0.946773, 1, 65, 64, 192
-0.946864, 137, 81, 200, 208
-0.9476, 265, 89, 328, 152
-0.948225, 1, 81, 64, 144
-0.948266, 409, 81, 472, 208
-0.948424, 241, 97, 368, 224
-0.949299, 113, 65, 240, 192
-0.949885, 377, 81, 440, 208
-0.950129, 401, 81, 464, 144
-0.950321, 433, 97, 496, 160
-0.950664, 57, 65, 120, 192
-0.950909, 225, 89, 288, 152
-0.951068, 177, 81, 304, 208
-0.951098, 65, 89, 128, 152
-0.952195, 145, 97, 208, 160
-0.952642, 105, 81, 168, 144
-0.953603, 33, 113, 160, 240
-0.954221, 97, 33, 352, 160
-0.954612, 177, 97, 240, 160
-0.954891, 233, 81, 296, 208
-0.956318, 89, 65, 152, 192
-0.956328, 265, 113, 328, 176
-0.956492, 9, 105, 72, 168
-0.957128, 161, 81, 224, 208
-0.957137, 305, 129, 368, 256
-0.957271, 393, 105, 456, 168
-0.957663, 225, 33, 480, 160
-0.957707, 89, 105, 152, 168
-0.958038, 209, 81, 272, 208
-0.95827, 329, 113, 392, 176
-0.958453, 329, 129, 392, 256
-0.958729, 305, 129, 432, 256
-0.959092, 297, 169, 360, 232
-0.959244, 185, 81, 248, 208
-0.96006, 57, 113, 120, 176
-0.960601, 201, 97, 264, 160
-0.96138, 361, 113, 424, 176
-0.961467, 433, 65, 496, 192
-0.961756, 361, 129, 424, 256
-0.961994, 25, 65, 88, 192
-0.962163, 145, 241, 272, 368
-0.962677, 81, 113, 208, 240
-0.963329, 193, 241, 448, 368
-0.963382, 305, 121, 368, 184
-0.964177, 81, 89, 208, 152
-0.964493, 33, 113, 96, 176
-0.964944, 121, 105, 184, 168
-0.965119, 1, 33, 256, 160
-0.965217, 329, 177, 392, 240
-0.965491, 353, 129, 480, 256
-0.965582, 241, 113, 304, 176
-0.965779, 1, 81, 128, 144
-0.9662, 97, 113, 160, 240
-0.966326, 457, 97, 488, 160
-0.966339, 305, 89, 432, 152
-0.966489, 129, 129, 384, 256
-0.966546, 241, 89, 368, 152
-0.966582, 65, 89, 96, 152
-0.966766, 145, 89, 272, 152
-0.966855, 321, 33, 448, 160
-0.966925, 353, 89, 480, 152
-0.966947, 257, 49, 320, 176
-0.967209, 241, 49, 368, 176
-0.967568, 337, 89, 368, 152
-0.96762, 257, 177, 500, 304
-0.967853, 77, 89, 108, 152
-0.968107, 257, 129, 500, 256
-0.96868, 221, 97, 252, 160
-0.96883, 369, 97, 400, 160
-0.968841, 317, 97, 348, 160
-0.969407, 289, 177, 352, 304
-0.969633, 193, 89, 320, 152
-0.969686, 409, 89, 440, 152
-0.969688, 433, 121, 496, 184
-0.969796, 297, 97, 328, 160
-0.969926, 389, 89, 420, 152
-0.970267, 45, 89, 76, 152
-0.970319, 273, 161, 336, 224
-0.970392, 161, 89, 192, 152
-0.970642, 353, 145, 416, 208
-0.970664, 129, 113, 256, 240
-0.970675, 305, 145, 368, 208
-0.97077, 273, 177, 400, 304
-0.970788, 385, 129, 448, 256
-0.970831, 317, 97, 348, 224
-0.970912, 177, 121, 240, 184
-0.970989, 369, 33, 432, 160
-0.971012, 33, 129, 288, 256
-0.971094, 161, 257, 224, 320
-0.971505, 337, 33, 400, 160
-0.97154, 145, 33, 208, 160
-0.971943, 161, 113, 288, 176
-0.971995, 445, 97, 476, 160
-0.972033, 205, 97, 236, 160
-0.972255, 1, 113, 128, 176
-0.972292, 349, 89, 380, 152
-0.972606, 273, 89, 304, 152
-0.97278, 129, 81, 160, 144
-0.972782, 469, 97, 500, 160
-0.972816, 305, 97, 336, 224
-0.972882, 345, 81, 376, 208
-0.97292, 1, 129, 64, 192
-0.972981, 313, 177, 376, 304
-0.973073, 49, 113, 176, 176
-0.973197, 17, 17, 144, 144
-0.973213, 353, 113, 384, 176
-0.973234, 253, 89, 284, 152
-0.97324, 297, 33, 360, 160
-0.973437, 353, 169, 416, 232
-0.973729, 93, 105, 124, 168
-0.973735, 285, 89, 316, 152
-0.97374, 153, 121, 216, 184
-0.973784, 305, 65, 368, 320
-0.973878, 365, 81, 396, 208
-0.974082, 73, 113, 136, 240
-0.97414, 137, 73, 200, 136
-0.974273, 353, 113, 480, 176
-0.974329, 177, 73, 240, 136
-0.97433, 329, 145, 392, 208
-0.97435, 149, 81, 180, 144
-0.974357, 433, 89, 464, 152
-0.974453, 249, 313, 312, 375
-0.974581, 77, 113, 108, 176
-0.974771, 33, 81, 64, 144
-0.975053, 49, 113, 112, 240
-0.975084, 137, 105, 168, 168
-0.97524, 185, 89, 216, 152
-0.975275, 1, 105, 32, 168
-0.975277, 149, 105, 180, 168
-0.97534, 329, 97, 360, 224
-0.975409, 193, 129, 320, 256
-0.975503, 297, 73, 360, 136
-0.975584, 5, 65, 36, 192
-0.975603, 377, 65, 440, 128
-0.975653, 161, 33, 288, 160
-0.975748, 393, 33, 456, 160
-0.975783, 41, 65, 104, 320
-0.975857, 53, 113, 84, 176
-0.975857, 73, 65, 136, 320
-0.975881, 305, 113, 432, 176
-0.976067, 225, 113, 352, 176
-0.976199, 201, 121, 264, 184
-0.976204, 97, 169, 160, 232
-0.976252, 65, 65, 128, 128
-0.976273, 113, 113, 240, 176
-0.976421, 13, 105, 44, 168
-0.976455, 305, 161, 336, 224
-0.976519, 65, 17, 192, 144
-0.976551, 21, 81, 52, 144
-0.976749, 321, 177, 448, 304
-0.976777, 225, 241, 352, 368
-0.976793, 421, 81, 452, 144
-0.976824, 425, 73, 488, 136
-0.976893, 113, 129, 176, 192
-0.977028, 117, 81, 148, 144
-0.977029, 177, 65, 240, 320
-0.97715, 81, 129, 144, 192
-0.977183, 281, 313, 344, 375
-0.977197, 157, 81, 188, 208
-0.977249, 109, 65, 140, 192
-0.977338, 141, 65, 172, 192
-0.977373, 305, 177, 432, 240
-0.977378, 65, 113, 96, 176
-0.977427, 329, 65, 392, 128
-0.977583, 265, 137, 328, 200
-0.977585, 105, 89, 136, 152
-0.97763, 145, 129, 208, 256
-0.97765, 265, 65, 328, 320
-0.977728, 341, 113, 372, 176
-0.977923, 17, 65, 80, 320
-0.978011, 121, 65, 152, 192
-0.978101, 97, 241, 352, 368
-0.978176, 173, 97, 204, 160
-0.978236, 33, 105, 64, 168
-0.978466, 241, 89, 272, 152
-0.97858, 353, 65, 416, 128
-0.978602, 365, 121, 396, 184
-0.978633, 225, 313, 288, 375
-0.978692, 337, 177, 400, 304
-0.978773, 225, 33, 288, 160
-0.978835, 193, 265, 256, 328
-0.978894, 5, 81, 36, 144
-0.979006, 369, 33, 496, 160
-0.979024, 285, 97, 316, 224
-0.97903, 97, 65, 160, 320
-0.979105, 25, 65, 88, 128
-0.979189, 161, 177, 416, 304
-0.979228, 49, 137, 112, 200
-0.979312, 377, 97, 408, 224
-0.979375, 433, 129, 496, 256
-0.979425, 301, 121, 332, 184
-0.979433, 389, 81, 420, 208
-0.979436, 433, 65, 496, 320
-0.97951, 97, 177, 224, 304
-0.979515, 409, 129, 472, 256
-0.979559, 433, 65, 464, 192
-0.979681, 269, 113, 300, 176
-0.979936, 85, 65, 116, 192
-0.980116, 269, 81, 300, 208
-0.980227, 137, 145, 200, 208
-0.980265, 421, 105, 452, 168
-0.980289, 413, 81, 444, 208
-0.980326, 273, 185, 336, 248
-0.980363, 137, 265, 200, 328
-0.98041, 253, 113, 284, 176
-0.980438, 217, 65, 280, 320
-0.980447, 389, 113, 420, 176
-0.980447, 153, 65, 216, 320
-0.980448, 449, 121, 480, 184
-0.980701, 201, 73, 264, 136
-0.980763, 73, 17, 136, 144
-0.980832, 445, 81, 476, 208
-0.980908, 409, 113, 440, 176
-0.980953, 193, 113, 224, 176
-0.980991, 345, 65, 408, 320
-0.981049, 25, 137, 88, 200
-0.981052, 25, 65, 56, 192
-0.981125, 225, 65, 288, 128
-0.98117, 65, 65, 96, 192
-0.981255, 285, 121, 316, 184
-0.981276, 401, 65, 432, 192
-0.981399, 305, 137, 432, 200
-0.981531, 373, 145, 404, 208
-0.981598, 33, 137, 160, 200
-0.981655, 361, 313, 424, 375
-0.981779, 25, 169, 88, 232
-0.98179, 185, 241, 248, 368
-0.981831, 321, 313, 384, 375
-0.981858, 353, 129, 384, 256
-0.981871, 129, 265, 256, 328
-0.981912, 29, 129, 60, 192
-0.981945, 217, 81, 248, 208
-0.982055, 265, 65, 328, 128
-0.982091, 241, 81, 272, 208
-0.982176, 89, 81, 120, 144
-0.982186, 185, 33, 248, 160
-0.982237, 121, 177, 184, 240
-0.982283, 97, 97, 128, 224
-0.982322, 241, 65, 304, 320
-0.982368, 377, 65, 440, 320
-0.982447, 225, 177, 352, 304
-0.982471, 1, 193, 256, 320
-0.982628, 365, 129, 396, 256
-0.982643, 313, 121, 344, 184
-0.982648, 49, 241, 176, 368
-0.982656, 401, 129, 464, 192
-0.982697, 121, 129, 184, 256
-0.982813, 253, 97, 284, 224
-0.98305, 433, 113, 464, 176
-0.983112, 229, 81, 260, 208
-0.983189, 257, 313, 384, 375
-0.9832, 465, 121, 496, 184
-0.983212, 273, 241, 400, 368
-0.98323, 117, 105, 148, 168
-0.983255, 169, 81, 200, 208
-0.983277, 113, 17, 240, 144
-0.98332, 65, 65, 192, 128
-0.983324, 377, 137, 440, 200
-0.983348, 361, 177, 392, 240
-0.983511, 353, 169, 480, 232
-0.983702, 301, 145, 332, 272
-0.983748, 177, 121, 208, 184
-0.983798, 17, 129, 80, 256
-0.983803, 397, 65, 428, 128
-0.983812, 369, 177, 496, 304
-0.983827, 349, 177, 380, 240
-0.983852, 329, 113, 360, 176
-0.983943, 377, 177, 440, 240
-0.984044, 1, 161, 128, 288
-0.984179, 241, 113, 272, 176
-0.98424, 1, 169, 64, 232
-0.98453, 209, 121, 240, 184
-0.984577, 105, 113, 136, 176
-0.984659, 17, 17, 80, 144
-0.984755, 265, 161, 328, 288
-0.984765, 161, 113, 192, 176
-0.98477, 65, 177, 192, 240
-0.98477, 49, 65, 80, 192
-0.984772, 217, 273, 280, 336
-0.984773, 257, 169, 384, 232
-0.984789, 265, 313, 296, 375
-0.984798, 461, 81, 492, 208
-0.984818, 321, 241, 448, 368
-0.98489, 81, 137, 208, 200
-0.984898, 49, 193, 176, 320
-0.984993, 185, 81, 216, 208
-0.985078, 317, 73, 348, 136
-0.985103, 33, 153, 64, 216
-0.985119, 17, 161, 144, 224
-0.98514, 133, 113, 164, 240
-0.985215, 325, 169, 356, 232
-0.98523, 377, 169, 408, 232
-0.985538, 425, 241, 488, 368
-0.985551, 137, 129, 168, 192
-0.985668, 393, 129, 424, 256
-0.985693, 197, 81, 228, 208
-0.985704, 273, 65, 400, 128
-0.985748, 309, 49, 340, 176
-0.985786, 329, 241, 392, 368
-0.985794, 145, 113, 176, 240
-0.985881, 37, 65, 68, 192
-0.985918, 225, 121, 256, 184
-0.985926, 49, 137, 80, 200
-0.985977, 145, 65, 272, 128
-0.985992, 1, 241, 256, 368
-0.985996, 297, 193, 360, 256
-0.986063, 273, 241, 336, 368
-0.986111, 385, 137, 416, 200
-0.986271, 321, 65, 448, 128
-0.986382, 341, 129, 372, 256
-0.98639, 189, 257, 220, 320
-0.98655, 297, 185, 328, 248
-0.986606, 353, 137, 480, 200
-0.986644, 89, 57, 152, 120
-0.986674, 121, 65, 184, 320
-0.986741, 409, 65, 440, 128
-0.986768, 209, 313, 336, 375
-0.986821, 297, 241, 360, 368
-0.986929, 137, 241, 200, 304
-0.986947, 113, 17, 176, 144
-0.987048, 49, 17, 112, 144
-0.987107, 409, 65, 472, 320
-0.987141, 205, 73, 236, 136
-0.98735, 129, 137, 256, 200
-0.987361, 33, 89, 288, 152
-0.987364, 173, 257, 204, 320
-0.987388, 153, 241, 216, 368
-0.987418, 113, 257, 176, 320
-0.987456, 217, 73, 248, 136
-0.987463, 257, 137, 384, 200
-0.987471, 177, 265, 304, 328
-0.987498, 361, 145, 392, 208
-0.987561, 281, 105, 344, 136
-0.987646, 97, 49, 128, 176
-0.987678, 217, 241, 280, 368
-0.987719, 301, 313, 332, 375
-0.987727, 369, 101, 432, 132
-0.987733, 201, 241, 264, 304
-0.987737, 1, 57, 128, 120
-0.987876, 401, 241, 464, 368
-0.987897, 57, 65, 88, 128
-0.987902, 129, 177, 192, 304
-0.987978, 105, 113, 168, 144
-0.988002, 321, 145, 352, 208
-0.988021, 225, 101, 288, 132
-0.98809, 321, 97, 384, 128
-0.98811, 45, 161, 76, 224
-0.988118, 369, 65, 496, 128
-0.988146, 373, 73, 404, 136
-0.98815, 433, 241, 496, 304
-0.988243, 193, 97, 448, 160
-0.988297, 257, 341, 320, 372
-0.988357, 249, 161, 312, 224
-0.988377, 265, 117, 328, 148
-0.988405, 145, 109, 208, 140
-0.988429, 377, 241, 440, 368
-0.988438, 361, 113, 424, 144
-0.988496, 305, 113, 368, 144
-0.988522, 201, 105, 264, 136
-0.988561, 145, 241, 272, 304
-0.988583, 285, 313, 316, 375
-0.988593, 177, 193, 304, 320
-0.988604, 369, 241, 496, 368
-0.988617, 409, 109, 472, 140
-0.988627, 73, 93, 136, 124
-0.98863, 201, 257, 232, 320
-0.988638, 81, 273, 208, 336
-0.988677, 33, 113, 96, 144
-0.988679, 241, 113, 304, 144
-0.988679, 329, 117, 392, 148
-0.988698, 321, 181, 384, 212
-0.988703, 77, 65, 108, 128
-0.988749, 9, 85, 72, 116
-0.988752, 57, 113, 120, 144
-0.988787, 1, 97, 500, 160
-0.988841, 129, 169, 160, 232
-0.988843, 337, 177, 368, 240
-0.988866, 297, 337, 360, 368
-0.98888, 465, 73, 496, 136
-0.988898, 249, 225, 312, 352
-0.988924, 361, 33, 392, 160
-0.988926, 233, 345, 296, 375
-0.988928, 129, 161, 256, 224
-0.988932, 129, 121, 192, 152
-0.988963, 97, 241, 224, 368
-0.988977, 433, 177, 496, 304
-0.989013, 333, 49, 364, 176
-0.989029, 237, 313, 268, 375
-0.989064, 249, 101, 312, 132
-0.989097, 169, 113, 232, 144
-0.989112, 49, 97, 112, 128
-0.989114, 433, 117, 496, 148
-0.989146, 145, 169, 208, 232
-0.989161, 141, 177, 172, 240
-0.989164, 17, 129, 48, 192
-0.989173, 149, 257, 180, 320
-0.989174, 393, 97, 456, 128
-0.989174, 289, 49, 320, 176
-0.989183, 321, 345, 384, 375
-0.989187, 241, 129, 304, 256
-0.989187, 221, 257, 252, 320
-0.989222, 209, 117, 272, 148
-0.989241, 345, 93, 408, 124
-0.989257, 177, 129, 240, 256
-0.989264, 113, 85, 176, 116
-0.989291, 397, 137, 428, 200
-0.989294, 209, 65, 336, 128
-0.989336, 9, 113, 72, 144
-0.989339, 93, 129, 124, 192
-0.989379, 369, 129, 432, 160
-0.989386, 161, 233, 224, 296
-0.989392, 349, 145, 380, 208
-0.989424, 233, 249, 296, 312
-0.989424, 281, 93, 344, 124
-0.989483, 297, 73, 328, 136
-0.989539, 161, 97, 224, 128
-0.989549, 361, 73, 392, 136
-0.98958, 317, 145, 348, 272
-0.989589, 389, 161, 420, 224
-0.989599, 49, 85, 112, 116
-0.989599, 149, 129, 180, 192
-0.989621, 413, 137, 444, 200
-0.989623, 293, 161, 324, 224
-0.989666, 81, 121, 144, 152
-0.989674, 105, 125, 168, 156
-0.989685, 241, 125, 304, 156
-0.9897, 385, 113, 448, 144
-0.989724, 329, 129, 392, 160
-0.989727, 273, 129, 336, 160
-0.989731, 17, 97, 80, 128
-0.989771, 249, 185, 312, 248
-0.989778, 321, 49, 352, 176
-0.989785, 297, 169, 360, 200
-0.989839, 377, 81, 440, 112
-0.989843, 81, 105, 144, 136
-0.989868, 417, 89, 480, 120
-0.989876, 321, 313, 448, 375
-0.989887, 393, 125, 456, 156
-0.989906, 185, 93, 248, 124
-0.989908, 249, 89, 312, 120
-0.98991, 201, 129, 264, 256
-0.989948, 1, 57, 64, 120
-0.98997, 429, 113, 460, 240
-0.989972, 249, 313, 280, 375
-0.989974, 297, 185, 360, 216
-0.990028, 17, 125, 80, 156
-0.990044, 209, 345, 272, 375
-0.990073, 345, 173, 408, 204
-0.990127, 385, 65, 416, 128
-0.990178, 345, 33, 376, 160
-0.990194, 225, 333, 288, 364
-0.990224, 297, 125, 360, 156
-0.990228, 405, 129, 436, 256
-0.990236, 145, 313, 272, 375
-0.990248, 161, 125, 224, 156
-0.990279, 217, 33, 248, 160
-0.990351, 57, 125, 120, 156
-0.99039, 369, 141, 432, 172
-0.990392, 169, 265, 232, 296
-0.990398, 65, 177, 128, 240
-0.990403, 209, 89, 272, 120
-0.990443, 433, 101, 496, 132
-0.990443, 201, 313, 264, 375
-0.990473, 105, 173, 168, 204
-0.990497, 137, 97, 200, 128
-0.990514, 337, 1, 400, 375
-0.990532, 201, 269, 264, 300
-0.990534, 409, 265, 472, 328
-0.990539, 113, 57, 176, 120
-0.990608, 417, 1, 480, 375
-0.990667, 433, 129, 496, 160
-0.99072, 313, 313, 344, 375
-0.990749, 345, 185, 408, 216
-0.990769, 105, 101, 168, 132
-0.99077, 1, 113, 256, 176
-0.990781, 185, 125, 248, 156
-0.990796, 57, 1, 120, 375
-0.990829, 401, 57, 464, 120
-0.990839, 329, 313, 360, 375
-0.990921, 313, 85, 376, 116
-0.990937, 329, 145, 360, 272
-0.990958, 193, 241, 320, 304
-0.990968, 345, 341, 408, 372
-0.990993, 129, 133, 192, 164
-0.990994, 321, 169, 384, 200
-0.991012, 161, 1, 224, 375
-0.991032, 361, 177, 424, 304
-0.991065, 401, 137, 464, 168
-0.991073, 313, 185, 344, 248
-0.991113, 209, 137, 336, 200
-0.991115, 465, 225, 496, 352
-0.991117, 105, 1, 168, 375
-0.991135, 305, 1, 368, 375
-0.991175, 369, 181, 432, 212
-0.991205, 81, 1, 144, 375
-0.991275, 85, 113, 116, 240
-0.991313, 125, 129, 156, 192
-0.991339, 297, 157, 360, 188
-0.991355, 113, 185, 176, 216
-0.991379, 369, 241, 496, 304
-0.991388, 17, 169, 80, 200
-0.991388, 257, 193, 384, 256
-0.991413, 465, 241, 496, 304
-0.991428, 337, 81, 400, 112
-0.991431, 417, 17, 480, 144
-0.99144, 169, 253, 232, 284
-0.991443, 217, 129, 280, 160
-0.991449, 241, 273, 304, 336
-0.991495, 109, 113, 140, 240
-0.991529, 321, 333, 384, 364
-0.991537, 105, 161, 136, 224
-0.991563, 385, 305, 448, 368
-0.991579, 241, 137, 304, 168
-0.991585, 373, 313, 404, 375
-0.991625, 421, 33, 452, 160
-0.991649, 153, 33, 184, 160
-0.991651, 313, 141, 376, 172
-0.991659, 265, 189, 328, 220
-0.991678, 73, 77, 136, 108
-0.991692, 377, 145, 408, 272
-0.991732, 129, 241, 192, 368
-0.991742, 97, 113, 352, 176
-0.991751, 145, 261, 208, 292
-0.991754, 461, 129, 492, 256
-0.991759, 409, 313, 472, 375
-0.99176, 289, 117, 416, 148
-0.991784, 321, 113, 352, 144
-0.991799, 341, 177, 372, 304
-0.991834, 153, 137, 216, 168
-0.991848, 401, 161, 464, 224
-0.991859, 137, 181, 200, 212
-0.991863, 137, 273, 168, 336
-0.99188, 193, 225, 224, 352
-0.991885, 5, 129, 36, 192
-0.991889, 129, 1, 192, 375
-0.991893, 465, 117, 496, 148
-0.991894, 161, 109, 192, 140
-0.991894, 177, 277, 240, 308
-0.991908, 273, 117, 304, 148
-0.991925, 81, 133, 144, 164
-0.991926, 293, 113, 324, 144
-0.991927, 73, 113, 104, 240
-0.991931, 201, 333, 264, 364
-0.991976, 81, 173, 144, 204
-0.991977, 185, 137, 248, 168
-0.99198, 9, 73, 72, 104
-0.99198, 273, 173, 336, 204
-0.991991, 177, 241, 208, 368
-0.991993, 305, 113, 336, 144
-0.991999, 281, 1, 344, 375
-0.992005, 337, 149, 400, 180
-0.992035, 221, 109, 252, 140
-0.992037, 93, 113, 124, 144
-0.99204, 273, 161, 336, 192
-0.992048, 297, 97, 328, 128
-0.992054, 49, 249, 176, 312
-0.992064, 349, 121, 380, 152
-0.992065, 265, 141, 328, 172
-0.992066, 65, 89, 192, 120
-0.992071, 237, 109, 268, 140
-0.992076, 149, 117, 180, 148
-0.992082, 373, 109, 404, 140
-0.992082, 129, 105, 256, 136
-0.992088, 337, 97, 368, 128
-0.992104, 249, 345, 280, 375
-0.992117, 369, 169, 432, 200
-0.992131, 345, 329, 408, 360
-0.99214, 209, 109, 240, 140
-0.992143, 5, 85, 36, 116
-0.992147, 133, 113, 164, 144
-0.992156, 105, 137, 168, 168
-0.992157, 117, 161, 148, 224
-0.992167, 129, 285, 192, 316
-0.992172, 69, 113, 100, 144
-0.992172, 209, 161, 336, 224
-0.992176, 113, 281, 176, 344
-0.992184, 277, 341, 308, 372
-0.992206, 453, 117, 484, 148
-0.992213, 381, 93, 412, 124
-0.992217, 321, 93, 352, 124
-0.992218, 281, 105, 312, 136
-0.992226, 321, 97, 448, 128
-0.992227, 129, 273, 192, 304
-0.992236, 41, 73, 104, 104
-0.99224, 41, 109, 72, 140
-0.992244, 161, 249, 192, 312
-0.992245, 33, 137, 96, 168
-0.992245, 121, 113, 152, 240
-0.992246, 345, 341, 376, 372
-0.992246, 149, 105, 180, 136
-0.992255, 57, 109, 88, 140
-0.992257, 397, 101, 428, 132
-0.992259, 313, 337, 344, 368
-0.992266, 229, 97, 260, 128
-0.992267, 249, 105, 280, 136
-0.992269, 237, 345, 268, 375
-0.992283, 413, 97, 444, 128
-0.992291, 361, 1, 424, 375
-0.992295, 261, 113, 292, 144
-0.99231, 49, 169, 112, 200
-0.992323, 285, 125, 316, 156
-0.992328, 89, 185, 152, 216
-0.992328, 53, 97, 84, 128
-0.992329, 81, 117, 112, 148
-0.99233, 433, 117, 464, 148
-0.992337, 365, 125, 396, 156
-0.992339, 265, 345, 296, 375
-0.992354, 173, 117, 204, 148
-0.992366, 85, 93, 116, 124
-0.992367, 105, 93, 136, 124
-0.992367, 153, 277, 216, 308
-0.992368, 109, 113, 140, 144
-0.992369, 425, 89, 456, 120
-0.992374, 185, 257, 216, 288
-0.992381, 257, 1, 384, 128
-0.992387, 173, 105, 204, 136
-0.992388, 345, 161, 408, 192
-0.992389, 333, 341, 364, 372
-0.992401, 241, 249, 368, 312
-0.992402, 21, 113, 52, 144
-0.992405, 17, 85, 48, 116
-0.992406, 197, 105, 228, 136
-0.992407, 417, 117, 448, 148
-0.992407, 209, 1, 336, 128
-0.992412, 361, 113, 392, 144
-0.992416, 365, 97, 396, 128
-0.992424, 161, 93, 192, 124
-0.99243, 401, 121, 432, 152
-0.992433, 273, 325, 336, 356
-0.992448, 237, 33, 268, 160
-0.99245, 209, 113, 336, 144
-0.992455, 57, 113, 88, 240
-0.992458, 257, 49, 288, 176
-0.992459, 161, 81, 224, 112
-0.992464, 241, 189, 304, 220
-0.99247, 309, 101, 340, 132
-0.992482, 65, 97, 96, 128
-0.992491, 393, 1, 456, 375
-0.992493, 289, 341, 320, 372
-0.992494, 9, 117, 40, 148
-0.992499, 137, 85, 200, 116
-0.99251, 369, 153, 432, 184
-0.992511, 357, 181, 388, 212
-0.992512, 333, 109, 364, 140
-0.992514, 9, 97, 40, 128
-0.992515, 225, 265, 288, 296
-0.992523, 349, 313, 380, 375
-0.992531, 29, 85, 60, 116
-0.992538, 193, 93, 320, 124
-0.992539, 185, 345, 248, 375
-0.992539, 309, 169, 340, 200
-0.992543, 249, 1, 312, 375
-0.992545, 241, 281, 304, 312
-0.992545, 225, 273, 352, 336
-0.992555, 389, 129, 420, 160
-0.992559, 249, 329, 312, 360
-0.99256, 1, 89, 128, 120
-0.992569, 79, 89, 94, 152
-0.99257, 385, 109, 416, 140
-0.992574, 137, 125, 168, 156
-0.992575, 257, 333, 288, 364
-0.992576, 113, 173, 144, 204
-0.99258, 217, 97, 248, 128
-0.99259, 457, 101, 488, 132
-0.99259, 285, 185, 316, 248
-0.992595, 301, 337, 332, 368
-0.992597, 241, 93, 272, 124
-0.992597, 117, 89, 148, 120
-0.992599, 369, 173, 400, 204
-0.992608, 205, 121, 236, 152
-0.992609, 161, 129, 192, 160
-0.99261, 329, 65, 360, 128
-0.99261, 137, 249, 200, 280
-0.992613, 17, 129, 48, 160
-0.992622, 221, 121, 252, 152
-0.992624, 41, 93, 72, 124
-0.992626, 237, 121, 268, 152
-0.992627, 1, 141, 64, 172
-0.99263, 289, 145, 320, 272
-0.992632, 445, 97, 476, 128
-0.992633, 417, 129, 448, 160
-0.992633, 233, 257, 264, 320
-0.992633, 205, 241, 236, 368
-0.992637, 349, 101, 380, 132
-0.992647, 125, 173, 156, 204
-0.99265, 189, 121, 220, 152
-0.992653, 205, 265, 236, 296
-0.992654, 281, 93, 312, 124
-0.992655, 289, 81, 352, 112
-0.992656, 53, 125, 84, 156
-0.992664, 257, 341, 384, 372
-0.992666, 329, 181, 360, 212
-0.99267, 337, 125, 368, 156
-0.992672, 305, 125, 336, 156
-0.992672, 261, 101, 292, 132
-0.992673, 117, 125, 148, 156
-0.992673, 261, 125, 292, 156
-0.992673, 353, 109, 480, 140
-0.992673, 453, 129, 484, 160
-0.992679, 353, 133, 384, 164
-0.992679, 401, 77, 464, 108
-0.99268, 249, 121, 280, 152
-0.992684, 129, 101, 160, 132
-0.992684, 353, 89, 384, 120
-0.992684, 33, 1, 96, 375
-0.992696, 301, 193, 332, 320
-0.992698, 341, 169, 372, 200
-0.992702, 185, 105, 216, 136
-0.992704, 209, 141, 272, 172
-0.992706, 405, 85, 436, 116
-0.992711, 209, 281, 272, 312
-0.992718, 69, 89, 84, 152
-0.992722, 145, 169, 208, 200
-0.992728, 425, 101, 456, 132
-0.99273, 469, 129, 500, 160
-0.992739, 289, 141, 352, 172
-0.992739, 325, 125, 356, 156
-0.992741, 273, 101, 400, 132
-0.992742, 85, 129, 116, 160
-0.992742, 37, 121, 68, 152
-0.992744, 73, 85, 104, 116
-0.992752, 257, 89, 288, 120
-0.992752, 245, 333, 276, 364
-0.992757, 105, 273, 168, 304
-0.992767, 305, 157, 336, 188
-0.992768, 193, 253, 256, 284
-0.992769, 277, 65, 308, 128
-0.992771, 189, 93, 220, 124
-0.992772, 81, 109, 208, 140
-0.992778, 297, 277, 360, 308
-0.992779, 63, 89, 78, 152
-0.992783, 45, 65, 76, 128
-0.992789, 469, 101, 500, 132
-0.99279, 33, 165, 64, 196
-0.992792, 437, 85, 468, 116
-0.992795, 293, 189, 324, 220
-0.992796, 97, 125, 128, 156
-0.992797, 345, 181, 376, 212
-0.992802, 173, 269, 204, 300
-0.992803, 269, 89, 300, 120
-0.992804, 173, 93, 204, 124
-0.992809, 377, 125, 408, 156
-0.992809, 201, 93, 232, 124
-0.992812, 5, 129, 36, 160
-0.992814, 185, 269, 216, 300
-0.992818, 229, 333, 260, 364
-0.99282, 9, 1, 72, 375
-0.992825, 357, 345, 388, 375
-0.992876, 415, 89, 430, 152
-0.992877, 177, 193, 240, 320
-0.992903, 445, 73, 476, 136
-0.992951, 455, 97, 470, 160
-0.992955, 185, 145, 248, 208
-0.99297, 433, 265, 496, 328
-0.993001, 265, 257, 328, 320
-0.993015, 341, 97, 356, 160
-0.993087, 9, 17, 40, 144
-0.993096, 461, 97, 476, 160
-0.993172, 57, 89, 72, 152
-0.993187, 369, 105, 384, 168
-0.993205, 89, 89, 104, 152
-0.993221, 377, 33, 408, 160
-0.993258, 125, 17, 156, 144
-0.993259, 17, 109, 144, 140
-0.993264, 225, 73, 480, 136
-0.99331, 485, 97, 500, 160
-0.993341, 433, 289, 496, 352
-0.993366, 95, 89, 110, 152
-0.993366, 201, 1, 264, 375
-0.993371, 225, 121, 480, 184
-0.9934, 273, 129, 400, 160
-0.993404, 369, 97, 496, 128
-0.993411, 469, 97, 484, 160
-0.993428, 153, 89, 168, 152
-0.993436, 81, 121, 208, 152
-0.993444, 303, 89, 318, 152
-0.993481, 317, 97, 332, 160
-0.993481, 353, 241, 416, 368
-0.993518, 377, 89, 392, 152
-0.993551, 351, 89, 366, 152
-0.993577, 445, 129, 476, 256
-0.9936, 105, 193, 168, 320
-0.993616, 225, 97, 240, 160
-0.99365, 209, 341, 336, 372
-0.993659, 407, 89, 422, 152
-0.993664, 289, 181, 416, 212
-0.993716, 357, 177, 388, 304
-0.993737, 33, 65, 288, 128
-0.993745, 369, 313, 496, 375
-0.993762, 329, 105, 344, 168
-0.993769, 433, 145, 496, 208
-0.993791, 101, 105, 116, 168
-0.993803, 389, 89, 404, 152
-0.993805, 395, 89, 410, 152
-0.993814, 369, 265, 496, 328
-0.993827, 479, 97, 494, 160
-0.993875, 401, 97, 416, 160
-0.993887, 281, 89, 296, 152
-0.993896, 159, 81, 174, 144
-0.993908, 17, 185, 144, 248
-0.993938, 89, 113, 104, 176
-0.993972, 33, 273, 160, 336
-0.993979, 51, 105, 66, 168
-0.994008, 133, 97, 148, 160
-0.994025, 209, 185, 336, 248
-0.994038, 247, 97, 262, 160
-0.994056, 97, 233, 224, 296
-0.994057, 129, 121, 256, 152
-0.994092, 335, 97, 350, 160
-0.9941, 311, 161, 326, 224
-0.994102, 445, 33, 476, 160
-0.99411, 177, 289, 304, 352
-0.994157, 217, 97, 232, 160
-0.994158, 129, 269, 256, 300
-0.994179, 33, 125, 160, 156
-0.9942, 383, 105, 398, 168
-0.994207, 47, 81, 62, 144
-0.994222, 145, 93, 272, 124
-0.994242, 353, 85, 480, 116
-0.994249, 201, 193, 264, 320
-0.994263, 353, 113, 368, 176
-0.994295, 17, 105, 32, 168
-0.994296, 311, 121, 326, 184
-0.994301, 165, 97, 180, 160
-0.994316, 237, 89, 252, 152
-0.994324, 95, 113, 110, 176
-0.994341, 267, 89, 282, 152
-0.994343, 139, 81, 154, 144
-0.994358, 9, 105, 24, 168
-0.994376, 193, 125, 320, 156
-0.994399, 197, 89, 212, 152
-0.994453, 233, 129, 264, 256
-0.994463, 225, 1, 288, 375
-0.994472, 129, 73, 384, 136
-0.994472, 369, 129, 496, 160
-0.994478, 323, 97, 338, 160
-0.994489, 275, 89, 290, 152
-0.994496, 291, 89, 306, 152
-0.994505, 257, 89, 272, 152
-0.994506, 165, 33, 196, 160
-0.99451, 123, 81, 138, 144
-0.994519, 309, 97, 324, 160
-0.994524, 361, 89, 376, 152
-0.994527, 1, 241, 128, 368
-0.99453, 1, 105, 16, 168
-0.994537, 159, 105, 174, 168
-0.99454, 209, 97, 224, 160
-0.994546, 37, 81, 52, 144
-0.994556, 177, 313, 240, 375
-0.994566, 423, 89, 438, 152
-0.994577, 27, 81, 42, 144
-0.994587, 45, 113, 76, 240
-0.994608, 113, 185, 240, 248
-0.994622, 77, 113, 92, 176
-0.99463, 321, 129, 448, 160
-0.994663, 187, 89, 202, 152
-0.994669, 433, 81, 448, 144
-0.994672, 43, 105, 58, 168
-0.994692, 153, 177, 216, 304
-0.994715, 5, 113, 36, 240
-0.994734, 225, 241, 256, 368
-0.994744, 273, 113, 288, 176
-0.994751, 63, 113, 78, 176
-0.994763, 107, 105, 122, 168
-0.994795, 449, 89, 464, 152
-0.994803, 443, 89, 458, 152
-0.994812, 465, 177, 496, 304
-0.994816, 89, 249, 152, 312
-0.994825, 33, 105, 48, 168
-0.994848, 363, 121, 378, 184
-0.994857, 273, 89, 400, 120
-0.994872, 1, 81, 16, 144
-0.994873, 181, 33, 212, 160
-0.994897, 393, 177, 456, 304
-0.994903, 137, 17, 168, 144
-0.994908, 297, 89, 312, 152
-0.99491, 203, 97, 218, 160
-0.994925, 231, 97, 246, 160
-0.994929, 57, 113, 72, 176
-0.994946, 173, 97, 188, 160
-0.994948, 289, 241, 416, 304
-0.994964, 161, 129, 192, 256
-0.994998, 25, 177, 88, 304
-0.995032, 23, 105, 38, 168
-0.995051, 145, 81, 160, 144
-0.995067, 409, 113, 424, 176
-0.995077, 289, 169, 416, 200
-0.995118, 129, 289, 256, 352
-0.995125, 269, 33, 300, 160
-0.995138, 83, 113, 98, 176
-0.995144, 297, 241, 360, 304
-0.995144, 89, 273, 152, 336
-0.99515, 7, 81, 22, 144
-0.99516, 465, 33, 496, 160
-0.99519, 345, 273, 408, 336
-0.995208, 1, 73, 500, 136
-0.995252, 113, 89, 128, 152
-0.995254, 319, 121, 334, 184
-0.995283, 225, 145, 288, 208
-0.995283, 147, 105, 162, 168
-0.995288, 185, 113, 200, 176
-0.995289, 329, 81, 344, 144
-0.995328, 97, 137, 352, 200
-0.995341, 1, 241, 64, 368
-0.99538, 179, 97, 194, 160
-0.995403, 417, 113, 432, 176
-0.995404, 145, 289, 208, 352
-0.995406, 329, 193, 360, 320
-0.995409, 191, 113, 206, 176
-0.995433, 1, 137, 256, 200
-0.995445, 255, 113, 270, 176
-0.995457, 69, 113, 84, 176
-0.995466, 25, 17, 56, 144
-0.99548, 367, 81, 382, 144
-0.995496, 81, 133, 208, 164
-0.995522, 1, 121, 500, 184
-0.995532, 461, 121, 476, 184
-0.995536, 225, 185, 288, 248
-0.99556, 317, 161, 332, 224
-0.995565, 477, 121, 492, 184
-0.995566, 449, 113, 464, 176
-0.995567, 33, 173, 160, 204
-0.995576, 241, 113, 256, 176
-0.995581, 25, 129, 56, 256
-0.9956, 305, 345, 432, 375
-0.995639, 1, 297, 128, 360
-0.995641, 41, 241, 104, 368
-0.99566, 303, 113, 318, 176
-0.995663, 453, 177, 484, 304
-0.99567, 267, 113, 282, 176
-0.995673, 197, 113, 212, 176
-0.995693, 377, 145, 392, 208
-0.995696, 139, 105, 154, 168
-0.995737, 405, 241, 436, 368
-0.995745, 13, 81, 28, 144
-0.995748, 153, 113, 168, 176
-0.99575, 201, 33, 232, 160
-0.995776, 33, 77, 160, 108
-0.995783, 439, 113, 454, 176
-0.995801, 305, 289, 432, 352
-0.995811, 21, 81, 36, 144
-0.995826, 73, 17, 104, 144
-0.99583, 433, 313, 496, 375
-0.99583, 383, 81, 398, 144
-0.995835, 471, 121, 486, 184
-0.995851, 425, 113, 440, 176
-0.995852, 219, 121, 234, 184
-0.995856, 85, 17, 116, 144
-0.995857, 383, 137, 398, 200
-0.995872, 297, 113, 312, 176
-0.995882, 365, 169, 380, 232
-0.995883, 401, 73, 416, 136
-0.995889, 97, 241, 160, 368
-0.995889, 303, 161, 318, 224
-0.99589, 305, 201, 432, 264
-0.995896, 377, 113, 392, 176
-0.995897, 161, 345, 288, 375
-0.995923, 337, 177, 464, 208
-0.995926, 39, 129, 54, 192
-0.995929, 339, 169, 354, 232
-0.995962, 101, 81, 116, 144
-0.995963, 389, 33, 420, 160
-0.995975, 1, 297, 64, 360
-0.99598, 345, 241, 376, 368
-0.995998, 343, 121, 358, 184
-0.996006, 129, 121, 144, 184
-0.996022, 49, 137, 64, 200
-0.996036, 455, 121, 470, 184
-0.99605, 353, 193, 416, 256
-0.996062, 241, 189, 368, 220
-0.996076, 313, 241, 344, 368
-0.996076, 417, 65, 432, 128
-0.99608, 335, 121, 350, 184
-0.996105, 433, 105, 448, 168
-0.996113, 361, 241, 392, 368
-0.996117, 371, 129, 386, 192
-0.996124, 65, 297, 192, 360
-0.996128, 249, 121, 264, 184
-0.996129, 371, 161, 386, 224
-0.996183, 269, 241, 300, 368
-0.996275, 169, 281, 232, 344
-0.996292, 225, 313, 480, 375
-0.99635, 289, 265, 416, 328
-0.996354, 177, 269, 304, 300
-0.99636, 237, 241, 268, 368
-0.996363, 97, 161, 352, 224
-0.996369, 33, 257, 288, 320
-0.996384, 61, 17, 92, 144
-0.996424, 129, 133, 256, 164
-0.996426, 113, 257, 240, 288
-0.996436, 97, 201, 160, 264
-0.996466, 65, 313, 320, 375
-0.996478, 209, 137, 336, 168
-0.996493, 333, 241, 364, 368
-0.996522, 225, 177, 480, 240
-0.996532, 33, 273, 96, 336
-0.996566, 209, 329, 336, 360
-0.996572, 393, 241, 456, 304
-0.996612, 225, 109, 240, 140
-0.996624, 353, 337, 480, 368
-0.996643, 369, 273, 432, 336
-0.996658, 479, 117, 494, 148
-0.996702, 293, 113, 308, 144
-0.996704, 49, 65, 80, 320
-0.996704, 241, 169, 368, 200
-0.996706, 215, 109, 230, 140
-0.996707, 19, 85, 34, 116
-0.99671, 81, 177, 208, 208
-0.996747, 73, 177, 136, 304
-0.996747, 279, 113, 294, 144
-0.996748, 163, 113, 178, 144
-0.996751, 181, 65, 212, 320
-0.996781, 109, 17, 140, 144
-0.996783, 305, 65, 336, 320
-0.996784, 113, 81, 240, 112
-0.996788, 417, 97, 432, 128
-0.996794, 155, 105, 170, 136
-0.996798, 7, 85, 22, 116
-0.996799, 137, 177, 168, 304
-0.996801, 287, 117, 302, 148
-0.996837, 333, 113, 348, 144
-0.996851, 249, 241, 280, 368
-0.996861, 161, 333, 288, 364
-0.996865, 13, 85, 28, 116
-0.996869, 25, 65, 56, 320
-0.996871, 401, 17, 432, 144
-0.996874, 79, 113, 94, 144
-0.996875, 101, 109, 116, 140
-0.996885, 297, 49, 360, 112
-0.996887, 469, 117, 484, 148
-0.996897, 257, 329, 384, 360
-0.996915, 405, 105, 420, 136
-0.996923, 265, 289, 328, 352
-0.996927, 321, 289, 384, 352
-0.996933, 289, 97, 320, 352
-0.996942, 177, 105, 192, 136
-0.996947, 319, 109, 334, 140
-0.996956, 231, 109, 246, 140
-0.996958, 409, 289, 472, 352
-0.996959, 341, 117, 356, 148
-0.99696, 463, 117, 478, 148
-0.996961, 1, 153, 500, 216
-0.996962, 377, 93, 392, 124
-0.996964, 255, 345, 270, 375
-0.996967, 461, 65, 492, 320
-0.996968, 457, 121, 472, 152
-0.996974, 65, 201, 192, 264
-0.996978, 155, 117, 170, 148
-0.996989, 269, 345, 284, 375
-0.996993, 395, 109, 410, 140
-0.997002, 297, 101, 312, 132
-0.997008, 193, 257, 448, 320
-0.997009, 273, 141, 400, 172
-0.997013, 333, 101, 348, 132
-0.99702, 247, 109, 262, 140
-0.997028, 147, 121, 162, 152
-0.997034, 423, 113, 438, 144
-0.997035, 183, 257, 198, 288
-0.997039, 371, 125, 386, 156
-0.997041, 193, 65, 224, 320
-0.997053, 349, 341, 364, 372
-0.997061, 485, 121, 500, 152
-0.997066, 107, 109, 122, 140
-0.997067, 301, 121, 316, 152
-0.99707, 79, 93, 94, 124
-0.99707, 417, 117, 432, 148
-0.997071, 85, 113, 100, 144
-0.997071, 69, 97, 84, 128
-0.997079, 311, 157, 326, 188
-0.997079, 257, 101, 272, 132
-0.997089, 61, 113, 76, 144
-0.9971, 61, 65, 92, 320
-0.997109, 261, 345, 276, 375
-0.997114, 355, 341, 370, 372
-0.997115, 393, 97, 408, 128
-0.997125, 363, 117, 378, 148
-0.997127, 131, 109, 146, 140
-0.997136, 105, 65, 136, 320
-0.997147, 247, 345, 262, 375
-0.997147, 257, 113, 272, 144
-0.99715, 65, 249, 128, 312
-0.997152, 381, 109, 396, 140
-0.997153, 447, 113, 462, 144
-0.997157, 161, 145, 224, 208
-0.997158, 411, 97, 426, 128
-0.997172, 203, 101, 218, 132
-0.997173, 61, 97, 76, 128
-0.997174, 363, 133, 378, 164
-0.997175, 355, 117, 370, 148
-0.997176, 317, 65, 348, 320
-0.997179, 309, 113, 324, 144
-0.997184, 293, 125, 308, 156
-0.997187, 193, 289, 256, 352
-0.997188, 327, 97, 342, 128
-0.997188, 93, 117, 108, 148
-0.99719, 375, 105, 390, 136
-0.997197, 107, 93, 122, 124
-0.997202, 77, 65, 108, 320
-0.997202, 237, 113, 252, 144
-0.997203, 1, 169, 256, 232
-0.997209, 111, 125, 126, 156
-0.997209, 221, 65, 252, 320
-0.99721, 13, 65, 44, 320
-0.997216, 171, 93, 186, 124
-0.997217, 281, 341, 296, 372
-0.997218, 101, 97, 116, 128
-0.99722, 399, 97, 414, 128
-0.997224, 193, 257, 320, 288
-0.997229, 339, 97, 354, 128
-0.997233, 343, 341, 358, 372
-0.997234, 265, 105, 280, 136
-0.997245, 193, 145, 448, 208
-0.997245, 93, 65, 124, 320
-0.997245, 181, 177, 212, 304
-0.997246, 329, 201, 392, 264
-0.997247, 245, 97, 260, 128
-0.997249, 307, 341, 322, 372
-0.997251, 55, 97, 70, 128
-0.997251, 411, 113, 426, 144
-0.997255, 1, 65, 32, 320
-0.997255, 235, 97, 250, 128
-0.997257, 171, 109, 186, 140
-0.99726, 25, 117, 40, 148
-0.997265, 287, 105, 302, 136
-0.997265, 369, 141, 496, 172
-0.997266, 423, 101, 438, 132
-0.997271, 327, 117, 342, 148
-0.997272, 387, 113, 402, 144
-0.997277, 433, 101, 448, 132
-0.997289, 221, 129, 252, 256
-0.997294, 389, 241, 420, 368
-0.997295, 367, 173, 382, 204
-0.997296, 275, 345, 290, 375
-0.997299, 431, 113, 446, 144
-0.997303, 385, 129, 400, 160
-0.997304, 181, 121, 196, 152
-0.997306, 209, 97, 224, 128
-0.997307, 69, 109, 84, 140
-0.997309, 287, 341, 302, 372
-0.997312, 271, 113, 286, 144
-0.997318, 387, 97, 402, 128
-0.997328, 13, 117, 28, 148
-0.997328, 105, 121, 120, 152
-0.997337, 361, 341, 376, 372
-0.997339, 177, 169, 240, 232
-0.99735, 209, 109, 224, 140
-0.997351, 9, 97, 24, 128
-0.997356, 1, 177, 64, 304
-0.997367, 373, 65, 404, 320
-0.99738, 317, 121, 332, 152
-0.997381, 223, 265, 238, 296
-0.997389, 337, 341, 352, 372
-0.997392, 37, 65, 68, 320
-0.997393, 141, 241, 172, 368
-0.997396, 307, 97, 322, 128
-0.997398, 265, 333, 280, 364
-0.997404, 345, 249, 408, 312
-0.997405, 139, 109, 154, 140
-0.997408, 127, 173, 142, 204
-0.997414, 51, 113, 66, 144
-0.997415, 271, 125, 286, 156
-0.997421, 33, 113, 48, 144
-0.997431, 1, 241, 128, 304
-0.997432, 303, 109, 318, 140
-0.997434, 353, 193, 480, 256
-0.997435, 253, 65, 284, 320
-0.997443, 371, 89, 386, 120
-0.997443, 113, 233, 176, 296
-0.997446, 321, 141, 448, 172
-0.997454, 219, 121, 234, 152
-0.997455, 313, 341, 328, 372
-0.997459, 337, 165, 464, 196
-0.997461, 129, 281, 256, 312
-0.997462, 33, 161, 160, 192
-0.997462, 81, 285, 208, 316
-0.997464, 121, 65, 152, 320
-0.997469, 163, 125, 178, 156
-0.997473, 241, 345, 256, 375
-0.997473, 161, 185, 288, 248
-0.997474, 5, 117, 20, 148
-0.997484, 305, 173, 320, 204
-0.997487, 327, 337, 342, 368
-0.997488, 289, 193, 416, 224
-0.997495, 209, 265, 224, 296
-0.997496, 3, 101, 18, 132
-0.997504, 363, 105, 378, 136
-0.997512, 41, 113, 56, 144
-0.997514, 313, 97, 328, 128
-0.997514, 233, 65, 264, 320
-0.997519, 165, 101, 180, 132
-0.99752, 225, 97, 240, 128
-0.99752, 65, 269, 192, 300
-0.997521, 293, 341, 308, 372
-0.997523, 37, 81, 52, 112
-0.997538, 273, 77, 400, 108
-0.997542, 1, 177, 500, 240
-0.997543, 205, 193, 236, 320
-0.997546, 57, 297, 120, 360
-0.997565, 345, 65, 376, 320
-0.997568, 445, 65, 476, 320
-0.997569, 289, 1, 416, 64
-0.997579, 453, 241, 484, 368
-0.997606, 285, 241, 316, 368
-0.997609, 289, 153, 416, 184
-0.997616, 49, 41, 176, 104
-0.997621, 277, 65, 308, 320
-0.997639, 57, 273, 120, 336
-0.997643, 97, 281, 352, 344
-0.997656, 205, 65, 236, 320
-0.997674, 129, 177, 256, 208
-0.997687, 133, 65, 164, 320
-0.997699, 161, 81, 288, 112
-0.997711, 45, 17, 76, 144
-0.997713, 169, 65, 200, 320
-0.997716, 33, 137, 160, 168
-0.997718, 225, 193, 288, 320
-0.99772, 305, 333, 432, 364
-0.997721, 369, 217, 496, 280
-0.997732, 265, 65, 296, 320
-0.997748, 333, 33, 364, 288
-0.997772, 1, 241, 64, 304
-0.997795, 205, 129, 236, 256
-0.997814, 417, 129, 448, 256
-0.997822, 337, 189, 464, 220
-0.997825, 369, 289, 496, 352
-0.997839, 385, 65, 416, 320
-0.997868, 129, 313, 192, 375
-0.997878, 265, 129, 296, 256
-0.997923, 93, 177, 124, 304
-0.997956, 49, 189, 176, 220
-0.997956, 361, 33, 392, 288
-0.997968, 5, 241, 36, 368
-0.998, 165, 225, 196, 352
-0.998074, 113, 345, 240, 375
-0.998102, 225, 81, 352, 112
-0.998111, 65, 257, 192, 288
-0.99813, 313, 193, 344, 320
-0.998191, 1, 1, 128, 64
-0.998198, 273, 1, 336, 128
-0.998208, 97, 1, 128, 128
-0.998211, 433, 17, 464, 144
-0.998244, 289, 193, 320, 320
-0.998285, 337, 73, 464, 104
-0.998295, 369, 257, 496, 288
-0.998314, 49, 225, 176, 288
-0.99835, 369, 273, 496, 304
-0.998361, 1, 87, 64, 102
-0.998361, 41, 87, 104, 102
-0.998364, 25, 111, 88, 126
-0.998374, 257, 115, 320, 130
-0.998376, 145, 217, 272, 280
-0.99838, 97, 113, 160, 128
-0.998382, 297, 113, 360, 128
-0.998385, 145, 115, 208, 130
-0.998386, 73, 93, 136, 108
-0.998391, 249, 121, 312, 136
-0.998399, 281, 119, 344, 134
-0.9984, 185, 113, 248, 128
-0.998404, 209, 121, 272, 136
-0.998408, 233, 115, 296, 130
-0.998408, 209, 111, 272, 126
-0.998411, 129, 107, 192, 122
-0.998412, 289, 99, 352, 114
-0.998413, 57, 117, 120, 132
-0.998414, 289, 107, 352, 122
-0.998415, 369, 113, 432, 128
-0.998416, 329, 181, 392, 196
-0.998418, 17, 93, 80, 108
-0.99842, 97, 189, 224, 220
-0.998422, 153, 107, 216, 122
-0.998426, 209, 281, 336, 312
-0.998427, 113, 89, 176, 104
-0.99843, 177, 107, 240, 122
-0.998431, 305, 131, 368, 146
-0.998433, 113, 145, 240, 176
-0.99844, 265, 95, 328, 110
-0.998441, 57, 109, 120, 124
-0.998441, 121, 123, 184, 138
-0.998442, 385, 91, 448, 106
-0.998445, 329, 187, 392, 202
-0.998446, 289, 277, 416, 308
-0.998448, 321, 125, 384, 140
-0.998452, 1, 265, 500, 328
-0.998452, 313, 101, 376, 116
-0.998456, 121, 131, 184, 146
-0.998457, 353, 177, 416, 192
-0.998459, 241, 225, 368, 288
-0.998459, 405, 65, 436, 320
-0.998461, 265, 127, 328, 142
-0.998461, 121, 117, 184, 132
-0.998462, 433, 65, 464, 320
-0.998465, 301, 241, 332, 368
-0.998466, 305, 185, 368, 200
-0.998468, 273, 133, 336, 148
-0.998469, 345, 95, 408, 110
-0.998469, 153, 121, 216, 136
-0.998469, 177, 119, 240, 134
-0.998469, 297, 125, 360, 140
-0.998469, 305, 119, 368, 134
-0.99847, 49, 93, 112, 108
-0.998473, 97, 179, 160, 194
-0.998473, 225, 347, 288, 362
-0.998473, 225, 355, 288, 370
-0.998475, 433, 131, 496, 146
-0.998475, 273, 357, 336, 372
-0.998476, 25, 119, 88, 134
-0.998478, 1, 115, 64, 130
-0.998478, 257, 105, 320, 120
-0.998479, 25, 173, 88, 188
-0.998479, 25, 125, 88, 140
-0.998482, 409, 119, 472, 134
-0.998484, 337, 117, 400, 132
-0.998485, 409, 99, 472, 114
-0.998485, 377, 107, 440, 122
-0.998486, 161, 269, 224, 284
-0.998491, 161, 127, 224, 142
-0.998493, 97, 135, 160, 150
-0.998493, 377, 99, 440, 114
-0.998495, 97, 123, 160, 138
-0.998495, 417, 125, 480, 140
-0.998496, 33, 95, 64, 110
-0.998498, 217, 103, 280, 118
-0.998499, 369, 123, 400, 138
-0.9985, 349, 117, 380, 132
-0.9985, 169, 97, 232, 112
-0.9985, 269, 357, 300, 372
-0.9985, 465, 125, 496, 140
-0.9985, 433, 119, 496, 134
-0.9985, 1, 123, 64, 138
-0.998501, 105, 179, 136, 194
-0.998501, 101, 93, 132, 108
-0.998502, 221, 349, 252, 364
-0.998502, 293, 193, 324, 208
-0.998505, 361, 139, 424, 154
-0.998505, 429, 113, 460, 128
-0.998505, 321, 107, 384, 122
-0.998505, 405, 115, 436, 130
-0.998505, 121, 89, 152, 104
-0.998505, 37, 125, 68, 140
-0.998506, 281, 107, 312, 122
-0.998507, 405, 141, 436, 156
-0.998508, 401, 131, 464, 146
-0.998509, 193, 281, 448, 344
-0.99851, 129, 185, 384, 248
-0.998511, 337, 95, 368, 110
-0.998511, 101, 133, 132, 148
-0.998513, 369, 133, 432, 148
-0.998513, 145, 137, 208, 152
-0.998513, 413, 99, 444, 114
-0.998514, 245, 141, 276, 156
-0.998515, 173, 265, 204, 280
-0.998518, 9, 117, 40, 132
-0.998519, 337, 343, 368, 358
-0.99852, 297, 341, 360, 356
-0.998521, 297, 135, 328, 150
-0.998521, 329, 345, 392, 360
-0.998521, 365, 99, 396, 114
-0.998521, 385, 145, 416, 160
-0.998521, 377, 185, 408, 200
-0.998522, 89, 129, 152, 144
-0.998522, 409, 113, 472, 128
-0.998523, 381, 107, 412, 122
-0.998524, 385, 139, 448, 154
-0.998524, 137, 177, 168, 192
-0.998524, 225, 97, 288, 112
-0.998525, 33, 85, 64, 100
-0.998525, 149, 135, 180, 150
-0.998526, 345, 129, 408, 144
-0.998527, 353, 101, 416, 116
-0.998529, 305, 191, 368, 206
-0.99853, 189, 109, 220, 124
-0.99853, 145, 101, 208, 116
-0.99853, 293, 129, 324, 144
-0.998532, 129, 115, 160, 130
-0.998532, 125, 177, 156, 192
-0.998533, 105, 141, 168, 156
-0.998533, 249, 133, 312, 148
-0.998533, 237, 125, 268, 140
-0.998533, 345, 123, 408, 138
-0.998534, 369, 183, 432, 198
-0.998534, 377, 123, 440, 138
-0.998534, 393, 109, 424, 124
-0.998535, 409, 93, 472, 108
-0.998536, 101, 111, 132, 126
-0.998536, 413, 93, 444, 108
-0.998537, 373, 129, 404, 144
-0.998537, 89, 99, 152, 114
-0.998538, 25, 121, 56, 136
-0.998538, 81, 107, 144, 122
-0.998538, 285, 357, 316, 372
-0.998538, 401, 99, 432, 114
-0.998539, 357, 185, 388, 200
-0.998539, 173, 125, 204, 140
-0.998539, 237, 355, 268, 370
-0.998539, 113, 133, 144, 148
-0.998539, 33, 99, 96, 114
-0.99854, 5, 123, 36, 138
-0.998541, 105, 107, 168, 122
-0.998542, 265, 187, 328, 202
-0.998542, 165, 101, 196, 116
-0.998543, 309, 189, 340, 204
-0.998543, 301, 123, 332, 138
-0.998543, 233, 141, 296, 156
-0.998545, 129, 141, 160, 156
-0.998545, 73, 135, 136, 150
-0.998545, 5, 95, 36, 110
-0.998545, 225, 269, 352, 300
-0.998546, 357, 179, 388, 194
-0.998546, 297, 187, 328, 202
-0.998547, 201, 349, 264, 364
-0.998548, 209, 269, 240, 284
-0.998548, 249, 345, 312, 360
-0.99855, 465, 131, 496, 146
-0.99855, 349, 345, 380, 360
-0.99855, 289, 169, 352, 184
-0.998551, 157, 121, 188, 136
-0.998552, 249, 357, 312, 372
-0.998552, 313, 95, 376, 110
-0.998553, 281, 127, 312, 142
-0.998553, 29, 171, 60, 186
-0.998553, 97, 185, 160, 200
-0.998554, 65, 127, 128, 142
-0.998554, 69, 113, 100, 128
-0.998554, 137, 183, 168, 198
-0.998554, 57, 89, 88, 104
-0.998555, 193, 95, 256, 110
-0.998555, 265, 139, 328, 154
-0.998555, 301, 111, 332, 126
-0.998556, 349, 131, 380, 146
-0.998557, 209, 127, 272, 142
-0.998557, 185, 125, 248, 140
-0.998558, 337, 89, 400, 104
-0.99856, 245, 347, 276, 362
-0.99856, 201, 269, 264, 284
-0.99856, 213, 121, 244, 136
-0.998561, 89, 109, 120, 124
-0.998562, 341, 181, 372, 196
-0.998564, 433, 113, 496, 128
-0.998564, 437, 125, 468, 140
-0.998565, 417, 137, 480, 152
-0.998566, 41, 113, 72, 128
-0.998566, 313, 351, 376, 366
-0.998568, 257, 357, 288, 372
-0.998569, 193, 189, 320, 220
-0.998571, 133, 125, 164, 140
-0.998572, 25, 127, 56, 142
-0.998572, 1, 129, 64, 144
-0.998573, 49, 135, 112, 150
-0.998573, 233, 91, 296, 106
-0.998574, 193, 135, 256, 150
-0.998575, 401, 107, 464, 122
-0.998576, 369, 115, 400, 130
-0.998576, 313, 123, 344, 138
-0.998576, 81, 87, 144, 102
-0.998576, 201, 117, 232, 132
-0.998577, 141, 119, 172, 134
-0.998577, 209, 141, 272, 156
-0.998578, 317, 129, 348, 144
-0.998579, 1, 81, 64, 96
-0.99858, 101, 125, 132, 140
-0.99858, 317, 109, 348, 124
-0.998581, 305, 105, 336, 120
-0.998581, 185, 267, 216, 282
-0.998581, 137, 131, 168, 146
-0.998582, 17, 135, 80, 150
-0.998582, 417, 111, 448, 126
-0.998583, 273, 341, 336, 356
-0.998583, 269, 123, 300, 138
-0.998583, 333, 117, 364, 132
-0.998583, 337, 139, 400, 154
-0.998584, 361, 131, 392, 146
-0.998584, 149, 113, 180, 128
-0.998584, 305, 129, 336, 144
-0.998584, 149, 107, 180, 122
-0.998586, 129, 183, 192, 198
-0.998587, 181, 115, 212, 130
-0.998588, 217, 361, 280, 375
-0.998588, 341, 125, 372, 140
-0.998588, 337, 351, 400, 366
-0.998589, 301, 99, 332, 114
-0.99859, 305, 179, 368, 194
-0.998591, 305, 137, 368, 152
-0.998591, 49, 175, 112, 190
-0.998594, 385, 85, 448, 100
-0.998594, 309, 113, 324, 240
-0.998594, 465, 119, 496, 134
-0.998595, 449, 125, 480, 140
-0.998595, 201, 111, 232, 126
-0.998596, 125, 135, 156, 150
-0.998597, 305, 165, 336, 180
-0.998597, 145, 125, 176, 140
-0.998599, 113, 333, 240, 364
-0.9986, 329, 183, 360, 198
-0.9986, 89, 115, 120, 130
-0.998604, 129, 107, 160, 122
-0.998605, 317, 101, 348, 116
-0.998607, 417, 241, 448, 368
-0.998607, 17, 89, 48, 104
-0.998608, 257, 115, 288, 130
-0.998613, 377, 95, 408, 110
-0.998614, 113, 1, 240, 64
-0.998615, 81, 93, 112, 108
-0.998617, 293, 1, 324, 256
-0.998621, 393, 139, 424, 154
-0.998624, 81, 177, 112, 304
-0.998627, 117, 125, 148, 140
-0.998627, 249, 121, 280, 136
-0.998627, 425, 89, 456, 104
-0.998628, 233, 349, 264, 364
-0.99863, 329, 123, 360, 138
-0.998631, 45, 89, 76, 104
-0.998632, 213, 111, 244, 126
-0.998634, 285, 113, 316, 128
-0.998636, 305, 117, 336, 132
-0.998643, 425, 119, 456, 134
-0.998645, 161, 109, 192, 124
-0.998647, 321, 115, 352, 130
-0.998653, 241, 115, 272, 130
-0.998657, 113, 165, 240, 196
-0.998658, 289, 121, 320, 136
-0.998672, 353, 123, 384, 138
-0.998676, 225, 119, 256, 134
-0.998677, 445, 119, 476, 134
-0.998678, 161, 115, 192, 130
-0.998682, 305, 321, 432, 352
-0.998684, 57, 111, 88, 126
-0.998688, 269, 117, 300, 132
-0.998688, 225, 113, 256, 128
-0.998692, 337, 153, 464, 184
-0.998753, 321, 41, 448, 104
-0.998754, 319, 97, 334, 224
-0.998763, 441, 241, 472, 368
-0.99877, 225, 157, 352, 188
-0.998775, 377, 241, 408, 368
-0.998782, 33, 225, 288, 288
-0.998782, 365, 81, 380, 208
-0.998799, 321, 289, 448, 320
-0.998802, 373, 81, 388, 208
-0.998804, 173, 129, 204, 256
-0.998805, 333, 97, 348, 224
-0.998807, 1, 217, 128, 280
-0.998829, 303, 97, 318, 224
-0.998837, 145, 65, 176, 320
-0.998843, 153, 65, 168, 192
-0.998862, 343, 97, 358, 224
-0.998864, 177, 1, 304, 64
-0.998874, 193, 177, 320, 208
-0.998879, 359, 97, 374, 224
-0.99888, 369, 245, 496, 276
-0.998884, 401, 81, 416, 208
-0.998902, 123, 65, 138, 192
-0.998902, 139, 65, 154, 192
-0.998919, 325, 97, 340, 224
-0.998921, 389, 81, 404, 208
-0.998926, 3, 65, 18, 192
-0.998929, 225, 17, 352, 80
-0.998947, 447, 65, 462, 192
-0.998947, 157, 1, 188, 256
-0.998948, 381, 81, 396, 208
-0.998964, 395, 81, 410, 208
-0.998972, 9, 65, 24, 192
-0.998984, 19, 65, 34, 192
-0.998985, 311, 65, 326, 192
-0.998998, 163, 81, 178, 208
-0.998999, 33, 285, 160, 316
-0.999009, 49, 1, 176, 64
-0.99901, 193, 245, 320, 276
-0.999021, 369, 129, 384, 256
-0.999026, 17, 149, 144, 180
-0.999026, 257, 233, 500, 296
-0.999034, 193, 49, 448, 112
-0.999038, 133, 65, 148, 192
-0.999044, 111, 97, 126, 224
-0.999045, 433, 65, 448, 192
-0.999054, 419, 81, 434, 208
-0.99906, 147, 81, 162, 208
-0.999063, 161, 145, 288, 176
-0.999075, 233, 81, 248, 208
-0.999077, 455, 97, 470, 224
-0.999079, 117, 65, 132, 192
-0.999085, 441, 81, 456, 208
-0.999089, 227, 81, 242, 208
-0.999089, 239, 81, 254, 208
-0.9991, 215, 81, 230, 208
-0.999113, 79, 65, 94, 192
-0.999114, 199, 81, 214, 208
-0.999121, 461, 97, 476, 224
-0.999126, 1, 185, 128, 216
-0.999128, 411, 65, 426, 192
-0.999129, 353, 65, 368, 192
-0.999129, 297, 97, 312, 224
-0.999129, 245, 65, 260, 192
-0.99913, 425, 97, 440, 224
-0.999131, 321, 265, 448, 296
-0.999132, 31, 65, 46, 192
-0.999141, 281, 81, 296, 208
-0.999142, 171, 81, 186, 208
-0.999143, 209, 293, 336, 324
-0.999145, 303, 145, 318, 272
-0.999146, 349, 113, 364, 240
-0.999146, 257, 81, 272, 208
-0.999147, 65, 65, 80, 192
-0.999148, 369, 285, 496, 316
-0.999154, 65, 345, 192, 375
-0.999155, 185, 81, 200, 208
-0.999157, 93, 81, 108, 208
-0.99916, 25, 65, 40, 192
-0.999166, 207, 81, 222, 208
-0.999168, 105, 81, 120, 208
-0.99918, 357, 129, 388, 375
-0.99919, 353, 309, 480, 340
-0.999191, 87, 65, 102, 192
-0.9992, 145, 293, 272, 324
-0.9992, 263, 97, 278, 224
-0.999206, 71, 65, 86, 192
-0.999206, 273, 65, 288, 192
-0.999211, 1, 241, 500, 304
-0.999216, 225, 201, 352, 232
-0.999218, 241, 257, 368, 288
-0.999218, 145, 189, 272, 220
-0.999227, 411, 129, 426, 256
-0.999231, 177, 81, 192, 208
-0.999237, 157, 97, 188, 352
-0.999244, 17, 201, 144, 232
-0.999249, 193, 217, 320, 280
-0.999249, 379, 129, 394, 256
-0.999251, 59, 65, 74, 192
-0.999252, 343, 145, 358, 272
-0.99926, 273, 25, 400, 88
-0.999266, 191, 65, 206, 192
-0.999273, 251, 65, 266, 192
-0.999274, 467, 97, 482, 224
-0.999275, 37, 65, 52, 192
-0.999279, 99, 65, 114, 192
-0.999282, 315, 161, 330, 288
-0.999293, 221, 81, 236, 208
-0.999293, 157, 113, 172, 240
-0.999303, 43, 65, 58, 192
-0.999306, 385, 129, 400, 256
-0.999312, 485, 65, 500, 192
-0.999317, 405, 129, 420, 256
-0.99932, 1, 273, 128, 304
-0.999321, 291, 97, 306, 224
-0.999327, 17, 213, 144, 244
-0.999333, 51, 65, 66, 192
-0.999346, 81, 201, 208, 232
-0.999348, 473, 81, 488, 208
-0.99935, 273, 205, 400, 236
-0.999365, 337, 161, 352, 288
-0.999366, 391, 129, 406, 256
-0.999371, 417, 65, 448, 320
-0.999375, 427, 49, 442, 176
-0.99938, 397, 129, 412, 256
-0.99938, 317, 49, 332, 176
-0.99938, 323, 49, 338, 176
-0.999387, 339, 49, 354, 176
-0.999396, 299, 49, 314, 176
-0.999398, 331, 49, 346, 176
-0.999405, 81, 245, 208, 276
-0.999418, 363, 33, 378, 160
-0.999423, 111, 49, 126, 176
-0.999431, 139, 113, 154, 240
-0.999435, 309, 161, 324, 288
-0.99944, 33, 193, 288, 256
-0.999441, 475, 225, 490, 352
-0.999443, 1, 345, 128, 375
-0.999449, 345, 49, 360, 176
-0.999454, 233, 33, 248, 160
-0.999455, 371, 33, 386, 160
-0.999464, 479, 65, 494, 192
-0.999466, 349, 161, 364, 288
-0.999467, 321, 145, 336, 272
-0.999472, 435, 113, 450, 240
-0.999474, 65, 297, 192, 328
-0.999474, 251, 113, 266, 240
-0.999485, 461, 49, 476, 176
-0.999497, 147, 129, 162, 256
-0.999499, 269, 113, 284, 240
-0.999504, 223, 33, 238, 160
-0.999507, 369, 225, 496, 256
-0.999508, 305, 301, 432, 332
-0.999509, 257, 289, 384, 320
-0.999513, 417, 33, 432, 160
-0.999524, 289, 253, 416, 284
-0.999525, 207, 241, 222, 368
-0.99953, 117, 113, 132, 240
-0.999534, 13, 17, 28, 144
-0.999537, 193, 113, 208, 240
-0.999537, 161, 321, 288, 352
-0.999542, 361, 145, 376, 272
-0.999543, 483, 193, 498, 320
-0.999543, 33, 333, 160, 364
-0.999545, 275, 113, 290, 240
-0.999549, 303, 193, 318, 320
-0.999553, 449, 113, 464, 240
-0.999554, 87, 113, 102, 240
-0.999556, 103, 129, 118, 256
-0.999556, 129, 113, 144, 240
-0.999558, 195, 225, 210, 352
-0.999561, 391, 33, 406, 160
-0.999562, 145, 33, 160, 160
-0.999562, 1, 245, 128, 276
-0.999563, 485, 129, 500, 256
-0.999567, 19, 17, 34, 144
-0.999567, 45, 129, 60, 256
-0.999568, 297, 145, 312, 272
-0.999571, 343, 193, 358, 320
-0.999572, 287, 49, 302, 176
-0.999573, 453, 49, 468, 176
-0.999575, 59, 113, 74, 240
-0.999576, 245, 113, 260, 240
-0.999588, 113, 305, 240, 336
-0.999642, 161, 305, 288, 336
-0.999646, 337, 201, 464, 232
-0.999654, 1, 257, 128, 288
-0.999654, 1, 305, 128, 336
-0.999673, 353, 325, 480, 356
-0.999695, 1, 289, 500, 352
-0.9997, 207, 125, 222, 140
-0.9997, 183, 267, 198, 282
-0.999701, 419, 111, 434, 126
-0.999701, 395, 97, 410, 112
-0.999702, 251, 355, 266, 370
-0.999702, 299, 115, 314, 130
-0.999703, 33, 89, 48, 104
-0.999703, 349, 343, 364, 358
-0.999704, 45, 93, 60, 108
-0.999704, 161, 127, 176, 142
-0.999704, 253, 347, 268, 362
-0.999705, 481, 131, 496, 146
-0.999706, 299, 109, 314, 124
-0.999706, 145, 245, 272, 276
-0.999707, 233, 121, 248, 136
-0.999707, 299, 131, 314, 146
-0.999708, 57, 113, 72, 128
-0.999708, 437, 89, 452, 104
-0.999709, 371, 117, 386, 132
-0.999709, 237, 113, 252, 128
-0.999709, 59, 89, 74, 104
-0.99971, 41, 111, 56, 126
-0.99971, 19, 99, 34, 114
-0.99971, 401, 105, 416, 120
-0.99971, 147, 183, 162, 198
-0.99971, 479, 121, 494, 136
-0.999711, 313, 187, 328, 202
-0.999711, 33, 121, 48, 136
-0.999712, 183, 127, 198, 142
-0.999712, 159, 107, 174, 122
-0.999712, 291, 113, 306, 128
-0.999712, 423, 93, 438, 108
-0.999713, 405, 139, 420, 154
-0.999713, 451, 125, 466, 140
-0.999713, 341, 183, 356, 198
-0.999713, 163, 115, 178, 130
-0.999714, 361, 345, 376, 360
-0.999714, 223, 269, 238, 284
-0.999716, 433, 115, 448, 130
-0.999718, 247, 349, 262, 364
-0.999718, 41, 87, 56, 102
-0.999719, 7, 87, 22, 102
-0.999719, 171, 101, 186, 116
-0.99972, 313, 117, 328, 132
-0.99972, 311, 157, 326, 172
-0.999721, 201, 117, 216, 132
-0.999721, 471, 125, 486, 140
-0.999721, 7, 95, 22, 110
-0.999721, 125, 133, 140, 148
-0.999722, 145, 69, 272, 100
-0.999723, 1, 123, 16, 138
-0.999724, 153, 105, 168, 120
-0.999724, 31, 127, 46, 142
-0.999725, 177, 97, 192, 112
-0.999725, 305, 185, 320, 200
-0.999725, 137, 129, 152, 144
-0.999726, 307, 165, 322, 180
-0.999727, 101, 117, 116, 132
-0.999727, 307, 115, 322, 130
-0.999727, 305, 133, 320, 148
-0.999728, 75, 113, 90, 128
-0.99973, 51, 115, 66, 130
-0.99973, 13, 97, 28, 112
-0.999732, 363, 179, 378, 194
-0.999732, 319, 119, 334, 134
-0.999732, 243, 123, 258, 138
-0.999733, 437, 121, 452, 136
-0.999734, 325, 113, 340, 128
-0.999736, 417, 119, 432, 134
-0.999737, 267, 357, 282, 372
-0.99974, 131, 107, 146, 122
-0.99974, 137, 135, 152, 150
-0.999741, 191, 119, 206, 134
-0.999742, 335, 101, 350, 116
-0.999742, 143, 131, 158, 146
-0.999743, 307, 123, 322, 138
-0.999744, 177, 105, 192, 120
-0.999744, 145, 121, 160, 136
-0.999744, 329, 107, 344, 122
-0.999745, 325, 119, 340, 134
-0.999745, 209, 113, 224, 128
-0.999745, 109, 125, 124, 140
-0.999747, 245, 113, 260, 128
-0.999747, 209, 317, 336, 348
-0.999747, 339, 117, 354, 132
-0.999748, 31, 173, 46, 188
-0.999749, 165, 107, 180, 122
-0.99975, 117, 125, 132, 140
-0.99975, 343, 125, 358, 140
-0.999752, 33, 65, 160, 96
-0.999752, 185, 117, 200, 132
-0.999752, 467, 119, 482, 134
-0.999753, 131, 135, 146, 150
-0.999754, 235, 349, 250, 364
-0.999755, 319, 113, 334, 128
-0.999755, 153, 115, 168, 130
-0.999756, 271, 123, 286, 138
-0.999756, 363, 131, 378, 146
-0.999757, 291, 119, 306, 134
-0.999757, 197, 111, 212, 126
-0.999758, 131, 125, 146, 140
-0.999759, 217, 119, 232, 134
-0.999761, 63, 111, 78, 126
-0.999762, 363, 123, 378, 138
-0.999762, 257, 115, 272, 130
-0.999763, 251, 121, 266, 136
-0.999763, 443, 123, 458, 138
-0.999764, 153, 125, 168, 140
-0.999764, 53, 91, 68, 106
-0.999766, 209, 269, 224, 284
-0.999767, 301, 121, 316, 136
-0.999767, 125, 125, 140, 140
-0.999768, 313, 163, 328, 178
-0.999768, 1, 289, 256, 352
-0.999769, 281, 123, 296, 138
-0.99977, 313, 129, 328, 144
-0.99977, 241, 349, 256, 364
-0.999771, 443, 117, 458, 132
-0.999773, 105, 109, 120, 124
-0.999773, 431, 89, 446, 104
-0.999776, 175, 111, 190, 126
-0.999777, 353, 121, 368, 136
-0.999779, 69, 111, 84, 126
-0.99978, 47, 87, 62, 102
-0.99978, 271, 115, 286, 130
-0.99978, 425, 115, 440, 130
-0.999783, 261, 121, 276, 136
-0.999788, 369, 297, 496, 328
-0.999793, 273, 357, 288, 372
-0.999794, 227, 119, 242, 134
-0.999796, 221, 111, 236, 126
-0.999797, 281, 117, 296, 132
-0.999797, 331, 115, 346, 130
-0.999804, 457, 123, 472, 138
-0.999813, 231, 111, 246, 126
-0.999826, 449, 119, 464, 134
-0.999833, 49, 313, 176, 344
-0.999858, 273, 233, 400, 264
-0.999869, 257, 201, 500, 264
-0.999872, 305, 221, 432, 252
-0.999875, 65, 213, 192, 244
-0.999888, 113, 13, 240, 44
-0.999963, 161, 233, 416, 296
-0.999976, 1, 1, 128, 32
-0.999997, 369, 213, 496, 244
-0.999998, 333, 129, 364, 375
-1.00001, 97, 25, 224, 88
-1.00019, 1, 49, 500, 112
-1.0003, 257, 1, 500, 64
-1.00035, 129, 1, 384, 64
-1.00038, 73, 241, 136, 368
-1.00049, 1, 41, 256, 104
-1.0005, 369, 1, 496, 64
-1.00052, 33, 1, 288, 64
-1.00054, 49, 161, 112, 288
-1.00069, 1, 313, 500, 375
-1.00073, 129, 209, 384, 272
-1.00076, 97, 41, 352, 104
-1.00084, 225, 25, 480, 88
-1.00096, 145, 41, 272, 104
-1.00124, 1, 25, 128, 88
-1.00196, 1, 201, 500, 264
-1.0021, 369, 25, 496, 88
-1.00219, 1, 1, 500, 64
-1.00259, 209, 41, 336, 104
-1.00352, 1, 25, 500, 88
-1.00492, 249, 1, 312, 128
