1955
-0.186451, 1, 1, 500, 375
-0.271663, 1, 1, 500, 256
-0.305604, 1, 97, 500, 352
-0.328426, 97, 1, 352, 375
-0.378228, 193, 1, 448, 375
-0.429113, 1, 1, 256, 375
-0.558393, 65, 1, 320, 256
-0.572453, 225, 129, 480, 375
-0.639628, 33, 129, 288, 375
-0.642142, 161, 33, 416, 288
-0.677307, 257, 1, 500, 256
-0.728308, 129, 129, 384, 375
-0.832948, 81, 1, 208, 375
-0.835427, 353, 65, 480, 320
-0.844825, 129, 1, 256, 375
-0.853112, 369, 1, 496, 375
-0.853159, 33, 1, 160, 375
-0.856375, 305, 97, 432, 352
-0.857991, 177, 1, 304, 375
-0.860892, 97, 129, 224, 375
-0.862665, 81, 1, 208, 256
-0.866278, 145, 1, 272, 256
-0.867231, 241, 129, 368, 375
-0.867284, 241, 1, 368, 375
-0.867406, 1, 161, 500, 288
-0.870118, 321, 1, 448, 375
-0.871505, 33, 1, 160, 256
-0.871785, 1, 33, 500, 160
-0.875339, 161, 97, 288, 352
-0.881629, 33, 97, 160, 352
-0.883491, 1, 113, 500, 240
-0.884271, 1, 225, 500, 352
-0.890989, 193, 1, 320, 256
-0.893636, 241, 33, 368, 288
-0.900608, 257, 113, 500, 240
-0.903044, 193, 161, 448, 288
-0.903234, 97, 33, 352, 160
-0.90414, 425, 113, 488, 240
-0.904641, 1, 65, 256, 192
-0.90724, 305, 1, 432, 256
-0.909815, 417, 161, 480, 288
-0.911215, 225, 225, 480, 352
-0.912554, 65, 241, 320, 368
-0.914871, 33, 113, 288, 240
-0.915862, 353, 177, 480, 304
-0.917209, 161, 97, 416, 224
-0.922102, 353, 97, 480, 224
-0.923526, 49, 65, 176, 192
-0.923924, 1, 1, 256, 128
-0.924739, 257, 49, 500, 176
-0.924985, 105, 65, 168, 192
-0.926966, 393, 161, 456, 288
-0.927671, 273, 129, 400, 256
-0.928685, 73, 81, 136, 208
-0.92899, 377, 225, 440, 352
-0.931323, 353, 161, 416, 288
-0.931372, 329, 129, 392, 256
-0.931462, 353, 225, 480, 352
-0.931907, 33, 161, 288, 288
-0.933003, 129, 17, 192, 144
-0.934008, 401, 209, 464, 336
-0.934035, 305, 177, 432, 304
-0.934251, 97, 49, 224, 176
-0.93451, 9, 97, 72, 224
-0.9354, 1, 81, 128, 208
-0.935994, 401, 201, 464, 264
-0.936409, 33, 97, 96, 224
-0.936468, 1, 17, 128, 144
-0.936982, 425, 209, 488, 336
-0.937554, 177, 241, 304, 368
-0.937573, 433, 65, 496, 192
-0.937844, 193, 17, 320, 144
-0.938149, 129, 241, 256, 368
-0.938614, 81, 113, 208, 240
-0.938909, 401, 113, 464, 240
-0.939385, 1, 1, 64, 128
-0.939815, 369, 49, 496, 176
-0.939902, 161, 81, 288, 208
-0.940204, 409, 177, 472, 240
-0.940596, 129, 81, 192, 208
-0.940955, 257, 81, 384, 208
-0.941064, 433, 105, 496, 168
-0.941102, 369, 113, 432, 240
-0.9413, 305, 81, 368, 208
-0.941366, 41, 145, 104, 272
-0.941415, 433, 137, 496, 200
-0.94274, 25, 49, 88, 176
-0.943181, 433, 177, 496, 240
-0.943451, 217, 1, 280, 128
-0.943831, 129, 1, 256, 128
-0.944354, 137, 41, 200, 104
-0.944445, 257, 1, 500, 128
-0.944848, 425, 217, 488, 280
-0.944947, 209, 241, 272, 368
-0.945034, 305, 225, 432, 352
-0.94552, 1, 225, 128, 352
-0.94577, 177, 225, 240, 352
-0.94588, 105, 97, 168, 160
-0.946122, 105, 1, 168, 128
-0.94618, 113, 73, 176, 136
-0.946201, 329, 81, 392, 208
-0.946306, 145, 209, 208, 336
-0.946789, 137, 129, 200, 256
-0.946892, 153, 49, 216, 176
-0.947561, 257, 209, 384, 336
-0.947903, 409, 105, 472, 168
-0.948093, 409, 33, 472, 160
-0.94846, 9, 1, 72, 64
-0.948475, 1, 129, 128, 256
-0.948551, 233, 209, 296, 336
-0.948668, 81, 1, 208, 128
-0.948745, 305, 49, 432, 176
-0.948932, 185, 305, 248, 368
-0.949582, 57, 137, 120, 200
-0.949665, 361, 169, 424, 232
-0.949918, 65, 241, 192, 368
-0.950183, 1, 145, 64, 272
-0.950419, 353, 209, 416, 336
-0.950496, 377, 193, 440, 256
-0.950533, 161, 161, 288, 288
-0.950655, 25, 225, 88, 352
-0.950843, 393, 225, 456, 288
-0.950972, 113, 129, 176, 256
-0.951434, 97, 177, 224, 304
-0.95156, 73, 113, 136, 176
-0.952017, 105, 121, 168, 184
-0.952304, 329, 193, 392, 320
-0.953071, 137, 89, 200, 152
-0.953239, 201, 177, 264, 304
-0.953461, 49, 209, 112, 336
-0.953477, 209, 305, 272, 368
-0.953526, 209, 177, 336, 304
-0.953676, 321, 241, 384, 368
-0.953687, 433, 17, 496, 144
-0.953795, 193, 281, 256, 344
-0.953805, 161, 201, 224, 264
-0.954009, 49, 161, 176, 288
-0.954138, 33, 105, 96, 168
-0.954171, 73, 89, 136, 152
-0.955029, 33, 1, 96, 128
-0.95527, 321, 137, 384, 200
-0.955391, 305, 1, 432, 128
-0.955721, 249, 113, 312, 240
-0.955987, 137, 169, 200, 232
-0.956231, 417, 129, 480, 375
-0.95629, 137, 217, 200, 280
-0.956463, 353, 217, 416, 280
-0.95693, 81, 33, 144, 160
-0.956986, 137, 145, 200, 208
-0.957013, 385, 169, 448, 232
-0.95715, 305, 105, 368, 168
-0.957317, 241, 33, 368, 160
-0.957422, 345, 145, 408, 208
-0.957697, 65, 313, 128, 375
-0.95773, 329, 177, 392, 240
-0.957814, 81, 225, 144, 352
-0.957819, 169, 177, 232, 304
-0.957828, 289, 161, 352, 288
-0.957945, 1, 49, 64, 176
-0.958241, 377, 257, 440, 320
-0.958245, 185, 33, 248, 160
-0.958262, 113, 49, 176, 112
-0.958333, 217, 281, 280, 344
-0.958365, 137, 113, 200, 176
-0.958429, 225, 129, 352, 256
-0.958628, 177, 241, 240, 304
-0.959064, 409, 297, 472, 360
-0.959142, 273, 169, 336, 232
-0.95921, 337, 281, 400, 344
-0.959732, 313, 249, 376, 312
-0.95983, 369, 145, 432, 208
-0.96008, 89, 65, 152, 128
-0.960163, 409, 153, 472, 216
-0.960205, 273, 49, 336, 176
-0.960486, 97, 17, 160, 80
-0.960603, 25, 129, 88, 192
-0.960668, 425, 241, 488, 304
-0.960736, 89, 313, 152, 375
-0.960742, 353, 65, 416, 192
-0.960874, 281, 97, 344, 224
-0.961045, 241, 17, 304, 144
-0.961239, 209, 81, 336, 208
-0.961283, 161, 113, 224, 240
-0.961317, 161, 65, 224, 128
-0.961493, 73, 289, 136, 352
-0.961506, 337, 257, 400, 320
-0.961783, 445, 97, 476, 224
-0.961829, 9, 105, 72, 168
-0.961947, 409, 129, 472, 192
-0.962014, 113, 1, 176, 256
-0.962114, 329, 89, 392, 152
-0.962256, 417, 177, 448, 304
-0.962366, 41, 1, 104, 64
-0.962464, 241, 289, 304, 352
-0.962659, 89, 145, 152, 272
-0.962736, 209, 257, 272, 320
-0.962911, 1, 193, 64, 320
-0.963085, 353, 1, 480, 128
-0.963426, 25, 153, 88, 216
-0.963513, 429, 145, 460, 272
-0.963667, 49, 161, 112, 224
-0.963739, 121, 225, 184, 352
-0.963842, 337, 129, 400, 375
-0.963947, 193, 129, 256, 256
-0.964261, 305, 1, 368, 128
-0.964402, 109, 97, 140, 160
-0.964427, 265, 1, 328, 128
-0.964795, 1, 145, 64, 208
-0.964849, 369, 185, 496, 248
-0.964984, 401, 249, 464, 312
-0.965052, 49, 49, 112, 176
-0.965065, 241, 145, 304, 208
-0.965076, 65, 129, 128, 256
-0.965169, 385, 89, 448, 152
-0.965219, 33, 289, 96, 352
-0.965277, 461, 129, 492, 256
-0.96542, 445, 105, 476, 168
-0.965427, 441, 185, 472, 248
-0.965487, 417, 201, 448, 264
-0.965739, 225, 17, 288, 80
-0.965825, 469, 129, 500, 192
-0.965848, 377, 65, 440, 192
-0.965925, 129, 73, 160, 136
-0.965945, 1, 81, 64, 144
-0.966023, 9, 1, 72, 256
-0.966054, 377, 281, 440, 344
-0.966119, 361, 121, 424, 184
-0.966179, 97, 73, 224, 136
-0.966218, 453, 209, 484, 272
-0.966233, 97, 145, 160, 208
-0.966292, 225, 1, 256, 128
-0.966309, 393, 129, 456, 375
-0.966329, 193, 49, 256, 112
-0.966394, 65, 129, 96, 192
-0.96647, 117, 73, 148, 136
-0.966558, 329, 201, 392, 264
-0.96657, 417, 81, 480, 144
-0.966803, 137, 65, 200, 128
-0.966895, 209, 49, 272, 176
-0.966911, 305, 225, 368, 288
-0.96713, 49, 129, 176, 192
-0.967135, 353, 193, 416, 256
-0.967194, 313, 97, 376, 352
-0.967247, 165, 201, 196, 264
-0.967268, 1, 105, 128, 168
-0.967272, 113, 177, 176, 240
-0.967297, 1, 273, 64, 336
-0.967332, 441, 161, 472, 288
-0.96737, 121, 17, 184, 80
-0.967411, 49, 81, 112, 144
-0.96743, 5, 89, 36, 152
-0.967444, 385, 113, 448, 176
-0.967499, 337, 1, 400, 128
-0.967653, 405, 177, 436, 304
-0.967686, 161, 1, 224, 128
-0.967696, 425, 161, 456, 224
-0.967732, 405, 201, 436, 264
-0.967806, 117, 49, 148, 176
-0.967822, 17, 81, 144, 144
-0.967918, 393, 9, 456, 72
-0.968097, 461, 185, 492, 248
-0.96811, 417, 17, 480, 80
-0.968118, 225, 145, 288, 272
-0.968121, 369, 97, 432, 352
-0.968193, 25, 241, 88, 304
-0.968228, 425, 265, 488, 328
-0.968404, 305, 161, 368, 224
-0.968416, 429, 201, 460, 264
-0.968422, 137, 265, 200, 328
-0.968434, 337, 225, 464, 288
-0.96869, 161, 177, 224, 240
-0.968694, 161, 281, 224, 344
-0.968922, 57, 1, 120, 128
-0.968927, 433, 33, 496, 288
-0.968929, 145, 313, 208, 375
-0.968944, 369, 113, 400, 240
-0.969025, 1, 33, 64, 96
-0.969035, 57, 217, 120, 280
-0.969074, 1, 241, 64, 368
-0.969079, 265, 241, 328, 368
-0.969146, 249, 25, 312, 88
-0.96916, 137, 97, 168, 160
-0.969199, 385, 305, 448, 368
-0.969241, 49, 105, 176, 168
-0.969243, 65, 65, 128, 320
-0.969267, 429, 209, 460, 336
-0.969287, 1, 177, 128, 304
-0.969315, 337, 113, 400, 176
-0.969323, 193, 289, 320, 352
-0.969343, 401, 273, 464, 336
-0.969393, 33, 313, 96, 375
-0.969481, 153, 137, 184, 200
-0.969514, 133, 33, 164, 160
-0.969587, 453, 177, 484, 304
-0.969716, 369, 297, 496, 360
-0.969986, 369, 129, 400, 192
-0.97008, 313, 25, 376, 88
-0.970102, 1, 1, 128, 64
-0.970128, 393, 217, 424, 280
-0.970187, 1, 177, 64, 240
-0.970281, 25, 177, 88, 240
-0.970289, 185, 201, 248, 264
-0.970351, 173, 177, 204, 240
-0.970413, 161, 89, 224, 152
-0.970437, 137, 193, 200, 256
-0.970495, 353, 145, 384, 208
-0.970546, 113, 177, 176, 304
-0.970591, 453, 137, 484, 200
-0.970599, 321, 177, 448, 240
-0.970607, 121, 305, 184, 368
-0.970612, 369, 121, 496, 184
-0.970717, 145, 241, 208, 304
-0.970761, 65, 97, 96, 224
-0.970767, 357, 129, 388, 256
-0.970778, 49, 185, 112, 248
-0.970826, 185, 177, 248, 240
-0.970863, 33, 1, 64, 64
-0.970865, 141, 81, 172, 208
-0.970892, 81, 49, 208, 112
-0.970929, 469, 153, 500, 216
-0.970949, 321, 145, 448, 208
-0.970972, 409, 225, 440, 352
-0.971043, 297, 129, 360, 192
-0.971079, 77, 137, 108, 200
-0.971095, 349, 257, 380, 320
-0.971099, 409, 49, 472, 112
-0.971148, 81, 41, 144, 104
-0.971343, 89, 105, 120, 168
-0.971356, 185, 89, 248, 152
-0.971453, 77, 65, 108, 192
-0.971456, 225, 97, 288, 224
-0.971472, 65, 105, 96, 168
-0.971476, 81, 265, 144, 328
-0.97152, 281, 105, 344, 168
-0.971534, 369, 153, 496, 216
-0.971546, 145, 65, 208, 320
-0.971588, 433, 305, 496, 368
-0.971653, 341, 113, 372, 240
-0.971706, 113, 289, 240, 352
-0.971726, 297, 209, 360, 336
-0.971857, 33, 313, 160, 375
-0.971928, 9, 313, 72, 375
-0.971949, 161, 121, 224, 184
-0.971982, 417, 129, 448, 256
-0.972024, 273, 17, 336, 80
-0.972042, 257, 313, 320, 375
-0.972055, 389, 225, 420, 352
-0.97208, 153, 113, 184, 240
-0.972089, 25, 265, 88, 328
-0.972121, 161, 313, 288, 375
-0.97218, 121, 49, 152, 112
-0.972206, 273, 129, 336, 192
-0.972214, 249, 161, 312, 288
-0.972226, 1, 81, 32, 208
-0.972253, 433, 41, 496, 104
-0.972301, 337, 241, 368, 304
-0.972349, 373, 153, 404, 216
-0.972349, 289, 1, 352, 256
-0.97245, 21, 1, 52, 64
-0.972496, 413, 177, 444, 240
-0.972503, 161, 33, 224, 96
-0.972513, 217, 73, 280, 136
-0.97252, 433, 81, 464, 208
-0.972591, 361, 305, 424, 368
-0.972592, 241, 265, 304, 328
-0.97266, 441, 209, 472, 336
-0.972663, 441, 129, 472, 192
-0.97267, 381, 129, 412, 256
-0.972696, 105, 65, 136, 192
-0.972744, 13, 113, 44, 176
-0.972837, 365, 193, 396, 320
-0.972859, 265, 73, 328, 136
-0.972886, 97, 289, 160, 352
-0.973041, 217, 41, 280, 104
-0.973059, 229, 225, 260, 352
-0.973066, 321, 201, 448, 264
-0.973136, 85, 305, 116, 368
-0.973244, 229, 305, 260, 368
-0.973331, 457, 113, 488, 176
-0.97334, 361, 273, 392, 336
-0.97336, 345, 105, 376, 168
-0.97337, 441, 161, 472, 224
-0.973393, 25, 1, 56, 128
-0.973476, 333, 113, 364, 176
-0.973487, 89, 65, 152, 320
-0.973554, 273, 265, 400, 328
-0.973582, 161, 265, 288, 328
-0.973628, 33, 129, 96, 375
-0.973656, 237, 1, 268, 128
-0.973668, 149, 113, 180, 176
-0.973685, 217, 281, 248, 344
-0.973686, 129, 81, 160, 208
-0.973705, 469, 177, 500, 304
-0.973712, 133, 49, 164, 112
-0.973723, 121, 105, 152, 168
-0.973726, 153, 33, 184, 160
-0.973848, 289, 201, 352, 264
-0.973966, 353, 97, 480, 160
-0.974004, 273, 161, 400, 224
-0.974098, 81, 169, 208, 232
-0.974103, 173, 161, 204, 288
-0.974277, 453, 33, 484, 160
-0.974286, 13, 97, 44, 224
-0.974383, 273, 121, 400, 184
-0.974405, 353, 249, 480, 312
-0.974535, 93, 65, 124, 192
-0.974599, 305, 289, 432, 352
-0.974649, 433, 225, 464, 288
-0.974721, 189, 305, 220, 368
-0.974726, 137, 121, 168, 184
-0.974771, 1, 153, 128, 216
-0.974812, 41, 1, 104, 256
-0.974829, 385, 1, 448, 128
-0.974968, 129, 17, 160, 80
-0.975057, 205, 313, 236, 375
-0.975113, 413, 233, 444, 296
-0.975117, 329, 97, 360, 224
-0.975125, 337, 33, 400, 288
-0.975153, 413, 105, 444, 168
-0.975159, 1, 113, 32, 176
-0.97523, 373, 297, 404, 360
-0.975254, 209, 313, 336, 375
-0.975265, 345, 1, 376, 128
-0.975319, 53, 97, 84, 224
-0.975668, 229, 281, 260, 344
-0.97567, 469, 105, 500, 168
-0.975708, 461, 81, 492, 208
-0.975709, 425, 105, 456, 168
-0.975749, 177, 201, 208, 264
-0.975795, 289, 97, 352, 352
-0.975836, 217, 305, 248, 368
-0.975865, 9, 33, 40, 160
-0.975878, 109, 121, 140, 184
-0.976005, 113, 97, 176, 352
-0.976049, 97, 105, 224, 168
-0.976079, 61, 161, 92, 224
-0.976115, 161, 49, 288, 112
-0.976181, 425, 1, 488, 375
-0.976285, 161, 177, 288, 240
-0.976412, 81, 313, 208, 375
-0.976427, 361, 169, 392, 232
-0.97646, 89, 129, 120, 192
-0.976468, 393, 33, 456, 288
-0.976487, 469, 49, 500, 112
-0.976511, 129, 225, 256, 288
-0.976512, 217, 241, 248, 368
-0.976561, 81, 81, 112, 144
-0.976657, 77, 113, 108, 176
-0.976671, 49, 9, 176, 72
-0.976724, 377, 177, 408, 304
-0.976731, 113, 1, 176, 375
-0.976752, 145, 201, 272, 264
-0.97683, 61, 145, 92, 272
-0.976856, 153, 57, 184, 120
-0.976859, 97, 81, 128, 144
-0.976954, 453, 161, 484, 224
-0.976981, 345, 241, 376, 368
-0.977052, 37, 1, 68, 128
-0.977106, 185, 81, 248, 208
-0.977119, 165, 113, 196, 240
-0.977133, 185, 129, 248, 375
-0.977393, 113, 265, 240, 328
-0.977436, 165, 225, 196, 288
-0.977477, 165, 89, 196, 152
-0.9775, 249, 273, 280, 336
-0.977549, 321, 121, 448, 184
-0.977559, 401, 129, 432, 256
-0.977596, 397, 241, 428, 304
-0.977601, 1, 177, 128, 240
-0.977782, 385, 193, 416, 256
-0.97798, 353, 177, 384, 304
-0.9781, 257, 185, 384, 248
-0.978102, 273, 217, 400, 280
-0.978138, 453, 65, 484, 128
-0.978143, 161, 113, 288, 176
-0.978174, 165, 41, 196, 104
-0.978186, 125, 129, 156, 192
-0.978206, 241, 129, 304, 375
-0.978221, 205, 289, 236, 352
-0.978222, 393, 177, 424, 304
-0.97835, 357, 241, 388, 368
-0.978352, 301, 161, 332, 224
-0.978391, 33, 289, 160, 352
-0.978427, 121, 1, 152, 128
-0.978445, 421, 137, 452, 200
-0.978561, 97, 129, 224, 192
-0.978602, 353, 81, 384, 208
-0.978621, 49, 145, 80, 208
-0.978631, 145, 169, 176, 232
-0.978724, 161, 81, 288, 144
-0.978819, 117, 97, 148, 224
-0.978858, 213, 33, 244, 160
-0.978887, 1, 1, 32, 64
-0.978891, 401, 89, 432, 152
-0.978897, 153, 89, 184, 152
-0.978911, 353, 273, 480, 336
-0.978987, 461, 241, 492, 368
-0.978999, 329, 209, 360, 336
-0.979046, 145, 9, 272, 72
-0.979074, 81, 225, 208, 288
-0.979182, 241, 97, 368, 160
-0.979197, 201, 225, 232, 352
-0.979226, 209, 1, 272, 256
-0.979361, 369, 57, 496, 120
-0.979406, 77, 113, 108, 240
-0.979483, 165, 65, 196, 192
-0.9795, 377, 225, 408, 352
-0.979515, 1, 129, 64, 375
-0.979536, 257, 241, 384, 304
-0.97954, 257, 25, 288, 88
-0.979547, 97, 225, 128, 352
-0.979574, 17, 1, 80, 375
-0.97965, 217, 129, 280, 375
-0.979662, 241, 17, 272, 80
-0.979696, 425, 81, 456, 144
-0.979731, 101, 113, 132, 240
-0.979779, 189, 193, 220, 256
-0.979808, 5, 273, 36, 336
-0.979887, 45, 1, 76, 64
-0.97991, 181, 113, 212, 240
-0.979945, 161, 193, 192, 320
-0.979952, 173, 129, 204, 192
-0.979972, 401, 169, 432, 232
-0.980093, 13, 33, 44, 96
-0.980109, 189, 209, 220, 336
-0.980149, 97, 201, 224, 264
-0.980165, 129, 153, 256, 216
-0.980198, 329, 217, 360, 280
-0.980234, 1, 129, 128, 192
-0.980235, 145, 33, 176, 96
-0.980275, 17, 33, 144, 96
-0.980299, 185, 1, 248, 256
-0.980367, 97, 25, 224, 88
-0.98044, 289, 97, 416, 160
-0.980485, 41, 81, 72, 208
-0.980498, 105, 57, 136, 120
-0.980511, 113, 305, 144, 368
-0.980555, 25, 289, 56, 352
-0.980596, 385, 137, 416, 200
-0.980672, 341, 137, 372, 200
-0.980674, 141, 161, 172, 288
-0.980685, 453, 313, 484, 375
-0.98089, 221, 257, 252, 320
-0.980902, 341, 177, 372, 304
-0.980906, 313, 1, 376, 256
-0.980946, 257, 289, 384, 352
-0.980975, 177, 297, 208, 360
-0.981063, 1, 65, 32, 128
-0.981129, 321, 105, 352, 168
-0.98116, 25, 113, 56, 176
-0.98118, 173, 209, 204, 336
-0.981203, 93, 177, 124, 304
-0.981211, 241, 241, 272, 368
-0.981221, 69, 81, 100, 144
-0.981297, 209, 73, 336, 136
-0.981347, 57, 1, 120, 375
-0.981348, 1, 249, 128, 312
-0.981356, 101, 313, 132, 375
-0.981364, 405, 145, 436, 208
-0.981428, 329, 49, 360, 176
-0.98144, 225, 9, 256, 72
-0.981528, 381, 233, 412, 296
-0.981539, 369, 1, 432, 256
-0.981573, 309, 81, 340, 208
-0.981582, 257, 313, 384, 375
-0.981586, 17, 57, 144, 120
-0.981613, 141, 73, 172, 136
-0.981639, 129, 129, 160, 256
-0.981669, 149, 209, 180, 336
-0.98168, 177, 65, 208, 192
-0.981705, 413, 81, 444, 208
-0.981758, 153, 201, 184, 264
-0.981778, 425, 33, 456, 160
-0.981794, 385, 297, 416, 360
-0.981849, 373, 185, 404, 248
-0.981922, 357, 121, 388, 184
-0.981933, 317, 201, 348, 264
-0.981938, 181, 153, 212, 216
-0.981945, 469, 297, 500, 360
-0.981965, 157, 161, 188, 224
-0.981979, 25, 49, 56, 176
-0.982009, 101, 289, 132, 352
-0.98204, 233, 1, 296, 256
-0.98204, 81, 241, 112, 368
-0.982103, 209, 33, 336, 96
-0.982103, 25, 97, 56, 224
-0.982146, 185, 161, 216, 288
-0.982152, 225, 145, 352, 208
-0.982175, 89, 17, 120, 144
-0.982195, 53, 121, 84, 184
-0.982214, 321, 1, 384, 375
-0.982246, 89, 1, 152, 375
-0.982274, 333, 89, 364, 152
-0.98231, 149, 233, 180, 296
-0.982314, 137, 1, 200, 375
-0.982342, 269, 289, 300, 352
-0.982355, 193, 1, 256, 375
-0.982355, 317, 177, 348, 304
-0.982471, 305, 73, 432, 136
-0.982475, 457, 89, 488, 152
-0.982482, 265, 129, 328, 375
-0.982486, 73, 313, 104, 375
-0.982521, 285, 129, 316, 192
-0.982597, 1, 129, 32, 256
-0.982676, 49, 145, 80, 272
-0.982726, 193, 209, 320, 272
-0.982739, 177, 241, 304, 304
-0.982749, 353, 33, 480, 96
-0.982936, 209, 265, 336, 328
-0.982984, 385, 1, 448, 375
-0.983022, 385, 81, 416, 208
-0.983032, 217, 193, 248, 320
-0.983248, 301, 33, 332, 160
-0.983486, 49, 225, 80, 352
-0.983534, 369, 65, 400, 192
-0.983547, 177, 145, 304, 208
-0.983551, 469, 33, 500, 160
-0.98373, 281, 1, 344, 375
-0.983776, 237, 49, 268, 176
-0.983845, 321, 313, 448, 375
-0.983887, 249, 1, 280, 128
-0.983909, 129, 225, 160, 352
-0.983945, 1, 177, 32, 304
-0.983952, 277, 113, 308, 240
-0.983975, 109, 241, 140, 368
-0.984049, 257, 1, 384, 64
-0.984056, 49, 193, 176, 256
-0.984056, 241, 177, 272, 304
-0.984165, 401, 81, 432, 208
-0.984201, 101, 17, 132, 144
-0.984208, 113, 145, 144, 272
-0.984357, 329, 161, 360, 288
-0.984465, 361, 1, 424, 375
-0.984505, 169, 17, 200, 144
-0.984582, 209, 177, 336, 240
-0.984623, 89, 113, 120, 240
-0.984719, 253, 129, 284, 256
-0.984853, 229, 177, 260, 304
-0.984906, 209, 121, 336, 184
-0.98498, 1, 225, 128, 288
-0.985137, 341, 65, 372, 192
-0.985167, 441, 17, 472, 144
-0.985241, 265, 1, 328, 256
-0.985332, 69, 1, 100, 128
-0.985342, 169, 1, 232, 375
-0.98535, 289, 49, 416, 112
-0.985354, 249, 65, 312, 192
-0.985415, 37, 161, 68, 288
-0.985571, 53, 49, 84, 176
-0.985596, 65, 249, 192, 312
-0.985601, 249, 1, 312, 375
-0.985655, 9, 241, 40, 368
-0.985692, 269, 241, 300, 368
-0.985721, 197, 49, 228, 176
-0.985767, 361, 17, 424, 144
-0.986035, 265, 113, 296, 240
-0.986121, 401, 1, 432, 128
-0.986129, 61, 225, 92, 352
-0.986392, 217, 1, 280, 375
-0.986402, 73, 161, 104, 288
-0.986505, 289, 129, 320, 256
-0.986771, 65, 49, 96, 176
-0.987095, 353, 1, 480, 64
-0.987185, 289, 49, 320, 176
-0.987191, 237, 129, 268, 256
-0.987218, 1, 313, 256, 375
-0.987436, 409, 193, 472, 224
-0.987445, 33, 241, 64, 368
-0.987525, 225, 49, 256, 176
-0.987527, 401, 205, 464, 236
-0.987619, 97, 305, 352, 368
-0.987659, 433, 185, 496, 216
-0.98768, 305, 161, 336, 288
-0.987698, 105, 121, 168, 152
-0.987742, 253, 49, 284, 176
-0.987902, 393, 225, 456, 256
-0.987919, 57, 141, 120, 172
-0.987994, 49, 1, 80, 128
-0.988041, 425, 209, 488, 240
-0.988152, 425, 133, 488, 164
-0.988181, 257, 25, 384, 88
-0.988184, 417, 173, 480, 204
-0.988205, 73, 125, 136, 156
-0.988232, 425, 145, 488, 176
-0.988259, 433, 113, 496, 144
-0.988274, 137, 165, 200, 196
-0.988282, 105, 105, 168, 136
-0.988395, 305, 109, 368, 140
-0.988416, 193, 9, 320, 72
-0.988519, 393, 165, 456, 196
-0.988535, 25, 117, 88, 148
-0.988546, 73, 101, 136, 132
-0.988549, 177, 329, 240, 360
-0.988623, 105, 93, 168, 124
-0.988696, 425, 221, 488, 252
-0.988726, 41, 1, 104, 32
-0.988775, 337, 129, 400, 160
-0.9888, 153, 205, 216, 236
-0.988801, 73, 113, 136, 144
-0.988885, 177, 277, 240, 308
-0.988897, 145, 93, 208, 124
-0.988918, 153, 221, 216, 252
-0.988963, 9, 5, 72, 36
-0.988985, 65, 281, 320, 344
-0.988987, 433, 197, 496, 228
-0.988989, 57, 153, 120, 184
-0.988989, 433, 161, 496, 192
-0.989009, 105, 77, 168, 108
-0.98902, 257, 73, 384, 136
-0.989048, 97, 1, 224, 64
-0.98907, 425, 237, 488, 268
-0.989081, 377, 177, 440, 208
-0.98909, 393, 241, 456, 272
-0.989115, 97, 333, 160, 364
-0.989132, 73, 317, 136, 348
-0.989151, 417, 101, 480, 132
-0.989155, 137, 177, 200, 208
-0.989164, 49, 113, 112, 144
-0.989166, 409, 113, 472, 144
-0.989168, 209, 317, 272, 348
-0.98917, 305, 25, 432, 88
-0.989177, 377, 197, 440, 228
-0.989209, 257, 153, 500, 216
-0.989245, 137, 121, 200, 152
-0.989266, 369, 165, 432, 196
-0.989284, 129, 61, 192, 92
-0.989288, 105, 65, 168, 96
-0.989291, 257, 105, 500, 168
-0.989299, 17, 101, 80, 132
-0.989303, 121, 49, 184, 80
-0.98933, 361, 153, 424, 184
-0.98935, 105, 133, 168, 164
-0.989365, 177, 317, 240, 348
-0.989374, 273, 29, 336, 60
-0.989391, 337, 117, 400, 148
-0.989417, 1, 113, 64, 144
-0.989431, 401, 125, 464, 156
-0.989436, 313, 253, 376, 284
-0.989484, 377, 213, 440, 244
-0.98949, 337, 141, 400, 172
-0.98949, 225, 333, 288, 364
-0.989503, 185, 289, 248, 320
-0.989509, 65, 329, 128, 360
-0.989541, 409, 301, 472, 332
-0.989545, 33, 153, 96, 184
-0.989554, 177, 265, 240, 296
-0.989555, 377, 141, 440, 172
-0.989616, 377, 293, 440, 324
-0.989638, 49, 129, 112, 160
-0.989649, 145, 109, 208, 140
-0.989657, 73, 89, 136, 120
-0.98966, 129, 149, 192, 180
-0.989662, 393, 253, 456, 284
-0.989667, 153, 341, 216, 372
-0.989675, 17, 129, 80, 160
-0.989678, 57, 345, 120, 375
-0.989698, 169, 305, 232, 336
-0.989719, 329, 101, 392, 132
-0.989724, 201, 305, 264, 336
-0.989726, 1, 97, 500, 160
-0.989746, 393, 101, 456, 132
-0.989752, 41, 165, 104, 196
-0.989777, 313, 121, 376, 152
-0.989816, 321, 269, 384, 300
-0.989827, 97, 169, 160, 200
-0.989835, 193, 177, 448, 240
-0.989853, 177, 245, 240, 276
-0.989864, 145, 297, 208, 328
-0.989875, 97, 345, 160, 375
-0.989879, 305, 97, 368, 128
-0.989883, 241, 297, 304, 328
-0.989895, 81, 141, 144, 172
-0.989916, 1, 105, 256, 168
-0.989945, 33, 345, 96, 375
-0.989947, 265, 337, 328, 368
-0.989972, 97, 1, 352, 64
-0.989972, 137, 329, 200, 360
-0.989976, 129, 133, 192, 164
-0.989991, 345, 165, 408, 196
-0.990006, 97, 153, 160, 184
-0.990013, 273, 181, 336, 212
-0.990068, 369, 241, 432, 272
-0.990081, 65, 65, 320, 128
-0.990084, 353, 177, 416, 208
-0.990086, 217, 265, 280, 296
-0.99009, 217, 285, 280, 316
-0.990115, 337, 297, 400, 328
-0.99012, 385, 305, 448, 336
-0.990125, 65, 305, 128, 336
-0.990133, 409, 85, 472, 116
-0.990144, 177, 193, 240, 224
-0.990147, 329, 153, 392, 184
-0.990151, 353, 273, 416, 304
-0.990155, 369, 93, 432, 124
-0.990163, 145, 81, 208, 112
-0.990187, 345, 257, 408, 288
-0.990195, 169, 157, 232, 188
-0.990198, 65, 145, 320, 208
-0.990206, 353, 189, 416, 220
-0.990238, 41, 101, 104, 132
-0.990243, 129, 37, 192, 68
-0.990249, 145, 49, 208, 80
-0.990254, 161, 105, 416, 168
-0.990259, 33, 141, 96, 172
-0.990259, 345, 233, 408, 264
-0.99028, 89, 293, 152, 324
-0.990281, 81, 77, 144, 108
-0.990287, 1, 285, 64, 316
-0.990306, 153, 193, 216, 224
-0.990309, 233, 193, 296, 224
-0.990311, 169, 77, 232, 108
-0.990313, 161, 181, 224, 212
-0.990321, 105, 305, 168, 336
-0.990322, 97, 21, 160, 52
-0.990324, 153, 141, 216, 172
-0.990324, 177, 217, 240, 248
-0.990343, 337, 285, 400, 316
-0.990477, 193, 297, 448, 360
-0.990604, 161, 129, 416, 192
-0.990659, 1, 209, 500, 272
-0.990661, 97, 41, 352, 104
-0.990711, 257, 201, 500, 264
-0.990767, 225, 249, 480, 312
-0.990799, 1, 201, 128, 264
-0.990866, 305, 1, 432, 64
-0.990915, 225, 273, 480, 336
-0.990994, 257, 129, 500, 192
-0.991266, 161, 81, 416, 144
-0.99128, 1, 25, 500, 88
-0.991456, 1, 41, 256, 104
-0.991764, 1, 1, 500, 64
-0.991792, 333, 105, 364, 136
-0.991855, 257, 225, 500, 288
-0.991865, 129, 257, 384, 320
-0.99187, 121, 69, 152, 100
-0.991883, 257, 81, 500, 144
-0.991885, 1, 121, 500, 184
-0.991896, 129, 217, 384, 280
-0.9919, 101, 129, 132, 160
-0.991902, 1, 169, 500, 232
-0.991904, 13, 113, 44, 144
-0.991982, 81, 141, 112, 172
-0.991993, 445, 113, 476, 144
-0.991997, 137, 105, 168, 136
-0.991998, 469, 133, 500, 164
-0.992028, 413, 205, 444, 236
-0.992043, 77, 129, 108, 160
-0.992049, 165, 201, 196, 232
-0.992052, 65, 137, 96, 168
-0.992065, 113, 105, 144, 136
-0.992068, 1, 73, 500, 136
-0.992084, 469, 149, 500, 180
-0.992112, 449, 193, 480, 224
-0.992145, 433, 201, 464, 232
-0.992169, 461, 185, 492, 216
-0.992172, 437, 185, 468, 216
-0.992174, 157, 161, 188, 192
-0.992179, 365, 141, 396, 172
-0.992197, 433, 129, 464, 160
-0.992203, 433, 221, 464, 252
-0.992204, 393, 221, 424, 252
-0.992204, 225, 41, 480, 104
-0.992207, 121, 117, 152, 148
-0.992223, 369, 157, 400, 188
-0.992234, 117, 57, 148, 88
-0.992238, 149, 45, 180, 76
-0.992241, 425, 189, 456, 220
-0.992245, 457, 133, 488, 164
-0.992247, 405, 229, 436, 260
-0.992252, 81, 69, 208, 100
-0.99226, 469, 161, 500, 192
-0.992262, 89, 129, 120, 160
-0.992263, 137, 61, 168, 92
-0.992279, 367, 137, 382, 200
-0.992283, 89, 313, 120, 344
-0.992285, 453, 209, 484, 240
-0.992287, 349, 121, 380, 152
-0.992287, 445, 173, 476, 204
-0.992293, 53, 161, 84, 192
-0.992293, 29, 1, 60, 32
-0.992295, 421, 165, 452, 196
-0.992301, 1, 297, 500, 360
-0.992311, 429, 233, 460, 264
-0.99232, 141, 161, 172, 192
-0.992321, 1, 169, 256, 232
-0.992334, 1, 1, 256, 64
-0.992336, 121, 81, 152, 112
-0.992341, 33, 105, 160, 136
-0.992359, 445, 133, 476, 164
-0.992361, 81, 113, 112, 144
-0.992362, 65, 149, 96, 180
-0.992369, 413, 193, 444, 224
-0.99237, 133, 93, 164, 124
-0.992378, 457, 149, 488, 180
-0.992379, 157, 213, 188, 244
-0.992386, 129, 341, 160, 372
-0.992387, 361, 289, 392, 320
-0.992393, 349, 257, 380, 288
-0.992402, 265, 281, 296, 312
-0.992409, 417, 229, 448, 260
-0.99241, 413, 217, 444, 248
-0.992411, 65, 125, 96, 156
-0.992411, 1, 109, 32, 140
-0.992413, 421, 117, 452, 148
-0.99242, 337, 237, 368, 268
-0.99242, 373, 305, 404, 336
-0.99242, 169, 177, 200, 208
-0.99242, 213, 325, 244, 356
-0.99242, 361, 173, 392, 204
-0.992421, 457, 121, 488, 152
-0.992431, 429, 97, 460, 128
-0.992432, 153, 145, 184, 176
-0.992434, 65, 101, 96, 132
-0.992436, 369, 129, 400, 160
-0.992437, 17, 125, 48, 156
-0.992442, 1, 93, 32, 124
-0.992447, 357, 277, 388, 308
-0.992449, 469, 173, 500, 204
-0.992455, 153, 93, 184, 124
-0.992459, 97, 177, 352, 240
-0.992459, 153, 125, 184, 156
-0.992464, 409, 105, 440, 136
-0.992465, 97, 109, 128, 140
-0.99247, 141, 129, 172, 160
-0.99247, 457, 173, 488, 204
-0.992474, 321, 101, 352, 132
-0.992477, 193, 277, 224, 308
-0.992479, 341, 97, 356, 160
-0.992483, 109, 85, 140, 116
-0.992492, 483, 145, 498, 208
-0.992494, 129, 169, 160, 200
-0.992494, 473, 177, 488, 240
-0.992494, 401, 241, 432, 272
-0.992495, 209, 309, 240, 340
-0.992497, 189, 313, 220, 344
-0.992498, 1, 285, 32, 316
-0.9925, 21, 29, 52, 60
-0.992507, 233, 313, 264, 344
-0.992507, 65, 113, 96, 144
-0.992508, 133, 81, 164, 112
-0.99251, 181, 265, 212, 296
-0.992512, 133, 117, 164, 148
-0.992513, 17, 345, 144, 375
-0.992519, 177, 201, 208, 232
-0.99252, 121, 129, 152, 160
-0.992522, 213, 345, 244, 375
-0.992533, 105, 301, 136, 332
-0.992536, 149, 105, 164, 168
-0.992538, 333, 117, 364, 148
-0.992539, 1, 121, 32, 152
-0.992546, 221, 277, 252, 308
-0.992547, 137, 49, 168, 80
-0.992548, 165, 225, 196, 256
-0.992551, 161, 289, 288, 320
-0.992557, 401, 201, 432, 232
-0.992563, 153, 105, 184, 136
-0.992565, 425, 153, 456, 184
-0.992568, 69, 161, 100, 192
-0.992568, 177, 217, 208, 248
-0.992569, 205, 269, 236, 300
-0.992575, 201, 321, 232, 352
-0.992576, 373, 177, 404, 208
-0.992579, 349, 145, 380, 176
-0.992585, 365, 265, 396, 296
-0.992587, 121, 13, 152, 44
-0.99259, 409, 157, 440, 188
-0.992603, 141, 173, 172, 204
-0.992603, 137, 145, 168, 176
-0.992604, 461, 345, 492, 375
-0.992609, 425, 177, 456, 208
-0.992613, 85, 337, 116, 368
-0.992613, 417, 245, 448, 276
-0.992615, 345, 101, 376, 132
-0.992618, 433, 117, 464, 148
-0.992618, 109, 117, 140, 148
-0.992624, 101, 73, 132, 104
-0.992626, 57, 345, 88, 375
-0.992627, 41, 9, 72, 40
-0.99263, 441, 101, 472, 132
-0.992633, 389, 209, 420, 240
-0.992637, 81, 153, 112, 184
-0.992642, 57, 1, 88, 32
-0.992664, 409, 217, 424, 280
-0.992674, 369, 209, 496, 240
-0.992687, 161, 269, 288, 300
-0.992716, 1, 209, 256, 272
-0.992782, 161, 153, 416, 216
-0.992789, 455, 185, 470, 248
-0.992832, 445, 105, 460, 168
-0.99292, 435, 193, 450, 256
-0.992934, 65, 125, 192, 156
-0.992936, 451, 105, 466, 168
-0.992948, 111, 105, 126, 168
-0.99295, 463, 113, 478, 176
-0.993006, 131, 73, 146, 136
-0.993021, 77, 129, 92, 192
-0.993034, 415, 201, 430, 264
-0.993042, 337, 177, 464, 208
-0.993066, 121, 81, 136, 144
-0.993069, 353, 165, 480, 196
-0.993081, 161, 317, 288, 348
-0.993092, 17, 97, 32, 160
-0.993092, 49, 333, 176, 364
-0.993101, 37, 1, 52, 64
-0.993116, 369, 189, 496, 220
-0.993127, 463, 185, 478, 248
-0.993139, 369, 129, 496, 160
-0.99318, 177, 177, 192, 240
-0.993185, 465, 145, 480, 208
-0.993204, 347, 113, 362, 176
-0.993214, 71, 129, 86, 192
-0.993216, 449, 185, 464, 248
-0.993226, 1, 233, 500, 296
-0.993232, 1, 257, 256, 320
-0.993248, 33, 1, 160, 32
-0.993318, 155, 113, 170, 176
-0.993377, 135, 1, 150, 64
-0.993403, 23, 105, 38, 168
-0.993409, 321, 153, 448, 184
-0.993426, 149, 129, 164, 192
-0.993437, 377, 153, 392, 216
-0.993438, 1, 129, 128, 160
-0.993446, 471, 145, 486, 208
-0.993485, 193, 305, 320, 336
-0.993489, 353, 105, 368, 168
-0.993491, 441, 185, 456, 248
-0.993513, 69, 105, 84, 168
-0.993515, 1, 145, 500, 208
-0.99352, 49, 137, 176, 168
-0.993564, 369, 117, 496, 148
-0.993565, 45, 1, 60, 64
-0.993568, 171, 41, 186, 104
-0.993571, 379, 129, 394, 192
-0.993584, 49, 149, 176, 180
-0.993605, 1, 81, 16, 144
-0.993642, 359, 249, 374, 312
-0.993645, 369, 305, 496, 336
-0.993647, 305, 225, 432, 256
-0.99366, 273, 165, 400, 196
-0.993661, 321, 109, 448, 140
-0.99367, 457, 105, 472, 168
-0.993682, 49, 161, 176, 192
-0.993709, 225, 17, 480, 80
-0.993721, 369, 221, 496, 252
-0.993748, 63, 137, 78, 200
-0.993751, 423, 193, 438, 256
-0.993757, 383, 153, 398, 216
-0.993766, 83, 137, 98, 200
-0.993795, 161, 333, 288, 364
-0.993804, 1, 49, 500, 112
-0.993804, 439, 217, 454, 280
-0.993812, 477, 137, 492, 200
-0.993818, 97, 57, 224, 88
-0.99382, 17, 313, 144, 344
-0.993821, 209, 337, 336, 368
-0.993823, 113, 273, 240, 304
-0.993837, 433, 225, 448, 288
-0.993864, 369, 145, 496, 176
-0.993869, 225, 313, 240, 375
-0.993877, 131, 49, 146, 112
-0.993878, 1, 329, 128, 360
-0.993881, 483, 169, 498, 232
-0.993908, 137, 57, 152, 120
-0.993916, 105, 113, 120, 176
-0.993943, 123, 57, 138, 120
-0.99395, 33, 233, 288, 296
-0.993989, 405, 193, 420, 256
-0.994011, 1, 177, 16, 240
-0.994023, 83, 113, 98, 176
-0.994034, 113, 305, 240, 336
-0.994047, 133, 105, 148, 168
-0.994055, 155, 137, 170, 200
-0.994063, 387, 297, 402, 360
-0.994073, 81, 173, 208, 204
-0.994086, 365, 257, 380, 320
-0.994096, 445, 209, 460, 272
-0.994126, 439, 161, 454, 224
-0.994131, 49, 89, 176, 120
-0.994138, 371, 169, 386, 232
-0.994143, 167, 201, 182, 264
-0.99415, 377, 177, 392, 240
-0.994155, 155, 89, 170, 152
-0.994158, 33, 13, 160, 44
-0.994162, 129, 345, 256, 375
-0.994171, 445, 161, 460, 224
-0.994177, 13, 1, 28, 64
-0.994195, 369, 237, 496, 268
-0.9942, 377, 273, 392, 336
-0.994208, 429, 161, 444, 224
-0.994212, 81, 105, 208, 136
-0.994214, 161, 257, 288, 288
-0.994219, 425, 129, 456, 375
-0.994242, 429, 201, 444, 264
-0.994244, 69, 153, 84, 216
-0.994244, 423, 169, 438, 232
-0.994267, 1, 117, 128, 148
-0.994275, 95, 305, 110, 368
-0.994279, 179, 201, 194, 264
-0.994312, 471, 201, 486, 264
-0.994314, 361, 145, 376, 208
-0.994327, 1, 177, 128, 208
-0.994338, 145, 73, 160, 136
-0.994341, 351, 233, 366, 296
-0.994351, 115, 81, 130, 144
-0.994352, 415, 89, 430, 152
-0.994365, 127, 105, 142, 168
-0.994374, 29, 113, 44, 176
-0.994392, 187, 185, 202, 248
-0.994395, 147, 33, 162, 96
-0.994401, 397, 209, 412, 272
-0.994402, 373, 121, 388, 184
-0.994409, 457, 209, 472, 272
-0.994441, 427, 225, 442, 288
-0.994444, 141, 137, 156, 200
-0.994448, 1, 93, 128, 124
-0.994458, 55, 161, 70, 224
-0.994464, 369, 317, 496, 348
-0.994465, 439, 121, 454, 184
-0.994472, 145, 205, 272, 236
-0.994472, 89, 105, 104, 168
-0.99448, 469, 121, 484, 184
-0.994481, 321, 249, 448, 280
-0.994486, 65, 313, 192, 344
-0.994499, 455, 129, 470, 192
-0.994503, 103, 89, 118, 152
-0.994504, 241, 105, 368, 136
-0.994507, 139, 97, 154, 160
-0.994519, 117, 105, 132, 168
-0.994524, 7, 81, 22, 144
-0.994528, 273, 133, 400, 164
-0.99455, 335, 97, 350, 160
-0.994551, 305, 189, 432, 220
-0.994552, 113, 293, 240, 324
-0.994557, 149, 153, 164, 216
-0.994564, 1, 273, 500, 336
-0.994568, 389, 137, 404, 200
-0.994589, 81, 345, 208, 375
-0.994602, 457, 161, 472, 224
-0.994613, 141, 33, 156, 96
-0.994616, 217, 313, 232, 375
-0.994627, 199, 185, 214, 248
-0.994632, 113, 317, 240, 348
-0.994637, 129, 81, 256, 112
-0.994639, 305, 237, 432, 268
-0.994655, 173, 201, 188, 264
-0.994658, 475, 105, 490, 168
-0.99466, 321, 125, 448, 156
-0.994672, 463, 313, 478, 375
-0.994686, 113, 253, 240, 284
-0.994693, 161, 113, 176, 176
-0.994694, 273, 153, 400, 184
-0.994702, 233, 305, 248, 368
-0.994704, 449, 129, 464, 192
-0.994721, 257, 289, 384, 320
-0.994722, 235, 273, 250, 336
-0.994727, 371, 265, 386, 328
-0.99473, 99, 121, 114, 184
-0.994734, 241, 289, 256, 352
-0.994735, 7, 105, 22, 168
-0.99475, 113, 93, 240, 124
-0.994769, 305, 93, 432, 124
-0.994769, 51, 1, 66, 64
-0.994778, 403, 225, 418, 288
-0.994784, 217, 289, 232, 352
-0.994796, 113, 1, 240, 32
-0.994797, 347, 89, 362, 152
-0.994803, 369, 293, 496, 324
-0.994823, 343, 225, 358, 288
-0.994832, 1, 69, 128, 100
-0.994842, 437, 129, 468, 375
-0.99485, 421, 97, 436, 160
-0.994855, 143, 169, 158, 232
-0.99487, 209, 325, 336, 356
-0.994875, 17, 121, 32, 184
-0.994882, 409, 81, 424, 144
-0.994898, 353, 257, 368, 320
-0.994903, 103, 289, 118, 352
-0.994907, 31, 1, 46, 64
-0.994913, 33, 293, 160, 324
-0.994927, 187, 209, 202, 272
-0.994928, 113, 333, 240, 364
-0.99493, 355, 145, 370, 208
-0.994957, 273, 121, 400, 152
-0.99497, 321, 201, 448, 232
-0.995027, 449, 65, 480, 320
-0.995056, 369, 105, 496, 136
-0.995063, 161, 65, 288, 96
-0.995069, 369, 329, 496, 360
-0.995083, 305, 213, 432, 244
-0.995095, 129, 169, 256, 200
-0.995146, 413, 129, 444, 375
-0.995186, 145, 193, 272, 224
-0.995198, 241, 257, 368, 288
-0.995219, 49, 25, 176, 56
-0.995234, 1, 281, 128, 312
-0.995253, 157, 1, 188, 256
-0.995264, 289, 265, 416, 296
-0.99527, 49, 57, 176, 88
-0.995279, 1, 141, 128, 172
-0.995303, 241, 277, 368, 308
-0.995345, 461, 97, 492, 352
-0.995396, 357, 129, 388, 375
-0.995423, 97, 213, 224, 244
-0.995429, 257, 345, 384, 375
-0.995482, 369, 73, 496, 104
-0.995488, 209, 289, 336, 320
-0.995488, 129, 1, 160, 256
-0.995505, 65, 129, 96, 375
-0.995512, 353, 57, 480, 88
-0.995548, 337, 277, 464, 308
-0.995549, 129, 181, 256, 212
-0.995578, 289, 177, 416, 208
-0.995585, 145, 13, 272, 44
-0.995591, 49, 37, 176, 68
-0.99563, 145, 217, 272, 248
-0.995639, 65, 189, 192, 220
-0.995656, 321, 289, 448, 320
-0.995662, 113, 229, 240, 260
-0.995703, 97, 137, 224, 168
-0.995706, 113, 45, 240, 76
-0.995709, 345, 129, 376, 375
-0.995746, 1, 81, 128, 112
-0.995755, 321, 141, 448, 172
-0.995771, 401, 129, 432, 375
-0.995771, 369, 249, 496, 280
-0.995779, 305, 305, 432, 336
-0.995804, 1, 25, 128, 56
-0.995819, 113, 117, 240, 148
-0.99583, 161, 25, 288, 56
-0.995861, 161, 241, 288, 272
-0.995869, 241, 301, 368, 332
-0.995909, 337, 261, 464, 292
-0.995916, 73, 33, 104, 288
-0.995923, 113, 153, 240, 184
-0.995971, 353, 85, 480, 116
-0.995982, 1, 161, 128, 192
-0.996002, 161, 129, 288, 160
-0.996033, 1, 241, 128, 272
-0.996037, 209, 89, 336, 120
-0.996075, 77, 129, 108, 375
-0.996079, 141, 1, 172, 256
-0.996095, 209, 45, 336, 76
-0.99612, 225, 149, 352, 180
-0.996122, 241, 245, 368, 276
-0.996126, 225, 1, 352, 32
-0.996167, 113, 241, 240, 272
-0.996173, 161, 53, 288, 84
-0.996181, 225, 205, 352, 236
-0.996185, 377, 129, 408, 375
-0.99619, 329, 97, 360, 352
-0.996194, 289, 277, 416, 308
-0.996212, 241, 177, 368, 208
-0.996256, 97, 201, 224, 232
-0.996271, 437, 33, 468, 288
-0.996283, 161, 93, 288, 124
-0.996286, 113, 1, 144, 256
-0.996304, 1, 57, 128, 88
-0.996314, 93, 33, 124, 288
-0.996314, 343, 101, 358, 132
-0.996333, 241, 193, 368, 224
-0.996357, 1, 41, 128, 72
-0.996368, 1, 1, 32, 256
-0.996382, 337, 1, 464, 32
-0.996383, 17, 1, 48, 256
-0.996393, 149, 161, 164, 192
-0.996418, 1, 97, 32, 352
-0.996442, 475, 137, 490, 168
-0.9965, 481, 141, 496, 172
-0.996522, 161, 97, 192, 352
-0.996533, 135, 1, 150, 32
-0.996538, 405, 225, 420, 256
-0.996543, 49, 1, 80, 256
-0.996567, 77, 133, 92, 164
-0.996622, 485, 153, 500, 184
-0.996665, 225, 129, 256, 375
-0.99667, 169, 37, 184, 68
-0.996687, 333, 109, 348, 140
-0.99671, 127, 69, 142, 100
-0.996718, 485, 169, 500, 200
-0.996739, 371, 137, 386, 168
-0.996745, 353, 117, 368, 148
-0.99675, 97, 125, 112, 156
-0.996757, 149, 129, 164, 160
-0.996764, 469, 133, 484, 164
-0.996797, 33, 1, 64, 256
-0.996817, 63, 157, 78, 188
-0.996829, 111, 109, 126, 140
-0.996829, 87, 133, 102, 164
-0.996835, 141, 129, 172, 375
-0.996836, 147, 113, 162, 144
-0.996871, 437, 217, 452, 248
-0.996872, 27, 113, 42, 144
-0.996873, 71, 145, 86, 176
-0.996891, 473, 181, 488, 212
-0.9969, 461, 193, 476, 224
-0.996902, 439, 197, 454, 228
-0.996917, 155, 113, 170, 144
-0.996918, 475, 149, 490, 180
-0.996938, 155, 125, 170, 156
-0.996942, 421, 33, 452, 288
-0.996954, 409, 33, 440, 288
-0.99696, 377, 133, 392, 164
-0.996963, 129, 57, 144, 88
-0.996969, 169, 205, 184, 236
-0.996984, 445, 113, 460, 144
-0.99699, 443, 125, 458, 156
-0.996995, 103, 129, 118, 160
-0.996995, 1, 85, 16, 116
-0.996998, 317, 65, 348, 320
-0.997006, 347, 121, 362, 152
-0.99701, 41, 9, 56, 40
-0.997013, 469, 1, 500, 256
-0.997017, 53, 129, 84, 375
-0.99702, 109, 97, 140, 352
-0.997036, 179, 169, 194, 200
-0.997038, 361, 145, 376, 176
-0.997042, 131, 113, 146, 144
-0.997044, 57, 161, 72, 192
-0.997045, 71, 161, 86, 192
-0.997058, 151, 173, 166, 204
-0.997059, 71, 133, 86, 164
-0.997063, 361, 253, 376, 284
-0.997064, 17, 109, 32, 140
-0.997069, 447, 209, 462, 240
-0.997074, 139, 65, 154, 96
-0.997078, 421, 109, 436, 140
-0.997082, 451, 105, 466, 136
-0.997083, 189, 209, 204, 240
-0.997093, 93, 141, 108, 172
-0.997095, 443, 185, 458, 216
-0.99711, 265, 341, 280, 372
-0.99711, 349, 101, 364, 132
-0.997125, 479, 165, 494, 196
-0.997127, 405, 205, 420, 236
-0.997129, 125, 109, 140, 140
-0.997139, 61, 33, 92, 288
-0.997158, 47, 1, 62, 32
-0.997159, 379, 157, 394, 188
-0.99716, 83, 149, 98, 180
-0.997167, 223, 325, 238, 356
-0.997171, 373, 149, 388, 180
-0.997171, 383, 145, 398, 176
-0.997171, 447, 173, 462, 204
-0.997186, 369, 169, 384, 200
-0.997188, 117, 105, 132, 136
-0.99719, 141, 165, 156, 196
-0.99719, 169, 1, 200, 256
-0.997192, 399, 221, 414, 252
-0.997195, 237, 201, 252, 232
-0.997206, 435, 229, 450, 260
-0.997224, 455, 193, 470, 224
-0.997224, 315, 29, 330, 60
-0.99723, 137, 337, 152, 368
-0.997231, 171, 49, 186, 80
-0.997235, 411, 233, 426, 264
-0.997236, 19, 121, 34, 152
-0.997246, 265, 285, 280, 316
-0.99725, 133, 13, 148, 44
-0.997255, 411, 97, 426, 128
-0.997267, 257, 325, 272, 356
-0.997268, 415, 205, 430, 236
-0.99727, 385, 297, 400, 328
-0.997278, 65, 145, 80, 176
-0.997285, 345, 33, 376, 288
-0.997292, 119, 81, 134, 112
-0.997294, 145, 97, 160, 128
-0.997294, 199, 345, 214, 375
-0.997296, 463, 137, 478, 168
-0.997298, 53, 173, 68, 204
-0.997298, 133, 73, 148, 104
-0.997301, 93, 129, 124, 375
-0.997302, 353, 129, 368, 160
-0.997304, 153, 101, 168, 132
-0.997308, 433, 201, 448, 232
-0.997309, 389, 145, 404, 176
-0.997314, 7, 281, 22, 312
-0.997318, 481, 129, 496, 160
-0.997322, 373, 273, 388, 304
-0.997322, 173, 161, 188, 192
-0.997328, 429, 185, 444, 216
-0.99733, 181, 65, 212, 320
-0.997336, 109, 121, 124, 152
-0.997338, 305, 1, 336, 256
-0.997341, 231, 337, 246, 368
-0.997343, 391, 313, 406, 344
-0.997348, 429, 245, 444, 276
-0.997363, 459, 173, 474, 204
-0.997363, 225, 1, 256, 256
-0.997364, 457, 137, 472, 168
-0.997374, 179, 201, 194, 232
-0.997374, 449, 185, 464, 216
-0.997379, 421, 193, 436, 224
-0.997385, 183, 265, 198, 296
-0.997387, 389, 97, 420, 352
-0.997388, 175, 261, 190, 292
-0.997398, 127, 97, 142, 128
-0.9974, 177, 181, 192, 212
-0.997403, 125, 85, 140, 116
-0.997403, 161, 149, 176, 180
-0.997406, 121, 125, 136, 156
-0.997408, 77, 145, 92, 176
-0.997417, 17, 33, 32, 64
-0.997418, 465, 121, 480, 152
-0.997422, 121, 61, 136, 92
-0.997429, 469, 145, 484, 176
-0.997431, 359, 109, 374, 140
-0.997433, 341, 121, 356, 152
-0.997442, 79, 121, 94, 152
-0.997443, 225, 337, 240, 368
-0.997447, 453, 205, 468, 236
-0.997449, 351, 237, 366, 268
-0.997451, 191, 297, 206, 328
-0.997459, 231, 193, 246, 224
-0.99758, 237, 1, 268, 256
-0.997622, 193, 33, 224, 288
-0.997648, 265, 1, 296, 256
-0.997656, 245, 129, 276, 375
-0.997847, 41, 129, 72, 375
-0.997848, 209, 1, 240, 256
-0.99788, 193, 129, 224, 375
-0.997887, 369, 33, 400, 288
-0.997903, 285, 33, 316, 288
-0.997972, 273, 129, 304, 375
-0.997982, 357, 33, 388, 288
-0.997983, 129, 97, 160, 352
-0.998059, 213, 129, 244, 375
-0.998134, 329, 1, 360, 256
-0.998209, 301, 97, 332, 352
-0.998235, 421, 177, 436, 304
-0.998305, 17, 129, 48, 375
-0.998306, 397, 1, 428, 256
-0.998351, 385, 1, 416, 256
-0.998351, 433, 187, 496, 202
-0.998353, 471, 161, 486, 288
-0.99836, 33, 1, 96, 16
-0.998366, 105, 125, 168, 140
-0.998375, 285, 129, 316, 375
-0.99838, 425, 137, 488, 152
-0.998383, 409, 189, 472, 204
-0.998387, 381, 129, 396, 256
-0.998388, 433, 193, 496, 208
-0.998388, 409, 207, 472, 222
-0.998389, 393, 231, 456, 246
-0.998397, 113, 117, 176, 132
-0.998399, 73, 133, 136, 148
-0.998401, 67, 97, 82, 224
-0.998403, 177, 275, 240, 290
-0.998403, 9, 5, 72, 20
-0.998404, 433, 181, 496, 196
-0.998406, 477, 145, 492, 272
-0.998406, 105, 111, 168, 126
-0.998407, 401, 219, 464, 234
-0.998408, 65, 125, 128, 140
-0.998412, 137, 173, 200, 188
-0.998413, 425, 123, 488, 138
-0.998417, 385, 213, 448, 228
-0.998419, 105, 103, 168, 118
-0.998419, 433, 143, 496, 158
-0.998421, 305, 115, 368, 130
-0.998423, 401, 201, 464, 216
-0.998424, 345, 143, 408, 158
-0.998425, 9, 121, 72, 136
-0.998426, 433, 129, 448, 256
-0.998427, 33, 127, 96, 142
-0.998427, 33, 121, 96, 136
-0.998427, 425, 115, 488, 130
-0.998429, 409, 195, 472, 210
-0.99843, 137, 167, 200, 182
-0.998433, 65, 317, 128, 332
-0.998433, 393, 241, 456, 256
-0.998435, 417, 173, 480, 188
-0.998436, 401, 225, 464, 240
-0.99844, 121, 61, 184, 76
-0.998442, 105, 85, 168, 100
-0.998442, 73, 145, 136, 160
-0.998443, 265, 27, 328, 42
-0.998444, 425, 129, 488, 144
-0.998446, 425, 213, 488, 228
-0.998448, 433, 163, 496, 178
-0.998448, 233, 287, 296, 302
-0.99845, 425, 149, 488, 164
-0.998451, 121, 147, 184, 162
-0.998451, 1, 113, 64, 128
-0.998452, 401, 129, 464, 144
-0.998452, 57, 139, 120, 154
-0.998456, 465, 113, 480, 240
-0.998456, 427, 161, 442, 288
-0.998457, 447, 97, 462, 224
-0.998457, 337, 133, 400, 148
-0.998459, 73, 117, 136, 132
-0.99846, 73, 103, 136, 118
-0.99846, 29, 129, 60, 375
-0.998461, 105, 97, 168, 112
-0.998461, 161, 207, 224, 222
-0.998461, 137, 125, 200, 140
-0.998462, 121, 91, 184, 106
-0.998463, 409, 183, 472, 198
-0.998463, 97, 61, 160, 76
-0.998464, 41, 7, 104, 22
-0.998465, 33, 115, 96, 130
-0.998466, 409, 109, 472, 124
-0.998466, 393, 253, 456, 268
-0.998467, 361, 167, 424, 182
-0.998469, 217, 281, 280, 296
-0.998469, 145, 97, 208, 112
-0.998469, 73, 89, 136, 104
-0.998469, 427, 209, 442, 336
-0.99847, 133, 65, 148, 192
-0.99847, 121, 55, 184, 70
-0.998471, 257, 97, 288, 352
-0.998471, 57, 341, 120, 356
-0.998473, 185, 335, 248, 350
-0.998473, 137, 179, 200, 194
-0.998473, 161, 217, 224, 232
-0.998475, 97, 341, 160, 356
-0.998476, 25, 155, 88, 170
-0.998476, 225, 337, 288, 352
-0.998477, 57, 155, 120, 170
-0.998477, 57, 167, 120, 182
-0.998478, 433, 231, 496, 246
-0.998478, 113, 131, 176, 146
-0.998479, 193, 309, 256, 324
-0.998479, 153, 225, 216, 240
-0.99848, 377, 135, 440, 150
-0.99848, 177, 291, 240, 306
-0.99848, 361, 157, 424, 172
-0.998483, 105, 79, 168, 94
-0.998483, 329, 273, 392, 288
-0.998484, 433, 199, 496, 214
-0.998485, 137, 113, 200, 128
-0.998485, 169, 317, 232, 332
-0.998485, 65, 111, 128, 126
-0.998485, 25, 361, 88, 375
-0.998485, 89, 335, 152, 350
-0.998486, 345, 263, 408, 278
-0.998486, 305, 109, 368, 124
-0.998486, 33, 355, 96, 370
-0.998486, 393, 167, 456, 182
-0.998487, 453, 81, 468, 208
-0.998487, 377, 149, 440, 164
-0.998487, 393, 173, 456, 188
-0.998488, 105, 73, 168, 88
-0.998488, 305, 123, 368, 138
-0.998488, 377, 187, 440, 202
-0.998488, 81, 97, 144, 112
-0.998488, 139, 1, 154, 128
-0.998489, 393, 117, 456, 132
-0.998489, 145, 91, 208, 106
-0.99849, 385, 247, 448, 262
-0.998491, 25, 163, 88, 178
-0.998491, 73, 355, 136, 370
-0.998491, 377, 143, 440, 158
-0.998492, 145, 119, 208, 134
-0.998492, 73, 329, 136, 344
-0.998493, 415, 177, 430, 304
-0.998494, 89, 139, 152, 154
-0.998494, 337, 127, 400, 142
-0.998495, 185, 341, 248, 356
-0.998496, 201, 315, 264, 330
-0.998496, 57, 183, 120, 198
-0.998496, 177, 281, 240, 296
-0.998496, 409, 303, 472, 318
-0.998497, 425, 221, 488, 236
-0.998497, 137, 105, 200, 120
-0.998499, 161, 85, 224, 100
-0.998499, 57, 361, 120, 375
-0.9985, 353, 247, 416, 262
-0.998501, 137, 339, 200, 354
-0.998502, 209, 321, 272, 336
-0.998503, 145, 141, 208, 156
-0.998504, 225, 345, 288, 360
-0.998504, 25, 107, 88, 122
-0.998505, 377, 201, 440, 216
-0.998506, 241, 305, 304, 320
-0.998506, 9, 129, 72, 144
-0.998508, 113, 67, 176, 82
-0.998508, 1, 95, 64, 110
-0.998508, 73, 323, 136, 338
-0.998512, 483, 145, 498, 272
-0.998517, 459, 97, 474, 224
-0.998518, 469, 333, 500, 348
-0.998518, 421, 191, 452, 206
-0.998518, 229, 337, 260, 352
-0.998518, 337, 247, 368, 262
-0.998521, 361, 185, 392, 200
-0.998521, 449, 123, 480, 138
-0.998524, 89, 109, 120, 124
-0.998525, 69, 339, 100, 354
-0.998525, 437, 199, 468, 214
-0.998525, 417, 233, 448, 248
-0.998526, 361, 287, 392, 302
-0.998526, 25, 1, 56, 16
-0.998526, 429, 115, 460, 130
-0.998527, 461, 153, 492, 168
-0.998528, 5, 107, 36, 122
-0.998528, 361, 279, 392, 294
-0.998528, 97, 103, 128, 118
-0.998529, 469, 175, 500, 190
-0.99853, 469, 167, 500, 182
-0.99853, 213, 343, 244, 358
-0.998533, 445, 173, 476, 188
-0.998533, 433, 219, 464, 234
-0.998533, 69, 163, 100, 178
-0.998536, 169, 183, 200, 198
-0.998537, 349, 267, 380, 282
-0.998537, 113, 145, 144, 160
-0.998538, 317, 109, 348, 124
-0.998538, 89, 139, 120, 154
-0.998539, 429, 233, 460, 248
-0.998539, 121, 121, 152, 136
-0.998539, 347, 81, 362, 208
-0.99854, 349, 127, 380, 142
-0.99854, 121, 97, 152, 112
-0.99854, 149, 103, 180, 118
-0.99854, 109, 121, 140, 136
-0.99854, 165, 215, 196, 230
-0.99854, 325, 115, 356, 130
-0.998542, 109, 79, 140, 94
-0.998542, 443, 161, 458, 288
-0.998543, 469, 181, 500, 196
-0.998546, 365, 297, 396, 312
-0.998546, 133, 145, 164, 160
-0.998546, 449, 143, 480, 158
-0.998547, 425, 169, 456, 184
-0.998547, 245, 1, 260, 128
-0.998547, 421, 159, 452, 174
-0.998548, 353, 261, 384, 276
-0.998548, 417, 197, 448, 212
-0.998548, 1, 85, 32, 100
-0.998549, 269, 295, 300, 310
-0.99855, 221, 283, 252, 298
-0.99855, 361, 273, 392, 288
-0.998552, 89, 315, 120, 330
-0.998552, 157, 163, 188, 178
-0.998552, 401, 243, 432, 258
-0.998553, 441, 135, 472, 150
-0.998553, 209, 273, 240, 288
-0.998553, 413, 217, 444, 232
-0.998553, 469, 129, 500, 144
-0.998553, 157, 41, 188, 56
-0.998554, 453, 129, 484, 144
-0.998556, 225, 265, 256, 280
-0.998557, 397, 237, 428, 252
-0.998558, 153, 175, 184, 190
-0.998559, 133, 99, 164, 114
-0.99856, 169, 203, 200, 218
-0.998561, 433, 177, 448, 304
-0.998561, 85, 145, 116, 160
-0.998562, 425, 123, 456, 138
-0.998566, 369, 155, 400, 170
-0.998566, 177, 219, 208, 234
-0.998567, 109, 115, 140, 130
-0.998568, 349, 117, 380, 132
-0.998569, 153, 81, 168, 208
-0.998569, 37, 7, 68, 22
-0.99857, 213, 323, 244, 338
-0.998572, 1, 101, 32, 116
-0.998575, 237, 1, 252, 128
-0.998575, 157, 169, 188, 184
-0.998575, 65, 123, 96, 138
-0.998576, 265, 287, 296, 302
-0.998577, 393, 223, 424, 238
-0.998578, 433, 211, 464, 226
-0.998579, 117, 69, 148, 84
-0.998581, 409, 165, 440, 180
-0.998581, 117, 85, 148, 100
-0.998581, 17, 125, 48, 140
-0.998581, 369, 129, 384, 256
-0.998582, 109, 99, 140, 114
-0.998584, 101, 133, 132, 148
-0.998584, 41, 159, 72, 174
-0.998584, 429, 129, 460, 144
-0.998586, 137, 123, 168, 138
-0.998587, 401, 231, 432, 246
-0.998587, 197, 361, 228, 375
-0.998589, 457, 181, 488, 196
-0.998591, 451, 161, 466, 288
-0.998591, 125, 61, 156, 76
-0.998592, 13, 35, 44, 50
-0.998595, 17, 119, 48, 134
-0.998597, 137, 165, 168, 180
-0.998598, 333, 103, 364, 118
-0.998599, 153, 47, 184, 62
-0.998601, 465, 161, 480, 288
-0.998601, 137, 107, 168, 122
-0.998602, 429, 205, 460, 220
-0.998604, 445, 209, 476, 224
-0.998605, 57, 167, 88, 182
-0.998605, 141, 171, 172, 186
-0.998607, 113, 49, 128, 176
-0.998609, 369, 139, 400, 154
-0.99861, 77, 133, 108, 148
-0.998611, 169, 33, 184, 160
-0.998612, 469, 325, 500, 340
-0.998612, 137, 115, 168, 130
-0.998614, 353, 147, 384, 162
-0.99862, 413, 209, 444, 224
-0.99862, 13, 113, 44, 128
-0.998626, 437, 189, 468, 204
-0.998629, 359, 129, 374, 256
-0.998629, 461, 135, 492, 150
-0.99863, 57, 1, 88, 16
-0.99863, 69, 145, 100, 160
-0.998632, 137, 65, 168, 80
-0.998633, 65, 135, 96, 150
-0.998634, 121, 127, 152, 142
-0.998634, 337, 111, 368, 126
-0.998634, 61, 157, 92, 172
-0.998636, 229, 1, 244, 128
-0.998639, 469, 147, 500, 162
-0.998639, 459, 49, 474, 176
-0.99864, 109, 105, 140, 120
-0.99864, 101, 127, 132, 142
-0.998641, 81, 127, 112, 142
-0.998643, 145, 33, 160, 160
-0.998643, 459, 161, 474, 288
-0.998643, 465, 187, 496, 202
-0.998643, 445, 115, 476, 130
-0.998645, 337, 121, 368, 136
-0.998645, 1, 65, 16, 192
-0.998646, 453, 359, 484, 374
-0.998657, 365, 145, 396, 160
-0.998657, 73, 97, 88, 224
-0.998663, 465, 141, 496, 156
-0.99867, 77, 139, 108, 154
-0.998673, 375, 113, 390, 240
-0.998675, 165, 209, 196, 224
-0.99868, 121, 75, 152, 90
-0.998693, 81, 65, 96, 192
-0.998693, 37, 1, 68, 16
-0.998697, 371, 193, 386, 320
-0.998698, 447, 209, 462, 336
-0.998699, 415, 225, 430, 352
-0.998734, 439, 209, 454, 336
-0.998742, 471, 113, 486, 240
-0.998751, 61, 145, 76, 272
-0.998757, 91, 209, 106, 336
-0.998767, 441, 113, 456, 240
-0.998769, 461, 209, 476, 336
-0.99877, 453, 33, 468, 160
-0.998778, 107, 65, 122, 192
-0.99878, 405, 161, 420, 288
-0.998793, 93, 65, 108, 192
-0.998793, 389, 225, 404, 352
-0.998795, 363, 241, 378, 368
-0.998797, 123, 49, 138, 176
-0.998799, 253, 1, 284, 256
-0.998802, 433, 225, 448, 352
-0.998811, 421, 225, 436, 352
-0.998814, 45, 1, 60, 128
-0.998816, 453, 209, 468, 336
-0.998818, 467, 65, 482, 192
-0.998818, 161, 129, 176, 256
-0.998818, 239, 225, 254, 352
-0.998819, 139, 113, 154, 240
-0.998829, 341, 81, 356, 208
-0.998831, 161, 33, 176, 160
-0.998832, 133, 1, 148, 128
-0.998836, 175, 145, 190, 272
-0.998845, 9, 113, 24, 240
-0.998846, 147, 81, 162, 208
-0.998855, 393, 161, 408, 288
-0.998862, 139, 49, 154, 176
-0.998866, 427, 113, 442, 240
-0.998871, 399, 225, 414, 352
-0.998872, 19, 81, 34, 208
-0.998873, 155, 129, 170, 256
-0.998875, 409, 209, 424, 336
-0.998885, 353, 225, 368, 352
-0.998889, 37, 1, 52, 128
-0.998897, 361, 177, 376, 304
-0.998898, 97, 241, 112, 368
-0.998905, 349, 1, 364, 128
-0.998907, 421, 113, 436, 240
-0.998909, 31, 1, 46, 128
-0.998909, 1, 161, 16, 288
-0.998912, 379, 177, 394, 304
-0.998916, 23, 33, 38, 160
-0.998923, 117, 97, 132, 224
-0.998932, 387, 81, 402, 208
-0.998932, 221, 33, 236, 160
-0.998936, 87, 65, 102, 192
-0.998941, 183, 129, 198, 256
-0.998948, 353, 113, 368, 240
-0.998949, 483, 97, 498, 224
-0.998955, 383, 225, 398, 352
-0.998956, 399, 177, 414, 304
-0.998956, 61, 81, 76, 208
-0.998958, 27, 97, 42, 224
-0.99896, 165, 81, 180, 208
-0.998971, 7, 49, 22, 176
-0.998973, 341, 209, 356, 336
-0.998975, 477, 97, 492, 224
-0.998976, 79, 113, 94, 240
-0.998994, 223, 241, 238, 368
-0.999001, 67, 145, 82, 272
-0.999002, 167, 129, 182, 256
-0.999004, 231, 241, 246, 368
-0.999005, 345, 129, 360, 256
-0.999007, 375, 65, 390, 192
-0.99901, 51, 161, 66, 288
-0.999013, 159, 81, 174, 208
-0.999014, 477, 193, 492, 320
-0.999018, 335, 193, 350, 320
-0.999019, 447, 49, 462, 176
-0.999024, 213, 241, 228, 368
-0.999028, 251, 1, 266, 128
-0.99903, 151, 193, 166, 320
-0.999032, 17, 33, 32, 160
-0.999034, 151, 33, 166, 160
-0.999034, 327, 97, 342, 224
-0.999035, 101, 65, 116, 192
-0.999039, 33, 97, 48, 224
-0.999039, 359, 81, 374, 208
-0.999039, 1, 209, 16, 336
-0.99904, 387, 161, 402, 288
-0.99904, 187, 209, 202, 336
-0.999041, 73, 145, 88, 272
-0.999042, 159, 209, 174, 336
-0.999042, 59, 241, 74, 368
-0.999047, 365, 81, 380, 208
-0.99905, 195, 177, 210, 304
-0.999051, 467, 209, 482, 336
-0.999052, 173, 193, 188, 320
-0.999055, 101, 193, 116, 320
-0.999708, 125, 79, 140, 94
-0.999708, 199, 359, 214, 374
-0.999708, 239, 19, 254, 34
-0.999709, 261, 337, 276, 352
-0.999709, 157, 141, 172, 156
-0.999709, 177, 181, 192, 196
-0.99971, 85, 131, 100, 146
-0.99971, 71, 171, 86, 186
-0.999711, 419, 105, 434, 120
-0.999711, 7, 99, 22, 114
-0.999711, 273, 291, 288, 306
-0.999712, 367, 271, 382, 286
-0.999712, 229, 281, 244, 296
-0.999713, 361, 143, 376, 158
-0.999713, 135, 339, 150, 354
-0.999714, 29, 119, 44, 134
-0.999715, 351, 127, 366, 142
-0.999715, 299, 305, 314, 320
-0.999716, 3, 211, 18, 226
-0.999716, 355, 251, 370, 266
-0.999716, 387, 151, 402, 166
-0.999717, 179, 331, 194, 346
-0.999717, 425, 157, 440, 172
-0.999717, 439, 199, 454, 214
-0.999717, 119, 95, 134, 110
-0.999717, 155, 125, 170, 140
-0.999717, 201, 351, 216, 366
-0.999718, 347, 21, 362, 36
-0.999718, 111, 97, 126, 112
-0.999719, 147, 135, 162, 150
-0.99972, 229, 13, 244, 28
-0.99972, 169, 41, 184, 56
-0.999721, 375, 287, 390, 302
-0.999721, 125, 145, 140, 160
-0.999722, 189, 301, 204, 316
-0.999722, 111, 111, 126, 126
-0.999724, 185, 335, 200, 350
-0.999724, 267, 283, 282, 298
-0.999725, 371, 281, 386, 296
-0.999725, 423, 113, 438, 128
-0.999725, 477, 335, 492, 350
-0.999726, 69, 145, 84, 160
-0.999726, 123, 85, 138, 100
-0.999726, 315, 29, 330, 44
-0.999726, 143, 175, 158, 190
-0.999728, 5, 205, 20, 220
-0.999729, 383, 139, 398, 154
-0.999729, 123, 303, 138, 318
-0.999729, 381, 155, 396, 170
-0.999729, 359, 257, 374, 272
-0.999731, 397, 221, 412, 236
-0.999731, 57, 161, 72, 176
-0.999731, 409, 95, 424, 110
-0.999731, 1, 97, 16, 112
-0.999731, 437, 225, 452, 240
-0.999732, 153, 109, 168, 124
-0.999732, 381, 295, 396, 310
-0.999733, 45, 7, 60, 22
-0.999733, 101, 135, 116, 150
-0.999733, 145, 103, 160, 118
-0.999733, 71, 1, 86, 16
-0.999735, 431, 157, 446, 172
-0.999737, 113, 125, 128, 140
-0.999737, 343, 109, 358, 124
-0.999737, 399, 239, 414, 254
-0.999739, 175, 275, 190, 290
-0.999739, 343, 125, 358, 140
-0.999739, 155, 119, 170, 134
-0.99974, 65, 157, 80, 172
-0.99974, 119, 79, 134, 94
-0.99974, 71, 133, 86, 148
-0.999741, 129, 61, 144, 76
-0.999742, 223, 273, 238, 288
-0.999743, 93, 145, 108, 160
-0.999743, 23, 37, 38, 52
-0.999743, 97, 127, 112, 142
-0.999743, 149, 115, 164, 130
-0.999744, 485, 157, 500, 172
-0.999744, 403, 227, 418, 242
-0.999745, 479, 153, 494, 168
-0.999746, 333, 115, 348, 130
-0.999746, 155, 173, 170, 188
-0.999747, 263, 343, 278, 358
-0.999749, 1, 103, 16, 118
-0.999749, 471, 135, 486, 150
-0.99975, 85, 147, 100, 162
-0.999751, 121, 105, 136, 120
-0.999753, 279, 295, 294, 310
-0.999753, 147, 129, 162, 144
-0.999755, 125, 73, 140, 88
-0.999755, 461, 359, 476, 374
-0.999757, 151, 165, 166, 180
-0.999761, 227, 341, 242, 356
-0.999761, 451, 207, 466, 222
-0.999763, 381, 145, 396, 160
-0.999763, 421, 163, 436, 178
-0.999763, 373, 137, 388, 152
-0.999766, 133, 15, 148, 30
-0.999766, 135, 5, 150, 20
-0.999766, 131, 75, 146, 90
-0.999767, 191, 209, 206, 224
-0.999768, 407, 233, 422, 248
-0.999769, 485, 183, 500, 198
-0.99977, 71, 165, 86, 180
-0.99977, 93, 139, 108, 154
-0.999772, 179, 175, 194, 190
-0.999773, 355, 115, 370, 130
-0.999774, 451, 109, 466, 124
-0.999774, 443, 125, 458, 140
-0.999774, 409, 225, 424, 240
-0.999778, 171, 51, 186, 66
-0.999778, 341, 101, 356, 116
-0.999778, 481, 147, 496, 162
-0.999781, 105, 127, 120, 142
-0.999782, 333, 109, 348, 124
-0.999787, 1, 85, 16, 100
-0.999788, 167, 207, 182, 222
-0.999788, 77, 135, 92, 150
-0.99979, 473, 183, 488, 198
-0.999795, 149, 175, 164, 190
-0.999801, 479, 141, 494, 156
-0.999802, 41, 1, 56, 16
-0.999802, 85, 141, 100, 156
-0.999805, 113, 103, 128, 118
-0.999806, 79, 143, 94, 158
-0.999808, 17, 33, 32, 48
-0.999812, 367, 145, 382, 160
-0.999818, 61, 167, 76, 182
-0.999832, 349, 121, 364, 136
-0.999837, 473, 147, 488, 162
