1879
-0.302967, 1, 1, 500, 333
-0.324307, 1, 65, 500, 320
-0.356902, 193, 1, 448, 333
-0.393767, 33, 1, 288, 333
-0.502428, 193, 65, 448, 320
-0.597593, 33, 33, 288, 288
-0.837412, 209, 65, 336, 320
-0.840391, 289, 1, 416, 333
-0.851745, 97, 1, 224, 333
-0.860115, 1, 81, 500, 208
-0.863834, 1, 65, 128, 320
-0.86613, 177, 1, 304, 333
-0.873733, 321, 65, 448, 320
-0.875252, 337, 1, 464, 333
-0.877645, 273, 1, 400, 256
-0.878541, 241, 1, 368, 333
-0.888436, 1, 145, 500, 272
-0.890744, 49, 1, 176, 333
-0.894615, 97, 33, 224, 288
-0.8956, 193, 97, 448, 224
-0.896049, 161, 33, 288, 288
-0.897054, 369, 33, 496, 288
-0.905772, 193, 1, 448, 128
-0.906953, 49, 65, 176, 320
-0.907935, 33, 97, 288, 224
-0.908494, 1, 209, 500, 333
-0.91203, 129, 49, 384, 176
-0.914002, 1, 33, 500, 160
-0.916538, 1, 1, 128, 333
-0.917096, 33, 49, 288, 176
-0.919373, 33, 161, 288, 288
-0.924552, 193, 177, 448, 304
-0.928738, 97, 209, 352, 333
-0.931567, 225, 49, 480, 176
-0.931748, 209, 81, 336, 208
-0.933362, 257, 81, 384, 208
-0.93533, 1, 97, 128, 224
-0.937983, 209, 33, 336, 160
-0.938956, 161, 49, 288, 176
-0.940761, 321, 81, 384, 208
-0.943006, 25, 97, 88, 224
-0.943682, 65, 145, 128, 272
-0.94392, 209, 129, 336, 256
-0.944047, 321, 81, 448, 208
-0.944549, 97, 1, 352, 128
-0.944587, 297, 97, 360, 224
-0.944755, 1, 161, 128, 288
-0.944997, 337, 145, 464, 272
-0.945316, 33, 209, 160, 333
-0.946754, 273, 81, 336, 208
-0.947089, 49, 49, 176, 176
-0.947246, 41, 145, 104, 272
-0.947561, 65, 193, 128, 320
-0.947809, 41, 121, 104, 184
-0.948011, 257, 1, 384, 128
-0.948034, 257, 193, 384, 320
-0.949248, 49, 97, 112, 224
-0.949364, 289, 129, 416, 256
-0.949374, 1, 113, 64, 240
-0.949397, 401, 161, 464, 288
-0.950634, 345, 81, 408, 208
-0.950835, 1, 209, 256, 333
-0.950921, 225, 81, 288, 208
-0.951921, 217, 129, 280, 256
-0.952079, 113, 49, 240, 176
-0.952262, 185, 49, 248, 176
-0.952425, 193, 209, 256, 333
-0.95257, 17, 161, 80, 288
-0.952941, 321, 129, 384, 256
-0.953071, 369, 145, 432, 272
-0.953251, 193, 177, 320, 304
-0.953379, 337, 1, 400, 128
-0.954721, 273, 193, 336, 320
-0.954865, 41, 193, 104, 320
-0.955242, 17, 89, 80, 152
-0.955525, 65, 137, 128, 200
-0.956013, 233, 193, 296, 320
-0.956415, 41, 169, 104, 232
-0.956869, 17, 129, 80, 192
-0.957807, 145, 209, 272, 333
-0.958832, 281, 233, 344, 296
-0.959263, 257, 233, 320, 296
-0.959332, 113, 97, 240, 224
-0.959834, 217, 33, 280, 160
-0.959895, 49, 113, 176, 240
-0.960074, 377, 193, 440, 320
-0.960343, 297, 49, 360, 176
-0.960408, 153, 49, 216, 176
-0.960662, 49, 161, 176, 288
-0.960984, 321, 97, 384, 160
-0.961063, 113, 33, 176, 160
-0.961178, 337, 193, 464, 320
-0.961623, 249, 65, 312, 192
-0.961726, 225, 137, 288, 200
-0.961881, 297, 97, 360, 160
-0.96197, 233, 233, 296, 296
-0.962055, 273, 129, 336, 256
-0.962377, 249, 113, 312, 240
-0.962379, 65, 177, 128, 240
-0.963744, 89, 65, 152, 192
-0.963955, 113, 57, 176, 120
-0.964058, 177, 97, 240, 224
-0.964155, 337, 1, 464, 128
-0.964286, 273, 97, 336, 160
-0.964396, 161, 97, 288, 224
-0.964422, 17, 185, 80, 248
-0.96461, 97, 193, 224, 320
-0.964629, 193, 241, 256, 304
-0.964695, 305, 1, 368, 128
-0.965237, 329, 193, 392, 320
-0.965355, 225, 265, 288, 328
-0.965473, 161, 273, 224, 333
-0.965622, 297, 273, 360, 333
-0.965745, 249, 1, 312, 128
-0.965751, 57, 201, 120, 264
-0.965899, 345, 129, 408, 256
-0.966608, 201, 217, 264, 280
-0.966683, 129, 1, 256, 128
-0.966765, 297, 161, 360, 288
-0.967232, 289, 209, 352, 272
-0.967332, 361, 145, 424, 208
-0.96758, 17, 153, 80, 216
-0.967674, 297, 209, 360, 333
-0.968131, 89, 161, 152, 288
-0.968227, 425, 145, 488, 272
-0.968228, 337, 137, 400, 200
-0.968412, 85, 145, 116, 272
-0.968642, 53, 129, 84, 192
-0.968978, 369, 49, 496, 176
-0.969013, 289, 121, 352, 184
-0.969167, 105, 209, 168, 333
-0.969367, 41, 129, 72, 192
-0.969749, 249, 161, 312, 224
-0.969792, 393, 153, 456, 216
-0.969806, 193, 161, 256, 288
-0.969945, 81, 129, 112, 192
-0.970261, 333, 81, 364, 208
-0.970293, 265, 121, 328, 184
-0.970299, 97, 233, 160, 296
-0.970367, 273, 65, 336, 320
-0.970511, 241, 209, 304, 272
-0.970642, 369, 209, 432, 272
-0.970707, 217, 193, 280, 256
-0.970877, 257, 273, 320, 333
-0.971106, 217, 33, 280, 288
-0.971247, 1, 129, 128, 192
-0.971376, 41, 145, 104, 208
-0.971591, 369, 177, 432, 240
-0.972142, 265, 193, 328, 256
-0.972235, 369, 81, 432, 208
-0.972453, 9, 113, 40, 240
-0.972539, 9, 65, 72, 320
-0.972679, 33, 153, 64, 216
-0.972732, 273, 1, 336, 128
-0.972944, 1, 65, 64, 192
-0.973041, 345, 89, 408, 152
-0.973143, 89, 169, 120, 232
-0.973199, 289, 185, 352, 248
-0.973326, 369, 233, 432, 296
-0.973464, 1, 209, 64, 333
-0.973522, 69, 137, 100, 200
-0.973663, 89, 97, 152, 160
-0.973666, 73, 145, 104, 272
-0.973693, 349, 81, 380, 208
-0.973872, 69, 169, 100, 232
-0.973956, 401, 177, 464, 240
-0.973974, 29, 129, 60, 256
-0.974136, 33, 273, 96, 333
-0.974194, 401, 209, 464, 333
-0.974239, 33, 81, 64, 208
-0.974274, 321, 65, 384, 320
-0.974309, 433, 193, 496, 320
-0.974405, 121, 273, 184, 333
-0.974541, 321, 177, 384, 240
-0.974547, 401, 217, 464, 280
-0.975035, 17, 153, 144, 216
-0.975221, 29, 129, 60, 192
-0.975311, 377, 265, 440, 328
-0.975431, 53, 97, 84, 224
-0.975477, 225, 97, 288, 160
-0.975675, 329, 97, 360, 160
-0.97574, 177, 241, 304, 304
-0.975768, 33, 241, 96, 304
-0.975828, 209, 89, 336, 152
-0.975998, 53, 169, 84, 232
-0.97602, 41, 97, 104, 160
-0.976104, 1, 193, 128, 256
-0.976228, 113, 81, 176, 208
-0.976318, 193, 65, 256, 128
-0.976357, 137, 97, 200, 160
-0.976452, 209, 161, 336, 224
-0.976452, 361, 65, 424, 320
-0.976584, 341, 89, 372, 152
-0.976812, 53, 161, 84, 288
-0.976875, 193, 105, 256, 168
-0.976983, 329, 249, 392, 312
-0.977112, 241, 121, 368, 184
-0.977125, 225, 161, 288, 224
-0.977249, 89, 193, 120, 320
-0.977348, 321, 153, 448, 216
-0.977365, 301, 81, 332, 208
-0.977819, 393, 113, 456, 240
-0.977829, 369, 81, 400, 208
-0.977848, 49, 105, 80, 168
-0.977915, 1, 49, 128, 176
-0.977947, 369, 129, 400, 256
-0.978015, 13, 129, 44, 192
-0.97809, 65, 233, 128, 296
-0.978306, 1, 1, 256, 128
-0.978352, 65, 241, 192, 304
-0.978408, 329, 225, 392, 288
-0.978417, 97, 57, 224, 120
-0.978436, 289, 153, 352, 216
-0.978488, 241, 193, 272, 320
-0.978515, 313, 97, 344, 224
-0.978582, 305, 89, 432, 152
-0.978608, 249, 89, 312, 152
-0.978654, 1, 105, 128, 168
-0.978657, 369, 137, 400, 200
-0.978786, 297, 65, 360, 128
-0.978804, 361, 33, 424, 160
-0.978855, 289, 177, 416, 240
-0.978887, 389, 145, 420, 272
-0.978913, 193, 185, 320, 248
-0.97894, 33, 89, 64, 152
-0.978955, 297, 97, 328, 160
-0.978974, 217, 33, 280, 96
-0.978987, 33, 65, 96, 320
-0.979109, 257, 89, 384, 152
-0.979303, 85, 193, 116, 256
-0.979404, 145, 65, 208, 128
-0.979512, 337, 185, 464, 248
-0.979579, 65, 97, 192, 160
-0.979579, 225, 233, 352, 296
-0.979585, 241, 121, 272, 184
-0.979661, 17, 241, 144, 304
-0.979714, 193, 1, 256, 128
-0.979732, 1, 209, 64, 272
-0.979742, 25, 177, 56, 304
-0.979793, 321, 265, 448, 328
-0.979855, 129, 145, 256, 272
-0.979884, 257, 201, 384, 264
-0.979941, 73, 193, 104, 320
-0.980028, 337, 57, 400, 120
-0.980035, 417, 145, 480, 208
-0.980041, 21, 81, 52, 208
-0.98006, 41, 129, 72, 256
-0.980153, 249, 33, 312, 288
-0.980197, 161, 65, 288, 128
-0.980214, 305, 233, 368, 296
-0.980289, 161, 265, 288, 328
-0.9803, 385, 129, 448, 192
-0.980318, 185, 265, 248, 328
-0.980321, 241, 65, 368, 128
-0.980383, 297, 1, 360, 256
-0.980401, 225, 273, 352, 333
-0.980435, 381, 145, 412, 208
-0.980464, 429, 161, 460, 288
-0.980497, 353, 209, 416, 333
-0.980505, 409, 145, 440, 272
-0.980524, 169, 65, 232, 128
-0.980551, 429, 153, 460, 216
-0.980557, 261, 233, 292, 296
-0.980576, 13, 105, 44, 168
-0.980664, 309, 97, 340, 160
-0.980727, 425, 177, 488, 240
-0.98074, 221, 129, 252, 256
-0.980742, 193, 209, 320, 272
-0.980791, 241, 17, 272, 144
-0.980795, 33, 209, 96, 272
-0.980906, 217, 65, 280, 128
-0.980973, 25, 177, 56, 240
-0.980975, 213, 49, 244, 176
-0.981017, 49, 265, 176, 328
-0.981059, 289, 57, 416, 120
-0.981074, 193, 33, 256, 96
-0.981081, 285, 233, 316, 296
-0.981092, 313, 121, 376, 184
-0.981131, 237, 233, 268, 296
-0.981213, 1, 265, 64, 328
-0.981368, 137, 1, 200, 128
-0.981376, 233, 81, 264, 208
-0.981405, 345, 185, 408, 248
-0.981493, 9, 193, 40, 320
-0.981554, 65, 97, 96, 224
-0.981559, 145, 209, 208, 333
-0.981582, 161, 113, 288, 176
-0.981599, 433, 209, 496, 272
-0.981649, 97, 257, 160, 320
-0.98169, 193, 33, 256, 288
-0.981812, 337, 1, 400, 333
-0.98192, 389, 193, 420, 256
-0.981927, 113, 33, 176, 96
-0.981957, 97, 265, 224, 328
-0.982016, 345, 273, 408, 333
-0.982043, 401, 153, 432, 216
-0.982076, 257, 153, 384, 216
-0.982106, 65, 113, 96, 176
-0.982114, 81, 1, 208, 128
-0.982153, 137, 97, 200, 224
-0.982234, 129, 225, 256, 288
-0.982275, 357, 97, 388, 160
-0.982295, 257, 65, 320, 128
-0.982332, 353, 129, 384, 256
-0.982337, 117, 33, 148, 160
-0.982373, 113, 97, 176, 160
-0.982378, 169, 209, 232, 333
-0.982391, 17, 81, 144, 144
-0.982393, 77, 97, 108, 224
-0.982741, 257, 137, 288, 200
-0.982774, 277, 97, 308, 224
-0.982802, 17, 217, 144, 280
-0.982803, 309, 121, 340, 184
-0.982804, 65, 113, 128, 176
-0.982805, 169, 49, 200, 176
-0.982855, 369, 73, 432, 136
-0.983014, 217, 105, 248, 168
-0.983076, 49, 129, 176, 192
-0.983155, 313, 49, 344, 176
-0.983211, 41, 193, 72, 320
-0.983234, 21, 153, 52, 216
-0.983238, 273, 257, 400, 320
-0.983296, 145, 241, 208, 304
-0.983352, 89, 121, 152, 184
-0.983402, 409, 177, 440, 240
-0.983409, 221, 177, 252, 304
-0.983409, 161, 89, 288, 152
-0.983412, 153, 49, 184, 176
-0.983414, 229, 265, 260, 328
-0.983445, 201, 153, 264, 216
-0.983469, 121, 249, 184, 312
-0.983512, 317, 249, 348, 312
-0.983574, 81, 201, 144, 264
-0.983584, 261, 161, 292, 288
-0.983588, 249, 233, 280, 296
-0.983613, 369, 209, 496, 272
-0.9837, 381, 81, 412, 208
-0.983824, 181, 49, 212, 176
-0.983845, 297, 193, 328, 256
-0.983847, 265, 9, 328, 72
-0.983862, 249, 193, 280, 256
-0.983932, 353, 1, 384, 128
-0.983938, 249, 257, 280, 320
-0.983939, 209, 1, 272, 333
-0.983946, 201, 49, 232, 176
-0.984006, 241, 185, 304, 248
-0.984083, 25, 49, 88, 176
-0.984094, 285, 273, 316, 333
-0.984125, 113, 1, 176, 333
-0.984158, 97, 65, 160, 320
-0.984189, 65, 89, 128, 152
-0.984208, 89, 161, 152, 224
-0.984225, 1, 105, 32, 168
-0.984256, 141, 49, 172, 176
-0.984261, 305, 129, 432, 192
-0.984295, 253, 209, 284, 333
-0.984301, 161, 97, 224, 160
-0.984348, 401, 257, 464, 320
-0.984407, 417, 153, 448, 216
-0.984484, 397, 193, 428, 320
-0.984486, 209, 161, 240, 288
-0.984512, 361, 177, 392, 304
-0.984512, 69, 201, 100, 264
-0.984514, 317, 193, 348, 320
-0.984527, 273, 233, 304, 296
-0.984635, 97, 145, 128, 272
-0.984639, 369, 33, 496, 96
-0.984674, 41, 185, 72, 248
-0.984693, 341, 1, 372, 128
-0.984715, 89, 113, 152, 240
-0.984746, 385, 33, 448, 288
-0.98483, 385, 249, 416, 312
-0.984944, 257, 33, 320, 96
-0.984974, 305, 233, 336, 296
-0.985039, 169, 1, 232, 256
-0.985051, 369, 97, 496, 224
-0.985087, 273, 1, 336, 333
-0.985111, 285, 209, 316, 272
-0.985133, 105, 201, 168, 264
-0.985162, 129, 49, 160, 176
-0.985168, 369, 57, 496, 120
-0.985178, 289, 81, 320, 208
-0.985194, 33, 1, 160, 128
-0.985265, 225, 33, 256, 160
-0.985269, 313, 193, 344, 256
-0.985304, 117, 49, 148, 112
-0.985376, 229, 105, 260, 168
-0.985531, 273, 233, 400, 296
-0.985541, 281, 193, 312, 320
-0.985563, 305, 209, 432, 272
-0.985572, 153, 41, 216, 104
-0.985581, 49, 177, 176, 240
-0.985612, 177, 209, 240, 272
-0.985646, 49, 49, 112, 176
-0.985655, 73, 65, 136, 320
-0.985659, 113, 105, 240, 168
-0.985796, 321, 241, 448, 304
-0.9858, 365, 33, 396, 160
-0.985909, 369, 225, 400, 288
-0.98598, 273, 17, 400, 80
-0.986029, 273, 273, 304, 333
-0.986057, 353, 1, 416, 64
-0.986091, 193, 33, 320, 96
-0.986168, 221, 169, 252, 232
-0.986265, 9, 241, 72, 304
-0.986329, 273, 193, 304, 256
-0.986361, 329, 17, 392, 80
-0.986468, 177, 273, 208, 333
-0.986494, 305, 177, 336, 304
-0.986496, 257, 161, 288, 224
-0.986505, 73, 273, 136, 333
-0.986512, 201, 97, 232, 224
-0.986537, 93, 145, 124, 208
-0.986591, 321, 201, 384, 264
-0.986636, 297, 129, 328, 256
-0.986639, 297, 17, 360, 80
-0.986646, 333, 129, 364, 256
-0.986651, 349, 137, 380, 200
-0.986694, 213, 217, 244, 280
-0.986804, 261, 81, 292, 208
-0.986805, 89, 17, 152, 144
-0.986812, 229, 145, 260, 208
-0.986851, 161, 137, 288, 200
-0.9869, 297, 1, 360, 333
-0.986908, 285, 89, 316, 152
-0.986914, 105, 233, 136, 296
-0.986922, 233, 129, 264, 256
-0.986975, 177, 177, 240, 240
-0.987008, 401, 217, 432, 280
-0.987015, 369, 153, 496, 216
-0.987063, 385, 209, 416, 333
-0.98708, 313, 153, 376, 216
-0.987094, 265, 209, 296, 333
-0.987125, 277, 121, 308, 184
-0.987152, 237, 209, 268, 272
-0.98723, 105, 81, 136, 208
-0.987234, 309, 1, 340, 128
-0.987288, 433, 1, 496, 128
-0.987293, 165, 273, 196, 333
-0.987307, 233, 1, 296, 333
-0.98736, 221, 193, 252, 256
-0.98743, 353, 81, 480, 144
-0.987433, 45, 81, 76, 144
-0.987434, 13, 177, 44, 240
-0.987439, 293, 177, 324, 304
-0.987537, 317, 145, 348, 272
-0.98755, 329, 33, 360, 160
-0.987577, 225, 241, 256, 304
-0.987594, 301, 273, 332, 333
-0.987601, 353, 185, 384, 248
-0.987602, 185, 1, 248, 333
-0.987605, 169, 1, 232, 128
-0.987663, 145, 33, 272, 96
-0.98769, 49, 57, 176, 120
-0.987712, 261, 265, 292, 328
-0.987743, 389, 217, 420, 280
-0.987764, 433, 201, 464, 264
-0.987774, 201, 209, 232, 333
-0.987825, 369, 241, 496, 304
-0.987829, 97, 201, 224, 264
-0.987994, 433, 177, 464, 240
-0.988048, 373, 193, 404, 320
-0.988051, 209, 1, 336, 64
-0.988055, 77, 105, 108, 168
-0.988078, 65, 153, 192, 216
-0.988101, 53, 193, 84, 256
-0.988102, 441, 161, 472, 288
-0.988113, 1, 265, 128, 328
-0.98812, 133, 273, 164, 333
-0.988121, 361, 1, 424, 333
-0.988168, 45, 249, 76, 312
-0.988205, 389, 169, 420, 232
-0.988258, 409, 193, 440, 320
-0.988264, 25, 265, 56, 328
-0.98831, 433, 97, 496, 224
-0.988336, 193, 249, 224, 312
-0.988395, 33, 1, 96, 333
-0.988419, 113, 97, 144, 160
-0.988422, 337, 1, 464, 64
-0.988425, 293, 169, 324, 232
-0.988427, 393, 65, 456, 192
-0.988433, 453, 209, 484, 272
-0.988477, 325, 273, 356, 333
-0.988495, 261, 209, 292, 272
-0.988511, 169, 241, 232, 304
-0.98857, 121, 1, 184, 256
-0.98867, 105, 209, 136, 333
-0.98871, 25, 153, 88, 184
-0.988714, 241, 97, 272, 160
-0.988748, 129, 233, 160, 296
-0.988954, 249, 65, 280, 192
-0.98899, 97, 33, 224, 96
-0.989013, 297, 33, 328, 160
-0.989043, 65, 65, 128, 128
-0.989148, 157, 57, 188, 120
-0.989161, 49, 185, 112, 216
-0.989232, 49, 165, 112, 196
-0.98924, 165, 97, 196, 160
-0.98925, 9, 1, 72, 333
-0.989254, 321, 273, 384, 333
-0.989272, 25, 165, 88, 196
-0.989295, 405, 265, 436, 328
-0.989322, 89, 1, 152, 333
-0.989408, 225, 217, 256, 280
-0.98941, 153, 97, 184, 160
-0.989433, 145, 1, 208, 333
-0.989505, 49, 137, 112, 168
-0.98951, 377, 49, 440, 112
-0.989525, 369, 161, 400, 224
-0.989552, 313, 153, 344, 216
-0.989557, 161, 161, 288, 224
-0.989564, 333, 121, 364, 184
-0.989573, 125, 97, 156, 160
-0.989633, 93, 233, 124, 296
-0.989637, 373, 249, 404, 312
-0.989684, 409, 65, 472, 320
-0.989714, 9, 65, 40, 192
-0.989748, 189, 273, 220, 333
-0.989825, 221, 73, 252, 136
-0.989829, 433, 41, 496, 104
-0.989842, 317, 225, 348, 288
-0.989853, 233, 237, 296, 268
-0.989862, 397, 97, 428, 224
-0.989905, 25, 181, 88, 212
-0.989948, 1, 129, 32, 192
-0.990036, 1, 133, 64, 164
-0.99004, 53, 209, 84, 333
-0.990097, 369, 193, 400, 256
-0.990117, 233, 1, 296, 64
-0.990153, 225, 149, 288, 180
-0.990158, 25, 133, 88, 164
-0.990175, 329, 97, 392, 128
-0.990209, 25, 193, 88, 224
-0.990228, 433, 233, 496, 296
-0.990236, 225, 137, 288, 168
-0.990245, 273, 121, 336, 152
-0.990267, 349, 161, 380, 224
-0.990269, 421, 177, 452, 240
-0.990296, 201, 225, 232, 288
-0.990301, 453, 193, 484, 320
-0.990329, 241, 57, 272, 120
-0.990374, 297, 101, 360, 132
-0.990379, 281, 233, 344, 264
-0.990398, 201, 217, 264, 248
-0.990399, 393, 153, 456, 184
-0.990409, 257, 237, 320, 268
-0.990409, 245, 113, 276, 240
-0.990412, 369, 265, 496, 328
-0.990434, 49, 125, 112, 156
-0.990448, 201, 241, 264, 272
-0.990492, 209, 201, 272, 232
-0.990497, 65, 153, 128, 184
-0.990502, 129, 65, 384, 128
-0.990513, 73, 241, 104, 304
-0.990526, 25, 89, 88, 120
-0.990533, 393, 1, 456, 333
-0.990556, 89, 57, 152, 120
-0.990596, 297, 125, 360, 156
-0.990604, 149, 273, 180, 333
-0.990619, 57, 1, 120, 333
-0.990627, 249, 221, 312, 252
-0.990654, 1, 113, 64, 144
-0.990728, 249, 121, 312, 152
-0.990738, 345, 113, 408, 176
-0.990751, 257, 113, 288, 176
-0.990764, 225, 301, 288, 332
-0.990768, 273, 169, 304, 232
-0.990773, 121, 277, 184, 308
-0.990806, 137, 297, 200, 328
-0.990824, 25, 113, 88, 144
-0.990831, 113, 57, 176, 88
-0.990835, 181, 105, 212, 168
-0.990849, 129, 209, 160, 333
-0.990891, 25, 241, 56, 304
-0.990892, 273, 201, 336, 232
-0.990903, 377, 221, 440, 252
-0.990916, 249, 137, 312, 168
-0.990953, 9, 217, 40, 280
-0.990955, 281, 253, 344, 284
-0.990963, 33, 105, 288, 168
-0.990965, 209, 189, 272, 220
-0.990973, 369, 181, 432, 212
-0.990974, 49, 197, 112, 228
-0.990975, 201, 229, 264, 260
-0.990986, 273, 221, 336, 252
-0.990997, 425, 113, 456, 240
-0.991013, 117, 81, 148, 208
-0.991022, 393, 169, 456, 200
-0.991038, 17, 101, 80, 132
-0.991043, 233, 253, 296, 284
-0.991073, 97, 237, 160, 268
-0.991106, 193, 137, 448, 200
-0.991111, 161, 281, 224, 312
-0.991143, 181, 65, 212, 128
-0.991149, 369, 209, 432, 240
-0.991156, 193, 253, 256, 284
-0.991161, 337, 141, 400, 172
-0.991165, 225, 89, 480, 152
-0.991167, 233, 193, 296, 224
-0.991187, 393, 233, 456, 264
-0.991192, 185, 297, 248, 328
-0.991198, 297, 269, 360, 300
-0.991244, 145, 201, 272, 264
-0.991306, 33, 153, 288, 216
-0.99131, 33, 277, 96, 308
-0.991313, 297, 121, 328, 184
-0.991329, 217, 169, 280, 200
-0.991337, 469, 193, 500, 320
-0.991358, 33, 289, 96, 320
-0.991363, 249, 301, 312, 332
-0.991372, 361, 145, 424, 176
-0.991375, 193, 169, 448, 232
-0.991394, 285, 1, 316, 128
-0.991394, 337, 177, 368, 304
-0.991399, 353, 93, 416, 124
-0.991408, 225, 49, 480, 112
-0.991441, 161, 105, 224, 136
-0.991451, 441, 225, 472, 288
-0.991458, 369, 241, 432, 272
-0.991482, 1, 173, 64, 204
-0.991496, 1, 185, 64, 216
-0.9915, 241, 265, 304, 296
-0.991516, 113, 101, 176, 132
-0.991529, 273, 185, 336, 216
-0.991554, 221, 33, 252, 96
-0.991554, 357, 249, 388, 312
-0.991564, 321, 177, 384, 208
-0.991582, 145, 261, 208, 292
-0.991585, 297, 293, 360, 324
-0.991597, 117, 233, 148, 296
-0.991618, 57, 217, 88, 280
-0.991618, 233, 209, 296, 240
-0.991627, 289, 165, 352, 196
-0.991633, 65, 209, 128, 240
-0.991638, 369, 165, 432, 196
-0.991641, 377, 269, 440, 300
-0.991644, 65, 233, 320, 296
-0.991645, 369, 197, 432, 228
-0.991657, 409, 129, 440, 192
-0.991664, 393, 181, 456, 212
-0.991668, 409, 213, 472, 244
-0.991673, 329, 265, 392, 296
-0.991675, 417, 233, 480, 264
-0.991684, 257, 253, 320, 284
-0.991688, 1, 89, 500, 152
-0.991704, 273, 97, 336, 128
-0.991713, 217, 285, 280, 316
-0.991715, 217, 265, 248, 328
-0.991726, 137, 97, 200, 128
-0.991759, 193, 69, 256, 100
-0.991768, 225, 37, 288, 68
-0.991768, 385, 289, 448, 320
-0.99177, 49, 49, 80, 176
-0.991772, 417, 153, 480, 184
-0.991781, 1, 197, 64, 228
-0.991792, 233, 105, 296, 136
-0.991809, 249, 181, 312, 212
-0.991814, 297, 85, 360, 116
-0.991814, 81, 193, 144, 224
-0.991817, 33, 265, 96, 296
-0.991818, 321, 129, 384, 160
-0.991844, 33, 301, 96, 332
-0.991846, 417, 173, 480, 204
-0.991849, 61, 89, 92, 152
-0.991852, 97, 177, 224, 240
-0.991869, 265, 149, 328, 180
-0.99187, 225, 125, 288, 156
-0.991903, 297, 205, 360, 236
-0.991916, 257, 85, 320, 116
-0.991927, 1, 161, 64, 192
-0.991947, 193, 105, 256, 136
-0.991965, 241, 41, 368, 104
-0.991973, 265, 165, 328, 196
-0.991973, 321, 165, 384, 196
-0.991974, 353, 129, 480, 192
-0.991986, 73, 129, 136, 160
-0.99199, 401, 245, 464, 276
-0.991998, 273, 109, 336, 140
-0.992015, 73, 141, 136, 172
-0.99203, 321, 193, 384, 224
-0.992032, 165, 97, 196, 224
-0.992038, 209, 57, 272, 88
-0.992041, 169, 225, 232, 256
-0.992053, 33, 177, 288, 240
-0.99206, 225, 225, 288, 256
-0.992062, 337, 153, 400, 184
-0.992065, 117, 209, 148, 333
-0.992075, 409, 193, 472, 224
-0.992079, 33, 65, 288, 128
-0.99208, 121, 265, 184, 296
-0.992095, 369, 253, 432, 284
-0.992097, 385, 141, 448, 172
-0.992101, 89, 97, 120, 224
-0.992136, 161, 293, 224, 324
-0.992139, 185, 265, 248, 296
-0.992141, 341, 93, 372, 124
-0.992197, 377, 301, 440, 332
-0.992205, 433, 209, 496, 240
-0.992206, 201, 129, 264, 192
-0.992206, 425, 265, 488, 328
-0.99221, 297, 145, 360, 176
-0.992226, 37, 153, 68, 184
-0.992228, 273, 297, 336, 328
-0.992229, 337, 281, 400, 312
-0.99223, 217, 269, 280, 300
-0.992232, 1, 149, 64, 180
-0.992243, 297, 177, 360, 208
-0.992248, 145, 1, 208, 256
-0.992263, 65, 281, 128, 312
-0.992264, 33, 253, 96, 284
-0.992289, 153, 97, 184, 224
-0.992291, 85, 173, 116, 204
-0.992299, 65, 161, 96, 192
-0.99239, 161, 161, 224, 288
-0.992416, 377, 1, 408, 128
-0.992425, 85, 157, 116, 188
-0.992441, 161, 241, 416, 304
-0.992504, 85, 145, 116, 176
-0.992539, 89, 193, 120, 224
-0.992551, 385, 17, 448, 144
-0.992552, 137, 17, 200, 80
-0.992562, 77, 129, 108, 160
-0.992572, 65, 181, 96, 212
-0.992606, 141, 1, 172, 128
-0.992609, 53, 161, 84, 192
-0.99263, 193, 113, 448, 176
-0.992671, 41, 133, 72, 164
-0.992686, 53, 133, 84, 164
-0.992689, 57, 117, 88, 148
-0.992711, 369, 141, 400, 172
-0.992721, 309, 125, 340, 156
-0.99273, 241, 129, 272, 160
-0.992749, 325, 101, 356, 132
-0.99275, 221, 193, 252, 224
-0.992756, 21, 133, 52, 164
-0.992758, 429, 153, 460, 184
-0.992778, 53, 189, 84, 220
-0.992789, 41, 177, 72, 208
-0.99279, 233, 241, 264, 272
-0.992804, 209, 205, 240, 236
-0.992811, 193, 201, 448, 264
-0.992823, 261, 233, 292, 264
-0.992829, 209, 221, 240, 252
-0.99283, 381, 145, 412, 176
-0.992834, 25, 193, 56, 224
-0.992853, 273, 217, 304, 248
-0.992862, 77, 185, 108, 216
-0.992864, 353, 97, 384, 128
-0.992867, 401, 157, 432, 188
-0.992867, 221, 161, 252, 192
-0.992871, 73, 201, 104, 232
-0.992876, 221, 113, 252, 144
-0.992885, 417, 157, 448, 188
-0.992895, 53, 177, 84, 208
-0.992907, 241, 189, 272, 220
-0.992907, 441, 209, 472, 333
-0.992908, 225, 265, 480, 328
-0.992908, 37, 89, 68, 120
-0.992913, 29, 181, 60, 212
-0.992923, 221, 221, 252, 252
-0.992929, 401, 221, 432, 252
-0.992934, 165, 285, 196, 316
-0.992945, 237, 117, 268, 148
-0.992947, 433, 33, 496, 288
-0.992948, 409, 177, 440, 208
-0.99295, 41, 193, 72, 224
-0.992975, 1, 133, 32, 164
-0.992986, 209, 233, 240, 264
-0.992995, 89, 205, 120, 236
-0.993, 249, 221, 280, 252
-0.993001, 49, 89, 80, 120
-0.993002, 285, 233, 316, 264
-0.993004, 393, 197, 424, 228
-0.993006, 337, 105, 368, 136
-0.99301, 1, 113, 32, 144
-0.993014, 389, 213, 420, 244
-0.993019, 221, 181, 252, 212
-0.993019, 181, 97, 212, 224
-0.993022, 313, 201, 344, 232
-0.993023, 117, 97, 148, 128
-0.993035, 33, 165, 64, 196
-0.993038, 129, 1, 160, 128
-0.993043, 429, 169, 460, 200
-0.993043, 293, 213, 324, 244
-0.993045, 249, 249, 280, 280
-0.993047, 293, 201, 324, 232
-0.993048, 261, 301, 292, 332
-0.993049, 117, 53, 148, 84
-0.993057, 297, 121, 328, 152
-0.993058, 349, 141, 380, 172
-0.993059, 305, 189, 336, 220
-0.99306, 49, 149, 80, 180
-0.993064, 253, 153, 284, 184
-0.993065, 93, 133, 124, 164
-0.993068, 21, 165, 52, 196
-0.99307, 65, 149, 96, 180
-0.993071, 233, 177, 264, 208
-0.993074, 149, 285, 180, 316
-0.993079, 277, 121, 308, 152
-0.993079, 389, 257, 420, 288
-0.993108, 43, 129, 58, 192
-0.993108, 321, 257, 352, 288
-0.993116, 257, 137, 288, 168
-0.993117, 381, 157, 412, 188
-0.99312, 245, 33, 276, 64
-0.993121, 129, 89, 384, 152
-0.993121, 429, 181, 460, 212
-0.993122, 237, 253, 268, 284
-0.993124, 153, 297, 184, 328
-0.993124, 69, 117, 100, 148
-0.993128, 397, 169, 428, 200
-0.993136, 225, 205, 256, 236
-0.993136, 253, 261, 284, 292
-0.993137, 273, 205, 304, 236
-0.993139, 305, 101, 336, 132
-0.993146, 421, 233, 452, 264
-0.993151, 365, 93, 396, 124
-0.993155, 441, 233, 472, 264
-0.993156, 229, 137, 260, 168
-0.993157, 389, 237, 420, 268
-0.993157, 237, 229, 268, 260
-0.993158, 241, 265, 272, 296
-0.993164, 65, 133, 96, 164
-0.993171, 317, 269, 348, 300
-0.993173, 257, 189, 288, 220
-0.993175, 97, 161, 128, 192
-0.993177, 285, 257, 316, 288
-0.993178, 381, 201, 412, 232
-0.993178, 405, 285, 436, 316
-0.993179, 309, 253, 340, 284
-0.99318, 409, 201, 440, 232
-0.99318, 61, 201, 92, 232
-0.993184, 97, 209, 352, 272
-0.993186, 169, 105, 200, 136
-0.993188, 9, 197, 40, 228
-0.99319, 373, 273, 404, 304
-0.993194, 361, 209, 392, 240
-0.993197, 257, 177, 288, 208
-0.993199, 377, 257, 408, 288
-0.9932, 33, 101, 64, 132
-0.9932, 285, 185, 316, 216
-0.993202, 97, 145, 128, 176
-0.993209, 393, 181, 424, 212
-0.99321, 209, 181, 240, 212
-0.993215, 433, 193, 464, 224
-0.993215, 157, 101, 188, 132
-0.993217, 369, 169, 400, 200
-0.993218, 185, 105, 216, 136
-0.99322, 329, 117, 360, 148
-0.993221, 349, 157, 380, 188
-0.993227, 49, 101, 80, 132
-0.99323, 145, 101, 176, 132
-0.993232, 353, 177, 384, 208
-0.993234, 25, 265, 56, 296
-0.993236, 397, 145, 428, 176
-0.993255, 421, 209, 452, 333
-0.99327, 153, 217, 216, 280
-0.993287, 261, 33, 292, 160
-0.99334, 257, 225, 500, 288
-0.993353, 353, 105, 480, 168
-0.993454, 1, 233, 500, 296
-0.993504, 225, 9, 480, 72
-0.993533, 73, 33, 136, 96
-0.993551, 59, 129, 74, 192
-0.993551, 129, 273, 384, 333
-0.993566, 121, 225, 184, 288
-0.993621, 273, 145, 304, 272
-0.993641, 41, 65, 104, 128
-0.993651, 1, 209, 256, 272
-0.99373, 97, 41, 352, 104
-0.993771, 433, 1, 496, 333
-0.993817, 1, 193, 500, 256
-0.993873, 377, 25, 440, 88
-0.993897, 409, 97, 440, 224
-0.993976, 1, 169, 500, 232
-0.993978, 51, 129, 66, 192
-0.994034, 469, 33, 500, 160
-0.994123, 85, 169, 100, 232
-0.994123, 453, 145, 484, 272
-0.994125, 33, 129, 288, 192
-0.994129, 343, 89, 358, 152
-0.99419, 69, 129, 84, 192
-0.994265, 1, 113, 500, 176
-0.994275, 17, 33, 144, 96
-0.994283, 193, 213, 320, 244
-0.994332, 17, 133, 144, 164
-0.994338, 33, 153, 48, 216
-0.994429, 1, 65, 500, 128
-0.994475, 17, 153, 144, 184
-0.994496, 113, 81, 240, 144
-0.994516, 109, 161, 140, 288
-0.994536, 91, 169, 106, 232
-0.994538, 91, 145, 106, 208
-0.99456, 61, 161, 76, 224
-0.994575, 33, 257, 288, 320
-0.994609, 177, 129, 240, 192
-0.994633, 321, 25, 448, 88
-0.994642, 369, 97, 432, 160
-0.99465, 83, 129, 98, 192
-0.994659, 241, 97, 368, 128
-0.994666, 193, 237, 320, 268
-0.994691, 277, 49, 308, 176
-0.994758, 353, 89, 368, 152
-0.994761, 133, 97, 164, 224
-0.994775, 61, 89, 76, 152
-0.994836, 35, 129, 50, 192
-0.99484, 209, 189, 336, 220
-0.994844, 29, 129, 44, 192
-0.994873, 77, 121, 92, 184
-0.994873, 105, 33, 136, 160
-0.994905, 433, 121, 496, 184
-0.994938, 129, 9, 256, 72
-0.994949, 77, 169, 92, 232
-0.994957, 241, 125, 368, 156
-0.994971, 1, 145, 500, 208
-0.994984, 37, 97, 52, 160
-0.994988, 99, 169, 114, 232
-0.995005, 433, 65, 496, 128
-0.995008, 1, 197, 128, 228
-0.995031, 405, 153, 420, 216
-0.995034, 349, 177, 380, 304
-0.995064, 273, 1, 304, 128
-0.995143, 11, 105, 26, 168
-0.995143, 193, 201, 320, 232
-0.995161, 47, 105, 62, 168
-0.995212, 99, 137, 114, 200
-0.995221, 49, 97, 176, 128
-0.995224, 97, 129, 224, 192
-0.995242, 209, 169, 336, 200
-0.995264, 237, 241, 252, 304
-0.995269, 337, 153, 464, 184
-0.99528, 89, 121, 104, 184
-0.995313, 47, 153, 62, 216
-0.995338, 177, 261, 304, 292
-0.99534, 21, 105, 36, 168
-0.995345, 201, 1, 232, 128
-0.99539, 259, 129, 274, 192
-0.995399, 69, 177, 84, 240
-0.995445, 1, 65, 64, 128
-0.995463, 321, 93, 448, 124
-0.995479, 337, 181, 464, 212
-0.995496, 241, 85, 368, 116
-0.995501, 67, 97, 82, 160
-0.995514, 29, 177, 44, 240
-0.995545, 323, 97, 338, 160
-0.995555, 441, 145, 456, 208
-0.995573, 289, 177, 416, 208
-0.995579, 305, 97, 320, 160
-0.995579, 193, 225, 320, 256
-0.995601, 129, 233, 256, 264
-0.995614, 53, 153, 68, 216
-0.995614, 31, 105, 46, 168
-0.995617, 209, 157, 336, 188
-0.995621, 317, 97, 332, 160
-0.995634, 297, 41, 360, 104
-0.995678, 1, 257, 500, 320
-0.995679, 369, 137, 384, 200
-0.995692, 397, 145, 412, 208
-0.995698, 257, 189, 384, 220
-0.995712, 431, 153, 446, 216
-0.995755, 97, 57, 224, 88
-0.995761, 369, 193, 496, 224
-0.995763, 1, 113, 128, 144
-0.995774, 145, 289, 272, 320
-0.995776, 263, 233, 278, 296
-0.995777, 321, 193, 336, 256
-0.995791, 345, 113, 360, 176
-0.995793, 233, 105, 248, 168
-0.995818, 249, 121, 264, 184
-0.995824, 243, 233, 258, 296
-0.995836, 77, 145, 92, 208
-0.995837, 257, 225, 384, 256
-0.995843, 1, 165, 128, 196
-0.99585, 161, 109, 288, 140
-0.995868, 403, 193, 418, 256
-0.995881, 193, 93, 320, 124
-0.995889, 209, 141, 336, 172
-0.995891, 305, 197, 432, 228
-0.995918, 301, 233, 316, 296
-0.995944, 359, 89, 374, 152
-0.995952, 49, 237, 176, 268
-0.995958, 335, 97, 350, 160
-0.995959, 425, 49, 488, 176
-0.995965, 257, 201, 384, 232
-0.995979, 65, 273, 192, 304
-0.99598, 397, 169, 412, 232
-0.99599, 381, 217, 396, 280
-0.996002, 107, 233, 122, 296
-0.996006, 221, 193, 236, 256
-0.99603, 301, 193, 316, 256
-0.996031, 1, 121, 16, 184
-0.996032, 209, 113, 336, 144
-0.996034, 241, 113, 256, 176
-0.996043, 311, 97, 326, 160
-0.996044, 337, 169, 464, 200
-0.996061, 301, 273, 316, 333
-0.996086, 299, 97, 314, 160
-0.996087, 55, 105, 70, 168
-0.996091, 437, 177, 452, 240
-0.996098, 275, 233, 290, 296
-0.996098, 389, 145, 404, 208
-0.996106, 65, 261, 192, 292
-0.996107, 289, 149, 416, 180
-0.996126, 417, 153, 432, 216
-0.996135, 385, 249, 400, 312
-0.996137, 215, 201, 230, 264
-0.99615, 209, 61, 336, 92
-0.996151, 243, 265, 258, 328
-0.996159, 265, 137, 280, 200
-0.99616, 241, 269, 368, 300
-0.996162, 223, 169, 238, 232
-0.996172, 181, 1, 212, 128
-0.996176, 193, 301, 320, 332
-0.99618, 129, 245, 256, 276
-0.99619, 129, 17, 384, 80
-0.996204, 285, 273, 300, 333
-0.996206, 65, 285, 192, 316
-0.996213, 267, 193, 282, 256
-0.996238, 225, 249, 352, 280
-0.996242, 255, 193, 270, 256
-0.996252, 237, 273, 252, 333
-0.996253, 23, 129, 38, 192
-0.996253, 369, 49, 496, 80
-0.996259, 117, 49, 132, 112
-0.996261, 113, 301, 240, 332
-0.996283, 383, 137, 398, 200
-0.996286, 369, 33, 400, 288
-0.996286, 325, 121, 340, 184
-0.996306, 327, 185, 342, 248
-0.996325, 79, 201, 94, 264
-0.996328, 291, 233, 306, 296
-0.996331, 113, 277, 240, 308
-0.996331, 307, 193, 322, 256
-0.996341, 177, 249, 304, 280
-0.996351, 413, 177, 428, 240
-0.99636, 289, 261, 416, 292
-0.996368, 249, 233, 264, 296
-0.996372, 17, 277, 144, 308
-0.996396, 307, 273, 322, 333
-0.996409, 11, 129, 26, 192
-0.996426, 39, 153, 54, 216
-0.996433, 65, 145, 192, 176
-0.996441, 229, 265, 244, 328
-0.996464, 393, 209, 408, 272
-0.99648, 9, 65, 40, 320
-0.996482, 333, 249, 348, 312
-0.996507, 87, 193, 102, 256
-0.996511, 257, 241, 272, 304
-0.996521, 233, 33, 264, 288
-0.996528, 17, 185, 144, 216
-0.996554, 289, 105, 416, 136
-0.996564, 1, 57, 128, 120
-0.996568, 267, 257, 282, 320
-0.996569, 1, 41, 500, 104
-0.996583, 333, 65, 364, 320
-0.996585, 71, 153, 86, 216
-0.996595, 261, 193, 276, 256
-0.996602, 307, 233, 322, 296
-0.996612, 237, 137, 252, 200
-0.996612, 181, 273, 196, 333
-0.996616, 25, 65, 56, 320
-0.996627, 321, 277, 448, 308
-0.996628, 71, 201, 86, 264
-0.996639, 257, 161, 384, 192
-0.996648, 257, 297, 384, 328
-0.996652, 17, 261, 144, 292
-0.996657, 17, 209, 144, 240
-0.996669, 231, 145, 246, 208
-0.996673, 55, 177, 70, 240
-0.996679, 323, 233, 338, 296
-0.996681, 443, 169, 458, 232
-0.996682, 17, 129, 32, 192
-0.996685, 377, 249, 392, 312
-0.996687, 381, 65, 412, 320
-0.996688, 153, 1, 184, 128
-0.996688, 269, 233, 284, 296
-0.996702, 35, 177, 50, 240
-0.996703, 229, 177, 244, 240
-0.996707, 113, 153, 240, 216
-0.996711, 199, 249, 214, 312
-0.996716, 321, 217, 448, 248
-0.996718, 43, 81, 58, 144
-0.996723, 393, 233, 408, 296
-0.996724, 411, 153, 426, 216
-0.996729, 369, 77, 496, 108
-0.996731, 431, 177, 446, 240
-0.996732, 289, 81, 416, 112
-0.99676, 327, 153, 342, 216
-0.996788, 415, 273, 430, 333
-0.996789, 257, 213, 384, 244
-0.996798, 293, 209, 308, 272
-0.9968, 365, 97, 380, 160
-0.996809, 293, 257, 308, 320
-0.996823, 249, 33, 280, 288
-0.99683, 287, 209, 302, 272
-0.996833, 241, 89, 256, 152
-0.996851, 315, 121, 330, 184
-0.996854, 337, 289, 464, 320
-0.996854, 307, 169, 322, 232
-0.996857, 423, 161, 438, 224
-0.996858, 281, 241, 296, 304
-0.99688, 357, 121, 372, 184
-0.996884, 209, 73, 336, 104
-0.996885, 221, 1, 252, 256
-0.996895, 129, 97, 144, 160
-0.996896, 231, 201, 246, 264
-0.996909, 351, 113, 366, 176
-0.996912, 329, 97, 344, 160
-0.996916, 345, 93, 360, 124
-0.99693, 113, 105, 240, 136
-0.996937, 113, 265, 240, 296
-0.996937, 53, 65, 84, 320
-0.996952, 313, 65, 344, 320
-0.996972, 305, 249, 432, 280
-0.996976, 369, 61, 496, 92
-0.996981, 113, 221, 240, 252
-0.996982, 17, 85, 144, 116
-0.996982, 65, 297, 192, 328
-0.99701, 289, 65, 320, 320
-0.997055, 337, 141, 464, 172
-0.99707, 369, 209, 496, 240
-0.99707, 149, 209, 180, 333
-0.997082, 17, 289, 144, 320
-0.997085, 165, 1, 196, 128
-0.997104, 351, 93, 366, 124
-0.997108, 161, 145, 288, 176
-0.997144, 213, 1, 244, 128
-0.997149, 357, 65, 388, 320
-0.997153, 241, 237, 368, 268
-0.997164, 369, 301, 496, 332
-0.997187, 161, 57, 288, 88
-0.9972, 65, 133, 192, 164
-0.99729, 129, 201, 256, 232
-0.997304, 59, 157, 74, 188
-0.997315, 339, 97, 354, 128
-0.997318, 161, 69, 288, 100
-0.997323, 97, 45, 224, 76
-0.997325, 65, 157, 192, 188
-0.997329, 43, 149, 58, 180
-0.997341, 273, 137, 400, 168
-0.997349, 209, 37, 336, 68
-0.997366, 37, 65, 68, 320
-0.997368, 145, 93, 272, 124
-0.997378, 225, 13, 352, 44
-0.997383, 301, 65, 332, 320
-0.997401, 209, 281, 336, 312
-0.997403, 289, 57, 416, 88
-0.997417, 77, 125, 92, 156
-0.997456, 65, 189, 192, 220
-0.99746, 305, 237, 432, 268
-0.99746, 209, 49, 336, 80
-0.997469, 47, 133, 62, 164
-0.997482, 1, 101, 128, 132
-0.997489, 469, 145, 500, 272
-0.997526, 69, 117, 84, 148
-0.997532, 353, 5, 480, 36
-0.997537, 161, 273, 288, 304
-0.997542, 289, 69, 416, 100
-0.997553, 353, 245, 480, 276
-0.997572, 97, 129, 112, 160
-0.997572, 357, 97, 372, 128
-0.997582, 1, 121, 16, 152
-0.997602, 209, 1, 336, 32
-0.997623, 41, 133, 56, 164
-0.997629, 215, 201, 230, 232
-0.997633, 51, 149, 66, 180
-0.997654, 85, 169, 100, 200
-0.99767, 65, 121, 192, 152
-0.997672, 215, 225, 230, 256
-0.997672, 87, 129, 102, 160
-0.997682, 193, 129, 320, 160
-0.997687, 393, 65, 424, 320
-0.997688, 35, 157, 50, 188
-0.997693, 79, 165, 94, 196
-0.997699, 289, 1, 416, 32
-0.997722, 173, 209, 204, 333
-0.997724, 87, 189, 102, 220
-0.997731, 161, 157, 288, 188
-0.997733, 269, 65, 300, 320
-0.997737, 33, 181, 48, 212
-0.99774, 91, 153, 106, 184
-0.997746, 213, 213, 228, 244
-0.997752, 49, 249, 176, 280
-0.997754, 17, 301, 144, 332
-0.997777, 273, 17, 400, 48
-0.997787, 91, 169, 106, 200
-0.997826, 49, 161, 64, 192
-0.997826, 285, 213, 300, 244
-0.997835, 71, 157, 86, 188
-0.997842, 257, 189, 272, 220
-0.997847, 221, 201, 236, 232
-0.997852, 403, 157, 418, 188
-0.997866, 369, 37, 496, 68
-0.997868, 33, 133, 48, 164
-0.997873, 189, 209, 220, 333
-0.99788, 201, 1, 232, 256
-0.997892, 323, 125, 338, 156
-0.997896, 33, 225, 160, 256
-0.997896, 99, 165, 114, 196
-0.997903, 321, 189, 336, 220
-0.997904, 345, 65, 376, 320
-0.997906, 161, 29, 288, 60
-0.997915, 225, 161, 240, 192
-0.997915, 65, 109, 192, 140
-0.997929, 61, 133, 76, 164
-0.99794, 321, 301, 448, 332
-0.99795, 233, 109, 248, 140
-0.997955, 1, 17, 500, 80
-0.997957, 243, 117, 258, 148
-0.997964, 369, 89, 496, 120
-0.997967, 433, 149, 448, 180
-0.997969, 333, 97, 348, 128
-0.997973, 97, 93, 224, 124
-0.997974, 435, 185, 450, 216
-0.997974, 287, 225, 302, 256
-0.997975, 161, 81, 288, 112
-0.997976, 397, 145, 412, 176
-0.997988, 99, 145, 114, 176
-0.997991, 345, 105, 360, 136
-0.997991, 259, 133, 274, 164
-0.997991, 105, 65, 136, 320
-0.998001, 393, 49, 424, 176
-0.998002, 235, 137, 250, 168
-0.998008, 1, 245, 128, 276
-0.998013, 255, 249, 270, 280
-0.998016, 405, 213, 420, 244
-0.998023, 145, 45, 272, 76
-0.998034, 369, 233, 496, 264
-0.998034, 387, 145, 402, 176
-0.998036, 441, 149, 456, 180
-0.998039, 435, 165, 450, 196
-0.998043, 369, 261, 496, 292
-0.998052, 257, 285, 384, 316
-0.998053, 101, 177, 116, 208
-0.998056, 55, 185, 70, 216
-0.998062, 441, 113, 472, 240
-0.998067, 37, 33, 68, 160
-0.99808, 67, 193, 82, 224
-0.998082, 351, 105, 366, 136
-0.99809, 369, 141, 384, 172
-0.998091, 39, 89, 54, 120
-0.998092, 65, 201, 192, 232
-0.998093, 89, 141, 104, 172
-0.998099, 443, 233, 458, 264
-0.998099, 209, 229, 224, 260
-0.998099, 275, 217, 290, 248
-0.998103, 27, 133, 42, 164
-0.998107, 129, 189, 256, 220
-0.998107, 79, 201, 94, 232
-0.998112, 59, 89, 74, 120
-0.998123, 161, 173, 288, 204
-0.998124, 11, 113, 26, 144
-0.998126, 81, 73, 208, 104
-0.998126, 3, 133, 18, 164
-0.99813, 229, 149, 244, 180
-0.998131, 405, 181, 420, 212
-0.998139, 1, 41, 256, 104
-0.998153, 327, 189, 342, 220
-0.998154, 89, 201, 104, 232
-0.998154, 267, 153, 282, 184
-0.998155, 231, 193, 246, 224
-0.998161, 69, 133, 84, 164
-0.998165, 15, 133, 30, 164
-0.99817, 255, 33, 270, 64
-0.998171, 63, 113, 78, 144
-0.998173, 99, 193, 114, 224
-0.998176, 93, 181, 108, 212
-0.998181, 81, 9, 208, 72
-0.998182, 295, 221, 310, 252
-0.998186, 251, 177, 266, 208
-0.998187, 415, 161, 430, 192
-0.998188, 49, 57, 176, 88
-0.998193, 237, 241, 252, 272
-0.998194, 9, 133, 24, 164
-0.998195, 55, 133, 70, 164
-0.998196, 223, 173, 238, 204
-0.998196, 169, 281, 184, 312
-0.998199, 425, 153, 440, 184
-0.998205, 409, 1, 472, 128
-0.998205, 347, 117, 362, 148
-0.998216, 81, 137, 96, 168
-0.998216, 65, 173, 80, 204
-0.998218, 261, 177, 276, 208
-0.998225, 299, 201, 314, 232
-0.998228, 225, 189, 240, 220
-0.998237, 65, 161, 80, 192
-0.998243, 407, 169, 422, 200
-0.998249, 77, 65, 108, 320
-0.998251, 49, 193, 64, 224
-0.998251, 247, 229, 262, 260
-0.998252, 389, 1, 420, 128
-0.998254, 397, 157, 412, 188
-0.99826, 85, 157, 100, 188
-0.998262, 289, 125, 416, 156
-0.998264, 129, 97, 144, 128
-0.998265, 79, 153, 94, 184
-0.998266, 381, 225, 396, 256
-0.998271, 315, 121, 330, 152
-0.998272, 385, 245, 400, 276
-0.998275, 43, 197, 58, 228
-0.998284, 425, 173, 440, 204
-0.998286, 43, 181, 58, 212
-0.998288, 321, 201, 336, 232
-0.998288, 33, 169, 48, 200
-0.998293, 59, 173, 74, 204
-0.9983, 395, 249, 410, 280
-0.998301, 49, 173, 176, 204
-0.998303, 43, 161, 58, 192
-0.998306, 239, 181, 254, 212
-0.998308, 399, 201, 414, 232
-0.998312, 313, 201, 328, 232
-0.998312, 219, 213, 234, 244
-0.998321, 337, 17, 464, 48
-0.998321, 405, 201, 420, 232
-0.998326, 289, 45, 416, 76
-0.998327, 257, 201, 272, 232
-0.998331, 265, 141, 280, 172
-0.998333, 251, 125, 266, 156
-0.998333, 311, 293, 326, 324
-0.998342, 257, 237, 272, 268
-0.998347, 259, 149, 274, 180
-0.99835, 29, 113, 44, 144
-0.998357, 373, 169, 388, 200
-0.998359, 327, 201, 342, 232
-0.99836, 369, 221, 496, 252
-0.998364, 21, 133, 36, 164
-0.998368, 349, 157, 380, 172
-0.998368, 261, 301, 292, 316
-0.998369, 273, 207, 304, 222
-0.998369, 93, 135, 124, 150
-0.99837, 433, 241, 464, 256
-0.998371, 237, 109, 268, 124
-0.998372, 71, 181, 86, 212
-0.998372, 33, 103, 64, 118
-0.998372, 429, 165, 460, 180
-0.998374, 409, 193, 440, 208
-0.998374, 429, 177, 460, 192
-0.998375, 409, 163, 440, 178
-0.998375, 149, 287, 180, 302
-0.998376, 233, 215, 264, 230
-0.998376, 69, 209, 100, 224
-0.998377, 21, 163, 52, 178
-0.998378, 421, 245, 452, 260
-0.998379, 117, 53, 132, 84
-0.998379, 181, 315, 212, 330
-0.99838, 405, 33, 436, 288
-0.99838, 5, 133, 36, 148
-0.998382, 221, 179, 252, 194
-0.998382, 373, 271, 404, 286
-0.998382, 65, 203, 96, 218
-0.998382, 293, 225, 324, 240
-0.998383, 149, 293, 180, 308
-0.998384, 261, 145, 292, 160
-0.998384, 349, 151, 380, 166
-0.998385, 33, 179, 64, 194
-0.998385, 101, 237, 132, 252
-0.998385, 301, 99, 332, 114
-0.998385, 281, 237, 312, 252
-0.998385, 349, 145, 380, 160
-0.998385, 25, 133, 56, 148
-0.998387, 9, 111, 40, 126
-0.998388, 233, 253, 264, 268
-0.998388, 213, 237, 244, 252
-0.998389, 253, 155, 284, 170
-0.998392, 441, 233, 472, 248
-0.998394, 85, 149, 116, 164
-0.998396, 429, 171, 460, 186
-0.998396, 61, 137, 92, 152
-0.998398, 381, 157, 412, 172
-0.998398, 241, 267, 272, 282
-0.998399, 241, 197, 272, 212
-0.9984, 281, 123, 312, 138
-0.9984, 409, 181, 440, 196
-0.998401, 129, 133, 256, 164
-0.998401, 113, 99, 144, 114
-0.998401, 41, 195, 72, 210
-0.998403, 221, 215, 252, 230
-0.998404, 37, 135, 68, 150
-0.998404, 233, 145, 264, 160
-0.998405, 233, 247, 264, 262
-0.998406, 217, 193, 248, 208
-0.998407, 245, 215, 276, 230
-0.998407, 281, 231, 312, 246
-0.998407, 365, 97, 396, 112
-0.998408, 21, 109, 52, 124
-0.998411, 21, 181, 52, 196
-0.998413, 297, 125, 328, 140
-0.998413, 53, 187, 84, 202
-0.998416, 321, 269, 352, 284
-0.998416, 69, 129, 100, 144
-0.998417, 261, 263, 292, 278
-0.998419, 217, 163, 248, 178
-0.99842, 89, 187, 120, 202
-0.998422, 165, 285, 196, 300
-0.998422, 397, 159, 428, 174
-0.998423, 209, 203, 240, 218
-0.998424, 53, 169, 84, 184
-0.998424, 381, 151, 412, 166
-0.998424, 221, 185, 252, 200
-0.998428, 237, 191, 268, 206
-0.99843, 89, 197, 120, 212
-0.998431, 49, 135, 80, 150
-0.998431, 17, 73, 144, 104
-0.998432, 409, 155, 440, 170
-0.998434, 433, 225, 464, 240
-0.998436, 429, 159, 460, 174
-0.998437, 417, 175, 448, 190
-0.998437, 85, 141, 116, 156
-0.998438, 49, 91, 80, 106
-0.998438, 233, 261, 264, 276
-0.99844, 49, 153, 80, 168
-0.99844, 53, 193, 84, 208
-0.998441, 221, 111, 252, 126
-0.998443, 89, 211, 120, 226
-0.998443, 89, 203, 120, 218
-0.998444, 341, 105, 372, 120
-0.998446, 329, 97, 392, 112
-0.998447, 253, 191, 284, 206
-0.998448, 85, 157, 116, 172
-0.998449, 261, 237, 292, 252
-0.99845, 209, 221, 240, 236
-0.998453, 53, 181, 84, 196
-0.998457, 365, 141, 396, 156
-0.998458, 33, 173, 64, 188
-0.998458, 209, 109, 240, 124
-0.998458, 49, 189, 112, 204
-0.99846, 41, 185, 72, 200
-0.998461, 221, 173, 252, 188
-0.998465, 25, 155, 88, 170
-0.998467, 353, 101, 384, 116
-0.998467, 273, 213, 304, 228
-0.998469, 25, 193, 56, 208
-0.99847, 325, 101, 356, 116
-0.99847, 57, 175, 88, 190
-0.99847, 65, 161, 128, 176
-0.99847, 33, 167, 64, 182
-0.998472, 177, 309, 208, 324
-0.998475, 77, 203, 108, 218
-0.998476, 429, 153, 460, 168
-0.998477, 65, 181, 96, 196
-0.998479, 73, 139, 104, 154
-0.998486, 165, 105, 196, 120
-0.998488, 237, 129, 268, 144
-0.998489, 237, 241, 268, 256
-0.998491, 25, 165, 88, 180
-0.998492, 73, 187, 104, 202
-0.998492, 221, 199, 252, 214
-0.998495, 85, 181, 116, 196
-0.998495, 69, 49, 100, 176
-0.9985, 245, 37, 276, 52
-0.998501, 273, 123, 336, 138
-0.998502, 309, 125, 340, 140
-0.998511, 113, 101, 176, 116
-0.998512, 185, 107, 216, 122
-0.998513, 289, 101, 352, 116
-0.998513, 37, 89, 68, 104
-0.998518, 81, 131, 112, 146
-0.998518, 89, 169, 120, 184
-0.998525, 25, 185, 88, 200
-0.998526, 249, 261, 280, 276
-0.998528, 17, 191, 80, 206
-0.998529, 49, 183, 112, 198
-0.99853, 137, 103, 200, 118
-0.998531, 25, 91, 88, 106
-0.998531, 69, 171, 100, 186
-0.998531, 49, 129, 112, 144
-0.998534, 49, 167, 112, 182
-0.998534, 69, 159, 100, 174
-0.998536, 25, 173, 88, 188
-0.998536, 233, 237, 296, 252
-0.998541, 9, 109, 72, 124
-0.998542, 161, 107, 224, 122
-0.998543, 49, 195, 112, 210
-0.998543, 33, 161, 64, 176
-0.998543, 53, 159, 84, 174
-0.998547, 85, 163, 116, 178
-0.998548, 233, 131, 296, 146
-0.998548, 225, 151, 288, 166
-0.998551, 33, 135, 96, 150
-0.998551, 25, 197, 88, 212
-0.998551, 201, 223, 264, 238
-0.998551, 225, 141, 288, 156
-0.998554, 281, 231, 344, 246
-0.998556, 401, 155, 464, 170
-0.998556, 145, 103, 176, 118
-0.998559, 281, 201, 344, 216
-0.99856, 233, 263, 296, 278
-0.998563, 37, 153, 68, 168
-0.998563, 357, 81, 372, 208
-0.998564, 313, 103, 376, 118
-0.998565, 225, 157, 288, 172
-0.998566, 369, 185, 432, 200
-0.998568, 185, 305, 248, 320
-0.998569, 217, 37, 280, 52
-0.99857, 177, 315, 240, 330
-0.998571, 209, 205, 272, 220
-0.998573, 233, 195, 296, 210
-0.998574, 49, 155, 112, 170
-0.998574, 193, 251, 256, 266
-0.998579, 121, 279, 184, 294
-0.998579, 369, 217, 432, 232
-0.99858, 297, 271, 360, 286
-0.99858, 125, 101, 156, 116
-0.99858, 25, 179, 88, 194
-0.99858, 105, 57, 168, 72
-0.99858, 281, 243, 344, 258
-0.99858, 353, 95, 416, 110
-0.998581, 65, 201, 128, 216
-0.998584, 337, 141, 400, 156
-0.998585, 281, 251, 344, 266
-0.998585, 65, 175, 128, 190
-0.998586, 209, 199, 272, 214
-0.998587, 201, 237, 264, 252
-0.998588, 25, 103, 88, 118
-0.998589, 97, 239, 160, 254
-0.998589, 201, 245, 264, 260
-0.998593, 217, 187, 280, 202
-0.998594, 281, 237, 344, 252
-0.998594, 217, 215, 280, 230
-0.998596, 297, 127, 360, 142
-0.998596, 241, 303, 304, 318
-0.998597, 249, 137, 312, 152
-0.998598, 1, 133, 64, 148
-0.998598, 257, 237, 320, 252
-0.998598, 377, 149, 440, 164
-0.998599, 385, 161, 448, 176
-0.998599, 85, 175, 116, 190
-0.998601, 241, 253, 304, 268
-0.998602, 89, 99, 152, 114
-0.998603, 377, 223, 440, 238
-0.998605, 129, 301, 192, 316
-0.998607, 385, 169, 448, 184
-0.998607, 209, 193, 272, 208
-0.998607, 305, 95, 368, 110
-0.998608, 65, 165, 96, 180
-0.998609, 257, 247, 320, 262
-0.998609, 257, 145, 320, 160
-0.99861, 193, 263, 256, 278
-0.998612, 201, 109, 264, 124
-0.998612, 137, 307, 200, 322
-0.998613, 57, 137, 120, 152
-0.998614, 257, 317, 320, 332
-0.998615, 257, 231, 320, 246
-0.998617, 249, 125, 312, 140
-0.998617, 41, 207, 104, 222
-0.998618, 433, 241, 496, 256
-0.998618, 257, 225, 320, 240
-0.998618, 377, 245, 440, 260
-0.99862, 217, 253, 280, 268
-0.99862, 49, 149, 112, 164
-0.998621, 121, 295, 184, 310
-0.998621, 233, 269, 296, 284
-0.998621, 377, 155, 440, 170
-0.998622, 393, 177, 456, 192
-0.998623, 73, 131, 136, 146
-0.998623, 209, 169, 272, 184
-0.998623, 409, 215, 472, 230
-0.998624, 329, 267, 392, 282
-0.998624, 33, 313, 96, 328
-0.998625, 145, 271, 208, 286
-0.998626, 369, 211, 432, 226
-0.998626, 297, 163, 360, 178
-0.998627, 65, 213, 128, 228
-0.998627, 409, 171, 472, 186
-0.998628, 241, 207, 304, 222
-0.99863, 393, 233, 456, 248
-0.99863, 257, 215, 320, 230
-0.998631, 257, 267, 320, 282
-0.998631, 201, 317, 264, 332
-0.998631, 33, 295, 96, 310
-0.998632, 401, 225, 464, 240
-0.998632, 401, 185, 464, 200
-0.998633, 265, 301, 328, 316
-0.998634, 113, 107, 176, 122
-0.998636, 121, 289, 184, 304
-0.998636, 361, 191, 424, 206
-0.998638, 233, 243, 296, 258
-0.998638, 249, 159, 312, 174
-0.998638, 137, 317, 200, 332
-0.998639, 201, 311, 264, 326
-0.998639, 257, 93, 320, 108
-0.99864, 209, 131, 272, 146
-0.99864, 217, 163, 280, 178
-0.99864, 161, 295, 224, 310
-0.998641, 281, 225, 344, 240
-0.998641, 73, 155, 136, 170
-0.998642, 273, 117, 336, 132
-0.998643, 201, 231, 264, 246
-0.998643, 257, 193, 320, 208
-0.998644, 409, 161, 472, 176
-0.998644, 417, 233, 480, 248
-0.998645, 377, 239, 440, 254
-0.998649, 153, 1, 184, 256
-0.99865, 99, 145, 114, 272
-0.99867, 417, 65, 448, 320
-0.998692, 91, 145, 106, 272
-0.998731, 341, 97, 372, 112
-0.99876, 429, 65, 460, 320
-0.998779, 347, 81, 362, 208
-0.9988, 71, 113, 86, 240
-0.998807, 39, 81, 54, 208
-0.998809, 335, 81, 350, 208
-0.998822, 81, 161, 96, 288
-0.998834, 33, 9, 288, 72
-0.998836, 23, 113, 38, 240
-0.998836, 325, 113, 340, 240
-0.998844, 33, 97, 48, 224
-0.998856, 45, 129, 60, 256
-0.998856, 93, 65, 124, 320
-0.99886, 61, 81, 76, 208
-0.998865, 233, 129, 248, 256
-0.99889, 49, 81, 64, 208
-0.998906, 417, 145, 432, 272
-0.998907, 141, 1, 172, 256
-0.99892, 315, 97, 330, 224
-0.99892, 173, 1, 204, 256
-0.998935, 13, 129, 28, 256
-0.998938, 125, 65, 156, 320
-0.99894, 445, 161, 460, 288
-0.998951, 373, 81, 388, 208
-0.998967, 431, 145, 446, 272
-0.99897, 91, 193, 106, 320
-0.998979, 239, 65, 254, 192
-0.99898, 401, 145, 416, 272
-0.998987, 257, 177, 272, 304
-0.998989, 373, 129, 388, 256
-0.998989, 73, 193, 88, 320
-0.998993, 303, 81, 318, 208
-0.998998, 353, 33, 368, 160
-0.999014, 55, 113, 70, 240
-0.999016, 385, 129, 400, 256
-0.999029, 7, 113, 22, 240
-0.999041, 233, 49, 248, 176
-0.999049, 341, 81, 356, 208
-0.99905, 309, 81, 324, 208
-0.999057, 225, 129, 240, 256
-0.99906, 65, 65, 96, 320
-0.999072, 239, 177, 254, 304
-0.999086, 43, 193, 58, 320
-0.999094, 251, 209, 266, 333
-0.999095, 77, 113, 92, 240
-0.999109, 33, 9, 160, 72
-0.99912, 385, 81, 400, 208
-0.99912, 395, 161, 410, 288
-0.999122, 221, 49, 236, 176
-0.999127, 119, 33, 134, 160
-0.999132, 53, 161, 68, 288
-0.999133, 33, 145, 48, 272
-0.999136, 363, 81, 378, 208
-0.99914, 379, 81, 394, 208
-0.999144, 67, 193, 82, 320
-0.999146, 9, 193, 24, 320
-0.999148, 189, 1, 220, 256
-0.999154, 469, 1, 500, 256
-0.999155, 265, 209, 280, 333
-0.999157, 83, 113, 98, 240
-0.99916, 25, 177, 40, 304
-0.99916, 61, 129, 76, 256
-0.99916, 411, 145, 426, 272
-0.999165, 147, 49, 162, 176
-0.999167, 175, 49, 190, 176
-0.999168, 351, 129, 366, 256
-0.999171, 205, 49, 220, 176
-0.999171, 165, 49, 180, 176
-0.999171, 249, 113, 264, 240
-0.999172, 91, 97, 106, 224
-0.999175, 245, 193, 260, 320
-0.999176, 425, 177, 440, 304
-0.999179, 345, 33, 360, 160
-0.999179, 271, 209, 286, 333
-0.99918, 141, 49, 156, 176
-0.999185, 227, 49, 242, 176
-0.999188, 321, 177, 336, 304
-0.999191, 181, 49, 196, 176
-0.999191, 195, 49, 210, 176
-0.999198, 383, 193, 398, 320
-0.999199, 259, 129, 274, 256
-0.999199, 379, 129, 394, 256
-0.999201, 39, 129, 54, 256
-0.999201, 155, 49, 170, 176
-0.999201, 219, 161, 234, 288
-0.999205, 1, 113, 16, 240
-0.999207, 15, 193, 30, 320
-0.99921, 315, 49, 330, 176
-0.999211, 437, 161, 452, 288
-0.999212, 135, 49, 150, 176
-0.999214, 407, 193, 422, 320
-0.999223, 391, 81, 406, 208
-0.999225, 311, 193, 326, 320
-0.999228, 129, 33, 144, 160
-0.999232, 297, 81, 312, 208
-0.999233, 323, 49, 338, 176
-0.999236, 215, 49, 230, 176
-0.999239, 265, 145, 280, 272
-0.999244, 13, 81, 28, 208
-0.999249, 101, 193, 116, 320
-0.999253, 363, 1, 378, 128
-0.999255, 271, 145, 286, 272
-0.99926, 187, 49, 202, 176
-0.999262, 339, 33, 354, 160
-0.999263, 361, 129, 376, 256
-0.999265, 3, 193, 18, 320
-0.999267, 93, 17, 124, 144
-0.999276, 85, 209, 100, 333
-0.999292, 65, 1, 128, 128
-0.999298, 287, 209, 302, 333
-0.999298, 333, 33, 348, 160
-0.9993, 241, 17, 256, 144
-0.999309, 309, 33, 324, 160
-0.999312, 351, 177, 366, 304
-0.999321, 329, 177, 344, 304
-0.999323, 97, 97, 112, 224
-0.999326, 301, 177, 316, 304
-0.999327, 107, 209, 122, 333
-0.99933, 389, 177, 404, 304
-0.99933, 453, 65, 484, 320
-0.999344, 249, 33, 264, 160
-0.999345, 371, 1, 386, 128
-0.999347, 289, 97, 304, 224
-0.999354, 243, 113, 258, 240
-0.999356, 231, 193, 246, 320
-0.99936, 309, 129, 324, 256
-0.999361, 209, 209, 224, 333
-0.999365, 413, 193, 428, 320
-0.999368, 213, 97, 228, 224
-0.999369, 377, 177, 392, 304
-0.99937, 377, 1, 392, 128
-0.999381, 277, 209, 292, 333
-0.999383, 315, 1, 330, 128
-0.999383, 365, 177, 380, 304
-0.999388, 367, 129, 382, 256
-0.999388, 277, 161, 292, 288
-0.999391, 301, 129, 316, 256
-0.999392, 401, 193, 416, 320
-0.999397, 283, 81, 298, 208
-0.999402, 271, 97, 286, 224
-0.999422, 331, 129, 346, 256
-0.999583, 413, 155, 428, 170
-0.999584, 77, 171, 92, 186
-0.999584, 49, 135, 64, 150
-0.999584, 263, 39, 278, 54
-0.999585, 145, 107, 160, 122
-0.999585, 309, 119, 324, 134
-0.999586, 271, 187, 286, 202
-0.999586, 207, 107, 222, 122
-0.999586, 427, 155, 442, 170
-0.999586, 99, 193, 114, 208
-0.999586, 121, 105, 136, 120
-0.999586, 263, 191, 278, 206
-0.999587, 51, 89, 66, 104
-0.999587, 209, 231, 224, 246
-0.999587, 425, 181, 440, 196
-0.999588, 1, 133, 16, 148
-0.999588, 223, 201, 238, 216
-0.999589, 101, 183, 116, 198
-0.999589, 81, 203, 96, 218
-0.99959, 59, 91, 74, 106
-0.99959, 345, 111, 360, 126
-0.999591, 181, 105, 196, 120
-0.999592, 235, 199, 250, 214
-0.999594, 299, 123, 314, 138
-0.999594, 49, 315, 64, 330
-0.999595, 67, 193, 82, 208
-0.999595, 71, 171, 86, 186
-0.999597, 229, 179, 244, 194
-0.999597, 259, 149, 274, 164
-0.999598, 55, 135, 70, 150
-0.999599, 211, 223, 226, 238
-0.999599, 101, 165, 116, 180
-0.999599, 33, 165, 48, 180
-0.999599, 33, 179, 48, 194
-0.999599, 89, 203, 104, 218
-0.9996, 395, 147, 410, 162
-0.9996, 435, 185, 450, 200
-0.999601, 247, 215, 262, 230
-0.999601, 241, 123, 256, 138
-0.999601, 417, 175, 432, 190
-0.999601, 267, 263, 282, 278
-0.999601, 45, 89, 60, 104
-0.999601, 77, 181, 92, 196
-0.999602, 101, 171, 116, 186
-0.999602, 301, 231, 316, 246
-0.999603, 97, 137, 112, 152
-0.999603, 405, 213, 420, 228
-0.999603, 233, 141, 248, 156
-0.999604, 441, 153, 456, 168
-0.999604, 61, 135, 76, 150
-0.999605, 75, 137, 90, 152
-0.999605, 369, 141, 384, 156
-0.999605, 107, 237, 122, 252
-0.999605, 229, 199, 244, 214
-0.999605, 93, 183, 108, 198
-0.999607, 435, 179, 450, 194
-0.999607, 99, 155, 114, 170
-0.999608, 49, 167, 64, 182
-0.999608, 215, 233, 230, 248
-0.999608, 215, 109, 230, 124
-0.99961, 99, 143, 114, 158
-0.99961, 33, 173, 48, 188
-0.999611, 55, 159, 70, 174
-0.999611, 259, 143, 274, 158
-0.999613, 435, 171, 450, 186
-0.999614, 257, 251, 272, 266
-0.999614, 145, 101, 160, 116
-0.999615, 241, 129, 256, 144
-0.999616, 229, 161, 244, 176
-0.999616, 83, 129, 98, 144
-0.999618, 397, 153, 412, 168
-0.999619, 73, 165, 88, 180
-0.999619, 295, 227, 310, 242
-0.99962, 251, 129, 266, 144
-0.999621, 323, 127, 338, 142
-0.999622, 265, 159, 280, 174
-0.999623, 313, 125, 328, 140
-0.999623, 65, 183, 80, 198
-0.999624, 363, 99, 378, 114
-0.999624, 39, 89, 54, 104
-0.999625, 259, 137, 274, 152
-0.999625, 91, 167, 106, 182
-0.999625, 119, 99, 134, 114
-0.999625, 99, 149, 114, 164
-0.999626, 257, 261, 272, 276
-0.999626, 181, 307, 196, 322
-0.999629, 219, 207, 234, 222
-0.99963, 215, 201, 230, 216
-0.99963, 433, 153, 448, 168
-0.999632, 241, 239, 256, 254
-0.999633, 101, 177, 116, 192
-0.999635, 91, 161, 106, 176
-0.999636, 401, 159, 416, 174
-0.999636, 35, 159, 50, 174
-0.999637, 225, 193, 240, 208
-0.999638, 433, 161, 448, 176
-0.999639, 173, 105, 188, 120
-0.999639, 77, 129, 92, 144
-0.99964, 31, 187, 46, 202
-0.99964, 227, 185, 242, 200
-0.99964, 355, 105, 370, 120
-0.999642, 257, 191, 272, 206
-0.999643, 335, 101, 350, 116
-0.999643, 87, 139, 102, 154
-0.999644, 43, 151, 58, 166
-0.999647, 257, 37, 272, 52
-0.999648, 223, 175, 238, 190
-0.99965, 243, 265, 258, 280
-0.999651, 79, 159, 94, 174
-0.999651, 37, 153, 52, 168
-0.999651, 233, 193, 248, 208
-0.999652, 153, 103, 168, 118
-0.999656, 345, 105, 360, 120
-0.999659, 57, 191, 72, 206
-0.999668, 223, 163, 238, 178
-0.999668, 163, 103, 178, 118
-0.99967, 139, 101, 154, 116
-0.99967, 233, 111, 248, 126
-0.999673, 251, 35, 266, 50
-0.999673, 95, 131, 110, 146
-0.999684, 43, 159, 58, 174
-0.999686, 61, 163, 76, 178
-0.99969, 357, 97, 372, 112
-0.999691, 53, 153, 68, 168
-0.999693, 81, 165, 96, 180
-0.999706, 441, 65, 472, 320
-0.999707, 87, 175, 102, 190
-0.999709, 129, 99, 144, 114
-0.999722, 189, 161, 220, 288
-0.999739, 71, 159, 86, 174
-0.999741, 351, 97, 366, 112
-0.999753, 341, 97, 356, 112
-1.00068, 21, 33, 52, 160
-1.00103, 453, 1, 484, 128
-1.0012, 121, 161, 152, 288
-1.00224, 457, 49, 488, 176
-1.00284, 453, 97, 484, 224
-1.00304, 421, 65, 452, 192
-1.00445, 113, 161, 176, 288
-1.00767, 137, 161, 200, 288
-1.00795, 1, 17, 64, 144
-1.0113, 41, 1, 104, 128
