1971
-0.352759, 1, 129, 375, 384
-0.395735, 1, 225, 375, 480
-0.428615, 1, 1, 375, 500
-0.489595, 129, 1, 375, 500
-0.51576, 1, 33, 375, 288
-0.564222, 65, 129, 320, 384
-0.581279, 1, 1, 256, 500
-0.652309, 65, 257, 320, 500
-0.796139, 129, 33, 375, 288
-0.819422, 33, 33, 288, 288
-0.85727, 49, 193, 176, 448
-0.861522, 241, 1, 368, 500
-0.862304, 241, 65, 368, 320
-0.862921, 97, 193, 224, 448
-0.865704, 177, 129, 304, 384
-0.871343, 1, 257, 375, 384
-0.875203, 1, 161, 375, 288
-0.880989, 241, 161, 368, 416
-0.882623, 193, 1, 320, 500
-0.88611, 1, 193, 128, 448
-0.899392, 145, 225, 272, 480
-0.899998, 1, 209, 375, 336
-0.904071, 1, 113, 375, 240
-0.905196, 49, 1, 176, 500
-0.909176, 129, 97, 256, 352
-0.90986, 209, 257, 336, 500
-0.912767, 33, 97, 160, 352
-0.913343, 1, 369, 375, 496
-0.91515, 97, 161, 352, 288
-0.915202, 81, 97, 208, 352
-0.917251, 145, 1, 272, 500
-0.917313, 65, 225, 320, 352
-0.924655, 97, 1, 224, 500
-0.925801, 1, 305, 375, 432
-0.927015, 161, 1, 288, 256
-0.927799, 1, 1, 128, 500
-0.928625, 65, 369, 320, 496
-0.92906, 241, 81, 368, 208
-0.931879, 1, 273, 256, 400
-0.933485, 1, 49, 375, 176
-0.935363, 17, 273, 144, 400
-0.936657, 129, 113, 375, 240
-0.936743, 129, 273, 375, 400
-0.9397, 113, 177, 240, 304
-0.940244, 17, 257, 80, 384
-0.943102, 1, 177, 256, 304
-0.944309, 209, 177, 336, 304
-0.945686, 33, 225, 160, 352
-0.945789, 49, 1, 176, 256
-0.946789, 217, 129, 280, 256
-0.947441, 9, 273, 72, 336
-0.948473, 1, 321, 128, 448
-0.94848, 97, 241, 224, 368
-0.949498, 41, 257, 104, 384
-0.949542, 89, 145, 152, 272
-0.950038, 177, 129, 304, 256
-0.951601, 65, 321, 320, 448
-0.953221, 81, 289, 208, 416
-0.95378, 153, 161, 216, 288
-0.954312, 81, 369, 208, 496
-0.95438, 225, 369, 352, 496
-0.954642, 9, 297, 72, 360
-0.954821, 185, 225, 248, 352
-0.955796, 297, 81, 360, 208
-0.956144, 121, 177, 184, 304
-0.956219, 233, 425, 296, 488
-0.956405, 193, 161, 256, 288
-0.956911, 241, 241, 368, 368
-0.956967, 65, 129, 192, 256
-0.957541, 89, 273, 152, 400
-0.957937, 73, 225, 136, 352
-0.958594, 97, 1, 224, 256
-0.958674, 33, 305, 96, 432
-0.958846, 161, 225, 288, 352
-0.959188, 185, 225, 248, 288
-0.959823, 33, 113, 288, 240
-0.960053, 1, 305, 64, 432
-0.960319, 249, 97, 312, 224
-0.961045, 97, 321, 160, 448
-0.961441, 129, 65, 375, 192
-0.962451, 297, 241, 360, 368
-0.962659, 41, 297, 104, 360
-0.962939, 209, 225, 272, 352
-0.963185, 217, 401, 280, 464
-0.963341, 17, 161, 144, 288
-0.963517, 113, 257, 176, 384
-0.964115, 129, 353, 256, 480
-0.964679, 81, 225, 144, 288
-0.964872, 1, 1, 375, 128
-0.964982, 305, 249, 368, 312
-0.965696, 209, 145, 272, 208
-0.966147, 81, 161, 144, 224
-0.966517, 65, 289, 128, 416
-0.966716, 241, 289, 368, 416
-0.966743, 1, 297, 32, 360
-0.967035, 209, 369, 272, 496
-0.967077, 233, 369, 296, 496
-0.967258, 65, 177, 192, 304
-0.967315, 1, 1, 128, 256
-0.967352, 161, 209, 224, 336
-0.967582, 193, 417, 256, 480
-0.968361, 113, 209, 176, 272
-0.968454, 1, 297, 128, 360
-0.968906, 249, 161, 312, 288
-0.969362, 225, 129, 352, 256
-0.969592, 193, 249, 256, 312
-0.969629, 305, 289, 368, 416
-0.969864, 53, 297, 84, 360
-0.96987, 105, 257, 168, 320
-0.969943, 33, 265, 96, 328
-0.970122, 41, 313, 72, 376
-0.970268, 273, 81, 336, 208
-0.97042, 65, 297, 128, 360
-0.970423, 25, 321, 88, 384
-0.970518, 57, 265, 120, 328
-0.970578, 217, 129, 280, 384
-0.970653, 45, 257, 76, 320
-0.97087, 305, 129, 368, 256
-0.971245, 105, 281, 168, 344
-0.971253, 305, 193, 368, 320
-0.971556, 97, 209, 160, 336
-0.97163, 1, 273, 32, 336
-0.971641, 1, 321, 64, 384
-0.971765, 305, 97, 368, 160
-0.972309, 89, 305, 152, 368
-0.972367, 233, 137, 296, 200
-0.972566, 209, 225, 272, 288
-0.972567, 33, 273, 64, 400
-0.972933, 49, 321, 112, 384
-0.973146, 57, 193, 120, 448
-0.97335, 89, 369, 152, 496
-0.97354, 185, 161, 248, 224
-0.973948, 33, 65, 288, 192
-0.974033, 185, 353, 248, 480
-0.974253, 145, 273, 272, 400
-0.97426, 281, 177, 344, 304
-0.9743, 177, 337, 304, 464
-0.974708, 129, 177, 192, 240
-0.974722, 113, 225, 240, 288
-0.974917, 17, 305, 48, 368
-0.974943, 89, 369, 152, 432
-0.974994, 29, 289, 60, 352
-0.975084, 193, 81, 320, 208
-0.97527, 57, 177, 120, 304
-0.975318, 89, 393, 152, 456
-0.975318, 1, 329, 128, 392
-0.975531, 313, 337, 375, 464
-0.975596, 121, 305, 184, 432
-0.975679, 161, 177, 288, 304
-0.975687, 305, 225, 368, 288
-0.975835, 1, 249, 64, 312
-0.975859, 201, 225, 232, 288
-0.975865, 49, 265, 176, 328
-0.975916, 49, 257, 80, 384
-0.976116, 205, 161, 236, 288
-0.976131, 97, 249, 224, 312
-0.976186, 49, 289, 176, 352
-0.976307, 193, 129, 256, 384
-0.976352, 273, 433, 336, 496
-0.97655, 21, 273, 52, 400
-0.976806, 201, 377, 264, 440
-0.976884, 241, 417, 272, 480
-0.976946, 161, 161, 288, 224
-0.977101, 129, 233, 192, 296
-0.977158, 113, 193, 176, 448
-0.977191, 89, 225, 152, 480
-0.97725, 209, 417, 336, 480
-0.977252, 209, 217, 336, 280
-0.977259, 233, 145, 264, 208
-0.97732, 113, 369, 176, 496
-0.977339, 297, 161, 360, 224
-0.977382, 249, 169, 312, 232
-0.977513, 117, 209, 148, 336
-0.977628, 297, 65, 360, 320
-0.977636, 153, 169, 216, 232
-0.977755, 233, 145, 264, 272
-0.977779, 197, 209, 228, 336
-0.977884, 241, 105, 368, 168
-0.977931, 257, 65, 320, 320
-0.97799, 89, 185, 152, 248
-0.978159, 1, 273, 128, 336
-0.978188, 225, 129, 352, 192
-0.978252, 257, 433, 288, 496
-0.978507, 97, 225, 128, 352
-0.978531, 5, 305, 36, 432
-0.978575, 97, 201, 224, 264
-0.978699, 305, 73, 368, 136
-0.978699, 265, 89, 328, 152
-0.978705, 1, 257, 32, 384
-0.978789, 281, 233, 344, 296
-0.978946, 161, 225, 224, 288
-0.978965, 213, 225, 244, 288
-0.979044, 193, 273, 256, 400
-0.979072, 241, 401, 304, 464
-0.979079, 41, 289, 72, 352
-0.979157, 169, 385, 232, 448
-0.979266, 5, 321, 36, 384
-0.979336, 225, 177, 288, 304
-0.979501, 129, 113, 256, 240
-0.979763, 305, 313, 368, 376
-0.979857, 161, 433, 288, 496
-0.979884, 97, 289, 128, 416
-0.9799, 161, 241, 288, 304
-0.979919, 193, 161, 224, 288
-0.980056, 281, 185, 344, 248
-0.980096, 89, 345, 152, 408
-0.98014, 33, 241, 160, 304
-0.98018, 217, 433, 248, 496
-0.980248, 209, 193, 336, 256
-0.980341, 325, 81, 356, 208
-0.98035, 209, 241, 336, 304
-0.980378, 169, 249, 232, 312
-0.980397, 65, 161, 192, 224
-0.980524, 113, 385, 176, 448
-0.980725, 241, 33, 368, 160
-0.980764, 93, 297, 124, 360
-0.98087, 29, 313, 60, 376
-0.980915, 333, 241, 364, 304
-0.980978, 273, 209, 336, 272
-0.981208, 193, 289, 320, 416
-0.981234, 89, 129, 152, 384
-0.981248, 33, 369, 160, 496
-0.981252, 221, 145, 252, 272
-0.981255, 273, 241, 336, 368
-0.981407, 49, 313, 176, 376
-0.981474, 137, 161, 200, 416
-0.981488, 161, 129, 224, 384
-0.981519, 41, 177, 104, 240
-0.981524, 193, 393, 320, 456
-0.981561, 25, 265, 56, 328
-0.981617, 257, 145, 320, 208
-0.981629, 281, 129, 344, 256
-0.981652, 237, 369, 268, 496
-0.981671, 81, 377, 208, 440
-0.981769, 169, 273, 232, 400
-0.981797, 257, 369, 320, 496
-0.981808, 233, 289, 296, 416
-0.981841, 73, 137, 136, 200
-0.981902, 1, 209, 64, 336
-0.981954, 233, 113, 296, 176
-0.981976, 209, 321, 272, 448
-0.982007, 297, 137, 360, 200
-0.982021, 177, 225, 240, 480
-0.982034, 17, 257, 80, 500
-0.982112, 193, 113, 256, 240
-0.982189, 101, 161, 132, 288
-0.982231, 109, 217, 140, 280
-0.982252, 313, 337, 375, 400
-0.982267, 209, 409, 240, 472
-0.982384, 213, 209, 244, 336
-0.982384, 97, 273, 224, 336
-0.982385, 121, 249, 152, 312
-0.982455, 225, 249, 288, 312
-0.982487, 313, 257, 375, 500
-0.98249, 253, 97, 284, 224
-0.982508, 185, 137, 248, 200
-0.98251, 13, 273, 44, 336
-0.982596, 121, 209, 152, 272
-0.982602, 101, 369, 132, 432
-0.982655, 129, 409, 256, 472
-0.982729, 241, 81, 368, 144
-0.982759, 113, 305, 176, 368
-0.982764, 325, 241, 356, 368
-0.982832, 33, 217, 160, 280
-0.982863, 81, 249, 144, 312
-0.982879, 161, 353, 224, 480
-0.98302, 201, 225, 264, 480
-0.983091, 329, 81, 360, 144
-0.983098, 17, 329, 48, 392
-0.983142, 133, 177, 164, 304
-0.98317, 297, 273, 360, 336
-0.983294, 217, 169, 280, 232
-0.98337, 121, 361, 184, 424
-0.983448, 177, 161, 208, 288
-0.983476, 65, 201, 128, 264
-0.983481, 241, 313, 368, 376
-0.983556, 297, 161, 360, 416
-0.983634, 81, 345, 208, 408
-0.983661, 189, 225, 220, 288
-0.983692, 81, 273, 144, 336
-0.983792, 109, 241, 140, 304
-0.983796, 89, 145, 120, 272
-0.984067, 117, 257, 148, 384
-0.984137, 297, 433, 360, 496
-0.984146, 273, 409, 336, 472
-0.98419, 129, 17, 375, 144
-0.984267, 137, 225, 200, 352
-0.984287, 245, 137, 276, 200
-0.984288, 297, 33, 360, 160
-0.984332, 221, 409, 252, 472
-0.984344, 153, 201, 216, 264
-0.984375, 129, 377, 256, 440
-0.984395, 297, 1, 360, 500
-0.984437, 249, 377, 312, 440
-0.98448, 213, 161, 244, 224
-0.984502, 105, 161, 168, 224
-0.98455, 225, 233, 256, 296
-0.984628, 177, 137, 304, 200
-0.984672, 65, 361, 128, 424
-0.984797, 225, 81, 288, 208
-0.984953, 281, 369, 344, 496
-0.985115, 113, 169, 240, 232
-0.985154, 241, 265, 368, 328
-0.985177, 145, 305, 208, 432
-0.985252, 225, 377, 288, 440
-0.985377, 233, 225, 296, 352
-0.985404, 241, 393, 368, 456
-0.985456, 185, 209, 216, 336
-0.985494, 105, 233, 168, 296
-0.985497, 193, 353, 256, 416
-0.985543, 65, 113, 128, 240
-0.9856, 233, 393, 264, 456
-0.985604, 137, 353, 200, 480
-0.985621, 333, 289, 364, 416
-0.985646, 101, 337, 132, 464
-0.985675, 273, 1, 336, 500
-0.985853, 209, 161, 336, 224
-0.985897, 81, 433, 144, 496
-0.985943, 65, 297, 96, 360
-0.986042, 113, 129, 176, 256
-0.986127, 213, 249, 244, 312
-0.986137, 1, 97, 128, 224
-0.986166, 113, 281, 144, 344
-0.986278, 65, 337, 128, 464
-0.986511, 249, 1, 312, 500
-0.986583, 129, 257, 192, 320
-0.986644, 137, 113, 200, 240
-0.986661, 85, 161, 116, 224
-0.986696, 161, 217, 288, 280
-0.986714, 57, 273, 88, 336
-0.98673, 213, 369, 244, 496
-0.986796, 273, 33, 336, 160
-0.986843, 169, 409, 232, 472
-0.987058, 241, 337, 368, 400
-0.987101, 133, 185, 164, 248
-0.987146, 121, 145, 152, 272
-0.987158, 233, 225, 296, 288
-0.987175, 97, 305, 224, 368
-0.987194, 317, 225, 348, 288
-0.987401, 205, 257, 236, 384
-0.987418, 153, 161, 184, 288
-0.987428, 325, 161, 356, 288
-0.98745, 253, 161, 284, 288
-0.987465, 129, 353, 256, 416
-0.987582, 57, 321, 88, 384
-0.987623, 329, 105, 360, 168
-0.987741, 85, 289, 116, 416
-0.987745, 197, 249, 228, 312
-0.98781, 145, 377, 208, 440
-0.987869, 77, 145, 108, 272
-0.987877, 345, 257, 375, 384
-0.987883, 193, 201, 256, 264
-0.987885, 161, 273, 224, 336
-0.987925, 269, 433, 300, 496
-0.987931, 45, 305, 76, 432
-0.987937, 241, 161, 304, 416
-0.987943, 177, 361, 304, 424
-0.987959, 81, 401, 208, 464
-0.987986, 57, 97, 120, 352
-0.988004, 217, 201, 280, 264
-0.988008, 225, 209, 256, 336
-0.988013, 101, 393, 132, 456
-0.988056, 221, 137, 252, 200
-0.988091, 313, 201, 375, 264
-0.988112, 113, 321, 144, 448
-0.988122, 57, 225, 120, 288
-0.988179, 85, 209, 116, 336
-0.988211, 113, 337, 176, 400
-0.988218, 225, 257, 288, 500
-0.988264, 145, 265, 272, 328
-0.988265, 101, 329, 132, 392
-0.988309, 257, 169, 288, 232
-0.988315, 257, 121, 288, 184
-0.988327, 221, 385, 252, 448
-0.988362, 97, 225, 128, 288
-0.988462, 49, 193, 176, 256
-0.988464, 281, 321, 344, 448
-0.988566, 193, 161, 224, 224
-0.98863, 97, 137, 224, 200
-0.988666, 113, 433, 240, 496
-0.98871, 1, 281, 64, 312
-0.988778, 33, 361, 160, 424
-0.98882, 165, 161, 196, 288
-0.98889, 265, 161, 328, 416
-0.988922, 265, 81, 296, 208
-0.988944, 253, 409, 284, 472
-0.989042, 113, 161, 144, 224
-0.98905, 233, 353, 296, 416
-0.989055, 65, 81, 192, 208
-0.989056, 225, 1, 288, 500
-0.989063, 233, 449, 296, 480
-0.989068, 25, 269, 88, 300
-0.989089, 313, 193, 344, 320
-0.989114, 241, 461, 304, 492
-0.989117, 241, 289, 368, 352
-0.989154, 185, 249, 216, 312
-0.989204, 173, 169, 204, 232
-0.989215, 1, 345, 64, 408
-0.989254, 169, 353, 232, 416
-0.989277, 209, 121, 272, 184
-0.989336, 17, 333, 80, 364
-0.98936, 9, 293, 72, 324
-0.989401, 17, 313, 80, 344
-0.98941, 345, 337, 375, 464
-0.989421, 233, 33, 296, 288
-0.989449, 57, 305, 88, 432
-0.989449, 9, 1, 72, 500
-0.989499, 41, 301, 104, 332
-0.989521, 193, 257, 224, 384
-0.989542, 137, 297, 200, 360
-0.989606, 313, 393, 375, 456
-0.989623, 69, 177, 100, 240
-0.989661, 97, 249, 352, 312
-0.989691, 229, 433, 260, 496
-0.98973, 153, 177, 184, 240
-0.989753, 233, 81, 264, 208
-0.989915, 281, 169, 312, 232
-0.98996, 193, 233, 256, 264
-0.989971, 25, 281, 88, 312
-0.989982, 169, 113, 232, 240
-0.990003, 65, 433, 320, 496
-0.990006, 73, 321, 104, 384
-0.990015, 217, 425, 280, 456
-0.990049, 113, 337, 144, 400
-0.990121, 257, 369, 288, 496
-0.990173, 57, 321, 120, 352
-0.990185, 201, 273, 264, 336
-0.990225, 225, 437, 288, 468
-0.99026, 281, 433, 312, 496
-0.990296, 313, 65, 344, 192
-0.99032, 209, 157, 272, 188
-0.990322, 41, 333, 104, 364
-0.990356, 277, 81, 308, 208
-0.990358, 185, 245, 248, 276
-0.990393, 317, 257, 348, 320
-0.990456, 145, 345, 208, 408
-0.990468, 305, 193, 336, 256
-0.990478, 193, 201, 224, 264
-0.990532, 73, 165, 136, 196
-0.990563, 269, 369, 300, 496
-0.990571, 57, 289, 120, 320
-0.990588, 97, 201, 128, 264
-0.990595, 105, 221, 168, 252
-0.990606, 65, 425, 192, 488
-0.990617, 257, 113, 320, 176
-0.990621, 225, 369, 352, 432
-0.990683, 301, 193, 332, 320
-0.990688, 17, 161, 80, 416
-0.990705, 1, 269, 64, 300
-0.990724, 185, 33, 248, 288
-0.990733, 245, 161, 276, 224
-0.990776, 105, 297, 168, 328
-0.990779, 185, 261, 248, 292
-0.990781, 81, 201, 112, 264
-0.990843, 209, 137, 240, 200
-0.990846, 337, 113, 368, 240
-0.990879, 65, 169, 320, 232
-0.990894, 313, 253, 375, 284
-0.990902, 273, 257, 336, 320
-0.990911, 89, 353, 120, 416
-0.990925, 201, 353, 232, 480
-0.99094, 89, 205, 152, 236
-0.990945, 13, 225, 44, 352
-0.990958, 17, 169, 144, 232
-0.990971, 241, 145, 304, 176
-0.990986, 1, 193, 128, 256
-0.99101, 281, 305, 344, 368
-0.991027, 105, 285, 168, 316
-0.99103, 193, 33, 320, 160
-0.991034, 313, 241, 344, 368
-0.991053, 217, 169, 280, 200
-0.99106, 289, 337, 352, 400
-0.991073, 305, 233, 336, 296
-0.991075, 81, 329, 144, 360
-0.991079, 245, 385, 276, 448
-0.991088, 41, 129, 104, 256
-0.991109, 1, 257, 256, 320
-0.991111, 1, 169, 375, 232
-0.991114, 113, 305, 144, 368
-0.991117, 145, 65, 272, 192
-0.99116, 305, 129, 336, 256
-0.991171, 281, 65, 344, 128
-0.991195, 193, 441, 256, 472
-0.991197, 17, 433, 144, 496
-0.991219, 225, 353, 256, 480
-0.991235, 169, 329, 232, 392
-0.991253, 237, 225, 268, 288
-0.991256, 129, 241, 160, 368
-0.991278, 1, 297, 375, 360
-0.991292, 257, 181, 320, 212
-0.991296, 205, 201, 236, 264
-0.991297, 81, 305, 144, 336
-0.991303, 257, 437, 320, 468
-0.991304, 273, 469, 336, 500
-0.991306, 185, 169, 248, 200
-0.991308, 81, 241, 144, 272
-0.991315, 209, 453, 272, 484
-0.991339, 289, 161, 320, 288
-0.991343, 113, 233, 176, 264
-0.991383, 305, 97, 368, 128
-0.991397, 97, 361, 160, 392
-0.991399, 273, 449, 336, 480
-0.991402, 177, 1, 240, 500
-0.991404, 65, 393, 320, 456
-0.991419, 105, 385, 168, 416
-0.991436, 257, 165, 320, 196
-0.991473, 113, 377, 144, 440
-0.991481, 97, 33, 160, 288
-0.991499, 113, 417, 176, 480
-0.991511, 1, 249, 32, 312
-0.991554, 345, 281, 375, 344
-0.991559, 81, 229, 144, 260
-0.99156, 233, 157, 296, 188
-0.991566, 261, 97, 292, 160
-0.991572, 225, 241, 288, 272
-0.991599, 89, 393, 120, 456
-0.991604, 297, 81, 328, 208
-0.991609, 153, 241, 216, 272
-0.991609, 321, 129, 352, 192
-0.991616, 337, 145, 368, 208
-0.991618, 81, 317, 144, 348
-0.991625, 209, 253, 272, 284
-0.991664, 89, 253, 152, 284
-0.991683, 209, 413, 272, 444
-0.991688, 89, 397, 152, 428
-0.991707, 189, 377, 220, 440
-0.991708, 305, 277, 368, 308
-0.991741, 305, 265, 368, 296
-0.991746, 113, 209, 176, 240
-0.991775, 289, 173, 352, 204
-0.991776, 1, 257, 64, 288
-0.991782, 129, 249, 192, 280
-0.991795, 81, 193, 144, 224
-0.991799, 161, 253, 224, 284
-0.991807, 313, 341, 375, 372
-0.991809, 129, 377, 192, 408
-0.991812, 193, 425, 256, 456
-0.991819, 73, 217, 136, 248
-0.991822, 121, 273, 184, 304
-0.991835, 297, 81, 360, 112
-0.991838, 81, 377, 144, 408
-0.991843, 193, 281, 320, 344
-0.991863, 305, 233, 368, 264
-0.991866, 209, 393, 272, 424
-0.991874, 233, 121, 264, 184
-0.991893, 153, 177, 216, 208
-0.991931, 169, 229, 232, 260
-0.991942, 289, 197, 352, 228
-0.991954, 329, 297, 360, 360
-0.991968, 105, 321, 168, 352
-0.991971, 249, 133, 312, 164
-0.991987, 321, 169, 352, 232
-0.992021, 89, 265, 152, 296
-0.992024, 161, 145, 224, 208
-0.992048, 1, 297, 256, 360
-0.992049, 33, 153, 96, 216
-0.992057, 273, 221, 336, 252
-0.992079, 89, 409, 152, 440
-0.992086, 121, 197, 184, 228
-0.992099, 73, 277, 136, 308
-0.9921, 217, 145, 280, 176
-0.992104, 273, 245, 336, 276
-0.992104, 305, 141, 368, 172
-0.992112, 97, 1, 160, 500
-0.992114, 305, 113, 368, 144
-0.992119, 81, 337, 112, 464
-0.99212, 273, 377, 336, 440
-0.992121, 129, 273, 160, 336
-0.99213, 97, 225, 352, 288
-0.992147, 113, 261, 176, 292
-0.992149, 137, 1, 200, 500
-0.992151, 221, 97, 252, 224
-0.992177, 257, 425, 320, 456
-0.992198, 125, 321, 156, 448
-0.992203, 169, 425, 232, 456
-0.992212, 217, 469, 280, 500
-0.992216, 297, 461, 360, 492
-0.99223, 237, 241, 268, 368
-0.992239, 233, 409, 296, 440
-0.992245, 41, 177, 104, 208
-0.992257, 273, 93, 336, 124
-0.992258, 117, 369, 148, 496
-0.992262, 89, 341, 152, 372
-0.992275, 21, 333, 52, 364
-0.992277, 277, 129, 308, 256
-0.992285, 185, 413, 248, 444
-0.992286, 53, 317, 84, 348
-0.992296, 121, 137, 184, 200
-0.992302, 65, 365, 128, 396
-0.992302, 1, 297, 32, 328
-0.992308, 49, 269, 112, 300
-0.992316, 1, 345, 64, 376
-0.992329, 21, 321, 52, 448
-0.99233, 37, 313, 68, 344
-0.992331, 217, 229, 280, 260
-0.992335, 105, 309, 168, 340
-0.992338, 33, 393, 160, 456
-0.992338, 193, 381, 256, 412
-0.992346, 305, 289, 368, 320
-0.99235, 249, 445, 280, 476
-0.992362, 89, 421, 152, 452
-0.992369, 41, 269, 72, 300
-0.992373, 241, 193, 304, 256
-0.992384, 129, 185, 192, 216
-0.99239, 129, 389, 192, 420
-0.992406, 225, 133, 288, 164
-0.992409, 41, 329, 72, 360
-0.992411, 297, 185, 360, 216
-0.992416, 297, 305, 360, 336
-0.992419, 53, 301, 84, 332
-0.992429, 305, 329, 368, 360
-0.99245, 5, 313, 36, 344
-0.992451, 185, 153, 248, 184
-0.992454, 297, 153, 360, 184
-0.992458, 233, 377, 296, 408
-0.992459, 33, 293, 64, 324
-0.992463, 61, 153, 92, 216
-0.992481, 305, 129, 368, 160
-0.992488, 125, 161, 156, 224
-0.992528, 257, 193, 320, 224
-0.992531, 1, 269, 32, 300
-0.992533, 1, 273, 375, 336
-0.992541, 5, 329, 36, 360
-0.992562, 105, 177, 168, 208
-0.992592, 193, 221, 256, 252
-0.992593, 257, 385, 288, 448
-0.992599, 261, 461, 292, 492
-0.992603, 49, 285, 80, 316
-0.992608, 281, 209, 344, 240
-0.99262, 209, 265, 272, 296
-0.992637, 161, 409, 224, 440
-0.99264, 161, 381, 224, 412
-0.992663, 233, 393, 296, 424
-0.992688, 89, 97, 152, 224
-0.992691, 1, 285, 32, 316
-0.992692, 25, 345, 88, 376
-0.992695, 221, 445, 252, 476
-0.992702, 29, 337, 60, 400
-0.992704, 13, 277, 44, 308
-0.992704, 241, 457, 272, 488
-0.992717, 97, 137, 128, 200
-0.992718, 249, 121, 312, 152
-0.992718, 233, 157, 264, 188
-0.992722, 73, 181, 136, 212
-0.992723, 265, 105, 328, 136
-0.992726, 233, 253, 296, 284
-0.992739, 257, 377, 320, 408
-0.992744, 81, 453, 144, 484
-0.992752, 57, 345, 120, 376
-0.992754, 329, 33, 360, 160
-0.992754, 261, 449, 292, 480
-0.992754, 9, 341, 40, 372
-0.992755, 49, 201, 112, 232
-0.992764, 49, 137, 176, 200
-0.992769, 241, 433, 272, 464
-0.99277, 73, 153, 136, 184
-0.992784, 49, 213, 112, 244
-0.992788, 297, 317, 360, 348
-0.992798, 53, 269, 84, 300
-0.992805, 197, 409, 228, 472
-0.992813, 261, 145, 292, 208
-0.992815, 177, 225, 208, 288
-0.992826, 13, 297, 28, 360
-0.992828, 57, 1, 120, 500
-0.992835, 189, 353, 220, 480
-0.992842, 337, 253, 368, 284
-0.992845, 105, 241, 136, 272
-0.992848, 21, 321, 52, 352
-0.992849, 201, 245, 232, 276
-0.992852, 29, 269, 60, 300
-0.99286, 21, 293, 52, 324
-0.99286, 217, 237, 248, 268
-0.992865, 261, 433, 292, 464
-0.992868, 33, 281, 64, 312
-0.992882, 205, 233, 236, 264
-0.992883, 277, 469, 308, 500
-0.992887, 65, 321, 96, 352
-0.992889, 117, 285, 148, 316
-0.992898, 217, 253, 248, 284
-0.992924, 221, 161, 252, 192
-0.992929, 25, 309, 56, 340
-0.99294, 53, 329, 84, 360
-0.992946, 145, 113, 272, 176
-0.992967, 85, 329, 116, 392
-0.992967, 241, 145, 272, 176
-0.992972, 3, 273, 18, 336
-0.992973, 89, 317, 120, 348
-0.992977, 101, 213, 132, 244
-0.992977, 117, 217, 148, 248
-0.992994, 9, 273, 24, 336
-0.992998, 309, 169, 340, 232
-0.993001, 109, 297, 140, 328
-0.993004, 217, 417, 248, 448
-0.99301, 105, 225, 136, 256
-0.993011, 329, 93, 360, 124
-0.993011, 97, 305, 128, 336
-0.993013, 1, 193, 375, 256
-0.993025, 209, 433, 240, 464
-0.993032, 117, 261, 148, 292
-0.993041, 201, 1, 264, 500
-0.993041, 97, 273, 352, 336
-0.993044, 97, 137, 160, 200
-0.993048, 273, 457, 304, 488
-0.993052, 273, 89, 304, 152
-0.993057, 185, 257, 216, 288
-0.993062, 105, 333, 136, 364
-0.993064, 41, 341, 72, 372
-0.993073, 117, 385, 148, 416
-0.993079, 193, 233, 224, 264
-0.99308, 209, 165, 240, 196
-0.993084, 257, 233, 320, 296
-0.993095, 245, 469, 276, 500
-0.993101, 249, 169, 280, 200
-0.993103, 1, 297, 16, 360
-0.993104, 77, 165, 108, 196
-0.993115, 121, 205, 152, 236
-0.993121, 265, 161, 296, 288
-0.993147, 113, 169, 144, 200
-0.993148, 229, 241, 260, 272
-0.993148, 161, 329, 288, 392
-0.993153, 101, 273, 132, 336
-0.993154, 237, 445, 268, 476
-0.993162, 93, 229, 124, 260
-0.993173, 253, 133, 284, 164
-0.993176, 25, 241, 88, 304
-0.993177, 189, 245, 220, 276
-0.993179, 121, 273, 152, 304
-0.993183, 105, 381, 136, 412
-0.993188, 17, 265, 48, 296
-0.993189, 325, 81, 356, 112
-0.993191, 133, 201, 164, 232
-0.993201, 225, 457, 256, 488
-0.993204, 65, 145, 320, 208
-0.993205, 293, 169, 324, 232
-0.99321, 229, 425, 260, 456
-0.993215, 273, 437, 304, 468
-0.993222, 53, 341, 84, 372
-0.993223, 193, 169, 224, 200
-0.993233, 217, 149, 248, 180
-0.993236, 61, 177, 92, 208
-0.993241, 117, 229, 148, 260
-0.993242, 201, 257, 232, 288
-0.993244, 101, 397, 132, 428
-0.993244, 65, 165, 96, 196
-0.993249, 97, 365, 128, 396
-0.993261, 281, 181, 312, 212
-0.993271, 109, 321, 140, 352
-0.993276, 261, 181, 292, 212
-0.993277, 93, 333, 124, 364
-0.99328, 1, 333, 128, 364
-0.993281, 317, 237, 348, 268
-0.993296, 205, 417, 236, 448
-0.993299, 177, 361, 208, 424
-0.993304, 69, 333, 100, 364
-0.993311, 289, 469, 320, 500
-0.993314, 25, 349, 56, 380
-0.993315, 65, 201, 320, 264
-0.993318, 49, 257, 80, 288
-0.993322, 301, 221, 332, 252
-0.993323, 273, 145, 304, 208
-0.993326, 317, 261, 348, 292
-0.99333, 105, 277, 136, 308
-0.993339, 69, 305, 100, 336
-0.99334, 89, 345, 120, 376
-0.993341, 137, 377, 168, 408
-0.993345, 237, 389, 268, 420
-0.993349, 161, 177, 192, 208
-0.99335, 333, 265, 364, 296
-0.993355, 73, 205, 104, 236
-0.993356, 73, 257, 104, 384
-0.993358, 133, 265, 164, 296
-0.99336, 121, 249, 152, 280
-0.993361, 197, 221, 228, 252
-0.993366, 333, 341, 364, 372
-0.993366, 261, 161, 292, 192
-0.993371, 117, 373, 148, 404
-0.993372, 105, 253, 136, 284
-0.993374, 85, 365, 116, 396
-0.993375, 213, 221, 244, 252
-0.993375, 129, 389, 160, 420
-0.993377, 249, 421, 280, 452
-0.993379, 257, 121, 288, 152
-0.993382, 269, 185, 300, 248
-0.993386, 309, 197, 340, 228
-0.993389, 333, 109, 364, 140
-0.993391, 329, 129, 360, 160
-0.993392, 125, 181, 156, 212
-0.993394, 181, 233, 212, 264
-0.993395, 229, 133, 260, 164
-0.993396, 101, 353, 132, 384
-0.993397, 233, 253, 264, 284
-0.993404, 277, 169, 308, 200
-0.993405, 101, 165, 132, 196
-0.993407, 205, 153, 236, 184
-0.993417, 17, 301, 144, 332
-0.993418, 181, 173, 212, 204
-0.993426, 145, 289, 272, 352
-0.993428, 285, 457, 316, 488
-0.993438, 1, 233, 256, 296
-0.993548, 209, 97, 272, 160
-0.993548, 1, 225, 375, 288
-0.99359, 1, 321, 256, 384
-0.993632, 217, 257, 248, 384
-0.993634, 329, 265, 360, 328
-0.993637, 193, 105, 320, 168
-0.99364, 81, 97, 112, 224
-0.993658, 269, 401, 300, 464
-0.993737, 1, 145, 375, 208
-0.993746, 225, 257, 256, 320
-0.993747, 17, 285, 144, 316
-0.993752, 265, 353, 328, 416
-0.993759, 97, 249, 224, 280
-0.993765, 93, 417, 124, 480
-0.993771, 137, 289, 168, 416
-0.993799, 225, 209, 256, 272
-0.9938, 97, 225, 224, 256
-0.993809, 69, 273, 100, 336
-0.993835, 133, 249, 164, 312
-0.993844, 209, 33, 272, 288
-0.993903, 65, 345, 320, 408
-0.993909, 321, 201, 352, 264
-0.993919, 55, 297, 70, 360
-0.993937, 25, 225, 56, 352
-0.993973, 13, 249, 44, 312
-0.993976, 65, 289, 80, 352
-0.993984, 293, 433, 324, 496
-0.993993, 137, 65, 200, 320
-0.994022, 19, 305, 34, 368
-0.994026, 329, 321, 360, 384
-0.994076, 65, 369, 320, 432
-0.994159, 7, 297, 22, 360
-0.994191, 309, 433, 340, 496
-0.994205, 333, 337, 364, 464
-0.994221, 45, 305, 60, 368
-0.994228, 109, 193, 140, 256
-0.994244, 225, 273, 288, 336
-0.994305, 313, 369, 375, 432
-0.994305, 61, 257, 92, 384
-0.99434, 33, 261, 160, 292
-0.994342, 129, 305, 375, 368
-0.994345, 1, 321, 375, 384
-0.994397, 1, 321, 128, 352
-0.99445, 213, 321, 244, 448
-0.994468, 97, 237, 224, 268
-0.994476, 265, 281, 328, 344
-0.994478, 65, 177, 96, 304
-0.994491, 209, 245, 336, 276
-0.994496, 209, 445, 336, 476
-0.9945, 73, 153, 104, 216
-0.994512, 37, 265, 52, 328
-0.994531, 209, 385, 240, 448
-0.99455, 35, 313, 50, 376
-0.994564, 27, 289, 42, 352
-0.994582, 33, 273, 160, 304
-0.994632, 205, 113, 236, 240
-0.994643, 173, 257, 204, 320
-0.994658, 241, 89, 304, 152
-0.994664, 337, 161, 368, 288
-0.994665, 193, 297, 256, 360
-0.994726, 61, 265, 76, 328
-0.994762, 129, 369, 160, 496
-0.994782, 259, 433, 274, 496
-0.994798, 215, 225, 230, 288
-0.994807, 245, 113, 276, 176
-0.99481, 33, 1, 96, 500
-0.994811, 341, 305, 372, 368
-0.994837, 1, 249, 375, 312
-0.994868, 161, 169, 288, 200
-0.994874, 1, 433, 375, 496
-0.994919, 345, 121, 375, 184
-0.994921, 313, 89, 344, 152
-0.994934, 121, 217, 136, 280
-0.994938, 341, 337, 372, 400
-0.995001, 209, 329, 272, 392
-0.995066, 1, 121, 128, 184
-0.995105, 197, 353, 228, 416
-0.995124, 23, 329, 38, 392
-0.99514, 233, 369, 264, 432
-0.995144, 145, 237, 272, 268
-0.995159, 273, 257, 336, 500
-0.995166, 37, 225, 68, 352
-0.995173, 121, 185, 152, 248
-0.995176, 5, 321, 20, 384
-0.99519, 53, 273, 68, 336
-0.995191, 153, 257, 216, 500
-0.995201, 97, 285, 224, 316
-0.995201, 133, 369, 164, 432
-0.995205, 231, 417, 246, 480
-0.995232, 161, 185, 288, 248
-0.995247, 121, 249, 136, 312
-0.99528, 97, 273, 224, 304
-0.995282, 245, 145, 260, 208
-0.995289, 209, 225, 336, 256
-0.995322, 141, 225, 172, 352
-0.995336, 207, 225, 222, 288
-0.995357, 261, 289, 292, 416
-0.995372, 65, 393, 128, 456
-0.995399, 1, 393, 375, 456
-0.995403, 225, 409, 240, 472
-0.995411, 257, 289, 320, 416
-0.99543, 43, 273, 58, 336
-0.995435, 251, 129, 266, 192
-0.995485, 69, 305, 100, 432
-0.9955, 181, 273, 212, 400
-0.99551, 5, 249, 20, 312
-0.995512, 225, 457, 352, 488
-0.995523, 321, 289, 352, 416
-0.995611, 65, 113, 96, 240
-0.99563, 265, 425, 280, 488
-0.995642, 15, 273, 30, 336
-0.995685, 239, 145, 254, 208
-0.995693, 241, 57, 368, 120
-0.995703, 173, 209, 204, 336
-0.995718, 225, 145, 352, 176
-0.995724, 241, 133, 368, 164
-0.995754, 129, 121, 375, 184
-0.995772, 61, 313, 76, 376
-0.995783, 219, 409, 234, 472
-0.995817, 161, 441, 288, 472
-0.995836, 1, 1, 256, 128
-0.995853, 101, 369, 116, 432
-0.99587, 33, 321, 64, 448
-0.995872, 97, 261, 224, 292
-0.99588, 229, 241, 244, 304
-0.995884, 49, 209, 80, 336
-0.995905, 101, 393, 116, 456
-0.995905, 115, 233, 130, 296
-0.995907, 253, 401, 268, 464
-0.995914, 141, 353, 172, 480
-0.995923, 193, 81, 320, 144
-0.995937, 201, 225, 216, 288
-0.995966, 177, 461, 304, 492
-0.995986, 253, 425, 268, 488
-0.995992, 343, 89, 358, 152
-0.995994, 209, 429, 336, 460
-0.996002, 161, 425, 288, 456
-0.996044, 193, 305, 320, 368
-0.996047, 29, 329, 44, 392
-0.99605, 65, 197, 192, 228
-0.996057, 49, 165, 176, 196
-0.996058, 221, 225, 236, 288
-0.996091, 241, 417, 256, 480
-0.996133, 49, 329, 176, 360
-0.996134, 127, 249, 142, 312
-0.996142, 225, 161, 240, 224
-0.996147, 11, 321, 26, 384
-0.996148, 233, 153, 248, 216
-0.996152, 301, 241, 332, 368
-0.996154, 281, 113, 344, 176
-0.996163, 145, 257, 272, 288
-0.996168, 115, 289, 130, 352
-0.99618, 49, 313, 176, 344
-0.996193, 109, 297, 124, 360
-0.996207, 249, 257, 312, 320
-0.996215, 41, 81, 104, 208
-0.996239, 25, 345, 88, 408
-0.996252, 1, 225, 64, 288
-0.996259, 33, 345, 160, 376
-0.996289, 33, 249, 160, 280
-0.99629, 209, 257, 336, 288
-0.996293, 81, 357, 208, 388
-0.996303, 127, 217, 142, 280
-0.996317, 113, 377, 240, 408
-0.996367, 219, 161, 234, 224
-0.996381, 37, 289, 52, 352
-0.996392, 109, 353, 124, 416
-0.996419, 47, 249, 62, 312
-0.996421, 161, 209, 192, 336
-0.996426, 347, 241, 362, 304
-0.996428, 129, 97, 375, 160
-0.996463, 1, 345, 375, 408
-0.996467, 259, 409, 274, 472
-0.996481, 209, 157, 336, 188
-0.996488, 241, 97, 368, 128
-0.996491, 227, 217, 242, 280
-0.996504, 169, 297, 232, 360
-0.996513, 241, 109, 368, 140
-0.996522, 145, 389, 272, 420
-0.996524, 1, 97, 128, 160
-0.996533, 1, 1, 128, 128
-0.996539, 221, 129, 252, 384
-0.996545, 81, 213, 208, 244
-0.996562, 137, 129, 168, 256
-0.996634, 81, 389, 208, 420
-0.996646, 17, 329, 32, 392
-0.996656, 273, 433, 288, 496
-0.996683, 1, 369, 375, 432
-0.996705, 57, 113, 120, 176
-0.996713, 49, 177, 176, 208
-0.996717, 65, 301, 192, 332
-0.996741, 225, 433, 240, 496
-0.996744, 241, 333, 368, 364
-0.996758, 231, 129, 246, 192
-0.996765, 223, 137, 238, 200
-0.996768, 247, 425, 262, 488
-0.996771, 241, 393, 256, 456
-0.996776, 223, 249, 238, 312
-0.996782, 137, 401, 200, 464
-0.996793, 99, 225, 114, 288
-0.996798, 213, 161, 228, 224
-0.9968, 33, 237, 160, 268
-0.996802, 257, 129, 272, 192
-0.99682, 109, 329, 124, 392
-0.996822, 209, 213, 336, 244
-0.996831, 115, 209, 130, 272
-0.996849, 241, 417, 368, 448
-0.996852, 193, 409, 320, 440
-0.996852, 241, 121, 368, 152
-0.996855, 1, 121, 375, 184
-0.99686, 341, 153, 356, 216
-0.996864, 103, 297, 118, 360
-0.996864, 347, 281, 362, 344
-0.996896, 259, 169, 274, 232
-0.996909, 211, 249, 226, 312
-0.996912, 265, 329, 328, 392
-0.996918, 191, 233, 206, 296
-0.996927, 113, 161, 144, 416
-0.99693, 129, 177, 144, 240
-0.996947, 213, 401, 228, 464
-0.996954, 81, 345, 208, 376
-0.996957, 113, 429, 240, 460
-0.996966, 249, 241, 280, 368
-0.996987, 225, 469, 352, 500
-0.996998, 53, 249, 68, 312
-0.997002, 241, 129, 272, 384
-0.997003, 43, 269, 58, 300
-0.997004, 217, 257, 232, 320
-0.997015, 101, 345, 116, 408
-0.997022, 241, 321, 368, 352
-0.997024, 241, 285, 368, 316
-0.997039, 241, 181, 368, 212
-0.997051, 243, 121, 258, 184
-0.997052, 235, 233, 250, 296
-0.997055, 321, 225, 336, 288
-0.99706, 25, 265, 40, 328
-0.997061, 241, 85, 368, 116
-0.997068, 265, 401, 280, 464
-0.997077, 249, 289, 280, 416
-0.997079, 333, 97, 364, 352
-0.997087, 9, 269, 24, 300
-0.997087, 37, 337, 52, 400
-0.997089, 101, 225, 132, 480
-0.997099, 67, 321, 82, 384
-0.997104, 161, 157, 288, 188
-0.997107, 111, 377, 126, 440
-0.997108, 209, 129, 240, 384
-0.99711, 57, 1, 120, 256
-0.997128, 113, 417, 240, 448
-0.997144, 137, 321, 200, 384
-0.997155, 33, 377, 160, 408
-0.997176, 123, 273, 138, 336
-0.997188, 263, 441, 278, 472
-0.997192, 119, 313, 134, 376
-0.997199, 231, 393, 246, 456
-0.997203, 237, 121, 252, 184
-0.997204, 225, 197, 352, 228
-0.997204, 55, 313, 70, 344
-0.997212, 55, 325, 70, 356
-0.997221, 55, 329, 70, 392
-0.997225, 133, 249, 148, 312
-0.997239, 85, 193, 100, 256
-0.99724, 135, 169, 150, 232
-0.997243, 337, 209, 368, 336
-0.99725, 147, 185, 162, 248
-0.997251, 117, 377, 132, 440
-0.997251, 87, 153, 102, 216
-0.997251, 65, 401, 192, 432
-0.997258, 5, 309, 20, 340
-0.99726, 185, 169, 200, 232
-0.997261, 241, 169, 368, 200
-0.99727, 203, 249, 218, 312
-0.997271, 71, 289, 86, 352
-0.997278, 247, 385, 262, 448
-0.997288, 101, 113, 132, 240
-0.997301, 95, 305, 110, 368
-0.997319, 285, 433, 300, 496
-0.997321, 49, 293, 64, 324
-0.997324, 89, 193, 120, 448
-0.997326, 3, 297, 18, 328
-0.997327, 193, 113, 224, 240
-0.997334, 109, 217, 124, 280
-0.99734, 3, 277, 18, 308
-0.997346, 115, 337, 130, 400
-0.997347, 97, 469, 224, 500
-0.997348, 233, 445, 248, 476
-0.997352, 37, 293, 52, 324
-0.997361, 259, 385, 274, 448
-0.997362, 197, 129, 228, 384
-0.997363, 207, 401, 222, 464
-0.997369, 13, 301, 28, 332
-0.99737, 341, 241, 356, 304
-0.997382, 211, 201, 226, 264
-0.99739, 79, 161, 94, 224
-0.997404, 113, 173, 240, 204
-0.997406, 267, 177, 282, 240
-0.997415, 241, 349, 368, 380
-0.997417, 225, 33, 288, 160
-0.997426, 33, 225, 160, 256
-0.997427, 91, 209, 106, 272
-0.997429, 31, 333, 46, 364
-0.997433, 161, 177, 176, 240
-0.99744, 301, 33, 332, 160
-0.997452, 3, 265, 18, 296
-0.99747, 9, 285, 24, 316
-0.997473, 193, 397, 320, 428
-0.997478, 123, 369, 138, 432
-0.997481, 173, 169, 188, 232
-0.997487, 253, 161, 268, 224
-0.997489, 185, 129, 216, 384
-0.997491, 317, 65, 348, 320
-0.997494, 177, 269, 304, 300
-0.9975, 101, 129, 132, 384
-0.997504, 347, 137, 362, 200
-0.997508, 113, 401, 240, 432
-0.997511, 257, 445, 272, 476
-0.997515, 179, 169, 194, 232
-0.997518, 97, 157, 224, 188
-0.997539, 45, 313, 60, 344
-0.997541, 327, 217, 342, 280
-0.997543, 33, 121, 288, 184
-0.997555, 107, 137, 122, 200
-0.997563, 177, 141, 304, 172
-0.997568, 195, 161, 210, 224
-0.997583, 61, 269, 76, 300
-0.997587, 145, 225, 272, 256
-0.997592, 7, 329, 22, 360
-0.997601, 225, 385, 352, 416
-0.997603, 95, 361, 110, 424
-0.997605, 161, 353, 192, 480
-0.997617, 155, 177, 170, 240
-0.997626, 17, 213, 144, 244
-0.997627, 335, 249, 350, 312
-0.99763, 137, 193, 152, 256
-0.997632, 289, 33, 320, 160
-0.997633, 113, 201, 240, 232
-0.997637, 205, 201, 220, 264
-0.997638, 97, 317, 224, 348
-0.997639, 217, 137, 232, 200
-0.997645, 193, 305, 224, 432
-0.997649, 305, 289, 336, 416
-0.997661, 33, 277, 48, 308
-0.997663, 51, 265, 66, 296
-0.997678, 145, 89, 272, 152
-0.997693, 61, 325, 76, 356
-0.997696, 193, 181, 320, 212
-0.997712, 177, 57, 304, 120
-0.997713, 133, 161, 164, 416
-0.997718, 21, 337, 36, 368
-0.997731, 33, 365, 160, 396
-0.997734, 249, 49, 312, 176
-0.997739, 243, 149, 258, 180
-0.997761, 121, 257, 152, 500
-0.997763, 269, 449, 284, 480
-0.997767, 65, 301, 80, 332
-0.997781, 53, 257, 84, 500
-0.997811, 325, 193, 356, 448
-0.997817, 161, 377, 288, 408
-0.997822, 281, 65, 312, 320
-0.997823, 13, 325, 28, 356
-0.997846, 201, 65, 264, 192
-0.997854, 59, 301, 74, 332
-0.997862, 67, 321, 82, 352
-0.997865, 65, 413, 192, 444
-0.997866, 19, 325, 34, 356
-0.99787, 233, 161, 248, 192
-0.997877, 201, 225, 232, 480
-0.997882, 249, 257, 312, 500
-0.997882, 17, 57, 144, 120
-0.997883, 47, 329, 62, 360
-0.997884, 73, 193, 104, 448
-0.997888, 223, 233, 238, 264
-0.99789, 241, 269, 368, 300
-0.997895, 117, 245, 132, 276
-0.997897, 217, 249, 232, 280
-0.997897, 241, 309, 368, 340
-0.9979, 97, 457, 224, 488
-0.997908, 27, 297, 42, 328
-0.997917, 261, 429, 276, 460
-0.997919, 113, 185, 240, 216
-0.997919, 65, 425, 192, 456
-0.99792, 17, 313, 32, 344
-0.997922, 109, 297, 124, 328
-0.997924, 261, 65, 292, 320
-0.997927, 47, 281, 62, 312
-0.997935, 227, 441, 242, 472
-0.997941, 211, 233, 226, 264
-0.997942, 161, 129, 288, 160
-0.997944, 129, 73, 375, 136
-0.997947, 37, 333, 52, 364
-0.997951, 241, 297, 368, 328
-0.997963, 61, 313, 76, 344
-0.997976, 213, 225, 244, 480
-0.997979, 209, 373, 336, 404
-0.998013, 225, 165, 240, 196
-0.998016, 97, 329, 224, 360
-0.998019, 275, 457, 290, 488
-0.998022, 49, 161, 80, 416
-0.998028, 41, 201, 104, 264
-0.998034, 129, 297, 256, 328
-0.998036, 53, 281, 68, 312
-0.998043, 65, 289, 80, 320
-0.998044, 221, 437, 236, 468
-0.998056, 65, 89, 192, 152
-0.998059, 243, 457, 258, 488
-0.99807, 113, 441, 240, 472
-0.998077, 237, 193, 268, 320
-0.998079, 277, 177, 308, 304
-0.998082, 111, 233, 126, 264
-0.998082, 65, 437, 192, 468
-0.998088, 119, 225, 134, 256
-0.998092, 251, 449, 266, 480
-0.998098, 269, 33, 300, 160
-0.998101, 121, 285, 136, 316
-0.998109, 129, 357, 256, 388
-0.998111, 283, 465, 298, 496
-0.998113, 115, 293, 130, 324
-0.998114, 177, 289, 304, 320
-0.998115, 123, 253, 138, 284
-0.998119, 345, 65, 375, 192
-0.998136, 31, 317, 46, 348
-0.998145, 1, 81, 375, 144
-0.998153, 39, 305, 54, 336
-0.998157, 145, 161, 176, 416
-0.998164, 109, 333, 124, 364
-0.998166, 229, 253, 244, 284
-0.998179, 1, 321, 16, 352
-0.998183, 301, 65, 332, 320
-0.998186, 17, 201, 144, 232
-0.99819, 317, 353, 348, 480
-0.998209, 125, 209, 140, 240
-0.998213, 269, 437, 284, 468
-0.998222, 229, 425, 244, 456
-0.998227, 249, 145, 264, 176
-0.998229, 55, 337, 70, 368
-0.998229, 21, 269, 36, 300
-0.998236, 103, 305, 118, 336
-0.998239, 169, 257, 200, 384
-0.998246, 129, 345, 256, 376
-0.998253, 173, 161, 204, 416
-0.998257, 17, 49, 144, 176
-0.998258, 25, 321, 40, 352
-0.998262, 281, 353, 312, 480
-0.998277, 33, 461, 160, 492
-0.998291, 255, 433, 270, 464
-0.998292, 101, 401, 116, 432
-0.998298, 71, 165, 86, 196
-0.9983, 233, 329, 296, 392
-0.998303, 223, 421, 238, 452
-0.998306, 239, 445, 254, 476
-0.998307, 229, 241, 244, 272
-0.998312, 33, 389, 160, 420
-0.998323, 99, 229, 114, 260
-0.998325, 33, 449, 160, 480
-0.998326, 61, 337, 76, 368
-0.998328, 119, 209, 134, 240
-0.998328, 97, 363, 128, 378
-0.998328, 113, 225, 144, 240
-0.998328, 233, 297, 296, 360
-0.998329, 209, 233, 240, 248
-0.998329, 105, 379, 136, 394
-0.99833, 117, 241, 148, 256
-0.998331, 219, 165, 234, 196
-0.998333, 9, 347, 40, 362
-0.998333, 57, 337, 88, 352
-0.998334, 89, 329, 120, 344
-0.998335, 269, 443, 300, 458
-0.998335, 225, 441, 256, 456
-0.998336, 233, 469, 264, 484
-0.998339, 225, 455, 256, 470
-0.998339, 205, 433, 236, 448
-0.99834, 61, 177, 92, 192
-0.99834, 85, 165, 116, 180
-0.99834, 105, 365, 120, 396
-0.998341, 249, 177, 280, 192
-0.998341, 117, 209, 148, 224
-0.998342, 121, 273, 136, 304
-0.998343, 73, 167, 104, 182
-0.998345, 61, 281, 92, 296
-0.998346, 233, 253, 264, 268
-0.998347, 253, 465, 284, 480
-0.998348, 221, 255, 252, 270
-0.998348, 193, 249, 224, 264
-0.998348, 57, 269, 88, 284
-0.998349, 237, 437, 268, 452
-0.99835, 261, 471, 292, 486
-0.99835, 199, 233, 214, 264
-0.998352, 217, 425, 248, 440
-0.998352, 33, 349, 64, 364
-0.998352, 241, 151, 272, 166
-0.998353, 121, 247, 152, 262
-0.998354, 113, 171, 144, 186
-0.998354, 113, 331, 144, 346
-0.998355, 13, 295, 44, 310
-0.998356, 273, 459, 304, 474
-0.998357, 277, 467, 308, 482
-0.998358, 161, 161, 192, 416
-0.998358, 1, 297, 32, 312
-0.998359, 117, 281, 148, 296
-0.998359, 117, 273, 148, 288
-0.998361, 265, 449, 296, 464
-0.998361, 69, 313, 100, 328
-0.998362, 213, 439, 244, 454
-0.998364, 105, 343, 136, 358
-0.998364, 263, 453, 278, 484
-0.998365, 205, 169, 236, 184
-0.998366, 193, 241, 224, 256
-0.998366, 97, 219, 128, 234
-0.998367, 93, 335, 124, 350
-0.998368, 117, 387, 148, 402
-0.99837, 113, 261, 144, 276
-0.99837, 21, 331, 52, 346
-0.998371, 257, 457, 272, 488
-0.998371, 117, 219, 148, 234
-0.998372, 105, 337, 136, 352
-0.998372, 221, 261, 252, 276
-0.998373, 21, 301, 52, 316
-0.998374, 181, 259, 212, 274
-0.998375, 97, 311, 128, 326
-0.998378, 237, 157, 268, 172
-0.998378, 205, 253, 220, 284
-0.99838, 97, 235, 128, 250
-0.998383, 261, 437, 292, 452
-0.998384, 341, 89, 356, 120
-0.998385, 37, 321, 52, 352
-0.998386, 113, 255, 144, 270
-0.998387, 81, 165, 96, 196
-0.998387, 241, 475, 272, 490
-0.998387, 177, 357, 304, 388
-0.998388, 329, 95, 360, 110
-0.998389, 105, 299, 136, 314
-0.99839, 223, 245, 238, 276
-0.998392, 89, 97, 120, 352
-0.998393, 61, 169, 92, 184
-0.998395, 43, 293, 58, 324
-0.998396, 217, 245, 248, 260
-0.998398, 341, 257, 372, 500
-0.998399, 17, 273, 48, 288
-0.998401, 69, 335, 100, 350
-0.998402, 205, 247, 236, 262
-0.998402, 25, 325, 56, 340
-0.998403, 57, 311, 88, 326
-0.998404, 5, 273, 36, 288
-0.998404, 337, 253, 368, 268
-0.998405, 209, 419, 240, 434
-0.998405, 105, 241, 136, 256
-0.998406, 117, 291, 148, 306
-0.998406, 101, 305, 132, 320
-0.998407, 197, 233, 228, 248
-0.998407, 17, 335, 80, 350
-0.998408, 49, 281, 80, 296
-0.998409, 215, 417, 230, 448
-0.99841, 119, 385, 134, 416
-0.998412, 111, 377, 126, 408
-0.998412, 313, 17, 344, 144
-0.998413, 13, 307, 44, 322
-0.998413, 281, 473, 312, 488
-0.998416, 21, 285, 52, 300
-0.998417, 5, 335, 36, 350
-0.998417, 101, 225, 132, 240
-0.998418, 105, 247, 136, 262
-0.998419, 217, 165, 248, 180
-0.998421, 25, 315, 56, 330
-0.998423, 217, 239, 248, 254
-0.998425, 37, 285, 68, 300
-0.998429, 201, 257, 232, 272
-0.998429, 53, 293, 84, 308
-0.998435, 241, 463, 272, 478
-0.998435, 69, 329, 100, 344
-0.998435, 115, 321, 130, 352
-0.998437, 253, 133, 268, 164
-0.998439, 33, 303, 64, 318
-0.998441, 37, 325, 68, 340
-0.998442, 129, 381, 144, 412
-0.998442, 199, 245, 214, 276
-0.998442, 45, 339, 76, 354
-0.998442, 257, 443, 288, 458
-0.998443, 1, 289, 64, 304
-0.998447, 65, 323, 96, 338
-0.998449, 1, 305, 64, 320
-0.998449, 33, 297, 64, 312
-0.998451, 225, 447, 256, 462
-0.998452, 257, 455, 288, 470
-0.998453, 257, 169, 272, 200
-0.998453, 57, 305, 88, 320
-0.998453, 65, 165, 80, 196
-0.998454, 25, 343, 56, 358
-0.998456, 33, 269, 64, 284
-0.998457, 245, 457, 276, 472
-0.998462, 229, 163, 260, 178
-0.998464, 215, 433, 230, 464
-0.998464, 17, 273, 80, 288
-0.998464, 127, 269, 142, 300
-0.998465, 5, 325, 36, 340
-0.998468, 37, 291, 68, 306
-0.998468, 241, 405, 368, 436
-0.998471, 129, 213, 256, 244
-0.998474, 25, 309, 56, 324
-0.998475, 33, 335, 64, 350
-0.998478, 1, 281, 64, 296
-0.998478, 33, 177, 96, 304
-0.998478, 9, 341, 40, 356
-0.998482, 15, 341, 30, 372
-0.998484, 125, 241, 140, 272
-0.998486, 17, 311, 80, 326
-0.998489, 233, 449, 296, 464
-0.998489, 265, 465, 296, 480
-0.99849, 129, 257, 144, 288
-0.998492, 235, 241, 250, 272
-0.998495, 1, 317, 64, 332
-0.998496, 17, 297, 80, 312
-0.998498, 31, 265, 46, 296
-0.998499, 225, 305, 256, 432
-0.9985, 267, 425, 282, 456
-0.9985, 249, 461, 264, 492
-0.998505, 237, 461, 252, 492
-0.998505, 241, 443, 272, 458
-0.998508, 235, 433, 250, 464
-0.99851, 25, 285, 88, 300
-0.998511, 233, 459, 296, 474
-0.998512, 57, 331, 120, 346
-0.998512, 33, 305, 96, 320
-0.998517, 25, 329, 88, 344
-0.998518, 249, 471, 312, 486
-0.99852, 241, 451, 272, 466
-0.998523, 185, 235, 248, 250
-0.998525, 1, 303, 32, 318
-0.998525, 189, 257, 204, 288
-0.998525, 25, 279, 88, 294
-0.998526, 177, 337, 208, 464
-0.998526, 15, 281, 30, 312
-0.998526, 17, 279, 48, 294
-0.998529, 123, 169, 138, 200
-0.998531, 221, 261, 236, 292
-0.998532, 239, 161, 254, 192
-0.998533, 225, 443, 288, 458
-0.998535, 281, 453, 296, 484
-0.998537, 41, 317, 72, 332
-0.998537, 185, 253, 248, 268
-0.998537, 93, 217, 108, 248
-0.998538, 41, 257, 72, 500
-0.998543, 1, 287, 32, 302
-0.998543, 49, 275, 80, 290
-0.998546, 17, 341, 80, 356
-0.998546, 289, 469, 304, 500
-0.998548, 1, 279, 32, 294
-0.998551, 53, 317, 84, 332
-0.998552, 49, 311, 112, 326
-0.998554, 5, 313, 36, 328
-0.998558, 349, 249, 364, 280
-0.998559, 265, 177, 280, 208
-0.998559, 49, 331, 80, 346
-0.99856, 233, 465, 296, 480
-0.99856, 253, 449, 284, 464
-0.998561, 255, 469, 270, 500
-0.998561, 65, 167, 128, 182
-0.998561, 103, 377, 118, 408
-0.998562, 45, 299, 76, 314
-0.998563, 41, 269, 104, 284
-0.998564, 9, 267, 72, 282
-0.998565, 99, 365, 114, 396
-0.998566, 41, 337, 104, 352
-0.998566, 217, 167, 280, 182
-0.998567, 41, 291, 104, 306
-0.998568, 113, 281, 128, 312
-0.998569, 21, 337, 52, 352
-0.998572, 89, 221, 152, 236
-0.998576, 313, 257, 375, 272
-0.998577, 249, 477, 312, 492
-0.998578, 9, 323, 72, 338
-0.99858, 127, 281, 142, 312
-0.998582, 275, 445, 290, 476
-0.998582, 37, 277, 68, 292
-0.998582, 49, 287, 80, 302
-0.998583, 269, 461, 284, 492
-0.998584, 41, 317, 104, 332
-0.998585, 57, 305, 120, 320
-0.998588, 89, 207, 152, 222
-0.998589, 45, 267, 76, 282
-0.998593, 217, 435, 280, 450
-0.998595, 233, 159, 296, 174
-0.998596, 105, 299, 168, 314
-0.998597, 185, 247, 248, 262
-0.998597, 195, 257, 210, 288
-0.998597, 89, 215, 152, 230
-0.998597, 53, 325, 84, 340
-0.998599, 65, 325, 128, 340
-0.9986, 131, 201, 146, 232
-0.998601, 45, 307, 76, 322
-0.998601, 193, 169, 256, 184
-0.998602, 65, 291, 128, 306
-0.998606, 257, 449, 320, 464
-0.998607, 5, 319, 36, 334
-0.998607, 257, 439, 320, 454
-0.998609, 41, 297, 104, 312
-0.99861, 209, 161, 272, 176
-0.998611, 105, 291, 168, 306
-0.998614, 201, 451, 264, 466
-0.998615, 97, 227, 160, 242
-0.998615, 305, 251, 368, 266
-0.998616, 217, 429, 280, 444
-0.998617, 81, 333, 144, 348
-0.998619, 193, 259, 256, 274
-0.99862, 201, 419, 264, 434
-0.998622, 193, 241, 256, 256
-0.998622, 121, 255, 184, 270
-0.998624, 169, 113, 200, 240
-0.998625, 81, 245, 144, 260
-0.998625, 73, 311, 136, 326
-0.998625, 81, 253, 144, 268
-0.998626, 257, 177, 320, 192
-0.998628, 273, 477, 336, 492
-0.998629, 193, 445, 256, 460
-0.998629, 313, 263, 375, 278
-0.99863, 97, 305, 160, 320
-0.998631, 121, 247, 184, 262
-0.998632, 65, 299, 128, 314
-0.998633, 169, 259, 232, 274
-0.998634, 305, 283, 368, 298
-0.998634, 153, 247, 216, 262
-0.998637, 113, 283, 176, 298
-0.998637, 113, 275, 176, 290
-0.998637, 113, 237, 176, 252
-0.998638, 233, 153, 296, 168
-0.998638, 241, 361, 368, 392
-0.998638, 253, 161, 284, 416
-0.998638, 105, 329, 168, 344
-0.998639, 257, 171, 320, 186
-0.998639, 89, 339, 152, 354
-0.99864, 289, 179, 352, 194
-0.99864, 121, 381, 184, 396
-0.998641, 257, 465, 320, 480
-0.998641, 89, 407, 152, 422
-0.998641, 41, 323, 104, 338
-0.998642, 297, 185, 360, 200
-0.998643, 305, 101, 368, 116
-0.998644, 241, 145, 304, 160
-0.998644, 97, 369, 160, 384
-0.998645, 217, 241, 280, 256
-0.998645, 89, 401, 152, 416
-0.998646, 81, 319, 144, 334
-0.998647, 153, 241, 216, 256
-0.998648, 217, 255, 280, 270
-0.998648, 1, 347, 64, 362
-0.99865, 105, 387, 168, 402
-0.99865, 89, 201, 152, 216
-0.998651, 273, 455, 336, 470
-0.998653, 73, 233, 136, 248
-0.998653, 193, 265, 256, 280
-0.998654, 121, 219, 184, 234
-0.998655, 57, 275, 120, 290
-0.998655, 313, 269, 375, 284
-0.998655, 217, 261, 280, 276
-0.998655, 57, 281, 120, 296
-0.998656, 1, 329, 64, 344
-0.998656, 273, 471, 336, 486
-0.998656, 257, 183, 320, 198
-0.998657, 25, 347, 88, 362
-0.998658, 249, 165, 312, 180
-0.998658, 313, 277, 375, 292
-0.998658, 113, 269, 176, 284
-0.998661, 121, 213, 184, 228
-0.998661, 217, 395, 280, 410
-0.998661, 281, 227, 344, 242
-0.998662, 89, 259, 152, 274
-0.998663, 89, 415, 152, 430
-0.998663, 305, 143, 368, 158
-0.998665, 305, 289, 368, 304
-0.998665, 241, 137, 304, 152
-0.998665, 273, 249, 336, 264
-0.998665, 121, 261, 184, 276
-0.998666, 89, 345, 152, 360
-0.998666, 73, 239, 136, 254
-0.998667, 305, 95, 368, 110
-0.998667, 217, 173, 280, 188
-0.998667, 265, 483, 328, 498
-0.998667, 129, 201, 192, 216
-0.998667, 97, 375, 160, 390
-0.998668, 237, 321, 268, 448
-0.998668, 257, 433, 320, 448
-0.998668, 121, 393, 184, 408
-0.998668, 313, 351, 375, 366
-0.998669, 289, 205, 352, 220
-0.998691, 43, 257, 58, 384
-0.998697, 129, 145, 256, 176
-0.998703, 1, 189, 128, 220
-0.998709, 233, 257, 264, 500
-0.998715, 17, 437, 144, 468
-0.998718, 17, 1, 144, 64
-0.998745, 49, 257, 64, 384
-0.998769, 161, 117, 288, 148
-0.99881, 1, 193, 32, 448
-0.998814, 11, 257, 26, 384
-0.998828, 177, 197, 304, 228
-0.998835, 233, 33, 264, 288
-0.998841, 215, 161, 230, 288
-0.998857, 233, 65, 296, 128
-0.998865, 209, 209, 224, 336
-0.99887, 61, 161, 92, 416
-0.998891, 1, 165, 128, 196
-0.9989, 1, 177, 128, 208
-0.998903, 249, 1, 280, 256
-0.998905, 97, 113, 224, 176
-0.998925, 149, 305, 180, 432
-0.998928, 17, 289, 32, 416
-0.998933, 121, 209, 136, 336
-0.998933, 33, 97, 288, 160
-0.998953, 221, 161, 236, 288
-0.998957, 203, 209, 218, 336
-0.998957, 301, 193, 332, 448
-0.998963, 209, 161, 224, 288
-0.998969, 49, 153, 176, 184
-0.998999, 1, 145, 128, 208
-0.999003, 215, 209, 230, 336
-0.999009, 81, 17, 208, 80
-0.999011, 229, 145, 244, 272
-0.999012, 33, 273, 48, 400
-0.999021, 177, 345, 304, 376
-0.999039, 93, 145, 108, 272
-0.999045, 341, 81, 356, 208
-0.999055, 113, 225, 128, 352
-0.999056, 201, 161, 216, 288
-0.999059, 145, 313, 272, 344
-0.999065, 235, 145, 250, 272
-0.999069, 61, 257, 76, 384
-0.999075, 265, 161, 296, 416
-0.999076, 189, 225, 220, 480
-0.999093, 145, 325, 272, 356
-0.999099, 313, 161, 344, 416
-0.999099, 99, 289, 114, 416
-0.9991, 153, 113, 184, 240
-0.999115, 1, 273, 16, 400
-0.999119, 249, 129, 264, 256
-0.999131, 25, 273, 40, 400
-0.999135, 289, 209, 320, 336
-0.99914, 241, 145, 256, 272
-0.999145, 339, 241, 354, 368
-0.99915, 191, 161, 206, 288
-0.999151, 173, 65, 204, 320
-0.999161, 107, 305, 122, 432
-0.999166, 131, 193, 146, 320
-0.999168, 1, 25, 128, 88
-0.999174, 223, 209, 238, 336
-0.999176, 45, 305, 60, 432
-0.999176, 17, 425, 144, 456
-0.999177, 345, 97, 375, 352
-0.99918, 103, 241, 118, 368
-0.999183, 55, 241, 70, 368
-0.999192, 247, 369, 262, 496
-0.999192, 87, 129, 102, 256
-0.999196, 161, 65, 192, 320
-0.999199, 347, 273, 362, 400
-0.999216, 237, 369, 252, 496
-0.99923, 119, 273, 134, 400
-0.999235, 197, 209, 212, 336
-0.999237, 101, 33, 132, 288
-0.999245, 257, 113, 272, 240
-0.999247, 1, 409, 128, 440
-0.999249, 29, 225, 60, 480
-0.999256, 123, 161, 138, 288
-0.999258, 329, 1, 360, 256
-0.99926, 113, 273, 128, 400
-0.999264, 129, 241, 144, 368
-0.999264, 129, 65, 160, 320
-0.999276, 97, 209, 112, 336
-0.999276, 9, 305, 24, 432
-0.999288, 185, 161, 200, 288
-0.99929, 333, 241, 348, 368
-0.99929, 115, 161, 130, 288
-0.999293, 211, 257, 226, 384
-0.999295, 177, 301, 304, 332
-0.999297, 265, 97, 280, 224
-0.999317, 123, 321, 138, 448
-0.999321, 133, 257, 164, 500
-0.999323, 161, 305, 192, 432
-0.999323, 229, 209, 244, 336
-0.999328, 345, 225, 360, 352
-0.99935, 77, 97, 108, 352
-0.999351, 57, 305, 72, 432
-0.999354, 105, 145, 120, 272
-0.999358, 337, 161, 352, 288
-0.999359, 249, 257, 280, 500
-0.999359, 167, 161, 182, 288
-0.999362, 341, 289, 356, 416
-0.999362, 101, 337, 116, 464
-0.999362, 129, 321, 144, 448
-0.999363, 261, 369, 276, 496
-0.999369, 81, 145, 96, 272
-0.999374, 161, 101, 288, 132
-0.999374, 193, 333, 320, 364
-0.999378, 259, 161, 274, 288
-0.999382, 323, 209, 338, 336
-0.999382, 335, 65, 350, 192
-0.999385, 331, 177, 346, 304
-0.99939, 297, 369, 328, 496
-0.999392, 137, 161, 152, 288
-0.999392, 217, 353, 232, 480
-0.999393, 231, 369, 246, 496
-0.999398, 347, 97, 362, 224
-0.999405, 51, 305, 66, 432
-0.999406, 65, 41, 192, 104
-0.999407, 241, 97, 256, 224
-0.999408, 213, 33, 244, 288
-0.999409, 205, 257, 220, 384
-0.999415, 353, 257, 368, 384
-0.999415, 99, 161, 114, 288
-0.999421, 143, 177, 158, 304
-0.999427, 155, 161, 170, 288
-0.999428, 179, 161, 194, 288
-0.999428, 217, 257, 232, 384
-0.999429, 113, 321, 128, 448
-0.99943, 93, 289, 108, 416
-0.999437, 271, 97, 286, 224
-0.99944, 285, 161, 316, 416
-0.999441, 329, 65, 344, 192
-0.999443, 129, 145, 144, 272
-0.999449, 149, 177, 164, 304
-0.999455, 323, 65, 338, 192
-0.999456, 1, 209, 16, 336
-0.999456, 277, 81, 292, 208
-0.99946, 233, 97, 248, 224
-0.999462, 223, 353, 238, 480
-0.999466, 17, 141, 144, 172
-0.999469, 253, 353, 268, 480
-0.999471, 173, 161, 188, 288
-0.999477, 235, 225, 250, 352
-0.999481, 161, 161, 176, 288
-0.999484, 317, 65, 332, 192
-0.999487, 267, 161, 282, 288
-0.999498, 93, 337, 108, 464
-0.9995, 191, 209, 206, 336
-0.999507, 87, 193, 102, 320
-0.999521, 67, 273, 82, 400
-0.999524, 199, 257, 214, 384
-0.999528, 17, 1, 80, 256
-0.999528, 309, 193, 324, 320
-0.999532, 317, 129, 332, 256
-0.999534, 311, 65, 326, 192
-0.999535, 211, 337, 226, 464
-0.999538, 305, 81, 320, 208
-0.99954, 37, 225, 52, 352
-0.999541, 23, 321, 38, 448
-0.999546, 45, 351, 60, 366
-0.999547, 287, 81, 302, 208
-0.999548, 313, 257, 344, 500
-0.999548, 223, 113, 238, 240
-0.999549, 71, 169, 86, 184
-0.999549, 9, 329, 24, 344
-0.999549, 271, 455, 286, 470
-0.99955, 39, 305, 54, 432
-0.999551, 121, 221, 136, 236
-0.999551, 361, 337, 375, 464
-0.999552, 55, 273, 70, 288
-0.999552, 343, 145, 358, 272
-0.999553, 121, 287, 136, 302
-0.999553, 13, 343, 28, 358
-0.999553, 265, 465, 280, 480
-0.999555, 123, 213, 138, 228
-0.999555, 217, 255, 232, 270
-0.999555, 269, 437, 284, 452
-0.999555, 99, 113, 114, 240
-0.999555, 21, 279, 36, 294
-0.999557, 123, 389, 138, 404
-0.999557, 117, 253, 132, 268
-0.999557, 129, 343, 144, 358
-0.999557, 125, 173, 140, 188
-0.999557, 123, 279, 138, 294
-0.999558, 21, 273, 36, 288
-0.999559, 235, 249, 250, 264
-0.99956, 247, 81, 262, 208
-0.99956, 35, 329, 50, 344
-0.99956, 199, 251, 214, 266
-0.99956, 19, 329, 34, 344
-0.999561, 243, 151, 258, 166
-0.999561, 11, 283, 26, 298
-0.999563, 57, 295, 72, 310
-0.999563, 229, 239, 244, 254
-0.999563, 257, 439, 272, 454
-0.999565, 59, 341, 74, 356
-0.999565, 317, 177, 332, 304
-0.999565, 221, 169, 236, 184
-0.999565, 5, 303, 20, 318
-0.999565, 27, 303, 42, 318
-0.999566, 341, 93, 356, 108
-0.999566, 27, 313, 42, 328
-0.999568, 243, 461, 258, 476
-0.999569, 107, 353, 122, 480
-0.999569, 135, 353, 150, 480
-0.999569, 129, 389, 144, 404
-0.99957, 221, 247, 236, 262
-0.99957, 233, 255, 248, 270
-0.99957, 125, 263, 140, 278
-0.99957, 305, 145, 320, 272
-0.999571, 115, 331, 130, 346
-0.999571, 243, 225, 258, 352
-0.999572, 17, 241, 32, 368
-0.999573, 215, 433, 230, 448
-0.999573, 283, 467, 298, 482
-0.999573, 239, 321, 254, 448
-0.999574, 107, 335, 122, 350
-0.999574, 65, 169, 80, 184
-0.999576, 243, 473, 258, 488
-0.999577, 47, 337, 62, 352
-0.99958, 65, 333, 80, 348
-0.999582, 51, 295, 66, 310
-0.999582, 141, 65, 172, 320
-0.999583, 27, 331, 42, 346
-0.999585, 229, 245, 244, 260
-0.999585, 115, 247, 130, 262
-0.999586, 205, 353, 220, 480
-0.999586, 277, 461, 292, 476
-0.999587, 223, 439, 238, 454
-0.999587, 119, 293, 134, 308
-0.999587, 349, 337, 364, 464
-0.999588, 9, 315, 24, 330
-0.999589, 297, 145, 312, 272
-0.999591, 193, 89, 320, 120
-0.999591, 213, 247, 228, 262
-0.999591, 119, 369, 134, 496
-0.999592, 259, 459, 274, 474
-0.999592, 69, 323, 84, 338
-0.999593, 227, 167, 242, 182
-0.999593, 53, 331, 68, 346
-0.999595, 49, 313, 64, 328
-0.999596, 241, 157, 256, 172
-0.999597, 33, 275, 48, 290
-0.999599, 223, 239, 238, 254
-0.9996, 67, 311, 82, 326
-0.999601, 245, 453, 260, 468
-0.999602, 101, 307, 116, 322
-0.999604, 125, 257, 140, 272
-0.999606, 263, 431, 278, 446
-0.999608, 67, 317, 82, 332
-0.999609, 35, 335, 50, 350
-0.999609, 355, 337, 370, 464
-0.99961, 297, 81, 312, 208
-0.999611, 3, 287, 18, 302
-0.999612, 113, 369, 128, 496
-0.999613, 17, 313, 32, 328
-0.999614, 111, 241, 126, 256
-0.999615, 227, 259, 242, 274
-0.999617, 271, 461, 286, 476
-0.999619, 63, 295, 78, 310
-0.99962, 341, 33, 356, 160
-0.99962, 267, 353, 282, 480
-0.999621, 3, 267, 18, 282
-0.999622, 253, 49, 284, 176
-0.999624, 11, 289, 26, 304
-0.999625, 45, 319, 60, 334
-0.999628, 33, 281, 48, 296
-0.999628, 53, 279, 68, 294
-0.999629, 41, 313, 56, 328
-0.99963, 9, 271, 24, 286
-0.999631, 45, 331, 60, 346
-0.999632, 107, 303, 122, 318
-0.999633, 255, 445, 270, 460
-0.999637, 61, 279, 76, 294
-0.999637, 229, 443, 244, 458
-0.999638, 113, 297, 128, 312
-0.99964, 265, 455, 280, 470
-0.999642, 35, 287, 50, 302
-0.999643, 55, 287, 70, 302
-0.999644, 233, 163, 248, 178
-0.999645, 53, 319, 68, 334
-0.999646, 17, 323, 32, 338
-0.999649, 43, 279, 58, 294
-0.999652, 25, 337, 40, 352
-0.999653, 57, 301, 72, 316
-0.999653, 3, 297, 18, 312
-0.999654, 39, 297, 54, 312
-0.999657, 19, 335, 34, 350
-0.999658, 49, 269, 64, 284
-0.999662, 61, 273, 76, 288
-0.999665, 55, 309, 70, 324
-0.999671, 61, 311, 76, 326
-0.999674, 65, 305, 80, 320
-0.999675, 285, 305, 316, 432
-0.999676, 39, 307, 54, 322
-0.999679, 19, 341, 34, 356
-0.999683, 63, 285, 78, 300
-0.999684, 267, 449, 282, 464
-0.999684, 9, 321, 24, 336
-0.999686, 59, 267, 74, 282
-0.999686, 263, 441, 278, 456
-0.999689, 63, 323, 78, 338
-0.99969, 255, 451, 270, 466
-0.999695, 9, 277, 24, 292
-0.999696, 11, 301, 26, 316
-0.999697, 43, 271, 58, 286
-0.999698, 45, 289, 60, 304
-0.9997, 241, 73, 368, 104
-0.999701, 3, 311, 18, 326
-0.999702, 235, 447, 250, 462
-0.999702, 15, 307, 30, 322
-0.999714, 59, 333, 74, 348
-0.999717, 49, 301, 64, 316
-0.999723, 49, 307, 64, 322
-0.999728, 201, 33, 232, 288
-0.999732, 61, 317, 76, 332
-0.999738, 55, 325, 70, 340
-0.99974, 1, 281, 16, 296
-0.999744, 1, 121, 128, 152
-0.999762, 161, 33, 224, 288
-0.999766, 185, 33, 216, 288
-0.999787, 261, 447, 276, 462
-0.999814, 273, 273, 304, 400
-0.999827, 117, 65, 148, 320
-0.999856, 345, 1, 375, 256
-0.999864, 193, 313, 320, 344
-0.999913, 261, 257, 292, 500
-0.999926, 65, 65, 96, 320
-0.999927, 181, 113, 212, 240
-0.99997, 1, 57, 256, 120
-0.999989, 81, 129, 208, 160
-0.999999, 1, 105, 128, 136
-1.00002, 81, 117, 208, 148
-1.00004, 161, 257, 192, 500
-1.00006, 1, 77, 128, 108
-1.00007, 173, 257, 204, 500
-1.0001, 89, 1, 120, 256
-1.0001, 65, 105, 192, 136
-1.00012, 177, 77, 304, 108
-1.00013, 97, 49, 352, 112
-1.00014, 49, 53, 176, 84
-1.00014, 49, 113, 176, 176
-1.00017, 157, 257, 188, 384
-1.00022, 77, 1, 108, 256
-1.00022, 145, 257, 176, 500
-1.00035, 17, 257, 48, 500
-1.00035, 1, 57, 375, 120
-1.00037, 37, 129, 68, 384
-1.00042, 65, 65, 192, 128
-1.00043, 41, 1, 72, 256
-1.00056, 53, 65, 84, 320
-1.00058, 273, 257, 304, 500
-1.00065, 289, 257, 320, 500
-1.00071, 65, 1, 320, 64
-1.00071, 161, 9, 288, 72
-1.00075, 113, 81, 176, 208
-1.0008, 117, 97, 148, 224
-1.00084, 1, 25, 256, 88
-1.00089, 17, 161, 48, 416
-1.0009, 65, 33, 192, 160
-1.00098, 97, 25, 352, 88
-1.00099, 29, 1, 60, 256
-1.001, 9, 1, 40, 256
-1.0011, 93, 65, 124, 192
-1.00115, 129, 49, 256, 112
-1.00117, 225, 33, 352, 96
-1.00127, 209, 9, 336, 72
-1.00162, 1, 97, 32, 352
-1.00187, 177, 33, 304, 96
-1.00191, 1, 1, 375, 64
-1.00213, 65, 65, 128, 192
-1.00219, 1, 25, 375, 88
-1.00259, 41, 1, 104, 128
-1.0036, 41, 369, 104, 496
-1.00385, 113, 1, 240, 128
-1.00507, 9, 17, 72, 144
-1.00509, 65, 17, 128, 144
-1.0053, 17, 97, 80, 224
-1.00531, 249, 1, 312, 128
-1.0057, 89, 49, 152, 176
-1.00692, 1, 353, 64, 480
-1.00699, 113, 1, 176, 128
-1.00701, 177, 65, 240, 192
-1.00718, 185, 1, 248, 128
-1.00835, 161, 1, 224, 128
-1.00857, 137, 1, 200, 128
-1.00913, 89, 1, 152, 128
-1.0141, 137, 65, 200, 192
-1.01571, 1, 161, 64, 288
