1995
-0.262037, 1, 1, 500, 400
-0.358679, 1, 1, 500, 256
-0.374241, 257, 1, 500, 400
-0.380114, 161, 1, 416, 400
-0.402, 33, 1, 288, 400
-0.479785, 161, 1, 416, 256
-0.505849, 1, 129, 500, 384
-0.581997, 1, 1, 256, 256
-0.620908, 257, 33, 500, 288
-0.715865, 65, 97, 320, 352
-0.809445, 161, 97, 416, 352
-0.810342, 257, 129, 500, 384
-0.83835, 129, 1, 256, 400
-0.841621, 193, 1, 320, 400
-0.843044, 65, 1, 192, 256
-0.850757, 81, 1, 208, 400
-0.851461, 273, 1, 400, 400
-0.853711, 353, 1, 480, 256
-0.855322, 337, 1, 464, 400
-0.856402, 241, 1, 368, 256
-0.859441, 129, 1, 256, 256
-0.867415, 33, 1, 160, 400
-0.87008, 193, 1, 320, 256
-0.872476, 1, 33, 500, 160
-0.87372, 17, 1, 144, 256
-0.879935, 289, 33, 416, 288
-0.888082, 145, 97, 272, 352
-0.898982, 369, 97, 496, 352
-0.901845, 97, 97, 224, 352
-0.906854, 33, 17, 288, 144
-0.907139, 161, 33, 416, 160
-0.914964, 225, 129, 352, 384
-0.916313, 353, 49, 480, 176
-0.921007, 49, 97, 176, 352
-0.921148, 1, 225, 500, 352
-0.92136, 289, 129, 416, 384
-0.923764, 1, 97, 500, 224
-0.924284, 1, 97, 128, 352
-0.925295, 377, 49, 440, 176
-0.925977, 129, 17, 256, 144
-0.927384, 65, 145, 320, 272
-0.927948, 49, 17, 176, 144
-0.928508, 169, 17, 232, 144
-0.931379, 137, 33, 200, 160
-0.931769, 425, 65, 488, 192
-0.932192, 257, 65, 500, 192
-0.932429, 1, 161, 500, 288
-0.934727, 257, 129, 500, 256
-0.935217, 1, 65, 256, 192
-0.93686, 97, 97, 352, 224
-0.938208, 225, 33, 352, 160
-0.939138, 329, 49, 392, 176
-0.941433, 353, 113, 480, 240
-0.941723, 417, 113, 480, 240
-0.942306, 97, 17, 160, 144
-0.942335, 169, 25, 232, 88
-0.945325, 129, 129, 256, 256
-0.946897, 289, 65, 416, 192
-0.947816, 161, 145, 416, 272
-0.947846, 401, 49, 464, 176
-0.947943, 137, 33, 200, 96
-0.948417, 353, 65, 416, 192
-0.948783, 129, 65, 256, 192
-0.948846, 169, 57, 232, 120
-0.949582, 425, 81, 488, 144
-0.950349, 425, 105, 488, 168
-0.950573, 9, 1, 72, 128
-0.950603, 137, 81, 200, 208
-0.950851, 393, 97, 456, 224
-0.951316, 97, 33, 160, 96
-0.951328, 97, 209, 352, 336
-0.951907, 257, 17, 500, 144
-0.952001, 1, 273, 500, 400
-0.952278, 57, 1, 120, 128
-0.952418, 249, 1, 312, 128
-0.9526, 169, 65, 232, 192
-0.953362, 1, 1, 128, 128
-0.953421, 257, 209, 500, 336
-0.953881, 137, 129, 200, 256
-0.954383, 193, 33, 256, 96
-0.954438, 289, 49, 352, 176
-0.954625, 217, 33, 280, 160
-0.95495, 177, 33, 304, 160
-0.955051, 225, 193, 352, 320
-0.955059, 385, 57, 448, 120
-0.955374, 41, 49, 104, 176
-0.955542, 425, 17, 488, 144
-0.95643, 377, 81, 440, 144
-0.95643, 289, 193, 416, 320
-0.95666, 137, 73, 200, 136
-0.956883, 193, 17, 256, 144
-0.95756, 145, 9, 208, 72
-0.958075, 17, 17, 80, 80
-0.95809, 329, 65, 392, 128
-0.958299, 97, 161, 160, 288
-0.958817, 409, 129, 472, 192
-0.959216, 273, 273, 336, 400
-0.959253, 1, 193, 256, 320
-0.959761, 81, 145, 208, 272
-0.960384, 193, 65, 256, 192
-0.960544, 1, 65, 128, 192
-0.961147, 409, 33, 472, 96
-0.961157, 49, 25, 112, 88
-0.961519, 49, 57, 112, 120
-0.961519, 385, 113, 448, 176
-0.962557, 81, 81, 208, 208
-0.962583, 257, 33, 320, 96
-0.962728, 161, 177, 288, 304
-0.962936, 393, 1, 456, 256
-0.963047, 425, 57, 488, 120
-0.963084, 193, 25, 224, 88
-0.963713, 169, 113, 232, 240
-0.964215, 145, 97, 208, 160
-0.964377, 305, 113, 432, 240
-0.964579, 281, 209, 344, 336
-0.964884, 33, 1, 96, 128
-0.964909, 401, 81, 464, 144
-0.965018, 337, 161, 464, 288
-0.965077, 73, 33, 136, 96
-0.965559, 433, 137, 496, 200
-0.96556, 177, 81, 304, 208
-0.9656, 161, 273, 416, 400
-0.965764, 353, 73, 416, 136
-0.965796, 169, 1, 232, 256
-0.965829, 305, 209, 368, 336
-0.96609, 289, 241, 416, 368
-0.9662, 257, 313, 320, 376
-0.966338, 113, 113, 176, 240
-0.966383, 209, 241, 336, 368
-0.966448, 465, 81, 496, 144
-0.966534, 297, 257, 360, 384
-0.96672, 353, 17, 416, 144
-0.967085, 281, 329, 344, 392
-0.967142, 257, 225, 320, 352
-0.967345, 209, 129, 336, 256
-0.967448, 361, 113, 424, 240
-0.967513, 73, 161, 136, 288
-0.967617, 9, 41, 72, 104
-0.96766, 345, 105, 408, 168
-0.968021, 145, 185, 208, 248
-0.968053, 353, 49, 480, 112
-0.96828, 137, 1, 200, 256
-0.968424, 305, 17, 432, 144
-0.968586, 353, 97, 480, 160
-0.96867, 281, 49, 344, 112
-0.968724, 185, 161, 248, 288
-0.96884, 81, 33, 208, 96
-0.968948, 401, 1, 464, 128
-0.969137, 33, 161, 96, 288
-0.969434, 465, 65, 496, 192
-0.969852, 181, 25, 212, 88
-0.969858, 433, 65, 496, 320
-0.969881, 17, 49, 80, 176
-0.970073, 81, 193, 208, 320
-0.970378, 65, 49, 128, 176
-0.970444, 113, 1, 176, 256
-0.970464, 129, 33, 256, 96
-0.970625, 105, 65, 168, 192
-0.97067, 217, 41, 280, 104
-0.970852, 169, 105, 232, 168
-0.970871, 121, 177, 184, 240
-0.9709, 393, 161, 456, 288
-0.970905, 153, 209, 216, 272
-0.971146, 113, 57, 176, 120
-0.971208, 193, 33, 320, 96
-0.971228, 149, 33, 180, 160
-0.971236, 205, 33, 236, 96
-0.971278, 361, 49, 424, 112
-0.971336, 181, 1, 212, 128
-0.971405, 257, 273, 500, 400
-0.971477, 193, 105, 256, 168
-0.971513, 1, 225, 128, 352
-0.971701, 437, 81, 468, 144
-0.971729, 437, 65, 468, 192
-0.971775, 145, 25, 176, 88
-0.97178, 81, 153, 144, 216
-0.971797, 193, 1, 256, 256
-0.971848, 281, 217, 344, 280
-0.971863, 249, 9, 312, 72
-0.972012, 305, 65, 368, 128
-0.972027, 209, 177, 272, 304
-0.972038, 169, 1, 200, 128
-0.972127, 81, 1, 144, 256
-0.972189, 353, 1, 480, 128
-0.972233, 405, 49, 436, 176
-0.972249, 233, 241, 296, 368
-0.972319, 137, 193, 200, 320
-0.972679, 453, 65, 484, 192
-0.972817, 113, 145, 240, 208
-0.972857, 33, 177, 160, 304
-0.972893, 349, 49, 380, 176
-0.972945, 193, 177, 256, 240
-0.972967, 57, 97, 120, 224
-0.972972, 65, 209, 128, 336
-0.973001, 265, 241, 328, 304
-0.973159, 177, 57, 208, 120
-0.973192, 361, 49, 392, 176
-0.973245, 193, 65, 256, 128
-0.973455, 321, 273, 384, 400
-0.973505, 161, 225, 288, 352
-0.973603, 113, 9, 240, 72
-0.973707, 97, 9, 160, 72
-0.973751, 321, 97, 384, 224
-0.97387, 117, 25, 148, 88
-0.973884, 173, 49, 204, 176
-0.973956, 353, 73, 480, 136
-0.973959, 121, 153, 184, 216
-0.974009, 373, 65, 404, 192
-0.9741, 17, 17, 144, 80
-0.974121, 249, 1, 312, 256
-0.974241, 129, 57, 256, 120
-0.974261, 353, 121, 480, 184
-0.97447, 161, 193, 224, 320
-0.974592, 121, 9, 184, 72
-0.974672, 393, 49, 424, 112
-0.974698, 265, 289, 328, 352
-0.974701, 433, 17, 496, 80
-0.974917, 33, 257, 288, 384
-0.974925, 429, 113, 460, 240
-0.974968, 429, 105, 460, 168
-0.975005, 157, 41, 188, 104
-0.975008, 401, 177, 464, 240
-0.975101, 193, 49, 224, 112
-0.975121, 169, 1, 232, 64
-0.975135, 33, 1, 96, 256
-0.975157, 361, 33, 424, 288
-0.975305, 321, 33, 384, 288
-0.975309, 337, 193, 400, 320
-0.975519, 241, 41, 368, 104
-0.975578, 153, 97, 216, 352
-0.9757, 121, 121, 184, 184
-0.975808, 257, 337, 320, 400
-0.975875, 57, 1, 120, 256
-0.975922, 217, 1, 280, 256
-0.975928, 257, 1, 288, 128
-0.975994, 145, 145, 208, 208
-0.976041, 457, 105, 488, 168
-0.97605, 369, 73, 400, 136
-0.976059, 169, 33, 200, 96
-0.97621, 389, 49, 420, 176
-0.976244, 217, 17, 280, 80
-0.976271, 53, 25, 84, 88
-0.97654, 49, 57, 176, 120
-0.976702, 193, 113, 256, 240
-0.976718, 137, 17, 168, 144
-0.976737, 305, 145, 368, 272
-0.976767, 217, 217, 280, 280
-0.976776, 169, 137, 232, 200
-0.9768, 193, 1, 224, 128
-0.976868, 425, 161, 488, 288
-0.976893, 129, 33, 160, 96
-0.976927, 437, 17, 468, 144
-0.97702, 161, 49, 192, 176
-0.977054, 241, 209, 304, 272
-0.977064, 89, 209, 152, 336
-0.977225, 217, 81, 280, 208
-0.977356, 337, 209, 464, 336
-0.9774, 305, 209, 368, 272
-0.977501, 305, 57, 432, 120
-0.977676, 121, 17, 152, 144
-0.977747, 9, 177, 72, 304
-0.977774, 53, 49, 84, 112
-0.977826, 157, 65, 188, 128
-0.977861, 281, 265, 344, 328
-0.978006, 261, 1, 292, 64
-0.978066, 169, 129, 200, 192
-0.978071, 81, 233, 144, 296
-0.978118, 377, 145, 440, 208
-0.978145, 353, 65, 384, 128
-0.978169, 53, 17, 84, 144
-0.978176, 381, 73, 412, 136
-0.978189, 25, 65, 88, 128
-0.978245, 49, 81, 112, 144
-0.978279, 433, 201, 496, 264
-0.978287, 409, 97, 472, 352
-0.978344, 453, 73, 484, 136
-0.978349, 233, 33, 264, 160
-0.978386, 193, 201, 256, 264
-0.978436, 233, 305, 296, 368
-0.978437, 405, 49, 436, 112
-0.978475, 9, 9, 40, 72
-0.978477, 321, 1, 384, 128
-0.978485, 449, 113, 480, 240
-0.978556, 9, 1, 72, 256
-0.978599, 337, 49, 368, 176
-0.978717, 409, 73, 440, 136
-0.978752, 177, 105, 208, 168
-0.978872, 137, 1, 200, 400
-0.978878, 73, 65, 136, 128
-0.978884, 437, 137, 468, 200
-0.978903, 305, 233, 368, 296
-0.978913, 217, 33, 248, 160
-0.978955, 185, 1, 248, 400
-0.978986, 205, 17, 236, 144
-0.978989, 65, 257, 192, 384
-0.97905, 1, 113, 128, 240
-0.979065, 105, 25, 136, 88
-0.9791, 129, 97, 256, 160
-0.97914, 25, 17, 56, 80
-0.97916, 165, 9, 196, 72
-0.979203, 97, 265, 160, 328
-0.979221, 161, 129, 192, 256
-0.979246, 313, 297, 376, 360
-0.979274, 217, 41, 248, 104
-0.979289, 321, 321, 384, 384
-0.979307, 145, 57, 176, 120
-0.979313, 161, 273, 288, 400
-0.979324, 17, 161, 80, 224
-0.979465, 321, 49, 352, 176
-0.979557, 233, 193, 296, 320
-0.979592, 265, 161, 328, 288
-0.979601, 257, 129, 384, 256
-0.979606, 321, 105, 384, 168
-0.979652, 313, 57, 344, 120
-0.979753, 361, 161, 424, 288
-0.979904, 185, 49, 216, 176
-0.979908, 393, 73, 424, 136
-0.980066, 421, 33, 452, 160
-0.980081, 353, 185, 416, 248
-0.980095, 437, 25, 468, 88
-0.980118, 305, 33, 368, 96
-0.980121, 337, 41, 400, 104
-0.980217, 81, 193, 144, 256
-0.980223, 297, 33, 360, 288
-0.980316, 377, 209, 440, 272
-0.980357, 173, 97, 204, 224
-0.980472, 129, 97, 192, 352
-0.980577, 329, 1, 392, 400
-0.980643, 41, 17, 72, 80
-0.9807, 297, 217, 328, 280
-0.980706, 41, 161, 104, 224
-0.980751, 469, 129, 500, 256
-0.980835, 81, 169, 208, 232
-0.980867, 17, 329, 80, 392
-0.980935, 169, 185, 232, 248
-0.98099, 373, 97, 404, 160
-0.981, 273, 1, 336, 256
-0.981011, 417, 121, 448, 184
-0.981017, 425, 169, 488, 232
-0.981037, 113, 1, 176, 400
-0.98106, 297, 1, 360, 128
-0.981108, 417, 1, 480, 400
-0.98112, 177, 97, 240, 352
-0.981175, 289, 305, 352, 368
-0.981204, 385, 1, 448, 400
-0.981246, 81, 113, 144, 240
-0.981361, 421, 41, 452, 104
-0.981509, 377, 177, 440, 240
-0.981573, 1, 97, 64, 224
-0.981585, 293, 41, 324, 104
-0.981616, 289, 201, 416, 264
-0.981624, 217, 185, 280, 248
-0.981647, 65, 57, 96, 120
-0.981751, 305, 1, 368, 400
-0.981753, 69, 1, 100, 128
-0.981765, 57, 1, 120, 64
-0.981816, 369, 145, 496, 208
-0.981832, 161, 121, 288, 184
-0.981853, 305, 105, 432, 168
-0.981862, 69, 17, 100, 80
-0.981869, 41, 241, 104, 368
-0.98187, 309, 329, 340, 392
-0.981904, 393, 209, 456, 336
-0.981914, 257, 1, 320, 400
-0.981933, 265, 305, 296, 368
-0.981987, 173, 193, 204, 256
-0.982031, 469, 17, 500, 144
-0.98205, 169, 81, 232, 144
-0.982129, 193, 9, 256, 72
-0.982177, 241, 233, 304, 296
-0.982226, 113, 209, 176, 336
-0.982366, 333, 65, 364, 128
-0.982387, 185, 209, 248, 336
-0.982399, 265, 193, 328, 256
-0.982407, 417, 97, 448, 224
-0.982452, 225, 329, 288, 392
-0.982478, 309, 49, 340, 176
-0.98251, 273, 17, 304, 144
-0.982516, 73, 1, 136, 400
-0.982586, 265, 25, 296, 88
-0.982617, 421, 145, 452, 208
-0.982622, 241, 217, 368, 280
-0.982659, 81, 193, 208, 256
-0.982672, 157, 137, 188, 200
-0.982727, 97, 105, 160, 168
-0.982755, 465, 129, 496, 192
-0.982774, 209, 225, 272, 352
-0.9828, 273, 1, 336, 128
-0.9828, 241, 145, 304, 272
-0.982817, 209, 305, 272, 368
-0.982861, 217, 1, 280, 400
-0.982887, 161, 1, 288, 64
-0.982974, 145, 185, 272, 248
-0.982991, 17, 201, 80, 264
-0.98308, 57, 241, 120, 304
-0.983101, 33, 1, 96, 400
-0.98311, 433, 49, 464, 112
-0.983123, 353, 137, 416, 200
-0.983145, 241, 281, 304, 344
-0.983284, 9, 225, 72, 288
-0.983285, 365, 49, 396, 112
-0.983394, 41, 57, 72, 120
-0.983405, 337, 201, 464, 264
-0.98341, 89, 33, 120, 96
-0.983454, 253, 33, 284, 96
-0.983488, 1, 73, 128, 136
-0.983547, 189, 113, 220, 176
-0.983571, 161, 1, 224, 400
-0.983686, 377, 1, 440, 128
-0.983693, 33, 185, 160, 248
-0.983714, 9, 225, 72, 352
-0.983717, 309, 241, 340, 368
-0.983734, 297, 209, 328, 336
-0.983753, 25, 1, 56, 128
-0.983771, 293, 33, 324, 160
-0.983824, 465, 57, 496, 120
-0.983833, 225, 193, 352, 256
-0.983844, 385, 33, 448, 96
-0.983884, 177, 297, 240, 360
-0.983888, 81, 217, 208, 280
-0.9839, 361, 1, 424, 400
-0.983909, 245, 209, 276, 272
-0.984044, 401, 201, 464, 264
-0.984073, 181, 1, 212, 64
-0.984151, 165, 89, 196, 152
-0.984158, 277, 25, 308, 88
-0.98416, 133, 153, 164, 216
-0.98418, 57, 217, 120, 280
-0.98424, 85, 1, 116, 128
-0.98424, 149, 129, 180, 256
-0.984242, 197, 65, 228, 192
-0.984273, 57, 185, 120, 248
-0.984416, 129, 249, 192, 312
-0.984434, 337, 257, 464, 384
-0.984457, 385, 97, 416, 160
-0.984548, 305, 177, 368, 240
-0.984551, 209, 129, 272, 192
-0.984553, 57, 97, 120, 352
-0.984558, 141, 129, 172, 192
-0.98456, 401, 9, 464, 72
-0.984561, 361, 305, 424, 368
-0.984566, 241, 313, 368, 376
-0.984583, 305, 265, 368, 328
-0.984632, 241, 289, 368, 352
-0.984664, 361, 209, 424, 336
-0.984666, 401, 153, 464, 216
-0.984708, 33, 161, 160, 224
-0.984711, 453, 137, 484, 200
-0.984712, 353, 161, 416, 224
-0.984719, 105, 201, 168, 264
-0.984747, 353, 169, 480, 232
-0.984832, 109, 17, 140, 144
-0.984833, 225, 65, 288, 128
-0.984837, 289, 177, 416, 240
-0.984867, 193, 217, 320, 280
-0.984868, 113, 257, 240, 384
-0.984919, 1, 225, 128, 288
-0.984921, 281, 1, 344, 400
-0.984925, 265, 49, 328, 176
-0.984935, 245, 33, 276, 160
-0.984935, 469, 105, 500, 168
-0.984943, 81, 97, 208, 160
-0.984951, 65, 257, 128, 384
-0.984954, 161, 145, 288, 208
-0.98507, 233, 41, 264, 104
-0.985172, 273, 249, 400, 312
-0.985174, 305, 129, 368, 384
-0.985232, 445, 113, 476, 176
-0.985289, 209, 161, 336, 224
-0.985388, 241, 81, 368, 208
-0.985436, 177, 225, 240, 288
-0.985447, 105, 129, 168, 384
-0.985486, 225, 177, 256, 304
-0.985486, 89, 233, 120, 296
-0.985519, 65, 9, 192, 72
-0.985597, 417, 233, 480, 296
-0.985642, 181, 145, 212, 208
-0.985661, 385, 97, 416, 224
-0.985686, 257, 129, 320, 384
-0.985696, 37, 33, 68, 160
-0.985706, 97, 145, 128, 272
-0.985706, 177, 57, 304, 120
-0.985712, 1, 49, 128, 112
-0.985754, 185, 321, 248, 384
-0.985758, 113, 121, 240, 184
-0.985779, 97, 289, 160, 352
-0.98579, 217, 81, 248, 208
-0.985877, 97, 1, 128, 128
-0.985908, 193, 153, 256, 216
-0.985914, 225, 241, 352, 304
-0.985974, 217, 97, 248, 160
-0.985984, 13, 1, 44, 128
-0.985986, 309, 217, 340, 280
-0.985998, 213, 73, 244, 136
-0.986, 97, 257, 160, 384
-0.986019, 201, 129, 264, 384
-0.986033, 145, 281, 208, 344
-0.986061, 69, 49, 100, 176
-0.986063, 405, 177, 436, 240
-0.986116, 41, 329, 104, 392
-0.986169, 57, 129, 120, 192
-0.98617, 173, 145, 204, 272
-0.9862, 9, 249, 72, 312
-0.986205, 177, 81, 304, 144
-0.986294, 289, 257, 320, 384
-0.986338, 17, 273, 144, 400
-0.986356, 381, 49, 412, 112
-0.986434, 121, 97, 184, 160
-0.986459, 217, 281, 280, 344
-0.98646, 405, 105, 436, 168
-0.986472, 385, 297, 448, 360
-0.986479, 17, 273, 80, 400
-0.986485, 289, 81, 416, 144
-0.986569, 193, 289, 320, 352
-0.986636, 9, 1, 72, 400
-0.986669, 97, 129, 160, 192
-0.986682, 77, 57, 108, 120
-0.986802, 149, 81, 180, 208
-0.986834, 217, 17, 248, 80
-0.986848, 165, 161, 196, 224
-0.986954, 433, 289, 496, 352
-0.986958, 233, 185, 264, 248
-0.986975, 453, 1, 484, 128
-0.986983, 289, 25, 416, 88
-0.987008, 321, 289, 448, 352
-0.987075, 225, 89, 288, 152
-0.987114, 337, 25, 464, 88
-0.987118, 405, 97, 436, 224
-0.987145, 193, 1, 224, 64
-0.987146, 101, 233, 132, 296
-0.987157, 133, 129, 164, 256
-0.987159, 245, 209, 276, 336
-0.987195, 161, 185, 192, 248
-0.987205, 177, 313, 304, 376
-0.987292, 353, 321, 480, 384
-0.987394, 309, 193, 340, 320
-0.987422, 105, 153, 136, 216
-0.987506, 225, 65, 352, 128
-0.987537, 169, 29, 232, 60
-0.987584, 185, 129, 216, 256
-0.987615, 433, 225, 496, 352
-0.98768, 25, 113, 88, 240
-0.987706, 297, 97, 360, 224
-0.987805, 385, 97, 448, 352
-0.987886, 309, 249, 340, 312
-0.987929, 65, 121, 192, 184
-0.98796, 137, 41, 200, 72
-0.988025, 449, 1, 480, 64
-0.988028, 217, 129, 280, 256
-0.988093, 153, 89, 184, 152
-0.988117, 21, 161, 52, 288
-0.988164, 1, 1, 32, 128
-0.988265, 97, 33, 160, 64
-0.988341, 425, 17, 456, 80
-0.988374, 361, 129, 424, 384
-0.988384, 361, 97, 392, 224
-0.988407, 145, 209, 272, 272
-0.988441, 101, 201, 132, 264
-0.988518, 93, 9, 124, 72
-0.98852, 425, 273, 488, 400
-0.988549, 149, 185, 180, 248
-0.988598, 133, 9, 164, 72
-0.98864, 137, 81, 168, 208
-0.988687, 129, 313, 256, 376
-0.988696, 421, 65, 452, 128
-0.988727, 1, 25, 256, 88
-0.988735, 297, 241, 328, 304
-0.988745, 209, 265, 336, 328
-0.988761, 49, 65, 112, 96
-0.988764, 185, 177, 216, 240
-0.988767, 221, 177, 252, 240
-0.988779, 129, 41, 384, 104
-0.988851, 309, 305, 340, 368
-0.988982, 209, 273, 272, 400
-0.988999, 21, 169, 52, 232
-0.989004, 417, 97, 448, 160
-0.989012, 425, 93, 488, 124
-0.989015, 97, 289, 224, 352
-0.989019, 417, 125, 480, 156
-0.989044, 361, 97, 392, 160
-0.989045, 1, 97, 64, 352
-0.989046, 89, 57, 120, 120
-0.989125, 129, 57, 160, 120
-0.989138, 185, 49, 248, 80
-0.989148, 405, 137, 436, 200
-0.989159, 129, 29, 192, 60
-0.989164, 289, 289, 320, 352
-0.989166, 169, 217, 200, 280
-0.989172, 289, 321, 416, 384
-0.989195, 437, 1, 468, 64
-0.989212, 121, 257, 184, 384
-0.989219, 385, 97, 448, 128
-0.989222, 137, 53, 200, 84
-0.989247, 417, 177, 448, 240
-0.989255, 89, 201, 120, 264
-0.989272, 169, 61, 232, 92
-0.989273, 169, 273, 232, 400
-0.989279, 373, 113, 404, 240
-0.989312, 373, 17, 404, 144
-0.98932, 177, 241, 304, 304
-0.989338, 425, 109, 488, 140
-0.989367, 285, 217, 316, 280
-0.989373, 289, 129, 416, 192
-0.989391, 13, 33, 44, 96
-0.989395, 209, 137, 336, 200
-0.989403, 201, 121, 232, 184
-0.989415, 265, 329, 296, 392
-0.989426, 321, 249, 448, 312
-0.989437, 1, 161, 32, 288
-0.989482, 125, 177, 156, 240
-0.989483, 297, 193, 328, 256
-0.989489, 433, 81, 496, 112
-0.989527, 185, 217, 216, 280
-0.989542, 29, 41, 60, 104
-0.989543, 209, 337, 336, 400
-0.989564, 201, 97, 232, 160
-0.98958, 349, 97, 380, 224
-0.989585, 353, 193, 384, 320
-0.989632, 85, 177, 116, 304
-0.989637, 1, 17, 64, 48
-0.98964, 249, 37, 312, 68
-0.989668, 209, 9, 336, 72
-0.989703, 65, 21, 128, 52
-0.989722, 281, 129, 344, 384
-0.989765, 337, 61, 400, 92
-0.989766, 369, 61, 432, 92
-0.989805, 41, 161, 72, 224
-0.989805, 245, 233, 276, 296
-0.98981, 161, 49, 224, 80
-0.989832, 109, 161, 140, 288
-0.989867, 333, 41, 364, 104
-0.989911, 293, 161, 324, 288
-0.989922, 385, 129, 448, 160
-0.989935, 285, 329, 316, 392
-0.989948, 1, 33, 32, 96
-0.989982, 53, 65, 84, 192
-0.989989, 1, 177, 32, 240
-0.98999, 377, 85, 440, 116
-0.989992, 145, 241, 208, 368
-0.989995, 145, 65, 208, 96
-0.990003, 393, 45, 456, 76
-0.990037, 401, 109, 464, 140
-0.990043, 417, 137, 480, 168
-0.990044, 53, 81, 84, 144
-0.990048, 385, 273, 448, 400
-0.990049, 417, 177, 448, 304
-0.990093, 69, 233, 100, 296
-0.990095, 289, 225, 416, 288
-0.990103, 393, 61, 456, 92
-0.990119, 81, 97, 144, 352
-0.99019, 441, 161, 472, 288
-0.990191, 105, 57, 168, 88
-0.990207, 465, 177, 496, 304
-0.990219, 385, 137, 416, 200
-0.990267, 277, 289, 308, 352
-0.990302, 137, 93, 200, 124
-0.990336, 409, 81, 472, 112
-0.990343, 145, 17, 208, 48
-0.990369, 257, 329, 320, 360
-0.990369, 289, 153, 416, 216
-0.990375, 197, 113, 228, 240
-0.990414, 241, 49, 304, 176
-0.990422, 17, 137, 144, 200
-0.990426, 369, 257, 496, 320
-0.990442, 161, 177, 192, 304
-0.990444, 25, 25, 88, 56
-0.990449, 345, 257, 408, 384
-0.990456, 361, 101, 424, 132
-0.990463, 405, 161, 436, 288
-0.990485, 33, 249, 160, 312
-0.990495, 409, 33, 472, 64
-0.990495, 33, 289, 160, 352
-0.990535, 65, 41, 128, 72
-0.990537, 97, 45, 160, 76
-0.990546, 385, 73, 448, 104
-0.990614, 353, 225, 480, 288
-0.990643, 313, 69, 376, 100
-0.990652, 33, 49, 288, 112
-0.990672, 161, 221, 224, 252
-0.990691, 137, 81, 200, 112
-0.990694, 121, 173, 184, 204
-0.990711, 185, 117, 248, 148
-0.99073, 41, 161, 72, 288
-0.990777, 245, 257, 276, 384
-0.990797, 433, 17, 496, 48
-0.990817, 145, 189, 208, 220
-0.990827, 81, 265, 208, 328
-0.990864, 281, 49, 344, 80
-0.990876, 209, 161, 240, 288
-0.990877, 305, 57, 368, 88
-0.990878, 361, 49, 424, 80
-0.990906, 209, 33, 272, 64
-0.99093, 129, 137, 192, 168
-0.990935, 269, 225, 300, 352
-0.990942, 129, 233, 256, 296
-0.990945, 285, 209, 316, 336
-0.990957, 337, 225, 368, 352
-0.990959, 417, 69, 480, 100
-0.990964, 169, 17, 232, 48
-0.990982, 121, 69, 184, 100
-0.990983, 153, 105, 216, 136
-0.990986, 281, 341, 344, 372
-0.990989, 257, 341, 320, 372
-0.990998, 241, 89, 368, 152
-0.991, 337, 73, 400, 104
-0.991006, 193, 69, 256, 100
-0.991046, 217, 61, 280, 92
-0.991048, 121, 185, 184, 216
-0.991053, 169, 129, 232, 160
-0.991079, 337, 145, 400, 272
-0.991138, 145, 209, 208, 240
-0.991139, 153, 145, 216, 176
-0.991158, 257, 317, 320, 348
-0.991188, 377, 113, 440, 144
-0.9912, 89, 153, 152, 184
-0.99121, 193, 105, 256, 136
-0.99121, 353, 177, 416, 208
-0.99122, 281, 329, 344, 360
-0.991242, 393, 141, 456, 172
-0.99125, 417, 149, 480, 180
-0.991265, 97, 21, 160, 52
-0.991266, 217, 221, 280, 252
-0.991288, 229, 225, 260, 352
-0.991297, 81, 61, 144, 92
-0.991304, 193, 177, 256, 208
-0.991314, 17, 45, 80, 76
-0.99132, 193, 209, 224, 336
-0.991332, 41, 53, 104, 84
-0.991332, 281, 317, 344, 348
-0.991337, 225, 49, 288, 80
-0.991361, 401, 177, 464, 208
-0.991384, 177, 209, 240, 240
-0.991401, 393, 145, 424, 272
-0.991412, 261, 273, 292, 400
-0.991425, 281, 61, 344, 92
-0.991433, 93, 225, 124, 352
-0.991493, 97, 49, 128, 176
-0.991505, 273, 245, 336, 276
-0.991508, 329, 1, 360, 128
-0.991549, 345, 113, 408, 144
-0.991554, 65, 77, 128, 108
-0.991555, 193, 65, 448, 128
-0.991569, 169, 181, 232, 212
-0.991572, 361, 73, 424, 104
-0.99159, 65, 337, 192, 400
-0.991595, 281, 353, 344, 384
-0.991619, 245, 161, 276, 288
-0.99164, 33, 97, 96, 352
-0.991643, 105, 217, 168, 248
-0.991651, 305, 41, 368, 72
-0.991655, 305, 213, 368, 244
-0.991659, 9, 69, 72, 100
-0.991665, 161, 77, 224, 108
-0.991681, 1, 33, 500, 96
-0.991682, 353, 201, 416, 232
-0.991695, 425, 165, 488, 196
-0.991702, 81, 177, 144, 208
-0.991707, 177, 93, 240, 124
-0.991731, 1, 33, 64, 64
-0.991759, 393, 189, 456, 220
-0.991769, 181, 209, 212, 336
-0.991773, 233, 129, 296, 384
-0.991787, 417, 49, 480, 80
-0.99179, 249, 217, 312, 248
-0.991794, 129, 153, 192, 184
-0.991816, 169, 197, 232, 228
-0.991825, 201, 233, 264, 264
-0.991827, 1, 329, 128, 392
-0.991828, 97, 17, 352, 80
-0.991835, 125, 177, 156, 304
-0.991837, 137, 221, 200, 252
-0.991837, 257, 233, 320, 264
-0.991838, 41, 161, 104, 192
-0.99184, 203, 25, 218, 88
-0.991844, 297, 245, 360, 276
-0.991849, 305, 333, 368, 364
-0.991852, 265, 305, 328, 336
-0.991859, 289, 269, 352, 300
-0.991872, 241, 357, 304, 388
-0.991878, 321, 113, 384, 144
-0.991879, 145, 177, 208, 208
-0.991893, 217, 21, 280, 52
-0.991895, 337, 101, 400, 132
-0.991897, 393, 161, 456, 192
-0.991898, 113, 81, 176, 112
-0.991901, 433, 29, 496, 60
-0.991907, 241, 25, 304, 56
-0.99191, 113, 241, 144, 368
-0.991929, 377, 177, 440, 208
-0.991942, 353, 189, 416, 220
-0.991947, 297, 225, 360, 256
-0.99195, 401, 201, 464, 232
-0.991962, 193, 49, 224, 80
-0.991962, 81, 165, 144, 196
-0.991971, 65, 237, 128, 268
-0.991983, 305, 201, 368, 232
-0.991984, 425, 209, 488, 240
-0.991994, 177, 233, 240, 264
-0.991997, 305, 345, 368, 376
-0.991997, 145, 125, 208, 156
-0.992085, 113, 29, 144, 60
-0.992087, 453, 161, 484, 288
-0.9921, 321, 273, 352, 400
-0.992101, 197, 25, 212, 88
-0.992116, 197, 29, 228, 60
-0.992118, 1, 65, 500, 128
-0.992132, 129, 257, 256, 320
-0.992218, 209, 25, 224, 88
-0.99222, 209, 113, 336, 176
-0.992251, 129, 49, 160, 80
-0.992272, 465, 85, 496, 116
-0.992308, 177, 29, 208, 60
-0.992326, 141, 29, 172, 60
-0.992326, 33, 225, 64, 352
-0.992332, 169, 141, 200, 172
-0.99238, 173, 45, 204, 76
-0.992383, 145, 41, 176, 72
-0.992467, 437, 89, 468, 120
-0.992473, 149, 61, 180, 92
-0.992476, 361, 61, 392, 92
-0.99248, 185, 61, 216, 92
-0.992487, 173, 61, 204, 92
-0.992503, 457, 97, 488, 128
-0.992505, 129, 33, 160, 64
-0.99253, 1, 73, 256, 136
-0.992539, 93, 21, 124, 52
-0.992578, 389, 93, 420, 124
-0.992606, 437, 133, 468, 164
-0.992611, 181, 133, 212, 164
-0.992614, 53, 61, 84, 92
-0.992625, 157, 49, 188, 80
-0.992627, 153, 137, 184, 168
-0.992634, 401, 53, 432, 84
-0.992637, 161, 89, 192, 120
-0.992643, 313, 1, 344, 128
-0.992655, 413, 97, 444, 128
-0.992666, 453, 73, 484, 104
-0.992672, 369, 297, 496, 360
-0.992674, 369, 101, 400, 132
-0.992685, 157, 21, 188, 52
-0.992687, 401, 1, 432, 128
-0.992688, 405, 81, 436, 112
-0.992696, 169, 73, 200, 104
-0.992709, 437, 17, 468, 48
-0.992713, 265, 29, 296, 60
-0.992732, 441, 77, 472, 108
-0.992733, 97, 121, 352, 184
-0.992734, 433, 109, 464, 140
-0.992742, 45, 25, 76, 56
-0.992755, 429, 121, 460, 152
-0.992763, 21, 21, 52, 52
-0.992766, 145, 289, 272, 352
-0.992771, 453, 121, 484, 152
-0.992773, 145, 193, 176, 320
-0.992773, 205, 41, 236, 72
-0.992799, 149, 85, 180, 116
-0.992804, 9, 17, 40, 48
-0.992813, 349, 61, 380, 92
-0.992813, 469, 137, 500, 168
-0.992816, 413, 45, 444, 76
-0.99282, 297, 225, 328, 256
-0.992821, 393, 81, 424, 112
-0.992824, 101, 33, 132, 64
-0.992836, 373, 61, 404, 92
-0.992843, 181, 17, 212, 48
-0.992844, 161, 337, 288, 400
-0.992844, 373, 77, 404, 108
-0.992851, 389, 1, 420, 128
-0.992858, 389, 65, 420, 96
-0.992859, 177, 105, 208, 136
-0.99286, 65, 313, 192, 376
-0.992862, 257, 17, 288, 48
-0.992864, 309, 333, 340, 364
-0.992868, 117, 45, 148, 76
-0.992884, 437, 33, 468, 64
-0.992886, 33, 97, 160, 160
-0.992887, 241, 221, 272, 252
-0.992889, 161, 177, 192, 208
-0.99289, 417, 141, 448, 172
-0.992907, 297, 45, 328, 76
-0.992917, 53, 49, 84, 80
-0.992919, 401, 41, 432, 72
-0.992921, 317, 61, 348, 92
-0.992924, 277, 33, 308, 64
-0.992927, 413, 125, 444, 156
-0.99293, 441, 65, 472, 96
-0.992933, 237, 49, 268, 80
-0.992942, 197, 65, 228, 96
-0.992948, 465, 73, 496, 104
-0.992955, 437, 145, 468, 176
-0.992956, 197, 117, 228, 148
-0.992957, 425, 45, 456, 76
-0.992958, 169, 129, 200, 160
-0.992962, 153, 73, 184, 104
-0.992969, 177, 225, 208, 256
-0.99297, 193, 97, 448, 160
-0.992971, 337, 57, 368, 88
-0.992971, 369, 125, 496, 156
-0.992979, 297, 213, 328, 244
-0.992982, 417, 73, 448, 104
-0.992982, 329, 69, 360, 100
-0.992991, 453, 145, 484, 176
-0.992991, 69, 65, 100, 96
-0.992997, 377, 49, 408, 80
-0.993001, 217, 41, 248, 72
-0.993001, 85, 33, 116, 64
-0.993005, 173, 93, 204, 124
-0.993007, 429, 77, 460, 108
-0.993021, 161, 61, 192, 92
-0.993025, 129, 37, 256, 68
-0.993025, 257, 41, 288, 72
-0.993026, 429, 57, 460, 88
-0.993029, 181, 145, 212, 176
-0.993035, 457, 109, 488, 140
-0.993036, 217, 53, 248, 84
-0.993038, 161, 189, 192, 220
-0.993048, 265, 329, 296, 360
-0.99305, 181, 185, 212, 216
-0.993053, 225, 177, 256, 208
-0.993057, 353, 49, 384, 80
-0.993062, 453, 133, 484, 164
-0.993063, 125, 21, 156, 52
-0.993064, 129, 169, 160, 200
-0.993064, 149, 189, 180, 220
-0.993066, 175, 65, 190, 128
-0.993068, 469, 105, 500, 136
-0.99307, 221, 65, 252, 96
-0.993072, 93, 45, 124, 76
-0.993072, 437, 189, 468, 220
-0.993077, 425, 33, 456, 64
-0.993083, 213, 105, 244, 136
-0.993083, 73, 21, 104, 52
-0.993085, 417, 61, 448, 92
-0.993088, 205, 53, 236, 84
-0.993092, 41, 65, 72, 96
-0.993105, 369, 93, 496, 124
-0.993111, 189, 105, 220, 136
-0.993112, 305, 241, 336, 272
-0.993115, 33, 25, 64, 56
-0.993115, 9, 33, 40, 64
-0.993116, 261, 1, 292, 32
-0.993116, 209, 29, 240, 60
-0.993118, 313, 353, 344, 384
-0.993121, 309, 321, 340, 352
-0.993126, 389, 49, 420, 80
-0.993126, 89, 229, 120, 260
-0.993127, 165, 153, 196, 184
-0.993132, 125, 65, 156, 192
-0.993135, 417, 85, 448, 116
-0.993138, 373, 89, 404, 120
-0.993143, 309, 49, 340, 80
-0.99315, 81, 241, 208, 304
-0.993151, 233, 61, 264, 92
-0.993154, 261, 345, 292, 376
-0.993158, 189, 225, 220, 256
-0.993208, 33, 145, 288, 208
-0.993234, 483, 81, 498, 144
-0.99326, 357, 145, 388, 272
-0.993271, 81, 45, 208, 76
-0.993326, 129, 49, 256, 80
-0.993331, 329, 97, 360, 224
-0.993502, 225, 129, 256, 256
-0.993532, 151, 25, 166, 88
-0.993537, 215, 25, 230, 88
-0.993554, 193, 45, 320, 76
-0.993618, 361, 1, 392, 128
-0.993696, 17, 21, 144, 52
-0.993739, 337, 129, 400, 384
-0.993758, 197, 161, 228, 288
-0.993766, 337, 53, 464, 84
-0.993786, 341, 1, 372, 128
-0.993789, 135, 25, 150, 88
-0.993827, 353, 105, 480, 136
-0.993832, 97, 97, 352, 160
-0.993881, 129, 61, 256, 92
-0.993923, 125, 257, 156, 384
-0.99393, 477, 81, 492, 144
-0.993933, 97, 169, 352, 232
-0.993953, 61, 161, 92, 288
-0.993966, 165, 49, 180, 112
-0.993969, 189, 25, 204, 88
-0.993972, 257, 145, 500, 208
-0.994033, 383, 73, 398, 136
-0.994047, 113, 25, 240, 56
-0.994057, 81, 65, 112, 192
-0.994091, 277, 273, 308, 400
-0.994096, 397, 209, 428, 336
-0.994108, 225, 33, 480, 96
-0.994134, 113, 113, 144, 240
-0.994158, 17, 209, 48, 336
-0.99416, 429, 177, 460, 304
-0.99421, 175, 33, 190, 96
-0.994212, 353, 77, 480, 108
-0.99422, 113, 337, 240, 400
-0.994222, 441, 209, 472, 336
-0.994267, 1, 97, 32, 224
-0.994303, 113, 153, 240, 184
-0.994391, 273, 113, 336, 240
-0.994414, 185, 257, 216, 384
-0.994419, 49, 57, 176, 88
-0.99442, 465, 73, 480, 136
-0.994442, 431, 113, 446, 176
-0.99446, 141, 33, 156, 96
-0.994469, 313, 145, 344, 272
-0.994491, 213, 209, 244, 336
-0.994499, 193, 209, 448, 272
-0.994502, 57, 57, 72, 120
-0.994505, 457, 73, 472, 136
-0.994547, 241, 49, 368, 80
-0.994597, 269, 1, 284, 64
-0.994622, 73, 209, 104, 336
-0.994651, 1, 209, 32, 336
-0.994656, 181, 25, 196, 88
-0.994676, 97, 209, 352, 272
-0.994676, 369, 65, 496, 96
-0.994685, 471, 81, 486, 144
-0.994707, 407, 49, 422, 112
-0.994726, 325, 225, 356, 352
-0.994735, 61, 17, 76, 80
-0.994756, 65, 33, 192, 64
-0.994762, 273, 61, 400, 92
-0.994773, 173, 1, 204, 256
-0.994776, 177, 33, 304, 64
-0.9948, 447, 1, 462, 64
-0.994812, 93, 97, 124, 224
-0.994845, 257, 9, 500, 72
-0.994849, 257, 185, 500, 248
-0.994865, 1, 169, 256, 232
-0.994872, 55, 33, 70, 96
-0.994902, 369, 137, 496, 168
-0.994906, 205, 257, 236, 384
-0.994907, 27, 17, 42, 80
-0.99491, 479, 113, 494, 176
-0.994925, 257, 121, 500, 184
-0.994931, 129, 25, 144, 88
-0.994933, 305, 73, 432, 104
-0.994973, 1, 113, 256, 176
-0.994984, 119, 25, 134, 88
-0.994985, 97, 73, 352, 136
-0.995027, 169, 73, 184, 136
-0.995076, 197, 49, 212, 112
-0.995101, 459, 105, 474, 168
-0.995126, 167, 25, 182, 88
-0.995129, 21, 9, 36, 72
-0.995149, 441, 17, 456, 80
-0.99515, 389, 73, 404, 136
-0.995165, 175, 137, 190, 200
-0.99518, 429, 145, 444, 208
-0.995228, 485, 145, 500, 208
-0.995297, 377, 65, 392, 128
-0.995298, 159, 33, 174, 96
-0.995315, 51, 57, 66, 120
-0.995317, 159, 57, 174, 120
-0.995372, 321, 121, 448, 152
-0.995449, 129, 233, 384, 296
-0.995459, 437, 1, 468, 256
-0.995463, 447, 33, 462, 96
-0.995478, 259, 9, 274, 72
-0.995494, 423, 121, 438, 184
-0.995515, 187, 57, 202, 120
-0.995526, 435, 137, 450, 200
-0.995527, 193, 1, 224, 256
-0.995535, 185, 129, 200, 192
-0.995535, 145, 1, 176, 256
-0.995551, 159, 193, 174, 256
-0.99556, 473, 57, 488, 120
-0.995567, 199, 121, 214, 184
-0.995577, 203, 49, 218, 112
-0.995581, 129, 113, 256, 144
-0.995584, 35, 17, 50, 80
-0.995587, 183, 185, 198, 248
-0.995588, 15, 9, 30, 72
-0.995593, 333, 65, 348, 128
-0.995598, 67, 17, 82, 80
-0.995605, 257, 273, 500, 336
-0.995608, 209, 49, 224, 112
-0.995626, 415, 41, 430, 104
-0.995641, 341, 65, 356, 128
-0.995653, 289, 209, 416, 240
-0.995654, 63, 57, 78, 120
-0.995664, 401, 49, 416, 112
-0.99567, 449, 121, 464, 184
-0.995692, 371, 65, 386, 128
-0.995713, 65, 69, 192, 100
-0.995718, 481, 169, 496, 232
-0.995742, 129, 145, 384, 208
-0.995742, 363, 65, 378, 128
-0.995746, 301, 225, 316, 288
-0.995759, 69, 57, 84, 120
-0.99576, 189, 105, 204, 168
-0.995762, 443, 137, 458, 200
-0.995779, 181, 65, 196, 128
-0.995799, 177, 97, 192, 160
-0.99582, 395, 49, 410, 112
-0.995821, 169, 137, 184, 200
-0.995825, 457, 129, 472, 192
-0.995829, 129, 329, 384, 392
-0.995852, 379, 97, 394, 160
-0.995858, 49, 17, 64, 80
-0.995861, 351, 65, 366, 128
-0.995882, 157, 33, 188, 288
-0.995895, 409, 1, 440, 256
-0.995906, 17, 37, 144, 68
-0.995916, 451, 65, 466, 128
-0.995919, 187, 1, 202, 64
-0.995944, 221, 1, 252, 256
-0.995952, 1, 1, 256, 64
-0.995953, 9, 9, 24, 72
-0.995967, 177, 57, 304, 88
-0.995979, 215, 65, 230, 128
-0.995984, 479, 57, 494, 120
-0.995992, 79, 57, 94, 120
-0.995994, 65, 173, 192, 204
-0.996016, 89, 25, 104, 88
-0.996043, 391, 97, 406, 160
-0.996056, 113, 25, 128, 88
-0.996059, 241, 37, 368, 68
-0.996064, 81, 93, 208, 124
-0.996064, 449, 33, 480, 288
-0.996084, 289, 33, 304, 96
-0.996103, 307, 209, 322, 272
-0.996113, 425, 73, 440, 136
-0.996121, 129, 73, 256, 104
-0.996125, 357, 65, 372, 128
-0.996131, 249, 201, 264, 264
-0.996162, 397, 73, 412, 136
-0.996168, 81, 225, 208, 256
-0.996169, 73, 17, 88, 80
-0.996174, 113, 169, 240, 200
-0.996179, 305, 105, 432, 136
-0.996184, 323, 57, 338, 120
-0.996184, 171, 1, 186, 64
-0.996186, 99, 17, 114, 80
-0.99619, 257, 1, 384, 64
-0.996193, 225, 61, 352, 92
-0.996198, 237, 41, 252, 104
-0.996205, 135, 153, 150, 216
-0.996214, 449, 145, 464, 208
-0.996219, 113, 141, 240, 172
-0.996219, 433, 49, 448, 112
-0.996223, 209, 229, 336, 260
-0.996229, 65, 185, 192, 216
-0.996248, 437, 105, 452, 168
-0.996248, 195, 97, 210, 160
-0.996253, 309, 233, 324, 296
-0.996257, 209, 209, 336, 240
-0.996263, 77, 1, 108, 256
-0.996276, 425, 41, 440, 104
-0.996284, 425, 97, 440, 160
-0.996319, 257, 233, 500, 296
-0.996325, 289, 41, 416, 72
-0.996328, 261, 41, 276, 104
-0.996343, 49, 81, 176, 112
-0.996346, 255, 41, 270, 104
-0.996356, 183, 105, 198, 168
-0.996356, 161, 9, 176, 72
-0.996356, 425, 177, 440, 240
-0.996365, 437, 81, 452, 144
-0.996372, 419, 169, 434, 232
-0.996377, 177, 185, 192, 248
-0.996409, 97, 257, 352, 320
-0.996411, 221, 41, 236, 104
-0.996424, 305, 197, 432, 228
-0.996433, 171, 97, 186, 160
-0.996434, 301, 41, 316, 104
-0.996438, 435, 25, 450, 88
-0.996451, 247, 41, 262, 104
-0.996457, 445, 57, 460, 120
-0.996457, 321, 89, 448, 120
-0.996471, 227, 41, 242, 104
-0.996474, 353, 169, 480, 200
-0.99649, 193, 145, 208, 208
-0.996492, 289, 1, 320, 256
-0.996492, 143, 57, 158, 120
-0.996514, 1, 225, 500, 288
-0.996516, 43, 17, 58, 80
-0.99652, 93, 49, 108, 112
-0.996531, 221, 65, 236, 128
-0.996534, 309, 49, 324, 112
-0.996537, 177, 1, 192, 64
-0.996537, 249, 97, 312, 224
-0.996554, 163, 137, 178, 200
-0.996569, 145, 229, 272, 260
-0.996581, 421, 1, 452, 256
-0.996582, 105, 1, 136, 256
-0.996601, 369, 209, 496, 240
-0.996637, 129, 209, 256, 240
-0.996655, 193, 21, 320, 52
-0.996656, 465, 1, 496, 256
-0.996666, 129, 93, 256, 124
-0.996671, 1, 49, 128, 80
-0.996678, 1, 61, 128, 92
-0.996705, 369, 193, 496, 224
-0.996707, 209, 349, 336, 380
-0.996722, 1, 169, 500, 232
-0.996723, 397, 33, 428, 288
-0.996724, 1, 81, 128, 112
-0.996731, 1, 221, 128, 252
-0.996751, 241, 337, 368, 368
-0.996751, 125, 1, 156, 256
-0.996756, 1, 89, 500, 152
-0.996776, 161, 141, 288, 172
-0.996781, 1, 193, 256, 256
-0.996825, 161, 241, 288, 272
-0.996827, 145, 185, 272, 216
-0.996834, 197, 49, 212, 80
-0.996856, 97, 281, 352, 344
-0.996881, 145, 197, 272, 228
-0.996892, 65, 237, 192, 268
-0.996904, 321, 133, 448, 164
-0.996929, 257, 313, 500, 376
-0.996937, 225, 197, 352, 228
-0.996948, 33, 157, 160, 188
-0.996955, 33, 233, 288, 296
-0.996965, 121, 29, 136, 60
-0.99698, 225, 245, 352, 276
-0.997002, 97, 13, 224, 44
-0.997012, 177, 101, 304, 132
-0.997019, 481, 85, 496, 116
-0.997023, 385, 33, 416, 288
-0.997025, 1, 313, 500, 376
-0.997031, 177, 97, 208, 352
-0.99704, 369, 149, 496, 180
-0.997075, 57, 33, 88, 288
-0.997098, 161, 153, 288, 184
-0.997105, 305, 221, 432, 252
-0.997127, 129, 29, 144, 60
-0.997137, 49, 197, 176, 228
-0.997142, 37, 1, 68, 256
-0.997145, 1, 121, 500, 184
-0.997151, 365, 33, 396, 288
-0.997155, 457, 77, 472, 108
-0.997155, 137, 33, 152, 64
-0.997156, 211, 29, 226, 60
-0.997161, 209, 161, 336, 192
-0.99719, 241, 321, 368, 352
-0.997191, 17, 185, 144, 216
-0.997204, 1, 337, 256, 400
-0.997206, 1, 197, 128, 228
-0.997215, 81, 213, 208, 244
-0.997219, 447, 13, 462, 44
-0.997224, 257, 221, 384, 252
-0.997227, 205, 29, 220, 60
-0.997229, 161, 305, 416, 368
-0.997233, 277, 1, 308, 256
-0.997233, 1, 169, 128, 200
-0.997233, 143, 49, 158, 80
-0.997238, 177, 121, 304, 152
-0.997238, 245, 1, 276, 256
-0.997241, 321, 249, 448, 280
-0.997242, 151, 25, 166, 56
-0.997242, 205, 1, 236, 256
-0.997248, 1, 353, 128, 384
-0.997259, 337, 41, 464, 72
-0.997278, 171, 73, 186, 104
-0.997294, 203, 49, 218, 80
-0.997295, 93, 1, 124, 256
-0.997295, 289, 269, 416, 300
-0.997317, 353, 181, 480, 212
-0.997345, 345, 1, 376, 256
-0.997388, 241, 309, 368, 340
-0.997389, 257, 1, 288, 256
-0.99739, 329, 33, 360, 288
-0.997394, 81, 105, 208, 136
-0.997404, 353, 221, 480, 252
-0.997405, 241, 285, 368, 316
-0.997407, 191, 49, 206, 80
-0.997416, 183, 25, 198, 56
-0.99742, 289, 337, 416, 368
-0.99742, 165, 129, 196, 384
-0.997435, 209, 49, 224, 80
-0.997438, 185, 133, 200, 164
-0.997439, 241, 265, 368, 296
-0.99744, 177, 65, 192, 96
-0.997447, 1, 233, 128, 264
-0.997458, 353, 237, 480, 268
-0.99747, 301, 33, 332, 288
-0.997471, 129, 125, 256, 156
-0.997477, 433, 97, 464, 352
-0.997478, 429, 121, 444, 152
-0.997488, 193, 105, 208, 136
-0.997502, 467, 81, 482, 112
-0.997512, 167, 49, 182, 80
-0.997521, 199, 29, 214, 60
-0.997521, 367, 57, 382, 88
-0.997524, 175, 141, 190, 172
-0.99757, 427, 97, 442, 128
-0.997572, 289, 353, 416, 384
-0.997582, 317, 33, 348, 288
-0.997587, 115, 29, 130, 60
-0.997589, 167, 133, 182, 164
-0.997594, 289, 233, 416, 264
-0.997604, 137, 49, 152, 80
-0.997604, 289, 173, 416, 204
-0.997621, 65, 305, 320, 368
-0.997623, 289, 317, 416, 348
-0.997634, 273, 89, 400, 120
-0.997641, 161, 169, 288, 200
-0.997648, 273, 245, 400, 276
-0.997649, 81, 285, 208, 316
-0.997649, 1, 249, 500, 312
-0.997658, 225, 337, 480, 400
-0.997662, 185, 61, 200, 92
-0.997665, 17, 249, 144, 280
-0.997666, 479, 129, 494, 160
-0.997667, 445, 37, 460, 68
-0.997668, 197, 117, 212, 148
-0.99768, 65, 145, 192, 176
-0.997685, 469, 97, 500, 352
-0.997686, 305, 185, 432, 216
-0.997698, 81, 129, 208, 160
-0.997706, 377, 61, 392, 92
-0.997714, 55, 65, 70, 96
-0.997722, 321, 305, 448, 336
-0.997731, 407, 49, 422, 80
-0.997738, 269, 5, 284, 36
-0.997745, 191, 17, 206, 48
-0.997754, 449, 133, 464, 164
-0.997757, 1, 277, 128, 308
-0.997761, 143, 37, 158, 68
-0.997768, 441, 25, 456, 56
-0.997769, 369, 257, 496, 288
-0.997774, 233, 65, 264, 320
-0.99778, 109, 33, 124, 64
-0.99778, 459, 97, 474, 128
-0.997783, 453, 89, 468, 120
-0.997798, 241, 297, 368, 328
-0.997822, 381, 101, 396, 132
-0.997824, 479, 101, 494, 132
-0.997826, 355, 57, 370, 88
-0.997827, 193, 37, 208, 68
-0.997834, 353, 1, 480, 64
-0.997842, 193, 265, 320, 296
-0.997844, 269, 29, 284, 60
-0.997844, 21, 33, 52, 288
-0.997844, 149, 129, 180, 384
-0.997846, 191, 133, 206, 164
-0.997848, 173, 93, 188, 124
-0.997854, 9, 33, 40, 288
-0.997856, 401, 53, 416, 84
-0.997872, 101, 21, 116, 52
-0.997873, 395, 85, 410, 116
-0.997874, 1, 329, 128, 360
-0.997876, 165, 77, 180, 108
-0.997885, 483, 73, 498, 104
-0.99789, 217, 33, 232, 64
-0.997891, 225, 361, 352, 392
-0.997893, 39, 25, 54, 56
-0.9979, 209, 173, 336, 204
-0.997907, 485, 149, 500, 180
-0.997909, 473, 77, 488, 108
-0.997909, 429, 133, 444, 164
-0.997913, 289, 365, 416, 396
-0.997915, 1, 281, 256, 344
-0.997916, 183, 97, 198, 128
-0.997919, 387, 97, 402, 128
-0.997924, 173, 45, 188, 76
-0.997927, 171, 61, 186, 92
-0.997927, 209, 185, 336, 216
-0.997939, 81, 249, 208, 280
-0.99794, 187, 113, 202, 144
-0.997964, 161, 329, 288, 360
-0.997967, 225, 81, 352, 112
-0.997974, 129, 281, 256, 312
-0.997976, 167, 89, 182, 120
-0.997991, 93, 37, 108, 68
-0.997992, 149, 57, 164, 88
-0.997993, 7, 17, 22, 48
-0.997993, 479, 189, 494, 220
-0.997999, 191, 225, 206, 256
-0.998004, 185, 193, 200, 224
-0.998005, 273, 121, 400, 152
-0.99801, 159, 65, 174, 96
-0.998013, 443, 69, 458, 100
-0.998016, 215, 45, 230, 76
-0.998017, 193, 317, 320, 348
-0.998018, 435, 141, 450, 172
-0.998019, 161, 345, 288, 376
-0.99802, 435, 85, 450, 116
-0.998022, 439, 37, 454, 68
-0.998024, 405, 77, 420, 108
-0.998028, 193, 285, 320, 316
-0.998033, 387, 81, 402, 112
-0.998041, 23, 17, 38, 48
-0.998042, 99, 33, 114, 64
-0.998043, 239, 45, 254, 76
-0.998046, 135, 153, 150, 184
-0.998053, 131, 45, 146, 76
-0.998054, 415, 53, 430, 84
-0.998055, 455, 137, 470, 168
-0.998061, 191, 61, 206, 92
-0.998063, 421, 97, 452, 352
-0.998064, 53, 49, 68, 80
-0.998065, 47, 65, 62, 96
-0.998071, 295, 41, 310, 72
-0.998073, 471, 65, 486, 96
-0.998076, 395, 65, 410, 96
-0.998078, 203, 109, 218, 140
-0.99808, 301, 225, 316, 256
-0.998084, 481, 113, 496, 144
-0.998089, 177, 253, 304, 284
-0.998091, 423, 129, 438, 160
-0.998098, 49, 321, 176, 352
-0.998106, 187, 209, 202, 240
-0.998109, 107, 21, 122, 52
-0.998109, 423, 141, 438, 172
-0.99811, 177, 69, 304, 100
-0.99811, 449, 145, 464, 176
-0.998122, 247, 225, 262, 256
-0.998127, 307, 229, 322, 260
-0.998127, 465, 93, 480, 124
-0.998128, 451, 73, 466, 104
-0.998135, 287, 33, 302, 64
-0.998142, 33, 261, 160, 292
-0.998148, 473, 193, 488, 224
-0.998151, 253, 225, 268, 256
-0.998152, 321, 285, 448, 316
-0.998152, 309, 241, 324, 272
-0.998156, 125, 41, 140, 72
-0.998156, 361, 69, 376, 100
-0.998162, 59, 45, 74, 76
-0.998164, 165, 61, 180, 92
-0.998167, 351, 69, 366, 100
-0.998167, 485, 101, 500, 132
-0.998168, 307, 213, 322, 244
-0.99817, 371, 105, 386, 136
-0.998174, 33, 21, 48, 52
-0.998179, 175, 189, 190, 220
-0.998183, 211, 65, 226, 96
-0.998192, 177, 89, 304, 120
-0.998193, 477, 65, 492, 96
-0.998196, 369, 269, 496, 300
-0.998196, 227, 105, 242, 136
-0.9982, 459, 125, 474, 156
-0.998203, 199, 61, 214, 92
-0.998203, 103, 153, 118, 184
-0.998203, 447, 25, 462, 56
-0.99821, 413, 81, 428, 112
-0.998212, 13, 13, 28, 44
-0.998224, 319, 53, 334, 84
-0.99825, 1, 9, 500, 72
-0.998345, 445, 129, 476, 384
-0.998359, 1, 145, 500, 208
-0.998365, 193, 97, 224, 352
-0.99839, 73, 59, 104, 74
-0.99839, 401, 89, 432, 104
-0.998391, 165, 153, 196, 168
-0.998392, 401, 75, 432, 90
-0.998393, 185, 139, 216, 154
-0.998394, 189, 33, 220, 48
-0.998395, 181, 189, 212, 204
-0.998395, 141, 57, 172, 72
-0.998396, 421, 59, 452, 74
-0.998397, 189, 57, 220, 72
-0.998397, 213, 179, 244, 194
-0.998398, 369, 111, 400, 126
-0.998398, 385, 83, 416, 98
-0.998399, 457, 111, 488, 126
-0.998399, 433, 95, 464, 110
-0.998399, 393, 67, 424, 82
-0.998399, 197, 125, 228, 140
-0.9984, 149, 77, 180, 92
-0.9984, 309, 357, 340, 372
-0.998402, 169, 33, 232, 48
-0.998403, 45, 35, 76, 50
-0.998406, 373, 61, 404, 76
-0.998407, 413, 145, 444, 160
-0.998407, 177, 107, 208, 122
-0.998408, 165, 221, 196, 236
-0.998409, 297, 233, 328, 248
-0.998411, 241, 49, 272, 64
-0.998411, 437, 21, 468, 36
-0.998411, 137, 25, 168, 40
-0.998411, 161, 45, 192, 60
-0.998412, 1, 193, 500, 256
-0.998412, 417, 77, 448, 92
-0.998413, 313, 47, 344, 62
-0.998414, 265, 25, 296, 40
-0.998415, 137, 53, 200, 68
-0.998415, 349, 65, 380, 80
-0.998415, 181, 133, 212, 148
-0.998416, 161, 39, 192, 54
-0.998416, 261, 349, 292, 364
-0.998416, 113, 31, 176, 46
-0.998416, 213, 61, 244, 76
-0.998416, 441, 79, 472, 94
-0.998417, 437, 37, 468, 52
-0.998417, 261, 5, 292, 20
-0.998417, 217, 43, 248, 58
-0.998418, 85, 37, 116, 52
-0.998418, 197, 111, 228, 126
-0.998419, 173, 55, 204, 70
-0.99842, 393, 49, 424, 64
-0.99842, 405, 45, 436, 60
-0.998421, 317, 65, 348, 80
-0.998421, 9, 17, 40, 32
-0.998422, 457, 125, 488, 140
-0.998423, 169, 101, 200, 116
-0.998423, 241, 227, 272, 242
-0.998423, 157, 23, 188, 38
-0.998425, 149, 95, 180, 110
-0.998425, 157, 89, 188, 104
-0.998428, 465, 75, 496, 90
-0.998429, 469, 141, 500, 156
-0.998429, 417, 103, 448, 118
-0.998429, 413, 53, 444, 68
-0.998431, 141, 39, 172, 54
-0.998431, 205, 43, 236, 58
-0.998431, 197, 119, 228, 134
-0.998431, 337, 65, 368, 80
-0.998432, 437, 133, 468, 148
-0.998433, 129, 37, 192, 52
-0.998434, 465, 87, 496, 102
-0.998434, 185, 113, 216, 128
-0.998435, 361, 71, 392, 86
-0.998435, 389, 91, 420, 106
-0.998436, 433, 101, 464, 116
-0.998437, 425, 111, 488, 126
-0.998437, 437, 147, 468, 162
-0.998438, 197, 65, 228, 80
-0.998439, 165, 187, 196, 202
-0.998439, 425, 133, 456, 148
-0.99844, 381, 67, 412, 82
-0.99844, 169, 39, 232, 54
-0.998441, 453, 141, 484, 156
-0.998441, 445, 95, 476, 110
-0.998441, 181, 145, 212, 160
-0.998442, 461, 99, 492, 114
-0.998442, 145, 51, 176, 66
-0.998442, 297, 227, 328, 242
-0.998443, 145, 71, 176, 86
-0.998444, 121, 47, 152, 62
-0.998445, 425, 139, 456, 154
-0.998446, 417, 139, 480, 154
-0.998446, 433, 85, 496, 100
-0.998446, 193, 25, 224, 40
-0.998447, 97, 27, 128, 42
-0.998449, 413, 97, 444, 112
-0.99845, 417, 93, 480, 108
-0.998453, 165, 79, 196, 94
-0.998453, 433, 117, 464, 132
-0.998454, 389, 73, 420, 88
-0.998457, 401, 61, 432, 76
-0.998457, 349, 71, 380, 86
-0.998459, 169, 65, 232, 80
-0.99846, 89, 35, 152, 50
-0.99846, 129, 59, 160, 74
-0.99846, 177, 39, 208, 54
-0.998461, 401, 83, 432, 98
-0.998462, 437, 89, 468, 104
-0.998463, 425, 129, 488, 144
-0.998463, 157, 139, 188, 154
-0.998472, 169, 27, 232, 42
-0.998475, 453, 131, 484, 146
-0.998475, 257, 43, 320, 58
-0.998477, 377, 99, 440, 114
-0.998477, 361, 65, 392, 80
-0.998479, 177, 33, 208, 48
-0.99848, 145, 59, 208, 74
-0.998484, 53, 65, 84, 80
-0.998484, 169, 73, 200, 88
-0.998485, 141, 63, 172, 78
-0.998486, 269, 33, 300, 48
-0.998487, 425, 101, 488, 116
-0.998487, 373, 105, 404, 120
-0.998488, 369, 67, 432, 82
-0.998488, 437, 139, 468, 154
-0.998491, 437, 111, 468, 126
-0.998492, 129, 43, 192, 58
-0.998493, 161, 95, 192, 110
-0.998493, 161, 33, 192, 48
-0.998497, 457, 105, 488, 120
-0.998503, 353, 59, 384, 74
-0.998503, 437, 27, 468, 42
-0.998504, 165, 65, 196, 80
-0.998506, 385, 105, 448, 120
-0.998506, 385, 97, 416, 112
-0.998508, 89, 43, 152, 58
-0.998509, 129, 53, 160, 68
-0.99851, 145, 45, 176, 60
-0.998511, 137, 65, 200, 80
-0.998513, 337, 71, 400, 86
-0.998513, 169, 145, 200, 160
-0.998513, 49, 65, 112, 80
-0.998515, 97, 51, 160, 66
-0.998517, 409, 123, 472, 138
-0.998519, 97, 33, 128, 48
-0.998519, 401, 55, 432, 70
-0.99852, 409, 117, 472, 132
-0.99852, 453, 79, 484, 94
-0.998522, 441, 71, 472, 86
-0.998523, 153, 45, 216, 60
-0.998524, 345, 61, 408, 76
-0.998525, 173, 45, 204, 60
-0.998525, 177, 59, 240, 74
-0.998526, 393, 83, 456, 98
-0.998529, 209, 39, 272, 54
-0.998529, 385, 129, 448, 144
-0.99853, 93, 97, 124, 352
-0.99853, 181, 63, 212, 78
-0.998531, 433, 77, 496, 92
-0.998532, 401, 111, 464, 126
-0.998534, 177, 49, 240, 64
-0.998535, 153, 65, 184, 80
-0.998536, 145, 27, 208, 42
-0.998541, 49, 73, 112, 88
-0.998541, 385, 73, 448, 88
-0.998542, 305, 63, 368, 78
-0.998546, 105, 57, 168, 72
-0.998547, 385, 137, 448, 152
-0.998549, 137, 71, 200, 86
-0.998549, 137, 95, 200, 110
-0.998549, 129, 35, 160, 50
-0.99855, 361, 109, 424, 124
-0.998555, 169, 71, 232, 86
-0.998559, 105, 63, 168, 78
-0.998559, 153, 21, 216, 36
-0.99856, 393, 93, 456, 108
-0.99856, 425, 145, 488, 160
-0.998561, 409, 71, 472, 86
-0.998562, 145, 221, 208, 236
-0.998562, 193, 49, 224, 64
-0.998563, 169, 135, 200, 150
-0.998564, 257, 351, 320, 366
-0.998565, 393, 65, 456, 80
-0.998567, 137, 77, 200, 92
-0.998569, 369, 53, 432, 68
-0.99857, 385, 143, 448, 158
-0.998573, 369, 59, 432, 74
-0.998576, 65, 35, 128, 50
-0.998576, 89, 29, 152, 44
-0.998576, 393, 59, 456, 74
-0.998577, 141, 31, 172, 46
-0.998578, 385, 117, 448, 132
-0.998578, 257, 335, 320, 350
-0.998578, 181, 27, 212, 42
-0.998579, 185, 127, 248, 142
-0.998581, 121, 187, 184, 202
-0.998581, 201, 45, 264, 60
-0.998581, 433, 25, 496, 40
-0.998581, 137, 101, 200, 116
-0.998582, 433, 71, 496, 86
-0.998583, 65, 41, 128, 56
-0.998584, 109, 39, 140, 54
-0.998586, 401, 47, 464, 62
-0.998588, 257, 345, 320, 360
-0.998592, 361, 75, 424, 90
-0.998593, 313, 71, 376, 86
-0.998593, 305, 45, 368, 60
-0.998593, 281, 331, 344, 346
-0.998594, 433, 17, 496, 32
-0.998594, 153, 227, 216, 242
-0.998595, 185, 117, 248, 132
-0.998599, 145, 107, 208, 122
-0.9986, 257, 329, 320, 344
-0.9986, 313, 323, 376, 338
-0.9986, 65, 25, 128, 40
-0.9986, 385, 123, 448, 138
-0.9986, 153, 133, 216, 148
-0.998601, 393, 53, 456, 68
-0.998601, 281, 355, 344, 370
-0.998601, 281, 337, 344, 352
-0.998602, 145, 191, 208, 206
-0.998602, 281, 325, 344, 340
-0.998602, 409, 35, 472, 50
-0.998604, 9, 37, 72, 52
-0.998606, 129, 145, 192, 160
-0.998607, 201, 61, 264, 76
-0.998608, 81, 65, 144, 80
-0.99861, 97, 73, 160, 88
-0.998611, 257, 37, 320, 52
-0.998611, 17, 27, 80, 42
-0.998612, 409, 77, 472, 92
-0.998613, 257, 317, 320, 332
-0.998613, 337, 77, 400, 92
-0.998614, 129, 97, 160, 352
-0.998617, 281, 347, 344, 362
-0.998617, 145, 215, 208, 230
-0.998618, 185, 107, 248, 122
-0.998618, 257, 357, 320, 372
-0.998618, 177, 101, 240, 116
-0.998619, 17, 173, 80, 188
-0.998619, 353, 201, 416, 216
-0.998621, 401, 99, 464, 114
-0.998621, 89, 153, 152, 168
-0.998621, 49, 79, 112, 94
-0.998622, 137, 83, 200, 98
-0.998623, 217, 33, 280, 48
-0.998623, 401, 177, 464, 192
-0.998624, 257, 323, 320, 338
-0.998624, 273, 51, 336, 66
-0.998624, 121, 193, 184, 208
-0.998625, 1, 21, 64, 36
-0.998625, 169, 217, 232, 232
-0.998625, 321, 57, 384, 72
-0.998626, 433, 31, 496, 46
-0.998626, 409, 27, 472, 42
-0.998626, 289, 361, 352, 376
-0.998627, 193, 31, 256, 46
-0.998629, 41, 35, 104, 50
-0.998629, 193, 183, 256, 198
-0.99863, 193, 223, 256, 238
-0.99863, 41, 167, 104, 182
-0.998631, 321, 331, 384, 346
-0.998631, 233, 217, 296, 232
-0.998635, 201, 31, 232, 46
-0.998649, 109, 129, 140, 384
-0.998652, 117, 31, 148, 46
-0.998658, 475, 65, 490, 192
-0.998703, 197, 1, 212, 128
-0.998717, 245, 129, 276, 384
-0.998728, 485, 81, 500, 208
-0.998745, 151, 17, 166, 144
-0.998747, 351, 49, 366, 176
-0.998748, 365, 49, 380, 176
-0.998755, 429, 97, 444, 224
-0.998756, 185, 1, 200, 128
-0.99877, 309, 129, 340, 384
-0.998777, 177, 17, 192, 144
-0.998811, 169, 49, 184, 176
-0.998826, 445, 1, 460, 128
-0.998829, 375, 49, 390, 176
-0.99884, 449, 65, 464, 192
-0.998849, 5, 129, 36, 384
-0.998857, 385, 129, 416, 384
-0.998863, 357, 49, 372, 176
-0.998863, 455, 97, 470, 224
-0.998871, 193, 49, 208, 176
-0.998876, 335, 49, 350, 176
-0.998886, 175, 129, 190, 256
-0.998888, 469, 65, 484, 192
-0.998895, 143, 49, 158, 176
-0.998895, 383, 65, 398, 192
-0.998898, 435, 65, 450, 192
-0.998901, 215, 17, 230, 144
-0.998926, 441, 129, 456, 256
-0.998927, 161, 33, 176, 160
-0.998927, 169, 97, 184, 224
-0.998928, 425, 33, 440, 160
-0.99893, 389, 49, 404, 176
-0.998933, 461, 65, 476, 192
-0.998933, 1, 337, 500, 400
-0.998939, 221, 33, 236, 160
-0.99894, 269, 1, 284, 128
-0.998944, 365, 129, 396, 384
-0.998947, 457, 129, 488, 384
-0.998948, 191, 1, 206, 128
-0.998949, 139, 1, 154, 128
-0.998954, 1, 257, 256, 320
-0.998961, 203, 49, 218, 176
-0.998965, 419, 49, 434, 176
-0.998982, 235, 33, 250, 160
-0.998983, 133, 17, 148, 144
-0.999, 405, 33, 420, 160
-0.999003, 261, 1, 276, 128
-0.999007, 411, 49, 426, 176
-0.999013, 353, 97, 384, 352
-0.999014, 209, 17, 224, 144
-0.999016, 483, 145, 498, 272
-0.999016, 343, 65, 358, 192
-0.999025, 33, 97, 64, 352
-0.999027, 227, 49, 242, 176
-0.999036, 449, 129, 464, 256
-0.999039, 175, 65, 190, 192
-0.999052, 325, 49, 340, 176
-0.999053, 313, 209, 328, 336
-0.999069, 161, 145, 176, 272
-0.999082, 185, 113, 200, 240
-0.999088, 75, 1, 90, 128
-0.999089, 261, 129, 292, 384
-0.999098, 69, 1, 84, 128
-0.9991, 17, 129, 48, 384
-0.999108, 297, 129, 328, 384
-0.999109, 455, 49, 470, 176
-0.999116, 123, 17, 138, 144
-0.999119, 395, 33, 410, 160
-0.999123, 481, 33, 496, 160
-0.999125, 429, 145, 444, 272
-0.999137, 215, 65, 230, 192
-0.999138, 59, 17, 74, 144
-0.999142, 203, 1, 218, 128
-0.999143, 441, 49, 456, 176
-0.999151, 285, 129, 316, 384
-0.999157, 81, 97, 112, 352
-0.999163, 319, 49, 334, 176
-0.999165, 99, 1, 114, 128
-0.999172, 197, 129, 212, 256
-0.999175, 145, 1, 160, 128
-0.999176, 43, 1, 58, 128
-0.999178, 205, 129, 236, 384
-0.999182, 221, 129, 252, 384
-0.999188, 169, 1, 184, 128
-0.999189, 45, 97, 76, 352
-0.999193, 397, 129, 428, 384
-0.999199, 83, 33, 98, 160
-0.999202, 435, 129, 450, 256
-0.999208, 475, 17, 490, 144
-0.999209, 475, 113, 490, 240
-0.99921, 111, 17, 126, 144
-0.999212, 93, 33, 108, 160
-0.999212, 191, 129, 206, 256
-0.999213, 53, 17, 68, 144
-0.999214, 287, 17, 302, 144
-0.999218, 279, 17, 294, 144
-0.999224, 155, 129, 170, 256
-0.999232, 187, 49, 202, 176
-0.999237, 21, 1, 36, 128
-0.999241, 237, 177, 252, 304
-0.999243, 247, 33, 262, 160
-0.999244, 35, 1, 50, 128
-0.999252, 241, 33, 256, 160
-0.999258, 453, 1, 468, 128
-0.999259, 169, 145, 184, 272
-0.999262, 255, 33, 270, 160
-0.999264, 409, 129, 440, 384
-0.999267, 369, 113, 384, 240
-0.999268, 303, 257, 318, 384
-0.999271, 105, 145, 120, 272
-0.999271, 307, 33, 322, 160
-0.999272, 395, 81, 410, 208
-0.999276, 1, 1, 16, 128
-0.999282, 11, 1, 26, 128
-0.999286, 307, 177, 322, 304
-0.999286, 247, 193, 262, 320
-0.999287, 67, 49, 82, 176
-0.999288, 69, 97, 100, 352
-0.999296, 209, 65, 224, 192
-0.999297, 221, 81, 236, 208
-0.999303, 105, 17, 120, 144
-0.999304, 461, 113, 476, 240
-0.999314, 313, 273, 328, 400
-0.999316, 185, 161, 200, 288
-0.999317, 297, 33, 312, 160
-0.99932, 93, 177, 108, 304
-0.999325, 203, 97, 218, 224
-0.999329, 477, 161, 492, 288
-0.999338, 103, 193, 118, 320
-0.999341, 343, 17, 358, 144
-0.999341, 313, 49, 328, 176
-0.999342, 147, 129, 162, 256
-0.99935, 27, 1, 42, 128
-0.99936, 421, 97, 436, 224
-0.999361, 253, 177, 268, 304
-0.999363, 181, 65, 196, 192
-0.999371, 361, 97, 376, 224
-0.999375, 367, 177, 382, 304
-0.999376, 469, 129, 484, 256
-0.999377, 469, 17, 484, 144
-0.99939, 179, 177, 194, 304
-0.999391, 163, 81, 178, 208
-0.999399, 421, 177, 436, 304
-0.999402, 435, 17, 450, 144
-0.999402, 117, 33, 132, 160
-0.999403, 357, 193, 372, 320
-0.999404, 321, 241, 336, 368
-0.999412, 73, 49, 88, 176
-0.999413, 381, 17, 396, 144
-0.999415, 289, 257, 304, 384
-0.999415, 227, 97, 242, 224
-0.999589, 155, 185, 170, 200
-0.999589, 365, 331, 380, 346
-0.999589, 181, 39, 196, 54
-0.99959, 191, 227, 206, 242
-0.99959, 227, 69, 242, 84
-0.999591, 427, 107, 442, 122
-0.999591, 53, 81, 68, 96
-0.999593, 389, 95, 404, 110
-0.999594, 229, 177, 244, 192
-0.999594, 185, 147, 200, 162
-0.999594, 449, 133, 464, 148
-0.999594, 103, 33, 118, 48
-0.999595, 325, 359, 340, 374
-0.999595, 363, 325, 378, 340
-0.999595, 417, 53, 432, 68
-0.999596, 167, 49, 182, 64
-0.999597, 177, 139, 192, 154
-0.999597, 371, 59, 386, 74
-0.999599, 203, 49, 218, 64
-0.999599, 363, 61, 378, 76
-0.999599, 421, 141, 436, 156
-0.9996, 475, 83, 490, 98
-0.999601, 411, 45, 426, 60
-0.999601, 287, 35, 302, 50
-0.999602, 409, 73, 424, 88
-0.999603, 193, 35, 208, 50
-0.999603, 361, 71, 376, 86
-0.999603, 445, 73, 460, 88
-0.999605, 427, 95, 442, 110
-0.999606, 211, 67, 226, 82
-0.999606, 401, 97, 416, 112
-0.999607, 185, 21, 200, 36
-0.999608, 463, 81, 478, 96
-0.999608, 481, 109, 496, 124
-0.999608, 459, 105, 474, 120
-0.999609, 409, 57, 424, 72
-0.999609, 253, 223, 268, 238
-0.999609, 375, 107, 390, 122
-0.999611, 455, 145, 470, 160
-0.999611, 175, 103, 190, 118
-0.999612, 403, 47, 418, 62
-0.999612, 267, 9, 282, 24
-0.999612, 203, 113, 218, 128
-0.999612, 193, 115, 208, 130
-0.999613, 425, 175, 440, 190
-0.999613, 153, 35, 168, 50
-0.999614, 395, 87, 410, 102
-0.999614, 177, 73, 192, 88
-0.999614, 385, 101, 400, 116
-0.999615, 175, 93, 190, 108
-0.999616, 161, 227, 176, 242
-0.999617, 169, 81, 184, 96
-0.999617, 165, 89, 180, 104
-0.999617, 167, 145, 182, 160
-0.999618, 271, 25, 286, 40
-0.999619, 175, 151, 190, 166
-0.99962, 271, 33, 286, 48
-0.999621, 239, 47, 254, 62
-0.999621, 141, 37, 156, 52
-0.999622, 475, 163, 490, 178
-0.999622, 215, 43, 230, 58
-0.999623, 103, 155, 118, 170
-0.999623, 465, 99, 480, 114
-0.999623, 447, 37, 462, 52
-0.999624, 269, 17, 284, 32
-0.999624, 429, 133, 444, 148
-0.999625, 135, 33, 150, 48
-0.999625, 191, 59, 206, 74
-0.999626, 127, 43, 142, 58
-0.999626, 441, 37, 456, 52
-0.999626, 203, 29, 218, 44
-0.999627, 185, 193, 200, 208
-0.999627, 185, 133, 200, 148
-0.999627, 465, 75, 480, 90
-0.999628, 109, 27, 124, 42
-0.999629, 355, 61, 370, 76
-0.999629, 203, 119, 218, 134
-0.99963, 353, 69, 368, 84
-0.99963, 183, 99, 198, 114
-0.999631, 193, 107, 208, 122
-0.999632, 7, 281, 22, 296
-0.999633, 449, 13, 464, 28
-0.999633, 179, 189, 194, 204
-0.999634, 135, 49, 150, 64
-0.999634, 371, 65, 386, 80
-0.999634, 167, 95, 182, 110
-0.999635, 443, 29, 458, 44
-0.999635, 193, 133, 208, 148
-0.999636, 447, 19, 462, 34
-0.999637, 111, 39, 126, 54
-0.999639, 197, 127, 212, 142
-0.999642, 411, 51, 426, 66
-0.999642, 151, 63, 166, 78
-0.999643, 171, 65, 186, 80
-0.999645, 1, 289, 500, 352
-0.999645, 111, 33, 126, 48
-0.999648, 483, 163, 498, 178
-0.999649, 265, 3, 280, 18
-0.999651, 117, 37, 132, 52
-0.999651, 427, 101, 442, 116
-0.999652, 435, 93, 450, 108
-0.999652, 483, 87, 498, 102
-0.999655, 481, 103, 496, 118
-0.999658, 395, 93, 410, 108
-0.999658, 53, 67, 68, 82
-0.999659, 209, 47, 224, 62
-0.99966, 145, 59, 160, 74
-0.999668, 457, 95, 472, 110
-0.999669, 403, 53, 418, 68
-0.99967, 473, 77, 488, 92
-0.999672, 451, 71, 466, 86
-0.999672, 171, 137, 186, 152
-0.999672, 477, 135, 492, 150
-0.999676, 449, 139, 464, 154
-0.999677, 183, 33, 198, 48
-0.999679, 183, 141, 198, 156
-0.999679, 175, 145, 190, 160
-0.999679, 213, 31, 228, 46
-0.999687, 185, 63, 200, 78
-0.999689, 193, 27, 208, 42
-0.999697, 129, 31, 144, 46
-0.9997, 165, 65, 180, 80
-0.999705, 197, 49, 212, 64
-0.999706, 177, 67, 192, 82
-0.999711, 455, 79, 470, 94
-0.999717, 119, 31, 134, 46
-0.999722, 141, 53, 156, 68
-0.999722, 171, 75, 186, 90
-0.999727, 429, 139, 444, 154
-0.99974, 151, 29, 166, 44
-0.999755, 183, 27, 198, 42
-0.999764, 325, 129, 356, 384
-0.999904, 57, 129, 88, 384
-0.999937, 341, 97, 372, 352
-1.00004, 273, 97, 304, 352
-1.0017, 305, 1, 432, 64
