2100
-0.419643, 1, 193, 476, 448
-0.500113, 1, 1, 476, 500
-0.522125, 129, 1, 384, 500
-0.564399, 1, 65, 476, 320
-0.573291, 1, 1, 256, 500
-0.635336, 129, 161, 384, 416
-0.697069, 225, 1, 476, 500
-0.701726, 65, 257, 320, 500
-0.741999, 161, 257, 416, 500
-0.74834, 1, 161, 256, 416
-0.751111, 129, 65, 384, 320
-0.766387, 225, 97, 476, 352
-0.802512, 1, 1, 256, 256
-0.846556, 145, 161, 272, 416
-0.870215, 225, 1, 476, 256
-0.870627, 161, 1, 288, 500
-0.873331, 81, 257, 208, 500
-0.879843, 1, 305, 476, 432
-0.880857, 241, 193, 368, 448
-0.881743, 129, 257, 256, 500
-0.883521, 145, 65, 272, 320
-0.885308, 65, 129, 192, 384
-0.887901, 193, 161, 320, 416
-0.888775, 241, 1, 368, 500
-0.888806, 305, 225, 432, 480
-0.894792, 17, 1, 144, 500
-0.896512, 321, 129, 448, 384
-0.89758, 289, 1, 416, 500
-0.897729, 209, 65, 336, 320
-0.899167, 97, 273, 352, 400
-0.90046, 193, 257, 320, 500
-0.902353, 81, 1, 208, 500
-0.905112, 1, 129, 476, 256
-0.906799, 33, 257, 160, 500
-0.911369, 17, 1, 144, 256
-0.912893, 1, 257, 476, 384
-0.912901, 1, 193, 476, 320
-0.913691, 353, 1, 476, 500
-0.914108, 257, 97, 384, 352
-0.914402, 33, 321, 288, 448
-0.916627, 353, 225, 476, 480
-0.916808, 97, 1, 224, 256
-0.917712, 65, 209, 320, 336
-0.919031, 321, 33, 448, 288
-0.921342, 17, 161, 144, 416
-0.922884, 1, 81, 476, 208
-0.924069, 1, 369, 476, 496
-0.928401, 193, 257, 448, 384
-0.929293, 129, 321, 384, 448
-0.935572, 33, 369, 288, 496
-0.93564, 97, 161, 352, 288
-0.936345, 129, 369, 384, 496
-0.937374, 129, 321, 192, 448
-0.937614, 225, 353, 476, 480
-0.937984, 1, 161, 256, 288
-0.939688, 225, 305, 476, 432
-0.941544, 1, 1, 476, 128
-0.944331, 1, 273, 256, 400
-0.94507, 225, 129, 476, 256
-0.945423, 225, 209, 476, 336
-0.945973, 209, 65, 336, 192
-0.946127, 153, 321, 216, 448
-0.946158, 161, 81, 416, 208
-0.946554, 49, 273, 176, 400
-0.946702, 257, 1, 384, 256
-0.947197, 161, 161, 288, 288
-0.947237, 129, 273, 256, 400
-0.947286, 193, 241, 320, 368
-0.947559, 137, 257, 200, 384
-0.948261, 249, 353, 312, 480
-0.948288, 241, 145, 368, 272
-0.949514, 65, 113, 320, 240
-0.949728, 65, 321, 192, 448
-0.949885, 105, 289, 168, 416
-0.950634, 113, 321, 240, 448
-0.950992, 273, 193, 400, 320
-0.951791, 153, 369, 216, 496
-0.952334, 273, 305, 336, 432
-0.95294, 145, 209, 272, 336
-0.953267, 161, 177, 224, 304
-0.953559, 105, 337, 168, 464
-0.953763, 225, 193, 352, 320
-0.953815, 41, 145, 104, 272
-0.954268, 1, 305, 64, 432
-0.954389, 297, 353, 360, 480
-0.955309, 129, 65, 256, 192
-0.95546, 121, 145, 184, 272
-0.955632, 65, 145, 192, 272
-0.955721, 249, 177, 312, 304
-0.95582, 225, 353, 352, 480
-0.955827, 65, 65, 320, 192
-0.956127, 289, 145, 416, 272
-0.956239, 1, 177, 64, 304
-0.956547, 273, 257, 400, 384
-0.956613, 81, 209, 208, 336
-0.957014, 17, 225, 80, 352
-0.957235, 1, 129, 64, 256
-0.957298, 201, 145, 264, 272
-0.957462, 161, 113, 288, 240
-0.957749, 185, 289, 248, 416
-0.957952, 17, 369, 144, 496
-0.958285, 17, 129, 144, 256
-0.958543, 193, 305, 320, 432
-0.95863, 1, 289, 128, 416
-0.95878, 129, 17, 256, 144
-0.958786, 281, 393, 344, 456
-0.959156, 273, 369, 400, 496
-0.959391, 273, 353, 336, 480
-0.960039, 225, 65, 288, 192
-0.960095, 177, 369, 240, 496
-0.960144, 241, 289, 304, 416
-0.960146, 265, 281, 328, 344
-0.960317, 65, 17, 320, 144
-0.960431, 361, 337, 424, 464
-0.960455, 321, 321, 448, 448
-0.9609, 25, 273, 88, 400
-0.960985, 273, 305, 400, 432
-0.961021, 353, 145, 476, 272
-0.961277, 129, 313, 192, 376
-0.961602, 241, 393, 304, 456
-0.961859, 257, 241, 320, 368
-0.962299, 49, 49, 176, 176
-0.962337, 297, 209, 360, 336
-0.962495, 313, 369, 376, 432
-0.962507, 57, 305, 120, 432
-0.96272, 113, 241, 176, 368
-0.963148, 177, 401, 240, 464
-0.963169, 321, 369, 448, 496
-0.963559, 129, 369, 256, 496
-0.963559, 225, 273, 288, 336
-0.963562, 153, 321, 216, 384
-0.963564, 41, 369, 104, 496
-0.963784, 273, 417, 336, 480
-0.963818, 105, 193, 168, 320
-0.963914, 289, 257, 352, 384
-0.963955, 89, 329, 152, 392
-0.964021, 329, 369, 392, 496
-0.964028, 33, 1, 160, 128
-0.964084, 177, 377, 240, 440
-0.964159, 105, 305, 168, 368
-0.964387, 209, 353, 272, 480
-0.964549, 81, 97, 208, 224
-0.9646, 305, 305, 368, 432
-0.964614, 169, 129, 232, 256
-0.964741, 17, 177, 144, 304
-0.964973, 321, 193, 448, 320
-0.965036, 289, 161, 352, 288
-0.965083, 161, 425, 224, 488
-0.965146, 65, 145, 128, 272
-0.965223, 81, 289, 144, 416
-0.96529, 25, 153, 88, 216
-0.965325, 177, 177, 240, 240
-0.965494, 1, 241, 128, 368
-0.965789, 329, 289, 392, 416
-0.965819, 97, 273, 160, 336
-0.965894, 121, 241, 184, 304
-0.966041, 305, 97, 432, 224
-0.966382, 9, 1, 72, 128
-0.966561, 217, 393, 280, 456
-0.966594, 241, 361, 304, 424
-0.966632, 113, 345, 176, 408
-0.966682, 145, 193, 208, 256
-0.96683, 193, 81, 256, 208
-0.966921, 225, 113, 288, 240
-0.967086, 193, 33, 448, 160
-0.967087, 353, 273, 476, 400
-0.967094, 137, 209, 200, 336
-0.967186, 65, 313, 128, 376
-0.967226, 137, 161, 200, 224
-0.967229, 305, 345, 368, 408
-0.967247, 41, 281, 104, 344
-0.967304, 305, 305, 368, 368
-0.967464, 185, 425, 248, 488
-0.967511, 1, 81, 64, 208
-0.967847, 121, 193, 184, 256
-0.96794, 65, 353, 128, 480
-0.96795, 289, 1, 416, 128
-0.968339, 249, 305, 312, 368
-0.968509, 1, 353, 64, 480
-0.968535, 161, 273, 224, 400
-0.968544, 81, 369, 208, 496
-0.96879, 201, 289, 264, 352
-0.968897, 257, 97, 320, 224
-0.968941, 217, 225, 280, 352
-0.969028, 9, 369, 72, 432
-0.969081, 225, 161, 288, 288
-0.969298, 129, 369, 192, 496
-0.969312, 281, 49, 344, 176
-0.969341, 353, 65, 476, 192
-0.969354, 49, 97, 112, 224
-0.969384, 41, 225, 104, 352
-0.969424, 313, 97, 376, 224
-0.969429, 281, 369, 344, 432
-0.96956, 177, 321, 240, 384
-0.969646, 345, 225, 408, 352
-0.96965, 305, 401, 368, 464
-0.969729, 153, 1, 216, 128
-0.969732, 89, 241, 152, 368
-0.96981, 241, 417, 304, 480
-0.96985, 153, 385, 216, 448
-0.969867, 209, 17, 336, 144
-0.969925, 417, 345, 476, 408
-0.969981, 369, 169, 432, 232
-0.970089, 9, 393, 72, 456
-0.970103, 177, 1, 240, 128
-0.970128, 41, 305, 104, 368
-0.970129, 353, 1, 476, 128
-0.970308, 145, 113, 208, 240
-0.970345, 281, 169, 344, 232
-0.970404, 105, 153, 168, 216
-0.970432, 145, 217, 208, 280
-0.970495, 337, 161, 400, 288
-0.970519, 257, 97, 384, 224
-0.970574, 217, 73, 280, 136
-0.97065, 153, 193, 216, 448
-0.970721, 73, 97, 136, 224
-0.970828, 73, 153, 136, 216
-0.970907, 225, 249, 288, 312
-0.970942, 361, 289, 424, 416
-0.971103, 217, 273, 280, 400
-0.971171, 225, 305, 288, 368
-0.971195, 17, 273, 80, 336
-0.971456, 345, 409, 408, 472
-0.971517, 145, 345, 208, 408
-0.971535, 81, 193, 144, 320
-0.971557, 137, 281, 200, 344
-0.971588, 9, 185, 72, 248
-0.971596, 17, 129, 80, 192
-0.971606, 129, 377, 192, 440
-0.971693, 65, 257, 128, 320
-0.971742, 241, 225, 304, 288
-0.971799, 329, 281, 392, 344
-0.971832, 345, 361, 408, 424
-0.971889, 1, 81, 128, 208
-0.972145, 33, 393, 96, 456
-0.972157, 401, 153, 464, 216
-0.97221, 177, 297, 240, 360
-0.972218, 385, 321, 448, 448
-0.972253, 257, 49, 320, 176
-0.972274, 97, 409, 160, 472
-0.972441, 1, 305, 64, 368
-0.972476, 385, 345, 448, 408
-0.972506, 201, 369, 264, 432
-0.97251, 289, 49, 416, 176
-0.972531, 17, 417, 80, 480
-0.972545, 177, 353, 304, 480
-0.972561, 417, 289, 476, 416
-0.972627, 225, 129, 288, 192
-0.972695, 137, 433, 200, 496
-0.972717, 241, 337, 304, 400
-0.972864, 113, 145, 240, 272
-0.972892, 289, 265, 352, 328
-0.972918, 25, 81, 88, 208
-0.972957, 113, 433, 176, 496
-0.973031, 41, 225, 104, 288
-0.973245, 345, 329, 408, 392
-0.973246, 185, 393, 216, 456
-0.973252, 273, 321, 336, 384
-0.973273, 41, 193, 104, 256
-0.973275, 321, 225, 384, 352
-0.973295, 185, 153, 248, 216
-0.973303, 9, 337, 72, 400
-0.973333, 57, 1, 120, 128
-0.973369, 241, 193, 304, 256
-0.973381, 65, 281, 128, 344
-0.973384, 65, 377, 128, 440
-0.973391, 49, 169, 112, 232
-0.97352, 201, 313, 264, 376
-0.973525, 369, 225, 432, 352
-0.973602, 65, 241, 128, 368
-0.973638, 369, 305, 432, 368
-0.973792, 209, 417, 272, 480
-0.973942, 265, 1, 328, 128
-0.973967, 97, 249, 160, 312
-0.974029, 417, 337, 476, 464
-0.974105, 401, 313, 464, 376
-0.974126, 385, 401, 448, 464
-0.974334, 9, 225, 72, 288
-0.974373, 73, 129, 136, 192
-0.974386, 225, 17, 288, 144
-0.974569, 89, 385, 152, 448
-0.974657, 129, 225, 192, 480
-0.974751, 313, 433, 376, 496
-0.974763, 281, 345, 344, 408
-0.974784, 41, 249, 104, 312
-0.974817, 313, 161, 376, 288
-0.974831, 89, 209, 152, 272
-0.974856, 257, 257, 320, 320
-0.97497, 417, 177, 476, 240
-0.975008, 305, 17, 368, 144
-0.975023, 345, 385, 408, 448
-0.975066, 33, 369, 96, 432
-0.975073, 257, 73, 320, 136
-0.975212, 73, 425, 136, 488
-0.975283, 89, 353, 152, 416
-0.975295, 25, 321, 88, 448
-0.975309, 89, 1, 152, 128
-0.975313, 113, 313, 240, 376
-0.975412, 65, 225, 128, 288
-0.975414, 393, 161, 456, 288
-0.975416, 49, 425, 112, 488
-0.975455, 361, 433, 424, 496
-0.975683, 193, 281, 320, 344
-0.975757, 385, 97, 448, 224
-0.975873, 137, 409, 200, 472
-0.975923, 361, 145, 424, 272
-0.975934, 113, 401, 240, 464
-0.975951, 185, 369, 216, 496
-0.976037, 73, 177, 136, 240
-0.976082, 25, 193, 88, 448
-0.9763, 145, 249, 208, 312
-0.976411, 209, 337, 272, 400
-0.976423, 121, 217, 184, 280
-0.976545, 185, 321, 216, 384
-0.976584, 369, 145, 432, 208
-0.976592, 169, 49, 232, 176
-0.976685, 81, 289, 208, 352
-0.97669, 385, 193, 448, 256
-0.976819, 257, 145, 320, 208
-0.976849, 49, 49, 112, 176
-0.976903, 33, 1, 96, 128
-0.977134, 217, 225, 280, 480
-0.977213, 81, 153, 208, 216
-0.977301, 1, 161, 64, 224
-0.977335, 209, 385, 336, 448
-0.977355, 393, 369, 456, 496
-0.977455, 141, 257, 172, 384
-0.977471, 129, 289, 160, 416
-0.977472, 281, 113, 344, 240
-0.977497, 273, 49, 336, 112
-0.977515, 169, 345, 232, 408
-0.977536, 337, 153, 400, 216
-0.977573, 185, 305, 216, 432
-0.977589, 305, 169, 368, 232
-0.977608, 193, 153, 320, 216
-0.977632, 369, 377, 432, 440
-0.977644, 1, 249, 64, 312
-0.977682, 89, 33, 152, 96
-0.977698, 105, 161, 168, 416
-0.977776, 81, 1, 208, 128
-0.977851, 209, 73, 336, 136
-0.977873, 33, 265, 160, 328
-0.977929, 257, 169, 320, 232
-0.977969, 97, 49, 160, 176
-0.978159, 69, 153, 100, 216
-0.978365, 201, 265, 264, 328
-0.978371, 233, 49, 296, 112
-0.978399, 1, 225, 64, 480
-0.978403, 305, 353, 432, 416
-0.978408, 281, 145, 344, 208
-0.978421, 417, 129, 476, 256
-0.978464, 241, 177, 368, 240
-0.978532, 225, 97, 288, 160
-0.9786, 185, 97, 248, 160
-0.978603, 393, 273, 456, 400
-0.978807, 49, 345, 112, 408
-0.978807, 401, 369, 464, 432
-0.978812, 161, 401, 288, 464
-0.978894, 65, 129, 192, 192
-0.978906, 41, 49, 104, 112
-0.978965, 193, 121, 256, 184
-0.97897, 161, 361, 288, 424
-0.979009, 129, 49, 192, 176
-0.979012, 305, 377, 432, 440
-0.979096, 49, 385, 176, 448
-0.979105, 133, 337, 164, 464
-0.979114, 249, 273, 280, 336
-0.979139, 113, 257, 240, 320
-0.979289, 133, 345, 164, 408
-0.979295, 185, 65, 248, 320
-0.979321, 265, 225, 328, 480
-0.979344, 89, 305, 120, 432
-0.979346, 185, 417, 216, 480
-0.979351, 153, 209, 184, 336
-0.979396, 173, 329, 204, 392
-0.979481, 177, 161, 240, 416
-0.979533, 9, 289, 40, 352
-0.979565, 33, 329, 160, 392
-0.979583, 337, 97, 400, 224
-0.979664, 173, 393, 204, 456
-0.979721, 353, 257, 416, 500
-0.979735, 1, 377, 128, 440
-0.979779, 161, 193, 288, 256
-0.979796, 161, 305, 288, 368
-0.979804, 145, 169, 272, 232
-0.979914, 89, 145, 152, 272
-0.979961, 161, 225, 224, 352
-0.979961, 97, 353, 224, 416
-0.980018, 17, 153, 144, 216
-0.980088, 161, 313, 192, 376
-0.980119, 225, 313, 352, 376
-0.98015, 417, 177, 476, 304
-0.980238, 49, 225, 176, 288
-0.98025, 265, 417, 296, 480
-0.980285, 197, 337, 228, 464
-0.980317, 305, 321, 432, 384
-0.980425, 321, 161, 448, 224
-0.980588, 417, 81, 476, 208
-0.980675, 197, 393, 228, 456
-0.980714, 105, 97, 168, 224
-0.980753, 89, 305, 120, 368
-0.980755, 305, 137, 432, 200
-0.980828, 241, 193, 304, 448
-0.980904, 33, 409, 160, 472
-0.981021, 49, 153, 80, 216
-0.981084, 1, 177, 128, 240
-0.981155, 269, 273, 300, 336
-0.981172, 257, 345, 384, 408
-0.98123, 113, 305, 144, 368
-0.981251, 237, 321, 268, 384
-0.981252, 17, 297, 144, 360
-0.981265, 21, 289, 52, 352
-0.98127, 49, 193, 112, 448
-0.981283, 257, 377, 384, 440
-0.9813, 97, 377, 224, 440
-0.981305, 117, 329, 148, 392
-0.981477, 113, 1, 176, 128
-0.981489, 177, 369, 208, 432
-0.981514, 49, 185, 176, 248
-0.981522, 161, 425, 288, 488
-0.981535, 169, 193, 200, 256
-0.981564, 241, 281, 368, 344
-0.981574, 385, 321, 416, 384
-0.981607, 197, 289, 228, 416
-0.981635, 245, 193, 276, 320
-0.981638, 213, 113, 244, 176
-0.981695, 273, 409, 400, 472
-0.981698, 149, 329, 180, 392
-0.981834, 105, 257, 168, 500
-0.981849, 149, 321, 180, 448
-0.981945, 317, 353, 348, 480
-0.981978, 13, 361, 44, 424
-0.981986, 337, 49, 400, 176
-0.982, 269, 209, 300, 336
-0.982021, 129, 129, 256, 192
-0.982033, 305, 297, 432, 360
-0.982033, 209, 337, 336, 400
-0.982141, 17, 433, 144, 496
-0.982191, 169, 177, 200, 304
-0.982202, 277, 289, 308, 416
-0.982241, 129, 321, 160, 384
-0.982242, 1, 273, 32, 400
-0.982247, 185, 209, 248, 336
-0.982251, 213, 97, 244, 224
-0.98233, 321, 377, 352, 440
-0.982361, 329, 401, 360, 464
-0.982366, 209, 409, 336, 472
-0.982438, 285, 385, 316, 448
-0.982571, 313, 433, 344, 496
-0.982591, 97, 193, 224, 256
-0.982618, 161, 217, 288, 280
-0.982646, 225, 265, 256, 328
-0.982708, 29, 353, 60, 480
-0.98278, 277, 417, 308, 480
-0.982802, 185, 297, 216, 360
-0.982874, 321, 225, 384, 480
-0.982875, 229, 241, 260, 368
-0.983, 353, 385, 384, 448
-0.983103, 77, 273, 108, 400
-0.983132, 89, 281, 120, 344
-0.983148, 161, 305, 192, 432
-0.983151, 289, 185, 416, 248
-0.983195, 241, 65, 304, 320
-0.983196, 305, 401, 336, 464
-0.983215, 197, 313, 228, 376
-0.983246, 309, 289, 340, 352
-0.983259, 213, 281, 244, 344
-0.98335, 209, 393, 240, 456
-0.983352, 197, 417, 228, 480
-0.983372, 137, 161, 168, 288
-0.983372, 297, 305, 328, 432
-0.983409, 161, 249, 288, 312
-0.983411, 17, 353, 144, 416
-0.983418, 281, 193, 312, 256
-0.983424, 337, 369, 368, 432
-0.983428, 229, 385, 260, 448
-0.983483, 37, 153, 68, 216
-0.983491, 1, 345, 32, 408
-0.983509, 73, 49, 136, 176
-0.983524, 233, 297, 264, 360
-0.983573, 81, 225, 144, 480
-0.983579, 193, 257, 256, 500
-0.983585, 353, 337, 476, 400
-0.983618, 289, 257, 320, 384
-0.983619, 93, 385, 124, 448
-0.983646, 129, 97, 192, 352
-0.983688, 225, 201, 352, 264
-0.983717, 29, 369, 60, 432
-0.983745, 129, 281, 256, 344
-0.983776, 21, 289, 52, 416
-0.983785, 213, 417, 244, 480
-0.983907, 245, 209, 276, 272
-0.983925, 129, 89, 256, 152
-0.983929, 225, 97, 352, 160
-0.983952, 265, 273, 296, 400
-0.984001, 265, 353, 296, 480
-0.984034, 265, 185, 296, 248
-0.984037, 281, 129, 344, 384
-0.984043, 145, 337, 272, 400
-0.984046, 253, 273, 284, 400
-0.984077, 253, 393, 284, 456
-0.984094, 257, 297, 288, 360
-0.984107, 173, 321, 204, 448
-0.984108, 165, 417, 196, 480
-0.984113, 285, 281, 316, 344
-0.98416, 65, 177, 96, 240
-0.984172, 333, 305, 364, 432
-0.984198, 17, 145, 48, 272
-0.984199, 197, 353, 228, 416
-0.984218, 101, 433, 132, 496
-0.984236, 117, 353, 148, 480
-0.984241, 201, 33, 264, 160
-0.984246, 97, 225, 224, 288
-0.984323, 241, 153, 368, 216
-0.984326, 237, 249, 268, 312
-0.98433, 157, 209, 188, 272
-0.984345, 137, 217, 168, 280
-0.984346, 49, 49, 176, 112
-0.984347, 161, 113, 192, 240
-0.984364, 109, 289, 140, 416
-0.984392, 289, 305, 320, 368
-0.984412, 9, 97, 72, 352
-0.984413, 337, 353, 368, 480
-0.984454, 181, 161, 212, 288
-0.984505, 57, 233, 88, 296
-0.98451, 49, 361, 80, 424
-0.984548, 217, 129, 280, 384
-0.984569, 209, 289, 240, 416
-0.984594, 17, 129, 144, 192
-0.984603, 225, 257, 352, 320
-0.98462, 61, 337, 92, 464
-0.984714, 281, 209, 312, 336
-0.984715, 353, 313, 476, 376
-0.984728, 153, 169, 184, 232
-0.98475, 393, 209, 456, 336
-0.984825, 1, 65, 128, 128
-0.984825, 417, 225, 476, 352
-0.984842, 153, 233, 184, 296
-0.98486, 225, 49, 256, 176
-0.984894, 353, 209, 476, 272
-0.984941, 293, 417, 324, 480
-0.984943, 73, 313, 104, 376
-0.984971, 241, 241, 272, 368
-0.984975, 41, 353, 72, 480
-0.984994, 281, 1, 344, 500
-0.98502, 101, 313, 132, 376
-0.985048, 1, 105, 128, 168
-0.985055, 73, 281, 104, 344
-0.985086, 5, 137, 36, 200
-0.985088, 97, 425, 224, 488
-0.985113, 49, 129, 80, 192
-0.985113, 265, 377, 296, 440
-0.985134, 309, 353, 340, 416
-0.985142, 121, 225, 152, 352
-0.985142, 337, 1, 400, 128
-0.985169, 161, 393, 192, 456
-0.985219, 73, 129, 104, 256
-0.985291, 297, 353, 328, 480
-0.985292, 225, 337, 256, 400
-0.985301, 33, 97, 96, 352
-0.985329, 337, 305, 368, 368
-0.985329, 329, 345, 360, 408
-0.985383, 189, 169, 220, 232
-0.985405, 165, 353, 196, 416
-0.985415, 173, 369, 204, 496
-0.985438, 125, 249, 156, 312
-0.985441, 149, 417, 180, 480
-0.985451, 129, 297, 160, 360
-0.985472, 213, 137, 244, 200
-0.985472, 125, 409, 156, 472
-0.985475, 353, 361, 476, 424
-0.985479, 209, 361, 336, 424
-0.985551, 1, 217, 128, 280
-0.985587, 85, 145, 116, 208
-0.985616, 317, 305, 348, 432
-0.98564, 225, 337, 256, 464
-0.985642, 73, 369, 104, 432
-0.985656, 221, 73, 252, 136
-0.985674, 385, 129, 448, 384
-0.985721, 93, 185, 124, 248
-0.985762, 185, 345, 216, 408
-0.985776, 225, 433, 352, 496
-0.985825, 113, 1, 176, 500
-0.985872, 173, 169, 204, 232
-0.985916, 89, 241, 120, 368
-0.985924, 41, 305, 72, 432
-0.985928, 149, 145, 180, 272
-0.985934, 9, 321, 40, 384
-0.985935, 49, 105, 176, 168
-0.985938, 353, 409, 384, 472
-0.986011, 329, 97, 392, 352
-0.986039, 349, 353, 380, 480
-0.986054, 285, 337, 316, 464
-0.986058, 301, 169, 332, 232
-0.986068, 113, 153, 144, 216
-0.986087, 253, 321, 284, 384
-0.986089, 389, 169, 420, 232
-0.986091, 261, 161, 292, 224
-0.986091, 9, 385, 40, 448
-0.986102, 169, 1, 232, 500
-0.986102, 217, 33, 280, 288
-0.986115, 193, 121, 320, 184
-0.98613, 117, 281, 148, 344
-0.986138, 377, 225, 440, 480
-0.986157, 401, 1, 464, 128
-0.986162, 305, 209, 432, 272
-0.986167, 289, 273, 416, 336
-0.98621, 353, 161, 416, 416
-0.986227, 361, 305, 392, 432
-0.986269, 381, 297, 412, 360
-0.986279, 129, 49, 256, 112
-0.986321, 17, 209, 48, 336
-0.986338, 61, 265, 92, 328
-0.986365, 25, 313, 56, 376
-0.986373, 57, 161, 88, 288
-0.986402, 269, 161, 300, 288
-0.98645, 273, 49, 400, 112
-0.986493, 141, 153, 172, 216
-0.986539, 237, 361, 268, 424
-0.986567, 45, 129, 76, 256
-0.986584, 65, 337, 96, 400
-0.986592, 353, 185, 476, 248
-0.986596, 49, 17, 176, 80
-0.98663, 269, 297, 300, 360
-0.98663, 137, 425, 168, 488
-0.986659, 1, 353, 32, 480
-0.986709, 25, 121, 56, 184
-0.986752, 53, 305, 84, 368
-0.986767, 217, 361, 248, 424
-0.986769, 425, 193, 456, 256
-0.986788, 9, 425, 40, 488
-0.986794, 145, 1, 208, 500
-0.986808, 1, 33, 128, 96
-0.986819, 165, 257, 196, 384
-0.986826, 193, 1, 256, 500
-0.986879, 209, 81, 240, 144
-0.986895, 317, 409, 348, 472
-0.986908, 421, 169, 452, 232
-0.986941, 113, 361, 144, 424
-0.986965, 313, 193, 344, 320
-0.986965, 325, 241, 356, 368
-0.986968, 233, 409, 264, 472
-0.986969, 117, 33, 148, 160
-0.986969, 221, 161, 252, 288
-0.987001, 397, 313, 428, 376
-0.987025, 9, 265, 40, 328
-0.987027, 301, 209, 332, 336
-0.987044, 113, 113, 144, 240
-0.987045, 257, 73, 384, 136
-0.987096, 353, 345, 384, 408
-0.987121, 125, 145, 156, 208
-0.987125, 257, 145, 288, 272
-0.987128, 125, 193, 156, 256
-0.987133, 109, 241, 140, 368
-0.987173, 213, 337, 244, 400
-0.987174, 377, 145, 408, 272
-0.987189, 353, 137, 476, 200
-0.987207, 289, 225, 352, 480
-0.987252, 33, 393, 64, 456
-0.987288, 257, 225, 288, 352
-0.987343, 341, 409, 372, 472
-0.98736, 441, 169, 472, 232
-0.987362, 341, 281, 372, 344
-0.987364, 281, 49, 312, 176
-0.987388, 105, 401, 136, 464
-0.987408, 273, 433, 400, 496
-0.987426, 253, 353, 284, 480
-0.987428, 273, 249, 400, 312
-0.987443, 77, 369, 108, 496
-0.987455, 273, 113, 400, 176
-0.98749, 101, 369, 132, 496
-0.987525, 13, 353, 44, 480
-0.987552, 345, 273, 376, 400
-0.987552, 17, 1, 80, 500
-0.987569, 1, 241, 128, 304
-0.98768, 281, 161, 312, 288
-0.987715, 73, 177, 104, 304
-0.987749, 101, 145, 132, 272
-0.987838, 1, 177, 32, 304
-0.987875, 29, 145, 60, 272
-0.98789, 261, 97, 292, 224
-0.987982, 89, 353, 120, 480
-0.987996, 241, 225, 368, 288
-0.988067, 365, 97, 396, 224
-0.98808, 325, 161, 356, 288
-0.988095, 357, 145, 388, 272
-0.988157, 293, 145, 324, 272
-0.988187, 125, 177, 156, 304
-0.988189, 309, 257, 340, 384
-0.988238, 133, 1, 164, 128
-0.988283, 1, 129, 32, 256
-0.988362, 225, 1, 288, 500
-0.988363, 393, 49, 456, 176
-0.988457, 353, 385, 476, 448
-0.988494, 369, 1, 432, 128
-0.98852, 313, 1, 376, 256
-0.988569, 153, 97, 216, 352
-0.988589, 61, 257, 92, 384
-0.98867, 17, 97, 48, 224
-0.9887, 209, 353, 240, 480
-0.988702, 445, 161, 476, 288
-0.988717, 17, 1, 80, 256
-0.988737, 49, 73, 176, 136
-0.988744, 57, 65, 120, 320
-0.988764, 81, 1, 144, 256
-0.988794, 321, 241, 448, 304
-0.988811, 445, 97, 476, 224
-0.988843, 361, 353, 392, 480
-0.988857, 353, 425, 476, 488
-0.988902, 417, 129, 476, 384
-0.988937, 361, 97, 424, 224
-0.988949, 177, 97, 304, 160
-0.989005, 417, 289, 448, 416
-0.98902, 337, 161, 368, 288
-0.98904, 397, 97, 428, 224
-0.989095, 81, 1, 144, 500
-0.989106, 417, 225, 476, 480
-0.989183, 61, 113, 92, 240
-0.989185, 293, 81, 324, 208
-0.989228, 241, 369, 272, 496
-0.98927, 217, 421, 280, 452
-0.989277, 153, 49, 184, 176
-0.989311, 437, 321, 468, 448
-0.989313, 305, 129, 368, 384
-0.989365, 225, 49, 352, 112
-0.989435, 221, 289, 252, 416
-0.989469, 269, 49, 300, 176
-0.989474, 33, 1, 64, 128
-0.989482, 77, 321, 108, 448
-0.989484, 89, 161, 120, 288
-0.989493, 393, 1, 456, 500
-0.989494, 113, 161, 144, 288
-0.989516, 33, 225, 64, 352
-0.989523, 417, 1, 476, 500
-0.989565, 241, 25, 368, 88
-0.989594, 113, 17, 240, 80
-0.989625, 249, 1, 312, 500
-0.989633, 249, 409, 312, 440
-0.989638, 329, 1, 392, 500
-0.989709, 401, 273, 432, 400
-0.989741, 37, 81, 68, 208
-0.989741, 101, 193, 132, 320
-0.989769, 137, 1, 200, 256
-0.989846, 353, 65, 416, 320
-0.989859, 177, 1, 208, 128
-0.989869, 429, 129, 460, 256
-0.989869, 377, 305, 408, 432
-0.989887, 193, 413, 256, 444
-0.989896, 129, 65, 160, 192
-0.989955, 253, 49, 284, 176
-0.98997, 257, 1, 384, 64
-0.98998, 121, 325, 184, 356
-0.989996, 337, 1, 464, 64
-0.990009, 169, 421, 232, 452
-0.990009, 393, 33, 456, 288
-0.990025, 241, 321, 272, 448
-0.990067, 357, 225, 388, 352
-0.990069, 337, 113, 368, 240
-0.990113, 361, 49, 424, 176
-0.990131, 313, 145, 344, 272
-0.990132, 89, 321, 152, 352
-0.990148, 153, 337, 216, 368
-0.990153, 157, 369, 188, 496
-0.99016, 273, 401, 336, 432
-0.990162, 353, 73, 476, 136
-0.990166, 321, 25, 448, 88
-0.990168, 89, 97, 120, 224
-0.990174, 1, 81, 32, 208
-0.990187, 201, 33, 232, 160
-0.9902, 201, 97, 232, 224
-0.9902, 237, 97, 268, 224
-0.990217, 153, 401, 216, 432
-0.990218, 241, 421, 304, 452
-0.990225, 129, 341, 192, 372
-0.990249, 33, 305, 288, 368
-0.990332, 353, 97, 476, 160
-0.990387, 273, 417, 336, 448
-0.99039, 97, 341, 160, 372
-0.990394, 49, 149, 112, 180
-0.990398, 257, 77, 320, 108
-0.99044, 1, 369, 64, 400
-0.990447, 225, 69, 288, 100
-0.990469, 177, 49, 304, 112
-0.990497, 153, 385, 216, 416
-0.990502, 297, 409, 360, 440
-0.99051, 313, 349, 376, 380
-0.990517, 41, 317, 104, 348
-0.990517, 177, 401, 240, 432
-0.990538, 17, 149, 80, 180
-0.990556, 65, 385, 128, 416
-0.990572, 65, 325, 128, 356
-0.990596, 17, 317, 80, 348
-0.9906, 313, 385, 376, 416
-0.990612, 129, 313, 384, 376
-0.990616, 161, 325, 224, 356
-0.990676, 25, 393, 88, 424
-0.990693, 89, 301, 152, 332
-0.990702, 265, 289, 328, 320
-0.990715, 105, 257, 168, 288
-0.990728, 193, 429, 256, 460
-0.990736, 137, 205, 200, 236
-0.990737, 25, 381, 88, 412
-0.990741, 25, 281, 88, 312
-0.990742, 105, 353, 168, 384
-0.990747, 137, 353, 200, 384
-0.990762, 9, 353, 72, 384
-0.990789, 345, 329, 408, 360
-0.990793, 81, 173, 144, 204
-0.990795, 137, 185, 200, 216
-0.990796, 113, 237, 176, 268
-0.990806, 41, 165, 104, 196
-0.990806, 161, 201, 224, 232
-0.99082, 273, 201, 336, 232
-0.990822, 73, 161, 136, 192
-0.990831, 305, 1, 368, 500
-0.990832, 193, 389, 256, 420
-0.990908, 33, 229, 96, 260
-0.990916, 225, 289, 288, 320
-0.990933, 25, 181, 88, 212
-0.990945, 137, 241, 200, 272
-0.99096, 217, 81, 280, 112
-0.990965, 241, 229, 304, 260
-0.99097, 1, 437, 64, 468
-0.990988, 345, 349, 408, 380
-0.991023, 17, 197, 80, 228
-0.991027, 137, 173, 200, 204
-0.991031, 321, 409, 384, 440
-0.991045, 97, 285, 160, 316
-0.991047, 225, 129, 288, 160
-0.991047, 1, 457, 64, 488
-0.991054, 153, 445, 216, 476
-0.991056, 193, 305, 256, 336
-0.991062, 377, 397, 440, 428
-0.991069, 137, 313, 200, 344
-0.991083, 161, 25, 288, 88
-0.991083, 129, 281, 384, 344
-0.99109, 289, 357, 352, 388
-0.991097, 121, 161, 184, 192
-0.991103, 1, 289, 64, 320
-0.991117, 177, 177, 240, 208
-0.99112, 353, 397, 416, 428
-0.991122, 209, 401, 272, 432
-0.991134, 313, 321, 376, 352
-0.99116, 137, 457, 200, 488
-0.991163, 113, 401, 176, 432
-0.991165, 49, 373, 112, 404
-0.991166, 281, 333, 344, 364
-0.991169, 17, 137, 80, 168
-0.991177, 65, 313, 128, 344
-0.991189, 305, 373, 368, 404
-0.991199, 241, 209, 304, 240
-0.991205, 273, 345, 336, 376
-0.991205, 9, 161, 72, 192
-0.99121, 65, 189, 128, 220
-0.991218, 257, 89, 320, 120
-0.991225, 25, 333, 88, 364
-0.991236, 241, 353, 304, 384
-0.991238, 25, 369, 88, 400
-0.99125, 249, 189, 312, 220
-0.991252, 1, 393, 64, 424
-0.991254, 81, 441, 144, 472
-0.991259, 121, 445, 184, 476
-0.991261, 97, 161, 352, 224
-0.991286, 281, 89, 344, 120
-0.991288, 41, 193, 104, 224
-0.991291, 161, 193, 416, 256
-0.991292, 161, 189, 224, 220
-0.991293, 1, 273, 64, 304
-0.991295, 313, 337, 376, 368
-0.991297, 337, 361, 400, 392
-0.9913, 49, 469, 112, 500
-0.991308, 145, 257, 208, 288
-0.991308, 49, 177, 112, 208
-0.99131, 249, 365, 312, 396
-0.991311, 185, 465, 248, 496
-0.991314, 185, 109, 248, 140
-0.991314, 73, 269, 136, 300
-0.991319, 201, 293, 264, 324
-0.99132, 49, 281, 112, 312
-0.991327, 185, 149, 248, 180
-0.991338, 121, 269, 184, 300
-0.991346, 177, 377, 240, 408
-0.991349, 193, 165, 256, 196
-0.99135, 369, 349, 432, 380
-0.99135, 257, 301, 320, 332
-0.991351, 217, 97, 280, 128
-0.991353, 193, 333, 256, 364
-0.991358, 161, 305, 224, 336
-0.991361, 97, 385, 160, 416
-0.991361, 65, 453, 128, 484
-0.991367, 153, 225, 216, 256
-0.991371, 233, 277, 296, 308
-0.991376, 217, 161, 280, 192
-0.991377, 417, 321, 476, 352
-0.991377, 353, 49, 476, 112
-0.991381, 289, 389, 352, 420
-0.991387, 9, 469, 72, 500
-0.991394, 113, 181, 176, 212
-0.9914, 401, 381, 464, 412
-0.991403, 137, 293, 200, 324
-0.991416, 161, 349, 224, 380
-0.991417, 377, 365, 440, 396
-0.991418, 145, 413, 208, 444
-0.991459, 177, 1, 304, 64
-0.991463, 369, 1, 432, 500
-0.991506, 97, 225, 352, 288
-0.991551, 305, 73, 432, 136
-0.991563, 81, 129, 144, 384
-0.991597, 281, 33, 344, 288
-0.991674, 129, 337, 384, 400
-0.991723, 417, 1, 476, 256
-0.991961, 1, 297, 476, 360
-0.991972, 33, 337, 288, 400
-0.992103, 1, 185, 256, 248
-0.992223, 41, 1, 104, 500
-0.992268, 105, 65, 168, 320
-0.992321, 209, 413, 240, 444
-0.992441, 229, 421, 260, 452
-0.992482, 189, 309, 220, 340
-0.992507, 353, 289, 476, 352
-0.992508, 129, 385, 384, 448
-0.992587, 129, 353, 160, 384
-0.992599, 161, 337, 192, 368
-0.992605, 193, 397, 224, 428
-0.992624, 37, 165, 68, 196
-0.992632, 197, 409, 228, 440
-0.992674, 177, 397, 208, 428
-0.992675, 181, 333, 212, 364
-0.992692, 21, 361, 52, 392
-0.992704, 293, 409, 324, 440
-0.992704, 253, 405, 284, 436
-0.992712, 189, 421, 220, 452
-0.992722, 57, 145, 88, 176
-0.992725, 93, 313, 124, 344
-0.992733, 245, 421, 276, 452
-0.992757, 177, 409, 208, 440
-0.992771, 149, 345, 180, 376
-0.99278, 29, 145, 60, 176
-0.992784, 185, 321, 216, 352
-0.992788, 5, 373, 36, 404
-0.992789, 233, 409, 264, 440
-0.992797, 317, 353, 348, 384
-0.992809, 185, 349, 216, 380
-0.99281, 185, 369, 216, 400
-0.992811, 265, 77, 296, 108
-0.992813, 213, 429, 244, 460
-0.992816, 385, 325, 416, 356
-0.992833, 5, 137, 36, 168
-0.992833, 25, 177, 56, 208
-0.99285, 273, 417, 304, 448
-0.992852, 197, 337, 228, 368
-0.992853, 65, 361, 320, 424
-0.992855, 233, 265, 264, 296
-0.992869, 49, 157, 80, 188
-0.992872, 385, 345, 416, 376
-0.992875, 249, 281, 280, 312
-0.992877, 33, 257, 288, 320
-0.992879, 77, 325, 108, 356
-0.992879, 373, 345, 404, 376
-0.992881, 289, 421, 320, 452
-0.992881, 73, 393, 104, 424
-0.992886, 309, 397, 340, 428
-0.992887, 317, 377, 348, 408
-0.992887, 77, 157, 108, 188
-0.992902, 213, 145, 244, 176
-0.992903, 245, 225, 276, 256
-0.992904, 325, 409, 356, 440
-0.992906, 1, 445, 32, 476
-0.992908, 341, 385, 372, 416
-0.992911, 153, 189, 184, 220
-0.992915, 161, 325, 192, 356
-0.992916, 93, 397, 124, 428
-0.992917, 73, 169, 104, 200
-0.992918, 9, 349, 40, 380
-0.992923, 37, 177, 68, 208
-0.992928, 365, 161, 396, 192
-0.992929, 361, 385, 392, 416
-0.992932, 341, 373, 372, 404
-0.992932, 65, 157, 96, 188
-0.992932, 305, 413, 336, 444
-0.992934, 165, 201, 196, 232
-0.992934, 33, 393, 64, 424
-0.99295, 277, 285, 308, 316
-0.992952, 73, 181, 104, 212
-0.992954, 89, 285, 120, 316
-0.992954, 221, 409, 252, 440
-0.992955, 73, 297, 104, 328
-0.99296, 281, 405, 312, 436
-0.99296, 297, 85, 328, 116
-0.99296, 265, 281, 296, 312
-0.992964, 265, 293, 296, 324
-0.992969, 209, 117, 240, 148
-0.992971, 421, 173, 452, 204
-0.992978, 177, 193, 208, 224
-0.992978, 117, 345, 148, 376
-0.992978, 149, 201, 180, 232
-0.992987, 209, 301, 240, 332
-0.992991, 205, 357, 236, 388
-0.992994, 53, 181, 84, 212
-0.992996, 17, 373, 48, 404
-0.992998, 269, 221, 300, 252
-0.992999, 37, 373, 68, 404
-0.993002, 45, 137, 76, 168
-0.993002, 17, 149, 48, 180
-0.993006, 129, 157, 160, 188
-0.993007, 213, 161, 244, 192
-0.993008, 89, 325, 120, 356
-0.99301, 121, 293, 152, 324
-0.993011, 245, 237, 276, 268
-0.993012, 321, 389, 352, 420
-0.993016, 301, 353, 332, 384
-0.99302, 141, 217, 172, 248
-0.993021, 281, 197, 312, 228
-0.993023, 21, 393, 52, 424
-0.993025, 337, 397, 368, 428
-0.993028, 185, 381, 216, 412
-0.993029, 13, 285, 44, 316
-0.993029, 277, 77, 308, 108
-0.99303, 25, 161, 56, 192
-0.99303, 29, 349, 60, 380
-0.99303, 85, 385, 116, 416
-0.993033, 85, 193, 116, 224
-0.993035, 97, 189, 128, 220
-0.993037, 161, 213, 192, 244
-0.993039, 93, 441, 124, 472
-0.993039, 377, 157, 408, 188
-0.99304, 73, 309, 104, 340
-0.993041, 213, 133, 244, 164
-0.993042, 65, 285, 96, 316
-0.993042, 313, 365, 344, 396
-0.993042, 233, 433, 264, 464
-0.993045, 261, 181, 292, 212
-0.993051, 305, 201, 336, 232
-0.993053, 13, 161, 44, 192
-0.993054, 297, 397, 328, 428
-0.993054, 253, 321, 284, 352
-0.993055, 53, 393, 84, 424
-0.993057, 9, 393, 40, 424
-0.993058, 353, 341, 384, 372
-0.993059, 433, 169, 464, 200
-0.993059, 121, 261, 152, 292
-0.993063, 173, 353, 204, 384
-0.993065, 357, 401, 388, 432
-0.993069, 57, 169, 88, 200
-0.99307, 33, 273, 64, 304
-0.993071, 121, 281, 152, 312
-0.993071, 333, 345, 364, 376
-0.993072, 369, 357, 400, 388
-0.993074, 93, 177, 124, 208
-0.993074, 65, 381, 96, 412
-0.993287, 161, 1, 224, 256
-0.993299, 187, 393, 202, 456
-0.993335, 225, 305, 476, 368
-0.993493, 1, 393, 256, 456
-0.993497, 1, 281, 256, 344
-0.99355, 1, 321, 476, 384
-0.99358, 193, 409, 320, 440
-0.993583, 129, 417, 384, 480
-0.993599, 193, 137, 448, 200
-0.993676, 225, 161, 476, 224
-0.993876, 337, 265, 464, 328
-0.993944, 145, 417, 272, 448
-0.993952, 225, 377, 476, 440
-0.994041, 1, 209, 256, 272
-0.994094, 1, 161, 256, 224
-0.994164, 1, 129, 256, 192
-0.994211, 225, 345, 476, 408
-0.994312, 113, 301, 240, 332
-0.994449, 33, 417, 288, 480
-0.99445, 195, 305, 210, 368
-0.994568, 1, 217, 476, 280
-0.99457, 97, 405, 224, 436
-0.994576, 37, 297, 52, 360
-0.994647, 197, 377, 212, 440
-0.994663, 81, 153, 96, 216
-0.994681, 193, 285, 320, 316
-0.994702, 65, 73, 320, 136
-0.994741, 1, 105, 256, 168
-0.994755, 177, 429, 304, 460
-0.994797, 1, 345, 476, 408
-0.994876, 241, 421, 368, 452
-0.994877, 199, 401, 214, 464
-0.994911, 81, 393, 208, 424
-0.994922, 181, 393, 196, 456
-0.994933, 1, 1, 128, 64
-0.994941, 225, 281, 476, 344
-0.994943, 225, 401, 476, 464
-0.994977, 191, 361, 206, 424
-0.994978, 113, 317, 240, 348
-0.994979, 225, 73, 240, 136
-0.995011, 145, 337, 272, 368
-0.995023, 1, 409, 476, 472
-0.995032, 225, 217, 476, 280
-0.995054, 241, 213, 368, 244
-0.995079, 287, 401, 302, 464
-0.995104, 187, 321, 202, 384
-0.995116, 227, 121, 242, 184
-0.995136, 33, 301, 160, 332
-0.995138, 123, 321, 138, 384
-0.995147, 21, 361, 36, 424
-0.995168, 13, 297, 28, 360
-0.995183, 97, 121, 352, 184
-0.995201, 97, 353, 224, 384
-0.995203, 305, 361, 432, 392
-0.995209, 181, 361, 196, 424
-0.995218, 1, 381, 128, 412
-0.995228, 43, 273, 58, 336
-0.995237, 65, 333, 192, 364
-0.995242, 175, 193, 190, 256
-0.995275, 49, 225, 176, 256
-0.995287, 241, 377, 368, 408
-0.995338, 135, 321, 150, 384
-0.995344, 161, 81, 416, 144
-0.995346, 129, 297, 144, 360
-0.995357, 1, 233, 256, 296
-0.995373, 17, 393, 144, 424
-0.995386, 277, 417, 292, 480
-0.995426, 161, 221, 288, 252
-0.995426, 65, 317, 192, 348
-0.99543, 179, 417, 194, 480
-0.995459, 401, 169, 416, 232
-0.995469, 129, 257, 384, 320
-0.995471, 169, 201, 184, 264
-0.99548, 303, 305, 318, 368
-0.995494, 209, 77, 336, 108
-0.995504, 213, 401, 228, 464
-0.995523, 21, 289, 36, 352
-0.995525, 161, 173, 288, 204
-0.995531, 307, 329, 322, 392
-0.995533, 225, 353, 352, 384
-0.995539, 113, 289, 240, 320
-0.995543, 229, 385, 244, 448
-0.995544, 225, 257, 476, 320
-0.995545, 1, 185, 128, 216
-0.99555, 189, 417, 204, 480
-0.995563, 65, 381, 192, 412
-0.995569, 321, 377, 336, 440
-0.995572, 25, 145, 40, 208
-0.995574, 205, 409, 220, 472
-0.99558, 227, 417, 242, 480
-0.99558, 1, 273, 476, 336
-0.99563, 283, 281, 298, 344
-0.995632, 241, 185, 368, 216
-0.995633, 65, 193, 192, 224
-0.995674, 349, 369, 364, 432
-0.995675, 113, 321, 128, 384
-0.995684, 219, 425, 234, 488
-0.995693, 401, 313, 416, 376
-0.995699, 219, 401, 234, 464
-0.995703, 231, 281, 246, 344
-0.995705, 239, 265, 254, 328
-0.995718, 129, 353, 144, 416
-0.995726, 75, 153, 90, 216
-0.995742, 193, 89, 320, 120
-0.995744, 161, 201, 288, 232
-0.995757, 89, 153, 104, 216
-0.995767, 17, 241, 144, 272
-0.995776, 193, 297, 320, 328
-0.995783, 201, 305, 216, 368
-0.995786, 159, 225, 174, 288
-0.995791, 317, 409, 332, 472
-0.995798, 161, 321, 288, 352
-0.995804, 289, 197, 416, 228
-0.995818, 351, 401, 366, 464
-0.99582, 49, 353, 176, 384
-0.99583, 265, 281, 280, 344
-0.995835, 225, 433, 476, 496
-0.995837, 49, 137, 176, 168
-0.995839, 305, 381, 432, 412
-0.995847, 389, 297, 404, 360
-0.995856, 225, 105, 476, 168
-0.99586, 59, 369, 74, 432
-0.995862, 129, 329, 144, 392
-0.995862, 31, 281, 46, 344
-0.995872, 169, 321, 184, 384
-0.995876, 49, 277, 176, 308
-0.995884, 11, 273, 26, 336
-0.995888, 1, 49, 256, 112
-0.99591, 69, 377, 84, 440
-0.995913, 227, 361, 242, 424
-0.995915, 173, 393, 188, 456
-0.995918, 297, 409, 312, 472
-0.995927, 151, 433, 166, 496
-0.995938, 193, 337, 208, 400
-0.99594, 161, 389, 288, 420
-0.995945, 49, 253, 176, 284
-0.995951, 245, 289, 260, 352
-0.99596, 43, 305, 58, 368
-0.99596, 329, 377, 344, 440
-0.995969, 115, 385, 130, 448
-0.995969, 1, 169, 476, 232
-0.995979, 213, 321, 228, 384
-0.995986, 443, 169, 458, 232
-0.99599, 19, 145, 34, 208
-0.995991, 159, 329, 174, 392
-0.996, 141, 225, 172, 480
-0.996009, 283, 425, 298, 488
-0.996013, 451, 161, 466, 224
-0.996018, 237, 337, 252, 400
-0.996033, 69, 161, 84, 224
-0.996036, 295, 337, 310, 400
-0.996037, 293, 281, 308, 344
-0.996046, 217, 89, 232, 152
-0.996063, 251, 417, 266, 480
-0.996067, 273, 433, 400, 464
-0.996071, 181, 177, 196, 240
-0.996072, 1, 145, 16, 208
-0.996074, 295, 385, 310, 448
-0.996078, 225, 197, 352, 228
-0.996083, 439, 193, 454, 256
-0.996087, 279, 393, 294, 456
-0.996093, 1, 149, 128, 180
-0.996097, 97, 181, 224, 212
-0.996105, 1, 173, 128, 204
-0.996108, 209, 161, 336, 192
-0.996133, 209, 433, 224, 496
-0.996136, 179, 337, 194, 400
-0.996136, 107, 313, 122, 376
-0.996136, 137, 353, 152, 416
-0.996143, 119, 161, 134, 224
-0.996143, 143, 345, 158, 408
-0.996146, 225, 1, 476, 64
-0.996149, 255, 289, 270, 352
-0.996152, 407, 177, 422, 240
-0.996158, 303, 409, 318, 472
-0.996171, 45, 369, 60, 432
-0.996172, 81, 265, 208, 296
-0.996182, 381, 353, 396, 416
-0.996182, 267, 385, 282, 448
-0.996187, 49, 289, 176, 320
-0.996199, 5, 345, 20, 408
-0.996201, 273, 393, 288, 456
-0.996209, 357, 377, 372, 440
-0.996212, 277, 281, 292, 344
-0.996213, 17, 113, 32, 176
-0.996215, 151, 393, 166, 456
-0.996219, 229, 337, 244, 400
-0.99622, 395, 321, 410, 384
-0.996222, 275, 73, 290, 136
-0.996226, 257, 289, 384, 320
-0.99623, 93, 281, 108, 344
-0.996233, 341, 361, 356, 424
-0.996235, 339, 409, 354, 472
-0.996237, 241, 405, 368, 436
-0.996238, 287, 257, 302, 320
-0.996239, 241, 393, 256, 456
-0.996243, 385, 321, 400, 384
-0.996243, 37, 273, 52, 336
-0.996246, 339, 385, 354, 448
-0.996246, 305, 349, 432, 380
-0.996249, 95, 225, 110, 288
-0.996252, 243, 241, 258, 304
-0.996257, 207, 385, 222, 448
-0.996261, 107, 369, 122, 432
-0.996261, 15, 361, 30, 424
-0.996264, 1, 169, 16, 232
-0.996264, 49, 153, 64, 216
-0.996269, 145, 349, 272, 380
-0.996269, 153, 241, 168, 304
-0.996269, 1, 377, 476, 440
-0.996277, 237, 305, 252, 368
-0.996277, 93, 385, 108, 448
-0.996286, 33, 53, 160, 84
-0.996291, 303, 433, 318, 496
-0.996297, 371, 353, 386, 416
-0.996302, 65, 213, 192, 244
-0.996304, 17, 197, 144, 228
-0.996306, 207, 313, 222, 376
-0.996308, 261, 305, 276, 368
-0.99631, 27, 313, 42, 376
-0.996312, 9, 369, 24, 432
-0.996316, 91, 129, 106, 192
-0.996319, 313, 297, 328, 360
-0.996333, 145, 93, 272, 124
-0.996342, 257, 393, 384, 424
-0.996348, 81, 365, 208, 396
-0.996355, 65, 429, 192, 460
-0.996375, 209, 341, 336, 372
-0.996388, 161, 193, 192, 448
-0.996395, 193, 101, 320, 132
-0.9964, 97, 49, 352, 112
-0.9964, 241, 89, 368, 120
-0.996406, 145, 405, 272, 436
-0.996413, 289, 413, 416, 444
-0.99642, 97, 445, 224, 476
-0.996426, 161, 185, 288, 216
-0.996428, 289, 169, 416, 200
-0.996442, 161, 233, 288, 264
-0.996442, 193, 113, 320, 144
-0.996444, 305, 153, 432, 184
-0.996457, 129, 153, 256, 184
-0.996464, 289, 305, 416, 336
-0.996467, 145, 365, 272, 396
-0.996496, 129, 245, 256, 276
-0.996496, 1, 369, 128, 400
-0.996502, 193, 41, 448, 104
-0.996503, 225, 249, 352, 280
-0.996512, 241, 225, 368, 256
-0.996517, 353, 153, 476, 184
-0.99653, 1, 437, 128, 468
-0.996541, 129, 125, 256, 156
-0.996543, 1, 129, 476, 192
-0.996543, 1, 129, 128, 160
-0.996544, 289, 217, 416, 248
-0.996556, 81, 237, 208, 268
-0.996559, 129, 273, 256, 304
-0.996575, 353, 133, 476, 164
-0.996581, 17, 161, 144, 192
-0.996592, 209, 273, 336, 304
-0.996605, 113, 465, 240, 496
-0.99661, 177, 309, 304, 340
-0.99662, 1, 433, 476, 496
-0.996645, 97, 417, 224, 448
-0.996655, 193, 461, 320, 492
-0.996662, 65, 157, 192, 188
-0.9967, 225, 449, 352, 480
-0.996705, 225, 317, 352, 348
-0.996721, 305, 397, 432, 428
-0.99673, 145, 257, 272, 288
-0.996736, 1, 265, 128, 296
-0.996743, 17, 337, 144, 368
-0.996756, 145, 445, 272, 476
-0.996784, 65, 169, 192, 200
-0.996785, 1, 289, 128, 320
-0.996786, 193, 373, 320, 404
-0.99682, 353, 213, 476, 244
-0.99684, 17, 209, 144, 240
-0.996842, 257, 365, 384, 396
-0.996844, 337, 337, 464, 368
-0.99686, 161, 69, 288, 100
-0.996861, 353, 365, 476, 396
-0.996861, 141, 129, 172, 384
-0.996863, 145, 105, 272, 136
-0.996872, 113, 205, 240, 236
-0.996874, 257, 269, 384, 300
-0.996875, 257, 77, 384, 108
-0.996876, 241, 237, 368, 268
-0.996878, 305, 181, 432, 212
-0.996878, 1, 193, 476, 256
-0.996885, 129, 193, 160, 448
-0.996904, 33, 409, 160, 440
-0.996913, 289, 321, 416, 352
-0.996941, 353, 177, 476, 208
-0.996947, 353, 305, 476, 336
-0.996961, 337, 417, 464, 448
-0.996988, 113, 381, 240, 412
-0.996989, 65, 457, 192, 488
-0.99701, 81, 73, 208, 104
-0.99701, 1, 317, 128, 348
-0.99702, 337, 325, 464, 356
-0.99711, 337, 197, 464, 228
-0.997115, 321, 229, 448, 260
-0.997129, 241, 173, 368, 204
-0.997131, 353, 377, 476, 408
-0.997139, 209, 141, 336, 172
-0.997179, 221, 417, 236, 448
-0.99719, 225, 257, 256, 500
-0.997222, 1, 1, 256, 64
-0.997288, 233, 421, 248, 452
-0.997344, 201, 309, 216, 340
-0.997353, 241, 421, 256, 452
-0.997362, 173, 161, 204, 416
-0.997475, 209, 417, 224, 448
-0.997483, 1, 105, 476, 168
-0.997513, 197, 409, 212, 440
-0.997516, 187, 397, 202, 428
-0.997518, 193, 313, 208, 344
-0.997536, 221, 129, 252, 384
-0.997553, 1, 241, 476, 304
-0.997554, 279, 417, 294, 448
-0.997558, 27, 361, 42, 392
-0.997579, 1, 41, 476, 104
-0.99758, 389, 129, 420, 384
-0.997582, 215, 417, 230, 448
-0.997629, 1, 25, 256, 88
-0.997666, 227, 421, 242, 452
-0.997675, 191, 409, 206, 440
-0.997681, 197, 421, 212, 452
-0.997716, 243, 257, 258, 288
-0.997724, 25, 193, 56, 448
-0.997744, 319, 345, 334, 376
-0.997754, 263, 289, 278, 320
-0.997766, 203, 421, 218, 452
-0.997766, 197, 393, 212, 424
-0.997767, 213, 429, 228, 460
-0.997777, 145, 349, 160, 380
-0.99778, 129, 1, 384, 64
-0.997782, 185, 337, 200, 368
-0.997785, 137, 357, 152, 388
-0.997792, 29, 381, 44, 412
-0.997792, 97, 381, 112, 412
-0.997819, 237, 225, 268, 480
-0.997829, 221, 429, 236, 460
-0.997833, 203, 405, 218, 436
-0.997835, 297, 405, 312, 436
-0.997844, 225, 129, 240, 160
-0.997846, 363, 389, 378, 420
-0.997851, 45, 257, 76, 500
-0.997865, 91, 321, 106, 352
-0.997869, 271, 417, 286, 448
-0.997876, 5, 445, 20, 476
-0.997886, 257, 277, 272, 308
-0.997894, 207, 305, 222, 336
-0.9979, 321, 401, 336, 432
-0.997908, 205, 257, 236, 500
-0.997911, 239, 433, 254, 464
-0.997913, 91, 381, 106, 412
-0.997924, 155, 341, 170, 372
-0.997925, 317, 193, 348, 448
-0.997929, 1, 433, 16, 464
-0.99793, 315, 409, 330, 440
-0.997932, 247, 421, 262, 452
-0.997936, 283, 285, 298, 316
-0.997939, 35, 393, 50, 424
-0.997941, 97, 25, 352, 88
-0.997954, 323, 377, 338, 408
-0.997955, 169, 209, 184, 240
-0.997956, 335, 373, 350, 404
-0.997956, 35, 373, 50, 404
-0.997958, 185, 325, 200, 356
-0.997963, 193, 301, 208, 332
-0.997965, 257, 289, 272, 320
-0.997969, 179, 193, 194, 224
-0.99797, 17, 361, 32, 392
-0.997979, 285, 409, 300, 440
-0.997981, 181, 393, 196, 424
-0.997982, 387, 353, 402, 384
-0.997999, 277, 77, 292, 108
-0.998003, 103, 381, 118, 412
-0.998005, 195, 341, 210, 372
-0.998009, 331, 389, 346, 420
-0.998021, 75, 185, 90, 216
-0.998021, 189, 349, 204, 380
-0.998027, 247, 237, 262, 268
-0.998033, 59, 145, 74, 176
-0.998034, 279, 401, 294, 432
-0.99804, 43, 381, 58, 412
-0.998044, 73, 149, 88, 180
-0.998044, 329, 357, 344, 388
-0.998047, 309, 409, 324, 440
-0.998051, 267, 405, 282, 436
-0.998053, 373, 193, 404, 448
-0.998056, 395, 417, 410, 448
-0.998057, 227, 77, 242, 108
-0.998058, 213, 301, 228, 332
-0.998061, 33, 181, 48, 212
-0.998068, 317, 201, 332, 232
-0.998069, 193, 381, 208, 412
-0.998079, 153, 97, 184, 352
-0.99808, 315, 381, 330, 412
-0.998082, 13, 449, 28, 480
-0.998082, 251, 289, 266, 320
-0.998083, 27, 141, 42, 172
-0.998085, 133, 341, 148, 372
-0.998085, 129, 161, 144, 192
-0.998089, 85, 181, 100, 212
-0.998096, 209, 405, 224, 436
-0.998097, 127, 345, 142, 376
-0.998098, 405, 129, 436, 384
-0.998102, 231, 409, 246, 440
-0.998102, 303, 405, 318, 436
-0.998102, 391, 165, 406, 196
-0.998104, 265, 349, 280, 380
-0.998106, 17, 141, 32, 172
-0.998106, 275, 429, 290, 460
-0.998106, 37, 301, 52, 332
-0.998106, 225, 89, 240, 120
-0.998108, 225, 145, 240, 176
-0.998109, 355, 385, 370, 416
-0.998109, 119, 397, 134, 428
-0.99811, 239, 409, 254, 440
-0.998112, 313, 421, 328, 452
-0.998118, 81, 157, 96, 188
-0.998119, 231, 133, 246, 164
-0.998122, 33, 289, 48, 320
-0.998123, 319, 365, 334, 396
-0.998125, 267, 77, 282, 108
-0.998127, 47, 165, 62, 196
-0.998128, 177, 353, 192, 384
-0.998134, 201, 353, 216, 384
-0.998135, 23, 189, 38, 220
-0.998137, 77, 377, 92, 408
-0.99814, 265, 361, 280, 392
-0.998141, 385, 1, 416, 256
-0.998147, 287, 425, 302, 456
-0.998148, 67, 165, 82, 196
-0.998151, 353, 193, 384, 448
-0.998151, 23, 377, 38, 408
-0.998152, 239, 269, 254, 300
-0.998153, 369, 385, 384, 416
-0.998155, 305, 201, 320, 232
-0.998157, 341, 377, 356, 408
-0.998158, 143, 257, 158, 288
-0.998158, 241, 337, 256, 368
-0.998159, 77, 173, 92, 204
-0.998162, 245, 409, 260, 440
-0.998163, 269, 225, 284, 256
-0.998164, 75, 325, 90, 356
-0.998164, 269, 285, 284, 316
-0.998165, 95, 189, 110, 220
-0.998167, 23, 349, 38, 380
-0.998169, 99, 309, 114, 340
-0.998169, 193, 369, 208, 400
-0.99817, 1, 177, 16, 208
-0.998171, 185, 409, 200, 440
-0.998171, 121, 177, 136, 208
-0.998172, 69, 257, 100, 500
-0.998232, 293, 225, 324, 480
-0.998246, 185, 257, 216, 500
-0.998247, 273, 225, 304, 480
-0.998265, 205, 129, 236, 384
-0.998295, 5, 161, 36, 416
-0.998363, 89, 193, 120, 448
-0.998367, 329, 129, 360, 384
-0.998372, 221, 33, 252, 288
-0.998407, 65, 293, 96, 308
-0.998408, 9, 297, 40, 312
-0.998408, 205, 359, 236, 374
-0.998408, 109, 461, 140, 476
-0.998408, 305, 129, 336, 384
-0.998409, 125, 295, 156, 310
-0.998409, 329, 377, 360, 392
-0.998409, 357, 353, 388, 368
-0.998409, 109, 177, 140, 192
-0.998409, 173, 361, 204, 376
-0.998409, 161, 349, 192, 364
-0.99841, 133, 339, 164, 354
-0.998411, 141, 445, 172, 460
-0.998411, 389, 351, 420, 366
-0.998411, 337, 385, 368, 400
-0.998412, 77, 399, 108, 414
-0.998412, 297, 473, 328, 488
-0.998412, 33, 277, 64, 292
-0.998412, 205, 371, 236, 386
-0.998413, 293, 411, 324, 426
-0.998413, 261, 361, 292, 376
-0.998413, 1, 181, 32, 196
-0.998413, 317, 357, 348, 372
-0.998414, 57, 151, 88, 166
-0.998414, 369, 345, 400, 360
-0.998414, 253, 283, 284, 298
-0.998414, 305, 331, 336, 346
-0.998414, 9, 201, 40, 216
-0.998414, 185, 327, 216, 342
-0.998415, 193, 375, 224, 390
-0.998416, 353, 399, 384, 414
-0.998416, 245, 239, 276, 254
-0.998416, 77, 435, 108, 450
-0.998416, 293, 85, 324, 100
-0.998418, 25, 203, 56, 218
-0.998418, 317, 415, 348, 430
-0.998418, 173, 203, 204, 218
-0.998418, 361, 363, 392, 378
-0.998419, 313, 381, 344, 396
-0.998419, 345, 405, 376, 420
-0.998419, 85, 287, 116, 302
-0.998419, 205, 337, 236, 352
-0.99842, 213, 415, 244, 430
-0.99842, 9, 139, 40, 154
-0.99842, 269, 233, 300, 248
-0.99842, 109, 323, 140, 338
-0.998421, 189, 407, 220, 422
-0.998421, 165, 331, 196, 346
-0.998422, 217, 151, 248, 166
-0.998422, 21, 145, 52, 160
-0.998423, 29, 157, 60, 172
-0.998423, 5, 439, 36, 454
-0.998423, 21, 371, 52, 386
-0.998423, 369, 355, 400, 370
-0.998424, 81, 383, 112, 398
-0.998424, 153, 199, 184, 214
-0.998425, 169, 185, 200, 200
-0.998425, 205, 365, 236, 380
-0.998425, 333, 351, 364, 366
-0.998425, 205, 427, 236, 442
-0.998427, 53, 395, 84, 410
-0.998427, 189, 347, 220, 362
-0.998427, 169, 443, 200, 458
-0.998428, 189, 353, 220, 368
-0.998428, 89, 315, 120, 330
-0.998428, 405, 169, 436, 184
-0.998428, 149, 439, 180, 454
-0.998429, 265, 293, 296, 308
-0.998429, 201, 307, 232, 322
-0.998429, 329, 257, 360, 500
-0.998432, 1, 445, 32, 460
-0.998432, 33, 371, 64, 386
-0.998433, 269, 277, 300, 292
-0.998433, 217, 481, 248, 496
-0.998433, 285, 425, 316, 440
-0.998433, 93, 399, 124, 414
-0.998435, 257, 409, 288, 424
-0.998435, 29, 303, 60, 318
-0.998437, 141, 229, 172, 244
-0.998437, 385, 171, 416, 186
-0.998437, 241, 129, 272, 384
-0.998437, 177, 399, 208, 414
-0.998438, 245, 421, 276, 436
-0.998439, 113, 225, 144, 480
-0.998439, 33, 183, 64, 198
-0.99844, 277, 291, 308, 306
-0.998441, 325, 169, 356, 184
-0.998442, 77, 161, 108, 176
-0.998442, 241, 341, 272, 356
-0.998443, 129, 345, 160, 360
-0.998443, 333, 409, 364, 424
-0.998443, 93, 389, 124, 404
-0.998444, 125, 97, 156, 352
-0.998447, 21, 175, 52, 190
-0.998448, 161, 337, 192, 352
-0.998449, 245, 231, 276, 246
-0.99845, 273, 411, 304, 426
-0.998451, 269, 285, 300, 300
-0.998451, 113, 339, 144, 354
-0.998451, 165, 413, 196, 428
-0.998453, 201, 423, 264, 438
-0.998453, 385, 325, 416, 340
-0.998453, 185, 391, 216, 406
-0.998454, 109, 345, 140, 360
-0.998455, 129, 355, 160, 370
-0.998455, 113, 353, 144, 368
-0.998458, 177, 349, 208, 364
-0.99846, 193, 397, 224, 412
-0.99846, 185, 369, 216, 384
-0.99846, 177, 355, 208, 370
-0.998462, 173, 257, 204, 500
-0.998462, 37, 163, 68, 178
-0.998472, 73, 393, 104, 408
-0.998472, 17, 303, 48, 318
-0.998473, 77, 323, 108, 338
-0.998474, 125, 361, 156, 376
-0.998475, 261, 257, 292, 500
-0.998475, 33, 175, 64, 190
-0.998476, 193, 313, 224, 328
-0.998479, 177, 419, 208, 434
-0.99848, 89, 323, 120, 338
-0.998483, 277, 417, 308, 432
-0.998483, 121, 343, 184, 358
-0.998484, 177, 405, 208, 420
-0.998485, 149, 349, 180, 364
-0.998486, 177, 339, 208, 354
-0.998487, 305, 417, 336, 432
-0.998489, 53, 157, 84, 172
-0.998495, 233, 421, 296, 436
-0.998498, 249, 413, 312, 428
-0.998501, 193, 417, 256, 432
-0.998502, 9, 297, 72, 312
-0.998502, 225, 419, 256, 434
-0.998503, 201, 419, 232, 434
-0.998503, 233, 425, 264, 440
-0.998504, 121, 335, 184, 350
-0.998507, 189, 339, 220, 354
-0.998509, 169, 425, 232, 440
-0.998511, 185, 333, 216, 348
-0.998516, 105, 351, 168, 366
-0.998519, 89, 321, 152, 336
-0.998519, 89, 329, 152, 344
-0.998522, 293, 419, 324, 434
-0.998523, 193, 425, 224, 440
-0.998525, 9, 149, 72, 164
-0.998527, 257, 353, 320, 368
-0.99853, 177, 411, 208, 426
-0.998531, 241, 225, 304, 240
-0.998535, 153, 339, 216, 354
-0.998537, 257, 419, 320, 434
-0.998538, 289, 417, 352, 432
-0.998538, 33, 321, 96, 336
-0.99854, 197, 413, 228, 428
-0.998541, 17, 201, 80, 216
-0.998541, 177, 405, 240, 420
-0.998542, 145, 351, 208, 366
-0.998543, 241, 237, 304, 252
-0.998544, 89, 345, 152, 360
-0.998544, 281, 411, 344, 426
-0.998545, 293, 129, 324, 384
-0.998545, 281, 425, 344, 440
-0.998546, 145, 409, 208, 424
-0.998547, 77, 161, 108, 416
-0.998549, 137, 403, 200, 418
-0.998549, 189, 419, 220, 434
-0.998549, 153, 187, 216, 202
-0.99855, 185, 341, 248, 356
-0.998551, 145, 415, 208, 430
-0.998553, 313, 353, 376, 368
-0.998555, 361, 353, 424, 368
-0.998556, 193, 399, 256, 414
-0.998557, 213, 421, 244, 436
-0.998557, 177, 411, 240, 426
-0.998559, 153, 333, 216, 348
-0.998559, 113, 247, 176, 262
-0.998561, 153, 345, 216, 360
-0.998561, 41, 153, 104, 168
-0.998562, 65, 385, 128, 400
-0.998562, 105, 269, 168, 284
-0.998563, 89, 335, 152, 350
-0.998564, 257, 79, 320, 94
-0.998564, 129, 327, 192, 342
-0.998565, 153, 483, 216, 498
-0.998565, 169, 419, 232, 434
-0.998566, 345, 347, 408, 362
-0.998566, 281, 353, 344, 368
-0.99857, 105, 359, 168, 374
-0.998571, 1, 65, 476, 128
-0.998571, 313, 309, 376, 324
-0.998571, 225, 73, 288, 88
-0.998572, 441, 161, 472, 416
-0.998572, 41, 329, 104, 344
-0.998572, 257, 361, 320, 376
-0.998572, 109, 129, 140, 384
-0.998573, 145, 445, 208, 460
-0.998573, 193, 429, 256, 444
-0.998574, 137, 243, 200, 258
-0.998574, 97, 315, 160, 330
-0.998575, 33, 179, 96, 194
-0.998575, 1, 371, 64, 386
-0.998575, 377, 395, 440, 410
-0.998576, 161, 397, 224, 412
-0.998577, 241, 231, 304, 246
-0.998577, 57, 317, 120, 332
-0.998578, 273, 87, 336, 102
-0.998578, 65, 323, 128, 338
-0.998578, 249, 279, 312, 294
-0.998578, 33, 173, 96, 188
-0.998579, 321, 409, 384, 424
-0.99858, 97, 305, 160, 320
-0.99858, 265, 309, 328, 324
-0.99858, 169, 433, 232, 448
-0.998582, 105, 463, 168, 478
-0.998582, 129, 359, 192, 374
-0.998582, 25, 471, 88, 486
-0.998583, 81, 177, 144, 192
-0.998583, 49, 159, 112, 174
-0.998583, 9, 155, 72, 170
-0.998584, 417, 205, 476, 220
-0.998584, 129, 485, 192, 500
-0.998584, 273, 315, 336, 330
-0.998584, 137, 397, 200, 412
-0.998584, 217, 79, 280, 94
-0.998585, 113, 237, 176, 252
-0.998585, 385, 349, 448, 364
-0.998585, 9, 143, 72, 158
-0.998585, 185, 475, 248, 490
-0.998585, 281, 405, 344, 420
-0.998585, 25, 289, 88, 304
-0.998586, 281, 207, 344, 222
-0.998586, 137, 371, 200, 386
-0.998586, 105, 157, 168, 172
-0.998587, 217, 169, 280, 184
-0.998587, 337, 385, 400, 400
-0.998587, 33, 277, 96, 292
-0.998587, 241, 243, 304, 258
-0.998587, 265, 397, 328, 412
-0.998588, 129, 321, 192, 336
-0.998588, 377, 369, 440, 384
-0.998588, 233, 285, 296, 300
-0.998589, 41, 193, 104, 208
-0.998589, 121, 453, 184, 468
-0.998589, 33, 227, 96, 242
-0.998589, 145, 469, 208, 484
-0.998589, 273, 321, 336, 336
-0.99859, 81, 357, 144, 372
-0.99859, 97, 299, 160, 314
-0.99859, 41, 145, 104, 160
-0.998591, 153, 237, 216, 252
-0.998592, 233, 431, 296, 446
-0.998592, 393, 193, 456, 208
-0.998592, 1, 275, 64, 290
-0.998593, 129, 193, 192, 208
-0.998593, 97, 289, 160, 304
-0.998594, 17, 185, 80, 200
-0.998594, 377, 419, 440, 434
-0.998595, 321, 415, 384, 430
-0.998595, 377, 209, 440, 224
-0.998595, 161, 453, 224, 468
-0.998596, 273, 303, 336, 318
-0.998596, 113, 229, 176, 244
-0.998598, 153, 389, 216, 404
-0.998598, 73, 153, 136, 168
-0.998598, 145, 201, 208, 216
-0.998598, 1, 447, 64, 462
-0.998599, 1, 233, 64, 248
-0.998599, 265, 327, 328, 342
-0.998599, 17, 407, 80, 422
-0.9986, 105, 163, 168, 178
-0.9986, 161, 209, 224, 224
-0.9986, 25, 399, 88, 414
-0.9986, 209, 347, 272, 362
-0.998632, 57, 65, 88, 320
-0.998639, 281, 97, 312, 352
-0.998643, 185, 161, 216, 416
-0.998645, 17, 97, 48, 352
-0.99865, 1, 257, 32, 500
-0.998652, 253, 129, 284, 384
-0.998661, 133, 1, 164, 256
-0.998674, 165, 65, 196, 320
-0.998675, 425, 193, 456, 448
-0.998679, 341, 257, 372, 500
-0.998692, 137, 305, 152, 432
-0.998728, 397, 1, 428, 256
-0.998733, 373, 97, 404, 352
-0.998761, 77, 65, 108, 320
-0.998771, 249, 257, 280, 500
-0.998776, 341, 97, 372, 352
-0.998778, 385, 225, 416, 480
-0.998786, 227, 65, 242, 192
-0.998792, 241, 1, 272, 256
-0.998803, 265, 129, 296, 384
-0.998808, 57, 225, 88, 480
-0.998817, 195, 353, 210, 480
-0.998847, 193, 305, 208, 432
-0.998899, 143, 273, 158, 400
-0.998903, 121, 1, 152, 256
-0.998904, 25, 273, 40, 400
-0.99892, 401, 257, 432, 500
-0.998933, 1, 33, 32, 288
-0.998937, 45, 1, 76, 256
-0.998944, 137, 353, 152, 480
-0.998946, 167, 337, 182, 464
-0.998953, 13, 257, 44, 500
-0.998957, 131, 305, 146, 432
-0.998967, 409, 33, 440, 288
-0.998972, 437, 65, 468, 320
-0.998981, 153, 1, 184, 256
-0.998983, 37, 161, 68, 416
-0.998995, 145, 337, 160, 464
-0.999005, 89, 97, 120, 352
-0.999007, 285, 209, 300, 336
-0.999007, 185, 33, 216, 288
-0.999011, 155, 321, 170, 448
-0.999018, 269, 289, 284, 416
-0.99902, 89, 1, 120, 256
-0.999022, 265, 241, 280, 368
-0.999024, 203, 337, 218, 464
-0.999034, 37, 353, 52, 480
-0.999044, 361, 97, 392, 352
-0.999045, 221, 97, 236, 224
-0.999046, 259, 177, 274, 304
-0.99905, 77, 273, 92, 400
-0.99906, 209, 33, 240, 288
-0.999065, 243, 225, 258, 352
-0.999066, 253, 33, 284, 288
-0.999074, 187, 305, 202, 432
-0.999078, 277, 369, 292, 496
-0.999084, 273, 1, 304, 256
-0.999085, 331, 353, 346, 480
-0.999092, 185, 369, 200, 496
-0.999095, 341, 337, 356, 464
-0.999099, 283, 161, 298, 288
-0.999101, 33, 145, 48, 272
-0.999103, 199, 289, 214, 416
-0.999106, 29, 65, 60, 320
-0.999111, 29, 193, 44, 320
-0.999111, 323, 161, 338, 288
-0.999113, 99, 321, 114, 448
-0.999113, 319, 337, 334, 464
-0.999115, 355, 321, 370, 448
-0.999117, 75, 129, 90, 256
-0.999128, 165, 177, 180, 304
-0.99913, 171, 129, 186, 256
-0.999132, 311, 305, 326, 432
-0.999133, 85, 273, 100, 400
-0.999134, 259, 225, 274, 352
-0.999137, 285, 369, 300, 496
-0.999138, 27, 353, 42, 480
-0.999139, 391, 145, 406, 272
-0.999141, 209, 353, 224, 480
-0.999141, 83, 113, 98, 240
-0.999141, 11, 129, 26, 256
-0.999142, 425, 97, 456, 352
-0.999145, 179, 369, 194, 496
-0.999147, 275, 273, 290, 400
-0.99915, 79, 353, 94, 480
-0.999152, 149, 257, 164, 384
-0.999153, 129, 257, 144, 384
-0.999153, 1, 257, 16, 384
-0.999157, 179, 305, 194, 432
-0.999157, 157, 177, 172, 304
-0.99916, 361, 145, 376, 272
-0.999162, 301, 33, 332, 288
-0.999169, 69, 369, 84, 496
-0.999174, 229, 129, 244, 256
-0.999178, 35, 273, 50, 400
-0.999179, 171, 177, 186, 304
-0.999185, 161, 321, 176, 448
-0.999186, 283, 289, 298, 416
-0.999188, 143, 177, 158, 304
-0.99919, 245, 305, 260, 432
-0.999191, 291, 225, 306, 352
-0.999194, 269, 193, 284, 320
-0.999204, 107, 177, 122, 304
-0.999205, 177, 161, 192, 288
-0.999206, 93, 289, 108, 416
-0.999206, 291, 353, 306, 480
-0.999206, 315, 161, 330, 288
-0.999207, 155, 225, 170, 352
-0.99921, 305, 225, 336, 480
-0.999211, 205, 289, 220, 416
-0.999211, 123, 145, 138, 272
-0.999213, 17, 1, 48, 256
-0.999214, 275, 321, 290, 448
-0.999214, 75, 177, 90, 304
-0.999214, 67, 321, 82, 448
-0.999216, 301, 257, 316, 384
-0.999216, 19, 289, 34, 416
-0.999217, 131, 353, 146, 480
-0.999218, 275, 177, 290, 304
-0.999218, 21, 225, 36, 352
-0.999218, 309, 353, 324, 480
-0.99922, 23, 113, 38, 240
-0.999222, 235, 257, 250, 384
-0.999223, 137, 257, 152, 384
-0.999227, 69, 129, 84, 256
-0.999228, 41, 305, 56, 432
-0.99923, 49, 305, 64, 432
-0.99923, 133, 177, 148, 304
-0.999233, 105, 305, 120, 432
-0.99924, 317, 113, 332, 240
-0.999242, 347, 305, 362, 432
-0.999242, 363, 337, 378, 464
-0.999243, 325, 353, 340, 480
-0.999247, 251, 225, 266, 352
-0.999253, 329, 305, 344, 432
-0.999253, 115, 177, 130, 304
-0.999254, 95, 241, 110, 368
-0.999255, 53, 353, 68, 480
-0.999256, 3, 129, 18, 256
-0.999257, 77, 225, 92, 352
-0.999258, 265, 353, 280, 480
-0.999258, 259, 273, 274, 400
-0.999259, 275, 225, 290, 352
-0.99926, 271, 369, 286, 496
-0.999264, 7, 257, 22, 384
-0.999265, 295, 177, 310, 304
-0.99927, 61, 337, 76, 464
-0.999271, 327, 241, 342, 368
-0.999272, 297, 305, 312, 432
-0.999272, 303, 305, 318, 432
-0.999274, 377, 337, 392, 464
-0.999274, 131, 129, 146, 256
-0.999274, 13, 289, 28, 416
-0.999275, 265, 129, 280, 256
-0.999277, 161, 369, 176, 496
-0.999277, 111, 129, 126, 256
-0.999279, 127, 193, 142, 320
-0.999279, 317, 241, 332, 368
-0.999279, 229, 337, 244, 464
-0.999281, 69, 273, 84, 400
-0.999281, 307, 177, 322, 304
-0.999284, 371, 289, 386, 416
-0.999286, 59, 65, 74, 192
-0.999286, 289, 49, 304, 176
-0.999286, 43, 1, 58, 128
-0.999293, 283, 97, 298, 224
-0.999293, 53, 97, 68, 224
-0.999293, 61, 161, 76, 288
-0.999293, 87, 321, 102, 448
-0.999294, 307, 129, 322, 256
-0.999348, 317, 65, 348, 320
-0.99935, 365, 1, 396, 256
-0.999396, 101, 225, 132, 480
-0.999424, 329, 33, 360, 288
-0.999434, 197, 1, 228, 256
-0.999451, 109, 33, 140, 288
-0.999556, 445, 257, 476, 500
-0.999602, 173, 415, 188, 430
-0.999602, 235, 415, 250, 430
-0.999602, 391, 169, 406, 184
-0.999603, 63, 391, 78, 406
-0.999603, 207, 313, 222, 328
-0.999604, 17, 141, 32, 156
-0.999604, 349, 315, 364, 330
-0.999604, 105, 327, 120, 342
-0.999604, 359, 215, 374, 230
-0.999605, 341, 375, 356, 390
-0.999605, 201, 365, 216, 380
-0.999606, 181, 195, 196, 210
-0.999606, 269, 427, 284, 442
-0.999606, 117, 479, 132, 494
-0.999607, 391, 347, 406, 362
-0.999607, 133, 315, 148, 330
-0.999607, 135, 307, 150, 322
-0.999607, 227, 287, 242, 302
-0.999607, 281, 411, 296, 426
-0.999608, 189, 369, 204, 384
-0.999608, 321, 413, 336, 428
-0.999609, 279, 429, 294, 444
-0.999609, 217, 153, 232, 168
-0.999609, 347, 307, 362, 322
-0.999609, 423, 175, 438, 190
-0.999609, 255, 403, 270, 418
-0.999609, 283, 443, 298, 458
-0.99961, 183, 369, 198, 384
-0.999611, 265, 283, 280, 298
-0.999611, 193, 385, 208, 400
-0.999611, 185, 337, 200, 352
-0.999611, 39, 373, 54, 388
-0.999611, 229, 415, 244, 430
-0.999612, 207, 415, 222, 430
-0.999612, 139, 279, 154, 294
-0.999612, 97, 323, 112, 338
-0.999612, 247, 241, 262, 256
-0.999612, 109, 477, 124, 492
-0.999612, 97, 383, 112, 398
-0.999612, 253, 293, 268, 308
-0.999613, 109, 383, 124, 398
-0.999613, 115, 399, 130, 414
-0.999613, 167, 345, 182, 360
-0.999613, 73, 321, 88, 336
-0.999614, 231, 481, 246, 496
-0.999615, 223, 153, 238, 168
-0.999616, 283, 353, 298, 368
-0.999616, 189, 391, 204, 406
-0.999616, 293, 411, 308, 426
-0.999616, 397, 171, 412, 186
-0.999617, 213, 415, 228, 430
-0.999617, 387, 353, 402, 368
-0.999619, 265, 355, 280, 370
-0.99962, 345, 381, 360, 396
-0.99962, 281, 423, 296, 438
-0.99962, 193, 349, 208, 364
-0.999621, 3, 153, 18, 168
-0.999621, 403, 171, 418, 186
-0.999621, 349, 401, 364, 416
-0.999622, 247, 339, 262, 354
-0.999622, 197, 403, 212, 418
-0.999622, 231, 423, 246, 438
-0.999622, 207, 435, 222, 450
-0.999624, 357, 399, 372, 414
-0.999624, 195, 337, 210, 352
-0.999624, 241, 419, 256, 434
-0.999624, 379, 359, 394, 374
-0.999624, 91, 383, 106, 398
-0.999626, 23, 295, 38, 310
-0.999626, 185, 343, 200, 358
-0.999627, 31, 183, 46, 198
-0.999627, 307, 425, 322, 440
-0.999627, 45, 175, 60, 190
-0.999627, 217, 429, 232, 444
-0.999628, 35, 175, 50, 190
-0.999628, 23, 189, 38, 204
-0.999629, 273, 421, 288, 436
-0.99963, 1, 17, 476, 80
-0.99963, 25, 147, 40, 162
-0.999631, 189, 425, 204, 440
-0.999632, 321, 383, 336, 398
-0.999632, 217, 481, 232, 496
-0.999633, 193, 317, 208, 332
-0.999633, 81, 155, 96, 170
-0.999633, 279, 417, 294, 432
-0.999634, 187, 331, 202, 346
-0.999634, 289, 421, 304, 436
-0.999634, 209, 427, 224, 442
-0.999634, 185, 355, 200, 370
-0.999635, 237, 339, 252, 354
-0.999635, 57, 155, 72, 170
-0.999637, 197, 397, 212, 412
-0.999637, 201, 309, 216, 324
-0.999638, 69, 395, 84, 410
-0.999638, 187, 399, 202, 414
-0.999638, 219, 419, 234, 434
-0.999639, 193, 413, 208, 428
-0.999639, 177, 359, 192, 374
-0.999642, 243, 427, 258, 442
-0.999642, 51, 163, 66, 178
-0.999642, 413, 225, 444, 480
-0.999643, 181, 407, 196, 422
-0.999644, 191, 359, 206, 374
-0.999645, 123, 343, 138, 358
-0.999646, 287, 415, 302, 430
-0.999647, 187, 417, 202, 432
-0.99965, 75, 153, 90, 168
-0.999655, 291, 289, 306, 304
-0.999656, 209, 421, 224, 436
-0.999657, 315, 417, 330, 432
-0.999657, 333, 379, 348, 394
-0.999658, 311, 353, 326, 368
-0.999659, 205, 339, 220, 354
-0.999662, 225, 421, 240, 436
-0.999663, 129, 361, 144, 376
-0.999664, 113, 343, 128, 358
-0.999666, 1, 443, 16, 458
-0.999666, 295, 423, 310, 438
-0.999668, 149, 353, 164, 368
-0.99967, 307, 415, 322, 430
-0.999677, 27, 141, 42, 156
-0.999678, 91, 323, 106, 338
-0.99968, 195, 311, 210, 326
-0.99968, 259, 283, 274, 298
-0.999684, 179, 413, 194, 428
-0.999686, 139, 359, 154, 374
-0.999686, 187, 405, 202, 420
-0.999688, 295, 417, 310, 432
-0.99969, 285, 1, 316, 256
-0.999693, 203, 425, 218, 440
-0.999701, 301, 419, 316, 434
-0.999703, 195, 419, 210, 434
-0.999721, 221, 475, 236, 490
-0.999746, 353, 1, 384, 256
-0.999759, 425, 1, 456, 256
-0.999983, 341, 1, 372, 256
