1960
-0.114086, 1, 1, 500, 375
-0.343333, 1, 97, 500, 352
-0.38875, 1, 1, 256, 375
-0.40334, 1, 1, 500, 256
-0.404115, 225, 1, 480, 375
-0.477795, 129, 1, 384, 375
-0.511427, 193, 1, 448, 256
-0.578922, 65, 1, 320, 256
-0.605071, 193, 97, 448, 352
-0.608834, 1, 129, 256, 375
-0.664079, 97, 97, 352, 352
-0.831346, 161, 1, 288, 256
-0.835678, 209, 97, 336, 352
-0.840583, 129, 97, 256, 352
-0.847742, 257, 1, 384, 256
-0.848707, 257, 1, 384, 375
-0.848936, 17, 1, 144, 375
-0.855215, 81, 33, 208, 288
-0.855458, 129, 1, 256, 375
-0.857605, 369, 1, 496, 375
-0.858527, 337, 1, 464, 256
-0.861827, 1, 97, 128, 352
-0.862184, 1, 65, 500, 192
-0.863406, 209, 1, 336, 256
-0.864526, 209, 1, 336, 375
-0.86789, 305, 1, 432, 375
-0.869045, 65, 1, 192, 375
-0.875934, 49, 129, 176, 375
-0.875991, 1, 1, 500, 128
-0.883062, 257, 97, 384, 352
-0.883896, 321, 97, 448, 352
-0.894756, 33, 1, 160, 256
-0.894875, 369, 97, 496, 352
-0.895514, 193, 65, 448, 192
-0.903232, 1, 113, 500, 240
-0.904155, 1, 161, 500, 288
-0.906293, 1, 241, 500, 368
-0.906406, 193, 17, 448, 144
-0.913819, 1, 209, 256, 336
-0.916553, 65, 97, 320, 224
-0.918898, 129, 145, 384, 272
-0.920089, 185, 129, 248, 256
-0.920105, 257, 113, 500, 240
-0.920476, 273, 65, 400, 192
-0.922373, 1, 161, 256, 288
-0.923593, 281, 65, 344, 192
-0.926783, 65, 17, 320, 144
-0.928616, 177, 81, 304, 208
-0.929102, 241, 17, 368, 144
-0.929606, 1, 145, 128, 272
-0.930192, 281, 17, 344, 144
-0.930766, 337, 17, 400, 144
-0.932175, 145, 161, 272, 288
-0.932895, 353, 97, 480, 224
-0.933655, 289, 17, 416, 144
-0.934509, 97, 161, 224, 288
-0.934808, 257, 97, 320, 224
-0.935236, 145, 209, 272, 336
-0.935629, 161, 1, 224, 128
-0.935681, 313, 65, 376, 192
-0.935681, 153, 161, 216, 288
-0.935888, 225, 97, 352, 224
-0.936552, 193, 33, 320, 160
-0.936672, 1, 193, 64, 320
-0.936845, 337, 17, 464, 144
-0.937875, 49, 177, 176, 304
-0.937944, 257, 17, 320, 144
-0.93807, 313, 1, 376, 128
-0.938592, 161, 81, 224, 208
-0.939219, 129, 1, 256, 128
-0.940547, 393, 17, 456, 144
-0.9411, 225, 81, 288, 208
-0.942667, 129, 161, 192, 288
-0.942876, 97, 193, 352, 320
-0.942894, 177, 193, 240, 320
-0.943768, 209, 145, 272, 272
-0.944862, 137, 225, 200, 352
-0.946985, 9, 145, 72, 272
-0.947145, 97, 209, 224, 336
-0.947434, 1, 241, 128, 368
-0.947629, 385, 65, 448, 192
-0.94764, 281, 25, 344, 88
-0.947869, 105, 1, 168, 128
-0.948289, 193, 65, 256, 192
-0.948511, 1, 193, 128, 320
-0.948569, 41, 113, 104, 240
-0.948819, 425, 97, 488, 224
-0.94901, 129, 17, 192, 144
-0.949293, 185, 49, 248, 112
-0.949549, 361, 49, 424, 176
-0.949654, 105, 161, 168, 288
-0.950415, 65, 33, 192, 160
-0.950428, 185, 1, 248, 128
-0.95046, 161, 25, 224, 88
-0.950589, 161, 241, 416, 368
-0.951295, 145, 1, 208, 64
-0.951625, 201, 193, 264, 320
-0.951938, 129, 49, 256, 176
-0.952087, 337, 65, 400, 192
-0.9521, 209, 145, 336, 272
-0.95243, 233, 89, 296, 152
-0.952655, 17, 193, 80, 256
-0.953109, 305, 57, 368, 120
-0.953272, 169, 241, 232, 368
-0.953749, 265, 113, 328, 176
-0.953876, 233, 129, 296, 256
-0.953941, 17, 97, 144, 224
-0.954308, 33, 225, 96, 352
-0.954342, 265, 49, 328, 112
-0.954486, 329, 121, 392, 184
-0.954582, 217, 65, 280, 128
-0.954641, 1, 241, 64, 368
-0.954723, 321, 25, 384, 88
-0.954774, 97, 113, 224, 240
-0.955233, 353, 57, 416, 120
-0.955297, 273, 129, 400, 256
-0.955474, 9, 169, 72, 232
-0.955553, 361, 97, 424, 224
-0.955699, 121, 1, 184, 64
-0.955818, 289, 89, 352, 152
-0.955861, 169, 1, 232, 64
-0.955964, 329, 65, 392, 128
-0.956461, 305, 1, 368, 64
-0.956683, 161, 65, 224, 128
-0.956736, 241, 137, 304, 200
-0.957021, 297, 137, 360, 200
-0.957286, 177, 201, 240, 264
-0.957478, 209, 153, 272, 216
-0.957492, 425, 1, 488, 128
-0.957744, 137, 65, 200, 192
-0.958703, 169, 265, 232, 328
-0.959064, 169, 129, 232, 192
-0.959225, 281, 1, 344, 64
-0.959732, 137, 57, 200, 120
-0.959753, 153, 209, 216, 272
-0.9598, 41, 145, 104, 208
-0.959878, 17, 1, 144, 128
-0.959904, 137, 113, 200, 240
-0.959996, 49, 225, 176, 352
-0.96006, 361, 113, 424, 176
-0.960065, 65, 129, 128, 256
-0.960167, 185, 73, 248, 136
-0.960499, 137, 233, 200, 296
-0.960578, 33, 177, 96, 304
-0.960696, 377, 25, 440, 88
-0.960697, 81, 177, 144, 304
-0.960753, 193, 193, 320, 320
-0.960944, 81, 25, 144, 88
-0.96104, 209, 1, 272, 128
-0.961206, 161, 169, 224, 232
-0.961246, 17, 145, 80, 208
-0.961423, 25, 217, 88, 280
-0.961563, 233, 1, 296, 128
-0.961574, 209, 121, 272, 184
-0.961611, 73, 17, 136, 144
-0.961733, 417, 121, 480, 184
-0.961899, 193, 1, 256, 64
-0.9624, 433, 145, 496, 272
-0.962742, 137, 33, 200, 96
-0.962916, 425, 49, 488, 176
-0.962991, 241, 65, 304, 128
-0.963448, 57, 177, 120, 240
-0.963515, 369, 1, 432, 128
-0.963624, 185, 25, 248, 88
-0.963834, 185, 153, 248, 216
-0.963884, 57, 209, 120, 336
-0.963998, 265, 145, 328, 208
-0.964154, 313, 129, 376, 256
-0.964331, 329, 97, 392, 160
-0.964537, 129, 281, 192, 344
-0.964709, 249, 17, 312, 80
-0.964725, 137, 177, 200, 240
-0.96487, 161, 241, 224, 304
-0.965009, 409, 17, 472, 80
-0.965153, 293, 17, 324, 144
-0.965203, 249, 1, 312, 256
-0.965297, 225, 161, 480, 288
-0.965562, 41, 121, 104, 184
-0.965574, 233, 113, 296, 176
-0.965575, 17, 97, 80, 224
-0.965773, 193, 241, 256, 368
-0.965869, 401, 113, 464, 240
-0.966172, 433, 1, 496, 256
-0.966348, 353, 33, 416, 96
-0.966356, 113, 225, 176, 352
-0.966408, 273, 25, 400, 88
-0.966573, 257, 145, 320, 272
-0.9667, 201, 217, 264, 280
-0.966828, 277, 49, 308, 176
-0.966883, 433, 97, 496, 160
-0.967222, 209, 41, 272, 104
-0.967554, 209, 97, 272, 352
-0.96756, 329, 1, 392, 64
-0.967602, 273, 121, 304, 184
-0.967756, 41, 65, 104, 192
-0.967857, 145, 97, 208, 160
-0.967875, 353, 1, 416, 256
-0.96789, 81, 1, 144, 64
-0.967949, 225, 209, 288, 336
-0.968003, 309, 49, 340, 176
-0.968178, 1, 201, 32, 264
-0.968183, 329, 49, 360, 176
-0.968646, 417, 65, 480, 128
-0.968738, 169, 289, 232, 352
-0.968806, 193, 97, 256, 160
-0.968932, 1, 225, 64, 288
-0.968936, 281, 113, 344, 240
-0.96907, 329, 1, 392, 256
-0.969141, 189, 145, 220, 272
-0.969199, 241, 57, 368, 120
-0.969325, 393, 113, 456, 176
-0.96936, 1, 281, 64, 344
-0.969501, 329, 1, 360, 128
-0.969543, 337, 113, 400, 240
-0.969638, 57, 201, 120, 264
-0.969728, 177, 161, 208, 288
-0.969817, 181, 209, 212, 272
-0.969832, 81, 81, 144, 208
-0.969853, 325, 1, 356, 64
-0.969885, 361, 1, 424, 64
-0.969971, 377, 81, 440, 144
-0.970004, 165, 161, 196, 288
-0.970009, 369, 57, 400, 120
-0.970063, 177, 89, 304, 152
-0.970305, 153, 65, 216, 320
-0.970386, 97, 177, 224, 240
-0.970389, 201, 265, 264, 328
-0.970423, 353, 137, 416, 200
-0.970477, 185, 1, 248, 256
-0.970495, 89, 225, 152, 352
-0.970513, 217, 145, 248, 272
-0.970515, 161, 65, 288, 128
-0.970708, 433, 161, 496, 224
-0.970755, 113, 281, 240, 344
-0.97076, 313, 1, 344, 128
-0.970806, 105, 33, 168, 96
-0.970934, 81, 105, 144, 168
-0.970981, 169, 9, 200, 72
-0.971037, 209, 241, 336, 368
-0.971124, 169, 97, 232, 160
-0.971156, 289, 81, 320, 208
-0.971189, 273, 81, 400, 144
-0.971213, 193, 121, 320, 184
-0.971316, 137, 257, 200, 320
-0.971361, 321, 153, 384, 216
-0.971408, 365, 49, 396, 176
-0.971456, 353, 121, 480, 184
-0.971491, 113, 81, 176, 208
-0.971592, 225, 65, 256, 128
-0.971764, 25, 65, 88, 320
-0.971796, 393, 1, 456, 256
-0.971847, 1, 193, 128, 256
-0.971923, 389, 33, 420, 160
-0.971988, 265, 97, 296, 224
-0.972034, 1, 313, 64, 375
-0.972103, 257, 225, 500, 352
-0.972118, 277, 97, 308, 224
-0.972146, 153, 161, 184, 288
-0.972149, 289, 1, 352, 256
-0.97215, 261, 137, 292, 200
-0.972165, 81, 1, 208, 64
-0.972301, 245, 81, 276, 208
-0.972332, 225, 1, 288, 256
-0.97246, 433, 17, 496, 80
-0.972654, 305, 1, 432, 64
-0.972745, 113, 177, 176, 240
-0.972778, 193, 1, 224, 128
-0.972785, 241, 137, 368, 200
-0.972848, 5, 177, 36, 304
-0.972883, 21, 161, 52, 224
-0.972959, 281, 1, 312, 128
-0.973001, 9, 169, 40, 232
-0.973054, 213, 65, 244, 128
-0.973089, 345, 65, 376, 192
-0.97319, 137, 145, 200, 208
-0.973199, 433, 97, 464, 224
-0.973247, 17, 193, 48, 320
-0.973306, 357, 25, 388, 88
-0.973342, 21, 193, 52, 256
-0.973385, 217, 193, 248, 320
-0.973409, 185, 241, 248, 304
-0.973431, 265, 97, 328, 352
-0.97358, 57, 9, 120, 72
-0.973641, 241, 97, 304, 352
-0.973681, 345, 1, 376, 128
-0.973694, 209, 177, 272, 240
-0.973779, 177, 145, 304, 208
-0.973785, 241, 41, 304, 104
-0.974017, 1, 169, 128, 232
-0.974029, 177, 81, 208, 208
-0.97406, 309, 25, 340, 88
-0.9741, 305, 113, 368, 176
-0.974102, 65, 129, 128, 192
-0.974131, 129, 1, 256, 64
-0.974185, 205, 129, 236, 256
-0.974261, 201, 201, 232, 264
-0.974276, 281, 17, 312, 80
-0.974372, 413, 1, 444, 128
-0.9744, 293, 17, 324, 80
-0.974438, 357, 73, 388, 136
-0.974451, 217, 1, 280, 64
-0.974459, 369, 145, 496, 272
-0.974498, 165, 33, 196, 160
-0.974602, 201, 65, 232, 192
-0.974691, 41, 1, 104, 128
-0.974707, 193, 1, 320, 64
-0.974716, 377, 49, 440, 112
-0.974724, 129, 305, 192, 368
-0.974917, 205, 1, 236, 128
-0.97494, 377, 33, 408, 160
-0.975008, 1, 49, 128, 176
-0.975085, 401, 17, 432, 144
-0.975096, 129, 25, 256, 88
-0.975096, 189, 49, 220, 112
-0.975212, 113, 57, 176, 120
-0.97524, 265, 57, 296, 120
-0.975266, 401, 89, 464, 152
-0.975332, 225, 25, 352, 88
-0.975341, 193, 129, 224, 192
-0.975459, 385, 1, 448, 64
-0.975618, 181, 1, 212, 64
-0.975633, 197, 161, 228, 224
-0.975647, 329, 97, 392, 352
-0.975689, 381, 41, 412, 104
-0.975722, 33, 153, 64, 216
-0.975753, 229, 209, 260, 336
-0.975795, 153, 1, 184, 64
-0.975947, 317, 65, 348, 128
-0.975954, 193, 289, 256, 352
-0.975963, 197, 265, 228, 328
-0.976027, 217, 153, 248, 216
-0.976095, 265, 73, 328, 136
-0.976127, 105, 1, 168, 256
-0.976133, 169, 73, 200, 136
-0.976189, 33, 249, 96, 312
-0.976235, 369, 17, 496, 80
-0.976239, 337, 57, 464, 120
-0.976308, 189, 193, 220, 320
-0.976309, 353, 89, 416, 152
-0.976317, 297, 49, 328, 112
-0.976386, 89, 177, 152, 240
-0.976448, 49, 193, 176, 256
-0.976453, 33, 97, 96, 160
-0.976511, 97, 313, 160, 375
-0.976512, 189, 49, 220, 176
-0.976556, 1, 225, 32, 352
-0.976563, 161, 233, 192, 296
-0.976632, 225, 265, 288, 328
-0.976766, 185, 177, 248, 240
-0.976857, 225, 217, 288, 280
-0.976902, 245, 65, 276, 128
-0.97692, 17, 137, 144, 200
-0.976953, 409, 153, 472, 216
-0.97697, 229, 145, 260, 272
-0.977058, 257, 113, 384, 176
-0.977291, 345, 65, 376, 128
-0.977319, 141, 161, 172, 288
-0.977355, 165, 209, 196, 336
-0.977381, 289, 57, 416, 120
-0.977411, 185, 97, 248, 352
-0.977426, 429, 121, 460, 184
-0.977475, 313, 1, 344, 64
-0.977503, 177, 289, 208, 352
-0.977508, 217, 209, 248, 272
-0.977509, 365, 1, 396, 128
-0.97754, 209, 241, 272, 304
-0.97755, 181, 241, 212, 304
-0.977614, 145, 225, 176, 352
-0.977658, 313, 137, 344, 200
-0.977673, 145, 225, 272, 288
-0.977691, 81, 41, 208, 104
-0.977737, 361, 137, 392, 200
-0.977745, 261, 89, 292, 152
-0.977849, 161, 257, 288, 320
-0.977923, 181, 169, 212, 232
-0.977926, 145, 121, 208, 184
-0.978012, 33, 169, 96, 232
-0.97804, 129, 1, 192, 256
-0.978047, 249, 145, 280, 208
-0.978087, 333, 65, 364, 128
-0.978153, 9, 249, 72, 312
-0.978163, 45, 193, 76, 320
-0.978208, 305, 137, 432, 200
-0.978314, 369, 97, 496, 160
-0.978323, 57, 97, 120, 352
-0.978472, 17, 121, 80, 184
-0.978518, 129, 121, 256, 184
-0.978524, 121, 1, 152, 128
-0.978526, 153, 33, 184, 96
-0.978538, 113, 89, 240, 152
-0.978621, 169, 209, 200, 272
-0.978631, 113, 9, 144, 72
-0.978686, 177, 49, 208, 112
-0.978687, 241, 1, 368, 64
-0.97869, 177, 97, 208, 160
-0.978731, 285, 97, 316, 160
-0.978742, 385, 137, 448, 200
-0.978752, 425, 1, 456, 64
-0.97884, 321, 33, 448, 96
-0.97891, 1, 1, 128, 64
-0.978915, 421, 81, 452, 208
-0.978921, 73, 113, 104, 240
-0.979048, 189, 73, 220, 136
-0.979059, 265, 49, 296, 176
-0.979069, 273, 145, 304, 208
-0.979071, 245, 145, 276, 272
-0.979098, 369, 33, 400, 96
-0.979162, 265, 1, 296, 128
-0.979184, 285, 49, 316, 112
-0.979224, 197, 1, 228, 64
-0.979224, 21, 145, 52, 272
-0.979233, 77, 177, 108, 240
-0.979248, 101, 1, 132, 128
-0.979255, 33, 145, 64, 272
-0.979272, 41, 193, 72, 256
-0.979362, 221, 1, 252, 128
-0.979386, 101, 17, 132, 80
-0.979417, 89, 1, 120, 64
-0.979453, 305, 97, 368, 352
-0.979462, 129, 201, 256, 264
-0.979521, 125, 33, 156, 96
-0.979581, 345, 121, 376, 184
-0.979608, 153, 17, 184, 144
-0.979612, 177, 41, 304, 104
-0.979631, 45, 129, 76, 192
-0.979741, 149, 57, 180, 120
-0.979762, 361, 113, 392, 240
-0.979802, 145, 169, 272, 232
-0.979806, 121, 81, 184, 144
-0.979824, 341, 1, 372, 64
-0.979863, 209, 265, 240, 328
-0.980039, 225, 89, 352, 152
-0.980233, 213, 41, 244, 104
-0.980344, 205, 137, 236, 200
-0.980354, 377, 97, 408, 160
-0.980366, 165, 257, 196, 320
-0.980419, 113, 129, 176, 375
-0.980491, 113, 65, 240, 128
-0.98051, 177, 1, 208, 128
-0.980521, 113, 249, 240, 312
-0.98054, 329, 97, 360, 224
-0.980556, 265, 241, 328, 368
-0.980617, 169, 169, 200, 232
-0.980684, 233, 161, 296, 224
-0.980689, 217, 121, 248, 184
-0.980704, 201, 193, 232, 320
-0.98075, 469, 161, 500, 224
-0.980775, 1, 217, 128, 280
-0.980791, 413, 17, 444, 80
-0.9808, 125, 161, 156, 288
-0.980823, 321, 145, 448, 272
-0.980888, 333, 25, 364, 88
-0.980951, 369, 145, 496, 208
-0.980963, 297, 89, 328, 152
-0.981008, 189, 25, 220, 88
-0.981116, 21, 217, 52, 280
-0.981126, 177, 209, 208, 336
-0.981141, 145, 241, 176, 304
-0.98116, 317, 97, 348, 224
-0.981162, 321, 89, 448, 152
-0.981175, 361, 97, 424, 352
-0.9812, 41, 73, 104, 136
-0.981224, 141, 265, 172, 328
-0.981294, 349, 97, 380, 160
-0.981302, 73, 313, 136, 375
-0.981311, 65, 97, 192, 160
-0.98133, 129, 1, 192, 375
-0.981356, 321, 33, 352, 96
-0.981361, 113, 305, 240, 368
-0.981385, 453, 17, 484, 144
-0.98139, 141, 1, 172, 128
-0.981438, 221, 65, 252, 192
-0.981456, 293, 145, 324, 208
-0.981495, 365, 97, 396, 160
-0.981509, 97, 217, 160, 280
-0.981579, 189, 97, 220, 224
-0.981593, 165, 281, 196, 344
-0.981612, 57, 209, 88, 272
-0.981631, 233, 89, 264, 152
-0.981688, 65, 137, 192, 200
-0.981688, 333, 121, 364, 184
-0.981734, 1, 129, 64, 375
-0.981765, 381, 81, 412, 208
-0.981852, 133, 9, 164, 72
-0.981878, 301, 97, 332, 224
-0.981914, 433, 41, 496, 104
-0.981937, 285, 121, 316, 184
-0.981966, 217, 241, 248, 304
-0.981973, 161, 281, 288, 344
-0.981998, 1, 113, 32, 240
-0.982, 33, 129, 64, 192
-0.982025, 9, 33, 72, 160
-0.982038, 113, 257, 176, 320
-0.982098, 265, 265, 328, 328
-0.982114, 425, 97, 488, 352
-0.982119, 165, 81, 196, 208
-0.982123, 197, 241, 228, 304
-0.982173, 177, 265, 208, 328
-0.982209, 81, 217, 208, 280
-0.982215, 161, 313, 224, 375
-0.982229, 17, 25, 144, 88
-0.982231, 201, 65, 232, 128
-0.982267, 401, 41, 464, 104
-0.982289, 65, 257, 192, 320
-0.982302, 209, 241, 240, 368
-0.982371, 57, 97, 120, 160
-0.982413, 457, 153, 488, 216
-0.982437, 237, 153, 268, 216
-0.982478, 329, 145, 360, 208
-0.982481, 165, 33, 196, 96
-0.982518, 73, 1, 136, 256
-0.982559, 305, 113, 432, 176
-0.982564, 73, 1, 136, 375
-0.982591, 25, 313, 88, 375
-0.982608, 209, 89, 240, 152
-0.982667, 197, 289, 228, 352
-0.98274, 33, 193, 64, 320
-0.982751, 465, 145, 496, 272
-0.98278, 65, 105, 96, 168
-0.982796, 461, 97, 492, 224
-0.982799, 273, 89, 304, 152
-0.982816, 393, 41, 424, 104
-0.982866, 85, 113, 116, 240
-0.982915, 433, 49, 464, 176
-0.982926, 429, 1, 460, 128
-0.982927, 57, 161, 88, 224
-0.982971, 113, 33, 144, 96
-0.982994, 445, 113, 476, 240
-0.983005, 265, 17, 296, 80
-0.983012, 57, 241, 120, 304
-0.983026, 77, 177, 108, 304
-0.9831, 137, 57, 168, 120
-0.983216, 349, 153, 380, 216
-0.983282, 441, 137, 472, 200
-0.983294, 325, 89, 356, 152
-0.983345, 65, 185, 96, 248
-0.983371, 197, 241, 228, 368
-0.983387, 13, 241, 44, 368
-0.983423, 233, 1, 296, 375
-0.983445, 169, 1, 232, 375
-0.983515, 261, 113, 292, 176
-0.983534, 25, 289, 88, 352
-0.983552, 45, 145, 76, 272
-0.983616, 233, 97, 264, 224
-0.983654, 249, 121, 280, 184
-0.983756, 113, 137, 176, 200
-0.983789, 225, 161, 352, 224
-0.983843, 225, 41, 256, 104
-0.983846, 357, 49, 388, 112
-0.983865, 61, 145, 92, 272
-0.983888, 69, 129, 100, 192
-0.983916, 49, 313, 176, 375
-0.983988, 429, 65, 460, 128
-0.984075, 153, 209, 184, 272
-0.984079, 57, 137, 88, 200
-0.984088, 57, 33, 120, 96
-0.98411, 45, 153, 76, 216
-0.984121, 349, 113, 380, 240
-0.984131, 229, 217, 260, 280
-0.984139, 337, 1, 400, 375
-0.984181, 49, 161, 176, 224
-0.984184, 69, 209, 100, 272
-0.984256, 25, 281, 56, 344
-0.984315, 385, 97, 448, 352
-0.984315, 49, 97, 80, 224
-0.984332, 237, 1, 268, 128
-0.984339, 105, 161, 136, 288
-0.984364, 17, 81, 48, 208
-0.984387, 97, 289, 160, 352
-0.984457, 425, 1, 488, 375
-0.984462, 89, 177, 120, 304
-0.984496, 5, 273, 36, 336
-0.984501, 201, 25, 232, 88
-0.984509, 85, 201, 116, 264
-0.984533, 249, 193, 312, 320
-0.984533, 233, 129, 264, 192
-0.984543, 157, 81, 188, 144
-0.984568, 369, 1, 432, 375
-0.984595, 257, 145, 288, 272
-0.984765, 177, 201, 304, 264
-0.984877, 57, 193, 88, 320
-0.984929, 201, 1, 264, 375
-0.985009, 89, 153, 152, 216
-0.985013, 445, 65, 476, 192
-0.985019, 49, 1, 112, 256
-0.985058, 1, 281, 128, 344
-0.985081, 129, 145, 256, 208
-0.985118, 313, 1, 376, 375
-0.985244, 193, 233, 320, 296
-0.985271, 257, 1, 320, 375
-0.985285, 1, 305, 128, 368
-0.985292, 257, 241, 384, 368
-0.985446, 1, 241, 128, 304
-0.985546, 409, 81, 440, 208
-0.985563, 37, 97, 68, 224
-0.9856, 65, 73, 192, 136
-0.985866, 1, 113, 128, 176
-0.985903, 105, 1, 168, 375
-0.986025, 209, 257, 336, 320
-0.986132, 281, 1, 344, 375
-0.986141, 25, 241, 56, 368
-0.986252, 153, 81, 184, 208
-0.986276, 89, 17, 120, 144
-0.986306, 45, 241, 76, 368
-0.987115, 289, 129, 320, 256
-0.987199, 65, 289, 192, 352
-0.987204, 441, 1, 472, 128
-0.987362, 465, 1, 496, 128
-0.987409, 61, 97, 92, 224
-0.987535, 81, 97, 144, 352
-0.987726, 161, 73, 224, 104
-0.987739, 421, 129, 452, 256
-0.987838, 137, 49, 168, 176
-0.987849, 41, 1, 104, 375
-0.988031, 161, 305, 288, 368
-0.988196, 17, 1, 80, 375
-0.98841, 1, 89, 128, 152
-0.988416, 233, 149, 296, 180
-0.988532, 1, 205, 64, 236
-0.988535, 201, 69, 264, 100
-0.988562, 273, 161, 400, 224
-0.988563, 117, 113, 148, 240
-0.988703, 185, 85, 248, 116
-0.988809, 257, 113, 500, 176
-0.988952, 297, 145, 360, 176
-0.988988, 393, 81, 424, 208
-0.988992, 281, 21, 344, 52
-0.989085, 233, 89, 296, 120
-0.989103, 161, 57, 416, 120
-0.989226, 401, 1, 464, 375
-0.989262, 409, 9, 472, 40
-0.989262, 281, 1, 344, 32
-0.989266, 313, 69, 376, 100
-0.989294, 1, 173, 64, 204
-0.989294, 177, 209, 240, 240
-0.989294, 161, 85, 224, 116
-0.98932, 33, 49, 160, 112
-0.989324, 337, 73, 400, 104
-0.989328, 133, 241, 164, 368
-0.989331, 129, 1, 192, 32
-0.989338, 1, 225, 64, 256
-0.989343, 265, 129, 328, 160
-0.989347, 253, 33, 284, 160
-0.989354, 273, 45, 336, 76
-0.989393, 169, 297, 232, 328
-0.989499, 1, 33, 64, 288
-0.989507, 273, 141, 336, 172
-0.989508, 41, 145, 104, 176
-0.989567, 161, 9, 224, 40
-0.989575, 257, 265, 384, 328
-0.989585, 137, 69, 200, 100
-0.989608, 185, 49, 248, 80
-0.989624, 337, 145, 368, 272
-0.989648, 97, 97, 128, 224
-0.989656, 17, 161, 80, 192
-0.989661, 145, 57, 208, 88
-0.989681, 289, 33, 352, 64
-0.989721, 329, 133, 392, 164
-0.989734, 305, 89, 368, 120
-0.989751, 17, 193, 80, 224
-0.989765, 257, 25, 320, 56
-0.989783, 145, 21, 208, 52
-0.989819, 105, 13, 168, 44
-0.989821, 241, 137, 304, 168
-0.989829, 233, 49, 264, 176
-0.989838, 145, 37, 208, 68
-0.98992, 209, 157, 272, 188
-0.98995, 401, 117, 464, 148
-0.989964, 25, 225, 88, 256
-0.989973, 361, 57, 424, 88
-0.990007, 169, 281, 232, 312
-0.990035, 377, 29, 440, 60
-0.990043, 49, 213, 112, 244
-0.99006, 289, 61, 352, 92
-0.990086, 73, 17, 104, 144
-0.990088, 241, 241, 272, 368
-0.990114, 89, 29, 152, 60
-0.990118, 209, 85, 272, 116
-0.990138, 269, 145, 300, 272
-0.990149, 73, 129, 136, 160
-0.990152, 65, 25, 128, 56
-0.990156, 257, 17, 500, 80
-0.990156, 153, 229, 216, 260
-0.990156, 185, 97, 248, 128
-0.990195, 225, 89, 480, 152
-0.990285, 337, 29, 400, 60
-0.990309, 417, 21, 480, 52
-0.990318, 129, 1, 384, 64
-0.990334, 177, 61, 240, 92
-0.990336, 241, 53, 304, 84
-0.990349, 265, 157, 328, 188
-0.990349, 305, 13, 368, 44
-0.990377, 73, 65, 104, 192
-0.990385, 313, 29, 376, 60
-0.990401, 201, 137, 264, 168
-0.990411, 137, 81, 200, 112
-0.99042, 417, 65, 480, 96
-0.990424, 121, 45, 184, 76
-0.990425, 41, 197, 104, 228
-0.990431, 137, 241, 200, 272
-0.990455, 1, 201, 256, 264
-0.990463, 145, 113, 208, 144
-0.990475, 25, 213, 88, 244
-0.990485, 113, 29, 176, 60
-0.990506, 121, 209, 152, 336
-0.990508, 369, 45, 432, 76
-0.990511, 329, 93, 392, 124
-0.990516, 161, 169, 224, 200
-0.990519, 409, 161, 472, 288
-0.990538, 161, 129, 224, 160
-0.990553, 185, 29, 248, 60
-0.990569, 73, 113, 136, 144
-0.990579, 129, 177, 192, 208
-0.990585, 73, 13, 136, 44
-0.990593, 273, 117, 336, 148
-0.990613, 433, 121, 496, 152
-0.990656, 241, 117, 304, 148
-0.990661, 129, 297, 192, 328
-0.990684, 49, 133, 112, 164
-0.990685, 433, 145, 464, 272
-0.990689, 129, 285, 192, 316
-0.990693, 97, 45, 160, 76
-0.990722, 209, 281, 336, 344
-0.990749, 73, 193, 136, 224
-0.99075, 337, 161, 400, 288
-0.990758, 329, 145, 392, 176
-0.990768, 105, 1, 168, 32
-0.990777, 433, 161, 496, 192
-0.990812, 137, 93, 200, 124
-0.990825, 113, 69, 176, 100
-0.990862, 329, 121, 392, 152
-0.990884, 17, 149, 80, 180
-0.99089, 137, 261, 200, 292
-0.990896, 361, 129, 424, 160
-0.990923, 49, 121, 112, 152
-0.990933, 185, 269, 248, 300
-0.990942, 113, 125, 176, 156
-0.990943, 337, 57, 400, 88
-0.990948, 141, 97, 172, 224
-0.990965, 57, 181, 120, 212
-0.99097, 129, 309, 192, 340
-0.990985, 105, 185, 168, 216
-0.99099, 409, 129, 472, 160
-0.991, 33, 121, 288, 184
-0.991001, 9, 237, 72, 268
-0.991001, 177, 149, 240, 180
-0.99101, 201, 293, 264, 324
-0.991024, 361, 1, 424, 32
-0.99103, 321, 1, 384, 32
-0.991031, 185, 161, 248, 192
-0.991057, 281, 105, 344, 136
-0.991077, 225, 73, 288, 104
-0.991079, 185, 309, 248, 340
-0.991106, 377, 85, 440, 116
-0.991113, 265, 57, 328, 88
-0.991115, 1, 317, 64, 348
-0.99112, 33, 177, 288, 240
-0.991123, 209, 265, 272, 296
-0.991125, 257, 105, 320, 136
-0.99113, 113, 81, 176, 112
-0.99114, 201, 221, 264, 252
-0.99115, 145, 149, 208, 180
-0.991172, 153, 217, 216, 248
-0.991178, 377, 113, 440, 144
-0.991181, 257, 137, 500, 200
-0.991183, 257, 85, 320, 116
-0.991196, 301, 145, 332, 272
-0.991199, 281, 89, 344, 120
-0.991201, 121, 57, 184, 88
-0.991204, 193, 5, 256, 36
-0.991209, 361, 73, 424, 104
-0.991212, 217, 49, 280, 80
-0.991214, 97, 25, 352, 88
-0.991216, 49, 13, 112, 44
-0.99122, 353, 145, 416, 176
-0.991231, 353, 101, 416, 132
-0.991241, 177, 221, 240, 252
-0.991264, 97, 153, 352, 216
-0.991266, 85, 65, 116, 192
-0.991275, 161, 261, 224, 292
-0.991282, 417, 145, 480, 176
-0.991383, 129, 81, 384, 144
-0.991438, 225, 185, 352, 248
-0.991507, 321, 161, 448, 224
-0.99154, 117, 49, 148, 176
-0.991781, 281, 161, 344, 288
-0.991905, 33, 65, 288, 128
-0.991941, 33, 1, 288, 64
-0.992, 325, 145, 356, 272
-0.992067, 373, 57, 404, 88
-0.992077, 317, 141, 348, 172
-0.992134, 1, 289, 256, 352
-0.992141, 385, 41, 416, 72
-0.99215, 261, 145, 292, 176
-0.992176, 185, 73, 216, 104
-0.992178, 1, 145, 256, 208
-0.992201, 109, 29, 140, 60
-0.992202, 329, 69, 360, 100
-0.992203, 249, 145, 280, 176
-0.992209, 37, 49, 68, 176
-0.992238, 245, 193, 276, 320
-0.992239, 285, 21, 316, 52
-0.992248, 1, 1, 500, 64
-0.992249, 289, 101, 320, 132
-0.992249, 169, 73, 200, 104
-0.99225, 177, 21, 208, 52
-0.99226, 13, 201, 44, 232
-0.992272, 1, 205, 32, 236
-0.992276, 285, 49, 316, 80
-0.992278, 321, 241, 448, 368
-0.992289, 349, 81, 380, 112
-0.992311, 297, 25, 328, 56
-0.992313, 257, 65, 500, 128
-0.992339, 201, 73, 232, 104
-0.992351, 177, 9, 208, 40
-0.992364, 1, 257, 256, 320
-0.992371, 305, 145, 336, 176
-0.992384, 425, 1, 456, 32
-0.992407, 177, 85, 208, 116
-0.992412, 313, 21, 344, 52
-0.992417, 297, 37, 328, 68
-0.992418, 221, 73, 252, 104
-0.992425, 1, 25, 256, 88
-0.99243, 9, 169, 40, 200
-0.992435, 281, 117, 312, 148
-0.992438, 365, 33, 396, 64
-0.992445, 89, 29, 120, 60
-0.992458, 217, 89, 248, 120
-0.992483, 369, 305, 496, 368
-0.992485, 209, 273, 240, 304
-0.992491, 157, 73, 188, 104
-0.992496, 345, 69, 376, 100
-0.992497, 165, 9, 196, 40
-0.992503, 309, 57, 340, 88
-0.992512, 17, 189, 48, 220
-0.992521, 29, 161, 60, 192
-0.992529, 93, 17, 124, 48
-0.992536, 189, 21, 220, 52
-0.992542, 205, 149, 236, 180
-0.992547, 41, 153, 72, 184
-0.992554, 69, 129, 100, 160
-0.992562, 189, 85, 220, 116
-0.99257, 109, 17, 140, 48
-0.992581, 173, 37, 204, 68
-0.992584, 269, 133, 300, 164
-0.992587, 177, 293, 208, 324
-0.992587, 129, 105, 384, 168
-0.992592, 165, 101, 196, 132
-0.992597, 21, 229, 52, 260
-0.992598, 325, 13, 356, 44
-0.992602, 93, 185, 124, 216
-0.992606, 413, 13, 444, 44
-0.992607, 149, 85, 180, 116
-0.992612, 153, 1, 184, 32
-0.992613, 169, 241, 200, 272
-0.992619, 81, 129, 112, 160
-0.992622, 45, 217, 76, 248
-0.992628, 5, 217, 36, 248
-0.992629, 149, 25, 180, 56
-0.992632, 133, 41, 164, 72
-0.992638, 73, 197, 104, 228
-0.992639, 165, 253, 196, 284
-0.992639, 269, 93, 300, 124
-0.992642, 29, 189, 60, 220
-0.992642, 365, 101, 396, 132
-0.992644, 273, 53, 304, 84
-0.992645, 165, 89, 196, 120
-0.992647, 21, 213, 52, 244
-0.992647, 277, 129, 292, 192
-0.992648, 181, 209, 212, 240
-0.992648, 337, 81, 368, 112
-0.992649, 229, 85, 260, 116
-0.99265, 165, 25, 196, 56
-0.992659, 193, 273, 224, 304
-0.992663, 241, 193, 368, 320
-0.992667, 361, 141, 392, 172
-0.992673, 213, 285, 244, 316
-0.992674, 201, 137, 232, 168
-0.992678, 321, 153, 352, 184
-0.992679, 433, 117, 464, 148
-0.992691, 205, 85, 236, 116
-0.992693, 69, 145, 100, 176
-0.992699, 301, 93, 332, 124
-0.992702, 181, 221, 212, 252
-0.992703, 457, 21, 488, 52
-0.992706, 361, 65, 392, 96
-0.992708, 189, 5, 220, 36
-0.992709, 309, 33, 340, 64
-0.992709, 169, 217, 200, 248
-0.992709, 209, 53, 240, 84
-0.992711, 421, 117, 452, 148
-0.992711, 149, 45, 180, 76
-0.992716, 189, 285, 220, 316
-0.992718, 245, 89, 276, 120
-0.992722, 269, 157, 300, 188
-0.992731, 53, 145, 84, 176
-0.992734, 273, 145, 304, 176
-0.992734, 373, 45, 404, 76
-0.992737, 25, 201, 56, 232
-0.99275, 149, 61, 180, 92
-0.992751, 165, 281, 196, 312
-0.992751, 73, 225, 104, 352
-0.992752, 401, 33, 432, 64
-0.992755, 1, 181, 32, 212
-0.992756, 237, 69, 268, 100
-0.992758, 185, 125, 216, 156
-0.992761, 285, 37, 316, 68
-0.992768, 117, 45, 148, 76
-0.992769, 189, 57, 220, 88
-0.99277, 201, 293, 232, 324
-0.992772, 273, 17, 304, 48
-0.992773, 197, 209, 228, 240
-0.992777, 105, 41, 136, 72
-0.992779, 137, 53, 168, 84
-0.992794, 281, 157, 312, 188
-0.992807, 153, 241, 184, 272
-0.99281, 193, 45, 224, 76
-0.992816, 141, 73, 172, 104
-0.992819, 61, 205, 92, 236
-0.992821, 77, 25, 108, 56
-0.992824, 441, 53, 472, 84
-0.992825, 81, 185, 112, 216
-0.992827, 33, 221, 64, 252
-0.992829, 253, 157, 284, 188
-0.992829, 181, 245, 212, 276
-0.992835, 177, 57, 208, 88
-0.992839, 189, 297, 220, 328
-0.992839, 21, 173, 52, 204
-0.992845, 425, 149, 456, 180
-0.992847, 81, 113, 112, 144
-0.992848, 1, 153, 500, 216
-0.992851, 157, 225, 188, 256
-0.992865, 221, 221, 252, 252
-0.992867, 285, 9, 316, 40
-0.992943, 369, 185, 496, 248
-0.993026, 273, 29, 400, 60
-0.993087, 101, 49, 132, 176
-0.993094, 1, 89, 500, 152
-0.993139, 1, 129, 500, 192
-0.993196, 17, 33, 48, 160
-0.993234, 129, 273, 384, 336
-0.993295, 161, 129, 416, 192
-0.9933, 61, 49, 92, 176
-0.993309, 1, 225, 256, 288
-0.993326, 257, 145, 384, 176
-0.993406, 285, 113, 300, 176
-0.993409, 353, 125, 480, 156
-0.99343, 33, 89, 288, 152
-0.993473, 321, 289, 448, 352
-0.99348, 271, 137, 286, 200
-0.993545, 239, 65, 254, 128
-0.993549, 161, 93, 288, 124
-0.993561, 57, 241, 88, 368
-0.993587, 227, 65, 242, 128
-0.993595, 373, 121, 388, 184
-0.993613, 257, 41, 500, 104
-0.993617, 179, 9, 194, 72
-0.993636, 193, 137, 320, 168
-0.993695, 1, 217, 128, 248
-0.993718, 325, 1, 340, 64
-0.993745, 209, 89, 336, 120
-0.993779, 289, 93, 416, 124
-0.993785, 365, 65, 380, 128
-0.993795, 177, 69, 304, 100
-0.993796, 193, 153, 320, 184
-0.993832, 1, 25, 500, 88
-0.993853, 129, 73, 256, 104
-0.99391, 253, 241, 284, 368
-0.993963, 353, 61, 480, 92
-0.994009, 233, 65, 248, 128
-0.99402, 321, 1, 448, 32
-0.994061, 113, 257, 240, 288
-0.994116, 257, 65, 384, 96
-0.99412, 49, 137, 176, 168
-0.994125, 129, 53, 256, 84
-0.99414, 189, 81, 204, 144
-0.994144, 353, 265, 480, 328
-0.994147, 1, 201, 128, 232
-0.994205, 129, 217, 384, 280
-0.994213, 273, 133, 400, 164
-0.994218, 193, 125, 320, 156
-0.994221, 205, 281, 220, 344
-0.99423, 439, 113, 454, 176
-0.994271, 373, 25, 388, 88
-0.994305, 301, 25, 316, 88
-0.994316, 197, 129, 212, 192
-0.99433, 15, 201, 30, 264
-0.994343, 181, 65, 196, 128
-0.994346, 357, 57, 372, 120
-0.994371, 219, 41, 234, 104
-0.994386, 319, 25, 334, 88
-0.994421, 21, 161, 36, 224
-0.994425, 209, 101, 336, 132
-0.994426, 199, 1, 214, 64
-0.994435, 1, 313, 256, 375
-0.994441, 369, 25, 496, 56
-0.994455, 321, 141, 448, 172
-0.99447, 17, 181, 144, 212
-0.994493, 321, 77, 448, 108
-0.994498, 215, 65, 230, 128
-0.994502, 169, 1, 184, 64
-0.994502, 81, 1, 208, 32
-0.994511, 173, 33, 188, 96
-0.994512, 263, 145, 278, 208
-0.994512, 113, 277, 240, 308
-0.994515, 391, 41, 406, 104
-0.994518, 311, 57, 326, 120
-0.994533, 213, 161, 228, 224
-0.994542, 207, 193, 222, 256
-0.994573, 39, 145, 54, 208
-0.994577, 107, 17, 122, 80
-0.994582, 337, 113, 464, 144
-0.9946, 15, 169, 30, 232
-0.994614, 379, 49, 394, 112
-0.994638, 373, 57, 388, 120
-0.99464, 175, 217, 190, 280
-0.99464, 97, 41, 224, 72
-0.994652, 165, 65, 180, 128
-0.994655, 257, 121, 384, 152
-0.994656, 155, 57, 170, 120
-0.994665, 291, 17, 306, 80
-0.994672, 281, 89, 296, 152
-0.994684, 31, 161, 46, 224
-0.9947, 97, 25, 224, 56
-0.994707, 337, 49, 464, 80
-0.994708, 1, 57, 500, 120
-0.994713, 367, 25, 382, 88
-0.994718, 177, 57, 304, 88
-0.994728, 319, 57, 334, 120
-0.994729, 369, 241, 496, 368
-0.994736, 205, 49, 220, 112
-0.994747, 365, 137, 380, 200
-0.994759, 245, 65, 260, 128
-0.994765, 117, 17, 132, 80
-0.994772, 1, 193, 16, 256
-0.994813, 211, 137, 226, 200
-0.994816, 257, 53, 384, 84
-0.994819, 129, 213, 256, 244
-0.99482, 161, 265, 288, 296
-0.994825, 27, 193, 42, 256
-0.994857, 187, 169, 202, 232
-0.994866, 333, 65, 348, 128
-0.994879, 221, 121, 236, 184
-0.994887, 191, 49, 206, 112
-0.994889, 209, 113, 336, 144
-0.994896, 291, 105, 306, 168
-0.994914, 335, 9, 350, 72
-0.994919, 195, 209, 210, 272
-0.994925, 49, 145, 64, 208
-0.994935, 129, 121, 256, 152
-0.994942, 9, 177, 24, 240
-0.994946, 49, 121, 176, 152
-0.994957, 193, 1, 208, 64
-0.994958, 155, 1, 170, 64
-0.994959, 195, 161, 210, 224
-0.994971, 305, 61, 432, 92
-0.994976, 81, 313, 208, 344
-0.994989, 63, 193, 78, 256
-0.99499, 129, 177, 384, 240
-0.994992, 447, 121, 462, 184
-0.994997, 17, 153, 144, 184
-0.995004, 327, 57, 342, 120
-0.995009, 187, 105, 202, 168
-0.995013, 219, 201, 234, 264
-0.995036, 341, 1, 356, 64
-0.995037, 305, 17, 432, 48
-0.995083, 175, 73, 190, 136
-0.995092, 81, 13, 208, 44
-0.995092, 225, 25, 352, 56
-0.995101, 7, 201, 22, 264
-0.99511, 265, 1, 296, 256
-0.995114, 433, 1, 448, 64
-0.995115, 479, 161, 494, 224
-0.995126, 241, 77, 368, 108
-0.995166, 203, 137, 218, 200
-0.99517, 205, 161, 220, 224
-0.995173, 51, 193, 66, 256
-0.995177, 177, 253, 304, 284
-0.995184, 289, 241, 352, 368
-0.995184, 369, 193, 496, 320
-0.995201, 211, 257, 226, 320
-0.995212, 1, 169, 128, 200
-0.995213, 167, 217, 182, 280
-0.995214, 185, 25, 200, 88
-0.995223, 183, 209, 198, 272
-0.995226, 113, 145, 240, 176
-0.995231, 181, 169, 196, 232
-0.995237, 177, 29, 304, 60
-0.995249, 257, 153, 272, 216
-0.995263, 309, 25, 324, 88
-0.995266, 91, 185, 106, 248
-0.995269, 285, 17, 300, 80
-0.995271, 193, 281, 208, 344
-0.995274, 129, 25, 144, 88
-0.995276, 311, 1, 326, 64
-0.995297, 145, 169, 272, 200
-0.995317, 285, 153, 300, 216
-0.995325, 21, 193, 36, 256
-0.99533, 197, 41, 212, 104
-0.995338, 397, 41, 412, 104
-0.995345, 81, 201, 208, 232
-0.995348, 97, 241, 352, 304
-0.995365, 225, 1, 352, 32
-0.995368, 181, 97, 196, 160
-0.995382, 221, 97, 252, 352
-0.995384, 197, 73, 212, 136
-0.995391, 199, 241, 214, 304
-0.995394, 97, 181, 224, 212
-0.99541, 185, 1, 200, 64
-0.995411, 237, 89, 252, 152
-0.995421, 129, 241, 256, 272
-0.995428, 361, 25, 376, 88
-0.995453, 149, 25, 164, 88
-0.995457, 327, 25, 342, 88
-0.995471, 267, 65, 282, 128
-0.995481, 341, 121, 356, 184
-0.995482, 129, 225, 256, 256
-0.995485, 305, 49, 320, 112
-0.995493, 145, 5, 272, 36
-0.995501, 149, 57, 164, 120
-0.995535, 257, 13, 384, 44
-0.995537, 165, 41, 180, 104
-0.995538, 241, 157, 368, 188
-0.995538, 179, 249, 194, 312
-0.995541, 277, 57, 292, 120
-0.995545, 337, 89, 352, 152
-0.995546, 285, 1, 316, 256
-0.995561, 3, 169, 18, 232
-0.995567, 289, 41, 416, 72
-0.995569, 419, 17, 434, 80
-0.99557, 241, 225, 256, 288
-0.995579, 45, 217, 60, 280
-0.995602, 379, 97, 394, 160
-0.995619, 469, 1, 500, 256
-0.995632, 161, 277, 288, 308
-0.995637, 305, 145, 320, 208
-0.995638, 247, 153, 262, 216
-0.99564, 221, 65, 236, 128
-0.995651, 381, 25, 396, 88
-0.995654, 1, 177, 500, 240
-0.995666, 221, 89, 236, 152
-0.995666, 213, 193, 228, 256
-0.995677, 275, 89, 290, 152
-0.995692, 289, 241, 416, 304
-0.995692, 189, 241, 204, 304
-0.995697, 347, 121, 362, 184
-0.9957, 289, 41, 304, 104
-0.995703, 57, 129, 72, 192
-0.995718, 113, 105, 240, 136
-0.995722, 351, 89, 366, 152
-0.995735, 201, 193, 216, 256
-0.995736, 179, 289, 194, 352
-0.995738, 455, 57, 470, 120
-0.995742, 71, 201, 86, 264
-0.995745, 219, 249, 234, 312
-0.995749, 177, 41, 304, 72
-0.995754, 129, 297, 384, 360
-0.995797, 245, 97, 276, 352
-0.995807, 433, 209, 496, 336
-0.995814, 353, 13, 480, 44
-0.995841, 369, 1, 400, 256
-0.995897, 257, 161, 500, 224
-0.99591, 33, 13, 160, 44
-0.995918, 81, 65, 208, 96
-0.995925, 113, 133, 240, 164
-0.99596, 337, 101, 464, 132
-0.995964, 201, 97, 232, 352
-0.99597, 457, 1, 488, 256
-0.995973, 381, 1, 412, 256
-0.995982, 289, 313, 416, 375
-0.995985, 229, 1, 260, 256
-0.996, 113, 301, 240, 332
-0.996044, 201, 1, 232, 256
-0.996055, 49, 109, 176, 140
-0.99606, 49, 213, 176, 244
-0.996074, 1, 265, 500, 328
-0.996079, 33, 245, 160, 276
-0.996079, 113, 289, 240, 320
-0.99608, 33, 325, 160, 356
-0.996089, 297, 1, 328, 256
-0.996108, 1, 229, 128, 260
-0.996126, 225, 37, 352, 68
-0.996137, 369, 37, 496, 68
-0.996141, 1, 209, 500, 272
-0.996149, 209, 269, 336, 300
-0.996153, 65, 269, 192, 300
-0.996189, 233, 97, 264, 352
-0.996189, 193, 13, 320, 44
-0.996209, 181, 1, 212, 256
-0.996216, 17, 29, 144, 60
-0.996223, 289, 105, 416, 136
-0.99624, 81, 77, 208, 108
-0.996274, 161, 297, 288, 328
-0.996296, 177, 209, 304, 240
-0.996315, 165, 65, 196, 320
-0.996318, 357, 1, 388, 256
-0.996323, 321, 29, 448, 60
-0.996347, 369, 157, 496, 188
-0.996359, 369, 145, 496, 176
-0.996382, 161, 109, 288, 140
-0.996383, 1, 137, 128, 168
-0.996422, 1, 125, 128, 156
-0.996423, 1, 289, 500, 352
-0.996455, 49, 53, 176, 84
-0.99647, 97, 89, 224, 120
-0.996522, 257, 289, 384, 352
-0.996524, 273, 1, 400, 32
-0.996527, 393, 1, 424, 256
-0.996575, 1, 337, 128, 368
-0.996582, 137, 65, 168, 320
-0.996597, 33, 41, 160, 72
-0.996635, 181, 129, 212, 375
-0.99666, 1, 313, 128, 344
-0.996662, 193, 165, 320, 196
-0.996674, 225, 209, 352, 272
-0.996694, 65, 165, 192, 196
-0.996705, 217, 1, 248, 256
-0.996713, 145, 17, 272, 48
-0.99674, 177, 241, 304, 272
-0.996768, 211, 73, 226, 104
-0.996806, 109, 29, 124, 60
-0.996822, 245, 1, 276, 256
-0.996823, 21, 129, 52, 375
-0.996831, 65, 65, 96, 320
-0.996846, 257, 97, 288, 352
-0.996861, 263, 145, 278, 176
-0.996865, 33, 1, 160, 32
-0.996866, 285, 97, 316, 352
-0.996916, 327, 137, 342, 168
-0.996927, 153, 65, 184, 320
-0.996928, 81, 245, 208, 276
-0.996955, 81, 229, 208, 260
-0.996957, 333, 1, 364, 256
-0.996957, 305, 153, 432, 184
-0.996966, 145, 157, 272, 188
-0.996985, 445, 1, 476, 256
-0.996986, 337, 89, 464, 120
-0.99699, 309, 29, 324, 60
-0.997001, 281, 113, 296, 144
-0.997004, 317, 1, 348, 256
-0.997018, 177, 197, 304, 228
-0.997032, 293, 45, 308, 76
-0.997034, 299, 29, 314, 60
-0.997036, 287, 49, 302, 80
-0.99704, 85, 129, 100, 160
-0.997057, 287, 17, 302, 48
-0.997058, 113, 17, 128, 48
-0.99706, 33, 97, 160, 128
-0.997062, 1, 257, 128, 288
-0.997098, 97, 325, 224, 356
-0.9971, 273, 149, 288, 180
-0.997104, 377, 241, 440, 368
-0.997117, 341, 69, 356, 100
-0.997121, 405, 1, 436, 256
-0.997138, 357, 73, 372, 104
-0.997139, 361, 161, 424, 288
-0.997146, 209, 281, 336, 312
-0.99717, 275, 125, 290, 156
-0.997183, 241, 233, 368, 296
-0.997183, 349, 73, 364, 104
-0.997186, 203, 73, 218, 104
-0.997186, 257, 257, 500, 320
-0.997189, 383, 45, 398, 76
-0.997194, 321, 141, 336, 172
-0.997196, 187, 81, 202, 112
-0.997204, 385, 161, 448, 288
-0.997211, 33, 97, 64, 352
-0.997213, 217, 73, 232, 104
-0.997215, 389, 45, 404, 76
-0.997225, 301, 97, 332, 352
-0.997241, 345, 1, 376, 256
-0.997242, 293, 109, 308, 140
-0.997244, 437, 1, 452, 32
-0.99725, 65, 281, 192, 312
-0.997251, 369, 1, 496, 32
-0.997251, 129, 313, 256, 344
-0.997264, 329, 61, 344, 92
-0.997275, 45, 153, 60, 184
-0.997279, 85, 197, 100, 228
-0.997289, 211, 269, 226, 300
-0.997302, 287, 101, 302, 132
-0.997303, 9, 97, 40, 352
-0.997316, 27, 177, 42, 208
-0.997317, 345, 97, 376, 352
-0.997324, 29, 161, 44, 192
-0.997333, 315, 25, 330, 56
-0.997336, 21, 197, 36, 228
-0.99735, 269, 133, 284, 164
-0.997358, 181, 9, 196, 40
-0.997361, 469, 97, 500, 352
-0.99737, 17, 277, 144, 308
-0.997373, 231, 85, 246, 116
-0.997378, 323, 21, 338, 52
-0.997387, 33, 301, 160, 332
-0.997387, 23, 165, 38, 196
-0.997404, 57, 149, 72, 180
-0.997407, 435, 117, 450, 148
-0.997417, 181, 89, 196, 120
-0.997419, 445, 117, 460, 148
-0.997423, 197, 29, 212, 60
-0.997436, 15, 169, 30, 200
-0.997437, 165, 17, 180, 48
-0.99744, 197, 73, 212, 104
-0.997441, 419, 13, 434, 44
-0.997442, 125, 1, 156, 256
-0.997445, 307, 41, 322, 72
-0.997454, 213, 89, 228, 120
-0.997457, 37, 157, 52, 188
-0.997458, 369, 129, 384, 160
-0.997459, 279, 57, 294, 88
-0.997466, 95, 185, 110, 216
-0.99747, 171, 73, 186, 104
-0.997475, 103, 29, 118, 60
-0.997479, 293, 33, 308, 64
-0.99748, 1, 313, 500, 375
-0.99749, 299, 101, 314, 132
-0.997498, 1, 209, 16, 240
-0.997499, 203, 285, 218, 316
-0.997499, 85, 65, 116, 320
-0.997508, 213, 61, 228, 92
-0.997508, 377, 53, 392, 84
-0.997519, 279, 141, 294, 172
-0.99752, 315, 141, 330, 172
-0.997531, 107, 17, 122, 48
-0.997537, 7, 205, 22, 236
-0.997538, 287, 117, 302, 148
-0.997541, 215, 145, 230, 176
-0.997545, 157, 81, 172, 112
-0.997547, 45, 129, 76, 375
-0.997551, 61, 197, 76, 228
-0.997554, 29, 189, 44, 220
-0.997576, 311, 57, 326, 88
-0.99758, 269, 97, 300, 352
-0.997588, 315, 45, 330, 76
-0.997589, 193, 17, 208, 48
-0.997591, 189, 29, 204, 60
-0.997593, 381, 33, 396, 64
-0.997595, 165, 89, 180, 120
-0.997596, 301, 45, 316, 76
-0.997612, 239, 69, 254, 100
-0.997614, 197, 209, 212, 240
-0.997615, 321, 53, 336, 84
-0.997617, 177, 221, 304, 252
-0.997618, 273, 161, 288, 192
-0.997624, 219, 85, 234, 116
-0.997629, 127, 49, 142, 80
-0.997631, 365, 65, 380, 96
-0.997633, 183, 101, 198, 132
-0.997636, 329, 73, 344, 104
-0.997638, 117, 33, 132, 64
-0.997642, 209, 301, 224, 332
-0.997643, 179, 77, 194, 108
-0.997647, 207, 229, 222, 260
-0.997648, 13, 201, 28, 232
-0.997649, 335, 69, 350, 100
-0.997652, 135, 49, 150, 80
-0.997653, 287, 33, 302, 64
-0.997655, 171, 89, 186, 120
-0.997656, 251, 141, 266, 172
-0.997657, 171, 1, 186, 32
-0.997658, 179, 21, 194, 52
-0.99766, 365, 77, 380, 108
-0.997661, 41, 225, 56, 256
-0.997661, 371, 61, 386, 92
-0.997661, 221, 49, 236, 80
-0.997666, 191, 209, 206, 240
-0.997669, 21, 177, 36, 208
-0.997672, 167, 285, 182, 316
-0.997674, 429, 9, 444, 40
-0.997675, 31, 225, 46, 256
-0.997676, 29, 201, 44, 232
-0.997677, 129, 201, 256, 232
-0.997684, 201, 133, 216, 164
-0.99769, 433, 61, 448, 92
-0.997694, 171, 29, 186, 60
-0.997695, 433, 33, 464, 288
-0.997702, 197, 149, 212, 180
-0.997702, 189, 69, 204, 100
-0.997708, 373, 97, 388, 128
-0.997709, 223, 73, 238, 104
-0.997711, 9, 173, 24, 204
-0.997715, 143, 53, 158, 84
-0.997716, 201, 273, 216, 304
-0.99772, 61, 213, 76, 244
-0.997721, 455, 53, 470, 84
-0.997722, 333, 97, 364, 352
-0.997728, 367, 93, 382, 124
-0.997731, 229, 69, 244, 100
-0.997732, 151, 77, 166, 108
-0.99774, 67, 145, 82, 176
-0.997746, 293, 21, 308, 52
-0.997747, 109, 1, 140, 256
-0.997747, 165, 73, 180, 104
-0.997748, 183, 245, 198, 276
-0.997751, 273, 261, 400, 292
-0.997751, 165, 1, 180, 32
-0.997752, 329, 13, 344, 44
-0.997764, 225, 185, 480, 248
-0.997767, 125, 129, 156, 375
-0.997774, 1, 241, 500, 304
-0.997842, 145, 181, 272, 212
-0.997857, 449, 97, 480, 352
-0.997876, 1, 109, 128, 140
-0.997885, 65, 257, 192, 288
-0.997896, 357, 97, 388, 352
-0.997971, 241, 169, 368, 200
-0.997986, 33, 69, 160, 100
-0.99805, 177, 309, 304, 340
-0.998064, 389, 97, 420, 352
-0.99808, 225, 297, 480, 360
-0.998095, 49, 337, 176, 368
-0.9981, 49, 1, 80, 256
-0.998104, 373, 97, 404, 352
-0.998131, 421, 1, 452, 256
-0.998162, 209, 297, 336, 328
-0.998166, 289, 193, 416, 320
-0.998238, 33, 85, 160, 116
-0.998249, 401, 241, 464, 368
-0.998262, 5, 1, 36, 256
-0.998274, 97, 337, 224, 368
-0.998282, 313, 129, 344, 375
-0.99833, 437, 129, 468, 375
-0.998338, 97, 97, 128, 352
-0.99834, 421, 97, 452, 352
-0.998375, 321, 185, 448, 248
-0.998391, 201, 87, 264, 102
-0.998399, 401, 97, 432, 352
-0.998403, 273, 185, 400, 248
-0.998404, 291, 97, 306, 224
-0.998419, 145, 75, 208, 90
-0.99842, 233, 153, 296, 168
-0.998433, 313, 91, 376, 106
-0.998435, 9, 231, 72, 246
-0.998436, 177, 91, 240, 106
-0.998439, 233, 91, 296, 106
-0.998441, 295, 1, 310, 128
-0.998444, 145, 83, 208, 98
-0.998451, 177, 85, 240, 100
-0.998452, 281, 27, 344, 42
-0.998455, 273, 59, 336, 74
-0.99846, 225, 159, 288, 174
-0.998461, 97, 1, 128, 256
-0.998461, 129, 3, 192, 18
-0.998461, 305, 265, 432, 328
-0.998462, 321, 133, 384, 148
-0.998465, 37, 157, 68, 172
-0.998465, 209, 281, 240, 296
-0.998465, 77, 31, 108, 46
-0.998466, 329, 143, 392, 158
-0.998466, 201, 303, 232, 318
-0.998466, 29, 197, 60, 212
-0.998466, 209, 273, 240, 288
-0.998467, 361, 143, 392, 158
-0.998467, 461, 161, 492, 176
-0.998467, 177, 297, 208, 312
-0.998468, 317, 61, 348, 76
-0.998468, 177, 211, 240, 226
-0.998469, 401, 121, 464, 136
-0.998469, 193, 49, 224, 64
-0.99847, 165, 297, 196, 312
-0.99847, 201, 149, 232, 164
-0.998471, 353, 65, 384, 80
-0.998471, 349, 91, 380, 106
-0.998471, 45, 209, 76, 224
-0.998472, 285, 37, 316, 52
-0.998472, 165, 19, 196, 34
-0.998472, 273, 67, 304, 82
-0.998473, 165, 283, 196, 298
-0.998474, 281, 159, 312, 174
-0.998474, 185, 161, 200, 288
-0.998474, 181, 227, 212, 242
-0.998474, 57, 199, 120, 214
-0.998474, 309, 93, 340, 108
-0.998475, 457, 25, 488, 40
-0.998475, 305, 145, 336, 160
-0.998476, 165, 143, 196, 158
-0.998476, 229, 3, 260, 18
-0.998477, 81, 133, 112, 148
-0.998477, 265, 153, 296, 168
-0.998477, 177, 19, 208, 34
-0.998477, 153, 91, 184, 106
-0.998478, 261, 63, 292, 78
-0.998479, 117, 45, 148, 60
-0.998479, 73, 27, 136, 42
-0.99848, 321, 71, 384, 86
-0.998481, 1, 179, 32, 194
-0.998484, 293, 155, 324, 170
-0.998484, 25, 161, 56, 176
-0.998484, 1, 217, 64, 232
-0.998485, 289, 103, 320, 118
-0.998485, 265, 159, 328, 174
-0.998486, 145, 79, 176, 94
-0.998487, 17, 167, 48, 182
-0.998488, 317, 149, 348, 164
-0.998488, 189, 31, 220, 46
-0.998488, 313, 85, 376, 100
-0.998489, 297, 153, 360, 168
-0.998489, 265, 147, 296, 162
-0.998489, 45, 151, 76, 166
-0.99849, 269, 137, 300, 152
-0.99849, 165, 25, 196, 40
-0.99849, 153, 89, 216, 104
-0.998491, 193, 77, 224, 92
-0.998491, 241, 149, 272, 164
-0.998492, 309, 35, 340, 50
-0.998492, 9, 203, 72, 218
-0.998492, 277, 127, 308, 142
-0.998493, 185, 53, 248, 68
-0.998493, 65, 201, 96, 216
-0.998494, 177, 145, 208, 160
-0.998495, 257, 151, 320, 166
-0.998495, 1, 211, 64, 226
-0.998495, 109, 21, 140, 36
-0.998497, 49, 215, 80, 230
-0.998498, 125, 51, 156, 66
-0.998498, 301, 17, 316, 144
-0.998498, 81, 137, 144, 152
-0.998498, 257, 25, 320, 40
-0.9985, 189, 23, 220, 38
-0.9985, 17, 223, 80, 238
-0.9985, 281, 119, 312, 134
-0.998501, 77, 201, 108, 216
-0.998501, 113, 37, 144, 52
-0.998501, 213, 67, 244, 82
-0.998502, 97, 195, 128, 210
-0.998502, 89, 13, 120, 28
-0.998503, 321, 3, 352, 18
-0.998503, 89, 35, 120, 50
-0.998503, 153, 71, 184, 86
-0.998504, 273, 65, 336, 80
-0.998505, 369, 67, 400, 82
-0.998506, 161, 307, 224, 322
-0.998506, 173, 39, 204, 54
-0.998506, 145, 25, 208, 40
-0.998506, 165, 77, 196, 92
-0.998507, 333, 71, 364, 86
-0.998507, 269, 163, 300, 178
-0.998507, 285, 113, 316, 128
-0.998508, 69, 245, 100, 260
-0.998508, 69, 211, 100, 226
-0.998509, 21, 229, 52, 244
-0.998509, 429, 65, 460, 80
-0.998509, 93, 187, 124, 202
-0.99851, 1, 215, 32, 230
-0.99851, 73, 143, 104, 158
-0.99851, 273, 143, 336, 158
-0.998511, 161, 11, 224, 26
-0.998511, 33, 155, 96, 170
-0.998512, 57, 149, 88, 164
-0.998512, 185, 149, 248, 164
-0.998513, 441, 59, 472, 74
-0.998515, 177, 7, 208, 22
-0.998516, 401, 23, 464, 38
-0.998516, 165, 97, 196, 112
-0.998516, 53, 247, 84, 262
-0.998516, 45, 225, 76, 240
-0.998516, 137, 247, 200, 262
-0.998518, 177, 27, 208, 42
-0.99852, 401, 29, 464, 44
-0.99852, 193, 89, 224, 104
-0.99852, 169, 79, 232, 94
-0.998521, 57, 211, 120, 226
-0.998521, 337, 85, 400, 100
-0.998521, 257, 141, 288, 156
-0.998522, 105, 43, 168, 58
-0.998522, 353, 67, 416, 82
-0.998523, 1, 231, 32, 246
-0.998524, 73, 21, 136, 36
-0.998526, 25, 219, 56, 234
-0.998527, 333, 83, 364, 98
-0.998527, 177, 67, 240, 82
-0.998527, 73, 185, 136, 200
-0.998528, 225, 63, 288, 78
-0.998529, 185, 7, 248, 22
-0.99853, 289, 3, 352, 18
-0.998531, 273, 59, 304, 74
-0.998531, 9, 171, 72, 186
-0.998531, 33, 229, 96, 244
-0.998531, 17, 165, 80, 180
-0.998531, 257, 97, 320, 112
-0.998532, 417, 65, 480, 80
-0.998533, 161, 43, 224, 58
-0.998533, 289, 45, 320, 60
-0.998533, 105, 33, 168, 48
-0.998534, 309, 157, 340, 172
-0.998534, 225, 147, 288, 162
-0.998536, 109, 97, 140, 352
-0.998536, 97, 25, 128, 40
-0.998537, 161, 19, 224, 34
-0.998538, 121, 51, 184, 66
-0.998538, 193, 7, 224, 22
-0.998539, 173, 91, 204, 106
-0.998539, 41, 221, 104, 236
-0.99854, 105, 17, 168, 32
-0.998541, 341, 1, 356, 128
-0.998542, 285, 27, 316, 42
-0.998543, 305, 61, 336, 76
-0.998543, 433, 163, 496, 178
-0.998543, 305, 151, 336, 166
-0.998544, 297, 67, 360, 82
-0.998544, 321, 59, 384, 74
-0.998544, 285, 51, 316, 66
-0.998544, 33, 205, 96, 220
-0.998545, 13, 207, 44, 222
-0.998545, 201, 97, 264, 112
-0.998545, 145, 147, 208, 162
-0.998546, 17, 197, 80, 212
-0.998547, 337, 77, 400, 92
-0.998547, 201, 69, 264, 84
-0.998548, 177, 257, 240, 272
-0.998548, 49, 149, 112, 164
-0.998549, 105, 129, 168, 144
-0.99855, 417, 59, 480, 74
-0.998551, 89, 193, 152, 208
-0.998551, 169, 219, 232, 234
-0.998552, 1, 189, 64, 204
-0.998552, 161, 297, 224, 312
-0.998553, 121, 67, 184, 82
-0.998553, 81, 1, 144, 16
-0.998554, 97, 185, 160, 200
-0.998554, 297, 33, 360, 48
-0.998555, 297, 145, 360, 160
-0.998555, 253, 147, 284, 162
-0.998556, 65, 205, 128, 220
-0.998557, 241, 123, 304, 138
-0.998557, 101, 35, 132, 50
-0.998557, 197, 143, 228, 158
-0.998558, 253, 155, 284, 170
-0.998558, 241, 57, 304, 72
-0.998558, 273, 135, 336, 150
-0.998559, 331, 33, 346, 160
-0.998559, 161, 249, 224, 264
-0.998559, 281, 51, 344, 66
-0.998559, 425, 11, 456, 26
-0.998559, 137, 127, 200, 142
-0.99856, 65, 13, 128, 28
-0.998561, 137, 59, 200, 74
-0.998561, 41, 141, 104, 156
-0.998562, 201, 1, 264, 16
-0.998562, 169, 247, 200, 262
-0.998562, 161, 31, 224, 46
-0.998562, 185, 277, 248, 292
-0.998563, 357, 99, 388, 114
-0.998563, 345, 91, 408, 106
-0.998563, 249, 67, 312, 82
-0.998563, 265, 33, 328, 48
-0.998563, 377, 35, 440, 50
-0.998563, 1, 159, 64, 174
-0.998564, 121, 81, 184, 96
-0.998564, 137, 9, 200, 24
-0.998564, 109, 29, 140, 44
-0.998564, 1, 177, 64, 192
-0.998565, 169, 143, 232, 158
-0.998566, 291, 49, 306, 176
-0.998566, 185, 83, 216, 98
-0.998566, 33, 239, 96, 254
-0.998566, 297, 79, 360, 94
-0.998567, 265, 121, 328, 136
-0.998567, 1, 139, 64, 154
-0.998568, 345, 85, 376, 100
-0.998568, 281, 41, 344, 56
-0.998568, 129, 89, 192, 104
-0.998568, 193, 219, 256, 234
-0.998568, 201, 61, 264, 76
-0.998569, 433, 121, 464, 136
-0.998569, 321, 155, 352, 170
-0.998569, 137, 265, 200, 280
-0.998569, 161, 243, 224, 258
-0.998569, 129, 291, 192, 306
-0.99857, 321, 33, 384, 48
-0.99857, 161, 51, 224, 66
-0.998571, 329, 97, 392, 112
-0.998571, 409, 13, 472, 28
-0.998572, 97, 23, 160, 38
-0.998573, 201, 265, 264, 280
-0.998573, 233, 139, 296, 154
-0.998573, 297, 39, 328, 54
-0.998574, 329, 149, 392, 164
-0.998574, 201, 259, 264, 274
-0.998574, 177, 287, 240, 302
-0.998577, 377, 55, 408, 70
-0.998578, 177, 13, 208, 28
-0.998578, 225, 93, 256, 108
-0.998578, 389, 39, 420, 54
-0.998579, 325, 49, 340, 176
-0.99858, 209, 91, 240, 106
-0.99859, 297, 29, 328, 44
-0.998597, 197, 145, 212, 272
-0.998598, 373, 61, 404, 76
-0.998598, 245, 89, 276, 104
-0.998603, 381, 49, 412, 64
-0.998604, 281, 21, 312, 36
-0.998607, 89, 19, 120, 34
-0.998607, 1, 209, 32, 224
-0.998609, 213, 85, 244, 100
-0.998613, 345, 73, 376, 88
-0.998614, 21, 33, 52, 288
-0.998615, 301, 81, 316, 208
-0.998616, 391, 33, 406, 160
-0.998618, 17, 199, 48, 214
-0.998623, 207, 1, 222, 128
-0.99863, 167, 161, 182, 288
-0.99863, 311, 49, 326, 176
-0.998641, 317, 143, 348, 158
-0.998646, 341, 49, 356, 176
-0.998661, 173, 161, 188, 288
-0.998662, 237, 145, 252, 272
-0.998672, 191, 161, 206, 288
-0.998673, 157, 161, 172, 288
-0.998677, 283, 49, 298, 176
-0.998679, 259, 81, 274, 208
-0.99868, 213, 65, 228, 192
-0.998685, 185, 113, 200, 240
-0.9987, 323, 1, 338, 128
-0.998713, 221, 145, 236, 272
-0.998724, 369, 33, 384, 160
-0.998728, 335, 81, 350, 208
-0.998732, 225, 87, 256, 102
-0.99874, 435, 81, 450, 208
-0.998744, 317, 49, 332, 176
-0.998745, 13, 177, 28, 304
-0.998745, 317, 1, 332, 128
-0.998761, 275, 113, 290, 240
-0.998762, 267, 97, 282, 224
-0.998777, 33, 1, 64, 256
-0.998786, 7, 193, 22, 320
-0.998802, 347, 17, 362, 144
-0.998805, 441, 97, 456, 224
-0.998806, 179, 161, 194, 288
-0.998811, 231, 145, 246, 272
-0.998811, 239, 209, 254, 336
-0.998818, 19, 209, 34, 336
-0.998819, 447, 97, 462, 224
-0.998822, 1, 209, 16, 336
-0.998822, 217, 17, 232, 144
-0.998824, 83, 97, 98, 224
-0.998826, 357, 17, 372, 144
-0.99883, 289, 1, 304, 128
-0.998834, 285, 97, 300, 224
-0.998836, 27, 209, 42, 336
-0.998839, 279, 1, 294, 128
-0.998841, 207, 81, 222, 208
-0.998864, 397, 33, 412, 160
-0.998868, 429, 81, 444, 208
-0.99887, 189, 17, 204, 144
-0.998875, 211, 145, 226, 272
-0.998875, 385, 17, 400, 144
-0.998875, 403, 17, 418, 144
-0.998875, 189, 65, 204, 192
-0.998877, 165, 1, 180, 128
-0.998882, 205, 145, 220, 272
-0.998885, 347, 65, 362, 192
-0.998891, 165, 209, 180, 336
-0.998897, 229, 193, 244, 320
-0.998902, 221, 193, 236, 320
-0.998912, 13, 225, 28, 352
-0.998913, 421, 1, 436, 128
-0.998926, 265, 49, 280, 176
-0.998927, 179, 33, 194, 160
-0.998929, 209, 305, 336, 368
-0.998932, 37, 225, 52, 352
-0.998933, 149, 161, 164, 288
-0.998943, 113, 1, 128, 128
-0.998957, 201, 193, 216, 320
-0.998959, 195, 65, 210, 192
-0.998961, 363, 17, 378, 144
-0.998963, 197, 1, 212, 128
-0.998966, 427, 1, 442, 128
-0.998971, 191, 113, 206, 240
-0.998971, 171, 33, 186, 160
-0.998974, 375, 17, 390, 144
-0.998982, 223, 1, 238, 128
-0.998984, 219, 65, 234, 192
-0.998988, 107, 1, 122, 128
-0.998989, 179, 113, 194, 240
-0.998992, 259, 129, 274, 256
-0.998995, 273, 65, 288, 192
-0.998996, 7, 241, 22, 368
-0.998997, 365, 81, 380, 208
-0.999008, 93, 113, 108, 240
-0.999009, 415, 1, 430, 128
-0.999011, 253, 81, 268, 208
-0.999039, 21, 129, 36, 256
-0.999051, 309, 1, 324, 128
-0.999055, 139, 161, 154, 288
-0.999069, 143, 1, 158, 128
-0.999069, 213, 225, 228, 352
-0.99907, 381, 65, 396, 192
-0.999071, 49, 193, 64, 320
-0.999072, 369, 241, 496, 304
-0.999075, 79, 145, 94, 272
-0.999078, 29, 129, 44, 256
-0.999082, 145, 241, 160, 368
-0.999082, 155, 225, 170, 352
-0.999085, 243, 161, 258, 288
-0.999087, 151, 1, 166, 128
-0.999092, 207, 193, 222, 320
-0.999093, 41, 97, 56, 224
-0.999097, 189, 209, 204, 336
-0.999102, 181, 209, 196, 336
-0.999104, 91, 177, 106, 304
-0.999104, 249, 145, 264, 272
-0.999105, 249, 1, 264, 128
-0.999106, 85, 145, 100, 272
-0.999107, 227, 65, 242, 192
-0.99911, 37, 145, 52, 272
-0.999112, 445, 49, 460, 176
-0.999113, 353, 97, 368, 224
-0.999122, 201, 65, 216, 192
-0.999123, 269, 1, 284, 128
-0.999124, 373, 97, 388, 224
-0.999129, 473, 97, 488, 224
-0.99913, 465, 1, 480, 128
-0.999132, 409, 17, 424, 144
-0.999133, 121, 1, 136, 128
-0.999133, 43, 225, 58, 352
-0.999133, 173, 113, 188, 240
-0.999135, 235, 1, 250, 128
-0.999138, 433, 1, 448, 128
-0.999141, 479, 145, 494, 272
-0.999146, 453, 97, 468, 224
-0.999153, 341, 97, 356, 224
-0.999158, 485, 129, 500, 256
-0.999164, 63, 145, 78, 272
-0.999458, 321, 241, 384, 368
-0.999657, 171, 247, 186, 262
-0.999658, 303, 101, 318, 116
-0.999658, 313, 27, 328, 42
-0.999658, 95, 33, 110, 48
-0.999658, 291, 31, 306, 46
-0.999658, 17, 229, 32, 244
-0.999659, 309, 95, 324, 110
-0.999659, 87, 211, 102, 226
-0.99966, 65, 205, 80, 220
-0.999661, 295, 113, 310, 128
-0.999661, 25, 179, 40, 194
-0.999662, 213, 91, 228, 106
-0.999662, 195, 49, 210, 64
-0.999663, 177, 97, 192, 112
-0.999663, 43, 157, 58, 172
-0.999663, 99, 195, 114, 210
-0.999664, 319, 35, 334, 50
-0.999664, 367, 97, 382, 112
-0.999664, 79, 143, 94, 158
-0.999665, 387, 45, 402, 60
-0.999665, 371, 61, 386, 76
-0.999665, 177, 247, 192, 262
-0.999665, 165, 95, 180, 110
-0.999665, 361, 85, 376, 100
-0.999666, 401, 39, 416, 54
-0.999667, 331, 69, 346, 84
-0.999667, 381, 55, 396, 70
-0.999667, 201, 279, 216, 294
-0.999668, 73, 143, 88, 158
-0.999669, 31, 165, 46, 180
-0.999669, 83, 197, 98, 212
-0.999669, 185, 13, 200, 28
-0.999669, 337, 79, 352, 94
-0.999669, 231, 93, 246, 108
-0.99967, 375, 55, 390, 70
-0.999671, 199, 91, 214, 106
-0.999671, 11, 203, 26, 218
-0.999672, 171, 91, 186, 106
-0.999672, 319, 141, 334, 156
-0.999672, 359, 73, 374, 88
-0.999674, 93, 193, 108, 208
-0.999675, 15, 171, 30, 186
-0.999675, 305, 153, 320, 168
-0.999676, 315, 51, 330, 66
-0.999677, 323, 1, 338, 16
-0.999677, 351, 83, 366, 98
-0.999678, 51, 153, 66, 168
-0.999678, 253, 149, 268, 164
-0.999678, 293, 103, 308, 118
-0.999679, 321, 153, 336, 168
-0.999679, 85, 133, 100, 148
-0.999679, 341, 71, 356, 86
-0.999679, 83, 203, 98, 218
-0.99968, 191, 11, 206, 26
-0.99968, 95, 135, 110, 150
-0.999681, 453, 65, 468, 80
-0.999681, 255, 89, 270, 104
-0.999682, 249, 89, 264, 104
-0.999683, 437, 5, 452, 20
-0.999683, 197, 7, 212, 22
-0.999683, 117, 127, 132, 142
-0.999683, 111, 41, 126, 56
-0.999685, 29, 193, 44, 208
-0.999686, 245, 1, 260, 16
-0.999686, 329, 61, 344, 76
-0.999687, 37, 227, 52, 242
-0.999689, 273, 155, 288, 170
-0.99969, 421, 11, 436, 26
-0.99969, 361, 91, 376, 106
-0.999691, 365, 67, 380, 82
-0.999692, 185, 7, 200, 22
-0.999692, 291, 49, 306, 64
-0.999693, 71, 203, 86, 218
-0.999695, 297, 41, 312, 56
-0.999697, 445, 123, 460, 138
-0.999697, 295, 21, 310, 36
-0.999697, 9, 209, 24, 224
-0.999698, 57, 151, 72, 166
-0.9997, 107, 23, 122, 38
-0.999702, 329, 141, 344, 156
-0.999702, 65, 149, 80, 164
-0.999702, 313, 145, 328, 160
-0.999705, 1, 213, 16, 228
-0.999705, 67, 247, 82, 262
-0.999709, 373, 141, 388, 156
-0.99971, 113, 21, 128, 36
-0.999712, 283, 57, 298, 72
-0.999717, 231, 87, 246, 102
-0.999717, 195, 85, 210, 100
-0.999717, 219, 91, 234, 106
-0.999718, 277, 129, 292, 144
-0.999719, 345, 83, 360, 98
-0.999719, 285, 115, 300, 130
-0.99972, 309, 41, 324, 56
-0.999721, 263, 151, 278, 166
-0.999721, 211, 273, 226, 288
-0.999724, 281, 123, 296, 138
-0.999724, 289, 109, 304, 124
-0.999725, 291, 43, 306, 58
-0.999725, 213, 85, 228, 100
-0.999727, 301, 35, 316, 50
-0.999727, 299, 27, 314, 42
-0.999727, 205, 85, 220, 100
-0.999728, 273, 137, 288, 152
-0.999731, 107, 29, 122, 44
-0.999732, 21, 199, 36, 214
-0.999732, 271, 63, 286, 78
-0.999733, 89, 199, 104, 214
-0.999734, 369, 133, 384, 148
-0.999735, 355, 89, 370, 104
-0.999737, 195, 79, 210, 94
-0.999738, 151, 81, 166, 96
-0.999739, 315, 61, 330, 76
-0.999744, 225, 91, 240, 106
-0.999744, 437, 119, 452, 134
-0.999744, 183, 103, 198, 118
-0.99975, 267, 145, 282, 160
-0.999751, 307, 31, 322, 46
-0.999752, 191, 147, 206, 162
-0.999759, 103, 35, 118, 50
-0.999761, 225, 85, 240, 100
-0.999762, 113, 29, 128, 44
-0.999766, 189, 83, 204, 98
-0.999787, 277, 61, 292, 76
-0.999789, 323, 57, 338, 72
-0.999793, 243, 87, 258, 102
-0.999794, 287, 19, 302, 34
-0.999806, 237, 91, 252, 106
-0.999807, 219, 85, 234, 100
-0.999815, 109, 35, 124, 50
-0.999884, 225, 217, 480, 280
-1.00006, 353, 209, 480, 272
-1.00118, 289, 217, 416, 280
-1.00187, 353, 241, 416, 368
-1.00266, 305, 193, 368, 320
