1877
-0.133254, 1, 1, 500, 333
-0.236811, 129, 1, 384, 333
-0.304026, 1, 1, 500, 256
-0.309478, 1, 1, 256, 333
-0.352374, 257, 1, 500, 333
-0.423692, 129, 1, 384, 256
-0.504157, 225, 1, 480, 256
-0.534422, 1, 33, 256, 288
-0.81811, 129, 1, 256, 333
-0.822001, 33, 1, 160, 333
-0.822472, 225, 1, 352, 333
-0.82481, 273, 1, 400, 333
-0.830017, 177, 1, 304, 333
-0.833861, 129, 1, 256, 256
-0.843468, 33, 65, 160, 320
-0.844686, 209, 65, 336, 320
-0.846812, 289, 1, 416, 256
-0.849615, 321, 1, 448, 333
-0.852823, 81, 1, 208, 333
-0.853415, 353, 1, 480, 256
-0.866229, 81, 33, 208, 288
-0.866655, 1, 33, 500, 160
-0.876203, 369, 1, 496, 333
-0.880537, 161, 193, 416, 320
-0.888556, 1, 209, 500, 333
-0.890452, 193, 17, 448, 144
-0.891935, 1, 161, 256, 288
-0.89446, 33, 33, 288, 160
-0.89998, 129, 113, 384, 240
-0.901364, 1, 81, 500, 208
-0.901935, 257, 65, 500, 192
-0.903504, 1, 209, 256, 333
-0.911861, 1, 113, 256, 240
-0.912765, 1, 129, 500, 256
-0.913786, 209, 209, 336, 333
-0.915513, 305, 1, 432, 128
-0.918337, 145, 193, 272, 320
-0.919674, 209, 81, 336, 208
-0.920296, 1, 65, 128, 192
-0.920791, 257, 209, 384, 333
-0.92248, 129, 145, 256, 272
-0.92251, 233, 209, 296, 333
-0.926679, 369, 65, 496, 192
-0.926746, 385, 49, 448, 176
-0.927542, 313, 209, 376, 333
-0.928177, 225, 129, 480, 256
-0.928443, 289, 65, 416, 192
-0.930537, 369, 1, 496, 128
-0.930677, 353, 1, 416, 128
-0.930745, 153, 209, 216, 333
-0.931162, 209, 209, 272, 333
-0.931225, 33, 113, 160, 240
-0.931917, 257, 161, 384, 288
-0.931921, 193, 129, 320, 256
-0.931929, 257, 209, 500, 333
-0.932283, 209, 17, 336, 144
-0.934115, 337, 65, 400, 192
-0.934706, 177, 209, 240, 333
-0.935053, 273, 209, 336, 333
-0.935196, 65, 33, 192, 160
-0.935751, 169, 161, 232, 288
-0.936303, 305, 113, 432, 240
-0.936929, 209, 17, 272, 144
-0.937405, 433, 1, 496, 128
-0.93826, 129, 33, 256, 160
-0.938741, 329, 1, 392, 128
-0.939164, 137, 145, 200, 272
-0.939526, 161, 65, 416, 192
-0.939604, 377, 1, 440, 128
-0.940627, 257, 17, 384, 144
-0.941326, 297, 145, 360, 272
-0.941965, 17, 49, 80, 176
-0.942653, 209, 81, 272, 208
-0.943146, 289, 97, 352, 224
-0.943827, 401, 1, 464, 128
-0.944895, 249, 113, 312, 240
-0.944993, 1, 209, 64, 333
-0.945628, 169, 33, 232, 160
-0.946187, 137, 169, 200, 232
-0.946719, 281, 249, 344, 312
-0.94677, 97, 209, 224, 333
-0.947809, 313, 65, 376, 192
-0.947816, 305, 1, 368, 128
-0.947839, 73, 49, 136, 176
-0.94791, 145, 97, 272, 224
-0.948278, 193, 129, 256, 256
-0.948726, 81, 161, 208, 288
-0.949177, 433, 105, 496, 168
-0.949281, 273, 161, 336, 288
-0.949488, 129, 193, 192, 320
-0.949564, 153, 193, 216, 256
-0.950584, 313, 257, 376, 320
-0.95079, 433, 81, 496, 208
-0.950936, 305, 209, 432, 333
-0.950955, 273, 153, 336, 216
-0.950977, 233, 17, 296, 144
-0.951245, 305, 113, 368, 176
-0.951467, 257, 65, 320, 192
-0.951529, 113, 33, 176, 160
-0.951736, 97, 81, 224, 208
-0.95211, 265, 105, 328, 168
-0.952882, 233, 161, 296, 288
-0.953056, 265, 81, 328, 144
-0.953326, 385, 57, 448, 120
-0.953514, 209, 89, 272, 152
-0.953747, 329, 113, 392, 176
-0.953855, 241, 105, 304, 168
-0.953969, 153, 257, 216, 320
-0.954009, 169, 217, 232, 280
-0.954198, 265, 225, 328, 288
-0.954433, 217, 129, 280, 192
-0.954466, 233, 217, 296, 280
-0.954672, 137, 41, 200, 104
-0.954986, 225, 257, 288, 320
-0.9563, 1, 241, 64, 304
-0.95643, 321, 113, 384, 240
-0.956578, 169, 113, 232, 240
-0.95691, 257, 265, 320, 328
-0.957079, 361, 9, 424, 72
-0.957093, 113, 145, 176, 272
-0.957237, 257, 113, 384, 240
-0.957249, 1, 129, 64, 256
-0.957379, 201, 257, 264, 320
-0.957758, 289, 49, 352, 176
-0.957848, 281, 273, 344, 333
-0.957926, 129, 145, 192, 208
-0.958038, 137, 225, 200, 288
-0.958073, 33, 97, 96, 224
-0.958241, 281, 129, 344, 192
-0.958297, 209, 201, 272, 264
-0.958712, 41, 49, 104, 176
-0.958925, 281, 17, 344, 80
-0.95915, 345, 89, 408, 152
-0.959197, 305, 17, 368, 80
-0.959324, 177, 185, 240, 248
-0.95943, 233, 65, 296, 192
-0.959892, 185, 33, 248, 96
-0.959899, 129, 81, 192, 208
-0.960249, 89, 129, 152, 256
-0.960341, 289, 49, 352, 112
-0.960368, 289, 89, 352, 152
-0.960424, 129, 201, 192, 264
-0.960657, 345, 113, 408, 240
-0.960753, 33, 161, 160, 288
-0.960858, 145, 33, 208, 160
-0.961122, 265, 17, 328, 144
-0.961469, 361, 65, 424, 192
-0.961645, 33, 57, 96, 120
-0.961864, 433, 81, 496, 144
-0.961973, 9, 81, 72, 144
-0.962081, 177, 161, 240, 224
-0.962298, 425, 1, 488, 64
-0.962668, 289, 1, 352, 256
-0.962716, 97, 49, 160, 112
-0.963395, 273, 185, 336, 248
-0.963652, 297, 193, 360, 256
-0.963997, 233, 81, 296, 144
-0.96426, 257, 129, 320, 192
-0.964462, 313, 41, 376, 104
-0.964715, 401, 1, 464, 64
-0.964861, 329, 17, 392, 80
-0.964861, 305, 137, 368, 200
-0.964919, 337, 209, 400, 333
-0.965199, 1, 17, 128, 144
-0.965637, 185, 105, 248, 168
-0.965658, 73, 49, 136, 112
-0.965864, 249, 33, 312, 288
-0.966235, 329, 65, 392, 128
-0.966581, 341, 209, 372, 333
-0.966721, 165, 185, 196, 248
-0.966787, 177, 265, 240, 328
-0.966868, 89, 145, 152, 208
-0.966929, 9, 57, 72, 120
-0.967093, 209, 33, 272, 96
-0.967211, 313, 225, 376, 288
-0.967534, 137, 1, 200, 256
-0.967541, 113, 121, 176, 184
-0.967561, 353, 113, 480, 240
-0.967595, 161, 1, 224, 256
-0.967613, 329, 1, 392, 256
-0.967615, 249, 25, 312, 88
-0.967656, 9, 265, 72, 328
-0.967661, 161, 33, 224, 96
-0.967684, 113, 185, 240, 248
-0.967726, 305, 17, 432, 80
-0.967878, 345, 41, 408, 104
-0.967901, 381, 1, 412, 128
-0.968057, 241, 257, 368, 320
-0.968146, 113, 33, 176, 288
-0.968301, 177, 137, 240, 200
-0.968344, 1, 209, 128, 333
-0.968347, 113, 137, 240, 200
-0.968387, 313, 89, 376, 152
-0.96864, 145, 249, 272, 312
-0.968803, 257, 209, 288, 333
-0.968897, 433, 57, 496, 120
-0.968906, 33, 161, 96, 288
-0.968961, 49, 209, 176, 333
-0.969059, 193, 217, 320, 280
-0.969545, 1, 169, 64, 232
-0.969767, 145, 145, 176, 272
-0.96978, 289, 105, 416, 168
-0.969864, 177, 193, 208, 320
-0.96987, 361, 65, 392, 192
-0.969888, 1, 145, 64, 208
-0.969972, 193, 1, 256, 256
-0.969981, 393, 1, 424, 128
-0.97003, 225, 105, 352, 168
-0.970192, 213, 209, 244, 333
-0.970239, 237, 209, 268, 333
-0.970314, 249, 193, 312, 256
-0.970422, 405, 1, 436, 128
-0.9705, 273, 209, 304, 333
-0.970555, 217, 1, 280, 256
-0.970708, 305, 257, 336, 320
-0.970781, 157, 265, 188, 328
-0.970855, 193, 209, 224, 333
-0.970955, 433, 129, 496, 192
-0.971083, 209, 25, 336, 88
-0.971145, 165, 193, 196, 320
-0.971187, 409, 65, 472, 192
-0.97122, 249, 153, 312, 216
-0.971225, 153, 137, 216, 200
-0.971344, 385, 33, 448, 288
-0.971532, 369, 1, 400, 128
-0.971729, 277, 257, 308, 320
-0.971797, 1, 97, 128, 160
-0.97182, 145, 209, 272, 272
-0.971838, 273, 225, 400, 288
-0.971907, 145, 185, 176, 248
-0.971912, 369, 1, 496, 64
-0.972046, 165, 209, 196, 272
-0.972162, 293, 161, 324, 288
-0.972313, 129, 41, 256, 104
-0.972362, 17, 121, 144, 184
-0.972414, 105, 81, 168, 208
-0.972457, 317, 105, 348, 168
-0.972471, 81, 89, 144, 152
-0.972483, 285, 233, 316, 296
-0.972551, 309, 97, 340, 224
-0.972562, 33, 49, 160, 112
-0.972622, 225, 257, 256, 320
-0.972649, 369, 65, 496, 128
-0.972691, 341, 257, 372, 320
-0.972741, 245, 17, 276, 144
-0.972771, 285, 209, 316, 333
-0.972905, 169, 57, 232, 120
-0.972908, 357, 1, 388, 128
-0.973098, 21, 145, 52, 272
-0.973134, 317, 129, 348, 192
-0.973267, 297, 113, 328, 240
-0.973301, 241, 185, 368, 248
-0.973313, 289, 49, 416, 112
-0.973379, 121, 265, 184, 328
-0.973412, 329, 1, 360, 128
-0.97366, 301, 209, 332, 333
-0.973697, 393, 49, 424, 176
-0.973716, 113, 177, 176, 240
-0.973735, 217, 89, 248, 152
-0.973742, 201, 233, 264, 296
-0.973802, 409, 65, 472, 128
-0.973811, 373, 65, 404, 192
-0.973977, 105, 193, 168, 320
-0.974164, 209, 81, 336, 144
-0.974198, 225, 193, 256, 320
-0.974226, 333, 105, 364, 168
-0.974235, 153, 41, 184, 104
-0.974243, 241, 57, 304, 120
-0.974289, 193, 265, 320, 328
-0.974307, 177, 105, 304, 168
-0.974321, 325, 17, 356, 80
-0.974382, 257, 129, 384, 192
-0.974394, 81, 1, 144, 256
-0.974402, 293, 177, 324, 240
-0.974423, 33, 81, 96, 144
-0.974483, 265, 257, 296, 320
-0.974489, 353, 121, 416, 184
-0.974534, 353, 65, 416, 128
-0.974546, 257, 17, 384, 80
-0.974547, 265, 217, 296, 280
-0.974552, 289, 73, 416, 136
-0.974557, 289, 217, 352, 280
-0.974586, 341, 65, 372, 192
-0.97459, 433, 1, 496, 256
-0.974632, 225, 17, 256, 144
-0.9748, 285, 73, 316, 136
-0.974857, 177, 129, 304, 192
-0.974888, 365, 9, 396, 72
-0.974962, 33, 145, 160, 208
-0.974987, 197, 129, 228, 256
-0.975037, 305, 105, 336, 168
-0.975101, 89, 113, 152, 176
-0.975204, 469, 121, 500, 184
-0.975234, 153, 209, 184, 333
-0.975261, 329, 209, 360, 333
-0.975282, 129, 137, 160, 200
-0.975295, 377, 33, 440, 96
-0.975314, 353, 1, 416, 256
-0.975356, 421, 1, 452, 128
-0.975505, 21, 145, 52, 208
-0.975512, 33, 57, 64, 120
-0.975515, 325, 257, 356, 320
-0.97555, 65, 113, 128, 240
-0.975561, 113, 225, 176, 288
-0.975616, 173, 257, 204, 320
-0.975641, 153, 209, 184, 272
-0.975646, 21, 241, 52, 304
-0.975757, 305, 17, 336, 80
-0.975867, 213, 257, 244, 320
-0.975877, 289, 153, 320, 216
-0.975888, 201, 177, 264, 240
-0.975919, 365, 73, 396, 136
-0.975984, 341, 217, 372, 280
-0.975988, 357, 105, 388, 168
-0.976, 121, 65, 184, 128
-0.976032, 409, 1, 472, 256
-0.976068, 1, 49, 32, 176
-0.976075, 57, 1, 120, 128
-0.976107, 209, 65, 272, 128
-0.976214, 257, 105, 288, 168
-0.976245, 177, 193, 208, 256
-0.976307, 229, 201, 260, 264
-0.976319, 21, 81, 52, 208
-0.976339, 165, 145, 196, 272
-0.97634, 337, 113, 464, 176
-0.976354, 181, 145, 212, 272
-0.976514, 145, 161, 176, 224
-0.976522, 393, 9, 424, 72
-0.976532, 301, 81, 332, 144
-0.976633, 1, 65, 64, 320
-0.976663, 141, 41, 172, 104
-0.976686, 113, 113, 240, 176
-0.976733, 209, 33, 240, 160
-0.976798, 369, 41, 496, 104
-0.976809, 345, 113, 376, 176
-0.97682, 293, 257, 324, 320
-0.976825, 237, 265, 268, 328
-0.976864, 245, 105, 276, 168
-0.976973, 341, 1, 372, 128
-0.976976, 213, 97, 244, 224
-0.977007, 81, 49, 112, 176
-0.977044, 25, 209, 56, 333
-0.977049, 33, 265, 64, 328
-0.977104, 201, 121, 232, 184
-0.977192, 165, 41, 196, 104
-0.977204, 341, 17, 372, 80
-0.977275, 281, 161, 312, 288
-0.977292, 225, 1, 288, 333
-0.977314, 261, 65, 292, 192
-0.97732, 273, 105, 304, 168
-0.977337, 209, 153, 336, 216
-0.977355, 257, 17, 288, 144
-0.977417, 65, 129, 128, 192
-0.977422, 229, 121, 260, 184
-0.977428, 49, 57, 80, 120
-0.977487, 41, 33, 104, 288
-0.977502, 301, 145, 332, 208
-0.977595, 113, 161, 240, 224
-0.977696, 325, 113, 356, 240
-0.977704, 189, 33, 220, 96
-0.977711, 81, 209, 208, 272
-0.977736, 81, 49, 208, 112
-0.977951, 313, 33, 344, 160
-0.97806, 265, 57, 328, 120
-0.978074, 177, 217, 208, 280
-0.978085, 1, 1, 64, 128
-0.978096, 209, 145, 240, 272
-0.978101, 441, 89, 472, 152
-0.978164, 129, 97, 192, 160
-0.978187, 9, 257, 40, 320
-0.978187, 145, 273, 272, 333
-0.978274, 285, 113, 316, 240
-0.978355, 273, 97, 304, 224
-0.978361, 297, 169, 360, 232
-0.978473, 433, 1, 464, 128
-0.978519, 241, 81, 272, 144
-0.978559, 269, 129, 300, 192
-0.978699, 377, 113, 408, 176
-0.978723, 369, 89, 496, 152
-0.978728, 137, 1, 200, 333
-0.97874, 249, 65, 280, 192
-0.978751, 185, 81, 248, 144
-0.978761, 201, 153, 264, 216
-0.978763, 261, 81, 292, 144
-0.978808, 217, 209, 248, 272
-0.978855, 433, 33, 496, 96
-0.978894, 153, 233, 184, 296
-0.978963, 209, 33, 240, 96
-0.979005, 273, 1, 336, 333
-0.97911, 185, 145, 216, 208
-0.979166, 373, 113, 404, 240
-0.979169, 1, 65, 32, 128
-0.979245, 381, 9, 412, 72
-0.979247, 249, 1, 312, 333
-0.97927, 237, 65, 268, 192
-0.979306, 165, 161, 196, 224
-0.979314, 409, 89, 472, 152
-0.97937, 313, 177, 344, 304
-0.979372, 313, 1, 376, 333
-0.979402, 285, 113, 316, 176
-0.979427, 337, 273, 400, 333
-0.979457, 1, 193, 64, 256
-0.979484, 121, 161, 152, 224
-0.979494, 57, 49, 88, 176
-0.979528, 285, 201, 316, 264
-0.97953, 297, 65, 328, 192
-0.979566, 105, 1, 168, 333
-0.979614, 385, 105, 448, 168
-0.979681, 305, 177, 336, 240
-0.979718, 33, 169, 160, 232
-0.97977, 161, 177, 288, 240
-0.979777, 201, 257, 232, 320
-0.97979, 289, 273, 416, 333
-0.979795, 33, 49, 64, 176
-0.979803, 33, 161, 96, 224
-0.979826, 177, 241, 240, 304
-0.980045, 325, 41, 356, 104
-0.980061, 429, 1, 460, 64
-0.980068, 17, 89, 48, 152
-0.980074, 241, 217, 272, 280
-0.980154, 433, 129, 496, 256
-0.980182, 201, 1, 264, 333
-0.980238, 225, 65, 256, 192
-0.980262, 1, 217, 64, 280
-0.980312, 121, 17, 152, 144
-0.980351, 313, 57, 344, 120
-0.980355, 369, 113, 432, 240
-0.980357, 109, 33, 140, 160
-0.980467, 9, 113, 40, 240
-0.980489, 89, 49, 120, 112
-0.980492, 225, 57, 352, 120
-0.980507, 25, 233, 88, 296
-0.98054, 441, 81, 472, 208
-0.980601, 57, 105, 120, 168
-0.980616, 65, 97, 192, 160
-0.98063, 145, 265, 176, 328
-0.9807, 161, 153, 288, 216
-0.980748, 145, 33, 176, 160
-0.98077, 1, 233, 32, 296
-0.980786, 177, 169, 208, 232
-0.980798, 197, 33, 228, 160
-0.980815, 161, 81, 288, 144
-0.98084, 177, 1, 240, 333
-0.980903, 249, 273, 280, 333
-0.980916, 69, 49, 100, 176
-0.980971, 161, 81, 224, 144
-0.981021, 129, 41, 160, 104
-0.981052, 25, 209, 88, 333
-0.981126, 213, 121, 244, 184
-0.981128, 81, 1, 144, 333
-0.98118, 181, 33, 212, 160
-0.981242, 325, 65, 356, 192
-0.981294, 221, 233, 252, 296
-0.981346, 165, 233, 196, 296
-0.981356, 353, 209, 480, 333
-0.981489, 405, 9, 436, 72
-0.981601, 257, 129, 288, 256
-0.981659, 97, 49, 128, 176
-0.981672, 1, 73, 128, 136
-0.981677, 409, 41, 472, 104
-0.981713, 137, 17, 200, 80
-0.981731, 65, 73, 192, 136
-0.981741, 105, 201, 168, 264
-0.981756, 253, 225, 284, 288
-0.981852, 329, 137, 392, 200
-0.981899, 21, 33, 52, 160
-0.981911, 33, 1, 96, 128
-0.981916, 89, 1, 152, 128
-0.981968, 305, 161, 432, 288
-0.981972, 453, 81, 484, 144
-0.981996, 329, 81, 360, 144
-0.982007, 105, 25, 168, 88
-0.982079, 193, 241, 320, 304
-0.982128, 337, 1, 400, 333
-0.982171, 337, 217, 400, 280
-0.982179, 141, 225, 172, 288
-0.982308, 121, 129, 152, 256
-0.982409, 253, 25, 284, 88
-0.982479, 229, 81, 260, 144
-0.982523, 373, 41, 404, 104
-0.982575, 469, 97, 500, 160
-0.982579, 233, 25, 264, 88
-0.982604, 69, 57, 100, 120
-0.982617, 9, 129, 40, 192
-0.982629, 453, 113, 484, 176
-0.982674, 321, 161, 384, 288
-0.98277, 273, 153, 304, 216
-0.98277, 209, 9, 272, 72
-0.982784, 389, 57, 420, 120
-0.982868, 45, 49, 76, 176
-0.982873, 197, 185, 228, 248
-0.982958, 277, 33, 308, 160
-0.98301, 97, 265, 224, 328
-0.983048, 189, 265, 220, 328
-0.983061, 137, 209, 168, 333
-0.983064, 337, 129, 368, 256
-0.983077, 33, 185, 96, 248
-0.983086, 129, 65, 160, 192
-0.983088, 169, 17, 200, 144
-0.983108, 445, 1, 476, 128
-0.98312, 353, 17, 384, 80
-0.983158, 249, 129, 280, 192
-0.983199, 133, 17, 164, 144
-0.983262, 409, 113, 472, 176
-0.983277, 177, 33, 208, 96
-0.983284, 413, 49, 444, 112
-0.983416, 469, 81, 500, 208
-0.983459, 269, 145, 300, 272
-0.983463, 33, 193, 160, 256
-0.983474, 201, 209, 232, 272
-0.983612, 9, 105, 72, 168
-0.983649, 177, 49, 304, 112
-0.983718, 305, 137, 432, 200
-0.983796, 441, 1, 472, 64
-0.983802, 229, 113, 260, 240
-0.983808, 385, 1, 448, 333
-0.983832, 369, 137, 496, 200
-0.983873, 13, 65, 44, 128
-0.983885, 401, 49, 432, 112
-0.983928, 241, 113, 272, 240
-0.983936, 301, 17, 332, 144
-0.983936, 273, 25, 304, 88
-0.983944, 421, 49, 452, 176
-0.984015, 349, 73, 380, 136
-0.984046, 117, 113, 148, 176
-0.984057, 333, 129, 364, 192
-0.98415, 101, 49, 132, 112
-0.984166, 417, 1, 448, 64
-0.984183, 197, 97, 228, 160
-0.984227, 429, 65, 460, 128
-0.984359, 329, 225, 360, 288
-0.984362, 201, 81, 232, 208
-0.984373, 109, 81, 140, 208
-0.984458, 141, 137, 172, 200
-0.9845, 1, 105, 32, 168
-0.98453, 257, 1, 320, 64
-0.984552, 237, 161, 268, 288
-0.984571, 225, 177, 288, 240
-0.984576, 297, 233, 328, 296
-0.984608, 213, 145, 244, 208
-0.984651, 273, 193, 304, 256
-0.984693, 61, 89, 92, 152
-0.984723, 273, 81, 304, 144
-0.984759, 217, 185, 248, 248
-0.984796, 133, 129, 164, 256
-0.984904, 33, 209, 96, 272
-0.985133, 257, 153, 384, 216
-0.985195, 37, 193, 68, 320
-0.985225, 157, 17, 188, 144
-0.985249, 1, 209, 32, 333
-0.98542, 113, 73, 240, 136
-0.985434, 97, 233, 224, 296
-0.985512, 161, 9, 224, 72
-0.985519, 33, 265, 96, 328
-0.985724, 433, 153, 496, 216
-0.985802, 129, 249, 384, 312
-0.985819, 41, 129, 104, 192
-0.985915, 41, 1, 104, 333
-0.986008, 57, 73, 120, 136
-0.986228, 145, 17, 272, 80
-0.986354, 89, 169, 152, 232
-0.986616, 41, 33, 104, 96
-0.986625, 289, 249, 416, 312
-0.986647, 1, 233, 128, 296
-0.98665, 165, 97, 196, 224
-0.986748, 325, 161, 356, 288
-0.986787, 353, 129, 384, 256
-0.986915, 433, 1, 496, 333
-0.986975, 73, 25, 136, 88
-0.987123, 49, 249, 176, 312
-0.987149, 409, 137, 472, 200
-0.987156, 361, 1, 424, 333
-0.987338, 65, 121, 192, 184
-0.98734, 185, 9, 248, 72
-0.987493, 465, 1, 496, 128
-0.987653, 13, 193, 44, 320
-0.987794, 313, 121, 376, 152
-0.987903, 193, 105, 448, 168
-0.988075, 1, 169, 256, 232
-0.988086, 249, 109, 312, 140
-0.988247, 289, 117, 352, 148
-0.988301, 353, 257, 480, 320
-0.988359, 97, 177, 352, 240
-0.988361, 137, 193, 200, 224
-0.988383, 289, 17, 320, 144
-0.988384, 453, 65, 484, 192
-0.988386, 209, 125, 272, 156
-0.988417, 405, 49, 436, 176
-0.988423, 137, 173, 200, 204
-0.988445, 201, 209, 264, 240
-0.98848, 65, 17, 192, 80
-0.98848, 345, 113, 408, 144
-0.988484, 125, 177, 156, 304
-0.9885, 129, 33, 384, 96
-0.988505, 273, 129, 336, 160
-0.988532, 1, 105, 256, 168
-0.988552, 9, 265, 72, 296
-0.988572, 129, 225, 384, 288
-0.988586, 49, 1, 80, 128
-0.988616, 321, 217, 448, 280
-0.98876, 257, 65, 500, 128
-0.988761, 249, 97, 312, 128
-0.988765, 385, 61, 448, 92
-0.988777, 433, 109, 496, 140
-0.9888, 313, 109, 376, 140
-0.988808, 145, 209, 208, 240
-0.988835, 273, 101, 336, 132
-0.988869, 385, 97, 416, 224
-0.988929, 113, 141, 176, 172
-0.988947, 145, 97, 176, 224
-0.988983, 249, 125, 312, 156
-0.988984, 409, 1, 472, 333
-0.989024, 281, 25, 344, 56
-0.989043, 225, 113, 288, 144
-0.989083, 177, 217, 240, 248
-0.989184, 313, 257, 376, 288
-0.989199, 209, 89, 272, 120
-0.989216, 313, 277, 376, 308
-0.989228, 345, 125, 408, 156
-0.989229, 281, 253, 344, 284
-0.989278, 225, 221, 288, 252
-0.989323, 225, 17, 480, 80
-0.989333, 281, 173, 344, 204
-0.98934, 109, 145, 140, 272
-0.989346, 145, 261, 208, 292
-0.989354, 1, 257, 128, 320
-0.98936, 1, 145, 256, 208
-0.989398, 1, 41, 500, 104
-0.989419, 69, 97, 100, 224
-0.98943, 225, 33, 288, 64
-0.989471, 249, 137, 312, 168
-0.989471, 1, 225, 256, 288
-0.989492, 97, 129, 352, 192
-0.989586, 273, 161, 336, 192
-0.989599, 17, 89, 80, 120
-0.989605, 433, 85, 496, 116
-0.989613, 177, 161, 240, 192
-0.989615, 129, 157, 192, 188
-0.98962, 249, 29, 312, 60
-0.989645, 313, 21, 376, 52
-0.989659, 225, 101, 288, 132
-0.989664, 265, 241, 328, 272
-0.989682, 129, 153, 384, 216
-0.989709, 129, 45, 192, 76
-0.989723, 161, 81, 416, 144
-0.989729, 281, 277, 344, 308
-0.989737, 321, 133, 384, 164
-0.989749, 161, 189, 224, 220
-0.989776, 393, 9, 456, 40
-0.989781, 201, 101, 264, 132
-0.989791, 241, 257, 304, 288
-0.989807, 425, 5, 488, 36
-0.989813, 265, 81, 328, 112
-0.98982, 129, 225, 192, 256
-0.989839, 105, 49, 168, 80
-0.989842, 201, 277, 264, 308
-0.98987, 201, 113, 264, 144
-0.989878, 153, 41, 216, 72
-0.989884, 337, 73, 400, 104
-0.989914, 353, 209, 384, 333
-0.989936, 297, 213, 360, 244
-0.989951, 433, 129, 496, 160
-0.989958, 33, 1, 64, 128
-0.989959, 193, 37, 256, 68
-0.989977, 249, 221, 312, 252
-0.989979, 361, 13, 424, 44
-0.989983, 189, 81, 220, 208
-0.989987, 345, 161, 408, 288
-0.990006, 305, 61, 368, 92
-0.990018, 145, 273, 208, 304
-0.990034, 433, 73, 496, 104
-0.990052, 1, 57, 256, 120
-0.990105, 1, 201, 256, 264
-0.990118, 185, 141, 248, 172
-0.990119, 273, 185, 336, 216
-0.99019, 469, 129, 500, 256
-0.990192, 297, 137, 360, 168
-0.990223, 217, 257, 280, 288
-0.990254, 17, 25, 144, 88
-0.990255, 185, 125, 248, 156
-0.990262, 129, 201, 384, 264
-0.990266, 233, 269, 296, 300
-0.990286, 433, 97, 496, 128
-0.990291, 345, 101, 408, 132
-0.99033, 81, 49, 144, 80
-0.990405, 169, 173, 232, 204
-0.99044, 153, 145, 216, 176
-0.99048, 241, 81, 304, 112
-0.990495, 289, 177, 416, 240
-0.990505, 313, 93, 376, 124
-0.99051, 273, 69, 336, 100
-0.990532, 169, 201, 232, 232
-0.990534, 241, 233, 304, 264
-0.990545, 209, 137, 272, 168
-0.990547, 337, 17, 400, 48
-0.990548, 281, 265, 344, 296
-0.990562, 257, 277, 320, 308
-0.990593, 9, 253, 72, 284
-0.990603, 17, 277, 80, 308
-0.990625, 185, 289, 248, 320
-0.990633, 89, 129, 120, 256
-0.990638, 41, 97, 72, 224
-0.990651, 289, 81, 352, 112
-0.990671, 177, 229, 240, 260
-0.990701, 153, 161, 216, 192
-0.990703, 321, 41, 384, 72
-0.990742, 169, 249, 232, 280
-0.990748, 1, 1, 64, 333
-0.990772, 145, 289, 208, 320
-0.990778, 193, 257, 256, 288
-0.990785, 97, 129, 160, 160
-0.990812, 249, 153, 312, 184
-0.990833, 1, 161, 64, 192
-0.990858, 297, 225, 360, 256
-0.990867, 433, 61, 496, 92
-0.990884, 225, 285, 288, 316
-0.990886, 177, 277, 240, 308
-0.990887, 225, 245, 288, 276
-0.990918, 137, 249, 200, 280
-0.990925, 41, 57, 104, 88
-0.99095, 385, 125, 448, 156
-0.990977, 337, 213, 400, 244
-0.990993, 337, 85, 400, 116
-0.991009, 289, 149, 352, 180
-0.991044, 1, 149, 64, 180
-0.991053, 73, 113, 136, 144
-0.991058, 225, 209, 288, 240
-0.991115, 137, 237, 200, 268
-0.991115, 345, 57, 408, 88
-0.991128, 65, 137, 128, 168
-0.991132, 153, 225, 216, 256
-0.991206, 113, 181, 176, 212
-0.991232, 1, 177, 64, 208
-0.991237, 209, 1, 336, 64
-0.991246, 177, 109, 240, 140
-0.991251, 353, 137, 416, 168
-0.991258, 409, 73, 472, 104
-0.991349, 361, 69, 424, 100
-0.991358, 1, 65, 64, 96
-0.991395, 121, 209, 184, 240
-0.991413, 201, 157, 264, 188
-0.991441, 105, 153, 168, 184
-0.99145, 113, 197, 176, 228
-0.991466, 1, 193, 64, 224
-0.991471, 37, 145, 68, 272
-0.991505, 9, 105, 72, 136
-0.991525, 201, 229, 264, 260
-0.991559, 321, 293, 384, 324
-0.99158, 225, 149, 288, 180
-0.991616, 161, 273, 416, 333
-0.991644, 1, 1, 32, 128
-0.991669, 177, 97, 208, 224
-0.991835, 257, 41, 500, 104
-0.991872, 257, 265, 500, 328
-0.991968, 257, 101, 288, 132
-0.992018, 169, 189, 200, 220
-0.992048, 73, 1, 104, 128
-0.992066, 41, 265, 72, 296
-0.992096, 1, 241, 500, 304
-0.992111, 341, 213, 372, 244
-0.992132, 313, 125, 344, 156
-0.992152, 153, 205, 184, 236
-0.992154, 285, 129, 316, 160
-0.992156, 249, 113, 280, 144
-0.992196, 269, 109, 300, 140
-0.9922, 1, 249, 256, 312
-0.992207, 33, 81, 288, 144
-0.992228, 337, 193, 464, 256
-0.992235, 301, 117, 332, 148
-0.992238, 469, 285, 500, 316
-0.992275, 373, 117, 404, 148
-0.992275, 49, 273, 176, 333
-0.992296, 173, 213, 204, 244
-0.992311, 193, 129, 448, 192
-0.992349, 341, 121, 372, 152
-0.992355, 225, 209, 256, 240
-0.992361, 357, 125, 388, 156
-0.992363, 173, 173, 204, 204
-0.992366, 293, 177, 324, 208
-0.992368, 297, 129, 328, 160
-0.992368, 257, 29, 288, 60
-0.992382, 313, 101, 344, 132
-0.992385, 265, 125, 296, 156
-0.992391, 281, 109, 312, 140
-0.992394, 341, 277, 372, 308
-0.992399, 321, 21, 352, 52
-0.9924, 145, 185, 176, 216
-0.992405, 329, 121, 360, 152
-0.992406, 153, 265, 184, 296
-0.992411, 313, 113, 344, 144
-0.992434, 129, 137, 160, 168
-0.992448, 149, 45, 180, 76
-0.99245, 145, 173, 176, 204
-0.992461, 221, 257, 252, 288
-0.992467, 445, 77, 476, 108
-0.99248, 157, 217, 188, 248
-0.992487, 201, 37, 232, 68
-0.992491, 253, 221, 284, 252
-0.992493, 341, 265, 372, 296
-0.992494, 209, 213, 240, 244
-0.992503, 217, 277, 248, 308
-0.992507, 237, 273, 268, 304
-0.99251, 273, 225, 304, 256
-0.99251, 113, 169, 240, 200
-0.992514, 269, 141, 300, 172
-0.992515, 21, 157, 52, 188
-0.99252, 213, 121, 244, 152
-0.992529, 345, 17, 376, 48
-0.992529, 233, 33, 264, 64
-0.992535, 469, 109, 500, 140
-0.992538, 341, 109, 372, 140
-0.992538, 117, 49, 148, 80
-0.992542, 285, 241, 316, 272
-0.992547, 29, 269, 60, 300
-0.992557, 277, 93, 308, 124
-0.992564, 173, 41, 204, 72
-0.99257, 137, 45, 168, 76
-0.992572, 325, 257, 356, 288
-0.992573, 285, 157, 316, 188
-0.992573, 281, 277, 312, 308
-0.992574, 297, 105, 328, 136
-0.992576, 309, 21, 340, 52
-0.992577, 253, 125, 284, 156
-0.992577, 237, 113, 268, 144
-0.992577, 1, 161, 32, 288
-0.992585, 377, 129, 408, 160
-0.992592, 201, 141, 232, 172
-0.992593, 329, 109, 360, 140
-0.992594, 305, 181, 336, 212
-0.992596, 113, 189, 240, 220
-0.992599, 313, 253, 344, 284
-0.992604, 157, 193, 188, 224
-0.992608, 277, 25, 308, 56
-0.992613, 1, 97, 500, 160
-0.992615, 317, 277, 348, 308
-0.992627, 257, 125, 384, 156
-0.992633, 381, 13, 412, 44
-0.992635, 301, 253, 332, 284
-0.992635, 329, 281, 360, 312
-0.992646, 141, 201, 172, 232
-0.992651, 273, 161, 304, 192
-0.992656, 137, 157, 168, 188
-0.992657, 277, 257, 308, 288
-0.992658, 357, 109, 388, 140
-0.992661, 169, 233, 200, 264
-0.992662, 333, 133, 364, 164
-0.992668, 413, 9, 444, 40
-0.992671, 213, 37, 244, 68
-0.992674, 185, 209, 216, 240
-0.992681, 205, 273, 236, 304
-0.99269, 445, 89, 476, 120
-0.992708, 265, 241, 296, 272
-0.992714, 189, 165, 220, 196
-0.992715, 157, 169, 188, 200
-0.992719, 285, 217, 316, 248
-0.992723, 297, 165, 328, 196
-0.992724, 257, 277, 384, 308
-0.992726, 469, 121, 500, 152
-0.992734, 9, 137, 40, 168
-0.992739, 141, 213, 172, 244
-0.992742, 161, 293, 192, 324
-0.992743, 441, 65, 472, 96
-0.992748, 449, 5, 480, 36
-0.992751, 189, 37, 220, 68
-0.992751, 405, 57, 436, 88
-0.992756, 369, 13, 400, 44
-0.992757, 369, 65, 496, 96
-0.992757, 309, 137, 340, 168
-0.992758, 21, 253, 52, 284
-0.99276, 257, 89, 288, 120
-0.992768, 293, 277, 324, 308
-0.992771, 185, 289, 216, 320
-0.992773, 237, 125, 268, 156
-0.992776, 9, 261, 40, 292
-0.99278, 241, 253, 272, 284
-0.992781, 237, 101, 268, 132
-0.992782, 265, 261, 296, 292
-0.992787, 289, 81, 320, 112
-0.992789, 289, 25, 320, 56
-0.992792, 225, 29, 352, 60
-0.992795, 233, 221, 264, 252
-0.992797, 165, 257, 196, 288
-0.992798, 217, 89, 248, 120
-0.9928, 41, 277, 72, 308
-0.992803, 89, 53, 120, 84
-0.992816, 333, 21, 364, 52
-0.99282, 217, 109, 248, 140
-0.992823, 97, 105, 352, 168
-0.992827, 357, 17, 388, 48
-0.992827, 105, 49, 136, 80
-0.99283, 289, 141, 320, 172
-0.992832, 145, 225, 176, 256
-0.992835, 217, 245, 248, 276
-0.992837, 161, 45, 192, 76
-0.992838, 237, 209, 268, 240
-0.992842, 225, 121, 256, 152
-0.992843, 273, 81, 304, 112
-0.992851, 409, 45, 440, 76
-0.992855, 297, 69, 328, 100
-0.992855, 401, 9, 432, 40
-0.992883, 305, 125, 432, 156
-0.992964, 241, 113, 368, 144
-0.99297, 173, 209, 188, 272
-0.992982, 113, 141, 240, 172
-0.993139, 1, 273, 256, 333
-0.99314, 171, 249, 186, 312
-0.993159, 349, 209, 364, 272
-0.993173, 161, 217, 288, 248
-0.993173, 179, 177, 194, 240
-0.993229, 129, 265, 256, 296
-0.993265, 113, 201, 240, 232
-0.993274, 409, 113, 472, 240
-0.99329, 193, 97, 320, 128
-0.993305, 129, 57, 384, 120
-0.993322, 257, 253, 384, 284
-0.993332, 167, 185, 182, 248
-0.993365, 1, 73, 500, 136
-0.993372, 323, 105, 338, 168
-0.993376, 289, 113, 416, 144
-0.993387, 157, 265, 172, 328
-0.993393, 273, 225, 400, 256
-0.993407, 237, 257, 252, 320
-0.99342, 97, 1, 128, 128
-0.993452, 257, 137, 384, 168
-0.993506, 1, 133, 128, 164
-0.993545, 321, 257, 336, 320
-0.993557, 209, 129, 336, 160
-0.993608, 369, 9, 496, 40
-0.993617, 33, 153, 48, 216
-0.99363, 1, 121, 500, 184
-0.993647, 17, 145, 144, 176
-0.993744, 257, 101, 384, 132
-0.993769, 231, 257, 246, 320
-0.993777, 49, 265, 64, 328
-0.993785, 161, 241, 288, 272
-0.993794, 289, 65, 416, 96
-0.993839, 165, 265, 180, 328
-0.993858, 383, 105, 398, 168
-0.993898, 257, 213, 384, 244
-0.993904, 193, 117, 320, 148
-0.993907, 1, 93, 128, 124
-0.993967, 219, 257, 234, 320
-0.993989, 193, 177, 448, 240
-0.994025, 305, 17, 432, 48
-0.994038, 113, 221, 240, 252
-0.99405, 1, 113, 128, 144
-0.994067, 225, 217, 480, 280
-0.994089, 335, 17, 350, 80
-0.994115, 225, 257, 240, 320
-0.994124, 145, 277, 272, 308
-0.994156, 209, 233, 336, 264
-0.994158, 353, 257, 368, 320
-0.994163, 177, 249, 192, 312
-0.994164, 315, 257, 330, 320
-0.994207, 209, 221, 336, 252
-0.994207, 317, 105, 332, 168
-0.994209, 157, 41, 172, 104
-0.994217, 327, 17, 342, 80
-0.99425, 351, 113, 366, 176
-0.994278, 145, 37, 272, 68
-0.994292, 469, 209, 500, 333
-0.994296, 327, 257, 342, 320
-0.994301, 347, 257, 362, 320
-0.994309, 33, 33, 288, 96
-0.994331, 1, 17, 500, 80
-0.994377, 173, 185, 188, 248
-0.994388, 331, 113, 346, 176
-0.994391, 307, 257, 322, 320
-0.994392, 369, 113, 496, 144
-0.994416, 369, 77, 496, 108
-0.994417, 357, 105, 372, 168
-0.994424, 165, 225, 180, 288
-0.99443, 369, 9, 384, 72
-0.994437, 275, 105, 290, 168
-0.994456, 49, 53, 176, 84
-0.994481, 47, 57, 62, 120
-0.994503, 1, 217, 500, 280
-0.994511, 293, 153, 308, 216
-0.994527, 1, 273, 500, 333
-0.99453, 149, 41, 164, 104
-0.99453, 185, 185, 200, 248
-0.994531, 379, 9, 394, 72
-0.994534, 97, 45, 224, 76
-0.994569, 165, 41, 180, 104
-0.994579, 307, 81, 322, 144
-0.994587, 23, 137, 38, 200
-0.994613, 161, 193, 176, 256
-0.994614, 399, 9, 414, 72
-0.994622, 299, 233, 314, 296
-0.994625, 257, 265, 384, 296
-0.994635, 213, 257, 228, 320
-0.994662, 261, 105, 276, 168
-0.994665, 193, 273, 320, 304
-0.994679, 19, 97, 34, 160
-0.994689, 301, 257, 316, 320
-0.994697, 23, 249, 38, 312
-0.994703, 137, 129, 152, 192
-0.994707, 229, 201, 244, 264
-0.994712, 281, 105, 296, 168
-0.994712, 333, 257, 348, 320
-0.99472, 239, 201, 254, 264
-0.994738, 281, 257, 296, 320
-0.994743, 177, 145, 304, 176
-0.994747, 217, 209, 232, 272
-0.994749, 341, 17, 356, 80
-0.994757, 309, 105, 324, 168
-0.994758, 293, 257, 308, 320
-0.994761, 307, 177, 322, 240
-0.994766, 291, 73, 306, 136
-0.994769, 209, 245, 336, 276
-0.994783, 201, 33, 216, 96
-0.994789, 209, 81, 336, 112
-0.9948, 131, 137, 146, 200
-0.99481, 159, 225, 174, 288
-0.994836, 369, 125, 496, 156
-0.994849, 287, 265, 302, 328
-0.994855, 33, 241, 48, 304
-0.994858, 193, 177, 320, 208
-0.99487, 33, 161, 160, 192
-0.994879, 313, 169, 328, 232
-0.99488, 385, 9, 400, 72
-0.994884, 179, 217, 194, 280
-0.994892, 175, 41, 190, 104
-0.994897, 265, 217, 280, 280
-0.994899, 113, 153, 240, 184
-0.994918, 219, 113, 234, 176
-0.994922, 171, 161, 186, 224
-0.99493, 257, 265, 272, 328
-0.994941, 293, 177, 308, 240
-0.994949, 145, 253, 272, 284
-0.994951, 405, 9, 420, 72
-0.994954, 53, 57, 68, 120
-0.994955, 317, 17, 332, 80
-0.994986, 369, 53, 496, 84
-0.994995, 245, 265, 260, 328
-0.995003, 195, 33, 210, 96
-0.995021, 191, 145, 206, 208
-0.995031, 139, 41, 154, 104
-0.995042, 187, 209, 202, 272
-0.995046, 349, 17, 364, 80
-0.99505, 345, 113, 360, 176
-0.995072, 211, 97, 226, 160
-0.995074, 61, 1, 92, 128
-0.995081, 305, 145, 320, 208
-0.995081, 193, 285, 320, 316
-0.995082, 151, 225, 166, 288
-0.995083, 85, 1, 116, 128
-0.995088, 295, 209, 310, 272
-0.99509, 315, 137, 330, 200
-0.995111, 411, 9, 426, 72
-0.995111, 271, 217, 286, 280
-0.995117, 209, 261, 336, 292
-0.99512, 317, 73, 332, 136
-0.995126, 1, 241, 16, 304
-0.995128, 339, 257, 354, 320
-0.995131, 393, 9, 408, 72
-0.995148, 267, 81, 282, 144
-0.995179, 219, 89, 234, 152
-0.995182, 33, 173, 160, 204
-0.995183, 299, 73, 314, 136
-0.995186, 393, 65, 408, 128
-0.995219, 221, 233, 236, 296
-0.995221, 321, 129, 336, 192
-0.995224, 193, 161, 320, 192
-0.995226, 451, 65, 466, 128
-0.995249, 369, 101, 496, 132
-0.995256, 301, 169, 316, 232
-0.995264, 151, 265, 166, 328
-0.995277, 175, 273, 190, 333
-0.995278, 481, 105, 496, 168
-0.995294, 285, 225, 300, 288
-0.9953, 389, 113, 404, 176
-0.995304, 305, 49, 432, 80
-0.995307, 259, 217, 274, 280
-0.995308, 251, 25, 266, 88
-0.995315, 145, 125, 272, 156
-0.995321, 285, 153, 300, 216
-0.995327, 263, 257, 278, 320
-0.995335, 141, 1, 172, 256
-0.995336, 343, 217, 358, 280
-0.995336, 251, 265, 266, 328
-0.995343, 221, 33, 236, 96
-0.995352, 275, 257, 290, 320
-0.995353, 305, 101, 432, 132
-0.995354, 147, 177, 162, 240
-0.995359, 275, 137, 290, 200
-0.995362, 427, 1, 442, 64
-0.99537, 41, 57, 56, 120
-0.995372, 183, 265, 198, 328
-0.995378, 213, 33, 228, 96
-0.995392, 353, 233, 368, 296
-0.995397, 387, 81, 402, 144
-0.995403, 49, 273, 176, 304
-0.99541, 145, 289, 272, 320
-0.995414, 255, 105, 270, 168
-0.995415, 269, 121, 284, 184
-0.995422, 305, 1, 336, 256
-0.995423, 225, 241, 480, 304
-0.995426, 445, 105, 460, 168
-0.995427, 191, 177, 206, 240
-0.995441, 33, 205, 160, 236
-0.995463, 277, 217, 292, 280
-0.995476, 369, 1, 400, 256
-0.995487, 257, 153, 500, 216
-0.9956, 129, 9, 384, 72
-0.995655, 289, 77, 416, 108
-0.995656, 161, 205, 288, 236
-0.99566, 33, 185, 160, 216
-0.995694, 337, 137, 464, 168
-0.995729, 1, 57, 128, 88
-0.995778, 325, 1, 356, 256
-0.995784, 457, 113, 488, 240
-0.995787, 289, 33, 320, 288
-0.995842, 225, 189, 352, 220
-0.995865, 65, 121, 192, 152
-0.995872, 161, 229, 288, 260
-0.995956, 353, 277, 480, 308
-0.995974, 273, 89, 400, 120
-0.995975, 65, 141, 192, 172
-0.996014, 145, 85, 272, 116
-0.996021, 213, 1, 244, 256
-0.996042, 49, 97, 176, 128
-0.996091, 257, 177, 384, 208
-0.996116, 269, 33, 300, 288
-0.996118, 321, 37, 448, 68
-0.996162, 129, 33, 160, 288
-0.996205, 225, 45, 352, 76
-0.99622, 49, 209, 112, 333
-0.996228, 249, 33, 280, 288
-0.996245, 257, 17, 384, 48
-0.99625, 1, 65, 32, 320
-0.99627, 357, 1, 388, 256
-0.996274, 429, 97, 460, 224
-0.996288, 465, 1, 496, 256
-0.996329, 1, 145, 500, 208
-0.996362, 49, 109, 176, 140
-0.996393, 97, 289, 224, 320
-0.996414, 197, 1, 228, 256
-0.996442, 241, 201, 368, 232
-0.996443, 369, 41, 496, 72
-0.996451, 273, 293, 400, 324
-0.996457, 17, 65, 48, 320
-0.996474, 113, 233, 240, 264
-0.996475, 351, 209, 366, 240
-0.996481, 425, 209, 488, 333
-0.996501, 385, 1, 416, 256
-0.99651, 165, 1, 196, 256
-0.996512, 89, 33, 120, 288
-0.996522, 341, 1, 372, 256
-0.996531, 237, 1, 268, 256
-0.996561, 33, 77, 160, 108
-0.996601, 305, 281, 432, 312
-0.996601, 273, 29, 400, 60
-0.996609, 145, 101, 272, 132
-0.996612, 353, 89, 480, 120
-0.996614, 1, 253, 128, 284
-0.996619, 45, 261, 60, 292
-0.996628, 421, 1, 452, 256
-0.996632, 257, 237, 384, 268
-0.996645, 305, 257, 432, 288
-0.996651, 261, 105, 276, 136
-0.996658, 225, 1, 256, 256
-0.996673, 129, 113, 256, 144
-0.996674, 257, 165, 384, 196
-0.99668, 225, 149, 352, 180
-0.996747, 153, 1, 184, 256
-0.996783, 81, 245, 208, 276
-0.996834, 345, 213, 360, 244
-0.996878, 273, 149, 400, 180
-0.996909, 381, 125, 396, 156
-0.996915, 271, 105, 286, 136
-0.996915, 265, 129, 280, 160
-0.996942, 209, 69, 336, 100
-0.996969, 369, 21, 496, 52
-0.996971, 305, 269, 432, 300
-0.996978, 321, 217, 448, 248
-0.996979, 387, 117, 402, 148
-0.996984, 271, 129, 286, 160
-0.996994, 49, 261, 176, 292
-0.996997, 109, 33, 140, 288
-0.99701, 177, 25, 304, 56
-0.997019, 51, 269, 66, 300
-0.997019, 483, 285, 498, 316
-0.997029, 35, 157, 50, 188
-0.997049, 185, 1, 216, 256
-0.997069, 335, 121, 350, 152
-0.997069, 171, 249, 186, 280
-0.997078, 97, 277, 224, 308
-0.997082, 165, 205, 180, 236
-0.997089, 179, 169, 194, 200
-0.997091, 241, 57, 368, 88
-0.997112, 323, 253, 338, 284
-0.997126, 37, 65, 68, 320
-0.997156, 219, 213, 234, 244
-0.997165, 349, 109, 364, 140
-0.997167, 261, 117, 276, 148
-0.997179, 113, 57, 240, 88
-0.997201, 305, 101, 320, 132
-0.997203, 65, 225, 192, 256
-0.997204, 473, 285, 488, 316
-0.997227, 175, 213, 190, 244
-0.997229, 313, 117, 328, 148
-0.997231, 359, 109, 374, 140
-0.997232, 353, 121, 368, 152
-0.997233, 167, 189, 182, 220
-0.997238, 227, 205, 242, 236
-0.997238, 37, 269, 52, 300
-0.99728, 315, 253, 330, 284
-0.997288, 251, 113, 266, 144
-0.997297, 319, 125, 334, 156
-0.997297, 237, 257, 252, 288
-0.997298, 449, 33, 480, 288
-0.997299, 265, 221, 280, 252
-0.997312, 237, 209, 252, 240
-0.997317, 321, 21, 336, 52
-0.997327, 173, 229, 188, 260
-0.997334, 215, 37, 230, 68
-0.997334, 281, 129, 296, 160
-0.997339, 331, 21, 346, 52
-0.997339, 271, 117, 286, 148
-0.997351, 149, 209, 164, 240
-0.997351, 169, 177, 184, 208
-0.997357, 433, 1, 464, 256
-0.997358, 127, 49, 142, 80
-0.997363, 159, 45, 174, 76
-0.997392, 355, 277, 370, 308
-0.9974, 447, 73, 462, 104
-0.997401, 265, 29, 280, 60
-0.997403, 355, 265, 370, 296
-0.997407, 293, 133, 308, 164
-0.997421, 343, 121, 358, 152
-0.997424, 133, 49, 148, 80
-0.997425, 317, 181, 332, 212
-0.997435, 209, 37, 224, 68
-0.997438, 325, 117, 340, 148
-0.997446, 213, 121, 228, 152
-0.99745, 149, 45, 164, 76
-0.997456, 299, 157, 314, 188
-0.997473, 291, 153, 306, 184
-0.997476, 161, 193, 176, 224
-0.997477, 271, 29, 286, 60
-0.997483, 305, 129, 320, 160
-0.997483, 291, 277, 306, 308
-0.997486, 25, 141, 40, 172
-0.997488, 311, 129, 326, 160
-0.997489, 445, 129, 476, 256
-0.997491, 33, 9, 288, 72
-0.997497, 207, 133, 222, 164
-0.9975, 155, 269, 170, 300
-0.997502, 225, 277, 240, 308
-0.997511, 287, 129, 302, 160
-0.997515, 235, 273, 250, 304
-0.997517, 203, 37, 218, 68
-0.99752, 293, 173, 308, 204
-0.997524, 185, 173, 200, 204
-0.997524, 189, 209, 204, 240
-0.997529, 405, 1, 436, 256
-0.99753, 181, 189, 196, 220
-0.997531, 253, 101, 268, 132
-0.997536, 1, 265, 128, 296
-0.997539, 255, 29, 270, 60
-0.997539, 315, 101, 330, 132
-0.99756, 219, 277, 234, 308
-0.997561, 221, 37, 236, 68
-0.997566, 341, 277, 356, 308
-0.997566, 255, 221, 270, 252
-0.99757, 373, 125, 388, 156
-0.99757, 317, 169, 332, 200
-0.997572, 155, 213, 170, 244
-0.997574, 287, 141, 302, 172
-0.99758, 321, 101, 336, 132
-0.997581, 257, 129, 272, 160
-0.997583, 295, 237, 310, 268
-0.997586, 297, 217, 312, 248
-0.99759, 331, 277, 346, 308
-0.997593, 299, 129, 314, 160
-0.997593, 389, 129, 404, 160
-0.997598, 265, 93, 280, 124
-0.997601, 329, 257, 344, 288
-0.997602, 235, 33, 250, 64
-0.997603, 181, 217, 196, 248
-0.997606, 447, 89, 462, 120
-0.997607, 1, 185, 500, 248
-0.997612, 229, 33, 244, 64
-0.997618, 305, 173, 432, 204
-0.997621, 121, 49, 136, 80
-0.997626, 363, 129, 378, 160
-0.997628, 97, 97, 224, 128
-0.997636, 337, 21, 352, 52
-0.997636, 275, 93, 290, 124
-0.99764, 143, 45, 158, 76
-0.997642, 367, 17, 382, 48
-0.997644, 191, 177, 206, 208
-0.997647, 311, 181, 326, 212
-0.997647, 391, 13, 406, 44
-0.99765, 285, 277, 300, 308
-0.997651, 271, 221, 286, 252
-0.997653, 249, 33, 264, 64
-0.997653, 1, 241, 128, 272
-0.997654, 163, 173, 178, 204
-0.997655, 283, 25, 298, 56
-0.997655, 211, 101, 226, 132
-0.997663, 77, 33, 108, 288
-0.997667, 197, 153, 212, 184
-0.99768, 81, 69, 208, 100
-0.997684, 417, 45, 432, 76
-0.997685, 161, 189, 288, 220
-0.997687, 277, 25, 292, 56
-0.997696, 17, 101, 32, 132
-0.997696, 281, 253, 296, 284
-0.9977, 385, 13, 400, 44
-0.997705, 145, 137, 160, 168
-0.997705, 105, 53, 120, 84
-0.997707, 311, 169, 326, 200
-0.997712, 197, 201, 212, 232
-0.997716, 419, 9, 434, 40
-0.997717, 247, 277, 262, 308
-0.997719, 285, 157, 300, 188
-0.997721, 167, 217, 182, 248
-0.997728, 277, 113, 292, 144
-0.997732, 259, 93, 274, 124
-0.997737, 129, 73, 256, 104
-0.997842, 17, 229, 144, 260
-0.997866, 65, 1, 96, 256
-0.997903, 273, 189, 400, 220
-0.997989, 321, 5, 448, 36
-0.998034, 17, 217, 144, 248
-0.99811, 97, 33, 224, 64
-0.998149, 177, 49, 304, 80
-0.998259, 225, 297, 352, 328
-0.998281, 81, 85, 208, 116
-0.998342, 161, 61, 288, 92
-0.998351, 369, 233, 496, 296
-0.998385, 305, 125, 368, 140
-0.998389, 345, 127, 408, 142
-0.9984, 49, 41, 176, 72
-0.99841, 9, 269, 72, 284
-0.99841, 137, 215, 200, 230
-0.99841, 353, 209, 368, 333
-0.998425, 281, 255, 344, 270
-0.998431, 393, 65, 456, 80
-0.998433, 129, 185, 192, 200
-0.99844, 17, 275, 80, 290
-0.998442, 215, 209, 230, 333
-0.998443, 257, 105, 320, 120
-0.998443, 137, 173, 200, 188
-0.998446, 387, 65, 402, 192
-0.998451, 257, 131, 320, 146
-0.998451, 137, 179, 200, 194
-0.998452, 201, 209, 264, 224
-0.998453, 281, 185, 344, 200
-0.998454, 137, 191, 200, 206
-0.998455, 137, 205, 200, 220
-0.998458, 297, 221, 360, 236
-0.99846, 281, 131, 344, 146
-0.998464, 433, 77, 496, 92
-0.998464, 425, 7, 488, 22
-0.998464, 345, 121, 408, 136
-0.998465, 249, 123, 312, 138
-0.998466, 405, 1, 420, 128
-0.998468, 321, 133, 384, 148
-0.998471, 149, 47, 180, 62
-0.998472, 237, 109, 268, 124
-0.998472, 345, 115, 408, 130
-0.998473, 281, 83, 312, 98
-0.998473, 165, 259, 196, 274
-0.998474, 293, 105, 324, 120
-0.998474, 281, 169, 312, 184
-0.998474, 349, 19, 380, 34
-0.998474, 273, 179, 336, 194
-0.998474, 189, 179, 220, 194
-0.998475, 361, 17, 392, 32
-0.998475, 137, 225, 200, 240
-0.998476, 249, 97, 312, 112
-0.998476, 397, 13, 428, 28
-0.998477, 381, 15, 412, 30
-0.998477, 157, 209, 188, 224
-0.998477, 229, 127, 260, 142
-0.998478, 337, 205, 464, 236
-0.998478, 265, 245, 296, 260
-0.998478, 313, 117, 344, 132
-0.998478, 393, 1, 408, 128
-0.998478, 381, 115, 412, 130
-0.998479, 5, 269, 36, 284
-0.998479, 153, 169, 184, 184
-0.99848, 345, 135, 408, 150
-0.99848, 189, 41, 220, 56
-0.99848, 225, 219, 256, 234
-0.998481, 165, 265, 196, 280
-0.998481, 457, 7, 488, 22
-0.998481, 253, 223, 284, 238
-0.998481, 181, 223, 212, 238
-0.998482, 293, 69, 324, 84
-0.998482, 209, 89, 272, 104
-0.998483, 257, 147, 288, 162
-0.998483, 433, 105, 496, 120
-0.998483, 281, 103, 344, 118
-0.998483, 209, 215, 272, 230
-0.998483, 361, 119, 392, 134
-0.998483, 225, 121, 288, 136
-0.998484, 433, 9, 464, 24
-0.998484, 265, 121, 296, 136
-0.998485, 161, 189, 224, 204
-0.998486, 205, 159, 236, 174
-0.998487, 21, 157, 52, 172
-0.998487, 261, 99, 292, 114
-0.998487, 185, 147, 248, 162
-0.998488, 281, 273, 344, 288
-0.998488, 233, 109, 296, 124
-0.998489, 341, 213, 372, 228
-0.998489, 265, 111, 296, 126
-0.998489, 257, 137, 320, 152
-0.998489, 345, 281, 376, 296
-0.99849, 225, 267, 256, 282
-0.99849, 217, 33, 280, 48
-0.99849, 401, 11, 464, 26
-0.99849, 113, 149, 176, 164
-0.99849, 217, 37, 248, 52
-0.99849, 161, 229, 192, 244
-0.99849, 141, 187, 172, 202
-0.998491, 305, 161, 432, 192
-0.998492, 17, 91, 80, 106
-0.998493, 137, 173, 168, 188
-0.998493, 21, 261, 52, 276
-0.998494, 293, 253, 324, 268
-0.998494, 409, 11, 440, 26
-0.998494, 281, 27, 344, 42
-0.998495, 337, 21, 368, 36
-0.998496, 241, 31, 304, 46
-0.998496, 145, 205, 176, 220
-0.998496, 201, 105, 264, 120
-0.998497, 161, 213, 224, 228
-0.998498, 185, 213, 216, 228
-0.998498, 185, 39, 248, 54
-0.998499, 201, 115, 264, 130
-0.998499, 321, 23, 352, 38
-0.998499, 201, 131, 264, 146
-0.9985, 281, 137, 312, 152
-0.9985, 445, 99, 476, 114
-0.998501, 129, 165, 192, 180
-0.998501, 193, 141, 224, 156
-0.998501, 225, 101, 288, 116
-0.998502, 273, 191, 336, 206
-0.998502, 281, 173, 344, 188
-0.998502, 129, 197, 192, 212
-0.998502, 437, 131, 468, 146
-0.998502, 169, 239, 200, 254
-0.998503, 441, 83, 472, 98
-0.998503, 349, 107, 380, 122
-0.998503, 153, 153, 216, 168
-0.998504, 301, 25, 332, 40
-0.998504, 305, 257, 368, 272
-0.998504, 321, 139, 384, 154
-0.998504, 121, 157, 184, 172
-0.998505, 145, 269, 208, 284
-0.998506, 129, 137, 160, 152
-0.998506, 233, 223, 296, 238
-0.998506, 285, 221, 316, 236
-0.998506, 369, 149, 496, 180
-0.998506, 233, 35, 264, 50
-0.998506, 321, 21, 384, 36
-0.998507, 449, 105, 480, 120
-0.998507, 249, 145, 312, 160
-0.998507, 385, 71, 448, 86
-0.998507, 185, 153, 248, 168
-0.998507, 261, 135, 292, 150
-0.998507, 289, 245, 320, 260
-0.998508, 301, 191, 332, 206
-0.998508, 297, 215, 360, 230
-0.998509, 213, 131, 244, 146
-0.998509, 249, 269, 312, 284
-0.998509, 105, 53, 136, 68
-0.99851, 433, 99, 496, 114
-0.998511, 329, 221, 392, 236
-0.998511, 293, 171, 324, 186
-0.998511, 313, 109, 376, 124
-0.998512, 361, 15, 424, 30
-0.998512, 421, 11, 452, 26
-0.998512, 285, 159, 316, 174
-0.998512, 9, 263, 72, 278
-0.998512, 145, 213, 176, 228
-0.998512, 113, 143, 176, 158
-0.998512, 105, 51, 168, 66
-0.998513, 409, 61, 440, 76
-0.998514, 317, 257, 348, 272
-0.998515, 241, 101, 272, 116
-0.998516, 329, 109, 360, 124
-0.998516, 273, 125, 336, 140
-0.998516, 257, 221, 320, 236
-0.998516, 161, 43, 224, 58
-0.998518, 133, 49, 164, 64
-0.998518, 289, 27, 320, 42
-0.998521, 305, 117, 368, 132
-0.998522, 225, 127, 288, 142
-0.998522, 201, 265, 264, 280
-0.998522, 169, 219, 232, 234
-0.998523, 257, 113, 320, 128
-0.998523, 313, 271, 376, 286
-0.998523, 121, 51, 152, 66
-0.998524, 305, 103, 368, 118
-0.998524, 337, 131, 368, 146
-0.998524, 341, 123, 372, 138
-0.998525, 369, 139, 400, 154
-0.998525, 353, 141, 416, 156
-0.998525, 209, 95, 272, 110
-0.998525, 345, 109, 408, 124
-0.998526, 249, 151, 312, 166
-0.998526, 265, 247, 328, 262
-0.998526, 249, 83, 312, 98
-0.998527, 161, 215, 192, 230
-0.998527, 233, 115, 296, 130
-0.998527, 169, 173, 200, 188
-0.998528, 265, 161, 328, 176
-0.99853, 161, 175, 224, 190
-0.99853, 345, 273, 376, 288
-0.998533, 257, 233, 320, 248
-0.998533, 97, 137, 160, 152
-0.998534, 73, 55, 136, 70
-0.998534, 197, 149, 228, 164
-0.998534, 193, 133, 224, 148
-0.998534, 169, 183, 232, 198
-0.998534, 433, 121, 496, 136
-0.998536, 469, 121, 500, 136
-0.998536, 293, 177, 324, 192
-0.998538, 281, 77, 344, 92
-0.998539, 349, 129, 380, 144
-0.99854, 313, 283, 376, 298
-0.99854, 357, 137, 388, 152
-0.99854, 361, 129, 392, 144
-0.99854, 221, 121, 252, 136
-0.998541, 281, 141, 344, 156
-0.998541, 293, 125, 324, 140
-0.998542, 305, 171, 336, 186
-0.998542, 433, 115, 496, 130
-0.998542, 161, 169, 224, 184
-0.998544, 17, 281, 80, 296
-0.998544, 177, 227, 240, 242
-0.998545, 225, 261, 288, 276
-0.998545, 313, 277, 376, 292
-0.998545, 161, 245, 224, 260
-0.998545, 289, 75, 320, 90
-0.998546, 433, 71, 496, 86
-0.998546, 253, 127, 284, 142
-0.998546, 281, 167, 344, 182
-0.998547, 377, 127, 408, 142
-0.998547, 277, 103, 308, 118
-0.998547, 145, 263, 208, 278
-0.998547, 433, 83, 496, 98
-0.998547, 41, 279, 72, 294
-0.998548, 281, 237, 312, 252
-0.998549, 137, 275, 200, 290
-0.998549, 273, 29, 304, 44
-0.99855, 245, 33, 276, 48
-0.998551, 201, 221, 264, 236
-0.998551, 209, 145, 272, 160
-0.998551, 233, 133, 296, 148
-0.998551, 399, 1, 414, 128
-0.998553, 281, 261, 344, 276
-0.998553, 433, 127, 496, 142
-0.998554, 313, 103, 344, 118
-0.998554, 173, 217, 204, 232
-0.998555, 297, 135, 328, 150
-0.998555, 193, 159, 256, 174
-0.998555, 305, 255, 336, 270
-0.998556, 225, 269, 288, 284
-0.998556, 161, 239, 224, 254
-0.998556, 161, 251, 224, 266
-0.998557, 281, 97, 344, 112
-0.998558, 129, 47, 192, 62
-0.998558, 297, 227, 360, 242
-0.998559, 385, 129, 448, 144
-0.99856, 73, 117, 136, 132
-0.998562, 145, 145, 208, 160
-0.998562, 179, 193, 194, 320
-0.998563, 377, 121, 408, 136
-0.998564, 297, 81, 328, 96
-0.998565, 177, 257, 240, 272
-0.998568, 345, 77, 408, 92
-0.998568, 313, 41, 376, 56
-0.998569, 149, 269, 180, 284
-0.998571, 259, 209, 274, 333
-0.998571, 373, 133, 404, 148
-0.998573, 25, 279, 56, 294
-0.998578, 277, 143, 308, 158
-0.998582, 273, 131, 304, 146
-0.998582, 159, 209, 174, 333
-0.998583, 373, 65, 388, 192
-0.998584, 57, 97, 88, 224
-0.998584, 245, 121, 276, 136
-0.998586, 161, 223, 192, 238
-0.998587, 469, 111, 500, 126
-0.998588, 141, 193, 172, 208
-0.998588, 273, 209, 288, 333
-0.998598, 261, 31, 292, 46
-0.9986, 329, 125, 360, 140
-0.998601, 257, 105, 288, 120
-0.998605, 441, 75, 472, 90
-0.998605, 41, 267, 72, 282
-0.998608, 145, 199, 176, 214
-0.998609, 225, 211, 256, 226
-0.998609, 241, 115, 272, 130
-0.998612, 207, 209, 222, 333
-0.998613, 411, 1, 426, 128
-0.998615, 165, 189, 196, 204
-0.998616, 383, 1, 398, 128
-0.998617, 261, 141, 292, 156
-0.998619, 145, 219, 176, 234
-0.998621, 317, 129, 348, 144
-0.998634, 41, 273, 72, 288
-0.998637, 253, 209, 268, 333
-0.998639, 287, 209, 302, 333
-0.998646, 469, 289, 500, 304
-0.998651, 353, 249, 480, 280
-0.998659, 253, 111, 284, 126
-0.998662, 313, 113, 328, 240
-0.99867, 243, 209, 258, 333
-0.998673, 49, 1, 80, 256
-0.998675, 369, 1, 384, 128
-0.998676, 237, 209, 252, 333
-0.998676, 265, 209, 280, 333
-0.998678, 35, 145, 50, 272
-0.998688, 297, 145, 312, 272
-0.998689, 347, 209, 362, 333
-0.99869, 279, 209, 294, 333
-0.998694, 293, 209, 308, 333
-0.998703, 367, 65, 382, 192
-0.998703, 379, 65, 394, 192
-0.998705, 221, 209, 236, 333
-0.998716, 321, 293, 448, 324
-0.998718, 417, 1, 432, 128
-0.998725, 361, 1, 376, 128
-0.998726, 377, 1, 392, 128
-0.998729, 229, 209, 244, 333
-0.998743, 325, 97, 340, 224
-0.99875, 201, 209, 216, 333
-0.998753, 13, 49, 28, 176
-0.998755, 185, 193, 200, 320
-0.998756, 341, 219, 372, 234
-0.998758, 303, 209, 318, 333
-0.998761, 335, 1, 350, 128
-0.998767, 265, 65, 280, 192
-0.998767, 153, 209, 168, 333
-0.998767, 255, 17, 270, 144
-0.998772, 351, 65, 366, 192
-0.998772, 393, 65, 408, 192
-0.998781, 21, 81, 36, 208
-0.998792, 207, 129, 222, 256
-0.998794, 307, 97, 322, 224
-0.998804, 329, 17, 344, 144
-0.998813, 437, 1, 452, 128
-0.998815, 317, 209, 332, 333
-0.998824, 285, 129, 300, 256
-0.998836, 227, 17, 242, 144
-0.998837, 291, 145, 306, 272
-0.998843, 341, 1, 356, 128
-0.998846, 351, 1, 366, 128
-0.998846, 425, 1, 440, 128
-0.998847, 273, 5, 400, 36
-0.998849, 37, 209, 52, 333
-0.99885, 335, 65, 350, 192
-0.998866, 173, 209, 188, 333
-0.998874, 195, 209, 210, 333
-0.998884, 221, 33, 236, 160
-0.998886, 443, 81, 458, 208
-0.998888, 303, 161, 318, 288
-0.998889, 235, 33, 250, 160
-0.998889, 319, 97, 334, 224
-0.99889, 25, 129, 40, 256
-0.998893, 89, 49, 104, 176
-0.9989, 81, 49, 96, 176
-0.9989, 169, 161, 184, 288
-0.998909, 341, 209, 356, 333
-0.99891, 159, 161, 174, 288
-0.998911, 345, 65, 360, 192
-0.998914, 213, 145, 228, 272
-0.998923, 399, 49, 414, 176
-0.998926, 219, 81, 234, 208
-0.998933, 149, 145, 164, 272
-0.998934, 361, 65, 376, 192
-0.99894, 259, 65, 274, 192
-0.998949, 261, 17, 276, 144
-0.998956, 199, 145, 214, 272
-0.99896, 247, 17, 262, 144
-0.998962, 309, 209, 324, 333
-0.998963, 295, 97, 310, 224
-0.998965, 275, 65, 290, 192
-0.99897, 251, 65, 266, 192
-0.998971, 241, 17, 256, 144
-0.998973, 431, 1, 446, 128
-0.998973, 7, 65, 22, 192
-0.998979, 447, 1, 462, 128
-0.998979, 31, 81, 46, 208
-0.998982, 167, 209, 182, 333
-0.998985, 95, 49, 110, 176
-0.998985, 369, 289, 496, 320
-0.998987, 257, 113, 272, 240
-0.998988, 177, 145, 192, 272
-0.99899, 323, 17, 338, 144
-0.998997, 69, 49, 84, 176
-0.999013, 147, 209, 162, 333
-0.999018, 383, 113, 398, 240
-0.99902, 53, 49, 68, 176
-0.999021, 313, 65, 328, 192
-0.999022, 47, 49, 62, 176
-0.999031, 185, 145, 200, 272
-0.999032, 227, 113, 242, 240
-0.999039, 75, 49, 90, 176
-0.999042, 319, 161, 334, 288
-0.999042, 483, 81, 498, 208
-0.999044, 271, 17, 286, 144
-0.99907, 193, 129, 208, 256
-0.999074, 301, 81, 316, 208
-0.999076, 129, 17, 144, 144
-0.999079, 101, 49, 116, 176
-0.999083, 279, 161, 294, 288
-0.999084, 211, 33, 226, 160
-0.999088, 115, 33, 130, 160
-0.999092, 267, 113, 282, 240
-0.999093, 219, 161, 234, 288
-0.999096, 309, 161, 324, 288
-0.999098, 335, 113, 350, 240
-0.9991, 131, 129, 146, 256
-0.999105, 137, 161, 152, 288
-0.99911, 229, 65, 244, 192
-0.999114, 317, 17, 332, 144
-0.999115, 19, 129, 34, 256
-0.999119, 267, 161, 282, 288
-0.99912, 205, 81, 220, 208
-0.999121, 307, 17, 322, 144
-0.999124, 137, 113, 152, 240
-0.999125, 123, 17, 138, 144
-0.99913, 161, 17, 176, 144
-0.999138, 451, 81, 466, 208
-0.999446, 449, 209, 480, 333
-0.999656, 355, 283, 370, 298
-0.999657, 137, 135, 152, 150
-0.999657, 203, 157, 218, 172
-0.999658, 297, 245, 312, 260
-0.999658, 283, 149, 298, 164
-0.999658, 169, 211, 184, 226
-0.99966, 135, 51, 150, 66
-0.99966, 289, 157, 304, 172
-0.99966, 251, 111, 266, 126
-0.99966, 285, 81, 300, 96
-0.999661, 205, 163, 220, 178
-0.999661, 357, 135, 372, 150
-0.999662, 323, 23, 338, 38
-0.999663, 53, 281, 68, 296
-0.999663, 287, 271, 302, 286
-0.999663, 361, 19, 376, 34
-0.999663, 343, 21, 358, 36
-0.999664, 483, 287, 498, 302
-0.999665, 295, 103, 310, 118
-0.999665, 235, 121, 250, 136
-0.999666, 425, 11, 440, 26
-0.999666, 335, 137, 350, 152
-0.999666, 409, 13, 424, 28
-0.999667, 385, 135, 400, 150
-0.999667, 185, 187, 200, 202
-0.999667, 261, 121, 276, 136
-0.999667, 175, 229, 190, 244
-0.999668, 273, 143, 288, 158
-0.999668, 215, 217, 230, 232
-0.999668, 301, 81, 316, 96
-0.999669, 211, 115, 226, 130
-0.999669, 241, 35, 256, 50
-0.999669, 321, 169, 336, 184
-0.99967, 289, 103, 304, 118
-0.99967, 237, 261, 252, 276
-0.99967, 173, 187, 188, 202
-0.999671, 203, 133, 218, 148
-0.999671, 113, 53, 128, 68
-0.999671, 257, 287, 272, 302
-0.999672, 273, 131, 288, 146
-0.999672, 341, 123, 356, 138
-0.999672, 353, 223, 368, 238
-0.999673, 311, 135, 326, 150
-0.999673, 177, 239, 192, 254
-0.999673, 257, 105, 272, 120
-0.999673, 357, 143, 372, 158
-0.999673, 377, 139, 392, 154
-0.999673, 335, 125, 350, 140
-0.999675, 289, 29, 304, 44
-0.999675, 193, 135, 208, 150
-0.999675, 317, 25, 332, 40
-0.999678, 309, 171, 324, 186
-0.999678, 1, 267, 16, 282
-0.999678, 279, 133, 294, 148
-0.999679, 223, 125, 238, 140
-0.999679, 351, 217, 366, 232
-0.999679, 445, 75, 460, 90
-0.999679, 285, 137, 300, 152
-0.99968, 445, 91, 460, 106
-0.999681, 177, 261, 192, 276
-0.999682, 301, 71, 316, 86
-0.999683, 357, 107, 372, 122
-0.999683, 191, 185, 206, 200
-0.999684, 329, 23, 344, 38
-0.999685, 257, 111, 272, 126
-0.999686, 179, 171, 194, 186
-0.999686, 377, 129, 392, 144
-0.999687, 35, 159, 50, 174
-0.999687, 363, 127, 378, 142
-0.999687, 187, 213, 202, 228
-0.999689, 343, 221, 358, 236
-0.999689, 315, 191, 330, 206
-0.99969, 147, 211, 162, 226
-0.99969, 279, 99, 294, 114
-0.99969, 179, 189, 194, 204
-0.999691, 167, 265, 182, 280
-0.999692, 327, 257, 342, 272
-0.999693, 355, 267, 370, 282
-0.999694, 129, 51, 144, 66
-0.999696, 265, 31, 280, 46
-0.999697, 237, 209, 252, 224
-0.999698, 263, 141, 278, 156
-0.999699, 181, 219, 196, 234
-0.999699, 209, 139, 224, 154
-0.999701, 295, 237, 310, 252
-0.999701, 387, 121, 402, 136
-0.999702, 167, 223, 182, 238
-0.999703, 273, 107, 288, 122
-0.999703, 355, 125, 370, 140
-0.999703, 221, 213, 236, 228
-0.999704, 277, 29, 292, 44
-0.999704, 141, 49, 156, 64
-0.999705, 283, 29, 298, 44
-0.999705, 363, 141, 378, 156
-0.999706, 319, 127, 334, 142
-0.999707, 351, 111, 366, 126
-0.999707, 217, 127, 232, 142
-0.999708, 147, 217, 162, 232
-0.999709, 299, 171, 314, 186
-0.99971, 475, 109, 490, 124
-0.999711, 151, 269, 166, 284
-0.999711, 165, 217, 180, 232
-0.999716, 197, 159, 212, 174
-0.999718, 269, 117, 284, 132
-0.99972, 279, 139, 294, 154
-0.99972, 255, 33, 270, 48
-0.99972, 229, 209, 244, 224
-0.99972, 295, 73, 310, 88
-0.999725, 57, 209, 88, 333
-0.999726, 265, 127, 280, 142
-0.999727, 171, 241, 186, 256
-0.999729, 51, 273, 66, 288
-0.99973, 351, 211, 366, 226
-0.99973, 291, 133, 306, 148
-0.999734, 271, 31, 286, 46
-0.999735, 319, 255, 334, 270
-0.999737, 349, 119, 364, 134
-0.999737, 309, 253, 324, 268
-0.999739, 367, 133, 382, 148
-0.999742, 265, 111, 280, 126
-0.999751, 369, 139, 384, 154
-0.999757, 285, 143, 300, 158
-0.999759, 171, 259, 186, 274
-0.999761, 265, 103, 280, 118
-0.999765, 35, 273, 50, 288
-0.999765, 315, 177, 330, 192
-0.999773, 449, 99, 464, 114
-0.999785, 45, 265, 60, 280
-0.999792, 385, 115, 400, 130
-0.999805, 175, 217, 190, 232
-0.999808, 471, 289, 486, 304
-1.00052, 1, 1, 128, 64
-1.00156, 433, 145, 464, 272
-1.00211, 369, 161, 496, 224
-1.00227, 365, 209, 396, 333
-1.00456, 361, 209, 424, 333
-1.00498, 77, 145, 108, 272
-1.00543, 353, 161, 480, 288
-1.00893, 409, 161, 472, 288
-1.01126, 81, 209, 144, 333
-1.0113, 401, 209, 464, 333
-1.0138, 385, 161, 448, 288
-1.01746, 57, 161, 120, 288
