1969
-0.524093, 1, 65, 500, 320
-0.601205, 1, 1, 500, 375
-0.700581, 65, 1, 320, 375
-0.755802, 161, 1, 416, 375
-0.777233, 257, 1, 500, 375
-0.831319, 1, 65, 256, 320
-0.843937, 97, 97, 352, 352
-0.884866, 257, 33, 500, 288
-0.891567, 1, 65, 128, 320
-0.913958, 1, 97, 500, 224
-0.917263, 17, 1, 144, 375
-0.920491, 65, 97, 192, 352
-0.923963, 81, 1, 208, 375
-0.926845, 1, 145, 500, 272
-0.929141, 113, 65, 240, 320
-0.929458, 321, 1, 448, 375
-0.934414, 241, 1, 368, 375
-0.934731, 161, 1, 416, 256
-0.935593, 369, 1, 496, 375
-0.940253, 241, 33, 368, 288
-0.940548, 305, 33, 432, 288
-0.941334, 129, 1, 256, 375
-0.94166, 65, 1, 192, 256
-0.941916, 193, 33, 320, 288
-0.943133, 369, 33, 496, 288
-0.944392, 33, 97, 288, 224
-0.944431, 1, 113, 128, 240
-0.945925, 193, 1, 320, 375
-0.947253, 257, 129, 500, 375
-0.949719, 305, 129, 432, 375
-0.950222, 209, 129, 336, 375
-0.951021, 9, 97, 72, 224
-0.952969, 1, 33, 500, 160
-0.954403, 161, 129, 288, 375
-0.954576, 161, 97, 416, 224
-0.95548, 1, 145, 256, 272
-0.956053, 33, 97, 96, 224
-0.958171, 369, 129, 496, 375
-0.959797, 9, 145, 72, 272
-0.960063, 65, 97, 192, 224
-0.961478, 257, 81, 500, 208
-0.961695, 257, 129, 384, 375
-0.96171, 9, 113, 72, 176
-0.96206, 1, 49, 256, 176
-0.962196, 1, 193, 500, 320
-0.962709, 41, 113, 104, 176
-0.964143, 113, 113, 240, 240
-0.965407, 33, 145, 96, 272
-0.965473, 1, 161, 128, 288
-0.965977, 65, 145, 192, 272
-0.967084, 161, 81, 288, 208
-0.967552, 97, 145, 352, 272
-0.967729, 9, 137, 72, 200
-0.967823, 257, 81, 384, 208
-0.968036, 65, 97, 128, 224
-0.968085, 105, 97, 168, 224
-0.96818, 1, 65, 128, 192
-0.971316, 321, 113, 448, 240
-0.971319, 161, 49, 416, 176
-0.972139, 305, 177, 432, 304
-0.972387, 81, 153, 144, 216
-0.972393, 273, 97, 336, 224
-0.972428, 153, 97, 216, 224
-0.973023, 33, 89, 96, 152
-0.973646, 313, 97, 376, 224
-0.973756, 81, 145, 144, 272
-0.973987, 41, 193, 104, 320
-0.974328, 257, 129, 500, 256
-0.974344, 313, 177, 376, 304
-0.97452, 45, 105, 76, 168
-0.974679, 177, 81, 240, 208
-0.974804, 321, 65, 448, 192
-0.974866, 129, 113, 192, 240
-0.975027, 1, 193, 64, 320
-0.975347, 1, 49, 64, 176
-0.975691, 33, 145, 96, 208
-0.975888, 377, 97, 440, 224
-0.975896, 273, 97, 336, 160
-0.976186, 21, 105, 52, 168
-0.976232, 65, 129, 128, 192
-0.976249, 209, 81, 336, 208
-0.976515, 57, 145, 120, 272
-0.97732, 345, 81, 408, 208
-0.977483, 13, 113, 44, 240
-0.97761, 257, 177, 500, 304
-0.977745, 153, 137, 216, 200
-0.977747, 169, 97, 232, 160
-0.977765, 33, 97, 64, 224
-0.977954, 9, 89, 72, 152
-0.977981, 257, 33, 500, 160
-0.978, 1, 169, 64, 232
-0.978018, 225, 129, 352, 256
-0.978025, 369, 81, 496, 208
-0.978601, 249, 81, 312, 208
-0.978959, 1, 137, 128, 200
-0.979004, 409, 81, 472, 208
-0.979152, 1, 65, 64, 320
-0.979372, 65, 105, 128, 168
-0.979463, 113, 145, 176, 208
-0.979489, 369, 177, 496, 304
-0.979515, 201, 81, 264, 208
-0.97955, 401, 161, 464, 288
-0.979587, 1, 113, 128, 176
-0.979828, 385, 161, 448, 224
-0.980109, 25, 177, 88, 240
-0.980487, 1, 241, 500, 368
-0.980854, 433, 81, 496, 208
-0.981052, 49, 209, 112, 272
-0.981065, 41, 65, 104, 320
-0.981263, 233, 97, 296, 160
-0.981268, 105, 113, 168, 176
-0.981497, 257, 33, 384, 160
-0.982016, 53, 97, 84, 224
-0.982028, 29, 137, 60, 200
-0.982071, 1, 97, 32, 224
-0.982141, 305, 233, 368, 296
-0.982175, 105, 145, 168, 272
-0.982344, 329, 89, 392, 152
-0.982401, 249, 121, 312, 184
-0.982418, 65, 97, 96, 224
-0.982457, 33, 113, 64, 176
-0.982519, 33, 161, 160, 224
-0.982573, 209, 97, 272, 160
-0.982658, 5, 121, 36, 184
-0.982752, 57, 153, 120, 216
-0.982814, 65, 113, 192, 176
-0.982818, 97, 129, 128, 192
-0.982823, 9, 201, 72, 264
-0.982832, 65, 105, 96, 168
-0.983026, 305, 49, 368, 176
-0.983227, 41, 49, 104, 176
-0.983257, 65, 49, 128, 176
-0.983441, 225, 81, 288, 208
-0.98346, 257, 97, 384, 160
-0.983631, 97, 145, 224, 208
-0.983672, 1, 193, 256, 320
-0.983691, 177, 97, 304, 160
-0.984176, 81, 49, 208, 176
-0.984215, 313, 185, 376, 248
-0.984252, 49, 185, 112, 248
-0.98448, 129, 105, 192, 168
-0.98449, 177, 129, 240, 192
-0.984594, 273, 49, 336, 176
-0.98482, 377, 145, 440, 272
-0.984865, 33, 233, 96, 296
-0.984957, 109, 153, 140, 216
-0.985083, 305, 97, 368, 160
-0.985108, 45, 145, 76, 272
-0.985186, 433, 89, 496, 152
-0.985251, 409, 177, 472, 240
-0.985409, 21, 161, 52, 288
-0.98552, 273, 129, 400, 256
-0.985563, 17, 129, 48, 192
-0.985766, 65, 193, 192, 320
-0.985851, 193, 121, 320, 184
-0.985935, 1, 89, 128, 152
-0.985958, 161, 129, 288, 256
-0.986046, 273, 129, 336, 192
-0.986143, 9, 97, 40, 160
-0.986224, 177, 33, 304, 160
-0.98635, 77, 97, 108, 224
-0.986667, 57, 233, 120, 296
-0.986697, 5, 145, 36, 208
-0.986789, 97, 129, 128, 256
-0.986843, 257, 209, 384, 336
-0.986849, 409, 89, 472, 152
-0.986948, 165, 129, 196, 192
-0.987015, 305, 225, 368, 352
-0.987022, 9, 169, 40, 232
-0.987101, 41, 209, 72, 272
-0.987211, 297, 121, 360, 184
-0.987213, 369, 129, 496, 256
-0.987283, 129, 65, 192, 192
-0.987408, 317, 193, 348, 320
-0.987476, 161, 209, 416, 336
-0.987504, 125, 97, 156, 224
-0.987605, 145, 129, 272, 192
-0.987669, 241, 121, 368, 184
-0.987715, 49, 137, 176, 200
-0.988042, 329, 129, 392, 192
-0.988064, 353, 89, 416, 152
-0.988108, 353, 89, 480, 152
-0.988137, 353, 129, 416, 256
-0.988335, 1, 209, 128, 336
-0.988356, 1, 185, 128, 248
-0.988367, 385, 89, 448, 152
-0.9884, 37, 161, 68, 224
-0.988507, 17, 65, 48, 192
-0.988546, 433, 161, 496, 224
-0.988551, 257, 97, 288, 160
-0.988671, 77, 113, 108, 176
-0.988675, 321, 169, 448, 232
-0.988685, 353, 177, 416, 240
-0.988726, 89, 129, 152, 375
-0.988786, 417, 169, 448, 232
-0.988795, 345, 177, 408, 304
-0.988816, 369, 33, 496, 160
-0.988868, 57, 81, 120, 144
-0.988911, 305, 209, 368, 272
-0.98897, 209, 129, 272, 192
-0.989015, 181, 81, 212, 208
-0.989032, 57, 137, 88, 200
-0.989121, 305, 89, 432, 152
-0.989213, 65, 65, 128, 320
-0.989238, 241, 33, 304, 160
-0.989252, 425, 129, 488, 256
-0.989292, 385, 185, 448, 248
-0.98933, 305, 193, 432, 256
-0.989344, 129, 97, 256, 160
-0.989363, 1, 225, 64, 288
-0.989405, 277, 97, 308, 160
-0.989508, 97, 153, 128, 216
-0.989523, 1, 145, 32, 272
-0.989525, 25, 161, 56, 224
-0.989634, 109, 97, 140, 224
-0.989848, 33, 89, 64, 152
-0.989853, 177, 105, 208, 168
-0.989909, 9, 117, 72, 148
-0.989931, 353, 121, 480, 184
-0.989957, 329, 33, 392, 160
-0.990018, 317, 201, 348, 264
-0.990064, 65, 145, 96, 272
-0.99016, 85, 145, 116, 272
-0.990169, 369, 49, 432, 176
-0.990207, 369, 177, 496, 240
-0.990228, 113, 145, 144, 272
-0.990292, 417, 121, 480, 184
-0.990335, 33, 117, 96, 148
-0.990356, 17, 217, 144, 280
-0.990469, 121, 97, 184, 352
-0.990503, 273, 73, 336, 136
-0.990515, 1, 153, 64, 184
-0.99052, 33, 101, 96, 132
-0.990542, 41, 185, 72, 248
-0.990624, 281, 201, 344, 264
-0.990697, 1, 105, 64, 136
-0.990745, 305, 97, 336, 224
-0.990749, 9, 141, 72, 172
-0.990792, 333, 97, 364, 224
-0.990877, 153, 141, 216, 172
-0.990892, 153, 49, 216, 176
-0.990939, 393, 121, 456, 184
-0.990955, 165, 97, 196, 224
-0.991059, 85, 137, 116, 200
-0.991107, 41, 161, 104, 192
-0.991121, 305, 17, 432, 144
-0.991125, 73, 161, 136, 192
-0.991204, 49, 49, 80, 176
-0.991262, 57, 113, 120, 144
-0.991279, 313, 233, 344, 296
-0.99128, 73, 209, 136, 272
-0.991294, 33, 149, 96, 180
-0.991341, 89, 177, 152, 240
-0.991356, 289, 81, 320, 208
-0.991382, 317, 97, 348, 224
-0.991461, 357, 81, 388, 208
-0.991463, 161, 129, 224, 160
-0.991468, 65, 149, 128, 180
-0.991589, 73, 193, 136, 320
-0.991599, 53, 161, 84, 224
-0.991659, 49, 233, 112, 264
-0.991659, 305, 217, 432, 280
-0.991668, 345, 97, 376, 224
-0.991676, 153, 65, 216, 320
-0.991686, 113, 105, 144, 168
-0.991747, 369, 81, 400, 208
-0.991753, 249, 125, 312, 156
-0.991763, 57, 1, 120, 375
-0.991794, 157, 105, 188, 168
-0.991798, 61, 209, 92, 272
-0.991832, 1, 165, 64, 196
-0.991875, 393, 81, 424, 208
-0.991885, 81, 89, 208, 152
-0.991888, 93, 81, 124, 208
-0.99189, 413, 81, 444, 208
-0.991902, 17, 241, 144, 304
-0.991924, 1, 1, 64, 375
-0.991927, 305, 97, 336, 160
-0.991943, 185, 137, 248, 168
-0.991963, 385, 173, 448, 204
-0.991974, 129, 137, 192, 168
-0.991986, 9, 129, 72, 160
-0.991991, 465, 89, 496, 152
-0.991992, 113, 153, 176, 184
-0.991995, 25, 193, 56, 256
-0.991999, 321, 225, 448, 352
-0.992002, 273, 177, 336, 304
-0.992021, 33, 161, 64, 288
-0.992094, 137, 97, 168, 224
-0.992103, 33, 221, 96, 252
-0.992123, 81, 169, 208, 232
-0.99215, 49, 129, 112, 160
-0.992153, 65, 217, 192, 280
-0.992167, 45, 137, 76, 200
-0.9922, 57, 101, 120, 132
-0.9922, 89, 149, 152, 180
-0.992233, 1, 181, 64, 212
-0.992235, 129, 125, 192, 156
-0.992252, 89, 113, 152, 144
-0.99227, 25, 173, 88, 204
-0.992296, 121, 153, 152, 216
-0.992338, 25, 185, 88, 216
-0.992367, 401, 185, 464, 216
-0.992374, 9, 201, 72, 232
-0.992378, 177, 129, 240, 256
-0.992378, 209, 137, 272, 168
-0.992416, 241, 97, 272, 160
-0.992453, 261, 121, 292, 184
-0.992455, 393, 33, 456, 160
-0.992485, 313, 161, 376, 224
-0.992514, 273, 133, 336, 164
-0.992525, 417, 33, 480, 160
-0.992528, 305, 121, 432, 184
-0.992559, 433, 181, 496, 212
-0.992587, 37, 117, 68, 148
-0.992591, 9, 225, 72, 256
-0.992594, 273, 101, 336, 132
-0.992608, 9, 213, 72, 244
-0.992615, 33, 245, 96, 276
-0.99262, 313, 129, 376, 160
-0.992647, 265, 81, 296, 208
-0.992648, 297, 237, 360, 268
-0.992655, 425, 81, 456, 208
-0.992664, 49, 173, 112, 204
-0.992667, 289, 117, 352, 148
-0.992669, 333, 97, 364, 160
-0.992678, 33, 209, 96, 240
-0.992686, 25, 117, 56, 148
-0.992703, 57, 81, 88, 144
-0.992707, 313, 117, 376, 148
-0.992718, 417, 169, 480, 200
-0.992722, 313, 1, 376, 375
-0.992723, 57, 209, 120, 240
-0.992745, 293, 97, 324, 160
-0.992747, 13, 109, 44, 140
-0.992762, 121, 109, 184, 140
-0.992763, 345, 217, 408, 280
-0.992777, 65, 113, 96, 144
-0.992778, 277, 81, 308, 208
-0.992779, 105, 137, 168, 168
-0.992795, 165, 133, 196, 164
-0.99281, 177, 137, 208, 200
-0.992813, 29, 49, 60, 176
-0.99282, 73, 173, 136, 204
-0.992822, 313, 225, 376, 256
-0.992841, 25, 129, 56, 160
-0.992848, 381, 81, 412, 208
-0.992852, 1, 149, 32, 180
-0.992864, 33, 105, 64, 136
-0.992866, 161, 105, 224, 136
-0.992889, 201, 81, 232, 208
-0.992913, 57, 101, 88, 132
-0.992919, 105, 165, 168, 196
-0.992932, 97, 149, 128, 180
-0.992934, 225, 121, 288, 152
-0.992943, 113, 157, 144, 188
-0.99295, 57, 221, 120, 252
-0.992955, 49, 117, 80, 148
-0.992959, 297, 249, 360, 280
-0.99296, 29, 141, 60, 172
-0.992979, 17, 145, 48, 176
-0.992996, 37, 157, 68, 188
-0.993025, 261, 117, 292, 148
-0.993027, 45, 101, 76, 132
-0.993037, 241, 81, 272, 208
-0.993051, 225, 101, 288, 132
-0.993068, 321, 97, 384, 128
-0.993079, 113, 129, 144, 192
-0.993102, 97, 161, 128, 192
-0.993102, 257, 225, 500, 352
-0.99311, 85, 113, 116, 144
-0.993115, 1, 161, 32, 192
-0.993124, 81, 101, 144, 132
-0.993125, 345, 129, 408, 160
-0.993128, 5, 121, 36, 152
-0.993136, 45, 129, 76, 160
-0.993146, 421, 169, 452, 200
-0.993155, 33, 177, 64, 208
-0.993167, 369, 129, 432, 160
-0.993173, 305, 209, 368, 240
-0.993179, 25, 157, 56, 188
-0.99318, 81, 161, 112, 192
-0.993182, 313, 193, 376, 224
-0.993187, 281, 225, 344, 352
-0.993189, 177, 141, 208, 172
-0.993193, 165, 145, 196, 176
-0.993194, 73, 137, 136, 168
-0.993201, 69, 101, 100, 132
-0.993201, 45, 145, 76, 176
-0.993206, 409, 169, 440, 200
-0.993209, 53, 161, 84, 192
-0.99321, 297, 97, 360, 128
-0.993212, 421, 181, 452, 212
-0.993213, 41, 233, 72, 264
-0.993222, 65, 161, 96, 192
-0.993226, 321, 173, 384, 204
-0.993228, 361, 173, 424, 204
-0.993232, 249, 101, 312, 132
-0.993237, 153, 133, 184, 164
-0.993241, 221, 81, 252, 208
-0.993259, 93, 105, 124, 168
-0.993263, 409, 125, 472, 156
-0.993271, 9, 241, 72, 272
-0.993271, 361, 93, 424, 124
-0.993272, 437, 89, 468, 152
-0.993278, 97, 137, 128, 168
-0.993286, 61, 233, 92, 264
-0.993289, 433, 21, 496, 52
-0.993289, 9, 93, 72, 124
-0.993305, 313, 261, 376, 292
-0.99331, 177, 129, 208, 160
-0.99331, 73, 233, 136, 264
-0.99332, 409, 153, 472, 216
-0.993323, 45, 173, 76, 204
-0.993327, 321, 97, 352, 160
-0.993334, 273, 121, 304, 184
-0.993335, 57, 149, 88, 180
-0.993337, 185, 125, 248, 156
-0.99334, 13, 157, 44, 188
-0.993344, 85, 149, 116, 180
-0.993345, 113, 113, 144, 144
-0.993347, 433, 125, 496, 156
-0.993352, 385, 93, 448, 124
-0.993378, 41, 209, 72, 240
-0.993383, 225, 137, 256, 168
-0.993391, 273, 229, 336, 260
-0.993393, 425, 33, 488, 288
-0.993401, 253, 129, 284, 160
-0.993401, 89, 221, 152, 252
-0.993402, 45, 249, 76, 280
-0.993403, 193, 101, 256, 132
-0.993403, 313, 241, 344, 272
-0.993405, 13, 181, 44, 212
-0.993406, 205, 137, 236, 168
-0.993413, 273, 125, 304, 156
-0.993414, 189, 141, 220, 172
-0.993418, 21, 209, 52, 240
-0.993421, 9, 97, 40, 128
-0.993422, 97, 177, 160, 208
-0.993424, 21, 197, 52, 228
-0.993435, 409, 181, 440, 212
-0.993439, 21, 97, 52, 128
-0.993441, 409, 93, 472, 124
-0.993441, 33, 197, 96, 228
-0.993443, 265, 113, 328, 144
-0.993444, 273, 101, 304, 132
-0.993444, 377, 193, 440, 320
-0.993445, 33, 189, 64, 220
-0.993447, 45, 185, 76, 216
-0.993448, 41, 221, 72, 252
-0.993453, 321, 145, 448, 208
-0.993454, 1, 109, 32, 140
-0.993456, 433, 177, 464, 208
-0.993464, 105, 125, 136, 156
-0.993464, 73, 145, 104, 208
-0.993464, 425, 81, 488, 112
-0.99347, 241, 129, 272, 160
-0.993476, 233, 137, 296, 168
-0.993479, 101, 173, 132, 204
-0.993485, 101, 113, 132, 144
-0.993485, 93, 125, 124, 156
-0.993486, 13, 133, 44, 164
-0.993489, 81, 245, 112, 276
-0.99349, 73, 149, 104, 180
-0.993491, 129, 97, 192, 128
-0.993494, 65, 197, 128, 228
-0.993495, 89, 125, 152, 156
-0.993503, 305, 133, 336, 164
-0.993504, 81, 217, 112, 280
-0.993511, 245, 101, 276, 132
-0.993511, 81, 225, 112, 256
-0.993515, 129, 153, 160, 184
-0.993516, 25, 221, 56, 252
-0.993518, 313, 217, 344, 248
-0.993523, 57, 245, 120, 276
-0.993533, 337, 233, 400, 264
-0.993534, 113, 141, 144, 172
-0.993537, 161, 117, 224, 148
-0.993538, 325, 237, 356, 268
-0.993538, 325, 129, 356, 160
-0.993539, 85, 213, 116, 244
-0.993542, 153, 145, 184, 176
-0.993545, 17, 169, 48, 200
-0.993559, 81, 101, 112, 132
-0.99356, 57, 173, 88, 204
-0.99356, 113, 169, 144, 200
-0.99357, 413, 161, 444, 288
-0.993574, 317, 205, 348, 236
-0.993582, 333, 249, 364, 280
-0.993586, 293, 133, 324, 164
-0.993596, 61, 245, 92, 276
-0.993596, 137, 153, 200, 184
-0.993597, 313, 229, 344, 260
-0.993599, 469, 25, 500, 56
-0.993607, 33, 245, 64, 276
-0.993607, 157, 121, 188, 152
-0.993612, 285, 121, 316, 152
-0.993616, 329, 177, 360, 208
-0.993617, 249, 89, 312, 120
-0.993618, 61, 125, 92, 156
-0.993618, 165, 105, 196, 136
-0.993619, 65, 185, 128, 216
-0.993622, 325, 117, 356, 148
-0.993628, 1, 137, 32, 168
-0.993629, 45, 197, 76, 228
-0.993631, 61, 221, 92, 252
-0.993634, 81, 125, 112, 156
-0.993637, 437, 93, 468, 124
-0.993638, 117, 181, 148, 212
-0.993641, 353, 129, 416, 192
-0.993641, 257, 101, 288, 132
-0.993641, 101, 213, 132, 244
-0.993644, 61, 209, 92, 240
-0.993645, 9, 201, 40, 232
-0.993645, 461, 93, 492, 124
-0.993647, 309, 97, 340, 128
-0.993648, 377, 213, 440, 244
-0.993648, 305, 241, 432, 304
-0.993654, 425, 193, 456, 224
-0.993656, 153, 89, 216, 120
-0.993657, 313, 85, 376, 116
-0.993658, 333, 97, 364, 128
-0.993662, 321, 193, 352, 224
-0.993662, 353, 129, 384, 160
-0.993668, 313, 117, 344, 148
-0.993671, 309, 253, 340, 284
-0.993673, 33, 97, 288, 160
-0.993673, 461, 121, 492, 152
-0.993676, 137, 105, 168, 136
-0.993678, 397, 233, 428, 264
-0.993679, 105, 97, 168, 128
-0.99368, 225, 89, 288, 120
-0.993682, 389, 173, 420, 204
-0.993682, 365, 129, 396, 160
-0.993682, 237, 141, 268, 172
-0.993683, 401, 81, 464, 112
-0.993684, 377, 185, 440, 216
-0.993685, 73, 173, 104, 204
-0.993686, 301, 233, 332, 264
-0.993689, 441, 125, 472, 156
-0.99369, 345, 261, 376, 292
-0.993691, 417, 157, 480, 188
-0.993696, 469, 81, 500, 208
-0.993698, 337, 253, 400, 284
-0.993698, 341, 129, 372, 160
-0.9937, 281, 137, 312, 168
-0.993748, 345, 265, 408, 296
-0.99375, 433, 93, 496, 124
-0.993752, 89, 89, 152, 152
-0.993752, 281, 205, 344, 236
-0.993757, 425, 193, 488, 224
-0.993759, 377, 161, 440, 192
-0.993763, 45, 193, 76, 320
-0.993784, 433, 113, 496, 144
-0.993789, 377, 81, 440, 112
-0.993793, 313, 257, 376, 320
-0.993794, 273, 217, 336, 248
-0.993794, 337, 81, 400, 112
-0.9938, 9, 253, 72, 284
-0.993804, 329, 205, 392, 236
-0.99381, 273, 249, 336, 280
-0.993829, 89, 209, 152, 240
-0.993833, 33, 89, 96, 120
-0.993838, 353, 217, 416, 248
-0.99384, 105, 1, 168, 375
-0.993857, 377, 33, 440, 288
-0.993872, 337, 185, 400, 216
-0.993875, 369, 233, 432, 264
-0.99389, 185, 89, 248, 120
-0.993906, 385, 117, 448, 148
-0.993912, 177, 97, 240, 352
-0.993914, 281, 85, 344, 116
-0.993921, 305, 65, 368, 320
-0.993925, 39, 113, 54, 176
-0.993937, 225, 129, 256, 192
-0.993947, 425, 9, 488, 40
-0.993973, 369, 197, 432, 228
-0.993979, 361, 117, 424, 148
-0.993979, 33, 257, 96, 288
-0.993982, 253, 65, 284, 192
-0.993986, 257, 217, 384, 280
-0.993987, 313, 25, 376, 56
-0.994019, 433, 185, 496, 248
-0.994074, 25, 217, 56, 280
-0.994105, 41, 233, 72, 296
-0.994115, 49, 193, 176, 256
-0.994162, 213, 97, 244, 160
-0.99417, 241, 73, 368, 136
-0.994248, 369, 153, 496, 216
-0.994267, 389, 161, 420, 288
-0.994277, 337, 1, 400, 375
-0.994298, 273, 1, 336, 375
-0.994308, 33, 1, 96, 375
-0.994316, 81, 1, 144, 375
-0.994343, 321, 49, 352, 176
-0.994348, 329, 145, 360, 272
-0.99443, 225, 73, 288, 136
-0.994451, 273, 225, 336, 288
-0.994457, 225, 97, 256, 160
-0.994466, 429, 185, 460, 248
-0.994467, 5, 49, 36, 176
-0.994507, 101, 201, 132, 264
-0.994541, 273, 169, 400, 232
-0.994562, 129, 81, 192, 144
-0.994631, 217, 33, 280, 160
-0.994643, 133, 145, 164, 208
-0.994647, 433, 1, 496, 64
-0.994673, 45, 81, 76, 144
-0.994681, 29, 113, 44, 176
-0.994683, 437, 81, 468, 208
-0.994817, 105, 129, 120, 192
-0.994821, 177, 129, 208, 256
-0.994847, 453, 89, 484, 152
-0.99489, 321, 177, 352, 240
-0.994897, 25, 209, 56, 336
-0.99495, 1, 137, 256, 200
-0.994959, 149, 113, 180, 240
-0.994971, 49, 241, 176, 368
-0.994988, 89, 49, 152, 176
-0.995029, 145, 105, 176, 168
-0.995093, 45, 113, 60, 176
-0.995108, 201, 33, 264, 288
-0.995121, 337, 57, 464, 120
-0.995127, 353, 233, 480, 296
-0.99516, 305, 49, 336, 176
-0.995166, 425, 1, 488, 375
-0.995184, 361, 153, 424, 216
-0.995197, 249, 73, 312, 136
-0.995216, 193, 97, 448, 160
-0.995241, 41, 137, 56, 200
-0.995262, 377, 1, 440, 375
-0.995271, 65, 49, 96, 176
-0.995284, 97, 1, 352, 128
-0.995299, 117, 177, 148, 240
-0.995318, 317, 145, 348, 272
-0.995356, 153, 137, 184, 200
-0.995397, 201, 97, 232, 160
-0.995414, 353, 89, 384, 152
-0.995418, 51, 113, 66, 176
-0.995465, 225, 193, 352, 256
-0.995466, 425, 89, 456, 152
-0.995468, 365, 177, 396, 304
-0.99547, 329, 193, 360, 320
-0.995493, 325, 121, 356, 184
-0.995517, 23, 105, 38, 168
-0.995527, 177, 73, 304, 136
-0.995527, 365, 129, 396, 256
-0.995538, 53, 185, 84, 248
-0.995545, 277, 33, 308, 160
-0.995546, 1, 17, 128, 144
-0.995554, 1, 97, 500, 160
-0.995611, 345, 241, 408, 304
-0.995621, 17, 161, 144, 192
-0.995636, 413, 89, 444, 152
-0.995643, 425, 161, 456, 288
-0.995656, 81, 89, 112, 152
-0.995679, 369, 1, 496, 64
-0.995679, 365, 89, 396, 152
-0.995722, 15, 113, 30, 176
-0.995731, 129, 1, 192, 375
-0.995736, 129, 33, 256, 160
-0.995743, 273, 33, 336, 288
-0.995765, 313, 65, 376, 128
-0.995774, 61, 193, 92, 320
-0.995775, 237, 129, 268, 192
-0.995787, 85, 161, 116, 224
-0.995788, 353, 177, 384, 304
-0.995837, 1, 113, 128, 144
-0.99584, 19, 137, 34, 200
-0.995868, 61, 233, 92, 296
-0.995883, 71, 113, 86, 176
-0.995902, 225, 145, 352, 208
-0.995923, 169, 1, 232, 375
-0.995923, 115, 153, 130, 216
-0.995957, 313, 121, 344, 184
-0.995968, 85, 193, 116, 320
-0.99597, 21, 81, 52, 144
-0.995997, 193, 129, 448, 192
-0.996009, 189, 137, 220, 200
-0.996016, 401, 1, 464, 375
-0.996023, 65, 241, 192, 304
-0.99603, 125, 145, 156, 272
-0.996043, 97, 137, 352, 200
-0.996053, 209, 129, 240, 192
-0.996082, 59, 113, 74, 176
-0.996098, 337, 49, 368, 176
-0.996102, 449, 81, 480, 208
-0.996104, 369, 225, 496, 352
-0.996126, 171, 121, 186, 184
-0.99614, 409, 129, 472, 375
-0.996173, 33, 241, 96, 368
-0.996187, 409, 145, 440, 208
-0.996199, 209, 129, 336, 160
-0.996205, 353, 201, 480, 264
-0.99623, 1, 145, 128, 176
-0.996238, 35, 137, 50, 200
-0.996251, 393, 225, 424, 288
-0.996274, 257, 241, 384, 304
-0.996279, 103, 105, 118, 168
-0.996304, 201, 129, 264, 256
-0.996352, 189, 97, 220, 160
-0.996363, 53, 233, 68, 296
-0.996376, 33, 173, 160, 204
-0.996378, 401, 89, 432, 152
-0.996386, 5, 113, 20, 176
-0.996414, 289, 57, 416, 120
-0.996431, 429, 161, 460, 224
-0.996453, 1, 137, 500, 200
-0.996461, 401, 33, 464, 288
-0.996461, 385, 217, 448, 280
-0.996469, 385, 89, 416, 152
-0.996482, 123, 153, 138, 216
-0.996485, 65, 113, 192, 144
-0.996505, 1, 101, 128, 132
-0.996508, 47, 137, 62, 200
-0.996508, 337, 33, 400, 288
-0.996511, 97, 209, 160, 272
-0.996531, 345, 185, 376, 248
-0.996544, 113, 1, 176, 256
-0.996546, 13, 193, 44, 256
-0.996565, 9, 241, 72, 368
-0.996606, 321, 1, 448, 64
-0.996611, 293, 33, 324, 160
-0.99665, 193, 73, 256, 136
-0.996656, 249, 1, 312, 375
-0.996666, 69, 185, 100, 248
-0.996672, 301, 217, 332, 280
-0.996684, 325, 233, 356, 296
-0.996695, 97, 153, 224, 184
-0.996703, 65, 113, 80, 176
-0.99674, 269, 97, 284, 160
-0.996747, 97, 193, 224, 256
-0.996756, 69, 89, 84, 152
-0.996763, 1, 145, 16, 208
-0.996773, 81, 185, 112, 248
-0.996785, 43, 89, 58, 152
-0.996785, 177, 121, 192, 184
-0.99681, 193, 1, 256, 375
-0.996818, 35, 89, 50, 152
-0.996822, 67, 153, 82, 216
-0.996826, 209, 177, 336, 304
-0.996829, 9, 209, 40, 336
-0.996842, 29, 137, 44, 200
-0.996843, 99, 145, 114, 208
-0.996862, 113, 65, 240, 128
-0.996867, 101, 177, 132, 240
-0.996875, 265, 129, 328, 375
-0.996894, 225, 1, 288, 375
-0.996908, 281, 97, 296, 160
-0.996977, 89, 1, 152, 256
-0.996989, 177, 141, 304, 172
-0.996997, 321, 173, 448, 204
-0.997001, 47, 233, 62, 296
-0.997077, 43, 209, 58, 272
-0.997109, 425, 177, 488, 304
-0.997112, 37, 161, 52, 224
-0.997132, 425, 169, 440, 232
-0.997133, 353, 257, 480, 320
-0.99714, 93, 113, 108, 176
-0.997143, 49, 89, 64, 152
-0.997177, 77, 113, 92, 176
-0.99718, 249, 121, 280, 184
-0.997192, 253, 73, 284, 136
-0.997231, 241, 33, 304, 288
-0.99725, 377, 145, 408, 272
-0.997275, 321, 97, 336, 160
-0.997315, 275, 97, 290, 160
-0.997317, 113, 161, 240, 288
-0.997318, 33, 161, 288, 224
-0.99732, 111, 129, 126, 192
-0.997334, 321, 193, 336, 256
-0.99734, 55, 209, 70, 272
-0.997352, 171, 97, 186, 160
-0.997366, 331, 97, 346, 160
-0.997382, 33, 65, 160, 128
-0.997387, 337, 97, 352, 160
-0.997393, 405, 169, 436, 232
-0.997416, 289, 129, 320, 192
-0.997426, 27, 117, 42, 148
-0.997433, 23, 169, 38, 232
-0.997434, 179, 97, 194, 160
-0.997441, 373, 185, 404, 248
-0.997466, 41, 141, 56, 172
-0.997473, 113, 105, 128, 168
-0.997476, 43, 185, 58, 248
-0.997478, 417, 65, 480, 128
-0.997485, 13, 145, 28, 208
-0.997492, 315, 241, 330, 304
-0.997497, 433, 169, 448, 232
-0.997506, 171, 125, 186, 156
-0.997514, 13, 97, 44, 352
-0.997522, 73, 137, 88, 200
-0.997525, 61, 89, 76, 152
-0.997526, 305, 193, 336, 320
-0.997545, 7, 137, 22, 200
-0.997546, 469, 89, 484, 152
-0.997552, 89, 225, 104, 288
-0.997566, 1, 161, 500, 224
-0.997579, 43, 117, 58, 148
-0.997581, 273, 265, 400, 328
-0.997584, 61, 153, 76, 216
-0.997587, 75, 89, 90, 152
-0.997593, 29, 89, 44, 152
-0.997594, 65, 41, 192, 104
-0.997596, 161, 49, 192, 176
-0.997603, 81, 241, 112, 304
-0.997606, 295, 97, 310, 160
-0.997609, 287, 97, 302, 160
-0.997613, 257, 177, 500, 240
-0.997613, 61, 65, 92, 320
-0.997614, 369, 177, 496, 208
-0.99763, 77, 49, 108, 176
-0.997631, 161, 121, 288, 152
-0.997645, 257, 121, 384, 152
-0.997649, 97, 129, 224, 160
-0.997651, 257, 97, 272, 160
-0.997655, 463, 89, 478, 152
-0.997668, 31, 161, 46, 224
-0.997676, 453, 89, 468, 152
-0.997677, 37, 117, 52, 148
-0.997681, 17, 169, 32, 232
-0.997682, 341, 145, 372, 272
-0.997684, 263, 97, 278, 160
-0.997692, 11, 89, 26, 152
-0.997703, 393, 209, 424, 336
-0.997706, 37, 201, 52, 264
-0.997717, 93, 137, 108, 200
-0.997732, 113, 177, 176, 240
-0.99774, 327, 121, 342, 184
-0.997742, 109, 153, 124, 216
-0.997748, 33, 65, 64, 320
-0.997748, 73, 113, 88, 144
-0.997768, 49, 145, 176, 176
-0.997775, 401, 145, 432, 272
-0.997787, 39, 129, 54, 160
-0.997793, 59, 117, 74, 148
-0.997797, 457, 113, 488, 176
-0.997801, 1, 125, 128, 156
-0.997816, 129, 153, 144, 216
-0.997833, 315, 217, 330, 280
-0.99784, 315, 97, 330, 160
-0.997849, 47, 161, 62, 224
-0.99785, 19, 81, 34, 144
-0.997852, 219, 97, 234, 160
-0.997869, 19, 105, 34, 136
-0.99787, 33, 249, 160, 280
-0.997886, 485, 89, 500, 152
-0.997887, 305, 145, 336, 272
-0.997894, 95, 217, 110, 280
-0.997895, 303, 97, 318, 160
-0.997902, 67, 117, 82, 148
-0.997903, 17, 213, 144, 244
-0.997905, 333, 177, 364, 240
-0.997909, 31, 185, 46, 248
-0.997909, 49, 209, 64, 272
-0.997913, 309, 97, 324, 160
-0.997923, 63, 233, 78, 296
-0.997925, 161, 105, 176, 168
-0.997933, 49, 117, 64, 148
-0.997941, 161, 105, 288, 136
-0.997945, 9, 105, 24, 136
-0.997949, 247, 97, 262, 160
-0.99795, 209, 217, 336, 280
-0.99795, 357, 169, 388, 232
-0.997951, 103, 129, 118, 160
-0.997952, 5, 149, 20, 180
-0.997968, 53, 161, 68, 224
-0.99797, 55, 89, 70, 152
-0.997975, 189, 137, 204, 200
-0.997985, 273, 133, 400, 164
-0.997997, 229, 97, 244, 160
-0.998004, 235, 97, 250, 160
-0.99801, 409, 121, 440, 184
-0.998015, 47, 233, 62, 264
-0.998017, 65, 101, 192, 132
-0.998017, 123, 177, 138, 240
-0.998019, 383, 89, 398, 152
-0.99802, 353, 125, 480, 156
-0.998022, 7, 161, 22, 224
-0.998032, 273, 249, 336, 312
-0.998035, 9, 249, 72, 312
-0.998038, 479, 89, 494, 152
-0.998042, 87, 105, 102, 168
-0.998044, 443, 89, 458, 152
-0.998067, 321, 217, 336, 280
-0.998069, 87, 201, 102, 264
-0.998071, 193, 129, 224, 256
-0.998086, 47, 153, 62, 184
-0.998088, 47, 101, 62, 132
-0.998093, 277, 121, 292, 184
-0.998095, 25, 65, 88, 128
-0.9981, 289, 177, 352, 240
-0.998101, 429, 121, 460, 184
-0.998108, 113, 105, 240, 136
-0.99811, 13, 117, 28, 148
-0.99811, 53, 185, 68, 248
-0.998112, 213, 97, 228, 160
-0.998118, 69, 81, 100, 144
-0.99812, 161, 137, 176, 200
-0.998121, 129, 141, 256, 172
-0.998123, 145, 153, 272, 216
-0.998126, 33, 105, 48, 136
-0.998128, 345, 1, 408, 64
-0.998132, 395, 89, 410, 152
-0.998136, 305, 221, 432, 252
-0.998137, 393, 169, 424, 232
-0.998138, 41, 233, 56, 296
-0.998138, 239, 129, 254, 192
-0.998147, 67, 105, 82, 136
-0.998153, 213, 129, 228, 192
-0.998156, 385, 129, 448, 375
-0.998158, 53, 233, 68, 264
-0.998166, 273, 73, 304, 136
-0.998171, 437, 89, 452, 152
-0.998173, 225, 169, 352, 232
-0.998175, 41, 153, 56, 184
-0.998177, 79, 113, 94, 144
-0.998177, 469, 33, 500, 160
-0.998182, 345, 129, 376, 192
-0.998183, 87, 145, 102, 208
-0.998185, 265, 33, 296, 160
-0.998186, 337, 153, 400, 216
-0.998187, 17, 185, 144, 216
-0.998188, 33, 73, 288, 136
-0.998189, 103, 145, 118, 176
-0.99819, 381, 33, 412, 160
-0.998195, 117, 129, 132, 192
-0.998196, 49, 97, 80, 352
-0.998201, 15, 149, 30, 180
-0.998204, 27, 129, 42, 160
-0.998218, 337, 241, 368, 304
-0.998223, 227, 129, 242, 192
-0.998224, 177, 129, 192, 160
-0.998225, 81, 153, 96, 216
-0.998233, 267, 73, 282, 136
-0.99824, 207, 97, 222, 160
-0.998244, 321, 185, 448, 216
-0.998247, 13, 135, 44, 150
-0.998247, 49, 127, 80, 142
-0.998248, 81, 241, 112, 256
-0.99825, 21, 117, 36, 148
-0.99825, 45, 187, 76, 202
-0.998251, 117, 167, 148, 182
-0.998251, 341, 133, 372, 148
-0.998251, 253, 103, 284, 118
-0.998251, 37, 167, 68, 182
-0.998252, 325, 239, 356, 254
-0.998252, 13, 179, 44, 194
-0.998253, 417, 167, 448, 182
-0.998253, 115, 157, 130, 188
-0.998256, 65, 145, 96, 160
-0.998258, 49, 165, 80, 180
-0.998258, 9, 205, 40, 220
-0.998259, 41, 221, 72, 236
-0.99826, 5, 147, 36, 162
-0.99826, 329, 177, 360, 192
-0.998261, 63, 185, 78, 248
-0.998264, 429, 193, 460, 208
-0.998264, 113, 173, 144, 188
-0.998265, 65, 133, 96, 148
-0.998267, 245, 141, 276, 156
-0.998267, 57, 101, 72, 132
-0.998268, 313, 233, 344, 248
-0.998268, 61, 237, 92, 252
-0.998271, 33, 197, 64, 212
-0.998271, 343, 97, 358, 160
-0.998272, 13, 185, 44, 200
-0.998274, 149, 65, 180, 192
-0.998274, 305, 135, 336, 150
-0.998274, 437, 185, 468, 200
-0.998274, 469, 25, 500, 40
-0.998275, 73, 65, 104, 320
-0.998275, 21, 221, 52, 236
-0.998275, 57, 171, 88, 186
-0.998275, 113, 153, 144, 168
-0.998277, 81, 171, 112, 186
-0.998277, 21, 211, 52, 226
-0.998278, 153, 149, 184, 164
-0.998278, 105, 165, 136, 180
-0.998279, 101, 173, 132, 188
-0.998279, 1, 65, 32, 320
-0.998279, 65, 155, 96, 170
-0.99828, 101, 141, 132, 156
-0.99828, 37, 109, 68, 124
-0.998281, 33, 207, 64, 222
-0.998281, 45, 175, 76, 190
-0.998281, 1, 41, 128, 104
-0.998281, 81, 247, 112, 262
-0.998281, 41, 99, 72, 114
-0.998281, 21, 203, 52, 218
-0.998281, 181, 135, 212, 150
-0.998282, 85, 227, 116, 242
-0.998283, 73, 101, 88, 132
-0.998283, 149, 139, 180, 154
-0.998284, 61, 247, 92, 262
-0.998285, 409, 201, 472, 264
-0.998285, 125, 155, 156, 170
-0.998286, 313, 243, 344, 258
-0.998286, 325, 133, 356, 148
-0.998286, 41, 229, 72, 244
-0.998287, 81, 129, 112, 144
-0.998287, 81, 109, 112, 124
-0.998288, 185, 97, 200, 160
-0.998288, 241, 133, 272, 148
-0.998289, 13, 103, 44, 118
-0.99829, 33, 191, 64, 206
-0.998292, 53, 99, 84, 114
-0.998292, 65, 105, 96, 120
-0.998292, 409, 179, 440, 194
-0.998292, 101, 209, 116, 272
-0.998293, 281, 135, 312, 150
-0.998293, 65, 99, 96, 114
-0.998296, 253, 135, 284, 150
-0.998297, 413, 185, 444, 200
-0.998297, 47, 141, 62, 172
-0.998297, 277, 129, 308, 144
-0.998299, 81, 89, 96, 152
-0.9983, 177, 147, 208, 162
-0.9983, 1, 165, 32, 180
-0.998301, 349, 33, 380, 160
-0.998303, 161, 129, 192, 144
-0.998304, 97, 147, 128, 162
-0.998306, 9, 73, 40, 136
-0.998307, 61, 127, 92, 142
-0.998307, 225, 139, 256, 154
-0.998308, 105, 127, 136, 142
-0.998308, 33, 177, 64, 192
-0.99831, 45, 253, 76, 268
-0.998313, 41, 241, 72, 256
-0.998316, 33, 127, 64, 142
-0.998317, 93, 127, 124, 142
-0.998318, 205, 139, 236, 154
-0.99832, 261, 121, 292, 136
-0.998321, 405, 173, 436, 188
-0.998321, 49, 105, 80, 120
-0.998321, 93, 135, 124, 150
-0.998321, 369, 189, 496, 220
-0.998323, 45, 149, 76, 164
-0.998324, 61, 163, 92, 178
-0.998328, 45, 247, 76, 262
-0.998328, 19, 137, 34, 168
-0.99833, 189, 143, 220, 158
-0.99833, 37, 155, 68, 170
-0.998332, 77, 115, 108, 130
-0.998333, 45, 139, 76, 154
-0.998334, 41, 235, 72, 250
-0.998334, 353, 25, 480, 88
-0.998335, 33, 185, 64, 200
-0.998343, 273, 145, 400, 208
-0.998343, 25, 109, 56, 124
-0.998343, 25, 101, 56, 116
-0.998346, 265, 133, 296, 148
-0.998346, 25, 135, 56, 150
-0.998346, 85, 161, 116, 176
-0.998347, 53, 155, 84, 170
-0.998347, 177, 141, 208, 156
-0.998348, 431, 89, 446, 152
-0.998349, 101, 157, 116, 188
-0.99835, 425, 179, 456, 194
-0.998352, 417, 173, 448, 188
-0.998353, 97, 153, 128, 168
-0.998356, 135, 145, 150, 208
-0.998358, 73, 163, 104, 178
-0.998358, 165, 135, 196, 150
-0.998358, 5, 109, 36, 124
-0.998358, 327, 193, 342, 256
-0.998359, 309, 241, 340, 368
-0.998364, 425, 185, 456, 200
-0.998364, 353, 89, 368, 152
-0.998365, 359, 89, 374, 152
-0.998366, 17, 127, 48, 142
-0.998368, 371, 89, 386, 152
-0.998369, 459, 113, 474, 176
-0.998369, 93, 167, 124, 182
-0.998369, 17, 143, 48, 158
-0.998371, 29, 149, 60, 164
-0.998373, 1, 159, 32, 174
-0.998376, 261, 127, 292, 142
-0.998377, 241, 97, 256, 160
-0.998378, 37, 161, 68, 176
-0.998382, 37, 115, 68, 130
-0.998386, 29, 143, 60, 158
-0.998388, 45, 133, 76, 148
-0.998389, 105, 159, 136, 174
-0.99839, 359, 185, 374, 248
-0.99839, 93, 229, 108, 260
-0.998393, 65, 149, 80, 180
-0.998396, 169, 137, 184, 168
-0.998399, 49, 245, 64, 276
-0.998401, 165, 149, 196, 164
-0.998409, 5, 123, 36, 138
-0.998411, 29, 121, 60, 136
-0.998411, 5, 153, 36, 168
-0.998412, 61, 119, 92, 134
-0.998418, 55, 245, 70, 276
-0.998419, 17, 157, 48, 172
-0.998422, 17, 149, 48, 164
-0.998426, 61, 111, 92, 126
-0.998429, 49, 113, 80, 128
-0.99843, 165, 141, 196, 156
-0.99844, 71, 149, 86, 180
-0.998442, 41, 105, 56, 136
-0.998443, 153, 73, 216, 136
-0.998445, 25, 115, 56, 130
-0.998448, 41, 121, 72, 136
-0.998459, 75, 161, 90, 192
-0.998462, 225, 101, 352, 132
-0.998469, 9, 115, 40, 130
-0.998476, 109, 145, 124, 176
-0.998477, 5, 161, 20, 192
-0.998479, 429, 33, 460, 160
-0.998489, 161, 65, 416, 128
-0.998492, 277, 125, 292, 156
-0.998499, 17, 121, 48, 136
-0.998504, 121, 157, 136, 188
-0.998517, 425, 169, 440, 200
-0.99852, 29, 141, 44, 172
-0.998526, 337, 93, 464, 124
-0.998526, 409, 33, 440, 160
-0.998534, 99, 113, 114, 144
-0.998537, 1, 185, 500, 248
-0.998544, 437, 177, 452, 208
-0.998549, 329, 201, 360, 264
-0.998549, 87, 113, 102, 144
-0.99855, 1, 197, 128, 228
-0.998553, 85, 161, 100, 192
-0.998553, 445, 113, 476, 176
-0.998554, 33, 111, 96, 126
-0.998556, 33, 119, 96, 134
-0.998559, 53, 161, 68, 192
-0.99856, 305, 233, 432, 264
-0.99856, 107, 157, 122, 188
-0.998561, 33, 129, 48, 160
-0.998563, 9, 113, 72, 128
-0.998574, 9, 145, 72, 160
-0.998579, 1, 157, 64, 172
-0.998582, 101, 193, 132, 320
-0.998585, 23, 149, 38, 180
-0.998587, 365, 33, 396, 160
-0.998591, 63, 129, 78, 160
-0.998593, 95, 161, 110, 192
-0.998594, 161, 135, 224, 150
-0.998596, 9, 119, 72, 134
-0.998599, 9, 151, 72, 166
-0.998599, 7, 117, 22, 148
-0.998605, 95, 145, 110, 176
-0.998612, 273, 1, 400, 64
-0.998615, 33, 105, 96, 120
-0.998616, 113, 113, 128, 144
-0.998616, 137, 139, 200, 154
-0.998616, 57, 115, 120, 130
-0.998617, 1, 117, 16, 148
-0.998619, 169, 141, 232, 156
-0.998621, 1, 209, 256, 272
-0.998622, 33, 157, 96, 172
-0.998622, 249, 131, 312, 146
-0.998622, 79, 101, 94, 132
-0.998626, 41, 163, 104, 178
-0.998626, 65, 161, 128, 176
-0.998633, 9, 107, 72, 122
-0.998634, 65, 169, 128, 184
-0.998636, 49, 235, 112, 250
-0.998644, 177, 33, 240, 160
-0.998645, 153, 149, 216, 164
-0.998649, 289, 209, 416, 240
-0.99865, 33, 151, 96, 166
-0.99865, 331, 117, 346, 148
-0.998651, 33, 241, 96, 256
-0.998653, 69, 161, 84, 192
-0.998654, 1, 169, 64, 184
-0.998659, 87, 229, 102, 260
-0.998659, 9, 137, 72, 152
-0.998659, 9, 101, 72, 116
-0.99866, 267, 113, 282, 144
-0.998662, 89, 167, 152, 182
-0.998664, 65, 129, 128, 144
-0.998666, 393, 183, 456, 198
-0.998666, 193, 139, 256, 154
-0.998667, 65, 155, 128, 170
-0.998668, 27, 105, 42, 136
-0.99867, 105, 157, 168, 172
-0.998673, 33, 229, 96, 244
-0.998673, 1, 163, 64, 178
-0.998674, 1, 183, 64, 198
-0.998675, 313, 133, 376, 148
-0.998678, 273, 125, 336, 140
-0.998679, 33, 145, 96, 160
-0.998679, 81, 113, 144, 128
-0.99868, 33, 247, 96, 262
-0.998681, 41, 173, 104, 188
-0.998685, 41, 131, 104, 146
-0.998686, 417, 179, 480, 194
-0.998686, 273, 135, 336, 150
-0.998688, 9, 213, 72, 228
-0.99869, 273, 97, 400, 128
-0.998691, 385, 177, 448, 192
-0.998691, 409, 171, 472, 186
-0.998692, 161, 129, 224, 144
-0.998694, 9, 131, 72, 146
-0.998696, 1, 177, 64, 192
-0.998696, 249, 137, 312, 152
-0.998698, 9, 125, 72, 140
-0.998698, 417, 185, 480, 200
-0.9987, 217, 135, 280, 150
-0.998702, 189, 141, 204, 172
-0.998702, 257, 73, 500, 136
-0.998703, 249, 125, 312, 140
-0.998703, 305, 117, 432, 148
-0.998704, 33, 99, 96, 114
-0.998704, 25, 185, 88, 200
-0.998707, 49, 133, 176, 164
-0.998707, 315, 249, 330, 280
-0.998708, 89, 151, 152, 166
-0.998709, 313, 127, 376, 142
-0.998709, 393, 189, 456, 204
-0.998709, 1, 201, 64, 216
-0.998709, 41, 137, 104, 152
-0.99871, 9, 207, 72, 222
-0.998711, 25, 199, 88, 214
-0.998714, 89, 173, 152, 188
-0.998715, 47, 165, 62, 196
-0.998716, 97, 169, 224, 200
-0.998716, 57, 109, 120, 124
-0.998717, 73, 231, 136, 246
-0.998717, 177, 147, 240, 162
-0.998717, 33, 215, 96, 230
-0.998719, 1, 221, 64, 236
-0.99872, 33, 223, 96, 238
-0.998721, 345, 131, 408, 146
-0.998722, 25, 191, 88, 206
-0.998722, 121, 123, 184, 138
-0.998723, 321, 177, 384, 192
-0.998724, 89, 127, 152, 142
-0.998724, 297, 251, 360, 266
-0.998725, 1, 195, 64, 210
-0.998726, 305, 229, 368, 244
-0.998726, 305, 241, 368, 256
-0.998727, 121, 133, 184, 148
-0.998727, 425, 127, 488, 142
-0.998727, 393, 129, 456, 144
-0.998728, 1, 225, 128, 256
-0.998728, 33, 209, 96, 224
-0.998729, 129, 153, 192, 168
-0.99873, 57, 103, 120, 118
-0.998731, 57, 221, 120, 236
-0.998732, 25, 179, 88, 194
-0.998732, 217, 141, 280, 156
-0.998733, 377, 171, 440, 186
-0.998733, 45, 177, 60, 208
-0.998734, 185, 105, 248, 120
-0.998734, 33, 253, 96, 268
-0.998735, 353, 113, 480, 144
-0.998736, 369, 131, 432, 146
-0.998736, 9, 247, 72, 262
-0.998737, 129, 145, 192, 160
-0.998738, 233, 119, 296, 134
-0.998739, 305, 235, 368, 250
-0.998739, 105, 145, 168, 160
-0.998739, 9, 241, 72, 256
-0.998739, 1, 189, 64, 204
-0.998739, 297, 261, 360, 276
-0.99874, 273, 119, 336, 134
-0.998742, 105, 113, 168, 128
-0.998742, 225, 129, 288, 144
-0.998742, 433, 25, 496, 40
-0.998743, 65, 175, 128, 190
-0.998744, 25, 235, 88, 250
-0.998745, 313, 209, 376, 224
-0.998745, 97, 179, 160, 194
-0.998745, 105, 113, 120, 144
-0.998746, 35, 145, 50, 176
-0.998746, 321, 99, 384, 114
-0.998747, 57, 215, 120, 230
-0.998748, 425, 191, 488, 206
-0.998748, 241, 103, 304, 118
-0.998751, 153, 105, 216, 120
-0.998752, 281, 101, 344, 116
-0.998752, 353, 97, 416, 112
-0.998752, 329, 235, 392, 250
-0.998753, 305, 215, 368, 230
-0.998755, 57, 241, 120, 256
-0.998757, 209, 105, 272, 120
-0.998757, 313, 267, 376, 282
-0.998758, 361, 177, 424, 192
-0.998758, 313, 223, 376, 238
-0.998759, 121, 107, 184, 122
-0.998759, 89, 133, 152, 148
-0.998759, 65, 137, 128, 152
-0.99876, 81, 107, 144, 122
-0.99876, 89, 139, 152, 154
-0.998761, 65, 149, 128, 164
-0.998762, 57, 121, 120, 136
-0.998763, 409, 95, 472, 110
-0.998767, 51, 129, 66, 160
-0.998767, 431, 173, 446, 204
-0.998771, 369, 81, 496, 112
-0.998772, 321, 161, 448, 192
-0.998774, 39, 165, 54, 196
-0.998776, 255, 129, 270, 160
-0.998776, 331, 129, 346, 160
-0.998781, 61, 161, 76, 192
-0.998789, 257, 201, 500, 264
-0.99879, 93, 113, 108, 144
-0.998802, 13, 137, 28, 168
-0.998802, 361, 193, 392, 256
-0.998815, 53, 221, 68, 252
-0.998817, 401, 193, 432, 256
-0.99882, 43, 209, 58, 240
-0.998821, 419, 169, 434, 200
-0.998823, 63, 233, 78, 264
-0.99883, 127, 165, 142, 196
-0.998836, 425, 181, 440, 212
-0.998845, 271, 101, 286, 132
-0.998847, 227, 137, 242, 168
-0.998856, 219, 137, 234, 168
-0.998858, 43, 245, 58, 276
-0.998859, 3, 105, 18, 136
-0.99886, 213, 137, 228, 168
-0.998861, 115, 145, 130, 176
-0.998863, 287, 133, 302, 164
-0.998864, 69, 129, 84, 160
-0.998864, 37, 181, 52, 212
-0.998866, 301, 129, 332, 192
-0.998868, 13, 161, 28, 192
-0.998868, 225, 129, 288, 256
-0.998871, 1, 185, 256, 248
-0.998877, 325, 113, 340, 144
-0.998892, 179, 141, 194, 172
-0.998895, 259, 101, 274, 132
-0.998897, 317, 229, 332, 260
-0.998898, 199, 141, 214, 172
-0.998899, 193, 225, 448, 288
-0.9989, 33, 161, 48, 192
-0.998908, 369, 165, 496, 196
-0.998909, 183, 129, 198, 160
-0.99891, 93, 217, 108, 248
-0.998912, 57, 173, 72, 204
-0.998914, 97, 185, 352, 248
-0.998917, 35, 197, 50, 228
-0.998922, 29, 113, 44, 240
-0.998924, 19, 129, 34, 256
-0.998927, 349, 225, 380, 288
-0.99893, 341, 193, 372, 320
-0.998933, 43, 221, 58, 252
-0.998934, 85, 101, 100, 132
-0.998936, 17, 237, 144, 268
-0.998941, 261, 125, 276, 156
-0.998943, 459, 113, 474, 144
-0.998945, 289, 85, 416, 116
-0.998946, 93, 125, 108, 156
-0.998949, 325, 181, 340, 212
-0.99895, 393, 57, 456, 120
-0.998953, 101, 97, 132, 352
-0.998955, 393, 33, 424, 160
-0.998959, 165, 117, 180, 148
-0.99896, 99, 225, 114, 256
-0.998968, 113, 169, 128, 200
-0.99897, 161, 133, 176, 164
-0.998974, 113, 93, 240, 124
-0.998974, 457, 33, 488, 160
-0.998979, 163, 145, 178, 176
-0.998985, 93, 241, 108, 272
-0.998987, 237, 137, 252, 168
-0.998988, 29, 209, 44, 240
-0.998988, 87, 217, 102, 248
-0.998989, 167, 105, 182, 136
-0.998991, 13, 1, 44, 256
-0.998993, 433, 189, 448, 220
-0.998993, 325, 193, 340, 224
-0.998994, 311, 133, 326, 164
-0.998994, 81, 225, 96, 256
-0.998996, 369, 21, 496, 52
-0.999001, 431, 161, 446, 192
-0.999034, 209, 25, 336, 88
-0.999035, 73, 97, 88, 224
-0.999043, 353, 129, 416, 375
-0.999046, 129, 121, 160, 184
-0.999048, 5, 97, 20, 224
-0.999049, 345, 65, 408, 128
-0.999063, 45, 241, 76, 368
-0.999076, 193, 89, 320, 120
-0.999096, 81, 181, 208, 212
-0.999103, 101, 225, 132, 288
-0.999111, 45, 97, 60, 224
-0.999116, 13, 97, 28, 224
-0.999118, 1, 241, 256, 368
-0.999127, 55, 97, 70, 224
-0.999128, 457, 65, 488, 128
-0.999149, 241, 85, 368, 116
-0.999156, 67, 97, 82, 224
-0.999184, 65, 237, 192, 268
-0.999192, 121, 65, 152, 320
-0.999201, 45, 145, 60, 272
-0.999201, 117, 97, 132, 224
-0.999204, 85, 129, 116, 375
-0.999206, 23, 81, 38, 208
-0.999219, 305, 245, 432, 276
-0.999237, 123, 97, 138, 224
-0.999243, 321, 177, 336, 304
-0.999247, 39, 97, 54, 224
-0.99925, 273, 181, 400, 212
-0.999252, 51, 145, 66, 272
-0.999257, 29, 161, 44, 288
-0.99927, 65, 205, 192, 236
-0.999271, 301, 241, 332, 304
-0.999284, 33, 89, 160, 120
-0.999286, 105, 97, 120, 224
-0.99929, 241, 49, 368, 112
-0.999298, 79, 97, 94, 224
-0.9993, 35, 145, 50, 272
-0.999309, 61, 97, 76, 224
-0.999312, 289, 197, 416, 228
-0.999324, 321, 257, 448, 288
-0.99933, 257, 237, 384, 268
-0.999332, 93, 97, 108, 224
-0.999356, 225, 225, 352, 256
-0.999359, 65, 225, 192, 256
-0.999365, 133, 97, 148, 224
-0.999384, 183, 81, 198, 208
-0.999389, 293, 177, 324, 304
-0.999391, 381, 161, 412, 224
-0.999394, 327, 113, 342, 240
-0.999395, 369, 65, 432, 128
-0.999399, 111, 129, 126, 256
-0.999403, 369, 161, 400, 224
-0.999406, 321, 97, 336, 224
-0.999407, 241, 205, 368, 236
-0.999411, 353, 233, 480, 264
-0.999417, 337, 265, 400, 328
-0.999423, 337, 97, 352, 224
-0.999431, 13, 145, 28, 272
-0.999433, 99, 129, 114, 256
-0.999435, 85, 97, 100, 224
-0.999437, 281, 81, 296, 208
-0.999444, 89, 145, 104, 272
-0.999461, 43, 193, 58, 320
-0.999462, 383, 97, 398, 224
-0.99947, 353, 9, 480, 40
-0.99947, 293, 81, 308, 208
-0.999476, 417, 81, 432, 208
-0.999479, 189, 97, 204, 224
-0.99948, 371, 97, 386, 224
-0.999488, 71, 149, 86, 164
-0.999488, 199, 143, 214, 158
-0.999489, 331, 65, 346, 192
-0.99949, 81, 65, 144, 128
-0.99949, 343, 65, 358, 192
-0.999491, 51, 131, 66, 146
-0.999491, 127, 155, 142, 170
-0.999491, 133, 65, 164, 320
-0.999492, 49, 153, 64, 168
-0.999492, 83, 231, 98, 246
-0.999492, 317, 243, 332, 258
-0.999492, 123, 145, 138, 272
-0.999493, 37, 153, 52, 168
-0.999493, 119, 157, 134, 172
-0.999494, 225, 139, 240, 154
-0.999494, 427, 185, 442, 200
-0.999494, 77, 163, 92, 178
-0.999494, 67, 145, 82, 272
-0.999495, 45, 177, 60, 192
-0.999496, 163, 149, 178, 164
-0.999496, 315, 97, 330, 224
-0.999496, 433, 177, 448, 192
-0.999496, 267, 131, 282, 146
-0.999497, 109, 149, 124, 164
-0.999497, 177, 147, 192, 162
-0.999498, 97, 131, 112, 146
-0.999499, 361, 97, 376, 224
-0.999499, 173, 123, 188, 138
-0.9995, 63, 237, 78, 252
-0.9995, 33, 65, 48, 192
-0.9995, 19, 137, 34, 152
-0.9995, 317, 33, 348, 288
-0.999501, 391, 81, 406, 208
-0.999501, 419, 173, 434, 188
-0.999502, 47, 121, 62, 136
-0.999502, 43, 229, 58, 244
-0.999503, 65, 157, 80, 172
-0.999504, 257, 131, 272, 146
-0.999504, 69, 135, 84, 150
-0.999505, 97, 167, 112, 182
-0.999505, 51, 209, 66, 336
-0.999506, 87, 113, 102, 128
-0.999506, 79, 109, 94, 124
-0.999506, 89, 239, 104, 254
-0.999508, 307, 81, 322, 208
-0.999508, 53, 161, 68, 176
-0.999508, 217, 139, 232, 154
-0.999508, 351, 81, 366, 208
-0.999508, 71, 99, 86, 114
-0.999509, 331, 131, 346, 146
-0.999509, 43, 131, 58, 146
-0.99951, 57, 145, 72, 272
-0.99951, 31, 153, 46, 168
-0.999511, 287, 131, 302, 146
-0.999511, 49, 137, 64, 152
-0.999511, 97, 1, 128, 256
-0.999511, 409, 33, 440, 288
-0.999512, 95, 161, 110, 176
-0.999512, 397, 81, 412, 208
-0.999512, 51, 175, 66, 190
-0.999512, 225, 141, 352, 172
-0.999515, 407, 81, 422, 208
-0.999515, 65, 151, 80, 166
-0.999516, 181, 135, 196, 150
-0.999516, 65, 145, 80, 160
-0.999518, 63, 135, 78, 150
-0.999518, 423, 81, 438, 208
-0.999519, 89, 227, 104, 242
-0.99952, 35, 105, 50, 120
-0.999521, 89, 161, 104, 176
-0.999521, 71, 107, 86, 122
-0.999522, 97, 151, 112, 166
-0.999522, 195, 81, 210, 208
-0.999523, 211, 139, 226, 154
-0.999524, 145, 25, 272, 88
-0.999524, 49, 255, 64, 270
-0.999524, 181, 65, 212, 320
-0.999525, 109, 127, 124, 142
-0.999525, 429, 81, 444, 208
-0.999526, 301, 81, 316, 208
-0.999527, 167, 123, 182, 138
-0.999527, 71, 155, 86, 170
-0.999527, 103, 125, 118, 140
-0.999528, 29, 147, 44, 162
-0.999528, 139, 97, 154, 224
-0.999528, 21, 125, 36, 140
-0.99953, 61, 103, 76, 118
-0.99953, 7, 121, 22, 136
-0.999532, 287, 81, 302, 208
-0.999532, 445, 33, 476, 160
-0.999532, 103, 163, 118, 178
-0.999533, 47, 147, 62, 162
-0.999533, 61, 165, 76, 180
-0.999533, 317, 225, 332, 352
-0.999533, 177, 129, 192, 144
-0.999536, 27, 127, 42, 142
-0.999537, 21, 155, 36, 170
-0.999537, 81, 145, 96, 272
-0.999538, 377, 81, 392, 208
-0.999539, 9, 159, 24, 174
-0.99954, 435, 81, 450, 208
-0.99954, 277, 129, 292, 144
-0.999541, 113, 159, 128, 174
-0.999541, 117, 145, 132, 272
-0.999541, 53, 233, 68, 248
-0.999542, 173, 81, 188, 208
-0.999544, 47, 241, 62, 256
-0.999544, 189, 143, 204, 158
-0.999545, 21, 105, 36, 120
-0.999546, 71, 163, 86, 178
-0.999548, 55, 255, 70, 270
-0.999548, 103, 139, 118, 154
-0.999548, 79, 115, 94, 130
-0.999549, 51, 115, 66, 130
-0.99955, 19, 143, 34, 158
-0.99955, 485, 81, 500, 208
-0.999551, 349, 257, 380, 320
-0.999553, 425, 171, 440, 186
-0.999554, 203, 81, 218, 208
-0.999554, 47, 103, 62, 118
-0.999555, 69, 129, 84, 144
-0.999555, 433, 33, 464, 288
-0.999556, 37, 127, 52, 142
-0.99956, 41, 159, 56, 174
-0.999562, 39, 115, 54, 130
-0.999562, 31, 113, 46, 128
-0.999562, 93, 233, 108, 248
-0.999562, 9, 107, 24, 122
-0.999563, 437, 183, 452, 198
-0.999563, 107, 155, 122, 170
-0.999563, 27, 133, 42, 148
-0.999564, 73, 145, 88, 272
-0.999564, 225, 81, 240, 208
-0.999566, 327, 177, 342, 304
-0.999567, 73, 113, 88, 128
-0.999568, 57, 111, 72, 126
-0.999569, 47, 159, 62, 174
-0.999569, 29, 141, 44, 156
-0.99957, 1, 153, 16, 168
-0.999571, 33, 121, 48, 136
-0.999571, 15, 155, 30, 170
-0.999571, 63, 119, 78, 134
-0.999573, 17, 49, 144, 80
-0.999573, 101, 157, 116, 172
-0.999574, 55, 249, 70, 264
-0.999574, 57, 193, 72, 320
-0.999577, 255, 81, 270, 208
-0.999578, 37, 193, 52, 320
-0.99958, 257, 153, 500, 216
-0.99958, 45, 113, 60, 128
-0.999581, 53, 239, 68, 254
-0.999583, 47, 235, 62, 250
-0.999583, 215, 81, 230, 208
-0.999584, 63, 129, 78, 144
-0.999584, 9, 153, 24, 168
-0.999585, 479, 81, 494, 208
-0.999588, 193, 33, 224, 288
-0.999588, 21, 119, 36, 134
-0.999588, 409, 177, 424, 304
-0.999588, 19, 113, 34, 128
-0.999589, 3, 161, 18, 176
-0.999589, 169, 145, 184, 160
-0.99959, 179, 141, 194, 156
-0.99959, 63, 49, 78, 176
-0.999591, 1, 117, 16, 132
-0.999591, 169, 135, 184, 150
-0.999591, 237, 81, 252, 208
-0.999592, 269, 65, 284, 192
-0.999592, 145, 97, 160, 224
-0.999593, 49, 249, 64, 264
-0.999594, 247, 81, 262, 208
-0.999595, 73, 49, 88, 176
-0.999598, 67, 113, 82, 128
-0.9996, 19, 149, 34, 164
-0.9996, 337, 205, 464, 236
-0.999604, 41, 121, 56, 136
-0.999604, 241, 37, 368, 68
-0.999605, 319, 49, 334, 176
-0.999605, 111, 81, 126, 208
-0.999607, 151, 97, 166, 224
-0.999607, 343, 113, 358, 240
-0.999608, 13, 117, 28, 132
-0.999608, 275, 81, 290, 208
-0.999609, 43, 49, 58, 176
-0.999609, 103, 145, 118, 160
-0.999609, 103, 131, 118, 146
-0.999611, 93, 193, 108, 320
-0.999613, 43, 153, 58, 168
-0.999615, 13, 123, 28, 138
-0.999616, 443, 65, 458, 192
-0.999616, 99, 81, 114, 208
-0.999617, 37, 133, 52, 148
-0.999617, 57, 119, 72, 134
-0.999621, 417, 145, 432, 272
-0.999623, 441, 169, 472, 232
-0.999624, 209, 81, 224, 208
-0.999625, 409, 217, 440, 280
-0.999628, 13, 49, 28, 176
-0.999628, 51, 49, 66, 176
-0.99963, 71, 119, 86, 134
-0.999634, 471, 81, 486, 208
-0.999637, 313, 49, 328, 176
-0.999642, 337, 49, 352, 176
-0.999643, 23, 177, 38, 304
-0.999643, 5, 145, 20, 272
-0.999643, 429, 145, 444, 272
-0.999644, 417, 129, 448, 375
-0.999645, 179, 129, 194, 256
-0.999646, 17, 261, 144, 292
-0.999646, 159, 113, 174, 240
-0.999647, 177, 1, 240, 256
-0.99965, 171, 129, 186, 144
-0.999651, 41, 145, 56, 160
-0.999652, 469, 17, 500, 80
-0.999653, 231, 81, 246, 208
-0.999654, 99, 177, 114, 304
-0.999655, 39, 139, 54, 154
-0.999661, 57, 49, 72, 176
-0.999664, 97, 81, 128, 144
-0.999664, 333, 145, 348, 272
-0.999666, 45, 1, 76, 256
-0.999666, 453, 65, 468, 192
-0.999671, 29, 241, 60, 304
-0.999671, 405, 129, 420, 256
-0.999672, 285, 33, 300, 160
-0.999674, 325, 33, 340, 160
-0.999674, 463, 81, 478, 208
-0.999676, 315, 177, 330, 304
-0.999679, 391, 161, 406, 288
-0.99968, 205, 33, 236, 288
-0.999681, 27, 121, 42, 136
-0.999681, 333, 33, 364, 288
-0.999682, 371, 145, 386, 272
-0.99969, 363, 177, 378, 304
-0.999691, 129, 145, 144, 272
-0.999694, 225, 1, 352, 64
-0.999696, 105, 145, 120, 272
-0.999698, 221, 33, 252, 288
-0.999699, 381, 177, 396, 304
-0.9997, 63, 193, 78, 320
-0.9997, 1, 49, 16, 176
-0.999704, 193, 257, 448, 320
-0.999706, 261, 65, 276, 192
-0.999712, 65, 193, 192, 224
-0.999712, 353, 177, 368, 304
-0.999715, 307, 33, 322, 160
-0.99972, 295, 33, 310, 160
-0.99972, 397, 129, 412, 256
-0.999721, 81, 17, 208, 80
-0.999725, 397, 177, 412, 304
-0.999728, 361, 49, 376, 176
-0.999728, 393, 121, 424, 184
-0.999729, 257, 1, 500, 64
-0.99973, 345, 33, 376, 288
-0.99973, 87, 193, 102, 320
-0.999735, 351, 33, 366, 160
-0.999737, 165, 113, 180, 240
-0.999752, 257, 49, 500, 112
-0.999754, 225, 25, 352, 56
-0.999761, 145, 97, 176, 352
-0.999776, 33, 265, 160, 328
-0.999783, 317, 129, 348, 375
-0.999789, 73, 193, 104, 320
-0.99979, 209, 117, 336, 148
-0.999793, 105, 65, 168, 128
-0.999793, 205, 129, 236, 256
-0.999802, 305, 269, 432, 300
-0.999803, 293, 65, 324, 320
-0.999807, 321, 25, 448, 56
-0.999811, 225, 177, 352, 208
-0.999817, 97, 217, 352, 280
-0.999823, 305, 33, 336, 288
-0.999839, 165, 65, 196, 320
-0.999849, 369, 221, 496, 252
-0.999852, 1, 17, 128, 80
-0.999857, 389, 97, 420, 352
-0.999864, 161, 161, 416, 224
-0.999864, 225, 193, 352, 224
-0.999867, 469, 33, 500, 288
-0.999871, 469, 121, 500, 184
-0.999876, 457, 33, 488, 288
-0.999881, 225, 165, 352, 196
-0.999893, 245, 33, 276, 288
-0.999905, 113, 117, 240, 148
-0.99991, 113, 193, 240, 224
-0.999913, 377, 33, 408, 288
-0.999913, 65, 41, 192, 72
-0.999916, 1, 209, 500, 272
-0.999919, 305, 1, 432, 32
-0.999926, 421, 33, 452, 288
-0.999944, 257, 13, 384, 44
-0.999958, 369, 33, 496, 64
-0.999966, 85, 1, 116, 256
-0.99997, 305, 193, 336, 256
-0.999977, 177, 29, 304, 60
-0.99998, 269, 33, 300, 288
-0.999981, 337, 313, 464, 375
-0.999983, 257, 261, 384, 292
-0.999985, 1, 73, 500, 136
-0.999995, 273, 169, 400, 200
-1.00001, 369, 265, 496, 296
-1.00002, 273, 25, 400, 56
-1.00002, 257, 1, 384, 32
-1.00003, 321, 345, 448, 375
-1.00004, 357, 33, 388, 288
-1.00004, 289, 33, 352, 96
-1.00004, 225, 273, 352, 336
-1.00004, 281, 33, 312, 288
-1.00006, 353, 245, 480, 276
-1.00007, 1, 37, 128, 68
-1.00008, 233, 33, 264, 288
-1.00009, 241, 249, 368, 280
-1.00009, 65, 53, 192, 84
-1.0001, 257, 273, 384, 304
-1.0001, 145, 153, 272, 184
-1.00011, 385, 257, 448, 320
-1.00011, 305, 13, 432, 44
-1.00012, 81, 249, 208, 280
-1.00012, 273, 25, 400, 88
-1.00012, 161, 265, 288, 328
-1.00012, 257, 33, 288, 288
-1.00012, 329, 129, 360, 375
-1.00015, 241, 33, 272, 160
-1.00015, 445, 33, 476, 288
-1.00017, 145, 81, 272, 112
-1.00019, 205, 129, 236, 375
-1.0002, 289, 41, 416, 72
-1.0002, 209, 249, 336, 312
-1.00021, 337, 137, 464, 168
-1.00021, 193, 41, 320, 72
-1.00023, 369, 129, 400, 375
-1.00024, 321, 73, 448, 104
-1.00026, 369, 345, 496, 375
-1.00027, 377, 193, 408, 320
-1.00027, 369, 153, 496, 184
-1.00027, 321, 149, 448, 180
-1.00029, 245, 129, 276, 256
-1.00031, 113, 49, 144, 176
-1.00031, 353, 333, 480, 364
-1.00032, 113, 225, 240, 288
-1.00032, 357, 129, 388, 375
-1.00033, 129, 181, 256, 212
-1.00033, 337, 61, 464, 92
-1.00034, 241, 61, 368, 92
-1.00036, 341, 129, 372, 375
-1.00036, 273, 345, 400, 375
-1.00036, 145, 169, 272, 200
-1.00037, 33, 341, 160, 372
-1.00037, 273, 157, 400, 188
-1.00037, 305, 281, 432, 312
-1.00037, 17, 61, 144, 92
-1.00038, 145, 1, 176, 256
-1.00039, 193, 77, 320, 108
-1.0004, 113, 69, 240, 100
-1.0004, 209, 277, 336, 308
-1.00041, 257, 313, 500, 375
-1.00041, 137, 145, 168, 272
-1.00042, 17, 289, 144, 320
-1.00042, 337, 45, 464, 76
-1.00042, 33, 77, 160, 108
-1.00043, 1, 257, 256, 320
-1.00044, 65, 65, 192, 96
-1.00045, 273, 145, 400, 176
-1.00045, 81, 233, 144, 296
-1.00046, 281, 129, 312, 375
-1.00046, 405, 129, 436, 375
-1.00046, 97, 313, 224, 344
-1.00046, 241, 49, 368, 80
-1.00046, 277, 129, 308, 256
-1.00047, 97, 81, 224, 112
-1.00047, 113, 233, 240, 264
-1.00047, 129, 25, 256, 56
-1.00048, 161, 233, 288, 296
-1.00048, 209, 265, 336, 296
-1.00048, 65, 29, 192, 60
-1.00048, 305, 129, 336, 375
-1.00049, 193, 129, 224, 375
-1.00052, 237, 129, 268, 375
-1.00053, 321, 281, 448, 344
-1.00053, 129, 49, 160, 176
-1.00057, 109, 1, 140, 256
-1.00058, 129, 1, 256, 64
-1.00061, 1, 297, 128, 360
-1.00064, 1, 233, 256, 296
-1.00066, 161, 25, 416, 88
-1.00067, 249, 129, 280, 375
-1.00067, 225, 129, 256, 375
-1.00068, 97, 249, 352, 312
-1.00071, 465, 129, 496, 375
-1.00071, 437, 129, 468, 375
-1.00072, 177, 185, 304, 248
-1.00073, 269, 129, 300, 375
-1.00078, 153, 145, 216, 272
-1.00081, 437, 129, 468, 256
-1.00083, 33, 33, 288, 96
-1.00086, 257, 297, 384, 360
-1.00086, 161, 281, 416, 344
-1.00088, 341, 241, 372, 368
-1.00094, 397, 1, 428, 256
-1.00094, 177, 289, 304, 352
-1.00097, 329, 129, 392, 375
-1.00099, 97, 297, 224, 360
-1.001, 1, 281, 256, 344
-1.00102, 177, 1, 304, 64
-1.00107, 233, 129, 264, 256
-1.00108, 273, 1, 336, 128
-1.00108, 409, 209, 440, 336
-1.00111, 289, 153, 352, 216
-1.00113, 453, 129, 484, 375
-1.00116, 265, 177, 328, 240
-1.00117, 201, 129, 264, 375
-1.00121, 177, 33, 208, 160
-1.00124, 313, 25, 376, 88
-1.00127, 469, 129, 500, 256
-1.00129, 257, 25, 500, 88
-1.0013, 257, 281, 500, 344
-1.00131, 1, 241, 500, 304
-1.00132, 33, 9, 288, 72
-1.0014, 177, 49, 304, 112
-1.00143, 97, 305, 352, 368
-1.00147, 81, 273, 208, 336
-1.00149, 161, 1, 416, 64
-1.0015, 297, 1, 360, 128
-1.00151, 113, 249, 240, 312
-1.00151, 297, 241, 328, 368
-1.00153, 161, 209, 288, 272
-1.00154, 321, 1, 384, 64
-1.00154, 409, 1, 472, 64
-1.00154, 241, 145, 304, 208
-1.00161, 1, 25, 500, 88
-1.00163, 385, 17, 448, 80
-1.00165, 1, 313, 256, 375
-1.00165, 369, 281, 496, 344
-1.00166, 209, 313, 336, 375
-1.00172, 1, 265, 500, 328
-1.00174, 433, 25, 496, 88
-1.00175, 433, 129, 496, 375
-1.00175, 217, 129, 248, 256
-1.0018, 161, 313, 288, 375
-1.00181, 81, 41, 144, 104
-1.00184, 1, 313, 500, 375
-1.00187, 229, 33, 260, 160
-1.00189, 1, 49, 500, 112
-1.00191, 57, 41, 120, 104
-1.00193, 49, 313, 176, 375
-1.00205, 41, 257, 104, 320
-1.00224, 241, 129, 304, 375
-1.00227, 293, 129, 324, 256
-1.00228, 1, 1, 500, 64
-1.00234, 1, 65, 64, 128
-1.00237, 289, 1, 352, 64
-1.0024, 345, 225, 408, 352
-1.00241, 369, 1, 432, 128
-1.00244, 437, 177, 468, 304
-1.00252, 261, 129, 292, 256
-1.00267, 409, 257, 472, 320
-1.00268, 89, 241, 120, 368
-1.0027, 1, 1, 256, 128
-1.00274, 253, 17, 284, 144
-1.00285, 17, 17, 48, 144
-1.00289, 57, 241, 88, 368
-1.00289, 201, 33, 232, 160
-1.00297, 137, 161, 200, 224
-1.00297, 409, 225, 472, 288
-1.00297, 1, 289, 500, 352
-1.00299, 377, 241, 408, 368
-1.00301, 305, 1, 336, 128
-1.00311, 217, 33, 248, 160
-1.00327, 265, 25, 328, 88
-1.0033, 177, 241, 304, 368
-1.00345, 233, 17, 296, 80
-1.00345, 337, 25, 400, 88
-1.00351, 77, 241, 108, 368
-1.00351, 401, 209, 464, 336
-1.00352, 353, 225, 384, 352
-1.00352, 177, 153, 240, 216
-1.00361, 65, 241, 128, 368
-1.00362, 209, 153, 272, 216
-1.00362, 433, 265, 496, 328
-1.00362, 449, 129, 480, 256
-1.00366, 361, 265, 424, 328
-1.0038, 105, 33, 168, 96
-1.00389, 97, 193, 160, 320
-1.00391, 409, 25, 472, 88
-1.00403, 189, 33, 220, 160
-1.00406, 165, 145, 196, 272
-1.00415, 321, 1, 352, 128
-1.00426, 81, 257, 144, 320
-1.00428, 257, 1, 320, 64
-1.00428, 265, 273, 328, 336
-1.00437, 333, 1, 364, 128
-1.00442, 193, 33, 256, 96
-1.00447, 365, 225, 396, 352
-1.00452, 265, 49, 328, 112
-1.00454, 193, 1, 256, 64
-1.00471, 385, 313, 448, 375
-1.00471, 249, 129, 312, 256
-1.00474, 129, 33, 192, 96
-1.00481, 1, 281, 64, 344
-1.00486, 433, 233, 496, 296
-1.00487, 129, 57, 192, 120
-1.00488, 289, 273, 352, 336
-1.00502, 433, 313, 496, 375
-1.00502, 33, 33, 96, 96
-1.00509, 145, 273, 208, 336
-1.00558, 129, 161, 192, 288
-1.00568, 161, 177, 288, 304
-1.00578, 41, 1, 104, 128
-1.00611, 129, 17, 192, 144
-1.00614, 249, 209, 312, 336
-1.0062, 97, 241, 224, 368
-1.00636, 225, 241, 288, 368
-1.00691, 377, 241, 440, 368
-1.00784, 81, 1, 208, 128
-1.00792, 145, 241, 208, 368
-1.00825, 177, 225, 240, 352
-1.00841, 185, 177, 248, 304
-1.00863, 201, 241, 264, 368
-1.00869, 153, 1, 216, 128
-1.00931, 1, 1, 64, 128
-1.00938, 153, 193, 216, 320
-1.00945, 121, 225, 184, 352
-1.00957, 433, 241, 496, 368
-1.0101, 89, 241, 152, 368
-1.01049, 209, 177, 272, 304
-1.01109, 105, 1, 168, 128
-1.01153, 65, 1, 128, 128
