1931
-0.299778, 1, 97, 500, 352
-0.368787, 225, 1, 480, 354
-0.384137, 1, 1, 500, 354
-0.529169, 225, 33, 480, 288
-0.534005, 1, 1, 500, 256
-0.573291, 129, 1, 384, 354
-0.668852, 97, 97, 352, 352
-0.745804, 33, 1, 288, 354
-0.775434, 1, 65, 256, 320
-0.786996, 129, 1, 384, 256
-0.819765, 273, 1, 400, 354
-0.83709, 273, 33, 400, 288
-0.846821, 209, 65, 336, 320
-0.85956, 1, 145, 500, 272
-0.867975, 225, 1, 352, 354
-0.869033, 1, 209, 500, 336
-0.874725, 321, 97, 448, 352
-0.886344, 161, 97, 288, 352
-0.889866, 1, 97, 500, 224
-0.893349, 177, 1, 304, 354
-0.894355, 321, 1, 448, 354
-0.900706, 193, 65, 448, 192
-0.902789, 113, 97, 240, 352
-0.907281, 1, 49, 500, 176
-0.909045, 225, 177, 480, 304
-0.91211, 369, 1, 496, 256
-0.914831, 225, 129, 480, 256
-0.917552, 193, 225, 448, 352
-0.918201, 129, 1, 256, 354
-0.921549, 17, 65, 144, 320
-0.922327, 273, 49, 400, 176
-0.923407, 321, 1, 448, 256
-0.925125, 97, 129, 352, 256
-0.925426, 193, 65, 320, 192
-0.928376, 369, 1, 496, 354
-0.929838, 369, 97, 496, 352
-0.932244, 97, 193, 352, 320
-0.934499, 33, 1, 160, 354
-0.934916, 209, 65, 272, 192
-0.937901, 305, 161, 432, 288
-0.938803, 97, 81, 352, 208
-0.939009, 97, 1, 224, 256
-0.940393, 1, 97, 256, 224
-0.940535, 289, 97, 416, 224
-0.940866, 65, 97, 192, 352
-0.943852, 161, 1, 288, 256
-0.945149, 249, 81, 312, 208
-0.946215, 281, 209, 344, 336
-0.94655, 209, 145, 336, 272
-0.947151, 281, 49, 344, 176
-0.948823, 241, 193, 368, 320
-0.949097, 161, 225, 288, 352
-0.94974, 281, 145, 344, 272
-0.951091, 185, 81, 248, 208
-0.951112, 353, 145, 416, 272
-0.951806, 305, 209, 432, 336
-0.952006, 145, 281, 208, 344
-0.95221, 81, 289, 144, 352
-0.952934, 257, 17, 500, 144
-0.953165, 129, 145, 256, 272
-0.953195, 113, 289, 176, 352
-0.954198, 329, 33, 392, 160
-0.955804, 353, 17, 480, 144
-0.95586, 113, 97, 240, 224
-0.956434, 1, 145, 256, 272
-0.956923, 257, 193, 320, 320
-0.958074, 81, 1, 208, 354
-0.958294, 201, 145, 264, 272
-0.958472, 241, 129, 304, 256
-0.958581, 337, 81, 400, 208
-0.958804, 65, 225, 192, 352
-0.958938, 393, 177, 456, 304
-0.959943, 161, 17, 416, 144
-0.960788, 361, 193, 424, 320
-0.961273, 1, 1, 500, 128
-0.961302, 209, 73, 272, 136
-0.961485, 369, 129, 496, 256
-0.963193, 353, 193, 480, 320
-0.963352, 305, 49, 368, 176
-0.963766, 353, 169, 416, 232
-0.963869, 185, 113, 248, 176
-0.964036, 273, 73, 336, 136
-0.964074, 1, 209, 256, 336
-0.964301, 361, 97, 424, 224
-0.964306, 193, 225, 256, 352
-0.964323, 329, 49, 392, 112
-0.964394, 249, 105, 312, 168
-0.964527, 177, 129, 240, 256
-0.96503, 289, 225, 352, 288
-0.965894, 249, 81, 312, 144
-0.966116, 169, 273, 232, 336
-0.966295, 289, 161, 352, 224
-0.966459, 289, 201, 352, 264
-0.966678, 225, 225, 288, 352
-0.967786, 305, 49, 368, 112
-0.967836, 193, 81, 320, 144
-0.96799, 49, 113, 176, 240
-0.968057, 97, 289, 224, 352
-0.968131, 105, 129, 168, 256
-0.968199, 105, 225, 168, 352
-0.968694, 369, 81, 496, 208
-0.969107, 305, 193, 368, 320
-0.969282, 273, 57, 400, 120
-0.969363, 329, 225, 392, 288
-0.969757, 225, 97, 288, 160
-0.969891, 241, 65, 304, 320
-0.969913, 265, 249, 328, 312
-0.970142, 257, 145, 320, 208
-0.970263, 393, 193, 456, 256
-0.97032, 153, 225, 216, 352
-0.970631, 113, 225, 240, 352
-0.971039, 225, 17, 352, 144
-0.971093, 1, 113, 128, 240
-0.971148, 385, 129, 448, 256
-0.971206, 281, 33, 344, 288
-0.971236, 241, 97, 368, 224
-0.971384, 185, 137, 248, 200
-0.971644, 337, 33, 400, 288
-0.971849, 1, 49, 256, 176
-0.971908, 257, 33, 320, 160
-0.972076, 113, 49, 240, 176
-0.972127, 225, 145, 288, 208
-0.972185, 353, 209, 416, 272
-0.972652, 337, 73, 400, 136
-0.972698, 265, 169, 328, 232
-0.972715, 81, 113, 144, 240
-0.972811, 329, 161, 392, 288
-0.973098, 153, 129, 216, 256
-0.973245, 281, 49, 344, 112
-0.973684, 281, 97, 344, 224
-0.97374, 369, 241, 432, 304
-0.973884, 109, 289, 140, 352
-0.973912, 401, 225, 464, 352
-0.974014, 209, 65, 272, 320
-0.974187, 49, 289, 176, 352
-0.974305, 345, 137, 408, 200
-0.974322, 169, 281, 200, 344
-0.974349, 249, 57, 312, 120
-0.974398, 273, 97, 336, 160
-0.974483, 401, 25, 464, 88
-0.974566, 249, 209, 312, 272
-0.974754, 345, 105, 408, 168
-0.974819, 241, 249, 304, 312
-0.974929, 129, 225, 192, 352
-0.975029, 385, 81, 448, 208
-0.975046, 185, 65, 248, 320
-0.975139, 137, 289, 168, 352
-0.975147, 185, 161, 248, 224
-0.975264, 149, 281, 180, 344
-0.975434, 217, 121, 280, 184
-0.975518, 313, 185, 376, 248
-0.975532, 305, 169, 432, 232
-0.975709, 289, 97, 416, 160
-0.975712, 213, 65, 244, 192
-0.975713, 329, 225, 392, 352
-0.97574, 393, 169, 456, 232
-0.975791, 93, 289, 124, 352
-0.975867, 209, 113, 336, 176
-0.975956, 17, 65, 144, 192
-0.975997, 385, 129, 448, 192
-0.976455, 57, 65, 120, 192
-0.976461, 265, 273, 328, 336
-0.976477, 281, 65, 312, 192
-0.976478, 305, 1, 368, 256
-0.976497, 305, 145, 368, 272
-0.976508, 289, 137, 416, 200
-0.97662, 145, 281, 272, 344
-0.976625, 49, 177, 176, 304
-0.976647, 361, 289, 424, 352
-0.976869, 209, 137, 336, 200
-0.976871, 209, 201, 336, 264
-0.97688, 289, 137, 352, 200
-0.976933, 289, 249, 352, 312
-0.977169, 81, 161, 144, 288
-0.977221, 193, 105, 224, 168
-0.977336, 273, 97, 304, 160
-0.977725, 161, 113, 224, 176
-0.977914, 305, 193, 432, 256
-0.977939, 185, 81, 248, 144
-0.977961, 297, 1, 360, 354
-0.978197, 113, 257, 176, 320
-0.978456, 377, 97, 408, 224
-0.978476, 289, 1, 416, 128
-0.978513, 209, 129, 240, 256
-0.978561, 401, 1, 464, 128
-0.978579, 209, 177, 336, 240
-0.97861, 329, 249, 392, 312
-0.978755, 305, 233, 432, 296
-0.978767, 281, 73, 312, 136
-0.978874, 369, 17, 432, 144
-0.978971, 193, 97, 224, 224
-0.979113, 273, 265, 400, 328
-0.979223, 57, 289, 120, 352
-0.979247, 97, 265, 224, 328
-0.979438, 297, 161, 328, 288
-0.979455, 385, 145, 416, 272
-0.9795, 121, 289, 152, 352
-0.979513, 209, 249, 336, 312
-0.979645, 253, 105, 284, 168
-0.979645, 241, 273, 304, 336
-0.97971, 193, 289, 320, 352
-0.979718, 145, 249, 208, 312
-0.979758, 181, 273, 212, 336
-0.979768, 321, 25, 384, 88
-0.979949, 89, 113, 152, 176
-0.979988, 393, 273, 456, 336
-0.980072, 361, 97, 424, 352
-0.980076, 81, 289, 112, 352
-0.980108, 113, 121, 240, 184
-0.980261, 353, 33, 480, 96
-0.980268, 161, 113, 288, 176
-0.98031, 369, 265, 432, 328
-0.980392, 297, 1, 360, 128
-0.98042, 293, 177, 324, 240
-0.980501, 213, 137, 244, 200
-0.980539, 225, 65, 256, 192
-0.980699, 193, 281, 256, 344
-0.980842, 193, 193, 256, 256
-0.980863, 393, 217, 456, 280
-0.980976, 233, 33, 296, 160
-0.981153, 369, 153, 496, 216
-0.981161, 293, 49, 324, 176
-0.981192, 225, 57, 352, 120
-0.981225, 329, 1, 392, 354
-0.981257, 361, 33, 392, 160
-0.981327, 105, 145, 168, 208
-0.981427, 377, 145, 408, 208
-0.981466, 153, 145, 216, 208
-0.981479, 285, 225, 316, 352
-0.981536, 129, 145, 256, 208
-0.981736, 269, 81, 300, 208
-0.98201, 297, 73, 360, 136
-0.982109, 257, 233, 384, 296
-0.98213, 257, 145, 384, 272
-0.982146, 193, 241, 256, 304
-0.982147, 305, 97, 368, 224
-0.982159, 289, 289, 416, 352
-0.982195, 217, 233, 280, 296
-0.98224, 425, 17, 488, 144
-0.982276, 193, 217, 256, 280
-0.982372, 245, 65, 276, 192
-0.982381, 321, 257, 448, 320
-0.98239, 273, 193, 304, 320
-0.982475, 369, 281, 496, 344
-0.982536, 361, 65, 392, 128
-0.982569, 389, 193, 420, 256
-0.98257, 217, 201, 280, 264
-0.982574, 225, 177, 288, 304
-0.982737, 57, 89, 120, 152
-0.982755, 333, 217, 364, 280
-0.98281, 393, 1, 456, 64
-0.982885, 161, 257, 288, 320
-0.982932, 293, 73, 324, 136
-0.983023, 297, 233, 328, 296
-0.9831, 337, 33, 368, 160
-0.983126, 113, 177, 176, 304
-0.983201, 313, 289, 376, 352
-0.983497, 225, 145, 256, 272
-0.983514, 341, 49, 372, 112
-0.983531, 1, 225, 128, 352
-0.983627, 401, 249, 464, 312
-0.983671, 193, 225, 320, 288
-0.983705, 337, 289, 400, 352
-0.983728, 177, 17, 304, 144
-0.983766, 313, 161, 376, 224
-0.983776, 365, 81, 396, 208
-0.983822, 217, 169, 280, 232
-0.983885, 389, 193, 420, 320
-0.984043, 241, 81, 368, 144
-0.984058, 433, 33, 496, 96
-0.984112, 377, 89, 440, 152
-0.984163, 349, 33, 380, 160
-0.984256, 429, 25, 460, 88
-0.984373, 325, 33, 356, 160
-0.98444, 329, 49, 360, 112
-0.984444, 153, 177, 216, 304
-0.984506, 273, 1, 336, 354
-0.98451, 273, 257, 304, 320
-0.984566, 33, 113, 160, 176
-0.984567, 273, 33, 400, 96
-0.984579, 193, 281, 224, 344
-0.984649, 81, 265, 144, 328
-0.984708, 129, 169, 256, 232
-0.984713, 73, 225, 136, 352
-0.98472, 369, 193, 496, 256
-0.984751, 353, 217, 480, 280
-0.984756, 305, 209, 336, 336
-0.984757, 297, 201, 328, 264
-0.984778, 389, 169, 420, 232
-0.984823, 393, 33, 456, 288
-0.984869, 17, 113, 80, 240
-0.984907, 329, 177, 360, 304
-0.984919, 325, 185, 356, 248
-0.984986, 321, 57, 448, 120
-0.985037, 257, 81, 288, 208
-0.985052, 241, 169, 304, 232
-0.985098, 177, 177, 240, 304
-0.985116, 65, 65, 192, 192
-0.985118, 365, 97, 396, 160
-0.985165, 213, 73, 244, 136
-0.985168, 309, 49, 340, 176
-0.985172, 161, 81, 224, 208
-0.985305, 369, 97, 496, 160
-0.985454, 369, 9, 432, 72
-0.985479, 397, 113, 428, 240
-0.985494, 369, 57, 432, 120
-0.985629, 209, 17, 272, 144
-0.985639, 317, 49, 348, 112
-0.985648, 301, 105, 332, 168
-0.985652, 157, 225, 188, 352
-0.985668, 309, 177, 340, 240
-0.985672, 293, 113, 324, 240
-0.985674, 57, 145, 120, 272
-0.985736, 81, 177, 144, 240
-0.985758, 113, 97, 240, 160
-0.985798, 161, 97, 224, 352
-0.985817, 293, 153, 324, 216
-0.985837, 285, 161, 316, 288
-0.98584, 297, 105, 360, 168
-0.986011, 369, 257, 496, 320
-0.986094, 321, 137, 384, 200
-0.986103, 257, 169, 384, 232
-0.986104, 277, 201, 308, 264
-0.986224, 433, 17, 464, 144
-0.986247, 313, 161, 344, 288
-0.986252, 369, 129, 496, 192
-0.986561, 217, 1, 280, 354
-0.986585, 249, 1, 312, 354
-0.98659, 357, 41, 388, 104
-0.986709, 229, 145, 260, 208
-0.986725, 241, 289, 368, 352
-0.986728, 325, 225, 356, 352
-0.98673, 397, 289, 428, 352
-0.98674, 285, 249, 316, 312
-0.986748, 353, 1, 416, 354
-0.986778, 257, 201, 384, 264
-0.986793, 1, 161, 128, 288
-0.986829, 229, 113, 260, 176
-0.986927, 145, 193, 272, 256
-0.986951, 217, 281, 280, 344
-0.986977, 241, 81, 272, 144
-0.987021, 1, 137, 128, 200
-0.987102, 373, 121, 404, 184
-0.987125, 17, 121, 80, 184
-0.987177, 285, 289, 316, 352
-0.987213, 325, 257, 356, 320
-0.987285, 217, 161, 248, 224
-0.987366, 145, 73, 272, 136
-0.987387, 337, 9, 464, 72
-0.987403, 129, 217, 256, 280
-0.987489, 81, 65, 144, 192
-0.987508, 401, 161, 432, 224
-0.987545, 137, 81, 200, 208
-0.9876, 57, 65, 120, 128
-0.987644, 145, 225, 176, 352
-0.987751, 293, 49, 324, 112
-0.987753, 113, 265, 144, 328
-0.987768, 17, 89, 144, 152
-0.987769, 277, 225, 308, 288
-0.987854, 65, 113, 128, 176
-0.987872, 317, 209, 348, 272
-0.987893, 441, 33, 472, 96
-0.988008, 249, 225, 280, 352
-0.988018, 1, 281, 128, 344
-0.988054, 105, 169, 168, 232
-0.988097, 25, 289, 88, 352
-0.9881, 289, 289, 352, 352
-0.988164, 305, 65, 336, 128
-0.988164, 417, 1, 480, 256
-0.988321, 253, 137, 284, 200
-0.988369, 409, 145, 440, 272
-0.988398, 409, 257, 440, 320
-0.988443, 377, 281, 408, 344
-0.98852, 65, 313, 128, 344
-0.98853, 281, 169, 312, 232
-0.988592, 261, 81, 292, 144
-0.988622, 281, 25, 344, 88
-0.98864, 113, 289, 176, 320
-0.988721, 213, 177, 244, 304
-0.988734, 153, 297, 216, 328
-0.988764, 133, 209, 164, 336
-0.988829, 337, 241, 368, 304
-0.988875, 273, 129, 304, 256
-0.98895, 229, 225, 260, 352
-0.988967, 17, 177, 80, 240
-0.98899, 121, 301, 184, 332
-0.989014, 137, 285, 200, 316
-0.989067, 89, 293, 152, 324
-0.989073, 225, 33, 352, 96
-0.989095, 193, 1, 256, 354
-0.9891, 153, 169, 216, 232
-0.989152, 433, 9, 496, 72
-0.98927, 169, 225, 200, 352
-0.989302, 81, 145, 208, 208
-0.989307, 57, 145, 120, 208
-0.989331, 97, 209, 160, 272
-0.989346, 361, 33, 424, 96
-0.989399, 17, 97, 80, 160
-0.989401, 265, 121, 296, 184
-0.989496, 337, 193, 368, 256
-0.989509, 257, 217, 500, 280
-0.989512, 1, 281, 500, 344
-0.989544, 109, 113, 140, 176
-0.98956, 393, 121, 424, 184
-0.989604, 197, 153, 228, 216
-0.989615, 373, 145, 404, 272
-0.989698, 225, 185, 480, 248
-0.98972, 97, 305, 160, 336
-0.989732, 65, 169, 192, 232
-0.989757, 161, 81, 224, 144
-0.989767, 321, 233, 352, 296
-0.989794, 333, 161, 364, 224
-0.989796, 225, 65, 256, 128
-0.98981, 369, 1, 432, 256
-0.989817, 405, 201, 436, 264
-0.98982, 249, 93, 312, 124
-0.989838, 241, 129, 272, 192
-0.989856, 289, 241, 352, 272
-0.989888, 289, 221, 352, 252
-0.989908, 421, 1, 452, 128
-0.989917, 177, 49, 304, 112
-0.990032, 225, 49, 288, 112
-0.990049, 289, 129, 320, 192
-0.990052, 49, 257, 176, 320
-0.990067, 209, 81, 272, 112
-0.990072, 113, 321, 176, 352
-0.990096, 101, 97, 132, 224
-0.990117, 289, 205, 352, 236
-0.990121, 321, 161, 352, 224
-0.990136, 305, 145, 336, 208
-0.990143, 117, 113, 148, 240
-0.990175, 145, 317, 208, 348
-0.990186, 353, 173, 416, 204
-0.990192, 181, 97, 212, 224
-0.990259, 161, 277, 224, 308
-0.990284, 193, 113, 448, 176
-0.990291, 341, 25, 372, 88
-0.990324, 57, 177, 120, 240
-0.990384, 225, 161, 480, 224
-0.990385, 285, 105, 316, 168
-0.990388, 185, 137, 248, 168
-0.990407, 81, 137, 144, 200
-0.990433, 97, 73, 224, 136
-0.990441, 193, 137, 448, 200
-0.990442, 193, 73, 448, 136
-0.990506, 401, 33, 464, 64
-0.990522, 33, 1, 288, 128
-0.990525, 281, 185, 344, 216
-0.990552, 225, 101, 288, 132
-0.99056, 265, 257, 328, 288
-0.990563, 257, 33, 288, 160
-0.990587, 321, 53, 384, 84
-0.990604, 177, 293, 240, 324
-0.990612, 181, 225, 212, 352
-0.99062, 233, 289, 264, 352
-0.990626, 377, 89, 408, 152
-0.990664, 337, 81, 400, 112
-0.99067, 129, 145, 192, 208
-0.990693, 209, 145, 272, 176
-0.990698, 209, 193, 240, 256
-0.9907, 393, 197, 456, 228
-0.990712, 305, 193, 368, 224
-0.990715, 409, 209, 440, 336
-0.990736, 97, 97, 160, 352
-0.990756, 249, 137, 312, 168
-0.990761, 17, 177, 144, 240
-0.990813, 9, 153, 72, 216
-0.990824, 97, 241, 224, 304
-0.990831, 89, 317, 152, 348
-0.990832, 297, 285, 360, 316
-0.990833, 185, 113, 248, 144
-0.99088, 265, 121, 328, 152
-0.990901, 225, 241, 480, 304
-0.990901, 369, 73, 496, 136
-0.990907, 289, 173, 352, 204
-0.990911, 305, 33, 336, 96
-0.99092, 417, 17, 448, 80
-0.990925, 389, 257, 420, 320
-0.990936, 281, 73, 344, 104
-0.990952, 257, 245, 320, 276
-0.990971, 249, 105, 312, 136
-0.991008, 265, 289, 328, 320
-0.991017, 65, 301, 128, 332
-0.991028, 129, 105, 192, 168
-0.991034, 197, 145, 228, 272
-0.991044, 341, 161, 372, 288
-0.991108, 161, 257, 192, 320
-0.991119, 289, 157, 352, 188
-0.991143, 229, 193, 260, 256
-0.99115, 265, 269, 328, 300
-0.991166, 1, 161, 500, 224
-0.991169, 337, 69, 400, 100
-0.991179, 281, 61, 344, 92
-0.99118, 281, 49, 312, 112
-0.991187, 257, 229, 320, 260
-0.991195, 265, 205, 328, 236
-0.991198, 185, 157, 248, 188
-0.991207, 389, 225, 420, 288
-0.991211, 241, 81, 304, 112
-0.991224, 197, 129, 228, 192
-0.991248, 273, 89, 336, 120
-0.991283, 193, 101, 256, 132
-0.991294, 337, 97, 400, 128
-0.991303, 361, 145, 392, 272
-0.991303, 65, 209, 192, 272
-0.991312, 25, 321, 88, 352
-0.991315, 345, 133, 408, 164
-0.991334, 289, 253, 352, 284
-0.991348, 361, 221, 424, 252
-0.991358, 177, 309, 240, 340
-0.991363, 201, 49, 232, 176
-0.991375, 129, 129, 192, 256
-0.991384, 185, 281, 248, 312
-0.991387, 329, 241, 392, 272
-0.991434, 225, 241, 288, 272
-0.991434, 121, 209, 184, 272
-0.991435, 257, 149, 320, 180
-0.991439, 169, 233, 232, 296
-0.991444, 353, 185, 416, 216
-0.991445, 393, 185, 456, 216
-0.991458, 361, 293, 424, 324
-0.991483, 353, 209, 416, 240
-0.991495, 353, 161, 416, 192
-0.991498, 65, 305, 192, 336
-0.991528, 233, 293, 296, 324
-0.991557, 393, 217, 456, 248
-0.991561, 177, 125, 240, 156
-0.991572, 273, 109, 336, 140
-0.991594, 225, 265, 480, 328
-0.991604, 41, 305, 104, 336
-0.991606, 385, 157, 448, 188
-0.991607, 289, 265, 352, 296
-0.991612, 345, 113, 408, 144
-0.991612, 241, 69, 304, 100
-0.991614, 265, 301, 328, 332
-0.991615, 69, 281, 100, 344
-0.991622, 433, 33, 496, 64
-0.99163, 97, 289, 352, 352
-0.991646, 385, 33, 416, 160
-0.991648, 393, 173, 456, 204
-0.991649, 217, 129, 280, 160
-0.991671, 289, 137, 352, 168
-0.991677, 369, 253, 432, 284
-0.991682, 361, 233, 424, 264
-0.991685, 197, 225, 228, 352
-0.991705, 377, 125, 440, 156
-0.991715, 369, 273, 432, 304
-0.991728, 177, 121, 208, 184
-0.991738, 329, 225, 392, 256
-0.991744, 241, 269, 304, 300
-0.991744, 241, 281, 304, 312
-0.991771, 193, 229, 256, 260
-0.991777, 129, 265, 384, 328
-0.9918, 309, 233, 340, 296
-0.991819, 345, 145, 408, 176
-0.99182, 353, 313, 416, 344
-0.991838, 169, 57, 232, 120
-0.991838, 105, 193, 168, 224
-0.991844, 305, 65, 368, 96
-0.991875, 241, 153, 272, 216
-0.99188, 313, 1, 344, 128
-0.991899, 209, 69, 272, 100
-0.991911, 209, 113, 272, 144
-0.991917, 145, 145, 208, 176
-0.99192, 353, 177, 384, 240
-0.991934, 257, 185, 320, 216
-0.991949, 385, 145, 448, 176
-0.991964, 377, 169, 408, 232
-0.991966, 201, 81, 232, 144
-0.991978, 369, 73, 432, 104
-0.991991, 329, 193, 392, 224
-0.991996, 313, 177, 376, 208
-0.991996, 313, 205, 376, 236
-0.991996, 401, 261, 464, 292
-0.992002, 417, 45, 480, 76
-0.992008, 265, 161, 328, 192
-0.992019, 225, 157, 288, 188
-0.992037, 409, 281, 440, 344
-0.992059, 409, 21, 472, 52
-0.99206, 193, 169, 256, 200
-0.99208, 241, 125, 304, 156
-0.992088, 253, 241, 284, 304
-0.992092, 321, 97, 384, 160
-0.992097, 385, 313, 448, 344
-0.992103, 137, 257, 168, 320
-0.992103, 273, 281, 304, 344
-0.992136, 81, 177, 144, 208
-0.99214, 369, 85, 432, 116
-0.99215, 385, 1, 448, 354
-0.992155, 237, 129, 268, 256
-0.992163, 101, 265, 132, 328
-0.992177, 89, 113, 152, 144
-0.992181, 241, 257, 304, 288
-0.992183, 281, 49, 344, 80
-0.992184, 209, 289, 272, 320
-0.992215, 1, 257, 500, 320
-0.992223, 329, 41, 392, 72
-0.992224, 393, 229, 456, 260
-0.992231, 249, 217, 312, 248
-0.992239, 313, 85, 376, 116
-0.992239, 393, 281, 456, 312
-0.992262, 297, 297, 360, 328
-0.992275, 329, 253, 392, 284
-0.992279, 265, 317, 328, 348
-0.992279, 341, 289, 372, 352
-0.992281, 145, 289, 176, 320
-0.992284, 161, 285, 192, 316
-0.992296, 361, 53, 424, 84
-0.992299, 329, 277, 392, 308
-0.992318, 313, 97, 376, 128
-0.992328, 277, 129, 308, 192
-0.992345, 169, 201, 232, 264
-0.992346, 209, 193, 272, 224
-0.992352, 117, 293, 148, 324
-0.992354, 169, 85, 232, 116
-0.992372, 249, 173, 312, 204
-0.992374, 105, 145, 168, 176
-0.992386, 337, 225, 368, 352
-0.992392, 241, 205, 304, 236
-0.992397, 169, 297, 200, 328
-0.992398, 73, 209, 136, 272
-0.992405, 393, 241, 456, 272
-0.992408, 37, 177, 68, 240
-0.992422, 149, 301, 180, 332
-0.992423, 129, 305, 160, 336
-0.992436, 117, 317, 148, 348
-0.992447, 129, 289, 160, 320
-0.99245, 353, 97, 384, 224
-0.992452, 105, 177, 168, 208
-0.99247, 133, 145, 164, 272
-0.992473, 269, 161, 300, 224
-0.992483, 273, 97, 304, 128
-0.992487, 209, 225, 240, 352
-0.992499, 257, 145, 288, 272
-0.992526, 105, 293, 136, 324
-0.992561, 77, 301, 108, 332
-0.992564, 57, 317, 88, 348
-0.992581, 105, 81, 168, 208
-0.992583, 17, 201, 144, 264
-0.992587, 173, 281, 204, 312
-0.992599, 433, 33, 464, 64
-0.992602, 181, 297, 212, 328
-0.992605, 97, 309, 128, 340
-0.992621, 1, 161, 64, 288
-0.992629, 209, 145, 240, 176
-0.992667, 93, 297, 124, 328
-0.992681, 97, 105, 128, 168
-0.992695, 257, 289, 500, 352
-0.992707, 129, 193, 384, 256
-0.99271, 1, 193, 500, 256
-0.992727, 97, 105, 352, 168
-0.99273, 213, 113, 244, 176
-0.992731, 129, 241, 384, 304
-0.992738, 33, 321, 160, 352
-0.99277, 253, 101, 284, 132
-0.992792, 293, 185, 324, 216
-0.992793, 377, 153, 408, 184
-0.992796, 109, 305, 140, 336
-0.992799, 229, 169, 260, 232
-0.992801, 357, 137, 388, 200
-0.992803, 273, 109, 304, 140
-0.992812, 297, 201, 328, 232
-0.992821, 201, 49, 264, 112
-0.992828, 389, 145, 420, 208
-0.992834, 193, 113, 224, 144
-0.992848, 305, 185, 336, 216
-0.992853, 297, 169, 328, 200
-0.992856, 321, 177, 352, 208
-0.992858, 389, 205, 420, 236
-0.992866, 233, 145, 264, 176
-0.992877, 185, 281, 216, 312
-0.992891, 297, 241, 328, 272
-0.992897, 297, 217, 328, 248
-0.992911, 97, 145, 352, 208
-0.992917, 121, 233, 184, 296
-0.992923, 1, 97, 500, 160
-0.992925, 261, 89, 292, 120
-0.992927, 105, 321, 136, 352
-0.992929, 1, 233, 500, 296
-0.99293, 85, 313, 116, 344
-0.992933, 125, 265, 156, 328
-0.99294, 409, 233, 440, 296
-0.99294, 433, 45, 464, 76
-0.992941, 321, 205, 352, 236
-0.992952, 333, 185, 364, 216
-0.992956, 325, 129, 356, 256
-0.992957, 285, 261, 316, 292
-0.992963, 445, 37, 476, 68
-0.992966, 329, 237, 360, 268
-0.992972, 365, 89, 396, 120
-0.992977, 69, 313, 100, 344
-0.992983, 333, 197, 364, 228
-0.992992, 341, 73, 372, 136
-0.992993, 161, 49, 416, 112
-0.992998, 97, 293, 224, 324
-0.993, 405, 185, 436, 216
-0.993005, 381, 165, 412, 196
-0.993023, 177, 313, 208, 344
-0.993025, 309, 273, 340, 304
-0.993028, 193, 297, 224, 328
-0.993032, 321, 189, 352, 220
-0.993033, 325, 285, 356, 316
-0.993041, 141, 321, 172, 352
-0.993043, 377, 141, 408, 172
-0.99305, 33, 225, 96, 352
-0.993052, 389, 193, 420, 224
-0.993056, 285, 285, 316, 316
-0.993056, 261, 113, 292, 144
-0.993059, 361, 69, 392, 100
-0.99307, 153, 321, 184, 352
-0.993075, 281, 85, 312, 116
-0.993077, 297, 229, 328, 260
-0.993082, 213, 81, 244, 112
-0.993096, 285, 273, 316, 304
-0.993099, 421, 33, 452, 64
-0.993099, 277, 205, 308, 236
-0.993106, 317, 249, 348, 280
-0.993108, 281, 249, 312, 280
-0.993113, 273, 265, 304, 296
-0.993122, 293, 57, 324, 88
-0.99313, 285, 297, 316, 328
-0.993131, 225, 133, 256, 164
-0.993133, 317, 261, 348, 292
-0.993137, 301, 141, 332, 172
-0.99314, 353, 53, 384, 84
-0.993144, 401, 165, 432, 196
-0.993151, 209, 101, 240, 132
-0.993152, 217, 157, 248, 188
-0.993155, 305, 153, 336, 184
-0.993158, 365, 161, 396, 224
-0.993161, 249, 133, 280, 164
-0.99317, 197, 101, 228, 132
-0.993173, 429, 21, 460, 52
-0.993173, 261, 57, 292, 120
-0.993176, 241, 97, 272, 128
-0.993177, 333, 225, 364, 256
-0.993179, 325, 281, 356, 344
-0.993182, 345, 185, 376, 216
-0.993185, 269, 277, 300, 308
-0.993187, 273, 237, 304, 268
-0.99319, 197, 309, 228, 340
-0.993196, 301, 105, 332, 136
-0.993197, 321, 217, 352, 248
-0.993198, 197, 157, 228, 188
-0.993198, 165, 317, 196, 348
-0.993199, 321, 273, 352, 304
-0.993211, 281, 189, 312, 220
-0.993214, 233, 289, 264, 320
-0.993214, 397, 309, 428, 340
-0.993216, 369, 129, 400, 160
-0.993216, 333, 53, 364, 84
-0.993217, 385, 177, 416, 208
-0.993219, 281, 73, 312, 104
-0.99322, 209, 133, 240, 164
-0.993231, 285, 309, 316, 340
-0.993236, 369, 117, 400, 148
-0.993236, 317, 61, 348, 92
-0.993238, 309, 201, 340, 232
-0.99324, 101, 113, 132, 144
-0.99324, 285, 173, 316, 204
-0.993241, 241, 81, 272, 112
-0.993243, 305, 97, 336, 224
-0.993244, 129, 317, 160, 348
-0.993244, 241, 105, 272, 168
-0.993248, 409, 265, 440, 296
-0.993256, 389, 121, 420, 152
-0.993261, 333, 173, 364, 204
-0.993263, 405, 297, 436, 328
-0.993269, 313, 229, 344, 260
-0.993272, 405, 217, 436, 248
-0.993277, 277, 121, 308, 152
-0.993285, 333, 249, 364, 280
-0.993286, 281, 153, 312, 184
-0.993286, 353, 93, 384, 124
-0.993289, 265, 289, 296, 320
-0.993291, 169, 1, 232, 354
-0.993301, 385, 321, 416, 352
-0.993305, 197, 277, 228, 308
-0.993306, 293, 129, 324, 160
-0.993309, 305, 49, 336, 80
-0.99331, 409, 285, 440, 316
-0.993312, 389, 221, 420, 252
-0.993318, 133, 193, 164, 224
-0.993318, 281, 61, 312, 92
-0.993321, 293, 153, 324, 184
-0.993323, 381, 57, 412, 120
-0.993325, 381, 289, 412, 320
-0.99333, 333, 209, 364, 240
-0.993361, 217, 217, 248, 280
-0.993363, 1, 65, 128, 128
-0.993363, 301, 1, 332, 128
-0.993366, 329, 25, 360, 88
-0.993381, 121, 225, 152, 352
-0.993487, 273, 61, 400, 92
-0.993524, 389, 97, 420, 160
-0.993646, 65, 97, 128, 352
-0.993672, 261, 225, 292, 352
-0.993753, 41, 113, 72, 176
-0.993766, 237, 57, 268, 120
-0.993777, 313, 105, 344, 168
-0.993806, 109, 177, 140, 240
-0.993822, 89, 97, 120, 224
-0.993828, 193, 81, 320, 112
-0.993873, 345, 217, 376, 280
-0.993877, 129, 217, 384, 280
-0.993958, 1, 289, 256, 352
-0.993959, 89, 89, 152, 152
-0.993974, 433, 1, 464, 64
-0.993978, 341, 81, 372, 208
-0.99398, 257, 49, 500, 112
-0.993992, 113, 317, 240, 348
-0.994, 41, 97, 72, 224
-0.99407, 273, 73, 400, 104
-0.994076, 341, 97, 372, 160
-0.994081, 109, 161, 140, 288
-0.994128, 113, 305, 240, 336
-0.994128, 181, 145, 212, 272
-0.994178, 145, 177, 176, 304
-0.994221, 1, 121, 500, 184
-0.994231, 217, 257, 280, 320
-0.994241, 25, 97, 56, 224
-0.994304, 101, 137, 132, 200
-0.994337, 209, 149, 336, 180
-0.994361, 121, 97, 184, 352
-0.994378, 353, 225, 384, 352
-0.994383, 147, 289, 162, 352
-0.994398, 181, 281, 196, 344
-0.994405, 377, 209, 408, 336
-0.994423, 313, 257, 344, 320
-0.994427, 305, 173, 432, 204
-0.994442, 317, 73, 348, 136
-0.994469, 365, 289, 396, 352
-0.994507, 177, 145, 208, 208
-0.99457, 1, 257, 128, 320
-0.994594, 121, 289, 136, 352
-0.994598, 377, 201, 408, 264
-0.994605, 289, 113, 416, 144
-0.994608, 229, 241, 260, 304
-0.994611, 193, 93, 320, 124
-0.994619, 153, 281, 168, 344
-0.994626, 289, 129, 416, 160
-0.994633, 297, 169, 312, 232
-0.994653, 161, 33, 224, 160
-0.994656, 273, 245, 400, 276
-0.994677, 187, 281, 202, 344
-0.99468, 33, 145, 96, 208
-0.994757, 417, 113, 480, 240
-0.994772, 101, 289, 116, 352
-0.994776, 129, 185, 192, 248
-0.994784, 159, 281, 174, 344
-0.994785, 305, 189, 432, 220
-0.994805, 129, 169, 384, 232
-0.99481, 145, 293, 272, 324
-0.994821, 249, 33, 312, 96
-0.994842, 443, 25, 458, 88
-0.994849, 49, 293, 176, 324
-0.994884, 145, 217, 208, 280
-0.994884, 175, 281, 190, 344
-0.994891, 111, 289, 126, 352
-0.994894, 313, 97, 376, 352
-0.994981, 289, 101, 416, 132
-0.994994, 1, 105, 256, 168
-0.994995, 57, 1, 120, 256
-0.995006, 97, 81, 352, 144
-0.995016, 97, 281, 224, 312
-0.995024, 129, 49, 256, 112
-0.995035, 133, 289, 148, 352
-0.995049, 237, 177, 268, 304
-0.995075, 289, 149, 416, 180
-0.995083, 257, 25, 500, 88
-0.995103, 49, 233, 176, 296
-0.995118, 209, 201, 336, 232
-0.995136, 209, 129, 336, 160
-0.995176, 145, 281, 272, 312
-0.995182, 401, 177, 416, 240
-0.995205, 1, 137, 256, 200
-0.995209, 273, 233, 400, 264
-0.99521, 177, 105, 304, 136
-0.995268, 209, 117, 336, 148
-0.995271, 409, 49, 472, 112
-0.995287, 221, 137, 236, 200
-0.995288, 237, 17, 268, 144
-0.99531, 33, 161, 96, 288
-0.995352, 185, 33, 248, 160
-0.9954, 241, 257, 368, 288
-0.995405, 127, 289, 142, 352
-0.995406, 169, 281, 184, 344
-0.995412, 305, 201, 432, 232
-0.995416, 141, 289, 156, 352
-0.995454, 305, 273, 432, 304
-0.995457, 215, 129, 230, 192
-0.995457, 305, 161, 432, 192
-0.995468, 89, 145, 120, 272
-0.995472, 289, 285, 416, 316
-0.995478, 289, 213, 416, 244
-0.995485, 353, 41, 480, 72
-0.995538, 57, 265, 120, 328
-0.995542, 275, 97, 290, 160
-0.995548, 345, 9, 408, 72
-0.99555, 17, 309, 144, 340
-0.995584, 85, 289, 100, 352
-0.995584, 95, 289, 110, 352
-0.995587, 305, 257, 432, 288
-0.995598, 445, 33, 476, 160
-0.995614, 209, 277, 336, 308
-0.995629, 409, 113, 472, 176
-0.995646, 193, 69, 320, 100
-0.995651, 193, 297, 320, 328
-0.995679, 1, 81, 256, 144
-0.995715, 289, 1, 320, 128
-0.995732, 145, 149, 272, 180
-0.995755, 409, 145, 472, 208
-0.995772, 425, 257, 488, 320
-0.995787, 287, 65, 302, 128
-0.995794, 381, 89, 396, 152
-0.995794, 339, 225, 354, 288
-0.995796, 33, 97, 96, 352
-0.995807, 225, 229, 352, 260
-0.99585, 321, 233, 448, 264
-0.995853, 161, 133, 288, 164
-0.995858, 273, 85, 400, 116
-0.995859, 225, 241, 352, 272
-0.995861, 1, 209, 64, 272
-0.995863, 33, 65, 96, 192
-0.995867, 347, 209, 362, 272
-0.995873, 1, 65, 500, 128
-0.995886, 433, 185, 496, 248
-0.995891, 225, 185, 352, 216
-0.9959, 387, 129, 402, 192
-0.995917, 397, 153, 412, 216
-0.995946, 265, 105, 280, 168
-0.995958, 209, 217, 336, 248
-0.99597, 193, 161, 320, 192
-0.995982, 435, 9, 450, 72
-0.995995, 49, 65, 176, 128
-0.996056, 273, 49, 400, 80
-0.996063, 273, 65, 304, 320
-0.99607, 77, 49, 108, 176
-0.996081, 213, 17, 244, 144
-0.996107, 293, 241, 308, 304
-0.996119, 401, 201, 416, 264
-0.996181, 161, 117, 288, 148
-0.996198, 227, 145, 242, 208
-0.996215, 373, 33, 404, 160
-0.996216, 411, 209, 426, 272
-0.996221, 339, 49, 354, 112
-0.996222, 177, 309, 304, 340
-0.996222, 289, 201, 304, 264
-0.996222, 339, 249, 354, 312
-0.996223, 305, 305, 432, 336
-0.996231, 375, 65, 390, 128
-0.996239, 193, 273, 208, 336
-0.996247, 33, 201, 96, 264
-0.996253, 353, 49, 368, 112
-0.996273, 369, 161, 496, 192
-0.996286, 113, 117, 240, 148
-0.996322, 303, 201, 318, 264
-0.99633, 297, 57, 312, 120
-0.996335, 109, 209, 140, 336
-0.99635, 287, 257, 302, 320
-0.996351, 347, 49, 362, 112
-0.996358, 335, 185, 350, 248
-0.996358, 273, 321, 400, 352
-0.996374, 129, 97, 160, 224
-0.996378, 405, 289, 420, 352
-0.996392, 353, 29, 480, 60
-0.996394, 199, 281, 214, 344
-0.996394, 369, 181, 496, 212
-0.996413, 321, 245, 448, 276
-0.996424, 269, 33, 300, 160
-0.996428, 347, 185, 362, 248
-0.996433, 241, 289, 368, 320
-0.996437, 113, 133, 240, 164
-0.99645, 297, 97, 312, 160
-0.99646, 191, 113, 206, 176
-0.996466, 205, 113, 220, 176
-0.996466, 33, 169, 288, 232
-0.996471, 303, 65, 318, 128
-0.996485, 449, 25, 464, 88
-0.996516, 333, 241, 348, 304
-0.996538, 369, 57, 384, 120
-0.996539, 329, 169, 344, 232
-0.99654, 137, 1, 200, 354
-0.996549, 79, 289, 94, 352
-0.996552, 177, 261, 304, 292
-0.996562, 311, 177, 326, 240
-0.996564, 291, 177, 306, 240
-0.996606, 357, 1, 388, 256
-0.996617, 213, 65, 244, 320
-0.996627, 33, 177, 160, 208
-0.996699, 261, 97, 292, 352
-0.99671, 145, 81, 272, 112
-0.996713, 369, 141, 496, 172
-0.996734, 105, 1, 168, 354
-0.996739, 97, 153, 224, 184
-0.99674, 93, 225, 124, 352
-0.996744, 65, 81, 96, 208
-0.996748, 281, 81, 296, 144
-0.996754, 359, 49, 374, 112
-0.996765, 145, 161, 272, 192
-0.996778, 33, 265, 288, 328
-0.996778, 65, 129, 96, 256
-0.996788, 153, 129, 184, 256
-0.99679, 33, 113, 160, 144
-0.996802, 241, 161, 368, 192
-0.996808, 313, 33, 344, 288
-0.996814, 201, 65, 232, 320
-0.996834, 317, 65, 332, 128
-0.996843, 225, 201, 240, 264
-0.996858, 333, 49, 348, 112
-0.996859, 447, 37, 462, 68
-0.996872, 327, 217, 342, 280
-0.996875, 129, 185, 256, 216
-0.996877, 319, 241, 334, 304
-0.99688, 255, 129, 270, 192
-0.996881, 225, 65, 256, 320
-0.996885, 211, 81, 226, 144
-0.996894, 381, 129, 396, 192
-0.996896, 227, 121, 242, 184
-0.996907, 353, 273, 480, 304
-0.996909, 309, 65, 324, 128
-0.996911, 323, 177, 338, 240
-0.996921, 405, 241, 420, 304
-0.996927, 163, 285, 178, 316
-0.996935, 373, 65, 404, 320
-0.996938, 113, 105, 240, 136
-0.996939, 297, 121, 312, 184
-0.996944, 297, 33, 328, 288
-0.996948, 257, 273, 384, 304
-0.996951, 369, 293, 496, 324
-0.996955, 307, 145, 322, 208
-0.996955, 1, 241, 256, 304
-0.996967, 233, 129, 248, 192
-0.99697, 257, 173, 384, 204
-0.996975, 225, 57, 352, 88
-0.996981, 17, 189, 144, 220
-0.996982, 291, 145, 306, 208
-0.996985, 209, 173, 336, 204
-0.996988, 199, 105, 214, 168
-0.996994, 297, 217, 312, 280
-0.996997, 365, 33, 380, 96
-0.996999, 369, 121, 496, 152
-0.997004, 327, 265, 342, 328
-0.997004, 65, 57, 320, 120
-0.997017, 65, 193, 192, 224
-0.997021, 241, 65, 272, 320
-0.997025, 271, 121, 286, 184
-0.997029, 97, 233, 160, 296
-0.997037, 369, 305, 496, 336
-0.997041, 301, 145, 316, 208
-0.997053, 153, 289, 168, 320
-0.997072, 279, 249, 294, 312
-0.997074, 241, 281, 256, 344
-0.997075, 429, 17, 444, 80
-0.997082, 287, 89, 302, 152
-0.997089, 327, 49, 342, 112
-0.99709, 407, 153, 422, 216
-0.997098, 227, 169, 242, 232
-0.997099, 353, 261, 480, 292
-0.99712, 353, 105, 480, 136
-0.997123, 325, 33, 356, 288
-0.997124, 153, 1, 216, 256
-0.997128, 411, 257, 426, 320
-0.997139, 217, 81, 232, 144
-0.997146, 353, 221, 480, 252
-0.997154, 147, 289, 162, 320
-0.997154, 391, 89, 406, 152
-0.997157, 141, 289, 156, 320
-0.997158, 309, 209, 324, 272
-0.997163, 257, 309, 384, 340
-0.997164, 317, 193, 332, 256
-0.997169, 121, 265, 136, 328
-0.997175, 421, 193, 452, 320
-0.997185, 353, 209, 480, 240
-0.997187, 73, 241, 136, 304
-0.9972, 327, 241, 342, 304
-0.997213, 437, 41, 452, 104
-0.997226, 349, 241, 364, 304
-0.997268, 337, 1, 368, 256
-0.997271, 269, 241, 284, 304
-0.99728, 97, 169, 224, 200
-0.997285, 193, 321, 320, 352
-0.997288, 129, 265, 144, 328
-0.9973, 407, 185, 422, 248
-0.997302, 161, 241, 288, 272
-0.997308, 353, 53, 480, 84
-0.99731, 287, 281, 302, 344
-0.99731, 183, 281, 198, 312
-0.997321, 17, 129, 144, 160
-0.997323, 225, 73, 240, 136
-0.997332, 249, 73, 264, 136
-0.997347, 385, 97, 416, 352
-0.99735, 353, 65, 480, 96
-0.997353, 255, 81, 270, 144
-0.997355, 33, 1, 96, 354
-0.99736, 297, 193, 312, 256
-0.997361, 333, 209, 348, 272
-0.997365, 369, 241, 496, 272
-0.997367, 219, 185, 234, 248
-0.997369, 369, 193, 496, 224
-0.997381, 281, 105, 296, 168
-0.99739, 241, 97, 368, 128
-0.9974, 115, 265, 130, 328
-0.997401, 219, 105, 234, 168
-0.997413, 341, 193, 356, 256
-0.997418, 247, 145, 262, 208
-0.997422, 25, 73, 88, 136
-0.997425, 257, 201, 384, 232
-0.997441, 313, 97, 328, 160
-0.997442, 135, 293, 150, 324
-0.997446, 163, 301, 178, 332
-0.997448, 441, 33, 456, 64
-0.997452, 369, 317, 496, 348
-0.997453, 371, 105, 386, 168
-0.997454, 65, 321, 80, 352
-0.997459, 181, 293, 196, 324
-0.997464, 275, 97, 290, 128
-0.997466, 227, 225, 242, 288
-0.997468, 177, 281, 192, 312
-0.997468, 359, 81, 374, 144
-0.997474, 117, 321, 132, 352
-0.997474, 123, 317, 138, 348
-0.99748, 405, 265, 420, 328
-0.99748, 169, 285, 184, 316
-0.997489, 241, 65, 256, 128
-0.997489, 71, 313, 86, 344
-0.997498, 335, 161, 350, 224
-0.997498, 351, 25, 366, 88
-0.9975, 275, 73, 290, 136
-0.997504, 97, 297, 112, 328
-0.997505, 121, 293, 136, 324
-0.997506, 323, 153, 338, 216
-0.997508, 317, 169, 332, 232
-0.99751, 285, 161, 300, 224
-0.997517, 189, 281, 204, 312
-0.997519, 341, 169, 356, 232
-0.997519, 329, 145, 344, 208
-0.997525, 405, 1, 420, 64
-0.997529, 321, 77, 448, 108
-0.997532, 105, 293, 120, 324
-0.997543, 1, 209, 256, 272
-0.997547, 189, 293, 204, 324
-0.997548, 353, 73, 368, 136
-0.997549, 303, 105, 318, 168
-0.997578, 121, 305, 136, 336
-0.997587, 285, 33, 316, 288
-0.997596, 133, 313, 148, 344
-0.997604, 97, 65, 160, 128
-0.997614, 409, 1, 472, 354
-0.99762, 145, 309, 160, 340
-0.997622, 129, 293, 144, 324
-0.997627, 157, 301, 172, 332
-0.997672, 91, 301, 106, 332
-0.997687, 97, 257, 224, 288
-0.997688, 403, 201, 418, 232
-0.997712, 175, 297, 190, 328
-0.997723, 437, 1, 468, 256
-0.997741, 225, 17, 256, 144
-0.997752, 79, 305, 94, 336
-0.997755, 17, 141, 144, 172
-0.997758, 169, 301, 184, 332
-0.997759, 353, 93, 480, 124
-0.997763, 53, 113, 84, 240
-0.997795, 1, 65, 64, 320
-0.997798, 151, 301, 166, 332
-0.997811, 331, 241, 346, 272
-0.997813, 139, 309, 154, 340
-0.997837, 113, 65, 144, 192
-0.997842, 169, 65, 200, 192
-0.997866, 85, 305, 100, 336
-0.997877, 189, 49, 220, 176
-0.997892, 1, 297, 128, 328
-0.997893, 113, 93, 240, 124
-0.997923, 327, 197, 342, 228
-0.997938, 115, 293, 130, 324
-0.997957, 145, 173, 272, 204
-0.997957, 129, 221, 256, 252
-0.997972, 127, 305, 142, 336
-0.997973, 297, 169, 312, 200
-0.997976, 321, 317, 448, 348
-0.997978, 223, 145, 238, 176
-0.997991, 33, 1, 96, 256
-0.997993, 115, 305, 130, 336
-0.998003, 69, 225, 100, 352
-0.99801, 81, 269, 208, 300
-0.998017, 409, 1, 440, 128
-0.998024, 129, 197, 256, 228
-0.998036, 177, 185, 304, 216
-0.998036, 453, 45, 468, 76
-0.998037, 17, 145, 48, 272
-0.998048, 399, 309, 414, 340
-0.99805, 73, 1, 136, 354
-0.998062, 183, 305, 198, 336
-0.998077, 121, 177, 152, 304
-0.998077, 347, 185, 362, 216
-0.998082, 335, 201, 350, 232
-0.998082, 409, 213, 424, 244
-0.998091, 393, 153, 408, 184
-0.998095, 195, 293, 210, 324
-0.9981, 435, 29, 450, 60
-0.998113, 305, 201, 320, 232
-0.99813, 323, 249, 338, 280
-0.998132, 397, 165, 412, 196
-0.998134, 215, 141, 230, 172
-0.998143, 319, 185, 334, 216
-0.998151, 307, 185, 322, 216
-0.998173, 129, 1, 256, 128
-0.998173, 129, 209, 256, 240
-0.998176, 145, 69, 272, 100
-0.998181, 17, 201, 144, 232
-0.998183, 385, 129, 400, 160
-0.998187, 273, 109, 288, 140
-0.998187, 189, 65, 220, 320
-0.998189, 81, 321, 96, 352
-0.998207, 155, 321, 170, 352
-0.99821, 273, 37, 400, 68
-0.998211, 41, 113, 104, 176
-0.998216, 441, 45, 456, 76
-0.998217, 453, 29, 468, 60
-0.998219, 337, 237, 352, 268
-0.998219, 297, 149, 312, 180
-0.998227, 387, 141, 402, 172
-0.998228, 107, 309, 122, 340
-0.998232, 299, 197, 314, 228
-0.998232, 203, 105, 218, 136
-0.998234, 405, 297, 420, 328
-0.998238, 321, 213, 336, 244
-0.99824, 295, 185, 310, 216
-0.998244, 391, 321, 406, 352
-0.998248, 267, 109, 282, 140
-0.998267, 313, 181, 328, 212
-0.998267, 189, 309, 204, 340
-0.998283, 341, 197, 356, 228
-0.998287, 87, 317, 102, 348
-0.998289, 293, 57, 308, 88
-0.998295, 317, 201, 332, 232
-0.998306, 37, 161, 68, 288
-0.99831, 1, 153, 128, 184
-0.998318, 293, 249, 308, 280
-0.998318, 379, 97, 394, 128
-0.998321, 329, 253, 344, 284
-0.998334, 399, 189, 414, 220
-0.998336, 299, 57, 314, 88
-0.998336, 195, 277, 210, 308
-0.998342, 1, 285, 128, 316
-0.998346, 317, 255, 348, 270
-0.998346, 269, 275, 300, 290
-0.998347, 401, 169, 432, 184
-0.998348, 297, 229, 328, 244
-0.998348, 289, 257, 320, 272
-0.998348, 381, 339, 412, 354
-0.99835, 447, 49, 462, 80
-0.998352, 377, 145, 408, 160
-0.998353, 189, 123, 220, 138
-0.998353, 301, 149, 332, 164
-0.998354, 369, 127, 400, 142
-0.998354, 301, 155, 332, 170
-0.998354, 345, 217, 376, 232
-0.998354, 149, 321, 164, 352
-0.998354, 269, 289, 300, 304
-0.998355, 369, 133, 400, 148
-0.998356, 129, 193, 160, 208
-0.998356, 329, 59, 360, 74
-0.998357, 189, 297, 220, 312
-0.998359, 297, 223, 328, 238
-0.99836, 405, 197, 436, 212
-0.99836, 325, 209, 356, 224
-0.99836, 237, 291, 268, 306
-0.998363, 447, 25, 462, 56
-0.998363, 213, 163, 244, 178
-0.998363, 285, 279, 316, 294
-0.998364, 277, 245, 308, 260
-0.998364, 189, 303, 220, 318
-0.998365, 257, 119, 288, 134
-0.998365, 285, 303, 316, 318
-0.998365, 273, 269, 304, 284
-0.998366, 277, 93, 308, 108
-0.998367, 333, 185, 348, 216
-0.998367, 209, 311, 240, 326
-0.998367, 125, 339, 156, 354
-0.998369, 445, 49, 476, 64
-0.99837, 193, 111, 224, 126
-0.99837, 337, 229, 368, 244
-0.998371, 273, 251, 304, 266
-0.998371, 285, 291, 316, 306
-0.998372, 297, 171, 328, 186
-0.998374, 253, 137, 268, 168
-0.998374, 313, 207, 344, 222
-0.998374, 279, 85, 294, 116
-0.998375, 289, 263, 320, 278
-0.998375, 337, 201, 368, 216
-0.998377, 361, 81, 392, 96
-0.998377, 321, 287, 352, 302
-0.998377, 365, 95, 396, 110
-0.998378, 325, 197, 356, 212
-0.998379, 249, 103, 280, 118
-0.99838, 297, 57, 328, 72
-0.998382, 381, 171, 412, 186
-0.998382, 273, 257, 304, 272
-0.998382, 293, 251, 324, 266
-0.998382, 321, 179, 352, 194
-0.998385, 225, 143, 256, 158
-0.998385, 277, 115, 308, 130
-0.998386, 121, 295, 152, 310
-0.998386, 153, 323, 184, 338
-0.998387, 401, 183, 432, 198
-0.998387, 149, 309, 180, 324
-0.998388, 161, 307, 192, 322
-0.998388, 377, 151, 408, 166
-0.998388, 285, 191, 316, 206
-0.998389, 421, 41, 452, 56
-0.99839, 293, 203, 324, 218
-0.99839, 345, 53, 360, 84
-0.998392, 397, 177, 412, 208
-0.998392, 209, 157, 240, 172
-0.998392, 165, 321, 196, 336
-0.998394, 193, 117, 224, 132
-0.998394, 333, 291, 364, 306
-0.998397, 177, 283, 208, 298
-0.998398, 297, 217, 328, 232
-0.998398, 211, 97, 226, 128
-0.998399, 309, 183, 340, 198
-0.9984, 361, 87, 392, 102
-0.9984, 65, 137, 192, 168
-0.998401, 209, 143, 240, 158
-0.998402, 285, 285, 316, 300
-0.998402, 405, 191, 436, 206
-0.998402, 297, 235, 328, 250
-0.998402, 229, 149, 260, 164
-0.998403, 337, 235, 368, 250
-0.998404, 297, 243, 328, 258
-0.998404, 195, 109, 210, 140
-0.998404, 133, 293, 164, 308
-0.998405, 305, 199, 336, 214
-0.998405, 261, 111, 292, 126
-0.998406, 381, 165, 412, 180
-0.998406, 245, 147, 276, 162
-0.998406, 321, 185, 352, 200
-0.998407, 313, 213, 344, 228
-0.998407, 193, 315, 224, 330
-0.998408, 109, 297, 140, 312
-0.998409, 181, 311, 212, 326
-0.998409, 377, 157, 408, 172
-0.99841, 101, 311, 132, 326
-0.99841, 247, 145, 262, 176
-0.998411, 301, 105, 332, 120
-0.998412, 319, 173, 334, 204
-0.998413, 133, 313, 164, 328
-0.998414, 333, 241, 364, 256
-0.998415, 325, 219, 356, 234
-0.998418, 297, 237, 312, 268
-0.998418, 345, 289, 360, 320
-0.998419, 217, 129, 232, 160
-0.998419, 389, 207, 420, 222
-0.998421, 293, 177, 324, 192
-0.998422, 435, 41, 450, 72
-0.998422, 125, 333, 156, 348
-0.998424, 347, 213, 362, 244
-0.998424, 273, 109, 304, 124
-0.998427, 301, 213, 316, 244
-0.99843, 297, 211, 328, 226
-0.998431, 125, 319, 156, 334
-0.998431, 141, 327, 172, 342
-0.998433, 267, 245, 282, 276
-0.998436, 145, 291, 176, 306
-0.998436, 321, 191, 352, 206
-0.998438, 173, 305, 204, 320
-0.998438, 433, 33, 464, 48
-0.998439, 269, 97, 284, 128
-0.998446, 333, 189, 364, 204
-0.998446, 161, 287, 192, 302
-0.998446, 283, 101, 298, 132
-0.998447, 169, 129, 200, 256
-0.998448, 289, 205, 304, 236
-0.998449, 449, 43, 480, 58
-0.998452, 307, 213, 322, 244
-0.998453, 291, 157, 306, 188
-0.998455, 177, 319, 208, 334
-0.998455, 293, 185, 324, 200
-0.998456, 261, 105, 292, 120
-0.998462, 339, 285, 354, 316
-0.998463, 273, 99, 304, 114
-0.998466, 229, 155, 260, 170
-0.998469, 305, 189, 336, 204
-0.99847, 61, 323, 92, 338
-0.998473, 89, 303, 120, 318
-0.998473, 209, 149, 240, 164
-0.998474, 57, 331, 88, 346
-0.998481, 343, 229, 358, 260
-0.998482, 161, 321, 176, 352
-0.998482, 303, 281, 318, 312
-0.998485, 81, 311, 144, 326
-0.998486, 69, 315, 100, 330
-0.998486, 403, 221, 418, 252
-0.998487, 225, 165, 240, 196
-0.998491, 89, 49, 120, 176
-0.998493, 129, 301, 192, 316
-0.998493, 105, 305, 168, 320
-0.998494, 129, 269, 256, 300
-0.998496, 65, 217, 192, 248
-0.998496, 53, 337, 84, 352
-0.998496, 49, 339, 112, 354
-0.998498, 407, 181, 422, 212
-0.998499, 339, 249, 354, 280
-0.998501, 175, 317, 190, 348
-0.998503, 153, 299, 216, 314
-0.998503, 65, 319, 128, 334
-0.998504, 73, 331, 136, 346
-0.998506, 117, 325, 148, 340
-0.998506, 261, 99, 292, 114
-0.998506, 105, 339, 136, 354
-0.998507, 289, 251, 352, 266
-0.998509, 433, 45, 464, 60
-0.998509, 129, 305, 160, 320
-0.99851, 113, 309, 144, 324
-0.99851, 77, 309, 108, 324
-0.998515, 145, 303, 176, 318
-0.998517, 243, 285, 258, 316
-0.998517, 97, 335, 160, 350
-0.998522, 287, 73, 302, 104
-0.998523, 153, 321, 216, 336
-0.998526, 199, 313, 214, 344
-0.998527, 89, 297, 152, 312
-0.998527, 57, 325, 120, 340
-0.998527, 345, 173, 360, 204
-0.998528, 289, 235, 352, 250
-0.998528, 317, 101, 332, 132
-0.998528, 289, 217, 352, 232
-0.998529, 289, 211, 352, 226
-0.998529, 281, 189, 344, 204
-0.998531, 289, 245, 352, 260
-0.998533, 121, 293, 184, 308
-0.998534, 185, 149, 248, 164
-0.998536, 143, 321, 158, 352
-0.998537, 97, 245, 224, 276
-0.998538, 437, 39, 468, 54
-0.99854, 121, 315, 184, 330
-0.998541, 295, 101, 310, 132
-0.998541, 235, 153, 250, 184
-0.998545, 161, 299, 192, 314
-0.998547, 361, 85, 376, 116
-0.998549, 217, 105, 232, 136
-0.998551, 73, 303, 136, 318
-0.998553, 241, 149, 256, 180
-0.998553, 161, 283, 224, 298
-0.998553, 49, 333, 112, 348
-0.998553, 1, 101, 128, 132
-0.998555, 249, 97, 312, 112
-0.998556, 145, 309, 208, 324
-0.998556, 105, 329, 168, 344
-0.998557, 409, 39, 472, 54
-0.998558, 209, 151, 272, 166
-0.998562, 289, 225, 352, 240
-0.998565, 393, 203, 456, 218
-0.998566, 225, 143, 288, 158
-0.998567, 177, 297, 208, 312
-0.998567, 81, 325, 144, 340
-0.998567, 297, 291, 360, 306
-0.998569, 281, 203, 344, 218
-0.998569, 49, 153, 176, 184
-0.998571, 281, 257, 344, 272
-0.998571, 425, 209, 488, 336
-0.998572, 257, 245, 320, 260
-0.998572, 105, 321, 168, 336
-0.998572, 305, 191, 368, 206
-0.998574, 73, 337, 136, 352
-0.998577, 257, 153, 320, 168
-0.998577, 249, 105, 312, 120
-0.998579, 241, 87, 304, 102
-0.99858, 265, 267, 328, 282
-0.998582, 265, 289, 328, 304
-0.998582, 145, 289, 208, 304
-0.998583, 337, 97, 400, 112
-0.998588, 321, 61, 384, 76
-0.998592, 209, 103, 272, 118
-0.998592, 225, 45, 352, 76
-0.998593, 281, 183, 344, 198
-0.998594, 249, 255, 312, 270
-0.998594, 185, 143, 248, 158
-0.998594, 257, 139, 320, 154
-0.998595, 353, 175, 416, 190
-0.998595, 321, 235, 384, 250
-0.998595, 249, 119, 312, 134
-0.998598, 281, 175, 344, 190
-0.9986, 185, 315, 248, 330
-0.9986, 265, 281, 328, 296
-0.998601, 209, 85, 272, 100
-0.998601, 249, 111, 312, 126
-0.998602, 281, 57, 344, 72
-0.998602, 329, 81, 360, 208
-0.998602, 289, 157, 352, 172
-0.998603, 273, 73, 336, 88
-0.998603, 337, 89, 400, 104
-0.998604, 257, 295, 320, 310
-0.998604, 169, 305, 232, 320
-0.998605, 353, 183, 416, 198
-0.998606, 353, 189, 416, 204
-0.998606, 209, 93, 272, 108
-0.998606, 393, 185, 456, 200
-0.998607, 177, 229, 304, 260
-0.998607, 321, 55, 384, 70
-0.998608, 109, 333, 140, 348
-0.998609, 257, 147, 320, 162
-0.998609, 257, 261, 320, 276
-0.99861, 265, 131, 328, 146
-0.99861, 185, 155, 248, 170
-0.99861, 297, 197, 360, 212
-0.99861, 25, 337, 88, 352
-0.998611, 241, 77, 304, 92
-0.998612, 273, 95, 336, 110
-0.998612, 353, 195, 416, 210
-0.998613, 409, 45, 472, 60
-0.998613, 217, 245, 280, 260
-0.998613, 249, 239, 312, 254
-0.998614, 177, 137, 240, 152
-0.998614, 1, 73, 128, 104
-0.998614, 273, 109, 336, 124
-0.998617, 185, 161, 248, 176
-0.998621, 241, 289, 304, 304
-0.998621, 257, 125, 320, 140
-0.998621, 393, 193, 456, 208
-0.998621, 233, 149, 296, 164
-0.998622, 225, 157, 288, 172
-0.998622, 345, 129, 408, 144
-0.998622, 337, 83, 400, 98
-0.998623, 265, 211, 328, 226
-0.998623, 345, 135, 408, 150
-0.998623, 305, 185, 368, 200
-0.998623, 361, 241, 424, 256
-0.998624, 377, 133, 440, 148
-0.998624, 329, 227, 392, 242
-0.998625, 209, 79, 272, 94
-0.998625, 353, 169, 416, 184
-0.998625, 393, 179, 456, 194
-0.998626, 177, 297, 240, 312
-0.998628, 265, 161, 328, 176
-0.998629, 353, 227, 416, 242
-0.99863, 433, 43, 496, 58
-0.99863, 281, 79, 344, 94
-0.99863, 129, 325, 192, 340
-0.998632, 417, 33, 480, 48
-0.998632, 49, 311, 112, 326
-0.998632, 281, 169, 344, 184
-0.998634, 273, 63, 336, 78
-0.998635, 369, 277, 432, 292
-0.998635, 177, 129, 240, 144
-0.998636, 33, 327, 96, 342
-0.998637, 321, 243, 384, 258
-0.998638, 297, 285, 360, 300
-0.998638, 393, 219, 456, 234
-0.998639, 185, 119, 248, 134
-0.998639, 105, 197, 168, 212
-0.998641, 265, 301, 328, 316
-0.998643, 185, 113, 248, 128
-0.998643, 345, 141, 408, 156
-0.998643, 393, 227, 456, 242
-0.998645, 361, 295, 424, 310
-0.998646, 249, 225, 312, 240
-0.998646, 353, 233, 416, 248
-0.998647, 281, 151, 344, 166
-0.998648, 265, 273, 328, 288
-0.998648, 361, 313, 424, 328
-0.998658, 369, 77, 496, 108
-0.998663, 1, 225, 128, 288
-0.998672, 17, 165, 144, 196
-0.998687, 17, 213, 144, 244
-0.998722, 65, 205, 192, 236
-0.998745, 49, 73, 176, 104
-0.998747, 177, 97, 208, 352
-0.998761, 397, 33, 428, 288
-0.998775, 97, 233, 224, 264
-0.998793, 161, 25, 416, 88
-0.998808, 65, 125, 192, 156
-0.998829, 49, 281, 176, 312
-0.998835, 381, 81, 396, 208
-0.998855, 277, 81, 292, 208
-0.998897, 397, 161, 412, 288
-0.998897, 397, 65, 428, 192
-0.998938, 217, 65, 232, 192
-0.998957, 257, 9, 384, 72
-0.998969, 403, 177, 418, 304
-0.998991, 385, 1, 416, 256
-0.998995, 293, 209, 308, 336
-0.998999, 89, 97, 120, 352
-0.999001, 301, 145, 316, 272
-0.999013, 437, 209, 468, 336
-0.99902, 225, 129, 240, 256
-0.999021, 391, 129, 406, 256
-0.999022, 121, 97, 152, 352
-0.999032, 1, 41, 500, 104
-0.99905, 303, 193, 318, 320
-0.999069, 363, 33, 378, 160
-0.999084, 205, 97, 220, 224
-0.99909, 253, 1, 284, 256
-0.999091, 287, 49, 302, 176
-0.999095, 371, 33, 386, 160
-0.999096, 293, 49, 308, 176
-0.999097, 65, 41, 192, 104
-0.999107, 229, 65, 244, 192
-0.999111, 299, 33, 314, 160
-0.999114, 165, 225, 180, 352
-0.999116, 385, 129, 400, 256
-0.999124, 405, 225, 420, 352
-0.99913, 271, 97, 286, 224
-0.999134, 251, 65, 266, 192
-0.99914, 223, 65, 238, 192
-0.999144, 341, 33, 356, 160
-0.999145, 109, 97, 140, 352
-0.999147, 257, 1, 500, 64
-0.999157, 293, 129, 308, 256
-0.999159, 335, 209, 350, 336
-0.999163, 195, 97, 210, 224
-0.999164, 65, 1, 96, 256
-0.999167, 327, 193, 342, 320
-0.999172, 409, 97, 440, 352
-0.999172, 217, 113, 232, 240
-0.999179, 349, 33, 364, 160
-0.999179, 211, 65, 226, 192
-0.999183, 357, 33, 372, 160
-0.999205, 317, 193, 332, 320
-0.999211, 391, 81, 406, 208
-0.999216, 333, 161, 348, 288
-0.99922, 159, 225, 174, 352
-0.999233, 397, 97, 412, 224
-0.999239, 171, 225, 186, 352
-0.999241, 305, 49, 320, 176
-0.999246, 325, 145, 340, 272
-0.99925, 445, 17, 460, 144
-0.999257, 449, 1, 480, 256
-0.999277, 241, 65, 256, 192
-0.99928, 227, 209, 242, 336
-0.999285, 287, 161, 302, 288
-0.999286, 439, 1, 454, 128
-0.999288, 311, 161, 326, 288
-0.999293, 231, 145, 246, 272
-0.999294, 311, 49, 326, 176
-0.999299, 327, 33, 342, 160
-0.9993, 335, 33, 350, 160
-0.999305, 279, 209, 294, 336
-0.999311, 433, 161, 496, 288
-0.999313, 353, 97, 384, 352
-0.999315, 235, 65, 250, 192
-0.999326, 379, 145, 394, 272
-0.999334, 317, 49, 332, 176
-0.999337, 403, 113, 418, 240
-0.999342, 235, 225, 250, 352
-0.999344, 211, 113, 226, 240
-0.999345, 375, 81, 390, 208
-0.999354, 257, 81, 272, 208
-0.999377, 153, 225, 168, 352
-0.999378, 345, 177, 360, 304
-0.99938, 309, 209, 324, 336
-0.999382, 287, 97, 302, 224
-0.999385, 133, 97, 164, 352
-0.999388, 111, 97, 126, 224
-0.999396, 413, 209, 428, 336
-0.999398, 341, 225, 356, 352
-0.999401, 143, 225, 158, 352
-0.99941, 433, 1, 448, 128
-0.999422, 339, 161, 354, 288
-0.999422, 369, 97, 384, 224
-0.999423, 263, 97, 278, 224
-0.999436, 77, 97, 108, 224
-0.999441, 317, 145, 332, 272
-0.999444, 269, 193, 284, 320
-0.999446, 177, 225, 192, 352
-0.999451, 1, 1, 64, 354
-0.999455, 299, 81, 314, 208
-0.99946, 189, 97, 204, 224
-0.999465, 117, 97, 132, 224
-0.999467, 287, 209, 302, 336
-0.99947, 243, 145, 258, 272
-0.999477, 215, 161, 230, 288
-0.999479, 221, 177, 236, 304
-0.99949, 373, 161, 388, 288
-0.999492, 377, 33, 392, 160
-0.999496, 263, 225, 278, 352
-0.999497, 237, 145, 252, 272
-0.999497, 409, 145, 424, 272
-0.999502, 257, 225, 272, 352
-0.999503, 307, 113, 322, 240
-0.999509, 53, 1, 84, 256
-0.99951, 201, 225, 216, 352
-0.999515, 205, 145, 220, 272
-0.999521, 263, 145, 278, 272
-0.999523, 241, 225, 256, 352
-0.99953, 347, 225, 362, 352
-0.999533, 281, 33, 296, 160
-0.999539, 251, 225, 266, 352
-0.99954, 81, 1, 144, 256
-0.999548, 183, 225, 198, 352
-0.999554, 93, 301, 108, 316
-0.999554, 333, 255, 348, 270
-0.999554, 241, 293, 256, 308
-0.999554, 313, 193, 328, 208
-0.999555, 155, 309, 170, 324
-0.999555, 451, 33, 466, 160
-0.999555, 301, 197, 316, 212
-0.999555, 281, 111, 296, 126
-0.999556, 323, 197, 338, 212
-0.999556, 265, 101, 280, 116
-0.999556, 147, 311, 162, 326
-0.999556, 355, 81, 370, 208
-0.999557, 141, 313, 156, 328
-0.999557, 331, 209, 346, 224
-0.999557, 83, 305, 98, 320
-0.999557, 319, 183, 334, 198
-0.999557, 297, 249, 312, 264
-0.999558, 155, 325, 170, 340
-0.999558, 307, 51, 322, 66
-0.999558, 381, 129, 396, 144
-0.999558, 387, 147, 402, 162
-0.999559, 325, 207, 340, 222
-0.999559, 379, 105, 394, 120
-0.99956, 271, 119, 286, 134
-0.99956, 101, 313, 116, 328
-0.99956, 191, 225, 206, 352
-0.999562, 247, 147, 262, 162
-0.999562, 321, 1, 336, 128
-0.999563, 129, 97, 144, 224
-0.999563, 77, 309, 92, 324
-0.999564, 149, 327, 164, 342
-0.999564, 297, 179, 312, 194
-0.999564, 449, 37, 464, 52
-0.999564, 381, 167, 396, 182
-0.999564, 165, 287, 180, 302
-0.999565, 149, 293, 164, 308
-0.999565, 299, 171, 314, 186
-0.999566, 407, 191, 422, 206
-0.999566, 129, 329, 144, 344
-0.999566, 301, 217, 316, 232
-0.999566, 307, 217, 322, 232
-0.999566, 397, 179, 412, 194
-0.999567, 347, 231, 362, 246
-0.999568, 443, 33, 458, 48
-0.999568, 391, 163, 406, 178
-0.999569, 339, 235, 354, 250
-0.999569, 123, 309, 138, 324
-0.999569, 187, 303, 202, 318
-0.99957, 335, 289, 350, 304
-0.99957, 215, 141, 230, 156
-0.999571, 157, 291, 172, 306
-0.999572, 297, 185, 312, 200
-0.999572, 303, 285, 318, 300
-0.999572, 265, 113, 280, 128
-0.999572, 319, 267, 334, 282
-0.999573, 211, 103, 226, 118
-0.999573, 143, 329, 158, 344
-0.999574, 297, 107, 312, 122
-0.999574, 135, 315, 150, 330
-0.999575, 195, 297, 210, 312
-0.999575, 193, 145, 208, 272
-0.999575, 307, 201, 322, 216
-0.999576, 221, 147, 236, 162
-0.999577, 295, 61, 310, 76
-0.999577, 267, 249, 282, 264
-0.999577, 385, 137, 400, 152
-0.999577, 269, 107, 284, 122
-0.999577, 335, 187, 350, 202
-0.999579, 267, 49, 282, 176
-0.99958, 403, 213, 418, 228
-0.99958, 201, 109, 216, 124
-0.999581, 93, 317, 108, 332
-0.999582, 293, 261, 308, 276
-0.999582, 297, 151, 312, 166
-0.999582, 347, 189, 362, 204
-0.999583, 347, 225, 362, 240
-0.999583, 191, 311, 206, 326
-0.999583, 81, 327, 96, 342
-0.999584, 189, 319, 204, 334
-0.999585, 63, 325, 78, 340
-0.999585, 215, 159, 230, 174
-0.999587, 59, 331, 74, 346
-0.999588, 249, 129, 264, 256
-0.999589, 299, 157, 314, 172
-0.999589, 87, 321, 102, 336
-0.99959, 117, 337, 132, 352
-0.99959, 269, 145, 284, 272
-0.99959, 129, 307, 144, 322
-0.99959, 69, 331, 84, 346
-0.99959, 339, 253, 354, 268
-0.99959, 137, 209, 152, 336
-0.999591, 401, 199, 416, 214
-0.999592, 129, 317, 144, 332
-0.999594, 391, 333, 406, 348
-0.999594, 105, 339, 120, 354
-0.999595, 315, 211, 330, 226
-0.999595, 235, 155, 250, 170
-0.999596, 309, 1, 324, 128
-0.999596, 225, 153, 240, 168
-0.999597, 105, 97, 120, 224
-0.999597, 409, 219, 424, 234
-0.999597, 131, 193, 146, 320
-0.999597, 355, 161, 370, 288
-0.999597, 331, 199, 346, 214
-0.999599, 307, 209, 322, 224
-0.999601, 137, 331, 152, 346
-0.999601, 313, 187, 328, 202
-0.999605, 425, 33, 456, 288
-0.999607, 125, 339, 140, 354
-0.999607, 331, 245, 346, 260
-0.999608, 285, 105, 300, 120
-0.999609, 347, 217, 362, 232
-0.999609, 275, 105, 290, 120
-0.99961, 135, 129, 150, 256
-0.99961, 321, 191, 336, 206
-0.999611, 301, 211, 316, 226
-0.999612, 347, 291, 362, 306
-0.999612, 427, 1, 442, 128
-0.999612, 273, 113, 288, 128
-0.999614, 111, 333, 126, 348
-0.999615, 341, 97, 372, 352
-0.999615, 297, 203, 312, 218
-0.999615, 137, 305, 152, 320
-0.999615, 363, 81, 378, 208
-0.999615, 325, 215, 340, 230
-0.999616, 199, 145, 214, 272
-0.999616, 61, 337, 76, 352
-0.999616, 53, 339, 68, 354
-0.999618, 455, 47, 470, 62
-0.999619, 403, 207, 418, 222
-0.999619, 301, 55, 316, 70
-0.99962, 437, 43, 452, 58
-0.999621, 113, 161, 128, 288
-0.999624, 121, 323, 136, 338
-0.999625, 123, 113, 138, 240
-0.999629, 315, 1, 330, 128
-0.999632, 307, 191, 322, 206
-0.999633, 243, 153, 258, 168
-0.999636, 153, 145, 168, 272
-0.999636, 131, 335, 146, 350
-0.999643, 141, 145, 156, 272
-0.999646, 41, 97, 56, 224
-0.999652, 183, 297, 198, 312
-0.999654, 177, 297, 192, 312
-0.999654, 257, 177, 272, 304
-0.999655, 147, 145, 162, 272
-0.999655, 123, 333, 138, 348
-0.999661, 143, 305, 158, 320
-0.999661, 165, 301, 180, 316
-0.999663, 201, 49, 216, 176
-0.999668, 115, 327, 130, 342
-0.999668, 399, 225, 414, 352
-0.999671, 171, 299, 186, 314
-0.999674, 333, 113, 348, 240
-0.999677, 189, 295, 204, 310
-0.999681, 383, 33, 398, 160
-0.999681, 445, 49, 460, 64
-0.999682, 275, 33, 290, 160
-0.999682, 159, 301, 174, 316
-0.999683, 55, 97, 70, 224
-0.999685, 153, 303, 168, 318
-0.999687, 275, 161, 290, 288
-0.99969, 443, 39, 458, 54
-0.999692, 363, 129, 378, 256
-0.999697, 275, 99, 290, 114
-0.999763, 449, 43, 464, 58
-0.999822, 81, 209, 112, 336
-0.999839, 1, 41, 128, 104
-0.999859, 25, 65, 56, 320
-0.999915, 421, 129, 452, 256
-0.999977, 49, 17, 176, 144
-0.999981, 77, 145, 108, 272
-0.999981, 1, 161, 32, 288
-1.00003, 85, 1, 116, 256
-1.00009, 57, 97, 88, 352
-1.00009, 417, 97, 480, 352
-1.00014, 69, 97, 100, 352
-1.00015, 109, 1, 140, 256
-1.00015, 145, 97, 176, 352
-1.00021, 41, 97, 72, 352
-1.00022, 13, 65, 44, 320
-1.00025, 65, 33, 320, 96
-1.00028, 101, 49, 132, 176
-1.00032, 177, 1, 208, 256
-1.00037, 157, 97, 188, 352
-1.00064, 165, 1, 196, 256
-1.00071, 441, 97, 472, 352
-1.00073, 53, 65, 84, 192
-1.00073, 97, 1, 128, 256
-1.00075, 41, 1, 72, 256
-1.00077, 433, 1, 496, 354
-1.00079, 129, 1, 160, 256
-1.00082, 409, 1, 440, 256
-1.00089, 457, 17, 488, 144
-1.00092, 453, 97, 484, 352
-1.00096, 1, 97, 32, 352
-1.001, 49, 161, 80, 288
-1.00102, 21, 193, 52, 320
-1.00103, 157, 177, 188, 304
-1.00109, 153, 1, 184, 256
-1.0011, 465, 97, 496, 352
-1.00113, 1, 1, 32, 256
-1.00115, 1, 17, 128, 144
-1.00116, 65, 17, 128, 144
-1.00122, 141, 1, 172, 256
-1.00124, 33, 1, 160, 64
-1.00135, 445, 161, 476, 288
-1.00135, 465, 1, 496, 256
-1.00153, 177, 25, 304, 88
-1.00154, 409, 97, 440, 224
-1.00157, 1, 1, 500, 64
-1.00158, 161, 1, 416, 64
-1.00171, 1, 1, 256, 64
-1.00171, 365, 193, 396, 320
-1.00189, 457, 177, 488, 304
-1.00193, 81, 1, 208, 64
-1.00203, 141, 81, 172, 208
-1.00219, 65, 33, 96, 160
-1.00234, 433, 145, 464, 272
-1.00243, 13, 97, 44, 224
-1.00247, 105, 1, 168, 256
-1.00264, 41, 49, 72, 176
-1.00272, 153, 81, 184, 208
-1.00285, 145, 1, 272, 64
-1.00294, 129, 25, 256, 88
-1.00294, 397, 1, 428, 128
-1.00294, 209, 1, 336, 64
-1.00313, 57, 225, 88, 352
-1.00337, 81, 1, 112, 128
-1.0036, 89, 17, 152, 144
-1.00404, 421, 49, 452, 176
-1.00421, 41, 17, 104, 144
-1.00434, 129, 1, 192, 256
-1.00435, 433, 65, 496, 192
-1.00535, 17, 17, 80, 144
-1.00599, 9, 225, 72, 352
-1.00681, 409, 65, 472, 192
-1.00696, 9, 65, 72, 192
-1.0078, 113, 33, 176, 160
-1.01205, 137, 33, 200, 160
