1836
-0.630581, 1, 97, 281, 352
-0.644672, 1, 193, 281, 448
-0.674109, 1, 1, 281, 256
-0.720167, 1, 1, 281, 500
-0.769821, 33, 1, 281, 500
-0.849045, 33, 161, 281, 416
-0.916843, 161, 97, 281, 352
-0.919054, 33, 257, 281, 500
-0.926901, 33, 65, 281, 320
-0.929522, 97, 1, 224, 500
-0.930777, 113, 97, 240, 352
-0.933124, 161, 193, 281, 448
-0.937725, 65, 193, 192, 448
-0.944839, 145, 1, 272, 500
-0.945347, 113, 193, 240, 448
-0.946044, 49, 1, 176, 500
-0.946728, 65, 97, 192, 352
-0.948894, 113, 1, 240, 256
-0.950644, 1, 1, 128, 500
-0.952189, 1, 193, 281, 320
-0.95689, 1, 81, 281, 208
-0.957685, 17, 129, 144, 384
-0.96018, 1, 129, 281, 256
-0.964567, 17, 225, 144, 480
-0.9648, 33, 161, 281, 288
-0.967002, 65, 1, 192, 256
-0.967243, 33, 209, 281, 336
-0.967571, 1, 241, 281, 368
-0.969449, 33, 81, 281, 208
-0.970147, 1, 1, 128, 256
-0.971614, 209, 177, 272, 304
-0.971767, 161, 193, 281, 320
-0.972412, 1, 33, 281, 160
-0.972468, 145, 113, 272, 240
-0.972721, 1, 289, 281, 416
-0.975048, 33, 257, 281, 384
-0.976282, 89, 321, 152, 384
-0.976385, 81, 161, 144, 288
-0.977033, 113, 161, 240, 288
-0.977654, 97, 113, 224, 240
-0.97916, 129, 273, 256, 400
-0.979213, 1, 353, 281, 480
-0.979524, 49, 273, 176, 400
-0.980089, 89, 113, 152, 240
-0.980385, 161, 1, 281, 256
-0.980489, 89, 297, 152, 360
-0.980546, 89, 289, 152, 416
-0.980572, 193, 129, 256, 256
-0.981431, 81, 209, 208, 336
-0.982301, 209, 209, 272, 272
-0.982548, 89, 225, 152, 352
-0.982597, 185, 209, 248, 336
-0.98308, 129, 273, 192, 400
-0.983467, 65, 161, 192, 288
-0.983658, 185, 177, 248, 240
-0.983715, 113, 329, 176, 392
-0.9839, 89, 345, 152, 408
-0.983933, 81, 193, 144, 256
-0.984069, 105, 169, 168, 232
-0.984144, 89, 249, 152, 312
-0.985229, 153, 193, 216, 256
-0.985322, 105, 273, 168, 336
-0.986036, 97, 65, 224, 192
-0.986061, 121, 177, 184, 304
-0.98684, 81, 169, 144, 232
-0.986901, 193, 81, 256, 208
-0.987229, 209, 185, 272, 248
-0.987298, 65, 321, 192, 448
-0.987314, 113, 321, 144, 384
-0.987393, 121, 129, 184, 256
-0.987773, 1, 353, 256, 480
-0.987928, 193, 89, 256, 152
-0.988002, 49, 113, 176, 240
-0.988153, 105, 217, 168, 280
-0.98859, 97, 65, 160, 192
-0.988849, 129, 193, 256, 256
-0.988855, 33, 209, 160, 336
-0.989007, 97, 137, 160, 200
-0.989028, 153, 169, 216, 232
-0.989056, 81, 201, 208, 264
-0.989086, 169, 145, 232, 272
-0.989206, 145, 97, 272, 160
-0.989257, 209, 225, 272, 352
-0.989326, 121, 161, 184, 416
-0.989345, 33, 305, 281, 432
-0.990036, 89, 161, 152, 416
-0.990181, 145, 65, 272, 192
-0.990203, 97, 281, 224, 344
-0.990342, 129, 169, 192, 232
-0.990431, 185, 97, 248, 352
-0.990453, 89, 337, 152, 464
-0.990497, 81, 369, 208, 496
-0.990525, 133, 273, 164, 400
-0.990577, 177, 201, 240, 264
-0.990639, 81, 161, 208, 224
-0.990645, 65, 305, 128, 368
-0.990669, 89, 193, 120, 256
-0.990806, 101, 305, 132, 368
-0.990866, 81, 249, 208, 312
-0.991058, 217, 129, 280, 256
-0.991099, 105, 193, 168, 256
-0.99117, 129, 169, 256, 232
-0.991272, 113, 321, 176, 448
-0.991305, 233, 193, 264, 320
-0.991338, 89, 329, 152, 360
-0.991384, 81, 225, 144, 288
-0.991426, 1, 17, 256, 144
-0.991451, 125, 337, 156, 400
-0.991459, 161, 209, 224, 336
-0.991463, 209, 97, 272, 352
-0.991631, 201, 153, 264, 216
-0.991638, 129, 289, 192, 352
-0.991657, 129, 137, 256, 200
-0.99182, 49, 313, 176, 376
-0.991832, 89, 289, 120, 352
-0.991902, 113, 225, 176, 352
-0.991909, 97, 81, 224, 144
-0.99196, 89, 317, 152, 348
-0.991999, 209, 217, 272, 248
-0.992034, 169, 201, 232, 232
-0.992049, 129, 193, 192, 256
-0.992075, 89, 161, 120, 288
-0.992098, 209, 205, 272, 236
-0.992103, 145, 113, 208, 240
-0.992254, 97, 189, 160, 220
-0.992406, 161, 241, 281, 304
-0.992435, 81, 209, 144, 240
-0.99248, 85, 161, 116, 224
-0.992498, 153, 105, 216, 168
-0.992516, 57, 169, 120, 232
-0.992516, 209, 241, 272, 304
-0.992519, 113, 321, 240, 448
-0.992526, 117, 321, 148, 448
-0.992526, 89, 349, 152, 380
-0.9926, 97, 105, 224, 168
-0.992643, 81, 177, 144, 208
-0.992655, 113, 337, 176, 368
-0.992668, 161, 217, 281, 280
-0.992671, 177, 213, 240, 244
-0.992695, 209, 193, 272, 224
-0.992736, 137, 189, 200, 220
-0.992744, 177, 189, 240, 220
-0.992786, 89, 241, 152, 272
-0.992803, 17, 161, 144, 288
-0.992817, 89, 269, 152, 300
-0.992859, 105, 201, 168, 232
-0.992943, 113, 365, 176, 396
-0.992952, 97, 225, 224, 288
-0.992958, 145, 201, 208, 232
-0.992966, 193, 93, 256, 124
-0.993006, 73, 197, 136, 228
-0.993016, 93, 265, 124, 328
-0.993039, 209, 237, 272, 268
-0.993046, 201, 181, 264, 212
-0.993059, 177, 177, 240, 208
-0.993075, 89, 229, 152, 260
-0.993077, 213, 129, 244, 256
-0.993095, 129, 257, 192, 500
-0.993129, 81, 257, 144, 288
-0.993139, 89, 165, 152, 196
-0.993141, 89, 373, 152, 404
-0.993143, 89, 361, 152, 392
-0.993169, 113, 237, 176, 268
-0.993187, 81, 301, 144, 332
-0.993197, 81, 361, 208, 424
-0.99321, 89, 281, 152, 312
-0.993212, 113, 345, 144, 408
-0.993227, 105, 333, 136, 364
-0.993232, 233, 185, 264, 248
-0.993235, 137, 177, 200, 208
-0.993237, 193, 125, 256, 156
-0.993268, 129, 325, 192, 356
-0.993284, 105, 185, 136, 248
-0.993301, 49, 337, 176, 400
-0.99332, 177, 237, 240, 268
-0.993326, 197, 197, 228, 228
-0.993347, 225, 201, 256, 232
-0.993354, 113, 353, 176, 416
-0.993383, 89, 301, 120, 332
-0.993385, 185, 113, 248, 144
-0.993388, 213, 209, 244, 240
-0.993393, 161, 265, 281, 328
-0.993421, 101, 329, 132, 392
-0.993437, 105, 193, 136, 224
-0.993437, 97, 85, 160, 116
-0.993439, 105, 213, 168, 244
-0.993445, 153, 117, 216, 148
-0.993446, 117, 329, 148, 360
-0.993448, 125, 341, 156, 372
-0.993459, 197, 129, 228, 256
-0.993461, 209, 269, 272, 300
-0.993463, 237, 201, 268, 232
-0.993463, 209, 249, 272, 280
-0.993469, 121, 189, 152, 220
-0.993481, 117, 317, 148, 348
-0.993484, 57, 281, 120, 344
-0.993494, 181, 193, 212, 224
-0.993498, 89, 169, 120, 200
-0.993501, 97, 317, 128, 348
-0.993502, 105, 177, 168, 208
-0.993504, 221, 177, 252, 304
-0.993509, 113, 353, 144, 384
-0.993521, 153, 129, 216, 160
-0.993522, 225, 221, 256, 252
-0.993523, 81, 273, 144, 336
-0.993524, 85, 193, 116, 224
-0.993536, 209, 281, 272, 312
-0.993548, 137, 281, 168, 312
-0.993551, 153, 229, 216, 260
-0.993557, 121, 277, 184, 308
-0.99356, 209, 197, 240, 228
-0.993561, 49, 273, 176, 336
-0.993565, 157, 281, 188, 312
-0.99358, 57, 301, 120, 332
-0.993581, 145, 277, 208, 308
-0.993582, 185, 181, 216, 212
-0.993585, 89, 237, 120, 268
-0.993588, 65, 241, 128, 272
-0.993591, 129, 201, 160, 232
-0.993591, 121, 365, 152, 396
-0.993593, 85, 205, 116, 236
-0.993594, 241, 181, 272, 212
-0.993596, 49, 189, 112, 220
-0.993602, 97, 125, 160, 156
-0.993606, 89, 181, 120, 212
-0.993607, 101, 305, 132, 336
-0.99361, 165, 189, 196, 220
-0.993615, 225, 189, 256, 220
-0.993616, 145, 189, 176, 220
-0.993621, 237, 213, 268, 244
-0.993621, 209, 221, 240, 252
-0.993627, 133, 329, 164, 360
-0.99363, 105, 233, 136, 264
-0.993634, 101, 205, 132, 236
-0.993643, 89, 225, 120, 256
-0.993652, 113, 165, 176, 196
-0.993654, 209, 209, 240, 336
-0.993655, 93, 269, 124, 300
-0.993664, 201, 209, 232, 240
-0.99367, 237, 237, 268, 268
-0.99367, 93, 345, 124, 376
-0.993673, 209, 237, 240, 268
-0.993677, 113, 213, 144, 244
-0.993677, 97, 257, 128, 288
-0.99368, 109, 249, 140, 280
-0.993685, 125, 353, 156, 384
-0.99369, 249, 197, 280, 228
-0.993694, 161, 177, 192, 208
-0.993695, 129, 233, 160, 264
-0.993702, 93, 333, 124, 364
-0.993707, 121, 257, 184, 288
-0.993709, 177, 145, 240, 208
-0.993711, 153, 97, 216, 128
-0.993721, 65, 321, 128, 352
-0.993733, 113, 225, 176, 256
-0.993737, 197, 93, 228, 124
-0.99374, 121, 273, 152, 304
-0.993741, 201, 177, 232, 208
-0.993744, 109, 265, 140, 296
-0.993754, 237, 253, 268, 284
-0.993758, 101, 125, 132, 156
-0.993758, 113, 377, 176, 408
-0.993758, 89, 285, 120, 316
-0.99376, 65, 229, 128, 260
-0.993764, 105, 165, 136, 196
-0.993768, 137, 269, 168, 300
-0.993769, 161, 289, 224, 320
-0.993769, 209, 265, 272, 328
-0.993769, 169, 237, 200, 268
-0.993771, 101, 181, 132, 212
-0.993773, 217, 133, 280, 164
-0.993773, 85, 253, 116, 284
-0.993776, 177, 225, 240, 256
-0.993777, 117, 201, 148, 232
-0.993779, 109, 369, 140, 400
-0.993781, 113, 349, 176, 380
-0.993785, 161, 161, 224, 416
-0.993789, 213, 181, 244, 212
-0.993793, 89, 369, 152, 432
-0.993799, 125, 213, 156, 244
-0.993802, 189, 213, 220, 244
-0.993803, 149, 225, 180, 256
-0.993806, 85, 321, 116, 352
-0.993809, 209, 89, 240, 120
-0.993812, 121, 261, 152, 292
-0.993813, 197, 237, 228, 268
-0.993815, 149, 201, 180, 232
-0.993816, 89, 65, 152, 320
-0.993817, 133, 189, 164, 220
-0.993818, 117, 237, 148, 268
-0.993819, 233, 277, 264, 308
-0.99383, 65, 333, 128, 364
-0.993831, 93, 369, 124, 400
-0.993835, 121, 161, 152, 192
-0.993836, 77, 233, 108, 264
-0.993836, 145, 257, 208, 320
-0.993838, 153, 293, 184, 324
-0.993839, 197, 133, 228, 164
-0.99384, 117, 225, 148, 256
-0.99384, 237, 265, 268, 296
-0.993843, 173, 177, 204, 208
-0.993844, 101, 85, 132, 116
-0.99385, 113, 313, 176, 344
-0.993853, 225, 233, 256, 264
-0.993857, 77, 297, 108, 328
-0.993858, 133, 369, 164, 400
-0.99386, 185, 137, 248, 168
-0.993862, 125, 177, 156, 208
-0.993863, 241, 225, 272, 256
-0.993867, 145, 213, 176, 244
-0.993869, 81, 269, 112, 300
-0.99387, 57, 285, 120, 316
-0.993872, 49, 205, 112, 236
-0.993872, 49, 217, 112, 248
-0.993874, 193, 285, 224, 316
-0.993874, 169, 209, 200, 240
-0.993877, 73, 189, 104, 220
-0.993877, 57, 261, 120, 292
-0.993879, 153, 213, 216, 244
-0.993881, 209, 137, 240, 168
-0.993881, 137, 177, 168, 208
-0.993882, 101, 141, 132, 172
-0.993887, 133, 317, 164, 348
-0.993891, 129, 245, 160, 276
-0.993892, 153, 269, 184, 300
-0.993894, 69, 213, 100, 244
-0.993895, 153, 241, 216, 272
-0.993898, 57, 177, 120, 208
-0.993898, 113, 177, 144, 208
-0.993899, 105, 381, 136, 412
-0.9939, 141, 85, 172, 116
-0.993902, 197, 105, 228, 136
-0.993908, 141, 125, 172, 156
-0.993909, 177, 249, 240, 280
-0.99391, 229, 177, 260, 208
-0.993913, 229, 129, 260, 160
-0.993913, 73, 285, 104, 316
-0.993915, 149, 177, 180, 208
-0.993918, 117, 141, 148, 172
-0.993919, 185, 245, 216, 276
-0.993928, 221, 245, 252, 276
-0.993929, 141, 293, 172, 324
-0.993932, 213, 101, 244, 132
-0.993933, 245, 277, 276, 308
-0.993935, 173, 225, 204, 256
-0.993935, 121, 85, 184, 116
-0.993938, 249, 209, 280, 240
-0.993939, 81, 333, 112, 364
-0.993941, 137, 257, 168, 288
-0.993942, 125, 85, 156, 116
-0.993944, 5, 45, 36, 76
-0.993946, 157, 237, 188, 268
-0.993947, 197, 121, 228, 152
-0.993949, 205, 277, 236, 308
-0.993953, 189, 169, 220, 200
-0.993953, 229, 117, 260, 148
-0.993955, 121, 125, 152, 156
-0.993963, 185, 233, 216, 264
-0.993971, 57, 165, 120, 196
-0.993981, 153, 81, 216, 112
-0.993993, 89, 385, 152, 416
-0.994, 113, 257, 144, 384
-0.994, 65, 369, 128, 400
-0.994005, 137, 373, 200, 404
-0.994015, 97, 141, 160, 172
-0.994024, 121, 129, 184, 160
-0.99403, 217, 117, 280, 148
-0.994062, 209, 273, 272, 400
-0.994063, 185, 289, 248, 320
-0.994075, 105, 293, 168, 324
-0.994075, 57, 121, 120, 152
-0.9941, 129, 213, 192, 244
-0.994138, 89, 105, 152, 136
-0.994192, 161, 265, 224, 296
-0.994194, 201, 193, 264, 448
-0.994201, 97, 321, 224, 384
-0.994211, 185, 149, 248, 180
-0.994218, 201, 169, 264, 200
-0.99422, 137, 165, 200, 196
-0.994221, 169, 277, 232, 308
-0.994224, 121, 141, 184, 172
-0.994247, 65, 349, 128, 380
-0.994249, 217, 105, 280, 136
-0.99426, 97, 153, 160, 184
-0.99426, 217, 145, 280, 176
-0.994262, 137, 233, 200, 296
-0.994276, 73, 137, 136, 168
-0.994297, 17, 417, 80, 448
-0.994301, 145, 253, 208, 284
-0.994305, 33, 249, 160, 312
-0.994322, 189, 193, 220, 256
-0.994323, 57, 89, 120, 120
-0.994328, 57, 109, 120, 140
-0.994357, 65, 273, 128, 304
-0.994359, 137, 297, 200, 328
-0.994364, 185, 265, 248, 296
-0.994365, 193, 113, 256, 176
-0.994366, 193, 81, 256, 112
-0.994398, 121, 117, 184, 148
-0.994421, 217, 93, 280, 124
-0.994427, 73, 461, 136, 492
-0.994439, 177, 165, 240, 196
-0.994445, 153, 141, 216, 172
-0.994448, 121, 97, 184, 128
-0.994453, 97, 73, 160, 104
-0.994471, 1, 49, 64, 80
-0.99452, 41, 237, 104, 268
-0.994521, 209, 393, 272, 424
-0.994555, 17, 209, 144, 272
-0.994565, 81, 137, 208, 200
-0.994565, 97, 81, 160, 144
-0.994572, 49, 65, 176, 192
-0.994575, 209, 297, 272, 328
-0.99458, 137, 361, 200, 392
-0.994581, 1, 61, 64, 92
-0.994583, 1, 429, 64, 460
-0.99459, 137, 337, 200, 368
-0.99459, 57, 209, 120, 272
-0.994599, 153, 385, 216, 416
-0.994604, 73, 1, 136, 32
-0.994607, 201, 81, 232, 208
-0.994614, 33, 405, 96, 436
-0.994617, 189, 169, 220, 232
-0.994617, 113, 457, 176, 488
-0.994619, 41, 313, 104, 344
-0.99463, 65, 385, 128, 416
-0.994638, 49, 77, 112, 108
-0.994638, 89, 1, 152, 500
-0.99464, 121, 73, 184, 104
-0.994688, 1, 289, 128, 352
-0.994741, 49, 209, 112, 336
-0.994751, 209, 177, 240, 240
-0.99498, 185, 241, 248, 304
-0.995176, 33, 177, 160, 240
-0.995323, 89, 257, 152, 500
-0.99534, 177, 169, 208, 232
-0.995379, 65, 249, 128, 312
-0.995416, 245, 177, 276, 240
-0.995454, 129, 65, 192, 320
-0.995519, 89, 241, 120, 368
-0.995526, 201, 1, 264, 500
-0.995538, 125, 313, 156, 376
-0.995559, 129, 177, 160, 304
-0.995561, 121, 137, 184, 200
-0.995603, 89, 313, 120, 376
-0.995787, 113, 1, 176, 500
-0.995802, 97, 225, 128, 288
-0.995807, 65, 289, 128, 416
-0.995885, 137, 129, 168, 256
-0.995926, 217, 105, 280, 168
-0.995968, 57, 161, 120, 288
-0.996033, 161, 273, 224, 400
-0.996101, 145, 289, 272, 352
-0.996107, 161, 257, 224, 500
-0.996209, 17, 97, 144, 160
-0.996236, 33, 201, 281, 264
-0.996249, 109, 209, 140, 272
-0.996295, 105, 161, 136, 224
-0.996328, 125, 193, 156, 256
-0.996378, 129, 321, 160, 448
-0.996403, 225, 129, 256, 256
-0.996407, 217, 81, 280, 208
-0.996467, 237, 233, 268, 296
-0.996529, 113, 249, 176, 312
-0.996549, 113, 297, 144, 360
-0.996603, 93, 289, 124, 416
-0.996608, 105, 137, 136, 200
-0.996645, 129, 345, 256, 408
-0.996647, 117, 209, 148, 336
-0.996719, 145, 73, 272, 136
-0.996727, 127, 313, 142, 376
-0.996739, 129, 201, 256, 232
-0.996784, 113, 161, 144, 288
-0.996798, 33, 129, 160, 192
-0.996904, 245, 177, 276, 304
-0.996917, 65, 113, 128, 240
-0.996926, 95, 289, 110, 352
-0.996958, 17, 17, 144, 144
-0.99696, 169, 97, 232, 224
-0.99698, 137, 1, 200, 500
-0.997008, 189, 145, 220, 208
-0.997026, 229, 209, 260, 272
-0.997062, 145, 273, 176, 400
-0.997084, 201, 145, 232, 208
-0.997086, 161, 281, 224, 344
-0.997124, 89, 113, 120, 240
-0.997176, 33, 169, 281, 232
-0.997195, 145, 161, 208, 288
-0.997251, 17, 321, 144, 448
-0.997257, 129, 337, 144, 400
-0.997299, 109, 113, 140, 240
-0.997336, 97, 105, 160, 168
-0.997364, 149, 185, 180, 248
-0.997379, 217, 129, 280, 192
-0.997422, 33, 89, 281, 152
-0.997432, 65, 345, 128, 408
-0.99745, 73, 137, 136, 200
-0.997489, 161, 217, 281, 248
-0.997519, 197, 177, 228, 304
-0.997543, 153, 73, 216, 136
-0.997558, 105, 305, 136, 432
-0.997611, 93, 137, 124, 200
-0.997611, 99, 193, 114, 256
-0.997638, 95, 265, 110, 328
-0.997642, 117, 329, 132, 392
-0.997645, 1, 313, 128, 376
-0.997658, 97, 189, 224, 220
-0.997661, 77, 289, 108, 352
-0.997701, 145, 121, 272, 152
-0.997716, 185, 129, 216, 256
-0.99772, 81, 213, 208, 244
-0.997721, 249, 193, 264, 256
-0.997737, 99, 161, 114, 224
-0.997755, 93, 169, 108, 232
-0.997762, 161, 1, 224, 500
-0.997772, 161, 225, 224, 288
-0.997802, 1, 273, 128, 400
-0.997821, 129, 369, 256, 432
-0.997843, 101, 305, 116, 368
-0.997859, 33, 249, 281, 312
-0.997864, 123, 337, 138, 400
-0.997888, 93, 193, 108, 256
-0.997889, 149, 193, 180, 320
-0.997906, 107, 185, 122, 248
-0.99793, 33, 225, 281, 288
-0.997934, 133, 233, 164, 296
-0.997939, 185, 265, 248, 328
-0.997958, 111, 305, 126, 368
-0.997963, 85, 233, 116, 296
-0.997975, 107, 161, 122, 224
-0.997983, 107, 233, 122, 296
-0.997984, 125, 137, 156, 200
-0.99801, 125, 169, 156, 232
-0.998019, 1, 409, 128, 472
-0.998021, 33, 137, 281, 200
-0.998035, 135, 329, 150, 392
-0.998057, 101, 257, 116, 320
-0.998065, 193, 177, 208, 240
-0.99807, 129, 369, 256, 496
-0.998086, 203, 169, 218, 232
-0.998094, 81, 201, 208, 232
-0.998104, 241, 185, 256, 248
-0.998153, 161, 285, 281, 316
-0.998163, 89, 289, 104, 352
-0.998171, 145, 105, 272, 136
-0.998178, 33, 377, 160, 440
-0.998188, 85, 261, 116, 276
-0.998188, 133, 281, 164, 296
-0.998188, 233, 283, 264, 298
-0.998189, 193, 139, 224, 154
-0.998189, 209, 179, 240, 194
-0.99819, 93, 283, 124, 298
-0.99819, 121, 237, 152, 252
-0.99819, 237, 249, 268, 264
-0.998191, 133, 369, 164, 384
-0.998192, 105, 309, 136, 324
-0.998192, 85, 219, 116, 234
-0.998193, 225, 237, 256, 252
-0.998193, 129, 247, 160, 262
-0.998194, 133, 321, 164, 336
-0.998195, 105, 229, 136, 244
-0.998195, 241, 231, 272, 246
-0.998195, 113, 271, 144, 286
-0.998196, 205, 243, 236, 258
-0.998197, 65, 281, 192, 312
-0.998197, 137, 185, 168, 200
-0.998197, 77, 301, 108, 316
-0.998198, 237, 261, 268, 276
-0.998198, 105, 381, 136, 396
-0.998198, 197, 93, 228, 108
-0.998199, 129, 269, 160, 284
-0.998199, 189, 249, 220, 264
-0.9982, 237, 273, 268, 288
-0.998201, 181, 211, 212, 226
-0.998202, 137, 291, 168, 306
-0.998202, 105, 237, 136, 252
-0.998203, 141, 89, 172, 104
-0.998204, 101, 85, 132, 100
-0.998204, 137, 235, 168, 250
-0.998204, 93, 351, 124, 366
-0.998204, 105, 183, 136, 198
-0.998205, 205, 191, 236, 206
-0.998206, 93, 323, 124, 338
-0.998206, 189, 243, 220, 258
-0.998207, 161, 185, 192, 200
-0.998207, 89, 271, 120, 286
-0.998207, 89, 245, 120, 260
-0.998208, 109, 249, 140, 264
-0.99821, 225, 195, 256, 210
-0.998211, 89, 345, 120, 360
-0.998212, 93, 277, 124, 292
-0.998213, 221, 181, 252, 196
-0.998213, 93, 309, 124, 324
-0.998214, 213, 145, 244, 208
-0.998214, 209, 197, 240, 212
-0.998215, 145, 281, 176, 296
-0.998216, 169, 239, 200, 254
-0.998217, 237, 255, 268, 270
-0.998217, 113, 317, 144, 332
-0.998217, 93, 333, 124, 348
-0.998219, 157, 283, 188, 298
-0.998219, 109, 165, 140, 180
-0.998219, 129, 331, 160, 346
-0.998219, 101, 371, 132, 386
-0.998219, 109, 255, 140, 270
-0.998221, 121, 277, 152, 292
-0.998221, 97, 257, 128, 272
-0.998221, 241, 193, 272, 208
-0.998222, 137, 275, 168, 290
-0.998222, 161, 197, 192, 212
-0.998223, 121, 165, 152, 180
-0.998224, 125, 187, 156, 202
-0.998224, 85, 225, 116, 240
-0.998224, 125, 355, 156, 370
-0.998225, 101, 225, 116, 288
-0.998225, 237, 237, 268, 252
-0.998225, 181, 189, 212, 204
-0.998226, 95, 313, 110, 376
-0.998227, 33, 273, 281, 336
-0.998227, 129, 211, 160, 226
-0.998228, 85, 231, 116, 246
-0.998229, 89, 167, 120, 182
-0.998229, 241, 213, 272, 228
-0.99823, 185, 179, 216, 194
-0.998231, 105, 243, 136, 258
-0.998231, 133, 337, 164, 352
-0.998232, 97, 251, 128, 266
-0.998232, 109, 263, 140, 278
-0.998234, 251, 169, 266, 232
-0.998236, 209, 237, 240, 252
-0.998236, 145, 199, 176, 214
-0.998237, 105, 209, 136, 224
-0.998238, 121, 373, 152, 388
-0.998238, 105, 339, 136, 354
-0.998245, 113, 357, 144, 372
-0.998245, 85, 185, 116, 200
-0.998246, 225, 219, 256, 234
-0.998246, 121, 365, 152, 380
-0.998246, 237, 199, 268, 214
-0.998248, 97, 263, 128, 278
-0.998249, 157, 289, 188, 304
-0.998249, 41, 1, 104, 500
-0.99825, 89, 239, 120, 254
-0.998251, 249, 201, 280, 216
-0.998253, 101, 271, 132, 286
-0.998253, 225, 207, 256, 222
-0.998254, 185, 203, 216, 218
-0.998254, 89, 175, 120, 190
-0.998254, 89, 209, 120, 224
-0.998255, 237, 183, 268, 198
-0.998256, 213, 221, 244, 236
-0.998256, 237, 219, 268, 234
-0.998256, 117, 325, 148, 340
-0.998258, 129, 325, 144, 356
-0.99826, 117, 209, 148, 224
-0.99826, 113, 203, 144, 218
-0.998264, 113, 351, 144, 366
-0.998264, 109, 189, 140, 204
-0.998267, 85, 195, 116, 210
-0.998268, 119, 137, 134, 200
-0.998269, 161, 181, 281, 212
-0.998269, 177, 195, 208, 210
-0.998272, 125, 343, 156, 358
-0.998272, 161, 191, 192, 206
-0.998273, 201, 217, 232, 232
-0.99828, 225, 201, 256, 216
-0.998281, 105, 195, 136, 210
-0.998283, 201, 205, 232, 220
-0.998284, 133, 225, 164, 352
-0.998286, 97, 125, 224, 156
-0.99829, 125, 349, 156, 364
-0.998292, 101, 203, 132, 218
-0.998293, 127, 137, 142, 200
-0.998293, 197, 197, 228, 212
-0.998294, 213, 203, 244, 218
-0.998297, 153, 129, 216, 192
-0.9983, 89, 303, 120, 318
-0.998305, 117, 331, 148, 346
-0.998307, 165, 185, 196, 248
-0.998307, 129, 203, 160, 218
-0.998308, 85, 203, 116, 218
-0.998309, 117, 337, 148, 352
-0.99831, 213, 209, 244, 224
-0.99831, 113, 345, 144, 360
-0.99831, 141, 193, 172, 208
-0.998312, 225, 213, 256, 228
-0.998313, 105, 333, 136, 348
-0.998334, 193, 211, 224, 226
-0.998335, 121, 193, 152, 208
-0.998337, 237, 205, 268, 220
-0.998372, 145, 93, 272, 124
-0.998373, 1, 353, 128, 416
-0.998392, 213, 215, 244, 230
-0.998415, 241, 209, 272, 272
-0.998417, 213, 81, 244, 208
-0.99842, 203, 145, 218, 208
-0.998433, 145, 133, 272, 164
-0.998437, 101, 281, 116, 344
-0.998448, 209, 177, 224, 240
-0.998457, 153, 185, 168, 248
-0.99846, 137, 137, 152, 200
-0.998471, 81, 373, 208, 404
-0.998477, 97, 85, 224, 116
-0.998478, 215, 145, 230, 208
-0.99848, 65, 1, 128, 500
-0.998493, 65, 169, 192, 200
-0.998493, 81, 233, 208, 264
-0.998532, 117, 161, 132, 224
-0.998532, 225, 169, 240, 232
-0.998541, 109, 137, 124, 200
-0.998541, 93, 241, 108, 304
-0.998549, 113, 177, 240, 208
-0.998553, 219, 209, 234, 240
-0.998561, 81, 385, 208, 448
-0.998565, 117, 305, 132, 368
-0.998565, 235, 185, 250, 248
-0.998573, 17, 57, 144, 120
-0.998577, 125, 129, 156, 256
-0.998585, 121, 81, 184, 144
-0.998593, 49, 329, 176, 360
-0.998593, 183, 185, 198, 248
-0.998615, 95, 301, 110, 332
-0.998618, 157, 281, 172, 344
-0.998627, 129, 161, 144, 224
-0.998629, 119, 333, 134, 364
-0.998638, 197, 97, 228, 352
-0.998638, 143, 201, 158, 264
-0.998639, 89, 335, 152, 350
-0.998641, 209, 215, 272, 230
-0.998642, 105, 273, 136, 336
-0.998645, 169, 211, 232, 226
-0.99865, 109, 209, 124, 272
-0.998653, 209, 207, 272, 222
-0.998653, 33, 329, 281, 392
-0.998654, 229, 209, 244, 272
-0.998654, 117, 185, 132, 248
-0.998656, 97, 201, 160, 216
-0.998656, 127, 353, 142, 384
-0.998665, 81, 209, 144, 224
-0.998674, 121, 113, 184, 176
-0.998675, 49, 189, 176, 220
-0.998677, 129, 17, 256, 144
-0.998682, 169, 197, 232, 212
-0.998683, 89, 195, 152, 210
-0.998684, 177, 205, 240, 220
-0.998687, 49, 317, 176, 348
-0.998694, 89, 341, 152, 356
-0.9987, 201, 201, 264, 216
-0.9987, 89, 329, 152, 344
-0.998701, 81, 183, 144, 198
-0.998702, 113, 331, 176, 346
-0.998703, 185, 217, 248, 232
-0.998704, 137, 197, 200, 212
-0.998704, 209, 221, 272, 236
-0.998709, 121, 191, 184, 206
-0.998711, 89, 347, 152, 362
-0.998717, 89, 323, 152, 338
-0.998719, 113, 343, 176, 358
-0.998719, 97, 189, 160, 204
-0.99872, 201, 195, 264, 210
-0.998721, 221, 177, 252, 240
-0.998721, 109, 233, 140, 296
-0.998725, 113, 375, 176, 390
-0.998727, 17, 153, 144, 216
-0.998728, 105, 209, 168, 224
-0.998728, 113, 337, 176, 352
-0.998728, 145, 203, 208, 218
-0.998729, 81, 241, 144, 256
-0.99873, 33, 113, 281, 176
-0.998732, 193, 93, 256, 108
-0.998733, 89, 167, 152, 182
-0.998734, 97, 113, 224, 144
-0.998734, 105, 235, 168, 250
-0.998734, 217, 237, 280, 252
-0.998735, 81, 175, 144, 190
-0.998736, 73, 203, 136, 218
-0.998736, 89, 353, 152, 368
-0.998738, 185, 179, 248, 194
-0.998738, 113, 369, 176, 384
-0.99874, 209, 243, 272, 258
-0.998741, 145, 209, 208, 224
-0.998741, 89, 273, 152, 288
-0.998741, 89, 247, 152, 262
-0.998741, 89, 229, 152, 244
-0.998742, 201, 189, 264, 204
-0.998743, 89, 359, 152, 374
-0.998743, 101, 137, 116, 200
-0.998743, 89, 317, 152, 332
-0.998744, 81, 245, 208, 276
-0.998745, 177, 191, 240, 206
-0.998745, 197, 145, 212, 208
-0.998746, 185, 129, 248, 144
-0.998746, 121, 203, 184, 218
-0.998747, 185, 137, 248, 152
-0.998748, 153, 131, 216, 146
-0.998749, 81, 215, 144, 230
-0.998749, 137, 185, 200, 200
-0.99875, 97, 87, 160, 102
-0.99875, 89, 377, 152, 392
-0.99875, 89, 369, 152, 384
-0.998752, 209, 253, 272, 268
-0.998752, 161, 273, 192, 400
-0.998753, 105, 279, 168, 294
-0.998753, 81, 235, 144, 250
-0.998754, 193, 101, 256, 116
-0.998754, 105, 177, 168, 192
-0.998756, 73, 189, 136, 204
-0.998756, 97, 255, 160, 270
-0.998757, 221, 225, 252, 352
-0.998757, 177, 239, 240, 254
-0.998757, 209, 281, 272, 296
-0.998761, 185, 119, 248, 134
-0.998762, 217, 231, 280, 246
-0.998762, 193, 107, 256, 122
-0.998763, 153, 125, 216, 140
-0.998763, 81, 309, 144, 324
-0.998763, 153, 191, 216, 206
-0.998765, 101, 65, 132, 192
-0.998765, 209, 275, 272, 290
-0.998766, 145, 287, 208, 302
-0.998767, 185, 113, 248, 128
-0.998767, 153, 237, 216, 252
-0.998768, 209, 183, 272, 198
-0.998769, 105, 241, 168, 256
-0.99877, 153, 137, 216, 152
-0.99877, 81, 263, 144, 278
-0.998771, 81, 279, 144, 294
-0.998772, 153, 119, 216, 134
-0.998772, 129, 341, 144, 372
-0.998772, 177, 193, 192, 256
-0.998773, 81, 303, 144, 318
-0.998774, 153, 243, 216, 258
-0.998774, 105, 183, 168, 198
-0.998776, 209, 267, 272, 282
-0.998777, 153, 95, 216, 110
-0.998777, 209, 259, 272, 274
-0.998778, 177, 245, 240, 260
-0.998778, 121, 271, 184, 286
-0.998779, 97, 383, 160, 398
-0.99878, 65, 197, 128, 212
-0.99878, 89, 223, 152, 238
-0.99878, 97, 131, 160, 146
-0.99878, 185, 143, 248, 158
-0.998781, 49, 217, 112, 232
-0.998781, 113, 349, 176, 364
-0.998782, 137, 175, 200, 190
-0.998783, 153, 113, 216, 128
-0.998783, 153, 105, 216, 120
-0.998784, 113, 363, 176, 378
-0.998784, 209, 287, 272, 302
-0.998784, 161, 181, 224, 196
-0.998785, 65, 167, 128, 182
-0.998786, 153, 217, 216, 232
-0.998786, 145, 293, 208, 308
-0.998787, 105, 215, 168, 230
-0.998787, 121, 289, 184, 304
-0.998787, 81, 285, 144, 300
-0.998787, 121, 167, 184, 182
-0.998788, 121, 89, 184, 104
-0.998788, 129, 357, 192, 372
-0.998789, 169, 291, 232, 306
-0.998789, 195, 193, 210, 224
-0.998789, 57, 239, 120, 254
-0.998789, 57, 255, 120, 270
-0.99879, 145, 281, 208, 296
-0.99879, 113, 325, 176, 340
-0.998791, 49, 225, 112, 240
-0.998791, 129, 235, 192, 250
-0.998791, 177, 251, 240, 266
-0.998791, 57, 301, 120, 316
-0.998792, 137, 335, 200, 350
-0.998793, 217, 143, 280, 158
-0.998794, 209, 177, 272, 192
-0.998794, 97, 137, 160, 152
-0.998795, 49, 205, 112, 220
-0.998795, 89, 123, 152, 138
-0.998795, 57, 261, 120, 276
-0.998795, 65, 247, 128, 262
-0.998796, 65, 373, 128, 388
-0.998796, 121, 265, 184, 280
-0.998796, 57, 183, 120, 198
-0.9988, 137, 185, 168, 248
-0.998803, 137, 169, 152, 232
-0.998803, 235, 209, 250, 272
-0.998806, 219, 169, 234, 232
-0.998807, 129, 161, 160, 416
-0.998809, 201, 193, 216, 224
-0.998811, 227, 209, 242, 240
-0.998811, 209, 145, 224, 208
-0.998813, 107, 193, 122, 224
-0.99882, 245, 201, 260, 232
-0.998827, 133, 233, 148, 296
-0.998831, 163, 185, 178, 248
-0.998839, 81, 269, 208, 300
-0.99884, 97, 293, 224, 324
-0.998843, 251, 201, 266, 232
-0.998843, 49, 341, 176, 372
-0.998845, 135, 273, 150, 336
-0.998854, 161, 237, 281, 268
-0.998854, 161, 249, 281, 280
-0.998855, 221, 145, 236, 208
-0.998858, 87, 185, 102, 248
-0.998858, 165, 265, 180, 328
-0.998876, 183, 193, 198, 224
-0.998883, 77, 209, 108, 336
-0.998894, 123, 161, 138, 224
-0.998897, 145, 177, 160, 240
-0.998906, 203, 193, 218, 256
-0.99891, 89, 201, 104, 232
-0.998913, 245, 181, 260, 212
-0.998928, 151, 273, 166, 336
-0.998929, 213, 201, 228, 232
-0.998948, 107, 281, 122, 344
-0.998949, 251, 189, 266, 220
-0.998949, 101, 301, 116, 332
-0.998949, 113, 233, 128, 296
-0.998956, 189, 205, 204, 236
-0.998956, 221, 221, 236, 252
-0.998965, 243, 209, 258, 272
-0.998972, 103, 257, 118, 288
-0.998973, 207, 201, 222, 232
-0.998974, 49, 353, 176, 384
-0.998977, 129, 269, 256, 300
-0.998994, 97, 337, 112, 400
-0.999, 237, 201, 252, 232
-0.99901, 219, 193, 234, 256
-0.999015, 247, 233, 262, 296
-0.999016, 113, 201, 128, 232
-0.999016, 121, 209, 136, 272
-0.999017, 219, 197, 234, 228
-0.999025, 115, 317, 130, 348
-0.999034, 97, 197, 112, 228
-0.999036, 169, 177, 184, 240
-0.999037, 95, 281, 110, 312
-0.999038, 251, 257, 266, 320
-0.999041, 95, 321, 110, 352
-0.999046, 115, 209, 130, 272
-0.999046, 111, 181, 126, 212
-0.999047, 111, 345, 126, 408
-0.999048, 107, 257, 122, 320
-0.99905, 121, 193, 136, 224
-0.99905, 93, 261, 108, 292
-0.999053, 107, 245, 122, 276
-0.999054, 137, 225, 200, 352
-0.999069, 93, 217, 108, 280
-0.99907, 213, 217, 228, 248
-0.999075, 249, 217, 264, 248
-0.999076, 97, 329, 224, 360
-0.999079, 135, 349, 150, 380
-0.99908, 129, 273, 160, 336
-0.99908, 161, 281, 176, 312
-0.999082, 105, 329, 120, 392
-0.999084, 81, 257, 208, 288
-0.999092, 65, 113, 128, 176
-0.999097, 189, 193, 204, 224
-0.999097, 143, 193, 158, 224
-0.999099, 101, 317, 116, 348
-0.9991, 125, 313, 140, 344
-0.999101, 131, 189, 146, 220
-0.999102, 17, 269, 144, 300
-0.99911, 89, 181, 104, 212
-0.99911, 209, 97, 240, 352
-0.99911, 121, 81, 184, 208
-0.999112, 137, 305, 152, 368
-0.999119, 89, 129, 120, 384
-0.999125, 207, 189, 222, 220
-0.99913, 225, 197, 240, 228
-0.999131, 145, 137, 160, 200
-0.999134, 109, 313, 124, 344
-0.999135, 97, 97, 224, 128
-0.999137, 243, 257, 258, 320
-0.999141, 107, 233, 122, 264
-0.999141, 127, 365, 142, 396
-0.999141, 99, 269, 114, 300
-0.999143, 121, 353, 136, 384
-0.999146, 237, 189, 252, 220
-0.99915, 87, 209, 102, 272
-0.999152, 17, 201, 144, 232
-0.999153, 247, 281, 262, 344
-0.999155, 137, 193, 152, 256
-0.999156, 177, 193, 208, 256
-0.999159, 205, 177, 220, 208
-0.999164, 91, 229, 106, 260
-0.999167, 139, 233, 154, 296
-0.999181, 137, 333, 152, 364
-0.999181, 95, 333, 110, 364
-0.999187, 227, 221, 242, 252
-0.999189, 227, 145, 242, 208
-0.999189, 87, 249, 102, 312
-0.999189, 129, 257, 144, 320
-0.999191, 243, 213, 258, 244
-0.999199, 99, 233, 114, 264
-0.999201, 131, 185, 146, 248
-0.999206, 119, 213, 134, 244
-0.999208, 111, 329, 126, 360
-0.999211, 101, 165, 116, 196
-0.999219, 117, 177, 132, 208
-0.999219, 197, 89, 228, 152
-0.999219, 97, 361, 224, 392
-0.999219, 189, 201, 204, 264
-0.99922, 101, 333, 116, 364
-0.999226, 187, 177, 202, 208
-0.999227, 177, 189, 192, 220
-0.999232, 103, 81, 118, 144
-0.999234, 237, 217, 252, 248
-0.999235, 33, 229, 160, 260
-0.999235, 101, 245, 116, 276
-0.999235, 213, 209, 244, 272
-0.999242, 153, 277, 168, 308
-0.999242, 17, 369, 144, 496
-0.999243, 113, 273, 128, 336
-0.999244, 123, 185, 138, 248
-0.999245, 127, 361, 142, 424
-0.999246, 153, 49, 216, 176
-0.999247, 231, 257, 246, 320
-0.999247, 97, 137, 224, 168
-0.999249, 187, 161, 202, 224
-0.999254, 17, 177, 144, 208
-0.999254, 17, 305, 144, 336
-0.999256, 129, 165, 144, 196
-0.999259, 97, 317, 224, 348
-0.99926, 133, 361, 148, 424
-0.99926, 181, 161, 196, 224
-0.999263, 105, 269, 120, 300
-0.999264, 145, 233, 160, 296
-0.999267, 167, 277, 182, 308
-0.999269, 137, 197, 152, 228
-0.999269, 113, 213, 128, 244
-0.999273, 133, 177, 148, 208
-0.999276, 123, 281, 138, 344
-0.999277, 245, 281, 260, 312
-0.999278, 131, 269, 146, 300
-0.999281, 185, 257, 248, 384
-0.999282, 117, 161, 148, 416
-0.999282, 103, 209, 118, 240
-0.999283, 153, 189, 168, 220
-0.999287, 125, 181, 140, 212
-0.999287, 95, 249, 110, 280
-0.999289, 135, 165, 150, 196
-0.99929, 95, 165, 110, 196
-0.999292, 89, 297, 104, 328
-0.999292, 33, 249, 160, 280
-0.999293, 223, 217, 238, 280
-0.999294, 83, 189, 98, 220
-0.9993, 195, 209, 210, 240
-0.999301, 199, 181, 214, 212
-0.999303, 1, 81, 128, 208
-0.999305, 91, 217, 106, 248
-0.999308, 115, 165, 130, 196
-0.999312, 251, 177, 266, 208
-0.999313, 157, 293, 172, 324
-0.999315, 237, 161, 252, 224
-0.999317, 237, 249, 252, 312
-0.999319, 203, 241, 218, 272
-0.999321, 125, 209, 140, 240
-0.999323, 169, 177, 200, 304
-0.999323, 199, 89, 214, 152
-0.999324, 213, 189, 228, 220
-0.999325, 133, 257, 164, 500
-0.999326, 197, 201, 212, 264
-0.999326, 205, 257, 220, 320
-0.99933, 107, 301, 122, 332
-0.999332, 133, 361, 148, 392
-0.999332, 145, 233, 160, 264
-0.999334, 105, 181, 120, 212
-0.999337, 101, 241, 132, 368
-0.999338, 207, 213, 222, 244
-0.999339, 217, 233, 232, 264
-0.999342, 219, 177, 234, 208
-0.999344, 257, 249, 272, 312
-0.999345, 135, 233, 150, 264
-0.999347, 157, 161, 188, 416
-0.999347, 81, 185, 96, 248
-0.999347, 81, 385, 208, 416
-0.999351, 117, 353, 132, 416
-0.999355, 87, 161, 102, 224
-0.999361, 113, 249, 128, 280
-0.999365, 127, 209, 142, 272
-0.999366, 211, 177, 226, 208
-0.999371, 155, 249, 170, 312
-0.999376, 237, 257, 268, 384
-0.999377, 193, 177, 208, 208
-0.999377, 121, 165, 136, 196
-0.999381, 89, 281, 104, 312
-0.999385, 89, 165, 104, 196
-0.99939, 123, 241, 138, 304
-0.999391, 103, 369, 118, 400
-0.999392, 197, 241, 212, 304
-0.999393, 239, 281, 254, 312
-0.999393, 225, 89, 240, 152
-0.999395, 257, 225, 272, 288
-0.999397, 33, 297, 281, 360
-0.999403, 139, 177, 154, 208
-0.999403, 103, 125, 118, 156
-0.999407, 247, 269, 262, 300
-0.999407, 173, 233, 188, 264
-0.999407, 117, 369, 132, 400
-0.999408, 109, 165, 124, 196
-0.999409, 95, 185, 110, 216
-0.999409, 183, 205, 198, 236
-0.999414, 255, 193, 270, 256
-0.999415, 233, 161, 264, 416
-0.999415, 231, 197, 246, 228
-0.999416, 177, 201, 192, 232
-0.999416, 129, 345, 256, 376
-0.999417, 11, 33, 26, 96
-0.999421, 247, 237, 262, 268
-0.999422, 121, 225, 136, 256
-0.999423, 89, 313, 104, 376
-0.999426, 209, 237, 224, 268
-0.999428, 163, 185, 178, 216
-0.999429, 33, 213, 160, 244
-0.999429, 97, 373, 112, 404
-0.99943, 145, 273, 160, 336
-0.99943, 163, 195, 178, 210
-0.99943, 95, 325, 110, 340
-0.99943, 199, 211, 214, 226
-0.999431, 173, 237, 188, 252
-0.999431, 91, 247, 106, 262
-0.999431, 123, 165, 138, 180
-0.999431, 217, 237, 232, 252
-0.999431, 119, 341, 134, 356
-0.999432, 99, 237, 114, 252
-0.999432, 33, 409, 48, 440
-0.999432, 107, 235, 122, 250
-0.999432, 193, 195, 208, 210
-0.999433, 227, 207, 242, 222
-0.999433, 95, 263, 110, 278
-0.999433, 111, 181, 126, 196
-0.999434, 121, 195, 136, 210
-0.999434, 137, 189, 152, 204
-0.999434, 133, 363, 148, 378
-0.999434, 237, 195, 252, 210
-0.999435, 93, 281, 108, 296
-0.999435, 251, 191, 266, 206
-0.999435, 113, 233, 128, 264
-0.999435, 187, 179, 202, 194
-0.999435, 199, 241, 214, 256
-0.999435, 235, 219, 250, 234
-0.999436, 119, 183, 134, 198
-0.999436, 107, 187, 122, 202
-0.999436, 245, 289, 260, 304
-0.999436, 109, 211, 124, 226
-0.999437, 125, 365, 140, 380
-0.999437, 115, 169, 130, 184
-0.999437, 189, 203, 204, 218
-0.999438, 181, 197, 196, 212
-0.999438, 91, 175, 106, 190
-0.999438, 101, 243, 116, 258
-0.999438, 209, 237, 224, 252
-0.999438, 125, 211, 140, 226
-0.999438, 101, 253, 116, 268
-0.999438, 123, 347, 138, 362
-0.999438, 137, 281, 152, 312
-0.999439, 205, 281, 220, 344
-0.99944, 121, 357, 136, 372
-0.99944, 171, 195, 186, 210
-0.99944, 127, 373, 142, 388
-0.99944, 239, 183, 254, 198
-0.999441, 127, 325, 142, 340
-0.999441, 131, 203, 146, 218
-0.999441, 139, 337, 154, 352
-0.999441, 133, 357, 148, 372
-0.999441, 145, 211, 160, 226
-0.999441, 113, 265, 128, 280
-0.999441, 107, 243, 122, 258
-0.999442, 115, 213, 130, 228
-0.999442, 227, 201, 242, 216
-0.999443, 245, 189, 260, 204
-0.999443, 93, 269, 108, 284
-0.999443, 93, 239, 108, 254
-0.999443, 107, 251, 122, 266
-0.999444, 129, 277, 144, 292
-0.999444, 153, 191, 168, 206
-0.999444, 91, 233, 106, 248
-0.999445, 179, 213, 194, 228
-0.999445, 215, 201, 230, 216
-0.999445, 101, 65, 132, 320
-0.999446, 247, 177, 262, 304
-0.999447, 241, 215, 256, 230
-0.999447, 103, 85, 118, 116
-0.999447, 95, 345, 110, 376
-0.999447, 115, 199, 130, 214
-0.999448, 131, 271, 146, 286
-0.999448, 229, 219, 244, 234
-0.999449, 113, 333, 128, 348
-0.999449, 131, 185, 146, 200
-0.999449, 145, 195, 160, 210
-0.999449, 93, 275, 108, 290
-0.99945, 165, 289, 180, 304
-0.99945, 135, 197, 150, 212
-0.999451, 137, 343, 152, 358
-0.999451, 257, 181, 272, 212
-0.999451, 159, 285, 174, 300
-0.999451, 235, 213, 250, 228
-0.999451, 153, 1, 216, 256
-0.999451, 145, 145, 272, 176
-0.999452, 129, 165, 144, 180
-0.999454, 119, 189, 134, 204
-0.999454, 97, 361, 112, 424
-0.999455, 249, 215, 264, 230
-0.999456, 193, 209, 208, 224
-0.999456, 251, 209, 266, 224
-0.999456, 201, 205, 216, 220
-0.999456, 95, 167, 110, 182
-0.999456, 101, 165, 116, 180
-0.999457, 237, 273, 252, 336
-0.999458, 137, 203, 152, 218
-0.999459, 185, 225, 200, 288
-0.99946, 105, 271, 120, 286
-0.999461, 99, 303, 114, 318
-0.999462, 103, 259, 118, 274
-0.999462, 135, 351, 150, 366
-0.999462, 161, 189, 176, 204
-0.999463, 87, 201, 102, 216
-0.999463, 187, 195, 202, 210
-0.999463, 209, 205, 224, 220
-0.999464, 143, 203, 158, 218
-0.999464, 129, 321, 144, 448
-0.999465, 105, 199, 120, 214
-0.999466, 207, 197, 222, 212
-0.999467, 99, 273, 114, 288
-0.999468, 137, 113, 152, 176
-0.999469, 241, 209, 256, 224
-0.999469, 127, 359, 142, 374
-0.999471, 259, 169, 274, 232
-0.999472, 109, 205, 124, 220
-0.999473, 189, 225, 220, 352
-0.999473, 245, 161, 260, 224
-0.999474, 177, 191, 192, 206
-0.999476, 103, 265, 118, 280
-0.999479, 211, 217, 226, 232
-0.999479, 121, 205, 136, 220
-0.99948, 221, 221, 236, 236
-0.999481, 237, 201, 252, 216
-0.999483, 115, 207, 130, 222
-0.999484, 185, 161, 216, 416
-0.999485, 93, 197, 108, 212
-0.999485, 247, 183, 262, 198
-0.999485, 131, 191, 146, 206
-0.999489, 97, 305, 224, 336
-0.99949, 247, 197, 262, 212
-0.999491, 159, 291, 174, 306
-0.999491, 99, 197, 114, 212
-0.999492, 127, 113, 142, 176
-0.999493, 253, 201, 268, 216
-0.999494, 195, 203, 210, 218
-0.999495, 215, 209, 230, 224
-0.999497, 107, 193, 122, 208
-0.999498, 119, 335, 134, 350
-0.999498, 89, 337, 120, 400
-0.9995, 91, 145, 106, 272
-0.999502, 125, 189, 140, 204
-0.999502, 199, 195, 214, 210
-0.999502, 221, 207, 236, 222
-0.999502, 155, 209, 170, 272
-0.999503, 33, 369, 281, 432
-0.999504, 223, 215, 238, 230
-0.999504, 229, 213, 244, 228
-0.999506, 187, 209, 202, 224
-0.999506, 129, 341, 144, 356
-0.999508, 127, 353, 142, 368
-0.999514, 1, 189, 128, 220
-0.999515, 17, 129, 144, 160
-0.999517, 93, 203, 108, 218
-0.999518, 93, 301, 108, 316
-0.999519, 129, 347, 144, 362
-0.999524, 207, 211, 222, 226
-0.999525, 129, 289, 144, 352
-0.999528, 17, 369, 144, 400
-0.999534, 217, 193, 232, 320
-0.999534, 99, 203, 114, 218
-0.999539, 221, 97, 252, 352
-0.999541, 153, 81, 168, 144
-0.999554, 247, 203, 262, 218
-0.999554, 131, 257, 146, 384
-0.99956, 1, 201, 281, 264
-0.999562, 215, 129, 230, 256
-0.999571, 101, 241, 116, 368
-0.999574, 129, 331, 144, 346
-0.999577, 141, 97, 172, 352
-0.999577, 223, 129, 238, 256
-0.999579, 95, 257, 110, 384
-0.999586, 145, 257, 176, 500
-0.999599, 137, 273, 152, 400
-0.99961, 217, 215, 232, 230
-0.999631, 239, 177, 254, 304
-0.999637, 65, 65, 128, 192
-0.999646, 199, 129, 214, 256
-0.999649, 91, 209, 106, 336
-0.999658, 131, 161, 146, 288
-0.999662, 131, 209, 146, 336
-0.999669, 199, 81, 214, 208
-0.99967, 233, 177, 248, 304
-0.999672, 209, 129, 224, 256
-0.999677, 161, 257, 192, 500
-0.999678, 243, 225, 258, 352
-0.999681, 107, 241, 122, 368
-0.999684, 225, 177, 240, 304
-0.999686, 101, 193, 132, 320
-0.999687, 125, 257, 140, 384
-0.99969, 159, 273, 174, 400
-0.999692, 113, 281, 240, 312
-0.999702, 211, 193, 226, 320
-0.999709, 139, 129, 154, 256
-0.999709, 205, 81, 220, 208
-0.999709, 117, 65, 148, 320
-0.999715, 145, 81, 272, 112
-0.999723, 125, 161, 140, 288
-0.999728, 217, 81, 232, 208
-0.999733, 115, 129, 130, 256
-0.999734, 119, 289, 134, 416
-0.999737, 235, 225, 250, 352
-0.999739, 97, 145, 112, 272
-0.999743, 173, 161, 204, 416
-0.999744, 49, 85, 176, 116
-0.999751, 109, 113, 124, 240
-0.999751, 1, 413, 128, 444
-0.999752, 97, 193, 112, 320
-0.999753, 223, 81, 238, 208
-0.999754, 161, 169, 281, 200
-0.99976, 147, 129, 162, 256
-0.999761, 109, 161, 124, 288
-0.999761, 211, 81, 226, 208
-0.999764, 157, 265, 188, 328
-0.999764, 253, 161, 268, 288
-0.999766, 121, 113, 136, 240
-0.999773, 213, 193, 244, 448
-0.999774, 65, 433, 192, 496
-0.999778, 133, 113, 148, 240
-0.999779, 103, 65, 118, 192
-0.999782, 249, 225, 264, 352
-0.999786, 127, 113, 142, 240
-0.999787, 151, 273, 166, 400
-0.999787, 229, 113, 244, 240
-0.999788, 121, 337, 136, 464
-0.999789, 195, 209, 210, 336
-0.999789, 255, 225, 270, 352
-0.999796, 137, 313, 200, 376
-0.9998, 245, 273, 260, 400
-0.999801, 165, 273, 180, 400
-0.999801, 155, 129, 170, 256
-0.999805, 159, 209, 174, 336
-0.999807, 113, 161, 240, 192
-0.999811, 139, 193, 154, 320
-0.99982, 205, 177, 220, 304
-0.999821, 149, 113, 180, 240
-0.999823, 171, 177, 186, 304
-0.999826, 103, 113, 118, 240
-0.999827, 103, 193, 118, 320
-0.999827, 193, 161, 208, 288
-0.999828, 97, 81, 112, 208
-0.999833, 1, 325, 128, 356
-0.999834, 223, 225, 238, 352
-0.999835, 147, 81, 162, 208
-0.999835, 113, 241, 128, 368
-0.999837, 85, 225, 100, 352
-0.999837, 165, 225, 180, 352
-0.999838, 247, 129, 262, 256
-0.999839, 115, 177, 130, 304
-0.999841, 17, 1, 144, 64
-0.999842, 139, 81, 154, 208
-0.999843, 145, 273, 160, 400
-0.999843, 123, 209, 138, 336
-0.999846, 229, 225, 244, 352
-0.999848, 193, 113, 208, 240
-0.999851, 185, 209, 200, 336
-0.999851, 111, 289, 126, 416
-0.999852, 203, 241, 218, 368
-0.999856, 109, 65, 124, 192
-0.999857, 237, 129, 252, 256
-0.999865, 201, 193, 232, 448
-0.999865, 17, 109, 144, 140
-0.999866, 89, 273, 104, 400
-0.999866, 135, 321, 150, 448
-0.999867, 209, 89, 240, 152
-0.999867, 115, 65, 130, 192
-0.999867, 153, 81, 168, 208
-0.999872, 147, 225, 162, 352
-0.99988, 187, 161, 202, 288
-0.99988, 177, 193, 192, 320
-0.99988, 153, 225, 168, 352
-0.999883, 83, 177, 98, 304
-0.999889, 239, 273, 254, 400
-0.99989, 49, 293, 176, 324
-0.999891, 97, 305, 112, 432
-0.999894, 105, 161, 136, 416
-0.999895, 171, 225, 186, 352
-0.9999, 153, 177, 168, 304
-0.999902, 105, 289, 120, 416
-0.999904, 251, 273, 266, 400
-0.999909, 259, 145, 274, 272
-0.999916, 129, 373, 256, 404
-0.999924, 245, 193, 276, 448
-0.999925, 123, 65, 138, 192
-0.999935, 209, 273, 224, 400
-0.999936, 253, 113, 268, 240
-0.999939, 233, 273, 248, 400
-0.99994, 161, 113, 176, 240
-0.999945, 189, 257, 204, 384
-0.999947, 215, 241, 230, 368
-0.999948, 197, 257, 212, 384
-0.999959, 65, 157, 192, 188
-0.99996, 181, 145, 196, 272
-0.99996, 227, 273, 242, 400
-0.999961, 175, 273, 190, 400
-0.999961, 13, 49, 28, 176
-0.999962, 145, 177, 160, 304
-0.999963, 17, 165, 144, 196
-0.999963, 11, 1, 26, 128
-0.999964, 91, 97, 106, 224
-0.999968, 163, 161, 178, 288
-0.999983, 183, 257, 198, 384
-0.999984, 187, 113, 202, 240
-0.999984, 129, 65, 144, 192
-0.999996, 115, 17, 130, 144
-1, 65, 1, 192, 64
-1, 115, 337, 130, 464
-1, 49, 141, 176, 172
-1, 175, 369, 190, 496
-1.00001, 89, 225, 120, 480
-1.00001, 225, 257, 256, 500
-1.00001, 161, 393, 281, 456
-1.00001, 91, 321, 106, 448
-1.00001, 87, 1, 102, 128
-1.00002, 141, 353, 156, 480
-1.00002, 7, 49, 22, 176
-1.00002, 197, 1, 228, 256
-1.00002, 149, 353, 164, 480
-1.00002, 167, 369, 182, 496
-1.00002, 159, 353, 174, 480
-1.00002, 97, 57, 224, 120
-1.00002, 261, 193, 276, 320
-1.00003, 185, 369, 200, 496
-1.00003, 77, 161, 108, 288
-1.00003, 221, 273, 236, 400
-1.00003, 169, 129, 184, 256
-1.00004, 107, 1, 122, 128
-1.00004, 97, 369, 112, 496
-1.00004, 1, 285, 128, 316
-1.00004, 261, 97, 276, 224
-1.00005, 79, 129, 94, 256
-1.00006, 81, 265, 112, 328
-1.00007, 185, 257, 216, 500
-1.00007, 129, 65, 160, 320
-1.00007, 233, 265, 264, 328
-1.00008, 33, 381, 160, 412
-1.00008, 1, 137, 281, 200
-1.00008, 145, 361, 272, 392
-1.00011, 121, 257, 152, 500
-1.00012, 17, 97, 144, 128
-1.00013, 173, 257, 204, 500
-1.00014, 125, 361, 156, 424
-1.00015, 145, 297, 272, 328
-1.00016, 1, 401, 128, 432
-1.00018, 233, 65, 264, 320
-1.00019, 209, 1, 240, 256
-1.0002, 65, 461, 192, 492
-1.00021, 1, 33, 128, 96
-1.00023, 1, 337, 128, 368
-1.00024, 1, 25, 256, 88
-1.00024, 169, 225, 200, 352
-1.00024, 1, 425, 128, 456
-1.00027, 129, 385, 256, 416
-1.00027, 161, 401, 281, 432
-1.00027, 137, 137, 168, 200
-1.00029, 17, 73, 144, 104
-1.0003, 145, 49, 272, 112
-1.00033, 145, 273, 176, 336
-1.00035, 137, 305, 168, 368
-1.00035, 65, 1, 192, 128
-1.00037, 73, 193, 104, 448
-1.00038, 145, 321, 272, 384
-1.00038, 181, 65, 212, 320
-1.00038, 161, 433, 281, 496
-1.00039, 1, 177, 281, 240
-1.00039, 121, 233, 152, 296
-1.0004, 17, 469, 144, 500
-1.0004, 57, 89, 120, 152
-1.00041, 201, 289, 264, 352
-1.00042, 17, 1, 80, 500
-1.00042, 109, 257, 140, 500
-1.00042, 17, 53, 144, 84
-1.00043, 1, 49, 256, 112
-1.00045, 1, 357, 128, 388
-1.00046, 17, 153, 144, 184
-1.00046, 145, 449, 272, 480
-1.00047, 97, 73, 224, 104
-1.00047, 133, 81, 164, 208
-1.00047, 17, 33, 144, 64
-1.00048, 161, 433, 281, 464
-1.00048, 113, 397, 240, 428
-1.00049, 81, 449, 208, 480
-1.00049, 33, 393, 281, 456
-1.00051, 1, 233, 281, 296
-1.00052, 1, 85, 128, 116
-1.00052, 1, 89, 281, 152
-1.00053, 161, 317, 281, 348
-1.00054, 117, 265, 148, 328
-1.00056, 17, 1, 144, 32
-1.00057, 117, 65, 148, 192
-1.00057, 49, 405, 176, 436
-1.0006, 17, 457, 144, 488
-1.0006, 145, 465, 272, 496
-1.00061, 161, 329, 281, 360
-1.00061, 81, 429, 208, 460
-1.00062, 89, 33, 120, 288
-1.00064, 145, 69, 272, 100
-1.00064, 33, 445, 160, 476
-1.00067, 65, 5, 192, 36
-1.00068, 49, 417, 176, 448
-1.0007, 161, 413, 281, 444
-1.00071, 65, 41, 192, 72
-1.00072, 221, 1, 252, 256
-1.00076, 249, 97, 280, 352
-1.00077, 1, 21, 128, 52
-1.00079, 65, 17, 192, 48
-1.00079, 153, 65, 184, 320
-1.00079, 77, 1, 108, 256
-1.0008, 137, 369, 200, 432
-1.00082, 161, 157, 281, 188
-1.00083, 113, 41, 240, 72
-1.00083, 77, 97, 108, 352
-1.00084, 141, 1, 172, 256
-1.00088, 65, 29, 192, 60
-1.00088, 161, 37, 281, 68
-1.00089, 1, 1, 32, 256
-1.00093, 113, 21, 240, 52
-1.00093, 189, 81, 220, 208
-1.00094, 165, 33, 196, 288
-1.00095, 1, 113, 281, 176
-1.00096, 77, 185, 108, 248
-1.00096, 97, 417, 224, 448
-1.00096, 185, 177, 216, 304
-1.00097, 161, 53, 281, 84
-1.00097, 1, 1, 256, 64
-1.00098, 113, 369, 176, 496
-1.00098, 217, 1, 280, 256
-1.001, 149, 209, 180, 272
-1.001, 65, 409, 192, 472
-1.00101, 65, 65, 96, 320
-1.00102, 145, 9, 272, 40
-1.00102, 161, 25, 281, 56
-1.00103, 97, 57, 224, 88
-1.00104, 1, 141, 128, 172
-1.00106, 209, 249, 240, 312
-1.00106, 245, 129, 276, 256
-1.00106, 137, 209, 168, 272
-1.00106, 93, 369, 124, 432
-1.00107, 33, 433, 281, 496
-1.00107, 245, 1, 276, 256
-1.00107, 113, 433, 240, 496
-1.00108, 97, 97, 128, 160
-1.00108, 13, 1, 44, 256
-1.00118, 225, 273, 256, 400
-1.00119, 65, 97, 128, 352
-1.0012, 145, 161, 176, 224
-1.00121, 1, 433, 128, 496
-1.00127, 25, 1, 56, 256
-1.00129, 193, 1, 256, 256
-1.0013, 229, 153, 260, 216
-1.00132, 37, 1, 68, 256
-1.00132, 49, 1, 80, 256
-1.00134, 1, 265, 281, 328
-1.00137, 201, 201, 232, 264
-1.00138, 221, 257, 252, 320
-1.0014, 249, 225, 280, 352
-1.0014, 197, 113, 228, 176
-1.00148, 245, 265, 276, 328
-1.00149, 17, 257, 48, 500
-1.00149, 185, 241, 216, 304
-1.00152, 37, 97, 68, 352
-1.00155, 17, 97, 48, 352
-1.00156, 37, 257, 68, 500
-1.00159, 53, 97, 84, 352
-1.00161, 5, 257, 36, 500
-1.00162, 5, 129, 36, 384
-1.00164, 169, 233, 200, 296
-1.00169, 145, 249, 176, 312
-1.00171, 53, 257, 84, 500
-1.00176, 1, 377, 281, 440
-1.00177, 73, 233, 104, 296
-1.00183, 201, 257, 232, 384
-1.00184, 137, 329, 168, 392
-1.00188, 129, 9, 256, 72
-1.00188, 229, 105, 260, 168
-1.00188, 57, 1, 120, 128
-1.00193, 77, 273, 108, 400
-1.00196, 49, 1, 112, 256
-1.00197, 141, 81, 172, 144
-1.00198, 113, 57, 176, 120
-1.00202, 125, 113, 156, 176
-1.00204, 173, 273, 204, 400
-1.00205, 185, 265, 216, 328
-1.00206, 137, 337, 200, 400
-1.00212, 165, 161, 196, 224
-1.00213, 69, 209, 100, 272
-1.00217, 217, 81, 280, 144
-1.00218, 65, 25, 192, 88
-1.00219, 1, 329, 281, 392
-1.00219, 157, 241, 188, 304
-1.00219, 229, 81, 260, 208
-1.00225, 49, 65, 112, 128
-1.00225, 41, 145, 104, 208
-1.00228, 165, 209, 196, 272
-1.0023, 1, 353, 281, 416
-1.00235, 1, 289, 281, 352
-1.00236, 209, 113, 240, 176
-1.00242, 113, 113, 144, 176
-1.00243, 1, 33, 281, 96
-1.00247, 1, 401, 281, 464
-1.00248, 161, 321, 281, 448
-1.00248, 197, 281, 228, 344
-1.00249, 1, 409, 64, 472
-1.0025, 153, 369, 216, 496
-1.00251, 1, 65, 281, 128
-1.00252, 213, 273, 244, 400
-1.00255, 137, 361, 168, 424
-1.00257, 113, 409, 240, 472
-1.00259, 177, 81, 208, 208
-1.00274, 105, 353, 136, 480
-1.0028, 57, 369, 120, 432
-1.00284, 141, 353, 172, 480
-1.00285, 193, 65, 256, 128
-1.00288, 1, 9, 281, 72
-1.00292, 217, 385, 280, 448
-1.00294, 101, 73, 132, 136
-1.00296, 77, 313, 108, 376
-1.00297, 65, 225, 128, 480
-1.00299, 89, 65, 120, 192
-1.00299, 65, 1, 128, 64
-1.00299, 113, 369, 144, 432
-1.00299, 1, 433, 281, 496
-1.003, 245, 153, 276, 216
-1.00305, 225, 129, 256, 192
-1.00308, 117, 369, 148, 496
-1.0031, 89, 57, 152, 120
-1.00315, 169, 257, 200, 320
-1.00316, 209, 281, 240, 344
-1.00318, 141, 113, 172, 176
-1.00325, 193, 401, 256, 464
-1.00325, 189, 273, 220, 400
-1.00327, 169, 385, 232, 448
-1.00327, 185, 33, 248, 160
-1.00328, 81, 1, 112, 128
-1.00328, 73, 161, 104, 224
-1.00334, 161, 289, 192, 352
-1.00338, 9, 49, 40, 176
-1.00343, 1, 49, 64, 112
-1.00344, 225, 233, 256, 296
-1.00346, 161, 129, 192, 256
-1.00352, 197, 249, 228, 312
-1.00361, 85, 97, 116, 160
-1.00367, 81, 121, 112, 184
-1.00368, 29, 409, 60, 472
-1.00368, 69, 97, 100, 224
-1.0037, 25, 401, 88, 464
-1.00373, 181, 105, 212, 168
-1.00374, 77, 345, 108, 408
-1.00377, 237, 289, 268, 352
-1.00379, 85, 1, 116, 64
-1.00379, 93, 337, 124, 464
-1.00381, 153, 353, 184, 480
-1.00382, 173, 369, 204, 496
-1.00384, 173, 281, 204, 344
-1.00386, 81, 321, 112, 448
-1.00388, 9, 41, 40, 104
-1.00389, 209, 361, 272, 424
-1.00399, 249, 233, 280, 296
-1.00404, 197, 33, 228, 160
-1.00404, 181, 217, 212, 280
-1.0041, 161, 361, 224, 424
-1.00422, 177, 145, 208, 208
-1.00423, 113, 81, 144, 144
-1.00428, 153, 49, 216, 112
-1.00428, 41, 113, 104, 240
-1.00431, 89, 1, 152, 128
-1.00433, 249, 273, 280, 400
-1.00434, 153, 369, 184, 432
-1.00438, 217, 425, 280, 488
-1.00442, 9, 1, 40, 128
-1.00444, 185, 361, 248, 424
-1.00444, 197, 225, 228, 288
-1.00447, 41, 1, 104, 64
-1.00447, 137, 33, 168, 160
-1.00452, 209, 33, 240, 160
-1.00453, 41, 305, 104, 368
-1.00454, 149, 137, 180, 200
-1.00454, 101, 17, 132, 144
-1.00469, 25, 377, 88, 440
-1.00471, 1, 1, 64, 128
-1.00474, 229, 81, 260, 144
-1.00474, 161, 433, 224, 496
-1.00477, 57, 393, 120, 456
-1.00481, 69, 265, 100, 328
-1.00483, 221, 281, 252, 344
-1.00483, 137, 321, 200, 448
-1.00484, 81, 369, 112, 496
-1.00487, 185, 289, 216, 352
-1.00488, 153, 113, 184, 176
-1.00488, 1, 25, 64, 88
-1.00494, 197, 65, 228, 128
-1.00495, 125, 81, 156, 144
-1.00498, 65, 145, 96, 272
-1.00499, 17, 401, 48, 464
-1.00502, 185, 369, 216, 496
-1.00508, 173, 129, 204, 256
-1.00508, 209, 65, 240, 128
-1.0051, 69, 1, 100, 128
-1.00511, 37, 385, 68, 448
-1.00513, 1, 65, 32, 128
-1.00516, 113, 377, 176, 440
-1.00525, 129, 57, 160, 120
-1.00528, 57, 433, 120, 496
-1.00531, 241, 401, 272, 464
-1.00532, 217, 369, 280, 496
-1.00533, 229, 33, 260, 160
-1.00535, 165, 377, 196, 440
-1.00535, 117, 1, 148, 128
-1.00542, 121, 33, 184, 160
-1.00543, 237, 369, 268, 496
-1.00547, 117, 57, 148, 120
-1.00549, 77, 49, 108, 176
-1.00554, 161, 89, 192, 152
-1.00554, 197, 369, 228, 496
-1.00557, 41, 257, 104, 320
-1.00557, 217, 57, 280, 120
-1.00562, 185, 1, 216, 128
-1.00563, 9, 1, 72, 256
-1.00565, 57, 337, 120, 464
-1.00571, 165, 321, 196, 448
-1.00571, 89, 1, 152, 64
-1.00572, 65, 193, 96, 320
-1.0058, 113, 433, 176, 496
-1.00582, 129, 369, 160, 496
-1.00582, 1, 1, 64, 64
-1.00583, 161, 337, 224, 400
-1.00585, 41, 337, 104, 400
-1.00585, 1, 73, 64, 136
-1.00603, 241, 81, 272, 208
-1.00608, 89, 393, 152, 456
-1.00615, 157, 65, 188, 192
-1.00621, 21, 1, 52, 128
-1.00622, 161, 305, 224, 368
-1.00624, 81, 433, 144, 496
-1.00625, 249, 321, 280, 448
-1.00633, 193, 337, 256, 464
-1.00634, 137, 9, 200, 72
-1.00635, 217, 33, 280, 160
-1.00635, 89, 33, 152, 96
-1.00636, 185, 425, 248, 488
-1.00637, 41, 233, 104, 296
-1.00642, 193, 321, 224, 448
-1.00645, 209, 369, 240, 496
-1.0065, 17, 105, 80, 168
-1.00654, 33, 169, 96, 232
-1.00654, 209, 321, 272, 384
-1.00655, 221, 353, 252, 480
-1.00659, 25, 33, 88, 96
-1.00661, 41, 193, 104, 448
-1.00662, 161, 321, 224, 448
-1.00666, 1, 49, 64, 176
-1.00668, 57, 41, 120, 104
-1.00669, 233, 321, 264, 448
-1.0067, 129, 33, 192, 96
-1.0067, 33, 201, 96, 264
-1.00674, 181, 321, 212, 448
-1.00674, 13, 337, 44, 464
-1.00677, 33, 369, 64, 496
-1.00696, 57, 1, 88, 128
-1.00709, 25, 425, 88, 488
-1.00719, 9, 265, 72, 328
-1.00727, 153, 1, 184, 128
-1.0073, 113, 9, 176, 72
-1.00733, 1, 385, 64, 448
-1.00733, 41, 273, 104, 400
-1.00739, 245, 1, 276, 128
-1.00743, 41, 97, 104, 352
-1.00746, 173, 33, 204, 160
-1.00747, 1, 137, 64, 200
-1.00751, 153, 409, 216, 472
-1.00752, 249, 369, 280, 496
-1.00758, 205, 321, 236, 448
-1.00776, 53, 49, 84, 176
-1.00781, 17, 97, 80, 352
-1.00783, 137, 433, 200, 496
-1.00788, 9, 241, 72, 304
-1.00788, 17, 297, 80, 360
-1.00789, 25, 321, 56, 448
-1.0079, 25, 81, 88, 144
-1.00799, 185, 337, 248, 400
-1.00802, 177, 17, 240, 80
-1.00806, 17, 353, 80, 416
-1.00813, 21, 49, 52, 176
-1.00816, 9, 97, 40, 224
-1.00817, 41, 65, 104, 192
-1.00817, 37, 321, 68, 448
-1.00818, 45, 1, 76, 128
-1.0082, 69, 369, 100, 496
-1.0083, 9, 217, 72, 280
-1.00832, 25, 257, 56, 384
-1.00841, 25, 369, 88, 496
-1.00849, 33, 17, 64, 144
-1.00849, 13, 161, 44, 288
-1.00849, 1, 273, 32, 400
-1.0085, 41, 121, 104, 184
-1.00852, 129, 401, 192, 464
-1.00864, 1, 185, 64, 248
-1.00869, 217, 9, 280, 72
-1.0087, 25, 1, 88, 128
-1.00873, 1, 161, 32, 288
-1.00875, 69, 321, 100, 448
-1.00878, 57, 369, 88, 496
-1.0088, 65, 257, 96, 384
-1.00886, 145, 1, 208, 128
-1.0089, 185, 313, 248, 376
-1.00891, 41, 65, 72, 192
-1.00893, 217, 321, 280, 448
-1.00894, 17, 257, 80, 500
-1.00897, 5, 209, 36, 336
-1.00897, 17, 209, 48, 336
-1.00899, 45, 369, 76, 496
-1.009, 1, 321, 32, 448
-1.00904, 45, 145, 76, 272
-1.00905, 13, 257, 44, 384
-1.00906, 1, 321, 64, 384
-1.00908, 57, 97, 88, 224
-1.00915, 21, 113, 52, 240
-1.00918, 1, 369, 32, 496
-1.00918, 53, 321, 84, 448
-1.01078, 25, 321, 88, 448
-1.01085, 9, 97, 72, 224
-1.01169, 17, 193, 80, 320
-1.01237, 9, 145, 72, 272
-1.01237, 1, 337, 64, 464
-1.0126, 9, 257, 72, 384
