1878
-0.567329, 257, 1, 500, 333
-0.585542, 1, 65, 500, 320
-0.585596, 161, 1, 416, 333
-0.595246, 65, 1, 320, 333
-0.688146, 33, 65, 288, 320
-0.701867, 1, 1, 500, 333
-0.713687, 193, 65, 448, 320
-0.862459, 177, 1, 304, 333
-0.88076, 209, 65, 336, 320
-0.892934, 161, 65, 288, 320
-0.893477, 225, 1, 352, 333
-0.894399, 289, 65, 416, 320
-0.896765, 289, 1, 416, 333
-0.897518, 113, 65, 240, 320
-0.905132, 129, 1, 256, 333
-0.912884, 81, 1, 208, 333
-0.919393, 337, 1, 464, 333
-0.925526, 161, 113, 416, 240
-0.927483, 1, 145, 500, 272
-0.928731, 257, 161, 320, 288
-0.932542, 129, 65, 384, 192
-0.933205, 193, 97, 320, 224
-0.933493, 17, 1, 144, 333
-0.933563, 209, 145, 336, 272
-0.93357, 353, 65, 480, 320
-0.934425, 1, 65, 128, 320
-0.935518, 1, 97, 500, 224
-0.936384, 65, 65, 192, 320
-0.938475, 161, 161, 416, 288
-0.943176, 257, 113, 320, 240
-0.943569, 1, 33, 500, 160
-0.946026, 33, 145, 288, 272
-0.946556, 225, 193, 288, 320
-0.946667, 1, 81, 256, 208
-0.946712, 257, 81, 500, 208
-0.948662, 217, 201, 280, 264
-0.951039, 193, 177, 256, 304
-0.952253, 193, 97, 256, 224
-0.95418, 289, 81, 416, 208
-0.954368, 265, 169, 328, 232
-0.95461, 257, 161, 384, 288
-0.956393, 161, 129, 224, 256
-0.956953, 297, 81, 360, 208
-0.956996, 177, 97, 240, 160
-0.957429, 161, 177, 288, 304
-0.958241, 217, 113, 280, 240
-0.959857, 129, 129, 256, 256
-0.96012, 81, 81, 208, 208
-0.960243, 257, 145, 500, 272
-0.96081, 1, 193, 500, 320
-0.960883, 257, 33, 500, 160
-0.961742, 33, 33, 288, 160
-0.961985, 209, 193, 336, 320
-0.962079, 65, 193, 320, 320
-0.962088, 161, 33, 288, 160
-0.962858, 225, 225, 288, 288
-0.963104, 281, 129, 344, 256
-0.963634, 177, 49, 240, 176
-0.963949, 153, 81, 216, 208
-0.964533, 257, 89, 320, 152
-0.965414, 257, 65, 320, 192
-0.965754, 265, 145, 328, 208
-0.966737, 241, 97, 368, 224
-0.966985, 161, 209, 416, 333
-0.967767, 281, 177, 344, 304
-0.969052, 225, 49, 352, 176
-0.969327, 241, 185, 304, 248
-0.96981, 193, 185, 256, 248
-0.970038, 129, 17, 384, 144
-0.97037, 233, 81, 296, 144
-0.97072, 145, 81, 272, 208
-0.970781, 281, 81, 344, 144
-0.970942, 249, 217, 312, 280
-0.971008, 233, 65, 296, 192
-0.971044, 229, 209, 260, 272
-0.97107, 153, 137, 216, 200
-0.971484, 193, 217, 256, 280
-0.97195, 161, 97, 288, 160
-0.972055, 209, 97, 272, 160
-0.973222, 241, 209, 272, 272
-0.973359, 209, 89, 336, 152
-0.973379, 293, 129, 324, 256
-0.973402, 217, 161, 280, 224
-0.973465, 249, 193, 280, 320
-0.97377, 257, 121, 320, 184
-0.974321, 273, 161, 304, 288
-0.97438, 81, 33, 208, 160
-0.974407, 225, 169, 352, 232
-0.974413, 253, 217, 284, 280
-0.974539, 129, 65, 192, 192
-0.97494, 289, 33, 416, 160
-0.974991, 169, 73, 232, 136
-0.975706, 297, 33, 360, 160
-0.975901, 145, 113, 208, 176
-0.97613, 297, 185, 360, 248
-0.976271, 209, 193, 336, 256
-0.97635, 249, 209, 312, 333
-0.976476, 305, 129, 368, 256
-0.976481, 297, 153, 328, 216
-0.976822, 209, 73, 272, 136
-0.976862, 177, 97, 208, 160
-0.976881, 261, 161, 292, 288
-0.976885, 1, 81, 128, 208
-0.977083, 221, 193, 252, 320
-0.97711, 273, 201, 336, 264
-0.977154, 129, 89, 192, 152
-0.977236, 289, 153, 352, 216
-0.977318, 177, 161, 240, 224
-0.977436, 193, 145, 320, 208
-0.977537, 257, 185, 288, 248
-0.9776, 289, 81, 320, 208
-0.977649, 209, 65, 272, 320
-0.978286, 289, 89, 320, 152
-0.978566, 209, 185, 240, 248
-0.978623, 209, 177, 240, 304
-0.978958, 265, 65, 328, 320
-0.979134, 177, 81, 208, 208
-0.979206, 237, 193, 268, 320
-0.979468, 353, 33, 480, 160
-0.979811, 297, 129, 360, 192
-0.98001, 337, 1, 400, 128
-0.980093, 185, 121, 248, 184
-0.980214, 305, 81, 368, 144
-0.980383, 301, 185, 332, 248
-0.980424, 161, 193, 288, 256
-0.980447, 209, 217, 336, 280
-0.980479, 233, 17, 296, 144
-0.980671, 369, 81, 496, 208
-0.980891, 289, 81, 416, 144
-0.980915, 281, 169, 312, 232
-0.980917, 33, 81, 96, 208
-0.981108, 161, 217, 288, 280
-0.981121, 257, 209, 384, 333
-0.981267, 201, 33, 264, 160
-0.981435, 297, 105, 360, 168
-0.98146, 185, 65, 248, 320
-0.981614, 177, 129, 208, 192
-0.98177, 193, 121, 320, 184
-0.98195, 277, 113, 308, 240
-0.981983, 1, 81, 64, 208
-0.982031, 297, 65, 360, 320
-0.982046, 153, 33, 216, 160
-0.982166, 161, 73, 288, 136
-0.982194, 189, 97, 220, 160
-0.982208, 153, 65, 216, 320
-0.982401, 305, 161, 336, 288
-0.982415, 129, 169, 256, 232
-0.982474, 145, 65, 208, 128
-0.982542, 241, 65, 304, 320
-0.982614, 197, 97, 228, 224
-0.982633, 201, 241, 264, 304
-0.982729, 233, 81, 264, 144
-0.982744, 273, 153, 400, 216
-0.982885, 257, 65, 320, 128
-0.982912, 197, 161, 228, 288
-0.982939, 241, 185, 272, 248
-0.982963, 409, 81, 472, 208
-0.983286, 97, 137, 224, 200
-0.983357, 233, 145, 264, 272
-0.983441, 193, 1, 256, 333
-0.983448, 177, 169, 304, 232
-0.983477, 265, 113, 296, 240
-0.983503, 293, 129, 324, 192
-0.983953, 113, 177, 240, 304
-0.98423, 409, 33, 472, 160
-0.984261, 277, 81, 308, 144
-0.984308, 1, 81, 64, 144
-0.984345, 269, 161, 300, 224
-0.984357, 209, 65, 336, 128
-0.984445, 225, 97, 256, 224
-0.984478, 225, 1, 288, 333
-0.984539, 301, 81, 332, 208
-0.984568, 285, 177, 316, 304
-0.984627, 217, 209, 248, 272
-0.984647, 209, 1, 336, 128
-0.984737, 297, 209, 360, 272
-0.985014, 113, 81, 240, 144
-0.985031, 181, 129, 212, 256
-0.98507, 217, 89, 248, 152
-0.985144, 33, 33, 160, 160
-0.985409, 289, 121, 416, 184
-0.985527, 345, 81, 408, 208
-0.985557, 377, 33, 440, 160
-0.985575, 233, 105, 296, 168
-0.985605, 221, 233, 252, 296
-0.985914, 57, 81, 120, 208
-0.985922, 25, 81, 88, 144
-0.985937, 297, 57, 360, 120
-0.986036, 165, 105, 196, 168
-0.986105, 433, 81, 496, 208
-0.986185, 393, 89, 456, 152
-0.986271, 385, 81, 448, 208
-0.986313, 305, 177, 432, 304
-0.986572, 249, 1, 312, 333
-0.986579, 169, 177, 232, 304
-0.986656, 265, 225, 296, 288
-0.986771, 301, 81, 332, 144
-0.986794, 257, 209, 384, 272
-0.9868, 273, 225, 336, 288
-0.986809, 301, 209, 332, 272
-0.986893, 337, 81, 400, 144
-0.986928, 213, 97, 244, 224
-0.986937, 65, 81, 192, 144
-0.986975, 305, 177, 368, 304
-0.986986, 305, 129, 432, 256
-0.98703, 233, 57, 296, 120
-0.987151, 177, 241, 304, 304
-0.987176, 9, 33, 72, 160
-0.98731, 173, 73, 204, 136
-0.987342, 105, 81, 168, 208
-0.987491, 233, 233, 264, 296
-0.987559, 165, 65, 196, 192
-0.987564, 401, 65, 464, 128
-0.987625, 205, 81, 236, 144
-0.987671, 361, 81, 424, 144
-0.987682, 221, 185, 252, 248
-0.987733, 81, 33, 144, 160
-0.987921, 193, 161, 224, 224
-0.987931, 97, 105, 224, 168
-0.987995, 241, 129, 368, 192
-0.988089, 57, 81, 120, 144
-0.98813, 241, 161, 304, 224
-0.988339, 313, 81, 344, 208
-0.988379, 245, 81, 276, 144
-0.988403, 217, 65, 248, 128
-0.988525, 377, 57, 440, 120
-0.988697, 153, 89, 184, 152
-0.988708, 433, 33, 496, 160
-0.988854, 265, 173, 328, 204
-0.988869, 41, 33, 104, 160
-0.988965, 81, 81, 144, 208
-0.988972, 1, 65, 64, 320
-0.988973, 217, 221, 280, 252
-0.989018, 221, 145, 252, 272
-0.989029, 129, 105, 384, 168
-0.989059, 257, 17, 320, 144
-0.989064, 217, 209, 280, 240
-0.989111, 273, 177, 400, 240
-0.989187, 145, 121, 272, 184
-0.989189, 233, 129, 296, 192
-0.98926, 197, 121, 228, 184
-0.989285, 1, 57, 64, 120
-0.989299, 237, 65, 268, 192
-0.989481, 337, 81, 464, 144
-0.989518, 261, 209, 292, 333
-0.989597, 313, 177, 344, 240
-0.989604, 321, 81, 384, 208
-0.989622, 165, 113, 196, 240
-0.989707, 297, 1, 360, 333
-0.98995, 229, 105, 260, 168
-0.989964, 253, 97, 284, 224
-0.990002, 33, 57, 96, 120
-0.990016, 193, 65, 224, 128
-0.990024, 433, 81, 496, 144
-0.990032, 209, 197, 272, 228
-0.990049, 1, 81, 128, 144
-0.990051, 177, 97, 240, 128
-0.990098, 169, 1, 232, 333
-0.990116, 285, 201, 316, 264
-0.990129, 233, 233, 296, 264
-0.990171, 261, 81, 292, 144
-0.99024, 189, 49, 220, 176
-0.990302, 321, 57, 384, 120
-0.990334, 273, 57, 400, 120
-0.99041, 113, 57, 240, 120
-0.990417, 153, 161, 216, 224
-0.990421, 249, 189, 312, 220
-0.990469, 273, 161, 336, 192
-0.990557, 241, 221, 304, 252
-0.990571, 309, 113, 340, 176
-0.990605, 153, 133, 216, 164
-0.990646, 129, 65, 192, 320
-0.990679, 293, 33, 324, 160
-0.990725, 185, 41, 248, 104
-0.990738, 425, 57, 488, 120
-0.990749, 169, 109, 232, 140
-0.99075, 105, 33, 168, 160
-0.990773, 177, 1, 240, 128
-0.990798, 193, 221, 256, 252
-0.990846, 129, 129, 384, 192
-0.990856, 105, 81, 168, 144
-0.990856, 265, 213, 328, 244
-0.990917, 209, 173, 272, 204
-0.990929, 257, 93, 320, 124
-0.990952, 233, 89, 296, 120
-0.991015, 257, 81, 320, 112
-0.991034, 225, 185, 288, 216
-0.991037, 177, 33, 208, 160
-0.991056, 353, 49, 416, 112
-0.991063, 81, 81, 144, 144
-0.991114, 245, 145, 276, 272
-0.991121, 281, 85, 344, 116
-0.991135, 249, 201, 312, 232
-0.991151, 145, 121, 208, 152
-0.991196, 273, 1, 336, 333
-0.991209, 177, 85, 240, 116
-0.99126, 241, 105, 272, 168
-0.991264, 353, 57, 480, 120
-0.991271, 201, 101, 264, 132
-0.991271, 265, 149, 328, 180
-0.991311, 321, 65, 384, 320
-0.991337, 225, 49, 256, 176
-0.991352, 145, 145, 272, 208
-0.991396, 313, 81, 344, 144
-0.991445, 277, 65, 308, 192
-0.991453, 185, 189, 248, 220
-0.991491, 209, 85, 272, 116
-0.991494, 297, 165, 360, 196
-0.99151, 265, 129, 328, 160
-0.991512, 201, 241, 264, 272
-0.991522, 113, 193, 240, 256
-0.991528, 193, 149, 256, 180
-0.99153, 289, 205, 352, 236
-0.991548, 65, 57, 128, 120
-0.99155, 177, 121, 240, 152
-0.991567, 289, 65, 320, 128
-0.991573, 161, 165, 224, 196
-0.991615, 265, 225, 328, 256
-0.991623, 213, 33, 244, 160
-0.991628, 145, 1, 208, 333
-0.991706, 361, 1, 424, 333
-0.991744, 177, 177, 240, 208
-0.991757, 81, 129, 208, 256
-0.991757, 265, 113, 328, 144
-0.991775, 281, 113, 312, 176
-0.991781, 241, 169, 304, 200
-0.991833, 297, 129, 360, 160
-0.991835, 289, 177, 352, 208
-0.991872, 153, 145, 216, 176
-0.991884, 185, 133, 248, 164
-0.991924, 153, 85, 216, 116
-0.991978, 153, 81, 184, 208
-0.992053, 241, 213, 272, 244
-0.992077, 193, 209, 256, 240
-0.992094, 193, 161, 256, 192
-0.992098, 225, 217, 256, 248
-0.992111, 297, 141, 360, 172
-0.992135, 289, 193, 352, 224
-0.992157, 253, 221, 284, 252
-0.992179, 225, 81, 480, 144
-0.992184, 161, 169, 416, 232
-0.992197, 129, 81, 384, 144
-0.992236, 41, 65, 104, 320
-0.992236, 369, 65, 432, 320
-0.992254, 297, 117, 360, 148
-0.992275, 369, 1, 400, 128
-0.992336, 25, 85, 88, 116
-0.992379, 209, 49, 272, 112
-0.992432, 225, 109, 288, 140
-0.992448, 297, 153, 360, 184
-0.992449, 241, 229, 272, 260
-0.992485, 305, 85, 368, 116
-0.992489, 145, 101, 208, 132
-0.992495, 305, 33, 336, 160
-0.992497, 173, 125, 204, 156
-0.992506, 1, 57, 128, 120
-0.992512, 281, 73, 344, 104
-0.992524, 393, 89, 456, 120
-0.992525, 277, 169, 308, 200
-0.992544, 173, 113, 204, 144
-0.992555, 289, 217, 352, 248
-0.992575, 225, 241, 352, 304
-0.992578, 181, 153, 212, 216
-0.9926, 233, 197, 264, 228
-0.992625, 293, 157, 324, 188
-0.992648, 221, 205, 252, 236
-0.992652, 281, 97, 344, 128
-0.992655, 329, 17, 392, 80
-0.992656, 285, 85, 316, 116
-0.992674, 417, 89, 480, 120
-0.99268, 297, 177, 328, 208
-0.992737, 129, 17, 192, 144
-0.992744, 221, 233, 252, 264
-0.992755, 233, 157, 296, 188
-0.992759, 129, 89, 192, 120
-0.992761, 1, 85, 64, 116
-0.992791, 401, 77, 464, 108
-0.992797, 177, 137, 208, 168
-0.992805, 177, 101, 208, 132
-0.99281, 305, 201, 432, 264
-0.992814, 177, 233, 240, 264
-0.992822, 233, 77, 296, 108
-0.992827, 169, 185, 232, 248
-0.992828, 369, 81, 432, 112
-0.992839, 161, 117, 192, 148
-0.992853, 257, 181, 288, 212
-0.992867, 313, 185, 376, 216
-0.992885, 301, 201, 332, 232
-0.992888, 73, 85, 136, 116
-0.992889, 337, 1, 400, 333
-0.992895, 217, 101, 248, 132
-0.992901, 213, 189, 244, 220
-0.992919, 425, 77, 488, 108
-0.992933, 185, 69, 248, 100
-0.992955, 201, 177, 232, 208
-0.992957, 297, 209, 328, 333
-0.992965, 233, 185, 264, 216
-0.992981, 337, 85, 400, 116
-0.992982, 225, 245, 288, 276
-0.992982, 197, 89, 228, 120
-0.992986, 285, 97, 316, 128
-0.992996, 245, 201, 276, 232
-0.992999, 153, 73, 216, 104
-0.993005, 229, 89, 260, 120
-0.993031, 105, 85, 168, 116
-0.993034, 161, 49, 288, 112
-0.993051, 265, 225, 296, 256
-0.993054, 213, 221, 244, 252
-0.993055, 301, 189, 332, 220
-0.993056, 305, 85, 336, 116
-0.993057, 201, 113, 264, 144
-0.993067, 209, 89, 240, 120
-0.993072, 273, 85, 304, 116
-0.993073, 293, 113, 324, 144
-0.993099, 153, 233, 216, 264
-0.993101, 185, 121, 216, 152
-0.993104, 233, 201, 248, 264
-0.993106, 305, 165, 336, 196
-0.993109, 181, 85, 212, 116
-0.993119, 257, 209, 288, 240
-0.993128, 185, 157, 216, 188
-0.993145, 229, 105, 260, 136
-0.993146, 265, 169, 296, 200
-0.993154, 233, 241, 264, 272
-0.99316, 193, 133, 224, 164
-0.99319, 189, 169, 220, 200
-0.993193, 225, 49, 288, 80
-0.993195, 9, 81, 40, 208
-0.993201, 289, 205, 320, 236
-0.993217, 273, 97, 304, 128
-0.993231, 257, 193, 288, 224
-0.993234, 49, 85, 112, 116
-0.993247, 289, 145, 320, 176
-0.993252, 253, 233, 284, 264
-0.993256, 257, 69, 320, 100
-0.993268, 297, 101, 328, 132
-0.993274, 169, 209, 232, 240
-0.993279, 241, 89, 272, 120
-0.993289, 165, 129, 196, 192
-0.993291, 53, 81, 84, 208
-0.993293, 301, 213, 332, 244
-0.993294, 185, 49, 248, 80
-0.993307, 321, 73, 384, 104
-0.993316, 209, 73, 272, 104
-0.993316, 313, 201, 344, 232
-0.993325, 293, 73, 324, 104
-0.99333, 1, 73, 64, 104
-0.993338, 329, 25, 392, 56
-0.993346, 313, 201, 344, 264
-0.99335, 309, 129, 340, 160
-0.99335, 157, 93, 188, 124
-0.993354, 285, 181, 316, 212
-0.993358, 161, 129, 192, 160
-0.993364, 281, 73, 312, 104
-0.993374, 309, 177, 340, 208
-0.99338, 249, 165, 280, 196
-0.993385, 293, 129, 324, 160
-0.993387, 281, 217, 312, 248
-0.993388, 169, 85, 200, 116
-0.993391, 309, 141, 340, 172
-0.993396, 253, 89, 284, 120
-0.993397, 205, 101, 236, 132
-0.993399, 197, 145, 228, 176
-0.993407, 289, 193, 320, 224
-0.993425, 277, 157, 308, 188
-0.993427, 313, 189, 344, 220
-0.993441, 189, 105, 220, 136
-0.993448, 425, 89, 456, 120
-0.993452, 65, 73, 128, 104
-0.993453, 5, 85, 36, 116
-0.993454, 1, 81, 32, 144
-0.993456, 209, 233, 240, 264
-0.99346, 437, 89, 468, 120
-0.993461, 241, 101, 272, 132
-0.993467, 345, 65, 408, 320
-0.993468, 205, 157, 236, 188
-0.993472, 33, 85, 64, 116
-0.993478, 261, 157, 292, 188
-0.993484, 281, 117, 312, 148
-0.993484, 185, 33, 248, 64
-0.993489, 161, 105, 192, 136
-0.99349, 221, 77, 252, 108
-0.993504, 305, 105, 368, 136
-0.993504, 313, 153, 344, 184
-0.99351, 61, 85, 92, 116
-0.993512, 201, 217, 232, 248
-0.993513, 45, 85, 76, 116
-0.993519, 413, 89, 444, 120
-0.993521, 269, 213, 300, 244
-0.993521, 245, 189, 276, 220
-0.993522, 433, 65, 496, 320
-0.993528, 1, 81, 256, 144
-0.993529, 369, 93, 432, 124
-0.99353, 401, 89, 432, 120
-0.993533, 169, 221, 232, 252
-0.993535, 193, 77, 224, 108
-0.993536, 345, 73, 408, 104
-0.993538, 33, 73, 96, 104
-0.993539, 401, 65, 464, 320
-0.99354, 265, 237, 296, 268
-0.993541, 309, 117, 340, 148
-0.993544, 305, 73, 336, 104
-0.993549, 21, 85, 52, 116
-0.993557, 1, 233, 64, 264
-0.993564, 241, 121, 304, 152
-0.993564, 197, 121, 228, 152
-0.993565, 121, 281, 184, 312
-0.993569, 413, 77, 444, 108
-0.993571, 241, 77, 272, 108
-0.993574, 433, 77, 464, 108
-0.993578, 321, 225, 384, 256
-0.993581, 209, 201, 240, 232
-0.993593, 317, 165, 348, 196
-0.993594, 425, 81, 456, 208
-0.993597, 73, 85, 104, 116
-0.993604, 265, 285, 328, 316
-0.993606, 153, 9, 216, 40
-0.993608, 221, 177, 252, 208
-0.99361, 293, 225, 324, 256
-0.993612, 221, 245, 252, 276
-0.993615, 417, 245, 480, 276
-0.993616, 277, 229, 308, 260
-0.993618, 449, 89, 480, 120
-0.993621, 213, 49, 244, 80
-0.993622, 145, 221, 208, 252
-0.993623, 65, 57, 192, 120
-0.993626, 121, 113, 184, 144
-0.993627, 469, 85, 500, 116
-0.993631, 261, 77, 292, 108
-0.993633, 225, 293, 288, 324
-0.993634, 137, 85, 168, 116
-0.993637, 245, 113, 276, 144
-0.993637, 329, 37, 392, 68
-0.99364, 297, 37, 360, 68
-0.993643, 181, 73, 212, 104
-0.993643, 257, 237, 320, 268
-0.993644, 245, 177, 276, 208
-0.993646, 85, 85, 116, 116
-0.993646, 349, 85, 380, 116
-0.993652, 365, 85, 396, 116
-0.993657, 101, 85, 132, 116
-0.993669, 89, 57, 152, 120
-0.993672, 457, 77, 488, 108
-0.993673, 129, 77, 192, 108
-0.993674, 325, 85, 356, 116
-0.993676, 125, 85, 156, 116
-0.993683, 377, 85, 408, 116
-0.993685, 229, 57, 260, 120
-0.993686, 313, 213, 344, 244
-0.993691, 337, 85, 368, 116
-0.993694, 113, 85, 144, 116
-0.993703, 165, 73, 196, 104
-0.993704, 313, 101, 344, 132
-0.993707, 253, 101, 284, 132
-0.993707, 149, 105, 180, 136
-0.993707, 193, 217, 320, 248
-0.993718, 445, 77, 476, 108
-0.993726, 161, 49, 224, 80
-0.993739, 145, 25, 208, 56
-0.993747, 41, 241, 104, 272
-0.993752, 177, 9, 240, 40
-0.993752, 413, 81, 444, 208
-0.993762, 1, 225, 64, 288
-0.993775, 161, 37, 224, 68
-0.993781, 345, 13, 408, 44
-0.9938, 377, 69, 440, 100
-0.993804, 129, 249, 192, 280
-0.993804, 249, 297, 312, 328
-0.993807, 305, 25, 368, 56
-0.99381, 17, 245, 80, 276
-0.993812, 177, 301, 240, 332
-0.993822, 17, 221, 80, 252
-0.993824, 193, 173, 320, 204
-0.993833, 249, 249, 312, 280
-0.993848, 29, 81, 60, 208
-0.993851, 89, 73, 152, 104
-0.993851, 233, 65, 296, 96
-0.993857, 305, 245, 368, 276
-0.993867, 329, 237, 392, 268
-0.993872, 329, 1, 392, 32
-0.993872, 369, 17, 432, 48
-0.993872, 393, 229, 456, 260
-0.993873, 225, 21, 288, 52
-0.993875, 393, 257, 456, 288
-0.99388, 153, 249, 216, 280
-0.993883, 369, 33, 432, 64
-0.993885, 145, 285, 208, 316
-0.993888, 313, 161, 376, 224
-0.993895, 161, 65, 192, 128
-0.993942, 65, 81, 96, 208
-0.993976, 385, 1, 448, 333
-0.993985, 309, 161, 324, 224
-0.993997, 29, 81, 60, 144
-0.994091, 261, 129, 292, 192
-0.994118, 441, 81, 472, 208
-0.994121, 41, 81, 72, 144
-0.994132, 257, 193, 272, 256
-0.994148, 1, 1, 64, 333
-0.994149, 265, 65, 296, 192
-0.99415, 17, 81, 48, 144
-0.994204, 409, 1, 472, 333
-0.994223, 113, 57, 176, 120
-0.994227, 161, 101, 288, 132
-0.994254, 73, 1, 136, 333
-0.994279, 257, 193, 500, 320
-0.994282, 281, 145, 312, 208
-0.994289, 237, 17, 268, 144
-0.994348, 249, 33, 280, 160
-0.994356, 305, 17, 432, 80
-0.994361, 249, 153, 280, 216
-0.99439, 179, 105, 194, 168
-0.994401, 209, 233, 240, 296
-0.994404, 65, 153, 320, 216
-0.994421, 41, 81, 72, 208
-0.994436, 425, 257, 488, 320
-0.994443, 193, 185, 320, 216
-0.994464, 241, 177, 368, 208
-0.994476, 61, 81, 92, 144
-0.994484, 227, 193, 242, 256
-0.994508, 309, 137, 340, 200
-0.99452, 121, 1, 184, 333
-0.994529, 209, 41, 336, 104
-0.994532, 239, 217, 254, 280
-0.994542, 425, 89, 456, 152
-0.99462, 177, 161, 304, 192
-0.99463, 209, 93, 336, 124
-0.994669, 257, 153, 500, 216
-0.994683, 177, 1, 240, 64
-0.994707, 77, 81, 108, 208
-0.994869, 233, 249, 296, 312
-0.994883, 301, 57, 332, 120
-0.994884, 289, 225, 320, 288
-0.99491, 303, 185, 318, 248
-0.994932, 137, 129, 200, 256
-0.994949, 361, 81, 392, 208
-0.994987, 209, 205, 336, 236
-0.994997, 97, 225, 352, 288
-0.994997, 201, 49, 232, 176
-0.995035, 65, 185, 320, 248
-0.995099, 65, 1, 192, 64
-0.995109, 257, 217, 272, 280
-0.995156, 357, 33, 388, 160
-0.995157, 341, 81, 372, 144
-0.995182, 221, 185, 236, 248
-0.995202, 145, 41, 208, 104
-0.995218, 265, 217, 280, 280
-0.995224, 113, 217, 240, 280
-0.995264, 185, 121, 200, 184
-0.995276, 97, 1, 160, 333
-0.995313, 191, 97, 206, 160
-0.995315, 409, 89, 440, 152
-0.995359, 1, 209, 128, 272
-0.995378, 25, 33, 56, 160
-0.995385, 161, 1, 288, 64
-0.99539, 413, 65, 444, 128
-0.995407, 173, 113, 188, 176
-0.995411, 65, 65, 128, 320
-0.995413, 193, 201, 448, 264
-0.995424, 209, 153, 240, 216
-0.995467, 251, 209, 266, 272
-0.995474, 265, 41, 328, 104
-0.995506, 337, 225, 464, 288
-0.995522, 453, 81, 484, 208
-0.995542, 205, 57, 236, 120
-0.995557, 5, 57, 36, 120
-0.995572, 381, 1, 412, 128
-0.995572, 257, 165, 384, 196
-0.995576, 161, 113, 288, 144
-0.995584, 225, 1, 352, 64
-0.995586, 265, 177, 280, 240
-0.995603, 417, 33, 448, 160
-0.995611, 169, 265, 232, 328
-0.995619, 253, 105, 284, 168
-0.995628, 433, 1, 496, 333
-0.995637, 225, 217, 240, 280
-0.995665, 469, 81, 500, 208
-0.995676, 105, 65, 168, 320
-0.995726, 161, 17, 192, 144
-0.995733, 245, 201, 260, 264
-0.995735, 257, 33, 384, 96
-0.995758, 297, 177, 312, 240
-0.995761, 345, 33, 376, 160
-0.995769, 161, 85, 288, 116
-0.995769, 291, 81, 306, 144
-0.995782, 209, 137, 272, 200
-0.995798, 193, 229, 320, 260
-0.99581, 1, 129, 256, 192
-0.995819, 185, 97, 200, 160
-0.995823, 325, 81, 356, 144
-0.995842, 321, 177, 448, 240
-0.99585, 161, 125, 288, 156
-0.995857, 41, 1, 104, 333
-0.995865, 191, 137, 206, 200
-0.995893, 333, 1, 364, 128
-0.995908, 273, 257, 336, 320
-0.995917, 239, 81, 254, 144
-0.995931, 289, 249, 416, 312
-0.995932, 209, 105, 336, 136
-0.995933, 257, 85, 384, 116
-0.995951, 303, 89, 318, 152
-0.995953, 241, 221, 368, 252
-0.995954, 329, 225, 392, 288
-0.995961, 309, 185, 324, 248
-0.995975, 305, 137, 320, 200
-0.995982, 257, 129, 500, 192
-0.99599, 197, 153, 212, 216
-0.996007, 469, 81, 500, 144
-0.996013, 321, 33, 352, 160
-0.996066, 1, 137, 500, 200
-0.996083, 297, 89, 312, 152
-0.996083, 245, 225, 260, 288
-0.996088, 97, 241, 224, 304
-0.996096, 269, 201, 300, 264
-0.996097, 145, 25, 272, 88
-0.996109, 129, 57, 384, 120
-0.996115, 153, 1, 216, 64
-0.996134, 317, 145, 348, 272
-0.996152, 353, 9, 480, 72
-0.996157, 193, 149, 320, 180
-0.996174, 233, 225, 248, 288
-0.996179, 129, 181, 256, 212
-0.996186, 245, 81, 260, 144
-0.99619, 65, 33, 96, 160
-0.996193, 1, 241, 128, 304
-0.996194, 429, 65, 460, 128
-0.996197, 269, 57, 300, 120
-0.9962, 227, 97, 242, 160
-0.996205, 271, 217, 286, 280
-0.996208, 337, 81, 368, 208
-0.996241, 437, 89, 468, 152
-0.996254, 353, 81, 384, 144
-0.996292, 283, 161, 298, 224
-0.9963, 297, 233, 360, 296
-0.996306, 397, 89, 428, 152
-0.996319, 381, 81, 412, 208
-0.99633, 73, 81, 104, 144
-0.996332, 193, 225, 448, 288
-0.99634, 49, 233, 176, 296
-0.996343, 225, 17, 288, 80
-0.99635, 369, 249, 496, 312
-0.996351, 349, 81, 380, 208
-0.996355, 203, 169, 218, 232
-0.996377, 209, 81, 336, 112
-0.9964, 205, 209, 236, 272
-0.996416, 145, 221, 272, 252
-0.99644, 233, 81, 248, 144
-0.996458, 153, 225, 216, 288
-0.996477, 161, 205, 288, 236
-0.996488, 1, 105, 256, 168
-0.996507, 257, 105, 500, 168
-0.996557, 315, 177, 330, 240
-0.99656, 385, 81, 416, 144
-0.996562, 49, 57, 80, 120
-0.996573, 45, 33, 76, 160
-0.99663, 275, 169, 290, 232
-0.996634, 215, 185, 230, 248
-0.996637, 113, 81, 144, 208
-0.996651, 305, 209, 320, 272
-0.996653, 97, 137, 224, 168
-0.996655, 291, 169, 306, 232
-0.996665, 297, 1, 360, 64
-0.996681, 179, 81, 194, 144
-0.996685, 285, 89, 300, 152
-0.99669, 209, 117, 336, 148
-0.99669, 369, 209, 496, 333
-0.996703, 205, 145, 220, 208
-0.99672, 241, 189, 368, 220
-0.996733, 397, 81, 428, 208
-0.996747, 365, 81, 396, 144
-0.996747, 209, 177, 224, 240
-0.996757, 225, 161, 256, 224
-0.996765, 429, 33, 460, 160
-0.996768, 97, 33, 224, 96
-0.99677, 219, 81, 234, 144
-0.996776, 183, 125, 198, 156
-0.996792, 113, 89, 240, 120
-0.996805, 113, 169, 240, 200
-0.996805, 149, 33, 180, 160
-0.996806, 113, 149, 240, 180
-0.996808, 227, 65, 242, 128
-0.996816, 129, 265, 256, 328
-0.996827, 89, 81, 120, 208
-0.996831, 1, 161, 500, 224
-0.996832, 41, 241, 104, 304
-0.996852, 1, 17, 32, 144
-0.996867, 251, 81, 266, 144
-0.996874, 13, 33, 44, 160
-0.996888, 93, 81, 124, 144
-0.99689, 441, 65, 472, 128
-0.996893, 197, 97, 212, 160
-0.996894, 289, 137, 416, 168
-0.996907, 177, 273, 304, 333
-0.996908, 97, 125, 224, 156
-0.996927, 457, 1, 488, 128
-0.996931, 177, 137, 304, 168
-0.996932, 217, 65, 248, 320
-0.996941, 211, 153, 226, 216
-0.996943, 393, 225, 456, 288
-0.996979, 269, 105, 300, 168
-0.99701, 137, 81, 168, 144
-0.997015, 289, 121, 416, 152
-0.997017, 225, 57, 480, 120
-0.997056, 237, 161, 268, 224
-0.997085, 145, 233, 272, 264
-0.997095, 1, 57, 256, 120
-0.997103, 369, 201, 496, 264
-0.99711, 187, 73, 202, 136
-0.99712, 289, 65, 320, 320
-0.997122, 177, 113, 192, 144
-0.997129, 353, 1, 416, 64
-0.997158, 233, 105, 248, 168
-0.997158, 241, 265, 368, 328
-0.997172, 259, 169, 274, 232
-0.997182, 255, 217, 270, 248
-0.997183, 297, 33, 360, 96
-0.997189, 299, 153, 314, 216
-0.997196, 213, 97, 228, 160
-0.997212, 171, 81, 186, 144
-0.997214, 235, 209, 250, 240
-0.997241, 313, 81, 328, 144
-0.997245, 193, 1, 224, 128
-0.997252, 17, 1, 144, 64
-0.997262, 207, 81, 222, 144
-0.997301, 289, 273, 416, 333
-0.997319, 17, 57, 48, 120
-0.997333, 297, 65, 312, 128
-0.997347, 97, 113, 224, 144
-0.997354, 261, 221, 276, 252
-0.997364, 199, 129, 214, 192
-0.997375, 265, 153, 280, 216
-0.99739, 247, 105, 262, 168
-0.997394, 237, 229, 252, 260
-0.997395, 313, 121, 328, 184
-0.997395, 239, 193, 254, 256
-0.997402, 441, 33, 472, 160
-0.997412, 257, 209, 384, 240
-0.997413, 289, 149, 416, 180
-0.997414, 453, 65, 484, 128
-0.997419, 307, 113, 322, 176
-0.997429, 179, 129, 194, 192
-0.997432, 405, 33, 436, 160
-0.997434, 133, 81, 164, 208
-0.997443, 247, 209, 262, 240
-0.997464, 197, 73, 212, 136
-0.997468, 299, 209, 314, 272
-0.997473, 205, 65, 236, 320
-0.997474, 37, 57, 68, 120
-0.997477, 101, 17, 132, 144
-0.997479, 277, 65, 308, 320
-0.997488, 69, 57, 100, 120
-0.997493, 225, 1, 256, 128
-0.997495, 241, 153, 368, 184
-0.997513, 1, 105, 500, 168
-0.997517, 257, 89, 272, 152
-0.997526, 247, 177, 262, 240
-0.997526, 177, 125, 192, 156
-0.997538, 233, 177, 248, 240
-0.997539, 165, 89, 180, 152
-0.997546, 251, 233, 266, 296
-0.99755, 295, 81, 310, 112
-0.997554, 241, 57, 272, 120
-0.997562, 267, 221, 282, 252
-0.997567, 239, 105, 254, 168
-0.99757, 225, 133, 352, 164
-0.997579, 129, 193, 256, 224
-0.997582, 299, 129, 314, 192
-0.997601, 253, 229, 268, 260
-0.997614, 189, 129, 204, 160
-0.997624, 113, 101, 240, 132
-0.997656, 101, 81, 132, 208
-0.997658, 311, 209, 326, 272
-0.997661, 289, 97, 416, 128
-0.997677, 171, 121, 186, 152
-0.997677, 279, 81, 294, 144
-0.997682, 17, 201, 80, 264
-0.997702, 233, 65, 264, 320
-0.99771, 289, 145, 304, 208
-0.99771, 49, 209, 176, 272
-0.997724, 229, 217, 244, 248
-0.997746, 273, 145, 288, 208
-0.997757, 289, 109, 416, 140
-0.997764, 1, 81, 16, 144
-0.997772, 201, 1, 264, 64
-0.997777, 229, 197, 244, 228
-0.997785, 85, 33, 116, 160
-0.997798, 65, 89, 192, 120
-0.997807, 301, 65, 332, 320
-0.997811, 239, 241, 254, 304
-0.997828, 281, 17, 312, 144
-0.99784, 305, 161, 432, 192
-0.997843, 273, 9, 336, 72
-0.997843, 433, 209, 496, 272
-0.997862, 241, 233, 368, 264
-0.997866, 257, 189, 272, 220
-0.997868, 425, 233, 488, 296
-0.99787, 245, 65, 276, 320
-0.997873, 233, 57, 248, 120
-0.997877, 321, 153, 448, 216
-0.99788, 369, 273, 496, 333
-0.997881, 469, 33, 500, 160
-0.997892, 299, 177, 314, 208
-0.997894, 311, 177, 326, 208
-0.9979, 267, 89, 282, 152
-0.997911, 267, 241, 282, 304
-0.997916, 7, 81, 22, 144
-0.997923, 273, 225, 288, 256
-0.997924, 353, 89, 480, 120
-0.997926, 305, 201, 320, 232
-0.997936, 273, 81, 288, 144
-0.997939, 177, 49, 208, 112
-0.997942, 283, 165, 298, 196
-0.997952, 227, 101, 242, 132
-0.997954, 263, 181, 278, 212
-0.997959, 209, 177, 224, 208
-0.997966, 275, 173, 290, 204
-0.997969, 305, 85, 432, 116
-0.997971, 193, 65, 224, 320
-0.997976, 243, 221, 258, 252
-0.997979, 353, 25, 416, 88
-0.997981, 305, 173, 432, 204
-0.997993, 1, 85, 128, 116
-0.998, 377, 1, 440, 64
-0.998001, 189, 141, 204, 172
-0.998007, 281, 129, 296, 192
-0.998008, 253, 57, 284, 120
-0.998013, 181, 1, 212, 256
-0.998015, 109, 81, 140, 144
-0.998034, 223, 193, 238, 224
-0.998035, 261, 65, 292, 320
-0.998036, 353, 33, 480, 96
-0.998057, 227, 233, 242, 264
-0.998063, 285, 65, 300, 128
-0.998065, 449, 89, 480, 152
-0.998067, 1, 209, 256, 272
-0.998068, 291, 105, 306, 168
-0.998069, 325, 81, 356, 208
-0.998074, 13, 81, 28, 144
-0.998074, 65, 81, 80, 144
-0.998075, 369, 233, 432, 296
-0.998075, 197, 133, 212, 164
-0.99808, 319, 81, 334, 144
-0.998081, 113, 1, 240, 64
-0.998091, 217, 153, 232, 216
-0.998092, 223, 217, 238, 248
-0.998095, 221, 57, 236, 120
-0.998095, 305, 189, 432, 220
-0.998111, 43, 81, 58, 144
-0.998123, 49, 81, 64, 144
-0.998131, 181, 101, 196, 132
-0.998131, 203, 169, 218, 200
-0.998132, 305, 157, 320, 188
-0.998134, 59, 81, 74, 144
-0.998138, 303, 65, 318, 128
-0.99814, 237, 89, 252, 120
-0.998141, 277, 225, 292, 288
-0.998141, 221, 89, 236, 120
-0.998149, 219, 209, 234, 272
-0.998159, 195, 153, 210, 184
-0.998164, 313, 33, 344, 288
-0.998166, 187, 113, 202, 144
-0.998171, 31, 81, 46, 144
-0.998175, 433, 89, 448, 152
-0.998179, 293, 173, 308, 204
-0.998181, 161, 73, 288, 104
-0.998182, 401, 57, 432, 120
-0.998185, 121, 81, 152, 144
-0.998186, 307, 189, 322, 220
-0.99819, 243, 237, 258, 268
-0.998195, 365, 49, 396, 112
-0.998196, 299, 97, 314, 128
-0.998204, 193, 241, 320, 272
-0.998214, 113, 241, 176, 304
-0.998217, 71, 81, 86, 144
-0.998223, 37, 81, 52, 144
-0.998224, 187, 85, 202, 116
-0.998226, 287, 89, 302, 120
-0.998234, 305, 109, 320, 140
-0.998236, 1, 81, 500, 144
-0.998238, 167, 113, 182, 176
-0.998238, 17, 273, 144, 333
-0.998239, 353, 201, 416, 264
-0.998244, 217, 185, 232, 216
-0.998254, 291, 57, 306, 120
-0.998258, 247, 197, 262, 228
-0.998262, 49, 177, 176, 304
-0.998262, 197, 89, 212, 120
-0.998264, 223, 161, 238, 224
-0.998266, 189, 107, 220, 122
-0.998266, 209, 175, 240, 190
-0.998266, 301, 99, 332, 114
-0.998266, 269, 177, 284, 208
-0.998269, 309, 127, 340, 142
-0.998272, 189, 123, 220, 138
-0.998272, 161, 97, 192, 112
-0.998274, 237, 109, 268, 124
-0.998275, 313, 171, 344, 186
-0.998275, 309, 213, 340, 228
-0.998275, 153, 125, 184, 140
-0.998276, 437, 91, 468, 106
-0.998278, 203, 149, 218, 180
-0.998279, 313, 203, 344, 218
-0.998279, 309, 155, 340, 170
-0.998282, 289, 225, 320, 240
-0.998282, 227, 241, 242, 304
-0.998285, 89, 1, 152, 64
-0.998287, 213, 107, 244, 122
-0.998288, 289, 73, 416, 104
-0.998288, 265, 169, 296, 184
-0.99829, 225, 99, 256, 114
-0.998292, 221, 183, 252, 198
-0.998292, 305, 139, 336, 154
-0.998292, 417, 91, 448, 106
-0.998293, 201, 91, 232, 106
-0.998293, 193, 141, 224, 156
-0.998293, 289, 141, 320, 156
-0.998293, 205, 167, 236, 182
-0.998293, 293, 107, 324, 122
-0.998294, 181, 113, 212, 128
-0.998294, 213, 243, 244, 258
-0.998296, 309, 133, 340, 148
-0.998296, 355, 81, 370, 144
-0.998296, 165, 111, 196, 126
-0.998297, 245, 187, 276, 202
-0.998297, 293, 127, 324, 142
-0.998298, 293, 113, 324, 128
-0.998298, 301, 79, 332, 94
-0.998298, 313, 191, 344, 206
-0.998302, 209, 237, 240, 252
-0.998303, 273, 81, 304, 96
-0.998303, 253, 169, 284, 184
-0.998303, 309, 149, 340, 164
-0.998306, 273, 99, 304, 114
-0.998307, 213, 65, 228, 128
-0.998307, 205, 181, 236, 196
-0.998308, 225, 93, 256, 108
-0.998309, 257, 211, 288, 226
-0.99831, 293, 133, 324, 148
-0.99831, 245, 239, 276, 254
-0.998312, 289, 205, 320, 220
-0.998314, 165, 105, 196, 120
-0.998314, 309, 177, 340, 192
-0.998314, 277, 221, 308, 236
-0.998314, 245, 177, 276, 192
-0.998316, 293, 119, 324, 134
-0.998319, 309, 185, 340, 200
-0.99832, 289, 217, 320, 232
-0.99832, 293, 151, 324, 166
-0.998322, 213, 213, 244, 228
-0.998322, 301, 219, 332, 234
-0.998327, 261, 235, 292, 250
-0.99833, 257, 219, 288, 234
-0.998337, 353, 77, 480, 108
-0.99834, 415, 89, 430, 152
-0.998341, 313, 165, 344, 180
-0.998341, 237, 101, 268, 116
-0.998342, 189, 129, 220, 144
-0.998342, 113, 33, 144, 160
-0.998342, 325, 81, 340, 144
-0.998343, 227, 89, 242, 120
-0.998344, 289, 81, 320, 96
-0.998345, 193, 147, 224, 162
-0.998345, 289, 101, 320, 116
-0.998347, 181, 159, 212, 174
-0.998348, 301, 93, 332, 108
-0.99835, 261, 175, 292, 190
-0.998351, 293, 157, 324, 172
-0.998354, 293, 195, 324, 210
-0.998355, 181, 153, 212, 168
-0.998356, 235, 197, 250, 228
-0.998357, 217, 207, 248, 222
-0.998358, 213, 219, 244, 234
-0.998358, 253, 197, 284, 212
-0.998359, 25, 81, 40, 144
-0.99836, 273, 87, 304, 102
-0.998361, 225, 245, 256, 260
-0.998362, 201, 161, 232, 176
-0.998362, 257, 187, 288, 202
-0.998363, 253, 205, 284, 220
-0.998365, 213, 231, 244, 246
-0.998366, 185, 169, 216, 184
-0.99837, 273, 177, 304, 192
-0.998371, 213, 199, 244, 214
-0.998371, 3, 57, 18, 120
-0.998374, 297, 189, 328, 204
-0.998374, 293, 211, 324, 226
-0.998377, 157, 119, 188, 134
-0.998377, 165, 135, 196, 150
-0.998378, 285, 177, 316, 192
-0.998379, 439, 89, 454, 152
-0.99838, 301, 85, 332, 100
-0.99838, 177, 123, 208, 138
-0.998382, 213, 193, 244, 208
-0.998382, 205, 187, 236, 202
-0.998384, 215, 89, 230, 120
-0.998385, 273, 93, 304, 108
-0.998389, 265, 173, 328, 188
-0.998389, 427, 81, 442, 144
-0.99839, 225, 105, 256, 120
-0.998393, 233, 191, 264, 206
-0.998394, 197, 153, 228, 168
-0.998394, 219, 105, 234, 168
-0.998395, 193, 99, 224, 114
-0.998396, 269, 229, 300, 244
-0.998398, 197, 185, 228, 248
-0.998399, 19, 81, 34, 144
-0.9984, 193, 177, 224, 192
-0.998402, 9, 57, 24, 120
-0.998404, 301, 205, 332, 220
-0.998405, 97, 77, 224, 108
-0.998407, 305, 197, 336, 212
-0.998413, 261, 181, 292, 196
-0.998414, 189, 135, 220, 150
-0.998415, 181, 101, 212, 116
-0.998417, 297, 183, 328, 198
-0.99842, 431, 57, 446, 120
-0.998422, 165, 127, 196, 142
-0.998424, 263, 233, 278, 264
-0.998427, 171, 109, 186, 140
-0.998427, 195, 121, 210, 152
-0.998428, 179, 137, 194, 168
-0.998428, 293, 163, 324, 178
-0.998433, 257, 201, 272, 232
-0.998435, 221, 237, 252, 252
-0.998436, 221, 225, 252, 240
-0.998437, 173, 143, 204, 158
-0.998438, 299, 205, 314, 236
-0.998439, 445, 89, 460, 152
-0.998441, 209, 89, 224, 120
-0.998441, 245, 227, 276, 242
-0.998443, 233, 239, 264, 254
-0.998444, 285, 95, 316, 110
-0.998452, 193, 25, 448, 88
-0.998454, 225, 223, 288, 238
-0.998459, 297, 177, 328, 192
-0.998463, 213, 101, 244, 116
-0.998467, 421, 89, 436, 152
-0.99847, 285, 87, 316, 102
-0.998474, 177, 107, 208, 122
-0.998476, 233, 197, 264, 212
-0.998478, 297, 169, 328, 184
-0.99848, 257, 181, 320, 196
-0.998488, 303, 121, 318, 152
-0.998488, 369, 177, 496, 240
-0.998492, 1, 161, 128, 224
-0.998492, 233, 105, 248, 136
-0.998493, 169, 117, 200, 132
-0.998496, 187, 101, 202, 132
-0.998496, 185, 101, 248, 116
-0.998497, 225, 235, 288, 250
-0.998501, 263, 209, 278, 240
-0.998502, 233, 207, 264, 222
-0.998503, 349, 81, 364, 144
-0.998504, 217, 213, 280, 228
-0.998506, 233, 233, 264, 248
-0.998508, 177, 137, 208, 152
-0.998508, 293, 101, 308, 132
-0.998512, 233, 229, 296, 244
-0.998513, 409, 89, 424, 152
-0.998519, 113, 209, 240, 240
-0.998523, 237, 241, 252, 272
-0.998527, 249, 217, 312, 232
-0.998533, 485, 81, 500, 144
-0.998535, 249, 17, 312, 80
-0.998536, 245, 221, 276, 236
-0.998536, 209, 183, 272, 198
-0.998541, 209, 207, 272, 222
-0.998542, 313, 201, 328, 232
-0.998544, 145, 129, 208, 144
-0.998545, 217, 41, 248, 104
-0.998548, 217, 193, 280, 208
-0.998548, 209, 201, 272, 216
-0.998551, 225, 213, 256, 228
-0.998557, 15, 57, 30, 120
-0.998557, 77, 81, 92, 144
-0.998557, 1, 185, 128, 248
-0.998557, 273, 167, 336, 182
-0.998558, 225, 219, 256, 234
-0.99856, 305, 201, 432, 232
-0.998564, 193, 101, 208, 132
-0.998566, 201, 227, 264, 242
-0.998568, 311, 165, 326, 196
-0.998569, 241, 101, 256, 132
-0.99857, 197, 165, 212, 196
-0.998571, 233, 227, 264, 242
-0.998578, 17, 33, 144, 96
-0.998579, 169, 115, 232, 130
-0.998581, 249, 233, 280, 248
-0.998582, 257, 89, 320, 104
-0.998582, 305, 133, 320, 164
-0.998583, 249, 211, 312, 226
-0.998586, 249, 193, 312, 208
-0.998587, 307, 81, 322, 112
-0.998587, 169, 131, 232, 146
-0.998587, 249, 203, 312, 218
-0.998589, 265, 225, 328, 240
-0.998591, 305, 221, 320, 252
-0.998592, 201, 233, 264, 248
-0.998593, 257, 95, 320, 110
-0.998599, 185, 153, 248, 168
-0.9986, 241, 173, 304, 188
-0.9986, 271, 193, 286, 256
-0.998603, 245, 241, 276, 304
-0.998604, 257, 225, 288, 240
-0.998605, 153, 143, 216, 158
-0.998607, 353, 161, 416, 224
-0.998607, 401, 201, 464, 264
-0.998607, 265, 165, 280, 196
-0.998608, 257, 187, 320, 202
-0.998608, 317, 189, 332, 220
-0.99861, 281, 87, 344, 102
-0.998612, 237, 215, 268, 230
-0.998612, 193, 169, 256, 184
-0.998612, 89, 81, 104, 144
-0.998615, 443, 65, 458, 128
-0.998615, 339, 81, 354, 144
-0.998615, 243, 85, 258, 116
-0.998618, 209, 177, 272, 192
-0.99862, 313, 125, 328, 156
-0.99862, 193, 107, 256, 122
-0.998621, 265, 161, 328, 176
-0.998622, 209, 101, 272, 116
-0.998625, 289, 173, 352, 188
-0.998629, 265, 129, 328, 144
-0.998629, 145, 135, 208, 150
-0.99863, 169, 179, 232, 194
-0.998631, 177, 137, 240, 152
-0.998631, 201, 243, 264, 258
-0.998633, 169, 109, 232, 124
-0.998634, 265, 151, 328, 166
-0.998634, 297, 137, 360, 152
-0.998636, 193, 159, 256, 174
-0.998637, 259, 177, 274, 304
-0.998638, 289, 207, 352, 222
-0.99864, 305, 163, 368, 178
-0.99864, 177, 189, 240, 204
-0.998641, 281, 93, 344, 108
-0.998641, 185, 201, 248, 216
-0.998641, 289, 179, 352, 194
-0.998641, 277, 171, 308, 186
-0.998643, 161, 163, 224, 178
-0.998644, 169, 125, 232, 140
-0.998644, 377, 49, 408, 112
-0.998645, 257, 83, 320, 98
-0.998645, 161, 173, 224, 188
-0.998645, 129, 119, 192, 134
-0.998646, 177, 129, 208, 144
-0.998646, 225, 241, 288, 256
-0.998647, 201, 219, 264, 234
-0.998647, 265, 141, 328, 156
-0.998652, 169, 65, 200, 320
-0.998653, 265, 135, 328, 150
-0.998653, 293, 157, 308, 188
-0.998655, 289, 213, 352, 228
-0.998655, 177, 235, 240, 250
-0.998657, 185, 195, 248, 210
-0.998657, 297, 185, 360, 200
-0.998658, 177, 95, 240, 110
-0.998659, 297, 125, 360, 140
-0.998659, 165, 113, 180, 144
-0.998659, 297, 147, 360, 162
-0.99866, 289, 199, 352, 214
-0.998662, 233, 101, 296, 116
-0.998662, 185, 147, 248, 162
-0.998662, 269, 17, 300, 144
-0.998664, 153, 157, 216, 172
-0.998666, 297, 131, 360, 146
-0.998666, 209, 91, 272, 106
-0.998666, 265, 123, 328, 138
-0.998667, 257, 101, 320, 116
-0.998667, 281, 85, 296, 116
-0.998669, 257, 231, 320, 246
-0.99867, 203, 85, 218, 116
-0.998674, 233, 167, 296, 182
-0.998676, 281, 81, 344, 96
-0.998677, 273, 219, 336, 234
-0.998681, 153, 149, 216, 164
-0.998682, 177, 217, 240, 232
-0.998684, 297, 191, 360, 206
-0.998685, 297, 153, 360, 168
-0.998687, 145, 105, 208, 120
-0.998691, 209, 69, 336, 100
-0.998694, 305, 219, 368, 234
-0.998695, 265, 117, 328, 132
-0.998695, 273, 193, 336, 208
-0.998699, 281, 99, 344, 114
-0.998701, 221, 101, 236, 132
-0.998701, 251, 89, 266, 120
-0.998701, 217, 107, 280, 122
-0.998703, 233, 87, 296, 102
-0.998707, 193, 127, 256, 142
-0.998708, 409, 91, 472, 106
-0.998712, 137, 99, 200, 114
-0.998713, 369, 89, 432, 104
-0.998714, 185, 207, 248, 222
-0.998714, 307, 129, 322, 256
-0.998716, 161, 89, 224, 104
-0.998718, 233, 179, 296, 194
-0.998719, 297, 119, 360, 134
-0.998722, 233, 185, 296, 200
-0.998726, 301, 85, 316, 116
-0.998728, 305, 85, 368, 100
-0.998729, 409, 85, 472, 100
-0.998729, 177, 229, 240, 244
-0.998733, 25, 89, 88, 104
-0.998733, 265, 111, 328, 126
-0.998734, 305, 177, 320, 208
-0.998737, 233, 95, 296, 110
-0.998738, 209, 113, 272, 128
-0.998738, 433, 91, 496, 106
-0.998738, 233, 81, 296, 96
-0.998739, 289, 225, 352, 240
-0.99874, 1, 85, 64, 100
-0.99874, 137, 113, 200, 128
-0.99874, 313, 179, 376, 194
-0.998741, 313, 173, 376, 188
-0.998742, 321, 249, 384, 312
-0.998743, 289, 113, 352, 128
-0.998743, 177, 83, 240, 98
-0.998746, 177, 223, 240, 238
-0.998746, 361, 83, 424, 98
-0.998746, 153, 83, 216, 98
-0.998746, 209, 85, 272, 100
-0.998747, 329, 87, 392, 102
-0.998749, 81, 89, 144, 104
-0.998751, 113, 89, 176, 104
-0.998752, 297, 105, 360, 120
-0.998754, 185, 89, 248, 104
-0.998754, 153, 233, 216, 248
-0.998755, 217, 173, 232, 204
-0.998755, 137, 93, 200, 108
-0.998755, 233, 117, 296, 132
-0.998757, 185, 53, 248, 68
-0.998759, 329, 37, 392, 52
-0.998759, 257, 77, 320, 92
-0.99876, 249, 237, 312, 252
-0.998776, 209, 157, 224, 188
-0.998785, 311, 213, 326, 244
-0.998798, 299, 161, 314, 192
-0.998803, 285, 153, 300, 184
-0.998807, 235, 193, 250, 320
-0.99881, 431, 89, 446, 120
-0.998826, 305, 145, 320, 176
-0.998827, 171, 93, 186, 124
-0.998832, 305, 97, 320, 128
-0.998836, 253, 193, 268, 320
-0.998839, 265, 89, 280, 120
-0.99884, 287, 77, 302, 108
-0.998841, 273, 161, 288, 288
-0.998847, 81, 265, 208, 328
-0.998851, 393, 33, 424, 160
-0.998852, 251, 177, 266, 208
-0.998854, 221, 229, 236, 260
-0.99886, 267, 161, 282, 288
-0.998865, 273, 213, 288, 244
-0.998868, 271, 161, 286, 192
-0.998869, 439, 89, 454, 120
-0.998872, 33, 73, 160, 104
-0.99888, 223, 177, 238, 304
-0.998884, 259, 89, 274, 120
-0.998888, 241, 209, 256, 240
-0.998891, 293, 113, 308, 144
-0.998893, 425, 209, 488, 333
-0.998895, 257, 177, 500, 240
-0.998895, 325, 57, 356, 120
-0.9989, 269, 237, 284, 268
-0.998903, 273, 89, 288, 120
-0.998904, 215, 101, 230, 132
-0.998908, 1, 85, 16, 116
-0.998911, 181, 89, 196, 120
-0.998913, 315, 113, 330, 144
-0.998922, 71, 85, 86, 116
-0.998923, 305, 213, 432, 244
-0.998933, 279, 225, 294, 256
-0.998938, 193, 77, 208, 108
-0.998939, 171, 133, 186, 164
-0.99894, 161, 1, 416, 64
-0.998941, 247, 101, 262, 132
-0.998945, 449, 89, 464, 120
-0.998952, 11, 85, 26, 116
-0.998956, 1, 57, 500, 120
-0.998962, 41, 85, 56, 116
-0.998967, 203, 97, 218, 128
-0.998977, 65, 85, 80, 116
-0.998978, 425, 89, 440, 120
-0.998984, 45, 65, 76, 320
-0.998996, 157, 65, 188, 320
-0.998999, 33, 85, 48, 116
-0.998999, 231, 245, 246, 276
-0.998999, 65, 1, 128, 64
-0.999002, 373, 65, 404, 320
-0.999004, 401, 41, 464, 104
-0.999006, 241, 193, 256, 224
-0.999006, 317, 165, 332, 196
-0.999008, 77, 85, 92, 116
-0.999009, 257, 177, 272, 208
-0.999013, 287, 113, 302, 240
-0.999016, 433, 77, 448, 108
-0.999019, 311, 137, 326, 168
-0.99902, 9, 225, 40, 288
-0.999022, 303, 81, 318, 208
-0.999024, 279, 161, 294, 288
-0.999041, 65, 101, 192, 132
-0.999056, 297, 161, 312, 288
-0.999069, 281, 113, 296, 240
-0.999091, 265, 113, 280, 240
-0.999098, 81, 285, 208, 316
-0.999105, 181, 65, 196, 192
-0.999124, 291, 161, 306, 288
-0.999131, 295, 97, 310, 224
-0.999138, 229, 177, 244, 304
-0.999138, 1, 1, 32, 256
-0.999139, 145, 245, 272, 276
-0.999147, 217, 177, 232, 304
-0.999149, 29, 65, 60, 320
-0.99915, 275, 113, 290, 240
-0.999154, 309, 209, 340, 333
-0.999161, 201, 97, 216, 224
-0.999177, 145, 41, 272, 72
-0.999186, 173, 65, 188, 192
-0.999187, 389, 57, 420, 120
-0.999193, 241, 37, 368, 68
-0.999193, 161, 273, 288, 304
-0.999197, 257, 249, 384, 280
-0.999198, 313, 161, 328, 288
-0.999199, 187, 81, 202, 208
-0.999207, 285, 161, 300, 288
-0.999209, 259, 129, 274, 256
-0.999213, 241, 209, 256, 333
-0.999214, 235, 65, 250, 192
-0.999215, 61, 65, 92, 320
-0.999216, 205, 161, 220, 288
-0.999216, 247, 209, 262, 333
-0.999219, 277, 225, 308, 288
-0.999224, 207, 97, 222, 224
-0.999231, 49, 233, 176, 264
-0.999254, 17, 245, 144, 276
-0.999257, 209, 49, 336, 80
-0.999264, 179, 113, 194, 240
-0.999267, 193, 81, 208, 208
-0.999283, 247, 161, 262, 288
-0.999288, 289, 17, 416, 48
-0.999295, 469, 57, 500, 120
-0.999295, 211, 161, 226, 288
-0.999303, 197, 145, 212, 272
-0.999308, 193, 293, 320, 324
-0.999311, 315, 81, 330, 208
-0.999311, 273, 1, 400, 32
-0.999317, 129, 53, 256, 84
-0.999321, 393, 169, 456, 232
-0.999321, 361, 257, 424, 320
-0.999321, 307, 177, 322, 304
-0.999323, 289, 225, 416, 256
-0.999324, 229, 97, 244, 224
-0.999327, 289, 41, 416, 72
-0.999332, 353, 65, 384, 320
-0.999349, 17, 65, 48, 320
-0.999356, 243, 65, 258, 192
-0.999367, 121, 265, 184, 328
-0.99937, 1, 229, 128, 260
-0.999374, 345, 57, 376, 120
-0.999377, 213, 97, 228, 224
-0.999388, 385, 65, 416, 320
-0.999396, 221, 97, 236, 224
-0.999406, 1, 209, 128, 240
-0.999411, 113, 193, 176, 320
-0.999417, 149, 65, 180, 128
-0.999428, 377, 25, 440, 88
-0.99943, 379, 1, 394, 128
-0.999431, 441, 65, 472, 320
-0.999436, 401, 65, 432, 320
-0.999442, 173, 113, 188, 240
-0.999444, 191, 129, 206, 256
-0.999445, 321, 241, 448, 272
-0.999446, 73, 65, 104, 320
-0.999448, 161, 9, 288, 40
-0.99945, 97, 221, 224, 252
-0.999451, 81, 249, 208, 280
-0.999459, 413, 65, 444, 320
-0.999464, 241, 285, 368, 316
-0.999466, 193, 249, 448, 312
-0.999468, 253, 145, 268, 272
-0.999474, 65, 25, 192, 56
-0.999474, 285, 65, 300, 192
-0.999476, 309, 81, 324, 208
-0.999483, 241, 297, 368, 328
-0.999484, 167, 65, 182, 192
-0.99949, 1, 225, 500, 288
-0.999492, 145, 21, 272, 52
-0.999495, 229, 109, 244, 124
-0.999495, 265, 209, 280, 333
-0.999496, 265, 219, 280, 234
-0.999496, 259, 177, 274, 192
-0.999497, 233, 191, 248, 206
-0.999497, 295, 169, 310, 184
-0.999497, 255, 189, 270, 204
-0.999498, 249, 65, 264, 192
-0.999498, 179, 103, 194, 118
-0.999498, 319, 189, 334, 204
-0.999498, 233, 97, 248, 112
-0.999499, 321, 29, 448, 60
-0.999499, 301, 185, 316, 200
-0.9995, 305, 141, 320, 156
-0.9995, 307, 117, 322, 132
-0.9995, 315, 201, 330, 216
-0.9995, 303, 151, 318, 166
-0.999502, 253, 181, 268, 196
-0.999503, 211, 91, 226, 106
-0.999504, 305, 91, 320, 106
-0.999508, 197, 141, 212, 156
-0.999509, 285, 163, 300, 178
-0.999509, 223, 225, 238, 240
-0.99951, 429, 65, 460, 320
-0.99951, 315, 169, 330, 184
-0.99951, 249, 189, 264, 204
-0.999511, 311, 219, 326, 234
-0.999512, 219, 93, 234, 108
-0.999514, 249, 197, 264, 212
-0.999514, 223, 237, 238, 252
-0.999515, 265, 173, 280, 188
-0.999515, 305, 85, 320, 100
-0.999515, 233, 201, 248, 216
-0.999515, 181, 141, 196, 156
-0.999515, 235, 145, 250, 272
-0.999516, 297, 33, 312, 160
-0.999517, 293, 101, 308, 116
-0.999517, 311, 129, 326, 144
-0.999517, 317, 195, 332, 210
-0.999518, 305, 135, 320, 150
-0.999518, 253, 221, 268, 236
-0.999521, 271, 233, 286, 248
-0.999522, 223, 231, 238, 246
-0.999525, 191, 123, 206, 138
-0.999526, 185, 123, 200, 138
-0.999526, 229, 49, 244, 176
-0.999529, 277, 169, 292, 184
-0.999529, 185, 109, 200, 124
-0.99953, 469, 65, 500, 320
-0.999531, 241, 161, 256, 288
-0.999532, 307, 157, 322, 172
-0.999534, 299, 219, 314, 234
-0.999537, 257, 205, 272, 220
-0.999538, 287, 97, 302, 112
-0.999538, 265, 233, 280, 248
-0.999538, 299, 101, 314, 116
-0.999539, 191, 107, 206, 122
-0.99954, 369, 241, 496, 272
-0.99954, 195, 129, 210, 144
-0.999541, 305, 285, 432, 316
-0.999542, 305, 223, 320, 238
-0.999542, 285, 91, 300, 106
-0.999543, 195, 101, 210, 116
-0.999543, 215, 99, 230, 114
-0.999543, 271, 181, 286, 196
-0.999543, 215, 181, 230, 196
-0.999545, 271, 209, 286, 333
-0.999546, 191, 151, 206, 166
-0.999547, 203, 159, 218, 174
-0.999548, 277, 229, 292, 244
-0.99955, 167, 123, 182, 138
-0.999551, 237, 103, 252, 118
-0.999552, 193, 157, 208, 172
-0.999553, 225, 25, 352, 56
-0.999554, 353, 65, 480, 96
-0.999558, 305, 123, 320, 138
-0.999559, 223, 219, 238, 234
-0.99956, 247, 235, 262, 250
-0.999561, 303, 213, 318, 228
-0.999565, 179, 119, 194, 134
-0.999568, 309, 195, 324, 210
-0.999569, 229, 223, 244, 238
-0.99957, 241, 213, 256, 228
-0.99957, 243, 241, 258, 256
-0.999571, 15, 81, 30, 208
-0.999571, 199, 147, 214, 162
-0.999572, 247, 205, 262, 220
-0.999572, 113, 269, 240, 300
-0.999572, 301, 179, 316, 194
-0.999572, 307, 171, 322, 186
-0.999573, 431, 81, 446, 208
-0.999574, 197, 167, 212, 182
-0.999574, 229, 209, 244, 224
-0.999575, 235, 245, 250, 260
-0.999575, 245, 219, 260, 234
-0.999575, 65, 169, 192, 232
-0.999577, 175, 135, 190, 150
-0.999578, 173, 109, 188, 124
-0.999578, 311, 183, 326, 198
-0.999578, 137, 65, 168, 320
-0.999579, 307, 33, 322, 160
-0.99958, 295, 81, 310, 96
-0.99958, 309, 189, 324, 204
-0.999581, 305, 207, 320, 222
-0.999583, 229, 229, 244, 244
-0.999583, 167, 117, 182, 132
-0.999583, 297, 95, 312, 110
-0.999584, 17, 301, 144, 332
-0.999584, 259, 231, 274, 246
-0.999585, 253, 215, 268, 230
-0.999585, 353, 285, 480, 316
-0.999585, 235, 207, 250, 222
-0.999586, 385, 1, 400, 128
-0.999586, 49, 105, 176, 168
-0.999586, 257, 195, 272, 210
-0.999586, 113, 65, 240, 96
-0.999588, 21, 81, 36, 208
-0.999589, 239, 229, 254, 244
-0.999589, 357, 1, 388, 64
-0.99959, 215, 187, 230, 202
-0.99959, 289, 171, 304, 186
-0.999592, 65, 1, 320, 64
-0.999593, 261, 187, 276, 202
-0.999593, 229, 215, 244, 230
-0.999596, 307, 201, 322, 216
-0.999597, 69, 81, 84, 208
-0.999597, 225, 9, 352, 40
-0.999598, 309, 177, 324, 192
-0.999599, 229, 239, 244, 254
-0.9996, 255, 33, 270, 160
-0.999601, 173, 127, 188, 142
-0.999601, 201, 173, 216, 188
-0.999602, 247, 113, 262, 240
-0.999603, 341, 1, 372, 256
-0.999603, 179, 109, 194, 124
-0.999605, 5, 81, 20, 208
-0.999606, 93, 57, 124, 120
-0.999607, 227, 197, 242, 212
-0.999607, 65, 37, 192, 68
-0.999612, 235, 219, 250, 234
-0.999612, 295, 175, 310, 190
-0.999613, 97, 249, 352, 312
-0.999613, 241, 113, 256, 240
-0.999614, 325, 65, 356, 320
-0.999614, 195, 135, 210, 150
-0.999614, 47, 81, 62, 208
-0.999615, 221, 99, 236, 114
-0.999616, 209, 179, 224, 194
-0.999616, 117, 65, 148, 320
-0.999617, 241, 17, 256, 144
-0.999619, 185, 101, 200, 116
-0.999619, 89, 65, 120, 320
-0.999619, 63, 81, 78, 208
-0.999619, 425, 81, 440, 208
-0.99962, 437, 81, 452, 208
-0.999623, 353, 1, 480, 32
-0.99963, 81, 81, 96, 208
-0.999631, 295, 87, 310, 102
-0.999632, 279, 65, 294, 192
-0.999632, 265, 181, 280, 196
-0.999633, 221, 191, 236, 206
-0.999633, 185, 129, 200, 256
-0.999634, 187, 135, 202, 150
-0.999638, 41, 81, 56, 208
-0.99964, 201, 153, 216, 168
-0.999644, 445, 81, 460, 208
-0.999645, 227, 103, 242, 118
-0.999647, 55, 81, 70, 208
-0.999648, 247, 211, 262, 226
-0.999648, 33, 281, 160, 312
-0.999652, 245, 225, 260, 240
-0.999653, 181, 135, 196, 150
-0.999654, 31, 81, 46, 208
-0.999657, 259, 221, 274, 236
-0.999658, 1, 185, 500, 248
-0.999658, 275, 175, 290, 190
-0.999659, 427, 33, 442, 160
-0.999659, 187, 143, 202, 158
-0.99966, 373, 33, 388, 160
-0.99966, 257, 1, 500, 64
-0.999664, 329, 201, 392, 264
-0.999664, 187, 33, 202, 160
-0.999666, 219, 49, 234, 176
-0.999667, 369, 213, 496, 244
-0.99967, 459, 1, 474, 128
-0.999671, 75, 81, 90, 208
-0.999672, 265, 225, 280, 240
-0.999674, 377, 81, 392, 208
-0.999674, 235, 213, 250, 228
-0.999675, 161, 65, 176, 192
-0.999675, 195, 33, 210, 160
-0.999676, 87, 81, 102, 208
-0.999679, 419, 81, 434, 208
-0.99968, 409, 81, 424, 208
-0.999681, 271, 227, 286, 242
-0.999682, 237, 235, 252, 250
-0.99969, 209, 253, 336, 284
-0.999691, 301, 209, 316, 333
-0.999698, 453, 81, 468, 208
-0.999699, 291, 33, 306, 160
-0.999699, 255, 81, 270, 208
-0.999702, 319, 161, 334, 288
-0.999703, 25, 33, 40, 160
-0.999703, 179, 127, 194, 142
-0.999707, 371, 81, 386, 208
-0.999708, 3, 1, 18, 128
-0.999709, 33, 269, 160, 300
-0.999709, 95, 81, 110, 208
-0.99971, 459, 81, 474, 208
-0.99971, 269, 33, 284, 160
-0.999711, 383, 81, 398, 208
-0.999711, 473, 81, 488, 208
-0.999711, 189, 129, 204, 144
-0.999712, 353, 253, 480, 284
-0.999713, 351, 81, 366, 208
-0.999714, 15, 17, 30, 144
-0.999714, 235, 17, 250, 144
-0.999715, 365, 81, 380, 208
-0.999715, 65, 5, 192, 36
-0.999717, 313, 33, 328, 160
-0.999719, 483, 81, 498, 208
-0.999721, 421, 33, 436, 160
-0.999721, 39, 33, 54, 160
-0.999723, 433, 33, 448, 160
-0.999725, 213, 33, 228, 160
-0.999725, 353, 17, 368, 144
-0.999726, 313, 57, 344, 120
-0.999729, 403, 81, 418, 208
-0.999729, 137, 33, 168, 160
-0.99973, 369, 265, 496, 296
-0.999731, 359, 33, 374, 160
-0.999733, 335, 1, 350, 128
-0.999733, 33, 25, 288, 88
-0.999736, 345, 81, 360, 208
-0.999738, 127, 81, 142, 208
-0.999738, 65, 225, 128, 288
-0.99974, 467, 81, 482, 208
-0.99974, 253, 229, 268, 244
-0.999741, 135, 81, 150, 208
-0.999741, 53, 33, 68, 160
-0.999743, 45, 33, 60, 160
-0.999743, 283, 169, 298, 184
-0.999747, 465, 1, 480, 128
-0.999748, 75, 33, 90, 160
-0.999748, 343, 1, 358, 128
-0.99975, 97, 233, 224, 264
-0.99975, 169, 17, 184, 144
-0.99975, 353, 53, 480, 84
-0.999753, 115, 81, 130, 208
-0.999756, 321, 81, 336, 208
-0.999756, 457, 65, 488, 320
-0.999756, 121, 81, 136, 208
-0.999756, 89, 241, 152, 304
-0.999758, 359, 81, 374, 208
-0.999763, 173, 117, 188, 132
-0.999776, 153, 113, 184, 176
-0.999781, 101, 65, 132, 320
-0.999785, 353, 13, 480, 44
-0.999785, 337, 229, 464, 260
-0.999795, 305, 253, 432, 284
-0.999798, 81, 197, 208, 228
-0.999807, 257, 273, 384, 304
-0.999817, 369, 33, 496, 64
-0.999817, 145, 285, 272, 316
-0.99982, 193, 37, 320, 68
-0.999821, 1, 1, 128, 32
-0.999823, 49, 221, 176, 252
-0.999833, 129, 301, 256, 332
-0.999844, 225, 273, 480, 333
-0.999858, 65, 49, 192, 80
-0.999884, 289, 297, 416, 328
-0.999888, 17, 33, 144, 64
-0.999906, 369, 173, 496, 204
-0.99991, 369, 193, 496, 224
-0.999916, 337, 301, 464, 332
-0.999932, 81, 57, 112, 120
-0.999942, 433, 1, 496, 64
-0.999948, 81, 297, 208, 328
-0.999951, 1, 197, 128, 228
-0.999964, 1, 97, 128, 128
-0.999983, 1, 169, 128, 200
-0.999992, 401, 257, 464, 320
-1.00001, 161, 261, 288, 292
-1.00001, 289, 53, 416, 84
-1.00004, 321, 265, 448, 296
-1.00004, 1, 233, 256, 296
-1.00015, 17, 249, 80, 312
-1.00017, 369, 105, 496, 168
-1.0002, 129, 1, 192, 64
-1.0002, 1, 273, 256, 333
-1.00022, 49, 145, 176, 208
-1.00024, 217, 113, 248, 176
-1.00025, 273, 209, 304, 333
-1.00031, 297, 257, 360, 320
-1.00041, 369, 161, 496, 288
-1.00046, 125, 33, 156, 160
-1.00047, 373, 9, 404, 72
-1.00048, 1, 121, 128, 184
-1.0005, 193, 265, 256, 328
-1.0005, 369, 145, 496, 208
-1.0005, 189, 1, 220, 64
-1.00055, 1, 169, 64, 232
-1.00058, 113, 57, 144, 120
-1.00058, 145, 193, 208, 320
-1.0007, 225, 273, 288, 333
-1.00073, 129, 273, 384, 333
-1.00078, 321, 9, 352, 72
-1.00078, 21, 233, 52, 296
-1.0008, 81, 273, 144, 333
-1.0008, 1, 249, 500, 312
-1.00082, 145, 257, 208, 320
-1.00086, 261, 257, 292, 320
-1.00089, 145, 193, 208, 256
-1.00091, 177, 1, 208, 64
-1.00094, 1, 177, 128, 304
-1.00096, 1, 1, 500, 64
-1.00112, 41, 217, 104, 280
-1.00112, 329, 209, 360, 272
-1.00114, 125, 57, 156, 120
-1.00115, 341, 225, 372, 288
-1.00116, 321, 273, 384, 333
-1.00117, 33, 1, 96, 64
-1.0012, 289, 41, 320, 104
-1.00121, 233, 25, 264, 88
-1.00122, 461, 257, 492, 320
-1.00123, 41, 265, 104, 328
-1.00129, 137, 57, 168, 120
-1.00135, 121, 121, 184, 184
-1.00136, 9, 273, 72, 333
-1.00151, 409, 17, 472, 80
-1.00158, 113, 217, 176, 280
-1.00162, 65, 33, 128, 96
-1.00178, 177, 241, 240, 304
-1.0019, 65, 201, 128, 264
-1.00197, 377, 193, 440, 256
-1.00206, 1, 273, 500, 333
-1.00208, 121, 25, 184, 88
-1.00209, 1, 25, 500, 88
-1.00213, 453, 209, 484, 333
-1.00237, 401, 193, 464, 320
-1.00309, 145, 193, 176, 320
-1.00331, 425, 161, 488, 288
-1.00333, 465, 209, 496, 333
-1.00362, 329, 209, 360, 333
-1.00363, 441, 193, 472, 320
-1.00366, 161, 209, 192, 333
-1.00376, 361, 209, 424, 333
-1.00417, 409, 193, 440, 320
-1.0042, 1, 129, 128, 256
-1.0042, 185, 177, 216, 304
-1.00422, 73, 161, 136, 288
-1.00424, 65, 161, 96, 288
-1.00434, 113, 145, 176, 272
-1.00444, 469, 161, 500, 288
-1.00449, 425, 161, 456, 288
-1.0045, 393, 209, 424, 333
-1.00454, 33, 193, 96, 320
-1.00465, 101, 193, 132, 320
-1.00467, 173, 193, 204, 320
-1.00469, 425, 209, 456, 333
-1.00474, 13, 209, 44, 333
-1.00486, 121, 193, 152, 320
-1.00487, 1, 193, 32, 320
-1.00489, 133, 193, 164, 320
-1.0049, 197, 209, 228, 333
-1.0049, 153, 129, 184, 256
-1.00492, 77, 209, 108, 333
-1.00505, 349, 161, 380, 288
-1.0051, 9, 145, 40, 272
-1.00527, 349, 209, 380, 333
-1.00534, 333, 161, 364, 288
-1.00535, 73, 209, 136, 333
-1.00538, 25, 209, 56, 333
-1.00548, 53, 177, 84, 304
-1.00558, 77, 161, 108, 288
-1.00565, 453, 161, 484, 288
-1.00567, 141, 145, 172, 272
-1.00571, 337, 193, 400, 320
-1.00583, 437, 145, 468, 272
-1.00583, 361, 193, 392, 320
-1.00602, 377, 161, 408, 288
-1.00603, 1, 209, 64, 333
-1.00607, 389, 161, 420, 288
-1.00616, 65, 209, 96, 333
-1.00672, 1, 145, 64, 272
-1.00776, 25, 145, 88, 272
-1.00843, 401, 145, 464, 272
-1.00889, 361, 161, 424, 288
-1.00902, 49, 145, 112, 272
-1.00951, 329, 129, 392, 256
