1887
-0.341237, 1, 1, 500, 333
-0.40133, 1, 33, 500, 288
-0.462184, 97, 1, 352, 333
-0.48136, 1, 1, 256, 333
-0.553537, 193, 1, 448, 333
-0.584238, 97, 1, 352, 256
-0.671525, 1, 33, 256, 288
-0.676057, 225, 33, 480, 288
-0.857019, 193, 1, 320, 256
-0.863274, 193, 1, 320, 333
-0.863838, 97, 1, 224, 333
-0.872189, 145, 1, 272, 333
-0.873958, 145, 1, 272, 256
-0.874297, 289, 65, 416, 320
-0.879533, 337, 65, 464, 320
-0.880756, 369, 1, 496, 333
-0.880945, 241, 33, 368, 288
-0.883989, 49, 1, 176, 333
-0.887138, 65, 1, 192, 256
-0.888143, 1, 49, 500, 176
-0.893727, 1, 97, 500, 224
-0.898577, 289, 1, 416, 333
-0.899141, 1, 1, 128, 256
-0.901759, 241, 1, 368, 333
-0.907381, 257, 177, 500, 304
-0.910805, 1, 1, 128, 333
-0.912114, 1, 1, 500, 128
-0.912756, 129, 49, 384, 176
-0.914118, 1, 145, 500, 272
-0.915061, 33, 33, 288, 160
-0.931164, 329, 129, 392, 256
-0.931361, 81, 1, 208, 128
-0.933213, 185, 1, 248, 128
-0.933542, 129, 33, 256, 160
-0.93552, 145, 17, 208, 144
-0.935851, 161, 1, 416, 128
-0.936201, 129, 97, 384, 224
-0.93659, 257, 129, 500, 256
-0.938786, 89, 1, 152, 128
-0.939308, 353, 129, 416, 256
-0.9397, 201, 193, 264, 320
-0.940033, 177, 49, 304, 176
-0.940083, 65, 1, 128, 128
-0.940983, 217, 49, 280, 176
-0.941445, 17, 1, 80, 128
-0.941463, 1, 193, 500, 320
-0.942114, 297, 97, 360, 224
-0.943526, 337, 129, 464, 256
-0.943904, 209, 1, 272, 128
-0.944037, 273, 97, 400, 224
-0.944784, 193, 57, 256, 120
-0.945683, 1, 81, 256, 208
-0.946064, 417, 177, 480, 304
-0.946129, 177, 49, 240, 176
-0.946336, 369, 177, 496, 304
-0.946514, 33, 1, 160, 128
-0.947903, 225, 65, 352, 192
-0.948035, 257, 113, 320, 240
-0.948614, 33, 9, 96, 72
-0.948648, 41, 1, 104, 128
-0.94883, 225, 17, 352, 144
-0.948907, 137, 41, 200, 104
-0.949045, 225, 49, 480, 176
-0.94931, 345, 145, 408, 208
-0.949614, 49, 49, 112, 176
-0.951557, 225, 193, 288, 320
-0.953561, 177, 1, 304, 128
-0.953633, 113, 33, 176, 160
-0.953792, 233, 1, 296, 128
-0.953948, 241, 177, 368, 304
-0.954176, 81, 49, 208, 176
-0.954249, 257, 49, 320, 176
-0.954651, 393, 177, 456, 304
-0.954798, 241, 81, 304, 144
-0.954927, 337, 121, 400, 184
-0.955669, 177, 33, 240, 96
-0.955768, 289, 145, 416, 272
-0.956029, 337, 81, 400, 208
-0.956468, 345, 177, 408, 304
-0.956922, 393, 177, 456, 240
-0.957074, 161, 145, 416, 272
-0.957444, 169, 57, 232, 120
-0.95806, 289, 97, 352, 160
-0.958267, 209, 225, 272, 288
-0.958446, 25, 49, 88, 176
-0.958981, 217, 73, 280, 136
-0.959153, 41, 113, 104, 240
-0.959803, 225, 193, 288, 256
-0.959939, 377, 129, 440, 256
-0.960113, 25, 33, 88, 96
-0.960121, 65, 1, 128, 64
-0.960258, 273, 49, 400, 176
-0.960625, 361, 81, 424, 208
-0.960693, 217, 41, 280, 104
-0.96081, 337, 81, 464, 208
-0.962499, 89, 9, 152, 72
-0.962587, 249, 193, 312, 320
-0.962715, 289, 49, 352, 176
-0.962744, 265, 89, 328, 152
-0.962964, 1, 49, 64, 176
-0.963075, 193, 193, 320, 320
-0.963391, 233, 113, 296, 240
-0.963775, 177, 9, 240, 72
-0.963947, 49, 65, 112, 128
-0.964006, 161, 193, 416, 320
-0.964076, 265, 177, 328, 240
-0.964094, 161, 97, 288, 224
-0.964101, 305, 145, 368, 272
-0.964491, 257, 1, 500, 128
-0.964555, 145, 65, 208, 192
-0.964745, 153, 17, 216, 80
-0.964805, 313, 153, 376, 216
-0.964926, 433, 193, 496, 256
-0.964969, 353, 177, 416, 240
-0.964972, 65, 41, 128, 104
-0.965305, 369, 145, 432, 208
-0.966111, 321, 33, 448, 160
-0.966165, 1, 49, 128, 176
-0.966182, 233, 105, 296, 168
-0.966282, 209, 113, 336, 240
-0.966525, 221, 49, 252, 112
-0.967028, 433, 249, 496, 312
-0.967149, 153, 89, 216, 152
-0.967294, 185, 81, 248, 144
-0.967322, 369, 177, 432, 304
-0.96737, 129, 49, 256, 112
-0.967519, 209, 17, 272, 80
-0.968008, 173, 17, 204, 144
-0.968167, 313, 113, 376, 176
-0.968383, 321, 33, 384, 160
-0.968418, 49, 9, 176, 72
-0.968616, 321, 193, 448, 320
-0.968621, 141, 33, 172, 160
-0.968698, 205, 41, 236, 104
-0.968785, 89, 65, 152, 192
-0.969138, 233, 233, 296, 296
-0.96936, 145, 193, 272, 320
-0.969448, 129, 9, 192, 72
-0.969668, 249, 49, 312, 112
-0.96969, 217, 1, 248, 128
-0.969719, 409, 273, 472, 333
-0.969772, 201, 201, 264, 264
-0.969817, 137, 65, 200, 128
-0.96983, 153, 1, 216, 256
-0.96996, 401, 113, 464, 240
-0.970523, 321, 177, 384, 240
-0.970716, 277, 81, 308, 144
-0.97112, 273, 153, 400, 216
-0.971123, 257, 113, 320, 176
-0.971124, 289, 73, 352, 136
-0.971313, 9, 1, 72, 64
-0.971476, 193, 57, 224, 120
-0.971509, 337, 113, 368, 240
-0.97157, 89, 49, 152, 112
-0.971581, 357, 113, 388, 240
-0.971644, 369, 145, 400, 208
-0.971742, 113, 33, 176, 96
-0.971861, 185, 249, 248, 312
-0.971956, 25, 105, 88, 168
-0.971956, 353, 137, 384, 200
-0.972071, 245, 193, 276, 320
-0.972181, 17, 113, 80, 240
-0.972435, 205, 217, 236, 280
-0.972482, 97, 25, 224, 88
-0.97249, 337, 169, 464, 232
-0.972876, 289, 65, 352, 320
-0.972992, 377, 113, 440, 176
-0.973075, 157, 33, 188, 160
-0.973091, 1, 49, 64, 112
-0.973418, 353, 177, 384, 240
-0.973591, 389, 161, 420, 224
-0.973618, 201, 145, 264, 272
-0.973639, 169, 25, 200, 88
-0.973672, 57, 113, 120, 176
-0.973677, 41, 1, 72, 64
-0.973752, 177, 57, 304, 120
-0.9739, 97, 1, 128, 128
-0.973987, 425, 225, 488, 288
-0.974057, 225, 65, 288, 320
-0.974069, 177, 33, 240, 288
-0.974115, 257, 1, 320, 128
-0.974169, 377, 129, 408, 256
-0.974362, 209, 97, 272, 160
-0.974429, 249, 201, 280, 264
-0.974471, 385, 65, 448, 320
-0.974534, 233, 17, 296, 80
-0.974589, 209, 257, 272, 320
-0.974653, 49, 1, 112, 256
-0.974718, 29, 9, 60, 72
-0.974912, 69, 1, 100, 128
-0.974983, 113, 73, 176, 136
-0.975011, 201, 17, 232, 144
-0.975094, 33, 129, 288, 256
-0.975188, 341, 113, 372, 176
-0.975207, 265, 33, 328, 288
-0.975279, 281, 145, 344, 272
-0.975316, 209, 65, 240, 128
-0.975397, 161, 17, 288, 80
-0.975447, 117, 1, 148, 128
-0.975529, 305, 129, 432, 192
-0.975596, 229, 33, 260, 160
-0.975613, 281, 1, 344, 128
-0.975685, 73, 129, 136, 256
-0.975706, 325, 137, 356, 200
-0.975975, 241, 89, 368, 152
-0.975981, 189, 17, 220, 144
-0.975982, 249, 73, 280, 136
-0.97604, 337, 89, 400, 152
-0.97608, 217, 201, 248, 264
-0.976161, 253, 65, 284, 192
-0.976201, 25, 65, 88, 128
-0.976446, 161, 145, 288, 272
-0.976535, 181, 57, 212, 120
-0.97657, 41, 137, 104, 200
-0.976706, 177, 105, 240, 168
-0.976789, 217, 193, 248, 320
-0.97681, 97, 97, 224, 224
-0.976819, 89, 9, 120, 72
-0.977024, 49, 1, 80, 128
-0.977056, 65, 177, 320, 304
-0.977123, 49, 49, 176, 112
-0.977171, 121, 1, 184, 256
-0.9772, 417, 177, 448, 240
-0.977241, 233, 57, 264, 120
-0.977245, 193, 81, 320, 144
-0.977297, 241, 145, 272, 272
-0.977305, 1, 97, 128, 224
-0.977417, 269, 65, 300, 192
-0.977472, 177, 225, 240, 288
-0.977654, 1, 25, 64, 88
-0.9777, 1, 25, 128, 88
-0.977781, 369, 193, 496, 256
-0.977798, 273, 1, 400, 128
-0.977804, 285, 81, 316, 208
-0.977925, 117, 9, 148, 72
-0.978045, 185, 33, 216, 96
-0.978122, 217, 49, 248, 176
-0.978146, 113, 1, 240, 64
-0.978222, 273, 41, 336, 104
-0.978252, 453, 193, 484, 256
-0.978312, 341, 145, 372, 208
-0.978319, 237, 225, 268, 288
-0.978355, 321, 193, 448, 256
-0.978437, 269, 105, 300, 168
-0.978466, 265, 113, 296, 240
-0.978524, 369, 201, 432, 264
-0.978547, 281, 121, 344, 184
-0.978586, 257, 129, 384, 192
-0.978647, 225, 33, 352, 96
-0.97865, 289, 153, 352, 216
-0.978842, 433, 49, 496, 112
-0.97892, 385, 185, 416, 248
-0.978944, 329, 65, 392, 320
-0.97898, 437, 185, 468, 248
-0.978986, 241, 65, 272, 192
-0.978992, 1, 1, 128, 64
-0.979018, 325, 145, 356, 272
-0.979268, 445, 177, 476, 304
-0.979274, 21, 33, 52, 96
-0.979279, 205, 193, 236, 320
-0.979351, 345, 161, 376, 288
-0.979364, 313, 97, 344, 224
-0.979414, 249, 201, 312, 264
-0.979585, 129, 73, 256, 136
-0.979624, 401, 217, 464, 280
-0.979798, 81, 1, 112, 128
-0.979817, 293, 89, 324, 152
-0.979932, 417, 161, 448, 288
-0.980058, 341, 177, 372, 240
-0.980117, 201, 1, 264, 256
-0.980181, 157, 25, 188, 88
-0.980184, 133, 33, 164, 96
-0.980243, 225, 169, 352, 232
-0.980257, 425, 113, 488, 240
-0.980349, 105, 1, 136, 64
-0.980355, 177, 209, 240, 333
-0.980369, 289, 193, 352, 256
-0.980387, 241, 193, 368, 256
-0.980396, 37, 1, 68, 128
-0.980443, 209, 1, 272, 333
-0.98046, 429, 177, 460, 304
-0.98047, 193, 81, 224, 144
-0.980484, 329, 161, 360, 224
-0.980497, 369, 177, 400, 240
-0.980541, 217, 25, 248, 88
-0.980567, 65, 1, 96, 64
-0.980643, 337, 97, 464, 160
-0.98065, 273, 17, 336, 80
-0.980672, 277, 129, 308, 192
-0.980732, 257, 209, 288, 333
-0.980745, 385, 65, 448, 192
-0.980773, 353, 65, 416, 320
-0.980777, 405, 177, 436, 240
-0.980777, 197, 65, 228, 192
-0.980813, 253, 129, 284, 256
-0.980837, 173, 89, 204, 152
-0.981085, 369, 89, 432, 152
-0.981274, 1, 65, 128, 128
-0.981312, 241, 1, 272, 128
-0.981315, 69, 33, 100, 96
-0.981358, 389, 145, 420, 272
-0.981392, 409, 249, 472, 312
-0.981392, 129, 33, 160, 160
-0.981415, 469, 201, 500, 264
-0.981509, 233, 169, 296, 232
-0.981605, 69, 57, 100, 120
-0.981618, 81, 81, 208, 144
-0.981634, 233, 193, 264, 320
-0.981703, 221, 241, 252, 304
-0.98172, 369, 33, 496, 160
-0.9818, 305, 49, 336, 176
-0.981898, 365, 121, 396, 184
-0.981949, 161, 217, 288, 280
-0.981949, 29, 57, 60, 120
-0.981992, 305, 73, 432, 136
-0.982025, 353, 113, 384, 176
-0.982034, 209, 241, 336, 304
-0.982045, 221, 73, 252, 136
-0.9821, 89, 1, 152, 256
-0.9821, 409, 65, 472, 320
-0.982106, 369, 225, 496, 288
-0.982123, 49, 97, 176, 224
-0.982184, 265, 169, 296, 232
-0.982185, 401, 161, 432, 288
-0.982212, 325, 97, 356, 224
-0.982229, 77, 113, 108, 176
-0.982295, 409, 49, 472, 112
-0.982354, 65, 137, 128, 200
-0.982486, 377, 121, 408, 184
-0.982526, 289, 105, 416, 168
-0.982533, 237, 33, 268, 96
-0.982546, 169, 57, 200, 120
-0.982565, 225, 57, 352, 120
-0.982569, 25, 1, 88, 256
-0.982588, 369, 81, 400, 208
-0.982612, 121, 49, 152, 112
-0.98262, 53, 65, 84, 128
-0.982658, 157, 81, 188, 144
-0.982703, 257, 105, 288, 168
-0.983119, 369, 177, 400, 304
-0.983215, 153, 49, 184, 112
-0.98325, 305, 193, 368, 320
-0.983254, 241, 217, 368, 280
-0.983257, 261, 217, 292, 280
-0.983411, 201, 249, 232, 312
-0.983422, 185, 65, 216, 192
-0.983453, 77, 1, 108, 64
-0.983463, 357, 161, 388, 288
-0.983468, 193, 193, 320, 256
-0.983555, 277, 161, 308, 224
-0.983646, 457, 177, 488, 304
-0.983654, 45, 25, 76, 88
-0.983679, 229, 193, 260, 256
-0.983696, 441, 209, 472, 272
-0.983697, 469, 193, 500, 320
-0.983701, 409, 25, 472, 88
-0.983793, 329, 105, 360, 168
-0.983799, 393, 153, 456, 216
-0.983846, 1, 121, 128, 184
-0.98385, 173, 65, 204, 192
-0.983937, 49, 49, 80, 176
-0.983964, 409, 33, 472, 160
-0.983976, 293, 113, 324, 176
-0.984146, 85, 49, 116, 176
-0.984149, 297, 49, 360, 112
-0.984165, 329, 49, 360, 176
-0.984292, 293, 57, 324, 120
-0.984298, 209, 1, 240, 64
-0.984323, 89, 89, 152, 152
-0.984438, 453, 217, 484, 280
-0.984443, 17, 33, 48, 160
-0.984481, 265, 81, 296, 144
-0.984515, 305, 97, 336, 160
-0.984532, 281, 1, 344, 333
-0.984616, 297, 25, 360, 88
-0.98465, 425, 273, 456, 333
-0.984668, 57, 33, 88, 96
-0.98472, 433, 1, 496, 333
-0.984723, 153, 1, 216, 333
-0.984832, 309, 73, 340, 136
-0.984892, 33, 89, 160, 152
-0.984918, 245, 249, 276, 312
-0.984984, 321, 65, 384, 128
-0.984991, 209, 1, 336, 64
-0.984997, 385, 265, 448, 328
-0.985007, 61, 65, 92, 192
-0.985082, 365, 97, 396, 160
-0.985093, 417, 113, 480, 176
-0.985143, 145, 113, 208, 176
-0.985216, 377, 65, 440, 128
-0.985249, 273, 49, 400, 112
-0.985253, 185, 1, 248, 333
-0.985458, 233, 129, 296, 192
-0.985503, 269, 177, 300, 304
-0.985513, 1, 1, 64, 256
-0.985565, 65, 113, 96, 176
-0.985589, 353, 137, 480, 200
-0.985731, 9, 25, 40, 88
-0.985735, 133, 9, 164, 72
-0.985783, 141, 81, 172, 144
-0.985791, 57, 89, 120, 152
-0.985863, 185, 9, 216, 72
-0.985865, 1, 105, 64, 168
-0.985893, 317, 161, 348, 224
-0.985998, 305, 145, 336, 208
-0.986044, 313, 89, 376, 152
-0.986056, 129, 1, 192, 333
-0.986147, 73, 97, 104, 224
-0.986158, 233, 249, 264, 312
-0.986171, 273, 193, 336, 320
-0.986234, 317, 97, 348, 160
-0.986259, 253, 17, 284, 144
-0.986355, 33, 97, 64, 160
-0.986405, 237, 81, 268, 144
-0.986429, 345, 201, 408, 264
-0.98648, 33, 1, 96, 333
-0.98651, 13, 73, 44, 136
-0.986574, 29, 65, 60, 192
-0.986647, 233, 1, 296, 333
-0.986657, 17, 129, 80, 192
-0.986726, 129, 97, 256, 160
-0.986788, 389, 113, 420, 176
-0.986811, 77, 137, 108, 200
-0.986843, 249, 225, 280, 288
-0.986861, 409, 81, 472, 144
-0.986924, 257, 1, 320, 333
-0.986949, 265, 1, 296, 128
-0.98697, 253, 153, 284, 216
-0.987017, 281, 33, 312, 160
-0.98705, 197, 17, 228, 80
-0.987059, 269, 41, 300, 104
-0.987099, 417, 201, 448, 264
-0.987189, 429, 113, 460, 240
-0.987219, 469, 233, 500, 296
-0.987316, 157, 81, 188, 208
-0.987335, 193, 225, 224, 288
-0.987415, 53, 1, 84, 64
-0.987442, 369, 49, 496, 112
-0.987484, 45, 105, 76, 168
-0.987487, 285, 129, 316, 256
-0.987561, 209, 97, 272, 224
-0.987565, 405, 201, 436, 264
-0.987566, 249, 33, 280, 96
-0.987584, 321, 1, 352, 128
-0.987704, 389, 193, 420, 320
-0.987723, 329, 1, 392, 333
-0.987809, 385, 1, 448, 333
-0.987864, 393, 177, 456, 208
-0.987951, 89, 129, 120, 256
-0.987984, 265, 225, 328, 288
-0.988013, 177, 105, 304, 168
-0.988096, 221, 1, 252, 64
-0.988145, 425, 249, 456, 312
-0.988155, 165, 1, 196, 64
-0.988215, 433, 25, 496, 88
-0.988247, 457, 49, 488, 112
-0.988255, 105, 1, 168, 333
-0.988285, 321, 217, 448, 280
-0.988314, 117, 49, 148, 176
-0.988329, 341, 89, 372, 152
-0.988381, 141, 57, 172, 120
-0.988404, 209, 237, 272, 268
-0.988408, 193, 53, 256, 84
-0.988487, 81, 33, 112, 96
-0.98853, 345, 65, 376, 192
-0.988555, 145, 25, 176, 88
-0.988575, 337, 133, 400, 164
-0.988606, 417, 113, 448, 240
-0.988646, 33, 33, 64, 96
-0.98867, 353, 1, 416, 64
-0.988671, 289, 25, 416, 88
-0.9887, 177, 81, 240, 112
-0.988771, 217, 197, 280, 228
-0.988778, 177, 161, 304, 224
-0.988795, 417, 169, 480, 232
-0.9888, 65, 1, 128, 333
-0.988802, 333, 201, 364, 264
-0.988819, 225, 97, 256, 160
-0.988836, 193, 65, 256, 96
-0.988848, 265, 153, 328, 216
-0.9889, 25, 13, 88, 44
-0.988901, 417, 193, 480, 224
-0.988904, 137, 33, 200, 64
-0.988908, 421, 225, 452, 288
-0.989009, 97, 57, 352, 120
-0.989052, 161, 37, 224, 68
-0.989078, 101, 49, 132, 112
-0.989094, 337, 145, 400, 176
-0.989119, 293, 33, 324, 96
-0.989164, 1, 73, 64, 136
-0.989208, 41, 57, 72, 120
-0.989265, 281, 57, 312, 120
-0.989269, 89, 13, 152, 44
-0.989271, 289, 169, 320, 232
-0.98928, 209, 209, 272, 240
-0.989306, 233, 9, 264, 72
-0.989316, 353, 1, 416, 333
-0.989327, 353, 157, 416, 188
-0.989333, 361, 169, 424, 200
-0.989339, 217, 69, 280, 100
-0.989353, 5, 49, 36, 112
-0.989383, 169, 97, 232, 224
-0.989393, 49, 9, 112, 40
-0.989419, 73, 1, 136, 32
-0.989429, 33, 113, 64, 240
-0.989482, 385, 241, 448, 304
-0.989504, 409, 1, 472, 333
-0.989509, 1, 145, 128, 208
-0.989559, 73, 49, 104, 176
-0.989579, 445, 41, 476, 104
-0.989583, 321, 241, 448, 304
-0.989593, 261, 193, 292, 256
-0.989612, 353, 181, 416, 212
-0.989637, 457, 241, 488, 304
-0.989639, 433, 65, 496, 320
-0.989669, 209, 93, 272, 124
-0.989672, 361, 33, 424, 160
-0.989691, 417, 209, 448, 333
-0.989736, 169, 49, 232, 80
-0.989736, 329, 173, 392, 204
-0.989751, 237, 169, 268, 232
-0.989772, 249, 109, 312, 140
-0.989772, 393, 189, 456, 220
-0.989775, 329, 73, 360, 136
-0.989793, 313, 137, 376, 168
-0.989808, 153, 61, 216, 92
-0.989812, 25, 129, 88, 160
-0.989836, 217, 57, 280, 88
-0.989888, 313, 201, 376, 264
-0.989967, 161, 25, 224, 56
-0.990002, 209, 221, 272, 252
-0.990013, 393, 205, 456, 236
-0.990025, 229, 81, 260, 208
-0.990048, 25, 25, 88, 56
-0.990087, 1, 33, 256, 96
-0.99012, 353, 73, 480, 136
-0.990134, 41, 117, 104, 148
-0.990211, 265, 93, 328, 124
-0.990229, 409, 273, 472, 304
-0.990231, 193, 249, 256, 280
-0.990277, 369, 25, 496, 88
-0.990301, 49, 133, 112, 164
-0.990302, 169, 97, 232, 128
-0.990322, 297, 145, 328, 272
-0.990333, 137, 85, 200, 116
-0.990364, 77, 145, 108, 272
-0.990379, 177, 201, 240, 264
-0.990442, 301, 97, 332, 224
-0.990446, 241, 81, 304, 112
-0.990459, 137, 45, 200, 76
-0.990464, 361, 193, 424, 224
-0.990479, 289, 101, 352, 132
-0.990479, 433, 1, 496, 128
-0.9905, 289, 145, 352, 176
-0.990518, 101, 49, 132, 176
-0.990518, 405, 113, 436, 240
-0.990519, 273, 125, 336, 156
-0.990522, 25, 53, 88, 84
-0.990567, 49, 145, 112, 176
-0.990577, 241, 241, 304, 272
-0.990588, 217, 253, 280, 284
-0.990598, 17, 145, 144, 272
-0.990608, 73, 53, 136, 84
-0.990613, 161, 257, 288, 320
-0.990639, 25, 1, 88, 32
-0.990664, 97, 209, 224, 333
-0.990664, 185, 37, 248, 68
-0.99069, 217, 45, 280, 76
-0.990693, 249, 133, 312, 164
-0.990728, 409, 1, 472, 64
-0.990745, 105, 45, 168, 76
-0.990753, 321, 121, 384, 152
-0.990771, 33, 41, 96, 72
-0.990814, 185, 17, 248, 48
-0.990826, 433, 57, 496, 88
-0.990832, 97, 1, 160, 32
-0.990851, 425, 257, 488, 288
-0.990869, 289, 73, 352, 104
-0.990874, 345, 65, 408, 128
-0.990888, 177, 129, 304, 192
-0.990907, 137, 21, 200, 52
-0.99094, 153, 73, 216, 104
-0.990943, 369, 249, 496, 312
-0.99095, 265, 73, 328, 104
-0.990951, 225, 33, 288, 64
-0.990965, 273, 29, 336, 60
-0.99097, 289, 1, 416, 64
-0.991004, 97, 33, 160, 64
-0.99101, 97, 33, 352, 96
-0.991022, 185, 225, 248, 256
-0.991028, 305, 165, 368, 196
-0.99103, 1, 65, 64, 96
-0.991054, 329, 161, 392, 192
-0.991065, 265, 185, 328, 216
-0.991096, 49, 21, 112, 52
-0.991111, 1, 45, 64, 76
-0.991119, 321, 89, 384, 120
-0.991128, 385, 109, 448, 140
-0.991132, 305, 181, 368, 212
-0.991135, 369, 273, 496, 333
-0.991168, 217, 145, 248, 272
-0.99118, 233, 217, 296, 248
-0.991189, 1, 9, 64, 40
-0.991194, 401, 285, 464, 316
-0.991209, 193, 109, 256, 140
-0.991221, 233, 97, 296, 128
-0.991234, 401, 217, 464, 248
-0.991248, 417, 205, 480, 236
-0.991253, 233, 229, 296, 260
-0.991258, 345, 121, 408, 152
-0.991271, 25, 141, 88, 172
-0.991309, 185, 213, 248, 244
-0.991356, 249, 197, 312, 228
-0.991364, 73, 93, 136, 124
-0.991366, 329, 185, 392, 216
-0.991406, 305, 1, 368, 333
-0.991414, 9, 109, 72, 140
-0.991416, 33, 69, 96, 100
-0.991431, 289, 265, 416, 328
-0.991436, 361, 133, 424, 164
-0.991466, 249, 61, 312, 92
-0.991474, 225, 117, 288, 148
-0.991499, 433, 89, 496, 152
-0.99152, 317, 49, 348, 176
-0.991523, 113, 81, 176, 112
-0.991531, 417, 181, 480, 212
-0.991542, 337, 33, 400, 96
-0.99158, 417, 241, 480, 272
-0.991588, 177, 1, 240, 32
-0.991605, 1, 21, 64, 52
-0.991612, 81, 129, 208, 192
-0.991614, 409, 53, 472, 84
-0.99163, 129, 61, 192, 92
-0.991646, 89, 77, 152, 108
-0.991654, 209, 21, 272, 52
-0.991679, 73, 133, 136, 164
-0.991687, 369, 205, 432, 236
-0.991696, 313, 149, 376, 180
-0.991705, 145, 97, 208, 128
-0.991711, 369, 97, 432, 128
-0.991712, 393, 165, 456, 196
-0.991715, 249, 25, 312, 56
-0.991731, 129, 9, 192, 40
-0.991732, 185, 237, 248, 268
-0.99174, 305, 201, 368, 232
-0.991772, 49, 85, 112, 116
-0.991779, 409, 113, 472, 144
-0.991799, 321, 49, 448, 112
-0.991801, 145, 117, 208, 148
-0.991811, 241, 45, 304, 76
-0.991814, 377, 145, 440, 176
-0.991838, 145, 193, 272, 256
-0.991849, 225, 169, 480, 232
-0.991855, 313, 109, 376, 140
-0.991866, 193, 197, 256, 228
-0.991877, 425, 217, 488, 248
-0.991881, 33, 105, 96, 136
-0.991898, 357, 65, 388, 192
-0.991901, 425, 229, 488, 260
-0.991903, 57, 65, 120, 96
-0.991907, 281, 165, 344, 196
-0.991924, 345, 97, 408, 128
-0.99195, 381, 81, 412, 208
-0.991953, 377, 41, 440, 104
-0.991956, 297, 1, 360, 64
-0.991965, 33, 81, 288, 144
-0.991984, 377, 1, 440, 64
-0.992025, 145, 81, 176, 208
-0.992074, 33, 9, 64, 40
-0.992119, 169, 161, 232, 288
-0.992132, 357, 173, 388, 204
-0.992165, 201, 57, 232, 88
-0.992167, 393, 97, 424, 224
-0.992182, 217, 205, 248, 236
-0.992193, 53, 13, 84, 44
-0.992198, 369, 185, 400, 216
-0.99222, 45, 113, 76, 240
-0.992243, 121, 81, 184, 208
-0.992251, 361, 133, 392, 164
-0.992264, 429, 197, 460, 228
-0.992265, 1, 1, 32, 128
-0.992269, 329, 145, 360, 176
-0.992273, 441, 189, 472, 220
-0.992274, 169, 25, 200, 56
-0.992289, 1, 57, 256, 120
-0.99229, 389, 177, 420, 208
-0.9923, 373, 145, 404, 176
-0.992304, 241, 233, 272, 264
-0.992315, 213, 49, 244, 80
-0.992315, 385, 17, 448, 144
-0.99232, 337, 1, 464, 64
-0.992334, 209, 121, 272, 184
-0.992339, 349, 145, 380, 176
-0.992387, 169, 129, 232, 192
-0.992398, 253, 205, 284, 236
-0.992399, 189, 81, 220, 112
-0.992405, 457, 197, 488, 228
-0.992414, 253, 101, 284, 132
-0.992419, 113, 225, 240, 288
-0.992424, 269, 109, 300, 140
-0.992429, 337, 173, 368, 204
-0.992432, 225, 245, 256, 276
-0.992434, 349, 121, 380, 152
-0.992437, 113, 1, 144, 32
-0.99244, 225, 53, 256, 84
-0.992442, 193, 69, 224, 100
-0.992445, 9, 1, 72, 333
-0.992446, 205, 225, 236, 256
-0.99245, 137, 37, 168, 68
-0.992452, 421, 177, 452, 208
-0.992475, 169, 37, 200, 68
-0.992475, 369, 157, 400, 188
-0.992477, 5, 65, 36, 192
-0.992477, 53, 1, 84, 32
-0.992508, 221, 65, 252, 96
-0.992519, 173, 89, 204, 120
-0.992522, 37, 21, 68, 52
-0.992523, 73, 141, 104, 172
-0.992531, 185, 33, 216, 64
-0.992538, 157, 33, 188, 64
-0.99254, 201, 45, 232, 76
-0.992543, 29, 61, 60, 92
-0.992549, 161, 81, 416, 144
-0.992552, 237, 193, 268, 224
-0.992553, 329, 161, 360, 192
-0.992572, 245, 221, 276, 252
-0.992573, 65, 17, 96, 48
-0.992577, 237, 57, 268, 88
-0.992579, 125, 49, 156, 80
-0.99258, 349, 185, 380, 216
-0.992594, 205, 237, 236, 268
-0.992598, 177, 77, 208, 108
-0.992611, 421, 273, 452, 304
-0.992612, 381, 189, 412, 220
-0.992612, 345, 161, 376, 192
-0.992614, 33, 1, 160, 32
-0.992617, 73, 1, 104, 32
-0.99262, 337, 133, 368, 164
-0.992622, 57, 137, 88, 168
-0.992625, 69, 129, 100, 160
-0.992633, 273, 85, 304, 116
-0.99264, 405, 181, 436, 212
-0.992641, 437, 213, 468, 244
-0.992649, 161, 117, 192, 148
-0.992657, 189, 57, 220, 88
-0.992662, 389, 165, 420, 196
-0.992664, 277, 161, 308, 192
-0.992666, 213, 249, 244, 280
-0.99267, 205, 73, 236, 104
-0.992677, 281, 101, 312, 132
-0.992681, 405, 197, 436, 228
-0.992685, 61, 61, 92, 92
-0.992689, 225, 193, 256, 224
-0.99272, 377, 173, 408, 204
-0.992736, 285, 89, 316, 120
-0.992736, 45, 65, 76, 96
-0.992741, 329, 201, 360, 232
-0.992762, 101, 1, 132, 32
-0.992766, 205, 213, 236, 244
-0.992769, 241, 73, 272, 104
-0.99277, 233, 97, 264, 128
-0.99278, 45, 129, 76, 160
-0.992781, 433, 1, 496, 64
-0.992782, 317, 189, 348, 220
-0.992786, 313, 137, 344, 168
-0.992789, 193, 41, 448, 104
-0.992793, 97, 9, 352, 72
-0.992795, 449, 53, 480, 84
-0.992801, 349, 133, 380, 164
-0.992802, 85, 149, 116, 180
-0.992809, 301, 145, 332, 176
-0.99281, 33, 125, 64, 156
-0.992824, 305, 97, 336, 128
-0.992833, 217, 77, 248, 108
-0.992834, 261, 233, 292, 264
-0.992839, 213, 37, 244, 68
-0.992841, 393, 189, 424, 220
-0.992841, 433, 265, 464, 296
-0.992844, 89, 9, 120, 40
-0.992844, 317, 161, 348, 192
-0.992844, 253, 113, 284, 144
-0.992847, 81, 49, 112, 80
-0.992852, 33, 17, 160, 48
-0.992856, 217, 89, 248, 120
-0.992858, 121, 37, 152, 68
-0.992861, 33, 101, 64, 132
-0.992868, 25, 45, 56, 76
-0.992869, 25, 25, 56, 56
-0.992871, 237, 245, 268, 276
-0.992875, 193, 193, 448, 256
-0.992881, 181, 45, 212, 76
-0.992887, 49, 117, 80, 148
-0.992891, 269, 133, 300, 164
-0.992895, 457, 253, 488, 284
-0.992895, 197, 93, 228, 124
-0.992898, 409, 213, 440, 244
-0.992901, 177, 65, 208, 96
-0.992905, 445, 201, 476, 232
-0.99291, 77, 13, 108, 44
-0.992913, 161, 85, 192, 116
-0.992915, 337, 113, 368, 144
-0.992918, 397, 101, 428, 132
-0.99292, 253, 193, 284, 224
-0.992931, 65, 113, 96, 144
-0.992932, 337, 185, 368, 216
-0.992939, 73, 61, 104, 92
-0.992951, 417, 201, 448, 232
-0.992956, 293, 77, 324, 108
-0.992959, 261, 85, 292, 116
-0.99296, 1, 1, 256, 64
-0.992968, 13, 69, 44, 100
-0.992969, 469, 57, 500, 88
-0.99297, 457, 221, 488, 252
-0.992973, 149, 81, 180, 112
-0.992978, 269, 97, 300, 128
-0.992979, 201, 253, 232, 284
-0.99298, 409, 169, 440, 200
-0.992981, 185, 97, 216, 128
-0.992982, 361, 145, 392, 176
-0.992988, 195, 57, 210, 120
-0.992988, 293, 33, 324, 160
-0.99299, 209, 225, 224, 288
-0.993042, 313, 145, 344, 272
-0.993072, 337, 185, 464, 216
-0.993169, 433, 65, 496, 192
-0.993173, 405, 209, 436, 333
-0.993175, 161, 45, 288, 76
-0.993208, 89, 121, 152, 184
-0.993233, 161, 105, 416, 168
-0.993277, 207, 41, 222, 104
-0.993298, 113, 97, 176, 160
-0.993385, 81, 105, 208, 168
-0.993412, 321, 1, 384, 64
-0.993427, 1, 153, 500, 216
-0.993434, 433, 273, 496, 333
-0.993448, 257, 105, 500, 168
-0.993515, 265, 201, 280, 264
-0.993547, 113, 57, 240, 88
-0.99356, 209, 169, 272, 232
-0.993623, 441, 113, 472, 240
-0.993661, 97, 113, 160, 240
-0.9937, 177, 77, 304, 108
-0.99375, 1, 113, 500, 176
-0.993784, 31, 9, 46, 72
-0.993843, 57, 161, 120, 224
-0.993852, 369, 129, 384, 192
-0.993883, 221, 41, 236, 104
-0.993887, 71, 1, 86, 64
-0.993897, 341, 17, 372, 144
-0.993916, 113, 37, 240, 68
-0.993935, 391, 145, 406, 208
-0.993973, 361, 129, 376, 192
-0.994042, 381, 137, 396, 200
-0.994055, 41, 1, 56, 64
-0.99406, 175, 25, 190, 88
-0.99407, 203, 65, 218, 128
-0.994094, 469, 145, 500, 272
-0.994109, 355, 145, 370, 208
-0.994156, 321, 173, 448, 204
-0.994164, 225, 145, 480, 208
-0.994201, 233, 49, 248, 112
-0.994235, 227, 41, 242, 104
-0.994261, 257, 81, 500, 144
-0.994287, 305, 1, 336, 128
-0.994296, 213, 33, 228, 96
-0.994301, 185, 33, 200, 96
-0.994312, 153, 217, 216, 280
-0.994341, 243, 225, 258, 288
-0.994355, 161, 65, 288, 96
-0.994356, 305, 149, 432, 180
-0.99438, 193, 209, 224, 333
-0.994387, 273, 165, 400, 196
-0.9944, 271, 105, 286, 168
-0.994448, 215, 209, 230, 272
-0.994461, 233, 257, 296, 320
-0.994469, 177, 177, 240, 240
-0.994475, 257, 217, 500, 280
-0.994509, 1, 17, 500, 80
-0.994528, 79, 33, 94, 96
-0.99453, 211, 65, 226, 128
-0.994537, 363, 153, 378, 216
-0.99455, 1, 81, 500, 144
-0.994554, 49, 161, 112, 288
-0.994578, 243, 73, 258, 136
-0.994587, 401, 161, 416, 224
-0.994599, 137, 33, 152, 96
-0.994612, 49, 153, 176, 216
-0.994623, 97, 89, 224, 120
-0.994652, 65, 33, 192, 64
-0.994698, 193, 245, 320, 276
-0.99471, 269, 81, 284, 144
-0.994721, 113, 69, 240, 100
-0.994767, 61, 113, 92, 240
-0.994771, 259, 217, 274, 280
-0.994788, 355, 121, 370, 184
-0.994798, 189, 73, 204, 136
-0.994857, 133, 9, 148, 72
-0.994861, 113, 145, 240, 272
-0.994867, 123, 17, 138, 80
-0.994875, 353, 169, 368, 232
-0.994895, 65, 1, 80, 64
-0.994895, 409, 177, 424, 240
-0.994899, 217, 65, 232, 128
-0.9949, 291, 81, 306, 144
-0.9949, 209, 193, 336, 224
-0.994912, 17, 97, 48, 224
-0.994918, 73, 33, 88, 96
-0.994919, 375, 137, 390, 200
-0.99494, 429, 177, 444, 240
-0.994945, 65, 53, 192, 84
-0.994946, 345, 113, 360, 176
-0.994949, 89, 9, 104, 72
-0.994957, 143, 41, 158, 104
-0.994978, 97, 5, 224, 36
-0.994979, 133, 81, 164, 208
-0.994987, 249, 217, 264, 280
-0.995034, 201, 41, 216, 104
-0.995041, 395, 177, 410, 240
-0.995042, 279, 81, 294, 144
-0.995042, 343, 161, 358, 224
-0.995063, 333, 137, 348, 200
-0.995064, 455, 193, 470, 256
-0.995077, 301, 193, 332, 320
-0.995078, 225, 17, 480, 80
-0.995089, 225, 29, 352, 60
-0.995093, 305, 137, 432, 168
-0.995097, 257, 241, 384, 304
-0.995115, 215, 249, 230, 312
-0.995116, 257, 153, 384, 184
-0.995122, 305, 197, 432, 228
-0.995136, 145, 25, 272, 56
-0.995158, 273, 113, 400, 144
-0.99517, 385, 33, 416, 160
-0.995219, 339, 137, 354, 200
-0.995231, 349, 145, 364, 208
-0.995243, 425, 49, 456, 176
-0.995258, 241, 101, 368, 132
-0.995262, 223, 65, 238, 128
-0.995265, 465, 193, 480, 256
-0.995279, 25, 33, 40, 96
-0.995292, 331, 105, 346, 168
-0.995308, 37, 25, 52, 88
-0.995309, 369, 197, 496, 228
-0.995316, 1, 105, 256, 168
-0.995319, 273, 169, 288, 232
-0.995321, 239, 49, 254, 112
-0.995322, 273, 177, 400, 208
-0.995323, 47, 1, 62, 64
-0.995323, 93, 121, 108, 184
-0.995368, 427, 273, 442, 333
-0.995375, 449, 185, 464, 248
-0.995406, 481, 201, 496, 264
-0.995423, 87, 49, 102, 112
-0.995426, 389, 177, 404, 240
-0.995442, 167, 25, 182, 88
-0.995448, 249, 73, 264, 136
-0.995463, 209, 89, 336, 120
-0.995469, 437, 185, 452, 248
-0.995477, 167, 89, 182, 152
-0.995493, 353, 225, 416, 288
-0.995522, 369, 117, 496, 148
-0.995537, 293, 161, 308, 224
-0.995556, 381, 161, 396, 224
-0.99556, 369, 153, 384, 216
-0.995571, 259, 73, 274, 136
-0.995571, 209, 65, 336, 96
-0.995574, 65, 65, 80, 128
-0.995596, 127, 41, 142, 104
-0.995609, 55, 1, 70, 64
-0.995612, 213, 1, 228, 64
-0.995615, 273, 77, 400, 108
-0.995634, 477, 233, 492, 296
-0.99567, 417, 177, 432, 240
-0.995704, 327, 153, 342, 216
-0.995704, 237, 225, 252, 288
-0.995708, 75, 57, 90, 120
-0.99571, 97, 9, 112, 72
-0.995711, 1, 49, 500, 112
-0.995718, 41, 49, 56, 112
-0.995728, 77, 9, 92, 72
-0.99574, 361, 177, 376, 240
-0.995752, 83, 113, 98, 176
-0.995753, 435, 257, 450, 320
-0.995765, 361, 265, 424, 328
-0.995767, 321, 97, 448, 128
-0.995783, 285, 81, 300, 144
-0.995793, 153, 193, 216, 256
-0.995801, 31, 33, 46, 96
-0.995826, 149, 41, 164, 104
-0.99585, 181, 9, 196, 72
-0.995853, 297, 89, 312, 152
-0.995856, 193, 241, 448, 304
-0.995861, 473, 201, 488, 264
-0.995865, 389, 121, 404, 184
-0.995865, 111, 1, 126, 64
-0.995882, 183, 81, 198, 144
-0.995883, 65, 33, 80, 96
-0.995897, 197, 81, 212, 144
-0.995916, 95, 81, 110, 144
-0.995933, 241, 201, 256, 264
-0.995962, 1, 177, 500, 240
-0.995968, 17, 29, 144, 60
-0.995969, 285, 129, 300, 192
-0.995972, 321, 129, 336, 192
-0.995973, 21, 57, 36, 120
-0.995975, 115, 49, 130, 112
-0.996, 81, 17, 208, 48
-0.996003, 267, 153, 282, 216
-0.996012, 465, 225, 480, 288
-0.996027, 347, 185, 362, 248
-0.996037, 301, 65, 316, 128
-0.996047, 337, 105, 352, 168
-0.996049, 227, 17, 242, 80
-0.996049, 295, 113, 310, 176
-0.996058, 221, 249, 236, 312
-0.996064, 231, 249, 246, 312
-0.996066, 321, 161, 448, 192
-0.996068, 403, 193, 418, 256
-0.996069, 29, 89, 44, 152
-0.996074, 33, 69, 160, 100
-0.996078, 453, 129, 484, 256
-0.996085, 49, 25, 64, 88
-0.996128, 65, 201, 320, 264
-0.996134, 223, 201, 238, 264
-0.996136, 29, 121, 44, 184
-0.996138, 145, 101, 272, 132
-0.996156, 193, 205, 320, 236
-0.996163, 1, 105, 128, 136
-0.996169, 277, 105, 292, 168
-0.99617, 259, 193, 274, 256
-0.996175, 219, 1, 234, 64
-0.996182, 151, 73, 166, 136
-0.996209, 161, 33, 176, 96
-0.996216, 19, 33, 34, 96
-0.996222, 207, 1, 222, 64
-0.996227, 161, 1, 192, 256
-0.996249, 225, 77, 352, 108
-0.996267, 257, 189, 384, 220
-0.996271, 177, 233, 304, 264
-0.996305, 369, 209, 496, 240
-0.996314, 73, 1, 104, 256
-0.996377, 193, 17, 320, 48
-0.996378, 417, 65, 448, 320
-0.996382, 369, 57, 496, 88
-0.996389, 113, 169, 240, 232
-0.996408, 217, 1, 248, 256
-0.996435, 257, 125, 384, 156
-0.996464, 49, 105, 176, 136
-0.996471, 129, 121, 256, 184
-0.99648, 209, 49, 336, 80
-0.996583, 193, 33, 224, 288
-0.996592, 209, 41, 224, 72
-0.996609, 177, 25, 192, 56
-0.996643, 161, 249, 224, 312
-0.996676, 205, 33, 236, 288
-0.996684, 187, 81, 202, 112
-0.996686, 173, 1, 204, 256
-0.996698, 225, 265, 352, 328
-0.996698, 369, 173, 496, 204
-0.996701, 253, 65, 284, 320
-0.996704, 129, 153, 384, 216
-0.996712, 57, 1, 88, 256
-0.996722, 113, 249, 240, 312
-0.996739, 237, 33, 268, 288
-0.99674, 353, 145, 480, 176
-0.996749, 161, 89, 288, 120
-0.996783, 1, 125, 128, 156
-0.996791, 141, 1, 172, 256
-0.996798, 195, 61, 210, 92
-0.9968, 273, 89, 400, 120
-0.996801, 193, 113, 320, 144
-0.996802, 373, 133, 388, 164
-0.996805, 205, 53, 220, 84
-0.996809, 229, 129, 260, 256
-0.996817, 193, 101, 320, 132
-0.996819, 209, 181, 336, 212
-0.996828, 359, 173, 374, 204
-0.996838, 257, 137, 384, 168
-0.996861, 161, 193, 288, 224
-0.996867, 391, 149, 406, 180
-0.996887, 369, 241, 496, 272
-0.996924, 367, 173, 382, 204
-0.996935, 369, 225, 496, 256
-0.996941, 45, 1, 76, 256
-0.996947, 321, 109, 448, 140
-0.996947, 1, 141, 128, 172
-0.996951, 273, 65, 304, 320
-0.996955, 145, 245, 272, 276
-0.996956, 17, 49, 144, 80
-0.996958, 145, 213, 272, 244
-0.996963, 323, 137, 338, 168
-0.996987, 447, 189, 462, 220
-0.996989, 1, 81, 128, 112
-0.996997, 381, 141, 396, 172
-0.996998, 219, 209, 234, 240
-0.997025, 225, 233, 352, 264
-0.997063, 207, 233, 222, 264
-0.9971, 313, 33, 344, 288
-0.997102, 213, 217, 228, 248
-0.997125, 123, 1, 138, 32
-0.997128, 329, 193, 360, 320
-0.997145, 351, 169, 366, 200
-0.99715, 137, 33, 152, 64
-0.99715, 43, 5, 58, 36
-0.997153, 397, 33, 428, 288
-0.997165, 229, 53, 244, 84
-0.997169, 49, 1, 64, 32
-0.99718, 439, 185, 454, 216
-0.997191, 81, 117, 208, 148
-0.997199, 65, 225, 320, 288
-0.997205, 101, 97, 132, 224
-0.997206, 275, 117, 290, 148
-0.997209, 219, 57, 234, 88
-0.99721, 247, 241, 262, 272
-0.99721, 357, 125, 372, 156
-0.997217, 367, 129, 382, 160
-0.997221, 59, 13, 74, 44
-0.997221, 293, 101, 308, 132
-0.997225, 341, 165, 356, 196
-0.997226, 193, 81, 208, 112
-0.997231, 209, 69, 224, 100
-0.99724, 69, 13, 84, 44
-0.99725, 429, 269, 444, 300
-0.997254, 341, 137, 356, 168
-0.997259, 227, 201, 242, 232
-0.997271, 81, 161, 144, 224
-0.997283, 241, 237, 256, 268
-0.997292, 93, 89, 108, 120
-0.997294, 305, 65, 432, 96
-0.9973, 97, 193, 224, 256
-0.997332, 291, 161, 306, 192
-0.997333, 75, 21, 90, 52
-0.997339, 49, 93, 176, 124
-0.99735, 433, 181, 448, 212
-0.997353, 269, 101, 284, 132
-0.997357, 329, 153, 344, 184
-0.99736, 253, 237, 268, 268
-0.997361, 353, 129, 480, 160
-0.997362, 217, 253, 232, 284
-0.997377, 387, 137, 402, 168
-0.997378, 273, 33, 400, 64
-0.997383, 185, 41, 200, 72
-0.997391, 197, 145, 228, 272
-0.997397, 35, 5, 50, 36
-0.997402, 297, 33, 328, 288
-0.997406, 83, 133, 98, 164
-0.997408, 199, 73, 214, 104
-0.99742, 405, 173, 420, 204
-0.99742, 453, 189, 468, 220
-0.997431, 347, 129, 362, 160
-0.997439, 211, 245, 226, 276
-0.997439, 161, 261, 288, 292
-0.997443, 91, 137, 106, 168
-0.997448, 275, 105, 290, 136
-0.997449, 351, 141, 366, 172
-0.997449, 147, 37, 162, 68
-0.997452, 399, 177, 414, 208
-0.997458, 353, 45, 480, 76
-0.997462, 347, 117, 362, 148
-0.997463, 235, 61, 250, 92
-0.997463, 215, 37, 230, 68
-0.997471, 145, 113, 272, 144
-0.997471, 97, 129, 352, 192
-0.997472, 241, 225, 256, 256
-0.997479, 145, 13, 272, 44
-0.997479, 225, 65, 240, 96
-0.997487, 289, 113, 304, 144
-0.997502, 373, 17, 404, 144
-0.99751, 183, 29, 198, 60
-0.997524, 49, 81, 176, 112
-0.997528, 373, 181, 388, 212
-0.99753, 217, 73, 232, 104
-0.997533, 317, 141, 332, 172
-0.997538, 169, 33, 184, 64
-0.997542, 1, 201, 500, 264
-0.997547, 321, 217, 448, 248
-0.997549, 459, 193, 474, 224
-0.997558, 457, 1, 488, 128
-0.997558, 265, 197, 280, 228
-0.997571, 375, 145, 390, 176
-0.997574, 213, 97, 244, 224
-0.997586, 1, 93, 128, 124
-0.997587, 125, 1, 156, 256
-0.99759, 53, 17, 68, 48
-0.997595, 435, 269, 450, 300
-0.997596, 327, 197, 342, 228
-0.997598, 373, 65, 404, 320
-0.997602, 241, 205, 368, 236
-0.997604, 233, 245, 248, 276
-0.997605, 445, 201, 460, 232
-0.997613, 185, 69, 200, 100
-0.997615, 41, 125, 56, 156
-0.997617, 389, 177, 404, 208
-0.997622, 335, 145, 350, 176
-0.99763, 179, 41, 194, 72
-0.997639, 333, 65, 364, 320
-0.997644, 291, 89, 306, 120
-0.997644, 67, 1, 82, 32
-0.997647, 281, 109, 296, 140
-0.997648, 303, 93, 318, 124
-0.997648, 181, 81, 196, 112
-0.997654, 281, 169, 296, 200
-0.997654, 145, 1, 272, 32
-0.997656, 241, 53, 256, 84
-0.997658, 109, 1, 124, 32
-0.997666, 57, 1, 72, 32
-0.997667, 17, 153, 80, 216
-0.99767, 33, 1, 64, 256
-0.997676, 395, 165, 410, 196
-0.997678, 347, 181, 362, 212
-0.997682, 187, 93, 202, 124
-0.997682, 391, 189, 406, 220
-0.997682, 273, 17, 400, 48
-0.997684, 279, 157, 294, 188
-0.997685, 247, 221, 262, 252
-0.99769, 131, 41, 146, 72
-0.997692, 239, 205, 254, 236
-0.997694, 25, 57, 40, 88
-0.997699, 363, 145, 378, 176
-0.997705, 321, 189, 336, 220
-0.997706, 297, 89, 312, 120
-0.997715, 233, 193, 248, 224
-0.997716, 439, 205, 454, 236
-0.997721, 451, 205, 466, 236
-0.997722, 333, 197, 348, 228
-0.997727, 265, 213, 280, 244
-0.997731, 207, 221, 222, 252
-0.997732, 75, 61, 90, 92
-0.997747, 415, 181, 430, 212
-0.99775, 425, 145, 488, 208
-0.997752, 45, 61, 60, 92
-0.997754, 83, 41, 98, 72
-0.997756, 259, 225, 274, 256
-0.997758, 225, 41, 240, 72
-0.997764, 65, 65, 80, 96
-0.997765, 347, 157, 362, 188
-0.997766, 427, 217, 442, 248
-0.997767, 59, 117, 74, 148
-0.997776, 379, 181, 394, 212
-0.997799, 239, 249, 254, 280
-0.997799, 117, 5, 132, 36
-0.997801, 239, 193, 254, 224
-0.997803, 223, 249, 238, 280
-0.997805, 211, 1, 226, 32
-0.997808, 437, 33, 468, 160
-0.997808, 67, 109, 82, 140
-0.997814, 339, 197, 354, 228
-0.997814, 193, 161, 320, 192
-0.997819, 249, 105, 264, 136
-0.99782, 89, 121, 104, 152
-0.997845, 209, 1, 336, 32
-0.997846, 353, 77, 480, 108
-0.997854, 257, 65, 384, 96
-0.997885, 305, 125, 432, 156
-0.997958, 209, 125, 336, 156
-0.997987, 241, 245, 368, 276
-0.998014, 193, 217, 320, 248
-0.99802, 241, 221, 368, 252
-0.998037, 369, 257, 496, 288
-0.998053, 321, 21, 448, 52
-0.998116, 285, 65, 316, 320
-0.998122, 97, 105, 224, 136
-0.998179, 13, 1, 44, 256
-0.998192, 121, 121, 184, 184
-0.998203, 345, 33, 376, 288
-0.998214, 385, 33, 416, 288
-0.998242, 353, 285, 480, 316
-0.998263, 129, 225, 256, 256
-0.998277, 257, 53, 384, 84
-0.998288, 429, 65, 460, 320
-0.998296, 209, 257, 336, 288
-0.998298, 85, 1, 116, 256
-0.998316, 305, 141, 368, 156
-0.998384, 209, 145, 336, 176
-0.998385, 413, 33, 444, 160
-0.99839, 357, 65, 388, 320
-0.998393, 193, 69, 256, 84
-0.998398, 369, 177, 432, 192
-0.998399, 1, 257, 500, 320
-0.998399, 329, 137, 392, 152
-0.998408, 337, 149, 400, 164
-0.998413, 25, 19, 88, 34
-0.998413, 193, 57, 256, 72
-0.998414, 321, 179, 384, 194
-0.998417, 393, 185, 456, 200
-0.998421, 209, 241, 272, 256
-0.998424, 17, 153, 144, 184
-0.998425, 25, 11, 88, 26
-0.998426, 137, 31, 200, 46
-0.998428, 201, 255, 264, 270
-0.998428, 137, 37, 200, 52
-0.998432, 177, 63, 240, 78
-0.998437, 441, 65, 472, 320
-0.998438, 49, 9, 112, 24
-0.998438, 393, 179, 456, 194
-0.998441, 177, 49, 240, 64
-0.998442, 169, 85, 232, 100
-0.998442, 193, 93, 256, 108
-0.998445, 161, 31, 224, 46
-0.998449, 129, 87, 192, 102
-0.998454, 137, 43, 200, 58
-0.998457, 345, 183, 408, 198
-0.998458, 201, 249, 264, 264
-0.998459, 281, 103, 344, 118
-0.998464, 401, 191, 464, 206
-0.998465, 217, 61, 280, 76
-0.998468, 249, 117, 312, 132
-0.998469, 225, 195, 288, 210
-0.998469, 337, 143, 400, 158
-0.998471, 377, 193, 408, 208
-0.998471, 253, 205, 284, 220
-0.998472, 133, 37, 164, 52
-0.998474, 237, 59, 268, 74
-0.998474, 409, 279, 440, 294
-0.998476, 17, 71, 48, 86
-0.998477, 133, 49, 164, 64
-0.998477, 209, 75, 240, 90
-0.998478, 281, 149, 344, 164
-0.998478, 5, 73, 36, 88
-0.998478, 161, 37, 224, 52
-0.998479, 257, 109, 288, 124
-0.998479, 221, 75, 252, 90
-0.99848, 229, 239, 260, 254
-0.998481, 289, 177, 320, 192
-0.998481, 233, 71, 264, 86
-0.998482, 209, 75, 272, 90
-0.998482, 209, 39, 240, 54
-0.998483, 69, 65, 100, 80
-0.998483, 25, 65, 88, 80
-0.998484, 21, 59, 52, 74
-0.998486, 349, 199, 380, 214
-0.998486, 457, 225, 488, 240
-0.998486, 209, 219, 240, 234
-0.998489, 397, 205, 428, 220
-0.998489, 341, 137, 372, 152
-0.998489, 337, 179, 368, 194
-0.998489, 33, 1, 96, 16
-0.998489, 445, 55, 476, 70
-0.99849, 281, 89, 312, 104
-0.998491, 41, 143, 104, 158
-0.998491, 133, 91, 164, 106
-0.998492, 225, 57, 256, 72
-0.998492, 117, 95, 148, 110
-0.998493, 81, 11, 144, 26
-0.998493, 173, 43, 204, 58
-0.998494, 377, 149, 408, 164
-0.998494, 273, 119, 304, 134
-0.998494, 185, 63, 216, 78
-0.998495, 121, 41, 152, 56
-0.998495, 81, 129, 208, 160
-0.998496, 249, 115, 280, 130
-0.998496, 73, 21, 104, 36
-0.998497, 53, 5, 84, 20
-0.998497, 361, 195, 424, 210
-0.998498, 269, 125, 300, 140
-0.998498, 189, 81, 220, 96
-0.9985, 453, 205, 484, 220
-0.9985, 369, 183, 432, 198
-0.998501, 421, 283, 452, 298
-0.998501, 21, 19, 52, 34
-0.998501, 389, 181, 420, 196
-0.998502, 185, 39, 216, 54
-0.998502, 401, 199, 464, 214
-0.998502, 189, 93, 220, 108
-0.998503, 49, 17, 112, 32
-0.998503, 337, 131, 400, 146
-0.998504, 353, 171, 416, 186
-0.998504, 369, 137, 400, 152
-0.998504, 17, 27, 80, 42
-0.998505, 437, 219, 468, 234
-0.998505, 265, 103, 296, 118
-0.998505, 405, 211, 436, 226
-0.998506, 189, 45, 220, 60
-0.998507, 169, 91, 232, 106
-0.998508, 213, 213, 244, 228
-0.998508, 273, 79, 336, 94
-0.998508, 65, 1, 128, 16
-0.998509, 57, 69, 88, 84
-0.998509, 69, 13, 100, 28
-0.998509, 241, 111, 304, 126
-0.998509, 265, 169, 296, 184
-0.99851, 357, 205, 388, 220
-0.99851, 321, 173, 384, 188
-0.998511, 81, 57, 112, 72
-0.998511, 217, 257, 248, 272
-0.998512, 297, 95, 328, 110
-0.998512, 245, 233, 276, 248
-0.998513, 217, 67, 280, 82
-0.998515, 217, 201, 280, 216
-0.998515, 169, 55, 232, 70
-0.998516, 389, 169, 420, 184
-0.998516, 161, 43, 224, 58
-0.998517, 393, 113, 456, 128
-0.998517, 433, 115, 464, 130
-0.998517, 101, 11, 132, 26
-0.998518, 121, 47, 152, 62
-0.998518, 13, 65, 44, 80
-0.998518, 297, 155, 360, 170
-0.998519, 185, 75, 248, 90
-0.998519, 437, 203, 468, 218
-0.998521, 153, 37, 184, 52
-0.998521, 401, 109, 432, 124
-0.998522, 433, 203, 496, 218
-0.998522, 201, 243, 232, 258
-0.998524, 149, 85, 180, 100
-0.998524, 273, 97, 304, 112
-0.998524, 305, 147, 336, 162
-0.998525, 97, 83, 160, 98
-0.998525, 425, 195, 488, 210
-0.998526, 225, 201, 256, 216
-0.998529, 65, 113, 96, 128
-0.99853, 241, 103, 304, 118
-0.998531, 361, 189, 424, 204
-0.998532, 41, 1, 72, 16
-0.998532, 221, 247, 252, 262
-0.998532, 153, 61, 216, 76
-0.998532, 97, 93, 160, 108
-0.998534, 453, 197, 484, 212
-0.998535, 209, 211, 272, 226
-0.998537, 49, 23, 112, 38
-0.998537, 41, 125, 104, 140
-0.998537, 129, 85, 160, 100
-0.998537, 177, 87, 208, 102
-0.998538, 153, 117, 184, 132
-0.998538, 209, 91, 240, 106
-0.998538, 1, 71, 64, 86
-0.998539, 329, 203, 392, 218
-0.99854, 241, 195, 272, 210
-0.99854, 113, 7, 144, 22
-0.99854, 193, 75, 224, 90
-0.99854, 313, 147, 376, 162
-0.998541, 345, 177, 408, 192
-0.998541, 305, 201, 368, 216
-0.998541, 201, 53, 232, 68
-0.998544, 413, 113, 444, 128
-0.998544, 153, 49, 216, 64
-0.998544, 217, 55, 280, 70
-0.998544, 265, 95, 328, 110
-0.998545, 25, 137, 88, 152
-0.998545, 73, 143, 104, 158
-0.998545, 321, 9, 448, 40
-0.998546, 53, 11, 84, 26
-0.998546, 393, 219, 456, 234
-0.998546, 353, 149, 384, 164
-0.998547, 233, 251, 264, 266
-0.998547, 129, 81, 192, 96
-0.998547, 193, 99, 256, 114
-0.998548, 349, 173, 380, 188
-0.99855, 277, 173, 308, 188
-0.99855, 89, 3, 152, 18
-0.99855, 425, 123, 488, 138
-0.99855, 325, 157, 356, 172
-0.998551, 321, 185, 384, 200
-0.998551, 169, 69, 232, 84
-0.998551, 409, 277, 472, 292
-0.998552, 425, 219, 488, 234
-0.998553, 169, 37, 200, 52
-0.998554, 193, 235, 256, 250
-0.998554, 337, 155, 400, 170
-0.998554, 289, 183, 352, 198
-0.998555, 97, 249, 352, 312
-0.998555, 361, 201, 424, 216
-0.998555, 357, 137, 388, 152
-0.998556, 37, 129, 68, 144
-0.998557, 389, 187, 420, 202
-0.998558, 217, 107, 280, 122
-0.998558, 1, 7, 64, 22
-0.998558, 1, 65, 64, 80
-0.998559, 297, 85, 360, 100
-0.998559, 49, 137, 80, 152
-0.998559, 209, 45, 240, 60
-0.99856, 329, 201, 360, 216
-0.99856, 233, 239, 296, 254
-0.99856, 25, 71, 88, 86
-0.998561, 373, 143, 404, 158
-0.998561, 49, 49, 112, 64
-0.998561, 217, 207, 248, 222
-0.998562, 209, 225, 272, 240
-0.998563, 217, 63, 248, 78
-0.998563, 161, 79, 224, 94
-0.998563, 17, 59, 80, 74
-0.998564, 185, 69, 216, 84
-0.998564, 305, 191, 368, 206
-0.998565, 337, 195, 400, 210
-0.998565, 393, 173, 456, 188
-0.998566, 405, 175, 436, 190
-0.998567, 49, 67, 112, 82
-0.998567, 249, 89, 312, 104
-0.998568, 201, 47, 264, 62
-0.998569, 257, 73, 320, 88
-0.998569, 273, 177, 336, 192
-0.99857, 1, 15, 64, 30
-0.99857, 305, 135, 368, 150
-0.998571, 185, 41, 248, 56
-0.998571, 217, 97, 280, 112
-0.998571, 89, 47, 152, 62
-0.998572, 57, 151, 120, 166
-0.998572, 57, 133, 120, 148
-0.998573, 321, 163, 384, 178
-0.998574, 81, 53, 144, 68
-0.998574, 225, 247, 288, 262
-0.998574, 241, 97, 304, 112
-0.998576, 73, 17, 136, 32
-0.998577, 249, 29, 312, 44
-0.99858, 325, 135, 356, 150
-0.99858, 41, 35, 104, 50
-0.99858, 205, 249, 236, 264
-0.99858, 281, 163, 344, 178
-0.99858, 349, 131, 380, 146
-0.998581, 297, 173, 360, 188
-0.998581, 81, 149, 112, 164
-0.998582, 281, 113, 312, 128
-0.998583, 33, 113, 96, 128
-0.998584, 433, 57, 496, 72
-0.998585, 209, 217, 272, 232
-0.998585, 425, 265, 488, 280
-0.998585, 357, 185, 388, 200
-0.998586, 137, 93, 200, 108
-0.998587, 225, 233, 288, 248
-0.998587, 17, 121, 80, 136
-0.998589, 389, 129, 404, 256
-0.998595, 329, 151, 360, 166
-0.998595, 281, 103, 312, 118
-0.998603, 205, 69, 236, 84
-0.998606, 33, 169, 288, 232
-0.998607, 369, 89, 496, 120
-0.998609, 417, 179, 448, 194
-0.998609, 221, 69, 252, 84
-0.99861, 317, 141, 348, 156
-0.998612, 353, 129, 368, 256
-0.998612, 33, 23, 64, 38
-0.998614, 205, 59, 236, 74
-0.998616, 369, 187, 400, 202
-0.998617, 241, 239, 272, 254
-0.998619, 113, 1, 144, 16
-0.998625, 257, 273, 500, 333
-0.998633, 221, 51, 252, 66
-0.998634, 337, 173, 368, 188
-0.998641, 359, 129, 374, 256
-0.998642, 337, 269, 464, 300
-0.998647, 237, 245, 268, 260
-0.998651, 169, 31, 200, 46
-0.998653, 369, 157, 496, 188
-0.998664, 253, 103, 284, 118
-0.998665, 175, 1, 190, 128
-0.998665, 217, 1, 232, 128
-0.998669, 37, 11, 68, 26
-0.998673, 337, 143, 368, 158
-0.998675, 95, 1, 110, 128
-0.998679, 53, 17, 84, 32
-0.998683, 321, 245, 448, 276
-0.998685, 167, 33, 182, 160
-0.99869, 269, 109, 300, 124
-0.998694, 349, 179, 380, 194
-0.998696, 49, 193, 176, 320
-0.998701, 237, 1, 252, 128
-0.99871, 369, 113, 384, 240
-0.99871, 157, 33, 172, 160
-0.998714, 113, 1, 144, 256
-0.998723, 347, 129, 362, 256
-0.998728, 39, 1, 54, 128
-0.998734, 211, 33, 226, 160
-0.99874, 113, 189, 240, 220
-0.998741, 143, 33, 158, 160
-0.998763, 233, 49, 248, 176
-0.998767, 227, 1, 242, 128
-0.998778, 1, 129, 256, 192
-0.998789, 131, 1, 146, 128
-0.998789, 183, 17, 198, 144
-0.998804, 73, 1, 88, 128
-0.998805, 241, 177, 256, 304
-0.998811, 203, 17, 218, 144
-0.998823, 193, 49, 208, 176
-0.99883, 341, 129, 356, 256
-0.998834, 317, 193, 348, 320
-0.99884, 395, 161, 410, 288
-0.998842, 63, 1, 78, 128
-0.998852, 213, 193, 228, 320
-0.998859, 81, 141, 208, 172
-0.998868, 219, 49, 234, 176
-0.998877, 265, 193, 280, 320
-0.998883, 273, 5, 400, 36
-0.998883, 255, 161, 270, 288
-0.998888, 379, 129, 394, 256
-0.998888, 255, 65, 270, 192
-0.998898, 89, 1, 104, 128
-0.998904, 145, 125, 272, 156
-0.998904, 1, 169, 128, 232
-0.998908, 287, 65, 302, 192
-0.998924, 85, 81, 100, 208
-0.998933, 267, 129, 282, 256
-0.998938, 149, 33, 164, 160
-0.998938, 115, 1, 130, 128
-0.998942, 369, 21, 496, 52
-0.998942, 337, 81, 352, 208
-0.998952, 281, 113, 296, 240
-0.998953, 321, 33, 448, 64
-0.998962, 275, 65, 290, 192
-0.998968, 161, 177, 288, 208
-0.998981, 101, 1, 116, 128
-0.998983, 251, 209, 266, 333
-0.998984, 327, 97, 342, 224
-0.998986, 263, 49, 278, 176
-0.99899, 243, 33, 258, 160
-0.998996, 123, 1, 138, 128
-0.998996, 369, 5, 496, 36
-0.998999, 455, 177, 470, 304
-0.999001, 49, 1, 64, 128
-0.999002, 433, 161, 448, 288
-0.999009, 249, 161, 264, 288
-0.999011, 49, 193, 176, 256
-0.999012, 177, 49, 192, 176
-0.999014, 137, 17, 152, 144
-0.999015, 91, 129, 106, 256
-0.999021, 225, 49, 240, 176
-0.999034, 235, 193, 250, 320
-0.999035, 65, 153, 192, 184
-0.999036, 439, 193, 454, 320
-0.99904, 161, 217, 416, 280
-0.999045, 331, 145, 346, 272
-0.999053, 375, 81, 390, 208
-0.999058, 219, 193, 234, 320
-0.999062, 83, 33, 98, 160
-0.999066, 201, 65, 216, 192
-0.999073, 195, 1, 210, 128
-0.999074, 481, 193, 496, 320
-0.999076, 349, 177, 364, 304
-0.999081, 189, 1, 204, 128
-0.999081, 449, 177, 464, 304
-0.999084, 273, 113, 288, 240
-0.999086, 91, 65, 106, 192
-0.999086, 39, 65, 54, 192
-0.999087, 107, 1, 122, 128
-0.999089, 421, 177, 436, 304
-0.999089, 113, 257, 240, 288
-0.999089, 401, 161, 416, 288
-0.999093, 113, 201, 240, 232
-0.999093, 249, 65, 264, 192
-0.999094, 453, 65, 484, 320
-0.999099, 385, 177, 400, 304
-0.999099, 297, 97, 312, 224
-0.999111, 1, 1, 32, 256
-0.999112, 187, 65, 202, 192
-0.999116, 371, 161, 386, 288
-0.999131, 33, 65, 48, 192
-0.999137, 257, 209, 272, 333
-0.999152, 473, 193, 488, 320
-0.999155, 365, 161, 380, 288
-0.99916, 281, 33, 296, 160
-0.99916, 321, 233, 448, 264
-0.999161, 97, 33, 128, 288
-0.999165, 361, 81, 376, 208
-0.99917, 409, 177, 424, 304
-0.999184, 369, 297, 496, 328
-0.999186, 207, 209, 222, 333
-0.999197, 461, 177, 476, 304
-0.999206, 427, 161, 442, 288
-0.999208, 47, 97, 62, 224
-0.999209, 291, 113, 306, 240
-0.99922, 355, 177, 370, 304
-0.999221, 97, 65, 112, 192
-0.999223, 395, 113, 410, 240
-0.999228, 343, 177, 358, 304
-0.999231, 161, 149, 288, 180
-0.999234, 261, 113, 276, 240
-0.999234, 79, 97, 94, 224
-0.999243, 23, 17, 38, 144
-0.999248, 229, 193, 244, 320
-0.999252, 387, 81, 402, 208
-0.999256, 249, 17, 264, 144
-0.999257, 349, 81, 364, 208
-0.999257, 369, 105, 496, 136
-0.999259, 381, 81, 396, 208
-0.999261, 467, 193, 482, 320
-0.999264, 65, 49, 80, 176
-0.999268, 247, 113, 262, 240
-0.999275, 97, 241, 224, 272
-0.999276, 321, 97, 336, 224
-0.999287, 269, 65, 284, 192
-0.999288, 415, 161, 430, 288
-0.999289, 379, 177, 394, 304
-0.99929, 47, 49, 62, 176
-0.999295, 331, 17, 346, 144
-0.999297, 307, 97, 322, 224
-0.9993, 29, 1, 44, 128
-0.999314, 55, 1, 70, 128
-0.999314, 17, 17, 32, 144
-0.999318, 315, 81, 330, 208
-0.99932, 257, 17, 272, 144
-0.99932, 441, 129, 456, 256
-0.999321, 159, 81, 174, 208
-0.99933, 59, 65, 74, 192
-0.999335, 97, 113, 112, 240
-0.999339, 307, 49, 322, 176
-0.99934, 325, 49, 340, 176
-0.999348, 305, 45, 432, 76
-0.999353, 85, 129, 100, 256
-0.999353, 299, 49, 314, 176
-0.999359, 19, 65, 34, 192
-0.999362, 343, 81, 358, 208
-0.999369, 275, 177, 290, 304
-0.999371, 321, 161, 336, 288
-0.999381, 433, 209, 448, 333
-0.999383, 431, 113, 446, 240
-0.999395, 89, 193, 152, 256
-0.999413, 149, 129, 180, 256
-0.999417, 185, 161, 216, 288
-0.999453, 321, 257, 448, 288
-0.99947, 97, 213, 224, 244
-0.999512, 369, 33, 496, 64
-0.999519, 65, 197, 192, 228
-0.999645, 329, 233, 392, 296
-0.999681, 353, 151, 368, 166
-0.999681, 323, 139, 338, 154
-0.999681, 411, 107, 426, 122
-0.999682, 195, 97, 210, 112
-0.999682, 263, 151, 278, 166
-0.999683, 95, 143, 110, 158
-0.999684, 83, 141, 98, 156
-0.999684, 405, 197, 420, 212
-0.999685, 215, 39, 230, 54
-0.999686, 465, 195, 480, 210
-0.999686, 271, 167, 286, 182
-0.999687, 247, 249, 262, 264
-0.999688, 423, 111, 438, 126
-0.999688, 207, 53, 222, 68
-0.999688, 271, 111, 286, 126
-0.999688, 389, 191, 404, 206
-0.99969, 41, 125, 56, 140
-0.99969, 195, 63, 210, 78
-0.99969, 141, 37, 156, 52
-0.99969, 91, 51, 106, 66
-0.99969, 469, 65, 500, 320
-0.999691, 221, 209, 236, 224
-0.999691, 205, 59, 220, 74
-0.999692, 29, 29, 44, 44
-0.999692, 201, 81, 216, 96
-0.999692, 75, 113, 90, 128
-0.999692, 469, 1, 500, 128
-0.999693, 231, 199, 246, 214
-0.999693, 191, 81, 206, 96
-0.999695, 61, 9, 76, 24
-0.999695, 275, 103, 290, 118
-0.999695, 289, 127, 304, 142
-0.999695, 269, 133, 284, 148
-0.999696, 135, 35, 150, 50
-0.999696, 133, 47, 148, 62
-0.999697, 333, 149, 348, 164
-0.999698, 113, 3, 128, 18
-0.999698, 277, 155, 292, 170
-0.999698, 263, 101, 278, 116
-0.999699, 177, 43, 192, 58
-0.999699, 41, 1, 56, 16
-0.9997, 163, 115, 178, 130
-0.999702, 429, 179, 444, 194
-0.999702, 213, 251, 228, 266
-0.999702, 227, 205, 242, 220
-0.999704, 441, 189, 456, 204
-0.999704, 335, 201, 350, 216
-0.999704, 427, 219, 442, 234
-0.999705, 345, 141, 360, 156
-0.999705, 273, 233, 400, 264
-0.999705, 179, 89, 194, 104
-0.999706, 283, 109, 298, 124
-0.999706, 365, 187, 380, 202
-0.999707, 39, 7, 54, 22
-0.999707, 237, 195, 252, 210
-0.999707, 325, 197, 340, 212
-0.999707, 401, 173, 416, 188
-0.999707, 255, 239, 270, 254
-0.999707, 13, 69, 28, 84
-0.999708, 297, 107, 312, 122
-0.999708, 63, 21, 78, 36
-0.999709, 429, 113, 444, 128
-0.99971, 215, 69, 230, 84
-0.999711, 249, 235, 264, 250
-0.999711, 377, 141, 392, 156
-0.999712, 249, 243, 264, 258
-0.999714, 75, 65, 90, 80
-0.999714, 449, 191, 464, 206
-0.999715, 207, 243, 222, 258
-0.999716, 239, 245, 254, 260
-0.999717, 157, 115, 172, 130
-0.999717, 449, 201, 464, 216
-0.999718, 363, 173, 378, 188
-0.999719, 283, 131, 298, 146
-0.999719, 49, 15, 64, 30
-0.999719, 215, 215, 230, 230
-0.99972, 41, 23, 56, 38
-0.99972, 403, 105, 418, 120
-0.999721, 69, 1, 84, 16
-0.999721, 371, 137, 386, 152
-0.999722, 347, 179, 362, 194
-0.999723, 421, 177, 436, 192
-0.999724, 289, 113, 304, 128
-0.999725, 365, 131, 380, 146
-0.999726, 341, 201, 356, 216
-0.999727, 351, 145, 366, 160
-0.999727, 329, 137, 344, 152
-0.999727, 417, 283, 432, 298
-0.999727, 293, 101, 308, 116
-0.999728, 283, 171, 298, 186
-0.999728, 185, 39, 200, 54
-0.999733, 361, 147, 376, 162
-0.999733, 47, 1, 62, 16
-0.999734, 223, 51, 238, 66
-0.999734, 381, 187, 396, 202
-0.999735, 59, 15, 74, 30
-0.999735, 73, 19, 88, 34
-0.999736, 195, 71, 210, 86
-0.999737, 393, 153, 408, 168
-0.999738, 209, 47, 224, 62
-0.999738, 85, 147, 100, 162
-0.999741, 135, 41, 150, 56
-0.999742, 321, 191, 336, 206
-0.999744, 325, 157, 340, 172
-0.999744, 95, 95, 110, 110
-0.999748, 357, 181, 372, 196
-0.999749, 203, 75, 218, 90
-0.99975, 457, 195, 472, 210
-0.99975, 295, 175, 310, 190
-0.999752, 289, 173, 304, 188
-0.999755, 65, 67, 80, 82
-0.999755, 407, 177, 422, 192
-0.999757, 277, 169, 292, 184
-0.99976, 365, 179, 380, 194
-0.99976, 277, 109, 292, 124
-0.99976, 269, 105, 284, 120
-0.99976, 347, 133, 362, 148
-0.999761, 385, 145, 400, 160
-0.999763, 371, 183, 386, 198
-0.99977, 427, 271, 442, 286
-0.999772, 67, 15, 82, 30
-0.999777, 127, 1, 142, 16
-0.999781, 341, 175, 356, 190
-0.999782, 33, 19, 48, 34
-0.999783, 139, 87, 154, 102
-0.999784, 179, 27, 194, 42
-0.999787, 91, 149, 106, 164
-0.999791, 223, 69, 238, 84
-0.999795, 339, 141, 354, 156
-0.999804, 355, 175, 370, 190
-0.999825, 243, 239, 258, 254
-0.999826, 349, 173, 364, 188
-0.999844, 209, 71, 224, 86
-0.999897, 17, 193, 144, 224
-1.00005, 1, 181, 128, 212
-1.0001, 397, 33, 428, 160
-1.0003, 281, 177, 312, 304
-1.0003, 129, 145, 256, 208
-1.00044, 469, 65, 500, 192
-1.00073, 33, 273, 288, 333
-1.00074, 1, 225, 500, 288
-1.00075, 121, 129, 184, 256
-1.0008, 357, 1, 388, 128
-1.00087, 129, 273, 384, 333
-1.00114, 65, 145, 192, 272
-1.00143, 357, 209, 388, 333
-1.00145, 65, 265, 192, 328
-1.00156, 145, 113, 208, 240
-1.00159, 345, 209, 376, 333
-1.00169, 1, 193, 128, 256
-1.0017, 17, 265, 144, 328
-1.00179, 73, 177, 136, 304
-1.00186, 449, 49, 480, 176
-1.00191, 1, 249, 256, 312
-1.00194, 65, 217, 192, 280
-1.00196, 109, 177, 140, 304
-1.00204, 153, 209, 216, 333
-1.00236, 17, 241, 144, 304
-1.00242, 161, 129, 192, 256
-1.00246, 65, 241, 192, 304
-1.00251, 21, 145, 52, 272
-1.00273, 177, 113, 208, 240
-1.00287, 5, 113, 36, 240
-1.00292, 97, 177, 128, 304
-1.00296, 113, 97, 144, 224
-1.00309, 1, 217, 128, 280
-1.00324, 425, 1, 456, 128
-1.00346, 113, 273, 240, 333
-1.00487, 97, 177, 160, 304
-1.00507, 25, 161, 88, 288
-1.00666, 1, 193, 128, 320
-1.00685, 129, 193, 192, 320
-1.00825, 1, 161, 64, 288
-1.01299, 41, 209, 104, 333
-1.01383, 1, 209, 64, 333
