1968
-0.288303, 1, 97, 500, 352
-0.416868, 1, 1, 500, 375
-0.426648, 193, 1, 448, 375
-0.484364, 97, 97, 352, 352
-0.517015, 1, 1, 500, 256
-0.525583, 1, 97, 256, 352
-0.543574, 33, 1, 288, 375
-0.604382, 193, 65, 448, 320
-0.64845, 97, 1, 352, 256
-0.771159, 1, 1, 256, 256
-0.836944, 129, 97, 256, 352
-0.84824, 1, 129, 500, 256
-0.851642, 33, 97, 160, 352
-0.855136, 273, 1, 400, 375
-0.865175, 177, 97, 304, 352
-0.866026, 273, 97, 400, 352
-0.866574, 81, 129, 208, 375
-0.871858, 337, 1, 464, 375
-0.873841, 1, 177, 500, 304
-0.880032, 289, 1, 416, 256
-0.886362, 353, 1, 480, 256
-0.887376, 65, 1, 192, 256
-0.889299, 1, 145, 256, 272
-0.89043, 97, 113, 352, 240
-0.89098, 241, 1, 368, 256
-0.892976, 65, 1, 192, 375
-0.893662, 225, 97, 352, 352
-0.896727, 161, 1, 288, 375
-0.897085, 1, 241, 500, 368
-0.900278, 225, 1, 352, 375
-0.900461, 225, 161, 480, 288
-0.904173, 17, 1, 144, 375
-0.904915, 177, 1, 304, 256
-0.905961, 17, 1, 144, 256
-0.913014, 353, 129, 480, 375
-0.913203, 113, 1, 240, 375
-0.918153, 193, 113, 448, 240
-0.918559, 113, 1, 240, 256
-0.920281, 1, 49, 500, 176
-0.921208, 97, 177, 352, 304
-0.924542, 81, 145, 208, 272
-0.927476, 73, 145, 136, 272
-0.929213, 225, 209, 480, 336
-0.929765, 1, 209, 256, 336
-0.930666, 17, 145, 144, 272
-0.933981, 177, 193, 304, 320
-0.934185, 129, 129, 256, 256
-0.934388, 225, 177, 288, 304
-0.934485, 1, 81, 256, 208
-0.935154, 105, 113, 168, 240
-0.936893, 225, 49, 480, 176
-0.938394, 273, 113, 336, 240
-0.938886, 241, 113, 368, 240
-0.939621, 137, 145, 200, 272
-0.93985, 289, 113, 416, 240
-0.94081, 17, 97, 144, 224
-0.941025, 81, 97, 208, 224
-0.941114, 177, 113, 304, 240
-0.942084, 241, 113, 304, 240
-0.943757, 113, 161, 176, 288
-0.945822, 1, 1, 500, 128
-0.946282, 257, 161, 384, 288
-0.947095, 345, 113, 408, 240
-0.947216, 353, 1, 480, 128
-0.947867, 297, 113, 360, 240
-0.948478, 353, 193, 480, 320
-0.948926, 257, 161, 320, 288
-0.949232, 209, 113, 272, 240
-0.949302, 201, 193, 264, 320
-0.949533, 369, 177, 432, 304
-0.949554, 137, 97, 200, 224
-0.949725, 97, 225, 352, 352
-0.949897, 25, 113, 88, 240
-0.950089, 89, 153, 152, 216
-0.951356, 81, 225, 208, 352
-0.951387, 49, 161, 112, 288
-0.951613, 257, 1, 500, 128
-0.95173, 369, 81, 432, 208
-0.951751, 161, 113, 224, 240
-0.951952, 33, 193, 160, 320
-0.952152, 25, 161, 88, 288
-0.952299, 121, 129, 184, 192
-0.952817, 129, 65, 384, 192
-0.953013, 57, 193, 120, 256
-0.953029, 81, 97, 144, 224
-0.953083, 369, 1, 432, 128
-0.953282, 337, 97, 464, 224
-0.953754, 289, 33, 416, 160
-0.954015, 65, 161, 128, 224
-0.955325, 185, 113, 248, 240
-0.955677, 49, 113, 112, 240
-0.955992, 393, 129, 456, 256
-0.956167, 321, 145, 384, 272
-0.956522, 377, 81, 440, 144
-0.956618, 129, 225, 256, 352
-0.95685, 417, 1, 480, 128
-0.9578, 377, 1, 440, 64
-0.957902, 225, 233, 288, 296
-0.958175, 305, 161, 432, 288
-0.958738, 345, 33, 408, 160
-0.959608, 153, 225, 216, 352
-0.959642, 1, 1, 256, 128
-0.959708, 113, 225, 176, 352
-0.959747, 145, 113, 208, 176
-0.959962, 233, 209, 296, 272
-0.960161, 201, 193, 264, 256
-0.960305, 1, 305, 64, 368
-0.960464, 33, 153, 96, 216
-0.960744, 297, 49, 360, 176
-0.961049, 1, 225, 64, 352
-0.961276, 49, 217, 112, 280
-0.961315, 1, 177, 64, 304
-0.961349, 73, 121, 136, 184
-0.961418, 73, 217, 136, 280
-0.961527, 369, 145, 496, 272
-0.961688, 97, 201, 160, 264
-0.961975, 193, 65, 320, 192
-0.961992, 65, 313, 128, 375
-0.96206, 17, 177, 80, 240
-0.962283, 345, 33, 408, 96
-0.962743, 281, 161, 344, 288
-0.963156, 369, 241, 432, 368
-0.963221, 129, 81, 256, 208
-0.963408, 25, 313, 88, 375
-0.963504, 369, 313, 432, 375
-0.964054, 17, 241, 144, 368
-0.964306, 89, 193, 152, 320
-0.964321, 193, 241, 320, 368
-0.964378, 233, 241, 296, 368
-0.96444, 265, 169, 328, 232
-0.964882, 321, 33, 384, 160
-0.964967, 177, 297, 240, 360
-0.9653, 161, 65, 224, 320
-0.965302, 241, 49, 368, 176
-0.965341, 353, 49, 480, 176
-0.965779, 25, 201, 88, 264
-0.966002, 177, 225, 240, 352
-0.966444, 241, 177, 304, 240
-0.966568, 369, 105, 432, 168
-0.966614, 377, 185, 440, 248
-0.96685, 113, 177, 176, 240
-0.966858, 289, 153, 352, 216
-0.967025, 305, 17, 368, 80
-0.967085, 313, 121, 376, 184
-0.967196, 1, 201, 64, 264
-0.967366, 1, 185, 128, 248
-0.967912, 137, 129, 200, 375
-0.967988, 185, 129, 248, 192
-0.968071, 177, 65, 240, 192
-0.968174, 65, 97, 128, 352
-0.968318, 393, 81, 456, 208
-0.968414, 305, 209, 432, 336
-0.968461, 353, 241, 480, 368
-0.968859, 177, 209, 240, 272
-0.968907, 33, 153, 160, 216
-0.968974, 97, 1, 352, 128
-0.969029, 353, 1, 416, 256
-0.969287, 153, 313, 216, 375
-0.969323, 89, 97, 152, 352
-0.969363, 425, 25, 488, 88
-0.96951, 321, 97, 384, 224
-0.969676, 1, 129, 64, 256
-0.969685, 25, 225, 88, 352
-0.970529, 209, 297, 272, 360
-0.970748, 393, 113, 456, 176
-0.970766, 17, 129, 80, 192
-0.970851, 401, 177, 464, 304
-0.970989, 105, 145, 136, 272
-0.971081, 353, 1, 480, 64
-0.971167, 369, 25, 432, 88
-0.971186, 49, 121, 112, 184
-0.971485, 345, 113, 408, 176
-0.971548, 257, 201, 320, 264
-0.97163, 209, 121, 272, 184
-0.971761, 369, 129, 432, 256
-0.97182, 201, 217, 264, 280
-0.971843, 49, 209, 112, 336
-0.971863, 241, 209, 368, 336
-0.971898, 65, 121, 192, 184
-0.971992, 301, 113, 332, 240
-0.972256, 169, 97, 232, 160
-0.972276, 161, 145, 224, 208
-0.972286, 105, 65, 168, 192
-0.97229, 129, 177, 160, 304
-0.97238, 185, 65, 248, 320
-0.9725, 113, 97, 176, 352
-0.972786, 169, 233, 232, 296
-0.972801, 1, 313, 128, 375
-0.9729, 17, 49, 144, 176
-0.972907, 105, 105, 168, 168
-0.972909, 369, 281, 432, 344
-0.972986, 137, 161, 200, 224
-0.973016, 337, 153, 400, 216
-0.973166, 253, 177, 284, 304
-0.973254, 393, 1, 456, 128
-0.973344, 33, 209, 160, 272
-0.973419, 377, 209, 440, 272
-0.973522, 93, 161, 124, 288
-0.973576, 177, 209, 304, 272
-0.973592, 109, 153, 140, 216
-0.973695, 425, 193, 488, 320
-0.973729, 81, 161, 112, 288
-0.973983, 145, 145, 176, 272
-0.974147, 261, 113, 292, 240
-0.974206, 61, 201, 92, 264
-0.974287, 321, 113, 352, 240
-0.974412, 117, 145, 148, 272
-0.974415, 49, 185, 176, 248
-0.974452, 237, 193, 268, 256
-0.974481, 145, 97, 176, 224
-0.974526, 289, 121, 352, 184
-0.974625, 305, 41, 368, 104
-0.974626, 337, 97, 400, 352
-0.974651, 177, 233, 304, 296
-0.974667, 281, 113, 312, 240
-0.974702, 73, 177, 104, 240
-0.974747, 373, 1, 404, 64
-0.974791, 417, 49, 480, 176
-0.974895, 97, 313, 160, 375
-0.974896, 201, 209, 232, 272
-0.974954, 157, 97, 188, 224
-0.97502, 109, 201, 140, 264
-0.975099, 233, 97, 296, 352
-0.97527, 417, 129, 480, 256
-0.975401, 225, 193, 256, 256
-0.975419, 81, 49, 208, 176
-0.975434, 113, 153, 176, 216
-0.975438, 309, 49, 340, 176
-0.975532, 145, 121, 176, 184
-0.975543, 345, 1, 408, 64
-0.975548, 353, 25, 480, 88
-0.97557, 193, 121, 320, 184
-0.975686, 445, 1, 476, 64
-0.975692, 369, 97, 432, 352
-0.975714, 409, 1, 472, 64
-0.975837, 209, 65, 272, 192
-0.975917, 381, 1, 412, 128
-0.976084, 321, 1, 384, 256
-0.97619, 265, 177, 296, 304
-0.976231, 201, 241, 264, 368
-0.976264, 137, 233, 200, 296
-0.97635, 177, 177, 240, 304
-0.97639, 289, 1, 416, 64
-0.976396, 193, 273, 256, 336
-0.97644, 249, 113, 280, 240
-0.976599, 253, 177, 284, 240
-0.976626, 209, 97, 272, 352
-0.976646, 33, 1, 96, 128
-0.97669, 213, 201, 244, 264
-0.976764, 89, 201, 120, 264
-0.976829, 265, 121, 328, 184
-0.976838, 385, 177, 416, 304
-0.976969, 17, 121, 144, 184
-0.976977, 229, 193, 260, 320
-0.977028, 297, 177, 360, 240
-0.977059, 257, 209, 320, 336
-0.977096, 241, 193, 272, 320
-0.977164, 365, 25, 396, 88
-0.977179, 129, 97, 160, 224
-0.977227, 281, 1, 344, 256
-0.977246, 69, 161, 100, 288
-0.977283, 385, 137, 448, 200
-0.977315, 113, 121, 240, 184
-0.977325, 225, 161, 352, 224
-0.977327, 101, 97, 132, 224
-0.977341, 33, 97, 96, 352
-0.977343, 381, 65, 412, 192
-0.977381, 257, 209, 288, 272
-0.977398, 157, 145, 188, 272
-0.977416, 57, 193, 88, 320
-0.977514, 129, 177, 256, 304
-0.977617, 233, 281, 296, 344
-0.977693, 193, 185, 320, 248
-0.97771, 273, 33, 336, 160
-0.977747, 61, 153, 92, 216
-0.977795, 365, 17, 396, 144
-0.977887, 121, 145, 152, 208
-0.977939, 369, 257, 432, 320
-0.977985, 233, 121, 296, 184
-0.97801, 289, 153, 416, 216
-0.978028, 133, 137, 164, 200
-0.978088, 81, 1, 144, 256
-0.97812, 397, 161, 428, 288
-0.978207, 313, 145, 376, 208
-0.978242, 237, 113, 268, 240
-0.978326, 345, 225, 408, 352
-0.978361, 377, 233, 440, 296
-0.978377, 57, 65, 120, 192
-0.978448, 37, 161, 68, 288
-0.978498, 217, 113, 248, 240
-0.978557, 385, 161, 448, 224
-0.978593, 333, 113, 364, 240
-0.978716, 281, 57, 344, 120
-0.978852, 289, 33, 416, 96
-0.978866, 169, 121, 200, 184
-0.978953, 49, 313, 80, 375
-0.979019, 157, 113, 188, 176
-0.97903, 117, 121, 148, 184
-0.979103, 73, 113, 104, 240
-0.979135, 433, 241, 496, 368
-0.979256, 13, 305, 44, 368
-0.97927, 109, 177, 140, 240
-0.979303, 113, 169, 240, 232
-0.979308, 137, 49, 200, 176
-0.979323, 353, 217, 480, 280
-0.979389, 81, 145, 208, 208
-0.97943, 97, 241, 160, 304
-0.979474, 97, 193, 224, 256
-0.979529, 173, 97, 204, 224
-0.979535, 77, 201, 108, 264
-0.97965, 289, 177, 416, 240
-0.979686, 89, 153, 120, 216
-0.979781, 265, 97, 328, 352
-0.97983, 337, 121, 464, 184
-0.979887, 337, 121, 368, 184
-0.979888, 233, 65, 296, 192
-0.980033, 173, 145, 204, 272
-0.980045, 173, 225, 204, 352
-0.980068, 237, 217, 268, 280
-0.980134, 265, 169, 296, 232
-0.980145, 345, 177, 408, 304
-0.980151, 89, 177, 152, 240
-0.980167, 25, 225, 88, 288
-0.980196, 377, 1, 440, 256
-0.980234, 101, 121, 132, 184
-0.9803, 193, 89, 256, 152
-0.980349, 313, 153, 344, 216
-0.980376, 73, 241, 136, 304
-0.980413, 321, 177, 384, 240
-0.980425, 89, 225, 120, 288
-0.980437, 333, 145, 364, 208
-0.980442, 353, 81, 416, 144
-0.980449, 117, 193, 148, 320
-0.980457, 81, 97, 144, 160
-0.980464, 241, 193, 368, 256
-0.98048, 257, 257, 320, 320
-0.98057, 81, 241, 144, 368
-0.980618, 369, 57, 432, 120
-0.980665, 289, 121, 416, 184
-0.9807, 401, 105, 432, 168
-0.980704, 97, 129, 160, 192
-0.980734, 17, 145, 48, 272
-0.980748, 385, 73, 416, 136
-0.980769, 397, 113, 428, 240
-0.980777, 117, 97, 148, 224
-0.980839, 1, 297, 32, 360
-0.980842, 345, 241, 408, 304
-0.980853, 317, 121, 348, 184
-0.980892, 105, 1, 168, 256
-0.980892, 73, 145, 104, 208
-0.980901, 313, 1, 344, 128
-0.981011, 393, 225, 456, 352
-0.981032, 225, 1, 352, 128
-0.981039, 145, 33, 272, 160
-0.981081, 277, 169, 308, 232
-0.981124, 185, 129, 216, 256
-0.981131, 69, 313, 100, 375
-0.981158, 429, 25, 460, 88
-0.981349, 353, 257, 480, 320
-0.981353, 181, 121, 212, 184
-0.981408, 145, 313, 272, 375
-0.981531, 297, 161, 328, 224
-0.981534, 157, 161, 188, 224
-0.98154, 241, 121, 368, 184
-0.981571, 257, 233, 288, 296
-0.981633, 361, 121, 392, 184
-0.981634, 369, 177, 496, 240
-0.981678, 205, 297, 236, 360
-0.981726, 1, 201, 32, 264
-0.981903, 113, 233, 240, 296
-0.981957, 145, 145, 272, 208
-0.981966, 401, 217, 432, 280
-0.981995, 49, 169, 80, 232
-0.982001, 185, 297, 216, 360
-0.982005, 397, 209, 428, 336
-0.982068, 305, 1, 368, 375
-0.982173, 89, 113, 120, 240
-0.982205, 281, 1, 344, 64
-0.982232, 393, 25, 456, 88
-0.98224, 33, 1, 96, 64
-0.982268, 73, 121, 104, 184
-0.98227, 401, 193, 464, 256
-0.982273, 409, 137, 472, 200
-0.982315, 385, 225, 416, 352
-0.982345, 337, 145, 464, 208
-0.982397, 433, 1, 496, 64
-0.982409, 377, 25, 408, 88
-0.98244, 313, 25, 344, 88
-0.982478, 25, 49, 88, 176
-0.982479, 49, 241, 112, 304
-0.982542, 153, 289, 216, 352
-0.982552, 353, 193, 416, 256
-0.982595, 41, 113, 72, 240
-0.982623, 49, 313, 176, 375
-0.982656, 361, 137, 424, 200
-0.982687, 273, 193, 304, 256
-0.982713, 297, 1, 360, 128
-0.982755, 77, 225, 108, 288
-0.982765, 125, 193, 156, 256
-0.982767, 121, 201, 184, 264
-0.982784, 417, 65, 480, 128
-0.98287, 345, 289, 408, 352
-0.982926, 281, 33, 344, 96
-0.983001, 37, 225, 68, 352
-0.983021, 89, 313, 120, 375
-0.983035, 161, 289, 288, 352
-0.983064, 61, 225, 92, 288
-0.983172, 385, 225, 416, 288
-0.983202, 97, 177, 128, 240
-0.983204, 321, 65, 352, 192
-0.983224, 381, 105, 412, 168
-0.983236, 197, 129, 228, 192
-0.98327, 261, 225, 292, 352
-0.983287, 401, 81, 432, 144
-0.983362, 417, 1, 480, 256
-0.983364, 133, 113, 164, 176
-0.983366, 353, 289, 480, 352
-0.9834, 89, 121, 120, 184
-0.983478, 49, 201, 80, 264
-0.98351, 385, 249, 416, 312
-0.98359, 393, 297, 456, 360
-0.98363, 433, 241, 496, 304
-0.983636, 213, 121, 244, 184
-0.983642, 185, 97, 216, 160
-0.983655, 409, 161, 472, 224
-0.983663, 397, 185, 428, 248
-0.983696, 385, 1, 416, 64
-0.983713, 421, 113, 452, 176
-0.983779, 153, 209, 216, 272
-0.983788, 317, 161, 348, 288
-0.983806, 313, 1, 344, 64
-0.983851, 57, 113, 88, 240
-0.983861, 277, 161, 308, 288
-0.983877, 137, 177, 168, 240
-0.983898, 145, 225, 176, 352
-0.983936, 1, 81, 64, 208
-0.983943, 397, 289, 428, 352
-0.983945, 321, 97, 448, 160
-0.983945, 157, 225, 188, 352
-0.983993, 345, 97, 376, 224
-0.984029, 329, 1, 392, 375
-0.984051, 9, 97, 72, 352
-0.984055, 37, 313, 68, 375
-0.984069, 1, 233, 128, 296
-0.98415, 17, 1, 144, 128
-0.984151, 361, 113, 392, 240
-0.984167, 157, 137, 188, 200
-0.98429, 121, 313, 184, 375
-0.984333, 217, 97, 280, 160
-0.984363, 393, 273, 456, 336
-0.98437, 177, 145, 208, 208
-0.98438, 13, 201, 44, 264
-0.984469, 1, 153, 64, 216
-0.984471, 433, 1, 464, 64
-0.984485, 1, 273, 64, 336
-0.984522, 193, 225, 224, 352
-0.984537, 417, 113, 448, 240
-0.984572, 53, 129, 84, 192
-0.984591, 329, 313, 392, 375
-0.984632, 65, 233, 192, 296
-0.984702, 329, 81, 392, 144
-0.984828, 273, 233, 400, 296
-0.984898, 197, 113, 228, 240
-0.984943, 105, 193, 136, 320
-0.984961, 237, 297, 268, 360
-0.984979, 381, 305, 412, 368
-0.985026, 25, 305, 56, 368
-0.985034, 409, 89, 472, 152
-0.985045, 133, 225, 164, 352
-0.985109, 21, 97, 52, 224
-0.985144, 445, 25, 476, 88
-0.985232, 373, 209, 404, 336
-0.985278, 209, 289, 336, 352
-0.985291, 185, 65, 216, 192
-0.985333, 121, 169, 152, 232
-0.985333, 225, 217, 256, 280
-0.985377, 217, 257, 280, 320
-0.985386, 1, 225, 64, 288
-0.985433, 377, 201, 408, 264
-0.985522, 17, 105, 80, 168
-0.985562, 413, 1, 444, 64
-0.985579, 305, 97, 368, 352
-0.985613, 209, 1, 272, 256
-0.985629, 393, 97, 456, 352
-0.985702, 13, 209, 44, 336
-0.985847, 413, 89, 444, 152
-0.985901, 193, 1, 256, 375
-0.985901, 349, 153, 380, 216
-0.985918, 313, 49, 344, 112
-0.985954, 97, 313, 224, 375
-0.986002, 257, 257, 384, 320
-0.986018, 193, 17, 256, 80
-0.986022, 405, 65, 436, 192
-0.986034, 349, 121, 380, 184
-0.98605, 37, 129, 68, 192
-0.986124, 105, 81, 168, 144
-0.986139, 297, 121, 328, 184
-0.986152, 281, 1, 344, 375
-0.986165, 417, 113, 480, 176
-0.986172, 325, 169, 356, 232
-0.986194, 225, 297, 256, 360
-0.986203, 145, 97, 272, 160
-0.986256, 85, 177, 116, 240
-0.986285, 189, 209, 220, 272
-0.986371, 33, 193, 64, 256
-0.986419, 101, 225, 132, 288
-0.986498, 401, 145, 432, 208
-0.986509, 197, 233, 228, 296
-0.986538, 169, 233, 200, 296
-0.986561, 73, 1, 136, 375
-0.986579, 185, 41, 248, 104
-0.986599, 353, 313, 480, 375
-0.986629, 345, 265, 408, 328
-0.98671, 333, 65, 364, 192
-0.986731, 101, 313, 132, 375
-0.986732, 289, 161, 320, 288
-0.98674, 433, 209, 496, 272
-0.986742, 217, 193, 248, 320
-0.986814, 213, 225, 244, 288
-0.986873, 225, 121, 256, 184
-0.986876, 205, 241, 236, 368
-0.986879, 373, 225, 404, 288
-0.98698, 25, 1, 88, 256
-0.987007, 381, 113, 412, 240
-0.987061, 409, 209, 440, 336
-0.987108, 425, 1, 456, 128
-0.987161, 401, 233, 464, 296
-0.987194, 453, 177, 484, 304
-0.987203, 353, 1, 416, 375
-0.987277, 113, 289, 240, 352
-0.9874, 73, 1, 136, 64
-0.987431, 265, 257, 296, 320
-0.987432, 241, 9, 368, 72
-0.987438, 449, 1, 480, 128
-0.987452, 121, 313, 152, 375
-0.987456, 1, 209, 32, 336
-0.987465, 57, 1, 88, 128
-0.987486, 21, 153, 52, 216
-0.987493, 249, 281, 280, 344
-0.987538, 157, 233, 188, 296
-0.987559, 393, 57, 456, 120
-0.987584, 161, 1, 224, 375
-0.987601, 393, 1, 424, 128
-0.987608, 25, 289, 88, 352
-0.987685, 197, 65, 228, 192
-0.98769, 417, 161, 448, 288
-0.98771, 273, 65, 400, 128
-0.987738, 305, 257, 432, 320
-0.987777, 425, 49, 456, 176
-0.987864, 81, 1, 208, 64
-0.987884, 353, 33, 384, 96
-0.987977, 297, 49, 328, 176
-0.987986, 365, 49, 396, 112
-0.988001, 49, 1, 112, 375
-0.988017, 301, 177, 332, 304
-0.988061, 197, 105, 228, 168
-0.98808, 381, 281, 412, 344
-0.988097, 49, 97, 176, 160
-0.988109, 305, 313, 432, 375
-0.988132, 17, 289, 144, 352
-0.988168, 265, 233, 328, 296
-0.988175, 173, 313, 204, 375
-0.988218, 21, 129, 52, 192
-0.988254, 353, 73, 480, 136
-0.98828, 161, 313, 192, 375
-0.988311, 437, 17, 468, 144
-0.988423, 181, 233, 212, 296
-0.988436, 225, 217, 352, 280
-0.988465, 57, 89, 120, 152
-0.988517, 225, 41, 352, 104
-0.988528, 153, 1, 216, 64
-0.988571, 33, 161, 288, 224
-0.98861, 301, 193, 332, 256
-0.988645, 161, 257, 288, 320
-0.98867, 225, 241, 256, 368
-0.988704, 281, 121, 312, 184
-0.988716, 97, 137, 352, 200
-0.988755, 249, 241, 280, 368
-0.988755, 41, 321, 104, 352
-0.988767, 385, 177, 416, 240
-0.9888, 57, 205, 120, 236
-0.988855, 25, 209, 56, 336
-0.988873, 169, 97, 200, 160
-0.988945, 425, 265, 488, 328
-0.988955, 413, 153, 444, 216
-0.988997, 213, 97, 244, 160
-0.988999, 409, 257, 440, 320
-0.989008, 49, 289, 112, 352
-0.989201, 209, 265, 336, 328
-0.989225, 17, 81, 80, 144
-0.989235, 345, 217, 408, 280
-0.989296, 5, 161, 36, 288
-0.989314, 289, 185, 320, 248
-0.989317, 81, 329, 144, 360
-0.989346, 433, 161, 496, 224
-0.989387, 385, 1, 448, 375
-0.989406, 225, 197, 288, 228
-0.989417, 41, 221, 104, 252
-0.989462, 81, 49, 144, 176
-0.989563, 369, 113, 432, 144
-0.989585, 73, 189, 136, 220
-0.989617, 137, 1, 200, 375
-0.989645, 57, 1, 120, 256
-0.989676, 33, 169, 96, 200
-0.989693, 17, 1, 144, 64
-0.989724, 65, 225, 128, 256
-0.989781, 137, 137, 200, 168
-0.989833, 177, 17, 240, 144
-0.989837, 289, 165, 352, 196
-0.989906, 353, 29, 416, 60
-0.989956, 385, 13, 448, 44
-0.989965, 249, 181, 312, 212
-0.989976, 49, 333, 112, 364
-0.989985, 1, 185, 256, 248
-0.990048, 185, 221, 248, 252
-0.990068, 369, 65, 400, 192
-0.990069, 33, 185, 96, 216
-0.990083, 193, 205, 256, 236
-0.990154, 169, 129, 232, 160
-0.990166, 109, 49, 140, 176
-0.990168, 73, 341, 136, 372
-0.990184, 209, 217, 272, 248
-0.990195, 353, 33, 384, 160
-0.990221, 273, 97, 400, 160
-0.990234, 377, 85, 440, 116
-0.990247, 89, 65, 120, 192
-0.990258, 313, 153, 376, 184
-0.990304, 1, 81, 128, 144
-0.990304, 69, 209, 100, 336
-0.990304, 433, 1, 496, 375
-0.990315, 65, 233, 320, 296
-0.990319, 17, 209, 80, 240
-0.990329, 305, 25, 368, 56
-0.990331, 201, 129, 264, 160
-0.990351, 225, 233, 288, 264
-0.990381, 273, 185, 336, 216
-0.990416, 193, 193, 448, 256
-0.990438, 105, 125, 168, 156
-0.990444, 305, 281, 432, 344
-0.990448, 1, 121, 256, 184
-0.990489, 417, 17, 480, 48
-0.990513, 1, 177, 500, 240
-0.990519, 9, 313, 72, 344
-0.990529, 57, 153, 120, 184
-0.990546, 65, 177, 128, 208
-0.990568, 369, 337, 432, 368
-0.990572, 385, 25, 448, 56
-0.990598, 225, 125, 288, 156
-0.990601, 81, 209, 144, 240
-0.99062, 393, 121, 456, 152
-0.99064, 281, 65, 344, 96
-0.99064, 369, 313, 432, 344
-0.990682, 1, 333, 64, 364
-0.990683, 193, 121, 448, 184
-0.990719, 193, 313, 320, 375
-0.99072, 385, 101, 448, 132
-0.990764, 249, 197, 312, 228
-0.990775, 229, 49, 260, 176
-0.990788, 281, 197, 344, 228
-0.990818, 97, 165, 160, 196
-0.990826, 9, 193, 72, 224
-0.990828, 97, 193, 160, 224
-0.990841, 305, 53, 368, 84
-0.990844, 97, 97, 224, 160
-0.990863, 233, 1, 296, 375
-0.990864, 121, 149, 184, 180
-0.990868, 89, 221, 152, 252
-0.990868, 185, 297, 248, 328
-0.990869, 57, 165, 120, 196
-0.990896, 73, 1, 136, 32
-0.990911, 305, 177, 368, 208
-0.99094, 177, 141, 240, 172
-0.990989, 209, 65, 240, 192
-0.99099, 33, 197, 96, 228
-0.991015, 409, 1, 472, 375
-0.991028, 417, 97, 480, 352
-0.991029, 17, 153, 80, 184
-0.991068, 25, 337, 88, 368
-0.99108, 385, 185, 448, 216
-0.991082, 169, 153, 232, 184
-0.991082, 1, 209, 256, 272
-0.991089, 369, 325, 432, 356
-0.991095, 369, 293, 432, 324
-0.991111, 289, 201, 416, 264
-0.991123, 145, 121, 208, 152
-0.991125, 1, 153, 500, 216
-0.991132, 177, 309, 240, 340
-0.991173, 97, 153, 160, 184
-0.991181, 137, 169, 200, 200
-0.991202, 369, 69, 432, 100
-0.991205, 233, 213, 296, 244
-0.991211, 197, 177, 228, 304
-0.991212, 161, 237, 224, 268
-0.991216, 105, 329, 168, 360
-0.991226, 353, 125, 416, 156
-0.991239, 113, 177, 176, 208
-0.991259, 425, 29, 488, 60
-0.991302, 337, 65, 400, 96
-0.991357, 369, 281, 432, 312
-0.991364, 353, 137, 416, 168
-0.991377, 265, 165, 328, 196
-0.991379, 377, 197, 440, 228
-0.991385, 385, 265, 448, 296
-0.991386, 225, 185, 288, 216
-0.991416, 105, 205, 168, 236
-0.991416, 433, 129, 464, 256
-0.991436, 209, 97, 336, 160
-0.991463, 97, 345, 160, 375
-0.991463, 161, 221, 224, 252
-0.991466, 337, 149, 400, 180
-0.991472, 257, 1, 320, 375
-0.991473, 81, 13, 144, 44
-0.991477, 145, 109, 208, 140
-0.991501, 201, 1, 264, 128
-0.991501, 17, 221, 80, 252
-0.991504, 305, 41, 368, 72
-0.991504, 329, 161, 360, 288
-0.991518, 281, 53, 344, 84
-0.991533, 329, 29, 392, 60
-0.991534, 113, 1, 176, 32
-0.991547, 313, 125, 376, 156
-0.991563, 1, 209, 500, 272
-0.991566, 105, 105, 168, 136
-0.991591, 209, 25, 272, 56
-0.991593, 345, 113, 408, 144
-0.991601, 57, 17, 120, 144
-0.991608, 245, 65, 276, 192
-0.991637, 161, 321, 224, 352
-0.99165, 65, 289, 192, 352
-0.991675, 361, 13, 424, 44
-0.991696, 321, 165, 384, 196
-0.991697, 409, 1, 472, 32
-0.991703, 377, 233, 440, 264
-0.99171, 385, 133, 448, 164
-0.991716, 345, 41, 408, 72
-0.991737, 369, 245, 432, 276
-0.991755, 81, 125, 144, 156
-0.991776, 305, 65, 368, 96
-0.991788, 121, 189, 184, 220
-0.991793, 377, 213, 440, 244
-0.991795, 129, 329, 192, 360
-0.9918, 193, 321, 256, 352
-0.991821, 385, 173, 448, 204
-0.991835, 121, 241, 184, 272
-0.991836, 225, 169, 480, 232
-0.991852, 169, 117, 232, 148
-0.991854, 257, 1, 500, 64
-0.99186, 97, 1, 160, 375
-0.991864, 281, 29, 344, 60
-0.991866, 345, 165, 408, 196
-0.991897, 377, 1, 440, 32
-0.9919, 185, 233, 248, 264
-0.991923, 169, 77, 232, 108
-0.991935, 257, 41, 500, 104
-0.991936, 409, 193, 472, 224
-0.991939, 97, 241, 160, 272
-0.991946, 9, 233, 72, 264
-0.991957, 249, 125, 312, 156
-0.991976, 33, 241, 96, 272
-0.991979, 89, 177, 152, 208
-0.99199, 265, 265, 328, 296
-0.991998, 345, 145, 376, 272
-0.992002, 401, 205, 464, 236
-0.992012, 373, 161, 404, 288
-0.992024, 73, 141, 136, 172
-0.992038, 353, 49, 480, 112
-0.992038, 73, 241, 136, 272
-0.992039, 145, 157, 208, 188
-0.99204, 413, 1, 444, 128
-0.992045, 353, 1, 416, 32
-0.992047, 409, 133, 472, 164
-0.99207, 361, 29, 392, 60
-0.992086, 89, 225, 120, 352
-0.992116, 97, 193, 352, 256
-0.992134, 469, 225, 500, 352
-0.992143, 9, 1, 72, 375
-0.992181, 465, 161, 496, 288
-0.992257, 105, 193, 136, 224
-0.992262, 233, 1, 296, 256
-0.992334, 61, 209, 92, 240
-0.992373, 369, 97, 496, 160
-0.992382, 53, 321, 84, 352
-0.992387, 77, 221, 108, 252
-0.992423, 225, 217, 480, 280
-0.992432, 89, 209, 120, 240
-0.992461, 65, 197, 96, 228
-0.992485, 65, 221, 96, 252
-0.992493, 97, 221, 128, 252
-0.992502, 377, 9, 408, 40
-0.992509, 69, 325, 100, 356
-0.99251, 157, 121, 188, 152
-0.992541, 197, 217, 228, 248
-0.992544, 429, 25, 460, 56
-0.992552, 445, 21, 476, 52
-0.992569, 89, 325, 120, 356
-0.99257, 233, 197, 264, 228
-0.992574, 1, 97, 256, 160
-0.992591, 313, 181, 344, 212
-0.992593, 105, 153, 136, 184
-0.992594, 117, 185, 148, 216
-0.992598, 73, 185, 104, 216
-0.992599, 285, 193, 316, 224
-0.992618, 5, 209, 36, 240
-0.992623, 85, 169, 116, 200
-0.992627, 153, 169, 184, 200
-0.992647, 221, 201, 252, 232
-0.99265, 41, 329, 72, 360
-0.992651, 301, 185, 332, 216
-0.992652, 141, 177, 172, 208
-0.992653, 197, 293, 228, 324
-0.992653, 53, 221, 84, 252
-0.992663, 237, 241, 268, 368
-0.992665, 401, 113, 432, 144
-0.992692, 329, 165, 360, 196
-0.992698, 313, 57, 344, 88
-0.9927, 265, 177, 296, 208
-0.992712, 41, 317, 72, 348
-0.992714, 121, 145, 152, 176
-0.992719, 129, 161, 384, 224
-0.992723, 201, 205, 232, 236
-0.99273, 209, 221, 240, 252
-0.992731, 129, 313, 384, 375
-0.992731, 129, 121, 160, 152
-0.992732, 25, 313, 56, 344
-0.992739, 129, 189, 160, 220
-0.992744, 373, 29, 404, 60
-0.992749, 81, 337, 112, 368
-0.992751, 261, 193, 292, 224
-0.992755, 69, 157, 100, 188
-0.992756, 225, 273, 480, 336
-0.992758, 341, 145, 372, 176
-0.99276, 1, 121, 500, 184
-0.992782, 261, 237, 292, 268
-0.992783, 249, 185, 280, 216
-0.99279, 385, 93, 416, 124
-0.992794, 221, 129, 252, 160
-0.992795, 1, 313, 500, 375
-0.992801, 401, 81, 432, 112
-0.992818, 185, 221, 216, 252
-0.992821, 333, 177, 364, 208
-0.992832, 229, 221, 260, 252
-0.992832, 165, 161, 196, 192
-0.992848, 169, 113, 200, 144
-0.99285, 101, 329, 132, 360
-0.99286, 381, 105, 412, 136
-0.992863, 313, 17, 344, 48
-0.992873, 245, 197, 276, 228
-0.992873, 185, 77, 216, 108
-0.992874, 329, 153, 360, 184
-0.992875, 249, 217, 280, 248
-0.992877, 141, 125, 172, 156
-0.992878, 385, 249, 416, 280
-0.992891, 285, 169, 316, 200
-0.992891, 413, 101, 444, 132
-0.992896, 77, 209, 108, 240
-0.992903, 309, 69, 340, 100
-0.992903, 313, 169, 344, 200
-0.992905, 101, 205, 132, 236
-0.99291, 185, 149, 216, 180
-0.992911, 277, 181, 308, 212
-0.992914, 421, 241, 452, 368
-0.992922, 133, 141, 164, 172
-0.992938, 313, 5, 344, 36
-0.992947, 313, 45, 344, 76
-0.992947, 381, 117, 412, 148
-0.992954, 373, 41, 404, 72
-0.992957, 421, 117, 452, 148
-0.992958, 233, 125, 264, 156
-0.992959, 69, 337, 100, 368
-0.992959, 385, 69, 416, 100
-0.992962, 301, 165, 332, 196
-0.992962, 145, 49, 176, 176
-0.992968, 185, 313, 216, 344
-0.99297, 93, 185, 124, 216
-0.992976, 245, 29, 276, 60
-0.992979, 389, 217, 420, 248
-0.992983, 385, 81, 416, 112
-0.992984, 385, 229, 416, 260
-0.992988, 57, 169, 88, 200
-0.992988, 381, 329, 412, 360
-0.992995, 429, 13, 460, 44
-0.992997, 209, 137, 240, 168
-0.992999, 445, 5, 476, 36
-0.993005, 389, 25, 420, 56
-0.993015, 185, 177, 216, 304
-0.99302, 397, 185, 428, 216
-0.993022, 57, 333, 88, 364
-0.993025, 185, 325, 216, 356
-0.993026, 113, 205, 144, 236
-0.993031, 225, 305, 256, 336
-0.993032, 73, 173, 104, 204
-0.993033, 17, 197, 48, 228
-0.993034, 313, 29, 344, 60
-0.993035, 381, 317, 412, 348
-0.993036, 181, 129, 212, 160
-0.993036, 401, 125, 432, 156
-0.993038, 237, 185, 268, 216
-0.993044, 361, 45, 392, 76
-0.993047, 245, 125, 276, 156
-0.993048, 173, 325, 204, 356
-0.993049, 105, 13, 136, 44
-0.993056, 129, 173, 160, 204
-0.993057, 1, 329, 32, 360
-0.993064, 197, 141, 228, 172
-0.993066, 273, 205, 304, 236
-0.993067, 197, 129, 228, 160
-0.993069, 465, 245, 496, 276
-0.993075, 397, 229, 428, 260
-0.993078, 1, 289, 32, 320
-0.99308, 385, 277, 416, 308
-0.993086, 45, 153, 76, 184
-0.993088, 117, 329, 148, 360
-0.993093, 177, 237, 208, 268
-0.993094, 401, 149, 432, 180
-0.993098, 153, 133, 184, 164
-0.993103, 349, 157, 380, 188
-0.993104, 397, 341, 428, 372
-0.993107, 1, 305, 32, 336
-0.99311, 209, 125, 240, 156
-0.993115, 1, 233, 500, 296
-0.993181, 137, 33, 200, 288
-0.993226, 225, 249, 480, 312
-0.993312, 17, 193, 144, 224
-0.993314, 1, 1, 64, 256
-0.993334, 65, 149, 192, 180
-0.993346, 433, 193, 464, 320
-0.993377, 17, 57, 144, 120
-0.9934, 49, 161, 176, 192
-0.993421, 383, 1, 398, 64
-0.993469, 361, 209, 392, 336
-0.993548, 69, 17, 100, 144
-0.993549, 65, 201, 80, 264
-0.99359, 301, 1, 332, 128
-0.993597, 117, 241, 148, 368
-0.993603, 393, 49, 424, 176
-0.993608, 285, 65, 316, 192
-0.99366, 353, 29, 480, 60
-0.993671, 97, 49, 224, 112
-0.993699, 17, 181, 144, 212
-0.993736, 71, 193, 86, 256
-0.993812, 33, 225, 160, 256
-0.993918, 245, 193, 260, 256
-0.993933, 1, 209, 128, 240
-0.99394, 239, 193, 254, 256
-0.994067, 5, 113, 36, 240
-0.994093, 105, 241, 136, 368
-0.994107, 1, 281, 256, 344
-0.994107, 173, 49, 204, 176
-0.994138, 25, 49, 56, 176
-0.994254, 445, 113, 476, 240
-0.994288, 129, 133, 256, 164
-0.994307, 121, 169, 136, 232
-0.994332, 277, 169, 292, 232
-0.994335, 105, 217, 120, 280
-0.994365, 185, 129, 200, 192
-0.994376, 251, 209, 266, 272
-0.994389, 271, 233, 286, 296
-0.994424, 371, 25, 386, 88
-0.994427, 213, 201, 228, 264
-0.994448, 177, 41, 304, 104
-0.99445, 65, 173, 192, 204
-0.994516, 33, 313, 288, 375
-0.994528, 49, 121, 176, 152
-0.994541, 33, 325, 160, 356
-0.994553, 129, 1, 256, 64
-0.994571, 117, 209, 132, 272
-0.994592, 257, 1, 320, 256
-0.994598, 113, 177, 128, 240
-0.99461, 107, 193, 122, 256
-0.994612, 365, 25, 380, 88
-0.994622, 377, 17, 392, 80
-0.994632, 233, 193, 248, 256
-0.994642, 77, 65, 108, 192
-0.994647, 289, 25, 416, 56
-0.994652, 177, 217, 304, 248
-0.994695, 191, 129, 206, 192
-0.994706, 207, 201, 222, 264
-0.994723, 457, 1, 472, 64
-0.994791, 95, 201, 110, 264
-0.994799, 195, 297, 210, 360
-0.994806, 161, 49, 192, 176
-0.994856, 325, 161, 340, 224
-0.994863, 123, 201, 138, 264
-0.994873, 289, 165, 416, 196
-0.994877, 103, 161, 118, 224
-0.994896, 271, 169, 286, 232
-0.994909, 263, 209, 278, 272
-0.994918, 257, 49, 288, 176
-0.99492, 257, 313, 384, 375
-0.994921, 17, 33, 144, 96
-0.994931, 89, 161, 104, 224
-0.994938, 127, 121, 142, 184
-0.99496, 79, 177, 94, 240
-0.994963, 177, 237, 304, 268
-0.994971, 209, 125, 336, 156
-0.994974, 129, 117, 256, 148
-0.99499, 325, 17, 356, 144
-0.994991, 381, 41, 396, 104
-0.995008, 225, 189, 352, 220
-0.995011, 81, 329, 208, 360
-0.995046, 177, 205, 304, 236
-0.995064, 289, 185, 416, 216
-0.995073, 11, 201, 26, 264
-0.995075, 257, 209, 272, 272
-0.995085, 97, 113, 352, 176
-0.995093, 335, 153, 350, 216
-0.995098, 1, 169, 128, 200
-0.995098, 273, 225, 304, 352
-0.995105, 157, 137, 172, 200
-0.995106, 113, 145, 240, 176
-0.995111, 261, 177, 276, 240
-0.995126, 121, 121, 136, 184
-0.995128, 269, 209, 284, 272
-0.995187, 91, 225, 106, 288
-0.99519, 243, 217, 258, 280
-0.995202, 353, 121, 368, 184
-0.995235, 69, 161, 84, 224
-0.995245, 49, 205, 176, 236
-0.995252, 1, 1, 256, 64
-0.995262, 291, 169, 306, 232
-0.995268, 353, 13, 480, 44
-0.995269, 225, 297, 480, 360
-0.995271, 65, 185, 192, 216
-0.995289, 111, 217, 126, 280
-0.995301, 75, 153, 90, 216
-0.99531, 303, 161, 318, 224
-0.99532, 97, 1, 224, 128
-0.995323, 113, 121, 128, 184
-0.995324, 183, 105, 198, 168
-0.995357, 99, 225, 114, 288
-0.995386, 225, 201, 240, 264
-0.995397, 359, 121, 374, 184
-0.9954, 115, 153, 130, 216
-0.995406, 57, 241, 88, 368
-0.995413, 317, 33, 332, 96
-0.995431, 179, 129, 194, 192
-0.995431, 9, 65, 40, 192
-0.995461, 11, 297, 26, 360
-0.995467, 257, 97, 500, 160
-0.995477, 163, 129, 178, 192
-0.995479, 161, 25, 416, 88
-0.995491, 97, 201, 224, 232
-0.995505, 145, 121, 160, 184
-0.995516, 133, 121, 148, 184
-0.995525, 219, 209, 234, 272
-0.995533, 97, 217, 224, 248
-0.995536, 83, 313, 98, 375
-0.995548, 1, 289, 500, 352
-0.995555, 449, 1, 464, 64
-0.995574, 131, 145, 146, 208
-0.995582, 253, 185, 268, 248
-0.99561, 433, 1, 448, 64
-0.995619, 275, 193, 290, 256
-0.995625, 189, 33, 220, 288
-0.99563, 95, 161, 110, 224
-0.995635, 27, 305, 42, 368
-0.995655, 61, 129, 76, 192
-0.995665, 201, 209, 216, 272
-0.995677, 33, 1, 64, 128
-0.995679, 81, 217, 96, 280
-0.995685, 171, 113, 186, 176
-0.99569, 319, 153, 334, 216
-0.995705, 347, 121, 362, 184
-0.995712, 313, 161, 328, 224
-0.995714, 161, 129, 192, 375
-0.995717, 1, 337, 128, 368
-0.995723, 71, 217, 86, 280
-0.995726, 297, 161, 312, 224
-0.995729, 77, 121, 92, 184
-0.995735, 5, 289, 20, 352
-0.995761, 289, 13, 416, 44
-0.995761, 55, 305, 70, 368
-0.995766, 89, 201, 104, 264
-0.99578, 139, 121, 154, 184
-0.995781, 97, 89, 352, 152
-0.995786, 457, 225, 488, 352
-0.995791, 353, 269, 480, 300
-0.995794, 127, 169, 142, 232
-0.995811, 439, 25, 454, 88
-0.995811, 225, 177, 352, 208
-0.995813, 65, 313, 80, 375
-0.995817, 273, 125, 400, 156
-0.995819, 21, 193, 36, 256
-0.995834, 273, 65, 400, 96
-0.995842, 1, 153, 128, 184
-0.995847, 157, 113, 172, 176
-0.99586, 331, 121, 346, 184
-0.995866, 131, 193, 146, 256
-0.995893, 289, 37, 416, 68
-0.995896, 105, 1, 136, 256
-0.995897, 113, 1, 128, 64
-0.995908, 225, 145, 480, 208
-0.995909, 121, 145, 136, 208
-0.995913, 283, 169, 298, 232
-0.995939, 37, 313, 52, 375
-0.995942, 161, 161, 176, 224
-0.995951, 129, 237, 256, 268
-0.995952, 387, 33, 402, 96
-0.995954, 109, 153, 124, 216
-0.995957, 133, 97, 164, 352
-0.995958, 161, 65, 416, 128
-0.995961, 91, 313, 106, 375
-0.995972, 197, 129, 228, 375
-0.995988, 289, 1, 416, 32
-0.995989, 149, 129, 180, 375
-0.996016, 391, 65, 406, 128
-0.996021, 217, 289, 232, 352
-0.996025, 147, 145, 162, 208
-0.996027, 113, 185, 240, 216
-0.996031, 67, 121, 82, 184
-0.996033, 151, 113, 166, 176
-0.996034, 129, 289, 384, 352
-0.996071, 81, 145, 96, 208
-0.996071, 59, 209, 74, 272
-0.996083, 35, 193, 50, 256
-0.996085, 1, 217, 16, 280
-0.996092, 113, 97, 144, 352
-0.996096, 189, 105, 204, 168
-0.996096, 97, 1, 352, 64
-0.996101, 323, 121, 338, 184
-0.996101, 337, 121, 352, 184
-0.996103, 71, 313, 86, 375
-0.996122, 369, 181, 496, 212
-0.996122, 281, 193, 296, 256
-0.996131, 69, 97, 100, 352
-0.996131, 425, 113, 440, 176
-0.996132, 173, 65, 204, 320
-0.996142, 353, 281, 480, 312
-0.996149, 459, 25, 474, 88
-0.996161, 167, 161, 182, 224
-0.996163, 289, 49, 416, 80
-0.996174, 209, 121, 224, 184
-0.996181, 97, 1, 224, 32
-0.996187, 331, 177, 346, 240
-0.996195, 313, 1, 344, 256
-0.996197, 447, 33, 462, 96
-0.996198, 203, 105, 218, 168
-0.996216, 389, 1, 404, 64
-0.996226, 197, 105, 212, 168
-0.996228, 201, 289, 216, 352
-0.996229, 101, 185, 116, 248
-0.99623, 365, 121, 380, 184
-0.99623, 147, 177, 162, 240
-0.996235, 99, 313, 114, 375
-0.996239, 353, 257, 480, 288
-0.996247, 225, 73, 352, 136
-0.996249, 239, 297, 254, 360
-0.996251, 153, 169, 168, 232
-0.996255, 43, 313, 58, 375
-0.996259, 241, 165, 368, 196
-0.996262, 313, 121, 328, 184
-0.996297, 225, 201, 352, 232
-0.996313, 361, 1, 392, 256
-0.996328, 353, 241, 480, 272
-0.996368, 97, 97, 128, 352
-0.996421, 9, 1, 72, 128
-0.996437, 161, 297, 288, 328
-0.996442, 129, 325, 256, 356
-0.996443, 289, 197, 416, 228
-0.99645, 353, 113, 480, 144
-0.996477, 305, 345, 432, 375
-0.996486, 273, 249, 400, 280
-0.996515, 145, 165, 272, 196
-0.996545, 305, 153, 432, 184
-0.996549, 17, 133, 144, 164
-0.996552, 353, 69, 480, 100
-0.996574, 353, 217, 480, 248
-0.996575, 65, 257, 320, 320
-0.996584, 257, 65, 500, 128
-0.996595, 353, 1, 480, 32
-0.996616, 353, 297, 480, 328
-0.996629, 257, 265, 384, 296
-0.99663, 273, 233, 400, 264
-0.996632, 337, 165, 464, 196
-0.996655, 369, 197, 496, 228
-0.996671, 373, 33, 404, 288
-0.9967, 145, 313, 272, 344
-0.996725, 241, 29, 368, 60
-0.996786, 33, 241, 160, 272
-0.996787, 81, 97, 112, 352
-0.996793, 209, 97, 240, 352
-0.996815, 353, 229, 480, 260
-0.996858, 1, 57, 500, 120
-0.996876, 97, 161, 224, 192
-0.996899, 17, 1, 144, 32
-0.996907, 321, 125, 448, 156
-0.996907, 57, 321, 72, 352
-0.996917, 305, 265, 432, 296
-0.996924, 45, 97, 76, 352
-0.996929, 209, 297, 336, 328
-0.996948, 229, 97, 260, 352
-0.996988, 177, 193, 304, 224
-0.99699, 365, 29, 380, 60
-0.997008, 1, 313, 128, 344
-0.997018, 353, 93, 480, 124
-0.997026, 201, 1, 232, 256
-0.997043, 337, 141, 464, 172
-0.997067, 145, 73, 272, 136
-0.997096, 69, 193, 84, 224
-0.997105, 83, 221, 98, 252
-0.997129, 69, 321, 84, 352
-0.997131, 199, 217, 214, 248
-0.997142, 257, 97, 288, 352
-0.997161, 81, 241, 208, 272
-0.997172, 81, 325, 96, 356
-0.997207, 225, 69, 352, 100
-0.997216, 1, 257, 128, 320
-0.997222, 257, 153, 384, 184
-0.99724, 273, 97, 304, 352
-0.997243, 245, 97, 276, 352
-0.997257, 439, 25, 454, 56
-0.997265, 51, 317, 66, 348
-0.997277, 353, 321, 480, 352
-0.997278, 193, 285, 320, 316
-0.997279, 57, 97, 88, 352
-0.997282, 193, 17, 320, 80
-0.997302, 353, 345, 480, 375
-0.997324, 77, 221, 92, 252
-0.997339, 93, 325, 108, 356
-0.997351, 397, 97, 428, 352
-0.997362, 193, 309, 208, 340
-0.997366, 81, 313, 208, 344
-0.99737, 165, 117, 180, 148
-0.997374, 81, 61, 208, 92
-0.997393, 63, 321, 78, 352
-0.997393, 65, 205, 80, 236
-0.997405, 89, 221, 104, 252
-0.997407, 69, 225, 84, 256
-0.997409, 5, 285, 20, 316
-0.997409, 161, 153, 288, 184
-0.997418, 371, 29, 386, 60
-0.997427, 329, 173, 344, 204
-0.997431, 145, 77, 272, 108
-0.997432, 63, 225, 78, 256
-0.997444, 185, 129, 216, 375
-0.997445, 381, 25, 396, 56
-0.997453, 175, 109, 190, 140
-0.99746, 193, 309, 320, 340
-0.997461, 1, 57, 256, 120
-0.997466, 97, 225, 112, 256
-0.997483, 177, 137, 304, 168
-0.997485, 235, 197, 250, 228
-0.997492, 77, 185, 92, 216
-0.997497, 1, 89, 500, 152
-0.997525, 103, 221, 118, 252
-0.997526, 153, 129, 168, 160
-0.997528, 131, 193, 146, 224
-0.997528, 305, 277, 432, 308
-0.997529, 145, 105, 272, 136
-0.99754, 323, 181, 338, 212
-0.99755, 113, 189, 128, 220
-0.997552, 337, 41, 464, 72
-0.997553, 91, 169, 106, 200
-0.997564, 147, 181, 162, 212
-0.99757, 85, 173, 100, 204
-0.997572, 101, 325, 116, 356
-0.997577, 233, 217, 248, 248
-0.997594, 1, 217, 16, 248
-0.997598, 85, 337, 100, 368
-0.997598, 341, 161, 356, 192
-0.997599, 305, 289, 432, 320
-0.997616, 81, 341, 208, 372
-0.99762, 117, 149, 132, 180
-0.997625, 59, 333, 74, 364
-0.997629, 99, 209, 114, 240
-0.997629, 301, 1, 332, 256
-0.99764, 205, 225, 220, 256
-0.997641, 109, 221, 124, 252
-0.997646, 241, 281, 368, 312
-0.997652, 45, 317, 60, 348
-0.99766, 273, 241, 288, 272
-0.997662, 177, 65, 304, 96
-0.997663, 321, 81, 448, 112
-0.997666, 159, 121, 174, 152
-0.997668, 105, 205, 120, 236
-0.997674, 433, 25, 448, 56
-0.997674, 87, 325, 102, 356
-0.997678, 243, 201, 258, 232
-0.99768, 161, 169, 176, 200
-0.99769, 141, 185, 156, 216
-0.997692, 273, 77, 400, 108
-0.997695, 225, 213, 352, 244
-0.997696, 193, 221, 208, 252
-0.997702, 325, 33, 356, 288
-0.997704, 351, 149, 366, 180
-0.997709, 385, 1, 416, 256
-0.997714, 75, 325, 90, 356
-0.997717, 245, 189, 260, 220
-0.997719, 33, 97, 64, 352
-0.997731, 177, 249, 304, 280
-0.997742, 47, 329, 62, 360
-0.997745, 211, 221, 226, 252
-0.997748, 177, 269, 304, 300
-0.997748, 317, 177, 332, 208
-0.997751, 279, 197, 294, 228
-0.997758, 369, 125, 496, 156
-0.997763, 7, 209, 22, 240
-0.997765, 91, 337, 106, 368
-0.997769, 383, 13, 398, 44
-0.997775, 251, 185, 266, 216
-0.997778, 393, 25, 408, 56
-0.997779, 85, 209, 100, 240
-0.997781, 155, 173, 170, 204
-0.997789, 223, 201, 238, 232
-0.997794, 113, 9, 128, 40
-0.997794, 251, 197, 266, 228
-0.997799, 193, 73, 208, 104
-0.997801, 145, 121, 160, 152
-0.997801, 75, 337, 90, 368
-0.997812, 293, 169, 308, 200
-0.997814, 107, 193, 122, 224
-0.997814, 75, 21, 90, 52
-0.997815, 335, 173, 350, 204
-0.997825, 205, 209, 220, 240
-0.997826, 321, 161, 336, 192
-0.99783, 275, 177, 290, 208
-0.997832, 77, 209, 92, 240
-0.997842, 173, 161, 188, 192
-0.997849, 127, 149, 142, 180
-0.997855, 239, 221, 254, 252
-0.997858, 357, 145, 372, 176
-0.997862, 353, 333, 480, 364
-0.997865, 255, 29, 270, 60
-0.997868, 91, 209, 106, 240
-0.997874, 17, 109, 144, 140
-0.997876, 313, 97, 344, 352
-0.997883, 349, 33, 380, 288
-0.997883, 315, 57, 330, 88
-0.997883, 179, 157, 194, 188
-0.997885, 65, 333, 80, 364
-0.997903, 121, 185, 136, 216
-0.997914, 201, 129, 216, 160
-0.997918, 305, 109, 432, 140
-0.997922, 265, 217, 280, 248
-0.997925, 195, 297, 210, 328
-0.997938, 267, 181, 282, 212
-0.997944, 147, 169, 162, 200
-0.997945, 185, 153, 200, 184
-0.997945, 167, 165, 182, 196
-0.997954, 213, 1, 244, 256
-0.997959, 193, 85, 320, 116
-0.99796, 433, 13, 448, 44
-0.997971, 71, 209, 86, 240
-0.997973, 135, 181, 150, 212
-0.997973, 229, 201, 244, 232
-0.997973, 171, 121, 186, 152
-0.997976, 295, 193, 310, 224
-0.997983, 93, 1, 124, 256
-0.997984, 249, 213, 264, 244
-0.997988, 445, 21, 460, 52
-0.99799, 117, 209, 132, 240
-0.997991, 213, 205, 228, 236
-0.997997, 227, 129, 242, 160
-0.997998, 333, 157, 348, 188
-0.998009, 165, 1, 180, 32
-0.99801, 227, 213, 242, 244
-0.998016, 353, 309, 480, 340
-0.998028, 311, 181, 326, 212
-0.998028, 303, 165, 318, 196
-0.998043, 39, 317, 54, 348
-0.998044, 53, 333, 68, 364
-0.998047, 373, 45, 388, 76
-0.998047, 125, 201, 140, 232
-0.998048, 187, 309, 202, 340
-0.998049, 219, 221, 234, 252
-0.998062, 99, 165, 114, 196
-0.998072, 143, 133, 158, 164
-0.998074, 229, 305, 244, 336
-0.998075, 129, 345, 256, 375
-0.998076, 197, 145, 212, 176
-0.998083, 65, 109, 192, 140
-0.998085, 273, 201, 288, 232
-0.998085, 301, 181, 316, 212
-0.998087, 389, 237, 404, 268
-0.998087, 153, 117, 168, 148
-0.998089, 217, 125, 232, 156
-0.998097, 397, 1, 428, 256
-0.998105, 81, 229, 208, 260
-0.998114, 241, 1, 368, 32
-0.998124, 209, 41, 336, 72
-0.998131, 361, 97, 392, 352
-0.998133, 21, 97, 52, 352
-0.998145, 273, 329, 400, 360
-0.998153, 17, 13, 144, 44
-0.998194, 297, 97, 328, 352
-0.998199, 209, 345, 336, 375
-0.998217, 117, 1, 148, 256
-0.99822, 241, 113, 368, 144
-0.99828, 273, 317, 400, 348
-0.9983, 1, 17, 500, 80
-0.99831, 241, 17, 368, 48
-0.998341, 209, 321, 336, 352
-0.998353, 17, 69, 144, 100
-0.998355, 353, 153, 480, 184
-0.998361, 385, 129, 416, 375
-0.998377, 353, 57, 480, 88
-0.998404, 81, 133, 208, 164
-0.998405, 189, 137, 220, 152
-0.998406, 401, 83, 432, 98
-0.998406, 49, 335, 112, 350
-0.998408, 245, 127, 276, 142
-0.998408, 265, 215, 296, 230
-0.99841, 145, 185, 176, 200
-0.99841, 37, 319, 68, 334
-0.998411, 213, 211, 244, 226
-0.998411, 57, 225, 88, 240
-0.998412, 261, 177, 292, 192
-0.998413, 313, 11, 344, 26
-0.998414, 101, 11, 132, 26
-0.998415, 81, 159, 112, 174
-0.998417, 137, 131, 168, 146
-0.998418, 89, 227, 120, 242
-0.998419, 177, 327, 208, 342
-0.998419, 33, 335, 64, 350
-0.998419, 373, 37, 404, 52
-0.998419, 401, 119, 432, 134
-0.99842, 285, 171, 316, 186
-0.99842, 1, 303, 32, 318
-0.998421, 57, 331, 88, 346
-0.998421, 13, 207, 44, 222
-0.998422, 425, 15, 456, 30
-0.998423, 1, 229, 32, 244
-0.998423, 281, 181, 312, 196
-0.998424, 113, 153, 144, 168
-0.998424, 293, 187, 324, 202
-0.998424, 85, 175, 116, 190
-0.998425, 5, 213, 36, 228
-0.998425, 17, 233, 48, 248
-0.998425, 181, 103, 212, 118
-0.998425, 229, 209, 260, 224
-0.998427, 249, 31, 280, 46
-0.998427, 249, 217, 280, 232
-0.998427, 109, 217, 140, 232
-0.998427, 445, 19, 476, 34
-0.998428, 141, 141, 172, 156
-0.998429, 205, 219, 236, 234
-0.998429, 257, 205, 288, 220
-0.998429, 381, 105, 412, 120
-0.998429, 341, 157, 372, 172
-0.998431, 57, 219, 120, 234
-0.998433, 321, 159, 352, 174
-0.998434, 313, 25, 344, 40
-0.998435, 77, 183, 108, 198
-0.998436, 313, 19, 344, 34
-0.998438, 309, 63, 340, 78
-0.998439, 117, 349, 148, 364
-0.998439, 77, 209, 108, 224
-0.99844, 101, 193, 132, 208
-0.998441, 269, 177, 284, 304
-0.998444, 273, 209, 400, 240
-0.998446, 133, 185, 164, 200
-0.998446, 257, 237, 288, 252
-0.998448, 377, 19, 408, 34
-0.99845, 73, 189, 104, 204
-0.99845, 157, 173, 188, 188
-0.998451, 285, 199, 316, 214
-0.998452, 149, 179, 180, 194
-0.998452, 81, 341, 144, 356
-0.998453, 273, 207, 304, 222
-0.998456, 221, 217, 252, 232
-0.998457, 101, 341, 132, 356
-0.998457, 385, 5, 416, 20
-0.998459, 193, 147, 224, 162
-0.99846, 185, 75, 216, 90
-0.99846, 373, 43, 404, 58
-0.998461, 297, 169, 328, 184
-0.998462, 133, 123, 164, 138
-0.998462, 97, 347, 128, 362
-0.998463, 193, 97, 224, 112
-0.998463, 145, 123, 176, 138
-0.998465, 229, 129, 260, 144
-0.998465, 273, 191, 336, 206
-0.998465, 113, 301, 240, 332
-0.998465, 289, 167, 352, 182
-0.998466, 105, 201, 136, 216
-0.998466, 209, 139, 240, 154
-0.998467, 153, 129, 184, 144
-0.998467, 109, 331, 140, 346
-0.998467, 65, 191, 128, 206
-0.998468, 233, 201, 264, 216
-0.998469, 117, 185, 148, 200
-0.998469, 189, 323, 220, 338
-0.998469, 129, 193, 160, 208
-0.99847, 233, 189, 296, 204
-0.99847, 301, 193, 332, 208
-0.998471, 333, 163, 364, 178
-0.998472, 381, 117, 412, 132
-0.998477, 345, 149, 376, 164
-0.998477, 177, 157, 208, 172
-0.998478, 345, 35, 408, 50
-0.99848, 429, 31, 460, 46
-0.99848, 241, 211, 272, 226
-0.99848, 309, 69, 340, 84
-0.998481, 281, 191, 312, 206
-0.998483, 69, 225, 100, 240
-0.998483, 369, 119, 432, 134
-0.998483, 217, 205, 248, 220
-0.998485, 193, 219, 224, 234
-0.998485, 257, 181, 320, 196
-0.998487, 49, 337, 80, 352
-0.998489, 313, 177, 344, 192
-0.998492, 177, 109, 208, 124
-0.998492, 97, 221, 128, 236
-0.998492, 285, 97, 316, 352
-0.998493, 161, 167, 192, 182
-0.998494, 381, 11, 412, 26
-0.998495, 369, 29, 400, 44
-0.998497, 245, 189, 276, 204
-0.998497, 57, 341, 120, 356
-0.998497, 81, 345, 112, 360
-0.998498, 113, 49, 240, 80
-0.998501, 305, 163, 336, 178
-0.998503, 73, 329, 136, 344
-0.998503, 273, 175, 304, 190
-0.998504, 325, 177, 356, 192
-0.998505, 325, 171, 356, 186
-0.998505, 281, 185, 344, 200
-0.998506, 417, 29, 480, 44
-0.998507, 97, 193, 160, 208
-0.998507, 217, 209, 280, 224
-0.998508, 33, 177, 96, 192
-0.998509, 33, 185, 96, 200
-0.99851, 165, 115, 196, 130
-0.998513, 237, 195, 268, 210
-0.998513, 65, 203, 96, 218
-0.998513, 1, 293, 128, 324
-0.998513, 193, 213, 256, 228
-0.998518, 273, 197, 336, 212
-0.998518, 257, 183, 288, 198
-0.998519, 313, 171, 344, 186
-0.99852, 77, 215, 108, 230
-0.99852, 269, 185, 300, 200
-0.998522, 73, 157, 136, 172
-0.998523, 65, 341, 96, 356
-0.998523, 385, 35, 448, 50
-0.998523, 313, 187, 344, 202
-0.998525, 69, 195, 100, 210
-0.998525, 249, 201, 312, 216
-0.998526, 81, 221, 112, 236
-0.998527, 157, 121, 188, 136
-0.998527, 57, 205, 120, 220
-0.998529, 65, 225, 128, 240
-0.998529, 369, 125, 432, 140
-0.998529, 253, 211, 284, 226
-0.99853, 385, 29, 448, 44
-0.99853, 345, 29, 408, 44
-0.998531, 209, 203, 272, 218
-0.998531, 73, 185, 136, 200
-0.998532, 105, 123, 168, 138
-0.998532, 273, 173, 336, 188
-0.998533, 225, 237, 288, 252
-0.998534, 169, 323, 232, 338
-0.998535, 41, 323, 104, 338
-0.998535, 97, 331, 160, 346
-0.998535, 361, 35, 392, 50
-0.998536, 17, 329, 80, 344
-0.998537, 149, 135, 180, 150
-0.998537, 225, 127, 288, 142
-0.998538, 225, 245, 352, 276
-0.998539, 89, 329, 120, 344
-0.998539, 201, 213, 232, 228
-0.998539, 45, 331, 76, 346
-0.99854, 241, 53, 368, 84
-0.998541, 69, 325, 100, 340
-0.998543, 177, 177, 304, 208
-0.998546, 105, 185, 168, 200
-0.998548, 49, 323, 80, 338
-0.998549, 137, 135, 200, 150
-0.998549, 233, 195, 296, 210
-0.99855, 41, 167, 104, 182
-0.998551, 241, 215, 304, 230
-0.998553, 313, 157, 376, 172
-0.998554, 25, 225, 88, 240
-0.998556, 193, 221, 256, 236
-0.998556, 177, 129, 240, 144
-0.998556, 393, 15, 456, 30
-0.998557, 1, 337, 64, 352
-0.998558, 105, 159, 136, 174
-0.99856, 33, 195, 96, 210
-0.998561, 297, 69, 360, 84
-0.998562, 153, 329, 216, 344
-0.998564, 61, 215, 92, 230
-0.998564, 17, 201, 80, 216
-0.998565, 81, 339, 112, 354
-0.998566, 193, 299, 256, 314
-0.998566, 145, 127, 208, 142
-0.998566, 369, 113, 432, 128
-0.998569, 81, 209, 144, 224
-0.998569, 25, 341, 88, 356
-0.998569, 161, 237, 224, 252
-0.998569, 297, 63, 360, 78
-0.998571, 369, 7, 432, 22
-0.998572, 57, 213, 120, 228
-0.998572, 369, 345, 432, 360
-0.998573, 81, 347, 144, 362
-0.998574, 145, 141, 208, 156
-0.998574, 57, 349, 120, 364
-0.998574, 241, 207, 304, 222
-0.998574, 305, 39, 368, 54
-0.998575, 369, 329, 432, 344
-0.998575, 297, 173, 360, 188
-0.998577, 261, 161, 276, 288
-0.998577, 385, 23, 448, 38
-0.998577, 89, 201, 152, 216
-0.998578, 385, 187, 448, 202
-0.998578, 233, 183, 296, 198
-0.998579, 57, 199, 120, 214
-0.998579, 193, 323, 256, 338
-0.99858, 377, 95, 440, 110
-0.998581, 305, 31, 368, 46
-0.998581, 1, 257, 500, 320
-0.998582, 69, 335, 100, 350
-0.998583, 61, 209, 92, 224
-0.998583, 89, 221, 152, 236
-0.998584, 377, 85, 440, 100
-0.998585, 185, 317, 248, 332
-0.998586, 369, 293, 432, 308
-0.998586, 369, 321, 432, 336
-0.998586, 33, 155, 96, 170
-0.998587, 209, 29, 272, 44
-0.998587, 89, 165, 152, 180
-0.998589, 65, 163, 128, 178
-0.99859, 217, 215, 280, 230
-0.99859, 273, 203, 336, 218
-0.99859, 417, 35, 480, 50
-0.998591, 153, 121, 216, 136
-0.998591, 369, 315, 432, 330
-0.998593, 1, 209, 64, 224
-0.998597, 93, 211, 124, 226
-0.998598, 417, 23, 480, 38
-0.998598, 17, 215, 80, 230
-0.998599, 369, 107, 432, 122
-0.9986, 161, 135, 224, 150
-0.998601, 73, 179, 136, 194
-0.998602, 153, 167, 216, 182
-0.998603, 369, 339, 432, 354
-0.998603, 313, 167, 376, 182
-0.998603, 73, 335, 136, 350
-0.998604, 33, 207, 96, 222
-0.998604, 185, 237, 248, 252
-0.998605, 345, 41, 408, 56
-0.998605, 297, 179, 360, 194
-0.998606, 273, 63, 336, 78
-0.998606, 345, 69, 408, 84
-0.998607, 121, 145, 136, 272
-0.998608, 377, 203, 440, 218
-0.998608, 177, 329, 240, 344
-0.998609, 297, 197, 360, 212
-0.99861, 369, 287, 432, 302
-0.998611, 369, 265, 432, 280
-0.998611, 321, 151, 384, 166
-0.998612, 421, 129, 452, 375
-0.998612, 197, 297, 228, 312
-0.998613, 297, 191, 360, 206
-0.998613, 57, 231, 120, 246
-0.998613, 129, 121, 192, 136
-0.998614, 369, 309, 432, 324
-0.998614, 321, 357, 384, 372
-0.998614, 265, 211, 328, 226
-0.998615, 185, 311, 248, 326
-0.998617, 393, 119, 456, 134
-0.998617, 385, 135, 448, 150
-0.998617, 385, 197, 448, 212
-0.998617, 249, 127, 312, 142
-0.998618, 105, 105, 168, 120
-0.998618, 345, 123, 408, 138
-0.998618, 305, 127, 368, 142
-0.998619, 81, 353, 144, 368
-0.998619, 193, 139, 256, 154
-0.998636, 113, 191, 144, 206
-0.998649, 433, 1, 464, 256
-0.998653, 73, 161, 88, 288
-0.998657, 337, 65, 368, 320
-0.998657, 323, 113, 338, 240
-0.998662, 131, 177, 146, 304
-0.998662, 149, 145, 164, 272
-0.998679, 381, 1, 396, 128
-0.998679, 79, 161, 94, 288
-0.9987, 113, 145, 128, 272
-0.998701, 159, 97, 174, 224
-0.998714, 275, 177, 290, 304
-0.998716, 309, 113, 324, 240
-0.998716, 373, 129, 404, 375
-0.998723, 165, 97, 180, 224
-0.998724, 297, 113, 312, 240
-0.998724, 271, 113, 286, 240
-0.998738, 445, 1, 476, 256
-0.998761, 335, 113, 350, 240
-0.998761, 137, 177, 152, 304
-0.998762, 315, 113, 330, 240
-0.998767, 225, 1, 256, 256
-0.998775, 277, 113, 292, 240
-0.998777, 283, 113, 298, 240
-0.998781, 255, 193, 270, 320
-0.998783, 261, 113, 276, 240
-0.998785, 77, 1, 108, 256
-0.998789, 261, 209, 276, 336
-0.998792, 303, 113, 318, 240
-0.998794, 81, 257, 208, 320
-0.998797, 421, 33, 452, 288
-0.998822, 141, 113, 156, 240
-0.998833, 291, 113, 306, 240
-0.998842, 95, 161, 110, 288
-0.998844, 163, 145, 178, 272
-0.99885, 391, 33, 406, 160
-0.998859, 147, 97, 162, 224
-0.998871, 173, 97, 188, 224
-0.998875, 99, 113, 114, 240
-0.998881, 119, 193, 134, 320
-0.998885, 107, 145, 122, 272
-0.998889, 245, 193, 260, 320
-0.99889, 143, 177, 158, 304
-0.998891, 251, 113, 266, 240
-0.998907, 317, 33, 332, 160
-0.998917, 153, 97, 168, 224
-0.998939, 329, 113, 344, 240
-0.998942, 239, 113, 254, 240
-0.998946, 169, 145, 184, 272
-0.998957, 153, 33, 184, 288
-0.998962, 87, 161, 102, 288
-0.998964, 135, 129, 150, 256
-0.998964, 25, 1, 56, 256
-0.998964, 155, 145, 170, 272
-0.998968, 1, 129, 32, 375
-0.998968, 69, 113, 84, 240
-0.998975, 237, 1, 268, 256
-0.998981, 181, 145, 196, 272
-0.998988, 225, 113, 240, 240
-0.998989, 185, 81, 200, 208
-0.99899, 245, 113, 260, 240
-0.998991, 283, 177, 298, 304
-0.998993, 403, 129, 418, 256
-0.998994, 323, 49, 338, 176
-0.999002, 189, 225, 204, 352
-0.999006, 267, 225, 282, 352
-0.999008, 65, 193, 80, 320
-0.999011, 105, 97, 120, 224
-0.999012, 239, 193, 254, 320
-0.999014, 129, 129, 144, 256
-0.999016, 409, 129, 440, 375
-0.999028, 191, 129, 206, 256
-0.99903, 341, 97, 356, 224
-0.99903, 35, 161, 50, 288
-0.999031, 461, 33, 492, 288
-0.99904, 25, 129, 40, 256
-0.999042, 125, 193, 140, 320
-0.999055, 231, 113, 246, 240
-0.999063, 409, 33, 440, 288
-0.999066, 387, 225, 402, 352
-0.999067, 123, 97, 138, 224
-0.999068, 35, 113, 50, 240
-0.999072, 175, 145, 190, 272
-0.999079, 89, 113, 104, 240
-0.999082, 41, 161, 56, 288
-0.999098, 35, 225, 50, 352
-0.999099, 191, 81, 206, 208
-0.9991, 1, 33, 256, 96
-0.999101, 213, 113, 228, 240
-0.999107, 101, 161, 116, 288
-0.999108, 311, 49, 326, 176
-0.999112, 261, 1, 292, 256
-0.999116, 179, 97, 194, 224
-0.999118, 413, 177, 428, 304
-0.999124, 65, 25, 192, 88
-0.999124, 113, 97, 128, 224
-0.999124, 313, 193, 376, 320
-0.999129, 207, 65, 222, 192
-0.999129, 183, 225, 198, 352
-0.999132, 375, 1, 390, 128
-0.999136, 385, 49, 400, 176
-0.999137, 395, 161, 410, 288
-0.999138, 415, 225, 430, 352
-0.999142, 79, 113, 94, 240
-0.999142, 397, 113, 412, 240
-0.999142, 231, 193, 246, 320
-0.999145, 203, 225, 218, 352
-0.999157, 225, 225, 240, 352
-0.99916, 347, 113, 362, 240
-0.99916, 169, 225, 184, 352
-0.999169, 163, 225, 178, 352
-0.999169, 175, 225, 190, 352
-0.999182, 335, 65, 350, 192
-0.999182, 145, 225, 160, 352
-0.999184, 219, 113, 234, 240
-0.999188, 155, 225, 170, 352
-0.99919, 63, 113, 78, 240
-0.99919, 113, 193, 128, 320
-0.999195, 273, 1, 304, 256
-0.999202, 389, 177, 404, 304
-0.999206, 257, 281, 384, 344
-0.999211, 375, 49, 390, 176
-0.999216, 329, 65, 344, 192
-0.999217, 133, 225, 148, 352
-0.999218, 329, 161, 344, 288
-0.99922, 139, 225, 154, 352
-0.999228, 203, 113, 218, 240
-0.999229, 195, 225, 210, 352
-0.999232, 273, 225, 288, 352
-0.999234, 59, 177, 74, 304
-0.999236, 409, 129, 424, 256
-0.999239, 423, 97, 438, 224
-0.999243, 3, 209, 18, 336
-0.999245, 43, 225, 58, 352
-0.999246, 353, 113, 368, 240
-0.999247, 51, 225, 66, 352
-0.999253, 45, 113, 60, 240
-0.999254, 61, 1, 92, 256
-0.999254, 19, 145, 34, 272
-0.99926, 325, 1, 340, 128
-0.999267, 11, 145, 26, 272
-0.999269, 377, 193, 392, 320
-0.999275, 319, 161, 334, 288
-0.999282, 109, 33, 124, 160
-0.999287, 459, 1, 474, 128
-0.999288, 75, 1, 90, 128
-0.99929, 423, 49, 438, 176
-0.999292, 201, 65, 216, 192
-0.999294, 305, 65, 320, 192
-0.999298, 29, 209, 44, 336
-0.999325, 249, 1, 280, 256
-0.99935, 349, 129, 380, 375
-0.999389, 437, 129, 468, 375
-0.999403, 285, 1, 316, 256
-0.999412, 461, 129, 492, 375
-0.999537, 133, 1, 164, 256
-0.999626, 103, 219, 118, 234
-0.999627, 85, 181, 100, 196
-0.999628, 85, 209, 100, 224
-0.999628, 105, 193, 120, 208
-0.999629, 115, 331, 130, 346
-0.999629, 269, 211, 284, 226
-0.999629, 105, 161, 120, 176
-0.999629, 225, 319, 240, 334
-0.99963, 231, 213, 246, 228
-0.99963, 201, 295, 216, 310
-0.99963, 431, 31, 446, 46
-0.999631, 83, 221, 98, 236
-0.999632, 107, 329, 122, 344
-0.999632, 107, 213, 122, 228
-0.999632, 159, 127, 174, 142
-0.999636, 225, 213, 240, 228
-0.999636, 51, 175, 66, 190
-0.999637, 5, 287, 20, 302
-0.999637, 193, 311, 208, 326
-0.999637, 121, 189, 136, 204
-0.999638, 279, 193, 294, 208
-0.999638, 5, 295, 20, 310
-0.99964, 321, 169, 336, 184
-0.99964, 95, 329, 110, 344
-0.99964, 277, 209, 292, 224
-0.999641, 93, 215, 108, 230
-0.999641, 115, 17, 130, 32
-0.999642, 251, 205, 266, 220
-0.999643, 71, 225, 86, 240
-0.999643, 123, 349, 138, 364
-0.999645, 227, 201, 242, 216
-0.999645, 293, 171, 308, 186
-0.999645, 301, 167, 316, 182
-0.999645, 95, 347, 110, 362
-0.999645, 103, 225, 118, 240
-0.999646, 383, 37, 398, 52
-0.999646, 219, 215, 234, 230
-0.999647, 237, 197, 252, 212
-0.999647, 95, 169, 110, 184
-0.999648, 103, 347, 118, 362
-0.999649, 207, 143, 222, 158
-0.999649, 49, 327, 64, 342
-0.999649, 243, 191, 258, 206
-0.99965, 51, 337, 66, 352
-0.999651, 233, 131, 248, 146
-0.999651, 109, 221, 124, 236
-0.999654, 113, 215, 128, 230
-0.999655, 337, 179, 352, 194
-0.999655, 197, 321, 212, 336
-0.999655, 201, 147, 216, 162
-0.999656, 259, 213, 274, 228
-0.999656, 165, 1, 180, 16
-0.999656, 63, 221, 78, 236
-0.999659, 221, 205, 236, 220
-0.999659, 85, 327, 100, 342
-0.999659, 63, 339, 78, 354
-0.999662, 281, 175, 296, 190
-0.999662, 207, 295, 222, 310
-0.999663, 325, 177, 340, 192
-0.999666, 213, 297, 228, 312
-0.999669, 157, 135, 172, 150
-0.99967, 311, 191, 326, 206
-0.999671, 61, 331, 76, 346
-0.999671, 325, 187, 340, 202
-0.999671, 69, 203, 84, 218
-0.999672, 191, 153, 206, 168
-0.999672, 209, 211, 224, 226
-0.999672, 121, 153, 136, 168
-0.999674, 215, 209, 230, 224
-0.999675, 181, 159, 196, 174
-0.999676, 73, 21, 88, 36
-0.999677, 87, 175, 102, 190
-0.999678, 119, 211, 134, 226
-0.999678, 9, 33, 40, 288
-0.999678, 283, 205, 298, 220
-0.999679, 271, 179, 286, 194
-0.99968, 73, 325, 88, 340
-0.99968, 151, 137, 166, 152
-0.999681, 205, 97, 220, 112
-0.999681, 63, 215, 78, 230
-0.999681, 275, 185, 290, 200
-0.999682, 103, 337, 118, 352
-0.999683, 125, 205, 140, 220
-0.999684, 359, 149, 374, 164
-0.999684, 127, 197, 142, 212
-0.999684, 331, 179, 346, 194
-0.999688, 145, 135, 160, 150
-0.999688, 261, 185, 276, 200
-0.999691, 85, 341, 100, 356
-0.999691, 97, 221, 112, 236
-0.999692, 141, 189, 156, 204
-0.999693, 161, 121, 176, 136
-0.999693, 87, 335, 102, 350
-0.999694, 253, 211, 268, 226
-0.999694, 111, 191, 126, 206
-0.999695, 199, 219, 214, 234
-0.999699, 87, 215, 102, 230
-0.999699, 197, 301, 212, 316
-0.999699, 175, 163, 190, 178
-0.999699, 197, 101, 212, 116
-0.999699, 61, 323, 76, 338
-0.9997, 75, 191, 90, 206
-0.999704, 81, 333, 96, 348
-0.999705, 159, 173, 174, 188
-0.999705, 67, 333, 82, 348
-0.99971, 147, 183, 162, 198
-0.999711, 91, 223, 106, 238
-0.999712, 165, 167, 180, 182
-0.999713, 51, 321, 66, 336
-0.999714, 253, 187, 268, 202
-0.999715, 89, 1, 152, 128
-0.999719, 79, 185, 94, 200
-0.999719, 113, 25, 240, 88
-0.99972, 189, 105, 204, 120
-0.999724, 327, 171, 342, 186
-0.999726, 153, 129, 168, 144
-0.999728, 255, 29, 270, 44
-0.999729, 133, 197, 148, 212
-0.999729, 115, 11, 130, 26
-0.999731, 153, 179, 168, 194
-0.999733, 55, 331, 70, 346
-0.999736, 77, 339, 92, 354
-0.999737, 93, 341, 108, 356
-0.999738, 115, 157, 130, 172
-0.99974, 71, 197, 86, 212
-0.999741, 45, 333, 60, 348
-0.999742, 317, 185, 332, 200
-0.999742, 133, 191, 148, 206
-0.999747, 183, 109, 198, 124
-0.999748, 49, 1, 80, 256
-0.999754, 173, 113, 188, 128
-0.999765, 167, 117, 182, 132
-0.999778, 57, 337, 72, 352
-0.999808, 449, 129, 480, 375
-0.999811, 193, 75, 208, 90
-0.999926, 37, 1, 68, 256
-0.999979, 325, 129, 356, 375
-1.00009, 81, 73, 208, 136
-1.00214, 281, 209, 344, 336
-1.00303, 321, 241, 384, 368
-1.00333, 153, 1, 216, 128
-1.00386, 241, 17, 304, 144
-1.00726, 129, 1, 192, 128
