1982
-0.624715, 1, 97, 500, 352
-0.721008, 1, 1, 500, 256
-0.742779, 257, 1, 500, 375
-0.750109, 1, 1, 500, 375
-0.792651, 65, 1, 320, 375
-0.818714, 161, 1, 416, 375
-0.852649, 257, 129, 500, 375
-0.887829, 129, 129, 384, 375
-0.918062, 33, 129, 288, 375
-0.922763, 1, 225, 500, 352
-0.924655, 289, 129, 416, 375
-0.928268, 241, 129, 368, 375
-0.928819, 369, 129, 496, 375
-0.929598, 369, 1, 496, 375
-0.930801, 225, 225, 480, 352
-0.937864, 241, 1, 368, 375
-0.939132, 161, 129, 288, 375
-0.943057, 321, 1, 448, 375
-0.944712, 161, 1, 288, 375
-0.949082, 33, 1, 160, 375
-0.951149, 113, 1, 240, 375
-0.952268, 241, 225, 368, 352
-0.95672, 257, 209, 320, 336
-0.958404, 1, 161, 500, 288
-0.961378, 369, 33, 496, 288
-0.964073, 33, 129, 160, 375
-0.964678, 289, 225, 416, 352
-0.96567, 129, 241, 384, 368
-0.966344, 81, 129, 208, 375
-0.968166, 353, 209, 480, 336
-0.968289, 257, 225, 320, 288
-0.969818, 329, 225, 392, 352
-0.970387, 289, 225, 352, 352
-0.971162, 361, 209, 424, 336
-0.971492, 193, 209, 320, 336
-0.972486, 129, 193, 384, 320
-0.972489, 273, 33, 400, 288
-0.97363, 433, 193, 496, 320
-0.9739, 393, 209, 456, 336
-0.974157, 241, 177, 368, 304
-0.974481, 225, 161, 480, 288
-0.975197, 233, 209, 296, 336
-0.975318, 305, 249, 368, 312
-0.977289, 321, 33, 448, 288
-0.977664, 249, 249, 312, 312
-0.977892, 1, 113, 500, 240
-0.979348, 289, 177, 416, 304
-0.979352, 241, 273, 304, 336
-0.980081, 353, 233, 416, 296
-0.980601, 1, 1, 128, 256
-0.980613, 241, 241, 368, 304
-0.980709, 33, 193, 288, 320
-0.980963, 329, 241, 392, 304
-0.981934, 281, 257, 344, 320
-0.98241, 177, 33, 304, 288
-0.982503, 1, 65, 500, 192
-0.983189, 425, 209, 488, 272
-0.983241, 289, 241, 416, 304
-0.983568, 261, 209, 292, 336
-0.983737, 49, 1, 176, 256
-0.984001, 265, 161, 328, 288
-0.984101, 385, 217, 448, 280
-0.984579, 353, 145, 480, 272
-0.984662, 225, 265, 352, 328
-0.984772, 353, 217, 480, 280
-0.985403, 297, 177, 360, 304
-0.985409, 381, 209, 412, 336
-0.985445, 145, 193, 272, 320
-0.98582, 257, 129, 320, 375
-0.986031, 225, 33, 352, 288
-0.986252, 377, 145, 440, 272
-0.986428, 113, 1, 240, 256
-0.986565, 217, 273, 280, 336
-0.986946, 333, 225, 364, 352
-0.987287, 241, 217, 368, 280
-0.987312, 285, 209, 316, 336
-0.987328, 385, 273, 448, 336
-0.987421, 281, 281, 344, 344
-0.987572, 249, 201, 312, 264
-0.987882, 361, 273, 424, 336
-0.987922, 177, 273, 304, 336
-0.98795, 225, 249, 288, 312
-0.98796, 1, 241, 256, 368
-0.988433, 1, 17, 500, 144
-0.988558, 313, 249, 344, 312
-0.9886, 401, 209, 432, 336
-0.988634, 309, 241, 340, 368
-0.988647, 257, 257, 288, 320
-0.988863, 365, 225, 396, 352
-0.988968, 321, 225, 352, 352
-0.989035, 305, 217, 368, 280
-0.9892, 261, 225, 292, 288
-0.989247, 329, 177, 392, 304
-0.989469, 273, 193, 304, 320
-0.989492, 129, 145, 384, 272
-0.989644, 425, 145, 488, 272
-0.990027, 281, 225, 344, 288
-0.990195, 161, 249, 288, 312
-0.990195, 161, 145, 288, 272
-0.990268, 433, 97, 496, 352
-0.990305, 249, 225, 280, 352
-0.990342, 349, 225, 380, 352
-0.990384, 401, 145, 464, 272
-0.990464, 225, 113, 480, 240
-0.99053, 273, 129, 400, 256
-0.990702, 333, 241, 364, 304
-0.990759, 273, 273, 400, 336
-0.990771, 209, 241, 272, 368
-0.990829, 437, 193, 468, 320
-0.990876, 297, 209, 328, 336
-0.990992, 353, 281, 480, 344
-0.991057, 257, 225, 320, 256
-0.99109, 293, 265, 324, 328
-0.991121, 385, 129, 448, 375
-0.991173, 269, 273, 300, 336
-0.991176, 381, 225, 412, 288
-0.991251, 297, 129, 360, 375
-0.99126, 289, 209, 416, 272
-0.991328, 281, 273, 312, 336
-0.99142, 389, 273, 420, 336
-0.991504, 421, 209, 452, 336
-0.991564, 289, 225, 320, 288
-0.991604, 409, 97, 472, 352
-0.991629, 377, 225, 440, 256
-0.991646, 305, 249, 368, 280
-0.991655, 425, 213, 488, 244
-0.991687, 433, 177, 496, 240
-0.991692, 337, 237, 400, 268
-0.991692, 241, 273, 304, 304
-0.991703, 265, 277, 328, 308
-0.991879, 401, 217, 464, 248
-0.991942, 241, 273, 272, 336
-0.991972, 193, 225, 320, 288
-0.991984, 265, 241, 328, 272
-0.992016, 385, 193, 448, 256
-0.992083, 329, 209, 392, 272
-0.992104, 465, 193, 496, 320
-0.99221, 249, 261, 312, 292
-0.992223, 409, 185, 472, 248
-0.992247, 361, 201, 424, 264
-0.992331, 209, 281, 272, 312
-0.99252, 289, 233, 352, 264
-0.992607, 345, 241, 376, 304
-0.992678, 369, 277, 432, 308
-0.992727, 365, 233, 396, 296
-0.992794, 145, 241, 272, 368
-0.992826, 233, 285, 296, 316
-0.99293, 305, 281, 368, 344
-0.992933, 233, 225, 296, 256
-0.992951, 305, 285, 368, 316
-0.992978, 257, 213, 320, 244
-0.992992, 273, 201, 304, 264
-0.993027, 225, 289, 352, 352
-0.993109, 453, 193, 484, 320
-0.993128, 337, 129, 400, 375
-0.993131, 97, 281, 224, 344
-0.993146, 389, 277, 420, 308
-0.993147, 137, 281, 200, 344
-0.993172, 281, 257, 344, 288
-0.99322, 269, 221, 300, 252
-0.993221, 313, 253, 344, 284
-0.993234, 241, 277, 272, 308
-0.993235, 285, 221, 316, 252
-0.99324, 281, 289, 344, 320
-0.993244, 253, 269, 284, 300
-0.993289, 17, 241, 144, 368
-0.993329, 249, 297, 312, 328
-0.993338, 333, 245, 364, 276
-0.993345, 289, 269, 352, 300
-0.993349, 401, 289, 464, 320
-0.99336, 261, 281, 292, 312
-0.993361, 401, 225, 432, 256
-0.993365, 225, 241, 480, 304
-0.99337, 361, 237, 424, 268
-0.993371, 369, 233, 400, 264
-0.993372, 381, 229, 412, 260
-0.993373, 277, 277, 308, 308
-0.993374, 349, 241, 380, 272
-0.99339, 401, 269, 464, 300
-0.993409, 121, 285, 184, 316
-0.993411, 445, 213, 476, 244
-0.993414, 417, 217, 448, 248
-0.993416, 217, 269, 280, 300
-0.993419, 433, 213, 464, 244
-0.993422, 293, 273, 324, 304
-0.993422, 193, 281, 256, 344
-0.993424, 261, 233, 292, 264
-0.993448, 177, 285, 240, 316
-0.993454, 385, 265, 416, 296
-0.993467, 273, 209, 304, 240
-0.99347, 465, 209, 496, 240
-0.993497, 257, 257, 288, 288
-0.993499, 405, 269, 436, 300
-0.993523, 241, 237, 304, 268
-0.993526, 425, 97, 488, 128
-0.993526, 225, 129, 288, 375
-0.993537, 469, 201, 500, 264
-0.993537, 437, 209, 468, 272
-0.993542, 33, 285, 96, 316
-0.993546, 261, 245, 292, 276
-0.993547, 73, 285, 136, 316
-0.993563, 153, 285, 216, 316
-0.993568, 425, 289, 488, 320
-0.993569, 193, 269, 256, 300
-0.99357, 285, 209, 316, 240
-0.99357, 345, 273, 408, 304
-0.993581, 269, 265, 300, 296
-0.993581, 309, 241, 340, 272
-0.993583, 65, 281, 128, 344
-0.993593, 293, 245, 324, 276
-0.993603, 301, 257, 332, 288
-0.993611, 313, 285, 344, 316
-0.993619, 433, 197, 496, 228
-0.993625, 209, 253, 272, 284
-0.993635, 229, 281, 260, 312
-0.993637, 289, 285, 320, 316
-0.993649, 249, 289, 280, 320
-0.993663, 401, 281, 432, 312
-0.993678, 241, 265, 272, 296
-0.993678, 301, 289, 332, 320
-0.993692, 289, 233, 320, 264
-0.9937, 393, 329, 456, 360
-0.9937, 261, 209, 292, 240
-0.993708, 461, 197, 492, 228
-0.993711, 421, 205, 452, 236
-0.993712, 381, 217, 412, 248
-0.993717, 401, 217, 432, 280
-0.993725, 281, 297, 312, 328
-0.993733, 357, 225, 388, 256
-0.993735, 1, 285, 64, 316
-0.993735, 377, 289, 440, 320
-0.993735, 397, 213, 428, 244
-0.993746, 369, 221, 400, 252
-0.993749, 345, 229, 376, 260
-0.993755, 261, 297, 292, 328
-0.993756, 449, 197, 480, 228
-0.99376, 329, 233, 360, 264
-0.993762, 177, 285, 208, 316
-0.993764, 373, 277, 404, 308
-0.993765, 281, 261, 312, 292
-0.993769, 161, 281, 224, 344
-0.993777, 157, 285, 188, 316
-0.993784, 417, 289, 448, 320
-0.993792, 297, 221, 328, 252
-0.993793, 77, 285, 108, 316
-0.993795, 281, 217, 344, 248
-0.993797, 453, 289, 484, 320
-0.993797, 437, 201, 468, 232
-0.993801, 193, 285, 224, 316
-0.993802, 305, 269, 336, 300
-0.993803, 393, 205, 456, 236
-0.993803, 353, 225, 416, 256
-0.993804, 117, 285, 148, 316
-0.993807, 241, 249, 272, 280
-0.993808, 329, 249, 392, 280
-0.993808, 205, 285, 236, 316
-0.993812, 101, 285, 132, 316
-0.993813, 97, 285, 160, 316
-0.993814, 145, 285, 176, 316
-0.993818, 361, 285, 392, 316
-0.993819, 465, 289, 496, 320
-0.99382, 89, 285, 120, 316
-0.993827, 61, 285, 92, 316
-0.993828, 361, 337, 424, 368
-0.993832, 337, 285, 368, 316
-0.993833, 1, 273, 32, 304
-0.993834, 17, 285, 48, 316
-0.993836, 129, 285, 160, 316
-0.993839, 249, 233, 280, 264
-0.993839, 409, 205, 440, 236
-0.993841, 257, 221, 288, 252
-0.993844, 1, 273, 64, 304
-0.993844, 345, 289, 408, 320
-0.993847, 313, 229, 376, 260
-0.993848, 41, 285, 72, 316
-0.993849, 405, 257, 436, 288
-0.993858, 429, 289, 460, 320
-0.993864, 217, 285, 248, 316
-0.993865, 225, 269, 256, 300
-0.993866, 273, 197, 304, 228
-0.993867, 1, 285, 32, 316
-0.993869, 29, 285, 60, 316
-0.993869, 233, 213, 296, 244
-0.993869, 445, 93, 476, 124
-0.993873, 397, 341, 428, 372
-0.993874, 273, 233, 304, 264
-0.993876, 373, 289, 404, 320
-0.993881, 365, 117, 396, 148
-0.993884, 349, 285, 380, 316
-0.993895, 325, 285, 356, 316
-0.9939, 441, 289, 472, 320
-0.993904, 309, 229, 340, 260
-0.993908, 469, 117, 500, 148
-0.99391, 409, 345, 472, 375
-0.993916, 209, 121, 240, 152
-0.993924, 417, 277, 448, 308
-0.993925, 225, 297, 288, 328
-0.993934, 217, 237, 280, 268
-0.993936, 85, 273, 116, 304
-0.993942, 73, 273, 104, 304
-0.993948, 17, 273, 48, 304
-0.993953, 425, 345, 456, 375
-0.993953, 317, 273, 348, 304
-0.993954, 273, 193, 336, 224
-0.993957, 301, 209, 332, 240
-0.993964, 413, 341, 444, 372
-0.993966, 57, 273, 88, 304
-0.993968, 457, 101, 488, 132
-0.993968, 285, 197, 316, 228
-0.993968, 289, 205, 352, 236
-0.993969, 233, 225, 296, 288
-0.99397, 137, 273, 168, 304
-0.993972, 169, 273, 200, 304
-0.993974, 397, 329, 428, 360
-0.993976, 433, 97, 464, 128
-0.99398, 433, 321, 464, 352
-0.993981, 245, 221, 276, 252
-0.993983, 353, 213, 416, 244
-0.993989, 117, 273, 148, 304
-0.993991, 189, 273, 220, 304
-0.993994, 157, 273, 188, 304
-0.993994, 201, 273, 232, 304
-0.993996, 37, 273, 68, 304
-0.993999, 213, 273, 244, 304
-0.994, 457, 337, 488, 368
-0.994002, 465, 309, 496, 340
-0.994002, 429, 277, 460, 308
-0.994002, 385, 341, 448, 372
-0.994002, 81, 241, 208, 368
-0.994004, 281, 185, 312, 216
-0.994005, 97, 273, 128, 304
-0.994006, 293, 185, 324, 216
-0.994007, 313, 273, 376, 304
-0.994009, 453, 317, 484, 348
-0.994009, 397, 153, 428, 184
-0.994012, 409, 317, 472, 348
-0.994015, 329, 345, 360, 375
-0.994019, 97, 337, 128, 368
-0.994022, 441, 277, 472, 308
-0.994023, 353, 273, 384, 304
-0.994029, 1, 281, 128, 344
-0.994046, 345, 261, 408, 292
-0.994047, 249, 193, 312, 224
-0.994047, 17, 281, 80, 344
-0.99406, 337, 117, 400, 148
-0.99407, 81, 273, 144, 304
-0.994075, 353, 177, 480, 240
-0.994078, 425, 333, 488, 364
-0.99408, 209, 217, 272, 248
-0.994101, 377, 165, 440, 196
-0.994104, 209, 193, 272, 320
-0.994109, 377, 153, 440, 184
-0.99412, 233, 249, 296, 280
-0.994122, 121, 273, 184, 304
-0.994125, 161, 273, 224, 304
-0.994143, 433, 117, 496, 148
-0.994154, 25, 273, 88, 304
-0.994175, 49, 273, 112, 304
-0.994197, 401, 257, 464, 288
-0.994201, 201, 121, 264, 152
-0.994205, 353, 325, 416, 356
-0.994208, 425, 277, 488, 308
-0.994228, 409, 193, 472, 224
-0.994237, 377, 265, 440, 296
-0.994247, 321, 341, 384, 372
-0.994254, 105, 281, 168, 344
-0.994258, 217, 149, 280, 180
-0.994271, 309, 193, 340, 320
-0.994273, 345, 129, 408, 160
-0.994281, 305, 329, 368, 360
-0.994297, 289, 181, 352, 212
-0.994301, 433, 345, 496, 375
-0.994309, 249, 181, 312, 212
-0.994313, 73, 109, 136, 140
-0.994332, 385, 313, 448, 344
-0.994351, 97, 157, 160, 188
-0.994362, 273, 193, 336, 256
-0.994374, 433, 137, 496, 168
-0.994381, 433, 185, 496, 216
-0.994399, 273, 301, 336, 332
-0.994401, 329, 325, 392, 356
-0.994419, 345, 149, 408, 180
-0.994427, 9, 345, 72, 375
-0.994427, 113, 345, 176, 375
-0.994434, 233, 345, 296, 375
-0.99445, 281, 337, 344, 368
-0.99446, 329, 217, 392, 248
-0.994466, 401, 157, 464, 188
-0.994479, 409, 137, 472, 168
-0.994482, 177, 157, 240, 188
-0.994494, 201, 133, 264, 164
-0.994497, 209, 325, 272, 356
-0.994505, 377, 121, 440, 152
-0.994513, 177, 121, 240, 152
-0.994515, 401, 169, 464, 200
-0.994528, 433, 317, 496, 348
-0.994541, 249, 169, 312, 200
-0.994544, 97, 113, 160, 144
-0.994546, 233, 317, 296, 348
-0.994549, 377, 109, 440, 140
-0.994557, 25, 165, 88, 196
-0.994562, 385, 301, 448, 332
-0.994562, 81, 337, 144, 368
-0.994565, 201, 161, 264, 192
-0.994567, 65, 165, 128, 196
-0.994583, 409, 301, 472, 332
-0.994583, 313, 133, 376, 164
-0.994583, 305, 317, 368, 348
-0.994586, 41, 341, 104, 372
-0.994591, 281, 325, 344, 356
-0.994604, 129, 165, 192, 196
-0.994606, 129, 333, 192, 364
-0.994609, 433, 149, 496, 180
-0.994612, 249, 333, 312, 364
-0.994616, 345, 313, 408, 344
-0.994627, 89, 173, 152, 204
-0.994635, 201, 341, 264, 372
-0.994636, 137, 345, 200, 375
-0.994662, 433, 281, 496, 344
-0.994699, 301, 241, 332, 304
-0.994721, 417, 1, 480, 375
-0.99473, 49, 281, 176, 344
-0.994803, 413, 217, 444, 280
-0.994912, 401, 249, 464, 312
-0.994933, 337, 241, 464, 304
-0.995125, 329, 281, 392, 344
-0.995125, 257, 297, 320, 360
-0.995215, 433, 97, 496, 160
-0.995257, 453, 209, 484, 272
-0.995291, 193, 201, 320, 264
-0.995454, 401, 281, 432, 344
-0.995526, 425, 209, 456, 272
-0.995547, 241, 233, 368, 264
-0.995634, 401, 257, 432, 320
-0.995711, 353, 161, 416, 288
-0.99588, 245, 249, 276, 312
-0.995978, 361, 129, 424, 375
-0.996004, 225, 273, 352, 304
-0.996007, 41, 281, 104, 344
-0.996011, 273, 241, 304, 368
-0.996035, 369, 97, 496, 160
-0.996039, 129, 265, 384, 328
-0.996047, 409, 281, 472, 344
-0.996105, 337, 1, 400, 375
-0.996232, 225, 265, 480, 328
-0.996306, 249, 1, 312, 375
-0.996409, 261, 257, 276, 320
-0.996431, 361, 1, 424, 375
-0.996622, 241, 249, 368, 280
-0.996624, 1, 241, 500, 304
-0.996641, 261, 161, 292, 288
-0.99665, 289, 1, 352, 375
-0.996765, 393, 1, 456, 375
-0.996811, 313, 225, 344, 288
-0.996846, 399, 265, 414, 328
-0.996903, 273, 221, 400, 252
-0.996984, 225, 1, 288, 375
-0.996995, 311, 249, 326, 312
-0.997051, 285, 201, 316, 264
-0.997071, 289, 241, 416, 272
-0.997134, 369, 217, 496, 248
-0.997146, 257, 217, 500, 280
-0.997148, 49, 257, 176, 320
-0.997148, 249, 273, 264, 336
-0.997151, 385, 145, 416, 272
-0.997153, 193, 249, 256, 312
-0.997198, 285, 161, 316, 288
-0.997213, 267, 217, 282, 280
-0.997225, 225, 145, 288, 272
-0.997247, 317, 249, 332, 312
-0.997268, 217, 201, 280, 264
-0.997316, 269, 249, 300, 312
-0.997356, 313, 1, 376, 375
-0.997367, 293, 273, 308, 336
-0.997379, 277, 273, 292, 336
-0.997412, 381, 249, 412, 312
-0.997426, 281, 217, 296, 280
-0.997435, 339, 241, 354, 304
-0.997452, 329, 249, 344, 312
-0.997459, 225, 193, 480, 256
-0.997464, 271, 273, 286, 336
-0.99747, 185, 225, 248, 352
-0.997477, 413, 145, 444, 272
-0.99748, 97, 1, 160, 375
-0.997494, 241, 193, 368, 256
-0.997495, 369, 97, 496, 224
-0.99751, 261, 233, 276, 296
-0.997544, 261, 201, 292, 264
-0.997565, 405, 225, 420, 288
-0.997583, 97, 257, 224, 320
-0.99759, 161, 285, 288, 316
-0.997598, 305, 281, 336, 344
-0.997609, 283, 273, 298, 336
-0.997622, 401, 161, 432, 288
-0.997624, 49, 1, 112, 375
-0.997634, 255, 273, 270, 336
-0.997644, 257, 281, 288, 344
-0.997662, 237, 241, 268, 368
-0.997666, 299, 217, 314, 280
-0.997714, 97, 241, 352, 304
-0.997719, 337, 229, 464, 260
-0.997725, 229, 281, 260, 344
-0.997748, 1, 241, 64, 368
-0.997765, 225, 261, 352, 292
-0.997767, 177, 153, 304, 216
-0.997767, 437, 145, 468, 272
-0.997771, 299, 273, 314, 336
-0.997781, 395, 225, 410, 288
-0.997792, 323, 249, 338, 312
-0.997807, 355, 241, 370, 304
-0.99781, 361, 177, 392, 304
-0.997813, 153, 241, 216, 368
-0.997816, 415, 217, 430, 280
-0.997819, 273, 297, 400, 360
-0.99782, 341, 217, 372, 280
-0.997828, 345, 241, 360, 304
-0.997891, 305, 257, 320, 320
-0.99791, 289, 185, 416, 248
-0.997924, 363, 233, 378, 296
-0.997928, 289, 193, 304, 256
-0.997931, 255, 249, 270, 312
-0.997938, 193, 229, 320, 260
-0.997939, 271, 249, 286, 312
-0.997941, 475, 201, 490, 264
-0.997963, 33, 97, 288, 224
-0.997973, 387, 225, 402, 288
-0.997975, 441, 209, 456, 272
-0.997977, 121, 1, 184, 375
-0.99799, 449, 185, 480, 248
-0.997992, 1, 257, 64, 320
-0.998059, 405, 273, 420, 336
-0.998071, 281, 305, 344, 368
-0.998081, 201, 1, 264, 375
-0.998083, 289, 285, 416, 316
-0.998125, 289, 233, 304, 296
-0.998134, 33, 281, 288, 344
-0.998156, 397, 269, 412, 300
-0.998158, 197, 281, 228, 344
-0.998159, 393, 273, 408, 336
-0.998169, 209, 123, 240, 138
-0.99817, 313, 263, 344, 278
-0.998171, 317, 283, 348, 298
-0.998172, 241, 295, 272, 310
-0.998172, 289, 245, 320, 260
-0.998172, 309, 241, 340, 256
-0.998174, 273, 241, 304, 256
-0.998174, 349, 233, 380, 248
-0.998174, 293, 187, 324, 202
-0.998175, 421, 213, 452, 228
-0.998175, 361, 229, 392, 244
-0.998176, 249, 239, 280, 254
-0.998177, 285, 209, 316, 224
-0.998177, 453, 101, 484, 116
-0.998177, 457, 353, 488, 368
-0.998178, 281, 289, 312, 304
-0.998178, 237, 275, 268, 290
-0.998179, 397, 263, 428, 278
-0.998179, 129, 217, 384, 280
-0.998179, 249, 223, 280, 238
-0.998181, 249, 245, 280, 260
-0.998181, 469, 201, 484, 264
-0.998181, 273, 195, 304, 210
-0.998181, 273, 207, 304, 222
-0.998183, 385, 263, 416, 278
-0.998183, 365, 119, 396, 134
-0.998184, 389, 289, 420, 304
-0.998185, 81, 281, 112, 296
-0.998187, 341, 287, 372, 302
-0.998187, 469, 203, 500, 218
-0.998188, 265, 299, 296, 314
-0.998189, 337, 243, 368, 258
-0.998189, 401, 289, 432, 304
-0.99819, 445, 209, 476, 224
-0.998191, 1, 257, 128, 320
-0.998191, 49, 287, 80, 302
-0.998191, 181, 287, 212, 302
-0.998192, 297, 257, 328, 272
-0.998194, 117, 287, 148, 302
-0.998195, 421, 361, 452, 375
-0.998197, 249, 231, 280, 246
-0.998198, 469, 289, 500, 304
-0.998198, 377, 273, 408, 288
-0.998198, 453, 289, 484, 304
-0.998199, 305, 279, 336, 294
-0.998199, 129, 287, 160, 302
-0.998199, 253, 297, 284, 312
-0.9982, 169, 287, 200, 302
-0.998201, 341, 249, 372, 264
-0.998201, 197, 287, 228, 302
-0.998201, 269, 289, 300, 304
-0.998202, 305, 295, 336, 310
-0.998202, 457, 205, 488, 220
-0.998202, 105, 287, 136, 302
-0.998203, 273, 201, 304, 216
-0.998203, 289, 265, 416, 296
-0.998203, 433, 289, 464, 304
-0.998203, 245, 269, 276, 284
-0.998204, 141, 287, 172, 302
-0.998204, 153, 287, 184, 302
-0.998204, 241, 253, 272, 268
-0.998205, 289, 239, 320, 254
-0.998205, 381, 229, 412, 244
-0.998206, 65, 285, 96, 300
-0.998207, 37, 287, 68, 302
-0.998207, 357, 289, 388, 304
-0.998207, 377, 287, 408, 302
-0.998208, 241, 259, 272, 274
-0.998209, 401, 223, 432, 238
-0.998209, 21, 287, 52, 302
-0.99821, 297, 221, 328, 236
-0.99821, 89, 287, 120, 302
-0.99821, 309, 269, 340, 284
-0.99821, 273, 231, 304, 246
-0.998211, 273, 213, 304, 228
-0.998211, 277, 299, 308, 314
-0.998212, 213, 287, 244, 302
-0.998214, 405, 229, 436, 244
-0.998215, 321, 255, 352, 270
-0.998216, 261, 217, 292, 232
-0.998216, 5, 283, 36, 298
-0.998217, 405, 269, 436, 284
-0.998218, 413, 289, 444, 304
-0.998218, 237, 289, 268, 304
-0.998218, 77, 287, 108, 302
-0.998221, 293, 279, 324, 294
-0.998221, 485, 201, 500, 264
-0.998221, 257, 291, 288, 306
-0.998222, 273, 217, 288, 280
-0.998224, 385, 235, 416, 250
-0.998225, 293, 263, 324, 278
-0.998225, 283, 221, 298, 252
-0.998225, 293, 289, 324, 304
-0.998226, 281, 269, 312, 284
-0.998227, 269, 271, 300, 286
-0.998227, 225, 277, 256, 292
-0.998228, 369, 129, 496, 192
-0.998229, 441, 97, 472, 112
-0.99823, 289, 233, 320, 248
-0.998232, 293, 297, 324, 312
-0.998232, 377, 279, 408, 294
-0.998234, 129, 289, 384, 352
-0.99824, 285, 215, 316, 230
-0.998241, 313, 289, 344, 304
-0.998251, 293, 251, 324, 266
-0.998251, 261, 259, 292, 274
-0.998258, 261, 243, 292, 258
-0.998261, 209, 285, 336, 316
-0.998264, 389, 269, 420, 284
-0.998272, 273, 219, 304, 234
-0.998273, 289, 227, 320, 242
-0.998273, 261, 237, 292, 252
-0.998274, 261, 249, 292, 264
-0.998275, 257, 285, 288, 300
-0.998275, 265, 279, 296, 294
-0.998277, 249, 277, 264, 308
-0.99828, 309, 247, 340, 262
-0.998283, 65, 193, 192, 320
-0.998285, 257, 269, 288, 284
-0.998285, 337, 121, 400, 184
-0.998288, 297, 273, 328, 288
-0.998289, 289, 253, 416, 284
-0.998289, 401, 281, 432, 296
-0.99829, 277, 279, 308, 294
-0.998294, 433, 217, 448, 280
-0.998295, 233, 283, 264, 298
-0.998308, 405, 275, 436, 290
-0.998311, 261, 231, 292, 246
-0.998316, 469, 209, 500, 224
-0.998328, 361, 209, 392, 272
-0.998328, 249, 275, 280, 290
-0.998329, 285, 221, 316, 236
-0.998333, 457, 211, 488, 226
-0.99834, 269, 225, 300, 240
-0.998343, 305, 233, 320, 296
-0.998346, 305, 137, 432, 200
-0.998352, 309, 255, 340, 270
-0.998354, 379, 233, 394, 296
-0.998358, 361, 239, 392, 254
-0.998359, 371, 233, 386, 296
-0.99836, 389, 275, 420, 290
-0.998361, 329, 249, 360, 264
-0.998361, 441, 215, 472, 230
-0.998361, 425, 219, 456, 234
-0.998361, 349, 243, 380, 258
-0.998367, 393, 229, 424, 244
-0.998368, 1, 265, 500, 328
-0.99837, 413, 223, 444, 238
-0.998371, 271, 221, 286, 252
-0.998371, 373, 235, 404, 250
-0.998375, 245, 281, 276, 296
-0.998387, 389, 283, 420, 298
-0.998389, 281, 249, 296, 312
-0.998408, 263, 277, 278, 308
-0.998412, 273, 161, 400, 224
-0.998412, 457, 209, 472, 272
-0.998441, 297, 217, 312, 248
-0.998452, 423, 217, 438, 280
-0.998455, 463, 209, 478, 272
-0.998458, 281, 249, 312, 312
-0.99846, 377, 273, 408, 336
-0.998483, 73, 1, 136, 375
-0.998485, 447, 209, 462, 272
-0.998492, 321, 113, 448, 176
-0.998498, 389, 201, 420, 264
-0.998508, 279, 193, 294, 256
-0.998543, 169, 281, 200, 344
-0.99855, 409, 249, 424, 312
-0.998562, 433, 81, 496, 208
-0.998569, 243, 273, 258, 336
-0.99857, 403, 273, 418, 304
-0.998571, 209, 297, 336, 328
-0.99858, 259, 265, 274, 296
-0.998592, 121, 241, 184, 368
-0.998596, 317, 253, 332, 284
-0.998607, 337, 177, 368, 304
-0.998608, 153, 281, 184, 344
-0.998609, 257, 225, 320, 240
-0.998638, 277, 277, 292, 308
-0.99864, 469, 97, 500, 352
-0.998645, 161, 269, 288, 300
-0.998651, 271, 193, 286, 256
-0.998653, 269, 277, 284, 308
-0.998653, 393, 223, 456, 238
-0.998654, 241, 277, 304, 292
-0.998654, 425, 213, 488, 228
-0.998656, 361, 233, 424, 248
-0.998657, 329, 243, 392, 258
-0.998659, 249, 269, 312, 284
-0.998661, 257, 231, 320, 246
-0.998665, 305, 251, 368, 266
-0.998676, 321, 313, 448, 375
-0.998677, 265, 251, 328, 266
-0.998678, 265, 281, 280, 344
-0.99868, 353, 197, 480, 228
-0.998681, 417, 219, 480, 234
-0.998683, 277, 221, 292, 252
-0.998684, 393, 249, 408, 312
-0.998685, 385, 229, 448, 244
-0.998686, 297, 241, 360, 256
-0.998691, 257, 237, 320, 252
-0.998692, 257, 289, 320, 304
-0.998695, 273, 279, 336, 294
-0.998696, 369, 283, 432, 298
-0.998698, 209, 287, 272, 302
-0.9987, 353, 239, 416, 254
-0.998705, 305, 289, 368, 304
-0.998706, 233, 283, 296, 298
-0.998718, 265, 263, 328, 278
-0.998719, 329, 249, 392, 264
-0.99872, 249, 257, 312, 272
-0.998724, 249, 249, 264, 312
-0.998724, 249, 243, 312, 258
-0.998726, 273, 273, 336, 288
-0.998726, 385, 273, 448, 288
-0.99873, 209, 281, 272, 296
-0.998733, 257, 277, 272, 308
-0.998733, 49, 161, 176, 224
-0.998733, 297, 257, 360, 272
-0.998741, 233, 231, 296, 246
-0.998747, 361, 273, 424, 288
-0.998749, 33, 287, 96, 302
-0.99875, 281, 295, 344, 310
-0.998752, 273, 245, 336, 260
-0.998753, 297, 271, 360, 286
-0.998754, 345, 279, 408, 294
-0.998755, 321, 233, 384, 248
-0.998755, 217, 281, 232, 344
-0.998756, 249, 219, 312, 234
-0.998756, 463, 185, 478, 248
-0.998757, 417, 281, 448, 344
-0.998757, 429, 281, 460, 344
-0.998757, 73, 287, 136, 302
-0.99876, 353, 223, 416, 238
-0.99876, 273, 257, 336, 272
-0.99876, 393, 211, 456, 226
-0.998762, 369, 289, 432, 304
-0.998764, 345, 289, 408, 304
-0.998766, 1, 201, 500, 264
-0.998766, 401, 279, 464, 294
-0.998766, 177, 287, 240, 302
-0.998768, 241, 297, 304, 312
-0.998768, 377, 217, 440, 232
-0.998768, 233, 289, 296, 304
-0.99877, 145, 1, 208, 375
-0.998771, 425, 203, 488, 218
-0.998772, 225, 225, 288, 240
-0.998772, 113, 287, 176, 302
-0.998773, 297, 235, 360, 250
-0.998774, 225, 271, 288, 286
-0.998775, 225, 261, 288, 276
-0.998775, 345, 245, 360, 276
-0.998776, 417, 97, 480, 112
-0.998776, 401, 289, 464, 304
-0.998776, 383, 233, 398, 264
-0.998777, 305, 295, 368, 310
-0.998777, 225, 255, 288, 270
-0.998777, 9, 287, 72, 302
-0.998778, 225, 239, 288, 254
-0.998778, 433, 289, 496, 304
-0.998778, 217, 295, 280, 310
-0.998779, 225, 249, 288, 264
-0.99878, 273, 195, 336, 210
-0.998781, 281, 285, 344, 300
-0.998781, 153, 287, 216, 302
-0.998782, 385, 267, 448, 282
-0.998787, 297, 229, 360, 244
-0.998789, 425, 103, 488, 118
-0.998789, 249, 195, 312, 210
-0.998789, 289, 187, 352, 202
-0.99879, 305, 283, 368, 298
-0.99879, 249, 213, 312, 228
-0.998792, 361, 267, 424, 282
-0.998792, 305, 339, 368, 354
-0.998793, 337, 241, 464, 272
-0.998794, 225, 219, 288, 234
-0.998796, 297, 265, 360, 280
-0.998796, 289, 219, 352, 234
-0.998798, 249, 205, 312, 220
-0.998798, 407, 225, 422, 256
-0.9988, 1, 281, 64, 296
-0.998801, 425, 109, 488, 124
-0.998802, 185, 281, 248, 296
-0.998803, 417, 353, 480, 368
-0.998803, 273, 201, 336, 216
-0.998805, 345, 335, 408, 350
-0.998805, 361, 341, 424, 356
-0.998806, 297, 277, 360, 292
-0.998807, 423, 221, 438, 252
-0.998807, 209, 233, 272, 248
-0.998807, 49, 281, 112, 296
-0.998808, 249, 187, 312, 202
-0.998809, 201, 271, 264, 286
-0.99881, 199, 281, 214, 344
-0.99881, 97, 281, 160, 296
-0.998811, 377, 169, 440, 184
-0.998811, 25, 281, 88, 296
-0.998811, 483, 205, 498, 236
-0.998812, 73, 113, 136, 128
-0.998813, 73, 281, 136, 296
-0.998814, 249, 339, 312, 354
-0.998814, 337, 123, 400, 138
-0.998815, 377, 317, 440, 332
-0.998815, 385, 341, 448, 356
-0.998815, 273, 207, 336, 222
-0.998815, 305, 329, 368, 344
-0.998815, 153, 281, 216, 296
-0.998816, 393, 351, 456, 366
-0.998817, 305, 353, 368, 368
-0.998817, 345, 129, 408, 144
-0.998818, 329, 323, 392, 338
-0.998818, 361, 353, 424, 368
-0.998819, 305, 319, 368, 334
-0.998819, 385, 361, 448, 375
-0.99882, 129, 281, 192, 296
-0.99882, 425, 309, 488, 324
-0.99882, 289, 359, 352, 374
-0.99882, 401, 313, 464, 328
-0.998821, 273, 337, 336, 352
-0.998821, 345, 317, 408, 332
-0.998822, 97, 161, 160, 176
-0.998822, 265, 301, 328, 316
-0.998823, 361, 347, 424, 362
-0.998823, 433, 141, 496, 156
-0.998823, 433, 331, 496, 346
-0.998823, 201, 123, 264, 138
-0.998824, 233, 345, 296, 360
-0.998825, 209, 151, 272, 166
-0.998825, 385, 159, 448, 174
-0.998825, 273, 349, 336, 364
-0.998825, 433, 359, 496, 374
-0.998825, 401, 333, 464, 348
-0.998825, 337, 117, 400, 132
-0.998828, 393, 229, 408, 260
-0.998828, 449, 213, 464, 244
-0.998829, 353, 217, 368, 280
-0.998832, 333, 249, 348, 280
-0.998833, 267, 233, 282, 264
-0.998833, 243, 277, 258, 308
-0.998843, 287, 277, 302, 308
-0.998843, 433, 217, 448, 248
-0.998854, 355, 241, 370, 272
-0.998858, 399, 229, 414, 260
-0.99886, 253, 265, 268, 296
-0.998862, 209, 281, 224, 344
-0.998865, 377, 233, 392, 264
-0.998869, 181, 281, 212, 344
-0.998869, 371, 237, 386, 268
-0.998881, 293, 277, 308, 308
-0.998882, 201, 129, 264, 375
-0.998886, 415, 281, 430, 344
-0.998891, 451, 281, 466, 344
-0.998894, 1, 257, 256, 320
-0.998895, 189, 281, 204, 344
-0.998904, 9, 257, 24, 320
-0.99891, 323, 253, 338, 284
-0.99891, 175, 281, 190, 344
-0.998919, 65, 241, 128, 368
-0.99892, 465, 209, 480, 240
-0.99892, 337, 277, 464, 308
-0.998923, 431, 193, 446, 256
-0.998923, 261, 129, 292, 375
-0.998925, 317, 281, 332, 344
-0.998925, 369, 313, 496, 375
-0.998929, 457, 97, 488, 352
-0.998933, 49, 285, 176, 316
-0.998934, 417, 221, 432, 252
-0.998935, 229, 281, 244, 344
-0.998941, 145, 121, 272, 184
-0.99895, 261, 253, 276, 284
-0.998953, 69, 281, 84, 344
-0.998958, 361, 241, 376, 272
-0.99896, 439, 217, 454, 248
-0.998961, 289, 209, 304, 240
-0.998961, 311, 273, 326, 336
-0.998961, 339, 245, 354, 276
-0.998961, 287, 265, 302, 296
-0.998973, 295, 193, 310, 256
-0.998975, 377, 209, 392, 272
-0.998975, 291, 229, 306, 260
-0.99898, 177, 1, 240, 375
-0.998984, 403, 201, 418, 264
-0.998984, 97, 161, 224, 224
-0.998986, 103, 281, 118, 344
-0.998992, 235, 281, 250, 344
-0.998993, 305, 273, 320, 304
-0.998996, 393, 281, 408, 312
-0.998999, 477, 205, 492, 236
-0.999001, 271, 265, 286, 296
-0.999001, 113, 281, 128, 344
-0.999008, 311, 257, 326, 288
-0.999016, 1, 285, 128, 316
-0.999018, 313, 225, 328, 288
-0.999021, 177, 297, 304, 360
-0.999028, 449, 145, 480, 272
-0.999029, 155, 281, 170, 344
-0.999029, 469, 113, 500, 240
-0.999032, 83, 281, 98, 344
-0.999037, 455, 213, 470, 244
-0.999037, 193, 217, 320, 248
-0.999038, 97, 285, 224, 316
-0.999039, 357, 281, 388, 344
-0.99904, 305, 245, 320, 276
-0.999044, 165, 281, 180, 344
-0.999046, 289, 161, 352, 224
-0.999052, 473, 281, 488, 344
-0.999057, 267, 289, 282, 320
-0.999057, 471, 209, 486, 240
-0.999059, 223, 281, 238, 344
-0.999065, 483, 281, 498, 344
-0.999065, 477, 177, 492, 240
-0.999065, 119, 281, 134, 344
-0.999069, 89, 281, 104, 344
-0.99907, 217, 281, 248, 344
-0.999071, 459, 281, 474, 344
-0.999074, 427, 281, 442, 344
-0.999077, 441, 281, 456, 344
-0.999077, 63, 281, 78, 344
-0.99908, 363, 281, 378, 344
-0.999084, 413, 193, 444, 256
-0.999084, 295, 249, 310, 312
-0.999088, 273, 289, 288, 320
-0.999088, 321, 209, 448, 240
-0.999099, 299, 273, 314, 304
-0.999102, 129, 281, 144, 344
-0.999104, 395, 257, 410, 288
-0.999107, 193, 241, 320, 272
-0.999108, 383, 281, 398, 344
-0.999111, 369, 281, 384, 344
-0.999118, 369, 289, 496, 320
-0.999119, 285, 129, 316, 375
-0.999123, 149, 281, 164, 344
-0.999125, 257, 289, 500, 352
-0.999131, 327, 217, 342, 280
-0.999132, 183, 281, 198, 344
-0.999139, 299, 285, 314, 316
-0.99914, 309, 293, 324, 324
-0.999142, 437, 129, 468, 375
-0.999152, 315, 285, 330, 316
-0.999154, 141, 281, 156, 344
-0.999155, 387, 277, 402, 308
-0.999155, 277, 261, 292, 292
-0.999156, 293, 297, 308, 360
-0.999162, 275, 209, 290, 240
-0.999162, 421, 281, 436, 344
-0.999174, 261, 237, 276, 268
-0.999177, 389, 201, 404, 264
-0.999184, 483, 177, 498, 240
-0.999186, 417, 193, 432, 256
-0.999187, 367, 209, 382, 272
-0.99919, 9, 1, 72, 375
-0.999193, 237, 285, 252, 316
-0.999194, 65, 281, 96, 344
-0.999197, 437, 205, 452, 236
-0.999198, 209, 113, 336, 240
-0.999201, 333, 237, 348, 268
-0.999208, 27, 281, 42, 344
-0.999208, 55, 281, 70, 344
-0.999211, 41, 281, 56, 344
-0.999212, 247, 265, 262, 296
-0.999214, 263, 209, 278, 336
-0.999217, 337, 217, 352, 280
-0.999217, 357, 281, 372, 344
-0.999217, 457, 185, 472, 248
-0.999217, 77, 281, 92, 344
-0.99922, 343, 281, 358, 344
-0.999223, 413, 285, 428, 316
-0.999223, 377, 281, 392, 344
-0.999227, 313, 241, 328, 272
-0.999229, 273, 225, 304, 288
-0.999234, 97, 257, 160, 320
-0.999239, 409, 269, 424, 300
-0.999241, 273, 129, 304, 375
-0.999241, 465, 281, 480, 344
-0.999243, 283, 209, 298, 240
-0.999245, 135, 281, 150, 344
-0.999248, 1, 281, 16, 344
-0.99925, 303, 217, 318, 248
-0.999251, 47, 281, 62, 344
-0.999253, 471, 177, 486, 240
-0.999253, 433, 281, 448, 344
-0.999256, 137, 257, 200, 320
-0.999256, 161, 257, 288, 288
-0.999257, 425, 193, 440, 256
-0.999263, 447, 185, 462, 248
-0.999265, 423, 209, 438, 240
-0.999269, 403, 261, 418, 292
-0.999269, 317, 281, 348, 344
-0.999269, 393, 129, 424, 375
-0.99927, 343, 233, 358, 264
-0.999271, 9, 273, 24, 304
-0.999271, 323, 281, 338, 344
-0.999271, 409, 129, 440, 375
-0.999272, 277, 209, 292, 336
-0.999273, 305, 257, 320, 288
-0.999273, 281, 233, 296, 264
-0.999279, 271, 209, 286, 336
-0.999281, 25, 257, 88, 320
-0.999281, 371, 225, 386, 256
-0.999281, 347, 217, 362, 280
-0.999281, 19, 281, 34, 344
-0.999283, 287, 209, 302, 336
-0.999284, 283, 297, 298, 328
-0.999285, 293, 265, 308, 296
-0.999287, 299, 297, 314, 360
-0.999287, 267, 209, 282, 240
-0.999288, 475, 289, 490, 320
-0.999288, 321, 241, 336, 272
-0.99929, 441, 185, 456, 248
-0.999292, 289, 297, 304, 328
-0.999292, 265, 265, 280, 296
-0.999293, 297, 297, 312, 328
-0.999296, 97, 281, 112, 344
-0.999297, 441, 281, 472, 344
-0.999298, 383, 221, 398, 252
-0.999299, 35, 281, 50, 344
-0.999299, 241, 129, 368, 192
-0.999304, 261, 209, 276, 272
-0.999305, 131, 285, 146, 316
-0.999307, 471, 197, 486, 228
-0.999308, 331, 281, 346, 344
-0.999308, 349, 281, 364, 344
-0.999308, 241, 129, 272, 375
-0.999309, 397, 217, 412, 248
-0.999311, 199, 285, 214, 316
-0.999312, 125, 285, 140, 316
-0.999313, 171, 285, 186, 316
-0.999315, 303, 297, 318, 328
-0.999316, 273, 233, 288, 264
-0.999317, 311, 269, 326, 300
-0.999319, 183, 285, 198, 316
-0.99932, 219, 285, 234, 316
-0.999321, 419, 289, 434, 320
-0.999321, 465, 289, 480, 320
-0.999324, 261, 297, 276, 328
-0.999327, 253, 289, 268, 320
-0.999331, 359, 229, 374, 260
-0.999332, 453, 201, 468, 232
-0.999332, 393, 209, 408, 336
-0.999336, 403, 209, 418, 336
-0.999341, 333, 225, 348, 352
-0.999341, 407, 213, 422, 244
-0.999348, 157, 285, 172, 316
-0.999354, 261, 217, 276, 248
-0.999355, 163, 285, 178, 316
-0.999356, 225, 285, 240, 316
-0.999357, 459, 201, 474, 232
-0.999359, 83, 281, 98, 312
-0.99936, 385, 209, 400, 336
-0.999362, 189, 285, 204, 316
-0.999364, 297, 229, 312, 260
-0.999364, 481, 289, 496, 320
-0.999365, 301, 209, 316, 336
-0.999367, 267, 245, 282, 276
-0.999369, 485, 193, 500, 224
-0.999376, 103, 285, 118, 316
-0.99938, 241, 177, 272, 304
-0.999381, 177, 285, 192, 316
-0.999382, 309, 129, 340, 375
-0.999385, 73, 285, 88, 316
-0.999388, 47, 285, 62, 316
-0.999388, 139, 285, 154, 316
-0.999388, 257, 297, 384, 328
-0.999391, 5, 273, 36, 336
-0.999392, 1, 285, 16, 316
-0.999392, 19, 285, 34, 316
-0.999395, 407, 285, 422, 316
-0.999397, 311, 241, 326, 368
-0.999398, 399, 285, 414, 316
-0.9994, 417, 209, 432, 240
-0.999402, 205, 285, 220, 316
-0.999402, 213, 285, 228, 316
-0.999403, 145, 285, 160, 316
-0.999404, 115, 285, 130, 316
-0.999406, 91, 285, 106, 316
-0.999406, 377, 225, 392, 352
-0.999407, 295, 193, 310, 320
-0.999407, 413, 341, 428, 372
-0.99941, 93, 281, 124, 344
-0.999412, 257, 169, 500, 232
-0.999413, 343, 225, 358, 352
-0.999417, 367, 225, 382, 352
-0.999419, 353, 225, 368, 352
-0.999422, 469, 281, 500, 344
-0.999427, 271, 261, 286, 276
-0.999427, 261, 227, 276, 242
-0.999428, 131, 287, 146, 302
-0.999428, 113, 287, 128, 302
-0.999428, 211, 287, 226, 302
-0.999428, 225, 287, 240, 302
-0.999429, 399, 223, 414, 238
-0.999429, 271, 289, 286, 304
-0.999429, 23, 287, 38, 302
-0.999429, 179, 287, 194, 302
-0.999429, 141, 287, 156, 302
-0.999429, 349, 239, 364, 254
-0.99943, 17, 287, 32, 302
-0.99943, 151, 287, 166, 302
-0.999431, 409, 269, 424, 284
-0.999431, 369, 289, 384, 304
-0.999431, 89, 287, 104, 302
-0.999431, 303, 299, 318, 314
-0.999431, 383, 289, 398, 304
-0.999432, 273, 233, 288, 248
-0.999432, 305, 261, 320, 276
-0.999432, 475, 203, 490, 218
-0.999433, 165, 287, 180, 302
-0.999433, 441, 211, 456, 226
-0.999434, 235, 287, 250, 302
-0.999434, 265, 271, 280, 286
-0.999435, 343, 241, 358, 256
-0.999435, 327, 225, 342, 352
-0.999435, 451, 209, 466, 224
-0.999436, 271, 267, 286, 282
-0.999436, 293, 187, 308, 202
-0.999436, 415, 219, 430, 234
-0.999436, 435, 213, 450, 228
-0.999436, 291, 299, 306, 314
-0.999436, 455, 95, 470, 110
-0.999437, 375, 231, 390, 246
-0.999438, 319, 241, 334, 368
-0.999438, 411, 289, 426, 304
-0.999438, 337, 243, 352, 258
-0.999438, 241, 279, 256, 294
-0.999438, 461, 207, 476, 222
-0.999439, 389, 227, 404, 242
-0.99944, 381, 229, 396, 244
-0.99944, 305, 289, 320, 304
-0.999441, 367, 233, 382, 248
-0.999442, 281, 235, 296, 250
-0.999442, 49, 257, 112, 320
-0.999442, 267, 217, 282, 232
-0.999442, 323, 247, 338, 262
-0.999443, 9, 283, 24, 298
-0.999443, 429, 215, 444, 230
-0.999443, 417, 289, 432, 304
-0.999445, 289, 235, 304, 250
-0.999446, 317, 287, 332, 302
-0.999447, 249, 269, 264, 284
-0.999447, 409, 209, 424, 336
-0.999447, 359, 225, 374, 352
-0.999447, 405, 221, 420, 236
-0.999447, 79, 285, 94, 300
-0.999448, 355, 237, 370, 252
-0.999448, 265, 289, 280, 304
-0.999449, 395, 265, 410, 280
-0.999449, 471, 349, 486, 364
-0.99945, 263, 245, 278, 260
-0.999451, 305, 253, 320, 268
-0.999451, 281, 265, 296, 280
-0.999452, 263, 251, 278, 266
-0.999453, 259, 265, 274, 280
-0.999454, 309, 295, 324, 310
-0.999454, 401, 265, 416, 280
-0.999455, 297, 129, 328, 375
-0.999457, 259, 285, 274, 300
-0.999457, 475, 355, 490, 370
-0.99946, 313, 251, 328, 266
-0.99946, 287, 271, 302, 286
-0.999461, 267, 223, 282, 238
-0.999462, 281, 217, 296, 232
-0.999463, 405, 277, 420, 292
-0.999464, 395, 285, 410, 300
-0.999465, 261, 259, 276, 274
-0.999467, 421, 129, 452, 375
-0.999467, 301, 275, 316, 290
-0.999469, 307, 273, 322, 288
-0.999469, 241, 285, 256, 300
-0.999471, 289, 279, 304, 294
-0.999472, 281, 271, 296, 286
-0.999474, 291, 223, 306, 238
-0.999481, 273, 221, 288, 236
-0.999482, 387, 281, 402, 296
-0.999482, 253, 281, 268, 296
-0.999484, 291, 229, 306, 244
-0.999485, 441, 193, 456, 320
-0.999485, 113, 305, 240, 368
-0.999486, 407, 283, 422, 298
-0.999488, 295, 277, 310, 292
-0.999488, 257, 241, 272, 368
-0.999491, 273, 279, 288, 294
-0.999495, 275, 273, 290, 288
-0.999495, 359, 243, 374, 258
-0.999496, 431, 209, 446, 336
-0.999498, 475, 209, 490, 224
-0.999499, 281, 277, 296, 292
-0.999499, 461, 213, 476, 228
-0.999499, 267, 235, 282, 250
-0.999499, 291, 215, 306, 230
-0.9995, 483, 193, 498, 320
-0.9995, 265, 279, 280, 294
-0.999502, 485, 207, 500, 222
-0.999502, 419, 209, 434, 336
-0.999503, 117, 281, 148, 344
-0.999503, 469, 211, 484, 226
-0.999503, 297, 227, 312, 242
-0.999505, 453, 215, 468, 230
-0.999506, 323, 255, 338, 270
-0.999507, 365, 129, 396, 375
-0.999508, 283, 229, 298, 244
-0.999509, 469, 193, 484, 320
-0.99951, 333, 251, 348, 266
-0.999511, 447, 215, 462, 230
-0.999511, 407, 227, 422, 242
-0.999511, 259, 277, 274, 292
-0.999512, 393, 273, 408, 288
-0.999513, 441, 217, 456, 232
-0.999514, 343, 247, 358, 262
-0.999516, 249, 275, 264, 290
-0.999517, 425, 221, 440, 236
-0.999518, 259, 271, 274, 286
-0.999519, 431, 221, 446, 236
-0.999519, 279, 223, 294, 238
-0.999519, 415, 225, 430, 240
-0.99952, 391, 233, 406, 248
-0.99952, 477, 193, 492, 320
-0.999521, 381, 235, 396, 250
-0.999522, 375, 237, 390, 252
-0.999522, 193, 121, 320, 184
-0.999526, 401, 229, 416, 244
-0.999526, 349, 245, 364, 260
-0.999531, 365, 241, 380, 256
-0.999533, 299, 221, 314, 236
-0.999535, 425, 209, 440, 336
-0.999546, 463, 193, 478, 320
-0.999549, 315, 257, 330, 272
-0.999549, 401, 283, 416, 298
-0.99955, 267, 229, 282, 244
-0.999552, 455, 193, 470, 320
-0.99957, 337, 129, 368, 375
-0.999571, 447, 193, 462, 320
-0.999572, 393, 279, 408, 294
-0.999572, 285, 223, 300, 238
-0.999573, 273, 227, 288, 242
-0.999574, 399, 271, 414, 286
-0.999588, 247, 281, 262, 296
-0.999598, 193, 201, 320, 232
-0.999598, 193, 177, 320, 240
-0.999598, 399, 277, 414, 292
-0.999602, 65, 313, 192, 375
-0.999607, 425, 129, 456, 256
-0.999629, 289, 161, 304, 288
-0.999649, 247, 241, 262, 368
-0.999658, 37, 281, 68, 344
-0.999672, 279, 161, 294, 288
-0.999679, 249, 177, 312, 240
-0.999685, 293, 241, 308, 368
-0.999687, 377, 129, 408, 375
-0.999692, 313, 313, 376, 375
-0.999702, 369, 337, 496, 368
-0.999703, 271, 161, 286, 288
-0.999706, 321, 193, 336, 320
-0.999707, 113, 273, 240, 304
-0.999707, 349, 177, 380, 304
-0.999709, 369, 105, 496, 136
-0.999722, 311, 193, 326, 320
-0.999725, 33, 273, 160, 304
-0.999745, 349, 129, 380, 375
-0.999767, 403, 161, 418, 288
-0.999771, 373, 177, 388, 304
-0.999775, 241, 205, 368, 236
-0.999779, 253, 193, 268, 320
-0.999779, 393, 161, 408, 288
-0.999782, 273, 337, 400, 368
-0.999783, 137, 281, 168, 344
-0.999784, 449, 145, 464, 272
-0.999788, 485, 145, 500, 272
-0.999797, 475, 145, 490, 272
-0.999797, 349, 177, 364, 304
-0.999798, 305, 145, 432, 176
-0.999799, 325, 129, 356, 375
-0.999801, 455, 145, 470, 272
-0.999804, 429, 145, 444, 272
-0.999808, 463, 145, 478, 272
-0.999811, 385, 145, 400, 272
-0.999813, 65, 153, 320, 216
-0.999814, 241, 241, 256, 368
-0.999815, 343, 177, 358, 304
-0.999818, 359, 177, 374, 304
-0.99982, 9, 241, 24, 368
-0.999822, 413, 145, 428, 272
-0.999823, 469, 145, 484, 272
-0.999824, 297, 145, 312, 272
-0.99984, 423, 161, 438, 288
-0.999841, 337, 177, 352, 304
-0.999843, 81, 281, 112, 344
-0.999843, 441, 129, 456, 256
-0.999843, 25, 225, 88, 352
-0.999843, 89, 225, 152, 352
-0.999861, 297, 193, 360, 256
-0.999861, 265, 161, 280, 288
-0.999863, 365, 177, 380, 304
-0.999864, 209, 225, 272, 288
-0.999871, 469, 177, 500, 240
-0.999875, 353, 153, 480, 184
-0.999878, 353, 321, 480, 352
-0.999882, 235, 225, 250, 352
-0.999882, 379, 177, 394, 304
-0.999886, 327, 177, 342, 304
-0.999888, 353, 165, 480, 196
-0.999895, 435, 145, 450, 272
-0.999902, 15, 241, 30, 368
-0.999904, 87, 241, 102, 368
-0.999906, 203, 241, 218, 368
-0.99991, 161, 153, 288, 184
-0.999911, 303, 161, 318, 288
-0.999919, 165, 241, 180, 368
-0.99992, 175, 241, 190, 368
-0.999922, 189, 241, 204, 368
-0.99993, 247, 193, 262, 320
-0.999933, 225, 153, 352, 216
-0.999935, 441, 241, 456, 368
-0.999935, 81, 241, 96, 368
-0.999938, 129, 241, 144, 368
-0.999938, 181, 241, 196, 368
-0.99994, 143, 225, 158, 352
-0.999944, 211, 225, 226, 352
-0.999944, 161, 137, 416, 200
-0.999947, 1, 169, 128, 232
-0.99995, 25, 225, 40, 352
-0.999951, 97, 241, 112, 368
-0.999951, 157, 241, 172, 368
-0.999952, 229, 241, 244, 368
-0.999953, 223, 241, 238, 368
-0.999953, 259, 129, 274, 256
-0.999954, 197, 241, 212, 368
-0.999956, 17, 129, 80, 375
-0.999956, 149, 225, 164, 352
-0.999959, 479, 241, 494, 368
-0.999959, 451, 241, 466, 368
-0.999961, 69, 225, 84, 352
-0.999963, 117, 225, 132, 352
-0.999964, 161, 297, 288, 328
-0.999964, 135, 225, 150, 352
-0.999967, 35, 225, 50, 352
-0.999967, 25, 281, 56, 344
-0.999968, 49, 225, 64, 352
-0.999968, 217, 225, 232, 352
-0.999971, 41, 241, 56, 368
-0.999975, 233, 249, 264, 312
-0.999977, 1, 241, 16, 368
-0.999979, 111, 241, 126, 368
-0.999979, 459, 241, 474, 368
-0.999982, 105, 225, 120, 352
-0.999985, 15, 193, 30, 320
-0.999986, 59, 225, 74, 352
-0.99999, 123, 241, 138, 368
-0.99999, 471, 97, 486, 224
-0.999996, 9, 193, 24, 320
-0.999998, 471, 241, 486, 368
-0.999999, 485, 241, 500, 368
-1, 75, 225, 90, 352
-1, 217, 97, 232, 224
-1.00001, 457, 65, 472, 192
-1.00001, 337, 117, 464, 148
-1.00001, 453, 281, 484, 344
-1.00001, 463, 81, 478, 208
-1.00001, 225, 133, 352, 164
-1.00001, 1, 345, 128, 375
-1.00001, 83, 193, 98, 320
-1.00002, 369, 137, 496, 168
-1.00002, 381, 97, 396, 224
-1.00002, 481, 97, 496, 224
-1.00002, 231, 113, 246, 240
-1.00002, 241, 193, 256, 320
-1.00003, 223, 113, 238, 240
-1.00003, 437, 185, 468, 248
-1.00004, 91, 193, 106, 320
-1.00004, 465, 241, 480, 368
-1.00005, 237, 113, 252, 240
-1.00005, 321, 345, 448, 375
-1.00005, 49, 113, 176, 176
-1.00005, 3, 193, 18, 320
-1.00005, 473, 49, 488, 176
-1.00005, 369, 97, 384, 224
-1.00006, 165, 193, 180, 320
-1.00006, 199, 193, 214, 320
-1.00006, 157, 193, 172, 320
-1.00006, 115, 97, 130, 224
-1.00006, 175, 193, 190, 320
-1.00006, 249, 113, 264, 240
-1.00007, 363, 97, 378, 224
-1.00007, 53, 281, 84, 344
-1.00008, 17, 193, 144, 320
-1.00012, 17, 165, 144, 196
-1.00012, 369, 185, 496, 216
-1.00013, 297, 161, 328, 288
-1.00013, 369, 93, 496, 124
-1.00015, 425, 257, 488, 320
-1.00016, 209, 169, 336, 200
-1.00016, 225, 145, 352, 176
-1.00018, 161, 185, 288, 216
-1.00018, 17, 313, 144, 375
-1.00019, 257, 189, 384, 220
-1.0002, 305, 133, 432, 164
-1.0002, 113, 153, 240, 184
-1.00021, 65, 113, 192, 144
-1.00021, 225, 341, 352, 372
-1.00023, 445, 33, 476, 288
-1.00023, 49, 345, 176, 375
-1.00023, 257, 317, 384, 348
-1.00025, 145, 133, 272, 164
-1.00025, 65, 161, 192, 192
-1.00025, 321, 333, 448, 364
-1.00025, 289, 165, 416, 196
-1.00027, 161, 341, 288, 372
-1.00029, 225, 121, 352, 152
-1.00029, 33, 137, 160, 200
-1.00031, 285, 297, 316, 360
-1.00032, 257, 137, 500, 200
-1.00032, 353, 301, 480, 332
-1.00033, 305, 317, 432, 348
-1.00034, 1, 329, 128, 360
-1.00034, 145, 121, 272, 152
-1.00036, 129, 165, 256, 196
-1.00036, 33, 197, 160, 228
-1.00036, 241, 157, 368, 188
-1.00036, 1, 313, 128, 344
-1.00036, 229, 129, 260, 375
-1.00037, 217, 97, 248, 352
-1.00037, 337, 281, 368, 344
-1.00037, 33, 193, 160, 256
-1.00037, 321, 185, 448, 216
-1.00037, 137, 129, 168, 375
-1.00037, 145, 245, 272, 276
-1.00038, 97, 297, 224, 328
-1.00038, 129, 325, 256, 356
-1.00038, 433, 33, 464, 288
-1.00039, 161, 257, 224, 320
-1.0004, 209, 317, 336, 348
-1.00042, 145, 217, 272, 280
-1.00042, 65, 333, 192, 364
-1.00042, 273, 145, 304, 272
-1.00043, 49, 317, 176, 348
-1.00043, 369, 265, 496, 296
-1.00043, 1, 289, 500, 352
-1.00043, 17, 113, 144, 144
-1.00043, 125, 129, 156, 375
-1.00044, 49, 129, 80, 375
-1.00044, 193, 329, 320, 360
-1.00045, 105, 281, 136, 344
-1.00045, 289, 121, 416, 152
-1.00046, 33, 301, 160, 332
-1.00046, 373, 161, 404, 288
-1.00046, 161, 161, 416, 224
-1.00047, 17, 129, 48, 375
-1.00047, 17, 149, 144, 180
-1.00048, 273, 177, 400, 208
-1.00048, 221, 225, 252, 352
-1.00048, 5, 129, 36, 375
-1.00049, 369, 73, 496, 136
-1.0005, 225, 313, 352, 375
-1.0005, 305, 305, 432, 336
-1.00051, 193, 129, 224, 375
-1.00051, 113, 129, 144, 375
-1.00051, 33, 129, 64, 375
-1.00053, 73, 257, 136, 320
-1.00054, 113, 345, 240, 375
-1.00054, 81, 173, 208, 204
-1.00054, 17, 185, 144, 216
-1.00055, 149, 129, 180, 375
-1.00055, 113, 185, 240, 248
-1.00056, 97, 309, 224, 340
-1.00056, 113, 193, 240, 224
-1.00056, 161, 313, 288, 344
-1.00057, 177, 129, 208, 375
-1.00057, 281, 177, 312, 240
-1.00058, 113, 97, 240, 160
-1.00058, 93, 129, 124, 375
-1.00059, 97, 121, 224, 184
-1.00059, 209, 189, 336, 220
-1.00059, 201, 121, 264, 184
-1.00059, 377, 145, 440, 208
-1.00061, 1, 113, 256, 176
-1.00063, 337, 81, 464, 112
-1.00064, 97, 141, 224, 172
-1.00064, 33, 209, 160, 240
-1.00064, 205, 129, 236, 375
-1.00065, 225, 113, 480, 176
-1.00065, 81, 101, 208, 132
-1.00066, 421, 33, 452, 288
-1.00066, 61, 129, 92, 375
-1.00066, 165, 129, 196, 375
-1.00067, 369, 253, 496, 284
-1.00069, 73, 129, 104, 375
-1.00069, 257, 313, 500, 375
-1.0007, 129, 209, 256, 240
-1.00071, 257, 105, 384, 136
-1.00072, 145, 233, 272, 264
-1.00072, 105, 129, 168, 375
-1.00073, 393, 33, 424, 288
-1.00074, 65, 185, 192, 216
-1.00074, 1, 101, 128, 132
-1.00075, 377, 249, 440, 312
-1.00078, 17, 37, 144, 68
-1.00078, 17, 125, 144, 156
-1.00078, 65, 125, 192, 156
-1.0008, 129, 109, 256, 140
-1.00081, 193, 109, 320, 140
-1.00082, 353, 153, 480, 216
-1.00082, 233, 297, 296, 360
-1.00083, 65, 33, 192, 64
-1.00083, 321, 93, 448, 124
-1.00084, 97, 313, 352, 375
-1.00085, 401, 193, 432, 256
-1.00087, 145, 221, 272, 252
-1.00087, 81, 213, 208, 244
-1.00087, 417, 241, 480, 368
-1.00088, 405, 33, 436, 288
-1.00088, 321, 105, 448, 136
-1.0009, 457, 1, 488, 256
-1.0009, 97, 185, 352, 248
-1.00091, 425, 185, 456, 248
-1.00091, 81, 21, 208, 52
-1.00091, 73, 241, 104, 368
-1.00092, 33, 221, 160, 252
-1.00093, 81, 225, 208, 256
-1.00096, 1, 21, 128, 52
-1.00096, 129, 97, 256, 128
-1.00096, 1, 233, 128, 264
-1.00099, 81, 129, 144, 375
-1.00099, 225, 65, 480, 192
-1.00099, 193, 97, 320, 160
-1.00099, 1, 177, 256, 240
-1.00099, 257, 89, 500, 152
-1.001, 369, 69, 496, 100
-1.00101, 1, 89, 128, 120
-1.00102, 257, 93, 384, 124
-1.00102, 17, 137, 144, 168
-1.00102, 65, 85, 192, 116
-1.00102, 177, 97, 304, 128
-1.00104, 1, 9, 128, 40
-1.00104, 469, 1, 500, 256
-1.00106, 65, 253, 192, 284
-1.00106, 273, 33, 304, 288
-1.00107, 1, 253, 128, 284
-1.00111, 377, 33, 408, 288
-1.00112, 1, 145, 256, 272
-1.00112, 1, 241, 32, 368
-1.00115, 261, 33, 292, 288
-1.00115, 177, 129, 240, 375
-1.00115, 1, 305, 256, 368
-1.00118, 341, 33, 372, 288
-1.00118, 137, 129, 200, 375
-1.00118, 1, 233, 256, 296
-1.00121, 365, 33, 396, 288
-1.00122, 33, 209, 288, 272
-1.00123, 273, 297, 304, 360
-1.00125, 241, 105, 368, 168
-1.00126, 241, 217, 272, 280
-1.00126, 373, 201, 404, 264
-1.00128, 241, 33, 272, 288
-1.00131, 77, 1, 108, 256
-1.00131, 89, 1, 120, 256
-1.00132, 1, 177, 500, 240
-1.00134, 413, 257, 444, 320
-1.00134, 325, 33, 356, 288
-1.00135, 217, 1, 248, 256
-1.00136, 301, 33, 332, 288
-1.00136, 353, 33, 384, 288
-1.00137, 329, 217, 360, 280
-1.00137, 25, 1, 56, 256
-1.00138, 229, 1, 260, 256
-1.00141, 117, 1, 148, 256
-1.00142, 61, 1, 92, 256
-1.00142, 401, 137, 464, 200
-1.00144, 97, 97, 224, 224
-1.00147, 113, 145, 240, 272
-1.00147, 65, 89, 192, 152
-1.00148, 13, 1, 44, 256
-1.00148, 1, 89, 128, 152
-1.00148, 289, 33, 320, 288
-1.00148, 201, 1, 232, 256
-1.0015, 65, 89, 320, 152
-1.00151, 157, 225, 188, 352
-1.00151, 49, 1, 80, 256
-1.00151, 129, 1, 160, 256
-1.00152, 1, 113, 128, 176
-1.00152, 1, 313, 500, 375
-1.00153, 101, 1, 132, 256
-1.00154, 325, 177, 356, 304
-1.00155, 141, 1, 172, 256
-1.00156, 233, 153, 296, 216
-1.00156, 37, 1, 68, 256
-1.00156, 157, 1, 188, 256
-1.00157, 185, 1, 216, 256
-1.00158, 1, 33, 256, 96
-1.00159, 321, 89, 448, 152
-1.0016, 1, 1, 32, 256
-1.00161, 129, 113, 384, 176
-1.00162, 337, 97, 400, 224
-1.00162, 353, 49, 480, 176
-1.00164, 173, 1, 204, 256
-1.00168, 105, 161, 168, 224
-1.00171, 441, 89, 472, 152
-1.00173, 313, 33, 344, 288
-1.00177, 1, 1, 256, 64
-1.00177, 161, 89, 416, 152
-1.00178, 169, 241, 200, 368
-1.00182, 257, 65, 500, 128
-1.00183, 33, 65, 288, 128
-1.00185, 453, 97, 484, 160
-1.00188, 185, 225, 216, 352
-1.0019, 93, 225, 124, 352
-1.00195, 433, 121, 496, 184
-1.00196, 81, 209, 208, 272
-1.00196, 301, 209, 332, 272
-1.002, 1, 121, 500, 184
-1.00202, 17, 113, 144, 240
-1.00205, 197, 241, 228, 368
-1.00205, 257, 17, 500, 80
-1.00206, 97, 17, 352, 80
-1.00208, 225, 177, 288, 240
-1.00209, 257, 81, 384, 144
-1.0021, 113, 225, 144, 352
-1.00211, 129, 65, 384, 128
-1.00212, 161, 41, 416, 104
-1.00215, 1, 33, 128, 96
-1.00217, 1, 89, 500, 152
-1.00218, 193, 313, 256, 375
-1.00227, 49, 33, 176, 96
-1.00231, 133, 225, 164, 352
-1.00234, 113, 73, 240, 136
-1.00234, 305, 81, 432, 208
-1.00235, 17, 65, 144, 128
-1.00236, 221, 257, 252, 320
-1.00238, 465, 113, 496, 176
-1.0024, 209, 241, 240, 368
-1.00241, 41, 129, 104, 375
-1.00242, 65, 9, 192, 72
-1.00244, 213, 113, 244, 176
-1.00245, 469, 241, 500, 368
-1.00245, 13, 225, 44, 352
-1.00246, 249, 193, 280, 256
-1.00247, 1, 145, 500, 208
-1.00247, 145, 225, 176, 352
-1.0025, 257, 41, 500, 104
-1.00251, 409, 89, 472, 152
-1.00253, 21, 257, 52, 320
-1.00253, 57, 225, 88, 352
-1.00254, 33, 217, 160, 280
-1.00259, 177, 73, 304, 136
-1.00261, 369, 41, 496, 104
-1.00261, 65, 65, 192, 128
-1.00263, 25, 225, 56, 352
-1.00263, 193, 113, 256, 240
-1.00265, 321, 65, 448, 128
-1.0027, 289, 129, 352, 256
-1.0027, 433, 257, 464, 320
-1.00271, 361, 97, 392, 224
-1.00272, 85, 257, 116, 320
-1.00273, 249, 129, 280, 256
-1.00274, 1, 9, 128, 72
-1.00274, 129, 97, 384, 224
-1.00275, 73, 257, 104, 320
-1.00276, 197, 257, 228, 320
-1.00278, 177, 257, 208, 320
-1.00282, 417, 313, 480, 375
-1.00286, 365, 257, 396, 320
-1.00287, 385, 105, 448, 168
-1.00288, 97, 33, 224, 96
-1.00288, 273, 49, 400, 112
-1.00291, 177, 1, 304, 64
-1.00291, 273, 1, 400, 64
-1.00291, 129, 9, 256, 72
-1.00291, 225, 9, 352, 72
-1.00291, 321, 9, 448, 72
-1.00291, 369, 17, 496, 80
-1.00291, 177, 25, 304, 88
-1.00291, 273, 25, 400, 88
-1.00291, 225, 33, 352, 96
-1.00291, 321, 33, 448, 96
-1.00291, 177, 49, 304, 112
-1.00291, 225, 57, 352, 120
-1.00293, 133, 257, 164, 320
-1.00294, 81, 233, 208, 296
-1.00295, 377, 33, 440, 288
-1.00298, 213, 97, 244, 224
-1.00299, 1, 65, 500, 128
-1.00301, 453, 81, 484, 208
-1.00301, 45, 225, 76, 352
-1.00303, 45, 257, 76, 320
-1.00309, 161, 257, 192, 320
-1.00309, 225, 65, 352, 192
-1.00311, 233, 113, 264, 240
-1.00312, 1, 17, 500, 80
-1.00313, 73, 105, 136, 168
-1.00317, 361, 113, 424, 176
-1.00321, 9, 249, 40, 312
-1.00321, 369, 121, 400, 184
-1.00321, 105, 257, 136, 320
-1.00322, 161, 97, 288, 224
-1.00322, 345, 161, 408, 224
-1.00327, 337, 305, 400, 368
-1.00327, 409, 161, 472, 224
-1.00334, 149, 257, 180, 320
-1.0034, 209, 257, 240, 320
-1.0034, 61, 257, 92, 320
-1.00341, 453, 257, 484, 320
-1.00342, 297, 185, 328, 248
-1.00343, 33, 257, 64, 320
-1.00343, 385, 169, 448, 232
-1.00346, 33, 49, 288, 176
-1.0035, 177, 121, 240, 184
-1.00359, 261, 177, 292, 240
-1.00359, 297, 129, 360, 192
-1.00359, 65, 161, 128, 224
-1.00364, 465, 305, 496, 368
-1.00366, 1, 41, 500, 104
-1.00366, 453, 241, 484, 368
-1.00369, 1, 193, 64, 320
-1.0037, 105, 137, 168, 200
-1.00373, 17, 161, 80, 224
-1.00377, 117, 257, 148, 320
-1.00378, 129, 161, 192, 224
-1.00387, 185, 161, 248, 224
-1.00388, 65, 145, 192, 272
-1.00395, 441, 241, 472, 368
-1.00395, 469, 257, 500, 320
-1.00407, 385, 297, 448, 360
-1.0042, 321, 313, 352, 375
-1.0042, 445, 313, 476, 375
-1.00427, 441, 65, 472, 192
-1.0044, 225, 129, 288, 192
-1.00441, 69, 193, 100, 320
-1.00443, 349, 313, 380, 375
-1.00444, 169, 305, 232, 368
-1.00452, 425, 313, 456, 375
-1.00456, 337, 137, 368, 200
-1.00458, 41, 313, 104, 375
-1.0046, 409, 113, 472, 176
-1.00461, 161, 161, 224, 224
-1.00462, 137, 193, 200, 320
-1.00463, 381, 121, 412, 184
-1.00466, 81, 193, 112, 320
-1.00466, 297, 305, 328, 368
-1.0047, 433, 137, 464, 200
-1.0047, 309, 145, 340, 272
-1.00472, 337, 97, 400, 160
-1.00476, 293, 161, 324, 224
-1.00482, 1, 193, 32, 320
-1.00488, 357, 105, 388, 168
-1.00488, 321, 161, 384, 224
-1.0049, 361, 297, 424, 360
-1.00492, 161, 193, 224, 320
-1.00498, 337, 185, 400, 248
-1.005, 385, 153, 416, 216
-1.00501, 345, 129, 376, 256
-1.00502, 245, 297, 276, 360
-1.00504, 345, 33, 408, 288
-1.00507, 453, 161, 484, 224
-1.00509, 197, 193, 228, 320
-1.00509, 465, 65, 496, 192
-1.00513, 377, 81, 440, 144
-1.00514, 113, 161, 144, 224
-1.00515, 433, 1, 496, 256
-1.00516, 137, 305, 200, 368
-1.00517, 401, 305, 432, 368
-1.00521, 49, 193, 112, 320
-1.00523, 169, 193, 200, 320
-1.00525, 265, 129, 328, 192
-1.00527, 257, 153, 320, 216
-1.00528, 145, 137, 208, 200
-1.00528, 213, 137, 244, 200
-1.00531, 325, 129, 356, 192
-1.00536, 97, 129, 128, 256
-1.00536, 57, 137, 120, 200
-1.00537, 117, 97, 148, 224
-1.00537, 113, 193, 176, 320
-1.00538, 409, 81, 472, 208
-1.00543, 201, 97, 232, 224
-1.00546, 97, 105, 160, 168
-1.00547, 201, 113, 232, 176
-1.00547, 369, 297, 400, 360
-1.00548, 125, 153, 156, 216
-1.00551, 97, 161, 128, 224
-1.00553, 17, 305, 80, 368
-1.00556, 429, 81, 460, 208
-1.00557, 413, 313, 444, 375
-1.00558, 409, 153, 440, 216
-1.00559, 97, 105, 128, 168
-1.00559, 233, 129, 264, 192
-1.00562, 409, 65, 472, 128
-1.00562, 65, 97, 128, 224
-1.00562, 325, 113, 356, 240
-1.00563, 261, 113, 292, 240
-1.00564, 81, 313, 144, 375
-1.00571, 81, 129, 144, 192
-1.00572, 373, 97, 404, 224
-1.00574, 129, 49, 256, 176
-1.00588, 65, 185, 128, 248
-1.00588, 209, 145, 240, 272
-1.00588, 433, 153, 496, 216
-1.0059, 289, 33, 352, 288
-1.00591, 385, 81, 416, 208
-1.00591, 57, 1, 120, 256
-1.00597, 41, 161, 104, 224
-1.00599, 313, 105, 376, 168
-1.006, 289, 113, 320, 240
-1.00603, 209, 193, 240, 320
-1.00605, 345, 65, 376, 192
-1.00606, 113, 313, 176, 375
-1.00606, 129, 185, 192, 248
-1.00609, 409, 1, 472, 256
-1.0061, 225, 97, 288, 160
-1.00614, 17, 17, 144, 144
-1.00615, 225, 65, 256, 192
-1.00618, 89, 193, 152, 256
-1.00618, 137, 145, 168, 272
-1.0062, 169, 97, 232, 160
-1.00623, 181, 145, 212, 272
-1.00627, 41, 185, 104, 248
-1.00629, 97, 81, 128, 208
-1.00631, 229, 177, 260, 304
-1.00632, 265, 33, 328, 288
-1.00637, 105, 97, 168, 224
-1.00638, 49, 113, 112, 176
-1.00643, 105, 145, 168, 272
-1.00647, 125, 145, 156, 272
-1.00649, 77, 17, 108, 144
-1.00656, 453, 33, 484, 160
-1.00658, 33, 1, 288, 128
-1.00661, 105, 81, 168, 144
-1.00665, 225, 33, 288, 288
-1.00666, 129, 145, 192, 272
-1.0067, 129, 113, 192, 176
-1.00675, 49, 65, 176, 192
-1.00676, 197, 145, 228, 272
-1.00677, 77, 97, 108, 224
-1.00679, 361, 49, 392, 176
-1.00679, 141, 97, 172, 224
-1.00682, 49, 145, 80, 272
-1.00684, 17, 145, 48, 272
-1.00684, 361, 97, 424, 224
-1.00686, 73, 73, 136, 136
-1.00688, 433, 73, 496, 136
-1.0069, 189, 97, 220, 224
-1.0069, 113, 145, 144, 272
-1.007, 201, 97, 264, 160
-1.00703, 17, 137, 80, 200
-1.00703, 193, 185, 256, 248
-1.00704, 65, 17, 96, 144
-1.00712, 161, 193, 224, 256
-1.0072, 237, 65, 268, 192
-1.0072, 413, 81, 444, 208
-1.0072, 165, 145, 196, 272
-1.00722, 437, 17, 468, 144
-1.00722, 17, 1, 80, 256
-1.0073, 33, 145, 64, 272
-1.0073, 217, 81, 280, 208
-1.00731, 169, 145, 232, 272
-1.00733, 469, 17, 500, 144
-1.00733, 57, 33, 120, 96
-1.00739, 153, 145, 184, 272
-1.00743, 65, 81, 96, 208
-1.00743, 129, 81, 160, 208
-1.00748, 129, 49, 384, 176
-1.00749, 41, 81, 104, 144
-1.0075, 321, 33, 384, 288
-1.00751, 373, 49, 404, 176
-1.00752, 213, 49, 244, 176
-1.00755, 241, 97, 304, 224
-1.00756, 257, 17, 500, 144
-1.00757, 17, 233, 80, 296
-1.00759, 153, 97, 184, 224
-1.00762, 93, 177, 124, 304
-1.00763, 113, 209, 176, 272
-1.00765, 209, 153, 272, 216
-1.00766, 81, 1, 144, 256
-1.00767, 177, 97, 208, 224
-1.00772, 313, 81, 376, 144
-1.00776, 377, 49, 440, 176
-1.00777, 105, 1, 168, 256
-1.00779, 33, 25, 96, 88
-1.00779, 1, 113, 32, 240
-1.00781, 249, 81, 280, 208
-1.00781, 289, 105, 352, 168
-1.00782, 325, 65, 356, 192
-1.00786, 313, 97, 344, 224
-1.00789, 177, 1, 240, 256
-1.0079, 1, 209, 64, 272
-1.00793, 65, 17, 192, 144
-1.00795, 401, 81, 432, 208
-1.00796, 273, 33, 400, 160
-1.00799, 137, 97, 200, 224
-1.008, 197, 49, 228, 176
-1.008, 33, 97, 64, 224
-1.00802, 81, 145, 112, 272
-1.00803, 413, 33, 444, 160
-1.00805, 13, 97, 44, 224
-1.00808, 385, 33, 416, 160
-1.00814, 117, 49, 148, 176
-1.00815, 273, 81, 304, 208
-1.00819, 89, 33, 120, 160
-1.00821, 165, 97, 196, 224
-1.00822, 65, 145, 128, 272
-1.00822, 45, 97, 76, 224
-1.00822, 65, 129, 96, 256
-1.00828, 169, 97, 232, 224
-1.00846, 301, 81, 332, 208
-1.0086, 17, 145, 80, 272
-1.00877, 129, 1, 192, 256
-1.00883, 313, 97, 376, 224
-1.00887, 65, 17, 128, 144
-1.00894, 1, 65, 128, 192
-1.009, 41, 17, 104, 144
-1.00902, 417, 33, 480, 160
-1.00903, 153, 1, 216, 256
-1.00924, 201, 33, 264, 288
-1.00961, 289, 81, 352, 208
-1.00979, 177, 17, 304, 144
-1.00981, 41, 113, 104, 240
-1.00992, 337, 1, 464, 128
-1.01003, 313, 49, 376, 176
-1.01007, 337, 49, 400, 176
-1.01034, 129, 1, 384, 128
-1.01041, 129, 1, 256, 128
-1.01125, 265, 113, 328, 240
-1.01163, 9, 97, 72, 224
-1.01166, 193, 65, 256, 192
-1.01169, 225, 1, 352, 128
-1.01221, 161, 49, 224, 176
-1.01224, 105, 49, 168, 176
-1.01256, 265, 65, 328, 192
-1.01267, 17, 17, 80, 144
-1.01279, 89, 1, 152, 128
-1.01295, 217, 33, 280, 160
-1.01302, 41, 65, 104, 192
-1.01331, 241, 49, 304, 176
-1.01334, 289, 33, 352, 160
-1.01351, 137, 49, 200, 176
-1.01381, 385, 97, 448, 224
-1.01386, 353, 1, 416, 128
-1.01406, 393, 1, 456, 128
-1.01438, 185, 17, 248, 144
-1.01452, 145, 1, 208, 128
-1.01468, 113, 1, 176, 128
-1.01478, 265, 1, 328, 128
-1.01543, 241, 1, 304, 128
-1.01546, 321, 1, 384, 128
-1.02356, 225, 33, 480, 288
-1.03403, 1, 1, 256, 256
-1.06154, 129, 33, 384, 288
