1857
-0.504217, 1, 1, 500, 256
-0.55106, 1, 1, 500, 313
-0.624542, 129, 1, 384, 313
-0.671739, 257, 1, 500, 313
-0.682542, 33, 1, 288, 313
-0.732182, 161, 1, 416, 256
-0.805121, 33, 65, 288, 313
-0.844642, 257, 33, 500, 288
-0.894619, 289, 1, 416, 256
-0.897945, 225, 1, 352, 256
-0.898848, 225, 1, 352, 313
-0.904318, 273, 1, 400, 313
-0.91267, 369, 1, 496, 256
-0.913471, 1, 81, 500, 208
-0.916556, 1, 65, 128, 313
-0.920539, 65, 1, 192, 256
-0.921697, 33, 1, 160, 313
-0.921823, 177, 1, 304, 256
-0.92625, 97, 1, 224, 313
-0.928644, 1, 145, 500, 272
-0.930358, 113, 65, 240, 313
-0.930871, 353, 1, 480, 313
-0.931464, 289, 113, 416, 240
-0.931738, 1, 33, 500, 160
-0.933464, 161, 113, 416, 240
-0.937598, 257, 129, 500, 256
-0.93895, 145, 1, 272, 313
-0.94346, 297, 113, 360, 240
-0.9445, 65, 1, 320, 128
-0.950326, 257, 81, 500, 208
-0.951344, 241, 113, 368, 240
-0.951693, 129, 65, 384, 192
-0.953298, 273, 129, 336, 256
-0.954368, 321, 113, 384, 240
-0.954805, 1, 193, 500, 313
-0.957489, 305, 161, 368, 288
-0.9586, 1, 145, 256, 272
-0.958802, 273, 65, 400, 192
-0.959266, 193, 81, 320, 208
-0.959822, 241, 1, 368, 128
-0.959914, 289, 121, 352, 184
-0.960171, 321, 49, 448, 176
-0.960648, 1, 65, 256, 192
-0.960807, 273, 161, 400, 288
-0.96089, 161, 177, 416, 304
-0.961003, 193, 1, 448, 128
-0.961262, 369, 97, 496, 224
-0.961873, 257, 177, 500, 304
-0.965779, 257, 137, 320, 200
-0.966329, 313, 121, 376, 184
-0.966678, 345, 129, 408, 256
-0.96721, 65, 97, 128, 224
-0.967866, 321, 65, 384, 192
-0.968025, 193, 129, 320, 256
-0.968217, 49, 1, 176, 128
-0.969114, 321, 161, 448, 288
-0.969179, 305, 1, 432, 128
-0.969263, 249, 113, 312, 240
-0.97077, 65, 1, 128, 128
-0.971082, 345, 81, 408, 208
-0.971472, 273, 121, 400, 184
-0.971978, 33, 113, 160, 240
-0.972201, 281, 145, 344, 208
-0.972298, 89, 113, 152, 240
-0.973036, 369, 49, 496, 176
-0.973913, 89, 129, 152, 192
-0.973986, 145, 81, 272, 208
-0.974024, 273, 81, 336, 208
-0.974117, 145, 1, 208, 128
-0.974315, 337, 129, 400, 192
-0.974415, 1, 1, 128, 128
-0.974451, 73, 49, 136, 176
-0.974554, 401, 97, 464, 160
-0.974612, 1, 49, 128, 176
-0.974665, 113, 129, 176, 256
-0.974682, 345, 33, 408, 160
-0.974797, 233, 113, 296, 176
-0.974835, 353, 1, 480, 128
-0.974869, 129, 145, 192, 208
-0.974872, 305, 65, 368, 313
-0.975062, 81, 97, 208, 224
-0.9752, 377, 113, 440, 176
-0.97534, 41, 97, 104, 224
-0.975366, 57, 121, 120, 184
-0.975419, 257, 105, 320, 168
-0.97544, 265, 177, 328, 304
-0.975684, 309, 113, 340, 240
-0.976025, 41, 145, 104, 208
-0.976163, 377, 113, 440, 240
-0.976193, 161, 49, 224, 176
-0.976249, 329, 177, 392, 304
-0.976814, 297, 65, 360, 192
-0.976872, 65, 145, 128, 272
-0.977064, 297, 1, 360, 128
-0.97725, 65, 145, 128, 208
-0.977316, 185, 1, 248, 128
-0.97735, 41, 17, 104, 144
-0.97754, 297, 97, 360, 160
-0.977589, 33, 161, 160, 288
-0.977667, 49, 1, 112, 64
-0.977711, 129, 17, 256, 144
-0.977959, 113, 81, 176, 208
-0.978168, 337, 105, 400, 168
-0.9782, 433, 33, 496, 160
-0.978398, 225, 177, 352, 304
-0.978575, 289, 169, 352, 232
-0.978691, 301, 161, 332, 288
-0.978903, 273, 1, 336, 256
-0.978953, 225, 1, 288, 128
-0.979339, 361, 89, 424, 152
-0.979395, 193, 33, 320, 160
-0.979667, 97, 1, 160, 128
-0.979705, 289, 129, 320, 256
-0.979706, 25, 161, 88, 288
-0.979707, 81, 49, 208, 176
-0.979741, 297, 129, 328, 192
-0.97983, 321, 113, 352, 240
-0.980099, 25, 1, 88, 64
-0.980245, 249, 1, 312, 128
-0.980263, 145, 129, 272, 256
-0.980346, 185, 65, 248, 192
-0.980363, 89, 153, 152, 216
-0.980446, 137, 129, 200, 256
-0.980564, 337, 97, 368, 224
-0.980732, 209, 137, 336, 200
-0.980814, 425, 73, 488, 136
-0.980969, 89, 161, 152, 288
-0.980974, 313, 161, 376, 224
-0.981142, 129, 169, 192, 232
-0.981176, 17, 81, 80, 208
-0.981239, 285, 137, 316, 200
-0.981356, 225, 49, 288, 176
-0.98163, 361, 137, 424, 200
-0.981654, 273, 33, 336, 160
-0.981825, 369, 65, 432, 192
-0.981927, 33, 25, 96, 88
-0.982095, 393, 65, 456, 192
-0.982252, 257, 161, 320, 224
-0.982306, 393, 73, 456, 136
-0.982421, 321, 97, 448, 160
-0.982425, 1, 193, 256, 313
-0.982483, 433, 81, 496, 208
-0.982557, 257, 81, 320, 144
-0.982712, 17, 145, 80, 208
-0.982727, 113, 121, 176, 184
-0.982758, 137, 177, 200, 304
-0.98282, 217, 81, 280, 144
-0.982821, 309, 121, 340, 184
-0.982919, 161, 113, 224, 176
-0.982989, 113, 177, 176, 304
-0.983002, 49, 97, 112, 160
-0.983201, 337, 153, 400, 216
-0.983269, 105, 177, 168, 240
-0.983366, 317, 161, 348, 288
-0.983416, 349, 113, 380, 240
-0.983433, 329, 161, 360, 288
-0.983469, 57, 25, 120, 88
-0.983502, 129, 177, 256, 304
-0.983659, 81, 137, 208, 200
-0.98372, 233, 137, 296, 200
-0.983733, 209, 161, 272, 224
-0.983808, 241, 89, 368, 152
-0.983884, 73, 73, 136, 136
-0.98398, 281, 217, 344, 280
-0.984056, 89, 105, 152, 168
-0.98408, 225, 97, 288, 224
-0.984316, 193, 113, 256, 240
-0.984337, 121, 1, 184, 128
-0.984387, 25, 121, 88, 184
-0.984412, 1, 177, 64, 304
-0.984434, 273, 161, 400, 224
-0.984528, 137, 49, 200, 176
-0.984533, 193, 97, 256, 160
-0.984551, 193, 121, 256, 184
-0.984574, 81, 145, 208, 272
-0.984775, 321, 129, 448, 192
-0.984814, 161, 153, 288, 216
-0.984941, 161, 89, 224, 152
-0.98496, 209, 113, 336, 176
-0.985325, 233, 169, 296, 232
-0.985343, 289, 1, 352, 64
-0.985383, 353, 241, 416, 304
-0.985544, 169, 137, 232, 200
-0.985566, 329, 65, 392, 313
-0.985597, 41, 57, 104, 120
-0.985599, 1, 129, 64, 256
-0.985833, 1, 137, 128, 200
-0.985859, 329, 249, 392, 312
-0.985869, 361, 129, 392, 256
-0.985908, 137, 113, 200, 176
-0.985915, 265, 1, 328, 64
-0.985915, 313, 217, 376, 280
-0.985977, 341, 121, 372, 184
-0.985992, 225, 161, 352, 224
-0.986029, 433, 97, 496, 160
-0.986131, 369, 97, 496, 160
-0.986165, 285, 81, 316, 208
-0.986228, 41, 169, 104, 232
-0.986239, 329, 97, 360, 160
-0.986277, 81, 113, 208, 176
-0.98628, 257, 57, 320, 120
-0.986418, 9, 1, 72, 128
-0.986436, 357, 129, 388, 192
-0.986446, 97, 177, 224, 240
-0.986474, 321, 1, 384, 128
-0.986483, 169, 113, 232, 240
-0.98652, 321, 121, 352, 184
-0.986522, 17, 161, 144, 224
-0.986525, 69, 1, 100, 128
-0.98654, 273, 33, 336, 96
-0.986586, 185, 1, 248, 64
-0.986794, 369, 121, 496, 184
-0.986891, 289, 105, 320, 168
-0.986911, 313, 1, 376, 64
-0.986932, 161, 17, 224, 80
-0.987001, 409, 1, 472, 128
-0.987012, 369, 145, 496, 272
-0.987071, 297, 81, 328, 208
-0.987078, 113, 1, 240, 64
-0.98708, 369, 65, 432, 128
-0.987209, 305, 1, 368, 313
-0.987217, 145, 81, 272, 144
-0.987219, 329, 81, 392, 144
-0.987348, 145, 129, 272, 192
-0.987436, 73, 1, 136, 64
-0.987522, 225, 57, 352, 120
-0.987546, 341, 161, 372, 288
-0.987565, 289, 161, 320, 224
-0.987575, 169, 161, 232, 224
-0.987606, 273, 129, 304, 192
-0.987714, 249, 1, 312, 256
-0.987739, 121, 1, 184, 64
-0.987804, 273, 217, 400, 280
-0.987843, 117, 145, 148, 208
-0.988013, 257, 1, 320, 313
-0.988044, 65, 33, 96, 96
-0.988076, 425, 41, 488, 104
-0.988086, 233, 33, 296, 96
-0.988128, 245, 129, 276, 192
-0.988168, 305, 57, 432, 120
-0.988193, 185, 73, 248, 136
-0.988198, 53, 1, 84, 128
-0.988211, 309, 145, 340, 208
-0.98823, 289, 249, 352, 312
-0.988247, 401, 113, 464, 240
-0.988322, 289, 73, 352, 136
-0.988411, 161, 105, 288, 168
-0.988412, 337, 169, 368, 232
-0.988462, 241, 1, 368, 64
-0.988536, 1, 121, 64, 184
-0.988553, 401, 121, 464, 184
-0.988593, 289, 33, 416, 96
-0.988669, 105, 121, 136, 184
-0.988686, 129, 137, 160, 200
-0.988728, 337, 153, 464, 216
-0.988779, 53, 1, 84, 64
-0.988818, 337, 57, 400, 120
-0.988821, 433, 1, 496, 64
-0.988836, 393, 49, 456, 112
-0.988947, 193, 1, 320, 64
-0.988981, 325, 33, 356, 160
-0.989001, 1, 17, 128, 80
-0.989021, 145, 177, 272, 240
-0.989055, 101, 65, 132, 192
-0.989147, 169, 161, 232, 288
-0.989159, 85, 137, 116, 200
-0.98919, 65, 17, 192, 80
-0.989229, 305, 97, 336, 160
-0.989292, 125, 97, 156, 224
-0.9893, 369, 49, 496, 112
-0.989315, 249, 65, 312, 192
-0.98936, 9, 33, 72, 96
-0.989369, 297, 125, 360, 156
-0.989371, 409, 1, 472, 64
-0.989407, 265, 113, 296, 240
-0.989439, 137, 73, 200, 136
-0.989529, 113, 97, 176, 160
-0.989596, 1, 97, 128, 160
-0.989615, 101, 129, 132, 256
-0.989616, 105, 145, 136, 208
-0.989632, 277, 145, 308, 272
-0.989746, 1, 185, 64, 248
-0.989746, 309, 33, 340, 160
-0.989747, 377, 137, 408, 200
-0.989755, 209, 33, 336, 96
-0.989776, 297, 33, 328, 160
-0.989922, 433, 145, 496, 272
-0.989978, 153, 41, 216, 104
-0.990136, 345, 49, 376, 176
-0.990155, 305, 169, 336, 232
-0.990246, 233, 57, 296, 120
-0.990248, 369, 161, 432, 288
-0.99033, 85, 1, 116, 128
-0.990342, 345, 33, 408, 96
-0.990343, 265, 145, 328, 176
-0.99038, 341, 89, 372, 152
-0.990407, 1, 1, 64, 64
-0.990472, 13, 1, 44, 64
-0.990508, 373, 129, 404, 256
-0.990514, 193, 81, 320, 144
-0.990556, 305, 25, 368, 88
-0.990558, 81, 193, 208, 313
-0.990559, 253, 97, 284, 160
-0.99059, 17, 1, 80, 313
-0.990597, 365, 65, 396, 192
-0.990642, 185, 25, 248, 88
-0.990642, 369, 105, 400, 168
-0.99072, 305, 49, 368, 112
-0.990733, 81, 41, 208, 104
-0.99076, 129, 41, 192, 104
-0.99076, 257, 121, 288, 184
-0.990806, 105, 57, 168, 120
-0.990811, 257, 185, 384, 248
-0.990829, 125, 161, 156, 288
-0.990843, 357, 153, 388, 216
-0.990863, 37, 1, 68, 128
-0.990875, 57, 1, 120, 313
-0.990876, 253, 1, 284, 128
-0.990887, 301, 217, 332, 280
-0.990892, 241, 81, 272, 144
-0.990901, 329, 129, 392, 160
-0.990901, 317, 97, 348, 160
-0.990911, 97, 1, 160, 256
-0.99092, 241, 49, 272, 176
-0.990924, 337, 177, 400, 240
-0.990942, 9, 81, 72, 144
-0.991021, 121, 169, 184, 200
-0.991031, 281, 1, 344, 313
-0.991037, 33, 73, 160, 136
-0.99104, 81, 137, 144, 168
-0.991046, 257, 133, 320, 164
-0.991104, 393, 193, 456, 313
-0.991115, 233, 113, 264, 240
-0.991121, 73, 49, 136, 112
-0.991202, 161, 185, 224, 248
-0.991209, 33, 133, 96, 164
-0.991245, 233, 1, 296, 313
-0.99127, 325, 169, 356, 232
-0.991271, 273, 249, 400, 312
-0.991272, 397, 105, 428, 168
-0.991277, 1, 41, 128, 104
-0.991279, 369, 193, 496, 313
-0.99129, 113, 145, 144, 272
-0.991313, 129, 1, 192, 313
-0.991316, 385, 145, 448, 208
-0.991325, 297, 149, 360, 180
-0.991334, 353, 105, 384, 168
-0.991338, 281, 161, 344, 192
-0.991409, 161, 57, 288, 120
-0.991453, 241, 149, 304, 180
-0.991468, 365, 241, 396, 304
-0.991495, 257, 217, 320, 280
-0.991512, 89, 113, 120, 240
-0.991524, 57, 141, 120, 172
-0.99158, 321, 117, 384, 148
-0.9916, 73, 121, 136, 152
-0.991628, 465, 1, 496, 64
-0.991643, 153, 1, 216, 256
-0.991646, 265, 117, 328, 148
-0.991675, 385, 277, 448, 308
-0.9917, 289, 177, 320, 304
-0.991701, 49, 153, 112, 184
-0.991722, 345, 277, 408, 308
-0.991727, 377, 1, 440, 64
-0.991728, 233, 133, 296, 164
-0.991772, 105, 141, 168, 172
-0.991776, 337, 25, 464, 88
-0.991779, 289, 137, 352, 168
-0.991794, 117, 121, 148, 184
-0.991799, 337, 217, 400, 280
-0.991821, 81, 173, 144, 204
-0.991822, 289, 113, 352, 144
-0.991841, 97, 73, 224, 136
-0.99187, 217, 1, 280, 256
-0.99188, 361, 121, 424, 152
-0.991889, 37, 25, 68, 88
-0.991896, 377, 149, 440, 180
-0.991902, 225, 129, 256, 192
-0.991903, 353, 1, 416, 256
-0.991909, 57, 53, 120, 84
-0.99194, 185, 125, 248, 156
-0.991954, 317, 217, 348, 280
-0.991961, 49, 5, 112, 36
-0.991963, 193, 1, 256, 256
-0.991978, 289, 193, 352, 256
-0.99198, 57, 65, 120, 313
-0.992029, 233, 1, 296, 32
-0.992032, 257, 129, 500, 192
-0.992041, 345, 157, 408, 188
-0.992047, 289, 1, 352, 32
-0.992054, 353, 133, 416, 164
-0.992069, 73, 153, 136, 184
-0.992079, 105, 153, 168, 184
-0.992091, 113, 81, 144, 208
-0.992111, 345, 145, 408, 176
-0.992125, 385, 125, 448, 156
-0.992127, 81, 105, 144, 136
-0.99214, 265, 1, 328, 32
-0.992147, 1, 169, 64, 200
-0.992155, 337, 265, 400, 296
-0.992164, 357, 177, 388, 304
-0.992164, 305, 169, 368, 200
-0.992203, 233, 161, 296, 288
-0.992207, 105, 129, 168, 160
-0.992217, 241, 121, 304, 152
-0.99222, 289, 221, 352, 252
-0.992225, 41, 113, 104, 144
-0.99223, 129, 149, 192, 180
-0.992234, 161, 137, 224, 168
-0.992245, 225, 33, 256, 160
-0.992247, 161, 65, 224, 96
-0.992254, 193, 193, 320, 256
-0.992273, 297, 93, 360, 124
-0.992275, 377, 81, 408, 208
-0.992283, 33, 33, 96, 64
-0.992283, 361, 261, 424, 292
-0.992288, 129, 133, 192, 164
-0.992291, 113, 101, 176, 132
-0.992299, 209, 49, 272, 112
-0.992325, 89, 1, 152, 32
-0.992341, 145, 1, 208, 32
-0.992342, 401, 249, 464, 312
-0.992348, 209, 117, 272, 148
-0.992358, 361, 109, 424, 140
-0.992358, 257, 161, 320, 192
-0.992359, 209, 1, 272, 32
-0.992359, 321, 89, 384, 120
-0.99238, 241, 105, 272, 168
-0.99239, 337, 77, 400, 108
-0.992393, 33, 89, 96, 120
-0.992395, 41, 165, 104, 196
-0.992399, 53, 41, 84, 104
-0.992401, 97, 61, 160, 92
-0.992409, 177, 177, 304, 304
-0.992418, 185, 137, 248, 168
-0.992428, 377, 249, 440, 312
-0.992429, 217, 13, 280, 44
-0.992431, 225, 77, 288, 108
-0.992436, 433, 101, 496, 132
-0.992439, 297, 261, 360, 292
-0.992443, 377, 161, 440, 192
-0.992445, 105, 113, 168, 144
-0.992458, 9, 17, 72, 48
-0.992466, 225, 89, 288, 120
-0.992466, 233, 1, 296, 64
-0.992467, 1, 1, 64, 32
-0.99247, 313, 185, 376, 248
-0.99247, 377, 137, 440, 168
-0.992477, 73, 93, 136, 124
-0.992489, 389, 97, 420, 224
-0.992493, 337, 185, 464, 248
-0.992498, 425, 81, 488, 112
-0.992507, 297, 209, 360, 240
-0.99251, 25, 1, 88, 32
-0.992512, 193, 85, 256, 116
-0.992514, 33, 45, 96, 76
-0.992535, 297, 277, 360, 308
-0.992541, 137, 53, 200, 84
-0.992541, 161, 173, 224, 204
-0.992546, 209, 129, 272, 160
-0.992549, 41, 17, 104, 48
-0.992553, 273, 273, 336, 304
-0.992559, 169, 13, 232, 44
-0.992564, 401, 101, 464, 132
-0.992572, 265, 89, 328, 120
-0.992575, 297, 13, 360, 44
-0.992575, 185, 29, 248, 60
-0.992578, 165, 177, 196, 240
-0.99258, 25, 153, 88, 184
-0.992599, 281, 173, 344, 204
-0.992604, 1, 181, 64, 212
-0.992607, 33, 101, 96, 132
-0.99262, 401, 89, 464, 120
-0.992625, 321, 281, 384, 312
-0.992632, 297, 73, 360, 104
-0.992633, 313, 105, 376, 136
-0.992637, 289, 141, 320, 172
-0.992646, 201, 81, 232, 144
-0.992653, 121, 1, 184, 32
-0.992655, 417, 69, 480, 100
-0.992663, 321, 153, 384, 184
-0.99267, 177, 49, 240, 112
-0.992676, 193, 149, 256, 180
-0.992686, 65, 37, 128, 68
-0.992689, 153, 161, 216, 192
-0.992691, 393, 81, 424, 144
-0.992692, 177, 1, 240, 32
-0.992698, 129, 1, 160, 64
-0.992698, 97, 9, 160, 72
-0.992706, 105, 1, 168, 313
-0.992709, 17, 121, 80, 152
-0.992717, 385, 113, 448, 144
-0.99272, 265, 241, 328, 304
-0.992726, 345, 169, 408, 200
-0.992741, 73, 25, 136, 56
-0.992743, 253, 97, 284, 224
-0.992745, 361, 161, 424, 224
-0.992747, 9, 93, 72, 124
-0.992758, 137, 113, 168, 240
-0.992759, 137, 65, 200, 96
-0.992772, 57, 65, 88, 128
-0.992774, 257, 105, 320, 136
-0.992775, 305, 125, 336, 156
-0.992784, 137, 101, 200, 132
-0.992784, 225, 241, 352, 304
-0.992784, 73, 65, 136, 96
-0.992794, 273, 233, 336, 264
-0.992795, 89, 49, 152, 80
-0.992797, 113, 181, 176, 212
-0.992801, 389, 277, 420, 308
-0.992807, 129, 89, 192, 120
-0.992813, 225, 45, 288, 76
-0.992819, 241, 33, 304, 64
-0.99282, 317, 1, 348, 64
-0.992823, 169, 113, 232, 144
-0.992837, 433, 129, 496, 192
-0.992849, 281, 185, 344, 216
-0.992861, 193, 169, 256, 200
-0.992861, 289, 217, 320, 280
-0.992882, 169, 81, 232, 112
-0.992882, 273, 1, 304, 128
-0.992882, 417, 113, 480, 144
-0.992885, 257, 213, 320, 244
-0.992888, 1, 29, 64, 60
-0.992892, 141, 137, 172, 200
-0.992895, 129, 77, 192, 108
-0.992898, 185, 69, 248, 100
-0.992919, 129, 105, 160, 168
-0.992939, 317, 125, 348, 156
-0.992944, 217, 97, 248, 224
-0.992947, 289, 153, 320, 184
-0.992959, 277, 1, 308, 64
-0.992961, 305, 153, 336, 184
-0.992998, 81, 113, 112, 176
-0.993007, 361, 129, 392, 160
-0.993012, 297, 241, 328, 304
-0.993019, 121, 153, 152, 184
-0.993028, 329, 125, 360, 156
-0.993029, 25, 1, 88, 256
-0.993036, 377, 277, 408, 308
-0.993044, 129, 33, 256, 96
-0.993048, 129, 161, 160, 224
-0.99307, 269, 141, 300, 172
-0.993076, 293, 129, 324, 160
-0.993076, 33, 185, 160, 248
-0.993085, 353, 73, 480, 136
-0.993093, 133, 153, 164, 184
-0.993098, 153, 145, 184, 208
-0.993098, 293, 225, 324, 256
-0.9931, 453, 1, 484, 64
-0.993121, 285, 1, 316, 128
-0.993123, 65, 37, 96, 68
-0.993137, 377, 1, 440, 256
-0.99314, 73, 141, 104, 172
-0.993145, 93, 133, 124, 164
-0.993165, 201, 185, 264, 248
-0.993167, 93, 145, 124, 176
-0.993173, 433, 1, 496, 256
-0.993176, 301, 141, 332, 172
-0.993196, 341, 117, 372, 148
-0.993203, 97, 145, 352, 208
-0.993204, 345, 1, 408, 313
-0.993205, 301, 277, 332, 308
-0.993205, 1, 1, 32, 64
-0.993211, 249, 129, 280, 160
-0.993219, 401, 281, 432, 312
-0.99322, 73, 21, 104, 52
-0.993223, 349, 129, 380, 160
-0.993224, 149, 1, 180, 64
-0.993231, 377, 129, 408, 160
-0.993231, 305, 165, 336, 196
-0.993235, 373, 265, 404, 296
-0.993255, 129, 169, 160, 200
-0.993255, 53, 41, 84, 72
-0.993258, 413, 281, 444, 312
-0.993261, 105, 161, 136, 192
-0.993264, 1, 1, 64, 256
-0.993266, 113, 141, 144, 172
-0.993275, 117, 61, 148, 92
-0.993283, 73, 121, 104, 152
-0.993284, 117, 165, 148, 196
-0.993293, 289, 9, 416, 72
-0.993295, 337, 1, 464, 64
-0.993295, 313, 113, 344, 144
-0.993296, 465, 1, 496, 32
-0.993298, 105, 125, 136, 156
-0.993305, 241, 161, 272, 224
-0.993306, 57, 17, 88, 48
-0.993306, 269, 129, 300, 160
-0.993309, 245, 145, 276, 176
-0.993316, 325, 161, 356, 192
-0.993321, 125, 105, 156, 136
-0.993322, 77, 153, 108, 184
-0.993322, 53, 129, 84, 160
-0.993325, 357, 265, 388, 296
-0.993326, 433, 193, 496, 256
-0.993327, 65, 153, 96, 184
-0.993329, 229, 129, 260, 160
-0.993334, 341, 81, 372, 112
-0.993344, 273, 153, 304, 216
-0.993344, 29, 161, 60, 224
-0.993347, 37, 137, 68, 168
-0.993348, 137, 141, 168, 172
-0.993351, 101, 109, 132, 140
-0.993354, 117, 117, 148, 148
-0.993354, 257, 141, 288, 172
-0.993354, 353, 161, 384, 192
-0.993357, 365, 277, 396, 308
-0.993361, 29, 185, 60, 248
-0.993362, 373, 117, 404, 148
-0.993375, 105, 69, 136, 100
-0.993376, 29, 121, 60, 152
-0.993392, 305, 217, 336, 248
-0.9934, 353, 117, 384, 148
-0.993401, 297, 1, 328, 32
-0.993402, 281, 121, 312, 152
-0.99341, 453, 1, 484, 128
-0.993412, 321, 233, 448, 296
-0.993417, 277, 1, 308, 32
-0.993418, 301, 237, 332, 268
-0.993419, 25, 193, 88, 256
-0.993423, 293, 165, 324, 196
-0.993427, 229, 41, 260, 72
-0.993428, 205, 157, 236, 188
-0.993428, 105, 49, 136, 80
-0.993428, 345, 281, 376, 312
-0.993429, 57, 141, 88, 172
-0.993433, 113, 105, 144, 136
-0.993433, 393, 113, 424, 144
-0.993434, 117, 13, 148, 44
-0.993435, 445, 1, 476, 32
-0.993436, 249, 117, 280, 148
-0.993439, 221, 105, 252, 136
-0.993441, 261, 89, 292, 120
-0.993443, 237, 1, 268, 32
-0.993445, 237, 85, 268, 116
-0.993445, 345, 69, 376, 100
-0.993448, 309, 265, 340, 296
-0.993449, 117, 1, 148, 32
-0.99345, 93, 65, 124, 96
-0.99345, 65, 165, 96, 196
-0.993454, 117, 129, 148, 160
-0.993455, 209, 9, 272, 72
-0.993456, 329, 73, 360, 104
-0.993456, 297, 113, 328, 144
-0.993457, 397, 265, 428, 296
-0.99346, 37, 33, 68, 64
-0.99346, 217, 117, 248, 148
-0.99346, 321, 281, 352, 312
-0.993463, 29, 65, 60, 96
-0.993468, 229, 117, 260, 148
-0.99347, 145, 93, 176, 124
-0.99347, 273, 153, 304, 184
-0.99347, 333, 105, 364, 136
-0.993471, 385, 261, 416, 292
-0.993475, 145, 153, 176, 184
-0.993476, 53, 1, 84, 32
-0.993477, 329, 265, 360, 296
-0.993477, 125, 93, 156, 124
-0.993479, 293, 213, 324, 244
-0.993481, 277, 277, 308, 308
-0.993481, 457, 97, 488, 128
-0.993483, 369, 149, 400, 180
-0.993487, 117, 177, 148, 208
-0.993488, 317, 149, 348, 180
-0.993489, 9, 17, 40, 48
-0.993489, 133, 73, 164, 104
-0.993489, 141, 165, 172, 196
-0.993492, 293, 89, 324, 120
-0.993494, 285, 245, 316, 276
-0.993495, 53, 57, 84, 88
-0.993496, 289, 281, 320, 312
-0.993497, 361, 65, 392, 96
-0.993497, 85, 169, 116, 200
-0.993498, 77, 33, 108, 64
-0.993499, 325, 1, 356, 32
-0.993502, 105, 173, 136, 204
-0.993503, 225, 149, 256, 180
-0.993505, 73, 5, 104, 36
-0.993505, 213, 169, 244, 200
-0.993505, 129, 13, 160, 44
-0.993506, 309, 205, 340, 236
-0.993508, 81, 109, 112, 140
-0.993511, 189, 165, 220, 196
-0.993515, 225, 13, 256, 44
-0.993517, 341, 149, 372, 180
-0.993522, 93, 113, 124, 176
-0.993524, 217, 105, 248, 168
-0.993548, 89, 65, 120, 192
-0.993575, 289, 129, 416, 160
-0.993624, 113, 169, 144, 232
-0.993679, 381, 97, 412, 160
-0.993698, 17, 129, 48, 256
-0.993702, 105, 97, 136, 160
-0.993763, 305, 1, 336, 64
-0.99378, 337, 1, 400, 64
-0.993842, 37, 113, 68, 240
-0.993845, 377, 217, 440, 280
-0.993852, 229, 89, 260, 152
-0.993862, 81, 1, 144, 313
-0.993869, 469, 1, 500, 128
-0.993887, 97, 105, 352, 168
-0.993976, 273, 49, 304, 176
-0.993997, 229, 153, 260, 216
-0.994005, 405, 81, 436, 144
-0.994007, 213, 81, 244, 144
-0.994026, 181, 73, 212, 136
-0.994029, 145, 201, 272, 264
-0.994029, 213, 49, 244, 176
-0.994037, 417, 1, 480, 313
-0.994096, 185, 1, 248, 313
-0.994102, 105, 33, 168, 96
-0.994113, 141, 113, 172, 176
-0.994113, 61, 129, 92, 192
-0.994113, 161, 1, 224, 313
-0.994191, 401, 25, 464, 88
-0.994191, 73, 1, 104, 64
-0.994198, 409, 153, 472, 216
-0.99422, 337, 1, 368, 128
-0.994237, 149, 1, 180, 128
-0.994244, 129, 33, 192, 288
-0.994247, 409, 185, 472, 248
-0.994252, 185, 49, 216, 176
-0.994268, 37, 129, 68, 192
-0.994278, 269, 105, 300, 168
-0.994299, 169, 1, 200, 128
-0.994328, 369, 233, 496, 296
-0.99433, 225, 217, 352, 280
-0.99436, 369, 177, 400, 304
-0.994429, 121, 1, 152, 128
-0.994447, 257, 105, 500, 168
-0.994459, 73, 49, 104, 176
-0.994459, 73, 137, 104, 200
-0.994466, 73, 97, 104, 224
-0.994467, 393, 57, 424, 120
-0.99448, 209, 161, 272, 288
-0.994501, 377, 1, 440, 128
-0.994528, 205, 113, 236, 240
-0.994597, 125, 49, 156, 176
-0.994633, 369, 41, 432, 104
-0.994654, 453, 81, 484, 208
-0.994658, 357, 185, 388, 248
-0.994672, 345, 241, 376, 304
-0.994737, 369, 209, 496, 272
-0.994751, 181, 153, 212, 216
-0.994784, 165, 145, 196, 272
-0.994847, 97, 201, 224, 264
-0.994888, 133, 81, 164, 144
-0.994902, 101, 73, 132, 136
-0.994904, 409, 113, 440, 176
-0.994912, 249, 193, 312, 256
-0.994915, 137, 193, 200, 256
-0.99495, 233, 57, 264, 120
-0.994967, 153, 113, 184, 176
-0.994974, 377, 241, 408, 304
-0.994983, 105, 1, 136, 64
-0.994985, 173, 81, 204, 208
-0.994995, 85, 65, 116, 128
-0.995, 333, 145, 364, 208
-0.995037, 301, 129, 316, 192
-0.995048, 205, 1, 236, 64
-0.995048, 81, 177, 144, 240
-0.995091, 49, 161, 80, 224
-0.995103, 77, 41, 108, 104
-0.995105, 449, 49, 480, 112
-0.995115, 261, 73, 292, 136
-0.995138, 307, 121, 322, 184
-0.995144, 1, 121, 500, 184
-0.995192, 25, 33, 56, 160
-0.995194, 397, 49, 428, 176
-0.995201, 309, 57, 340, 120
-0.99523, 25, 17, 56, 80
-0.995237, 313, 249, 344, 312
-0.99525, 291, 129, 306, 192
-0.995259, 69, 105, 100, 168
-0.995286, 469, 49, 500, 176
-0.995293, 441, 1, 472, 128
-0.99531, 1, 137, 256, 200
-0.995313, 409, 33, 472, 288
-0.995338, 209, 149, 336, 180
-0.995379, 1, 209, 64, 272
-0.995386, 369, 1, 432, 313
-0.995463, 425, 1, 456, 128
-0.995464, 5, 105, 36, 168
-0.995478, 137, 33, 168, 160
-0.995478, 201, 105, 232, 168
-0.995493, 357, 25, 388, 88
-0.995507, 265, 1, 296, 64
-0.995513, 193, 153, 448, 216
-0.995538, 89, 1, 120, 64
-0.995561, 97, 209, 160, 272
-0.99558, 321, 209, 448, 272
-0.995615, 53, 105, 84, 168
-0.995629, 457, 73, 488, 136
-0.995634, 29, 57, 60, 120
-0.995641, 149, 113, 180, 240
-0.995694, 1, 169, 256, 232
-0.995702, 33, 157, 160, 188
-0.995704, 457, 25, 488, 88
-0.995726, 321, 73, 352, 136
-0.995732, 349, 1, 380, 128
-0.995749, 293, 193, 324, 256
-0.995783, 405, 57, 436, 120
-0.995788, 197, 49, 228, 176
-0.995872, 1, 81, 500, 144
-0.995897, 209, 1, 272, 313
-0.995909, 165, 33, 196, 96
-0.995912, 1, 1, 32, 128
-0.995917, 245, 145, 276, 272
-0.995926, 177, 1, 208, 64
-0.995957, 165, 1, 196, 64
-0.995966, 273, 141, 400, 172
-0.995986, 169, 65, 200, 128
-0.996005, 285, 129, 300, 192
-0.996006, 161, 1, 416, 64
-0.996006, 161, 49, 192, 176
-0.996044, 81, 89, 112, 152
-0.99605, 389, 129, 420, 192
-0.996079, 193, 57, 224, 120
-0.996084, 65, 1, 320, 64
-0.996089, 225, 73, 480, 136
-0.996091, 41, 1, 72, 64
-0.996109, 37, 177, 68, 304
-0.996115, 241, 129, 368, 160
-0.996139, 181, 129, 212, 256
-0.996165, 321, 121, 336, 184
-0.996167, 355, 121, 370, 184
-0.996186, 257, 177, 500, 240
-0.996187, 293, 57, 324, 120
-0.996188, 113, 193, 144, 313
-0.996206, 321, 145, 352, 208
-0.99622, 437, 57, 468, 120
-0.99622, 177, 177, 208, 240
-0.996261, 289, 273, 416, 304
-0.996302, 285, 81, 316, 144
-0.996306, 309, 145, 324, 208
-0.99631, 257, 1, 500, 64
-0.996322, 5, 113, 36, 240
-0.996326, 381, 65, 412, 128
-0.996326, 213, 137, 244, 200
-0.996365, 377, 193, 440, 256
-0.996371, 141, 137, 156, 200
-0.996382, 393, 1, 456, 313
-0.996388, 33, 25, 288, 88
-0.996427, 289, 117, 416, 148
-0.996436, 369, 121, 496, 152
-0.996437, 313, 113, 328, 176
-0.996452, 257, 165, 384, 196
-0.996468, 17, 81, 48, 208
-0.996472, 295, 153, 310, 216
-0.996472, 441, 81, 472, 208
-0.996476, 365, 129, 380, 192
-0.996489, 53, 161, 84, 288
-0.996506, 17, 129, 144, 160
-0.996527, 117, 145, 132, 208
-0.996529, 103, 137, 118, 200
-0.996531, 333, 97, 348, 160
-0.996534, 33, 145, 160, 176
-0.996583, 57, 49, 88, 176
-0.996589, 417, 193, 480, 313
-0.996592, 349, 121, 364, 184
-0.996592, 131, 137, 146, 200
-0.996613, 429, 65, 460, 192
-0.996617, 209, 113, 336, 144
-0.99663, 321, 149, 448, 180
-0.99665, 113, 121, 128, 184
-0.996663, 209, 161, 336, 192
-0.996665, 153, 177, 184, 304
-0.996673, 125, 145, 140, 208
-0.996684, 73, 161, 104, 288
-0.996694, 81, 145, 208, 176
-0.996707, 253, 49, 284, 176
-0.996708, 17, 57, 80, 120
-0.996712, 79, 137, 94, 200
-0.996713, 393, 193, 424, 313
-0.996724, 345, 97, 360, 160
-0.996732, 337, 121, 352, 184
-0.996739, 369, 137, 496, 168
-0.996769, 205, 1, 236, 128
-0.996773, 177, 137, 304, 168
-0.996775, 129, 81, 384, 144
-0.996785, 119, 121, 134, 184
-0.996802, 81, 125, 208, 156
-0.996816, 65, 225, 192, 288
-0.996823, 225, 41, 480, 104
-0.99684, 371, 129, 386, 192
-0.996841, 17, 225, 144, 288
-0.996844, 325, 97, 340, 160
-0.996872, 9, 177, 40, 304
-0.996875, 417, 217, 480, 280
-0.996884, 289, 101, 416, 132
-0.996884, 89, 113, 104, 176
-0.996887, 137, 161, 168, 288
-0.996917, 105, 1, 136, 128
-0.996918, 329, 121, 344, 184
-0.996938, 65, 57, 320, 120
-0.996943, 301, 105, 316, 168
-0.996947, 97, 185, 352, 248
-0.996958, 289, 153, 304, 216
-0.996992, 369, 105, 384, 168
-0.996998, 89, 161, 120, 288
-0.997025, 385, 145, 416, 272
-0.997031, 73, 1, 88, 64
-0.997034, 319, 97, 334, 160
-0.997047, 273, 153, 400, 184
-0.997047, 1, 145, 500, 208
-0.997056, 291, 105, 306, 168
-0.997082, 73, 33, 88, 96
-0.997101, 15, 1, 30, 64
-0.997107, 353, 97, 480, 128
-0.997122, 161, 97, 192, 224
-0.997124, 343, 121, 358, 184
-0.997137, 95, 121, 110, 184
-0.997138, 339, 97, 354, 160
-0.99714, 257, 217, 500, 280
-0.997141, 25, 177, 56, 304
-0.997156, 1, 117, 128, 148
-0.997159, 89, 137, 104, 200
-0.997161, 377, 129, 392, 192
-0.997162, 109, 145, 124, 208
-0.997179, 79, 49, 94, 112
-0.99719, 65, 61, 192, 92
-0.9972, 273, 85, 400, 116
-0.997213, 241, 1, 272, 128
-0.997214, 309, 89, 324, 152
-0.997222, 177, 225, 304, 288
-0.997226, 241, 129, 256, 192
-0.997231, 325, 65, 356, 313
-0.997237, 353, 109, 480, 140
-0.99724, 79, 97, 94, 160
-0.997244, 337, 277, 464, 308
-0.997262, 415, 97, 430, 160
-0.997265, 129, 25, 384, 88
-0.997305, 337, 65, 368, 313
-0.997308, 275, 113, 290, 176
-0.997308, 297, 225, 312, 288
-0.997308, 97, 161, 224, 192
-0.997312, 289, 261, 416, 292
-0.997314, 149, 65, 180, 192
-0.997316, 465, 97, 496, 224
-0.997334, 407, 113, 422, 176
-0.997348, 37, 65, 68, 192
-0.997363, 23, 1, 38, 64
-0.997372, 361, 153, 376, 216
-0.997381, 337, 169, 352, 232
-0.997383, 347, 169, 362, 232
-0.997391, 193, 97, 224, 224
-0.997406, 101, 113, 116, 176
-0.99741, 139, 113, 154, 176
-0.997426, 67, 9, 82, 72
-0.997429, 79, 9, 94, 72
-0.997433, 33, 81, 288, 144
-0.99744, 281, 97, 296, 160
-0.997444, 355, 161, 370, 224
-0.997446, 315, 137, 330, 200
-0.99745, 301, 153, 316, 216
-0.997455, 181, 1, 212, 128
-0.997457, 13, 33, 44, 160
-0.997467, 193, 21, 320, 52
-0.997471, 251, 121, 266, 184
-0.997478, 381, 105, 396, 168
-0.997487, 137, 161, 152, 224
-0.997494, 129, 113, 144, 176
-0.997496, 295, 141, 310, 172
-0.997523, 409, 49, 440, 176
-0.997541, 41, 185, 56, 248
-0.997542, 1, 105, 128, 136
-0.997551, 193, 125, 320, 156
-0.997554, 193, 177, 320, 208
-0.997554, 351, 97, 366, 160
-0.997557, 357, 97, 372, 160
-0.997575, 145, 53, 272, 84
-0.997579, 129, 149, 256, 180
-0.997581, 235, 129, 250, 192
-0.997591, 273, 225, 400, 256
-0.997607, 379, 249, 394, 312
-0.997611, 331, 169, 346, 232
-0.997621, 257, 1, 384, 32
-0.997624, 33, 177, 160, 208
-0.997626, 273, 181, 400, 212
-0.997632, 373, 241, 388, 304
-0.997647, 455, 41, 470, 104
-0.997648, 459, 1, 474, 64
-0.997652, 1, 113, 256, 176
-0.997657, 315, 225, 330, 288
-0.997684, 323, 209, 338, 272
-0.997687, 59, 129, 74, 192
-0.997693, 73, 73, 88, 136
-0.997696, 107, 113, 122, 176
-0.997697, 305, 1, 320, 64
-0.9977, 283, 153, 298, 216
-0.997703, 53, 17, 68, 80
-0.997703, 225, 249, 480, 312
-0.997704, 433, 153, 496, 216
-0.997704, 309, 65, 340, 313
-0.997706, 135, 161, 150, 192
-0.997708, 363, 97, 378, 160
-0.997717, 399, 81, 414, 144
-0.997717, 129, 137, 256, 168
-0.997718, 131, 169, 146, 232
-0.997719, 257, 13, 384, 44
-0.997722, 161, 209, 416, 272
-0.997725, 369, 49, 496, 80
-0.997727, 147, 137, 162, 200
-0.997727, 97, 113, 224, 144
-0.997737, 393, 249, 408, 312
-0.997743, 119, 169, 134, 232
-0.997745, 271, 137, 286, 200
-0.997745, 313, 169, 328, 232
-0.997745, 67, 129, 82, 192
-0.997747, 241, 273, 368, 304
-0.997748, 449, 129, 480, 256
-0.997761, 309, 121, 324, 152
-0.997762, 259, 97, 274, 160
-0.997763, 209, 1, 336, 32
-0.997763, 1, 21, 128, 52
-0.99777, 179, 145, 194, 208
-0.997809, 243, 105, 258, 168
-0.997811, 251, 81, 266, 144
-0.997813, 305, 153, 320, 184
-0.997826, 375, 97, 390, 160
-0.997827, 353, 69, 480, 100
-0.99783, 33, 45, 160, 76
-0.99783, 241, 97, 368, 128
-0.997834, 369, 161, 384, 224
-0.997835, 73, 97, 88, 160
-0.997842, 129, 161, 144, 192
-0.997843, 81, 29, 208, 60
-0.997843, 13, 105, 28, 168
-0.997845, 337, 81, 464, 112
-0.997853, 17, 81, 144, 112
-0.997859, 321, 161, 448, 192
-0.997859, 209, 85, 336, 116
-0.99786, 415, 57, 430, 120
-0.997861, 49, 105, 176, 136
-0.997862, 209, 45, 336, 76
-0.997863, 231, 97, 246, 160
-0.997877, 343, 145, 358, 208
-0.997877, 65, 9, 192, 40
-0.997879, 325, 57, 340, 120
-0.997886, 301, 133, 316, 164
-0.997903, 307, 169, 322, 232
-0.997906, 321, 161, 336, 224
-0.997906, 333, 125, 348, 156
-0.997909, 483, 49, 498, 112
-0.997913, 459, 81, 474, 144
-0.997915, 145, 125, 272, 156
-0.997919, 81, 49, 208, 80
-0.997924, 125, 169, 140, 232
-0.997926, 393, 277, 408, 308
-0.997927, 277, 145, 292, 208
-0.997932, 483, 9, 498, 72
-0.997933, 237, 49, 252, 112
-0.997937, 169, 169, 184, 232
-0.997939, 405, 89, 420, 152
-0.997945, 299, 185, 314, 248
-0.997954, 65, 73, 192, 104
-0.99796, 317, 57, 332, 120
-0.997961, 189, 137, 204, 200
-0.997963, 135, 1, 150, 64
-0.99797, 97, 145, 112, 208
-0.99797, 289, 37, 416, 68
-0.997971, 35, 193, 50, 256
-0.997972, 267, 105, 282, 168
-0.997973, 81, 73, 96, 136
-0.997973, 265, 145, 280, 208
-0.997976, 291, 57, 306, 120
-0.997976, 129, 145, 144, 176
-0.997976, 53, 145, 68, 208
-0.997979, 307, 209, 322, 272
-0.997982, 285, 65, 300, 128
-0.997992, 145, 25, 272, 56
-0.997994, 145, 113, 160, 176
-0.997997, 389, 97, 404, 160
-0.998002, 161, 9, 288, 40
-0.998003, 271, 1, 286, 64
-0.99801, 173, 1, 188, 64
-0.998012, 385, 129, 400, 192
-0.998019, 285, 149, 300, 180
-0.998027, 1, 9, 128, 40
-0.998031, 161, 85, 288, 116
-0.998034, 17, 61, 144, 92
-0.99805, 65, 93, 192, 124
-0.99806, 257, 25, 384, 56
-0.998066, 225, 161, 256, 288
-0.998074, 121, 173, 136, 204
-0.998081, 209, 33, 336, 64
-0.998081, 129, 173, 256, 204
-0.998091, 139, 149, 154, 180
-0.998093, 353, 65, 384, 313
-0.998108, 369, 165, 496, 196
-0.998125, 129, 41, 256, 72
-0.998145, 161, 105, 288, 136
-0.998157, 93, 137, 108, 168
-0.998164, 305, 69, 432, 100
-0.998165, 437, 161, 468, 288
-0.998174, 321, 1, 448, 32
-0.998175, 265, 161, 296, 288
-0.998177, 53, 97, 84, 224
-0.99818, 145, 65, 272, 96
-0.998193, 193, 189, 320, 220
-0.998207, 311, 149, 326, 180
-0.998215, 87, 153, 102, 184
-0.998227, 379, 273, 394, 304
-0.998229, 225, 57, 352, 88
-0.99823, 381, 193, 412, 313
-0.998232, 1, 169, 500, 232
-0.998235, 103, 133, 118, 164
-0.998241, 79, 145, 94, 176
-0.998242, 1, 249, 128, 312
-0.998242, 315, 121, 330, 152
-0.998244, 193, 145, 224, 272
-0.998265, 399, 273, 414, 304
-0.998268, 367, 129, 382, 160
-0.998269, 1, 65, 32, 192
-0.99827, 281, 133, 296, 164
-0.998271, 409, 281, 424, 312
-0.998279, 323, 121, 338, 152
-0.998288, 337, 13, 464, 44
-0.998303, 341, 129, 356, 160
-0.99831, 93, 127, 124, 142
-0.998311, 81, 119, 112, 134
-0.998311, 29, 195, 60, 210
-0.998312, 297, 1, 328, 256
-0.998313, 241, 83, 272, 98
-0.998313, 65, 151, 96, 166
-0.998314, 409, 107, 440, 122
-0.998314, 1, 193, 256, 256
-0.998315, 309, 149, 340, 164
-0.998315, 113, 73, 144, 88
-0.998315, 329, 87, 360, 102
-0.998316, 37, 147, 68, 162
-0.998316, 97, 73, 128, 88
-0.998316, 77, 153, 108, 168
-0.998316, 319, 109, 334, 140
-0.998317, 221, 155, 252, 170
-0.998318, 245, 141, 276, 156
-0.998318, 101, 117, 132, 132
-0.998319, 257, 155, 288, 170
-0.998319, 329, 275, 360, 290
-0.998319, 369, 289, 400, 304
-0.998319, 317, 159, 348, 174
-0.99832, 117, 141, 148, 156
-0.998321, 73, 27, 104, 42
-0.998322, 365, 133, 396, 148
-0.998322, 53, 73, 84, 88
-0.998323, 261, 87, 292, 102
-0.998323, 257, 147, 288, 162
-0.998323, 429, 113, 460, 240
-0.998324, 353, 125, 384, 140
-0.998324, 233, 151, 264, 166
-0.998324, 321, 285, 352, 300
-0.998325, 377, 135, 408, 150
-0.998326, 337, 297, 368, 312
-0.998326, 277, 293, 308, 308
-0.998326, 73, 41, 104, 56
-0.998326, 109, 157, 140, 172
-0.998326, 85, 139, 116, 154
-0.998326, 121, 113, 152, 128
-0.998326, 305, 275, 336, 290
-0.998326, 385, 291, 416, 306
-0.998327, 125, 175, 156, 190
-0.998327, 293, 223, 324, 238
-0.998328, 341, 267, 372, 282
-0.998328, 341, 279, 372, 294
-0.998329, 117, 137, 132, 168
-0.99833, 377, 129, 408, 144
-0.99833, 73, 135, 104, 150
-0.99833, 285, 125, 316, 140
-0.998331, 201, 115, 232, 130
-0.998332, 85, 159, 116, 174
-0.998332, 65, 21, 96, 36
-0.998332, 385, 265, 416, 280
-0.998334, 365, 271, 396, 286
-0.998335, 41, 153, 72, 168
-0.998335, 325, 297, 356, 312
-0.998335, 293, 273, 324, 288
-0.998336, 285, 131, 316, 146
-0.998337, 297, 143, 328, 158
-0.998337, 329, 161, 360, 176
-0.998337, 305, 161, 336, 176
-0.998338, 373, 263, 404, 278
-0.998338, 309, 121, 340, 136
-0.998339, 117, 123, 148, 138
-0.998339, 337, 37, 464, 68
-0.99834, 429, 289, 460, 304
-0.99834, 45, 43, 76, 58
-0.998341, 117, 129, 148, 144
-0.998342, 309, 269, 340, 284
-0.998342, 465, 1, 496, 16
-0.998342, 365, 127, 396, 142
-0.998342, 293, 285, 324, 300
-0.998342, 123, 157, 138, 188
-0.998342, 113, 179, 144, 194
-0.998343, 401, 271, 432, 286
-0.998344, 97, 141, 128, 156
-0.998344, 361, 281, 392, 296
-0.998345, 69, 141, 100, 156
-0.998347, 317, 291, 348, 306
-0.99835, 137, 149, 168, 164
-0.998351, 125, 167, 156, 182
-0.998351, 97, 135, 128, 150
-0.998351, 193, 281, 320, 312
-0.998352, 337, 285, 368, 300
-0.998352, 341, 123, 372, 138
-0.998352, 321, 121, 352, 136
-0.998353, 85, 147, 116, 162
-0.998353, 245, 159, 276, 174
-0.998354, 277, 153, 308, 168
-0.998355, 113, 173, 144, 188
-0.998355, 397, 297, 428, 312
-0.998355, 137, 169, 168, 184
-0.99836, 309, 165, 324, 196
-0.99836, 85, 141, 100, 172
-0.998361, 257, 137, 288, 152
-0.998361, 289, 161, 320, 176
-0.998363, 53, 135, 84, 150
-0.998364, 289, 149, 320, 164
-0.998364, 289, 137, 320, 152
-0.998366, 273, 237, 400, 268
-0.998369, 105, 125, 136, 140
-0.99837, 61, 37, 92, 52
-0.998373, 73, 35, 104, 50
-0.998374, 113, 93, 240, 124
-0.998376, 53, 149, 84, 164
-0.99838, 301, 291, 332, 306
-0.998384, 305, 133, 336, 148
-0.998384, 269, 147, 300, 162
-0.998385, 373, 129, 388, 160
-0.998387, 49, 249, 176, 312
-0.998388, 381, 285, 412, 300
-0.998389, 319, 153, 334, 184
-0.998394, 373, 295, 404, 310
-0.998394, 125, 161, 156, 176
-0.998397, 385, 1, 416, 128
-0.998399, 385, 273, 400, 304
-0.998399, 245, 137, 260, 168
-0.9984, 409, 277, 440, 292
-0.998401, 77, 25, 92, 56
-0.998402, 289, 291, 320, 306
-0.998407, 317, 279, 348, 294
-0.998408, 305, 285, 336, 300
-0.998408, 373, 277, 404, 292
-0.998409, 29, 1, 60, 256
-0.998409, 65, 159, 96, 174
-0.99841, 81, 93, 96, 124
-0.998412, 137, 155, 168, 170
-0.998414, 61, 43, 92, 58
-0.998415, 289, 155, 320, 170
-0.998416, 301, 297, 332, 312
-0.998417, 381, 271, 412, 286
-0.998417, 225, 73, 352, 104
-0.99842, 255, 145, 270, 176
-0.998422, 337, 25, 464, 56
-0.998422, 277, 137, 308, 152
-0.998425, 353, 131, 384, 146
-0.998425, 67, 17, 82, 48
-0.998426, 105, 151, 136, 166
-0.998426, 425, 283, 456, 298
-0.998428, 109, 133, 124, 164
-0.99843, 117, 147, 148, 162
-0.998434, 317, 127, 348, 142
-0.998436, 121, 155, 152, 170
-0.998437, 73, 5, 88, 36
-0.998438, 127, 173, 142, 204
-0.998439, 409, 293, 440, 308
-0.99844, 393, 285, 424, 300
-0.998445, 321, 49, 448, 80
-0.998448, 333, 129, 364, 144
-0.998452, 289, 297, 320, 312
-0.998454, 1, 57, 500, 120
-0.998457, 337, 265, 464, 296
-0.998457, 301, 217, 316, 248
-0.998457, 379, 261, 394, 292
-0.998459, 421, 297, 452, 312
-0.998463, 385, 297, 416, 312
-0.998464, 385, 277, 416, 292
-0.998465, 119, 125, 134, 156
-0.998467, 397, 279, 428, 294
-0.998475, 357, 121, 372, 152
-0.998477, 97, 185, 224, 216
-0.998482, 397, 291, 428, 306
-0.998485, 73, 37, 88, 68
-0.998486, 305, 155, 336, 170
-0.998489, 277, 193, 308, 313
-0.99849, 277, 1, 308, 256
-0.998505, 113, 1, 240, 32
-0.998511, 305, 127, 336, 142
-0.998513, 297, 127, 360, 142
-0.998514, 295, 129, 310, 160
-0.998523, 285, 143, 316, 158
-0.998524, 273, 57, 400, 88
-0.998525, 77, 157, 92, 188
-0.998527, 413, 283, 444, 298
-0.998527, 17, 93, 144, 124
-0.998529, 257, 145, 320, 160
-0.998529, 277, 145, 292, 176
-0.998529, 369, 65, 400, 313
-0.99853, 273, 213, 400, 244
-0.998531, 425, 277, 440, 308
-0.998533, 117, 149, 132, 180
-0.998537, 257, 151, 320, 166
-0.998537, 123, 145, 138, 176
-0.998543, 347, 117, 362, 148
-0.998544, 349, 129, 364, 160
-0.998544, 311, 109, 326, 140
-0.998544, 127, 105, 142, 136
-0.998551, 57, 1, 88, 256
-0.998553, 329, 131, 392, 146
-0.998557, 297, 159, 360, 174
-0.998558, 385, 291, 448, 306
-0.998559, 67, 41, 82, 72
-0.998564, 79, 133, 94, 164
-0.998564, 289, 133, 304, 164
-0.998568, 257, 137, 320, 152
-0.99857, 385, 297, 448, 312
-0.998571, 369, 153, 496, 184
-0.998573, 67, 137, 82, 168
-0.998577, 117, 109, 132, 140
-0.998577, 225, 233, 352, 264
-0.998579, 281, 1, 296, 32
-0.998581, 265, 141, 280, 172
-0.998582, 265, 81, 280, 112
-0.998585, 265, 157, 328, 172
-0.998594, 281, 145, 344, 160
-0.998598, 321, 173, 448, 204
-0.998599, 109, 145, 124, 176
-0.998599, 385, 281, 448, 296
-0.998605, 339, 81, 354, 112
-0.998606, 233, 141, 296, 156
-0.998607, 475, 1, 490, 32
-0.998607, 371, 265, 386, 296
-0.998608, 33, 147, 96, 162
-0.998608, 57, 147, 120, 162
-0.998609, 297, 153, 360, 168
-0.998613, 9, 35, 72, 50
-0.998615, 265, 161, 280, 192
-0.998615, 361, 297, 424, 312
-0.998616, 33, 217, 288, 280
-0.998616, 257, 123, 320, 138
-0.998616, 257, 131, 320, 146
-0.998616, 113, 77, 240, 108
-0.998618, 113, 181, 176, 196
-0.99862, 329, 113, 344, 144
-0.998621, 289, 137, 352, 152
-0.998621, 281, 295, 344, 310
-0.998622, 445, 1, 460, 32
-0.998622, 369, 127, 432, 142
-0.998623, 303, 233, 318, 264
-0.998625, 295, 229, 310, 260
-0.998625, 299, 153, 314, 184
-0.998625, 241, 261, 368, 292
-0.998626, 339, 117, 354, 148
-0.998629, 361, 277, 424, 292
-0.99863, 41, 175, 104, 190
-0.99863, 361, 283, 424, 298
-0.99863, 367, 113, 382, 144
-0.99863, 133, 177, 148, 208
-0.998632, 145, 161, 272, 192
-0.998633, 185, 137, 248, 152
-0.998635, 93, 125, 108, 156
-0.998637, 81, 137, 144, 152
-0.998638, 305, 167, 368, 182
-0.998641, 105, 161, 168, 176
-0.998642, 409, 287, 472, 302
-0.998642, 297, 279, 360, 294
-0.998644, 305, 121, 368, 136
-0.998645, 129, 133, 144, 164
-0.998647, 33, 111, 96, 126
-0.99865, 385, 109, 448, 124
-0.99865, 9, 107, 72, 122
-0.998651, 65, 131, 128, 146
-0.998652, 361, 291, 424, 306
-0.998652, 41, 91, 104, 106
-0.998652, 321, 273, 384, 288
-0.998653, 97, 121, 160, 136
-0.998653, 113, 167, 176, 182
-0.998653, 73, 121, 136, 136
-0.998653, 353, 133, 416, 148
-0.998654, 291, 153, 306, 184
-0.998654, 193, 161, 256, 176
-0.998655, 97, 143, 160, 158
-0.998655, 315, 165, 330, 196
-0.998655, 33, 153, 96, 168
-0.998655, 297, 285, 360, 300
-0.998657, 65, 1, 128, 16
-0.998657, 17, 43, 80, 58
-0.998658, 135, 133, 150, 164
-0.998658, 257, 291, 320, 306
-0.998658, 129, 175, 192, 190
-0.998659, 273, 163, 336, 178
-0.998659, 305, 297, 368, 312
-0.998659, 337, 291, 400, 306
-0.998659, 233, 151, 296, 166
-0.99866, 297, 267, 360, 282
-0.99866, 145, 159, 208, 174
-0.99866, 33, 141, 96, 156
-0.998662, 57, 105, 120, 120
-0.998662, 393, 117, 456, 132
-0.998662, 89, 151, 152, 166
-0.998662, 377, 145, 440, 160
-0.998662, 153, 141, 216, 156
-0.998663, 33, 37, 96, 52
-0.998663, 185, 131, 248, 146
-0.998664, 41, 99, 104, 114
-0.998665, 57, 141, 120, 156
-0.998668, 97, 71, 160, 86
-0.998668, 1, 175, 64, 190
-0.998668, 297, 77, 360, 92
-0.998668, 129, 151, 192, 166
-0.998669, 61, 41, 76, 72
-0.998669, 373, 117, 388, 148
-0.99867, 233, 157, 296, 172
-0.99867, 17, 159, 80, 174
-0.99867, 33, 27, 96, 42
-0.998671, 329, 125, 392, 140
-0.998672, 417, 297, 480, 312
-0.998672, 93, 153, 108, 184
-0.998672, 25, 1, 88, 16
-0.998672, 337, 153, 400, 168
-0.998673, 337, 77, 400, 92
-0.998673, 343, 93, 358, 124
-0.998673, 97, 127, 160, 142
-0.998674, 337, 265, 400, 280
-0.998674, 41, 181, 104, 196
-0.998675, 345, 159, 408, 174
-0.998676, 257, 93, 320, 108
-0.998676, 121, 61, 184, 76
-0.998676, 361, 115, 424, 130
-0.998677, 115, 173, 130, 204
-0.998677, 305, 109, 368, 124
-0.998677, 425, 97, 488, 112
-0.998678, 65, 157, 128, 172
-0.998678, 9, 147, 72, 162
-0.998678, 145, 165, 208, 180
-0.998679, 73, 113, 136, 128
-0.998679, 233, 97, 296, 112
-0.998679, 73, 91, 136, 106
-0.99868, 217, 89, 280, 104
-0.998681, 273, 271, 336, 286
-0.998682, 73, 25, 136, 40
-0.998682, 297, 85, 360, 100
-0.998683, 307, 133, 322, 164
-0.998683, 41, 135, 104, 150
-0.998683, 141, 161, 156, 192
-0.998683, 353, 121, 416, 136
-0.998684, 57, 11, 120, 26
-0.998684, 33, 51, 96, 66
-0.998685, 209, 151, 272, 166
-0.998685, 257, 1, 320, 16
-0.998685, 153, 71, 216, 86
-0.998686, 377, 139, 440, 154
-0.998686, 265, 169, 328, 184
-0.998686, 137, 135, 200, 150
-0.998686, 81, 177, 144, 192
-0.998687, 1, 187, 64, 202
-0.998687, 369, 271, 432, 286
-0.998687, 389, 133, 404, 164
-0.998687, 257, 285, 320, 300
-0.998687, 237, 133, 252, 164
-0.998687, 41, 167, 104, 182
-0.998688, 409, 109, 472, 124
-0.998688, 321, 161, 384, 176
-0.998688, 347, 81, 362, 112
-0.998688, 153, 177, 216, 192
-0.998689, 153, 97, 216, 112
-0.998689, 281, 17, 344, 32
-0.998689, 33, 19, 96, 34
-0.99869, 233, 135, 296, 150
-0.99869, 1, 29, 64, 44
-0.998691, 129, 67, 192, 82
-0.998691, 169, 3, 232, 18
-0.998691, 225, 125, 288, 140
-0.998691, 209, 143, 272, 158
-0.998691, 273, 117, 336, 132
-0.998691, 297, 31, 360, 46
-0.998691, 125, 189, 140, 220
-0.998691, 401, 101, 464, 116
-0.998691, 1, 169, 64, 184
-0.998692, 115, 161, 130, 192
-0.998692, 379, 137, 394, 168
-0.998693, 129, 1, 160, 256
-0.998693, 273, 133, 288, 164
-0.998693, 99, 145, 114, 176
-0.998699, 393, 113, 408, 144
-0.9987, 369, 1, 496, 32
-0.998702, 271, 149, 286, 180
-0.998704, 377, 97, 392, 128
-0.998708, 99, 121, 114, 152
-0.998719, 241, 117, 256, 148
-0.998732, 389, 261, 404, 292
-0.998732, 255, 117, 270, 148
-0.998736, 257, 1, 288, 256
-0.998737, 109, 69, 124, 100
-0.998742, 247, 149, 262, 180
-0.998748, 323, 273, 338, 304
-0.998749, 333, 281, 348, 312
-0.998751, 309, 269, 324, 300
-0.998752, 161, 249, 288, 312
-0.998752, 307, 217, 322, 248
-0.998754, 207, 145, 222, 176
-0.998755, 305, 89, 320, 120
-0.998757, 173, 193, 204, 313
-0.998758, 91, 1, 106, 32
-0.998761, 261, 129, 276, 160
-0.998762, 401, 113, 416, 144
-0.998766, 33, 33, 160, 64
-0.998766, 35, 141, 50, 172
-0.998766, 233, 1, 248, 32
-0.998767, 129, 241, 384, 304
-0.99877, 357, 69, 372, 100
-0.998771, 125, 117, 140, 148
-0.998774, 61, 13, 76, 44
-0.998775, 289, 249, 416, 280
-0.998776, 109, 121, 124, 152
-0.998777, 87, 129, 102, 160
-0.998778, 145, 141, 160, 172
-0.99878, 355, 161, 370, 192
-0.998782, 73, 97, 88, 128
-0.998786, 293, 45, 308, 76
-0.998791, 255, 157, 270, 188
-0.998796, 401, 97, 416, 128
-0.998798, 113, 13, 240, 44
-0.998798, 219, 165, 234, 196
-0.998799, 45, 1, 76, 256
-0.998802, 217, 113, 232, 144
-0.99885, 113, 65, 144, 313
-0.998881, 321, 213, 448, 244
-0.998903, 355, 113, 370, 240
-0.998911, 307, 113, 322, 240
-0.998917, 145, 197, 272, 228
-0.998925, 77, 65, 108, 313
-0.998936, 361, 1, 392, 128
-0.998937, 301, 129, 316, 256
-0.99896, 469, 161, 500, 288
-0.998962, 307, 161, 322, 288
-0.998968, 313, 97, 328, 224
-0.998976, 337, 253, 464, 284
-0.998982, 113, 225, 240, 288
-0.998982, 321, 201, 448, 232
-0.998995, 321, 113, 336, 240
-0.999001, 241, 249, 368, 280
-0.999012, 257, 193, 384, 224
-0.999014, 329, 113, 344, 240
-0.999044, 193, 217, 320, 248
-0.999047, 335, 113, 350, 240
-0.999047, 89, 65, 120, 313
-0.999064, 17, 1, 48, 256
-0.999068, 409, 1, 440, 128
-0.999073, 213, 177, 244, 304
-0.999079, 369, 225, 496, 256
-0.999085, 349, 113, 364, 240
-0.999091, 229, 1, 260, 256
-0.999095, 295, 113, 310, 240
-0.999105, 101, 177, 132, 304
-0.999109, 313, 161, 328, 288
-0.999112, 193, 269, 320, 300
-0.99913, 323, 161, 338, 288
-0.999132, 1, 1, 500, 64
-0.999146, 343, 97, 358, 224
-0.999151, 363, 113, 378, 240
-0.999153, 329, 161, 344, 288
-0.999155, 197, 1, 228, 256
-0.999159, 287, 113, 302, 240
-0.999161, 369, 113, 384, 240
-0.999163, 245, 33, 276, 288
-0.999176, 185, 1, 216, 256
-0.999193, 129, 281, 256, 312
-0.999195, 357, 161, 372, 288
-0.999198, 81, 173, 208, 204
-0.99922, 81, 1, 96, 128
-0.999222, 101, 1, 132, 256
-0.999234, 145, 185, 272, 216
-0.999234, 5, 1, 36, 256
-0.999236, 1, 217, 500, 280
-0.999242, 173, 1, 204, 256
-0.999243, 301, 81, 316, 208
-0.999246, 343, 161, 358, 288
-0.99925, 149, 65, 180, 313
-0.999253, 337, 189, 464, 220
-0.999261, 417, 97, 448, 224
-0.999269, 335, 161, 350, 288
-0.999288, 465, 1, 496, 256
-0.99929, 389, 1, 420, 256
-0.999295, 375, 97, 390, 224
-0.999319, 75, 1, 90, 128
-0.999324, 293, 161, 308, 288
-0.999327, 33, 189, 160, 220
-0.999329, 323, 49, 338, 176
-0.999346, 311, 33, 326, 160
-0.999354, 357, 65, 372, 192
-0.999355, 321, 237, 448, 268
-0.999355, 121, 113, 136, 240
-0.999359, 433, 1, 464, 256
-0.99936, 349, 177, 364, 304
-0.999367, 347, 49, 362, 176
-0.999375, 301, 193, 316, 313
-0.999388, 329, 33, 344, 160
-0.999403, 281, 113, 296, 240
-0.999404, 263, 1, 278, 128
-0.999409, 89, 97, 104, 224
-0.999412, 111, 65, 126, 192
-0.999416, 365, 65, 380, 192
-0.999419, 97, 201, 224, 232
-0.99943, 381, 129, 396, 256
-0.999433, 367, 161, 382, 288
-0.999438, 193, 245, 320, 276
-0.99944, 131, 97, 146, 224
-0.999445, 269, 1, 284, 128
-0.999449, 335, 49, 350, 176
-0.999451, 379, 33, 394, 160
-0.999455, 113, 113, 128, 240
-0.999456, 317, 33, 332, 160
-0.999458, 69, 17, 84, 144
-0.999462, 103, 1, 118, 128
-0.99947, 127, 145, 142, 272
-0.999473, 453, 1, 484, 256
-0.999475, 81, 81, 96, 208
-0.999483, 339, 1, 354, 128
-0.999485, 105, 129, 120, 256
-0.999486, 249, 1, 264, 128
-0.999486, 137, 97, 152, 224
-0.999489, 225, 205, 352, 236
-0.999494, 61, 1, 76, 128
-0.999496, 477, 1, 492, 128
-0.999498, 393, 65, 408, 192
-0.999502, 291, 1, 306, 128
-0.99951, 237, 33, 252, 160
-0.999515, 281, 1, 296, 128
-0.999515, 49, 281, 176, 312
-0.999516, 387, 113, 402, 240
-0.999518, 451, 1, 466, 128
-0.999521, 263, 97, 278, 224
-0.999524, 275, 81, 290, 208
-0.999526, 121, 183, 136, 198
-0.999526, 221, 157, 236, 172
-0.999527, 79, 19, 94, 34
-0.999527, 349, 85, 364, 100
-0.999527, 103, 135, 118, 150
-0.999528, 69, 1, 84, 16
-0.999528, 329, 279, 344, 294
-0.999528, 221, 167, 236, 182
-0.999528, 281, 139, 296, 154
-0.999528, 431, 281, 446, 296
-0.999528, 483, 59, 498, 74
-0.999529, 93, 143, 108, 158
-0.999529, 305, 137, 320, 152
-0.999529, 257, 157, 272, 172
-0.999529, 109, 67, 124, 82
-0.999529, 235, 1, 250, 16
-0.99953, 79, 29, 94, 44
-0.99953, 397, 269, 412, 284
-0.99953, 323, 121, 338, 136
-0.999532, 397, 285, 412, 300
-0.999532, 309, 165, 324, 180
-0.999532, 133, 149, 148, 164
-0.999532, 77, 157, 92, 172
-0.999532, 135, 1, 150, 128
-0.999532, 249, 155, 264, 170
-0.999532, 269, 81, 284, 208
-0.999532, 141, 145, 156, 272
-0.999533, 105, 141, 120, 156
-0.999533, 297, 287, 312, 302
-0.999533, 377, 285, 392, 300
-0.999533, 77, 1, 92, 16
-0.999533, 75, 81, 90, 208
-0.999533, 99, 113, 114, 240
-0.999534, 131, 179, 146, 194
-0.999534, 323, 277, 338, 292
-0.999535, 117, 125, 132, 140
-0.999535, 109, 133, 124, 148
-0.999535, 357, 123, 372, 138
-0.999535, 309, 147, 324, 162
-0.999537, 279, 297, 294, 312
-0.999537, 291, 297, 306, 312
-0.999537, 293, 161, 308, 176
-0.999538, 143, 159, 158, 174
-0.999538, 381, 81, 396, 208
-0.999538, 305, 1, 320, 128
-0.999538, 111, 161, 126, 288
-0.999538, 261, 123, 276, 138
-0.999539, 313, 287, 328, 302
-0.999539, 145, 97, 160, 224
-0.99954, 241, 137, 256, 152
-0.99954, 287, 153, 302, 168
-0.99954, 367, 127, 382, 142
-0.99954, 307, 131, 322, 146
-0.99954, 85, 147, 100, 162
-0.99954, 341, 297, 356, 312
-0.999541, 405, 271, 420, 286
-0.999541, 53, 1, 68, 128
-0.999541, 337, 85, 352, 100
-0.999542, 259, 113, 274, 128
-0.999542, 241, 131, 256, 146
-0.999543, 313, 269, 328, 284
-0.999543, 411, 279, 426, 294
-0.999544, 73, 141, 88, 156
-0.999544, 111, 151, 126, 166
-0.999545, 383, 287, 398, 302
-0.999545, 11, 109, 26, 124
-0.999546, 89, 1, 104, 128
-0.999546, 347, 95, 362, 110
-0.999546, 335, 287, 350, 302
-0.999546, 117, 139, 132, 154
-0.999547, 381, 277, 396, 292
-0.999547, 177, 129, 192, 256
-0.999547, 361, 131, 376, 146
-0.999547, 93, 49, 108, 176
-0.999549, 71, 19, 86, 34
-0.99955, 483, 1, 498, 128
-0.999551, 73, 39, 88, 54
-0.999553, 133, 137, 148, 152
-0.999553, 73, 11, 88, 26
-0.999554, 407, 293, 422, 308
-0.999554, 315, 157, 330, 172
-0.999555, 93, 137, 108, 152
-0.999555, 297, 149, 312, 164
-0.999555, 65, 45, 80, 60
-0.999557, 475, 7, 490, 22
-0.999557, 383, 271, 398, 286
-0.999558, 371, 133, 386, 148
-0.999558, 351, 1, 366, 128
-0.999559, 135, 167, 150, 182
-0.99956, 287, 65, 302, 192
-0.99956, 133, 185, 148, 200
-0.999561, 59, 151, 74, 166
-0.999562, 389, 291, 404, 306
-0.999562, 271, 143, 286, 158
-0.999563, 305, 285, 320, 300
-0.999563, 105, 81, 120, 208
-0.999564, 79, 147, 94, 162
-0.999564, 55, 43, 70, 58
-0.999565, 123, 177, 138, 192
-0.999567, 257, 97, 272, 224
-0.999568, 127, 141, 142, 156
-0.99957, 121, 161, 136, 288
-0.99957, 391, 285, 406, 300
-0.999571, 371, 49, 386, 176
-0.999573, 297, 293, 312, 308
-0.999573, 243, 81, 258, 208
-0.999574, 301, 161, 316, 176
-0.999576, 121, 65, 136, 192
-0.999577, 227, 1, 242, 128
-0.999577, 373, 275, 388, 290
-0.999577, 307, 297, 322, 312
-0.999578, 123, 157, 138, 172
-0.99958, 135, 155, 150, 170
-0.99958, 1, 249, 500, 312
-0.99958, 183, 97, 198, 224
-0.999581, 287, 161, 302, 288
-0.999581, 403, 283, 418, 298
-0.999582, 293, 65, 308, 192
-0.999582, 293, 155, 308, 170
-0.999582, 387, 277, 402, 292
-0.999583, 395, 291, 410, 306
-0.999584, 323, 1, 338, 128
-0.999585, 391, 271, 406, 286
-0.999585, 255, 1, 270, 128
-0.999585, 317, 121, 332, 136
-0.999586, 117, 145, 132, 160
-0.999587, 289, 139, 304, 154
-0.999588, 373, 177, 388, 304
-0.999588, 445, 1, 460, 128
-0.999589, 127, 151, 142, 166
-0.999589, 297, 1, 312, 128
-0.99959, 297, 137, 312, 152
-0.999591, 399, 81, 414, 208
-0.999592, 83, 97, 98, 112
-0.999593, 417, 295, 432, 310
-0.999595, 401, 291, 416, 306
-0.999595, 169, 113, 184, 240
-0.999597, 47, 1, 62, 128
-0.999597, 417, 281, 432, 296
-0.999598, 129, 157, 144, 172
-0.9996, 281, 65, 296, 192
-0.999601, 399, 297, 414, 312
-0.999602, 1, 1, 16, 128
-0.999604, 321, 225, 448, 256
-0.999604, 183, 49, 198, 176
-0.999606, 259, 49, 274, 176
-0.999606, 281, 145, 296, 160
-0.999606, 459, 65, 474, 192
-0.999606, 385, 1, 400, 128
-0.999607, 35, 129, 50, 256
-0.999607, 429, 287, 444, 302
-0.999608, 275, 1, 290, 128
-0.999608, 337, 129, 352, 144
-0.999608, 409, 285, 424, 300
-0.999611, 425, 293, 440, 308
-0.999611, 35, 177, 50, 304
-0.999611, 393, 279, 408, 294
-0.999612, 133, 161, 148, 288
-0.999613, 117, 153, 132, 168
-0.999613, 347, 129, 362, 144
-0.999616, 433, 297, 448, 312
-0.999617, 327, 127, 342, 142
-0.999617, 307, 159, 322, 174
-0.99962, 355, 129, 370, 144
-0.999621, 321, 127, 336, 142
-0.999621, 227, 49, 242, 176
-0.999624, 21, 113, 36, 240
-0.999625, 303, 291, 318, 306
-0.999626, 209, 113, 224, 240
-0.999626, 415, 287, 430, 302
-0.999627, 453, 81, 468, 208
-0.999628, 391, 297, 406, 312
-0.99963, 161, 65, 176, 192
-0.99963, 231, 97, 246, 224
-0.999632, 51, 81, 66, 208
-0.999633, 151, 97, 166, 224
-0.999635, 423, 1, 438, 128
-0.999635, 291, 145, 306, 160
-0.999636, 237, 97, 252, 224
-0.999636, 85, 145, 100, 272
-0.999637, 299, 143, 314, 158
-0.999638, 127, 1, 142, 128
-0.999639, 129, 173, 144, 188
-0.999639, 183, 1, 198, 128
-0.99964, 311, 125, 326, 140
-0.999642, 59, 49, 74, 176
-0.999644, 147, 145, 162, 272
-0.999644, 163, 129, 178, 256
-0.999645, 483, 97, 498, 224
-0.999646, 21, 33, 36, 160
-0.999647, 193, 17, 208, 144
-0.999647, 245, 129, 260, 256
-0.999649, 69, 97, 84, 224
-0.999651, 41, 193, 56, 313
-0.999656, 423, 283, 438, 298
-0.999667, 369, 241, 496, 272
-0.999668, 401, 277, 416, 292
-0.999674, 1, 205, 128, 236
-0.999678, 309, 153, 324, 168
-0.999686, 369, 201, 496, 232
-0.999693, 17, 233, 144, 264
-0.999695, 301, 155, 316, 170
-0.999699, 405, 1, 436, 256
-0.9997, 97, 213, 224, 244
-0.999702, 413, 193, 444, 313
-0.999705, 369, 177, 496, 208
-0.999728, 17, 221, 144, 252
-0.999763, 369, 213, 496, 244
-0.999769, 193, 257, 320, 288
-0.999772, 97, 249, 224, 312
-0.999783, 213, 33, 244, 288
-0.999836, 161, 65, 192, 313
-0.999863, 397, 1, 428, 128
-0.999912, 401, 97, 432, 224
-1.00003, 421, 1, 452, 256
-1.00007, 193, 1, 224, 128
-1.00036, 1, 193, 500, 256
-1.0004, 1, 25, 500, 88
-1.00042, 373, 17, 404, 144
-1.00073, 1, 241, 256, 304
-1.00081, 425, 161, 456, 288
-1.00169, 397, 145, 428, 272
-1.00214, 57, 193, 120, 313
