1965
-0.520464, 33, 1, 288, 375
-0.523567, 1, 129, 500, 375
-0.528315, 1, 33, 500, 288
-0.59158, 1, 1, 500, 375
-0.651716, 65, 97, 320, 352
-0.661565, 129, 1, 384, 375
-0.732055, 33, 1, 288, 256
-0.798156, 161, 129, 416, 375
-0.806023, 225, 1, 480, 375
-0.859791, 129, 1, 384, 256
-0.863889, 257, 129, 500, 375
-0.866567, 81, 1, 208, 375
-0.870526, 145, 97, 272, 352
-0.875771, 33, 97, 160, 352
-0.879275, 145, 1, 272, 375
-0.882348, 81, 97, 208, 352
-0.885275, 33, 1, 160, 375
-0.892643, 1, 1, 128, 256
-0.894972, 81, 1, 208, 256
-0.899058, 1, 177, 500, 304
-0.902004, 209, 129, 336, 375
-0.908841, 129, 1, 256, 256
-0.914644, 65, 177, 320, 304
-0.920871, 1, 225, 500, 352
-0.924752, 1, 129, 500, 256
-0.925674, 257, 129, 384, 375
-0.928235, 209, 161, 272, 288
-0.93023, 193, 1, 320, 375
-0.930271, 65, 129, 320, 256
-0.931181, 241, 1, 368, 375
-0.932531, 113, 177, 240, 304
-0.932699, 105, 177, 168, 304
-0.934602, 1, 81, 500, 208
-0.935222, 161, 161, 288, 288
-0.935726, 65, 193, 192, 320
-0.935804, 169, 177, 232, 304
-0.938753, 209, 33, 336, 288
-0.939032, 33, 17, 288, 144
-0.939359, 225, 33, 480, 288
-0.942977, 65, 81, 320, 208
-0.943991, 193, 177, 448, 304
-0.94495, 321, 1, 448, 375
-0.946646, 65, 49, 192, 176
-0.946694, 145, 177, 208, 304
-0.947685, 225, 177, 352, 304
-0.947769, 233, 161, 296, 288
-0.947866, 321, 129, 448, 375
-0.948481, 129, 225, 384, 352
-0.948686, 1, 225, 256, 352
-0.949091, 161, 129, 416, 256
-0.949475, 161, 209, 288, 336
-0.949897, 65, 145, 192, 272
-0.950052, 1, 1, 500, 128
-0.950572, 121, 241, 184, 304
-0.951525, 97, 129, 160, 256
-0.951966, 209, 217, 272, 280
-0.952598, 209, 209, 272, 336
-0.954443, 233, 209, 296, 336
-0.95471, 81, 241, 208, 368
-0.954734, 145, 113, 272, 240
-0.955793, 369, 129, 496, 375
-0.956265, 57, 49, 120, 176
-0.95638, 233, 209, 296, 272
-0.956629, 129, 225, 192, 352
-0.956708, 105, 209, 168, 272
-0.956806, 81, 177, 144, 304
-0.95745, 73, 129, 136, 256
-0.957858, 129, 129, 192, 256
-0.958239, 113, 185, 176, 248
-0.958806, 17, 49, 144, 176
-0.959286, 153, 209, 216, 272
-0.959788, 369, 1, 496, 375
-0.95979, 201, 161, 264, 224
-0.960134, 169, 185, 232, 248
-0.960548, 193, 113, 256, 240
-0.961509, 129, 209, 192, 272
-0.961553, 81, 49, 144, 176
-0.963163, 153, 129, 216, 256
-0.963411, 81, 1, 208, 128
-0.963412, 185, 225, 248, 288
-0.963458, 81, 97, 208, 224
-0.963526, 273, 177, 400, 304
-0.963561, 1, 97, 128, 224
-0.963648, 17, 209, 144, 336
-0.963905, 273, 161, 336, 288
-0.964306, 105, 225, 168, 352
-0.964309, 209, 225, 336, 352
-0.964589, 257, 33, 384, 288
-0.965136, 201, 185, 264, 248
-0.965205, 17, 161, 144, 288
-0.965481, 185, 225, 248, 352
-0.965996, 225, 129, 352, 256
-0.966132, 145, 249, 208, 312
-0.966291, 329, 161, 392, 288
-0.966743, 257, 209, 320, 336
-0.967418, 33, 17, 96, 144
-0.967434, 129, 1, 256, 128
-0.967551, 17, 1, 144, 128
-0.96807, 153, 225, 184, 288
-0.968521, 273, 185, 336, 248
-0.969108, 145, 177, 208, 240
-0.969233, 149, 193, 180, 320
-0.969235, 65, 33, 128, 96
-0.969302, 89, 65, 152, 128
-0.96955, 73, 1, 136, 128
-0.969846, 221, 161, 252, 288
-0.969975, 321, 33, 448, 288
-0.970181, 81, 233, 208, 296
-0.970713, 89, 177, 152, 240
-0.971192, 121, 1, 184, 128
-0.971301, 313, 177, 376, 240
-0.97132, 217, 217, 248, 280
-0.971823, 137, 209, 168, 272
-0.971834, 245, 217, 276, 280
-0.972005, 257, 129, 500, 256
-0.972327, 57, 81, 120, 144
-0.972393, 73, 97, 136, 352
-0.972413, 89, 153, 152, 216
-0.972428, 153, 225, 216, 352
-0.972504, 161, 225, 288, 288
-0.972605, 241, 161, 272, 288
-0.973122, 97, 249, 160, 312
-0.973145, 81, 209, 208, 272
-0.973172, 81, 225, 144, 352
-0.973264, 49, 97, 112, 224
-0.973353, 149, 201, 180, 264
-0.973375, 261, 217, 292, 280
-0.973734, 41, 33, 104, 96
-0.974016, 145, 49, 272, 176
-0.974125, 145, 193, 272, 256
-0.97419, 161, 81, 224, 208
-0.974433, 209, 217, 336, 280
-0.974435, 305, 161, 368, 288
-0.974688, 201, 161, 232, 288
-0.974983, 169, 249, 232, 312
-0.975112, 257, 225, 384, 352
-0.975233, 241, 185, 304, 248
-0.975391, 121, 153, 184, 216
-0.975407, 241, 233, 304, 296
-0.97544, 57, 177, 120, 304
-0.975603, 137, 193, 168, 320
-0.975683, 225, 225, 480, 352
-0.975877, 81, 185, 208, 248
-0.976037, 209, 129, 272, 375
-0.976073, 137, 233, 168, 296
-0.976111, 121, 177, 152, 304
-0.976164, 65, 225, 128, 288
-0.976319, 9, 17, 72, 144
-0.976368, 121, 41, 184, 104
-0.976424, 121, 129, 184, 375
-0.976436, 65, 105, 128, 168
-0.976516, 57, 57, 120, 120
-0.977155, 33, 49, 160, 112
-0.977275, 369, 33, 496, 288
-0.977306, 105, 49, 168, 176
-0.977694, 89, 129, 152, 192
-0.977735, 65, 153, 128, 216
-0.977839, 185, 137, 248, 200
-0.977939, 129, 185, 160, 248
-0.9781, 337, 169, 400, 232
-0.978171, 129, 1, 384, 128
-0.978201, 229, 225, 260, 288
-0.978206, 321, 161, 448, 288
-0.978545, 281, 217, 344, 280
-0.97863, 161, 153, 224, 216
-0.979046, 193, 249, 256, 312
-0.97908, 97, 97, 160, 352
-0.979111, 149, 145, 180, 272
-0.979288, 161, 97, 224, 352
-0.979373, 241, 113, 304, 240
-0.979527, 25, 65, 88, 192
-0.979527, 41, 1, 104, 256
-0.979745, 197, 185, 228, 248
-0.979763, 73, 249, 136, 312
-0.980114, 261, 193, 292, 320
-0.98018, 217, 209, 248, 336
-0.98035, 81, 201, 144, 264
-0.980389, 117, 177, 148, 240
-0.980399, 225, 161, 288, 224
-0.980452, 81, 57, 208, 120
-0.980704, 305, 153, 368, 216
-0.980742, 17, 25, 80, 88
-0.980953, 89, 41, 152, 104
-0.981302, 161, 169, 288, 232
-0.981441, 61, 33, 92, 160
-0.981589, 129, 249, 256, 312
-0.981708, 369, 129, 496, 256
-0.98175, 273, 129, 400, 256
-0.981795, 165, 209, 196, 272
-0.981798, 161, 57, 224, 120
-0.981804, 85, 97, 116, 224
-0.981837, 217, 249, 280, 312
-0.982065, 245, 209, 276, 336
-0.982091, 85, 145, 116, 272
-0.9822, 165, 241, 196, 304
-0.982252, 17, 225, 144, 288
-0.982393, 65, 89, 192, 152
-0.98248, 161, 193, 192, 320
-0.982503, 149, 249, 180, 312
-0.982513, 329, 113, 392, 240
-0.982546, 209, 241, 336, 304
-0.982592, 305, 225, 432, 352
-0.982744, 81, 257, 208, 320
-0.982798, 177, 89, 240, 152
-0.982913, 213, 241, 244, 304
-0.982924, 141, 177, 172, 240
-0.98297, 261, 193, 292, 256
-0.982975, 57, 225, 120, 352
-0.983048, 105, 65, 136, 192
-0.983054, 257, 209, 384, 272
-0.983166, 33, 65, 96, 128
-0.983191, 105, 177, 136, 304
-0.983287, 65, 177, 128, 240
-0.983302, 257, 209, 320, 272
-0.983407, 229, 177, 260, 240
-0.983528, 125, 241, 156, 304
-0.983594, 81, 153, 208, 216
-0.983633, 81, 129, 208, 192
-0.983655, 229, 209, 260, 336
-0.983666, 233, 129, 296, 375
-0.983702, 241, 185, 368, 248
-0.983707, 217, 113, 280, 240
-0.983731, 305, 113, 368, 240
-0.983849, 85, 113, 116, 176
-0.983862, 185, 41, 248, 104
-0.983943, 33, 249, 160, 312
-0.983943, 185, 65, 248, 192
-0.983982, 33, 153, 160, 216
-0.983983, 33, 225, 96, 288
-0.983992, 81, 49, 112, 176
-0.984159, 249, 145, 312, 208
-0.98418, 57, 129, 120, 192
-0.984205, 305, 201, 368, 264
-0.984211, 1, 225, 64, 352
-0.984217, 273, 209, 304, 336
-0.984218, 25, 97, 88, 160
-0.984293, 129, 49, 192, 176
-0.984363, 65, 9, 128, 72
-0.984372, 109, 49, 140, 112
-0.984568, 33, 209, 96, 336
-0.984574, 213, 169, 244, 232
-0.984677, 81, 33, 208, 96
-0.984681, 1, 25, 128, 88
-0.984731, 189, 161, 220, 288
-0.984739, 273, 217, 304, 280
-0.984864, 81, 41, 112, 104
-0.984882, 1, 97, 128, 160
-0.985013, 133, 145, 164, 272
-0.985062, 121, 33, 184, 288
-0.985156, 153, 177, 184, 240
-0.985175, 245, 185, 276, 248
-0.985246, 77, 89, 108, 152
-0.985269, 49, 257, 112, 320
-0.985364, 193, 65, 448, 192
-0.985445, 209, 81, 336, 208
-0.985456, 205, 209, 236, 336
-0.985505, 281, 129, 344, 375
-0.985532, 153, 1, 216, 64
-0.985557, 305, 249, 368, 312
-0.985583, 65, 1, 128, 256
-0.98565, 185, 1, 248, 64
-0.985651, 49, 129, 112, 375
-0.985722, 193, 193, 320, 256
-0.985797, 121, 65, 184, 128
-0.985806, 349, 169, 380, 232
-0.985845, 205, 217, 236, 280
-0.985847, 121, 17, 184, 80
-0.985851, 93, 193, 124, 320
-0.985909, 297, 241, 360, 368
-0.986017, 101, 241, 132, 304
-0.986078, 33, 193, 160, 256
-0.986163, 105, 1, 168, 375
-0.986185, 125, 209, 156, 272
-0.986197, 201, 161, 232, 224
-0.986245, 161, 129, 224, 192
-0.986246, 229, 201, 260, 264
-0.986252, 129, 41, 256, 104
-0.986382, 121, 273, 184, 336
-0.986386, 57, 41, 88, 104
-0.98639, 101, 177, 132, 240
-0.986436, 89, 161, 120, 224
-0.98645, 145, 129, 272, 192
-0.98649, 89, 105, 152, 168
-0.986571, 185, 97, 248, 352
-0.986597, 105, 129, 136, 256
-0.986743, 209, 161, 336, 224
-0.986744, 353, 129, 416, 256
-0.986754, 161, 1, 224, 128
-0.986815, 209, 137, 272, 200
-0.986827, 261, 145, 292, 272
-0.986875, 17, 1, 80, 256
-0.986876, 17, 73, 144, 136
-0.986892, 17, 121, 144, 184
-0.987051, 149, 241, 180, 368
-0.987068, 233, 145, 264, 208
-0.987086, 329, 145, 392, 208
-0.987096, 229, 113, 260, 240
-0.987118, 65, 9, 192, 72
-0.987168, 185, 65, 248, 128
-0.987191, 65, 1, 128, 375
-0.987211, 9, 297, 72, 360
-0.987237, 89, 225, 120, 288
-0.987319, 213, 113, 244, 240
-0.987388, 105, 209, 136, 272
-0.987395, 145, 1, 272, 64
-0.987517, 65, 81, 96, 144
-0.987557, 329, 177, 360, 240
-0.987559, 185, 1, 248, 128
-0.987573, 221, 137, 252, 200
-0.987579, 1, 65, 64, 128
-0.987638, 129, 161, 160, 224
-0.987652, 97, 49, 128, 112
-0.987658, 89, 17, 152, 80
-0.987658, 329, 201, 392, 264
-0.987675, 341, 177, 372, 304
-0.987717, 121, 129, 152, 256
-0.987734, 93, 17, 124, 144
-0.987781, 125, 225, 156, 352
-0.987869, 113, 249, 144, 312
-0.987903, 177, 249, 208, 312
-0.987984, 285, 161, 316, 288
-0.988038, 41, 17, 72, 144
-0.988089, 241, 241, 272, 304
-0.988112, 325, 161, 356, 288
-0.988123, 225, 249, 256, 312
-0.988129, 265, 241, 328, 304
-0.988156, 329, 249, 360, 312
-0.988168, 185, 169, 216, 232
-0.988184, 145, 105, 272, 168
-0.988184, 121, 245, 184, 276
-0.988346, 337, 233, 400, 296
-0.988379, 129, 65, 256, 128
-0.98853, 273, 161, 336, 224
-0.988659, 257, 241, 384, 304
-0.988688, 69, 33, 100, 96
-0.988718, 57, 201, 120, 264
-0.988746, 105, 153, 136, 216
-0.988763, 145, 1, 208, 375
-0.988868, 129, 89, 192, 152
-0.988953, 97, 249, 160, 280
-0.988999, 289, 177, 416, 240
-0.989088, 153, 249, 216, 280
-0.989206, 169, 145, 200, 272
-0.989219, 65, 209, 320, 272
-0.989241, 201, 229, 264, 260
-0.989254, 353, 137, 416, 200
-0.989293, 85, 137, 116, 200
-0.989294, 69, 81, 100, 208
-0.9893, 17, 1, 80, 64
-0.989375, 1, 297, 128, 360
-0.989461, 185, 113, 248, 176
-0.989539, 25, 97, 88, 352
-0.989585, 129, 113, 192, 176
-0.989591, 257, 129, 320, 375
-0.989639, 197, 241, 228, 304
-0.989689, 41, 89, 72, 152
-0.989755, 201, 217, 264, 248
-0.989794, 185, 1, 248, 256
-0.989822, 337, 177, 400, 208
-0.989823, 105, 201, 168, 232
-0.989874, 201, 169, 264, 200
-0.989918, 217, 193, 248, 256
-0.989939, 169, 213, 232, 244
-0.989949, 9, 265, 72, 328
-0.989951, 185, 249, 248, 280
-0.989984, 121, 221, 184, 252
-0.99002, 105, 189, 168, 220
-0.990022, 233, 221, 296, 252
-0.990025, 265, 241, 296, 304
-0.990029, 121, 261, 184, 292
-0.990076, 17, 273, 144, 336
-0.990104, 69, 137, 100, 200
-0.990111, 73, 145, 104, 272
-0.990184, 129, 209, 192, 240
-0.990238, 145, 273, 208, 336
-0.990263, 209, 241, 272, 272
-0.990324, 121, 233, 184, 264
-0.99033, 273, 113, 336, 240
-0.990334, 313, 129, 376, 375
-0.99036, 273, 161, 304, 288
-0.990386, 161, 229, 224, 260
-0.990389, 33, 121, 96, 184
-0.990436, 321, 225, 448, 288
-0.990446, 161, 241, 192, 368
-0.990463, 245, 161, 276, 224
-0.990477, 309, 185, 340, 248
-0.990503, 117, 49, 148, 176
-0.990515, 233, 233, 296, 264
-0.99055, 97, 233, 160, 264
-0.990555, 185, 1, 248, 375
-0.990592, 173, 193, 204, 320
-0.990617, 145, 261, 208, 292
-0.990621, 305, 173, 368, 204
-0.990622, 33, 37, 96, 68
-0.990641, 313, 177, 344, 304
-0.990645, 33, 289, 96, 352
-0.990684, 89, 49, 152, 80
-0.990685, 97, 261, 160, 292
-0.990694, 241, 209, 304, 240
-0.990743, 225, 137, 352, 200
-0.99077, 305, 185, 368, 216
-0.990771, 113, 73, 144, 136
-0.990805, 33, 1, 96, 375
-0.990824, 73, 249, 136, 280
-0.990854, 345, 129, 376, 256
-0.9909, 129, 197, 192, 228
-0.990916, 201, 113, 232, 240
-0.990949, 161, 33, 224, 96
-0.991003, 297, 185, 328, 248
-0.991026, 97, 213, 160, 244
-0.991051, 57, 101, 120, 132
-0.991138, 65, 117, 128, 148
-0.991166, 49, 85, 112, 116
-0.991211, 353, 177, 480, 240
-0.991219, 33, 185, 288, 248
-0.991277, 105, 241, 136, 368
-0.991278, 281, 201, 344, 232
-0.99128, 225, 169, 288, 200
-0.991336, 65, 65, 128, 96
-0.991357, 89, 1, 152, 256
-0.991372, 65, 41, 128, 72
-0.991389, 1, 65, 64, 192
-0.991429, 321, 113, 448, 240
-0.991432, 225, 181, 288, 212
-0.991445, 217, 205, 280, 236
-0.991465, 281, 185, 344, 216
-0.99147, 81, 185, 144, 216
-0.991473, 137, 181, 200, 212
-0.99149, 193, 33, 320, 160
-0.99153, 57, 29, 120, 60
-0.991545, 233, 249, 296, 280
-0.991574, 81, 173, 144, 204
-0.991588, 121, 45, 184, 76
-0.991604, 185, 113, 216, 240
-0.991621, 329, 189, 392, 220
-0.991628, 177, 261, 240, 292
-0.991628, 65, 233, 320, 296
-0.99164, 97, 161, 160, 192
-0.991663, 65, 297, 128, 360
-0.99167, 201, 193, 264, 224
-0.991728, 65, 237, 128, 268
-0.991734, 49, 17, 80, 80
-0.991776, 257, 233, 320, 264
-0.991784, 153, 201, 216, 232
-0.991791, 17, 25, 80, 56
-0.991799, 57, 53, 120, 84
-0.991818, 241, 197, 304, 228
-0.99182, 33, 73, 96, 104
-0.991827, 201, 181, 264, 212
-0.99184, 121, 61, 184, 92
-0.991887, 285, 209, 316, 272
-0.991892, 253, 241, 284, 304
-0.991896, 81, 141, 144, 172
-0.991896, 129, 177, 384, 240
-0.991902, 161, 89, 224, 120
-0.991909, 89, 73, 152, 104
-0.991911, 377, 129, 440, 256
-0.991912, 321, 253, 384, 284
-0.991949, 297, 253, 360, 284
-0.991969, 65, 129, 128, 160
-0.991975, 161, 265, 192, 328
-0.991983, 97, 73, 128, 136
-0.992009, 249, 173, 312, 204
-0.992032, 337, 165, 400, 196
-0.992042, 57, 97, 88, 224
-0.992044, 149, 241, 180, 272
-0.992086, 57, 161, 120, 192
-0.992088, 209, 253, 272, 284
-0.992094, 305, 197, 368, 228
-0.992106, 265, 217, 328, 248
-0.992117, 225, 157, 288, 188
-0.992127, 185, 137, 248, 168
-0.992141, 81, 241, 208, 272
-0.992165, 161, 181, 224, 212
-0.99217, 177, 193, 240, 224
-0.992181, 277, 185, 308, 248
-0.992196, 185, 89, 248, 120
-0.992199, 201, 157, 264, 188
-0.992228, 217, 221, 248, 252
-0.992237, 161, 253, 192, 284
-0.992238, 337, 209, 400, 336
-0.992247, 257, 245, 320, 276
-0.992254, 141, 201, 172, 232
-0.992262, 369, 177, 432, 240
-0.992275, 129, 249, 160, 280
-0.992277, 289, 153, 416, 216
-0.99228, 141, 153, 172, 216
-0.992289, 129, 193, 160, 224
-0.992289, 185, 49, 248, 80
-0.992322, 137, 241, 168, 368
-0.992323, 105, 173, 168, 204
-0.99236, 9, 37, 72, 68
-0.992364, 165, 177, 196, 240
-0.992393, 281, 241, 344, 272
-0.992394, 229, 237, 260, 268
-0.992403, 33, 49, 96, 80
-0.992409, 233, 165, 264, 196
-0.992411, 117, 153, 148, 216
-0.992424, 105, 141, 168, 172
-0.992437, 57, 145, 120, 176
-0.992445, 161, 225, 176, 288
-0.992448, 193, 205, 256, 236
-0.992463, 89, 61, 152, 92
-0.992464, 265, 217, 296, 248
-0.99247, 41, 153, 104, 216
-0.992474, 65, 265, 128, 296
-0.992486, 217, 237, 248, 268
-0.992486, 149, 221, 180, 252
-0.992508, 305, 249, 432, 312
-0.992517, 57, 225, 120, 256
-0.992531, 25, 113, 88, 144
-0.992537, 261, 229, 292, 260
-0.992541, 225, 65, 288, 192
-0.992545, 173, 249, 204, 280
-0.992554, 245, 221, 276, 252
-0.992564, 9, 1, 72, 375
-0.992567, 221, 169, 252, 200
-0.992578, 89, 129, 152, 160
-0.99258, 161, 69, 224, 100
-0.992583, 197, 249, 228, 280
-0.992585, 89, 109, 152, 140
-0.992586, 169, 97, 200, 224
-0.992593, 137, 237, 168, 268
-0.992599, 153, 1, 216, 32
-0.992602, 149, 253, 180, 284
-0.99261, 369, 137, 496, 200
-0.99261, 161, 57, 224, 88
-0.992613, 329, 181, 360, 212
-0.992628, 209, 1, 272, 375
-0.992628, 185, 101, 248, 132
-0.992634, 217, 9, 280, 72
-0.99265, 361, 173, 424, 204
-0.992651, 329, 241, 392, 272
-0.992652, 249, 185, 312, 216
-0.992654, 341, 177, 372, 208
-0.992658, 1, 73, 64, 104
-0.992666, 17, 93, 80, 124
-0.992671, 153, 201, 184, 232
-0.992674, 109, 249, 140, 280
-0.992699, 241, 237, 272, 268
-0.992723, 121, 33, 184, 64
-0.992729, 217, 129, 280, 160
-0.992739, 1, 293, 64, 324
-0.992752, 169, 125, 232, 156
-0.992753, 245, 181, 276, 212
-0.992755, 33, 129, 96, 160
-0.992765, 337, 201, 400, 232
-0.992767, 137, 213, 168, 244
-0.992777, 129, 261, 160, 292
-0.9928, 113, 57, 144, 88
-0.992811, 217, 249, 248, 280
-0.992819, 241, 257, 304, 320
-0.992827, 117, 189, 148, 220
-0.992831, 185, 1, 248, 32
-0.992832, 341, 145, 372, 208
-0.992834, 277, 213, 308, 244
-0.992853, 89, 85, 152, 116
-0.992858, 161, 169, 224, 200
-0.992859, 329, 253, 360, 284
-0.992862, 161, 45, 224, 76
-0.992865, 141, 189, 172, 220
-0.992874, 369, 193, 496, 320
-0.992874, 89, 97, 152, 128
-0.992888, 161, 241, 192, 272
-0.992893, 185, 249, 216, 280
-0.992895, 49, 33, 80, 64
-0.992897, 305, 201, 432, 264
-0.992898, 17, 305, 80, 336
-0.992906, 41, 257, 104, 288
-0.992908, 121, 73, 184, 104
-0.992915, 281, 229, 344, 260
-0.992919, 205, 237, 236, 268
-0.992927, 113, 273, 176, 304
-0.992929, 185, 61, 248, 92
-0.99293, 353, 177, 384, 208
-0.992932, 305, 161, 368, 192
-0.992936, 229, 225, 260, 256
-0.992956, 249, 161, 312, 192
-0.992961, 341, 249, 372, 312
-0.992975, 141, 177, 172, 208
-0.992976, 225, 209, 256, 240
-0.99298, 265, 205, 296, 236
-0.992989, 365, 173, 396, 204
-0.992989, 137, 273, 200, 304
-0.992992, 145, 265, 176, 296
-0.992994, 41, 289, 104, 320
-0.992997, 185, 77, 248, 108
-0.993, 161, 213, 192, 244
-0.993007, 233, 177, 264, 208
-0.993011, 65, 281, 192, 344
-0.993016, 101, 49, 132, 80
-0.993017, 25, 17, 56, 144
-0.993018, 97, 253, 128, 284
-0.993021, 57, 173, 120, 204
-0.993022, 177, 157, 240, 188
-0.993026, 329, 169, 360, 200
-0.993026, 257, 241, 288, 272
-0.993027, 137, 169, 200, 200
-0.993029, 361, 161, 392, 224
-0.993032, 161, 101, 224, 132
-0.993053, 233, 249, 264, 280
-0.993057, 105, 161, 136, 192
-0.993067, 221, 157, 252, 188
-0.993077, 89, 241, 120, 272
-0.99308, 161, 33, 224, 64
-0.993081, 61, 41, 92, 72
-0.993083, 185, 37, 248, 68
-0.993086, 161, 237, 288, 268
-0.993088, 205, 217, 236, 248
-0.993092, 121, 205, 152, 236
-0.993095, 253, 205, 284, 236
-0.9931, 161, 229, 192, 260
-0.993112, 369, 185, 432, 216
-0.993113, 341, 165, 372, 196
-0.993119, 277, 201, 308, 232
-0.993139, 337, 129, 400, 375
-0.993144, 129, 137, 160, 200
-0.993147, 101, 209, 132, 240
-0.993157, 289, 205, 320, 236
-0.99316, 309, 181, 340, 212
-0.993167, 33, 49, 288, 112
-0.99318, 101, 69, 132, 100
-0.993182, 269, 241, 300, 272
-0.993185, 181, 261, 212, 292
-0.993189, 77, 41, 108, 72
-0.993189, 129, 181, 160, 212
-0.993201, 81, 253, 208, 284
-0.993201, 225, 33, 288, 288
-0.993203, 125, 233, 156, 264
-0.993204, 233, 153, 264, 184
-0.993208, 85, 161, 116, 192
-0.993209, 205, 189, 236, 220
-0.99321, 209, 169, 240, 200
-0.99321, 113, 77, 144, 108
-0.993213, 341, 189, 372, 220
-0.993214, 329, 197, 360, 228
-0.99322, 261, 193, 292, 224
-0.993222, 245, 249, 276, 280
-0.993227, 129, 249, 256, 280
-0.993229, 245, 169, 276, 200
-0.99323, 73, 273, 136, 336
-0.993232, 89, 45, 120, 76
-0.993235, 41, 9, 104, 72
-0.993237, 93, 173, 124, 204
-0.99324, 85, 117, 116, 148
-0.993242, 157, 265, 188, 296
-0.993247, 193, 201, 224, 232
-0.993248, 297, 193, 328, 224
-0.993253, 37, 25, 68, 56
-0.993258, 77, 53, 108, 84
-0.993261, 149, 209, 164, 272
-0.993269, 61, 29, 92, 60
-0.993269, 373, 185, 404, 216
-0.993272, 153, 189, 184, 220
-0.993277, 257, 173, 288, 204
-0.993279, 217, 197, 248, 228
-0.993282, 77, 161, 108, 224
-0.993283, 205, 201, 236, 232
-0.993293, 117, 177, 148, 208
-0.993299, 273, 229, 304, 260
-0.993302, 221, 145, 252, 176
-0.993303, 105, 181, 136, 212
-0.993304, 85, 145, 116, 176
-0.993315, 85, 133, 116, 164
-0.993318, 325, 225, 356, 352
-0.993322, 289, 181, 320, 212
-0.993324, 105, 149, 136, 180
-0.993324, 109, 237, 140, 268
-0.993328, 61, 81, 92, 112
-0.993344, 85, 253, 116, 284
-0.993349, 193, 217, 448, 280
-0.993364, 209, 157, 240, 188
-0.993364, 173, 209, 204, 240
-0.993367, 129, 169, 160, 200
-0.993368, 169, 265, 200, 296
-0.993371, 117, 265, 148, 296
-0.993379, 137, 225, 168, 256
-0.99338, 105, 265, 136, 296
-0.993383, 41, 69, 72, 100
-0.993384, 285, 229, 316, 260
-0.993388, 217, 181, 248, 212
-0.993392, 241, 209, 272, 240
-0.993397, 85, 225, 116, 256
-0.993398, 1, 217, 500, 280
-0.993401, 49, 101, 80, 132
-0.993404, 73, 85, 104, 116
-0.993404, 49, 21, 80, 52
-0.993412, 369, 209, 400, 240
-0.993415, 273, 189, 304, 220
-0.993416, 233, 189, 264, 220
-0.993417, 81, 105, 112, 136
-0.993421, 193, 261, 224, 292
-0.993424, 317, 253, 348, 284
-0.993433, 317, 201, 348, 232
-0.993433, 105, 197, 136, 228
-0.993435, 257, 253, 288, 284
-0.993443, 209, 137, 240, 200
-0.993454, 25, 77, 56, 108
-0.993465, 169, 57, 200, 88
-0.993486, 219, 209, 234, 272
-0.993491, 97, 1, 160, 128
-0.993524, 329, 113, 360, 240
-0.993526, 173, 137, 204, 200
-0.993645, 121, 49, 152, 112
-0.993649, 77, 209, 108, 336
-0.993663, 9, 241, 72, 304
-0.993687, 97, 145, 352, 208
-0.993705, 227, 225, 242, 288
-0.993737, 129, 273, 256, 336
-0.99377, 1, 1, 128, 64
-0.993788, 369, 209, 496, 272
-0.993839, 85, 65, 116, 128
-0.993866, 225, 113, 288, 176
-0.993867, 159, 193, 174, 256
-0.99387, 57, 113, 88, 176
-0.993871, 1, 1, 32, 128
-0.993878, 45, 81, 76, 208
-0.993887, 69, 225, 100, 288
-0.993909, 85, 185, 116, 248
-0.993919, 153, 81, 216, 144
-0.994005, 81, 1, 112, 128
-0.994006, 155, 225, 170, 288
-0.994019, 365, 129, 396, 256
-0.994058, 259, 209, 274, 272
-0.994058, 193, 209, 224, 272
-0.994068, 143, 209, 158, 272
-0.994071, 193, 221, 320, 252
-0.994075, 33, 17, 288, 80
-0.994108, 153, 49, 184, 176
-0.994119, 37, 65, 68, 128
-0.994161, 81, 213, 208, 244
-0.994176, 113, 229, 240, 260
-0.994226, 65, 209, 96, 336
-0.994229, 261, 241, 292, 368
-0.994229, 137, 273, 168, 336
-0.994314, 217, 1, 280, 128
-0.994315, 217, 73, 280, 136
-0.994319, 225, 193, 480, 256
-0.994351, 317, 161, 348, 224
-0.994363, 169, 57, 200, 120
-0.99445, 73, 113, 104, 176
-0.994454, 105, 297, 168, 360
-0.994463, 167, 225, 182, 288
-0.994482, 257, 169, 288, 232
-0.994496, 149, 233, 164, 296
-0.994519, 89, 249, 120, 312
-0.994519, 97, 273, 160, 336
-0.994527, 265, 217, 280, 280
-0.994528, 209, 241, 336, 272
-0.994589, 21, 209, 52, 336
-0.99459, 209, 113, 336, 176
-0.994594, 217, 33, 280, 96
-0.994628, 241, 225, 256, 288
-0.994632, 305, 129, 368, 192
-0.99464, 369, 209, 432, 272
-0.994643, 133, 185, 148, 248
-0.994679, 113, 1, 144, 128
-0.994686, 425, 169, 488, 232
-0.994705, 305, 129, 336, 256
-0.994747, 37, 25, 68, 88
-0.994801, 145, 313, 208, 375
-0.994826, 193, 241, 448, 304
-0.994831, 235, 225, 250, 288
-0.994878, 53, 225, 84, 288
-0.994895, 193, 137, 224, 200
-0.994901, 145, 217, 272, 248
-0.994933, 173, 105, 204, 168
-0.994937, 245, 113, 276, 240
-0.994938, 65, 121, 320, 184
-0.994949, 33, 145, 96, 272
-0.994951, 1, 153, 256, 216
-0.994952, 281, 1, 344, 375
-0.994958, 417, 137, 480, 200
-0.994977, 81, 17, 112, 80
-0.994981, 33, 249, 160, 280
-0.994994, 251, 209, 266, 272
-0.99512, 361, 137, 392, 200
-0.995124, 125, 265, 156, 328
-0.995153, 275, 217, 290, 280
-0.995169, 345, 305, 408, 368
-0.995174, 49, 305, 176, 368
-0.995182, 289, 181, 416, 212
-0.995199, 65, 257, 320, 320
-0.995217, 209, 57, 240, 120
-0.99526, 127, 185, 142, 248
-0.995289, 1, 241, 500, 304
-0.995314, 245, 137, 276, 200
-0.995331, 65, 201, 192, 232
-0.995335, 177, 225, 208, 288
-0.995341, 281, 137, 344, 200
-0.995347, 53, 65, 84, 128
-0.99535, 33, 73, 288, 136
-0.995369, 9, 217, 72, 280
-0.995385, 143, 233, 158, 296
-0.995391, 105, 129, 136, 192
-0.995392, 1, 41, 128, 72
-0.995412, 65, 225, 192, 256
-0.995446, 143, 177, 158, 240
-0.995467, 209, 1, 336, 64
-0.99553, 129, 261, 256, 292
-0.99553, 145, 205, 272, 236
-0.995568, 177, 253, 304, 284
-0.995576, 199, 169, 214, 232
-0.995596, 81, 53, 208, 84
-0.995626, 89, 241, 120, 368
-0.995645, 13, 17, 44, 144
-0.995646, 77, 257, 108, 320
-0.995697, 241, 173, 368, 204
-0.995711, 1, 193, 500, 256
-0.995714, 149, 185, 164, 248
-0.995736, 137, 209, 152, 272
-0.995765, 241, 209, 368, 240
-0.995787, 277, 241, 308, 304
-0.995846, 41, 209, 72, 336
-0.995847, 65, 69, 192, 100
-0.995857, 1, 161, 500, 224
-0.995883, 53, 297, 84, 360
-0.995886, 171, 249, 186, 312
-0.995894, 33, 57, 160, 88
-0.995915, 193, 25, 320, 88
-0.995917, 93, 25, 124, 88
-0.995927, 193, 49, 320, 112
-0.995934, 239, 153, 254, 216
-0.995936, 61, 9, 92, 72
-0.995981, 121, 177, 136, 240
-0.995982, 337, 313, 464, 375
-0.996005, 177, 241, 192, 304
-0.99601, 133, 97, 164, 224
-0.996036, 225, 201, 240, 264
-0.996037, 221, 233, 236, 296
-0.996039, 329, 153, 360, 216
-0.996041, 167, 201, 182, 264
-0.996058, 113, 25, 144, 88
-0.996085, 155, 249, 170, 312
-0.996087, 113, 185, 240, 216
-0.996097, 213, 169, 228, 232
-0.996119, 259, 185, 274, 248
-0.996125, 97, 313, 224, 375
-0.996156, 161, 173, 288, 204
-0.996166, 193, 305, 320, 368
-0.996172, 253, 185, 268, 248
-0.996181, 177, 265, 304, 328
-0.996185, 249, 1, 312, 375
-0.996204, 173, 81, 204, 144
-0.996218, 247, 233, 262, 296
-0.996222, 209, 1, 240, 64
-0.996269, 81, 265, 208, 296
-0.996278, 289, 161, 320, 224
-0.996285, 209, 73, 336, 136
-0.996288, 135, 233, 150, 296
-0.996302, 193, 169, 208, 232
-0.996302, 265, 193, 280, 256
-0.996311, 97, 153, 112, 216
-0.996318, 1, 89, 64, 152
-0.996351, 161, 249, 176, 312
-0.996368, 377, 297, 440, 360
-0.996375, 219, 185, 234, 248
-0.996382, 125, 49, 140, 112
-0.996391, 257, 289, 384, 352
-0.996405, 157, 137, 188, 200
-0.996407, 33, 97, 288, 160
-0.996413, 65, 189, 192, 220
-0.996415, 249, 289, 312, 352
-0.996427, 185, 241, 200, 304
-0.996431, 129, 153, 144, 216
-0.996431, 157, 97, 188, 224
-0.996434, 317, 177, 332, 240
-0.996435, 241, 189, 368, 220
-0.99644, 337, 225, 368, 352
-0.996446, 33, 85, 160, 116
-0.996479, 339, 241, 354, 304
-0.996491, 115, 177, 130, 240
-0.996502, 17, 69, 144, 100
-0.996504, 33, 65, 64, 192
-0.996521, 233, 249, 248, 312
-0.996543, 225, 169, 480, 232
-0.996573, 81, 93, 208, 124
-0.996582, 337, 1, 400, 375
-0.996595, 105, 41, 120, 104
-0.996607, 81, 41, 208, 72
-0.996622, 161, 1, 224, 256
-0.996628, 169, 1, 200, 128
-0.996629, 257, 237, 384, 268
-0.996651, 17, 229, 144, 260
-0.996692, 173, 209, 188, 272
-0.996694, 157, 169, 172, 232
-0.9967, 127, 241, 142, 304
-0.996705, 245, 161, 260, 224
-0.996719, 91, 153, 106, 216
-0.996723, 97, 129, 112, 192
-0.996723, 281, 209, 296, 272
-0.996747, 53, 273, 84, 336
-0.996747, 129, 49, 256, 80
-0.996758, 209, 1, 240, 128
-0.99676, 207, 169, 222, 232
-0.996765, 165, 1, 196, 64
-0.996769, 147, 201, 162, 232
-0.996773, 105, 177, 120, 240
-0.996781, 123, 153, 138, 216
-0.996783, 213, 225, 228, 288
-0.996785, 241, 221, 368, 252
-0.996795, 65, 117, 192, 148
-0.996804, 377, 137, 440, 200
-0.996805, 125, 1, 156, 128
-0.996814, 193, 209, 320, 240
-0.996843, 193, 189, 320, 220
-0.996858, 117, 249, 132, 312
-0.99686, 209, 65, 240, 192
-0.996871, 1, 137, 500, 200
-0.996875, 139, 249, 154, 280
-0.996893, 113, 65, 240, 96
-0.996894, 159, 225, 174, 256
-0.996896, 139, 193, 154, 224
-0.996902, 53, 209, 84, 336
-0.996914, 271, 185, 286, 248
-0.996947, 121, 97, 152, 352
-0.996951, 81, 137, 208, 168
-0.996953, 185, 241, 216, 368
-0.996958, 369, 241, 496, 368
-0.99696, 157, 205, 172, 236
-0.996965, 273, 129, 400, 192
-0.996976, 71, 41, 86, 104
-0.996987, 321, 169, 448, 200
-0.99699, 135, 161, 150, 224
-0.99699, 119, 49, 134, 112
-0.996993, 289, 305, 352, 368
-0.996997, 97, 217, 112, 280
-0.997026, 231, 201, 246, 264
-0.997034, 347, 161, 362, 224
-0.997043, 81, 81, 208, 112
-0.997049, 357, 161, 372, 224
-0.997056, 345, 249, 360, 312
-0.997057, 153, 105, 216, 168
-0.997058, 155, 241, 170, 272
-0.997061, 81, 33, 96, 96
-0.997064, 91, 97, 106, 160
-0.997066, 339, 177, 354, 240
-0.99708, 145, 249, 160, 280
-0.997086, 109, 249, 124, 312
-0.99709, 89, 97, 120, 352
-0.997101, 377, 177, 408, 240
-0.997101, 141, 129, 172, 375
-0.997106, 165, 249, 180, 280
-0.997107, 41, 313, 104, 375
-0.99711, 103, 153, 118, 216
-0.997115, 369, 81, 496, 208
-0.997126, 303, 177, 318, 240
-0.997148, 167, 177, 182, 240
-0.997167, 91, 121, 106, 184
-0.99717, 257, 265, 384, 328
-0.997181, 83, 137, 98, 200
-0.997182, 107, 209, 122, 272
-0.997187, 305, 1, 368, 375
-0.997198, 1, 97, 128, 128
-0.997205, 233, 153, 248, 216
-0.997205, 65, 41, 80, 104
-0.997209, 97, 153, 224, 184
-0.997213, 163, 237, 178, 268
-0.997213, 125, 209, 140, 272
-0.997215, 111, 49, 126, 112
-0.997222, 103, 241, 118, 304
-0.997231, 97, 105, 112, 168
-0.997237, 65, 257, 96, 320
-0.997241, 69, 33, 100, 288
-0.997241, 289, 209, 416, 240
-0.99726, 143, 153, 158, 216
-0.997263, 65, 169, 192, 200
-0.997276, 323, 177, 338, 240
-0.99728, 219, 229, 234, 260
-0.997284, 1, 29, 128, 60
-0.997294, 173, 49, 204, 176
-0.997296, 269, 241, 284, 304
-0.997297, 161, 161, 288, 192
-0.997314, 285, 209, 316, 336
-0.997316, 131, 209, 146, 272
-0.997316, 377, 129, 408, 256
-0.997322, 225, 217, 240, 248
-0.997327, 99, 41, 114, 104
-0.997336, 181, 253, 196, 284
-0.997345, 85, 89, 100, 152
-0.99735, 369, 201, 400, 264
-0.997357, 251, 161, 266, 224
-0.997361, 149, 161, 164, 224
-0.997363, 239, 193, 254, 256
-0.99737, 279, 185, 294, 248
-0.997384, 125, 73, 140, 136
-0.99739, 257, 233, 272, 296
-0.99739, 191, 241, 206, 304
-0.997408, 219, 213, 234, 244
-0.99741, 69, 57, 100, 120
-0.997413, 81, 105, 208, 136
-0.997414, 1, 305, 32, 368
-0.997418, 231, 229, 246, 260
-0.997425, 145, 125, 272, 156
-0.997433, 227, 137, 242, 200
-0.997436, 367, 137, 382, 200
-0.997441, 101, 65, 116, 128
-0.997443, 209, 33, 240, 96
-0.997457, 345, 177, 360, 208
-0.997469, 33, 261, 160, 292
-0.997477, 145, 237, 160, 268
-0.997479, 55, 73, 70, 136
-0.99748, 129, 185, 144, 216
-0.997484, 135, 237, 150, 268
-0.997487, 363, 161, 378, 224
-0.997488, 279, 241, 294, 304
-0.997493, 207, 193, 222, 256
-0.997496, 163, 213, 178, 244
-0.997504, 279, 217, 294, 248
-0.997505, 1, 65, 32, 128
-0.997506, 129, 89, 256, 120
-0.997506, 1, 109, 128, 140
-0.997506, 151, 257, 166, 288
-0.997514, 193, 137, 448, 200
-0.997515, 239, 249, 254, 312
-0.997522, 17, 129, 144, 160
-0.997522, 237, 165, 252, 196
-0.997531, 65, 29, 192, 60
-0.997535, 79, 81, 94, 144
-0.997537, 241, 161, 368, 192
-0.997538, 193, 249, 208, 280
-0.997543, 171, 253, 186, 284
-0.997545, 229, 129, 260, 375
-0.997547, 217, 129, 248, 375
-0.997549, 263, 229, 278, 260
-0.997565, 225, 237, 240, 268
-0.997566, 131, 57, 146, 120
-0.997569, 59, 33, 74, 96
-0.997573, 231, 177, 246, 240
-0.997578, 133, 249, 148, 280
-0.997589, 249, 169, 264, 200
-0.99759, 99, 177, 114, 240
-0.997592, 305, 161, 336, 224
-0.997592, 337, 289, 464, 352
-0.997596, 141, 205, 156, 236
-0.997596, 209, 81, 240, 144
-0.997606, 149, 213, 164, 244
-0.997607, 251, 217, 266, 248
-0.997608, 289, 193, 416, 224
-0.997608, 369, 241, 496, 304
-0.99761, 221, 1, 236, 64
-0.997611, 133, 49, 164, 112
-0.997611, 337, 281, 400, 344
-0.99762, 63, 73, 78, 136
-0.99762, 333, 161, 348, 224
-0.997627, 145, 137, 272, 168
-0.997638, 285, 201, 300, 232
-0.997641, 187, 249, 202, 280
-0.997643, 339, 249, 354, 280
-0.997643, 129, 129, 144, 192
-0.997647, 351, 181, 366, 212
-0.997653, 97, 161, 112, 192
-0.997656, 227, 249, 242, 312
-0.997657, 329, 257, 392, 320
-0.997658, 145, 109, 272, 140
-0.997661, 241, 229, 256, 260
-0.997664, 215, 249, 230, 312
-0.997667, 247, 241, 262, 272
-0.99767, 57, 97, 72, 160
-0.997671, 337, 181, 464, 212
-0.997676, 243, 161, 258, 192
-0.99769, 145, 1, 272, 32
-0.997691, 199, 249, 214, 280
-0.997696, 169, 97, 200, 352
-0.997698, 257, 253, 384, 284
-0.997698, 245, 137, 260, 200
-0.997706, 129, 77, 256, 108
-0.997709, 353, 137, 368, 200
-0.997719, 345, 185, 360, 248
-0.99772, 321, 241, 448, 272
-0.99772, 25, 73, 56, 136
-0.997726, 245, 185, 260, 248
-0.997727, 207, 145, 222, 208
-0.99774, 209, 249, 224, 280
-0.997748, 57, 1, 88, 256
-0.997752, 1, 225, 32, 288
-0.997753, 201, 193, 216, 256
-0.997755, 63, 105, 78, 168
-0.997761, 153, 193, 168, 224
-0.997763, 339, 177, 354, 208
-0.997764, 241, 241, 256, 272
-0.997768, 181, 265, 196, 328
-0.99777, 213, 201, 228, 264
-0.997771, 213, 145, 228, 208
-0.997776, 145, 297, 272, 360
-0.997784, 217, 241, 232, 272
-0.997784, 157, 257, 172, 288
-0.997792, 17, 141, 144, 172
-0.997793, 69, 73, 84, 136
-0.997798, 85, 113, 100, 176
-0.997811, 17, 153, 144, 184
-0.997813, 163, 201, 178, 232
-0.997821, 255, 229, 270, 260
-0.997826, 101, 265, 132, 328
-0.997838, 105, 97, 136, 160
-0.99784, 255, 185, 270, 216
-0.99785, 1, 97, 64, 352
-0.997855, 259, 217, 274, 248
-0.997856, 231, 169, 246, 200
-0.997861, 275, 229, 290, 260
-0.997869, 129, 21, 256, 52
-0.997875, 129, 33, 384, 96
-0.997876, 297, 177, 328, 304
-0.99789, 163, 261, 178, 292
-0.997891, 9, 225, 40, 352
-0.997897, 153, 129, 184, 375
-0.9979, 127, 249, 142, 280
-0.997907, 145, 33, 272, 64
-0.997908, 113, 173, 240, 204
-0.997928, 247, 229, 262, 260
-0.99793, 305, 253, 432, 284
-0.997935, 265, 217, 280, 248
-0.997936, 279, 205, 294, 236
-0.997952, 139, 221, 154, 252
-0.997954, 305, 225, 368, 288
-0.997959, 145, 261, 160, 292
-0.997968, 109, 97, 140, 352
-0.997972, 261, 129, 292, 375
-0.997973, 145, 189, 160, 220
-0.997985, 223, 249, 238, 280
-0.997996, 231, 241, 246, 272
-0.998, 269, 229, 284, 260
-0.998011, 243, 173, 258, 204
-0.998023, 127, 57, 142, 88
-0.998026, 343, 189, 358, 220
-0.998061, 77, 129, 108, 375
-0.998069, 81, 1, 112, 256
-0.998101, 351, 169, 366, 200
-0.998105, 321, 129, 448, 192
-0.99811, 103, 249, 118, 280
-0.998121, 289, 313, 416, 375
-0.998122, 161, 1, 416, 64
-0.998124, 333, 177, 348, 208
-0.99813, 149, 1, 180, 128
-0.998136, 257, 241, 272, 272
-0.998144, 123, 185, 138, 216
-0.998148, 265, 241, 280, 272
-0.998152, 165, 225, 180, 256
-0.998158, 1, 297, 256, 360
-0.998161, 131, 197, 146, 228
-0.998162, 139, 261, 154, 292
-0.998172, 343, 165, 358, 196
-0.998173, 291, 205, 306, 236
-0.998176, 333, 249, 348, 280
-0.998179, 369, 193, 432, 320
-0.998204, 255, 173, 270, 204
-0.998205, 359, 173, 374, 204
-0.998214, 103, 173, 118, 204
-0.998218, 241, 129, 272, 375
-0.998219, 271, 217, 286, 248
-0.99822, 237, 153, 252, 184
-0.998222, 145, 149, 272, 180
-0.99823, 57, 29, 72, 60
-0.99824, 33, 213, 160, 244
-0.998242, 313, 33, 376, 288
-0.998244, 113, 253, 128, 284
-0.998267, 1, 297, 128, 328
-0.998267, 81, 125, 96, 156
-0.998275, 129, 261, 144, 292
-0.998284, 269, 205, 284, 236
-0.998285, 65, 33, 80, 64
-0.998289, 119, 249, 134, 280
-0.998296, 225, 197, 240, 228
-0.998303, 217, 313, 280, 375
-0.998318, 261, 177, 276, 208
-0.99833, 107, 161, 122, 192
-0.998335, 93, 173, 124, 188
-0.998336, 89, 249, 120, 264
-0.998341, 125, 239, 156, 254
-0.998346, 261, 177, 292, 192
-0.998346, 213, 165, 228, 196
-0.998348, 197, 247, 228, 262
-0.998348, 265, 201, 296, 216
-0.998349, 105, 51, 136, 66
-0.99835, 173, 263, 204, 278
-0.99835, 77, 57, 108, 72
-0.998351, 165, 233, 196, 248
-0.998352, 17, 165, 144, 196
-0.998353, 169, 213, 200, 228
-0.998354, 313, 207, 344, 222
-0.998354, 165, 207, 196, 222
-0.998355, 365, 181, 396, 196
-0.998356, 241, 191, 272, 206
-0.998356, 161, 61, 288, 92
-0.998356, 1, 285, 128, 316
-0.998356, 93, 255, 124, 270
-0.998357, 129, 211, 160, 226
-0.99836, 229, 191, 260, 206
-0.998363, 109, 203, 140, 218
-0.998364, 245, 217, 260, 248
-0.998364, 257, 243, 288, 258
-0.998365, 305, 181, 336, 196
-0.998366, 149, 269, 180, 284
-0.998366, 37, 35, 68, 50
-0.998366, 145, 179, 176, 194
-0.998367, 257, 255, 288, 270
-0.998368, 117, 67, 148, 82
-0.998368, 325, 187, 356, 202
-0.998368, 53, 43, 84, 58
-0.99837, 337, 251, 368, 266
-0.998372, 193, 179, 224, 194
-0.998372, 97, 69, 128, 84
-0.998372, 137, 269, 168, 284
-0.998372, 225, 257, 256, 272
-0.998373, 237, 177, 252, 208
-0.998374, 241, 255, 272, 270
-0.998376, 105, 211, 136, 226
-0.998378, 329, 259, 360, 274
-0.998378, 77, 43, 108, 58
-0.998381, 193, 185, 224, 200
-0.998383, 1, 47, 32, 62
-0.998384, 109, 265, 140, 280
-0.998385, 93, 49, 124, 64
-0.998385, 65, 35, 96, 50
-0.998386, 233, 161, 264, 176
-0.998386, 261, 237, 292, 252
-0.998386, 89, 165, 120, 180
-0.998386, 261, 249, 292, 264
-0.998388, 245, 173, 276, 188
-0.998388, 245, 215, 276, 230
-0.998388, 233, 229, 264, 244
-0.998391, 193, 141, 320, 172
-0.998391, 169, 213, 184, 244
-0.998391, 265, 211, 296, 226
-0.998392, 277, 217, 308, 232
-0.998393, 169, 237, 184, 268
-0.998394, 209, 169, 240, 184
-0.998394, 109, 75, 140, 90
-0.998397, 121, 173, 136, 204
-0.998398, 263, 197, 278, 228
-0.998399, 225, 223, 256, 238
-0.998399, 151, 269, 166, 300
-0.998399, 323, 177, 338, 208
-0.998399, 121, 247, 152, 262
-0.9984, 121, 267, 152, 282
-0.9984, 221, 181, 252, 196
-0.998402, 361, 175, 392, 190
-0.998402, 225, 211, 256, 226
-0.998402, 223, 161, 238, 192
-0.998404, 49, 37, 80, 52
-0.998405, 301, 181, 316, 212
-0.998406, 125, 185, 156, 200
-0.998408, 325, 175, 356, 190
-0.998412, 349, 171, 380, 186
-0.998412, 121, 205, 152, 220
-0.998412, 113, 183, 144, 198
-0.998412, 211, 237, 226, 268
-0.998414, 337, 189, 352, 220
-0.998415, 229, 241, 260, 256
-0.998418, 277, 207, 308, 222
-0.99842, 81, 9, 208, 40
-0.99842, 75, 121, 90, 152
-0.998422, 149, 223, 180, 238
-0.998423, 141, 199, 172, 214
-0.998423, 185, 251, 248, 266
-0.998426, 257, 183, 288, 198
-0.998428, 161, 245, 192, 260
-0.998428, 341, 185, 372, 200
-0.99843, 149, 229, 180, 244
-0.998431, 137, 237, 168, 252
-0.998432, 383, 181, 398, 212
-0.998433, 107, 49, 122, 80
-0.998435, 129, 253, 160, 268
-0.998436, 165, 251, 196, 266
-0.998441, 97, 173, 112, 204
-0.998442, 141, 189, 172, 204
-0.998445, 221, 173, 252, 188
-0.998446, 121, 261, 184, 276
-0.998446, 249, 181, 264, 212
-0.998448, 241, 235, 272, 250
-0.998448, 197, 259, 228, 274
-0.998449, 241, 241, 272, 256
-0.99845, 131, 209, 146, 240
-0.998451, 229, 217, 260, 232
-0.998451, 213, 255, 244, 270
-0.998453, 257, 223, 288, 238
-0.998456, 153, 205, 184, 220
-0.998458, 229, 235, 260, 250
-0.99846, 129, 249, 192, 264
-0.998461, 153, 253, 216, 268
-0.998461, 245, 249, 276, 264
-0.998462, 325, 203, 356, 218
-0.998463, 121, 261, 152, 276
-0.998463, 117, 53, 132, 84
-0.998464, 209, 219, 272, 234
-0.998465, 113, 189, 144, 204
-0.998465, 201, 169, 264, 184
-0.998471, 353, 181, 384, 196
-0.998474, 337, 173, 368, 188
-0.998476, 229, 251, 260, 266
-0.998478, 201, 231, 264, 246
-0.998478, 153, 217, 184, 232
-0.998482, 109, 255, 140, 270
-0.998484, 233, 189, 248, 220
-0.998484, 57, 101, 72, 132
-0.998486, 125, 191, 156, 206
-0.998486, 213, 243, 244, 258
-0.998487, 241, 185, 272, 200
-0.998487, 85, 137, 100, 168
-0.998487, 233, 173, 264, 188
-0.998489, 269, 223, 300, 238
-0.998489, 329, 181, 392, 196
-0.998489, 177, 273, 240, 336
-0.998491, 149, 237, 180, 252
-0.998492, 97, 253, 160, 268
-0.998495, 245, 229, 276, 244
-0.9985, 121, 241, 184, 256
-0.9985, 99, 45, 114, 76
-0.998506, 187, 261, 202, 292
-0.998507, 217, 231, 248, 246
-0.998511, 217, 237, 248, 252
-0.998512, 145, 261, 176, 276
-0.998513, 121, 223, 184, 238
-0.998513, 217, 225, 280, 240
-0.998514, 157, 269, 172, 300
-0.998518, 241, 217, 304, 232
-0.998518, 107, 205, 122, 236
-0.99852, 65, 113, 80, 144
-0.998521, 97, 281, 352, 344
-0.998521, 189, 65, 220, 192
-0.998521, 209, 251, 272, 266
-0.998522, 77, 37, 92, 68
-0.998522, 265, 231, 296, 246
-0.998522, 185, 259, 248, 274
-0.998524, 125, 157, 140, 188
-0.998527, 137, 219, 168, 234
-0.998527, 129, 197, 160, 212
-0.998527, 325, 251, 356, 266
-0.998528, 181, 253, 212, 268
-0.998529, 33, 201, 96, 264
-0.998531, 81, 297, 208, 328
-0.998534, 113, 201, 176, 216
-0.998537, 145, 211, 208, 226
-0.998537, 153, 33, 184, 288
-0.998538, 245, 221, 276, 236
-0.998541, 221, 167, 252, 182
-0.998541, 133, 261, 164, 276
-0.998543, 173, 241, 204, 368
-0.998543, 337, 193, 464, 224
-0.998544, 345, 201, 360, 232
-0.998546, 305, 181, 368, 196
-0.998547, 213, 219, 244, 234
-0.998547, 97, 265, 160, 280
-0.998547, 97, 187, 160, 202
-0.998549, 137, 243, 168, 258
-0.998551, 165, 257, 196, 272
-0.998551, 265, 217, 296, 232
-0.998551, 313, 175, 376, 190
-0.998552, 241, 233, 304, 248
-0.998553, 153, 251, 184, 266
-0.998553, 141, 205, 172, 220
-0.998554, 237, 179, 268, 194
-0.998555, 209, 237, 272, 252
-0.998556, 241, 211, 304, 226
-0.998556, 243, 253, 258, 284
-0.998557, 217, 249, 248, 264
-0.998557, 97, 245, 160, 260
-0.99856, 73, 49, 136, 64
-0.99856, 25, 37, 88, 52
-0.998561, 1, 17, 128, 48
-0.998561, 141, 213, 172, 228
-0.998561, 161, 235, 224, 250
-0.998562, 201, 181, 264, 196
-0.998562, 129, 217, 192, 232
-0.998563, 121, 229, 184, 244
-0.998563, 145, 259, 208, 274
-0.998563, 141, 249, 172, 264
-0.998565, 105, 211, 168, 226
-0.998566, 57, 107, 120, 122
-0.998566, 217, 253, 232, 284
-0.998567, 51, 33, 66, 64
-0.998568, 305, 187, 368, 202
-0.998569, 217, 213, 280, 228
-0.998569, 193, 105, 448, 168
-0.998569, 161, 229, 224, 244
-0.99857, 65, 255, 128, 270
-0.99857, 225, 167, 288, 182
-0.99857, 285, 129, 316, 375
-0.99857, 97, 239, 160, 254
-0.998576, 329, 181, 360, 196
-0.998579, 129, 235, 192, 250
-0.99858, 217, 175, 280, 190
-0.998584, 41, 1, 72, 256
-0.998584, 121, 185, 184, 200
-0.998584, 97, 193, 160, 208
-0.998584, 217, 257, 280, 272
-0.998584, 153, 211, 184, 226
-0.998586, 233, 251, 296, 266
-0.998586, 185, 245, 248, 260
-0.998587, 169, 219, 232, 234
-0.998589, 193, 261, 208, 292
-0.99859, 197, 253, 228, 268
-0.998591, 89, 55, 152, 70
-0.998591, 71, 45, 86, 76
-0.998592, 91, 165, 106, 196
-0.998594, 97, 259, 160, 274
-0.998594, 121, 195, 184, 210
-0.998595, 241, 223, 304, 238
-0.998598, 121, 269, 184, 284
-0.998598, 209, 243, 272, 258
-0.998599, 121, 255, 184, 270
-0.998599, 145, 177, 160, 304
-0.998601, 233, 167, 264, 182
-0.998601, 341, 179, 372, 194
-0.998603, 65, 43, 128, 58
-0.998603, 185, 225, 248, 240
-0.998605, 213, 225, 244, 240
-0.998607, 149, 243, 180, 258
-0.998608, 49, 95, 112, 110
-0.99861, 17, 177, 144, 208
-0.998611, 161, 245, 224, 260
-0.998611, 345, 175, 408, 190
-0.998613, 297, 255, 360, 270
-0.998613, 121, 51, 184, 66
-0.998614, 161, 187, 224, 202
-0.998615, 249, 181, 312, 196
-0.998618, 89, 61, 152, 76
-0.998619, 145, 179, 208, 194
-0.99862, 1, 309, 128, 340
-0.99862, 321, 253, 384, 268
-0.998621, 145, 205, 208, 220
-0.998623, 65, 249, 128, 264
-0.998624, 265, 209, 328, 224
-0.998625, 57, 101, 120, 116
-0.998625, 65, 71, 128, 86
-0.998626, 241, 239, 304, 254
-0.998627, 57, 115, 120, 130
-0.998628, 193, 163, 256, 178
-0.998628, 169, 213, 232, 228
-0.998629, 225, 185, 288, 200
-0.998629, 145, 265, 208, 280
-0.99863, 97, 233, 160, 248
-0.99863, 25, 73, 88, 88
-0.998631, 73, 261, 136, 276
-0.998635, 97, 217, 160, 232
-0.998639, 193, 175, 256, 190
-0.998643, 353, 181, 416, 196
-0.998643, 297, 203, 360, 218
-0.998644, 345, 187, 408, 202
-0.998646, 65, 65, 128, 80
-0.998647, 281, 185, 344, 200
-0.998647, 305, 193, 368, 208
-0.998648, 65, 125, 128, 140
-0.998648, 225, 161, 288, 176
-0.998648, 65, 141, 128, 156
-0.998651, 49, 37, 112, 52
-0.998651, 41, 85, 104, 100
-0.998651, 97, 177, 160, 192
-0.998653, 257, 253, 320, 268
-0.998655, 97, 225, 160, 240
-0.998655, 33, 79, 96, 94
-0.998655, 241, 175, 304, 190
-0.998655, 25, 43, 88, 58
-0.998656, 151, 193, 166, 320
-0.998656, 33, 51, 96, 66
-0.998657, 121, 71, 184, 86
-0.998658, 185, 187, 248, 202
-0.998658, 17, 31, 80, 46
-0.99866, 121, 179, 184, 194
-0.998662, 233, 245, 296, 260
-0.998663, 161, 91, 224, 106
-0.998664, 1, 81, 64, 96
-0.998665, 217, 191, 280, 206
-0.998665, 129, 273, 256, 304
-0.998665, 89, 71, 152, 86
-0.998666, 273, 247, 336, 262
-0.998666, 65, 131, 128, 146
-0.998666, 185, 237, 248, 252
-0.998669, 57, 31, 120, 46
-0.99867, 321, 199, 384, 214
-0.99867, 161, 97, 224, 112
-0.998672, 89, 205, 152, 220
-0.998673, 65, 149, 128, 164
-0.998673, 185, 91, 248, 106
-0.998674, 177, 169, 240, 184
-0.998674, 209, 273, 272, 336
-0.998676, 241, 203, 304, 218
-0.998677, 273, 195, 336, 210
-0.998677, 345, 251, 408, 266
-0.998677, 145, 195, 208, 210
-0.998678, 289, 175, 352, 190
-0.998678, 121, 57, 184, 72
-0.998681, 89, 163, 152, 178
-0.998681, 65, 243, 128, 258
-0.998683, 329, 193, 392, 208
-0.998685, 265, 215, 328, 230
-0.998691, 17, 201, 144, 232
-0.998705, 357, 177, 388, 304
-0.998715, 65, 281, 192, 312
-0.998722, 297, 241, 328, 368
-0.998726, 281, 113, 312, 240
-0.998727, 53, 97, 84, 352
-0.998737, 233, 161, 248, 288
-0.99876, 209, 33, 240, 288
-0.998784, 273, 33, 336, 288
-0.998789, 209, 125, 336, 156
-0.998789, 321, 305, 384, 368
-0.998802, 137, 177, 152, 304
-0.998807, 241, 161, 256, 288
-0.99884, 249, 161, 264, 288
-0.998846, 369, 221, 496, 252
-0.998865, 229, 65, 260, 192
-0.998874, 219, 177, 234, 304
-0.998877, 259, 193, 274, 320
-0.998881, 325, 129, 356, 375
-0.998902, 167, 193, 182, 320
-0.998905, 157, 193, 172, 320
-0.998914, 13, 1, 44, 256
-0.998921, 97, 97, 112, 224
-0.998932, 125, 1, 156, 256
-0.998938, 361, 97, 424, 352
-0.998948, 157, 145, 172, 272
-0.998953, 225, 209, 240, 336
-0.998953, 409, 233, 472, 296
-0.998961, 193, 17, 320, 48
-0.998962, 25, 1, 56, 256
-0.998964, 273, 129, 304, 375
-0.998965, 129, 49, 160, 176
-0.998971, 127, 177, 142, 304
-0.998982, 341, 129, 372, 375
-0.998991, 145, 225, 160, 352
-0.998996, 101, 1, 132, 256
-0.998999, 49, 317, 176, 348
-0.999014, 369, 169, 496, 200
-0.999027, 229, 33, 260, 288
-0.999034, 369, 265, 496, 328
-0.999038, 231, 209, 246, 336
-0.99904, 17, 273, 144, 304
-0.999042, 177, 313, 240, 375
-0.999046, 1, 5, 128, 36
-0.999054, 305, 229, 432, 260
-0.999058, 21, 65, 52, 192
-0.999067, 401, 161, 464, 224
-0.999075, 353, 205, 480, 236
-0.999079, 209, 161, 224, 288
-0.99909, 97, 145, 112, 272
-0.99909, 145, 129, 160, 256
-0.999103, 265, 177, 280, 304
-0.999116, 133, 129, 148, 256
-0.999116, 245, 209, 260, 336
-0.999121, 275, 193, 290, 320
-0.999134, 225, 313, 480, 375
-0.999136, 145, 313, 272, 344
-0.999146, 193, 5, 320, 36
-0.999147, 107, 129, 122, 256
-0.99915, 339, 161, 354, 288
-0.999165, 1, 113, 500, 176
-0.999168, 227, 161, 242, 288
-0.999169, 91, 81, 106, 208
-0.99917, 139, 225, 154, 352
-0.999173, 309, 129, 340, 375
-0.999173, 1, 33, 500, 96
-0.999182, 361, 233, 424, 296
-0.999184, 1, 325, 128, 356
-0.999187, 97, 313, 224, 344
-0.999193, 209, 341, 336, 372
-0.999203, 197, 129, 228, 375
-0.999206, 81, 81, 96, 208
-0.999209, 107, 177, 122, 304
-0.999211, 239, 209, 254, 336
-0.999212, 251, 209, 266, 336
-0.999222, 203, 145, 218, 272
-0.999231, 151, 145, 166, 272
-0.999232, 71, 49, 86, 176
-0.999232, 127, 129, 142, 256
-0.999234, 297, 129, 328, 375
-0.999237, 121, 161, 136, 288
-0.999243, 345, 177, 360, 304
-0.999244, 177, 89, 304, 120
-0.999255, 91, 129, 106, 256
-0.999266, 61, 33, 76, 160
-0.99927, 209, 109, 336, 140
-0.999273, 369, 245, 496, 276
-0.999281, 107, 65, 122, 192
-0.999291, 197, 177, 212, 304
-0.999302, 161, 329, 288, 360
-0.999303, 257, 145, 272, 272
-0.999306, 357, 129, 388, 375
-0.999309, 331, 177, 346, 304
-0.999316, 401, 129, 464, 256
-0.999316, 173, 177, 188, 304
-0.999323, 167, 145, 182, 272
-0.999323, 177, 77, 304, 108
-0.999324, 97, 49, 112, 176
-0.999331, 17, 189, 144, 220
-0.999332, 101, 193, 116, 320
-0.999339, 369, 325, 496, 356
-0.999339, 1, 337, 128, 368
-0.99934, 185, 97, 216, 352
-0.999342, 1, 89, 500, 152
-0.999342, 117, 33, 132, 160
-0.999342, 85, 145, 100, 272
-0.999352, 139, 129, 154, 256
-0.999358, 159, 241, 174, 368
-0.999364, 191, 177, 206, 304
-0.999364, 269, 225, 284, 352
-0.999365, 241, 321, 368, 352
-0.999368, 219, 129, 234, 256
-0.999371, 193, 289, 448, 352
-0.999375, 285, 177, 300, 304
-0.999379, 1, 265, 500, 328
-0.999381, 193, 33, 320, 64
-0.999388, 47, 1, 62, 128
-0.999391, 77, 33, 92, 160
-0.999393, 193, 49, 320, 80
-0.999394, 113, 193, 128, 320
-0.999395, 317, 97, 348, 224
-0.999401, 165, 241, 180, 368
-0.999404, 225, 113, 240, 240
-0.999407, 53, 17, 68, 144
-0.999409, 65, 129, 96, 375
-0.999409, 239, 113, 254, 240
-0.99942, 279, 129, 294, 256
-0.999423, 115, 145, 130, 272
-0.999436, 91, 177, 106, 304
-0.999441, 213, 209, 228, 336
-0.999442, 337, 113, 352, 240
-0.999444, 347, 129, 362, 256
-0.999459, 265, 129, 280, 256
-0.999463, 107, 17, 122, 144
-0.999466, 151, 241, 166, 368
-0.999468, 87, 33, 102, 160
-0.99947, 219, 225, 234, 352
-0.99947, 193, 317, 320, 348
-0.999475, 325, 177, 340, 304
-0.99948, 145, 285, 272, 316
-0.999483, 369, 113, 496, 176
-0.999486, 137, 33, 168, 288
-0.999488, 377, 1, 440, 375
-0.99949, 273, 145, 288, 272
-0.999494, 167, 81, 182, 208
-0.999495, 123, 49, 138, 176
-0.999499, 41, 97, 72, 352
-0.999501, 289, 329, 416, 360
-0.999502, 397, 129, 428, 256
-0.999506, 241, 313, 368, 375
-0.999507, 339, 225, 354, 352
-0.999508, 195, 113, 210, 240
-0.999508, 129, 65, 384, 128
-0.999513, 213, 113, 228, 240
-0.999515, 173, 129, 188, 256
-0.999519, 291, 177, 306, 304
-0.999527, 203, 193, 218, 320
-0.999528, 281, 225, 296, 352
-0.999529, 67, 1, 82, 128
-0.999534, 81, 329, 208, 360
-0.999536, 79, 129, 94, 256
-0.999538, 189, 113, 204, 240
-0.999539, 133, 225, 148, 352
-0.999539, 359, 161, 374, 288
-0.999542, 121, 113, 136, 240
-0.999547, 1, 49, 32, 176
-0.99955, 107, 225, 122, 352
-0.999556, 193, 305, 320, 336
-0.999562, 119, 225, 134, 352
-0.999563, 91, 225, 106, 352
-0.999564, 331, 129, 346, 256
-0.999565, 241, 141, 368, 172
-0.999568, 131, 81, 146, 208
-0.99957, 127, 241, 142, 368
-0.99957, 367, 129, 382, 256
-0.999571, 41, 17, 56, 144
-0.999572, 61, 97, 76, 224
-0.999572, 289, 141, 416, 172
-0.999575, 241, 293, 368, 324
-0.999576, 321, 129, 336, 256
-0.999579, 353, 129, 368, 256
-0.999581, 259, 227, 274, 242
-0.999584, 217, 245, 232, 260
-0.999584, 55, 37, 70, 52
-0.999584, 271, 217, 286, 232
-0.999586, 341, 257, 356, 272
-0.999586, 153, 197, 168, 212
-0.999586, 65, 107, 80, 122
-0.999586, 5, 49, 20, 64
-0.999586, 279, 221, 294, 236
-0.999587, 363, 175, 378, 190
-0.999588, 231, 173, 246, 188
-0.999588, 119, 181, 134, 196
-0.999588, 219, 239, 234, 254
-0.999588, 43, 65, 58, 192
-0.999588, 231, 239, 246, 254
-0.99959, 63, 41, 78, 56
-0.999591, 91, 167, 106, 182
-0.999591, 135, 209, 150, 224
-0.999591, 245, 113, 260, 240
-0.999592, 305, 193, 320, 208
-0.999592, 201, 97, 216, 224
-0.999592, 329, 183, 344, 198
-0.999593, 125, 255, 140, 270
-0.999594, 139, 221, 154, 236
-0.999594, 153, 251, 168, 266
-0.999595, 123, 187, 138, 202
-0.999595, 219, 225, 234, 240
-0.999596, 141, 215, 156, 230
-0.999596, 195, 185, 210, 200
-0.999596, 239, 225, 254, 240
-0.999596, 265, 247, 280, 262
-0.999596, 331, 253, 346, 268
-0.999596, 281, 209, 296, 224
-0.999597, 323, 205, 338, 220
-0.999598, 133, 255, 148, 270
-0.999598, 131, 193, 146, 208
-0.999599, 141, 201, 156, 216
-0.9996, 247, 241, 262, 256
-0.9996, 179, 193, 194, 320
-0.9996, 369, 233, 496, 264
-0.9996, 125, 1, 140, 128
-0.9996, 33, 17, 48, 144
-0.9996, 49, 345, 176, 375
-0.999602, 385, 185, 400, 200
-0.999602, 289, 157, 416, 188
-0.999604, 57, 103, 72, 118
-0.999605, 323, 181, 338, 196
-0.999605, 265, 239, 280, 254
-0.999606, 173, 225, 188, 352
-0.999607, 151, 219, 166, 234
-0.999607, 353, 305, 480, 336
-0.999607, 279, 227, 294, 242
-0.999609, 249, 225, 264, 240
-0.999609, 237, 181, 252, 196
-0.99961, 255, 233, 270, 248
-0.999613, 35, 209, 50, 336
-0.999613, 271, 231, 286, 246
-0.999613, 37, 65, 52, 192
-0.999614, 175, 257, 190, 272
-0.999614, 291, 207, 306, 222
-0.999616, 97, 173, 112, 188
-0.999617, 257, 249, 272, 264
-0.999617, 97, 167, 112, 182
-0.99962, 249, 217, 264, 232
-0.99962, 265, 225, 280, 240
-0.999621, 251, 113, 266, 240
-0.999623, 41, 225, 56, 352
-0.999623, 305, 317, 432, 348
-0.999623, 67, 97, 82, 224
-0.999624, 147, 191, 162, 206
-0.999624, 237, 239, 252, 254
-0.999625, 153, 239, 168, 254
-0.999627, 139, 233, 154, 248
-0.999628, 341, 187, 356, 202
-0.99963, 129, 261, 144, 276
-0.999631, 383, 129, 398, 256
-0.999631, 157, 221, 172, 236
-0.999632, 433, 1, 496, 375
-0.999632, 339, 181, 354, 196
-0.999632, 225, 241, 240, 256
-0.999633, 329, 203, 344, 218
-0.999633, 73, 97, 88, 224
-0.999633, 231, 167, 246, 182
-0.999635, 265, 231, 280, 246
-0.999636, 249, 171, 264, 186
-0.999636, 247, 231, 262, 246
-0.999637, 187, 253, 202, 268
-0.999638, 243, 251, 258, 266
-0.999638, 145, 345, 272, 375
-0.999639, 225, 221, 240, 236
-0.99964, 139, 251, 154, 266
-0.999641, 81, 209, 96, 336
-0.999641, 71, 209, 86, 336
-0.999641, 145, 261, 160, 276
-0.999642, 259, 241, 274, 368
-0.999644, 185, 177, 200, 304
-0.999645, 225, 233, 240, 248
-0.999645, 147, 199, 162, 214
-0.999645, 157, 215, 172, 230
-0.999647, 237, 245, 252, 260
-0.999647, 227, 249, 242, 264
-0.999647, 163, 205, 178, 220
-0.999648, 163, 1, 178, 128
-0.999651, 181, 255, 196, 270
-0.999654, 59, 209, 74, 336
-0.999655, 209, 61, 336, 92
-0.999655, 289, 305, 416, 336
-0.999656, 53, 81, 68, 208
-0.999656, 139, 239, 154, 254
-0.999657, 159, 259, 174, 274
-0.999657, 151, 261, 166, 276
-0.999658, 253, 177, 268, 192
-0.999659, 177, 65, 192, 192
-0.999659, 1, 1, 16, 128
-0.99966, 285, 129, 300, 256
-0.99966, 259, 183, 274, 198
-0.999661, 249, 185, 264, 200
-0.999661, 231, 97, 246, 224
-0.999663, 29, 209, 44, 336
-0.999663, 159, 251, 174, 266
-0.999665, 219, 231, 234, 246
-0.999668, 337, 341, 464, 372
-0.999668, 433, 225, 496, 352
-0.999668, 377, 129, 392, 256
-0.999669, 357, 171, 372, 186
-0.99967, 217, 251, 232, 266
-0.999672, 357, 179, 372, 194
-0.999673, 343, 175, 358, 190
-0.999673, 47, 225, 62, 352
-0.999673, 247, 179, 262, 194
-0.999674, 135, 245, 150, 260
-0.999674, 259, 221, 274, 236
-0.999675, 281, 215, 296, 230
-0.999675, 351, 185, 366, 200
-0.999676, 1, 33, 32, 288
-0.999678, 169, 257, 184, 272
-0.999678, 243, 171, 258, 186
-0.99968, 129, 297, 256, 328
-0.99968, 163, 227, 178, 242
-0.999681, 285, 203, 300, 218
-0.999681, 227, 255, 242, 270
-0.999684, 159, 237, 174, 252
-0.999685, 145, 251, 160, 266
-0.999685, 237, 173, 252, 188
-0.999687, 169, 251, 184, 266
-0.999689, 235, 251, 250, 266
-0.99969, 143, 207, 158, 222
-0.99969, 137, 195, 152, 210
-0.99969, 193, 253, 208, 268
-0.999693, 135, 261, 150, 276
-0.999694, 243, 165, 258, 180
-0.999703, 241, 233, 256, 248
-0.999705, 129, 187, 144, 202
-0.999706, 351, 179, 366, 194
-0.999707, 211, 253, 226, 268
-0.999708, 163, 215, 178, 230
-0.999715, 147, 213, 162, 228
-0.999716, 369, 137, 496, 168
-0.999721, 333, 177, 348, 192
-0.999723, 145, 241, 160, 256
-0.999724, 337, 251, 352, 266
-0.999732, 201, 253, 216, 268
-0.999733, 225, 227, 240, 242
-0.999738, 219, 217, 234, 232
-0.999739, 163, 221, 178, 236
-0.999748, 163, 243, 178, 258
-0.999749, 345, 181, 360, 196
-0.99976, 231, 233, 246, 248
-0.999762, 237, 167, 252, 182
-0.99977, 153, 245, 168, 260
-0.999793, 151, 205, 166, 220
-0.999796, 157, 209, 172, 224
-0.999809, 113, 1, 144, 256
-0.999824, 281, 281, 344, 344
-0.999828, 129, 313, 384, 375
-0.999864, 9, 161, 72, 288
-0.999875, 1, 57, 500, 120
-0.99988, 401, 1, 464, 375
-0.999898, 25, 97, 56, 352
-0.999942, 425, 305, 488, 368
-0.999944, 341, 33, 372, 288
-0.999996, 249, 33, 312, 288
-1.00001, 229, 1, 260, 128
-1.00002, 373, 129, 404, 375
-1.00003, 433, 129, 496, 256
-1.00006, 57, 145, 88, 272
-1.00006, 197, 33, 228, 288
-1.00007, 225, 265, 480, 328
-1.00008, 1, 9, 500, 72
-1.0001, 185, 1, 216, 256
-1.0001, 173, 1, 204, 256
-1.00011, 241, 33, 272, 288
-1.00015, 261, 33, 292, 288
-1.0002, 353, 33, 384, 288
-1.00021, 13, 97, 44, 352
-1.00021, 293, 113, 324, 240
-1.00022, 241, 313, 304, 375
-1.00028, 369, 177, 400, 304
-1.00036, 385, 129, 416, 375
-1.00036, 445, 129, 476, 375
-1.00036, 321, 33, 352, 288
-1.00037, 1, 129, 32, 375
-1.00042, 321, 105, 448, 168
-1.00044, 409, 129, 440, 375
-1.00047, 305, 33, 336, 288
-1.00049, 457, 129, 488, 375
-1.0005, 433, 129, 464, 375
-1.0005, 277, 33, 308, 288
-1.0005, 365, 33, 396, 288
-1.00055, 293, 33, 324, 288
-1.00057, 397, 129, 428, 375
-1.00058, 469, 129, 500, 375
-1.00061, 421, 129, 452, 375
-1.00062, 273, 105, 400, 168
-1.00062, 341, 81, 372, 208
-1.00074, 385, 129, 448, 375
-1.0008, 433, 129, 496, 375
-1.00085, 1, 297, 500, 360
-1.00088, 381, 33, 412, 288
-1.00095, 145, 97, 176, 224
-1.00101, 425, 33, 456, 288
-1.00101, 357, 81, 388, 208
-1.00102, 393, 33, 424, 288
-1.00103, 361, 81, 424, 208
-1.00104, 409, 33, 440, 288
-1.0011, 453, 33, 484, 288
-1.0011, 469, 33, 500, 288
-1.00115, 309, 225, 340, 352
-1.00116, 437, 33, 468, 288
-1.00138, 257, 81, 384, 208
-1.00141, 45, 145, 76, 272
-1.00143, 377, 241, 440, 368
-1.00148, 305, 65, 432, 192
-1.00156, 409, 129, 440, 256
-1.00159, 465, 129, 496, 256
-1.00162, 441, 129, 472, 256
-1.00164, 273, 17, 400, 80
-1.00173, 337, 25, 464, 88
-1.00177, 257, 25, 500, 88
-1.00177, 225, 65, 480, 128
-1.00177, 337, 33, 400, 288
-1.00178, 321, 49, 448, 112
-1.00196, 273, 49, 400, 112
-1.00205, 257, 1, 500, 64
-1.00209, 321, 1, 448, 64
-1.00212, 381, 177, 412, 304
-1.00227, 185, 17, 216, 144
-1.00232, 21, 145, 52, 272
-1.00236, 1, 113, 64, 240
-1.0024, 421, 129, 452, 256
-1.00242, 409, 129, 472, 375
-1.00247, 273, 73, 400, 136
-1.00256, 449, 209, 480, 336
-1.00267, 33, 161, 64, 288
-1.00269, 401, 225, 464, 352
-1.00274, 337, 73, 464, 136
-1.00281, 461, 225, 492, 352
-1.00283, 453, 129, 484, 256
-1.00293, 437, 225, 468, 352
-1.003, 369, 1, 496, 64
-1.003, 369, 49, 496, 112
-1.00303, 373, 225, 404, 352
-1.00308, 305, 81, 336, 208
-1.00323, 1, 177, 32, 304
-1.00324, 9, 129, 40, 256
-1.00332, 369, 81, 400, 208
-1.00336, 425, 177, 456, 304
-1.00339, 137, 1, 168, 128
-1.00349, 261, 97, 292, 224
-1.00355, 409, 209, 440, 336
-1.00358, 393, 177, 424, 304
-1.00379, 349, 225, 380, 352
-1.00379, 385, 225, 416, 352
-1.00395, 361, 225, 392, 352
-1.004, 361, 1, 424, 256
-1.00417, 381, 81, 412, 208
-1.00448, 329, 65, 392, 192
-1.00541, 385, 33, 448, 288
-1.0057, 409, 33, 472, 288
-1.00574, 433, 33, 496, 288
-1.0061, 401, 177, 464, 304
-1.00643, 417, 81, 480, 208
-1.00682, 305, 65, 368, 192
-1.00689, 393, 81, 456, 208
-1.00811, 433, 177, 496, 304
-1.00846, 257, 1, 384, 128
-1.00859, 321, 1, 448, 128
-1.00976, 265, 65, 328, 192
-1.00996, 369, 1, 496, 128
-1.01106, 257, 1, 500, 128
-1.01202, 305, 1, 368, 128
-1.01328, 281, 1, 344, 128
-1.01338, 337, 1, 400, 128
-1.01452, 361, 1, 424, 128
-1.01471, 257, 1, 320, 128
-1.01478, 385, 1, 448, 128
-1.01478, 409, 1, 472, 128
-1.01478, 433, 1, 496, 128
