1869
-0.424132, 1, 33, 500, 288
-0.481336, 1, 1, 500, 333
-0.503981, 33, 1, 288, 333
-0.533663, 129, 1, 384, 333
-0.588359, 225, 1, 480, 333
-0.630852, 1, 33, 256, 288
-0.643614, 129, 33, 384, 288
-0.687986, 257, 65, 500, 320
-0.849335, 129, 33, 256, 288
-0.856268, 129, 1, 256, 333
-0.871712, 1, 33, 128, 288
-0.875457, 273, 33, 400, 288
-0.875766, 17, 1, 144, 333
-0.875912, 193, 65, 320, 320
-0.880019, 369, 33, 496, 288
-0.882758, 369, 1, 496, 333
-0.882908, 49, 65, 176, 320
-0.898519, 1, 65, 500, 192
-0.898568, 321, 1, 448, 333
-0.900874, 321, 33, 448, 288
-0.90495, 177, 1, 304, 333
-0.905361, 81, 1, 208, 333
-0.907932, 1, 161, 500, 288
-0.911268, 273, 1, 400, 333
-0.915456, 225, 1, 352, 333
-0.923712, 65, 81, 320, 208
-0.927899, 257, 81, 500, 208
-0.931178, 145, 49, 272, 176
-0.934027, 1, 17, 500, 144
-0.935703, 1, 113, 500, 240
-0.938113, 65, 33, 320, 160
-0.939583, 65, 97, 192, 224
-0.94402, 433, 49, 496, 176
-0.944488, 161, 145, 416, 272
-0.944877, 33, 145, 288, 272
-0.945281, 161, 65, 416, 192
-0.945639, 369, 49, 496, 176
-0.94722, 17, 65, 144, 192
-0.949794, 257, 81, 320, 208
-0.950228, 209, 81, 336, 208
-0.951032, 273, 65, 400, 192
-0.951599, 289, 65, 352, 192
-0.951926, 393, 65, 456, 192
-0.952728, 145, 49, 208, 176
-0.952875, 73, 81, 136, 208
-0.953458, 225, 81, 288, 208
-0.953933, 1, 209, 500, 333
-0.954443, 105, 97, 168, 224
-0.954736, 321, 81, 448, 208
-0.954889, 129, 193, 384, 320
-0.956148, 169, 33, 232, 160
-0.956744, 129, 129, 256, 256
-0.957657, 257, 145, 500, 272
-0.958014, 201, 81, 264, 208
-0.958579, 81, 145, 208, 272
-0.959073, 129, 97, 192, 224
-0.960115, 97, 33, 224, 160
-0.960225, 209, 145, 336, 272
-0.960298, 433, 57, 496, 120
-0.96135, 329, 65, 392, 192
-0.961808, 9, 65, 72, 128
-0.962386, 9, 49, 72, 176
-0.963416, 321, 177, 448, 304
-0.963795, 225, 17, 480, 144
-0.96414, 233, 129, 296, 256
-0.964352, 369, 65, 432, 192
-0.964782, 1, 209, 256, 333
-0.965311, 49, 65, 112, 192
-0.96582, 145, 177, 208, 304
-0.965932, 345, 65, 408, 128
-0.966055, 185, 177, 248, 304
-0.966076, 169, 49, 232, 112
-0.966525, 369, 73, 432, 136
-0.966646, 129, 177, 256, 304
-0.966874, 289, 73, 352, 136
-0.966979, 225, 209, 480, 333
-0.967422, 281, 145, 344, 272
-0.96745, 369, 161, 496, 288
-0.967779, 49, 209, 176, 333
-0.968066, 353, 209, 416, 333
-0.968126, 369, 209, 496, 333
-0.968377, 393, 73, 456, 136
-0.968558, 257, 129, 320, 256
-0.968825, 33, 57, 96, 120
-0.968921, 33, 161, 160, 288
-0.969016, 153, 129, 216, 256
-0.969189, 289, 129, 416, 256
-0.969473, 209, 145, 272, 272
-0.969851, 401, 161, 464, 288
-0.970198, 161, 1, 224, 256
-0.970303, 177, 97, 240, 224
-0.970513, 105, 113, 168, 176
-0.970909, 65, 73, 128, 136
-0.970978, 1, 209, 128, 333
-0.971309, 97, 33, 160, 160
-0.97171, 121, 49, 184, 176
-0.971801, 97, 161, 160, 288
-0.971977, 1, 65, 128, 128
-0.972041, 385, 209, 448, 333
-0.972334, 105, 81, 168, 144
-0.972562, 145, 41, 208, 104
-0.973004, 129, 65, 256, 128
-0.973076, 297, 145, 360, 208
-0.973093, 209, 33, 272, 160
-0.973203, 17, 209, 80, 333
-0.973233, 273, 177, 400, 304
-0.973303, 193, 17, 320, 144
-0.973447, 313, 81, 376, 144
-0.973456, 321, 33, 448, 160
-0.973595, 257, 137, 320, 200
-0.973669, 249, 81, 312, 144
-0.973676, 201, 73, 264, 136
-0.973816, 305, 177, 368, 304
-0.97383, 417, 209, 480, 333
-0.973904, 225, 145, 288, 208
-0.974179, 369, 57, 496, 120
-0.974269, 97, 153, 160, 216
-0.974322, 193, 161, 256, 224
-0.974935, 201, 65, 264, 320
-0.975018, 57, 33, 120, 288
-0.975048, 73, 145, 136, 272
-0.975286, 361, 137, 424, 200
-0.975322, 225, 65, 288, 320
-0.975339, 433, 33, 496, 288
-0.975363, 273, 73, 400, 136
-0.975657, 145, 65, 208, 128
-0.975855, 393, 33, 456, 288
-0.975873, 369, 49, 432, 112
-0.975886, 1, 17, 128, 144
-0.976119, 49, 177, 112, 304
-0.976466, 345, 161, 408, 288
-0.976986, 225, 81, 288, 144
-0.97699, 393, 49, 456, 112
-0.97715, 433, 137, 496, 200
-0.977211, 457, 49, 488, 112
-0.977276, 105, 57, 168, 120
-0.977409, 137, 33, 200, 288
-0.977514, 97, 65, 160, 320
-0.977607, 377, 161, 440, 288
-0.977611, 257, 161, 320, 224
-0.977648, 17, 65, 48, 128
-0.977706, 301, 65, 332, 192
-0.977775, 297, 169, 360, 232
-0.977895, 25, 33, 88, 288
-0.978039, 149, 57, 180, 120
-0.978081, 321, 57, 384, 120
-0.978187, 153, 49, 184, 176
-0.97819, 425, 129, 488, 256
-0.978193, 289, 33, 352, 288
-0.978278, 357, 65, 388, 128
-0.978335, 329, 209, 392, 333
-0.978339, 257, 65, 320, 320
-0.978424, 137, 89, 200, 152
-0.978628, 177, 273, 240, 333
-0.978665, 253, 81, 284, 208
-0.978724, 81, 97, 144, 160
-0.978813, 305, 129, 368, 256
-0.978899, 121, 177, 184, 304
-0.978969, 65, 73, 192, 136
-0.979129, 265, 81, 296, 208
-0.979135, 337, 129, 400, 192
-0.979166, 105, 97, 136, 224
-0.979246, 137, 145, 200, 208
-0.979389, 393, 153, 456, 216
-0.979422, 1, 33, 64, 288
-0.979444, 177, 193, 304, 320
-0.979594, 401, 65, 432, 128
-0.979624, 41, 169, 104, 232
-0.979751, 305, 137, 432, 200
-0.979864, 453, 49, 484, 176
-0.979936, 397, 65, 428, 192
-0.979945, 221, 65, 252, 192
-0.980013, 225, 169, 288, 232
-0.980075, 169, 153, 232, 216
-0.980098, 401, 17, 464, 144
-0.980245, 153, 185, 216, 248
-0.980267, 301, 65, 332, 128
-0.980362, 69, 57, 100, 120
-0.980411, 49, 17, 176, 144
-0.980472, 369, 33, 432, 288
-0.980562, 225, 145, 352, 208
-0.98058, 277, 81, 308, 208
-0.980648, 345, 65, 376, 128
-0.980656, 105, 257, 168, 320
-0.980661, 173, 49, 204, 112
-0.980698, 209, 57, 240, 120
-0.98077, 237, 81, 268, 208
-0.980771, 81, 49, 208, 112
-0.980978, 57, 49, 120, 112
-0.98112, 73, 153, 136, 216
-0.98116, 233, 177, 296, 304
-0.98122, 129, 41, 256, 104
-0.981284, 17, 265, 80, 328
-0.981321, 425, 161, 488, 224
-0.981349, 145, 265, 208, 328
-0.981565, 17, 49, 48, 176
-0.981572, 373, 81, 404, 208
-0.981675, 345, 65, 408, 320
-0.981683, 177, 73, 240, 136
-0.981766, 321, 169, 384, 232
-0.981849, 145, 1, 208, 333
-0.981864, 89, 209, 152, 333
-0.981869, 45, 65, 76, 128
-0.981881, 469, 49, 500, 176
-0.98189, 437, 65, 468, 192
-0.981927, 121, 113, 152, 240
-0.982056, 249, 33, 312, 160
-0.982212, 189, 41, 220, 104
-0.982266, 353, 17, 416, 144
-0.982364, 97, 97, 224, 160
-0.98237, 225, 81, 256, 144
-0.982409, 1, 241, 64, 304
-0.982436, 33, 17, 96, 144
-0.982441, 425, 65, 456, 192
-0.982449, 129, 121, 160, 184
-0.98245, 65, 161, 192, 224
-0.982478, 17, 161, 80, 288
-0.982567, 145, 97, 176, 224
-0.982578, 273, 17, 400, 144
-0.982759, 69, 49, 100, 176
-0.982853, 257, 177, 320, 304
-0.982898, 129, 241, 192, 304
-0.983097, 349, 65, 380, 192
-0.983149, 145, 161, 272, 224
-0.983229, 321, 65, 384, 320
-0.983262, 169, 49, 200, 176
-0.983266, 201, 97, 264, 160
-0.983285, 189, 33, 220, 160
-0.983401, 89, 81, 120, 208
-0.983408, 345, 89, 408, 152
-0.983441, 133, 97, 164, 224
-0.983468, 81, 265, 208, 328
-0.983469, 17, 201, 80, 264
-0.9835, 145, 105, 176, 168
-0.983751, 201, 49, 232, 176
-0.983796, 149, 81, 180, 144
-0.983809, 401, 129, 464, 192
-0.983822, 193, 185, 256, 248
-0.983845, 169, 1, 232, 333
-0.983937, 353, 81, 480, 144
-0.983948, 321, 49, 448, 112
-0.984051, 121, 169, 184, 232
-0.984051, 401, 177, 464, 240
-0.984059, 57, 17, 120, 144
-0.98411, 225, 193, 352, 320
-0.984116, 289, 81, 320, 208
-0.984201, 17, 113, 144, 240
-0.984208, 249, 57, 312, 120
-0.984213, 209, 49, 272, 112
-0.984292, 329, 65, 360, 192
-0.984305, 305, 193, 368, 256
-0.984371, 369, 81, 400, 144
-0.984382, 193, 65, 320, 128
-0.984403, 225, 169, 352, 232
-0.984533, 425, 265, 488, 328
-0.984626, 385, 233, 448, 296
-0.984646, 209, 89, 336, 152
-0.984662, 253, 81, 284, 144
-0.984689, 41, 49, 72, 176
-0.98472, 325, 73, 356, 136
-0.984862, 433, 1, 496, 333
-0.98488, 433, 73, 464, 136
-0.984899, 305, 17, 368, 144
-0.984916, 5, 65, 36, 192
-0.984947, 17, 89, 144, 152
-0.984985, 369, 1, 496, 128
-0.984987, 129, 121, 192, 184
-0.985048, 469, 65, 500, 128
-0.985111, 361, 177, 424, 240
-0.985126, 81, 257, 144, 320
-0.985212, 313, 65, 344, 192
-0.985393, 129, 81, 160, 144
-0.98544, 445, 49, 476, 112
-0.985533, 89, 81, 120, 144
-0.985544, 57, 265, 120, 328
-0.985583, 353, 129, 480, 192
-0.985629, 145, 1, 208, 128
-0.985637, 377, 113, 440, 176
-0.985701, 217, 273, 280, 333
-0.985743, 177, 145, 208, 272
-0.985754, 373, 137, 404, 200
-0.9858, 165, 177, 196, 304
-0.98585, 385, 257, 448, 320
-0.985907, 57, 57, 88, 120
-0.985911, 9, 1, 72, 333
-0.98594, 1, 177, 64, 240
-0.985961, 281, 193, 344, 320
-0.985961, 273, 185, 336, 248
-0.98597, 377, 17, 440, 144
-0.986056, 81, 137, 208, 200
-0.986191, 233, 145, 264, 208
-0.986227, 289, 73, 320, 136
-0.986295, 145, 89, 272, 152
-0.986406, 193, 41, 320, 104
-0.986409, 413, 65, 444, 192
-0.986415, 297, 49, 360, 112
-0.986452, 201, 137, 264, 200
-0.986518, 273, 169, 400, 232
-0.986535, 361, 65, 392, 192
-0.986586, 17, 145, 80, 208
-0.986604, 41, 241, 104, 304
-0.986632, 249, 185, 312, 248
-0.986644, 25, 33, 88, 96
-0.986655, 209, 97, 240, 224
-0.986687, 1, 73, 32, 136
-0.986743, 33, 1, 96, 333
-0.986789, 241, 129, 272, 256
-0.986858, 141, 49, 172, 176
-0.986871, 29, 49, 60, 176
-0.986898, 265, 81, 296, 144
-0.986915, 385, 65, 416, 192
-0.987, 129, 193, 192, 256
-0.98713, 409, 25, 472, 88
-0.987138, 369, 97, 496, 224
-0.987226, 321, 105, 384, 168
-0.987252, 441, 137, 472, 200
-0.987388, 381, 81, 412, 144
-0.987424, 109, 89, 140, 152
-0.987431, 265, 145, 296, 208
-0.987458, 401, 97, 464, 160
-0.987486, 433, 201, 496, 264
-0.987493, 57, 49, 88, 176
-0.987529, 169, 249, 232, 312
-0.987536, 369, 241, 496, 304
-0.987546, 289, 145, 320, 272
-0.987571, 393, 1, 456, 333
-0.987575, 337, 217, 400, 280
-0.987575, 417, 241, 480, 304
-0.987594, 33, 57, 64, 120
-0.987608, 357, 209, 388, 333
-0.987673, 253, 145, 284, 208
-0.987692, 161, 273, 288, 333
-0.987729, 225, 121, 288, 184
-0.987783, 57, 1, 120, 333
-0.987822, 1, 41, 64, 104
-0.987854, 65, 177, 128, 240
-0.987906, 425, 1, 488, 128
-0.987932, 285, 137, 316, 200
-0.98794, 393, 209, 456, 272
-0.987953, 401, 113, 464, 240
-0.988002, 9, 113, 72, 240
-0.988008, 453, 129, 484, 192
-0.988024, 193, 1, 256, 333
-0.988042, 193, 241, 256, 304
-0.988121, 273, 105, 400, 168
-0.98814, 433, 113, 496, 176
-0.988149, 337, 177, 464, 240
-0.988182, 49, 249, 80, 312
-0.988212, 145, 137, 272, 200
-0.988238, 145, 177, 176, 304
-0.988259, 309, 145, 340, 208
-0.988292, 273, 49, 400, 112
-0.988294, 253, 145, 284, 272
-0.988383, 49, 185, 176, 248
-0.98842, 17, 273, 144, 333
-0.988429, 49, 113, 112, 240
-0.988431, 161, 57, 192, 120
-0.988487, 101, 145, 132, 272
-0.988499, 209, 273, 336, 333
-0.988539, 217, 161, 248, 224
-0.988544, 161, 185, 288, 248
-0.988569, 17, 249, 144, 312
-0.988571, 49, 113, 176, 176
-0.988578, 189, 177, 220, 304
-0.988595, 145, 1, 272, 128
-0.988634, 369, 153, 496, 216
-0.988639, 225, 121, 352, 184
-0.988664, 273, 17, 336, 144
-0.988682, 345, 257, 408, 320
-0.988839, 269, 145, 300, 272
-0.988896, 17, 161, 144, 224
-0.988955, 277, 89, 308, 152
-0.988976, 389, 177, 420, 304
-0.988984, 65, 161, 96, 224
-0.989056, 225, 193, 288, 256
-0.989102, 369, 1, 432, 333
-0.989108, 229, 145, 260, 272
-0.989152, 253, 169, 284, 232
-0.989161, 297, 121, 360, 184
-0.989161, 97, 233, 160, 296
-0.98919, 449, 209, 480, 333
-0.989199, 1, 1, 64, 128
-0.989232, 153, 217, 216, 280
-0.989235, 293, 161, 324, 224
-0.989331, 65, 225, 128, 288
-0.989467, 281, 217, 344, 280
-0.989477, 433, 65, 496, 96
-0.989493, 113, 185, 240, 248
-0.989607, 273, 1, 336, 333
-0.989625, 313, 265, 376, 328
-0.989637, 205, 161, 236, 224
-0.989672, 405, 161, 436, 288
-0.989722, 9, 65, 72, 96
-0.989743, 289, 77, 352, 108
-0.989776, 177, 129, 240, 192
-0.989819, 101, 153, 132, 216
-0.989831, 329, 17, 392, 144
-0.989875, 117, 113, 148, 176
-0.989878, 65, 65, 320, 128
-0.989905, 385, 77, 448, 108
-0.989908, 233, 169, 264, 232
-0.989914, 165, 129, 196, 256
-0.989943, 273, 49, 336, 112
-0.989943, 33, 193, 64, 320
-0.98999, 305, 1, 368, 333
-0.989991, 1, 201, 128, 264
-0.99002, 345, 69, 408, 100
-0.990027, 345, 1, 408, 333
-0.990062, 345, 41, 408, 104
-0.990068, 125, 161, 156, 224
-0.990083, 353, 105, 480, 168
-0.990089, 41, 201, 104, 264
-0.990101, 421, 73, 452, 136
-0.99013, 217, 145, 248, 272
-0.990162, 425, 209, 456, 333
-0.99017, 133, 177, 164, 304
-0.990186, 385, 137, 416, 200
-0.990204, 369, 209, 400, 333
-0.990225, 361, 209, 424, 272
-0.990236, 237, 89, 268, 152
-0.990265, 149, 145, 180, 208
-0.990294, 33, 61, 96, 92
-0.990308, 409, 73, 472, 104
-0.990315, 329, 153, 360, 216
-0.990318, 65, 25, 192, 88
-0.990375, 201, 85, 264, 116
-0.990383, 193, 169, 256, 200
-0.990385, 161, 45, 224, 76
-0.990385, 217, 249, 280, 312
-0.990406, 185, 153, 216, 216
-0.990416, 353, 265, 480, 328
-0.990444, 121, 1, 184, 333
-0.99054, 205, 145, 236, 272
-0.990555, 401, 209, 432, 333
-0.990568, 441, 161, 472, 288
-0.990591, 169, 173, 232, 204
-0.990614, 49, 225, 176, 288
-0.990635, 49, 137, 112, 200
-0.990651, 329, 137, 392, 168
-0.99071, 113, 101, 176, 132
-0.99071, 145, 57, 208, 88
-0.990785, 249, 241, 312, 304
-0.990793, 249, 89, 312, 120
-0.99088, 177, 57, 240, 88
-0.990893, 177, 193, 208, 320
-0.990903, 145, 173, 208, 204
-0.990918, 137, 257, 168, 320
-0.99096, 169, 161, 232, 192
-0.990982, 49, 73, 112, 104
-0.990983, 105, 85, 168, 116
-0.990992, 313, 233, 376, 296
-0.991013, 357, 105, 388, 168
-0.991014, 57, 161, 88, 288
-0.991056, 181, 177, 212, 240
-0.991058, 209, 193, 272, 320
-0.991079, 345, 113, 408, 240
-0.991079, 385, 65, 448, 96
-0.991083, 301, 145, 332, 272
-0.991099, 361, 85, 424, 116
-0.991127, 217, 17, 248, 144
-0.991166, 345, 89, 376, 152
-0.991172, 417, 145, 480, 176
-0.99119, 137, 105, 200, 136
-0.991192, 329, 193, 392, 256
-0.991193, 225, 249, 352, 312
-0.991195, 81, 157, 144, 188
-0.991195, 385, 57, 416, 120
-0.9912, 265, 169, 328, 200
-0.991219, 353, 133, 416, 164
-0.991222, 33, 201, 64, 264
-0.991224, 169, 161, 200, 224
-0.991235, 313, 77, 376, 108
-0.991258, 233, 169, 296, 200
-0.991275, 345, 209, 376, 333
-0.991277, 1, 225, 128, 288
-0.991281, 297, 65, 360, 96
-0.991281, 305, 137, 368, 168
-0.991291, 273, 225, 400, 288
-0.99132, 29, 265, 60, 328
-0.99136, 81, 1, 144, 333
-0.991375, 225, 85, 288, 116
-0.991381, 353, 201, 480, 264
-0.991396, 73, 129, 136, 192
-0.991415, 313, 73, 344, 136
-0.991418, 273, 273, 400, 333
-0.99142, 97, 113, 160, 144
-0.991487, 225, 193, 352, 256
-0.991514, 217, 97, 280, 128
-0.991518, 257, 77, 320, 108
-0.991523, 53, 209, 84, 333
-0.991543, 121, 153, 184, 184
-0.991549, 177, 69, 240, 100
-0.991566, 409, 61, 472, 92
-0.99157, 217, 217, 280, 280
-0.99163, 57, 165, 120, 196
-0.991635, 321, 125, 384, 156
-0.991641, 193, 181, 256, 212
-0.991666, 117, 65, 148, 192
-0.991672, 153, 185, 216, 216
-0.9917, 461, 193, 492, 320
-0.991714, 321, 65, 384, 96
-0.991742, 145, 73, 208, 104
-0.991742, 9, 249, 72, 280
-0.991749, 257, 217, 320, 280
-0.991749, 145, 161, 208, 192
-0.991749, 81, 101, 144, 132
-0.991771, 161, 1, 192, 128
-0.991779, 157, 241, 188, 304
-0.991781, 393, 157, 456, 188
-0.991783, 297, 149, 360, 180
-0.991788, 413, 17, 444, 144
-0.991794, 249, 1, 312, 333
-0.991818, 201, 73, 264, 104
-0.991829, 393, 141, 456, 172
-0.99183, 185, 45, 248, 76
-0.991831, 1, 293, 64, 324
-0.991849, 337, 85, 400, 116
-0.99186, 105, 73, 168, 104
-0.991873, 77, 153, 108, 216
-0.991884, 225, 149, 288, 180
-0.991885, 257, 105, 320, 168
-0.991897, 425, 133, 488, 164
-0.991911, 305, 173, 368, 204
-0.991913, 257, 141, 320, 172
-0.991925, 69, 161, 100, 288
-0.991964, 401, 229, 464, 260
-0.991968, 181, 273, 212, 333
-0.991975, 161, 81, 192, 144
-0.991998, 9, 53, 72, 84
-0.991999, 193, 25, 256, 88
-0.992007, 57, 61, 120, 92
-0.992007, 73, 85, 136, 116
-0.992023, 333, 193, 364, 320
-0.992032, 225, 1, 288, 333
-0.992037, 417, 165, 480, 196
-0.99204, 297, 161, 360, 192
-0.992057, 97, 173, 160, 204
-0.992077, 329, 233, 392, 264
-0.992091, 17, 137, 144, 200
-0.992119, 273, 65, 336, 96
-0.992119, 249, 225, 312, 256
-0.992122, 377, 229, 440, 260
-0.992122, 49, 249, 112, 280
-0.992123, 193, 157, 256, 188
-0.992144, 129, 89, 384, 152
-0.992146, 281, 181, 344, 212
-0.992158, 97, 241, 224, 304
-0.992162, 21, 209, 52, 333
-0.992176, 281, 133, 344, 164
-0.992186, 145, 149, 208, 180
-0.992186, 425, 241, 488, 272
-0.992191, 221, 57, 252, 120
-0.992194, 1, 261, 64, 292
-0.992202, 125, 265, 156, 328
-0.992211, 121, 265, 184, 296
-0.992213, 385, 245, 448, 276
-0.992217, 45, 41, 76, 104
-0.992218, 25, 277, 88, 308
-0.992226, 321, 241, 448, 304
-0.992241, 281, 169, 312, 232
-0.992249, 289, 225, 352, 256
-0.992293, 57, 265, 120, 296
-0.992296, 113, 161, 144, 224
-0.992315, 121, 121, 184, 152
-0.992321, 121, 169, 184, 200
-0.992322, 49, 273, 80, 333
-0.992327, 21, 241, 52, 304
-0.992341, 81, 265, 144, 296
-0.992346, 433, 269, 496, 300
-0.992351, 17, 157, 80, 188
-0.992353, 161, 265, 192, 328
-0.992356, 353, 145, 416, 176
-0.99236, 393, 217, 456, 248
-0.992362, 189, 45, 220, 76
-0.992364, 305, 169, 336, 232
-0.99237, 53, 169, 84, 232
-0.992374, 177, 81, 240, 112
-0.992376, 325, 129, 356, 256
-0.992378, 457, 57, 488, 88
-0.99238, 9, 77, 72, 108
-0.992387, 145, 89, 208, 120
-0.992401, 113, 185, 176, 216
-0.992412, 273, 157, 336, 188
-0.992412, 409, 85, 472, 116
-0.992422, 201, 57, 264, 88
-0.992424, 361, 245, 424, 276
-0.992429, 57, 277, 120, 308
-0.992432, 49, 293, 112, 324
-0.992436, 257, 73, 500, 136
-0.992449, 433, 225, 496, 256
-0.992463, 401, 73, 432, 104
-0.992463, 45, 161, 76, 288
-0.992466, 241, 65, 272, 128
-0.992471, 433, 53, 496, 84
-0.992471, 305, 193, 368, 224
-0.992473, 45, 201, 76, 264
-0.99248, 393, 129, 456, 160
-0.992485, 185, 141, 248, 172
-0.992491, 353, 229, 416, 260
-0.99251, 193, 97, 256, 128
-0.992513, 17, 65, 48, 96
-0.992513, 345, 177, 408, 208
-0.992517, 49, 177, 112, 208
-0.99253, 153, 269, 216, 300
-0.99253, 1, 281, 64, 312
-0.992536, 437, 113, 468, 176
-0.992539, 1, 193, 64, 224
-0.992549, 409, 45, 472, 76
-0.992556, 349, 73, 380, 104
-0.992557, 177, 265, 240, 296
-0.992566, 225, 137, 288, 168
-0.992569, 225, 85, 256, 116
-0.992571, 89, 153, 120, 216
-0.992573, 385, 177, 448, 208
-0.992583, 65, 61, 96, 92
-0.992585, 417, 205, 480, 236
-0.992588, 25, 173, 88, 204
-0.99259, 401, 257, 464, 288
-0.992594, 273, 89, 336, 120
-0.992596, 153, 33, 184, 96
-0.992604, 217, 233, 280, 264
-0.992604, 277, 57, 308, 120
-0.992607, 361, 57, 424, 88
-0.992609, 121, 61, 184, 92
-0.992622, 81, 285, 144, 316
-0.992627, 361, 233, 424, 296
-0.992629, 337, 249, 400, 280
-0.992643, 241, 181, 304, 212
-0.992648, 89, 185, 152, 248
-0.992649, 425, 73, 456, 104
-0.992649, 321, 261, 384, 292
-0.992655, 329, 221, 392, 252
-0.992677, 217, 181, 280, 212
-0.992681, 209, 57, 240, 88
-0.992681, 213, 81, 244, 144
-0.992686, 433, 77, 496, 108
-0.992692, 25, 261, 88, 292
-0.992695, 401, 61, 432, 92
-0.992717, 257, 81, 288, 112
-0.992722, 301, 73, 332, 104
-0.992731, 413, 49, 444, 112
-0.992774, 325, 77, 356, 108
-0.992789, 421, 177, 452, 240
-0.992801, 153, 61, 184, 92
-0.992823, 149, 81, 180, 112
-0.992835, 245, 89, 276, 120
-0.992835, 81, 177, 112, 304
-0.992843, 45, 65, 76, 96
-0.992869, 173, 53, 204, 84
-0.992882, 461, 137, 492, 168
-0.992883, 337, 137, 368, 168
-0.992885, 469, 65, 500, 96
-0.99289, 201, 33, 232, 96
-0.992893, 129, 105, 160, 136
-0.992898, 145, 105, 176, 136
-0.992913, 377, 85, 408, 116
-0.992914, 121, 217, 184, 280
-0.992925, 157, 169, 188, 232
-0.992926, 361, 73, 392, 104
-0.99294, 353, 169, 384, 232
-0.99294, 441, 169, 472, 232
-0.992952, 305, 201, 432, 264
-0.992962, 145, 249, 272, 312
-0.992965, 221, 173, 252, 204
-0.992966, 125, 117, 156, 148
-0.992966, 173, 173, 204, 204
-0.992978, 105, 97, 136, 128
-0.992983, 161, 49, 192, 80
-0.992983, 325, 137, 356, 168
-0.992984, 453, 69, 484, 100
-0.992994, 213, 81, 244, 112
-0.992997, 205, 173, 236, 204
-0.992997, 437, 73, 468, 104
-0.993, 361, 129, 392, 192
-0.993001, 285, 169, 316, 200
-0.993011, 441, 149, 472, 180
-0.993013, 445, 57, 476, 88
-0.993017, 185, 173, 216, 204
-0.993028, 373, 137, 404, 168
-0.993035, 77, 69, 108, 100
-0.99304, 245, 173, 276, 204
-0.993061, 269, 85, 300, 116
-0.993062, 269, 169, 300, 200
-0.993087, 453, 129, 484, 256
-0.993088, 353, 125, 384, 156
-0.993088, 441, 137, 472, 168
-0.993089, 33, 61, 64, 92
-0.993093, 469, 169, 500, 232
-0.993098, 209, 69, 240, 100
-0.993105, 149, 93, 180, 124
-0.993105, 337, 81, 368, 112
-0.993106, 65, 169, 96, 200
-0.993109, 81, 49, 144, 112
-0.993112, 413, 61, 444, 92
-0.993114, 317, 49, 348, 112
-0.993114, 385, 177, 416, 240
-0.993117, 425, 161, 456, 288
-0.993131, 233, 173, 264, 204
-0.993141, 157, 149, 188, 180
-0.993147, 205, 101, 236, 132
-0.99315, 209, 217, 336, 280
-0.993162, 89, 85, 120, 116
-0.993171, 389, 77, 420, 108
-0.993174, 173, 161, 204, 192
-0.993179, 365, 85, 396, 116
-0.99319, 413, 77, 444, 108
-0.993192, 289, 81, 320, 112
-0.993193, 197, 161, 228, 192
-0.993198, 13, 249, 44, 280
-0.993201, 1, 201, 32, 264
-0.993201, 425, 157, 456, 188
-0.993211, 277, 73, 308, 104
-0.993213, 97, 157, 128, 188
-0.993215, 305, 61, 336, 92
-0.993217, 109, 153, 140, 184
-0.993227, 213, 157, 244, 188
-0.993227, 313, 73, 344, 104
-0.993228, 1, 41, 128, 104
-0.993228, 273, 249, 400, 312
-0.993233, 5, 65, 36, 96
-0.993238, 349, 137, 380, 168
-0.993239, 1, 249, 32, 280
-0.993241, 201, 89, 232, 120
-0.993244, 185, 161, 216, 192
-0.993246, 401, 169, 432, 232
-0.993249, 325, 129, 356, 192
-0.993251, 453, 125, 484, 156
-0.993253, 177, 41, 208, 72
-0.99326, 405, 237, 436, 268
-0.99326, 173, 185, 204, 216
-0.993261, 257, 169, 288, 200
-0.993261, 433, 41, 464, 104
-0.993262, 257, 137, 500, 200
-0.993262, 145, 153, 176, 184
-0.993262, 377, 73, 408, 104
-0.993268, 153, 177, 184, 208
-0.993275, 109, 109, 140, 140
-0.993278, 53, 53, 84, 84
-0.993282, 297, 165, 328, 196
-0.993283, 137, 117, 168, 148
-0.993292, 281, 93, 312, 124
-0.993293, 421, 237, 452, 268
-0.993293, 349, 237, 380, 268
-0.993298, 193, 209, 256, 272
-0.993301, 385, 133, 416, 164
-0.993304, 153, 189, 184, 220
-0.993313, 161, 81, 192, 112
-0.993314, 413, 209, 444, 333
-0.993314, 353, 85, 384, 116
-0.993316, 289, 241, 352, 304
-0.993319, 81, 265, 112, 296
-0.993321, 453, 153, 484, 184
-0.993321, 469, 41, 500, 104
-0.993325, 125, 89, 156, 120
-0.993327, 77, 165, 108, 196
-0.993331, 217, 101, 248, 132
-0.993332, 233, 161, 264, 192
-0.993334, 329, 173, 360, 204
-0.993336, 49, 293, 80, 324
-0.993337, 201, 45, 232, 76
-0.993339, 241, 77, 272, 108
-0.993342, 393, 237, 424, 268
-0.993347, 429, 225, 460, 256
-0.993352, 5, 77, 36, 108
-0.993353, 149, 265, 180, 296
-0.993354, 169, 149, 200, 180
-0.993354, 373, 57, 404, 120
-0.993356, 337, 229, 368, 260
-0.993358, 341, 61, 372, 92
-0.993364, 233, 141, 264, 172
-0.993364, 313, 177, 344, 208
-0.993368, 433, 237, 464, 268
-0.993368, 61, 245, 92, 276
-0.993371, 145, 17, 208, 80
-0.993374, 5, 293, 36, 324
-0.993379, 49, 245, 80, 276
-0.993379, 445, 229, 476, 260
-0.993379, 125, 165, 156, 196
-0.99338, 281, 181, 312, 212
-0.993383, 85, 277, 116, 308
-0.993386, 33, 273, 64, 304
-0.993388, 81, 153, 112, 184
-0.993389, 445, 169, 476, 200
-0.99339, 377, 237, 408, 268
-0.99339, 469, 129, 500, 256
-0.993392, 133, 149, 164, 180
-0.993392, 65, 281, 96, 312
-0.993393, 433, 61, 464, 92
-0.993395, 29, 249, 60, 280
-0.993395, 165, 137, 196, 168
-0.993408, 313, 129, 344, 256
-0.99348, 25, 89, 88, 152
-0.993493, 373, 33, 404, 160
-0.9935, 345, 145, 376, 208
-0.993526, 97, 145, 352, 208
-0.993549, 197, 65, 228, 128
-0.993553, 433, 17, 464, 144
-0.993596, 289, 77, 416, 108
-0.993606, 257, 273, 320, 333
-0.993622, 1, 241, 32, 304
-0.993623, 345, 161, 376, 288
-0.993632, 17, 41, 48, 104
-0.993632, 401, 41, 432, 104
-0.993642, 201, 1, 232, 128
-0.993696, 1, 209, 32, 333
-0.993709, 397, 17, 428, 144
-0.993726, 233, 33, 264, 160
-0.993727, 5, 49, 36, 112
-0.993739, 465, 129, 496, 192
-0.993743, 277, 33, 308, 160
-0.993752, 221, 137, 252, 200
-0.993777, 73, 265, 104, 328
-0.993824, 221, 193, 252, 320
-0.993866, 281, 273, 344, 333
-0.993877, 377, 161, 408, 288
-0.993883, 421, 153, 452, 216
-0.993959, 265, 169, 296, 232
-0.99398, 113, 209, 144, 333
-0.994032, 49, 1, 80, 128
-0.994043, 193, 185, 224, 248
-0.994055, 21, 209, 52, 272
-0.994062, 145, 225, 272, 288
-0.994104, 129, 49, 160, 176
-0.994117, 37, 225, 68, 288
-0.994158, 177, 249, 208, 312
-0.994196, 361, 65, 376, 128
-0.994207, 445, 1, 476, 128
-0.994224, 245, 33, 276, 160
-0.994241, 465, 1, 496, 128
-0.994281, 185, 97, 216, 224
-0.994287, 117, 137, 148, 200
-0.994302, 33, 41, 288, 104
-0.994313, 393, 129, 424, 256
-0.994342, 169, 25, 232, 88
-0.994348, 85, 33, 116, 160
-0.994349, 177, 17, 304, 80
-0.994402, 337, 17, 368, 144
-0.994435, 101, 49, 132, 176
-0.994444, 317, 177, 348, 304
-0.994473, 1, 113, 64, 176
-0.994506, 1, 161, 256, 224
-0.994518, 9, 161, 40, 288
-0.994521, 155, 57, 170, 120
-0.994521, 385, 257, 416, 320
-0.994529, 169, 137, 200, 200
-0.994533, 369, 73, 496, 104
-0.994552, 369, 113, 432, 240
-0.994562, 65, 201, 128, 264
-0.994564, 229, 265, 260, 328
-0.994639, 173, 1, 204, 128
-0.994672, 21, 185, 52, 248
-0.994676, 145, 113, 272, 176
-0.99468, 177, 25, 208, 88
-0.994695, 369, 33, 496, 96
-0.994703, 89, 177, 120, 240
-0.994711, 145, 81, 272, 112
-0.994711, 197, 97, 228, 224
-0.994713, 149, 97, 164, 160
-0.994744, 129, 41, 384, 104
-0.994792, 101, 209, 132, 333
-0.994794, 409, 145, 440, 208
-0.994811, 217, 273, 248, 333
-0.99484, 61, 265, 92, 328
-0.994842, 113, 265, 144, 328
-0.994857, 97, 209, 224, 272
-0.994871, 193, 161, 448, 224
-0.99489, 169, 185, 200, 248
-0.994908, 361, 17, 392, 144
-0.994925, 437, 209, 468, 333
-0.994975, 33, 121, 288, 184
-0.994987, 1, 17, 32, 144
-0.994987, 65, 209, 96, 333
-0.995, 81, 77, 208, 108
-0.99501, 361, 161, 392, 288
-0.995042, 129, 65, 256, 96
-0.995073, 407, 49, 422, 112
-0.995079, 461, 49, 476, 112
-0.995133, 1, 65, 128, 96
-0.995142, 1, 57, 500, 120
-0.995176, 175, 49, 190, 112
-0.995179, 5, 113, 36, 240
-0.995267, 219, 57, 234, 120
-0.995298, 177, 105, 240, 168
-0.995359, 321, 17, 352, 144
-0.995373, 161, 65, 416, 128
-0.99539, 1, 113, 128, 176
-0.995397, 261, 33, 292, 160
-0.995404, 385, 17, 416, 144
-0.995416, 65, 65, 192, 96
-0.995416, 1, 257, 256, 320
-0.995436, 71, 49, 86, 112
-0.99553, 297, 193, 328, 320
-0.995542, 113, 161, 144, 288
-0.99557, 19, 57, 34, 120
-0.995596, 253, 193, 284, 320
-0.995628, 209, 169, 336, 200
-0.995643, 241, 177, 272, 304
-0.995652, 353, 137, 480, 168
-0.995663, 309, 17, 340, 144
-0.995683, 433, 113, 464, 240
-0.995686, 369, 57, 496, 88
-0.99569, 129, 273, 384, 333
-0.995691, 305, 137, 432, 168
-0.995704, 161, 161, 288, 192
-0.995739, 25, 1, 56, 128
-0.995765, 97, 169, 352, 232
-0.995767, 113, 149, 240, 180
-0.995779, 1, 169, 500, 232
-0.99578, 195, 41, 210, 104
-0.995804, 267, 73, 282, 136
-0.995809, 81, 129, 112, 256
-0.995812, 45, 65, 60, 128
-0.995838, 353, 81, 368, 144
-0.99584, 97, 97, 224, 128
-0.995848, 433, 33, 496, 96
-0.99587, 49, 89, 176, 120
-0.995875, 189, 1, 220, 256
-0.995879, 33, 57, 48, 120
-0.995911, 193, 85, 320, 116
-0.995914, 145, 53, 272, 84
-0.995915, 49, 165, 176, 196
-0.995938, 301, 73, 316, 136
-0.995964, 135, 121, 150, 184
-0.995974, 225, 141, 352, 172
-0.995989, 309, 65, 324, 128
-0.995991, 201, 193, 232, 320
-0.996037, 477, 57, 492, 120
-0.996051, 321, 61, 448, 92
-0.996053, 25, 129, 56, 256
-0.996053, 193, 69, 320, 100
-0.996056, 167, 65, 182, 128
-0.996123, 149, 73, 164, 136
-0.99613, 213, 49, 228, 112
-0.996138, 337, 73, 352, 136
-0.996139, 319, 73, 334, 136
-0.996141, 117, 89, 132, 152
-0.996155, 79, 65, 94, 128
-0.996172, 439, 65, 454, 128
-0.996221, 149, 1, 180, 128
-0.996246, 421, 73, 436, 136
-0.996258, 257, 89, 384, 120
-0.996273, 241, 77, 368, 108
-0.996279, 401, 65, 416, 128
-0.996297, 161, 173, 288, 204
-0.996324, 161, 81, 176, 144
-0.996327, 297, 17, 328, 144
-0.996356, 379, 73, 394, 136
-0.996377, 369, 125, 496, 156
-0.996383, 431, 73, 446, 136
-0.996407, 1, 253, 128, 284
-0.996417, 257, 49, 500, 112
-0.996429, 253, 81, 268, 144
-0.99643, 13, 73, 28, 136
-0.99643, 243, 145, 258, 208
-0.996435, 485, 73, 500, 136
-0.996437, 129, 113, 144, 176
-0.996458, 453, 57, 468, 120
-0.996481, 239, 81, 254, 144
-0.996489, 337, 85, 464, 116
-0.996491, 101, 65, 132, 320
-0.996492, 89, 73, 104, 136
-0.996493, 1, 65, 16, 128
-0.996497, 257, 169, 384, 200
-0.996506, 1, 85, 128, 116
-0.996507, 61, 1, 92, 128
-0.996508, 1, 265, 500, 328
-0.996524, 141, 121, 156, 184
-0.996528, 65, 269, 192, 300
-0.996558, 225, 81, 240, 144
-0.996565, 53, 65, 68, 128
-0.996574, 65, 53, 192, 84
-0.996582, 237, 145, 252, 208
-0.996591, 189, 41, 204, 104
-0.996611, 113, 173, 240, 204
-0.996613, 277, 193, 308, 320
-0.996642, 283, 89, 298, 152
-0.996666, 101, 73, 116, 136
-0.996669, 49, 101, 176, 132
-0.996682, 65, 57, 80, 120
-0.996685, 145, 277, 272, 308
-0.996697, 257, 185, 500, 248
-0.996714, 17, 33, 48, 288
-0.996715, 161, 57, 176, 120
-0.996726, 349, 17, 380, 144
-0.996749, 391, 89, 406, 152
-0.996767, 1, 293, 128, 324
-0.99678, 145, 93, 272, 124
-0.996783, 301, 33, 332, 288
-0.996784, 289, 149, 416, 180
-0.996798, 385, 129, 400, 192
-0.996801, 25, 65, 40, 128
-0.996816, 73, 161, 88, 224
-0.99682, 469, 57, 484, 120
-0.99682, 113, 161, 240, 192
-0.996853, 61, 33, 92, 288
-0.996855, 401, 33, 432, 288
-0.996855, 369, 73, 384, 136
-0.996869, 205, 33, 236, 288
-0.996887, 1, 193, 256, 256
-0.996891, 413, 57, 428, 120
-0.996904, 7, 73, 22, 136
-0.996904, 329, 81, 344, 144
-0.996905, 65, 285, 192, 316
-0.996907, 253, 145, 268, 208
-0.996914, 207, 57, 222, 120
-0.996915, 41, 113, 104, 176
-0.996923, 465, 33, 496, 288
-0.996926, 231, 161, 246, 224
-0.996939, 225, 97, 480, 160
-0.996947, 183, 49, 198, 112
-0.996948, 81, 33, 112, 288
-0.996953, 441, 33, 472, 288
-0.996965, 347, 81, 362, 144
-0.996977, 65, 153, 192, 184
-0.996987, 221, 65, 252, 320
-0.996998, 295, 81, 310, 144
-0.997006, 379, 137, 394, 200
-0.997006, 37, 33, 68, 288
-0.997019, 425, 33, 456, 288
-0.997022, 169, 33, 200, 288
-0.997035, 155, 81, 170, 144
-0.997047, 361, 69, 376, 100
-0.997053, 65, 301, 192, 332
-0.997055, 305, 161, 320, 224
-0.997057, 129, 113, 384, 176
-0.99706, 453, 33, 484, 288
-0.997065, 249, 65, 280, 320
-0.997071, 447, 73, 462, 136
-0.997083, 247, 89, 262, 152
-0.997085, 407, 57, 422, 88
-0.997091, 123, 97, 138, 160
-0.997108, 271, 145, 286, 208
-0.997109, 385, 89, 400, 152
-0.997117, 113, 265, 240, 296
-0.997122, 215, 153, 230, 216
-0.997128, 201, 41, 216, 104
-0.99713, 141, 81, 156, 144
-0.997137, 253, 169, 268, 232
-0.997137, 209, 153, 336, 184
-0.997146, 463, 129, 478, 192
-0.997153, 457, 137, 472, 200
-0.997161, 243, 177, 258, 240
-0.997183, 261, 81, 276, 144
-0.997187, 1, 265, 128, 296
-0.997189, 261, 145, 276, 208
-0.997192, 233, 65, 264, 320
-0.997196, 231, 81, 246, 144
-0.997198, 273, 73, 288, 136
-0.997208, 145, 137, 272, 168
-0.997214, 289, 97, 304, 160
-0.997215, 355, 57, 370, 120
-0.997216, 461, 49, 476, 80
-0.997219, 151, 101, 166, 132
-0.997228, 299, 137, 314, 200
-0.997257, 109, 89, 124, 152
-0.997264, 225, 257, 480, 320
-0.997277, 1, 105, 500, 168
-0.997295, 205, 161, 220, 224
-0.997302, 165, 33, 180, 96
-0.997307, 193, 57, 320, 88
-0.997312, 337, 237, 464, 268
-0.997314, 453, 113, 468, 176
-0.997317, 43, 265, 58, 328
-0.997335, 49, 33, 80, 288
-0.997343, 289, 25, 416, 88
-0.997351, 59, 65, 74, 128
-0.997356, 105, 153, 120, 216
-0.997362, 225, 57, 240, 120
-0.997363, 61, 169, 76, 232
-0.997363, 433, 153, 448, 216
-0.997405, 269, 65, 300, 320
-0.997411, 225, 161, 240, 224
-0.997424, 39, 65, 54, 128
-0.997431, 161, 149, 288, 180
-0.997444, 237, 169, 252, 232
-0.997444, 65, 141, 192, 172
-0.997447, 299, 177, 314, 240
-0.997448, 261, 169, 276, 232
-0.997451, 471, 33, 486, 96
-0.997467, 65, 177, 192, 208
-0.997468, 113, 153, 128, 216
-0.997478, 141, 33, 172, 288
-0.997485, 439, 73, 454, 104
-0.997486, 69, 57, 84, 88
-0.997496, 443, 129, 458, 192
-0.997496, 363, 89, 378, 152
-0.997499, 305, 173, 432, 204
-0.997503, 1, 33, 500, 96
-0.997508, 113, 65, 144, 320
-0.997508, 475, 61, 490, 92
-0.997513, 269, 81, 284, 112
-0.997517, 329, 129, 344, 192
-0.997519, 353, 161, 480, 192
-0.997519, 321, 33, 352, 288
-0.997523, 9, 241, 24, 304
-0.997526, 155, 105, 170, 168
-0.997542, 195, 41, 210, 72
-0.997545, 241, 181, 368, 212
-0.997548, 97, 109, 224, 140
-0.997557, 413, 33, 444, 288
-0.997558, 277, 145, 292, 208
-0.997563, 123, 121, 138, 184
-0.997565, 41, 201, 56, 264
-0.997566, 145, 185, 272, 216
-0.997577, 95, 81, 110, 144
-0.997587, 21, 61, 36, 92
-0.997589, 483, 49, 498, 112
-0.997595, 1, 281, 128, 312
-0.997611, 47, 65, 62, 96
-0.997624, 349, 33, 380, 288
-0.997627, 41, 41, 56, 104
-0.997629, 219, 177, 234, 240
-0.99763, 191, 161, 206, 224
-0.997635, 447, 41, 462, 104
-0.997637, 65, 233, 320, 296
-0.997637, 347, 57, 362, 120
-0.997649, 371, 49, 386, 112
-0.997653, 129, 65, 160, 320
-0.997655, 219, 81, 234, 144
-0.997656, 17, 153, 144, 184
-0.997662, 61, 241, 76, 304
-0.997664, 1, 145, 500, 208
-0.997675, 173, 177, 188, 240
-0.997675, 1, 241, 16, 304
-0.997682, 157, 33, 188, 288
-0.997685, 305, 209, 320, 272
-0.997691, 183, 25, 198, 88
-0.997693, 161, 81, 176, 112
-0.997695, 381, 65, 412, 320
-0.997702, 285, 137, 300, 200
-0.997702, 241, 129, 368, 160
-0.997708, 391, 137, 406, 200
-0.997709, 337, 77, 352, 108
-0.997714, 49, 249, 176, 280
-0.997715, 451, 145, 466, 208
-0.997717, 123, 153, 138, 216
-0.997738, 165, 145, 180, 208
-0.997745, 217, 57, 232, 88
-0.997746, 5, 33, 36, 288
-0.99776, 455, 137, 470, 168
-0.997761, 311, 65, 326, 96
-0.997767, 33, 61, 48, 92
-0.997768, 255, 89, 270, 120
-0.997775, 155, 61, 170, 92
-0.997782, 369, 261, 496, 292
-0.997782, 369, 225, 496, 256
-0.997796, 241, 229, 368, 260
-0.997802, 161, 69, 176, 100
-0.997803, 289, 125, 416, 156
-0.99783, 49, 189, 176, 220
-0.997834, 319, 73, 334, 104
-0.99785, 289, 237, 416, 268
-0.997857, 219, 81, 234, 112
-0.997869, 177, 49, 192, 80
-0.997872, 369, 33, 400, 288
-0.997879, 431, 73, 446, 104
-0.997892, 289, 33, 320, 288
-0.997914, 145, 105, 160, 136
-0.997926, 353, 177, 480, 208
-0.997926, 155, 89, 170, 120
-0.997926, 225, 85, 240, 116
-0.99793, 369, 89, 384, 120
-0.997931, 353, 149, 480, 180
-0.997959, 279, 89, 294, 120
-0.99796, 239, 85, 254, 116
-0.997967, 33, 89, 288, 152
-0.997978, 403, 69, 418, 100
-0.99798, 421, 77, 436, 108
-0.997982, 321, 225, 448, 256
-0.997985, 161, 41, 288, 72
-0.997986, 353, 77, 368, 108
-0.997988, 209, 97, 336, 128
-0.997988, 305, 161, 432, 192
-0.997999, 257, 225, 500, 288
-0.998007, 1, 81, 500, 144
-0.998022, 97, 193, 352, 256
-0.998024, 117, 93, 132, 124
-0.998035, 159, 49, 174, 80
-0.998042, 273, 65, 400, 96
-0.998045, 49, 113, 176, 144
-0.998052, 305, 301, 432, 332
-0.998061, 1, 177, 128, 208
-0.998062, 375, 73, 390, 104
-0.998063, 439, 145, 454, 176
-0.998069, 301, 77, 316, 108
-0.99807, 333, 33, 364, 288
-0.998079, 369, 77, 384, 108
-0.998079, 337, 249, 464, 280
-0.99809, 139, 113, 154, 144
-0.998091, 131, 117, 146, 148
-0.998102, 79, 65, 94, 96
-0.998117, 41, 61, 56, 92
-0.998126, 467, 57, 482, 88
-0.998134, 381, 85, 396, 116
-0.998145, 329, 81, 344, 112
-0.998159, 451, 73, 466, 104
-0.998163, 433, 153, 448, 184
-0.998171, 1, 193, 500, 256
-0.998178, 53, 65, 68, 96
-0.99818, 145, 293, 272, 324
-0.998188, 469, 137, 484, 168
-0.99819, 209, 269, 336, 300
-0.9982, 485, 69, 500, 100
-0.998205, 99, 77, 114, 108
-0.998209, 195, 173, 210, 204
-0.998215, 1, 69, 16, 100
-0.99822, 225, 73, 240, 104
-0.998223, 337, 137, 352, 168
-0.998228, 161, 97, 176, 128
-0.998234, 387, 133, 402, 164
-0.998237, 321, 97, 448, 128
-0.998242, 211, 169, 226, 200
-0.998246, 7, 81, 22, 112
-0.998247, 59, 69, 74, 100
-0.998257, 369, 281, 496, 312
-0.998259, 237, 173, 252, 204
-0.998259, 257, 217, 384, 248
-0.998262, 161, 225, 416, 288
-0.998263, 413, 69, 428, 100
-0.998263, 447, 133, 462, 164
-0.99827, 155, 77, 170, 108
-0.998274, 205, 49, 220, 80
-0.998275, 217, 93, 232, 124
-0.998276, 475, 137, 490, 168
-0.998277, 249, 93, 264, 124
-0.998281, 89, 69, 104, 100
-0.998283, 285, 169, 300, 200
-0.998286, 1, 253, 16, 284
-0.998288, 1, 165, 128, 196
-0.998292, 177, 173, 192, 204
-0.998295, 1, 193, 128, 224
-0.998295, 321, 265, 448, 296
-0.998296, 193, 185, 320, 216
-0.998298, 463, 137, 478, 168
-0.998299, 363, 81, 378, 112
-0.998303, 161, 145, 176, 176
-0.998304, 113, 17, 240, 80
-0.998305, 261, 85, 276, 116
-0.998319, 347, 137, 362, 168
-0.998328, 305, 165, 320, 196
-0.998329, 145, 117, 160, 148
-0.998331, 93, 81, 108, 112
-0.998336, 257, 169, 272, 200
-0.998337, 189, 173, 204, 204
-0.998338, 457, 65, 472, 96
-0.998339, 209, 297, 336, 328
-0.998341, 15, 69, 30, 100
-0.998343, 337, 193, 464, 224
-0.998344, 123, 109, 138, 140
-0.998344, 45, 75, 76, 90
-0.998345, 75, 165, 90, 196
-0.998347, 243, 169, 258, 200
-0.998348, 165, 65, 196, 80
-0.998348, 221, 91, 252, 106
-0.998349, 13, 253, 44, 268
-0.99835, 353, 241, 384, 256
-0.99835, 183, 161, 198, 192
-0.99835, 409, 241, 440, 256
-0.998352, 145, 191, 176, 206
-0.998352, 113, 161, 144, 176
-0.998352, 183, 173, 198, 204
-0.998352, 361, 95, 392, 110
-0.998354, 277, 81, 308, 96
-0.998354, 469, 63, 500, 78
-0.998355, 141, 119, 172, 134
-0.998355, 69, 167, 100, 182
-0.998355, 453, 241, 484, 256
-0.998356, 105, 109, 136, 124
-0.998356, 173, 271, 204, 286
-0.998357, 49, 251, 80, 266
-0.998358, 425, 81, 456, 96
-0.998358, 341, 73, 372, 88
-0.998358, 101, 103, 132, 118
-0.998359, 329, 171, 360, 186
-0.998359, 441, 241, 472, 256
-0.99836, 437, 137, 468, 152
-0.99836, 393, 241, 424, 256
-0.99836, 117, 121, 148, 136
-0.998361, 205, 271, 236, 286
-0.998361, 37, 253, 68, 268
-0.998361, 121, 103, 152, 118
-0.998362, 101, 155, 132, 170
-0.998363, 57, 173, 88, 188
-0.998363, 69, 59, 100, 74
-0.998363, 381, 241, 412, 256
-0.998364, 413, 77, 444, 92
-0.998365, 169, 59, 200, 74
-0.998367, 1, 253, 32, 268
-0.998367, 149, 91, 180, 106
-0.998368, 113, 41, 240, 72
-0.998368, 381, 75, 412, 90
-0.998369, 419, 65, 434, 96
-0.99837, 1, 53, 128, 84
-0.998371, 417, 67, 448, 82
-0.998371, 189, 183, 220, 198
-0.998372, 157, 151, 188, 166
-0.998373, 277, 89, 308, 104
-0.998374, 177, 183, 208, 198
-0.998374, 325, 85, 356, 100
-0.998375, 295, 169, 310, 200
-0.998375, 445, 53, 476, 68
-0.998378, 173, 47, 204, 62
-0.998379, 421, 241, 452, 256
-0.998379, 445, 65, 476, 80
-0.998379, 217, 77, 248, 92
-0.99838, 245, 95, 276, 110
-0.998381, 209, 67, 240, 82
-0.998383, 189, 161, 204, 192
-0.998384, 231, 85, 246, 116
-0.998384, 465, 151, 496, 166
-0.998385, 211, 53, 226, 84
-0.998386, 177, 177, 208, 192
-0.998387, 25, 63, 56, 78
-0.998388, 81, 157, 112, 172
-0.998388, 245, 175, 276, 190
-0.998389, 177, 161, 192, 192
-0.998393, 119, 153, 134, 184
-0.998394, 293, 171, 324, 186
-0.998395, 149, 85, 164, 116
-0.998396, 49, 63, 80, 78
-0.998397, 297, 81, 328, 96
-0.998398, 145, 101, 176, 116
-0.998399, 337, 81, 368, 96
-0.9984, 233, 93, 264, 108
-0.998401, 233, 175, 264, 190
-0.998401, 453, 145, 484, 160
-0.998401, 5, 69, 36, 84
-0.998401, 265, 91, 296, 106
-0.998401, 231, 173, 246, 204
-0.998401, 17, 75, 48, 90
-0.998402, 381, 83, 412, 98
-0.998402, 7, 249, 22, 280
-0.998403, 337, 209, 464, 240
-0.998404, 5, 75, 36, 90
-0.998404, 401, 61, 432, 76
-0.998404, 397, 159, 428, 174
-0.998405, 469, 143, 500, 158
-0.998406, 349, 85, 380, 100
-0.998406, 101, 95, 132, 110
-0.998408, 69, 71, 100, 86
-0.998409, 331, 137, 346, 168
-0.998409, 457, 125, 472, 156
-0.998409, 437, 77, 468, 92
-0.998412, 445, 77, 460, 108
-0.998412, 205, 179, 236, 194
-0.998414, 225, 85, 256, 100
-0.998414, 217, 173, 232, 204
-0.998415, 281, 177, 312, 192
-0.998415, 369, 137, 400, 152
-0.998415, 205, 55, 236, 70
-0.998416, 265, 171, 296, 186
-0.998417, 129, 121, 160, 136
-0.998417, 165, 145, 196, 160
-0.998419, 437, 143, 468, 158
-0.998422, 453, 153, 484, 168
-0.998422, 145, 113, 176, 128
-0.998422, 379, 133, 394, 164
-0.998423, 217, 173, 248, 188
-0.998427, 169, 151, 200, 166
-0.998427, 101, 89, 116, 120
-0.998429, 365, 89, 396, 104
-0.99843, 357, 69, 388, 84
-0.99843, 205, 75, 236, 90
-0.99843, 457, 53, 488, 68
-0.998432, 369, 83, 400, 98
-0.998433, 347, 81, 362, 112
-0.998437, 249, 173, 264, 204
-0.998438, 213, 83, 244, 98
-0.998439, 385, 77, 448, 92
-0.99844, 1, 233, 500, 296
-0.998441, 453, 131, 484, 146
-0.998443, 285, 89, 300, 120
-0.998444, 359, 129, 374, 160
-0.998444, 453, 71, 484, 86
-0.998446, 401, 69, 432, 84
-0.998446, 465, 69, 496, 84
-0.998446, 265, 169, 280, 200
-0.998447, 329, 141, 360, 156
-0.998447, 9, 67, 72, 82
-0.998448, 167, 65, 182, 96
-0.998449, 393, 85, 408, 116
-0.99845, 153, 65, 184, 80
-0.99845, 447, 61, 462, 92
-0.998451, 413, 57, 428, 88
-0.998451, 167, 77, 182, 108
-0.998451, 149, 77, 180, 92
-0.998452, 245, 89, 276, 104
-0.998453, 441, 149, 472, 164
-0.998454, 109, 157, 124, 188
-0.998455, 441, 157, 456, 188
-0.998455, 203, 177, 218, 208
-0.998456, 189, 45, 204, 76
-0.998456, 193, 175, 224, 190
-0.998457, 189, 53, 220, 68
-0.99846, 479, 73, 494, 104
-0.99846, 291, 89, 306, 120
-0.998462, 437, 71, 468, 86
-0.998463, 161, 51, 192, 66
-0.998463, 397, 81, 428, 96
-0.998465, 257, 85, 288, 100
-0.998465, 281, 171, 312, 186
-0.998467, 145, 107, 176, 122
-0.998467, 125, 109, 156, 124
-0.998467, 279, 169, 294, 200
-0.998467, 457, 137, 488, 152
-0.998469, 181, 145, 196, 176
-0.998472, 149, 85, 180, 100
-0.998472, 189, 45, 220, 60
-0.998475, 65, 65, 96, 80
-0.998479, 205, 61, 236, 76
-0.99848, 353, 75, 384, 90
-0.998484, 45, 69, 76, 84
-0.998489, 223, 101, 238, 132
-0.998494, 377, 89, 408, 104
-0.998496, 151, 113, 166, 144
-0.998497, 305, 75, 336, 90
-0.998499, 325, 79, 356, 94
-0.998503, 173, 53, 204, 68
-0.998503, 153, 59, 184, 74
-0.998504, 17, 229, 144, 260
-0.998504, 425, 75, 456, 90
-0.998505, 385, 83, 448, 98
-0.998506, 97, 121, 224, 152
-0.998507, 149, 71, 180, 86
-0.998508, 447, 145, 462, 176
-0.998509, 375, 85, 390, 116
-0.998509, 185, 57, 200, 88
-0.998511, 171, 53, 186, 84
-0.998511, 409, 73, 472, 88
-0.998513, 297, 77, 360, 92
-0.998516, 209, 175, 272, 190
-0.998517, 353, 81, 416, 96
-0.998518, 289, 201, 416, 232
-0.998524, 105, 107, 168, 122
-0.998526, 169, 177, 232, 192
-0.998529, 409, 79, 472, 94
-0.99853, 249, 173, 312, 188
-0.998539, 125, 115, 156, 130
-0.998541, 17, 69, 48, 84
-0.998545, 321, 141, 384, 156
-0.998546, 33, 63, 96, 78
-0.99855, 249, 91, 312, 106
-0.998551, 433, 65, 496, 80
-0.998552, 401, 155, 464, 170
-0.998553, 49, 71, 112, 86
-0.998555, 457, 61, 488, 76
-0.998555, 145, 151, 208, 166
-0.998558, 9, 73, 72, 88
-0.998558, 9, 61, 72, 76
-0.998561, 289, 83, 352, 98
-0.998563, 425, 149, 488, 164
-0.998567, 105, 99, 168, 114
-0.998567, 1, 241, 128, 272
-0.998568, 345, 75, 408, 90
-0.998569, 225, 87, 288, 102
-0.99857, 177, 61, 240, 76
-0.99857, 433, 73, 496, 88
-0.998577, 169, 53, 232, 68
-0.998578, 401, 75, 432, 90
-0.998581, 209, 81, 272, 96
-0.998582, 257, 83, 320, 98
-0.998583, 161, 47, 224, 62
-0.998584, 137, 107, 200, 122
-0.998584, 145, 59, 208, 74
-0.998586, 345, 137, 408, 152
-0.998586, 97, 119, 160, 134
-0.998587, 281, 171, 344, 186
-0.998591, 289, 285, 416, 316
-0.998594, 105, 93, 168, 108
-0.998595, 97, 113, 160, 128
-0.998596, 377, 89, 440, 104
-0.998598, 393, 149, 456, 164
-0.998599, 313, 83, 376, 98
-0.9986, 409, 67, 472, 82
-0.9986, 137, 101, 200, 116
-0.9986, 401, 239, 464, 254
-0.998602, 353, 87, 416, 102
-0.998604, 129, 221, 256, 252
-0.998605, 409, 59, 472, 74
-0.998605, 145, 65, 208, 80
-0.998606, 137, 113, 200, 128
-0.998607, 241, 245, 368, 276
-0.99861, 17, 133, 144, 164
-0.998613, 49, 77, 112, 92
-0.998613, 177, 67, 240, 82
-0.998613, 385, 71, 448, 86
-0.998614, 297, 141, 360, 156
-0.998615, 201, 87, 264, 102
-0.998616, 209, 93, 272, 108
-0.998618, 433, 139, 496, 154
-0.998619, 105, 85, 168, 100
-0.998622, 265, 179, 328, 194
-0.998623, 313, 71, 376, 86
-0.998623, 49, 175, 112, 190
-0.998624, 353, 239, 416, 254
-0.998625, 145, 175, 208, 190
-0.998625, 177, 183, 240, 198
-0.998627, 9, 251, 72, 266
-0.998631, 57, 85, 120, 100
-0.998632, 177, 271, 240, 286
-0.998632, 89, 165, 152, 180
-0.998633, 177, 75, 240, 90
-0.998633, 273, 75, 336, 90
-0.998634, 425, 155, 488, 170
-0.998634, 201, 181, 264, 196
-0.998638, 425, 241, 488, 256
-0.998641, 425, 129, 488, 144
-0.998641, 377, 161, 440, 176
-0.998642, 177, 147, 240, 162
-0.998642, 137, 145, 200, 160
-0.998645, 89, 155, 152, 170
-0.998645, 297, 235, 360, 250
-0.998646, 105, 79, 168, 94
-0.998646, 385, 231, 448, 246
-0.998646, 137, 81, 200, 96
-0.998647, 185, 81, 248, 96
-0.998649, 377, 241, 440, 256
-0.998651, 129, 157, 192, 172
-0.998652, 145, 75, 208, 90
-0.998653, 145, 183, 208, 198
-0.998653, 433, 59, 496, 74
-0.998653, 321, 77, 384, 92
-0.998653, 433, 231, 496, 246
-0.998654, 137, 265, 200, 280
-0.998654, 297, 147, 360, 162
-0.998655, 225, 197, 352, 228
-0.998655, 49, 181, 112, 196
-0.998655, 129, 233, 256, 264
-0.998656, 321, 175, 384, 190
-0.998656, 217, 99, 280, 114
-0.998656, 289, 179, 352, 194
-0.998657, 25, 173, 88, 188
-0.998658, 281, 89, 344, 104
-0.998658, 1, 293, 64, 308
-0.998658, 97, 189, 224, 220
-0.998659, 225, 147, 288, 162
-0.998659, 121, 151, 184, 166
-0.99866, 241, 179, 304, 194
-0.99866, 137, 271, 200, 286
-0.99866, 257, 143, 320, 158
-0.998661, 49, 169, 112, 184
-0.998662, 73, 105, 136, 120
-0.998663, 345, 69, 408, 84
-0.998663, 329, 241, 392, 256
-0.998663, 409, 87, 472, 102
-0.998664, 33, 57, 96, 72
-0.998664, 233, 167, 296, 182
-0.998664, 361, 233, 424, 248
-0.998665, 185, 45, 248, 60
-0.998666, 433, 79, 496, 94
-0.998667, 369, 137, 432, 152
-0.998668, 297, 135, 360, 150
-0.998669, 289, 165, 352, 180
-0.99867, 257, 235, 320, 250
-0.998671, 105, 271, 168, 286
-0.998672, 145, 95, 208, 110
-0.998672, 57, 293, 120, 308
-0.998672, 169, 171, 232, 186
-0.998673, 177, 265, 240, 280
-0.998674, 145, 87, 208, 102
-0.998674, 65, 163, 128, 178
-0.998674, 201, 169, 264, 184
-0.998676, 113, 195, 176, 210
-0.998676, 33, 253, 96, 268
-0.998676, 1, 259, 64, 274
-0.998678, 297, 153, 360, 168
-0.99868, 65, 237, 192, 268
-0.99868, 401, 161, 464, 176
-0.998681, 129, 169, 192, 184
-0.998696, 273, 273, 400, 304
-0.998697, 1, 97, 128, 128
-0.998701, 145, 125, 272, 156
-0.998702, 353, 297, 480, 328
-0.998709, 209, 285, 336, 316
-0.998751, 65, 41, 192, 72
-0.998798, 49, 201, 176, 232
-0.998804, 1, 205, 128, 236
-0.998813, 155, 33, 170, 160
-0.99884, 145, 197, 272, 228
-0.998868, 193, 209, 320, 240
-0.998872, 289, 249, 416, 280
-0.998882, 253, 81, 268, 208
-0.998912, 279, 81, 294, 208
-0.998935, 289, 189, 416, 220
-0.998944, 161, 261, 288, 292
-0.998947, 239, 81, 254, 208
-0.998956, 209, 257, 336, 288
-0.998957, 193, 221, 320, 252
-0.998964, 193, 233, 320, 264
-0.99897, 117, 81, 132, 208
-0.998985, 257, 301, 384, 332
-0.998986, 261, 81, 276, 208
-0.998996, 269, 65, 284, 192
-0.998997, 245, 97, 260, 224
-0.999001, 289, 81, 304, 208
-0.999011, 135, 113, 150, 240
-0.999027, 145, 97, 160, 224
-0.999032, 21, 49, 36, 176
-0.999034, 145, 105, 272, 136
-0.999041, 441, 65, 456, 192
-0.999061, 107, 81, 122, 208
-0.999072, 299, 65, 314, 192
-0.999078, 457, 33, 472, 160
-0.99908, 475, 49, 490, 176
-0.999084, 123, 97, 138, 224
-0.999085, 407, 49, 422, 176
-0.999086, 219, 49, 234, 176
-0.999087, 399, 65, 414, 192
-0.999095, 71, 49, 86, 176
-0.999111, 97, 205, 224, 236
-0.999118, 175, 33, 190, 160
-0.999122, 417, 65, 432, 192
-0.999124, 113, 253, 240, 284
-0.999125, 129, 113, 144, 240
-0.999127, 431, 65, 446, 192
-0.99913, 273, 101, 400, 132
-0.999132, 361, 49, 376, 176
-0.999139, 379, 81, 394, 208
-0.999157, 333, 65, 348, 192
-0.999167, 179, 145, 194, 272
-0.999168, 447, 65, 462, 192
-0.99917, 387, 81, 402, 208
-0.999172, 227, 65, 242, 192
-0.999176, 43, 49, 58, 176
-0.99918, 17, 217, 144, 248
-0.999182, 13, 65, 28, 192
-0.999189, 483, 65, 498, 192
-0.99919, 209, 49, 224, 176
-0.999198, 315, 65, 330, 192
-0.999204, 257, 129, 272, 256
-0.999214, 197, 33, 212, 160
-0.999224, 463, 33, 478, 160
-0.999227, 31, 49, 46, 176
-0.999231, 95, 65, 110, 192
-0.999237, 273, 261, 400, 292
-0.999243, 351, 65, 366, 192
-0.999243, 1, 65, 16, 192
-0.999244, 425, 65, 440, 192
-0.999246, 369, 81, 384, 208
-0.999247, 167, 49, 182, 176
-0.999247, 469, 49, 484, 176
-0.999247, 65, 217, 192, 248
-0.999249, 393, 81, 408, 208
-0.999253, 339, 65, 354, 192
-0.999257, 195, 177, 210, 304
-0.99926, 101, 81, 116, 208
-0.999269, 57, 49, 72, 176
-0.999273, 305, 65, 320, 192
-0.999275, 233, 65, 248, 192
-0.999292, 89, 65, 104, 192
-0.999292, 237, 145, 252, 272
-0.999297, 321, 65, 336, 192
-0.999305, 149, 49, 164, 176
-0.999309, 185, 49, 200, 176
-0.99931, 161, 65, 176, 192
-0.99932, 369, 113, 496, 144
-0.999331, 327, 65, 342, 192
-0.999331, 79, 49, 94, 176
-0.999332, 1, 113, 128, 144
-0.999334, 151, 97, 166, 224
-0.999334, 7, 65, 22, 192
-0.999338, 177, 193, 192, 320
-0.999339, 169, 145, 184, 272
-0.999341, 159, 177, 174, 304
-0.999347, 363, 209, 378, 333
-0.999348, 231, 145, 246, 272
-0.999349, 245, 145, 260, 272
-0.99935, 417, 177, 432, 304
-0.999352, 145, 209, 272, 240
-0.999356, 345, 81, 360, 208
-0.999357, 161, 249, 288, 280
-0.999361, 295, 129, 310, 256
-0.999363, 191, 33, 206, 160
-0.999363, 453, 129, 468, 256
-0.999366, 49, 49, 64, 176
-0.999367, 251, 129, 266, 256
-0.999369, 301, 145, 316, 272
-0.99937, 189, 145, 204, 272
-0.999373, 101, 145, 116, 272
-0.999376, 455, 177, 470, 304
-0.99938, 267, 129, 282, 256
-0.999382, 273, 113, 288, 240
-0.999382, 107, 145, 122, 272
-0.999383, 169, 193, 184, 320
-0.999384, 203, 33, 218, 160
-0.999385, 65, 49, 80, 176
-0.999386, 37, 65, 52, 192
-0.999392, 221, 97, 236, 224
-0.999393, 371, 209, 386, 333
-0.999399, 283, 129, 298, 256
-0.999399, 393, 177, 408, 304
-0.999403, 407, 161, 422, 288
-0.999405, 357, 209, 372, 333
-0.999406, 425, 209, 440, 333
-0.999409, 167, 97, 182, 224
-0.999409, 185, 193, 200, 320
-0.999412, 49, 209, 64, 333
-0.999415, 115, 145, 130, 272
-0.999416, 399, 177, 414, 304
-0.999417, 151, 209, 166, 333
-0.999419, 3, 209, 18, 333
-0.999424, 57, 161, 72, 288
-0.999429, 145, 177, 160, 304
-0.99943, 381, 209, 396, 333
-0.999434, 447, 177, 462, 304
-0.999442, 121, 145, 136, 272
-0.999458, 463, 209, 478, 333
-0.999458, 405, 209, 420, 333
-0.999459, 75, 161, 90, 288
-0.999469, 469, 209, 484, 333
-0.999472, 201, 177, 216, 304
-0.999475, 289, 145, 304, 272
-0.99948, 131, 65, 146, 192
-0.999492, 165, 1, 180, 128
-0.999492, 439, 129, 454, 256
-0.999494, 397, 129, 412, 256
-0.999498, 225, 177, 240, 304
-0.999498, 307, 145, 322, 272
-0.999499, 447, 129, 462, 256
-0.999501, 37, 209, 52, 333
-0.999501, 67, 209, 82, 333
-0.999502, 55, 209, 70, 333
-0.999511, 369, 17, 384, 144
-0.999512, 157, 129, 172, 256
-0.999513, 477, 209, 492, 333
-0.999513, 349, 177, 364, 304
-0.999516, 459, 129, 474, 256
-0.999568, 209, 55, 224, 70
-0.999569, 47, 61, 62, 76
-0.999569, 263, 85, 278, 100
-0.999569, 99, 79, 114, 94
-0.999571, 365, 81, 380, 96
-0.999572, 129, 113, 144, 128
-0.999575, 121, 111, 136, 126
-0.999575, 215, 177, 230, 192
-0.999575, 457, 151, 472, 166
-0.999575, 87, 73, 102, 88
-0.999575, 375, 137, 390, 152
-0.999576, 385, 89, 400, 104
-0.999576, 171, 145, 186, 160
-0.999577, 391, 85, 406, 100
-0.999577, 347, 85, 362, 100
-0.999577, 3, 77, 18, 92
-0.999577, 171, 153, 186, 168
-0.999578, 161, 79, 176, 94
-0.999579, 405, 157, 420, 172
-0.999579, 483, 149, 498, 164
-0.99958, 479, 143, 494, 158
-0.99958, 199, 175, 214, 190
-0.99958, 155, 79, 170, 94
-0.999581, 179, 177, 194, 192
-0.999581, 157, 103, 172, 118
-0.999582, 243, 91, 258, 106
-0.999582, 279, 93, 294, 108
-0.999583, 413, 71, 428, 86
-0.999583, 141, 111, 156, 126
-0.999584, 359, 65, 374, 80
-0.999585, 331, 141, 346, 156
-0.999585, 301, 81, 316, 96
-0.999586, 241, 175, 256, 190
-0.999586, 485, 71, 500, 86
-0.999586, 91, 155, 106, 170
-0.999587, 81, 65, 96, 80
-0.999587, 181, 149, 196, 164
-0.999588, 267, 169, 282, 184
-0.999588, 467, 59, 482, 74
-0.999589, 161, 89, 176, 104
-0.999589, 113, 91, 128, 106
-0.999591, 475, 155, 490, 170
-0.999592, 327, 79, 342, 94
-0.999592, 437, 149, 452, 164
-0.999592, 371, 83, 386, 98
-0.999592, 217, 85, 232, 100
-0.999593, 367, 95, 382, 110
-0.999593, 185, 49, 200, 64
-0.999593, 295, 177, 310, 192
-0.999593, 249, 95, 264, 110
-0.999594, 153, 71, 168, 86
-0.999594, 467, 137, 482, 152
-0.999595, 193, 51, 208, 66
-0.999595, 373, 73, 388, 88
-0.999596, 89, 79, 104, 94
-0.999597, 75, 169, 90, 184
-0.999599, 167, 67, 182, 82
-0.9996, 435, 69, 450, 84
-0.9996, 289, 91, 304, 106
-0.999601, 165, 61, 180, 76
-0.999602, 161, 149, 176, 164
-0.999602, 363, 89, 378, 104
-0.999603, 209, 61, 224, 76
-0.999605, 145, 117, 160, 132
-0.999605, 459, 63, 474, 78
-0.999606, 127, 119, 142, 134
-0.999606, 463, 149, 478, 164
-0.999607, 447, 69, 462, 84
-0.999608, 151, 117, 166, 132
-0.999609, 415, 77, 430, 92
-0.999611, 155, 65, 170, 80
-0.999611, 275, 173, 290, 188
-0.999611, 219, 61, 234, 76
-0.999611, 285, 171, 300, 186
-0.999611, 41, 63, 56, 78
-0.999612, 147, 97, 162, 112
-0.999612, 53, 67, 68, 82
-0.999613, 451, 151, 466, 166
-0.999613, 353, 83, 368, 98
-0.999613, 449, 79, 464, 94
-0.999614, 161, 71, 176, 86
-0.999614, 23, 61, 38, 76
-0.999616, 319, 75, 334, 90
-0.999616, 219, 75, 234, 90
-0.999617, 59, 69, 74, 84
-0.999619, 159, 53, 174, 68
-0.999621, 461, 133, 476, 148
-0.999622, 117, 97, 132, 112
-0.999624, 485, 79, 500, 94
-0.999627, 311, 69, 326, 84
-0.999628, 399, 159, 414, 174
-0.999628, 161, 97, 176, 112
-0.999629, 379, 87, 394, 102
-0.999631, 141, 123, 156, 138
-0.999632, 465, 143, 480, 158
-0.999632, 461, 49, 476, 64
-0.999635, 225, 83, 240, 98
-0.999636, 431, 77, 446, 92
-0.999636, 159, 59, 174, 74
-0.999637, 407, 65, 422, 80
-0.999637, 47, 67, 62, 82
-0.999638, 155, 89, 170, 104
-0.99964, 299, 171, 314, 186
-0.99964, 209, 175, 224, 190
-0.999641, 31, 65, 46, 80
-0.999642, 237, 85, 252, 100
-0.999644, 407, 71, 422, 86
-0.999647, 455, 143, 470, 158
-0.999649, 215, 55, 230, 70
-0.99965, 477, 67, 492, 82
-0.999654, 291, 171, 306, 186
-0.999655, 177, 51, 192, 66
-0.999664, 147, 111, 162, 126
-0.999668, 21, 67, 36, 82
-0.999669, 473, 139, 488, 154
-0.999671, 421, 79, 436, 94
-0.999675, 153, 95, 168, 110
-0.99968, 269, 83, 284, 98
-0.99968, 473, 61, 488, 76
-0.999685, 369, 89, 384, 104
-0.999685, 195, 43, 210, 58
-0.999689, 71, 61, 86, 76
-0.99969, 337, 79, 352, 94
-0.999692, 255, 91, 270, 106
-0.999699, 139, 117, 154, 132
-0.999711, 361, 71, 376, 86
-0.999718, 461, 55, 476, 70
-0.999723, 407, 57, 422, 72
-0.999731, 439, 75, 454, 90
-0.99975, 149, 105, 164, 120
-1, 33, 17, 288, 80
-1.0006, 129, 9, 384, 72
-1.0008, 257, 25, 500, 88
-1.00163, 121, 1, 184, 128
-1.00224, 369, 1, 496, 64
-1.00224, 241, 25, 368, 88
-1.0024, 17, 1, 144, 64
-1.0024, 321, 1, 448, 64
-1.00269, 225, 1, 480, 64
-1.00277, 257, 1, 384, 64
-1.00394, 1, 9, 500, 72
-1.00418, 65, 1, 192, 64
