1986
-0.452409, 1, 97, 500, 352
-0.454179, 129, 1, 384, 375
-0.508843, 1, 1, 500, 256
-0.511667, 129, 129, 384, 375
-0.529065, 1, 1, 256, 375
-0.554088, 1, 1, 500, 375
-0.636328, 257, 1, 500, 256
-0.661496, 225, 1, 480, 375
-0.662798, 129, 1, 384, 256
-0.685088, 33, 1, 288, 256
-0.738444, 225, 129, 480, 375
-0.749445, 33, 129, 288, 375
-0.829783, 161, 1, 288, 375
-0.840795, 177, 97, 304, 352
-0.85124, 257, 129, 384, 375
-0.852013, 209, 1, 336, 375
-0.858708, 145, 1, 272, 256
-0.869225, 209, 1, 336, 256
-0.872568, 1, 193, 500, 320
-0.885559, 65, 1, 192, 256
-0.887844, 257, 1, 384, 256
-0.888858, 113, 97, 240, 352
-0.893298, 1, 1, 128, 375
-0.89652, 193, 193, 448, 320
-0.902167, 321, 1, 448, 256
-0.903883, 1, 145, 500, 272
-0.908456, 129, 145, 384, 272
-0.909388, 17, 1, 144, 256
-0.911406, 1, 1, 500, 128
-0.917108, 129, 241, 384, 368
-0.920357, 113, 1, 240, 375
-0.922727, 1, 97, 500, 224
-0.923838, 97, 97, 352, 224
-0.924345, 273, 1, 400, 375
-0.927932, 369, 1, 496, 256
-0.929493, 161, 161, 288, 288
-0.930472, 1, 241, 500, 368
-0.931199, 193, 97, 320, 224
-0.93229, 209, 145, 336, 272
-0.932789, 65, 1, 192, 375
-0.933583, 193, 1, 448, 128
-0.934533, 33, 1, 288, 128
-0.937243, 1, 193, 256, 320
-0.937707, 1, 129, 128, 375
-0.937892, 217, 97, 280, 224
-0.938083, 257, 145, 320, 272
-0.938167, 217, 49, 280, 176
-0.940533, 289, 193, 416, 320
-0.941029, 321, 1, 448, 375
-0.942695, 161, 241, 288, 368
-0.944046, 369, 129, 496, 375
-0.944717, 305, 129, 432, 375
-0.945726, 161, 49, 288, 176
-0.945867, 129, 49, 384, 176
-0.94629, 177, 193, 240, 320
-0.946945, 225, 145, 480, 272
-0.947137, 217, 1, 280, 128
-0.947207, 257, 97, 320, 224
-0.947335, 193, 97, 448, 224
-0.947855, 217, 161, 280, 288
-0.947964, 145, 97, 272, 224
-0.948149, 345, 209, 408, 336
-0.948238, 177, 97, 240, 224
-0.948396, 265, 193, 328, 320
-0.949799, 33, 145, 288, 272
-0.950537, 1, 97, 256, 224
-0.951335, 225, 225, 352, 352
-0.951957, 225, 1, 352, 128
-0.952276, 161, 1, 288, 128
-0.952719, 185, 241, 248, 368
-0.952808, 97, 193, 352, 320
-0.953881, 297, 177, 360, 304
-0.954476, 233, 225, 296, 352
-0.954753, 257, 145, 384, 272
-0.955103, 161, 145, 224, 272
-0.955826, 249, 1, 312, 128
-0.956062, 257, 185, 320, 248
-0.957385, 177, 1, 240, 128
-0.958203, 145, 97, 208, 224
-0.958395, 185, 49, 248, 176
-0.958408, 217, 105, 280, 168
-0.959478, 217, 57, 280, 120
-0.960273, 177, 217, 240, 280
-0.960422, 281, 129, 344, 256
-0.961098, 241, 97, 368, 224
-0.961566, 297, 193, 360, 256
-0.961722, 113, 145, 240, 272
-0.961785, 169, 113, 232, 176
-0.961837, 369, 1, 496, 375
-0.962895, 65, 97, 192, 352
-0.962997, 209, 241, 272, 368
-0.963405, 257, 209, 320, 272
-0.963683, 113, 1, 240, 128
-0.963948, 313, 289, 376, 352
-0.964094, 209, 49, 336, 176
-0.964198, 9, 161, 72, 288
-0.964244, 273, 1, 400, 128
-0.964328, 169, 185, 232, 248
-0.96452, 353, 1, 480, 128
-0.964563, 81, 97, 208, 224
-0.964583, 1, 241, 256, 368
-0.964694, 193, 113, 256, 176
-0.964962, 217, 81, 280, 144
-0.965146, 241, 49, 304, 176
-0.965239, 145, 97, 208, 160
-0.965362, 177, 153, 240, 216
-0.965597, 1, 1, 128, 128
-0.96565, 241, 233, 304, 296
-0.965801, 217, 145, 280, 208
-0.965841, 113, 209, 240, 336
-0.966381, 209, 201, 272, 264
-0.966518, 185, 241, 248, 304
-0.966636, 257, 113, 320, 176
-0.966787, 217, 169, 280, 232
-0.966861, 217, 65, 280, 320
-0.966937, 265, 161, 328, 224
-0.967096, 305, 241, 432, 368
-0.967209, 13, 153, 44, 216
-0.967773, 225, 241, 480, 368
-0.968657, 257, 137, 320, 200
-0.969131, 1, 161, 64, 224
-0.969601, 49, 1, 176, 128
-0.969627, 329, 1, 392, 128
-0.969979, 377, 1, 440, 128
-0.970276, 193, 209, 320, 272
-0.970371, 25, 1, 88, 128
-0.97053, 257, 241, 320, 368
-0.970667, 353, 1, 416, 128
-0.970765, 173, 97, 204, 224
-0.970963, 169, 1, 232, 256
-0.971046, 249, 65, 312, 320
-0.971131, 273, 1, 336, 128
-0.971327, 145, 209, 208, 336
-0.971452, 273, 305, 336, 368
-0.971668, 409, 1, 472, 128
-0.971681, 185, 81, 248, 144
-0.97181, 145, 105, 272, 168
-0.972057, 289, 129, 352, 375
-0.972087, 209, 249, 272, 312
-0.972596, 321, 193, 384, 320
-0.972619, 361, 1, 424, 64
-0.972716, 169, 97, 232, 352
-0.972889, 9, 145, 40, 272
-0.972918, 281, 241, 344, 368
-0.973233, 289, 169, 352, 232
-0.973757, 173, 145, 204, 272
-0.973769, 9, 193, 40, 320
-0.974032, 193, 113, 320, 176
-0.974292, 225, 49, 480, 176
-0.974347, 209, 153, 336, 216
-0.974382, 237, 1, 268, 128
-0.974509, 1, 225, 64, 352
-0.974645, 257, 193, 384, 256
-0.974719, 433, 1, 496, 128
-0.974727, 177, 249, 304, 312
-0.974926, 209, 177, 336, 240
-0.975242, 305, 1, 368, 128
-0.97555, 337, 209, 400, 272
-0.975786, 273, 161, 304, 288
-0.975787, 161, 169, 288, 232
-0.976063, 153, 1, 216, 128
-0.976078, 81, 1, 144, 64
-0.976167, 369, 241, 496, 368
-0.976191, 185, 145, 248, 272
-0.976206, 273, 1, 336, 256
-0.976224, 269, 201, 300, 264
-0.976274, 233, 209, 296, 272
-0.97628, 9, 225, 40, 288
-0.976431, 313, 241, 376, 368
-0.976443, 57, 1, 120, 128
-0.976464, 329, 1, 392, 64
-0.97648, 121, 97, 184, 224
-0.976567, 433, 1, 496, 64
-0.976655, 193, 65, 256, 320
-0.976746, 249, 65, 280, 192
-0.976765, 261, 97, 292, 224
-0.976924, 173, 97, 204, 160
-0.976946, 281, 217, 344, 280
-0.977033, 217, 1, 280, 375
-0.977268, 249, 1, 312, 64
-0.977293, 121, 113, 184, 176
-0.977339, 305, 297, 432, 360
-0.977429, 209, 225, 272, 288
-0.977455, 161, 137, 288, 200
-0.977615, 201, 217, 232, 280
-0.977621, 121, 1, 184, 128
-0.978067, 145, 1, 208, 256
-0.97808, 221, 113, 252, 176
-0.978108, 241, 73, 304, 136
-0.978214, 145, 225, 272, 288
-0.978279, 285, 113, 316, 240
-0.978441, 313, 313, 344, 375
-0.978466, 289, 217, 416, 280
-0.978471, 373, 209, 404, 336
-0.978557, 161, 49, 224, 176
-0.978603, 217, 1, 280, 64
-0.978622, 305, 129, 368, 256
-0.978642, 245, 73, 276, 136
-0.978654, 185, 145, 216, 272
-0.978763, 205, 97, 236, 224
-0.978791, 229, 49, 260, 112
-0.979264, 173, 145, 204, 208
-0.979284, 153, 1, 216, 64
-0.979292, 225, 49, 256, 176
-0.97938, 193, 121, 224, 184
-0.979458, 261, 1, 292, 128
-0.979506, 185, 217, 216, 280
-0.979546, 161, 81, 288, 144
-0.979576, 369, 241, 432, 368
-0.979608, 213, 177, 244, 304
-0.97962, 261, 193, 292, 320
-0.979624, 201, 177, 232, 240
-0.97972, 273, 1, 336, 64
-0.979742, 305, 1, 368, 64
-0.979959, 193, 97, 224, 224
-0.980033, 325, 289, 356, 352
-0.980086, 225, 97, 256, 224
-0.98025, 121, 1, 184, 256
-0.980261, 225, 1, 256, 128
-0.980521, 1, 1, 64, 128
-0.980721, 153, 161, 216, 224
-0.980726, 217, 33, 280, 96
-0.980758, 241, 49, 272, 112
-0.980823, 145, 233, 208, 296
-0.980888, 185, 273, 248, 336
-0.980964, 241, 161, 304, 224
-0.981138, 285, 161, 316, 288
-0.981189, 297, 177, 328, 240
-0.981201, 145, 201, 272, 264
-0.981288, 225, 305, 352, 368
-0.981317, 269, 233, 300, 296
-0.981451, 409, 1, 472, 64
-0.981456, 213, 217, 244, 280
-0.981558, 273, 97, 304, 224
-0.981565, 209, 105, 240, 168
-0.981568, 257, 241, 288, 304
-0.981598, 1, 209, 128, 336
-0.981645, 193, 177, 256, 240
-0.981675, 145, 97, 208, 352
-0.981756, 193, 1, 256, 64
-0.982077, 261, 145, 292, 272
-0.982109, 233, 113, 264, 176
-0.98213, 153, 81, 184, 208
-0.982136, 285, 193, 316, 256
-0.982152, 297, 313, 360, 375
-0.982164, 153, 137, 216, 200
-0.982201, 245, 105, 276, 168
-0.982231, 249, 1, 280, 128
-0.982243, 9, 185, 72, 248
-0.982248, 185, 297, 248, 360
-0.982266, 1, 145, 128, 272
-0.982336, 345, 297, 408, 360
-0.98236, 273, 209, 304, 336
-0.982399, 345, 257, 408, 320
-0.982425, 185, 1, 248, 375
-0.98247, 213, 241, 244, 368
-0.982538, 173, 201, 204, 264
-0.982568, 297, 1, 360, 256
-0.982572, 301, 145, 332, 272
-0.982577, 189, 145, 220, 208
-0.982622, 25, 1, 88, 256
-0.982641, 205, 153, 236, 216
-0.982662, 193, 241, 224, 304
-0.982821, 193, 193, 224, 320
-0.982888, 257, 209, 288, 272
-0.982911, 209, 241, 240, 304
-0.982923, 225, 89, 256, 152
-0.982927, 237, 97, 268, 224
-0.982965, 97, 105, 224, 168
-0.983058, 249, 209, 280, 336
-0.98309, 241, 217, 368, 280
-0.983126, 153, 105, 184, 168
-0.983151, 285, 129, 316, 192
-0.983316, 257, 169, 384, 232
-0.98334, 181, 169, 212, 232
-0.983387, 241, 137, 272, 200
-0.983415, 113, 169, 240, 232
-0.983446, 97, 1, 160, 128
-0.983483, 9, 1, 72, 64
-0.983628, 9, 209, 72, 272
-0.983714, 241, 113, 368, 176
-0.983726, 1, 129, 64, 375
-0.9838, 21, 145, 52, 272
-0.98386, 289, 225, 320, 288
-0.983908, 337, 1, 464, 64
-0.983909, 181, 193, 212, 320
-0.983969, 261, 113, 292, 176
-0.984081, 261, 137, 292, 200
-0.984137, 273, 113, 304, 176
-0.984219, 237, 241, 268, 368
-0.984222, 241, 257, 304, 320
-0.98423, 321, 1, 384, 256
-0.984309, 209, 89, 336, 152
-0.984311, 385, 265, 448, 328
-0.984444, 385, 1, 448, 64
-0.984509, 209, 1, 240, 128
-0.984512, 41, 9, 104, 72
-0.984691, 173, 233, 204, 296
-0.984697, 153, 209, 216, 272
-0.984713, 17, 1, 144, 64
-0.984745, 225, 241, 256, 368
-0.984747, 129, 1, 192, 64
-0.98482, 305, 273, 432, 336
-0.98489, 9, 201, 40, 264
-0.9849, 169, 177, 200, 240
-0.98494, 369, 1, 400, 64
-0.98496, 361, 209, 392, 336
-0.984961, 113, 145, 240, 208
-0.985063, 265, 161, 296, 224
-0.985078, 1, 281, 64, 344
-0.985216, 281, 137, 344, 200
-0.985216, 137, 161, 200, 288
-0.985254, 1, 241, 64, 304
-0.985259, 245, 241, 276, 304
-0.985268, 209, 49, 336, 112
-0.985304, 353, 233, 416, 296
-0.985304, 261, 49, 292, 176
-0.985386, 249, 1, 312, 375
-0.985418, 381, 1, 412, 64
-0.985448, 169, 225, 200, 352
-0.98546, 217, 145, 248, 208
-0.985462, 249, 161, 280, 288
-0.985469, 241, 49, 304, 112
-0.985501, 97, 225, 224, 288
-0.98555, 105, 1, 168, 64
-0.985563, 257, 145, 384, 208
-0.985579, 25, 241, 88, 304
-0.98563, 241, 313, 304, 375
-0.985642, 237, 49, 268, 176
-0.985649, 213, 49, 244, 176
-0.985651, 297, 193, 328, 320
-0.985702, 177, 1, 304, 64
-0.985778, 1, 49, 500, 176
-0.98579, 137, 49, 200, 176
-0.985933, 309, 193, 340, 256
-0.985992, 289, 153, 320, 216
-0.986062, 161, 57, 288, 120
-0.986098, 297, 201, 328, 264
-0.986098, 1, 1, 64, 256
-0.986141, 65, 1, 192, 64
-0.986186, 197, 145, 228, 272
-0.986257, 349, 193, 380, 320
-0.986278, 25, 1, 88, 375
-0.986308, 321, 193, 352, 256
-0.986361, 361, 1, 392, 128
-0.986366, 129, 249, 256, 312
-0.986391, 289, 1, 416, 64
-0.986392, 129, 17, 256, 80
-0.986502, 221, 249, 252, 312
-0.986525, 17, 177, 48, 240
-0.986525, 285, 209, 316, 336
-0.986679, 145, 185, 208, 248
-0.986728, 225, 241, 352, 304
-0.986777, 185, 57, 248, 120
-0.986815, 369, 193, 496, 320
-0.986847, 369, 217, 400, 280
-0.98688, 289, 97, 416, 224
-0.98692, 213, 193, 244, 256
-0.986941, 225, 161, 256, 288
-0.987022, 33, 49, 288, 176
-0.987068, 177, 313, 304, 375
-0.987115, 273, 273, 336, 336
-0.987158, 349, 1, 380, 128
-0.987184, 437, 1, 468, 64
-0.987184, 153, 129, 184, 192
-0.987347, 229, 153, 260, 216
-0.987358, 9, 281, 40, 344
-0.987377, 25, 209, 88, 336
-0.987428, 337, 193, 368, 320
-0.987463, 1, 241, 32, 368
-0.987528, 25, 113, 88, 240
-0.987541, 377, 1, 408, 128
-0.987552, 213, 73, 244, 136
-0.987615, 29, 185, 60, 248
-0.987661, 97, 201, 224, 264
-0.987679, 97, 1, 160, 256
-0.987726, 249, 1, 280, 64
-0.987773, 161, 161, 192, 288
-0.987924, 161, 193, 416, 256
-0.987939, 1, 265, 128, 328
-0.987964, 57, 1, 120, 256
-0.988014, 277, 161, 308, 224
-0.988055, 417, 1, 480, 256
-0.988121, 185, 193, 216, 256
-0.988131, 161, 281, 288, 344
-0.988141, 449, 1, 480, 64
-0.988161, 361, 1, 424, 256
-0.988353, 405, 1, 436, 128
-0.988373, 305, 249, 432, 312
-0.988412, 329, 145, 392, 272
-0.988414, 25, 161, 88, 224
-0.988414, 433, 1, 464, 128
-0.988415, 1, 177, 32, 240
-0.98847, 305, 153, 336, 216
-0.988482, 181, 1, 212, 128
-0.988539, 161, 209, 192, 272
-0.988557, 145, 105, 208, 136
-0.98857, 193, 217, 448, 280
-0.988589, 317, 1, 348, 64
-0.988637, 461, 1, 492, 64
-0.988638, 321, 177, 352, 304
-0.988711, 377, 241, 408, 304
-0.988806, 169, 233, 232, 264
-0.988863, 305, 145, 432, 272
-0.98887, 225, 265, 352, 328
-0.988876, 421, 1, 452, 128
-0.988941, 273, 1, 304, 128
-0.98895, 233, 257, 264, 320
-0.988975, 313, 297, 376, 328
-0.989056, 337, 1, 368, 128
-0.989065, 241, 249, 304, 280
-0.989074, 369, 265, 496, 328
-0.989152, 389, 1, 420, 128
-0.989159, 97, 1, 128, 64
-0.98916, 337, 129, 400, 375
-0.989192, 293, 1, 324, 128
-0.989295, 357, 1, 388, 64
-0.9893, 173, 49, 204, 176
-0.989301, 217, 161, 280, 192
-0.98932, 217, 177, 280, 208
-0.989358, 153, 1, 184, 128
-0.989391, 109, 1, 140, 64
-0.989422, 333, 1, 364, 64
-0.989444, 389, 241, 420, 368
-0.989483, 45, 1, 76, 128
-0.989507, 305, 145, 368, 208
-0.989602, 1, 161, 64, 192
-0.989641, 205, 129, 236, 192
-0.989648, 257, 205, 320, 236
-0.989651, 257, 49, 384, 176
-0.989665, 369, 241, 496, 304
-0.989668, 21, 193, 52, 320
-0.989699, 369, 289, 432, 352
-0.98971, 321, 1, 352, 128
-0.98972, 217, 53, 280, 84
-0.989725, 1, 1, 64, 375
-0.989731, 257, 161, 320, 192
-0.989749, 217, 193, 280, 224
-0.989763, 185, 113, 248, 144
-0.989765, 13, 241, 44, 368
-0.989765, 185, 245, 248, 276
-0.989775, 217, 117, 280, 148
-0.989793, 393, 1, 424, 64
-0.989794, 217, 65, 280, 96
-0.989841, 261, 241, 292, 368
-0.989906, 129, 161, 384, 224
-0.989906, 129, 209, 192, 272
-0.989915, 253, 169, 284, 232
-0.98992, 297, 197, 360, 228
-0.989972, 161, 157, 224, 188
-0.989991, 225, 9, 352, 72
-0.990002, 145, 257, 208, 320
-0.990028, 309, 1, 340, 128
-0.990038, 257, 233, 320, 264
-0.990041, 445, 1, 476, 128
-0.990046, 385, 217, 448, 280
-0.990047, 193, 149, 256, 180
-0.990103, 169, 221, 232, 252
-0.99012, 257, 217, 320, 248
-0.99014, 257, 81, 288, 144
-0.990168, 249, 113, 280, 240
-0.990195, 177, 1, 208, 64
-0.990234, 289, 337, 352, 368
-0.990249, 349, 297, 380, 360
-0.990264, 1, 233, 500, 296
-0.990299, 173, 121, 204, 184
-0.990315, 185, 161, 248, 192
-0.990358, 217, 149, 280, 180
-0.990365, 217, 105, 280, 136
-0.990372, 169, 209, 232, 240
-0.990375, 313, 169, 376, 232
-0.990376, 457, 1, 488, 128
-0.990392, 217, 133, 280, 164
-0.99041, 241, 149, 304, 180
-0.990425, 57, 1, 88, 128
-0.990434, 177, 137, 240, 168
-0.990443, 161, 1, 224, 375
-0.990446, 193, 1, 224, 128
-0.990471, 233, 9, 264, 72
-0.990477, 257, 193, 320, 224
-0.990483, 17, 97, 144, 224
-0.990485, 161, 121, 224, 152
-0.990502, 177, 185, 240, 216
-0.990507, 385, 1, 448, 256
-0.990527, 353, 209, 384, 272
-0.990546, 257, 173, 320, 204
-0.990546, 313, 289, 344, 352
-0.990552, 185, 125, 248, 156
-0.990553, 241, 289, 304, 352
-0.990554, 353, 145, 480, 272
-0.990574, 337, 201, 368, 264
-0.990586, 469, 1, 500, 128
-0.99059, 257, 129, 320, 160
-0.990644, 425, 1, 456, 64
-0.990655, 257, 117, 320, 148
-0.990697, 81, 49, 208, 176
-0.990702, 345, 1, 376, 64
-0.990778, 209, 253, 272, 284
-0.990798, 281, 1, 312, 64
-0.990853, 273, 137, 304, 200
-0.990951, 229, 225, 260, 288
-0.990977, 161, 169, 224, 200
-0.990985, 249, 25, 312, 88
-0.991009, 217, 205, 280, 236
-0.991023, 1, 113, 64, 240
-0.991031, 185, 257, 248, 288
-0.991044, 201, 233, 264, 264
-0.991067, 273, 325, 336, 356
-0.991074, 265, 145, 328, 176
-0.991116, 261, 1, 292, 64
-0.99113, 177, 197, 240, 228
-0.991131, 129, 145, 192, 208
-0.991249, 233, 237, 296, 268
-0.99125, 49, 1, 80, 64
-0.991265, 225, 1, 288, 32
-0.991288, 9, 189, 72, 220
-0.991293, 289, 185, 352, 216
-0.991307, 433, 1, 496, 32
-0.991307, 297, 1, 328, 64
-0.99131, 313, 129, 344, 256
-0.991335, 25, 137, 88, 200
-0.991344, 221, 1, 252, 64
-0.991348, 281, 313, 344, 344
-0.991352, 305, 193, 432, 256
-0.991358, 185, 101, 248, 132
-0.991402, 113, 1, 176, 32
-0.991403, 137, 5, 200, 36
-0.991432, 193, 5, 256, 36
-0.991446, 385, 241, 448, 304
-0.991452, 241, 105, 304, 136
-0.991452, 257, 341, 320, 372
-0.99148, 193, 241, 224, 368
-0.991487, 1, 173, 64, 204
-0.991504, 129, 125, 192, 156
-0.991509, 69, 1, 100, 128
-0.99151, 289, 1, 352, 32
-0.99151, 329, 1, 392, 32
-0.991516, 65, 129, 192, 192
-0.991536, 161, 1, 224, 32
-0.99156, 305, 209, 368, 240
-0.991583, 161, 245, 224, 276
-0.991593, 217, 77, 280, 108
-0.991625, 353, 1, 416, 32
-0.99163, 257, 1, 320, 32
-0.991706, 129, 137, 384, 200
-0.991712, 189, 281, 220, 344
-0.991716, 329, 241, 360, 368
-0.99172, 1, 245, 64, 276
-0.99173, 289, 1, 352, 375
-0.991764, 1, 137, 64, 200
-0.991772, 1, 225, 128, 288
-0.991773, 289, 313, 320, 375
-0.991784, 337, 213, 400, 244
-0.991805, 377, 289, 408, 352
-0.991808, 217, 93, 280, 124
-0.991826, 13, 97, 44, 224
-0.991841, 409, 1, 472, 32
-0.99185, 141, 1, 172, 128
-0.991852, 97, 113, 352, 176
-0.991853, 33, 1, 96, 32
-0.991882, 193, 217, 256, 248
-0.991899, 193, 173, 256, 204
-0.991901, 1, 5, 64, 36
-0.991912, 313, 337, 376, 368
-0.991926, 273, 301, 336, 332
-0.991928, 57, 1, 120, 32
-0.991978, 233, 217, 296, 248
-0.991979, 353, 289, 416, 320
-0.991986, 285, 105, 316, 168
-0.991993, 89, 1, 152, 32
-0.992003, 369, 209, 496, 272
-0.992027, 241, 265, 304, 296
-0.992039, 385, 1, 448, 32
-0.992045, 265, 245, 328, 276
-0.992052, 313, 265, 376, 328
-0.992054, 185, 329, 248, 360
-0.99208, 281, 225, 344, 256
-0.992099, 185, 269, 248, 300
-0.992102, 281, 173, 344, 204
-0.992129, 17, 161, 144, 224
-0.992132, 145, 233, 208, 264
-0.992136, 1, 293, 64, 324
-0.992144, 9, 233, 72, 264
-0.992159, 385, 193, 448, 320
-0.992171, 193, 1, 224, 64
-0.992172, 193, 65, 256, 96
-0.992183, 337, 301, 400, 332
-0.9922, 313, 129, 376, 375
-0.992201, 385, 285, 448, 316
-0.992205, 21, 209, 52, 272
-0.992206, 193, 25, 256, 88
-0.99222, 161, 297, 416, 360
-0.992225, 253, 49, 284, 112
-0.99224, 1, 201, 500, 264
-0.992262, 265, 241, 328, 304
-0.992273, 185, 345, 248, 375
-0.992284, 281, 213, 344, 244
-0.992286, 241, 65, 304, 96
-0.992311, 153, 193, 216, 224
-0.992324, 281, 157, 344, 188
-0.992328, 265, 257, 328, 288
-0.992334, 153, 145, 216, 176
-0.992339, 401, 341, 464, 372
-0.992343, 281, 129, 344, 160
-0.992352, 9, 157, 40, 188
-0.992354, 25, 177, 88, 208
-0.99238, 29, 1, 60, 128
-0.99241, 181, 257, 212, 320
-0.99241, 17, 1, 48, 128
-0.992411, 185, 313, 248, 344
-0.992416, 321, 169, 448, 232
-0.992432, 345, 277, 408, 308
-0.992448, 169, 1, 200, 128
-0.99246, 297, 325, 360, 356
-0.992464, 17, 277, 80, 308
-0.99247, 65, 145, 192, 272
-0.992473, 145, 221, 208, 252
-0.992495, 97, 273, 224, 336
-0.992501, 9, 1, 40, 64
-0.992504, 25, 165, 88, 196
-0.992513, 345, 225, 408, 256
-0.992523, 345, 241, 408, 272
-0.992544, 29, 241, 60, 304
-0.992546, 129, 313, 256, 375
-0.992548, 9, 201, 72, 232
-0.992559, 17, 17, 80, 48
-0.992566, 153, 17, 216, 48
-0.992569, 241, 325, 304, 356
-0.992573, 313, 337, 344, 368
-0.992578, 97, 217, 352, 280
-0.992579, 121, 113, 184, 144
-0.992583, 265, 245, 296, 276
-0.992588, 177, 281, 240, 312
-0.99259, 221, 149, 252, 180
-0.992597, 269, 213, 300, 244
-0.992617, 177, 229, 208, 260
-0.992618, 249, 249, 280, 280
-0.992625, 113, 17, 176, 48
-0.992642, 273, 225, 304, 256
-0.992643, 17, 257, 80, 288
-0.992643, 385, 273, 448, 304
-0.992654, 201, 117, 232, 148
-0.992654, 13, 237, 44, 268
-0.992665, 193, 241, 224, 272
-0.992667, 317, 197, 348, 228
-0.992667, 173, 145, 204, 176
-0.992671, 205, 245, 236, 276
-0.992674, 385, 261, 448, 292
-0.992681, 173, 217, 204, 248
-0.992683, 153, 133, 216, 164
-0.992693, 153, 181, 216, 212
-0.992703, 285, 205, 316, 236
-0.992705, 89, 13, 152, 44
-0.992711, 41, 13, 104, 44
-0.992715, 265, 117, 296, 148
-0.992715, 137, 157, 200, 188
-0.992716, 385, 249, 448, 280
-0.992717, 273, 49, 304, 176
-0.992729, 157, 1, 188, 64
-0.992734, 173, 157, 204, 188
-0.992735, 161, 261, 224, 292
-0.992758, 353, 253, 416, 284
-0.992762, 9, 213, 72, 244
-0.992762, 189, 149, 220, 180
-0.992773, 281, 121, 312, 152
-0.992774, 141, 113, 172, 176
-0.992777, 193, 229, 224, 260
-0.992779, 209, 137, 240, 168
-0.992787, 241, 157, 272, 188
-0.992796, 213, 113, 244, 144
-0.992798, 129, 109, 256, 140
-0.992799, 1, 249, 32, 312
-0.99281, 13, 173, 44, 204
-0.992825, 193, 133, 224, 164
-0.992827, 297, 201, 328, 232
-0.992834, 193, 217, 224, 248
-0.992853, 317, 293, 348, 324
-0.992856, 221, 169, 252, 200
-0.992862, 237, 69, 268, 100
-0.992867, 229, 49, 260, 80
-0.992897, 225, 65, 256, 96
-0.992898, 205, 165, 236, 196
-0.992903, 221, 129, 252, 160
-0.992913, 285, 133, 316, 164
-0.992918, 21, 265, 52, 328
-0.992919, 129, 1, 192, 375
-0.992921, 193, 257, 224, 288
-0.992922, 161, 105, 192, 136
-0.992928, 17, 193, 48, 224
-0.992939, 241, 141, 272, 172
-0.992943, 265, 137, 296, 168
-0.992945, 297, 113, 360, 176
-0.992949, 233, 109, 264, 140
-0.992954, 205, 181, 236, 212
-0.992957, 173, 169, 204, 200
-0.99296, 225, 241, 480, 304
-0.992966, 17, 225, 48, 256
-0.992968, 265, 181, 296, 212
-0.99297, 149, 109, 180, 140
-0.992974, 285, 217, 316, 248
-0.992982, 245, 97, 276, 128
-0.992986, 173, 133, 204, 164
-0.992988, 313, 325, 344, 356
-0.992989, 261, 105, 292, 136
-0.992992, 297, 185, 328, 216
-0.992998, 153, 125, 184, 156
-0.993005, 265, 165, 296, 196
-0.993009, 257, 233, 288, 264
-0.99302, 261, 153, 292, 184
-0.993022, 221, 101, 252, 132
-0.993023, 249, 73, 280, 104
-0.993023, 349, 301, 380, 332
-0.993025, 273, 257, 304, 320
-0.993027, 237, 1, 268, 32
-0.993027, 245, 53, 276, 84
-0.99303, 365, 221, 396, 252
-0.993031, 181, 241, 212, 272
-0.993032, 245, 113, 276, 144
-0.993034, 289, 153, 320, 184
-0.993037, 193, 161, 224, 192
-0.99304, 337, 1, 368, 32
-0.993042, 281, 237, 312, 268
-0.993049, 201, 201, 232, 232
-0.993051, 321, 1, 352, 32
-0.993052, 9, 205, 40, 236
-0.993054, 173, 105, 204, 136
-0.993059, 465, 1, 496, 32
-0.993061, 189, 121, 220, 152
-0.993069, 265, 201, 296, 232
-0.993071, 277, 193, 308, 224
-0.993072, 245, 217, 276, 280
-0.993076, 161, 281, 224, 344
-0.993076, 29, 189, 60, 220
-0.993078, 237, 253, 268, 284
-0.993082, 209, 149, 240, 180
-0.993091, 145, 313, 208, 375
-0.993094, 173, 117, 204, 148
-0.993095, 353, 1, 384, 32
-0.993095, 173, 1, 204, 32
-0.993109, 217, 253, 248, 284
-0.99311, 345, 209, 376, 240
-0.993112, 229, 313, 260, 375
-0.993114, 365, 1, 396, 32
-0.993117, 301, 337, 332, 368
-0.993119, 217, 1, 248, 32
-0.993123, 429, 1, 460, 32
-0.993124, 317, 241, 348, 368
-0.993126, 157, 5, 188, 36
-0.993129, 1, 257, 256, 320
-0.993131, 205, 221, 236, 252
-0.993134, 129, 241, 384, 304
-0.993135, 297, 173, 328, 204
-0.993137, 293, 1, 324, 32
-0.993143, 1, 177, 500, 240
-0.993149, 1, 293, 32, 324
-0.993151, 161, 81, 192, 144
-0.993155, 209, 1, 240, 64
-0.993157, 289, 345, 320, 375
-0.993162, 329, 293, 360, 324
-0.993167, 265, 1, 296, 32
-0.99317, 181, 201, 212, 232
-0.993173, 417, 1, 448, 32
-0.993174, 249, 169, 280, 200
-0.993179, 325, 333, 356, 364
-0.993181, 277, 153, 308, 184
-0.993183, 1, 233, 256, 296
-0.993193, 249, 129, 280, 160
-0.993193, 225, 177, 256, 240
-0.993196, 113, 81, 240, 144
-0.993196, 337, 1, 400, 375
-0.993197, 145, 1, 176, 32
-0.993201, 205, 233, 236, 264
-0.993203, 269, 257, 300, 288
-0.99321, 185, 1, 216, 32
-0.99321, 169, 181, 200, 212
-0.993215, 309, 313, 340, 344
-0.99322, 193, 101, 224, 132
-0.993224, 205, 5, 236, 36
-0.993232, 353, 289, 480, 352
-0.993233, 169, 197, 200, 228
-0.993238, 277, 1, 308, 32
-0.99324, 65, 81, 192, 144
-0.993241, 285, 165, 316, 196
-0.993243, 285, 181, 316, 212
-0.993247, 253, 5, 284, 36
-0.993249, 233, 97, 264, 128
-0.993252, 377, 1, 408, 32
-0.993254, 293, 325, 324, 356
-0.993256, 325, 345, 356, 375
-0.993257, 233, 121, 264, 152
-0.993258, 133, 5, 164, 36
-0.993258, 9, 249, 40, 280
-0.993264, 309, 209, 340, 240
-0.993264, 181, 189, 212, 220
-0.993266, 389, 1, 420, 32
-0.993266, 273, 325, 304, 356
-0.993269, 61, 9, 92, 40
-0.99327, 217, 213, 248, 244
-0.993274, 369, 305, 400, 336
-0.993277, 309, 193, 340, 320
-0.993309, 217, 49, 248, 112
-0.993314, 237, 193, 268, 320
-0.993346, 361, 297, 392, 360
-0.993365, 397, 257, 428, 320
-0.99337, 297, 97, 328, 224
-0.993445, 297, 121, 328, 184
-0.993471, 161, 233, 288, 264
-0.993547, 61, 1, 92, 64
-0.993573, 209, 313, 272, 375
-0.993583, 209, 181, 336, 212
-0.993614, 37, 1, 68, 64
-0.993631, 321, 313, 384, 375
-0.993694, 337, 289, 368, 352
-0.993697, 193, 213, 320, 244
-0.993713, 161, 253, 288, 284
-0.993732, 273, 313, 304, 375
-0.993788, 77, 17, 108, 80
-0.993789, 129, 273, 384, 336
-0.99379, 193, 117, 320, 148
-0.993832, 97, 81, 352, 144
-0.993841, 17, 137, 144, 200
-0.99387, 369, 193, 432, 256
-0.993903, 1, 137, 256, 200
-0.993909, 265, 89, 328, 152
-0.993925, 177, 129, 304, 160
-0.993974, 209, 145, 336, 176
-0.993992, 65, 185, 320, 248
-0.994038, 257, 201, 384, 232
-0.994053, 129, 1, 160, 128
-0.994077, 273, 89, 304, 152
-0.994133, 193, 97, 224, 160
-0.99414, 389, 281, 420, 344
-0.994189, 1, 153, 32, 216
-0.994239, 149, 129, 180, 256
-0.994267, 305, 297, 432, 328
-0.994355, 161, 161, 288, 192
-0.994431, 257, 297, 500, 360
-0.99447, 209, 165, 336, 196
-0.994521, 409, 1, 440, 64
-0.994537, 85, 1, 116, 128
-0.994543, 265, 49, 328, 176
-0.994559, 1, 257, 500, 320
-0.994565, 257, 41, 384, 104
-0.994568, 193, 49, 224, 176
-0.994611, 257, 89, 384, 152
-0.994665, 257, 193, 500, 256
-0.99471, 289, 113, 416, 176
-0.994766, 161, 177, 288, 208
-0.994797, 145, 141, 272, 172
-0.994826, 177, 193, 304, 224
-0.994862, 213, 217, 228, 280
-0.994874, 289, 217, 304, 280
-0.99493, 193, 113, 448, 176
-0.99495, 369, 265, 400, 328
-0.99495, 49, 1, 112, 375
-0.994956, 65, 1, 320, 64
-0.994969, 23, 217, 38, 280
-0.994969, 323, 313, 338, 375
-0.994973, 227, 105, 242, 168
-0.994992, 235, 113, 250, 176
-0.995021, 1, 1, 32, 128
-0.995021, 33, 177, 64, 304
-0.995058, 17, 185, 144, 248
-0.995064, 1, 161, 256, 224
-0.995079, 225, 169, 480, 232
-0.99517, 271, 209, 286, 272
-0.995208, 177, 105, 304, 136
-0.995213, 193, 1, 448, 64
-0.995215, 113, 81, 176, 144
-0.995241, 113, 237, 240, 268
-0.995246, 211, 241, 226, 304
-0.99525, 1, 1, 500, 64
-0.995273, 295, 201, 310, 264
-0.995273, 345, 185, 408, 248
-0.995275, 209, 245, 336, 276
-0.995302, 97, 1, 128, 128
-0.995319, 167, 97, 182, 160
-0.995331, 265, 105, 280, 168
-0.995351, 11, 153, 26, 216
-0.995358, 185, 225, 200, 288
-0.995398, 113, 1, 144, 128
-0.995406, 145, 73, 208, 136
-0.995432, 251, 73, 266, 136
-0.995483, 321, 289, 336, 352
-0.995521, 303, 185, 318, 248
-0.995534, 263, 241, 278, 304
-0.995543, 97, 57, 352, 120
-0.995553, 81, 249, 208, 312
-0.995578, 249, 49, 264, 112
-0.99558, 161, 97, 176, 160
-0.995589, 31, 185, 46, 248
-0.995597, 205, 225, 220, 288
-0.995614, 257, 105, 272, 168
-0.995629, 195, 121, 210, 184
-0.995638, 265, 209, 280, 272
-0.995679, 289, 213, 416, 244
-0.995718, 21, 153, 36, 216
-0.995735, 257, 189, 384, 220
-0.995737, 165, 1, 196, 256
-0.995762, 305, 145, 432, 208
-0.99578, 391, 241, 406, 304
-0.995799, 219, 209, 234, 272
-0.995801, 225, 265, 480, 328
-0.995804, 257, 145, 500, 208
-0.995811, 283, 217, 298, 280
-0.995812, 1, 289, 128, 352
-0.995828, 255, 49, 270, 112
-0.995835, 205, 201, 220, 264
-0.995836, 245, 113, 260, 176
-0.995839, 23, 193, 38, 256
-0.995849, 1, 281, 256, 344
-0.995877, 145, 213, 272, 244
-0.995888, 257, 73, 272, 136
-0.995891, 217, 161, 232, 224
-0.995897, 179, 209, 194, 272
-0.995911, 1, 209, 256, 272
-0.995915, 193, 57, 448, 120
-0.995932, 167, 121, 182, 184
-0.995941, 27, 153, 42, 216
-0.995942, 265, 129, 280, 192
-0.995945, 309, 161, 324, 224
-0.995954, 173, 177, 188, 240
-0.995963, 225, 81, 240, 144
-0.995989, 375, 1, 390, 64
-0.995995, 1, 153, 500, 216
-0.995996, 205, 153, 220, 216
-0.996007, 11, 185, 26, 248
-0.996008, 205, 113, 220, 176
-0.996023, 9, 129, 40, 375
-0.996031, 289, 81, 352, 208
-0.99604, 173, 97, 204, 352
-0.996042, 129, 121, 256, 152
-0.996043, 271, 233, 286, 296
-0.996052, 129, 193, 256, 224
-0.996083, 65, 153, 192, 216
-0.996097, 293, 113, 308, 176
-0.996118, 317, 313, 332, 375
-0.996128, 333, 289, 348, 352
-0.996135, 225, 97, 256, 352
-0.996136, 299, 121, 314, 184
-0.99616, 161, 93, 288, 124
-0.996165, 225, 129, 240, 192
-0.996171, 257, 297, 384, 328
-0.996174, 145, 5, 272, 36
-0.996186, 195, 217, 210, 280
-0.996191, 225, 133, 352, 164
-0.996193, 341, 145, 372, 272
-0.996197, 229, 49, 244, 112
-0.996208, 209, 233, 336, 264
-0.996236, 217, 113, 232, 176
-0.996239, 285, 65, 316, 192
-0.996246, 303, 161, 318, 224
-0.996249, 305, 1, 432, 32
-0.996258, 253, 65, 284, 320
-0.996265, 257, 1, 384, 32
-0.99627, 239, 41, 254, 104
-0.99629, 193, 1, 320, 32
-0.996291, 389, 1, 404, 64
-0.996292, 81, 25, 208, 88
-0.996304, 349, 241, 380, 368
-0.996306, 209, 177, 224, 240
-0.996316, 289, 225, 416, 256
-0.99633, 185, 105, 200, 168
-0.996338, 185, 1, 216, 256
-0.996366, 141, 81, 172, 208
-0.996378, 369, 1, 384, 64
-0.996379, 209, 345, 336, 375
-0.996379, 251, 249, 266, 312
-0.996391, 211, 113, 226, 176
-0.99641, 327, 289, 342, 352
-0.996418, 113, 225, 240, 256
-0.996431, 241, 217, 368, 248
-0.996446, 185, 177, 200, 240
-0.996449, 173, 97, 188, 160
-0.996449, 155, 105, 170, 168
-0.996451, 279, 113, 294, 176
-0.996482, 381, 1, 396, 64
-0.996489, 181, 241, 212, 368
-0.996492, 81, 5, 208, 36
-0.996493, 197, 241, 212, 304
-0.996494, 231, 249, 246, 312
-0.996495, 279, 145, 294, 208
-0.996505, 189, 145, 204, 208
-0.996537, 395, 1, 410, 64
-0.996549, 245, 73, 260, 136
-0.996561, 235, 73, 250, 136
-0.996573, 269, 97, 300, 352
-0.996593, 263, 81, 278, 144
-0.996598, 461, 1, 476, 64
-0.996604, 441, 1, 456, 64
-0.996625, 81, 297, 208, 360
-0.996627, 257, 169, 384, 200
-0.996628, 271, 105, 286, 168
-0.996644, 177, 61, 304, 92
-0.996652, 225, 309, 352, 340
-0.996678, 369, 1, 496, 32
-0.996681, 385, 225, 400, 288
-0.996692, 225, 249, 240, 312
-0.996701, 331, 1, 346, 64
-0.996709, 313, 185, 328, 248
-0.996715, 289, 345, 416, 375
-0.996716, 241, 329, 368, 360
-0.996719, 241, 257, 256, 320
-0.996724, 193, 81, 448, 144
-0.996738, 267, 169, 282, 232
-0.99675, 279, 177, 294, 240
-0.99675, 313, 1, 376, 375
-0.996765, 285, 313, 300, 375
-0.996766, 1, 9, 128, 40
-0.996778, 25, 241, 56, 368
-0.996783, 1, 129, 500, 192
-0.996785, 201, 1, 232, 256
-0.996795, 287, 185, 302, 248
-0.996797, 217, 241, 232, 304
-0.99682, 391, 281, 406, 344
-0.996821, 49, 105, 176, 168
-0.996833, 241, 1, 272, 256
-0.996846, 189, 129, 220, 375
-0.996847, 305, 137, 320, 200
-0.996852, 297, 177, 312, 240
-0.996855, 281, 241, 296, 304
-0.996859, 111, 1, 126, 64
-0.996863, 175, 137, 190, 200
-0.99687, 11, 241, 26, 304
-0.996872, 277, 217, 292, 280
-0.996875, 303, 217, 318, 280
-0.996884, 295, 233, 310, 296
-0.996891, 257, 241, 272, 304
-0.996899, 23, 273, 38, 336
-0.996903, 183, 145, 198, 208
-0.996905, 467, 1, 482, 64
-0.996905, 215, 137, 230, 200
-0.996908, 305, 309, 432, 340
-0.996909, 229, 1, 260, 256
-0.996909, 241, 97, 272, 352
-0.996932, 187, 1, 202, 64
-0.996936, 199, 161, 214, 224
-0.996941, 293, 1, 308, 64
-0.996941, 183, 249, 198, 312
-0.99695, 481, 1, 496, 64
-0.996957, 177, 241, 192, 304
-0.996961, 213, 129, 244, 375
-0.996969, 363, 297, 378, 360
-0.996972, 273, 185, 288, 248
-0.996978, 353, 161, 416, 288
-0.99698, 263, 57, 278, 120
-0.996985, 293, 137, 308, 200
-0.996986, 247, 137, 262, 200
-0.99699, 269, 1, 300, 256
-0.996995, 291, 161, 306, 224
-0.996998, 185, 201, 200, 264
-0.997002, 5, 161, 20, 224
-0.99701, 363, 1, 378, 64
-0.997026, 455, 1, 470, 64
-0.99703, 25, 97, 88, 352
-0.997036, 289, 1, 320, 256
-0.997038, 447, 1, 462, 64
-0.99704, 191, 241, 206, 304
-0.997045, 317, 1, 332, 64
-0.997073, 113, 249, 240, 280
-0.997088, 377, 217, 392, 280
-0.997092, 273, 137, 288, 200
-0.9971, 289, 237, 416, 268
-0.997113, 361, 161, 392, 288
-0.997117, 475, 1, 490, 64
-0.997126, 239, 1, 254, 64
-0.997127, 289, 97, 320, 352
-0.997133, 179, 97, 194, 160
-0.997144, 267, 1, 282, 64
-0.997145, 289, 285, 416, 316
-0.997147, 249, 1, 264, 64
-0.997164, 1, 25, 128, 88
-0.99718, 269, 245, 284, 276
-0.99718, 305, 333, 432, 364
-0.99719, 81, 105, 208, 136
-0.997196, 113, 157, 240, 188
-0.997204, 193, 333, 320, 364
-0.997227, 301, 1, 332, 256
-0.997268, 1, 285, 128, 316
-0.997276, 113, 181, 240, 212
-0.997277, 209, 257, 336, 288
-0.997279, 257, 149, 384, 180
-0.997324, 161, 269, 288, 300
-0.997346, 81, 121, 208, 152
-0.997385, 209, 77, 336, 108
-0.997412, 397, 193, 428, 320
-0.997423, 257, 249, 272, 280
-0.997435, 161, 345, 288, 375
-0.997441, 241, 117, 368, 148
-0.997475, 1, 113, 256, 176
-0.997476, 207, 233, 222, 264
-0.997482, 257, 65, 384, 128
-0.99749, 161, 293, 288, 324
-0.997538, 315, 333, 330, 364
-0.997546, 177, 281, 304, 312
-0.997547, 189, 233, 204, 264
-0.997555, 177, 317, 304, 348
-0.997568, 211, 245, 226, 276
-0.997575, 113, 17, 240, 48
-0.997578, 337, 285, 464, 316
-0.997588, 153, 1, 184, 256
-0.997618, 225, 129, 240, 160
-0.997632, 121, 169, 184, 232
-0.997633, 317, 1, 348, 256
-0.997633, 327, 333, 342, 364
-0.997637, 23, 217, 38, 248
-0.997639, 199, 237, 214, 268
-0.997656, 325, 129, 356, 256
-0.99766, 31, 189, 46, 220
-0.997674, 153, 113, 168, 144
-0.99768, 65, 177, 192, 240
-0.99768, 9, 1, 40, 256
-0.997683, 275, 245, 290, 276
-0.997686, 213, 1, 244, 256
-0.997689, 25, 265, 88, 328
-0.997709, 73, 1, 136, 375
-0.99773, 113, 169, 240, 200
-0.997744, 161, 305, 288, 336
-0.997747, 265, 101, 280, 132
-0.997752, 321, 317, 336, 348
-0.997755, 295, 121, 310, 152
-0.997757, 49, 17, 176, 48
-0.997771, 305, 249, 432, 280
-0.99778, 227, 61, 242, 92
-0.997791, 17, 177, 144, 208
-0.997799, 263, 245, 278, 276
-0.997821, 277, 233, 292, 264
-0.997833, 241, 157, 256, 188
-0.997836, 201, 97, 232, 352
-0.997866, 369, 245, 496, 276
-0.997868, 97, 145, 224, 176
-0.997875, 159, 105, 174, 136
-0.99788, 1, 21, 128, 52
-0.997882, 191, 245, 206, 276
-0.997885, 1, 261, 128, 292
-0.997892, 141, 1, 172, 256
-0.997894, 217, 165, 232, 196
-0.997901, 225, 105, 240, 136
-0.997913, 353, 25, 480, 88
-0.997918, 11, 157, 26, 188
-0.997928, 289, 221, 304, 252
-0.997931, 209, 117, 224, 148
-0.997932, 187, 157, 202, 188
-0.997934, 21, 205, 36, 236
-0.997935, 177, 25, 304, 88
-0.997939, 223, 157, 238, 188
-0.997942, 321, 297, 336, 328
-0.997944, 217, 113, 232, 144
-0.997945, 179, 221, 194, 252
-0.997954, 195, 225, 210, 256
-0.997966, 267, 233, 282, 264
-0.997968, 253, 73, 268, 104
-0.997971, 209, 49, 336, 80
-0.997973, 339, 1, 354, 32
-0.997981, 309, 129, 340, 375
-0.997982, 361, 1, 424, 375
-0.997993, 33, 129, 64, 256
-0.997994, 303, 197, 318, 228
-0.997994, 23, 229, 38, 260
-0.997997, 197, 121, 212, 152
-0.998002, 369, 269, 496, 300
-0.998003, 233, 141, 248, 172
-0.998005, 1, 273, 128, 304
-0.998016, 209, 165, 224, 196
-0.998017, 161, 17, 288, 48
-0.998022, 305, 269, 432, 300
-0.998029, 287, 245, 302, 276
-0.998035, 213, 233, 228, 264
-0.998035, 275, 165, 290, 196
-0.998038, 1, 305, 256, 368
-0.998039, 235, 113, 250, 144
-0.998041, 215, 137, 230, 168
-0.998043, 265, 165, 280, 196
-0.998046, 97, 133, 224, 164
-0.998047, 257, 113, 272, 144
-0.998051, 225, 101, 352, 132
-0.998052, 305, 157, 320, 188
-0.99806, 225, 285, 352, 316
-0.998069, 31, 177, 46, 208
-0.998072, 287, 325, 302, 356
-0.998073, 369, 229, 496, 260
-0.998075, 21, 189, 36, 220
-0.998077, 305, 321, 432, 352
-0.99808, 251, 249, 266, 280
-0.998085, 183, 233, 198, 264
-0.998089, 167, 129, 182, 160
-0.998091, 259, 61, 274, 92
-0.998092, 369, 257, 496, 288
-0.998102, 331, 345, 346, 375
-0.998105, 243, 1, 258, 32
-0.998114, 295, 217, 310, 248
-0.998115, 381, 225, 396, 256
-0.998116, 105, 1, 168, 375
-0.998118, 353, 1, 368, 32
-0.99812, 265, 129, 280, 160
-0.998135, 283, 133, 298, 164
-0.998136, 321, 1, 336, 32
-0.998136, 25, 157, 40, 188
-0.99814, 363, 301, 378, 332
-0.998142, 283, 113, 298, 144
-0.998145, 225, 145, 240, 176
-0.998146, 21, 1, 52, 256
-0.998148, 297, 205, 312, 236
-0.998148, 209, 177, 224, 208
-0.998153, 217, 181, 232, 212
-0.998159, 233, 49, 248, 80
-0.998159, 321, 129, 352, 375
-0.998159, 271, 209, 286, 240
-0.998162, 213, 221, 228, 252
-0.998167, 273, 129, 400, 160
-0.998167, 289, 117, 304, 148
-0.998169, 17, 165, 144, 196
-0.998174, 265, 149, 280, 180
-0.998178, 227, 117, 242, 148
-0.998188, 1, 281, 500, 344
-0.99819, 257, 97, 272, 128
-0.998191, 249, 1, 264, 32
-0.998196, 205, 245, 220, 276
-0.998197, 229, 73, 244, 104
-0.998198, 203, 121, 218, 152
-0.998199, 187, 109, 202, 140
-0.998202, 369, 297, 496, 328
-0.998202, 271, 109, 286, 140
-0.998206, 281, 249, 296, 280
-0.998207, 181, 245, 196, 276
-0.998211, 219, 253, 234, 284
-0.998212, 311, 205, 326, 236
-0.998212, 255, 157, 270, 188
-0.998215, 9, 185, 24, 216
-0.99822, 191, 141, 206, 172
-0.998224, 225, 33, 480, 96
-0.998226, 161, 1, 176, 32
-0.99823, 205, 221, 220, 252
-0.998234, 177, 157, 192, 188
-0.998238, 289, 129, 304, 160
-0.998243, 265, 193, 280, 224
-0.998244, 477, 1, 492, 32
-0.998248, 281, 217, 296, 248
-0.998249, 293, 145, 308, 176
-0.998255, 213, 197, 228, 228
-0.998257, 279, 145, 294, 176
-0.998258, 321, 193, 336, 224
-0.998262, 11, 241, 26, 272
-0.998264, 207, 205, 222, 236
-0.998276, 227, 5, 242, 36
-0.998277, 3, 301, 18, 332
-0.998278, 253, 53, 268, 84
-0.998278, 185, 257, 200, 288
-0.998283, 265, 177, 280, 208
-0.998285, 337, 1, 368, 256
-0.998288, 283, 161, 298, 192
-0.998288, 375, 1, 390, 32
-0.998289, 275, 185, 290, 216
-0.998291, 19, 285, 34, 316
-0.998295, 245, 145, 260, 176
-0.998303, 287, 233, 302, 264
-0.998304, 257, 1, 272, 32
-0.998308, 305, 185, 432, 216
-0.99831, 185, 1, 200, 32
-0.998312, 197, 137, 212, 168
-0.998313, 237, 257, 252, 288
-0.998314, 121, 97, 184, 352
-0.998316, 237, 1, 252, 32
-0.99832, 275, 121, 290, 152
-0.99832, 295, 1, 310, 32
-0.998321, 175, 209, 190, 240
-0.998322, 275, 1, 290, 32
-0.998325, 197, 149, 212, 180
-0.998326, 231, 257, 246, 288
-0.998328, 205, 149, 220, 180
-0.998331, 17, 249, 144, 280
-0.998336, 209, 89, 336, 120
-0.998341, 301, 137, 316, 168
-0.998342, 215, 153, 230, 184
-0.998342, 161, 73, 288, 104
-0.998348, 257, 17, 384, 48
-0.998367, 209, 17, 336, 48
-0.99837, 249, 103, 280, 118
-0.998372, 369, 307, 400, 322
-0.998372, 305, 361, 336, 375
-0.998374, 301, 199, 332, 214
-0.998374, 249, 175, 280, 190
-0.998375, 233, 111, 264, 126
-0.998375, 189, 145, 220, 160
-0.998375, 97, 261, 224, 292
-0.998376, 261, 163, 292, 178
-0.998377, 293, 349, 324, 364
-0.998378, 173, 143, 204, 158
-0.998378, 145, 1, 176, 16
-0.998378, 17, 229, 48, 244
-0.998379, 233, 153, 264, 168
-0.99838, 17, 223, 48, 238
-0.998381, 161, 49, 288, 80
-0.998381, 205, 201, 236, 216
-0.998381, 289, 155, 320, 170
-0.998382, 277, 161, 308, 176
-0.998382, 265, 145, 296, 160
-0.998383, 245, 69, 276, 84
-0.998383, 277, 211, 308, 226
-0.998383, 189, 165, 220, 180
-0.998385, 269, 183, 300, 198
-0.998387, 221, 111, 252, 126
-0.998387, 145, 117, 176, 132
-0.998387, 173, 129, 204, 144
-0.998387, 173, 219, 204, 234
-0.998388, 13, 177, 44, 192
-0.998388, 369, 299, 400, 314
-0.998388, 205, 169, 236, 184
-0.998388, 197, 183, 228, 198
-0.998389, 293, 343, 324, 358
-0.99839, 9, 201, 40, 216
-0.99839, 425, 1, 456, 256
-0.998391, 289, 355, 320, 370
-0.998391, 221, 73, 252, 88
-0.998392, 113, 49, 240, 112
-0.998392, 337, 17, 464, 48
-0.998392, 237, 165, 268, 180
-0.998393, 293, 333, 324, 348
-0.998393, 241, 61, 368, 92
-0.998393, 289, 229, 320, 244
-0.998393, 257, 117, 288, 132
-0.998395, 269, 225, 300, 240
-0.998396, 225, 259, 256, 274
-0.998396, 185, 253, 216, 268
-0.998398, 261, 169, 292, 184
-0.998398, 229, 145, 260, 160
-0.998398, 185, 181, 216, 196
-0.998399, 285, 205, 316, 220
-0.9984, 65, 25, 320, 88
-0.9984, 285, 223, 316, 238
-0.998401, 345, 211, 376, 226
-0.998401, 29, 191, 60, 206
-0.998402, 233, 51, 264, 66
-0.998404, 197, 249, 228, 264
-0.998405, 201, 135, 232, 150
-0.998407, 265, 189, 296, 204
-0.998408, 297, 191, 328, 206
-0.998409, 181, 241, 212, 256
-0.99841, 309, 355, 340, 370
-0.99841, 273, 135, 304, 150
-0.99841, 241, 145, 272, 160
-0.998413, 353, 217, 480, 248
-0.998414, 185, 159, 216, 174
-0.998414, 149, 127, 180, 142
-0.998417, 201, 207, 232, 222
-0.998417, 13, 235, 44, 250
-0.998417, 33, 1, 64, 256
-0.998418, 261, 135, 292, 150
-0.998418, 173, 135, 204, 150
-0.998418, 225, 251, 256, 266
-0.998419, 221, 169, 252, 184
-0.998421, 209, 181, 240, 196
-0.998421, 189, 151, 220, 166
-0.998422, 213, 121, 244, 136
-0.998422, 209, 147, 240, 162
-0.998422, 213, 137, 244, 152
-0.998423, 161, 129, 192, 375
-0.998424, 285, 217, 316, 232
-0.998424, 189, 139, 220, 154
-0.998425, 201, 237, 232, 252
-0.998426, 129, 61, 256, 92
-0.998427, 349, 301, 380, 316
-0.998428, 281, 119, 312, 134
-0.998431, 209, 161, 240, 176
-0.998432, 245, 117, 276, 132
-0.998433, 229, 117, 260, 132
-0.998433, 245, 151, 276, 166
-0.998434, 241, 255, 304, 270
-0.998435, 269, 257, 300, 272
-0.998437, 281, 199, 312, 214
-0.998437, 285, 133, 316, 148
-0.998438, 265, 203, 296, 218
-0.99844, 201, 175, 232, 190
-0.998442, 197, 119, 228, 134
-0.998444, 313, 299, 344, 314
-0.998446, 9, 247, 40, 262
-0.998446, 241, 75, 272, 90
-0.998447, 277, 243, 308, 258
-0.998447, 173, 163, 204, 178
-0.998448, 193, 125, 224, 140
-0.99845, 273, 231, 304, 246
-0.998452, 289, 199, 352, 214
-0.998452, 205, 189, 236, 204
-0.998453, 221, 151, 252, 166
-0.998455, 169, 247, 232, 262
-0.998455, 261, 157, 292, 172
-0.998455, 17, 185, 48, 200
-0.998457, 257, 207, 320, 222
-0.998457, 253, 253, 284, 268
-0.998457, 289, 89, 352, 152
-0.998458, 209, 253, 240, 268
-0.998459, 193, 227, 224, 242
-0.998459, 313, 333, 344, 348
-0.99846, 293, 211, 324, 226
-0.998463, 241, 253, 272, 268
-0.998463, 21, 129, 52, 375
-0.998464, 265, 211, 296, 226
-0.998465, 173, 171, 204, 186
-0.998468, 285, 127, 316, 142
-0.998476, 169, 235, 232, 250
-0.998477, 173, 225, 204, 240
-0.998478, 313, 299, 376, 314
-0.99848, 269, 117, 300, 132
-0.99848, 329, 295, 360, 310
-0.998481, 257, 219, 320, 234
-0.998481, 185, 115, 248, 130
-0.998481, 209, 297, 336, 328
-0.998481, 261, 111, 292, 126
-0.998481, 309, 349, 340, 364
-0.998482, 17, 193, 48, 208
-0.998483, 217, 179, 280, 194
-0.998487, 241, 249, 304, 264
-0.998488, 269, 219, 300, 234
-0.998488, 173, 157, 204, 172
-0.998488, 217, 119, 280, 134
-0.99849, 97, 213, 224, 244
-0.998493, 173, 149, 204, 164
-0.998493, 297, 205, 328, 220
-0.998494, 257, 125, 320, 140
-0.998495, 165, 105, 196, 120
-0.998496, 305, 205, 368, 220
-0.998497, 217, 185, 280, 200
-0.998497, 257, 213, 320, 228
-0.998499, 185, 255, 248, 270
-0.998501, 169, 241, 232, 256
-0.998502, 353, 205, 480, 236
-0.998502, 17, 25, 80, 88
-0.998503, 265, 123, 296, 138
-0.998507, 169, 229, 232, 244
-0.998508, 217, 163, 280, 178
-0.998509, 209, 115, 240, 130
-0.99851, 241, 159, 272, 174
-0.998511, 313, 339, 344, 354
-0.998511, 209, 67, 272, 82
-0.998512, 273, 237, 304, 252
-0.998513, 145, 107, 208, 122
-0.998514, 229, 67, 260, 82
-0.998515, 217, 173, 280, 188
-0.998516, 185, 121, 248, 136
-0.998516, 209, 245, 272, 260
-0.998518, 181, 247, 212, 262
-0.99852, 221, 159, 252, 174
-0.998521, 369, 129, 400, 375
-0.998521, 257, 229, 320, 244
-0.998522, 97, 281, 224, 312
-0.998524, 289, 341, 352, 356
-0.998525, 161, 159, 224, 174
-0.998525, 289, 335, 352, 350
-0.998525, 217, 191, 280, 206
-0.998525, 13, 241, 44, 256
-0.998527, 217, 205, 280, 220
-0.99853, 145, 117, 208, 132
-0.99853, 177, 233, 208, 248
-0.998532, 257, 175, 320, 190
-0.998535, 217, 251, 280, 266
-0.998535, 265, 201, 328, 216
-0.998536, 257, 235, 320, 250
-0.998538, 217, 129, 280, 144
-0.99854, 161, 141, 224, 156
-0.998541, 257, 181, 320, 196
-0.998544, 257, 189, 320, 204
-0.998545, 373, 161, 404, 288
-0.998545, 257, 167, 320, 182
-0.998546, 217, 155, 280, 170
-0.998547, 9, 159, 40, 174
-0.998548, 1, 163, 64, 178
-0.998548, 289, 347, 352, 362
-0.998551, 177, 189, 240, 204
-0.998553, 217, 149, 280, 164
-0.998553, 217, 199, 280, 214
-0.998556, 257, 151, 320, 166
-0.998558, 177, 151, 240, 166
-0.99856, 289, 361, 352, 375
-0.998561, 177, 183, 240, 198
-0.998561, 257, 247, 288, 262
-0.998562, 217, 57, 280, 72
-0.998562, 217, 75, 280, 90
-0.998563, 437, 1, 468, 256
-0.998565, 177, 171, 240, 186
-0.998565, 241, 157, 304, 172
-0.998566, 177, 165, 240, 180
-0.998568, 241, 143, 304, 158
-0.998568, 273, 355, 336, 370
-0.998569, 217, 211, 280, 226
-0.99857, 169, 223, 232, 238
-0.99857, 9, 189, 72, 204
-0.99857, 169, 135, 232, 150
-0.998571, 1, 247, 64, 262
-0.998571, 209, 257, 272, 272
-0.998573, 61, 1, 92, 256
-0.998575, 161, 123, 224, 138
-0.998576, 257, 119, 320, 134
-0.998577, 317, 199, 348, 214
-0.998581, 177, 195, 240, 210
-0.998581, 1, 175, 64, 190
-0.998581, 1, 169, 64, 184
-0.998582, 209, 113, 272, 128
-0.998583, 241, 135, 304, 150
-0.998584, 177, 213, 240, 228
-0.998584, 185, 157, 248, 172
-0.99859, 377, 129, 440, 375
-0.99859, 177, 207, 240, 222
-0.998592, 217, 141, 280, 156
-0.998593, 345, 293, 408, 308
-0.998594, 265, 347, 328, 362
-0.998596, 97, 1, 128, 256
-0.998598, 1, 183, 64, 198
-0.998599, 265, 161, 328, 176
-0.9986, 209, 273, 272, 336
-0.9986, 337, 301, 400, 316
-0.998602, 193, 145, 256, 160
-0.998602, 289, 193, 352, 208
-0.998604, 265, 195, 328, 210
-0.998604, 161, 177, 224, 192
-0.998606, 217, 105, 280, 120
-0.998606, 113, 1, 176, 16
-0.998609, 81, 1, 112, 256
-0.998609, 297, 353, 360, 368
-0.998611, 185, 107, 248, 122
-0.998611, 413, 1, 444, 256
-0.998612, 169, 1, 232, 16
-0.998613, 289, 329, 352, 344
-0.998613, 265, 243, 328, 258
-0.998613, 177, 201, 240, 216
-0.998614, 193, 135, 256, 150
-0.998617, 305, 211, 368, 226
-0.998617, 97, 305, 224, 336
-0.998617, 233, 111, 296, 126
-0.998618, 217, 217, 280, 232
-0.998619, 21, 145, 36, 272
-0.998624, 137, 1, 200, 16
-0.998624, 45, 1, 76, 256
-0.998626, 217, 135, 280, 150
-0.998626, 265, 145, 328, 160
-0.998626, 161, 129, 224, 144
-0.99863, 265, 341, 328, 356
-0.998631, 201, 235, 264, 250
-0.998637, 281, 179, 344, 194
-0.998637, 281, 323, 344, 338
-0.998637, 185, 129, 248, 144
-0.998638, 185, 261, 248, 276
-0.998638, 193, 243, 224, 258
-0.998639, 233, 243, 296, 258
-0.99864, 9, 195, 72, 210
-0.99864, 1, 189, 128, 220
-0.99864, 273, 303, 336, 318
-0.998641, 185, 177, 248, 192
-0.998642, 97, 337, 224, 368
-0.998643, 89, 1, 152, 16
-0.998645, 241, 201, 304, 216
-0.998645, 225, 237, 288, 252
-0.998646, 257, 361, 320, 375
-0.998647, 121, 127, 184, 142
-0.998647, 113, 1, 144, 256
-0.998647, 281, 317, 344, 332
-0.99865, 9, 241, 72, 256
-0.998651, 337, 1, 400, 16
-0.998651, 273, 309, 336, 324
-0.998652, 129, 1, 160, 256
-0.998653, 217, 51, 280, 66
-0.998654, 201, 1, 264, 16
-0.998655, 185, 357, 248, 372
-0.998655, 313, 339, 376, 354
-0.998657, 217, 81, 280, 96
-0.998658, 265, 137, 328, 152
-0.998659, 9, 1, 72, 16
-0.99866, 233, 67, 296, 82
-0.99866, 49, 1, 112, 16
-0.998661, 361, 299, 424, 314
-0.998662, 265, 131, 328, 146
-0.998662, 1, 301, 64, 316
-0.998674, 305, 197, 432, 228
-0.998711, 449, 1, 480, 256
-0.998724, 377, 1, 408, 256
-0.99873, 251, 1, 266, 128
-0.998732, 97, 325, 224, 356
-0.998758, 177, 81, 192, 208
-0.998766, 349, 129, 380, 375
-0.998772, 145, 333, 272, 364
-0.998773, 333, 129, 364, 375
-0.998795, 97, 293, 224, 324
-0.998798, 257, 49, 272, 176
-0.998811, 265, 97, 280, 224
-0.998832, 257, 1, 272, 128
-0.998834, 11, 145, 26, 272
-0.998839, 349, 1, 380, 256
-0.998852, 361, 1, 392, 256
-0.998859, 245, 1, 260, 128
-0.998874, 21, 193, 36, 320
-0.998883, 369, 185, 496, 248
-0.998898, 105, 49, 168, 176
-0.998901, 389, 225, 404, 352
-0.998904, 219, 177, 234, 304
-0.998909, 191, 97, 206, 224
-0.998911, 461, 1, 492, 256
-0.998911, 235, 1, 250, 128
-0.998927, 13, 225, 28, 352
-0.998932, 219, 113, 234, 240
-0.998935, 293, 113, 308, 240
-0.998938, 273, 97, 288, 224
-0.998941, 227, 49, 242, 176
-0.998948, 5, 225, 20, 352
-0.998961, 167, 81, 182, 208
-0.998962, 231, 97, 246, 224
-0.998968, 185, 145, 200, 272
-0.998977, 263, 1, 278, 128
-0.998994, 229, 1, 244, 128
-0.998995, 175, 161, 190, 288
-0.999, 305, 129, 320, 256
-0.999004, 213, 161, 228, 288
-0.999004, 225, 161, 240, 288
-0.999007, 281, 145, 296, 272
-0.999015, 401, 1, 432, 256
-0.999026, 289, 249, 352, 312
-0.999034, 299, 161, 314, 288
-0.999043, 263, 145, 278, 272
-0.999044, 383, 209, 398, 336
-0.999055, 389, 1, 420, 256
-0.999061, 31, 161, 46, 288
-0.999071, 237, 241, 252, 368
-0.99909, 157, 209, 188, 336
-0.9991, 279, 97, 294, 224
-0.999102, 263, 49, 278, 176
-0.999112, 185, 193, 200, 320
-0.999113, 65, 229, 192, 260
-0.999115, 251, 49, 266, 176
-0.999119, 65, 93, 192, 124
-0.999122, 287, 193, 302, 320
-0.999126, 259, 97, 274, 224
-0.999126, 81, 193, 208, 224
-0.99913, 17, 153, 144, 184
-0.999147, 269, 1, 284, 128
-0.999147, 299, 113, 314, 240
-0.999153, 1, 89, 256, 152
-0.999153, 209, 113, 224, 240
-0.999155, 183, 97, 198, 224
-0.999157, 259, 225, 274, 352
-0.999158, 17, 237, 144, 268
-0.999161, 207, 161, 222, 288
-0.999162, 225, 97, 240, 224
-0.999162, 287, 145, 302, 272
-0.999164, 221, 1, 236, 128
-0.999176, 393, 241, 456, 368
-0.999179, 281, 193, 296, 320
-0.99918, 377, 209, 392, 336
-0.99918, 265, 209, 280, 336
-0.99918, 247, 241, 262, 368
-0.999183, 237, 97, 252, 224
-0.99919, 273, 193, 288, 320
-0.999194, 311, 145, 326, 272
-0.999195, 287, 97, 302, 224
-0.999202, 273, 105, 400, 136
-0.999207, 371, 209, 386, 336
-0.999214, 213, 209, 228, 336
-0.999215, 271, 145, 286, 272
-0.999218, 239, 49, 254, 176
-0.999218, 229, 241, 244, 368
-0.999228, 293, 161, 308, 288
-0.99923, 369, 1, 384, 128
-0.999235, 1, 305, 500, 368
-0.999236, 197, 113, 212, 240
-0.999246, 195, 193, 210, 320
-0.999246, 353, 193, 368, 320
-0.999248, 353, 81, 480, 144
-0.999248, 343, 193, 358, 320
-0.999251, 219, 65, 234, 192
-0.99926, 363, 1, 378, 128
-0.99926, 215, 1, 230, 128
-0.999264, 253, 97, 268, 224
-0.999267, 375, 1, 390, 128
-0.999276, 257, 261, 384, 292
-0.999283, 305, 177, 320, 304
-0.999284, 365, 193, 380, 320
-0.999288, 257, 49, 384, 80
-0.999295, 257, 73, 384, 104
-0.999301, 223, 241, 238, 368
-0.999301, 179, 209, 194, 336
-0.999302, 381, 1, 396, 128
-0.999305, 233, 49, 248, 176
-0.999317, 65, 157, 192, 188
-0.999331, 257, 161, 272, 288
-0.999334, 191, 145, 206, 272
-0.999335, 357, 1, 372, 128
-0.999338, 65, 1, 80, 128
-0.999339, 395, 241, 410, 368
-0.999345, 247, 97, 262, 224
-0.999347, 275, 1, 290, 128
-0.999361, 419, 1, 434, 128
-0.999366, 245, 49, 260, 176
-0.999368, 203, 113, 218, 240
-0.999368, 425, 1, 440, 128
-0.999369, 183, 1, 198, 128
-0.999369, 207, 209, 222, 336
-0.99937, 253, 225, 268, 352
-0.999373, 351, 1, 366, 128
-0.999373, 257, 249, 384, 280
-0.999374, 435, 1, 450, 128
-0.999377, 443, 1, 458, 128
-0.999381, 411, 1, 426, 128
-0.999388, 161, 81, 176, 208
-0.999388, 387, 1, 402, 128
-0.999389, 289, 117, 416, 148
-0.999396, 323, 1, 338, 128
-0.999398, 345, 1, 360, 128
-0.9994, 335, 1, 350, 128
-0.999401, 71, 1, 86, 128
-0.999401, 201, 161, 216, 288
-0.999403, 401, 1, 416, 128
-0.999405, 329, 1, 344, 128
-0.999408, 281, 1, 296, 128
-0.999409, 313, 1, 328, 128
-0.999411, 59, 1, 74, 128
-0.999413, 449, 1, 464, 128
-0.999413, 25, 241, 40, 368
-0.999413, 393, 1, 408, 128
-0.999421, 295, 1, 310, 128
-0.999422, 189, 1, 204, 128
-0.999425, 337, 193, 352, 320
-0.999427, 269, 49, 284, 176
-0.999427, 455, 1, 470, 128
-0.99943, 5, 161, 20, 288
-0.999433, 289, 1, 304, 128
-0.999438, 359, 193, 374, 320
-0.999441, 473, 1, 488, 128
-0.999443, 301, 1, 316, 128
-0.999443, 479, 1, 494, 128
-0.999444, 307, 1, 322, 128
-0.999446, 169, 145, 184, 272
-0.999447, 197, 1, 212, 128
-0.999447, 305, 169, 432, 200
-0.999447, 305, 157, 432, 188
-0.999458, 17, 225, 144, 256
-0.999458, 323, 241, 338, 368
-0.999458, 485, 1, 500, 128
-0.99946, 163, 1, 178, 128
-0.999462, 33, 1, 48, 128
-0.999574, 227, 115, 242, 130
-0.999574, 241, 259, 256, 274
-0.999574, 213, 233, 228, 248
-0.999576, 27, 161, 42, 176
-0.999576, 217, 201, 232, 216
-0.999576, 381, 225, 396, 240
-0.999576, 1, 307, 16, 322
-0.999576, 379, 309, 394, 324
-0.999577, 187, 251, 202, 266
-0.999577, 13, 293, 28, 308
-0.999578, 233, 155, 248, 170
-0.999579, 311, 203, 326, 218
-0.999579, 197, 131, 212, 146
-0.99958, 285, 219, 300, 234
-0.999581, 195, 137, 210, 152
-0.999581, 259, 101, 274, 116
-0.999581, 369, 345, 496, 375
-0.999581, 205, 257, 220, 272
-0.999582, 375, 223, 390, 238
-0.999582, 277, 135, 292, 150
-0.999582, 329, 1, 344, 16
-0.999582, 225, 127, 240, 142
-0.999582, 165, 129, 180, 144
-0.999582, 199, 179, 214, 194
-0.999582, 179, 247, 194, 262
-0.999582, 233, 259, 248, 274
-0.999583, 209, 125, 224, 140
-0.999583, 297, 205, 312, 220
-0.999583, 205, 217, 220, 232
-0.999583, 275, 175, 290, 190
-0.999584, 277, 201, 292, 216
-0.999584, 275, 241, 290, 256
-0.999584, 267, 123, 282, 138
-0.999586, 249, 151, 264, 166
-0.999587, 21, 157, 36, 172
-0.999587, 175, 167, 190, 182
-0.999587, 217, 169, 232, 184
-0.999587, 337, 295, 352, 310
-0.999587, 195, 235, 210, 250
-0.999588, 207, 233, 222, 248
-0.999589, 195, 173, 210, 188
-0.999589, 321, 197, 336, 212
-0.999589, 205, 245, 220, 260
-0.99959, 287, 245, 302, 260
-0.99959, 307, 171, 322, 186
-0.99959, 221, 181, 236, 196
-0.99959, 263, 159, 278, 174
-0.999591, 363, 215, 378, 230
-0.999591, 215, 143, 230, 158
-0.999592, 209, 135, 224, 150
-0.999592, 233, 169, 248, 184
-0.999593, 227, 107, 242, 122
-0.999593, 209, 165, 224, 180
-0.999594, 3, 251, 18, 266
-0.999594, 269, 211, 284, 226
-0.999595, 213, 183, 228, 198
-0.999595, 265, 169, 280, 184
-0.999596, 233, 149, 248, 164
-0.999598, 15, 157, 30, 172
-0.999598, 225, 133, 240, 148
-0.999599, 297, 129, 312, 144
-0.9996, 215, 115, 230, 130
-0.999601, 329, 345, 344, 360
-0.999601, 291, 229, 306, 244
-0.999601, 187, 157, 202, 172
-0.999602, 163, 105, 178, 120
-0.999602, 275, 181, 290, 196
-0.999603, 305, 157, 320, 172
-0.999605, 303, 207, 318, 222
-0.999606, 185, 169, 200, 184
-0.999606, 219, 189, 234, 204
-0.999607, 217, 251, 232, 266
-0.999608, 241, 67, 256, 82
-0.999608, 279, 255, 294, 270
-0.999609, 337, 201, 352, 216
-0.999609, 303, 201, 318, 216
-0.999609, 325, 333, 340, 348
-0.99961, 261, 117, 276, 132
-0.999611, 21, 209, 36, 224
-0.999613, 113, 45, 240, 76
-0.999613, 189, 235, 204, 250
-0.999614, 233, 163, 248, 178
-0.999614, 225, 257, 240, 272
-0.999615, 303, 151, 318, 166
-0.999616, 235, 117, 250, 132
-0.999616, 269, 239, 284, 254
-0.999616, 243, 155, 258, 170
-0.999618, 23, 215, 38, 230
-0.999618, 219, 159, 234, 174
-0.999619, 329, 351, 344, 366
-0.999619, 291, 239, 306, 254
-0.999619, 33, 105, 160, 136
-0.99962, 287, 137, 302, 152
-0.999622, 281, 241, 296, 256
-0.999622, 191, 149, 206, 164
-0.999623, 225, 121, 240, 136
-0.999623, 265, 181, 280, 196
-0.999624, 21, 195, 36, 210
-0.999626, 223, 147, 238, 162
-0.999626, 231, 67, 246, 82
-0.999626, 331, 361, 346, 375
-0.999627, 317, 299, 332, 314
-0.999627, 363, 301, 378, 316
-0.999628, 215, 137, 230, 152
-0.999629, 225, 69, 240, 84
-0.99963, 331, 199, 346, 214
-0.999633, 31, 193, 46, 208
-0.999633, 251, 73, 266, 88
-0.999635, 281, 117, 296, 132
-0.999635, 327, 339, 342, 354
-0.999635, 221, 113, 236, 128
-0.999638, 265, 107, 280, 122
-0.999639, 293, 121, 308, 136
-0.99964, 23, 231, 38, 246
-0.99964, 271, 115, 286, 130
-0.999642, 23, 221, 38, 236
-0.999643, 199, 125, 214, 140
-0.999644, 225, 139, 240, 154
-0.999644, 65, 173, 192, 204
-0.999651, 21, 203, 36, 218
-0.999656, 209, 117, 224, 132
-0.999656, 149, 97, 180, 352
-0.999662, 289, 257, 304, 272
-0.99967, 31, 187, 46, 202
-0.999671, 149, 117, 164, 132
-0.999674, 275, 249, 290, 264
-0.999678, 211, 247, 226, 262
-0.99968, 315, 337, 330, 352
-0.99968, 263, 247, 278, 262
-0.999683, 253, 253, 268, 268
-0.999687, 197, 243, 212, 258
-0.999706, 269, 245, 284, 260
-0.999713, 203, 239, 218, 254
-0.99972, 243, 161, 258, 176
-0.999729, 187, 245, 202, 260
-0.99984, 393, 1, 456, 375
-0.999868, 321, 49, 448, 112
-0.999904, 1, 49, 256, 112
-1.00002, 33, 97, 64, 352
-1.00014, 353, 313, 480, 375
-1.00016, 369, 105, 496, 168
-1.00024, 389, 129, 420, 375
-1.00031, 305, 25, 432, 88
-1.00032, 409, 73, 472, 136
-1.00032, 89, 25, 152, 88
-1.00052, 1, 105, 500, 168
-1.00053, 65, 25, 128, 88
-1.00054, 169, 33, 232, 96
-1.00066, 265, 65, 328, 128
-1.00076, 353, 25, 416, 88
-1.00094, 329, 25, 392, 88
-1.00098, 401, 313, 464, 375
-1.00102, 65, 193, 192, 320
-1.00128, 97, 105, 160, 168
-1.00132, 137, 289, 200, 352
-1.00134, 129, 81, 160, 208
-1.00134, 425, 97, 456, 352
-1.00138, 385, 161, 416, 288
-1.0014, 401, 129, 432, 375
-1.00147, 437, 97, 468, 352
-1.00152, 337, 161, 400, 224
-1.00154, 433, 1, 496, 375
-1.00157, 369, 57, 496, 120
-1.00159, 129, 25, 192, 88
-1.0016, 65, 57, 192, 120
-1.00166, 413, 97, 444, 352
-1.00169, 117, 97, 148, 352
-1.00169, 105, 129, 136, 375
-1.00174, 453, 97, 484, 352
-1.00174, 89, 129, 120, 375
-1.00177, 129, 97, 160, 352
-1.00177, 77, 129, 108, 375
-1.00182, 65, 129, 96, 375
-1.00183, 49, 97, 80, 352
-1.00183, 465, 129, 496, 375
-1.00187, 377, 145, 440, 272
-1.00188, 1, 113, 128, 176
-1.00188, 49, 209, 176, 272
-1.00192, 1, 81, 500, 144
-1.00193, 297, 241, 328, 368
-1.00195, 1, 25, 500, 88
-1.00214, 377, 25, 440, 88
-1.00228, 369, 313, 432, 375
-1.00251, 17, 81, 144, 144
-1.00254, 1, 49, 128, 112
-1.00274, 305, 89, 432, 152
-1.00275, 1, 97, 32, 224
-1.00288, 369, 145, 496, 208
-1.00289, 297, 49, 328, 176
-1.00291, 369, 81, 496, 208
-1.00297, 49, 273, 176, 336
-1.00307, 309, 81, 340, 208
-1.00314, 1, 57, 500, 120
-1.00325, 425, 25, 488, 88
-1.00355, 409, 105, 472, 168
-1.00374, 33, 313, 160, 375
-1.00393, 97, 113, 160, 240
-1.00402, 17, 113, 80, 176
-1.00405, 433, 65, 464, 192
-1.00406, 121, 57, 184, 120
-1.00419, 401, 25, 464, 88
-1.00442, 137, 129, 168, 256
-1.00443, 237, 145, 268, 272
-1.00447, 385, 89, 448, 152
-1.00447, 433, 89, 496, 152
-1.00453, 425, 313, 488, 375
-1.00479, 337, 49, 400, 112
-1.00488, 29, 81, 60, 208
-1.00506, 321, 49, 448, 176
-1.00513, 421, 81, 452, 208
-1.00523, 305, 25, 368, 88
-1.00528, 33, 49, 160, 176
-1.00572, 417, 81, 480, 208
-1.00594, 337, 97, 368, 224
-1.00599, 353, 113, 384, 240
-1.00602, 445, 81, 476, 208
-1.00608, 353, 113, 416, 240
-1.00614, 365, 49, 396, 176
-1.00677, 33, 161, 96, 288
-1.00682, 409, 81, 440, 208
-1.00691, 401, 241, 432, 368
-1.00693, 365, 113, 396, 240
-1.00698, 121, 209, 184, 336
-1.007, 401, 97, 464, 352
-1.00703, 25, 65, 88, 192
-1.00735, 1, 65, 64, 192
-1.0076, 353, 49, 384, 176
-1.00764, 433, 113, 464, 240
-1.0079, 329, 97, 392, 224
-1.00841, 393, 81, 456, 208
-1.00913, 369, 49, 432, 176
-1.00923, 81, 65, 144, 192
-1.00952, 433, 97, 496, 352
-1.00971, 345, 49, 408, 176
-1.00975, 81, 129, 144, 375
-1.01025, 49, 241, 176, 368
-1.01025, 57, 97, 120, 352
-1.01153, 73, 113, 136, 240
-1.01197, 113, 161, 176, 288
-1.01231, 57, 49, 120, 176
-1.01259, 417, 241, 480, 368
-1.01309, 49, 113, 112, 240
-1.01402, 313, 49, 376, 176
-1.01429, 433, 129, 496, 256
-1.01442, 409, 129, 472, 256
-1.01452, 81, 225, 144, 352
-1.01471, 425, 193, 488, 320
-1.01471, 57, 209, 120, 336
-1.01478, 65, 161, 128, 288
-1.01478, 89, 177, 152, 304
