1959
-0.439383, 1, 97, 500, 352
-0.575159, 1, 1, 500, 360
-0.585165, 1, 1, 500, 256
-0.660972, 225, 1, 480, 360
-0.680556, 193, 97, 448, 352
-0.687489, 1, 1, 256, 360
-0.6931, 129, 1, 384, 360
-0.708226, 1, 97, 256, 352
-0.729379, 97, 97, 352, 352
-0.814409, 257, 1, 500, 256
-0.86485, 129, 1, 384, 256
-0.879855, 369, 97, 496, 352
-0.888382, 257, 97, 384, 352
-0.888916, 321, 97, 448, 352
-0.891352, 1, 1, 256, 256
-0.891717, 49, 97, 176, 352
-0.897491, 1, 113, 500, 240
-0.898276, 161, 97, 288, 352
-0.900063, 113, 97, 240, 352
-0.90282, 209, 97, 336, 352
-0.904721, 305, 1, 432, 360
-0.905749, 1, 97, 128, 352
-0.909448, 257, 1, 384, 360
-0.909685, 353, 1, 480, 360
-0.911934, 193, 1, 320, 360
-0.914467, 1, 1, 128, 360
-0.919012, 145, 1, 272, 360
-0.920548, 81, 1, 208, 360
-0.920654, 369, 1, 496, 256
-0.921898, 305, 1, 432, 256
-0.930985, 257, 1, 384, 256
-0.93415, 193, 129, 448, 256
-0.935907, 193, 1, 320, 256
-0.93598, 97, 113, 352, 240
-0.937381, 81, 1, 208, 256
-0.938245, 129, 1, 256, 256
-0.941051, 1, 1, 128, 256
-0.946524, 337, 97, 464, 224
-0.947039, 345, 113, 408, 240
-0.947765, 257, 129, 384, 256
-0.948096, 1, 65, 500, 192
-0.948371, 385, 97, 448, 224
-0.949577, 353, 161, 416, 288
-0.950779, 1, 113, 256, 240
-0.952804, 1, 161, 500, 288
-0.952985, 313, 129, 376, 256
-0.956479, 129, 113, 256, 240
-0.956742, 337, 177, 464, 304
-0.957515, 409, 97, 472, 224
-0.959259, 33, 129, 160, 256
-0.961565, 177, 113, 304, 240
-0.962474, 41, 129, 104, 256
-0.962775, 257, 81, 500, 208
-0.963214, 145, 113, 208, 240
-0.96396, 225, 177, 480, 304
-0.964948, 1, 209, 500, 336
-0.965626, 257, 129, 320, 256
-0.965887, 281, 129, 344, 256
-0.96603, 433, 97, 496, 224
-0.966832, 73, 129, 136, 256
-0.96808, 217, 113, 280, 240
-0.968262, 289, 177, 416, 304
-0.968267, 377, 161, 440, 288
-0.968578, 353, 177, 416, 240
-0.96878, 361, 97, 424, 352
-0.968966, 81, 113, 208, 240
-0.969995, 17, 129, 80, 256
-0.970205, 97, 129, 160, 256
-0.970226, 177, 113, 240, 240
-0.970675, 257, 225, 500, 352
-0.970755, 57, 137, 120, 200
-0.972275, 161, 65, 416, 192
-0.972323, 121, 113, 184, 240
-0.973119, 329, 129, 392, 192
-0.973132, 33, 145, 96, 208
-0.97319, 393, 113, 456, 176
-0.973194, 377, 177, 440, 240
-0.973298, 409, 145, 472, 272
-0.974508, 177, 121, 240, 184
-0.974865, 361, 121, 424, 184
-0.974928, 337, 225, 464, 352
-0.974959, 417, 97, 480, 352
-0.975142, 137, 129, 200, 192
-0.97575, 329, 177, 392, 304
-0.976045, 1, 153, 64, 216
-0.976192, 1, 65, 256, 192
-0.97622, 337, 177, 464, 240
-0.97636, 233, 129, 296, 192
-0.976436, 353, 201, 416, 264
-0.976575, 397, 97, 428, 224
-0.976842, 433, 113, 496, 176
-0.976915, 321, 97, 384, 352
-0.977049, 273, 81, 400, 208
-0.977248, 345, 225, 408, 352
-0.977334, 377, 209, 440, 336
-0.977839, 81, 129, 144, 192
-0.978058, 357, 113, 388, 240
-0.978108, 369, 113, 400, 240
-0.97842, 381, 113, 412, 240
-0.9785, 385, 97, 448, 352
-0.978719, 209, 129, 272, 192
-0.978956, 113, 129, 176, 192
-0.979665, 281, 137, 344, 200
-0.980556, 57, 97, 120, 352
-0.980612, 33, 137, 160, 200
-0.980725, 417, 97, 448, 224
-0.980752, 297, 97, 360, 352
-0.980823, 377, 201, 440, 264
-0.981408, 305, 137, 368, 200
-0.981534, 257, 129, 320, 192
-0.981561, 369, 113, 496, 176
-0.981703, 225, 65, 352, 192
-0.981723, 313, 201, 376, 264
-0.982084, 409, 161, 472, 224
-0.982199, 121, 97, 184, 352
-0.982232, 273, 97, 336, 352
-0.982259, 49, 65, 176, 192
-0.982285, 357, 161, 388, 288
-0.982382, 321, 81, 384, 208
-0.982396, 425, 49, 488, 176
-0.982412, 177, 97, 240, 352
-0.982448, 345, 65, 408, 192
-0.982591, 145, 97, 208, 352
-0.982597, 345, 113, 376, 240
-0.982627, 81, 97, 144, 352
-0.982644, 249, 97, 312, 352
-0.98266, 225, 97, 288, 352
-0.982709, 409, 185, 472, 248
-0.982715, 397, 161, 428, 288
-0.982721, 273, 137, 400, 200
-0.982755, 321, 201, 448, 264
-0.982977, 353, 153, 416, 216
-0.983024, 241, 81, 304, 208
-0.983087, 161, 65, 288, 192
-0.983412, 145, 129, 272, 192
-0.983474, 45, 129, 76, 256
-0.983497, 401, 193, 464, 320
-0.983516, 469, 97, 500, 224
-0.983642, 281, 81, 344, 208
-0.983712, 97, 81, 160, 208
-0.983899, 333, 129, 364, 256
-0.983995, 353, 129, 384, 192
-0.984025, 433, 97, 464, 224
-0.984058, 369, 49, 496, 176
-0.984099, 373, 161, 404, 288
-0.984225, 321, 121, 448, 184
-0.984425, 201, 97, 264, 352
-0.98448, 385, 161, 416, 288
-0.984678, 193, 129, 320, 192
-0.984685, 273, 225, 400, 352
-0.985019, 285, 129, 316, 256
-0.985332, 45, 145, 76, 208
-0.985438, 97, 65, 224, 192
-0.985438, 1, 81, 128, 208
-0.985509, 97, 129, 224, 192
-0.985627, 73, 81, 136, 208
-0.985715, 189, 121, 220, 184
-0.985735, 305, 129, 336, 256
-0.985823, 353, 185, 384, 248
-0.985907, 353, 241, 416, 304
-0.985908, 153, 113, 184, 240
-0.986013, 401, 169, 432, 232
-0.986018, 377, 233, 440, 296
-0.986033, 33, 97, 96, 352
-0.986049, 161, 65, 224, 192
-0.986251, 397, 113, 428, 176
-0.986406, 193, 65, 256, 192
-0.986552, 381, 177, 412, 240
-0.98657, 365, 169, 396, 232
-0.986598, 273, 129, 304, 256
-0.986614, 149, 129, 180, 192
-0.98666, 65, 137, 96, 200
-0.986749, 457, 97, 488, 224
-0.986756, 317, 129, 348, 256
-0.986765, 437, 113, 468, 176
-0.986821, 81, 129, 112, 192
-0.986947, 257, 201, 384, 264
-0.986949, 113, 129, 144, 256
-0.986981, 321, 49, 448, 176
-0.986983, 85, 129, 116, 256
-0.987008, 177, 113, 208, 240
-0.987015, 49, 81, 112, 208
-0.987068, 373, 121, 404, 184
-0.987077, 445, 113, 476, 240
-0.987168, 237, 113, 268, 240
-0.987176, 377, 153, 440, 216
-0.987316, 129, 129, 160, 256
-0.987338, 289, 113, 352, 176
-0.987472, 165, 113, 196, 240
-0.987474, 433, 89, 496, 152
-0.98757, 57, 129, 88, 256
-0.987581, 321, 233, 448, 296
-0.98761, 409, 209, 472, 272
-0.987617, 1, 145, 32, 272
-0.987631, 401, 1, 464, 256
-0.987679, 217, 113, 248, 240
-0.987786, 361, 1, 424, 256
-0.987793, 13, 145, 44, 272
-0.987884, 189, 113, 220, 240
-0.987914, 465, 113, 496, 176
-0.987969, 417, 113, 448, 176
-0.987971, 321, 177, 384, 240
-0.988016, 121, 65, 184, 192
-0.988031, 201, 121, 232, 184
-0.988056, 201, 105, 264, 168
-0.988069, 5, 153, 36, 216
-0.988156, 265, 129, 296, 192
-0.988175, 9, 129, 72, 192
-0.988192, 73, 129, 104, 256
-0.988247, 249, 113, 280, 240
-0.988288, 97, 129, 128, 256
-0.988303, 25, 145, 56, 272
-0.988318, 25, 153, 56, 216
-0.988339, 49, 113, 112, 176
-0.988382, 217, 65, 280, 192
-0.988488, 1, 97, 64, 352
-0.988498, 449, 113, 480, 176
-0.988523, 205, 113, 236, 240
-0.988531, 141, 113, 172, 240
-0.988534, 137, 105, 200, 168
-0.988594, 1, 81, 64, 208
-0.988596, 97, 105, 160, 168
-0.988906, 225, 105, 288, 168
-0.989012, 313, 137, 344, 200
-0.989136, 121, 137, 152, 200
-0.989151, 161, 129, 192, 192
-0.989184, 101, 137, 132, 200
-0.989227, 401, 89, 464, 152
-0.989243, 401, 49, 464, 176
-0.989252, 25, 81, 88, 208
-0.989285, 337, 1, 400, 256
-0.989321, 241, 129, 272, 192
-0.98934, 221, 129, 252, 192
-0.989486, 425, 1, 488, 256
-0.98958, 261, 113, 292, 240
-0.989775, 257, 105, 384, 168
-0.98994, 1, 209, 256, 336
-0.989953, 329, 137, 360, 200
-0.989955, 297, 137, 328, 200
-0.989974, 369, 1, 432, 360
-0.989989, 397, 201, 428, 264
-0.990006, 345, 97, 408, 160
-0.99006, 253, 129, 284, 192
-0.990099, 137, 129, 168, 192
-0.990116, 417, 1, 480, 360
-0.990127, 173, 129, 204, 192
-0.990203, 285, 137, 316, 200
-0.990281, 329, 233, 392, 296
-0.990392, 345, 1, 408, 360
-0.990462, 1, 17, 500, 144
-0.990474, 385, 117, 448, 148
-0.990519, 225, 177, 352, 304
-0.990544, 321, 225, 384, 352
-0.990648, 161, 105, 288, 168
-0.990686, 341, 129, 372, 192
-0.990694, 289, 177, 416, 240
-0.990785, 129, 177, 384, 304
-0.990889, 177, 129, 240, 160
-0.990924, 257, 105, 320, 168
-0.990949, 57, 137, 120, 168
-0.990963, 73, 105, 136, 168
-0.990975, 385, 113, 416, 176
-0.990982, 357, 209, 388, 272
-0.990988, 49, 113, 176, 176
-0.991015, 369, 177, 432, 208
-0.991063, 313, 105, 376, 168
-0.991072, 305, 1, 368, 360
-0.99116, 337, 129, 400, 160
-0.991176, 313, 1, 376, 256
-0.991178, 81, 137, 144, 168
-0.991254, 161, 225, 416, 352
-0.991289, 257, 1, 320, 256
-0.991307, 369, 89, 496, 152
-0.991355, 33, 145, 96, 176
-0.991425, 153, 129, 216, 160
-0.991434, 377, 89, 440, 152
-0.991449, 289, 1, 352, 256
-0.991471, 337, 153, 464, 216
-0.991512, 273, 225, 400, 288
-0.991517, 241, 137, 304, 168
-0.991539, 409, 177, 440, 304
-0.99155, 1, 153, 64, 184
-0.991586, 345, 189, 408, 220
-0.991625, 169, 1, 232, 360
-0.991625, 393, 1, 456, 360
-0.991659, 313, 137, 376, 168
-0.991679, 113, 137, 176, 168
-0.991729, 177, 209, 240, 336
-0.991742, 409, 117, 472, 148
-0.99182, 289, 141, 352, 172
-0.991832, 209, 133, 272, 164
-0.991902, 377, 49, 440, 176
-0.991907, 361, 121, 424, 152
-0.991922, 249, 1, 312, 360
-0.991949, 345, 177, 408, 208
-0.991982, 209, 105, 336, 168
-0.991998, 345, 205, 408, 236
-0.99207, 113, 105, 240, 168
-0.992077, 161, 97, 224, 160
-0.992079, 401, 225, 432, 352
-0.992094, 129, 1, 192, 360
-0.992117, 265, 137, 328, 168
-0.992141, 281, 1, 344, 360
-0.992153, 361, 165, 424, 196
-0.992165, 1, 1, 64, 360
-0.992189, 393, 177, 456, 208
-0.992198, 225, 1, 288, 360
-0.992222, 389, 225, 420, 352
-0.992237, 377, 225, 408, 352
-0.992244, 377, 193, 440, 224
-0.992281, 369, 217, 496, 280
-0.992285, 201, 1, 264, 360
-0.992302, 409, 193, 472, 224
-0.992304, 33, 1, 96, 360
-0.99237, 377, 209, 440, 240
-0.992376, 433, 121, 496, 152
-0.992412, 65, 129, 320, 192
-0.992442, 345, 221, 408, 252
-0.992461, 1, 129, 500, 192
-0.992536, 313, 201, 376, 232
-0.99254, 193, 1, 256, 256
-0.992541, 353, 225, 384, 352
-0.992559, 289, 129, 352, 160
-0.992586, 425, 105, 488, 136
-0.992651, 409, 221, 472, 252
-0.99271, 409, 205, 472, 236
-0.992728, 445, 65, 476, 192
-0.992736, 233, 1, 296, 256
-0.992747, 177, 209, 304, 336
-0.992786, 313, 221, 376, 252
-0.992804, 401, 161, 464, 192
-0.992808, 105, 125, 168, 156
-0.992819, 369, 241, 432, 272
-0.99283, 1, 137, 64, 168
-0.992831, 233, 125, 296, 156
-0.992838, 305, 177, 368, 304
-0.992914, 321, 189, 384, 220
-0.992942, 73, 125, 136, 156
-0.992947, 417, 181, 480, 212
-0.992951, 345, 241, 408, 272
-0.992991, 85, 137, 116, 168
-0.992992, 57, 1, 120, 360
-0.993005, 397, 117, 428, 148
-0.993026, 69, 137, 100, 168
-0.993037, 129, 121, 192, 152
-0.993044, 265, 125, 328, 156
-0.993051, 373, 173, 404, 204
-0.993051, 369, 225, 432, 256
-0.993053, 49, 145, 80, 176
-0.993064, 313, 121, 376, 152
-0.993083, 201, 121, 264, 152
-0.99309, 5, 153, 36, 184
-0.993094, 185, 129, 216, 160
-0.993095, 345, 133, 376, 164
-0.993097, 169, 117, 232, 148
-0.993108, 421, 117, 452, 148
-0.993109, 321, 233, 384, 264
-0.99311, 369, 129, 400, 160
-0.993114, 469, 113, 500, 144
-0.993114, 357, 129, 388, 160
-0.99312, 401, 105, 464, 136
-0.99312, 401, 177, 432, 208
-0.99313, 209, 129, 240, 160
-0.993135, 361, 185, 392, 216
-0.993142, 401, 201, 432, 232
-0.993144, 273, 137, 304, 168
-0.993147, 381, 121, 412, 152
-0.993152, 121, 137, 152, 168
-0.993164, 161, 133, 192, 164
-0.993168, 433, 117, 464, 148
-0.993188, 133, 137, 164, 168
-0.993188, 233, 133, 264, 164
-0.993191, 409, 117, 440, 148
-0.993191, 173, 129, 204, 160
-0.993194, 33, 153, 64, 184
-0.993212, 457, 117, 488, 148
-0.993225, 445, 121, 476, 152
-0.993225, 109, 137, 140, 168
-0.993243, 309, 141, 340, 172
-0.993248, 197, 129, 228, 160
-0.993252, 145, 1, 208, 256
-0.993256, 325, 141, 356, 172
-0.993261, 89, 1, 152, 360
-0.993261, 149, 133, 180, 164
-0.993266, 261, 137, 292, 168
-0.993269, 297, 141, 328, 172
-0.993269, 97, 137, 128, 168
-0.993272, 129, 209, 256, 336
-0.993278, 249, 137, 280, 168
-0.993284, 257, 205, 320, 236
-0.993301, 389, 177, 420, 208
-0.993326, 221, 133, 252, 164
-0.993344, 417, 169, 448, 232
-0.993348, 285, 141, 316, 172
-0.993352, 17, 153, 48, 184
-0.993372, 177, 221, 240, 252
-0.993372, 401, 233, 464, 264
-0.993373, 385, 201, 416, 264
-0.993375, 361, 173, 392, 204
-0.993376, 105, 1, 168, 256
-0.993421, 17, 1, 80, 256
-0.993429, 385, 165, 416, 196
-0.993433, 417, 177, 448, 208
-0.993438, 373, 161, 404, 192
-0.993449, 153, 209, 216, 336
-0.993459, 353, 205, 384, 236
-0.993468, 357, 221, 388, 252
-0.993483, 445, 109, 476, 140
-0.993484, 349, 189, 380, 220
-0.993484, 385, 241, 416, 272
-0.99349, 417, 189, 448, 220
-0.993502, 401, 189, 432, 220
-0.993509, 381, 189, 412, 220
-0.993529, 337, 193, 368, 224
-0.993538, 21, 141, 52, 172
-0.993539, 233, 273, 296, 304
-0.993539, 293, 129, 324, 160
-0.993544, 245, 125, 276, 156
-0.993544, 289, 209, 352, 240
-0.993545, 261, 125, 292, 156
-0.993545, 337, 165, 400, 196
-0.993549, 357, 241, 388, 272
-0.993551, 337, 109, 400, 140
-0.993551, 397, 241, 428, 272
-0.993554, 321, 129, 352, 160
-0.993558, 101, 125, 132, 156
-0.993563, 417, 209, 448, 240
-0.993568, 421, 145, 452, 272
-0.993581, 229, 121, 260, 152
-0.993582, 337, 221, 368, 252
-0.993589, 129, 125, 160, 156
-0.993589, 81, 1, 144, 256
-0.993592, 161, 121, 192, 152
-0.993592, 369, 241, 400, 272
-0.993594, 369, 113, 400, 144
-0.993603, 301, 209, 332, 240
-0.993605, 381, 201, 412, 232
-0.993606, 193, 117, 224, 148
-0.993607, 309, 129, 340, 160
-0.993608, 189, 213, 220, 244
-0.99361, 333, 125, 364, 156
-0.993614, 457, 105, 488, 136
-0.993616, 425, 169, 488, 200
-0.993621, 397, 105, 428, 136
-0.993625, 417, 105, 448, 136
-0.993625, 33, 137, 64, 168
-0.993629, 77, 125, 108, 156
-0.99363, 169, 233, 232, 264
-0.993631, 205, 117, 236, 148
-0.99364, 433, 105, 464, 136
-0.99364, 117, 125, 148, 156
-0.993641, 357, 117, 388, 148
-0.993641, 397, 225, 428, 256
-0.993654, 341, 233, 372, 264
-0.993655, 149, 121, 180, 152
-0.993657, 469, 101, 500, 132
-0.993661, 193, 209, 256, 240
-0.993662, 177, 221, 208, 252
-0.993664, 177, 117, 208, 148
-0.993665, 345, 121, 376, 152
-0.993667, 277, 125, 308, 156
-0.993668, 409, 237, 440, 268
-0.993669, 89, 125, 120, 156
-0.993669, 417, 221, 448, 252
-0.99367, 405, 161, 436, 192
-0.993673, 217, 117, 248, 148
-0.993681, 57, 129, 88, 160
-0.993685, 9, 141, 40, 172
-0.993685, 401, 213, 432, 244
-0.993693, 289, 209, 320, 240
-0.993695, 233, 241, 296, 272
-0.993697, 313, 177, 376, 208
-0.993698, 153, 217, 216, 248
-0.993701, 45, 133, 76, 164
-0.993711, 385, 109, 416, 140
-0.993714, 337, 205, 368, 236
-0.993719, 113, 285, 176, 316
-0.993729, 181, 237, 212, 268
-0.993729, 25, 157, 88, 188
-0.993733, 169, 1, 232, 256
-0.993744, 193, 233, 256, 264
-0.993747, 349, 169, 380, 200
-0.993747, 25, 133, 88, 164
-0.99375, 189, 225, 220, 256
-0.993771, 381, 229, 412, 260
-0.993777, 333, 181, 364, 212
-0.993779, 129, 269, 192, 300
-0.993787, 377, 153, 440, 184
-0.99379, 177, 209, 240, 272
-0.993798, 281, 197, 312, 228
-0.993802, 193, 273, 256, 304
-0.993817, 233, 257, 296, 288
-0.99382, 117, 285, 148, 316
-0.993823, 369, 229, 400, 260
-0.993826, 305, 197, 336, 228
-0.993832, 369, 201, 400, 232
-0.993834, 421, 165, 452, 196
-0.993849, 361, 161, 392, 192
-0.993856, 281, 273, 312, 304
-0.993864, 289, 197, 352, 228
-0.993866, 25, 97, 56, 224
-0.993869, 201, 221, 232, 252
-0.993875, 297, 265, 360, 296
-0.993882, 193, 253, 256, 284
-0.99389, 273, 277, 336, 308
-0.993903, 221, 241, 252, 272
-0.993903, 1, 265, 64, 296
-0.993905, 169, 233, 200, 264
-0.993906, 193, 201, 224, 232
-0.99391, 1, 269, 32, 300
-0.993912, 221, 257, 252, 288
-0.993913, 145, 265, 176, 296
-0.993915, 133, 269, 164, 300
-0.993917, 441, 201, 472, 232
-0.993919, 49, 257, 80, 288
-0.993919, 133, 289, 164, 320
-0.993919, 253, 241, 284, 272
-0.993922, 257, 281, 288, 312
-0.993947, 377, 105, 440, 136
-0.993948, 233, 285, 296, 316
-0.993953, 281, 253, 344, 284
-0.993971, 289, 329, 352, 360
-0.993987, 265, 241, 328, 272
-0.993989, 201, 221, 264, 252
-0.993994, 273, 265, 336, 296
-0.993997, 145, 245, 208, 276
-0.994005, 73, 269, 136, 300
-0.994015, 321, 245, 384, 276
-0.99402, 257, 253, 320, 284
-0.994021, 365, 225, 396, 352
-0.994024, 381, 153, 412, 216
-0.994041, 401, 149, 464, 180
-0.994043, 257, 33, 500, 160
-0.994052, 233, 209, 296, 240
-0.994052, 233, 229, 296, 260
-0.994068, 33, 257, 96, 288
-0.99407, 89, 285, 152, 316
-0.994075, 105, 253, 168, 284
-0.994075, 49, 317, 112, 348
-0.994081, 169, 261, 232, 292
-0.994084, 381, 65, 412, 192
-0.994098, 321, 153, 384, 184
-0.994104, 17, 309, 80, 340
-0.994109, 337, 141, 400, 172
-0.994117, 89, 301, 152, 332
-0.994121, 49, 121, 112, 152
-0.994122, 265, 329, 328, 360
-0.99413, 353, 265, 416, 296
-0.994133, 193, 285, 256, 316
-0.99414, 25, 297, 88, 328
-0.994143, 313, 277, 376, 308
-0.994158, 257, 193, 320, 224
-0.994161, 105, 269, 168, 300
-0.994166, 145, 229, 208, 260
-0.994175, 137, 141, 200, 172
-0.994177, 169, 245, 232, 276
-0.994187, 273, 221, 336, 252
-0.994195, 353, 277, 416, 308
-0.994203, 401, 269, 464, 300
-0.994218, 361, 133, 424, 164
-0.994231, 41, 329, 104, 360
-0.994236, 265, 317, 328, 348
-0.994242, 73, 317, 136, 348
-0.994246, 345, 177, 376, 304
-0.994256, 313, 165, 376, 196
-0.994257, 425, 157, 488, 188
-0.994257, 57, 249, 120, 280
-0.99426, 389, 233, 420, 296
-0.994268, 49, 301, 112, 332
-0.994276, 145, 257, 208, 288
-0.994289, 81, 245, 144, 276
-0.994294, 25, 245, 88, 276
-0.994302, 49, 269, 112, 300
-0.994312, 233, 197, 296, 228
-0.994318, 353, 289, 416, 320
-0.994318, 337, 193, 368, 256
-0.994319, 273, 193, 336, 320
-0.994326, 137, 309, 200, 340
-0.99433, 145, 205, 208, 236
-0.994338, 121, 229, 184, 260
-0.994356, 357, 241, 388, 304
-0.99439, 305, 97, 432, 160
-0.994426, 417, 193, 448, 256
-0.994461, 1, 113, 128, 176
-0.994482, 101, 113, 132, 176
-0.994491, 129, 265, 256, 328
-0.994511, 121, 113, 152, 176
-0.994584, 285, 81, 316, 208
-0.99468, 65, 81, 96, 208
-0.99471, 401, 233, 432, 296
-0.994742, 325, 81, 356, 208
-0.994757, 301, 81, 332, 208
-0.994764, 193, 129, 448, 192
-0.994774, 129, 81, 160, 208
-0.994826, 121, 265, 184, 328
-0.994874, 257, 257, 384, 320
-0.994934, 97, 81, 128, 208
-0.994951, 225, 201, 480, 264
-0.995013, 85, 81, 116, 208
-0.995085, 213, 105, 244, 168
-0.9951, 17, 129, 48, 192
-0.995116, 165, 105, 196, 168
-0.99512, 457, 49, 488, 176
-0.99516, 461, 89, 492, 152
-0.995193, 41, 1, 104, 256
-0.995216, 469, 49, 500, 176
-0.995226, 369, 117, 496, 148
-0.995257, 145, 129, 272, 160
-0.995301, 285, 113, 316, 176
-0.995305, 49, 137, 176, 168
-0.995381, 185, 65, 216, 192
-0.995428, 165, 65, 196, 192
-0.995428, 209, 65, 240, 192
-0.995475, 273, 81, 304, 208
-0.995507, 109, 81, 140, 208
-0.995507, 313, 81, 344, 208
-0.995532, 209, 257, 336, 320
-0.995564, 425, 49, 456, 176
-0.995578, 329, 113, 360, 176
-0.995592, 241, 169, 368, 232
-0.995635, 197, 65, 228, 192
-0.99565, 229, 65, 260, 192
-0.995659, 337, 181, 464, 212
-0.995703, 361, 65, 392, 192
-0.995727, 137, 105, 168, 168
-0.995746, 9, 97, 40, 224
-0.995782, 225, 105, 256, 168
-0.995793, 281, 209, 344, 272
-0.995818, 233, 257, 296, 320
-0.995823, 341, 217, 372, 280
-0.995861, 193, 233, 256, 296
-0.995933, 5, 129, 36, 192
-0.995933, 257, 177, 500, 240
-0.995936, 53, 81, 84, 208
-0.995942, 225, 225, 352, 352
-0.99604, 445, 89, 476, 152
-0.996107, 253, 65, 284, 192
-0.996125, 33, 257, 160, 320
-0.996131, 321, 193, 448, 224
-0.99617, 373, 201, 404, 264
-0.996187, 377, 233, 408, 296
-0.996232, 177, 233, 304, 296
-0.996257, 321, 217, 448, 248
-0.996272, 421, 89, 452, 152
-0.996274, 321, 205, 448, 236
-0.996276, 51, 145, 66, 208
-0.996299, 369, 241, 496, 304
-0.996334, 241, 65, 272, 192
-0.996337, 309, 113, 340, 176
-0.996347, 65, 113, 96, 176
-0.99638, 177, 105, 208, 168
-0.996393, 405, 49, 436, 176
-0.996398, 401, 145, 432, 208
-0.996414, 381, 121, 396, 184
-0.996436, 381, 97, 412, 352
-0.996459, 253, 105, 284, 168
-0.996464, 89, 257, 152, 320
-0.996473, 401, 137, 464, 200
-0.996473, 433, 89, 464, 152
-0.996485, 161, 105, 416, 168
-0.996504, 401, 89, 432, 152
-0.996517, 397, 97, 428, 352
-0.996538, 237, 105, 268, 168
-0.996552, 89, 129, 104, 192
-0.996582, 45, 145, 60, 208
-0.99659, 177, 281, 304, 344
-0.996601, 397, 113, 412, 176
-0.99661, 373, 97, 404, 160
-0.996614, 297, 113, 328, 176
-0.99663, 49, 281, 176, 344
-0.99664, 65, 137, 80, 200
-0.99664, 397, 177, 412, 240
-0.996656, 153, 129, 168, 192
-0.996667, 153, 65, 184, 192
-0.996679, 257, 225, 500, 288
-0.996703, 153, 105, 184, 168
-0.996714, 265, 257, 328, 320
-0.996744, 49, 113, 80, 176
-0.996762, 435, 113, 450, 176
-0.996763, 361, 105, 392, 168
-0.996772, 467, 113, 482, 176
-0.99678, 445, 113, 460, 176
-0.996782, 153, 217, 216, 280
-0.996788, 403, 201, 418, 264
-0.996802, 421, 97, 452, 352
-0.996807, 195, 121, 210, 184
-0.996818, 39, 153, 54, 216
-0.99684, 369, 129, 384, 192
-0.996846, 359, 209, 374, 272
-0.99685, 419, 113, 434, 176
-0.996852, 209, 137, 336, 168
-0.996853, 203, 121, 218, 184
-0.996854, 375, 121, 390, 184
-0.996872, 369, 97, 400, 352
-0.996889, 41, 81, 72, 208
-0.996889, 453, 113, 468, 176
-0.996897, 233, 233, 296, 296
-0.996904, 355, 129, 370, 192
-0.996931, 361, 185, 376, 248
-0.996932, 405, 113, 420, 176
-0.996934, 355, 185, 370, 248
-0.996946, 349, 65, 380, 192
-0.996949, 485, 105, 500, 168
-0.996954, 409, 169, 424, 232
-0.996967, 257, 141, 384, 172
-0.996969, 29, 153, 44, 216
-0.996974, 279, 129, 294, 192
-0.996984, 71, 137, 86, 200
-0.996986, 371, 169, 386, 232
-0.996988, 57, 145, 72, 208
-0.996991, 357, 97, 388, 352
-0.996997, 19, 153, 34, 216
-0.997, 251, 129, 266, 192
-0.997, 323, 137, 338, 200
-0.997006, 317, 137, 332, 200
-0.997008, 305, 129, 432, 160
-0.99701, 387, 121, 402, 184
-0.997014, 209, 121, 224, 184
-0.997015, 303, 137, 318, 200
-0.997023, 81, 209, 208, 336
-0.997024, 331, 137, 346, 200
-0.997026, 425, 113, 440, 176
-0.997038, 411, 113, 426, 176
-0.997039, 79, 137, 94, 200
-0.997043, 107, 137, 122, 200
-0.997043, 337, 137, 352, 200
-0.997045, 159, 129, 174, 192
-0.997047, 141, 65, 172, 192
-0.99705, 361, 129, 376, 192
-0.997054, 305, 225, 368, 288
-0.997067, 97, 137, 112, 200
-0.997078, 257, 129, 272, 192
-0.997079, 181, 129, 196, 192
-0.99708, 147, 129, 162, 192
-0.997085, 477, 113, 492, 176
-0.9971, 229, 129, 244, 192
-0.997101, 189, 121, 204, 184
-0.997103, 167, 129, 182, 192
-0.997103, 245, 129, 260, 192
-0.997109, 309, 137, 324, 200
-0.997115, 173, 129, 188, 192
-0.997128, 117, 137, 132, 200
-0.997134, 141, 137, 156, 200
-0.997136, 37, 121, 68, 184
-0.99714, 235, 129, 250, 192
-0.99715, 377, 169, 392, 232
-0.997154, 461, 113, 476, 176
-0.997158, 369, 265, 496, 328
-0.997161, 291, 137, 306, 200
-0.997164, 11, 145, 26, 208
-0.99717, 225, 281, 352, 344
-0.997172, 241, 125, 368, 156
-0.997173, 1, 153, 16, 216
-0.997179, 233, 209, 296, 336
-0.997179, 343, 137, 358, 200
-0.997188, 297, 137, 312, 200
-0.997204, 223, 129, 238, 192
-0.99722, 1, 145, 128, 176
-0.997221, 265, 129, 280, 192
-0.997226, 215, 121, 230, 184
-0.997227, 201, 97, 232, 160
-0.997234, 285, 137, 300, 200
-0.99724, 125, 137, 140, 200
-0.997249, 135, 137, 150, 200
-0.997275, 97, 233, 224, 296
-0.997275, 349, 105, 380, 168
-0.997293, 97, 133, 224, 164
-0.997306, 273, 129, 288, 192
-0.997339, 145, 241, 208, 304
-0.997363, 409, 97, 440, 352
-0.997369, 193, 193, 320, 256
-0.99739, 349, 129, 364, 192
-0.997391, 391, 177, 406, 240
-0.997395, 257, 225, 384, 256
-0.997442, 453, 97, 484, 352
-0.997445, 265, 105, 296, 168
-0.997449, 257, 105, 500, 168
-0.997455, 437, 97, 468, 352
-0.997541, 333, 97, 364, 352
-0.997548, 345, 97, 376, 352
-0.997567, 189, 97, 220, 160
-0.997589, 65, 97, 96, 352
-0.9976, 465, 97, 496, 352
-0.997658, 257, 193, 384, 224
-0.99766, 313, 97, 344, 352
-0.997664, 369, 145, 400, 208
-0.997666, 353, 153, 384, 216
-0.997667, 337, 229, 464, 260
-0.997696, 337, 65, 368, 192
-0.997697, 177, 161, 304, 288
-0.997726, 257, 205, 384, 236
-0.997737, 389, 89, 420, 152
-0.997749, 301, 97, 332, 352
-0.997766, 397, 201, 412, 264
-0.997777, 193, 97, 224, 352
-0.997786, 93, 97, 124, 352
-0.9978, 277, 97, 308, 352
-0.997802, 385, 169, 400, 232
-0.997813, 289, 97, 320, 352
-0.997824, 289, 265, 352, 328
-0.997828, 181, 225, 212, 288
-0.997851, 305, 241, 432, 272
-0.997859, 321, 273, 448, 336
-0.997871, 433, 185, 496, 248
-0.997889, 257, 233, 320, 296
-0.997897, 109, 97, 140, 352
-0.997902, 181, 97, 212, 352
-0.997913, 121, 97, 152, 352
-0.997939, 403, 169, 418, 232
-0.997945, 169, 97, 200, 352
-0.99795, 403, 233, 418, 296
-0.997953, 201, 209, 264, 336
-0.997961, 149, 97, 180, 352
-0.997968, 137, 97, 168, 352
-0.997969, 357, 241, 372, 304
-0.997976, 273, 281, 400, 344
-0.997978, 225, 97, 256, 352
-0.998007, 415, 161, 430, 224
-0.998013, 237, 97, 268, 352
-0.998019, 205, 97, 236, 352
-0.998021, 421, 169, 436, 232
-0.998021, 257, 97, 288, 352
-0.998026, 33, 105, 288, 168
-0.998032, 233, 281, 296, 344
-0.9981, 401, 233, 464, 296
-0.998121, 257, 201, 320, 264
-0.998129, 1, 105, 500, 168
-0.998147, 321, 169, 448, 200
-0.998148, 17, 233, 144, 296
-0.998155, 81, 121, 208, 152
-0.998156, 413, 225, 428, 288
-0.998164, 433, 161, 496, 224
-0.998166, 81, 97, 112, 352
-0.998192, 349, 193, 364, 256
-0.998195, 89, 105, 120, 168
-0.998196, 337, 131, 368, 146
-0.998196, 365, 123, 396, 138
-0.998196, 417, 229, 448, 244
-0.998197, 401, 221, 432, 236
-0.998199, 297, 217, 328, 232
-0.998199, 177, 217, 208, 232
-0.9982, 181, 229, 212, 244
-0.9982, 401, 185, 432, 200
-0.998201, 337, 213, 368, 228
-0.998201, 417, 217, 448, 280
-0.998203, 365, 191, 396, 206
-0.998203, 389, 211, 420, 226
-0.998204, 181, 239, 212, 254
-0.998208, 381, 237, 412, 252
-0.998209, 33, 145, 64, 160
-0.99821, 421, 173, 452, 188
-0.99821, 461, 111, 492, 126
-0.998212, 223, 105, 238, 168
-0.998213, 341, 241, 372, 256
-0.998215, 393, 125, 424, 140
-0.998215, 387, 97, 402, 160
-0.998215, 141, 113, 156, 176
-0.998215, 97, 289, 224, 352
-0.998216, 377, 115, 408, 130
-0.998218, 289, 113, 304, 176
-0.998219, 341, 207, 372, 222
-0.998221, 53, 137, 84, 152
-0.998223, 417, 185, 448, 200
-0.998225, 417, 235, 448, 250
-0.998225, 417, 221, 448, 236
-0.998227, 169, 127, 200, 142
-0.998227, 181, 125, 212, 140
-0.998228, 313, 135, 344, 150
-0.99823, 117, 133, 148, 148
-0.99823, 135, 113, 150, 176
-0.998231, 353, 183, 384, 198
-0.998231, 409, 201, 424, 264
-0.998233, 193, 123, 224, 138
-0.998233, 101, 113, 116, 176
-0.998233, 185, 223, 216, 238
-0.998234, 145, 131, 176, 146
-0.998235, 337, 235, 368, 250
-0.998237, 337, 219, 368, 234
-0.998238, 401, 191, 432, 206
-0.998238, 369, 205, 400, 220
-0.998238, 385, 177, 416, 192
-0.998239, 361, 167, 392, 182
-0.99824, 85, 133, 116, 148
-0.998242, 353, 227, 384, 242
-0.998243, 273, 133, 304, 148
-0.998243, 401, 235, 432, 250
-0.998243, 401, 215, 432, 230
-0.998244, 337, 225, 368, 240
-0.998245, 9, 149, 40, 164
-0.998245, 365, 241, 380, 304
-0.998245, 381, 193, 412, 208
-0.998248, 385, 171, 416, 186
-0.998248, 353, 243, 384, 258
-0.998249, 189, 217, 220, 232
-0.99825, 369, 129, 384, 160
-0.99825, 337, 201, 368, 216
-0.99825, 437, 115, 468, 130
-0.998251, 253, 131, 284, 146
-0.998253, 289, 211, 320, 226
-0.998253, 353, 215, 384, 230
-0.998254, 477, 89, 492, 152
-0.998255, 225, 127, 256, 142
-0.998256, 361, 173, 392, 188
-0.998257, 353, 199, 384, 214
-0.998258, 417, 191, 448, 206
-0.99826, 373, 167, 404, 182
-0.99826, 79, 113, 94, 176
-0.99826, 183, 105, 198, 168
-0.998261, 405, 241, 436, 256
-0.998265, 353, 235, 384, 250
-0.998265, 209, 125, 240, 140
-0.998265, 421, 113, 452, 128
-0.998266, 417, 205, 448, 220
-0.998267, 341, 113, 356, 176
-0.998268, 157, 129, 188, 144
-0.998268, 365, 243, 396, 258
-0.998268, 401, 113, 432, 128
-0.998268, 301, 211, 332, 226
-0.99827, 65, 147, 96, 162
-0.998271, 357, 133, 372, 164
-0.998271, 353, 221, 384, 236
-0.998271, 241, 131, 272, 146
-0.998273, 417, 215, 448, 230
-0.998275, 293, 135, 324, 150
-0.998275, 129, 133, 160, 148
-0.998275, 385, 243, 416, 258
-0.998275, 325, 135, 356, 150
-0.998277, 395, 233, 410, 296
-0.998278, 101, 133, 132, 148
-0.998279, 21, 149, 52, 164
-0.998279, 333, 195, 364, 210
-0.998279, 81, 257, 208, 320
-0.99828, 483, 113, 498, 144
-0.998282, 353, 209, 384, 224
-0.998287, 1, 129, 16, 192
-0.998289, 405, 173, 436, 188
-0.998293, 185, 209, 216, 336
-0.998296, 95, 113, 110, 176
-0.998297, 449, 115, 480, 130
-0.998297, 381, 205, 412, 220
-0.998298, 381, 183, 412, 198
-0.998301, 389, 199, 420, 214
-0.998302, 417, 197, 448, 212
-0.998302, 417, 179, 448, 194
-0.998303, 21, 129, 36, 192
-0.998312, 51, 149, 66, 180
-0.998312, 187, 129, 202, 160
-0.998313, 397, 153, 412, 216
-0.998313, 365, 209, 380, 272
-0.998317, 17, 157, 48, 172
-0.998317, 95, 137, 110, 168
-0.998318, 329, 153, 392, 216
-0.998319, 369, 185, 400, 200
-0.99832, 301, 141, 332, 156
-0.998322, 401, 209, 432, 224
-0.998324, 261, 137, 292, 152
-0.998327, 401, 197, 432, 212
-0.998328, 353, 129, 480, 160
-0.998333, 371, 241, 386, 304
-0.998335, 81, 137, 96, 168
-0.998337, 229, 105, 244, 168
-0.998338, 109, 139, 140, 154
-0.998339, 313, 141, 344, 156
-0.998339, 401, 117, 416, 148
-0.998342, 29, 155, 60, 170
-0.998342, 35, 129, 50, 192
-0.998344, 93, 139, 124, 154
-0.998345, 373, 173, 404, 188
-0.998346, 365, 105, 380, 168
-0.998347, 285, 141, 316, 156
-0.998348, 61, 145, 76, 176
-0.998348, 159, 105, 174, 168
-0.998348, 321, 113, 336, 176
-0.998351, 361, 189, 376, 220
-0.998351, 471, 117, 486, 148
-0.998351, 383, 125, 398, 156
-0.998352, 107, 113, 122, 176
-0.998352, 437, 117, 452, 148
-0.998353, 389, 119, 420, 134
-0.998353, 425, 119, 456, 134
-0.998354, 463, 89, 478, 152
-0.998354, 129, 113, 144, 176
-0.998355, 333, 113, 348, 176
-0.998356, 457, 121, 488, 136
-0.998357, 55, 121, 70, 184
-0.998358, 133, 139, 164, 154
-0.998359, 345, 241, 376, 304
-0.998361, 333, 141, 364, 156
-0.998362, 131, 137, 146, 168
-0.998363, 241, 137, 272, 152
-0.998364, 115, 113, 130, 176
-0.998366, 123, 113, 138, 176
-0.998367, 165, 135, 196, 150
-0.998368, 285, 137, 300, 168
-0.998369, 401, 179, 432, 194
-0.99837, 171, 105, 186, 168
-0.998372, 413, 119, 444, 134
-0.998372, 257, 237, 384, 268
-0.998373, 229, 135, 260, 150
-0.998373, 273, 139, 304, 154
-0.998374, 9, 153, 24, 184
-0.998375, 391, 121, 406, 152
-0.998378, 169, 265, 232, 328
-0.998379, 347, 137, 362, 168
-0.998381, 193, 129, 224, 144
-0.998381, 437, 121, 468, 136
-0.998381, 369, 179, 400, 194
-0.998381, 401, 203, 432, 218
-0.998382, 223, 129, 238, 160
-0.998382, 121, 137, 136, 168
-0.998383, 353, 189, 384, 204
-0.998385, 455, 121, 470, 152
-0.998385, 209, 131, 240, 146
-0.998388, 415, 89, 430, 152
-0.998389, 381, 145, 396, 208
-0.99839, 121, 139, 152, 154
-0.998394, 253, 105, 268, 168
-0.998394, 149, 137, 180, 152
-0.998395, 381, 125, 412, 140
-0.998399, 421, 201, 436, 264
-0.9984, 471, 89, 486, 152
-0.9984, 243, 105, 258, 168
-0.998402, 41, 151, 72, 166
-0.998403, 345, 137, 376, 152
-0.998403, 27, 129, 42, 192
-0.998403, 177, 105, 192, 168
-0.998403, 235, 105, 250, 168
-0.998407, 469, 117, 500, 132
-0.998412, 299, 113, 314, 176
-0.998414, 71, 141, 86, 172
-0.998415, 181, 131, 212, 146
-0.998415, 309, 113, 324, 176
-0.998416, 69, 141, 100, 156
-0.998418, 369, 129, 400, 144
-0.998419, 165, 105, 180, 168
-0.99842, 5, 155, 36, 170
-0.998424, 169, 133, 184, 164
-0.998425, 53, 147, 84, 162
-0.998427, 213, 97, 228, 160
-0.998429, 193, 121, 320, 152
-0.998431, 329, 141, 344, 172
-0.998433, 323, 141, 338, 172
-0.998434, 357, 133, 388, 148
-0.998438, 375, 129, 390, 160
-0.998443, 431, 117, 446, 148
-0.998446, 65, 265, 128, 328
-0.998451, 425, 117, 440, 148
-0.998451, 81, 139, 112, 154
-0.998454, 175, 133, 190, 164
-0.998459, 371, 169, 386, 200
-0.998465, 217, 129, 232, 160
-0.998468, 243, 133, 258, 164
-0.998468, 337, 141, 352, 172
-0.99847, 401, 119, 432, 134
-0.998478, 13, 97, 44, 352
-0.998481, 149, 137, 164, 168
-0.998483, 137, 137, 152, 168
-0.998486, 419, 117, 434, 148
-0.998486, 237, 133, 252, 164
-0.998489, 413, 117, 428, 148
-0.998489, 377, 173, 392, 204
-0.998492, 169, 241, 232, 304
-0.998493, 465, 117, 480, 148
-0.998493, 393, 119, 456, 134
-0.998493, 101, 137, 116, 168
-0.9985, 15, 153, 30, 184
-0.998503, 143, 137, 158, 168
-0.998507, 177, 131, 240, 146
-0.998509, 203, 129, 218, 160
-0.998513, 193, 129, 208, 160
-0.998514, 225, 225, 352, 288
-0.998517, 145, 265, 208, 328
-0.998523, 163, 133, 178, 164
-0.998526, 297, 141, 312, 172
-0.998534, 87, 137, 102, 168
-0.998535, 115, 137, 130, 168
-0.998535, 211, 129, 226, 160
-0.998536, 181, 129, 196, 160
-0.998538, 407, 117, 422, 148
-0.998545, 363, 129, 378, 160
-0.998546, 477, 113, 492, 144
-0.998547, 279, 137, 294, 168
-0.998548, 271, 137, 286, 168
-0.99855, 53, 97, 84, 352
-0.998553, 249, 133, 264, 164
-0.998555, 73, 141, 136, 156
-0.998556, 37, 153, 52, 184
-0.998559, 263, 137, 278, 168
-0.998561, 303, 141, 318, 172
-0.998568, 45, 153, 60, 184
-0.998571, 317, 141, 332, 172
-0.998574, 443, 117, 458, 148
-0.998577, 231, 133, 246, 164
-0.998578, 369, 169, 496, 200
-0.998579, 309, 141, 324, 172
-0.998584, 1, 155, 64, 170
-0.998586, 291, 137, 306, 168
-0.998588, 369, 105, 496, 136
-0.998594, 257, 137, 272, 168
-0.998597, 345, 189, 408, 204
-0.998601, 449, 117, 464, 148
-0.998605, 393, 49, 424, 176
-0.998606, 395, 181, 410, 212
-0.998609, 341, 225, 372, 352
-0.998615, 369, 179, 432, 194
-0.998617, 345, 131, 408, 146
-0.998617, 241, 139, 304, 154
-0.998619, 425, 121, 488, 136
-0.998621, 137, 135, 200, 150
-0.998621, 1, 157, 16, 188
-0.998621, 157, 133, 172, 164
-0.998621, 113, 139, 176, 154
-0.998624, 129, 209, 256, 272
-0.998626, 41, 147, 104, 162
-0.998633, 201, 133, 264, 148
-0.998637, 355, 189, 370, 220
-0.998639, 397, 1, 428, 256
-0.998641, 305, 141, 368, 156
-0.998643, 37, 97, 68, 352
-0.998648, 369, 197, 496, 228
-0.998651, 369, 123, 432, 138
-0.998654, 369, 1, 400, 256
-0.998655, 25, 153, 88, 168
-0.998657, 409, 1, 440, 256
-0.998658, 273, 141, 336, 156
-0.998659, 329, 137, 392, 152
-0.998661, 361, 173, 424, 188
-0.998662, 377, 201, 440, 216
-0.998663, 25, 97, 56, 352
-0.998668, 345, 209, 408, 224
-0.99867, 417, 113, 480, 128
-0.99867, 409, 197, 472, 212
-0.998678, 345, 197, 408, 212
-0.99868, 377, 209, 440, 224
-0.99868, 289, 135, 352, 150
-0.998682, 25, 153, 40, 184
-0.998683, 393, 179, 456, 194
-0.998685, 109, 137, 124, 168
-0.998686, 297, 177, 360, 240
-0.998687, 49, 141, 112, 156
-0.998691, 369, 185, 432, 200
-0.998691, 409, 203, 472, 218
-0.998691, 345, 183, 408, 198
-0.998692, 73, 135, 136, 150
-0.998698, 369, 129, 432, 144
-0.998698, 345, 203, 408, 218
-0.998698, 399, 197, 414, 228
-0.998699, 465, 1, 496, 256
-0.9987, 305, 213, 368, 228
-0.998703, 233, 131, 296, 146
-0.998704, 369, 195, 432, 210
-0.998704, 345, 235, 408, 250
-0.998706, 313, 193, 376, 208
-0.998707, 97, 133, 160, 148
-0.998709, 409, 209, 472, 224
-0.99871, 1, 147, 64, 162
-0.998711, 353, 243, 416, 258
-0.998711, 409, 191, 472, 206
-0.998714, 377, 215, 440, 230
-0.998714, 409, 185, 472, 200
-0.998715, 313, 207, 376, 222
-0.998717, 31, 153, 46, 184
-0.998717, 357, 205, 372, 236
-0.998719, 345, 219, 408, 234
-0.99872, 409, 217, 472, 232
-0.99872, 361, 167, 424, 182
-0.998723, 313, 201, 376, 216
-0.998724, 313, 219, 376, 234
-0.998727, 377, 241, 440, 256
-0.998727, 1, 97, 32, 352
-0.998727, 177, 125, 240, 140
-0.99873, 313, 235, 376, 250
-0.998732, 345, 227, 408, 242
-0.998733, 409, 225, 472, 240
-0.998733, 265, 135, 328, 150
-0.998734, 329, 243, 392, 258
-0.998737, 313, 225, 376, 240
-0.998739, 153, 129, 216, 144
-0.99874, 393, 113, 456, 128
-0.998741, 369, 235, 432, 250
-0.998742, 345, 117, 408, 132
-0.998742, 337, 173, 400, 188
-0.998742, 129, 129, 192, 144
-0.998743, 265, 209, 328, 224
-0.998744, 329, 123, 392, 138
-0.998744, 429, 1, 460, 256
-0.998746, 417, 179, 480, 194
-0.998746, 201, 127, 264, 142
-0.998748, 409, 231, 472, 246
-0.998748, 417, 173, 480, 188
-0.998749, 401, 163, 464, 178
-0.998749, 401, 237, 464, 252
-0.99875, 177, 217, 240, 232
-0.998751, 337, 167, 400, 182
-0.998755, 25, 137, 88, 152
-0.998765, 393, 173, 456, 188
-0.998765, 233, 283, 296, 298
-0.998766, 369, 117, 432, 132
-0.998767, 405, 197, 420, 228
-0.998769, 321, 179, 384, 194
-0.998772, 377, 221, 440, 236
-0.998773, 1, 225, 128, 352
-0.998775, 377, 227, 440, 242
-0.998775, 265, 215, 328, 230
-0.998775, 217, 139, 280, 154
-0.998776, 185, 211, 248, 226
-0.998776, 153, 219, 216, 234
-0.998778, 193, 235, 256, 250
-0.998779, 377, 161, 440, 176
-0.998779, 313, 129, 376, 144
-0.998782, 177, 223, 240, 238
-0.998783, 49, 135, 112, 150
-0.998784, 105, 289, 168, 304
-0.998784, 233, 277, 296, 292
-0.998785, 387, 181, 402, 212
-0.998786, 305, 185, 368, 200
-0.998788, 289, 207, 352, 222
-0.99879, 265, 277, 328, 292
-0.998792, 169, 239, 232, 254
-0.998792, 249, 203, 312, 218
-0.998793, 145, 123, 208, 138
-0.998793, 265, 257, 328, 272
-0.998795, 329, 143, 392, 158
-0.998795, 249, 251, 312, 266
-0.998796, 153, 231, 216, 246
-0.998798, 233, 289, 296, 304
-0.998799, 209, 257, 272, 272
-0.9988, 161, 137, 224, 152
-0.998801, 289, 219, 352, 234
-0.998801, 353, 111, 416, 126
-0.998802, 401, 157, 464, 172
-0.998803, 177, 229, 240, 244
-0.998803, 17, 341, 80, 356
-0.998803, 321, 161, 384, 176
-0.998803, 289, 199, 352, 214
-0.998804, 353, 161, 416, 176
-0.998804, 1, 271, 64, 286
-0.998805, 257, 339, 320, 354
-0.998806, 209, 215, 272, 230
-0.998806, 281, 245, 344, 260
-0.998807, 425, 159, 488, 174
-0.998808, 297, 267, 360, 282
-0.998808, 145, 285, 208, 300
-0.998808, 145, 251, 208, 266
-0.998808, 193, 275, 256, 290
-0.998809, 201, 221, 264, 236
-0.998809, 225, 271, 288, 286
-0.998809, 193, 287, 256, 302
-0.99881, 289, 335, 352, 350
-0.99881, 225, 125, 288, 140
-0.99881, 129, 299, 192, 314
-0.998814, 25, 265, 88, 328
-0.998814, 257, 173, 384, 204
-0.998814, 191, 217, 206, 248
-0.998832, 321, 117, 448, 148
-0.998833, 445, 1, 476, 256
-0.998848, 377, 185, 392, 216
-0.998853, 381, 1, 412, 256
-0.998861, 359, 221, 374, 252
-0.998869, 401, 97, 416, 224
-0.998871, 381, 161, 396, 192
-0.998871, 413, 177, 428, 208
-0.998881, 145, 117, 272, 148
-0.998888, 407, 177, 422, 208
-0.998892, 381, 113, 396, 240
-0.998904, 371, 181, 386, 212
-0.998908, 257, 153, 500, 216
-0.99891, 303, 209, 318, 240
-0.998931, 329, 273, 392, 336
-0.998947, 353, 1, 384, 256
-0.998951, 459, 109, 474, 140
-0.998951, 401, 177, 416, 208
-0.998963, 387, 113, 402, 240
-0.998966, 1, 281, 128, 344
-0.998976, 313, 1, 344, 256
-0.998978, 129, 289, 192, 352
-0.998978, 337, 129, 352, 160
-0.998978, 235, 121, 250, 152
-0.998981, 379, 241, 394, 272
-0.998982, 411, 197, 426, 228
-0.998986, 161, 177, 416, 240
-0.998988, 423, 177, 438, 208
-0.998989, 393, 113, 408, 240
-0.998989, 297, 129, 312, 160
-0.998989, 375, 113, 390, 240
-0.998991, 229, 121, 244, 152
-0.998997, 387, 169, 402, 200
-0.999, 373, 241, 388, 272
-0.999003, 359, 113, 374, 240
-0.999004, 257, 125, 272, 156
-0.999005, 175, 121, 190, 152
-0.999009, 373, 117, 388, 148
-0.999015, 367, 113, 382, 240
-0.999017, 411, 97, 426, 224
-0.999022, 41, 141, 56, 172
-0.999029, 399, 241, 414, 272
-0.999031, 411, 229, 426, 260
-0.999036, 1, 141, 16, 172
-0.999038, 347, 125, 362, 156
-0.999044, 301, 1, 332, 256
-0.999046, 263, 125, 278, 156
-0.999047, 327, 129, 342, 160
-0.999051, 209, 117, 224, 148
-0.999053, 51, 137, 66, 168
-0.999057, 391, 241, 406, 272
-0.999061, 383, 113, 398, 144
-0.999062, 85, 125, 100, 156
-0.999063, 197, 117, 212, 148
-0.999063, 305, 105, 432, 136
-0.99907, 193, 273, 256, 336
-0.999071, 357, 121, 372, 152
-0.999073, 413, 105, 428, 136
-0.999075, 109, 125, 124, 156
-0.999075, 419, 105, 434, 136
-0.999076, 257, 269, 384, 300
-0.999077, 203, 117, 218, 148
-0.999077, 303, 129, 318, 160
-0.999078, 191, 117, 206, 148
-0.999079, 143, 125, 158, 156
-0.999079, 149, 125, 164, 156
-0.999079, 385, 241, 400, 272
-0.999079, 411, 241, 426, 272
-0.999082, 281, 1, 312, 256
-0.999083, 217, 117, 232, 148
-0.999083, 275, 125, 290, 156
-0.999083, 315, 129, 330, 160
-0.999092, 65, 133, 80, 164
-0.999093, 421, 97, 436, 224
-0.999093, 241, 121, 256, 152
-0.999114, 305, 141, 432, 172
-0.999119, 161, 225, 416, 288
-0.999137, 97, 273, 352, 336
-0.99915, 469, 97, 484, 224
-0.999155, 433, 145, 496, 272
-0.999158, 411, 161, 426, 288
-0.99916, 351, 113, 366, 240
-0.999162, 307, 129, 322, 256
-0.999165, 441, 97, 456, 224
-0.999172, 361, 177, 376, 304
-0.999181, 391, 161, 406, 288
-0.999181, 337, 1, 368, 256
-0.999184, 209, 281, 336, 312
-0.999185, 253, 1, 284, 256
-0.999192, 447, 97, 462, 224
-0.999193, 209, 257, 336, 288
-0.999207, 431, 97, 446, 224
-0.99921, 371, 161, 386, 288
-0.999211, 297, 129, 312, 256
-0.999212, 53, 129, 68, 256
-0.999222, 209, 1, 240, 256
-0.999223, 319, 129, 334, 256
-0.999227, 287, 129, 302, 256
-0.99923, 269, 1, 300, 256
-0.999246, 325, 1, 356, 256
-0.999247, 405, 161, 420, 288
-0.999249, 353, 157, 480, 188
-0.999251, 459, 113, 474, 240
-0.99926, 177, 1, 208, 256
-0.999261, 97, 249, 352, 312
-0.999263, 225, 1, 256, 256
-0.999269, 129, 269, 256, 300
-0.99927, 353, 241, 480, 272
-0.99927, 157, 113, 172, 240
-0.999278, 479, 97, 494, 224
-0.999279, 209, 241, 336, 272
-0.999283, 329, 129, 344, 256
-0.999286, 377, 161, 392, 288
-0.999286, 485, 97, 500, 224
-0.999286, 385, 161, 400, 288
-0.999289, 279, 129, 294, 256
-0.999293, 313, 129, 328, 256
-0.999298, 195, 113, 210, 240
-0.999299, 189, 1, 220, 256
-0.999299, 341, 129, 356, 256
-0.9993, 47, 129, 62, 256
-0.9993, 129, 129, 144, 256
-0.999301, 189, 113, 204, 240
-0.999301, 177, 229, 304, 260
-0.999303, 397, 161, 412, 288
-0.999305, 453, 97, 468, 224
-0.999312, 241, 1, 272, 256
-0.999313, 1, 161, 128, 224
-0.999316, 115, 129, 130, 256
-0.999316, 135, 129, 150, 256
-0.999316, 165, 1, 196, 256
-0.999318, 253, 113, 268, 240
-0.999319, 169, 113, 184, 240
-0.999322, 183, 113, 198, 240
-0.999322, 221, 113, 236, 240
-0.999326, 163, 113, 178, 240
-0.999326, 175, 113, 190, 240
-0.999326, 335, 129, 350, 256
-0.999326, 143, 129, 158, 256
-0.999328, 75, 129, 90, 256
-0.999328, 151, 113, 166, 240
-0.999333, 27, 145, 42, 272
-0.999335, 103, 129, 118, 256
-0.999336, 1, 145, 16, 272
-0.999336, 81, 129, 96, 256
-0.999339, 205, 113, 220, 240
-0.999341, 215, 113, 230, 240
-0.999343, 121, 129, 136, 256
-0.999344, 239, 113, 254, 240
-0.999346, 229, 113, 244, 240
-0.999346, 7, 145, 22, 272
-0.999349, 67, 129, 82, 256
-0.99935, 15, 145, 30, 272
-0.999353, 91, 113, 106, 240
-0.999354, 109, 129, 124, 256
-0.999356, 59, 129, 74, 256
-0.999357, 247, 113, 262, 240
-0.999365, 145, 1, 176, 256
-0.999366, 39, 145, 54, 272
-0.999368, 21, 145, 36, 272
-0.999372, 33, 145, 48, 272
-0.999384, 259, 113, 274, 240
-0.999386, 273, 113, 288, 240
-0.999396, 97, 129, 112, 256
-0.999398, 117, 1, 148, 256
-0.999415, 133, 1, 164, 256
-0.999425, 1, 269, 128, 300
-0.999428, 369, 209, 496, 240
-0.999431, 105, 1, 136, 256
-0.999435, 81, 265, 208, 296
-0.999441, 85, 1, 116, 256
-0.999441, 265, 113, 280, 240
-0.999445, 1, 133, 128, 164
-0.999448, 73, 1, 104, 256
-0.999466, 375, 123, 390, 138
-0.999467, 41, 149, 56, 164
-0.999467, 345, 133, 360, 148
-0.999467, 117, 135, 132, 150
-0.999467, 361, 127, 376, 142
-0.999469, 477, 111, 492, 126
-0.999469, 189, 125, 204, 140
-0.999469, 97, 133, 112, 148
-0.999469, 339, 135, 354, 150
-0.99947, 177, 127, 192, 142
-0.99947, 171, 129, 186, 144
-0.99947, 357, 235, 372, 250
-0.999471, 89, 133, 104, 148
-0.999471, 209, 125, 224, 140
-0.999471, 1, 257, 256, 320
-0.999472, 163, 131, 178, 146
-0.999473, 413, 113, 428, 128
-0.999473, 21, 151, 36, 166
-0.999473, 1, 151, 16, 166
-0.999473, 419, 113, 434, 128
-0.999474, 369, 125, 384, 140
-0.999475, 195, 125, 210, 140
-0.999475, 291, 135, 306, 150
-0.999476, 403, 179, 418, 194
-0.999476, 359, 213, 374, 228
-0.999477, 229, 127, 244, 142
-0.999477, 195, 217, 210, 232
-0.999477, 447, 115, 462, 130
-0.999478, 239, 129, 254, 144
-0.999479, 35, 151, 50, 166
-0.99948, 379, 243, 394, 258
-0.99948, 371, 167, 386, 182
-0.99948, 111, 135, 126, 150
-0.99948, 387, 179, 402, 194
-0.999481, 105, 135, 120, 150
-0.999481, 215, 125, 230, 140
-0.999481, 201, 209, 264, 272
-0.999482, 405, 205, 420, 220
-0.999482, 377, 187, 392, 202
-0.999483, 411, 239, 426, 254
-0.999483, 257, 249, 384, 280
-0.999483, 357, 221, 372, 236
-0.999484, 397, 181, 412, 196
-0.999484, 461, 115, 476, 130
-0.999484, 411, 199, 426, 214
-0.999486, 399, 207, 414, 222
-0.999486, 387, 185, 402, 200
-0.999488, 333, 137, 348, 152
-0.999488, 245, 131, 260, 146
-0.999489, 143, 133, 158, 148
-0.999491, 367, 187, 382, 202
-0.999493, 405, 209, 420, 336
-0.999496, 377, 167, 392, 182
-0.999498, 349, 195, 364, 210
-0.999498, 45, 1, 76, 256
-0.999499, 413, 177, 428, 192
-0.999501, 1, 209, 500, 272
-0.999501, 399, 209, 414, 336
-0.999502, 161, 241, 288, 272
-0.999503, 399, 201, 414, 216
-0.999505, 307, 141, 322, 156
-0.999508, 413, 209, 428, 336
-0.99951, 377, 181, 392, 196
-0.999511, 355, 207, 370, 222
-0.999511, 269, 137, 284, 152
-0.999511, 301, 141, 316, 156
-0.999511, 423, 179, 438, 194
-0.999514, 405, 199, 420, 214
-0.999514, 313, 141, 328, 156
-0.999518, 325, 141, 340, 156
-0.999518, 193, 213, 320, 244
-0.999519, 193, 265, 448, 328
-0.99952, 263, 137, 278, 152
-0.999521, 371, 173, 386, 188
-0.999524, 189, 219, 204, 234
-0.999524, 209, 269, 336, 300
-0.999526, 319, 141, 334, 156
-0.999526, 277, 139, 292, 154
-0.999527, 461, 121, 476, 136
-0.999527, 15, 155, 30, 170
-0.999527, 77, 105, 108, 168
-0.999529, 257, 137, 272, 152
-0.999529, 429, 119, 444, 134
-0.999531, 245, 137, 260, 152
-0.999531, 29, 157, 44, 172
-0.999532, 333, 143, 348, 158
-0.999533, 3, 157, 18, 172
-0.999533, 105, 141, 120, 156
-0.999534, 115, 141, 130, 156
-0.999537, 35, 157, 50, 172
-0.999539, 355, 177, 370, 304
-0.99954, 459, 65, 474, 192
-0.99954, 371, 181, 386, 196
-0.999541, 303, 211, 318, 226
-0.999542, 163, 137, 178, 152
-0.999542, 339, 141, 354, 156
-0.999543, 435, 119, 450, 134
-0.999543, 213, 131, 228, 146
-0.999543, 21, 157, 36, 172
-0.999544, 129, 139, 144, 154
-0.999544, 203, 129, 218, 144
-0.999547, 423, 119, 438, 134
-0.999548, 41, 155, 56, 170
-0.999549, 359, 191, 374, 206
-0.999549, 251, 137, 266, 152
-0.999549, 377, 173, 392, 188
-0.999551, 193, 131, 208, 146
-0.999551, 453, 121, 468, 136
-0.999553, 445, 121, 460, 136
-0.999553, 291, 141, 306, 156
-0.999556, 353, 277, 480, 308
-0.999557, 393, 225, 408, 352
-0.999559, 219, 131, 234, 146
-0.99956, 235, 135, 250, 150
-0.999561, 283, 139, 298, 154
-0.999561, 417, 119, 432, 134
-0.999561, 145, 139, 160, 154
-0.999563, 229, 133, 244, 148
-0.999564, 123, 139, 138, 154
-0.999564, 173, 135, 188, 150
-0.999565, 181, 133, 196, 148
-0.999565, 467, 121, 482, 136
-0.999566, 83, 139, 98, 154
-0.999566, 407, 117, 422, 132
-0.999572, 89, 139, 104, 154
-0.999572, 351, 137, 366, 152
-0.999573, 379, 129, 394, 144
-0.999574, 485, 115, 500, 130
-0.999575, 135, 139, 150, 154
-0.999575, 95, 139, 110, 154
-0.999575, 345, 139, 360, 154
-0.999576, 479, 117, 494, 132
-0.999577, 371, 131, 386, 146
-0.999577, 47, 153, 62, 168
-0.999578, 363, 133, 378, 148
-0.999579, 155, 137, 170, 152
-0.999581, 379, 225, 394, 352
-0.999582, 187, 131, 202, 146
-0.999582, 321, 73, 448, 136
-0.999582, 473, 119, 488, 134
-0.999585, 59, 147, 74, 162
-0.999586, 385, 127, 400, 142
-0.999586, 485, 49, 500, 176
-0.99959, 77, 141, 92, 156
-0.99959, 357, 135, 372, 150
-0.999591, 479, 49, 494, 176
-0.999594, 359, 225, 374, 352
-0.999594, 67, 145, 82, 160
-0.999596, 9, 155, 24, 170
-0.999596, 401, 119, 416, 134
-0.999597, 393, 123, 408, 138
-0.999598, 53, 151, 68, 166
-0.999599, 391, 65, 406, 192
-0.9996, 1, 97, 16, 224
-0.999603, 373, 225, 388, 352
-0.999604, 365, 225, 380, 352
-0.999604, 145, 285, 272, 316
-0.999609, 1, 153, 256, 216
-0.999609, 387, 225, 402, 352
-0.999612, 419, 177, 434, 304
-0.999616, 143, 81, 158, 208
-0.999617, 49, 293, 176, 324
-0.999618, 343, 81, 358, 208
-0.999618, 377, 65, 392, 192
-0.999619, 473, 49, 488, 176
-0.999619, 39, 97, 54, 224
-0.99962, 287, 81, 302, 208
-0.999624, 97, 81, 112, 208
-0.999635, 301, 81, 316, 208
-0.999636, 311, 81, 326, 208
-0.999639, 317, 81, 332, 208
-0.999641, 329, 81, 344, 208
-0.999643, 281, 81, 296, 208
-0.999643, 79, 81, 94, 208
-0.999644, 213, 65, 228, 192
-0.999644, 337, 81, 352, 208
-0.999644, 85, 81, 100, 208
-0.999646, 33, 257, 160, 288
-0.999648, 219, 65, 234, 192
-0.999649, 467, 49, 482, 176
-0.999649, 179, 65, 194, 192
-0.99965, 169, 65, 184, 192
-0.99965, 131, 81, 146, 208
-0.999652, 295, 81, 310, 208
-0.999653, 33, 121, 160, 152
-0.999654, 435, 49, 450, 176
-0.999654, 323, 81, 338, 208
-0.999655, 385, 65, 400, 192
-0.999657, 189, 65, 204, 192
-0.999657, 205, 65, 220, 192
-0.999657, 67, 81, 82, 208
-0.999658, 199, 65, 214, 192
-0.999658, 229, 65, 244, 192
-0.999659, 121, 81, 136, 208
-0.999659, 11, 97, 26, 224
-0.999661, 137, 81, 152, 208
-0.999661, 33, 97, 48, 224
-0.999661, 257, 285, 384, 316
-0.999663, 425, 49, 440, 176
-0.999663, 21, 97, 36, 224
-0.999666, 445, 49, 460, 176
-0.999666, 371, 65, 386, 192
-0.999667, 159, 65, 174, 192
-0.999671, 297, 209, 328, 272
-0.999671, 1, 313, 128, 344
-0.999682, 57, 1, 88, 256
-0.99969, 145, 253, 272, 284
-0.999701, 1, 1, 32, 256
-0.999702, 193, 201, 320, 232
-0.999719, 97, 285, 224, 316
-0.999738, 1, 157, 128, 188
-0.999744, 81, 253, 208, 284
-0.999758, 129, 201, 384, 264
-0.999774, 81, 201, 208, 264
-0.999777, 17, 1, 48, 256
-0.999786, 337, 297, 464, 360
-0.999812, 1, 289, 256, 352
-0.999812, 29, 1, 60, 256
-0.999813, 289, 157, 416, 188
-0.999824, 17, 281, 144, 312
-0.999824, 113, 241, 176, 304
-0.999836, 113, 241, 240, 272
-0.999842, 321, 265, 448, 296
-0.999849, 233, 209, 296, 272
-0.999865, 417, 145, 448, 208
-0.999871, 1, 297, 64, 360
-0.999887, 173, 209, 204, 336
-0.99989, 17, 245, 144, 276
-0.999913, 225, 297, 352, 328
-0.999942, 1, 265, 64, 328
-0.999954, 113, 221, 240, 252
-0.999954, 257, 329, 384, 360
-0.999985, 1, 177, 500, 240
-0.999989, 305, 277, 432, 308
-1.00001, 65, 237, 192, 268
-1.00004, 369, 265, 496, 296
-1.00005, 65, 305, 192, 336
-1.00006, 113, 209, 240, 240
-1.00008, 193, 109, 320, 140
-1.00008, 1, 297, 128, 328
-1.00011, 193, 81, 448, 144
-1.00011, 1, 325, 128, 356
-1.00011, 65, 89, 192, 152
-1.00013, 337, 325, 464, 356
-1.00013, 1, 185, 128, 248
-1.00013, 49, 317, 176, 348
-1.00014, 305, 253, 432, 284
-1.00014, 257, 297, 500, 360
-1.00015, 305, 289, 432, 320
-1.00015, 65, 225, 320, 288
-1.00018, 1, 265, 500, 328
-1.00019, 289, 309, 416, 340
-1.00022, 265, 281, 328, 344
-1.00023, 145, 297, 272, 328
-1.00024, 97, 297, 352, 360
-1.00024, 273, 33, 400, 160
-1.00026, 353, 145, 480, 176
-1.00026, 193, 329, 320, 360
-1.00027, 193, 309, 320, 340
-1.00028, 257, 113, 384, 144
-1.00031, 161, 153, 416, 216
-1.00032, 65, 329, 192, 360
-1.00032, 17, 181, 144, 212
-1.00032, 241, 317, 368, 348
-1.00034, 105, 289, 168, 352
-1.00035, 353, 289, 480, 320
-1.00036, 121, 257, 152, 320
-1.00038, 421, 193, 452, 320
-1.00038, 161, 189, 288, 220
-1.00039, 337, 313, 464, 344
-1.00039, 113, 317, 240, 348
-1.0004, 49, 169, 176, 232
-1.00041, 49, 149, 176, 180
-1.00041, 353, 281, 416, 344
-1.00042, 425, 137, 488, 200
-1.00042, 333, 177, 364, 304
-1.00043, 369, 253, 496, 284
-1.00044, 1, 233, 128, 264
-1.00046, 133, 265, 164, 328
-1.00049, 353, 301, 480, 332
-1.00054, 49, 225, 176, 256
-1.00057, 97, 109, 224, 140
-1.00061, 113, 329, 240, 360
-1.00062, 113, 197, 240, 228
-1.00063, 17, 193, 144, 224
-1.00063, 33, 169, 160, 200
-1.0007, 209, 185, 336, 216
-1.00071, 145, 177, 272, 240
-1.00071, 97, 145, 224, 176
-1.00072, 65, 189, 192, 220
-1.00073, 1, 201, 256, 264
-1.00073, 217, 209, 248, 336
-1.00073, 429, 145, 460, 208
-1.00079, 241, 157, 368, 188
-1.00079, 81, 169, 208, 200
-1.00081, 369, 93, 496, 124
-1.00083, 1, 221, 128, 252
-1.00084, 65, 201, 192, 232
-1.00088, 341, 169, 372, 232
-1.0009, 113, 181, 240, 212
-1.00091, 65, 213, 192, 244
-1.00091, 209, 169, 336, 200
-1.00092, 145, 105, 272, 136
-1.00092, 193, 209, 224, 272
-1.00093, 193, 149, 320, 180
-1.00094, 1, 161, 256, 288
-1.00094, 1, 1, 128, 32
-1.00094, 369, 33, 496, 64
-1.00095, 369, 21, 496, 52
-1.00095, 113, 157, 240, 188
-1.00096, 17, 33, 144, 64
-1.00097, 1, 205, 128, 236
-1.00097, 161, 241, 192, 304
-1.00099, 17, 21, 144, 52
-1.00101, 161, 177, 288, 208
-1.00102, 161, 165, 288, 196
-1.00103, 1, 53, 128, 84
-1.00103, 1, 85, 128, 116
-1.00104, 17, 209, 144, 272
-1.00104, 1, 153, 500, 216
-1.00106, 369, 9, 496, 40
-1.00106, 369, 49, 496, 80
-1.00106, 1, 73, 128, 104
-1.00106, 97, 97, 224, 128
-1.00113, 33, 177, 288, 240
-1.00117, 401, 265, 464, 328
-1.00117, 193, 169, 320, 232
-1.00119, 153, 193, 216, 256
-1.00119, 49, 241, 112, 304
-1.00123, 1, 289, 500, 352
-1.00123, 153, 265, 184, 328
-1.00124, 1, 241, 500, 304
-1.00128, 265, 177, 328, 240
-1.00128, 197, 193, 228, 320
-1.0013, 17, 105, 80, 168
-1.00132, 465, 161, 496, 288
-1.0014, 297, 193, 328, 320
-1.00145, 97, 177, 224, 240
-1.0015, 277, 193, 308, 320
-1.00151, 89, 233, 152, 296
-1.00157, 257, 257, 288, 320
-1.00158, 73, 289, 136, 352
-1.0016, 285, 201, 316, 264
-1.00161, 41, 289, 104, 352
-1.00162, 441, 185, 472, 248
-1.00164, 113, 153, 240, 216
-1.00165, 1, 33, 256, 96
-1.00166, 1, 9, 256, 72
-1.00171, 45, 265, 76, 328
-1.00172, 9, 233, 72, 296
-1.00173, 117, 281, 148, 344
-1.00177, 257, 1, 500, 64
-1.00179, 109, 257, 140, 320
-1.0018, 277, 273, 308, 336
-1.00182, 1, 81, 256, 144
-1.00188, 1, 25, 128, 88
-1.0019, 369, 1, 496, 64
-1.00195, 257, 25, 500, 88
-1.00195, 433, 265, 496, 328
-1.00199, 1, 81, 500, 144
-1.00199, 193, 81, 320, 144
-1.002, 97, 65, 352, 128
-1.00201, 1, 57, 256, 120
-1.00202, 17, 1, 144, 64
-1.00204, 1, 177, 128, 304
-1.00208, 177, 201, 208, 264
-1.00212, 161, 17, 416, 80
-1.00212, 129, 41, 384, 104
-1.00212, 225, 49, 480, 112
-1.00213, 369, 65, 496, 128
-1.00216, 193, 297, 256, 360
-1.00217, 97, 161, 224, 288
-1.00229, 257, 193, 288, 320
-1.0023, 129, 193, 192, 320
-1.00234, 385, 289, 448, 352
-1.00236, 445, 161, 476, 288
-1.00236, 229, 209, 260, 336
-1.00237, 433, 209, 496, 336
-1.00242, 29, 265, 60, 328
-1.00242, 461, 193, 492, 256
-1.0025, 277, 249, 308, 312
-1.0025, 433, 217, 496, 280
-1.00251, 237, 241, 268, 304
-1.00253, 145, 65, 272, 128
-1.00254, 369, 33, 496, 96
-1.00254, 1, 57, 128, 120
-1.00255, 305, 297, 368, 360
-1.00255, 193, 161, 256, 288
-1.00256, 341, 265, 372, 328
-1.00259, 441, 161, 472, 224
-1.00263, 453, 209, 484, 336
-1.00264, 217, 233, 248, 296
-1.00264, 221, 273, 252, 336
-1.00268, 193, 185, 256, 248
-1.00269, 329, 297, 392, 360
-1.00275, 305, 185, 336, 248
-1.00279, 17, 89, 144, 152
-1.0028, 241, 225, 272, 352
-1.00282, 265, 281, 296, 344
-1.00284, 301, 257, 332, 320
-1.00285, 133, 241, 164, 304
-1.00285, 469, 217, 500, 280
-1.00285, 261, 233, 292, 296
-1.00287, 205, 265, 236, 328
-1.00288, 49, 41, 176, 104
-1.00288, 469, 209, 500, 336
-1.00289, 129, 209, 192, 272
-1.00291, 225, 9, 352, 72
-1.00291, 81, 17, 208, 80
-1.00291, 129, 17, 256, 80
-1.00291, 177, 17, 304, 80
-1.00291, 273, 17, 400, 80
-1.00291, 321, 25, 448, 88
-1.00291, 225, 33, 352, 96
-1.00291, 97, 41, 224, 104
-1.00291, 145, 41, 272, 104
-1.00291, 273, 41, 400, 104
-1.00291, 321, 49, 448, 112
-1.00291, 193, 57, 320, 120
-1.00291, 65, 65, 192, 128
-1.00291, 241, 65, 368, 128
-1.00297, 317, 225, 348, 352
-1.00298, 161, 193, 192, 320
-1.00299, 1, 177, 64, 240
-1.00299, 165, 265, 196, 328
-1.00302, 25, 169, 88, 232
-1.00303, 329, 265, 360, 328
-1.00305, 33, 209, 96, 336
-1.00305, 321, 1, 448, 64
-1.00306, 377, 265, 440, 328
-1.00307, 185, 265, 216, 328
-1.00309, 97, 257, 128, 320
-1.00311, 433, 145, 464, 272
-1.00312, 197, 233, 228, 296
-1.00321, 469, 169, 500, 232
-1.00321, 453, 233, 484, 296
-1.00324, 261, 193, 292, 256
-1.00324, 49, 289, 80, 352
-1.00329, 465, 257, 496, 320
-1.00329, 445, 17, 476, 144
-1.00341, 45, 209, 76, 336
-1.00342, 1, 17, 500, 80
-1.0035, 433, 297, 496, 360
-1.00356, 1, 41, 500, 104
-1.00356, 289, 257, 320, 320
-1.00358, 273, 201, 304, 264
-1.00362, 297, 225, 360, 352
-1.00366, 153, 289, 216, 352
-1.0037, 65, 209, 128, 336
-1.00379, 313, 177, 344, 304
-1.00379, 149, 209, 180, 336
-1.00382, 281, 233, 344, 296
-1.00395, 89, 209, 120, 336
-1.00398, 57, 161, 120, 224
-1.00403, 9, 209, 40, 336
-1.00407, 233, 185, 296, 248
-1.00408, 121, 209, 152, 336
-1.00409, 105, 209, 168, 336
-1.00416, 33, 217, 96, 280
-1.00428, 73, 209, 104, 336
-1.00431, 177, 161, 208, 288
-1.00437, 441, 209, 472, 336
-1.00438, 25, 209, 56, 336
-1.00447, 169, 161, 232, 288
-1.00456, 101, 209, 132, 336
-1.0046, 61, 209, 92, 336
-1.00499, 233, 161, 296, 288
-1.00505, 225, 161, 256, 288
-1.00506, 1, 1, 128, 128
-1.00518, 409, 289, 472, 352
-1.00522, 9, 209, 72, 336
-1.00527, 433, 241, 496, 304
-1.00532, 57, 217, 120, 280
-1.0054, 133, 193, 164, 320
-1.00541, 25, 193, 88, 256
-1.00541, 209, 161, 240, 288
-1.00547, 201, 81, 264, 144
-1.00571, 49, 185, 112, 248
-1.00581, 241, 177, 272, 304
-1.00587, 1, 209, 64, 272
-1.00596, 145, 169, 208, 232
-1.00599, 329, 225, 360, 352
-1.00619, 105, 201, 168, 264
-1.00628, 381, 17, 412, 144
-1.00641, 65, 1, 320, 128
-1.00643, 81, 169, 144, 232
-1.00659, 353, 73, 416, 136
-1.00669, 145, 161, 176, 288
-1.00677, 81, 193, 144, 256
-1.0068, 29, 49, 60, 176
-1.0071, 41, 89, 104, 152
-1.0072, 249, 153, 312, 216
-1.00725, 177, 161, 240, 224
-1.0074, 105, 153, 168, 216
-1.00767, 1, 1, 32, 128
-1.00774, 113, 177, 176, 240
-1.00775, 241, 33, 304, 160
-1.00781, 225, 161, 288, 224
-1.00791, 265, 33, 296, 160
-1.00794, 321, 33, 384, 160
-1.00799, 281, 89, 344, 152
-1.00834, 433, 25, 496, 88
-1.00838, 433, 65, 496, 128
-1.0089, 93, 33, 124, 160
-1.00894, 29, 1, 60, 128
-1.00897, 49, 1, 80, 128
-1.00916, 277, 33, 308, 160
-1.0092, 81, 1, 112, 128
-1.00921, 297, 1, 328, 128
-1.00926, 13, 1, 44, 128
-1.00939, 317, 1, 348, 128
-1.00948, 353, 17, 416, 144
-1.01015, 369, 1, 496, 128
-1.01046, 25, 1, 88, 128
-1.0108, 145, 1, 272, 128
-1.01091, 1, 1, 64, 128
-1.01193, 321, 1, 448, 128
-1.01211, 209, 1, 336, 128
-1.01263, 49, 1, 176, 128
-1.01292, 425, 1, 488, 128
-1.01315, 49, 1, 112, 128
-1.01353, 297, 33, 360, 160
-1.01356, 265, 33, 328, 160
-1.01397, 97, 1, 224, 128
-1.01471, 89, 1, 152, 128
-1.01553, 161, 17, 416, 144
-1.01694, 145, 1, 208, 128
-1.01704, 393, 1, 456, 128
-1.01753, 113, 1, 176, 128
-1.01766, 177, 17, 240, 144
-1.01847, 209, 1, 272, 128
