2022
-0.34715, 1, 161, 500, 416
-0.388529, 1, 1, 500, 416
-0.433977, 1, 65, 500, 320
-0.533296, 97, 1, 352, 416
-0.564061, 225, 1, 480, 416
-0.579899, 97, 129, 352, 384
-0.61833, 257, 161, 500, 416
-0.638195, 1, 1, 256, 416
-0.672086, 257, 65, 500, 320
-0.731447, 1, 161, 256, 416
-0.786883, 161, 1, 416, 256
-0.803073, 1, 65, 256, 320
-0.852202, 305, 161, 432, 416
-0.858951, 113, 161, 240, 416
-0.86555, 1, 289, 500, 416
-0.866566, 1, 177, 500, 304
-0.867381, 241, 161, 368, 416
-0.86952, 273, 1, 400, 416
-0.874989, 1, 1, 128, 416
-0.876856, 1, 97, 128, 352
-0.87772, 49, 161, 176, 416
-0.878771, 1, 225, 500, 352
-0.890341, 321, 1, 448, 416
-0.891695, 273, 65, 400, 320
-0.894822, 177, 1, 304, 416
-0.895833, 193, 161, 320, 416
-0.902421, 97, 1, 224, 416
-0.903711, 113, 65, 240, 320
-0.905264, 225, 1, 352, 416
-0.905418, 369, 97, 496, 352
-0.907099, 65, 257, 320, 384
-0.909305, 161, 289, 416, 416
-0.910239, 1, 1, 128, 256
-0.911599, 49, 1, 176, 416
-0.914015, 65, 65, 192, 320
-0.91734, 369, 1, 496, 416
-0.919684, 113, 273, 240, 400
-0.919885, 97, 177, 352, 304
-0.920703, 321, 1, 448, 256
-0.92102, 193, 65, 320, 320
-0.921386, 1, 113, 500, 240
-0.923964, 257, 177, 500, 304
-0.92516, 89, 225, 152, 352
-0.92575, 49, 241, 176, 368
-0.926011, 257, 225, 500, 352
-0.927504, 1, 65, 500, 192
-0.929821, 137, 289, 200, 416
-0.930101, 257, 289, 384, 416
-0.93058, 257, 289, 500, 416
-0.930609, 105, 273, 168, 400
-0.931082, 209, 257, 336, 384
-0.931369, 369, 1, 496, 256
-0.933522, 161, 225, 416, 352
-0.940369, 161, 273, 288, 400
-0.941204, 113, 193, 240, 320
-0.941387, 113, 225, 176, 352
-0.941891, 137, 241, 200, 368
-0.9432, 1, 97, 256, 224
-0.943407, 289, 241, 352, 368
-0.944593, 241, 193, 368, 320
-0.945048, 321, 177, 448, 304
-0.945105, 217, 241, 280, 368
-0.945276, 65, 289, 192, 416
-0.945614, 313, 241, 376, 368
-0.946029, 257, 241, 384, 368
-0.946063, 89, 217, 152, 280
-0.946186, 65, 193, 192, 320
-0.946241, 97, 129, 352, 256
-0.946594, 137, 321, 200, 384
-0.948001, 97, 257, 160, 320
-0.948508, 257, 97, 500, 224
-0.948681, 161, 273, 224, 400
-0.948796, 129, 265, 192, 328
-0.949878, 1, 209, 256, 336
-0.949997, 65, 209, 128, 336
-0.950321, 121, 297, 184, 360
-0.951258, 1, 17, 500, 144
-0.952761, 305, 289, 368, 416
-0.952864, 113, 177, 176, 304
-0.953179, 265, 241, 328, 368
-0.953298, 305, 257, 432, 384
-0.954197, 161, 225, 288, 352
-0.954728, 329, 289, 392, 416
-0.954763, 1, 225, 64, 352
-0.95508, 281, 289, 344, 416
-0.955647, 185, 273, 248, 400
-0.956381, 193, 129, 320, 256
-0.956421, 273, 113, 400, 240
-0.956561, 273, 177, 336, 304
-0.957354, 73, 249, 136, 312
-0.957525, 129, 81, 384, 208
-0.957979, 273, 241, 336, 304
-0.958043, 177, 329, 240, 392
-0.958784, 1, 177, 64, 304
-0.958823, 97, 145, 224, 272
-0.958835, 305, 305, 368, 368
-0.959175, 97, 281, 160, 344
-0.959407, 57, 225, 120, 288
-0.9595, 217, 257, 280, 320
-0.959765, 121, 241, 184, 304
-0.959808, 177, 209, 240, 336
-0.960017, 1, 241, 128, 368
-0.960078, 313, 257, 376, 320
-0.960189, 297, 233, 360, 296
-0.960343, 1, 289, 64, 416
-0.96039, 17, 193, 144, 320
-0.960849, 241, 241, 304, 368
-0.96092, 113, 353, 176, 416
-0.960923, 225, 33, 480, 160
-0.960949, 97, 313, 160, 376
-0.961071, 1, 145, 256, 272
-0.961266, 81, 273, 144, 400
-0.961423, 89, 177, 152, 304
-0.961511, 409, 209, 472, 336
-0.961799, 161, 289, 224, 352
-0.961809, 241, 241, 304, 304
-0.962181, 297, 193, 360, 320
-0.962477, 249, 161, 312, 288
-0.962563, 209, 289, 272, 416
-0.962916, 337, 241, 400, 368
-0.962972, 137, 193, 200, 320
-0.963062, 257, 321, 320, 384
-0.963573, 369, 209, 496, 336
-0.963624, 369, 145, 496, 272
-0.963955, 297, 281, 360, 344
-0.963967, 265, 265, 328, 328
-0.963991, 137, 345, 200, 408
-0.964392, 113, 225, 144, 352
-0.964548, 125, 241, 156, 368
-0.964626, 369, 273, 496, 400
-0.964629, 129, 33, 384, 160
-0.964781, 149, 273, 180, 400
-0.964894, 17, 305, 80, 368
-0.965197, 313, 145, 376, 272
-0.965332, 377, 273, 440, 400
-0.965363, 41, 289, 104, 416
-0.96554, 233, 289, 296, 416
-0.965654, 41, 225, 104, 352
-0.966394, 417, 353, 480, 416
-0.966679, 225, 337, 288, 400
-0.966744, 1, 289, 128, 416
-0.966805, 57, 201, 120, 264
-0.96696, 321, 65, 384, 192
-0.967022, 281, 321, 344, 384
-0.967296, 1, 145, 128, 272
-0.967593, 273, 297, 336, 360
-0.967596, 145, 129, 272, 256
-0.967603, 337, 73, 400, 136
-0.967658, 153, 113, 216, 240
-0.96789, 1, 353, 64, 416
-0.967901, 321, 81, 448, 208
-0.967921, 329, 297, 392, 360
-0.967933, 393, 345, 456, 408
-0.967936, 129, 289, 256, 352
-0.968104, 433, 289, 496, 416
-0.968327, 337, 177, 400, 304
-0.968505, 377, 177, 440, 304
-0.968528, 297, 97, 360, 224
-0.96885, 49, 241, 176, 304
-0.968926, 137, 257, 168, 384
-0.96906, 177, 249, 240, 312
-0.969144, 241, 65, 368, 192
-0.969275, 337, 249, 400, 312
-0.969275, 369, 97, 496, 224
-0.969279, 177, 353, 240, 416
-0.969457, 153, 257, 216, 320
-0.969547, 1, 193, 64, 256
-0.96963, 17, 97, 144, 224
-0.969736, 125, 249, 156, 312
-0.970111, 1, 49, 256, 176
-0.970146, 137, 265, 168, 328
-0.970203, 113, 185, 176, 248
-0.970243, 345, 337, 408, 400
-0.970321, 201, 321, 264, 384
-0.970321, 257, 345, 320, 408
-0.970422, 1, 329, 64, 392
-0.970485, 113, 129, 176, 256
-0.970625, 433, 225, 496, 352
-0.970785, 273, 209, 336, 272
-0.971046, 129, 321, 256, 384
-0.971131, 425, 89, 488, 152
-0.971333, 97, 97, 224, 224
-0.971359, 73, 329, 136, 392
-0.971404, 317, 241, 348, 368
-0.971548, 393, 257, 456, 320
-0.971746, 149, 305, 180, 368
-0.971756, 241, 273, 304, 336
-0.971787, 401, 257, 464, 384
-0.971792, 209, 265, 336, 328
-0.97183, 385, 161, 448, 224
-0.971887, 129, 265, 256, 328
-0.971895, 385, 89, 448, 152
-0.972142, 321, 225, 384, 288
-0.97239, 177, 353, 304, 416
-0.97241, 217, 297, 280, 360
-0.97251, 113, 225, 144, 288
-0.97265, 201, 97, 264, 224
-0.972667, 417, 329, 480, 392
-0.972682, 313, 73, 376, 136
-0.972764, 193, 177, 320, 304
-0.972799, 249, 297, 312, 360
-0.972874, 101, 209, 132, 272
-0.972967, 321, 17, 384, 144
-0.972975, 81, 193, 144, 256
-0.972979, 41, 177, 104, 304
-0.973078, 97, 353, 224, 416
-0.973209, 49, 145, 176, 272
-0.973216, 149, 273, 180, 336
-0.97329, 321, 97, 384, 160
-0.973295, 41, 297, 104, 360
-0.973419, 145, 161, 208, 224
-0.973429, 305, 97, 368, 352
-0.973581, 241, 233, 368, 296
-0.973588, 1, 225, 64, 288
-0.97361, 433, 289, 496, 352
-0.973637, 345, 81, 408, 208
-0.973672, 329, 161, 392, 416
-0.973745, 1, 241, 32, 368
-0.973795, 101, 209, 132, 336
-0.973804, 49, 297, 176, 360
-0.973827, 89, 161, 152, 416
-0.973827, 265, 161, 328, 416
-0.973938, 33, 209, 96, 272
-0.974007, 89, 233, 120, 296
-0.974011, 321, 17, 448, 144
-0.974033, 321, 129, 448, 256
-0.974119, 17, 217, 144, 280
-0.974207, 161, 273, 192, 400
-0.974302, 73, 305, 136, 368
-0.974325, 217, 193, 280, 320
-0.97437, 81, 265, 208, 328
-0.97442, 369, 353, 432, 416
-0.974466, 321, 329, 384, 392
-0.974613, 297, 257, 328, 384
-0.974665, 433, 177, 496, 304
-0.974841, 49, 265, 112, 328
-0.97518, 101, 249, 132, 312
-0.975223, 9, 281, 72, 344
-0.975325, 289, 297, 416, 360
-0.97541, 321, 249, 352, 312
-0.975575, 81, 321, 208, 384
-0.975594, 177, 129, 240, 192
-0.975596, 273, 65, 336, 192
-0.975649, 289, 353, 352, 416
-0.975675, 117, 273, 148, 336
-0.975777, 345, 273, 408, 336
-0.975932, 85, 209, 116, 336
-0.975941, 153, 129, 216, 192
-0.976237, 217, 273, 248, 400
-0.976245, 297, 1, 360, 128
-0.976259, 369, 321, 432, 384
-0.976375, 401, 145, 464, 272
-0.976435, 169, 289, 200, 352
-0.976483, 113, 121, 176, 184
-0.976506, 253, 241, 284, 304
-0.976569, 385, 281, 448, 344
-0.976601, 137, 289, 168, 352
-0.976714, 125, 289, 156, 416
-0.976746, 281, 241, 312, 368
-0.976751, 321, 353, 384, 416
-0.976779, 201, 121, 264, 184
-0.976838, 193, 81, 320, 208
-0.976875, 409, 225, 472, 288
-0.976919, 257, 289, 320, 416
-0.976963, 273, 337, 400, 400
-0.976965, 257, 257, 384, 320
-0.977024, 249, 169, 312, 232
-0.977032, 241, 241, 272, 304
-0.977038, 225, 97, 288, 224
-0.977101, 121, 161, 184, 224
-0.977145, 129, 81, 192, 208
-0.977165, 241, 313, 368, 376
-0.977297, 177, 345, 208, 408
-0.977311, 9, 113, 72, 240
-0.977367, 361, 89, 424, 152
-0.977411, 361, 129, 424, 256
-0.977438, 181, 289, 212, 416
-0.977448, 209, 289, 336, 352
-0.977461, 33, 273, 160, 336
-0.977462, 361, 145, 424, 208
-0.977656, 249, 113, 312, 240
-0.977698, 1, 313, 32, 376
-0.977812, 113, 161, 176, 416
-0.977873, 353, 1, 416, 128
-0.977904, 393, 321, 456, 384
-0.977928, 265, 257, 296, 384
-0.97795, 81, 129, 144, 256
-0.977964, 241, 17, 368, 144
-0.978121, 193, 289, 256, 352
-0.978122, 329, 257, 360, 384
-0.978126, 113, 177, 144, 304
-0.978169, 1, 249, 64, 312
-0.978271, 189, 313, 220, 376
-0.978338, 9, 129, 72, 384
-0.978361, 433, 81, 496, 208
-0.978371, 281, 145, 344, 208
-0.978391, 1, 1, 64, 128
-0.978483, 205, 289, 236, 416
-0.978501, 49, 345, 176, 408
-0.978518, 237, 241, 268, 368
-0.97864, 321, 337, 448, 400
-0.978668, 361, 233, 424, 296
-0.978679, 125, 305, 156, 368
-0.978748, 301, 209, 332, 272
-0.978837, 217, 233, 280, 296
-0.978875, 225, 337, 352, 400
-0.978988, 81, 209, 208, 272
-0.978996, 433, 233, 496, 296
-0.978999, 37, 297, 68, 360
-0.979109, 309, 233, 340, 296
-0.979133, 433, 97, 496, 352
-0.979135, 297, 49, 360, 176
-0.979144, 49, 321, 112, 384
-0.97917, 177, 81, 240, 208
-0.979296, 201, 97, 264, 160
-0.979299, 1, 345, 32, 408
-0.979381, 297, 193, 328, 320
-0.979452, 297, 273, 328, 336
-0.979475, 129, 329, 160, 392
-0.979539, 241, 161, 304, 416
-0.979636, 169, 153, 232, 216
-0.979776, 113, 241, 240, 304
-0.979785, 193, 169, 256, 232
-0.979796, 249, 337, 280, 400
-0.979833, 73, 273, 136, 336
-0.979904, 137, 129, 200, 384
-0.979959, 165, 329, 196, 392
-0.980038, 153, 185, 216, 248
-0.980075, 361, 161, 424, 416
-0.980085, 1, 177, 32, 304
-0.980099, 409, 281, 472, 344
-0.980101, 353, 289, 416, 416
-0.980136, 137, 353, 168, 416
-0.980162, 125, 177, 156, 304
-0.980191, 177, 313, 304, 376
-0.980285, 369, 257, 432, 320
-0.98031, 285, 241, 316, 304
-0.980446, 177, 129, 240, 256
-0.980461, 321, 257, 448, 320
-0.980462, 273, 113, 336, 240
-0.980489, 321, 41, 384, 104
-0.980567, 297, 113, 360, 176
-0.980653, 385, 209, 448, 272
-0.980668, 193, 241, 320, 304
-0.980679, 209, 145, 272, 272
-0.980727, 25, 329, 88, 392
-0.980748, 341, 273, 372, 400
-0.980835, 57, 353, 120, 416
-0.980872, 57, 305, 88, 368
-0.980956, 169, 97, 232, 160
-0.980977, 161, 265, 192, 328
-0.980981, 89, 209, 120, 272
-0.981042, 201, 353, 264, 416
-0.981103, 1, 337, 128, 400
-0.98118, 129, 217, 192, 280
-0.98138, 309, 313, 340, 376
-0.981385, 369, 329, 496, 392
-0.981466, 25, 233, 88, 296
-0.981507, 409, 97, 472, 224
-0.981588, 145, 81, 272, 208
-0.981608, 1, 305, 128, 368
-0.981748, 329, 305, 360, 368
-0.981796, 189, 337, 220, 400
-0.981808, 1, 241, 32, 304
-0.981854, 209, 321, 240, 384
-0.981886, 57, 161, 120, 416
-0.981955, 249, 49, 312, 176
-0.981969, 137, 209, 168, 336
-0.982081, 281, 73, 344, 136
-0.982097, 305, 233, 432, 296
-0.982106, 433, 113, 496, 176
-0.982144, 13, 305, 44, 368
-0.982147, 369, 225, 432, 352
-0.98226, 285, 321, 316, 384
-0.982285, 353, 297, 416, 360
-0.982312, 105, 81, 168, 208
-0.982331, 1, 1, 64, 64
-0.98235, 25, 257, 88, 320
-0.982357, 113, 273, 144, 400
-0.982409, 321, 225, 352, 288
-0.982424, 1, 169, 64, 232
-0.982428, 225, 265, 256, 328
-0.982431, 129, 97, 192, 160
-0.982466, 101, 257, 132, 384
-0.982469, 249, 241, 280, 368
-0.982485, 369, 161, 496, 224
-0.982517, 65, 49, 192, 176
-0.982549, 329, 65, 392, 320
-0.982643, 289, 169, 416, 232
-0.982679, 313, 289, 344, 416
-0.982757, 81, 185, 208, 248
-0.982784, 177, 313, 208, 376
-0.98282, 193, 169, 320, 232
-0.982919, 393, 137, 456, 200
-0.982949, 241, 217, 304, 280
-0.982961, 369, 353, 496, 416
-0.983074, 1, 25, 64, 88
-0.983093, 253, 265, 284, 328
-0.983098, 297, 209, 360, 272
-0.983196, 409, 337, 440, 400
-0.983205, 241, 209, 368, 272
-0.983211, 305, 193, 432, 256
-0.98324, 445, 321, 476, 384
-0.983241, 1, 193, 128, 256
-0.983241, 353, 89, 480, 152
-0.983256, 33, 353, 96, 416
-0.983266, 353, 185, 416, 248
-0.983282, 113, 113, 240, 176
-0.983425, 281, 65, 344, 320
-0.983436, 321, 121, 384, 184
-0.983452, 401, 161, 464, 416
-0.983488, 249, 113, 312, 176
-0.983544, 225, 153, 288, 216
-0.983549, 273, 17, 336, 144
-0.983559, 193, 225, 256, 288
-0.983619, 377, 81, 440, 208
-0.983632, 121, 353, 152, 416
-0.983641, 1, 1, 128, 128
-0.983645, 377, 113, 440, 176
-0.983684, 337, 129, 400, 256
-0.983711, 149, 225, 180, 352
-0.983712, 69, 241, 100, 368
-0.98377, 265, 329, 296, 392
-0.983809, 345, 121, 408, 184
-0.983812, 321, 129, 448, 192
-0.983837, 297, 49, 360, 112
-0.983982, 425, 345, 456, 408
-0.983994, 1, 289, 32, 416
-0.984028, 285, 177, 316, 304
-0.984049, 285, 289, 316, 416
-0.984079, 221, 289, 252, 352
-0.984085, 113, 249, 144, 312
-0.984227, 161, 225, 192, 352
-0.98427, 349, 73, 380, 136
-0.984278, 1, 193, 32, 256
-0.984342, 25, 321, 56, 384
-0.984342, 129, 217, 256, 280
-0.984437, 137, 241, 168, 304
-0.984462, 273, 41, 336, 104
-0.984536, 257, 145, 384, 208
-0.984552, 401, 177, 432, 304
-0.984649, 229, 345, 260, 408
-0.984653, 57, 65, 120, 320
-0.984692, 369, 49, 496, 176
-0.984694, 257, 81, 384, 144
-0.984722, 1, 49, 128, 176
-0.984729, 125, 225, 156, 288
-0.984734, 385, 1, 448, 128
-0.984756, 53, 241, 84, 368
-0.984773, 69, 289, 100, 352
-0.984779, 265, 233, 296, 296
-0.984811, 389, 353, 420, 416
-0.984879, 77, 225, 108, 288
-0.984888, 317, 281, 348, 344
-0.984889, 429, 321, 460, 384
-0.984962, 33, 129, 96, 384
-0.984972, 353, 201, 480, 264
-0.985034, 1, 281, 32, 344
-0.98507, 153, 233, 216, 296
-0.985113, 125, 185, 156, 248
-0.985117, 173, 241, 204, 368
-0.985123, 89, 353, 152, 416
-0.98518, 333, 89, 364, 152
-0.985215, 409, 257, 440, 320
-0.985276, 177, 137, 304, 200
-0.985277, 177, 161, 240, 416
-0.9853, 341, 289, 372, 352
-0.985364, 297, 305, 328, 368
-0.985368, 345, 17, 376, 144
-0.9854, 1, 17, 32, 144
-0.985405, 337, 281, 464, 344
-0.98547, 273, 257, 304, 320
-0.985476, 409, 201, 472, 264
-0.985486, 285, 297, 316, 360
-0.985488, 201, 289, 232, 352
-0.985494, 77, 201, 108, 264
-0.985563, 81, 321, 112, 384
-0.985592, 101, 161, 132, 288
-0.985642, 417, 129, 448, 256
-0.985663, 405, 145, 436, 208
-0.985741, 321, 201, 384, 264
-0.985762, 105, 305, 136, 368
-0.985768, 97, 337, 128, 400
-0.985777, 305, 1, 368, 256
-0.985784, 149, 249, 180, 312
-0.985791, 345, 257, 376, 320
-0.98586, 397, 257, 428, 384
-0.985901, 417, 209, 448, 336
-0.985903, 329, 1, 392, 416
-0.985969, 441, 345, 472, 408
-0.986022, 309, 193, 340, 320
-0.986117, 97, 161, 224, 224
-0.986123, 369, 337, 400, 400
-0.986149, 369, 233, 496, 296
-0.986272, 273, 1, 336, 416
-0.986324, 33, 233, 64, 296
-0.986365, 89, 297, 120, 360
-0.986496, 345, 225, 376, 352
-0.98657, 81, 81, 144, 208
-0.986599, 61, 193, 92, 320
-0.986599, 241, 289, 272, 416
-0.986607, 17, 353, 48, 416
-0.986618, 453, 297, 484, 360
-0.986651, 113, 137, 240, 200
-0.986659, 261, 305, 292, 368
-0.986673, 49, 281, 80, 344
-0.986698, 1, 241, 128, 304
-0.986708, 333, 65, 364, 192
-0.98671, 337, 305, 464, 368
-0.98671, 357, 1, 388, 128
-0.986731, 249, 313, 280, 376
-0.986786, 1, 1, 256, 128
-0.986803, 353, 65, 416, 320
-0.986824, 69, 265, 100, 328
-0.986831, 153, 65, 216, 192
-0.986851, 297, 249, 328, 312
-0.986885, 225, 225, 256, 352
-0.986888, 441, 225, 472, 352
-0.986898, 385, 273, 416, 400
-0.986901, 13, 257, 44, 384
-0.986907, 385, 193, 416, 320
-0.986956, 217, 129, 280, 384
-0.987007, 193, 97, 320, 160
-0.987018, 125, 161, 156, 224
-0.98703, 309, 345, 340, 408
-0.987073, 109, 329, 140, 392
-0.98708, 425, 89, 456, 152
-0.987113, 257, 105, 384, 168
-0.987121, 25, 289, 56, 352
-0.987127, 133, 97, 164, 224
-0.987172, 465, 241, 496, 368
-0.987183, 329, 329, 360, 392
-0.987204, 345, 65, 376, 192
-0.987296, 81, 273, 112, 400
-0.987348, 193, 289, 224, 416
-0.987351, 165, 353, 196, 416
-0.987366, 113, 1, 176, 416
-0.987404, 121, 113, 152, 240
-0.987505, 433, 129, 496, 256
-0.987564, 153, 329, 184, 392
-0.987596, 393, 281, 424, 344
-0.987614, 321, 353, 352, 416
-0.987619, 57, 81, 120, 208
-0.987637, 333, 225, 364, 288
-0.987676, 361, 289, 392, 416
-0.987683, 25, 193, 56, 320
-0.987707, 273, 297, 304, 360
-0.987709, 333, 65, 364, 128
-0.987725, 469, 289, 500, 416
-0.987769, 141, 329, 172, 392
-0.987782, 469, 97, 500, 160
-0.987838, 137, 89, 168, 152
-0.987842, 149, 353, 180, 416
-0.987881, 81, 65, 144, 320
-0.987915, 269, 161, 300, 288
-0.987924, 393, 89, 424, 152
-0.987926, 49, 1, 112, 416
-0.987986, 1, 1, 128, 64
-0.987993, 9, 1, 72, 256
-0.988004, 469, 297, 500, 360
-0.988026, 137, 333, 200, 364
-0.988027, 129, 273, 192, 304
-0.988028, 105, 65, 168, 320
-0.988033, 337, 65, 464, 128
-0.988065, 41, 225, 72, 352
-0.988076, 309, 113, 340, 240
-0.988086, 441, 289, 472, 416
-0.988119, 273, 41, 400, 104
-0.988125, 449, 89, 480, 152
-0.988128, 49, 329, 80, 392
-0.988181, 385, 97, 416, 224
-0.988216, 89, 225, 152, 256
-0.988252, 381, 313, 412, 376
-0.988274, 421, 217, 452, 280
-0.98829, 185, 129, 216, 256
-0.988295, 113, 89, 240, 152
-0.988319, 1, 41, 32, 104
-0.988348, 13, 225, 44, 288
-0.988431, 13, 145, 44, 272
-0.98844, 101, 185, 132, 248
-0.988506, 157, 113, 188, 240
-0.988539, 205, 97, 236, 160
-0.988564, 425, 33, 488, 160
-0.988583, 229, 97, 260, 224
-0.988598, 465, 81, 496, 208
-0.988613, 129, 137, 160, 200
-0.988669, 5, 169, 36, 232
-0.988675, 177, 33, 304, 160
-0.988698, 65, 217, 96, 280
-0.988762, 425, 297, 456, 360
-0.98881, 137, 321, 200, 352
-0.988818, 73, 1, 136, 416
-0.988837, 369, 1, 496, 128
-0.988841, 341, 113, 372, 176
-0.98885, 137, 309, 200, 340
-0.98886, 105, 261, 168, 292
-0.988901, 25, 201, 56, 264
-0.988962, 289, 185, 320, 248
-0.988963, 349, 313, 380, 376
-0.988994, 397, 249, 428, 312
-0.989013, 257, 253, 320, 284
-0.989017, 57, 233, 120, 264
-0.989028, 37, 321, 68, 384
-0.989034, 121, 113, 152, 176
-0.989038, 97, 329, 352, 392
-0.989095, 325, 193, 356, 320
-0.98911, 233, 253, 296, 284
-0.989119, 245, 193, 276, 320
-0.989152, 229, 321, 260, 384
-0.989193, 1, 17, 32, 80
-0.989193, 97, 249, 160, 280
-0.989221, 137, 285, 200, 316
-0.989245, 369, 137, 496, 200
-0.98926, 357, 353, 388, 416
-0.989279, 397, 169, 428, 232
-0.989382, 145, 381, 208, 412
-0.989398, 65, 249, 128, 280
-0.989407, 453, 225, 484, 352
-0.989476, 217, 269, 280, 300
-0.98948, 129, 297, 192, 328
-0.989492, 297, 261, 360, 292
-0.989494, 453, 289, 484, 416
-0.989518, 277, 97, 308, 224
-0.989533, 105, 333, 168, 364
-0.989546, 145, 169, 272, 232
-0.989577, 321, 17, 448, 80
-0.989587, 89, 237, 152, 268
-0.989599, 1, 1, 64, 416
-0.989623, 97, 297, 352, 360
-0.989672, 273, 269, 336, 300
-0.989678, 225, 345, 288, 376
-0.989688, 305, 105, 432, 168
-0.989698, 241, 65, 304, 320
-0.989727, 249, 1, 312, 416
-0.989738, 57, 217, 120, 248
-0.989746, 421, 273, 452, 400
-0.989757, 65, 105, 192, 168
-0.989759, 81, 265, 144, 296
-0.989799, 145, 345, 208, 376
-0.989839, 169, 317, 232, 348
-0.989856, 129, 253, 192, 284
-0.989884, 317, 65, 348, 192
-0.989884, 429, 209, 460, 336
-0.989889, 305, 289, 368, 320
-0.989892, 405, 129, 436, 256
-0.989894, 297, 249, 360, 280
-0.989908, 105, 273, 168, 304
-0.989939, 305, 1, 368, 416
-0.989946, 353, 1, 416, 416
-0.989947, 121, 33, 184, 160
-0.989953, 241, 241, 304, 272
-0.990012, 185, 341, 248, 372
-0.990012, 393, 1, 456, 416
-0.99002, 73, 193, 104, 320
-0.990022, 97, 285, 160, 316
-0.990045, 137, 369, 200, 400
-0.990048, 261, 209, 292, 336
-0.990065, 313, 229, 376, 260
-0.990093, 213, 113, 244, 240
-0.990118, 113, 317, 176, 348
-0.990124, 177, 281, 240, 312
-0.99014, 357, 97, 388, 224
-0.990144, 257, 345, 320, 376
-0.990201, 225, 57, 352, 120
-0.990217, 169, 369, 232, 400
-0.990223, 105, 349, 168, 380
-0.99024, 81, 341, 144, 372
-0.990241, 177, 329, 240, 360
-0.990249, 329, 17, 360, 144
-0.990257, 17, 309, 80, 340
-0.990262, 65, 137, 192, 200
-0.990328, 337, 161, 368, 288
-0.990336, 1, 321, 64, 352
-0.990455, 1, 337, 256, 400
-0.990483, 257, 329, 320, 360
-0.990487, 321, 77, 384, 108
-0.990494, 1, 365, 64, 396
-0.990502, 369, 113, 496, 176
-0.990513, 97, 273, 352, 336
-0.990514, 97, 249, 352, 312
-0.990525, 1, 153, 128, 216
-0.990533, 161, 301, 224, 332
-0.990549, 105, 301, 168, 332
-0.990569, 113, 361, 176, 392
-0.990575, 217, 357, 280, 388
-0.990577, 313, 305, 376, 336
-0.990587, 425, 81, 456, 208
-0.990636, 201, 325, 264, 356
-0.990641, 121, 241, 184, 272
-0.990644, 297, 385, 360, 416
-0.990656, 281, 373, 344, 404
-0.990663, 185, 357, 248, 388
-0.990666, 193, 241, 448, 304
-0.990674, 89, 213, 152, 244
-0.990692, 289, 313, 352, 344
-0.990708, 337, 337, 400, 368
-0.990711, 337, 273, 400, 304
-0.990726, 297, 277, 360, 308
-0.990728, 217, 281, 280, 312
-0.990733, 1, 297, 500, 360
-0.990796, 113, 213, 176, 244
-0.990806, 9, 261, 72, 292
-0.990812, 273, 281, 336, 312
-0.990814, 281, 297, 344, 328
-0.990822, 225, 49, 288, 176
-0.990842, 425, 97, 488, 128
-0.990858, 33, 245, 96, 276
-0.99086, 57, 205, 120, 236
-0.990871, 377, 337, 440, 368
-0.990882, 1, 233, 64, 264
-0.990888, 337, 301, 400, 332
-0.99089, 337, 373, 400, 404
-0.990893, 289, 237, 352, 268
-0.990898, 205, 225, 236, 352
-0.990916, 385, 93, 448, 124
-0.990923, 25, 257, 56, 384
-0.990937, 129, 161, 192, 192
-0.990939, 85, 161, 116, 288
-0.990945, 145, 357, 208, 388
-0.990947, 201, 253, 264, 284
-0.99095, 313, 337, 376, 368
-0.990957, 337, 289, 400, 320
-0.990959, 217, 1, 280, 416
-0.990968, 393, 269, 456, 300
-0.990968, 137, 161, 168, 288
-0.990971, 241, 269, 304, 300
-0.990972, 1, 377, 64, 408
-0.990981, 401, 345, 464, 376
-0.990984, 293, 49, 324, 176
-0.990995, 177, 269, 240, 300
-0.991021, 33, 217, 96, 248
-0.991042, 1, 65, 32, 192
-0.991043, 25, 325, 88, 356
-0.991066, 17, 353, 80, 384
-0.991069, 217, 293, 280, 324
-0.991089, 113, 125, 176, 156
-0.991101, 249, 381, 312, 412
-0.991107, 153, 257, 216, 288
-0.991125, 377, 361, 440, 392
-0.991132, 25, 1, 88, 416
-0.99114, 217, 241, 280, 272
-0.991163, 161, 101, 224, 132
-0.991165, 1, 129, 128, 192
-0.991174, 1, 293, 64, 324
-0.991187, 53, 289, 84, 416
-0.991206, 169, 381, 232, 412
-0.99124, 257, 361, 320, 392
-0.991254, 313, 373, 376, 404
-0.99126, 417, 357, 480, 388
-0.991267, 353, 349, 416, 380
-0.991268, 177, 257, 240, 288
-0.991269, 33, 33, 96, 288
-0.991271, 9, 337, 72, 368
-0.99128, 433, 297, 496, 328
-0.99128, 417, 333, 480, 364
-0.991288, 369, 257, 432, 288
-0.991295, 57, 333, 120, 364
-0.991303, 81, 329, 144, 360
-0.991326, 137, 1, 200, 416
-0.99134, 377, 381, 440, 412
-0.991345, 13, 97, 44, 224
-0.99136, 433, 1, 496, 416
-0.991377, 153, 273, 216, 304
-0.991388, 337, 253, 400, 284
-0.99139, 321, 105, 384, 136
-0.991393, 241, 177, 368, 240
-0.991402, 25, 229, 88, 260
-0.991404, 233, 333, 296, 364
-0.991411, 201, 105, 264, 136
-0.991431, 169, 161, 232, 192
-0.991434, 273, 17, 400, 80
-0.991435, 257, 297, 500, 360
-0.991436, 353, 321, 416, 352
-0.991441, 433, 369, 496, 400
-0.991446, 121, 173, 184, 204
-0.991455, 49, 321, 112, 352
-0.991456, 257, 217, 500, 280
-0.991457, 345, 93, 408, 124
-0.991461, 321, 241, 384, 272
-0.991465, 57, 385, 120, 416
-0.991467, 25, 365, 88, 396
-0.991476, 209, 125, 272, 156
-0.991489, 393, 285, 456, 316
-0.991504, 281, 341, 344, 372
-0.991508, 313, 121, 376, 152
-0.991517, 377, 325, 440, 356
-0.991518, 321, 145, 352, 272
-0.991528, 25, 205, 88, 236
-0.991535, 81, 373, 144, 404
-0.991574, 1, 241, 500, 304
-0.991574, 201, 97, 232, 224
-0.99158, 257, 161, 288, 288
-0.991581, 1, 305, 256, 368
-0.991659, 401, 65, 432, 192
-0.99174, 13, 209, 44, 336
-0.991791, 65, 201, 320, 264
-0.991832, 249, 1, 312, 128
-0.99186, 385, 145, 416, 272
-0.991882, 357, 177, 388, 304
-0.991886, 65, 289, 96, 416
-0.99191, 373, 177, 404, 304
-0.991937, 409, 257, 440, 384
-0.991984, 393, 33, 456, 288
-0.992038, 65, 225, 320, 288
-0.992041, 165, 177, 196, 304
-0.99207, 337, 113, 368, 240
-0.992084, 373, 257, 404, 384
-0.992092, 161, 353, 416, 416
-0.992105, 1, 321, 500, 384
-0.99212, 1, 281, 256, 344
-0.992128, 1, 49, 64, 176
-0.992172, 253, 289, 284, 416
-0.992195, 145, 305, 176, 336
-0.9922, 193, 321, 448, 384
-0.992233, 93, 249, 124, 280
-0.992241, 469, 145, 500, 272
-0.992243, 233, 177, 264, 304
-0.992245, 101, 217, 132, 248
-0.992304, 433, 1, 496, 256
-0.992308, 161, 273, 192, 304
-0.992334, 261, 253, 292, 284
-0.992378, 193, 265, 448, 328
-0.992381, 369, 257, 496, 320
-0.992386, 129, 257, 160, 288
-0.992399, 369, 1, 400, 128
-0.992418, 245, 345, 276, 376
-0.99242, 81, 33, 144, 160
-0.992425, 185, 329, 216, 360
-0.992488, 85, 237, 116, 268
-0.992489, 321, 229, 352, 260
-0.992511, 105, 261, 136, 292
-0.992514, 249, 249, 280, 280
-0.992515, 165, 305, 196, 336
-0.992536, 1, 193, 500, 256
-0.992541, 137, 269, 168, 300
-0.99255, 285, 253, 316, 284
-0.992553, 253, 113, 284, 240
-0.992557, 125, 313, 156, 344
-0.992564, 293, 129, 324, 256
-0.992567, 125, 325, 156, 356
-0.992583, 197, 161, 228, 288
-0.992593, 121, 245, 152, 276
-0.992602, 169, 381, 200, 412
-0.992623, 81, 225, 112, 256
-0.992624, 153, 373, 184, 404
-0.992632, 181, 373, 212, 404
-0.992633, 305, 241, 336, 272
-0.992645, 233, 253, 264, 284
-0.992654, 157, 293, 188, 324
-0.99266, 441, 177, 472, 304
-0.992672, 1, 97, 128, 160
-0.992673, 173, 333, 204, 364
-0.992679, 1, 317, 32, 348
-0.99268, 149, 317, 180, 348
-0.992682, 1, 245, 32, 276
-0.992688, 5, 377, 36, 408
-0.992696, 149, 277, 180, 308
-0.992713, 301, 277, 332, 308
-0.992721, 1, 273, 500, 336
-0.992731, 109, 229, 140, 260
-0.992739, 265, 345, 296, 376
-0.992743, 141, 369, 172, 400
-0.992746, 129, 337, 160, 368
-0.992759, 265, 333, 296, 364
-0.992766, 249, 237, 280, 268
-0.992766, 173, 129, 204, 256
-0.992767, 173, 317, 204, 348
-0.992768, 185, 241, 216, 368
-0.992772, 401, 49, 464, 176
-0.992777, 313, 377, 344, 408
-0.992778, 189, 341, 220, 372
-0.992779, 125, 285, 156, 316
-0.992798, 137, 293, 168, 324
-0.992799, 441, 361, 472, 392
-0.992804, 1, 353, 32, 384
-0.992805, 13, 317, 44, 348
-0.992821, 297, 309, 328, 340
-0.992832, 293, 373, 324, 404
-0.992832, 129, 281, 256, 312
-0.992841, 181, 385, 212, 416
-0.992842, 321, 41, 448, 104
-0.992844, 253, 269, 284, 300
-0.992845, 133, 353, 164, 384
-0.992847, 309, 317, 340, 348
-0.99285, 117, 273, 148, 304
-0.992851, 193, 317, 224, 348
-0.992855, 425, 93, 456, 124
-0.992856, 409, 345, 440, 376
-0.992864, 193, 193, 320, 256
-0.992866, 313, 253, 344, 284
-0.992869, 309, 213, 340, 244
-0.992876, 161, 317, 192, 348
-0.992876, 137, 233, 168, 264
-0.992879, 169, 257, 200, 288
-0.992882, 465, 141, 496, 172
-0.992884, 325, 309, 356, 340
-0.992891, 1, 301, 32, 332
-0.992896, 33, 325, 64, 356
-0.992896, 469, 101, 500, 132
-0.992903, 253, 333, 284, 364
-0.992906, 405, 261, 436, 292
-0.99291, 9, 365, 40, 396
-0.992912, 417, 361, 448, 392
-0.992914, 221, 285, 252, 316
-0.992917, 209, 273, 336, 304
-0.992919, 141, 257, 156, 320
-0.992919, 317, 297, 348, 328
-0.992921, 449, 65, 480, 192
-0.992922, 429, 361, 460, 392
-0.992922, 169, 285, 200, 316
-0.992926, 177, 361, 208, 392
-0.992929, 357, 337, 388, 368
-0.992929, 201, 333, 232, 364
-0.992929, 329, 101, 360, 132
-0.992939, 405, 149, 436, 180
-0.992943, 353, 77, 384, 108
-0.992944, 429, 145, 460, 272
-0.992948, 341, 337, 372, 368
-0.99295, 225, 33, 352, 96
-0.992952, 341, 301, 372, 332
-0.992959, 5, 233, 36, 264
-0.992965, 333, 77, 364, 108
-0.992968, 337, 373, 368, 404
-0.992968, 229, 349, 260, 380
-0.992969, 109, 337, 140, 368
-0.992971, 201, 361, 232, 392
-0.992973, 5, 1, 36, 32
-0.992974, 297, 265, 328, 296
-0.992976, 317, 365, 348, 396
-0.99298, 265, 273, 296, 304
-0.992982, 177, 345, 208, 376
-0.992982, 165, 369, 196, 400
-0.992989, 261, 241, 292, 272
-0.992991, 133, 241, 148, 304
-0.992991, 273, 253, 304, 284
-0.992991, 61, 265, 92, 296
-0.992992, 1, 261, 32, 292
-0.992996, 197, 125, 228, 156
-0.992997, 49, 161, 176, 224
-0.992998, 393, 257, 424, 288
-0.993006, 345, 113, 376, 144
-0.993011, 33, 309, 64, 340
-0.993012, 321, 321, 352, 352
-0.993013, 405, 361, 436, 392
-0.993013, 377, 341, 408, 372
-0.993014, 333, 385, 364, 416
-0.993015, 329, 113, 360, 144
-0.993018, 41, 177, 72, 304
-0.993023, 433, 349, 464, 380
-0.993024, 437, 373, 468, 404
-0.993025, 1, 277, 32, 308
-0.993025, 145, 245, 176, 276
-0.993034, 141, 97, 172, 128
-0.993038, 49, 233, 80, 264
-0.993039, 49, 245, 80, 276
-0.99304, 285, 325, 316, 356
-0.99304, 81, 205, 112, 236
-0.993042, 1, 217, 32, 248
-0.993045, 421, 373, 452, 404
-0.993045, 385, 381, 416, 412
-0.993048, 1, 129, 32, 256
-0.993048, 225, 273, 256, 304
-0.993056, 53, 313, 84, 344
-0.993058, 133, 385, 164, 416
-0.993058, 369, 373, 400, 404
-0.99306, 349, 93, 380, 124
-0.993061, 465, 309, 496, 340
-0.993061, 57, 377, 88, 408
-0.993063, 129, 221, 160, 252
-0.993065, 69, 253, 100, 284
-0.993066, 153, 385, 184, 416
-0.993066, 1, 329, 32, 360
-0.993106, 369, 49, 400, 176
-0.993124, 129, 193, 256, 256
-0.993153, 189, 81, 220, 208
-0.993173, 437, 81, 468, 208
-0.993231, 129, 345, 256, 376
-0.993354, 147, 265, 162, 328
-0.993364, 257, 345, 500, 408
-0.993408, 41, 273, 72, 400
-0.993409, 149, 161, 180, 288
-0.993457, 129, 293, 256, 324
-0.993474, 413, 81, 444, 208
-0.993474, 121, 225, 136, 288
-0.993543, 169, 1, 232, 416
-0.993557, 81, 273, 208, 304
-0.993568, 49, 249, 176, 280
-0.993588, 97, 169, 352, 232
-0.993624, 193, 65, 256, 320
-0.993636, 101, 217, 116, 280
-0.993697, 257, 241, 272, 304
-0.993719, 129, 269, 256, 300
-0.993728, 127, 233, 142, 296
-0.993795, 257, 193, 500, 256
-0.993819, 113, 317, 240, 348
-0.993833, 1, 257, 256, 320
-0.993857, 257, 169, 500, 232
-0.993864, 241, 261, 368, 292
-0.993905, 97, 365, 224, 396
-0.993917, 65, 81, 192, 144
-0.993974, 33, 113, 96, 240
-0.994026, 289, 265, 416, 296
-0.994055, 127, 265, 142, 328
-0.994056, 161, 73, 288, 136
-0.994067, 209, 285, 336, 316
-0.994087, 1, 353, 500, 416
-0.994107, 111, 217, 126, 280
-0.994111, 137, 281, 152, 344
-0.994113, 113, 333, 240, 364
-0.994143, 157, 273, 172, 336
-0.994154, 81, 293, 208, 324
-0.994168, 369, 1, 496, 64
-0.994185, 49, 261, 176, 292
-0.994292, 93, 225, 108, 288
-0.994321, 129, 33, 256, 160
-0.994369, 111, 249, 126, 312
-0.99439, 143, 289, 158, 352
-0.994407, 149, 297, 164, 360
-0.994414, 241, 241, 368, 272
-0.994415, 161, 325, 288, 356
-0.994424, 183, 345, 198, 408
-0.994432, 1, 25, 128, 88
-0.994457, 105, 241, 120, 304
-0.99449, 49, 305, 176, 336
-0.99451, 119, 257, 134, 320
-0.994518, 177, 357, 304, 388
-0.994575, 183, 321, 198, 384
-0.994686, 165, 273, 180, 336
-0.99469, 129, 305, 256, 336
-0.994718, 1, 217, 128, 248
-0.994732, 349, 89, 364, 152
-0.994741, 129, 257, 256, 288
-0.994764, 49, 225, 176, 256
-0.994773, 137, 305, 152, 368
-0.994784, 49, 325, 176, 356
-0.994802, 33, 49, 96, 176
-0.994817, 1, 169, 500, 232
-0.994825, 193, 217, 320, 280
-0.994861, 289, 297, 416, 328
-0.994865, 263, 233, 278, 296
-0.994905, 49, 349, 176, 380
-0.994917, 257, 277, 384, 308
-0.99496, 65, 377, 192, 408
-0.994996, 33, 237, 160, 268
-0.995004, 193, 305, 208, 368
-0.995024, 129, 89, 384, 152
-0.995066, 1, 361, 128, 392
-0.995079, 1, 137, 500, 200
-0.995082, 1, 217, 500, 280
-0.995089, 189, 329, 204, 392
-0.995131, 319, 313, 334, 376
-0.995137, 141, 329, 156, 392
-0.995146, 171, 297, 186, 360
-0.995209, 1, 137, 256, 200
-0.995215, 49, 337, 176, 368
-0.995231, 329, 217, 344, 280
-0.995246, 3, 321, 18, 384
-0.995252, 161, 65, 224, 320
-0.99526, 1, 81, 500, 144
-0.995298, 177, 337, 192, 400
-0.995313, 323, 233, 338, 296
-0.995314, 289, 253, 416, 284
-0.995323, 221, 281, 236, 344
-0.995325, 257, 337, 384, 368
-0.995352, 227, 265, 242, 328
-0.995379, 369, 369, 496, 400
-0.995399, 317, 241, 332, 304
-0.995401, 177, 369, 304, 400
-0.995418, 177, 49, 304, 112
-0.995429, 149, 353, 164, 416
-0.995433, 281, 257, 296, 320
-0.995448, 315, 273, 330, 336
-0.995468, 337, 337, 464, 368
-0.99548, 97, 241, 224, 272
-0.995499, 305, 241, 432, 272
-0.995505, 113, 377, 240, 408
-0.995506, 257, 89, 500, 152
-0.995512, 289, 369, 416, 400
-0.995518, 177, 337, 304, 368
-0.995519, 113, 177, 240, 208
-0.99553, 241, 297, 368, 328
-0.995547, 1, 105, 256, 168
-0.995576, 81, 209, 208, 240
-0.995581, 147, 241, 162, 304
-0.995586, 485, 97, 500, 160
-0.995588, 1, 305, 128, 336
-0.995595, 275, 249, 290, 312
-0.995626, 193, 305, 320, 336
-0.995639, 49, 41, 176, 104
-0.995643, 35, 297, 50, 360
-0.995656, 289, 309, 416, 340
-0.995669, 139, 233, 154, 296
-0.995679, 321, 381, 448, 412
-0.995682, 349, 265, 364, 328
-0.995686, 189, 353, 204, 416
-0.995692, 21, 353, 36, 416
-0.995705, 293, 241, 308, 304
-0.995721, 333, 305, 348, 368
-0.99573, 1, 241, 16, 304
-0.995747, 305, 285, 432, 316
-0.995748, 41, 305, 56, 368
-0.995761, 363, 9, 378, 72
-0.995766, 249, 241, 264, 304
-0.995773, 11, 353, 26, 416
-0.995795, 209, 321, 336, 352
-0.995811, 99, 241, 114, 304
-0.995833, 33, 289, 160, 320
-0.995845, 1, 73, 128, 136
-0.995853, 171, 273, 186, 336
-0.995856, 1, 385, 128, 416
-0.995863, 263, 257, 278, 320
-0.995874, 225, 9, 352, 72
-0.995882, 257, 325, 384, 356
-0.995888, 271, 337, 286, 400
-0.995894, 105, 161, 136, 416
-0.995902, 33, 273, 160, 304
-0.995909, 269, 241, 284, 304
-0.995921, 325, 313, 340, 376
-0.995934, 1, 345, 16, 408
-0.995943, 297, 297, 312, 360
-0.995963, 177, 305, 192, 368
-0.995965, 305, 229, 432, 260
-0.995973, 119, 201, 134, 264
-0.995997, 323, 209, 338, 272
-0.995997, 309, 265, 324, 328
-0.995997, 215, 321, 230, 384
-0.995997, 59, 305, 74, 368
-0.996024, 5, 193, 20, 256
-0.996028, 17, 313, 32, 376
-0.996032, 113, 133, 240, 164
-0.996033, 399, 337, 414, 400
-0.996041, 163, 297, 178, 360
-0.996059, 303, 257, 318, 320
-0.996062, 225, 145, 480, 208
-0.996073, 161, 381, 288, 412
-0.996083, 311, 209, 326, 272
-0.996086, 353, 357, 480, 388
-0.996087, 261, 321, 276, 384
-0.996101, 339, 257, 354, 320
-0.996106, 443, 329, 458, 392
-0.996116, 27, 321, 42, 384
-0.996151, 321, 281, 336, 344
-0.996159, 135, 113, 150, 176
-0.996161, 313, 305, 328, 368
-0.996165, 97, 129, 352, 192
-0.996179, 347, 289, 362, 352
-0.99618, 335, 225, 350, 288
-0.996198, 317, 209, 332, 272
-0.9962, 131, 297, 146, 360
-0.996203, 193, 177, 320, 208
-0.996205, 289, 313, 304, 376
-0.996213, 233, 257, 248, 320
-0.996213, 417, 249, 432, 312
-0.996218, 337, 257, 464, 288
-0.996219, 103, 337, 118, 400
-0.996222, 47, 297, 62, 360
-0.996228, 343, 73, 358, 136
-0.996228, 1, 161, 256, 224
-0.996247, 421, 145, 436, 208
-0.99627, 355, 73, 370, 136
-0.996277, 153, 249, 168, 312
-0.996277, 33, 321, 48, 384
-0.996289, 23, 297, 38, 360
-0.996289, 129, 161, 160, 416
-0.996292, 113, 157, 240, 188
-0.996296, 155, 305, 170, 368
-0.996298, 193, 257, 320, 288
-0.9963, 419, 337, 434, 400
-0.996316, 197, 329, 212, 392
-0.996321, 241, 309, 368, 340
-0.996323, 257, 265, 272, 328
-0.996325, 161, 217, 416, 280
-0.996327, 429, 345, 444, 408
-0.99633, 185, 249, 200, 312
-0.996338, 247, 337, 262, 400
-0.996361, 337, 273, 464, 304
-0.996387, 209, 381, 336, 412
-0.996407, 321, 161, 352, 416
-0.996415, 257, 357, 384, 388
-0.99642, 269, 265, 284, 328
-0.996428, 171, 329, 186, 392
-0.996431, 289, 193, 416, 224
-0.996432, 161, 157, 288, 188
-0.996435, 449, 321, 464, 384
-0.996445, 203, 329, 218, 392
-0.996448, 161, 129, 288, 160
-0.996468, 129, 33, 192, 288
-0.996491, 1, 161, 32, 416
-0.996501, 97, 197, 224, 228
-0.996501, 337, 297, 464, 328
-0.996507, 127, 209, 142, 272
-0.99652, 91, 313, 106, 376
-0.996522, 265, 345, 280, 408
-0.996525, 241, 353, 256, 416
-0.996529, 255, 329, 270, 392
-0.996536, 303, 321, 318, 384
-0.996541, 25, 209, 40, 272
-0.996547, 57, 33, 120, 160
-0.996552, 333, 89, 348, 152
-0.996553, 53, 313, 68, 376
-0.996557, 11, 329, 26, 392
-0.996566, 91, 201, 106, 264
-0.996577, 51, 273, 66, 336
-0.996605, 85, 257, 100, 320
-0.996607, 305, 325, 432, 356
-0.99661, 33, 205, 160, 236
-0.996621, 411, 353, 426, 416
-0.996631, 405, 145, 420, 208
-0.996637, 107, 297, 122, 360
-0.996639, 209, 329, 224, 392
-0.996643, 353, 93, 480, 124
-0.996643, 177, 273, 192, 336
-0.996655, 283, 313, 298, 376
-0.996655, 397, 81, 412, 144
-0.996656, 1, 373, 128, 404
-0.996671, 129, 97, 256, 128
-0.996673, 147, 329, 162, 392
-0.996679, 211, 97, 226, 160
-0.99669, 439, 353, 454, 416
-0.996692, 143, 353, 158, 416
-0.996723, 113, 145, 240, 176
-0.996737, 49, 361, 176, 392
-0.996752, 225, 229, 352, 260
-0.996776, 97, 225, 224, 256
-0.996779, 1, 321, 128, 352
-0.99679, 1, 249, 128, 280
-0.996825, 225, 121, 480, 184
-0.996858, 305, 205, 432, 236
-0.996866, 225, 213, 352, 244
-0.99687, 183, 329, 198, 360
-0.99688, 1, 261, 128, 292
-0.996902, 257, 381, 384, 412
-0.996915, 57, 129, 120, 256
-0.996919, 273, 177, 400, 208
-0.996921, 161, 245, 288, 276
-0.996934, 369, 325, 496, 356
-0.996945, 113, 117, 240, 148
-0.996975, 337, 153, 464, 184
-0.996986, 305, 349, 432, 380
-0.997036, 301, 161, 332, 416
-0.997045, 465, 129, 496, 384
-0.997049, 183, 381, 198, 412
-0.997069, 257, 77, 384, 108
-0.997082, 241, 369, 368, 400
-0.997086, 257, 65, 500, 128
-0.997088, 305, 133, 432, 164
-0.997095, 107, 249, 122, 280
-0.997096, 101, 245, 116, 276
-0.997108, 193, 189, 320, 220
-0.997116, 193, 1, 256, 416
-0.997137, 353, 221, 480, 252
-0.997149, 113, 65, 240, 128
-0.997155, 337, 109, 464, 140
-0.997168, 103, 217, 118, 248
-0.997195, 117, 161, 148, 416
-0.997222, 65, 133, 192, 164
-0.997262, 337, 165, 464, 196
-0.997266, 257, 89, 384, 120
-0.997276, 209, 137, 336, 168
-0.997282, 257, 25, 500, 88
-0.997299, 217, 33, 280, 288
-0.997299, 65, 161, 192, 192
-0.997315, 241, 149, 368, 180
-0.997325, 1, 333, 128, 364
-0.997331, 65, 145, 192, 176
-0.997331, 255, 241, 270, 272
-0.997333, 95, 233, 110, 264
-0.997333, 1, 1, 128, 32
-0.997339, 353, 285, 480, 316
-0.997341, 369, 381, 496, 412
-0.997363, 345, 161, 376, 416
-0.997366, 273, 113, 400, 144
-0.997377, 13, 97, 44, 352
-0.997391, 177, 381, 192, 412
-0.997394, 259, 261, 274, 292
-0.997404, 115, 257, 130, 288
-0.997424, 321, 221, 336, 252
-0.997465, 273, 45, 400, 76
-0.99747, 177, 97, 304, 128
-0.997474, 369, 233, 496, 264
-0.997477, 477, 141, 492, 172
-0.997495, 281, 161, 312, 416
-0.997498, 165, 301, 180, 332
-0.997511, 163, 269, 178, 300
-0.997511, 369, 141, 496, 172
-0.99752, 127, 269, 142, 300
-0.997547, 145, 161, 176, 416
-0.997549, 241, 101, 368, 132
-0.997569, 133, 277, 148, 308
-0.997599, 161, 145, 288, 176
-0.997601, 193, 317, 208, 348
-0.997601, 65, 121, 192, 152
-0.997607, 93, 161, 124, 416
-0.997613, 273, 165, 400, 196
-0.997634, 305, 217, 432, 248
-0.997638, 161, 113, 288, 144
-0.997642, 209, 201, 336, 232
-0.997643, 269, 161, 300, 416
-0.997643, 263, 241, 278, 272
-0.997644, 145, 293, 160, 324
-0.997668, 357, 161, 388, 416
-0.99768, 121, 261, 136, 292
-0.9977, 161, 65, 416, 128
-0.997701, 269, 257, 284, 288
-0.997707, 169, 161, 200, 416
-0.997711, 193, 329, 208, 360
-0.997714, 9, 373, 24, 404
-0.997715, 3, 249, 18, 280
-0.997739, 157, 369, 172, 400
-0.997743, 267, 341, 282, 372
-0.997745, 251, 341, 266, 372
-0.997747, 143, 261, 158, 292
-0.997749, 1, 1, 32, 256
-0.997752, 369, 189, 496, 220
-0.997768, 291, 245, 306, 276
-0.997771, 139, 313, 154, 344
-0.997772, 209, 125, 336, 156
-0.997778, 323, 233, 338, 264
-0.997786, 149, 269, 164, 300
-0.997795, 305, 93, 432, 124
-0.997798, 159, 309, 174, 340
-0.997804, 247, 249, 262, 280
-0.997808, 425, 153, 440, 184
-0.997808, 1, 113, 500, 176
-0.997809, 15, 353, 30, 384
-0.997815, 167, 373, 182, 404
-0.997817, 139, 285, 154, 316
-0.997818, 95, 221, 110, 252
-0.997823, 91, 245, 106, 276
-0.997823, 161, 193, 416, 256
-0.997854, 119, 213, 134, 244
-0.997855, 17, 141, 144, 172
-0.997857, 301, 253, 316, 284
-0.997859, 177, 273, 192, 304
-0.997863, 149, 357, 164, 388
-0.997866, 1, 349, 128, 380
-0.997869, 315, 277, 330, 308
-0.99787, 221, 125, 236, 156
-0.997876, 333, 129, 364, 384
-0.997882, 257, 161, 288, 416
-0.997886, 369, 25, 496, 88
-0.997888, 173, 313, 188, 344
-0.997889, 205, 337, 220, 368
-0.997889, 191, 377, 206, 408
-0.997893, 171, 301, 186, 332
-0.9979, 145, 193, 272, 224
-0.997905, 347, 105, 362, 136
-0.997905, 321, 81, 448, 112
-0.997906, 223, 285, 238, 316
-0.99791, 241, 161, 272, 416
-0.99792, 185, 345, 200, 376
-0.997934, 175, 289, 190, 320
-0.997935, 243, 349, 258, 380
-0.997937, 159, 293, 174, 324
-0.997949, 101, 233, 116, 264
-0.997953, 177, 333, 192, 364
-0.997953, 191, 361, 206, 392
-0.997954, 361, 25, 376, 56
-0.997955, 49, 101, 176, 132
-0.997959, 485, 385, 500, 416
-0.997961, 319, 317, 334, 348
-0.997967, 121, 333, 136, 364
-0.997968, 213, 329, 228, 360
-0.997969, 485, 133, 500, 164
-0.997969, 141, 333, 156, 364
-0.997986, 281, 257, 296, 288
-0.997996, 479, 305, 494, 336
-0.997998, 135, 253, 150, 284
-0.997999, 443, 361, 458, 392
-0.998001, 1, 13, 128, 44
-0.998006, 257, 1, 500, 64
-0.998007, 309, 265, 324, 296
-0.998008, 349, 117, 364, 148
-0.99801, 43, 305, 58, 336
-0.998014, 335, 385, 350, 416
-0.998021, 349, 93, 364, 124
-0.998022, 211, 129, 226, 160
-0.998024, 193, 345, 208, 376
-0.998025, 407, 257, 422, 288
-0.99803, 317, 65, 348, 320
-0.998035, 167, 317, 182, 348
-0.998046, 389, 161, 420, 416
-0.998048, 3, 317, 18, 348
-0.998053, 169, 277, 184, 308
-0.998061, 33, 325, 48, 356
-0.998062, 1, 273, 16, 304
-0.998066, 141, 381, 156, 412
-0.998068, 267, 269, 282, 300
-0.99807, 337, 261, 352, 292
-0.998073, 5, 353, 20, 384
-0.998076, 317, 377, 332, 408
-0.998077, 153, 305, 168, 336
-0.998079, 311, 381, 326, 412
-0.998083, 81, 129, 112, 384
-0.998085, 345, 1, 376, 256
-0.998087, 21, 365, 36, 396
-0.998097, 201, 365, 216, 396
-0.998102, 171, 329, 186, 360
-0.99811, 201, 321, 216, 352
-0.998117, 33, 129, 64, 384
-0.998122, 315, 217, 330, 248
-0.998128, 279, 273, 294, 304
-0.998136, 421, 161, 452, 416
-0.998141, 143, 349, 158, 380
-0.998149, 121, 229, 136, 260
-0.99815, 61, 245, 76, 276
-0.998157, 347, 273, 362, 304
-0.998162, 171, 257, 186, 288
-0.998162, 173, 369, 188, 400
-0.998167, 157, 161, 188, 416
-0.998175, 121, 65, 152, 320
-0.998176, 351, 81, 366, 112
-0.998178, 335, 309, 350, 340
-0.998181, 165, 109, 180, 140
-0.998185, 421, 357, 436, 388
-0.998187, 407, 269, 422, 300
-0.998187, 23, 309, 38, 340
-0.998188, 319, 297, 334, 328
-0.998188, 177, 261, 192, 292
-0.998188, 457, 33, 488, 288
-0.998189, 13, 385, 28, 416
-0.998189, 427, 93, 442, 124
-0.998191, 371, 337, 386, 368
-0.998194, 229, 349, 244, 380
-0.998197, 483, 101, 498, 132
-0.998197, 485, 305, 500, 336
-0.998197, 217, 137, 232, 168
-0.9982, 227, 269, 242, 300
-0.998202, 273, 277, 288, 308
-0.998203, 441, 97, 472, 352
-0.998204, 113, 373, 128, 404
-0.998205, 153, 281, 168, 312
-0.998205, 263, 357, 278, 388
-0.998206, 49, 309, 64, 340
-0.998211, 413, 261, 428, 292
-0.998211, 179, 313, 194, 344
-0.998211, 69, 209, 84, 240
-0.998212, 141, 369, 156, 400
-0.998214, 27, 385, 42, 416
-0.998215, 61, 229, 76, 260
-0.998217, 397, 85, 412, 116
-0.998274, 129, 225, 144, 352
-0.998281, 105, 65, 136, 320
-0.998287, 229, 161, 260, 416
-0.998336, 149, 65, 180, 320
-0.998342, 137, 241, 152, 368
-0.998344, 453, 129, 484, 384
-0.998384, 49, 1, 176, 128
-0.998391, 81, 229, 144, 244
-0.998404, 129, 281, 192, 296
-0.99841, 421, 401, 452, 416
-0.998411, 1, 375, 32, 390
-0.998411, 161, 385, 192, 400
-0.998411, 145, 393, 176, 408
-0.998412, 169, 401, 200, 416
-0.998412, 117, 247, 148, 262
-0.998412, 1, 233, 32, 248
-0.998412, 413, 155, 444, 170
-0.998412, 249, 267, 280, 282
-0.998413, 313, 307, 344, 322
-0.998413, 129, 321, 160, 336
-0.998413, 201, 133, 232, 148
-0.998414, 309, 221, 340, 236
-0.998415, 73, 263, 104, 278
-0.998415, 297, 385, 328, 400
-0.998415, 133, 355, 164, 370
-0.998415, 165, 375, 196, 390
-0.998415, 1, 355, 32, 370
-0.998416, 173, 321, 204, 336
-0.998416, 337, 373, 368, 388
-0.998416, 325, 337, 356, 352
-0.998417, 81, 335, 112, 350
-0.998417, 125, 315, 156, 330
-0.998417, 309, 371, 340, 386
-0.998417, 165, 303, 196, 318
-0.998418, 165, 291, 196, 306
-0.998418, 261, 337, 292, 352
-0.998418, 321, 241, 352, 256
-0.998419, 297, 273, 328, 288
-0.99842, 105, 337, 136, 352
-0.99842, 161, 281, 192, 296
-0.998422, 97, 255, 160, 270
-0.998422, 337, 307, 368, 322
-0.998422, 21, 313, 52, 328
-0.998423, 197, 325, 228, 340
-0.998423, 265, 249, 296, 264
-0.998423, 421, 361, 452, 376
-0.998424, 81, 221, 112, 236
-0.998424, 417, 257, 448, 272
-0.998424, 201, 369, 232, 384
-0.998424, 141, 387, 172, 402
-0.998424, 1, 263, 32, 278
-0.998425, 65, 129, 96, 384
-0.998425, 369, 161, 400, 416
-0.998425, 65, 307, 96, 322
-0.998425, 305, 247, 336, 262
-0.998426, 1, 255, 32, 270
-0.998427, 461, 141, 492, 156
-0.998427, 229, 349, 260, 364
-0.998427, 221, 295, 252, 310
-0.998428, 53, 391, 84, 406
-0.998428, 5, 393, 36, 408
-0.998429, 405, 263, 436, 278
-0.99843, 137, 303, 168, 318
-0.99843, 5, 1, 36, 16
-0.998432, 105, 267, 168, 282
-0.998432, 129, 311, 192, 326
-0.998432, 301, 313, 332, 328
-0.998432, 293, 373, 324, 388
-0.998432, 161, 393, 192, 408
-0.998433, 45, 301, 76, 316
-0.998434, 261, 349, 292, 364
-0.998435, 313, 393, 344, 408
-0.998435, 173, 329, 204, 344
-0.998436, 177, 341, 208, 356
-0.998438, 173, 383, 204, 398
-0.998439, 305, 339, 336, 354
-0.99844, 137, 339, 200, 354
-0.99844, 137, 293, 200, 308
-0.99844, 113, 273, 176, 288
-0.998441, 129, 347, 160, 362
-0.998442, 9, 367, 40, 382
-0.998443, 49, 307, 80, 322
-0.998443, 289, 259, 320, 274
-0.998444, 145, 321, 176, 336
-0.998445, 97, 245, 160, 260
-0.998445, 273, 257, 304, 272
-0.998446, 133, 237, 164, 252
-0.998447, 193, 333, 224, 348
-0.998447, 1, 311, 32, 326
-0.998452, 165, 297, 196, 312
-0.998453, 151, 273, 166, 400
-0.998453, 165, 275, 196, 290
-0.998454, 129, 335, 160, 350
-0.998454, 89, 235, 152, 250
-0.998455, 137, 323, 200, 338
-0.998455, 105, 213, 136, 228
-0.998455, 21, 387, 52, 402
-0.998455, 81, 227, 112, 242
-0.998456, 229, 357, 260, 372
-0.998456, 469, 311, 500, 326
-0.998457, 137, 279, 168, 294
-0.998457, 173, 393, 204, 408
-0.998458, 121, 283, 152, 298
-0.998459, 29, 329, 60, 344
-0.99846, 65, 301, 96, 316
-0.99846, 97, 261, 160, 276
-0.998461, 5, 383, 36, 398
-0.998462, 249, 241, 280, 256
-0.998465, 149, 371, 180, 386
-0.998468, 65, 251, 128, 266
-0.99847, 253, 247, 284, 262
-0.99847, 177, 347, 208, 362
-0.998471, 261, 343, 292, 358
-0.998471, 1, 249, 32, 264
-0.998473, 133, 297, 164, 312
-0.998476, 261, 255, 292, 270
-0.998478, 125, 291, 156, 306
-0.998478, 149, 293, 180, 308
-0.998478, 169, 333, 232, 348
-0.998482, 189, 373, 220, 388
-0.998483, 153, 301, 184, 316
-0.998484, 297, 261, 360, 276
-0.998484, 57, 233, 120, 248
-0.998485, 145, 315, 176, 330
-0.998486, 285, 253, 316, 268
-0.998486, 409, 161, 440, 416
-0.998487, 81, 247, 112, 262
-0.998489, 245, 351, 276, 366
-0.998489, 241, 247, 272, 262
-0.998491, 105, 287, 168, 302
-0.998491, 137, 393, 200, 408
-0.998491, 137, 287, 200, 302
-0.998493, 137, 275, 200, 290
-0.998493, 241, 259, 272, 274
-0.998497, 241, 249, 304, 264
-0.998499, 137, 333, 200, 348
-0.998499, 185, 399, 216, 414
-0.998501, 113, 275, 144, 290
-0.998501, 165, 309, 196, 324
-0.998502, 133, 273, 164, 288
-0.998503, 281, 247, 344, 262
-0.998503, 57, 245, 120, 260
-0.998503, 189, 343, 220, 358
-0.998503, 121, 253, 152, 268
-0.998504, 169, 289, 232, 304
-0.998506, 81, 267, 144, 282
-0.998508, 121, 317, 184, 332
-0.998508, 1, 361, 32, 376
-0.998509, 233, 257, 296, 272
-0.998509, 217, 271, 280, 286
-0.998509, 317, 231, 348, 246
-0.99851, 105, 297, 168, 312
-0.99851, 137, 349, 200, 364
-0.998511, 73, 223, 136, 238
-0.998512, 225, 265, 288, 280
-0.998512, 225, 355, 288, 370
-0.998513, 129, 327, 160, 342
-0.998515, 153, 273, 184, 288
-0.998515, 109, 269, 140, 284
-0.998517, 73, 261, 136, 276
-0.998517, 257, 261, 288, 276
-0.998518, 57, 239, 120, 254
-0.998518, 305, 295, 368, 310
-0.998519, 81, 233, 112, 248
-0.998519, 105, 339, 168, 354
-0.99852, 357, 1, 388, 256
-0.99852, 153, 317, 216, 332
-0.998521, 101, 259, 132, 274
-0.998521, 165, 315, 196, 330
-0.998525, 129, 305, 192, 320
-0.998527, 301, 65, 332, 320
-0.998528, 257, 259, 320, 274
-0.998528, 169, 373, 232, 388
-0.998529, 89, 277, 152, 292
-0.998529, 137, 385, 200, 400
-0.998529, 97, 333, 160, 348
-0.998531, 273, 277, 336, 292
-0.998532, 123, 209, 138, 336
-0.998533, 137, 371, 200, 386
-0.998535, 273, 271, 336, 286
-0.998535, 297, 267, 360, 282
-0.998535, 45, 129, 76, 384
-0.998535, 305, 305, 368, 320
-0.998536, 249, 345, 280, 360
-0.998536, 137, 299, 200, 314
-0.998536, 57, 217, 120, 232
-0.998537, 105, 303, 168, 318
-0.998537, 313, 235, 376, 250
-0.998537, 217, 279, 280, 294
-0.998539, 17, 311, 80, 326
-0.998539, 125, 259, 156, 274
-0.998539, 241, 343, 304, 358
-0.99854, 145, 365, 208, 380
-0.99854, 145, 309, 176, 324
-0.998541, 297, 283, 360, 298
-0.998541, 177, 281, 240, 296
-0.998543, 337, 303, 400, 318
-0.998546, 297, 255, 360, 270
-0.998548, 1, 367, 64, 382
-0.998548, 329, 339, 392, 354
-0.998549, 169, 343, 232, 358
-0.99855, 305, 273, 368, 288
-0.998551, 137, 253, 200, 268
-0.998551, 217, 349, 280, 364
-0.998552, 329, 259, 392, 274
-0.998553, 265, 265, 328, 280
-0.998554, 313, 229, 376, 244
-0.998555, 97, 345, 160, 360
-0.998555, 129, 267, 160, 282
-0.998557, 273, 339, 336, 354
-0.998558, 1, 317, 32, 332
-0.99856, 153, 401, 216, 416
-0.99856, 49, 223, 112, 238
-0.99856, 145, 261, 208, 276
-0.998561, 297, 371, 360, 386
-0.998562, 105, 219, 168, 234
-0.998562, 217, 361, 280, 376
-0.998563, 297, 397, 360, 412
-0.998565, 261, 271, 292, 286
-0.998565, 121, 261, 184, 276
-0.998566, 241, 349, 304, 364
-0.998567, 129, 377, 192, 392
-0.998567, 177, 335, 208, 350
-0.998567, 177, 295, 240, 310
-0.998567, 129, 267, 192, 282
-0.998567, 93, 251, 124, 266
-0.998569, 329, 309, 392, 324
-0.998569, 105, 353, 168, 368
-0.998571, 177, 131, 240, 146
-0.998572, 281, 391, 344, 406
-0.998572, 85, 241, 116, 256
-0.998573, 161, 393, 224, 408
-0.998574, 329, 373, 392, 388
-0.998574, 145, 157, 208, 172
-0.998574, 377, 337, 440, 352
-0.998575, 305, 311, 368, 326
-0.998575, 105, 327, 168, 342
-0.998575, 121, 237, 184, 252
-0.998576, 73, 209, 136, 224
-0.998577, 209, 295, 272, 310
-0.998577, 113, 367, 176, 382
-0.998578, 209, 327, 272, 342
-0.998579, 425, 393, 488, 408
-0.998579, 273, 311, 336, 326
-0.99858, 1, 321, 64, 336
-0.99858, 169, 323, 232, 338
-0.998581, 313, 289, 376, 304
-0.998581, 281, 381, 344, 396
-0.998582, 185, 353, 248, 368
-0.998582, 1, 393, 64, 408
-0.998583, 153, 311, 216, 326
-0.998584, 57, 305, 120, 320
-0.998584, 73, 337, 136, 352
-0.998584, 265, 373, 328, 388
-0.998585, 245, 253, 276, 268
-0.998586, 241, 243, 304, 258
-0.998586, 209, 321, 272, 336
-0.998586, 329, 1, 360, 256
-0.998586, 145, 257, 160, 384
-0.998587, 97, 219, 128, 234
-0.998588, 1, 327, 64, 342
-0.998588, 17, 353, 80, 368
-0.998589, 273, 297, 336, 312
-0.99859, 417, 339, 480, 354
-0.998591, 209, 289, 272, 304
-0.998591, 145, 355, 208, 370
-0.998591, 321, 79, 384, 94
-0.998591, 369, 263, 432, 278
-0.998592, 217, 243, 280, 258
-0.998593, 329, 265, 392, 280
-0.998595, 1, 387, 64, 402
-0.998595, 33, 331, 96, 346
-0.998595, 417, 95, 480, 110
-0.998595, 185, 363, 248, 378
-0.998596, 105, 359, 168, 374
-0.998596, 265, 305, 328, 320
-0.998596, 381, 65, 412, 320
-0.998616, 117, 209, 132, 336
-0.998618, 33, 81, 288, 144
-0.998626, 393, 65, 424, 320
-0.998635, 129, 33, 384, 96
-0.998651, 101, 225, 132, 240
-0.9987, 201, 49, 264, 176
-0.998705, 269, 65, 300, 320
-0.998713, 17, 1, 48, 256
-0.998724, 181, 129, 212, 384
-0.998737, 163, 273, 178, 400
-0.998752, 205, 161, 236, 416
-0.998766, 289, 65, 320, 320
-0.998775, 217, 129, 248, 384
-0.998799, 223, 273, 238, 400
-0.99881, 93, 65, 124, 320
-0.998827, 133, 65, 164, 320
-0.998838, 1, 57, 256, 120
-0.99884, 5, 193, 20, 320
-0.998843, 105, 209, 120, 336
-0.998849, 337, 257, 352, 384
-0.998863, 139, 289, 154, 416
-0.998866, 123, 257, 138, 384
-0.998884, 111, 225, 126, 352
-0.99889, 157, 257, 172, 384
-0.998901, 283, 241, 298, 368
-0.998921, 129, 177, 144, 304
-0.998928, 143, 209, 158, 336
-0.998951, 99, 225, 114, 352
-0.998951, 331, 241, 346, 368
-0.998954, 313, 209, 328, 336
-0.99896, 193, 161, 224, 416
-0.99896, 183, 289, 198, 416
-0.998964, 217, 289, 232, 416
-0.998991, 173, 273, 188, 400
-0.999003, 343, 257, 358, 384
-0.999005, 1, 257, 16, 384
-0.999007, 49, 17, 176, 80
-0.999014, 323, 241, 338, 368
-0.999036, 275, 273, 290, 400
-0.999037, 265, 241, 280, 368
-0.999044, 135, 193, 150, 320
-0.999046, 121, 161, 136, 288
-0.999053, 131, 273, 146, 400
-0.999057, 305, 257, 320, 384
-0.999057, 469, 33, 500, 288
-0.999058, 289, 241, 304, 368
-0.999063, 251, 241, 266, 368
-0.999073, 233, 257, 248, 384
-0.999097, 1, 1, 16, 128
-0.999116, 161, 65, 192, 320
-0.999116, 71, 209, 86, 336
-0.999117, 317, 257, 332, 384
-0.999122, 307, 193, 322, 320
-0.999138, 117, 257, 132, 384
-0.999139, 363, 1, 378, 128
-0.999147, 349, 273, 364, 400
-0.999148, 311, 257, 326, 384
-0.999152, 11, 161, 26, 288
-0.999159, 79, 257, 94, 384
-0.99916, 165, 225, 180, 352
-0.999167, 411, 193, 426, 320
-0.999173, 29, 1, 60, 256
-0.999177, 105, 289, 120, 416
-0.99918, 157, 209, 172, 336
-0.999184, 427, 129, 442, 256
-0.999187, 297, 241, 312, 368
-0.999191, 399, 273, 414, 400
-0.9992, 151, 225, 166, 352
-0.999202, 215, 97, 230, 224
-0.999205, 93, 225, 108, 352
-0.999218, 73, 1, 104, 256
-0.999218, 241, 225, 256, 352
-0.99922, 249, 177, 264, 304
-0.999225, 259, 225, 274, 352
-0.999226, 1, 49, 128, 112
-0.999226, 281, 289, 296, 416
-0.999231, 299, 177, 314, 304
-0.999235, 115, 161, 130, 288
-0.999245, 15, 225, 30, 352
-0.999257, 87, 225, 102, 352
-0.999258, 369, 1, 400, 256
-0.999259, 7, 241, 22, 368
-0.999261, 401, 193, 416, 320
-0.999267, 331, 289, 346, 416
-0.999268, 195, 289, 210, 416
-0.999269, 145, 25, 272, 88
-0.999269, 201, 289, 216, 416
-0.999271, 287, 289, 302, 416
-0.999277, 77, 193, 92, 320
-0.999279, 257, 273, 272, 400
-0.999279, 267, 289, 282, 416
-0.999279, 1, 49, 16, 176
-0.999283, 63, 241, 78, 368
-0.99929, 189, 289, 204, 416
-0.999297, 53, 1, 84, 256
-0.999299, 249, 65, 280, 320
-0.999308, 293, 177, 308, 304
-0.99931, 181, 241, 196, 368
-0.999311, 207, 289, 222, 416
-0.999311, 343, 209, 358, 336
-0.999312, 355, 273, 370, 400
-0.999312, 397, 81, 412, 208
-0.999317, 419, 161, 434, 288
-0.999318, 393, 273, 408, 400
-0.999321, 7, 289, 22, 416
-0.999325, 425, 81, 440, 208
-0.999329, 293, 289, 308, 416
-0.999331, 139, 97, 154, 224
-0.999332, 87, 273, 102, 400
-0.999334, 423, 209, 438, 336
-0.999337, 389, 193, 404, 320
-0.999342, 93, 273, 108, 400
-0.999343, 419, 273, 434, 400
-0.999348, 157, 113, 172, 240
-0.999351, 351, 81, 366, 208
-0.999353, 177, 33, 240, 160
-0.999354, 485, 289, 500, 416
-0.999355, 343, 81, 358, 208
-0.999356, 445, 225, 460, 352
-0.999362, 479, 241, 494, 368
-0.999362, 371, 273, 386, 400
-0.999366, 459, 225, 474, 352
-0.999366, 359, 65, 374, 192
-0.999369, 223, 225, 238, 352
-0.99937, 173, 225, 188, 352
-0.999381, 407, 145, 422, 272
-0.999381, 357, 17, 372, 144
-0.999382, 417, 209, 432, 336
-0.999383, 437, 209, 452, 336
-0.999384, 401, 145, 416, 272
-0.999388, 393, 145, 408, 272
-0.99939, 107, 161, 122, 288
-0.999391, 483, 145, 498, 272
-0.999391, 91, 177, 106, 304
-0.999392, 271, 225, 286, 352
-0.999393, 191, 113, 206, 240
-0.999396, 259, 161, 274, 288
-0.999398, 7, 1, 22, 128
-0.9994, 413, 129, 428, 256
-0.999402, 221, 97, 236, 224
-0.999403, 131, 97, 146, 224
-0.999412, 469, 225, 484, 352
-0.999412, 365, 273, 380, 400
-0.999416, 485, 241, 500, 368
-0.999419, 161, 9, 416, 72
-0.999421, 287, 161, 302, 288
-0.999421, 347, 33, 362, 160
-0.999423, 19, 113, 34, 240
-0.999429, 207, 129, 222, 256
-0.999429, 467, 289, 482, 416
-0.999429, 477, 81, 492, 208
-0.99943, 337, 193, 352, 320
-0.999453, 1, 33, 256, 96
-0.999495, 1, 9, 256, 72
-0.999519, 1, 57, 500, 120
-0.999531, 41, 1, 72, 256
-0.999596, 429, 33, 460, 288
-0.999599, 5, 375, 20, 390
-0.999599, 187, 379, 202, 394
-0.999599, 7, 369, 22, 384
-0.9996, 43, 301, 58, 316
-0.9996, 135, 253, 150, 268
-0.9996, 281, 261, 296, 276
-0.9996, 57, 393, 72, 408
-0.999601, 113, 377, 128, 392
-0.999601, 147, 101, 162, 116
-0.999602, 223, 295, 238, 310
-0.999602, 441, 369, 456, 384
-0.999602, 215, 331, 230, 346
-0.999603, 159, 299, 174, 314
-0.999603, 327, 229, 342, 244
-0.999603, 263, 273, 278, 288
-0.999604, 485, 317, 500, 332
-0.999604, 141, 337, 156, 352
-0.999605, 243, 347, 258, 362
-0.999606, 105, 255, 120, 270
-0.999606, 175, 383, 190, 398
-0.999606, 1, 281, 16, 296
-0.999607, 217, 325, 232, 340
-0.999607, 413, 263, 428, 278
-0.999608, 483, 137, 498, 152
-0.999608, 83, 303, 98, 318
-0.999608, 7, 385, 22, 400
-0.999608, 173, 317, 188, 332
-0.999608, 397, 87, 412, 102
-0.999608, 139, 395, 154, 410
-0.999608, 233, 351, 248, 366
-0.999609, 419, 259, 434, 274
-0.999609, 221, 127, 236, 142
-0.999609, 267, 247, 282, 262
-0.99961, 479, 319, 494, 334
-0.999611, 27, 361, 42, 376
-0.999611, 175, 393, 190, 408
-0.999611, 327, 255, 342, 270
-0.999612, 173, 297, 188, 312
-0.999612, 139, 289, 154, 304
-0.999612, 315, 383, 330, 398
-0.999612, 349, 373, 364, 388
-0.999612, 309, 375, 324, 390
-0.999612, 301, 257, 316, 272
-0.999614, 429, 401, 444, 416
-0.999614, 423, 401, 438, 416
-0.999614, 243, 255, 258, 270
-0.999614, 409, 363, 424, 378
-0.999615, 139, 327, 154, 342
-0.999615, 49, 303, 64, 318
-0.999615, 169, 335, 184, 350
-0.999617, 161, 373, 176, 388
-0.999617, 147, 359, 162, 374
-0.999618, 485, 105, 500, 120
-0.999618, 315, 279, 330, 294
-0.999618, 145, 297, 160, 312
-0.999619, 125, 275, 140, 290
-0.999619, 19, 365, 34, 380
-0.999619, 3, 327, 18, 342
-0.99962, 257, 269, 272, 284
-0.99962, 67, 307, 82, 322
-0.999622, 167, 375, 182, 390
-0.999622, 243, 353, 258, 368
-0.999622, 93, 225, 108, 240
-0.999623, 121, 229, 136, 244
-0.999623, 407, 263, 422, 278
-0.999624, 43, 307, 58, 322
-0.999624, 483, 307, 498, 322
-0.999624, 203, 343, 218, 358
-0.999625, 273, 269, 288, 284
-0.999625, 261, 251, 276, 266
-0.999626, 479, 147, 494, 162
-0.999627, 179, 275, 194, 290
-0.999627, 425, 165, 440, 180
-0.999628, 111, 223, 126, 238
-0.999629, 137, 315, 152, 330
-0.999629, 183, 391, 198, 406
-0.999629, 265, 343, 280, 358
-0.999631, 193, 333, 208, 348
-0.999631, 147, 267, 162, 282
-0.999631, 251, 251, 266, 266
-0.999631, 187, 397, 202, 412
-0.999632, 103, 225, 118, 240
-0.999633, 143, 387, 158, 402
-0.999633, 195, 399, 210, 414
-0.999633, 305, 335, 320, 350
-0.999633, 133, 285, 148, 300
-0.999633, 315, 339, 330, 354
-0.999635, 185, 349, 200, 364
-0.999635, 153, 271, 168, 286
-0.999635, 175, 291, 190, 306
-0.999635, 265, 267, 280, 282
-0.999636, 321, 233, 336, 248
-0.999637, 91, 245, 106, 260
-0.999637, 169, 303, 184, 318
-0.999639, 193, 349, 208, 364
-0.999641, 157, 311, 172, 326
-0.999641, 195, 373, 210, 388
-0.999644, 119, 265, 134, 280
-0.999644, 477, 141, 492, 156
-0.999645, 201, 373, 216, 388
-0.999646, 259, 257, 274, 272
-0.999646, 307, 269, 322, 284
-0.999647, 187, 343, 202, 358
-0.999651, 181, 383, 196, 398
-0.999651, 233, 65, 264, 320
-0.999651, 231, 357, 246, 372
-0.999658, 325, 223, 340, 238
-0.999659, 111, 253, 126, 268
-0.999664, 95, 231, 110, 246
-0.999668, 291, 247, 306, 262
-0.999671, 193, 343, 208, 358
-0.999671, 253, 345, 268, 360
-0.999674, 267, 261, 282, 276
-0.999681, 19, 359, 34, 374
-0.999682, 117, 259, 132, 274
-0.999683, 161, 273, 176, 288
-0.999683, 137, 389, 152, 404
-0.999684, 131, 279, 146, 294
-0.999684, 99, 249, 114, 264
-0.999687, 167, 315, 182, 330
-0.999687, 3, 251, 18, 266
-0.999687, 97, 239, 112, 254
-0.999694, 425, 153, 440, 168
-0.999695, 261, 241, 276, 256
-0.999701, 125, 269, 140, 284
-0.999701, 257, 263, 272, 278
-0.999708, 405, 65, 436, 320
-0.999711, 165, 309, 180, 324
-0.999714, 255, 245, 270, 260
-0.999717, 179, 333, 194, 348
-0.99974, 105, 249, 120, 264
-0.999771, 101, 219, 116, 234
-0.999785, 201, 65, 232, 320
-0.999918, 189, 33, 220, 288
-0.999944, 417, 65, 448, 320
-1.00004, 213, 33, 244, 288
-1.00009, 445, 1, 476, 256
-1.00015, 1, 25, 500, 88
-1.00026, 177, 33, 208, 288
-1.00032, 97, 41, 224, 104
-1.00067, 1, 1, 500, 64
-1.00092, 177, 1, 304, 64
-1.00135, 97, 17, 224, 80
-1.00372, 225, 1, 288, 128
-1.00417, 33, 1, 96, 128
-1.00419, 153, 17, 216, 144
-1.00586, 201, 1, 264, 128
