1939
-0.466379, 1, 65, 500, 320
-0.495807, 1, 1, 500, 375
-0.631691, 193, 1, 448, 375
-0.697313, 97, 1, 352, 375
-0.82983, 193, 65, 448, 320
-0.830758, 33, 65, 288, 320
-0.840075, 1, 1, 256, 375
-0.914191, 273, 1, 400, 375
-0.919569, 305, 65, 432, 320
-0.921321, 1, 97, 500, 224
-0.922593, 225, 1, 352, 375
-0.928206, 177, 1, 304, 375
-0.930496, 1, 161, 500, 288
-0.932961, 49, 97, 176, 352
-0.940121, 129, 1, 256, 375
-0.940405, 65, 1, 192, 375
-0.944674, 321, 1, 448, 375
-0.945075, 1, 49, 500, 176
-0.945149, 257, 65, 384, 320
-0.948104, 129, 65, 256, 320
-0.952639, 209, 33, 336, 288
-0.953093, 209, 129, 336, 375
-0.958453, 1, 129, 128, 375
-0.959733, 369, 1, 496, 375
-0.960722, 1, 241, 500, 368
-0.96073, 17, 1, 144, 375
-0.962943, 193, 161, 448, 288
-0.965497, 353, 129, 480, 375
-0.966568, 193, 65, 448, 192
-0.970537, 193, 209, 448, 336
-0.971944, 33, 81, 288, 208
-0.972105, 81, 1, 208, 256
-0.973036, 369, 1, 496, 256
-0.974914, 289, 65, 416, 192
-0.975517, 33, 161, 288, 288
-0.97598, 193, 113, 448, 240
-0.978119, 257, 193, 384, 320
-0.980338, 321, 161, 448, 288
-0.98039, 313, 177, 376, 304
-0.982123, 33, 1, 160, 256
-0.983124, 33, 241, 288, 368
-0.983406, 337, 177, 400, 304
-0.983894, 345, 65, 408, 192
-0.984488, 65, 81, 192, 208
-0.984975, 97, 33, 352, 160
-0.985151, 361, 161, 424, 288
-0.985595, 305, 209, 432, 336
-0.986807, 177, 193, 304, 320
-0.987061, 209, 49, 336, 176
-0.987206, 193, 17, 448, 144
-0.987279, 305, 113, 432, 240
-0.987385, 33, 129, 160, 256
-0.987607, 337, 73, 400, 136
-0.988361, 321, 201, 384, 264
-0.988541, 49, 241, 176, 368
-0.988769, 225, 193, 288, 320
-0.988799, 193, 241, 320, 368
-0.988895, 345, 65, 408, 320
-0.988899, 361, 233, 424, 296
-0.988961, 113, 65, 240, 192
-0.989053, 345, 185, 408, 248
-0.989222, 65, 97, 128, 224
-0.989224, 145, 241, 272, 368
-0.989238, 345, 113, 408, 240
-0.98977, 289, 193, 352, 320
-0.989888, 225, 145, 352, 272
-0.990068, 161, 49, 288, 176
-0.990323, 345, 225, 408, 352
-0.990417, 361, 209, 424, 272
-0.990462, 1, 209, 128, 336
-0.990497, 257, 241, 384, 368
-0.990816, 65, 177, 192, 304
-0.990996, 1, 1, 500, 128
-0.991041, 289, 73, 416, 136
-0.991432, 289, 193, 416, 256
-0.991443, 129, 193, 256, 320
-0.991544, 273, 233, 400, 296
-0.991785, 321, 233, 448, 296
-0.991802, 289, 233, 352, 296
-0.99194, 337, 1, 400, 375
-0.991999, 97, 241, 224, 368
-0.992068, 41, 145, 104, 272
-0.992414, 361, 237, 424, 268
-0.992423, 353, 209, 480, 336
-0.992451, 337, 233, 400, 296
-0.992575, 321, 169, 448, 232
-0.992866, 233, 225, 296, 288
-0.993049, 225, 225, 352, 288
-0.99308, 337, 189, 400, 220
-0.993087, 249, 241, 312, 368
-0.993102, 345, 81, 408, 112
-0.993124, 361, 225, 424, 256
-0.993154, 305, 193, 368, 224
-0.993167, 329, 253, 392, 284
-0.993214, 329, 241, 392, 272
-0.993221, 81, 81, 208, 144
-0.993226, 289, 241, 352, 272
-0.993233, 369, 161, 496, 288
-0.993257, 321, 229, 384, 260
-0.993263, 369, 81, 496, 208
-0.993269, 337, 177, 368, 304
-0.993309, 321, 65, 384, 192
-0.993328, 361, 193, 424, 224
-0.993357, 313, 205, 376, 236
-0.993511, 41, 241, 104, 272
-0.993534, 289, 105, 416, 168
-0.993541, 337, 69, 400, 100
-0.993558, 129, 257, 192, 320
-0.993586, 361, 249, 424, 280
-0.993595, 373, 237, 404, 268
-0.993627, 297, 253, 360, 284
-0.993635, 209, 241, 272, 368
-0.993643, 249, 253, 312, 284
-0.993651, 345, 109, 408, 140
-0.993657, 177, 225, 304, 288
-0.993667, 333, 193, 364, 224
-0.993671, 369, 177, 432, 208
-0.993673, 373, 81, 404, 112
-0.993703, 337, 201, 400, 232
-0.99371, 389, 189, 420, 220
-0.993715, 361, 213, 424, 244
-0.993721, 377, 97, 440, 128
-0.993732, 273, 1, 336, 375
-0.993747, 353, 137, 416, 168
-0.993748, 273, 253, 336, 284
-0.993752, 321, 245, 352, 276
-0.993754, 289, 245, 320, 276
-0.993756, 389, 177, 420, 208
-0.993765, 73, 97, 136, 160
-0.993773, 313, 233, 344, 264
-0.993778, 345, 97, 408, 128
-0.993782, 393, 225, 424, 256
-0.993794, 89, 93, 152, 124
-0.9938, 345, 197, 376, 228
-0.993803, 337, 177, 400, 208
-0.99381, 349, 245, 380, 276
-0.993815, 357, 65, 388, 96
-0.993818, 373, 109, 404, 140
-0.993819, 61, 241, 92, 272
-0.993824, 317, 193, 348, 224
-0.993834, 389, 93, 420, 124
-0.993843, 377, 181, 408, 212
-0.993847, 217, 337, 248, 368
-0.993849, 329, 205, 360, 236
-0.993852, 65, 249, 128, 280
-0.993854, 41, 197, 104, 228
-0.993857, 209, 249, 336, 312
-0.993859, 337, 257, 368, 288
-0.99386, 277, 249, 308, 280
-0.993865, 185, 337, 248, 368
-0.993867, 49, 161, 112, 192
-0.993874, 265, 241, 296, 272
-0.993874, 357, 257, 388, 288
-0.993877, 353, 125, 416, 156
-0.993878, 385, 237, 416, 268
-0.993881, 89, 101, 120, 132
-0.993886, 113, 333, 144, 364
-0.993887, 205, 337, 236, 368
-0.993887, 245, 213, 276, 244
-0.993892, 377, 97, 408, 128
-0.993892, 237, 253, 268, 284
-0.993894, 177, 69, 240, 100
-0.993897, 361, 241, 392, 272
-0.9939, 81, 249, 112, 280
-0.993902, 377, 197, 408, 228
-0.993902, 49, 233, 80, 264
-0.993904, 345, 185, 376, 216
-0.993911, 225, 253, 288, 284
-0.993912, 373, 225, 404, 256
-0.993919, 225, 209, 288, 240
-0.993919, 385, 225, 448, 256
-0.993922, 113, 81, 176, 112
-0.993922, 81, 105, 144, 136
-0.993922, 185, 337, 216, 368
-0.993926, 393, 213, 424, 244
-0.993927, 249, 217, 312, 248
-0.993928, 369, 69, 400, 100
-0.993929, 305, 249, 336, 280
-0.993929, 313, 65, 376, 320
-0.993929, 77, 113, 108, 144
-0.99393, 297, 1, 360, 375
-0.993931, 101, 93, 132, 124
-0.993931, 341, 209, 372, 240
-0.993932, 233, 209, 264, 240
-0.993933, 221, 261, 252, 292
-0.993933, 165, 293, 196, 324
-0.993935, 241, 197, 272, 228
-0.993936, 393, 201, 424, 232
-0.993936, 181, 293, 212, 324
-0.993938, 209, 337, 272, 368
-0.993938, 157, 261, 188, 292
-0.99394, 289, 205, 352, 236
-0.99394, 337, 233, 368, 264
-0.993942, 53, 329, 84, 360
-0.993944, 393, 249, 424, 280
-0.993946, 49, 165, 80, 196
-0.993947, 361, 165, 424, 196
-0.99395, 265, 257, 296, 288
-0.993952, 397, 237, 428, 268
-0.993953, 325, 233, 356, 264
-0.993953, 377, 121, 408, 152
-0.993953, 381, 137, 412, 168
-0.993955, 365, 185, 396, 216
-0.993955, 317, 205, 348, 236
-0.993956, 97, 257, 128, 288
-0.993956, 81, 289, 112, 320
-0.993958, 265, 241, 328, 272
-0.993958, 289, 137, 416, 200
-0.993958, 17, 225, 80, 256
-0.99396, 281, 341, 312, 372
-0.993961, 389, 105, 420, 136
-0.993961, 1, 329, 32, 360
-0.993963, 381, 165, 412, 196
-0.993963, 57, 153, 88, 184
-0.993963, 137, 261, 168, 292
-0.993966, 385, 197, 448, 228
-0.993969, 101, 333, 132, 364
-0.99397, 113, 85, 144, 116
-0.99397, 261, 217, 292, 248
-0.99397, 121, 257, 152, 288
-0.99397, 381, 345, 412, 375
-0.993972, 221, 61, 252, 92
-0.993972, 65, 133, 96, 164
-0.993973, 361, 225, 392, 256
-0.993973, 233, 241, 296, 272
-0.993975, 209, 65, 240, 96
-0.993975, 349, 233, 380, 264
-0.993975, 41, 329, 72, 360
-0.993976, 21, 329, 52, 360
-0.993977, 273, 61, 336, 92
-0.993977, 249, 253, 280, 284
-0.99398, 177, 261, 208, 292
-0.99398, 333, 245, 364, 276
-0.993982, 161, 293, 224, 324
-0.993982, 249, 61, 280, 92
-0.993982, 125, 333, 156, 364
-0.993985, 129, 261, 192, 292
-0.993985, 129, 293, 160, 324
-0.993987, 257, 205, 288, 236
-0.993988, 389, 149, 420, 180
-0.993989, 253, 241, 284, 272
-0.993991, 129, 81, 160, 112
-0.993991, 141, 77, 172, 108
-0.993992, 293, 233, 324, 264
-0.993992, 225, 249, 256, 280
-0.993992, 173, 337, 204, 368
-0.993992, 269, 337, 300, 368
-0.993993, 409, 205, 440, 236
-0.993993, 233, 301, 264, 332
-0.993994, 149, 293, 180, 324
-0.993994, 297, 341, 328, 372
-0.993995, 337, 73, 368, 104
-0.993997, 213, 249, 244, 280
-0.993997, 201, 65, 264, 96
-0.993998, 161, 77, 192, 108
-0.993998, 209, 265, 240, 296
-0.993998, 109, 257, 140, 288
-0.993998, 325, 257, 356, 288
-0.993999, 277, 237, 308, 268
-0.994001, 241, 229, 272, 260
-0.994001, 237, 61, 268, 92
-0.994001, 201, 293, 232, 324
-0.994003, 261, 301, 292, 332
-0.994004, 101, 245, 132, 276
-0.994005, 197, 65, 228, 96
-0.994005, 325, 69, 356, 100
-0.994005, 161, 337, 192, 368
-0.994006, 233, 301, 296, 332
-0.994006, 393, 165, 424, 196
-0.994007, 305, 213, 336, 244
-0.994007, 353, 153, 416, 184
-0.994008, 273, 217, 304, 248
-0.99401, 189, 253, 220, 284
-0.99401, 145, 333, 176, 364
-0.994013, 409, 189, 440, 220
-0.994013, 325, 301, 356, 332
-0.994014, 333, 221, 364, 252
-0.994014, 273, 61, 304, 92
-0.994015, 377, 85, 440, 116
-0.994015, 401, 177, 432, 208
-0.994015, 297, 197, 328, 228
-0.994016, 137, 77, 200, 108
-0.994016, 317, 181, 348, 212
-0.994016, 245, 185, 276, 216
-0.994017, 185, 69, 216, 100
-0.994018, 41, 177, 72, 208
-0.994018, 201, 261, 264, 292
-0.99402, 305, 181, 368, 212
-0.994023, 41, 173, 104, 204
-0.994025, 289, 229, 352, 260
-0.994034, 113, 333, 176, 364
-0.994037, 161, 337, 224, 368
-0.994039, 81, 333, 144, 364
-0.994041, 81, 257, 208, 320
-0.994044, 57, 149, 120, 180
-0.994062, 97, 257, 160, 288
-0.994078, 33, 185, 96, 216
-0.994083, 65, 117, 128, 148
-0.994083, 57, 137, 120, 168
-0.994093, 49, 217, 112, 248
-0.994099, 249, 201, 312, 232
-0.994099, 169, 253, 232, 284
-0.994106, 281, 193, 344, 224
-0.994117, 17, 329, 80, 360
-0.994123, 385, 237, 448, 268
-0.994123, 289, 341, 352, 372
-0.994127, 313, 69, 376, 100
-0.994128, 41, 225, 104, 352
-0.99413, 385, 125, 448, 156
-0.994135, 193, 297, 256, 328
-0.994138, 73, 289, 136, 320
-0.99414, 241, 229, 304, 260
-0.994151, 401, 209, 464, 240
-0.994151, 145, 249, 208, 280
-0.994158, 377, 109, 440, 140
-0.994159, 129, 293, 192, 324
-0.994164, 273, 217, 336, 248
-0.994166, 217, 229, 280, 260
-0.994167, 105, 293, 168, 324
-0.994172, 249, 61, 312, 92
-0.994177, 177, 265, 240, 296
-0.994182, 249, 341, 312, 372
-0.994197, 89, 245, 152, 276
-0.994203, 201, 249, 264, 280
-0.994211, 225, 61, 288, 92
-0.994215, 41, 229, 104, 260
-0.99422, 321, 217, 384, 248
-0.994229, 9, 209, 72, 240
-0.994239, 57, 333, 120, 364
-0.99424, 49, 289, 112, 320
-0.994249, 289, 49, 352, 176
-0.994255, 369, 269, 432, 300
-0.994258, 353, 345, 416, 375
-0.99426, 9, 173, 72, 204
-0.994263, 377, 145, 440, 176
-0.994265, 121, 249, 184, 280
-0.994268, 313, 57, 376, 88
-0.994274, 273, 301, 336, 332
-0.994276, 233, 189, 296, 220
-0.994281, 57, 105, 120, 136
-0.994299, 17, 237, 80, 268
-0.994302, 233, 169, 296, 200
-0.994302, 137, 209, 200, 240
-0.994307, 209, 185, 272, 216
-0.994314, 313, 225, 376, 352
-0.994315, 297, 265, 360, 296
-0.994317, 65, 105, 192, 168
-0.994322, 393, 161, 456, 192
-0.994323, 9, 197, 72, 228
-0.994338, 281, 181, 344, 212
-0.994338, 25, 289, 88, 320
-0.994344, 153, 265, 216, 296
-0.994346, 313, 169, 376, 200
-0.994349, 321, 305, 384, 336
-0.994351, 9, 185, 72, 216
-0.994351, 209, 197, 272, 228
-0.994362, 137, 337, 200, 368
-0.994364, 377, 69, 440, 100
-0.994375, 25, 149, 88, 180
-0.994375, 385, 249, 448, 280
-0.994378, 377, 305, 440, 336
-0.994382, 209, 173, 272, 204
-0.994393, 313, 341, 376, 372
-0.994398, 65, 229, 128, 260
-0.994411, 401, 185, 464, 216
-0.994419, 337, 265, 400, 296
-0.994424, 233, 289, 296, 320
-0.994424, 417, 309, 480, 340
-0.994449, 153, 241, 216, 368
-0.994502, 353, 209, 480, 272
-0.99458, 369, 225, 432, 352
-0.994615, 241, 201, 368, 264
-0.994636, 17, 241, 144, 304
-0.994678, 201, 1, 264, 375
-0.994765, 33, 185, 160, 248
-0.994826, 345, 105, 408, 168
-0.994835, 129, 65, 256, 128
-0.994841, 241, 1, 304, 375
-0.994856, 57, 97, 120, 352
-0.994913, 225, 57, 352, 120
-0.994915, 361, 161, 424, 224
-0.994972, 129, 65, 192, 192
-0.994986, 313, 225, 376, 288
-0.994988, 121, 225, 184, 352
-0.994988, 49, 217, 176, 280
-0.994991, 373, 65, 404, 192
-0.995031, 49, 129, 176, 192
-0.995033, 249, 193, 312, 320
-0.995068, 65, 241, 128, 368
-0.995104, 97, 81, 160, 144
-0.995123, 369, 97, 496, 160
-0.995123, 33, 153, 160, 216
-0.995125, 209, 225, 272, 288
-0.995128, 177, 49, 240, 176
-0.99521, 289, 65, 352, 320
-0.995286, 257, 249, 320, 312
-0.995289, 89, 65, 152, 192
-0.995294, 201, 49, 264, 176
-0.99539, 265, 49, 328, 176
-0.99544, 289, 209, 352, 272
-0.995465, 129, 225, 256, 288
-0.995465, 257, 217, 320, 280
-0.995518, 33, 225, 96, 288
-0.995557, 145, 257, 272, 320
-0.995611, 57, 241, 120, 304
-0.995626, 177, 57, 304, 120
-0.995647, 241, 177, 368, 240
-0.995692, 369, 161, 496, 224
-0.995737, 369, 185, 432, 248
-0.995746, 233, 49, 296, 176
-0.995864, 65, 121, 128, 184
-0.996012, 153, 65, 216, 192
-0.996015, 337, 161, 400, 224
-0.996043, 225, 201, 288, 264
-0.996117, 65, 1, 128, 375
-0.996119, 389, 145, 420, 272
-0.996164, 105, 257, 168, 320
-0.996193, 177, 1, 240, 375
-0.996207, 225, 249, 288, 312
-0.996251, 353, 137, 416, 200
-0.996269, 241, 193, 272, 320
-0.99629, 201, 177, 264, 304
-0.996296, 273, 17, 400, 144
-0.996326, 209, 153, 336, 216
-0.996378, 369, 73, 400, 136
-0.996378, 349, 177, 380, 304
-0.996396, 313, 249, 376, 312
-0.99643, 161, 193, 288, 256
-0.996447, 193, 193, 448, 256
-0.996458, 297, 185, 360, 248
-0.996475, 97, 65, 160, 320
-0.996482, 153, 257, 216, 320
-0.996495, 177, 241, 240, 368
-0.996588, 369, 121, 496, 184
-0.9966, 41, 169, 104, 232
-0.996645, 1, 217, 128, 280
-0.99669, 241, 97, 368, 224
-0.996691, 97, 241, 160, 368
-0.996756, 73, 193, 136, 320
-0.996774, 369, 73, 496, 136
-0.996782, 81, 249, 144, 312
-0.996784, 361, 1, 424, 375
-0.996882, 177, 65, 240, 128
-0.996913, 385, 145, 448, 272
-0.996956, 113, 1, 176, 375
-0.997014, 377, 233, 408, 296
-0.997031, 89, 1, 152, 375
-0.997101, 289, 49, 416, 112
-0.997178, 385, 89, 448, 152
-0.997211, 1, 129, 500, 192
-0.997251, 1, 97, 500, 160
-0.997259, 249, 65, 312, 320
-0.997271, 121, 73, 184, 136
-0.997281, 369, 33, 496, 160
-0.997296, 289, 65, 352, 128
-0.99731, 1, 209, 500, 272
-0.99733, 1, 185, 500, 248
-0.997333, 53, 145, 84, 272
-0.997344, 273, 257, 400, 320
-0.997346, 145, 1, 208, 375
-0.997353, 373, 177, 404, 304
-0.997424, 225, 217, 480, 280
-0.997428, 317, 225, 348, 288
-0.99746, 185, 265, 248, 328
-0.997477, 325, 193, 356, 320
-0.997518, 49, 193, 112, 256
-0.997571, 201, 57, 264, 120
-0.997577, 129, 65, 384, 128
-0.99766, 49, 145, 112, 208
-0.997682, 193, 241, 448, 304
-0.997685, 121, 225, 184, 288
-0.997686, 1, 105, 128, 168
-0.997696, 193, 169, 448, 232
-0.997713, 313, 73, 376, 136
-0.997745, 369, 97, 432, 352
-0.997778, 121, 65, 184, 320
-0.997825, 361, 49, 392, 176
-0.997889, 385, 161, 448, 224
-0.997892, 17, 201, 80, 264
-0.997903, 389, 177, 420, 240
-0.99795, 97, 289, 224, 352
-0.997975, 65, 225, 320, 288
-0.998019, 273, 241, 400, 272
-0.998068, 1, 73, 500, 136
-0.998084, 1, 129, 128, 192
-0.99809, 193, 145, 448, 208
-0.998109, 369, 233, 496, 296
-0.99812, 377, 193, 408, 256
-0.998128, 385, 209, 448, 272
-0.998141, 365, 185, 396, 200
-0.998142, 365, 179, 396, 194
-0.998142, 313, 207, 344, 222
-0.998142, 357, 233, 388, 248
-0.998142, 17, 331, 48, 346
-0.998142, 273, 245, 304, 260
-0.998142, 61, 149, 92, 164
-0.998142, 137, 81, 168, 96
-0.998142, 65, 333, 96, 348
-0.998143, 333, 253, 364, 268
-0.998143, 77, 335, 108, 350
-0.998143, 393, 91, 424, 106
-0.998143, 385, 115, 416, 130
-0.998143, 297, 213, 328, 228
-0.998143, 129, 295, 160, 310
-0.998144, 165, 265, 196, 280
-0.998144, 369, 253, 400, 268
-0.998144, 149, 257, 180, 272
-0.998145, 149, 79, 180, 94
-0.998145, 53, 165, 84, 180
-0.998145, 393, 219, 424, 234
-0.998145, 305, 249, 336, 264
-0.998145, 377, 197, 408, 212
-0.998146, 109, 91, 140, 106
-0.998146, 45, 179, 76, 194
-0.998146, 149, 297, 180, 312
-0.998146, 377, 231, 408, 246
-0.998146, 325, 241, 356, 256
-0.998146, 357, 263, 388, 278
-0.998147, 141, 339, 172, 354
-0.998147, 221, 65, 252, 80
-0.998148, 389, 171, 420, 186
-0.998148, 197, 69, 228, 84
-0.998148, 257, 207, 288, 222
-0.998149, 249, 303, 280, 318
-0.998149, 385, 149, 416, 164
-0.998149, 389, 155, 420, 170
-0.998149, 93, 335, 124, 350
-0.99815, 425, 309, 456, 324
-0.99815, 321, 257, 448, 320
-0.99815, 377, 347, 408, 362
-0.99815, 45, 171, 76, 186
-0.99815, 249, 215, 280, 230
-0.99815, 133, 261, 164, 276
-0.99815, 1, 331, 32, 346
-0.998151, 397, 251, 428, 266
-0.998151, 325, 305, 356, 320
-0.998151, 209, 67, 240, 82
-0.998151, 409, 203, 440, 218
-0.998151, 393, 225, 424, 240
-0.998152, 57, 241, 88, 256
-0.998152, 377, 131, 408, 146
-0.998152, 301, 347, 332, 362
-0.998153, 369, 191, 400, 206
-0.998153, 277, 251, 308, 266
-0.998154, 317, 189, 348, 204
-0.998154, 77, 117, 108, 132
-0.998154, 17, 161, 80, 288
-0.998154, 197, 299, 228, 314
-0.998154, 129, 339, 160, 354
-0.998154, 361, 75, 392, 90
-0.998155, 353, 243, 384, 258
-0.998155, 385, 143, 416, 158
-0.998155, 393, 177, 424, 192
-0.998155, 237, 211, 268, 226
-0.998155, 281, 343, 312, 358
-0.998155, 377, 123, 408, 138
-0.998156, 101, 259, 132, 274
-0.998156, 393, 213, 424, 228
-0.998156, 337, 259, 368, 274
-0.998156, 149, 263, 180, 278
-0.998156, 169, 339, 200, 354
-0.998157, 265, 303, 296, 318
-0.998157, 217, 265, 248, 280
-0.998157, 93, 101, 124, 116
-0.998157, 37, 333, 68, 348
-0.998158, 237, 301, 268, 316
-0.998158, 53, 331, 84, 346
-0.99816, 341, 245, 372, 260
-0.99816, 85, 107, 116, 122
-0.998161, 241, 203, 272, 218
-0.998161, 325, 207, 356, 222
-0.998162, 165, 295, 196, 310
-0.998162, 373, 117, 404, 132
-0.998163, 313, 235, 344, 250
-0.998163, 185, 297, 216, 312
-0.998163, 313, 241, 344, 256
-0.998164, 349, 203, 380, 218
-0.998164, 177, 313, 304, 375
-0.998165, 437, 353, 468, 368
-0.998165, 397, 245, 428, 260
-0.998166, 377, 137, 408, 152
-0.998168, 369, 247, 400, 262
-0.998168, 397, 189, 428, 204
-0.998168, 377, 99, 408, 114
-0.998168, 293, 245, 324, 260
-0.998169, 389, 109, 420, 124
-0.998169, 265, 251, 296, 266
-0.998169, 393, 207, 424, 222
-0.99817, 357, 257, 388, 272
-0.99817, 389, 97, 420, 112
-0.998171, 321, 253, 352, 268
-0.998171, 365, 241, 396, 256
-0.998171, 65, 247, 96, 262
-0.998172, 285, 257, 316, 272
-0.998172, 373, 87, 404, 102
-0.998172, 373, 93, 404, 108
-0.998173, 357, 69, 388, 84
-0.998173, 381, 179, 412, 194
-0.998173, 189, 339, 220, 354
-0.998174, 81, 253, 112, 268
-0.998174, 397, 239, 428, 254
-0.998174, 205, 341, 236, 356
-0.998176, 217, 339, 248, 354
-0.998176, 373, 111, 404, 126
-0.998177, 373, 81, 404, 96
-0.998177, 389, 103, 420, 118
-0.998178, 337, 193, 368, 208
-0.998179, 269, 257, 300, 272
-0.998179, 373, 105, 404, 120
-0.99818, 317, 195, 348, 210
-0.998182, 393, 201, 424, 216
-0.998186, 113, 335, 144, 350
-0.998187, 333, 209, 364, 272
-0.998189, 317, 247, 348, 262
-0.998191, 389, 195, 420, 210
-0.998191, 393, 231, 424, 246
-0.998196, 349, 251, 380, 266
-0.998197, 337, 205, 368, 220
-0.998197, 381, 185, 412, 200
-0.9982, 289, 251, 320, 266
-0.998202, 317, 201, 348, 216
-0.99821, 377, 237, 408, 252
-0.998244, 337, 199, 368, 214
-0.998249, 369, 185, 496, 248
-0.998264, 145, 73, 208, 136
-0.99831, 241, 57, 304, 120
-0.998318, 1, 153, 500, 216
-0.998319, 33, 129, 96, 375
-0.99832, 305, 197, 432, 228
-0.998322, 225, 105, 480, 168
-0.998343, 33, 129, 288, 192
-0.998372, 229, 193, 260, 320
-0.998387, 209, 289, 336, 352
-0.9984, 33, 201, 288, 264
-0.998433, 357, 65, 388, 128
-0.998438, 369, 49, 496, 112
-0.998453, 209, 129, 336, 192
-0.998468, 253, 193, 284, 320
-0.998534, 145, 121, 272, 184
-0.998543, 145, 65, 208, 320
-0.998555, 97, 17, 224, 144
-0.998559, 17, 297, 144, 360
-0.998564, 225, 81, 480, 144
-0.998569, 65, 89, 320, 152
-0.998576, 321, 181, 448, 212
-0.998582, 73, 217, 136, 280
-0.998608, 321, 237, 448, 268
-0.99861, 97, 225, 160, 288
-0.998619, 273, 229, 400, 260
-0.99862, 357, 233, 388, 296
-0.99862, 387, 193, 402, 256
-0.998643, 65, 257, 320, 320
-0.99865, 177, 225, 240, 288
-0.998652, 345, 185, 360, 248
-0.998663, 145, 289, 272, 352
-0.998668, 337, 49, 400, 112
-0.998672, 385, 73, 400, 136
-0.998672, 177, 145, 304, 272
-0.998681, 273, 253, 400, 284
-0.998713, 361, 239, 424, 254
-0.99872, 361, 245, 424, 260
-0.998724, 265, 57, 328, 120
-0.99873, 305, 201, 368, 216
-0.998731, 325, 225, 340, 288
-0.998734, 329, 249, 392, 264
-0.998754, 161, 169, 288, 232
-0.998755, 361, 233, 424, 248
-0.998756, 329, 255, 392, 270
-0.998757, 329, 199, 392, 214
-0.998757, 305, 207, 368, 222
-0.998758, 289, 249, 352, 264
-0.998759, 329, 243, 392, 258
-0.998764, 305, 161, 368, 224
-0.998765, 305, 195, 368, 210
-0.998768, 361, 251, 424, 266
-0.998772, 337, 191, 400, 206
-0.998772, 321, 235, 384, 250
-0.998773, 361, 197, 424, 212
-0.998774, 345, 83, 408, 98
-0.998774, 297, 255, 360, 270
-0.998775, 361, 227, 424, 242
-0.998777, 329, 261, 392, 276
-0.99878, 345, 89, 408, 104
-0.998782, 369, 181, 432, 196
-0.998783, 49, 249, 112, 264
-0.998784, 377, 101, 440, 116
-0.998785, 329, 205, 392, 220
-0.998785, 345, 95, 408, 110
-0.998786, 289, 243, 352, 258
-0.998787, 345, 101, 408, 116
-0.998787, 369, 191, 432, 206
-0.998787, 329, 73, 392, 88
-0.998787, 17, 81, 144, 208
-0.998788, 345, 113, 408, 128
-0.998788, 377, 107, 440, 122
-0.998788, 41, 203, 104, 218
-0.998791, 361, 221, 424, 236
-0.998792, 57, 145, 120, 160
-0.998793, 353, 139, 416, 154
-0.998793, 377, 95, 440, 110
-0.998793, 337, 185, 400, 200
-0.998794, 353, 169, 416, 184
-0.998794, 33, 243, 96, 258
-0.998796, 193, 339, 256, 354
-0.998796, 345, 107, 408, 122
-0.998797, 345, 119, 408, 134
-0.998797, 353, 133, 416, 148
-0.998797, 201, 67, 264, 82
-0.998799, 1, 169, 256, 232
-0.998799, 361, 257, 424, 272
-0.998799, 105, 337, 168, 352
-0.998799, 49, 163, 112, 178
-0.9988, 289, 237, 352, 252
-0.9988, 361, 213, 424, 228
-0.9988, 385, 237, 448, 252
-0.9988, 257, 253, 320, 268
-0.9988, 361, 203, 424, 218
-0.998801, 353, 147, 416, 162
-0.998801, 129, 263, 192, 278
-0.998802, 353, 175, 416, 190
-0.998802, 41, 197, 104, 212
-0.998803, 169, 339, 232, 354
-0.998803, 353, 347, 416, 362
-0.998803, 345, 125, 408, 140
-0.998803, 89, 101, 152, 116
-0.998803, 73, 113, 136, 128
-0.998804, 401, 205, 464, 220
-0.998804, 233, 303, 296, 318
-0.998804, 233, 203, 296, 218
-0.998806, 385, 131, 448, 146
-0.998806, 81, 107, 144, 122
-0.998806, 281, 199, 344, 214
-0.998807, 169, 73, 232, 88
-0.998807, 353, 159, 416, 174
-0.998807, 385, 231, 448, 246
-0.998807, 377, 113, 440, 128
-0.998807, 329, 67, 392, 82
-0.998807, 169, 297, 232, 312
-0.998808, 169, 259, 232, 274
-0.998809, 385, 89, 448, 104
-0.998809, 385, 211, 448, 226
-0.998809, 49, 169, 112, 184
-0.998809, 145, 339, 208, 354
-0.99881, 65, 127, 128, 142
-0.99881, 73, 255, 136, 270
-0.99881, 353, 153, 416, 168
-0.99881, 209, 301, 272, 316
-0.99881, 121, 83, 184, 98
-0.99881, 265, 213, 328, 228
-0.99881, 257, 259, 320, 274
-0.998811, 33, 187, 96, 202
-0.998811, 401, 199, 464, 214
-0.998811, 41, 177, 104, 192
-0.998811, 41, 209, 104, 224
-0.998811, 49, 215, 112, 230
-0.998812, 65, 135, 128, 150
-0.998812, 105, 261, 168, 276
-0.998812, 329, 229, 392, 244
-0.998812, 393, 217, 456, 232
-0.998813, 105, 89, 168, 104
-0.998813, 385, 243, 448, 258
-0.998814, 385, 125, 448, 140
-0.998814, 65, 121, 128, 136
-0.998814, 393, 353, 456, 368
-0.998815, 49, 223, 112, 238
-0.998815, 57, 237, 120, 252
-0.998815, 265, 207, 328, 222
-0.998815, 89, 95, 152, 110
-0.998815, 241, 63, 304, 78
-0.998815, 209, 263, 272, 278
-0.998815, 273, 61, 336, 76
-0.998815, 385, 137, 448, 152
-0.998815, 377, 175, 440, 190
-0.998816, 217, 211, 280, 226
-0.998816, 57, 291, 120, 306
-0.998816, 313, 307, 376, 322
-0.998816, 145, 77, 208, 92
-0.998816, 65, 335, 128, 350
-0.998816, 273, 301, 336, 316
-0.998816, 385, 119, 448, 134
-0.998817, 273, 345, 336, 360
-0.998817, 241, 217, 304, 232
-0.998818, 313, 189, 376, 204
-0.998818, 385, 145, 448, 160
-0.998818, 401, 225, 464, 240
-0.998819, 57, 151, 120, 166
-0.998819, 25, 237, 88, 252
-0.998819, 17, 331, 80, 346
-0.998819, 313, 179, 376, 194
-0.99882, 81, 245, 144, 260
-0.99882, 145, 295, 208, 310
-0.99882, 385, 249, 448, 264
-0.99882, 217, 173, 280, 188
-0.99882, 153, 265, 216, 280
-0.99882, 393, 163, 456, 178
-0.998823, 169, 177, 232, 304
-0.998851, 253, 241, 284, 368
-0.998885, 201, 33, 264, 288
-0.998898, 145, 193, 208, 320
-0.998901, 321, 249, 448, 280
-0.998904, 225, 313, 352, 375
-0.998916, 289, 77, 416, 108
-0.998916, 321, 209, 448, 240
-0.998917, 33, 265, 160, 328
-0.998922, 379, 73, 394, 136
-0.998935, 337, 257, 400, 320
-0.998962, 313, 209, 344, 336
-0.998968, 225, 253, 352, 284
-0.99898, 371, 233, 386, 296
-0.998985, 387, 169, 402, 232
-0.998996, 289, 109, 416, 140
-0.999, 393, 177, 408, 240
-0.999012, 321, 221, 448, 252
-0.999012, 263, 217, 278, 280
-0.999013, 287, 249, 302, 312
-0.999021, 1, 73, 128, 136
-0.999029, 217, 129, 280, 375
-0.999062, 239, 225, 254, 288
-0.999062, 333, 241, 348, 304
-0.999069, 289, 89, 416, 120
-0.99907, 257, 217, 272, 280
-0.999076, 277, 217, 292, 280
-0.999081, 347, 193, 362, 224
-0.999091, 381, 193, 396, 256
-0.999104, 337, 209, 352, 272
-0.999105, 337, 65, 368, 192
-0.999113, 193, 33, 320, 96
-0.999114, 321, 169, 448, 200
-0.999114, 33, 217, 160, 248
-0.999128, 231, 225, 246, 288
-0.999133, 305, 125, 432, 156
-0.999136, 209, 61, 336, 92
-0.999141, 281, 249, 296, 312
-0.999144, 351, 185, 366, 248
-0.99915, 285, 217, 300, 280
-0.999165, 33, 249, 160, 280
-0.999172, 113, 77, 240, 108
-0.999174, 179, 257, 194, 320
-0.999179, 251, 217, 266, 280
-0.999183, 373, 65, 388, 128
-0.999187, 249, 217, 280, 280
-0.999188, 361, 81, 424, 144
-0.999206, 241, 189, 368, 220
-0.999213, 171, 257, 186, 320
-0.999214, 165, 257, 180, 320
-0.999218, 391, 181, 406, 212
-0.999223, 391, 233, 406, 296
-0.999228, 233, 177, 296, 240
-0.999228, 145, 225, 208, 288
-0.999228, 305, 145, 432, 176
-0.999233, 73, 97, 104, 224
-0.999233, 385, 193, 416, 320
-0.999233, 357, 225, 388, 352
-0.999238, 33, 201, 160, 232
-0.999242, 341, 193, 356, 224
-0.999244, 241, 201, 368, 232
-0.999249, 343, 209, 358, 272
-0.999259, 289, 249, 304, 280
-0.999259, 141, 257, 156, 320
-0.999267, 81, 97, 208, 128
-0.99927, 33, 173, 160, 204
-0.999271, 271, 217, 286, 280
-0.999273, 225, 105, 352, 168
-0.999273, 353, 313, 480, 375
-0.999274, 387, 81, 402, 112
-0.999277, 161, 65, 288, 96
-0.999278, 155, 257, 170, 320
-0.999279, 209, 233, 336, 264
-0.999284, 365, 233, 380, 296
-0.999287, 377, 233, 392, 296
-0.999289, 369, 97, 496, 128
-0.999302, 245, 225, 260, 288
-0.999305, 209, 213, 336, 244
-0.999311, 339, 185, 354, 248
-0.999317, 135, 257, 150, 320
-0.999318, 353, 73, 368, 136
-0.999323, 289, 157, 416, 188
-0.999326, 313, 209, 328, 272
-0.999326, 369, 65, 400, 320
-0.999326, 319, 225, 334, 288
-0.999329, 265, 193, 296, 320
-0.999332, 289, 145, 352, 272
-0.999337, 33, 161, 160, 192
-0.999338, 363, 57, 378, 120
-0.99934, 49, 133, 176, 164
-0.99934, 161, 225, 192, 352
-0.999344, 301, 177, 332, 304
-0.999344, 229, 241, 260, 368
-0.999349, 337, 253, 352, 284
-0.999355, 327, 233, 342, 264
-0.999356, 1, 237, 128, 268
-0.99936, 339, 249, 354, 312
-0.999361, 49, 229, 176, 260
-0.999362, 383, 225, 398, 288
-0.999365, 399, 169, 414, 232
-0.999374, 391, 121, 406, 136
-0.999374, 51, 333, 66, 348
-0.999374, 79, 115, 94, 130
-0.999374, 173, 261, 188, 276
-0.999374, 117, 295, 132, 310
-0.999374, 137, 295, 152, 310
-0.999374, 149, 337, 164, 352
-0.999374, 321, 345, 336, 360
-0.999374, 233, 65, 248, 80
-0.999374, 237, 301, 252, 316
-0.999374, 405, 189, 420, 204
-0.999375, 89, 293, 104, 308
-0.999375, 115, 257, 130, 272
-0.999375, 393, 191, 408, 206
-0.999375, 69, 239, 84, 254
-0.999375, 193, 297, 208, 312
-0.999375, 337, 239, 352, 254
-0.999375, 445, 353, 460, 368
-0.999375, 371, 247, 386, 262
-0.999375, 81, 257, 208, 288
-0.999375, 157, 261, 172, 276
-0.999375, 439, 353, 454, 368
-0.999376, 235, 343, 250, 358
-0.999376, 397, 93, 412, 108
-0.999376, 381, 101, 396, 116
-0.999376, 251, 63, 266, 78
-0.999376, 407, 199, 422, 214
-0.999376, 95, 253, 110, 268
-0.999376, 329, 305, 344, 320
-0.999376, 307, 245, 322, 260
-0.999376, 73, 247, 88, 262
-0.999376, 85, 249, 100, 264
-0.999376, 273, 257, 288, 272
-0.999376, 383, 347, 398, 362
-0.999377, 103, 257, 118, 272
-0.999377, 365, 241, 380, 256
-0.999377, 67, 331, 82, 346
-0.999377, 127, 295, 142, 310
-0.999377, 143, 339, 158, 354
-0.999377, 225, 65, 240, 80
-0.999377, 255, 213, 270, 228
-0.999377, 301, 345, 316, 360
-0.999377, 397, 139, 412, 154
-0.999377, 341, 245, 356, 260
-0.999377, 269, 249, 284, 312
-0.999377, 275, 249, 290, 312
-0.999377, 393, 133, 408, 148
-0.999378, 249, 213, 264, 228
-0.999378, 227, 339, 242, 354
-0.999378, 55, 167, 70, 182
-0.999378, 171, 339, 186, 354
-0.999378, 373, 237, 388, 268
-0.999379, 97, 99, 112, 114
-0.999379, 133, 337, 148, 352
-0.999379, 169, 295, 184, 310
-0.999379, 9, 331, 24, 346
-0.999379, 181, 265, 196, 280
-0.999379, 241, 259, 256, 274
-0.999379, 185, 297, 200, 312
-0.99938, 333, 231, 348, 246
-0.99938, 211, 67, 226, 82
-0.99938, 231, 263, 246, 278
-0.999381, 211, 301, 226, 316
-0.999381, 141, 261, 156, 276
-0.999381, 369, 235, 384, 250
-0.999381, 347, 259, 362, 274
-0.999381, 289, 343, 304, 358
-0.999381, 165, 339, 180, 354
-0.999381, 399, 351, 414, 366
-0.999381, 369, 121, 496, 152
-0.999381, 85, 105, 100, 168
-0.999381, 341, 259, 356, 274
-0.999382, 389, 107, 404, 122
-0.999382, 253, 303, 268, 318
-0.999382, 225, 301, 352, 332
-0.999382, 399, 247, 414, 262
-0.999382, 59, 331, 74, 346
-0.999383, 379, 77, 394, 92
-0.999383, 191, 339, 206, 354
-0.999383, 79, 247, 94, 262
-0.999383, 163, 263, 178, 278
-0.999383, 337, 207, 352, 222
-0.999384, 431, 311, 446, 326
-0.999384, 111, 335, 126, 350
-0.999384, 149, 261, 164, 276
-0.999384, 387, 189, 402, 204
-0.999386, 243, 301, 258, 316
-0.999386, 277, 251, 292, 266
-0.999386, 277, 303, 292, 318
-0.999387, 383, 235, 398, 250
-0.999387, 185, 339, 200, 354
-0.999387, 201, 297, 216, 312
-0.999387, 89, 107, 104, 122
-0.999387, 363, 247, 378, 262
-0.999387, 353, 199, 368, 214
-0.999388, 371, 257, 386, 272
-0.999388, 179, 295, 194, 310
-0.999388, 451, 353, 466, 368
-0.999388, 261, 209, 276, 224
-0.999389, 283, 249, 298, 264
-0.99939, 345, 191, 360, 206
-0.99939, 391, 197, 406, 212
-0.99939, 123, 335, 138, 350
-0.99939, 387, 179, 402, 194
-0.999391, 3, 331, 18, 346
-0.999391, 387, 113, 402, 128
-0.999391, 399, 193, 414, 208
-0.999391, 393, 99, 408, 114
-0.999391, 377, 237, 392, 252
-0.999391, 289, 313, 416, 375
-0.999392, 323, 231, 338, 246
-0.999392, 325, 239, 340, 254
-0.999392, 393, 185, 408, 200
-0.999393, 391, 237, 406, 252
-0.999393, 385, 81, 400, 96
-0.999393, 295, 343, 310, 358
-0.999393, 217, 339, 232, 354
-0.999394, 383, 107, 398, 122
-0.999395, 385, 195, 400, 210
-0.999395, 201, 339, 216, 354
-0.999396, 387, 101, 402, 116
-0.999396, 335, 201, 350, 216
-0.999396, 355, 205, 370, 220
-0.999396, 387, 97, 402, 160
-0.999398, 331, 245, 346, 276
-0.999398, 371, 241, 386, 256
-0.999398, 365, 253, 380, 268
-0.999398, 335, 195, 350, 210
-0.999398, 349, 207, 364, 222
-0.999399, 305, 241, 320, 304
-0.999399, 337, 253, 352, 268
-0.9994, 295, 249, 310, 264
-0.999401, 283, 257, 298, 272
-0.999401, 387, 91, 402, 106
-0.999402, 97, 177, 352, 240
-0.999403, 65, 109, 192, 140
-0.999404, 209, 341, 224, 356
-0.999406, 117, 335, 132, 350
-0.999408, 343, 205, 358, 220
-0.999409, 225, 1, 352, 128
-0.999412, 387, 101, 402, 132
-0.999414, 341, 199, 356, 214
-0.999415, 341, 205, 356, 236
-0.999415, 331, 249, 346, 264
-0.999416, 347, 205, 362, 236
-0.999416, 129, 41, 256, 104
-0.999417, 147, 257, 162, 320
-0.999421, 289, 253, 304, 268
-0.999424, 273, 249, 304, 312
-0.999426, 283, 253, 298, 284
-0.999428, 347, 197, 362, 212
-0.999445, 225, 57, 480, 120
-0.999449, 389, 233, 404, 264
-0.999451, 289, 65, 416, 96
-0.999452, 353, 197, 368, 228
-0.999453, 349, 209, 364, 272
-0.999454, 255, 241, 270, 304
-0.999454, 121, 333, 136, 364
-0.999459, 187, 257, 202, 320
-0.999462, 245, 249, 260, 312
-0.999463, 209, 265, 224, 328
-0.999465, 385, 193, 400, 224
-0.999468, 395, 193, 410, 224
-0.999468, 331, 209, 346, 272
-0.999469, 291, 217, 306, 280
-0.999473, 49, 145, 176, 176
-0.999474, 385, 181, 400, 212
-0.999476, 329, 17, 392, 144
-0.999478, 393, 201, 408, 264
-0.999479, 41, 1, 104, 375
-0.99948, 129, 249, 256, 280
-0.999482, 343, 257, 358, 288
-0.999483, 381, 77, 396, 108
-0.999484, 235, 249, 250, 312
-0.999484, 377, 97, 408, 160
-0.999484, 71, 121, 86, 184
-0.999486, 369, 85, 496, 116
-0.999486, 369, 109, 496, 140
-0.999493, 115, 333, 130, 364
-0.999495, 33, 189, 160, 220
-0.999496, 103, 249, 118, 312
-0.999502, 123, 257, 138, 320
-0.999503, 379, 233, 394, 264
-0.999505, 121, 241, 152, 368
-0.999505, 255, 193, 270, 256
-0.999506, 177, 257, 304, 288
-0.999511, 307, 209, 322, 272
-0.999515, 369, 137, 496, 168
-0.999517, 393, 97, 408, 128
-0.999517, 367, 241, 382, 272
-0.999518, 199, 265, 214, 328
-0.99952, 333, 65, 348, 128
-0.999521, 283, 237, 298, 268
-0.999521, 343, 73, 358, 136
-0.999521, 95, 97, 110, 160
-0.999526, 333, 185, 348, 248
-0.999526, 381, 169, 396, 232
-0.999527, 295, 241, 310, 272
-0.99953, 219, 337, 234, 368
-0.999533, 341, 241, 356, 272
-0.999536, 129, 257, 144, 320
-0.999537, 81, 177, 208, 240
-0.999542, 273, 241, 336, 368
-0.999542, 321, 65, 352, 320
-0.999548, 61, 145, 76, 208
-0.999551, 297, 225, 312, 288
-0.999552, 311, 253, 326, 284
-0.999554, 261, 241, 276, 304
-0.999554, 399, 217, 414, 280
-0.999556, 369, 253, 384, 284
-0.999556, 393, 153, 408, 216
-0.999557, 305, 245, 320, 276
-0.999557, 211, 337, 226, 368
-0.999557, 385, 1, 448, 375
-0.99956, 405, 217, 420, 280
-0.999561, 273, 217, 400, 248
-0.999563, 297, 341, 312, 372
-0.999564, 253, 249, 268, 280
-0.999564, 163, 261, 178, 292
-0.999566, 393, 89, 408, 152
-0.999568, 385, 97, 416, 352
-0.999569, 203, 337, 218, 368
-0.999569, 163, 73, 178, 136
-0.999569, 141, 225, 156, 288
-0.99957, 335, 193, 350, 224
-0.999571, 369, 65, 384, 96
-0.999574, 321, 233, 336, 264
-0.999574, 157, 261, 172, 292
-0.999575, 225, 225, 240, 288
-0.999575, 87, 105, 102, 136
-0.999576, 209, 65, 224, 128
-0.999576, 129, 265, 256, 296
-0.999577, 149, 257, 180, 320
-0.999578, 375, 73, 390, 104
-0.999578, 49, 121, 176, 152
-0.999579, 77, 113, 92, 176
-0.999579, 69, 241, 84, 272
-0.999579, 149, 225, 180, 352
-0.999579, 253, 213, 268, 244
-0.999581, 161, 225, 176, 288
-0.999583, 341, 65, 372, 320
-0.999584, 117, 257, 132, 320
-0.999584, 243, 253, 258, 284
-0.999587, 77, 245, 92, 276
-0.999588, 77, 241, 92, 304
-0.999588, 229, 257, 244, 320
-0.999591, 171, 261, 186, 292
-0.999591, 369, 149, 496, 180
-0.999593, 249, 145, 312, 272
-0.999593, 151, 225, 166, 288
-0.999594, 103, 257, 118, 288
-0.999594, 137, 81, 152, 144
-0.999597, 397, 181, 412, 212
-0.999597, 3, 329, 18, 360
-0.999599, 349, 257, 364, 288
-0.999599, 181, 293, 196, 324
-0.9996, 353, 185, 368, 216
-0.999601, 401, 237, 416, 268
-0.999601, 277, 241, 292, 272
-0.999602, 167, 225, 182, 288
-0.999603, 259, 217, 274, 248
-0.999604, 381, 221, 396, 252
-0.999604, 369, 181, 496, 212
-0.999605, 127, 333, 142, 364
-0.999606, 333, 185, 364, 248
-0.999609, 95, 101, 110, 132
-0.999609, 133, 333, 148, 364
-0.99961, 391, 121, 406, 152
-0.999611, 403, 173, 418, 204
-0.999613, 361, 65, 376, 96
-0.999613, 291, 341, 306, 372
-0.999614, 177, 33, 240, 288
-0.999615, 129, 225, 144, 288
-0.999616, 137, 241, 168, 368
-0.999617, 33, 333, 160, 364
-0.999618, 361, 241, 376, 272
-0.999618, 57, 329, 72, 360
-0.99962, 145, 293, 160, 324
-0.99962, 197, 337, 212, 368
-0.999621, 93, 249, 108, 280
-0.999622, 167, 293, 182, 324
-0.999623, 193, 257, 208, 320
-0.999624, 61, 233, 76, 296
-0.999624, 259, 253, 274, 284
-0.999624, 273, 253, 288, 284
-0.999625, 395, 237, 410, 268
-0.999626, 161, 205, 288, 236
-0.999627, 83, 241, 98, 304
-0.999627, 135, 225, 150, 288
-0.999627, 79, 113, 94, 144
-0.999628, 181, 261, 196, 292
-0.999629, 225, 337, 240, 368
-0.999629, 65, 49, 192, 112
-0.99963, 367, 225, 382, 256
-0.99963, 25, 325, 40, 356
-0.99963, 327, 65, 342, 128
-0.99963, 125, 81, 140, 144
-0.999631, 83, 289, 98, 320
-0.999634, 175, 293, 190, 324
-0.999635, 203, 293, 218, 324
-0.999636, 405, 249, 420, 280
-0.999638, 109, 249, 124, 312
-0.999639, 211, 65, 226, 96
-0.999639, 59, 237, 74, 268
-0.999642, 109, 257, 124, 288
-0.999642, 149, 261, 164, 292
-0.999642, 97, 249, 112, 312
-0.999643, 275, 57, 290, 120
-0.999644, 381, 97, 396, 128
-0.999645, 103, 225, 118, 288
-0.999646, 317, 249, 332, 280
-0.999647, 231, 261, 246, 292
-0.999648, 351, 73, 366, 104
-0.999648, 141, 261, 156, 292
-0.999648, 103, 89, 118, 152
-0.99965, 325, 201, 340, 264
-0.99965, 237, 249, 252, 280
-0.999651, 347, 181, 362, 212
-0.999652, 335, 225, 350, 256
-0.999652, 407, 241, 422, 304
-0.999652, 115, 253, 130, 284
-0.999652, 65, 329, 80, 360
-0.999652, 191, 337, 206, 368
-0.999653, 119, 85, 134, 116
-0.999655, 213, 265, 228, 296
-0.999655, 343, 161, 358, 288
-0.999656, 311, 233, 326, 264
-0.999656, 269, 217, 284, 248
-0.999656, 357, 65, 388, 320
-0.999656, 85, 249, 100, 280
-0.999656, 239, 297, 254, 328
-0.999657, 379, 185, 394, 216
-0.999657, 11, 329, 26, 360
-0.99966, 293, 249, 308, 312
-0.99966, 347, 249, 362, 312
-0.999662, 247, 213, 262, 244
-0.999663, 373, 225, 388, 256
-0.999664, 91, 289, 106, 320
-0.999664, 275, 301, 290, 332
-0.999665, 261, 205, 276, 236
-0.999665, 347, 245, 362, 276
-0.999665, 125, 85, 140, 116
-0.999665, 31, 329, 46, 360
-0.999665, 349, 177, 364, 304
-0.999667, 403, 189, 418, 220
-0.999667, 49, 169, 64, 200
-0.999667, 369, 165, 496, 196
-0.999668, 169, 337, 184, 368
-0.999668, 235, 337, 250, 368
-0.999668, 145, 145, 272, 208
-0.999669, 249, 61, 264, 92
-0.99967, 63, 145, 78, 176
-0.99967, 225, 261, 240, 292
-0.99967, 353, 209, 368, 240
-0.999671, 369, 229, 496, 260
-0.999671, 247, 229, 262, 260
-0.999671, 363, 253, 378, 284
-0.999671, 109, 245, 124, 276
-0.999671, 127, 257, 142, 288
-0.999672, 153, 73, 168, 136
-0.999672, 289, 237, 304, 268
-0.999673, 133, 257, 148, 288
-0.999673, 205, 265, 220, 296
-0.999673, 331, 301, 346, 332
-0.999676, 117, 81, 132, 144
-0.999682, 229, 57, 244, 120
-0.999682, 195, 65, 210, 128
-0.999684, 375, 201, 390, 264
-0.999685, 131, 81, 146, 144
-0.999687, 401, 145, 416, 208
-0.99969, 243, 201, 258, 264
-0.999691, 357, 177, 372, 240
-0.999693, 129, 297, 256, 328
-0.999693, 69, 233, 84, 296
-0.999694, 249, 57, 264, 120
-0.999694, 257, 289, 384, 352
-0.999697, 311, 241, 326, 304
-0.999697, 169, 65, 200, 192
-0.9997, 89, 249, 104, 312
-0.9997, 219, 257, 234, 320
-0.999706, 143, 81, 158, 144
-0.999706, 241, 33, 368, 96
-0.999712, 201, 65, 216, 128
-0.999712, 383, 65, 398, 192
-0.999715, 299, 249, 314, 312
-0.999716, 81, 337, 208, 368
-0.999718, 369, 201, 496, 232
-0.999718, 109, 89, 124, 152
-0.999721, 187, 65, 202, 128
-0.999721, 385, 177, 400, 304
-0.999723, 113, 313, 240, 375
-0.999724, 173, 225, 188, 288
-0.999727, 243, 57, 258, 120
-0.999727, 397, 241, 412, 304
-0.999733, 235, 57, 250, 120
-0.999735, 209, 157, 336, 188
-0.999736, 57, 129, 88, 375
-0.999737, 257, 57, 272, 120
-0.999738, 253, 193, 268, 320
-0.999739, 219, 57, 234, 120
-0.99974, 119, 305, 134, 368
-0.999747, 225, 225, 256, 288
-0.999757, 177, 245, 304, 276
-0.999757, 49, 293, 176, 324
-0.999758, 377, 65, 392, 192
-0.999759, 337, 177, 352, 304
-0.999759, 289, 49, 320, 176
-0.999766, 247, 193, 262, 320
-0.999771, 259, 193, 274, 320
-0.999771, 273, 177, 400, 208
-0.999776, 343, 209, 358, 336
-0.999781, 355, 177, 370, 304
-0.999782, 59, 145, 74, 272
-0.99979, 333, 225, 348, 352
-0.99979, 389, 201, 420, 264
-0.99979, 269, 217, 300, 280
-0.999792, 369, 73, 496, 104
-0.999795, 193, 341, 320, 372
-0.999796, 391, 145, 406, 272
-0.999798, 241, 193, 256, 320
-0.999798, 85, 65, 116, 320
-0.999801, 209, 173, 336, 204
-0.999806, 367, 49, 382, 176
-0.999811, 327, 209, 342, 336
-0.999812, 391, 193, 406, 320
-0.999813, 369, 217, 496, 248
-0.999814, 161, 225, 176, 352
-0.999815, 177, 301, 304, 332
-0.999818, 321, 261, 448, 292
-0.999818, 253, 241, 268, 368
-0.999818, 139, 241, 154, 368
-0.999823, 217, 241, 248, 368
-0.999824, 233, 241, 248, 368
-0.999824, 273, 193, 288, 320
-0.999826, 129, 65, 160, 320
-0.999826, 65, 85, 192, 116
-0.999827, 53, 145, 68, 272
-0.999833, 385, 97, 416, 224
-0.999834, 155, 225, 170, 352
-0.999837, 167, 225, 182, 352
-0.999838, 241, 241, 272, 368
-0.999838, 389, 65, 404, 192
-0.99984, 379, 177, 394, 304
-0.999842, 401, 145, 416, 272
-0.999844, 359, 49, 374, 176
-0.999844, 241, 241, 256, 368
-0.999845, 267, 193, 282, 320
-0.999846, 145, 337, 272, 368
-0.999846, 321, 209, 336, 336
-0.999846, 281, 193, 296, 320
-0.999848, 177, 241, 192, 368
-0.999849, 305, 65, 336, 320
-0.999849, 145, 241, 160, 368
-0.99985, 1, 289, 128, 320
-0.999851, 171, 65, 186, 192
-0.999852, 209, 177, 272, 240
-0.999855, 373, 225, 404, 352
-0.999856, 145, 221, 272, 252
-0.999856, 279, 241, 294, 368
-0.999859, 311, 177, 326, 304
-0.999859, 189, 241, 204, 368
-0.999859, 209, 145, 336, 176
-0.999863, 353, 65, 368, 192
-0.999863, 149, 65, 164, 192
-0.999865, 115, 241, 130, 368
-0.999865, 121, 241, 136, 368
-0.999865, 289, 225, 304, 352
-0.999866, 177, 65, 192, 192
-0.999867, 295, 49, 310, 176
-0.999871, 259, 241, 274, 368
-0.999873, 295, 225, 310, 352
-0.999874, 221, 49, 236, 176
-0.999874, 183, 241, 198, 368
-0.999875, 101, 241, 116, 368
-0.999876, 205, 49, 220, 176
-0.999876, 235, 193, 250, 320
-0.999876, 233, 49, 248, 176
-0.999876, 165, 65, 180, 192
-0.999877, 155, 65, 170, 192
-0.999878, 65, 129, 80, 256
-0.999878, 269, 241, 284, 368
-0.99988, 243, 49, 258, 176
-0.99988, 361, 225, 376, 352
-0.999881, 309, 49, 324, 176
-0.999882, 77, 225, 92, 352
-0.999882, 175, 177, 190, 304
-0.999883, 85, 97, 100, 224
-0.999884, 75, 97, 90, 224
-0.999885, 257, 49, 272, 176
-0.999885, 227, 241, 242, 368
-0.999885, 141, 65, 172, 320
-0.999885, 71, 225, 86, 352
-0.999887, 345, 65, 360, 192
-0.999887, 275, 49, 290, 176
-0.999888, 367, 225, 382, 352
-0.999888, 197, 241, 212, 368
-0.999889, 267, 49, 282, 176
-0.999891, 373, 209, 388, 336
-0.999891, 141, 65, 156, 192
-0.999892, 89, 193, 104, 320
-0.999893, 247, 241, 262, 368
-0.999893, 213, 49, 228, 176
-0.999893, 315, 49, 330, 176
-0.999893, 133, 241, 148, 368
-0.999894, 377, 97, 440, 224
-0.999895, 73, 97, 104, 352
-0.999896, 289, 49, 304, 176
-0.999897, 199, 49, 214, 176
-0.999898, 303, 49, 318, 176
-0.999898, 217, 241, 232, 368
-0.999899, 193, 49, 208, 176
-0.9999, 327, 49, 342, 176
-0.9999, 83, 225, 98, 352
-0.999901, 185, 65, 200, 192
-0.999902, 227, 49, 242, 176
-0.999902, 361, 177, 376, 304
-0.999906, 121, 65, 136, 192
-0.999907, 103, 81, 118, 208
-0.999907, 203, 241, 218, 368
-0.999909, 251, 49, 266, 176
-0.999909, 321, 49, 336, 176
-0.999909, 127, 241, 142, 368
-0.999911, 107, 241, 122, 368
-0.999912, 169, 177, 184, 304
-0.999913, 331, 161, 346, 288
-0.999914, 93, 81, 108, 208
-0.999914, 283, 49, 298, 176
-0.999915, 305, 177, 320, 304
-0.999915, 97, 193, 112, 320
-0.999915, 105, 65, 136, 320
-0.999917, 161, 177, 176, 304
-0.999917, 111, 81, 126, 208
-0.999919, 211, 241, 226, 368
-0.999919, 1, 113, 128, 144
-0.999921, 385, 225, 400, 352
-0.999921, 333, 49, 348, 176
-0.999922, 93, 241, 108, 368
-0.999923, 317, 161, 332, 288
-0.999924, 149, 193, 164, 320
-0.999925, 351, 241, 366, 368
-0.999927, 155, 177, 170, 304
-0.999928, 133, 65, 148, 192
-0.999928, 81, 245, 208, 276
-0.999931, 303, 225, 318, 352
-0.999932, 339, 49, 354, 176
-0.999933, 313, 225, 328, 352
-0.999935, 229, 193, 244, 320
-0.999937, 183, 193, 198, 320
-0.999937, 397, 193, 412, 320
-0.999939, 65, 209, 80, 336
-0.999939, 127, 65, 142, 192
-0.999941, 407, 161, 422, 288
-0.999942, 375, 17, 390, 144
-0.999943, 223, 193, 238, 320
-0.999944, 33, 305, 288, 368
-0.999947, 349, 49, 380, 176
-0.999947, 47, 161, 62, 288
-0.99995, 103, 193, 118, 320
-0.999952, 143, 193, 158, 320
-0.999953, 81, 177, 96, 304
-0.999955, 273, 345, 400, 375
-0.999958, 81, 209, 208, 240
-0.99996, 145, 193, 272, 224
-0.999964, 289, 305, 416, 336
-0.999991, 33, 65, 288, 128
-0.999996, 77, 105, 108, 168
-1.00001, 293, 65, 324, 320
-1.00001, 97, 201, 224, 264
-1.00001, 385, 65, 448, 128
-1.00001, 313, 41, 376, 104
-1.00001, 65, 281, 128, 344
-1.00003, 333, 249, 364, 312
-1.00003, 285, 225, 316, 352
-1.00003, 117, 65, 148, 320
-1.00003, 17, 97, 144, 128
-1.00004, 385, 233, 448, 296
-1.00004, 1, 137, 128, 168
-1.00005, 157, 65, 188, 320
-1.00005, 113, 325, 240, 356
-1.00005, 209, 133, 336, 164
-1.00007, 321, 281, 448, 344
-1.00007, 237, 225, 268, 288
-1.00007, 161, 257, 192, 320
-1.00008, 97, 285, 224, 316
-1.0001, 285, 249, 316, 312
-1.00011, 1, 125, 128, 156
-1.00011, 273, 265, 400, 296
-1.00012, 225, 81, 352, 144
-1.00013, 193, 189, 320, 220
-1.00013, 225, 33, 288, 288
-1.00014, 177, 285, 304, 316
-1.00015, 1, 233, 500, 296
-1.00015, 257, 121, 384, 152
-1.00015, 241, 289, 368, 320
-1.00016, 69, 225, 100, 352
-1.00016, 1, 149, 128, 180
-1.00017, 209, 121, 336, 152
-1.00017, 245, 129, 276, 375
-1.00018, 345, 209, 376, 272
-1.00018, 17, 321, 144, 352
-1.00018, 257, 33, 288, 288
-1.00018, 337, 341, 464, 372
-1.00019, 241, 333, 368, 364
-1.00019, 1, 257, 500, 320
-1.00019, 389, 153, 420, 216
-1.00019, 121, 177, 184, 304
-1.00019, 145, 153, 272, 184
-1.0002, 281, 65, 312, 320
-1.00021, 241, 73, 368, 104
-1.00021, 81, 189, 208, 220
-1.00021, 129, 237, 256, 268
-1.00021, 1, 85, 128, 116
-1.00021, 245, 33, 276, 288
-1.00022, 97, 153, 352, 216
-1.00022, 401, 185, 464, 248
-1.00022, 129, 41, 384, 104
-1.00022, 65, 313, 192, 375
-1.00022, 137, 65, 168, 192
-1.00023, 233, 313, 296, 375
-1.00023, 49, 281, 176, 312
-1.00023, 225, 49, 352, 80
-1.00024, 257, 133, 384, 164
-1.00024, 45, 129, 76, 375
-1.00025, 161, 305, 416, 368
-1.00025, 369, 241, 496, 272
-1.00025, 129, 177, 256, 208
-1.00026, 337, 305, 464, 336
-1.00026, 353, 61, 480, 92
-1.00027, 17, 1, 80, 375
-1.00027, 269, 49, 300, 176
-1.00028, 193, 329, 320, 360
-1.00029, 225, 33, 256, 288
-1.00029, 97, 57, 224, 88
-1.0003, 333, 241, 364, 368
-1.0003, 185, 241, 216, 368
-1.0003, 177, 269, 304, 300
-1.0003, 129, 257, 160, 320
-1.00031, 305, 293, 432, 324
-1.00031, 169, 65, 200, 320
-1.00032, 301, 209, 332, 272
-1.00032, 81, 193, 112, 320
-1.00032, 257, 145, 384, 176
-1.00032, 289, 53, 416, 84
-1.00032, 49, 69, 176, 100
-1.00033, 161, 265, 416, 328
-1.00034, 209, 33, 240, 288
-1.00035, 337, 273, 464, 304
-1.00035, 197, 33, 228, 288
-1.00035, 249, 49, 280, 176
-1.00035, 177, 1, 304, 128
-1.00036, 33, 261, 160, 292
-1.00037, 97, 153, 224, 216
-1.00037, 269, 65, 300, 320
-1.00038, 181, 33, 212, 288
-1.00038, 369, 265, 496, 328
-1.00039, 289, 313, 352, 375
-1.00039, 145, 133, 272, 164
-1.00039, 145, 165, 272, 196
-1.0004, 193, 313, 320, 344
-1.00041, 193, 105, 320, 136
-1.00041, 109, 241, 140, 368
-1.00043, 265, 313, 328, 375
-1.00043, 225, 265, 352, 296
-1.00044, 129, 117, 256, 148
-1.00044, 257, 129, 288, 375
-1.00046, 229, 49, 260, 176
-1.00047, 33, 345, 160, 375
-1.00048, 225, 85, 352, 116
-1.00048, 185, 265, 216, 328
-1.00048, 93, 241, 124, 368
-1.00049, 241, 109, 368, 140
-1.00051, 81, 165, 208, 196
-1.00051, 289, 333, 416, 364
-1.00051, 161, 77, 288, 108
-1.00051, 129, 89, 256, 152
-1.00052, 97, 221, 224, 252
-1.00052, 273, 277, 400, 308
-1.00052, 205, 49, 236, 176
-1.00052, 1, 17, 256, 144
-1.00053, 177, 97, 304, 160
-1.00054, 265, 177, 328, 240
-1.00055, 97, 177, 160, 304
-1.00055, 1, 281, 256, 344
-1.00055, 73, 305, 136, 368
-1.00056, 125, 65, 156, 192
-1.00056, 205, 241, 236, 368
-1.00056, 233, 129, 264, 375
-1.00057, 189, 49, 220, 176
-1.00058, 345, 185, 376, 248
-1.00058, 397, 129, 428, 375
-1.00059, 193, 305, 256, 368
-1.00061, 57, 225, 88, 352
-1.00061, 377, 33, 440, 160
-1.00061, 1, 41, 256, 104
-1.00061, 129, 113, 256, 240
-1.00062, 309, 49, 340, 176
-1.00064, 197, 129, 228, 375
-1.00065, 173, 241, 204, 368
-1.00066, 257, 265, 500, 328
-1.00066, 121, 305, 184, 368
-1.00067, 269, 241, 300, 368
-1.00067, 157, 65, 188, 192
-1.0007, 217, 129, 248, 375
-1.00073, 369, 113, 432, 176
-1.00075, 261, 249, 292, 312
-1.00077, 377, 137, 440, 200
-1.00082, 61, 33, 92, 288
-1.00084, 237, 201, 268, 264
-1.00084, 185, 129, 216, 375
-1.00085, 257, 305, 500, 368
-1.00086, 89, 97, 120, 160
-1.00086, 393, 241, 424, 304
-1.00087, 289, 25, 416, 88
-1.00088, 65, 241, 96, 304
-1.00092, 257, 33, 500, 96
-1.00095, 381, 1, 412, 256
-1.00097, 33, 129, 64, 375
-1.00097, 53, 233, 84, 296
-1.00097, 129, 113, 384, 176
-1.00101, 49, 33, 80, 288
-1.00102, 337, 73, 368, 136
-1.00105, 1, 305, 500, 368
-1.00106, 241, 249, 272, 312
-1.00107, 393, 1, 424, 256
-1.00108, 409, 65, 440, 320
-1.00108, 161, 305, 224, 368
-1.00109, 73, 1, 104, 256
-1.00109, 65, 121, 96, 184
-1.00109, 361, 161, 392, 288
-1.00112, 9, 177, 72, 240
-1.00112, 217, 257, 248, 320
-1.00115, 217, 49, 248, 176
-1.0012, 289, 97, 352, 224
-1.00123, 17, 33, 144, 160
-1.00124, 89, 81, 120, 208
-1.00128, 201, 201, 264, 264
-1.00129, 321, 49, 352, 176
-1.00134, 37, 33, 68, 288
-1.00134, 17, 49, 144, 112
-1.0014, 105, 81, 136, 208
-1.00143, 301, 241, 332, 304
-1.00146, 53, 145, 84, 208
-1.00146, 137, 225, 168, 288
-1.00147, 81, 241, 112, 368
-1.00149, 281, 217, 312, 280
-1.0015, 321, 17, 448, 144
-1.00154, 321, 201, 352, 264
-1.00156, 17, 129, 48, 375
-1.00157, 197, 265, 228, 328
-1.00159, 161, 177, 192, 304
-1.0016, 381, 121, 412, 184
-1.00162, 345, 225, 376, 352
-1.00163, 369, 169, 400, 232
-1.00166, 97, 129, 224, 192
-1.00167, 25, 33, 56, 288
-1.00167, 33, 281, 96, 344
-1.00168, 173, 257, 204, 320
-1.0017, 9, 225, 72, 288
-1.0017, 161, 9, 416, 72
-1.0017, 137, 193, 168, 320
-1.00171, 65, 17, 320, 80
-1.00172, 257, 289, 320, 352
-1.00174, 41, 161, 72, 288
-1.00175, 5, 129, 36, 375
-1.00177, 121, 281, 184, 344
-1.00177, 217, 193, 248, 320
-1.00177, 369, 289, 496, 352
-1.00178, 373, 113, 404, 240
-1.00178, 421, 97, 452, 352
-1.00178, 173, 193, 204, 320
-1.00179, 445, 97, 476, 352
-1.00181, 469, 1, 500, 256
-1.00181, 313, 161, 344, 288
-1.00183, 409, 1, 472, 375
-1.00184, 457, 33, 488, 288
-1.00184, 433, 65, 464, 320
-1.00184, 193, 137, 256, 200
-1.00184, 445, 1, 476, 256
-1.00184, 41, 97, 104, 224
-1.00185, 5, 33, 36, 288
-1.00185, 105, 257, 136, 320
-1.00185, 193, 97, 320, 224
-1.00186, 401, 177, 432, 304
-1.00186, 41, 217, 72, 280
-1.00188, 101, 89, 132, 152
-1.00188, 41, 121, 104, 184
-1.00189, 421, 1, 452, 256
-1.00189, 465, 129, 496, 375
-1.0019, 185, 129, 248, 375
-1.00191, 137, 49, 200, 112
-1.00191, 1, 49, 500, 112
-1.00191, 301, 225, 332, 352
-1.00192, 157, 225, 188, 288
-1.00192, 345, 233, 376, 296
-1.00194, 121, 81, 152, 144
-1.00195, 365, 193, 396, 256
-1.00198, 41, 305, 104, 368
-1.002, 233, 273, 296, 336
-1.002, 337, 25, 464, 88
-1.00202, 357, 169, 388, 232
-1.00205, 45, 209, 76, 336
-1.00206, 97, 297, 160, 360
-1.00206, 93, 249, 124, 312
-1.00207, 153, 281, 216, 344
-1.00208, 141, 73, 172, 136
-1.0021, 117, 257, 148, 320
-1.00213, 65, 145, 96, 272
-1.00213, 201, 65, 232, 128
-1.00214, 169, 41, 232, 104
-1.00214, 321, 249, 352, 312
-1.00215, 61, 97, 92, 224
-1.00216, 229, 249, 260, 312
-1.00216, 249, 57, 280, 120
-1.00216, 145, 17, 272, 80
-1.00216, 1, 281, 500, 344
-1.00219, 257, 9, 500, 72
-1.00221, 149, 177, 180, 304
-1.00221, 93, 193, 124, 320
-1.00223, 253, 193, 284, 256
-1.00225, 317, 65, 348, 128
-1.00227, 281, 289, 344, 352
-1.0023, 41, 169, 72, 232
-1.00231, 389, 89, 420, 152
-1.00232, 249, 145, 312, 208
-1.00234, 401, 193, 464, 320
-1.00234, 213, 57, 244, 120
-1.00236, 81, 249, 112, 312
-1.00236, 121, 225, 152, 288
-1.00236, 81, 25, 208, 88
-1.00237, 289, 161, 320, 288
-1.0024, 317, 169, 348, 232
-1.00244, 177, 65, 208, 128
-1.00244, 157, 73, 188, 136
-1.0025, 289, 1, 352, 128
-1.00252, 237, 57, 268, 120
-1.00253, 393, 241, 424, 368
-1.00254, 241, 177, 272, 240
-1.00255, 177, 193, 240, 256
-1.00257, 213, 225, 244, 288
-1.0026, 201, 33, 264, 96
-1.0026, 289, 105, 352, 168
-1.0026, 97, 185, 160, 248
-1.00262, 1, 1, 128, 64
-1.00262, 49, 1, 176, 64
-1.00262, 401, 313, 464, 375
-1.00264, 305, 57, 336, 120
-1.00267, 137, 193, 200, 256
-1.00269, 189, 65, 220, 128
-1.00269, 369, 41, 432, 104
-1.0027, 281, 313, 312, 375
-1.00272, 261, 57, 292, 120
-1.00274, 361, 257, 424, 320
-1.00276, 25, 97, 88, 160
-1.00277, 333, 17, 364, 144
-1.00277, 105, 193, 136, 320
-1.00279, 121, 193, 152, 320
-1.00279, 325, 129, 356, 256
-1.0028, 225, 153, 288, 216
-1.00281, 257, 1, 384, 64
-1.00282, 293, 57, 324, 120
-1.00283, 97, 57, 160, 120
-1.00284, 225, 57, 256, 120
-1.00285, 337, 1, 464, 64
-1.00287, 209, 1, 336, 64
-1.00287, 101, 225, 132, 288
-1.00289, 357, 257, 388, 320
-1.00291, 97, 1, 224, 64
-1.00292, 241, 33, 304, 96
-1.00294, 9, 137, 72, 200
-1.00294, 281, 265, 344, 328
-1.00294, 189, 177, 220, 304
-1.00296, 281, 57, 312, 120
-1.00298, 225, 201, 256, 264
-1.00299, 1, 305, 64, 368
-1.00304, 297, 313, 328, 375
-1.00305, 1, 25, 128, 88
-1.00307, 277, 161, 308, 288
-1.00307, 433, 1, 496, 375
-1.0031, 85, 217, 116, 280
-1.00312, 205, 177, 236, 304
-1.00313, 265, 33, 328, 96
-1.00315, 245, 145, 276, 272
-1.00315, 17, 209, 80, 336
-1.00319, 393, 113, 456, 176
-1.00321, 93, 305, 124, 368
-1.00322, 33, 257, 96, 320
-1.00324, 401, 209, 432, 272
-1.00324, 405, 233, 436, 296
-1.00327, 313, 305, 376, 368
-1.00328, 145, 17, 208, 144
-1.0033, 1, 17, 500, 80
-1.00335, 169, 233, 200, 296
-1.00338, 129, 305, 160, 368
-1.00343, 197, 305, 228, 368
-1.00347, 345, 257, 376, 320
-1.00351, 321, 313, 352, 375
-1.00355, 313, 129, 376, 256
-1.00359, 289, 41, 352, 104
-1.00361, 377, 145, 408, 208
-1.00361, 337, 161, 368, 224
-1.00361, 49, 73, 112, 136
-1.00361, 425, 297, 488, 360
-1.00364, 53, 201, 84, 264
-1.0037, 193, 113, 256, 240
-1.00372, 109, 305, 140, 368
-1.00375, 73, 281, 104, 344
-1.00377, 349, 129, 380, 256
-1.0038, 401, 169, 432, 232
-1.00381, 281, 289, 312, 352
-1.00382, 249, 121, 312, 184
-1.00382, 173, 17, 204, 144
-1.00384, 65, 217, 96, 280
-1.00387, 337, 305, 400, 368
-1.00389, 321, 97, 384, 160
-1.00395, 73, 193, 136, 256
-1.00397, 393, 65, 456, 320
-1.00398, 313, 273, 376, 336
-1.004, 177, 113, 240, 176
-1.00401, 389, 65, 420, 128
-1.00401, 373, 49, 404, 112
-1.00403, 293, 177, 324, 240
-1.00403, 389, 33, 420, 160
-1.00404, 197, 241, 228, 304
-1.00405, 49, 97, 112, 160
-1.00407, 337, 49, 368, 112
-1.00409, 309, 305, 340, 368
-1.0041, 377, 281, 440, 344
-1.00411, 237, 1, 268, 128
-1.00411, 257, 1, 288, 128
-1.00413, 241, 1, 304, 128
-1.00414, 377, 313, 440, 375
-1.00418, 65, 49, 128, 176
-1.00419, 157, 17, 188, 144
-1.0042, 365, 1, 396, 128
-1.00421, 101, 33, 132, 160
-1.00421, 209, 273, 272, 336
-1.00421, 413, 201, 444, 264
-1.00422, 293, 97, 324, 224
-1.00423, 357, 41, 388, 104
-1.00426, 225, 105, 288, 168
-1.00428, 261, 273, 292, 336
-1.00429, 169, 305, 200, 368
-1.00436, 269, 313, 300, 375
-1.00436, 73, 49, 104, 176
-1.00437, 281, 153, 344, 216
-1.00438, 345, 1, 376, 128
-1.00439, 73, 305, 104, 368
-1.00442, 9, 249, 72, 312
-1.00445, 277, 1, 308, 128
-1.00445, 217, 313, 248, 375
-1.00445, 121, 17, 184, 144
-1.00445, 17, 81, 80, 208
-1.00445, 233, 145, 264, 272
-1.00446, 337, 129, 368, 256
-1.00446, 221, 1, 252, 128
-1.00446, 141, 305, 172, 368
-1.00447, 309, 97, 340, 224
-1.00448, 217, 1, 280, 128
-1.00452, 41, 193, 72, 256
-1.00452, 197, 1, 228, 128
-1.00452, 113, 33, 144, 160
-1.00455, 245, 153, 276, 216
-1.0046, 265, 177, 296, 240
-1.0046, 181, 225, 212, 288
-1.0046, 53, 169, 84, 232
-1.00463, 121, 281, 152, 344
-1.00465, 293, 289, 324, 352
-1.0047, 221, 113, 252, 240
-1.00472, 289, 129, 352, 192
-1.00472, 61, 297, 92, 360
-1.00473, 225, 145, 288, 272
-1.00473, 89, 33, 120, 160
-1.00476, 233, 313, 264, 375
-1.00477, 169, 281, 200, 344
-1.00479, 73, 57, 136, 120
-1.0048, 141, 17, 172, 144
-1.0048, 169, 1, 232, 128
-1.0048, 193, 1, 256, 128
-1.0048, 265, 1, 328, 128
-1.00483, 93, 281, 124, 344
-1.00487, 89, 17, 152, 144
-1.00488, 9, 281, 72, 344
-1.00488, 249, 273, 280, 336
-1.00489, 169, 193, 200, 256
-1.00489, 149, 281, 180, 344
-1.00491, 289, 1, 320, 128
-1.00492, 361, 113, 392, 240
-1.00492, 209, 1, 240, 128
-1.00494, 321, 1, 352, 128
-1.00498, 121, 121, 184, 184
-1.00499, 305, 1, 336, 128
-1.00504, 9, 65, 72, 320
-1.00505, 125, 17, 156, 144
-1.00509, 49, 1, 112, 256
-1.00513, 137, 161, 200, 224
-1.00515, 401, 137, 464, 200
-1.00516, 369, 1, 432, 256
-1.00516, 185, 1, 216, 128
-1.00519, 353, 17, 416, 144
-1.00522, 45, 97, 76, 224
-1.00527, 257, 145, 288, 272
-1.00529, 41, 49, 104, 176
-1.00535, 377, 17, 408, 144
-1.00536, 397, 97, 428, 224
-1.00546, 29, 161, 60, 288
-1.0055, 405, 225, 436, 352
-1.00561, 413, 161, 444, 288
-1.00577, 281, 97, 312, 224
-1.00581, 169, 113, 200, 240
-1.00584, 73, 1, 136, 256
-1.00594, 197, 97, 228, 224
-1.00604, 409, 113, 440, 240
-1.0061, 149, 113, 180, 240
-1.00613, 241, 97, 304, 224
-1.00618, 77, 145, 108, 272
-1.00636, 33, 209, 64, 336
-1.00648, 89, 145, 120, 272
-1.00649, 121, 113, 152, 240
-1.00656, 61, 49, 92, 176
-1.00663, 185, 97, 216, 224
-1.00665, 81, 129, 208, 256
-1.00665, 265, 97, 328, 224
-1.00668, 137, 113, 168, 240
-1.00679, 209, 113, 240, 240
-1.00687, 65, 145, 128, 272
-1.00698, 97, 113, 160, 240
-1.0072, 401, 97, 464, 224
-1.00743, 169, 113, 232, 240
-1.00792, 137, 113, 200, 240
-1.00827, 217, 97, 280, 224
-1.00964, 393, 241, 456, 368
-1.00987, 409, 145, 472, 272
-1.01009, 417, 97, 480, 352
-1.01059, 425, 1, 488, 256
-1.01114, 425, 241, 488, 368
-1.01155, 65, 1, 128, 128
-1.01387, 433, 161, 496, 288
-1.01435, 433, 1, 496, 128
-1.01441, 41, 1, 104, 128
-1.01452, 425, 97, 488, 224
-1.01477, 17, 33, 80, 160
-1.01478, 425, 49, 488, 176
-1.01507, 401, 1, 464, 128
-1.01512, 401, 49, 464, 176
