1830
-0.428285, 1, 65, 432, 320
-0.58002, 97, 1, 352, 320
-0.60802, 1, 1, 432, 320
-0.624766, 97, 33, 352, 288
-0.647634, 193, 1, 432, 320
-0.749668, 193, 65, 432, 320
-0.753215, 1, 1, 256, 320
-0.810742, 1, 65, 256, 320
-0.855885, 177, 33, 304, 288
-0.85974, 129, 65, 256, 320
-0.873914, 1, 65, 432, 192
-0.878863, 177, 1, 304, 320
-0.892046, 225, 1, 352, 320
-0.89514, 241, 65, 368, 320
-0.895322, 97, 1, 224, 320
-0.895651, 81, 65, 208, 320
-0.904555, 97, 81, 352, 208
-0.910109, 1, 145, 432, 272
-0.925037, 273, 1, 400, 320
-0.925281, 289, 65, 416, 320
-0.931846, 161, 129, 416, 256
-0.934202, 145, 65, 272, 192
-0.934977, 33, 65, 160, 320
-0.935284, 65, 161, 320, 288
-0.935949, 193, 81, 432, 208
-0.940418, 1, 113, 256, 240
-0.941391, 81, 97, 208, 224
-0.94266, 137, 97, 200, 224
-0.942752, 241, 81, 368, 208
-0.944665, 1, 1, 128, 320
-0.94532, 97, 113, 160, 240
-0.947025, 161, 65, 224, 192
-0.949803, 193, 129, 320, 256
-0.949897, 233, 65, 296, 192
-0.95145, 49, 1, 176, 320
-0.951804, 129, 113, 256, 240
-0.952262, 193, 81, 320, 208
-0.952462, 241, 129, 304, 256
-0.953137, 273, 81, 336, 208
-0.954023, 185, 65, 248, 192
-0.954255, 81, 145, 208, 272
-0.955159, 209, 65, 272, 192
-0.957279, 1, 97, 128, 224
-0.957564, 313, 81, 376, 208
-0.959737, 161, 33, 416, 160
-0.96159, 201, 113, 264, 240
-0.962808, 241, 137, 304, 200
-0.963044, 321, 97, 384, 160
-0.963279, 209, 129, 272, 192
-0.963876, 209, 161, 272, 288
-0.964169, 169, 81, 232, 144
-0.965416, 289, 97, 416, 224
-0.965418, 89, 121, 152, 184
-0.96568, 281, 73, 344, 136
-0.96578, 241, 129, 368, 256
-0.966821, 257, 73, 320, 136
-0.966863, 1, 65, 256, 192
-0.967935, 161, 65, 224, 320
-0.968271, 129, 161, 256, 288
-0.968271, 121, 145, 184, 272
-0.968311, 113, 113, 176, 176
-0.968764, 177, 113, 240, 240
-0.968806, 169, 57, 232, 120
-0.969332, 281, 105, 344, 168
-0.970959, 225, 33, 288, 288
-0.971176, 185, 161, 248, 288
-0.971505, 145, 89, 208, 152
-0.971942, 1, 193, 432, 320
-0.972408, 177, 153, 240, 216
-0.972419, 145, 145, 208, 272
-0.972431, 97, 65, 160, 192
-0.972986, 209, 161, 272, 224
-0.973629, 201, 33, 264, 288
-0.973791, 273, 129, 336, 256
-0.973913, 33, 145, 160, 272
-0.973917, 73, 113, 136, 240
-0.973994, 177, 129, 240, 192
-0.973997, 193, 33, 320, 160
-0.974344, 9, 97, 72, 224
-0.974433, 257, 113, 320, 176
-0.974773, 145, 65, 208, 128
-0.974859, 137, 49, 200, 176
-0.975193, 273, 137, 336, 200
-0.975201, 81, 49, 208, 176
-0.975505, 281, 81, 312, 208
-0.975731, 241, 33, 368, 160
-0.975762, 233, 73, 296, 136
-0.97608, 97, 121, 224, 184
-0.976296, 149, 97, 180, 224
-0.976455, 49, 81, 112, 208
-0.97648, 169, 17, 232, 144
-0.976544, 137, 65, 200, 320
-0.976637, 209, 81, 272, 144
-0.976717, 161, 129, 288, 192
-0.976877, 337, 97, 400, 224
-0.976924, 1, 17, 432, 144
-0.977075, 33, 49, 160, 176
-0.977454, 145, 81, 272, 144
-0.977552, 133, 97, 164, 224
-0.977571, 89, 145, 152, 208
-0.977906, 257, 105, 384, 168
-0.977934, 225, 137, 352, 200
-0.978008, 101, 121, 132, 184
-0.978075, 1, 113, 64, 176
-0.97811, 121, 97, 152, 224
-0.978164, 173, 57, 204, 120
-0.978307, 137, 153, 200, 216
-0.978395, 161, 177, 416, 304
-0.97851, 277, 73, 308, 136
-0.978647, 209, 81, 336, 144
-0.978716, 257, 65, 288, 192
-0.978879, 145, 17, 272, 144
-0.978887, 265, 113, 296, 240
-0.978974, 249, 65, 312, 320
-0.978993, 1, 17, 256, 144
-0.979149, 297, 129, 360, 256
-0.979247, 173, 81, 204, 144
-0.97931, 185, 65, 216, 192
-0.979809, 325, 97, 356, 160
-0.979834, 101, 97, 132, 224
-0.980065, 177, 153, 304, 216
-0.980245, 305, 121, 368, 184
-0.980335, 113, 145, 176, 208
-0.980569, 257, 81, 384, 144
-0.980661, 165, 97, 196, 224
-0.980984, 297, 81, 328, 144
-0.981485, 261, 129, 292, 192
-0.981637, 169, 49, 200, 176
-0.981644, 297, 65, 328, 192
-0.981823, 277, 105, 308, 168
-0.981923, 245, 65, 276, 192
-0.982219, 17, 105, 144, 168
-0.982429, 17, 129, 144, 192
-0.982559, 345, 81, 376, 208
-0.982713, 193, 17, 256, 144
-0.982785, 217, 105, 280, 168
-0.982878, 137, 113, 200, 176
-0.982968, 97, 161, 160, 288
-0.983101, 233, 65, 264, 192
-0.983112, 117, 121, 148, 184
-0.983148, 265, 73, 296, 136
-0.983153, 289, 145, 416, 272
-0.983165, 197, 65, 228, 192
-0.983369, 97, 97, 224, 160
-0.983387, 241, 161, 304, 224
-0.983392, 233, 129, 264, 192
-0.98341, 121, 145, 152, 272
-0.983415, 81, 145, 208, 208
-0.983453, 297, 33, 360, 160
-0.983464, 273, 129, 400, 192
-0.9838, 249, 129, 280, 256
-0.983834, 213, 65, 244, 192
-0.983844, 33, 105, 64, 168
-0.983894, 65, 129, 128, 192
-0.983899, 221, 129, 252, 192
-0.983902, 205, 145, 236, 208
-0.984044, 297, 65, 360, 320
-0.984243, 273, 65, 336, 320
-0.984388, 321, 81, 352, 208
-0.984444, 229, 113, 260, 240
-0.984505, 161, 89, 192, 152
-0.984505, 105, 89, 168, 152
-0.984518, 113, 65, 176, 320
-0.984706, 257, 33, 320, 160
-0.985024, 309, 89, 340, 152
-0.985074, 161, 57, 288, 120
-0.985143, 249, 145, 280, 208
-0.985179, 209, 105, 336, 168
-0.985381, 345, 97, 376, 160
-0.985428, 253, 73, 284, 136
-0.985574, 305, 105, 432, 168
-0.985594, 137, 113, 168, 176
-0.98564, 305, 73, 368, 136
-0.985738, 213, 145, 244, 272
-0.985754, 193, 57, 256, 120
-0.985761, 33, 105, 96, 168
-0.985998, 185, 81, 216, 144
-0.986115, 233, 1, 296, 320
-0.986227, 129, 153, 256, 216
-0.986249, 201, 145, 232, 272
-0.986296, 333, 65, 364, 192
-0.986333, 89, 65, 152, 320
-0.986418, 209, 177, 336, 304
-0.986547, 289, 49, 416, 176
-0.98657, 73, 65, 136, 192
-0.986732, 345, 105, 408, 168
-0.986793, 273, 177, 336, 304
-0.98687, 217, 17, 280, 144
-0.987014, 269, 65, 300, 192
-0.987062, 265, 1, 328, 320
-0.987068, 185, 1, 248, 320
-0.987117, 133, 145, 164, 272
-0.987201, 97, 65, 224, 128
-0.987314, 109, 145, 140, 272
-0.987343, 281, 129, 312, 192
-0.987383, 177, 105, 240, 168
-0.987517, 89, 129, 120, 192
-0.987554, 1, 89, 64, 152
-0.987556, 209, 1, 272, 320
-0.987806, 353, 49, 416, 176
-0.987838, 209, 73, 240, 136
-0.987843, 225, 161, 352, 224
-0.988039, 321, 65, 384, 320
-0.9881, 189, 145, 220, 272
-0.988119, 89, 129, 120, 256
-0.988201, 145, 105, 272, 168
-0.988226, 73, 161, 136, 288
-0.988246, 209, 57, 336, 120
-0.988516, 149, 105, 180, 168
-0.988615, 29, 81, 60, 208
-0.988702, 161, 65, 192, 128
-0.988732, 329, 129, 392, 192
-0.988874, 197, 81, 228, 144
-0.988898, 217, 161, 248, 224
-0.988911, 261, 97, 292, 160
-0.988921, 161, 1, 224, 320
-0.989083, 245, 121, 276, 184
-0.9891, 225, 161, 256, 288
-0.989119, 177, 145, 208, 272
-0.989269, 313, 113, 344, 176
-0.989271, 49, 81, 176, 144
-0.989376, 113, 145, 144, 208
-0.989403, 81, 169, 208, 232
-0.989414, 129, 81, 384, 144
-0.989465, 145, 153, 176, 216
-0.989556, 65, 121, 320, 184
-0.989625, 9, 105, 40, 168
-0.989647, 149, 145, 180, 272
-0.989668, 237, 153, 268, 216
-0.989678, 193, 145, 224, 208
-0.989696, 329, 73, 392, 136
-0.989802, 105, 169, 168, 232
-0.98981, 169, 81, 232, 112
-0.98984, 9, 113, 72, 144
-0.989865, 189, 121, 220, 184
-0.989882, 265, 81, 328, 112
-0.989996, 225, 49, 288, 112
-0.990012, 165, 145, 196, 272
-0.990221, 265, 49, 328, 112
-0.990242, 169, 65, 232, 96
-0.990266, 309, 81, 340, 208
-0.990274, 209, 73, 272, 104
-0.990279, 313, 97, 376, 128
-0.990284, 281, 169, 344, 232
-0.990304, 241, 153, 304, 184
-0.990356, 221, 73, 252, 136
-0.990403, 201, 121, 232, 184
-0.990549, 233, 77, 296, 108
-0.990559, 241, 73, 272, 136
-0.990585, 281, 93, 344, 124
-0.990659, 101, 145, 132, 208
-0.990675, 1, 49, 64, 176
-0.990734, 265, 137, 328, 168
-0.990741, 237, 161, 268, 288
-0.990795, 21, 113, 52, 176
-0.99083, 193, 157, 256, 188
-0.990836, 1, 97, 432, 160
-0.990893, 217, 133, 280, 164
-0.990976, 241, 129, 304, 160
-0.990998, 297, 145, 360, 208
-0.991012, 285, 33, 316, 160
-0.991042, 145, 73, 208, 104
-0.991044, 281, 105, 344, 136
-0.99105, 57, 105, 120, 168
-0.991106, 261, 153, 292, 216
-0.991107, 249, 177, 312, 304
-0.991175, 105, 121, 168, 152
-0.991263, 17, 81, 48, 208
-0.991384, 181, 161, 212, 224
-0.991404, 137, 109, 200, 140
-0.991464, 33, 153, 160, 216
-0.991498, 137, 1, 200, 320
-0.991509, 161, 177, 224, 240
-0.991554, 241, 89, 304, 120
-0.991612, 129, 137, 160, 200
-0.991637, 89, 141, 152, 172
-0.991658, 313, 113, 376, 144
-0.991693, 145, 177, 272, 240
-0.991697, 157, 161, 188, 224
-0.991759, 169, 157, 232, 188
-0.991764, 217, 153, 280, 184
-0.991765, 297, 137, 360, 168
-0.99179, 289, 57, 416, 120
-0.991794, 193, 85, 256, 116
-0.991805, 81, 169, 144, 232
-0.991836, 209, 169, 272, 200
-0.991849, 241, 165, 304, 196
-0.991854, 161, 169, 224, 200
-0.991919, 313, 125, 376, 156
-0.991921, 161, 97, 224, 128
-0.991944, 241, 141, 304, 172
-0.991963, 277, 129, 308, 256
-0.991981, 297, 177, 360, 304
-0.991991, 89, 153, 152, 184
-0.991998, 1, 125, 64, 156
-0.992014, 265, 125, 328, 156
-0.992027, 129, 165, 192, 196
-0.992196, 161, 121, 192, 184
-0.992203, 113, 149, 176, 180
-0.992205, 81, 129, 144, 160
-0.992247, 49, 117, 112, 148
-0.99226, 337, 101, 400, 132
-0.992266, 257, 185, 320, 248
-0.992267, 173, 65, 204, 96
-0.992284, 333, 129, 364, 256
-0.99232, 185, 169, 248, 200
-0.992321, 273, 153, 400, 216
-0.992376, 289, 81, 352, 112
-0.992391, 177, 117, 240, 148
-0.992416, 169, 145, 200, 208
-0.992429, 241, 117, 304, 148
-0.992451, 325, 121, 356, 184
-0.992459, 141, 81, 172, 144
-0.992501, 33, 113, 64, 144
-0.992504, 145, 61, 208, 92
-0.992557, 193, 137, 432, 200
-0.992608, 145, 153, 208, 184
-0.992615, 105, 165, 168, 196
-0.992632, 129, 121, 192, 152
-0.992648, 257, 149, 288, 180
-0.992687, 257, 69, 320, 100
-0.992695, 289, 81, 320, 112
-0.9927, 273, 157, 336, 188
-0.992706, 113, 97, 144, 160
-0.992709, 17, 113, 48, 144
-0.992709, 189, 17, 220, 144
-0.99271, 289, 105, 320, 168
-0.992734, 25, 125, 88, 156
-0.992739, 185, 57, 216, 120
-0.992748, 301, 89, 332, 120
-0.99275, 177, 129, 240, 160
-0.992764, 289, 1, 352, 320
-0.992766, 81, 97, 144, 160
-0.992769, 289, 121, 352, 152
-0.992771, 185, 81, 216, 112
-0.992791, 321, 145, 384, 272
-0.992803, 329, 97, 360, 128
-0.992812, 113, 109, 176, 140
-0.992831, 317, 97, 348, 128
-0.992849, 321, 137, 384, 168
-0.992851, 173, 81, 204, 112
-0.992856, 97, 141, 128, 172
-0.992857, 201, 117, 264, 148
-0.992884, 205, 157, 236, 188
-0.992884, 337, 113, 400, 144
-0.992885, 121, 89, 184, 120
-0.992902, 97, 129, 128, 160
-0.992924, 277, 77, 308, 108
-0.992939, 65, 141, 128, 172
-0.992941, 237, 73, 268, 104
-0.992946, 5, 117, 36, 148
-0.99296, 261, 133, 292, 164
-0.992962, 221, 73, 252, 104
-0.992967, 197, 81, 228, 112
-0.992984, 233, 65, 296, 96
-0.992989, 281, 105, 312, 136
-0.993019, 301, 101, 332, 132
-0.993026, 169, 145, 232, 176
-0.993041, 209, 73, 240, 104
-0.993043, 253, 77, 284, 108
-0.993044, 281, 141, 312, 172
-0.993047, 313, 85, 376, 116
-0.993048, 165, 93, 196, 124
-0.99305, 157, 105, 188, 136
-0.993056, 249, 133, 280, 164
-0.99306, 273, 89, 304, 120
-0.993065, 145, 85, 208, 116
-0.99307, 153, 125, 216, 156
-0.993076, 173, 121, 204, 184
-0.993085, 157, 49, 188, 176
-0.993085, 1, 101, 64, 132
-0.993087, 161, 77, 192, 108
-0.993088, 113, 125, 144, 156
-0.993091, 265, 77, 296, 108
-0.993106, 349, 101, 380, 132
-0.993112, 265, 185, 328, 216
-0.993122, 185, 177, 248, 240
-0.993127, 281, 173, 344, 204
-0.993131, 185, 69, 216, 100
-0.993135, 257, 101, 320, 132
-0.993162, 273, 129, 304, 160
-0.993195, 145, 109, 176, 140
-0.993202, 261, 121, 292, 152
-0.993232, 177, 53, 240, 84
-0.99324, 85, 133, 116, 164
-0.993241, 129, 121, 160, 152
-0.993243, 281, 117, 312, 148
-0.993255, 133, 161, 164, 224
-0.993263, 193, 181, 256, 212
-0.993264, 313, 109, 344, 140
-0.99327, 217, 89, 280, 120
-0.993277, 245, 153, 276, 184
-0.993288, 109, 145, 140, 176
-0.993292, 185, 161, 216, 192
-0.993293, 353, 125, 416, 156
-0.993298, 49, 129, 112, 160
-0.993316, 129, 41, 192, 104
-0.99332, 117, 161, 148, 192
-0.99332, 237, 137, 268, 168
-0.993324, 45, 117, 76, 148
-0.993325, 241, 85, 272, 116
-0.993325, 229, 157, 260, 188
-0.993331, 57, 153, 120, 184
-0.993335, 361, 105, 424, 136
-0.993337, 317, 121, 348, 152
-0.993337, 217, 169, 248, 200
-0.993338, 17, 129, 48, 160
-0.993341, 325, 109, 356, 140
-0.993345, 349, 137, 380, 168
-0.993345, 257, 89, 288, 120
-0.993354, 205, 169, 236, 200
-0.993356, 361, 93, 424, 124
-0.99336, 333, 121, 364, 152
-0.993383, 249, 197, 312, 228
-0.993391, 185, 117, 216, 148
-0.993396, 81, 165, 144, 196
-0.993396, 29, 125, 60, 156
-0.993397, 345, 113, 376, 144
-0.993398, 301, 133, 332, 164
-0.993406, 229, 85, 260, 116
-0.993414, 101, 157, 132, 188
-0.993421, 289, 93, 320, 124
-0.993424, 129, 161, 160, 192
-0.993435, 217, 157, 248, 188
-0.993436, 121, 149, 152, 180
-0.993437, 321, 85, 352, 116
-0.993437, 233, 169, 264, 200
-0.993441, 297, 69, 360, 100
-0.993446, 193, 173, 224, 204
-0.99345, 177, 93, 208, 124
-0.993456, 161, 65, 192, 96
-0.99346, 85, 153, 116, 184
-0.993462, 289, 69, 320, 100
-0.993468, 149, 165, 180, 196
-0.993478, 197, 69, 228, 100
-0.993481, 345, 129, 376, 256
-0.993489, 169, 165, 200, 196
-0.993489, 345, 137, 408, 168
-0.993493, 197, 117, 228, 148
-0.993494, 169, 105, 200, 136
-0.993496, 173, 117, 204, 148
-0.993505, 217, 85, 248, 116
-0.993515, 5, 105, 36, 136
-0.993518, 141, 121, 172, 152
-0.99352, 301, 113, 332, 144
-0.993522, 89, 109, 152, 140
-0.993532, 33, 105, 96, 136
-0.993539, 229, 125, 260, 156
-0.993544, 269, 101, 300, 132
-0.993546, 129, 105, 160, 136
-0.993547, 169, 185, 232, 216
-0.993549, 45, 113, 76, 176
-0.993553, 361, 105, 392, 136
-0.993555, 341, 89, 372, 120
-0.993555, 281, 161, 312, 192
-0.993557, 309, 77, 340, 108
-0.993572, 269, 145, 300, 176
-0.993572, 289, 129, 320, 256
-0.993573, 97, 1, 160, 320
-0.993589, 113, 137, 176, 168
-0.993592, 117, 109, 148, 140
-0.993592, 105, 113, 136, 144
-0.993595, 345, 125, 376, 156
-0.993607, 137, 149, 168, 180
-0.993614, 297, 149, 360, 180
-0.993617, 137, 181, 200, 212
-0.993618, 265, 181, 296, 212
-0.99362, 265, 165, 296, 196
-0.993621, 185, 145, 216, 176
-0.993621, 249, 65, 280, 96
-0.993633, 169, 153, 200, 184
-0.993633, 317, 137, 348, 168
-0.993636, 181, 173, 212, 204
-0.993641, 209, 121, 240, 152
-0.993656, 253, 197, 284, 228
-0.993662, 217, 133, 248, 164
-0.993665, 249, 165, 280, 196
-0.993669, 41, 129, 72, 160
-0.993673, 169, 53, 200, 84
-0.993674, 281, 185, 312, 216
-0.993677, 209, 61, 272, 92
-0.993682, 33, 101, 64, 132
-0.993699, 261, 65, 292, 96
-0.993704, 185, 105, 216, 136
-0.993704, 245, 121, 276, 152
-0.993704, 365, 93, 396, 124
-0.993707, 289, 129, 320, 160
-0.993709, 137, 141, 200, 172
-0.993711, 149, 153, 180, 184
-0.993716, 333, 133, 364, 164
-0.993717, 149, 89, 180, 120
-0.993718, 365, 121, 396, 152
-0.993718, 205, 181, 236, 212
-0.99372, 17, 101, 48, 132
-0.993725, 121, 61, 184, 92
-0.993725, 189, 57, 220, 88
-0.993742, 201, 145, 232, 176
-0.993742, 361, 133, 392, 164
-0.993746, 161, 117, 192, 148
-0.993747, 121, 137, 152, 168
-0.99375, 285, 173, 316, 204
-0.993752, 297, 161, 360, 192
-0.993759, 53, 105, 84, 136
-0.993765, 217, 181, 248, 212
-0.993771, 185, 129, 216, 160
-0.993773, 113, 177, 176, 208
-0.99381, 225, 209, 288, 240
-0.993814, 65, 161, 320, 224
-0.993825, 241, 177, 304, 208
-0.993825, 329, 149, 392, 180
-0.993838, 321, 33, 384, 160
-0.993847, 225, 197, 288, 228
-0.99385, 177, 77, 304, 108
-0.993851, 305, 173, 368, 204
-0.993857, 193, 145, 256, 176
-0.993869, 337, 89, 400, 120
-0.993877, 249, 209, 312, 240
-0.993889, 313, 1, 376, 320
-0.99389, 217, 181, 280, 212
-0.993938, 41, 97, 72, 224
-0.993964, 185, 105, 248, 136
-0.993971, 337, 269, 400, 300
-0.993974, 337, 281, 400, 312
-0.994028, 329, 161, 392, 192
-0.994032, 177, 33, 240, 96
-0.994049, 201, 17, 232, 144
-0.994057, 121, 77, 184, 108
-0.994062, 289, 185, 352, 216
-0.994067, 1, 89, 256, 152
-0.994082, 273, 177, 400, 240
-0.994088, 121, 65, 184, 128
-0.994089, 233, 101, 296, 132
-0.994104, 33, 217, 96, 248
-0.994112, 329, 173, 392, 204
-0.994137, 129, 49, 192, 80
-0.994174, 153, 201, 216, 232
-0.994174, 193, 105, 432, 168
-0.994177, 9, 225, 72, 256
-0.99419, 129, 197, 192, 228
-0.994198, 361, 277, 424, 308
-0.9942, 201, 193, 264, 224
-0.994214, 57, 105, 120, 136
-0.994221, 57, 217, 120, 248
-0.994255, 49, 205, 112, 236
-0.994255, 329, 185, 392, 216
-0.994265, 89, 177, 152, 208
-0.994294, 313, 285, 376, 316
-0.994323, 5, 81, 36, 208
-0.994324, 41, 141, 104, 172
-0.994326, 57, 165, 120, 196
-0.99433, 81, 193, 144, 224
-0.994338, 1, 213, 64, 244
-0.994371, 1, 129, 432, 192
-0.994377, 313, 269, 376, 300
-0.994393, 17, 137, 80, 168
-0.994398, 41, 189, 104, 220
-0.994409, 333, 73, 364, 136
-0.994418, 97, 97, 160, 128
-0.994423, 41, 93, 104, 124
-0.994435, 369, 153, 432, 184
-0.994437, 361, 265, 424, 296
-0.994503, 177, 57, 192, 120
-0.994524, 225, 81, 352, 112
-0.994554, 25, 129, 88, 192
-0.994558, 1, 113, 128, 144
-0.994598, 305, 81, 432, 144
-0.994875, 57, 153, 120, 216
-0.994927, 289, 57, 320, 120
-0.994962, 357, 81, 388, 208
-0.99501, 149, 129, 180, 192
-0.995014, 297, 137, 328, 200
-0.995057, 281, 73, 296, 136
-0.995104, 257, 97, 384, 128
-0.995125, 353, 129, 416, 192
-0.995152, 105, 121, 120, 184
-0.995191, 97, 1, 224, 128
-0.995232, 183, 57, 198, 120
-0.99525, 225, 209, 288, 272
-0.995271, 125, 97, 156, 160
-0.995288, 313, 33, 344, 160
-0.995311, 193, 169, 224, 232
-0.995311, 111, 121, 126, 184
-0.995318, 345, 65, 408, 320
-0.995328, 175, 81, 190, 144
-0.995357, 1, 73, 432, 136
-0.99536, 257, 193, 384, 320
-0.995419, 213, 17, 244, 144
-0.99547, 97, 41, 224, 104
-0.995485, 317, 129, 348, 256
-0.995497, 177, 157, 304, 188
-0.995506, 289, 73, 304, 136
-0.995524, 357, 97, 388, 160
-0.995535, 97, 117, 224, 148
-0.995623, 1, 81, 128, 144
-0.99566, 305, 129, 336, 256
-0.995682, 137, 177, 200, 240
-0.995742, 197, 57, 228, 120
-0.995752, 161, 89, 288, 120
-0.995773, 1, 217, 128, 280
-0.995784, 173, 33, 204, 288
-0.995807, 361, 97, 424, 224
-0.995807, 33, 129, 96, 256
-0.995807, 213, 105, 244, 168
-0.99582, 161, 33, 288, 96
-0.995845, 277, 49, 308, 112
-0.99587, 121, 121, 136, 184
-0.995872, 241, 141, 368, 172
-0.995878, 301, 113, 332, 176
-0.99588, 245, 129, 260, 192
-0.995894, 25, 81, 88, 144
-0.995898, 225, 153, 352, 184
-0.995917, 161, 129, 288, 160
-0.995946, 33, 81, 64, 144
-0.995961, 89, 153, 120, 216
-0.995971, 281, 177, 312, 304
-0.995994, 145, 65, 272, 96
-0.996008, 233, 17, 264, 144
-0.996014, 177, 1, 208, 128
-0.99602, 211, 145, 226, 208
-0.996029, 277, 121, 292, 184
-0.996036, 169, 169, 200, 232
-0.996075, 321, 73, 352, 136
-0.99609, 17, 129, 144, 160
-0.996104, 295, 73, 310, 136
-0.996111, 99, 129, 114, 192
-0.996142, 257, 125, 384, 156
-0.99617, 171, 57, 186, 120
-0.996181, 65, 193, 192, 256
-0.996203, 329, 97, 344, 160
-0.99622, 53, 81, 84, 208
-0.99622, 269, 73, 284, 136
-0.996222, 353, 81, 416, 144
-0.996246, 33, 129, 64, 192
-0.996269, 251, 129, 266, 192
-0.996281, 337, 97, 352, 160
-0.996292, 271, 113, 286, 176
-0.996299, 265, 161, 296, 288
-0.996315, 185, 65, 216, 320
-0.996345, 167, 97, 182, 160
-0.996373, 21, 89, 52, 152
-0.996386, 301, 73, 316, 136
-0.996395, 349, 137, 380, 200
-0.996398, 185, 81, 200, 144
-0.996413, 227, 129, 242, 192
-0.996468, 161, 161, 416, 224
-0.996484, 127, 121, 142, 184
-0.996491, 25, 49, 88, 176
-0.996508, 193, 81, 208, 144
-0.996509, 193, 169, 320, 200
-0.996536, 257, 113, 384, 144
-0.996547, 259, 137, 274, 200
-0.99655, 239, 129, 254, 192
-0.996551, 1, 193, 128, 256
-0.996558, 113, 165, 240, 196
-0.996561, 307, 81, 322, 144
-0.996589, 137, 113, 152, 176
-0.996627, 161, 65, 192, 320
-0.996635, 221, 129, 236, 192
-0.99664, 219, 153, 234, 216
-0.996646, 45, 105, 60, 168
-0.996648, 275, 73, 290, 136
-0.996673, 289, 49, 352, 112
-0.996736, 289, 97, 304, 160
-0.996762, 197, 65, 228, 320
-0.996769, 233, 129, 248, 192
-0.996775, 217, 33, 248, 288
-0.996782, 343, 97, 358, 160
-0.996813, 283, 121, 298, 184
-0.996838, 53, 89, 84, 152
-0.996846, 261, 17, 292, 144
-0.996855, 101, 97, 132, 160
-0.996867, 77, 81, 108, 208
-0.996895, 253, 153, 268, 216
-0.996902, 275, 145, 290, 208
-0.996902, 97, 73, 224, 104
-0.996921, 219, 73, 234, 136
-0.996923, 113, 201, 240, 264
-0.996931, 265, 129, 280, 192
-0.996944, 81, 149, 208, 180
-0.996947, 297, 105, 312, 168
-0.996951, 321, 89, 336, 152
-0.996967, 349, 97, 364, 160
-0.996975, 65, 65, 128, 320
-0.996977, 205, 145, 220, 208
-0.996978, 149, 113, 164, 176
-0.997033, 205, 81, 220, 144
-0.997063, 309, 65, 340, 128
-0.997068, 209, 129, 336, 160
-0.997081, 143, 113, 158, 176
-0.99709, 93, 129, 108, 192
-0.997094, 229, 33, 260, 288
-0.99711, 199, 81, 214, 144
-0.997136, 145, 105, 272, 136
-0.997139, 213, 121, 228, 184
-0.99714, 359, 97, 374, 160
-0.997154, 249, 97, 280, 160
-0.99719, 119, 145, 134, 208
-0.99719, 257, 33, 288, 288
-0.997197, 1, 153, 432, 216
-0.997205, 57, 1, 120, 320
-0.997211, 149, 65, 180, 320
-0.997251, 31, 113, 46, 176
-0.997259, 245, 33, 276, 288
-0.997269, 25, 105, 40, 168
-0.997273, 81, 129, 208, 160
-0.997277, 165, 73, 180, 136
-0.997286, 277, 97, 292, 160
-0.997298, 225, 73, 240, 136
-0.997308, 129, 153, 256, 184
-0.997308, 273, 153, 304, 216
-0.997329, 345, 73, 376, 136
-0.997346, 213, 73, 228, 136
-0.997368, 313, 89, 328, 152
-0.997369, 225, 185, 352, 248
-0.997378, 159, 97, 174, 160
-0.997382, 65, 161, 192, 192
-0.997383, 255, 73, 270, 136
-0.997387, 263, 73, 278, 136
-0.997401, 201, 121, 216, 184
-0.997408, 49, 117, 176, 148
-0.99741, 19, 105, 34, 168
-0.997411, 129, 145, 144, 208
-0.997425, 281, 65, 312, 320
-0.997434, 269, 65, 300, 320
-0.997436, 153, 153, 168, 216
-0.99744, 17, 141, 144, 172
-0.997453, 329, 153, 392, 216
-0.997471, 155, 121, 170, 184
-0.997487, 305, 101, 432, 132
-0.997493, 145, 49, 176, 176
-0.997495, 245, 73, 260, 136
-0.997497, 107, 145, 122, 208
-0.997505, 39, 97, 54, 160
-0.99752, 97, 105, 224, 136
-0.997525, 209, 117, 336, 148
-0.997527, 247, 161, 262, 224
-0.997529, 49, 105, 176, 136
-0.99753, 159, 153, 174, 216
-0.997547, 231, 73, 246, 136
-0.997558, 51, 113, 66, 176
-0.997562, 209, 93, 336, 124
-0.997566, 225, 161, 240, 224
-0.997576, 305, 113, 432, 144
-0.997597, 193, 161, 208, 224
-0.997603, 141, 153, 156, 216
-0.99761, 239, 81, 254, 144
-0.997615, 199, 153, 214, 216
-0.997632, 121, 169, 152, 232
-0.997647, 173, 121, 188, 184
-0.99765, 181, 65, 196, 96
-0.997655, 259, 113, 274, 176
-0.997659, 273, 85, 400, 116
-0.997662, 207, 121, 222, 184
-0.997668, 13, 105, 28, 168
-0.997682, 323, 113, 338, 176
-0.99771, 47, 113, 62, 144
-0.997726, 7, 105, 22, 168
-0.99773, 147, 153, 162, 216
-0.997754, 135, 153, 150, 216
-0.997755, 177, 145, 304, 176
-0.997758, 187, 161, 202, 224
-0.997759, 303, 81, 318, 112
-0.997766, 77, 137, 108, 200
-0.997772, 175, 65, 190, 96
-0.997778, 225, 69, 352, 100
-0.997779, 113, 145, 128, 208
-0.997781, 165, 153, 180, 216
-0.997784, 161, 121, 176, 184
-0.997801, 147, 89, 162, 152
-0.997806, 129, 49, 160, 176
-0.997815, 231, 161, 246, 224
-0.997827, 241, 153, 256, 216
-0.997827, 161, 117, 288, 148
-0.997833, 27, 113, 42, 144
-0.997835, 167, 121, 182, 184
-0.997838, 229, 49, 260, 112
-0.997839, 321, 97, 336, 128
-0.997851, 133, 65, 164, 320
-0.997855, 129, 57, 384, 120
-0.997864, 177, 145, 192, 208
-0.997864, 281, 177, 312, 240
-0.997874, 229, 97, 260, 160
-0.997874, 313, 137, 344, 200
-0.997881, 293, 177, 324, 304
-0.9979, 257, 49, 288, 112
-0.997906, 109, 141, 124, 172
-0.997916, 283, 97, 298, 160
-0.997923, 289, 137, 416, 168
-0.997933, 173, 81, 188, 112
-0.997934, 337, 121, 368, 184
-0.997947, 187, 81, 202, 112
-0.99795, 111, 97, 126, 160
-0.997952, 139, 89, 154, 152
-0.997952, 171, 161, 186, 224
-0.99796, 17, 129, 48, 256
-0.997969, 97, 153, 112, 216
-0.99798, 17, 117, 32, 148
-0.997987, 315, 93, 330, 124
-0.997993, 305, 125, 432, 156
-0.998013, 265, 105, 280, 168
-0.998017, 187, 69, 202, 100
-0.998019, 309, 85, 324, 116
-0.998032, 99, 105, 114, 168
-0.998038, 99, 129, 114, 160
-0.99804, 39, 113, 54, 144
-0.998042, 183, 121, 198, 184
-0.998054, 189, 57, 204, 120
-0.998057, 345, 33, 376, 160
-0.998063, 241, 165, 368, 196
-0.998084, 49, 217, 176, 280
-0.998088, 119, 97, 134, 160
-0.998089, 113, 89, 240, 120
-0.998107, 263, 133, 278, 164
-0.99811, 297, 65, 328, 320
-0.998111, 317, 113, 332, 176
-0.99813, 33, 113, 48, 144
-0.998138, 259, 149, 274, 180
-0.998141, 89, 81, 120, 208
-0.998146, 179, 77, 194, 108
-0.998147, 325, 109, 340, 140
-0.998149, 121, 65, 152, 320
-0.998166, 331, 97, 346, 128
-0.998172, 237, 57, 252, 120
-0.998176, 109, 65, 140, 320
-0.998181, 361, 101, 376, 132
-0.998198, 289, 73, 416, 104
-0.998201, 49, 193, 176, 320
-0.998203, 211, 81, 226, 112
-0.998213, 289, 1, 416, 128
-0.99822, 49, 201, 112, 264
-0.998227, 111, 125, 126, 156
-0.998231, 153, 89, 168, 152
-0.998235, 327, 73, 342, 136
-0.998241, 257, 33, 384, 96
-0.998251, 195, 121, 210, 184
-0.998253, 169, 127, 200, 142
-0.998253, 345, 95, 376, 110
-0.998254, 317, 65, 348, 320
-0.998255, 173, 165, 204, 180
-0.998257, 141, 161, 172, 176
-0.998258, 89, 149, 120, 164
-0.998258, 129, 161, 160, 176
-0.998258, 237, 135, 268, 150
-0.998258, 5, 113, 36, 128
-0.998259, 281, 147, 312, 162
-0.998259, 357, 103, 388, 118
-0.99826, 113, 159, 144, 174
-0.998261, 105, 165, 136, 180
-0.998261, 229, 175, 260, 190
-0.998262, 157, 165, 188, 180
-0.998263, 237, 71, 268, 86
-0.998265, 197, 171, 228, 186
-0.998266, 275, 129, 290, 160
-0.998267, 273, 127, 304, 142
-0.998267, 317, 127, 348, 142
-0.998268, 301, 137, 316, 200
-0.998268, 189, 73, 220, 88
-0.998268, 241, 159, 272, 174
-0.998269, 301, 115, 332, 130
-0.998269, 81, 105, 112, 168
-0.99827, 349, 117, 380, 132
-0.99827, 247, 73, 262, 104
-0.998272, 221, 73, 236, 104
-0.998272, 161, 95, 192, 110
-0.998273, 249, 129, 280, 144
-0.998275, 161, 119, 192, 134
-0.998276, 157, 77, 188, 92
-0.998276, 169, 61, 200, 76
-0.998278, 153, 71, 184, 86
-0.998278, 185, 161, 216, 176
-0.998279, 349, 139, 380, 154
-0.998279, 253, 159, 284, 174
-0.99828, 289, 141, 320, 156
-0.998281, 213, 127, 244, 142
-0.998281, 109, 143, 140, 158
-0.998282, 25, 111, 56, 126
-0.998283, 313, 119, 344, 134
-0.998284, 185, 91, 216, 106
-0.998284, 297, 109, 328, 124
-0.998284, 265, 99, 296, 114
-0.998284, 89, 157, 120, 172
-0.998285, 305, 169, 368, 232
-0.998287, 317, 107, 348, 122
-0.998288, 281, 121, 312, 136
-0.99829, 45, 125, 76, 140
-0.998291, 261, 145, 292, 160
-0.998292, 157, 111, 188, 126
-0.998292, 225, 167, 256, 182
-0.998294, 353, 111, 384, 126
-0.998297, 29, 131, 60, 146
-0.998297, 217, 177, 248, 192
-0.998299, 313, 93, 344, 108
-0.998299, 329, 65, 360, 320
-0.9983, 185, 171, 216, 186
-0.9983, 85, 137, 116, 152
-0.998301, 249, 153, 280, 168
-0.998301, 289, 101, 320, 116
-0.998301, 205, 165, 236, 180
-0.998302, 365, 97, 380, 160
-0.998303, 189, 121, 204, 184
-0.998304, 161, 83, 192, 98
-0.998304, 205, 81, 220, 112
-0.998304, 255, 77, 270, 108
-0.998306, 225, 71, 256, 86
-0.998306, 249, 135, 280, 150
-0.998306, 101, 149, 132, 164
-0.998307, 257, 73, 288, 88
-0.998309, 201, 123, 232, 138
-0.99831, 173, 173, 204, 188
-0.998311, 289, 77, 320, 92
-0.998311, 301, 137, 332, 152
-0.998313, 225, 133, 256, 148
-0.998315, 333, 119, 364, 134
-0.998319, 301, 83, 332, 98
-0.99832, 225, 127, 256, 142
-0.99832, 313, 113, 344, 128
-0.998321, 261, 127, 292, 142
-0.998323, 273, 75, 304, 90
-0.998324, 145, 115, 176, 130
-0.998325, 173, 121, 204, 136
-0.998326, 185, 119, 216, 134
-0.998326, 281, 115, 312, 130
-0.998327, 255, 133, 270, 164
-0.998327, 97, 135, 128, 150
-0.998332, 197, 177, 228, 192
-0.998332, 11, 117, 26, 148
-0.998333, 77, 129, 108, 256
-0.998333, 333, 99, 364, 114
-0.998334, 161, 201, 288, 264
-0.998335, 185, 79, 216, 94
-0.998335, 285, 145, 300, 208
-0.998335, 239, 73, 254, 104
-0.998336, 101, 159, 132, 174
-0.998337, 131, 97, 146, 160
-0.998338, 277, 101, 308, 116
-0.99834, 217, 85, 248, 100
-0.99834, 205, 169, 236, 232
-0.99834, 277, 109, 308, 124
-0.998342, 165, 101, 196, 116
-0.998342, 21, 123, 52, 138
-0.998344, 117, 165, 148, 180
-0.998346, 157, 171, 188, 186
-0.998347, 165, 105, 180, 136
-0.998347, 195, 49, 210, 112
-0.998349, 173, 85, 204, 100
-0.998349, 237, 129, 268, 144
-0.99835, 209, 185, 272, 248
-0.998351, 213, 171, 244, 186
-0.998351, 281, 133, 312, 148
-0.998351, 145, 169, 176, 184
-0.998352, 17, 129, 48, 144
-0.998355, 1, 125, 32, 140
-0.998355, 173, 95, 204, 110
-0.998358, 333, 111, 364, 126
-0.998363, 133, 119, 164, 134
-0.998363, 253, 153, 268, 184
-0.998365, 179, 169, 194, 232
-0.998369, 219, 105, 234, 168
-0.998373, 301, 97, 332, 112
-0.998374, 37, 121, 52, 184
-0.998375, 301, 103, 332, 118
-0.998376, 133, 167, 164, 182
-0.99838, 233, 79, 296, 94
-0.998382, 201, 155, 232, 170
-0.998383, 265, 145, 280, 176
-0.998388, 273, 89, 304, 104
-0.998389, 297, 81, 312, 112
-0.998395, 273, 141, 304, 156
-0.998399, 261, 133, 292, 148
-0.998401, 261, 85, 292, 100
-0.998401, 225, 209, 352, 272
-0.998404, 121, 123, 152, 138
-0.998406, 229, 85, 260, 100
-0.998406, 29, 129, 60, 256
-0.99841, 293, 89, 324, 104
-0.998411, 97, 143, 128, 158
-0.998414, 269, 129, 284, 160
-0.998417, 271, 145, 286, 176
-0.998417, 263, 77, 278, 108
-0.998421, 101, 129, 132, 144
-0.998426, 289, 257, 416, 320
-0.998427, 175, 93, 190, 124
-0.998428, 329, 121, 344, 184
-0.998429, 335, 73, 350, 136
-0.998429, 337, 1, 400, 320
-0.99843, 105, 97, 120, 160
-0.99843, 197, 83, 228, 98
-0.998432, 159, 105, 174, 136
-0.998433, 265, 177, 296, 240
-0.998434, 319, 65, 334, 128
-0.998436, 281, 77, 296, 108
-0.998436, 193, 85, 208, 116
-0.998437, 209, 79, 240, 94
-0.998438, 273, 77, 288, 108
-0.998439, 173, 79, 204, 94
-0.998441, 125, 97, 140, 160
-0.998444, 209, 77, 272, 92
-0.998445, 209, 153, 224, 184
-0.998445, 103, 141, 118, 172
-0.998445, 5, 119, 36, 134
-0.998447, 65, 85, 192, 116
-0.99845, 199, 81, 214, 112
-0.998452, 249, 83, 280, 98
-0.998455, 257, 81, 320, 96
-0.998458, 65, 173, 192, 204
-0.99846, 33, 125, 64, 140
-0.998463, 345, 101, 376, 116
-0.998464, 185, 85, 216, 100
-0.998468, 321, 99, 352, 114
-0.998474, 145, 177, 272, 208
-0.998474, 233, 73, 248, 104
-0.998475, 17, 117, 48, 132
-0.998475, 217, 49, 248, 112
-0.998478, 1, 117, 64, 132
-0.998478, 173, 73, 204, 88
-0.998481, 37, 115, 68, 130
-0.998493, 343, 121, 358, 184
-0.998494, 289, 77, 304, 108
-0.998497, 289, 105, 304, 136
-0.998498, 117, 125, 132, 156
-0.998499, 283, 141, 298, 172
-0.9985, 289, 149, 416, 180
-0.9985, 1, 105, 16, 168
-0.998501, 295, 93, 310, 124
-0.998503, 321, 101, 384, 116
-0.998507, 105, 125, 120, 156
-0.99851, 227, 73, 242, 104
-0.998514, 307, 137, 322, 200
-0.998515, 261, 151, 292, 166
-0.998515, 181, 89, 196, 120
-0.998518, 169, 75, 232, 90
-0.998523, 193, 73, 208, 104
-0.99853, 253, 105, 268, 168
-0.998531, 289, 165, 416, 196
-0.998532, 99, 153, 114, 184
-0.998537, 265, 87, 328, 102
-0.998539, 337, 97, 352, 128
-0.998541, 281, 89, 296, 120
-0.998542, 97, 61, 224, 92
-0.998549, 221, 77, 252, 92
-0.998551, 201, 85, 264, 100
-0.998564, 169, 67, 200, 82
-0.998567, 135, 121, 150, 152
-0.998569, 169, 85, 232, 100
-0.998574, 249, 153, 312, 168
-0.998574, 289, 89, 304, 120
-0.998588, 297, 99, 360, 114
-0.99859, 241, 133, 304, 148
-0.99859, 217, 157, 232, 188
-0.998591, 233, 77, 264, 92
-0.998593, 265, 141, 328, 156
-0.998596, 289, 83, 320, 98
-0.998597, 345, 97, 360, 128
-0.9986, 241, 159, 304, 174
-0.9986, 121, 121, 184, 136
-0.998601, 169, 69, 232, 84
-0.998602, 221, 169, 236, 200
-0.998602, 145, 81, 208, 96
-0.998602, 145, 69, 208, 84
-0.998607, 233, 85, 296, 100
-0.998608, 121, 167, 184, 182
-0.998611, 241, 49, 272, 112
-0.998613, 273, 93, 336, 108
-0.998614, 281, 107, 344, 122
-0.998614, 177, 91, 240, 106
-0.998616, 261, 79, 292, 94
-0.998622, 201, 155, 264, 170
-0.998622, 153, 171, 216, 186
-0.998625, 97, 163, 160, 178
-0.998629, 9, 123, 72, 138
-0.99863, 273, 135, 336, 150
-0.99863, 245, 77, 276, 92
-0.998631, 97, 127, 160, 142
-0.998635, 273, 81, 304, 96
-0.998638, 265, 129, 328, 144
-0.998638, 185, 171, 248, 186
-0.998639, 169, 121, 232, 136
-0.99864, 5, 117, 20, 148
-0.998641, 241, 167, 304, 182
-0.998642, 355, 101, 370, 132
-0.998643, 209, 161, 272, 176
-0.998645, 241, 127, 304, 142
-0.998647, 209, 175, 272, 190
-0.998649, 257, 147, 320, 162
-0.99865, 129, 121, 144, 152
-0.998652, 329, 113, 392, 128
-0.998652, 145, 75, 208, 90
-0.998653, 281, 81, 344, 96
-0.998658, 217, 127, 280, 142
-0.99866, 169, 65, 184, 96
-0.998661, 209, 133, 272, 148
-0.998661, 329, 119, 392, 134
-0.998662, 25, 117, 88, 132
-0.998663, 9, 129, 72, 144
-0.998664, 49, 127, 112, 142
-0.998664, 297, 137, 360, 152
-0.998666, 137, 113, 200, 128
-0.998667, 169, 177, 232, 192
-0.998669, 89, 143, 152, 158
-0.998669, 281, 113, 344, 128
-0.99867, 305, 111, 368, 126
-0.998671, 177, 155, 240, 170
-0.998672, 177, 163, 240, 178
-0.998672, 89, 149, 152, 164
-0.998673, 305, 91, 368, 106
-0.998674, 233, 73, 296, 88
-0.998675, 145, 119, 208, 134
-0.998679, 329, 107, 392, 122
-0.998679, 257, 75, 320, 90
-0.99868, 359, 137, 374, 168
-0.998683, 161, 101, 224, 116
-0.998683, 209, 149, 272, 164
-0.998686, 321, 129, 384, 144
-0.99869, 209, 167, 272, 182
-0.998691, 281, 123, 344, 138
-0.998695, 273, 117, 288, 148
-0.998695, 241, 173, 304, 188
-0.998696, 273, 101, 336, 116
-0.998697, 153, 163, 216, 178
-0.998697, 193, 125, 256, 140
-0.998699, 89, 157, 152, 172
-0.998703, 249, 137, 264, 168
-0.998703, 185, 131, 248, 146
-0.998704, 129, 161, 192, 176
-0.998706, 161, 127, 224, 142
-0.998707, 201, 157, 216, 188
-0.998707, 271, 89, 286, 120
-0.998708, 89, 137, 152, 152
-0.99871, 167, 77, 182, 108
-0.998712, 273, 153, 336, 168
-0.998713, 283, 121, 298, 152
-0.998714, 225, 95, 288, 110
-0.998715, 273, 173, 336, 188
-0.998716, 241, 139, 304, 154
-0.998716, 233, 147, 296, 162
-0.998718, 153, 107, 216, 122
-0.998722, 297, 131, 360, 146
-0.998723, 321, 137, 384, 152
-0.998723, 141, 117, 156, 148
-0.998725, 325, 125, 340, 156
-0.998726, 113, 153, 176, 168
-0.998727, 249, 85, 264, 116
-0.998727, 273, 159, 336, 174
-0.998727, 73, 131, 136, 146
-0.998728, 169, 63, 232, 78
-0.998729, 129, 173, 192, 188
-0.99873, 1, 111, 64, 126
-0.99873, 153, 95, 216, 110
-0.998731, 281, 181, 344, 196
-0.998731, 65, 139, 128, 154
-0.998731, 201, 93, 264, 108
-0.998731, 73, 163, 136, 178
-0.998731, 279, 109, 294, 140
-0.998731, 193, 71, 256, 86
-0.998732, 305, 117, 368, 132
-0.998734, 297, 143, 360, 158
-0.998734, 321, 143, 384, 158
-0.998734, 145, 89, 208, 104
-0.998737, 153, 153, 216, 168
-0.998738, 113, 147, 176, 162
-0.998738, 273, 167, 336, 182
-0.998738, 129, 63, 192, 78
-0.998739, 49, 133, 112, 148
-0.99874, 361, 105, 424, 120
-0.998741, 241, 121, 304, 136
-0.998742, 97, 121, 160, 136
-0.998745, 97, 169, 160, 184
-0.998745, 129, 99, 192, 114
-0.998746, 305, 83, 368, 98
-0.998747, 353, 113, 416, 128
-0.998747, 129, 185, 384, 248
-0.998748, 249, 207, 312, 222
-0.998748, 225, 181, 352, 212
-0.998748, 129, 105, 192, 120
-0.998748, 249, 97, 312, 112
-0.998748, 303, 97, 318, 128
-0.99875, 65, 157, 128, 172
-0.998753, 203, 169, 218, 200
-0.998755, 241, 111, 304, 126
-0.998756, 117, 145, 132, 176
-0.998757, 277, 141, 292, 172
-0.998758, 241, 181, 304, 196
-0.998759, 41, 111, 104, 126
-0.998759, 361, 97, 424, 112
-0.99876, 93, 153, 108, 184
-0.998761, 73, 121, 136, 136
-0.998761, 49, 151, 112, 166
-0.998762, 209, 181, 272, 196
-0.998762, 337, 95, 400, 110
-0.998764, 281, 75, 344, 90
-0.998764, 331, 117, 346, 148
-0.998765, 113, 141, 176, 156
-0.998766, 93, 133, 108, 164
-0.998766, 177, 149, 240, 164
-0.998767, 225, 209, 288, 224
-0.998767, 305, 123, 368, 138
-0.998768, 89, 115, 152, 130
-0.998768, 137, 127, 200, 142
-0.998768, 29, 129, 44, 160
-0.998769, 113, 113, 176, 128
-0.998774, 141, 161, 156, 192
-0.998776, 153, 113, 168, 144
-0.998776, 301, 137, 316, 168
-0.998779, 243, 85, 258, 116
-0.998781, 147, 117, 162, 148
-0.998782, 243, 153, 258, 184
-0.998786, 129, 141, 256, 172
-0.99879, 295, 105, 310, 136
-0.99879, 277, 153, 292, 184
-0.998794, 15, 105, 30, 136
-0.998798, 17, 153, 144, 184
-0.998813, 229, 161, 244, 192
-0.998817, 285, 153, 316, 216
-0.998817, 173, 165, 188, 196
-0.998822, 307, 133, 322, 164
-0.998823, 39, 125, 54, 156
-0.998827, 169, 93, 184, 124
-0.998831, 97, 65, 128, 320
-0.998831, 147, 161, 162, 192
-0.998831, 123, 125, 138, 156
-0.99884, 315, 105, 330, 136
-0.998843, 341, 33, 372, 288
-0.998847, 53, 117, 68, 148
-0.998851, 259, 89, 274, 120
-0.998855, 185, 117, 200, 148
-0.998856, 297, 121, 312, 152
-0.998856, 289, 177, 416, 208
-0.998857, 195, 113, 210, 144
-0.998861, 245, 17, 276, 144
-0.998867, 215, 69, 230, 100
-0.998874, 209, 169, 224, 200
-0.998883, 23, 125, 38, 156
-0.998883, 263, 193, 278, 224
-0.998883, 1, 193, 128, 320
-0.998887, 47, 133, 62, 164
-0.99889, 105, 157, 120, 188
-0.99889, 127, 97, 142, 224
-0.998896, 201, 117, 216, 148
-0.998902, 147, 97, 162, 224
-0.998902, 9, 105, 24, 136
-0.998904, 301, 17, 332, 144
-0.998906, 135, 161, 150, 192
-0.998907, 121, 161, 136, 192
-0.998908, 33, 57, 288, 120
-0.998909, 129, 153, 144, 184
-0.998913, 179, 165, 194, 196
-0.998913, 167, 165, 182, 196
-0.998915, 187, 165, 202, 196
-0.998921, 309, 97, 324, 128
-0.998921, 139, 97, 154, 224
-0.998927, 193, 105, 320, 136
-0.998928, 197, 169, 212, 200
-0.998946, 247, 165, 262, 196
-0.998948, 111, 153, 126, 184
-0.99895, 281, 97, 296, 224
-0.998952, 133, 113, 148, 240
-0.998956, 249, 209, 312, 272
-0.998957, 161, 97, 176, 224
-0.998964, 223, 157, 238, 188
-0.998968, 21, 105, 36, 136
-0.998972, 33, 185, 288, 248
-0.998978, 153, 97, 168, 224
-0.999007, 121, 97, 136, 224
-0.999052, 191, 65, 206, 192
-0.999065, 197, 65, 212, 192
-0.999069, 171, 81, 186, 208
-0.999089, 273, 201, 400, 264
-0.999101, 1, 177, 432, 240
-0.999125, 215, 65, 230, 192
-0.999128, 245, 65, 260, 192
-0.999138, 111, 97, 126, 224
-0.999139, 253, 65, 268, 192
-0.999144, 203, 65, 218, 192
-0.999145, 221, 65, 236, 192
-0.999158, 181, 97, 196, 224
-0.99916, 209, 65, 224, 192
-0.999161, 101, 49, 132, 176
-0.999161, 305, 65, 320, 192
-0.999166, 275, 97, 290, 224
-0.999171, 341, 81, 356, 208
-0.999174, 267, 65, 282, 192
-0.999174, 105, 97, 120, 224
-0.999182, 227, 65, 242, 192
-0.999185, 219, 145, 234, 272
-0.999191, 261, 65, 276, 192
-0.999199, 239, 65, 254, 192
-0.999203, 233, 81, 248, 208
-0.99924, 243, 113, 258, 240
-0.999245, 145, 189, 272, 220
-0.999247, 335, 81, 350, 208
-0.999249, 255, 129, 270, 256
-0.999253, 139, 145, 154, 272
-0.999258, 121, 145, 136, 272
-0.999263, 127, 145, 142, 272
-0.999263, 347, 81, 362, 208
-0.999274, 207, 145, 222, 272
-0.999276, 357, 81, 372, 208
-0.999283, 113, 17, 176, 144
-0.999285, 213, 113, 228, 240
-0.999298, 181, 49, 196, 176
-0.999304, 225, 113, 240, 240
-0.999306, 43, 81, 58, 208
-0.999323, 287, 81, 302, 208
-0.999331, 201, 145, 216, 272
-0.999337, 65, 205, 192, 236
-0.999346, 225, 161, 240, 288
-0.999347, 267, 129, 282, 256
-0.999355, 97, 129, 112, 256
-0.99936, 249, 113, 264, 240
-0.999362, 261, 129, 276, 256
-0.999368, 115, 145, 130, 272
-0.999372, 231, 145, 246, 272
-0.999375, 133, 65, 148, 192
-0.999377, 175, 33, 190, 160
-0.999377, 187, 113, 202, 240
-0.999379, 237, 145, 252, 272
-0.999399, 193, 113, 208, 240
-0.999399, 313, 81, 328, 208
-0.999407, 49, 97, 64, 224
-0.999408, 299, 65, 314, 192
-0.99941, 145, 145, 160, 272
-0.999415, 27, 81, 42, 208
-0.999422, 323, 65, 338, 192
-0.999425, 169, 145, 184, 272
-0.999428, 243, 161, 258, 288
-0.99943, 175, 145, 190, 272
-0.99943, 1, 209, 256, 272
-0.999439, 177, 205, 304, 236
-0.999442, 25, 217, 88, 280
-0.999448, 151, 145, 166, 272
-0.99945, 181, 145, 196, 272
-0.999451, 281, 49, 296, 176
-0.999466, 329, 81, 344, 208
-0.999466, 191, 161, 206, 288
-0.999466, 163, 145, 178, 272
-0.999467, 275, 145, 290, 272
-0.999478, 145, 53, 272, 84
-0.999483, 353, 65, 384, 320
-0.999486, 293, 65, 308, 192
-0.999487, 105, 145, 120, 272
-0.999488, 37, 81, 52, 208
-0.99949, 213, 161, 228, 288
-0.99949, 21, 81, 36, 208
-0.999498, 365, 103, 380, 118
-0.999498, 287, 75, 302, 90
-0.9995, 205, 175, 220, 190
-0.999501, 257, 207, 272, 222
-0.999502, 283, 133, 298, 148
-0.999503, 259, 133, 274, 148
-0.999503, 271, 99, 286, 114
-0.999503, 175, 121, 190, 136
-0.999503, 275, 137, 290, 152
-0.999503, 243, 71, 258, 86
-0.999503, 187, 119, 202, 134
-0.999504, 289, 103, 304, 118
-0.999504, 273, 49, 288, 176
-0.999505, 111, 153, 126, 168
-0.999505, 153, 169, 168, 184
-0.999505, 173, 171, 188, 186
-0.999506, 33, 131, 48, 146
-0.999507, 229, 127, 244, 142
-0.999508, 267, 73, 282, 88
-0.999508, 113, 127, 128, 142
-0.999508, 159, 107, 174, 122
-0.999508, 309, 135, 324, 150
-0.999508, 145, 167, 160, 182
-0.999508, 269, 143, 284, 158
-0.999509, 113, 49, 144, 176
-0.999509, 121, 163, 136, 178
-0.99951, 15, 127, 30, 142
-0.999511, 311, 101, 326, 116
-0.999512, 1, 213, 128, 244
-0.999512, 119, 127, 134, 142
-0.999514, 239, 127, 254, 142
-0.999515, 281, 75, 296, 90
-0.999516, 157, 115, 172, 130
-0.999516, 359, 139, 374, 154
-0.999516, 149, 115, 164, 130
-0.999517, 333, 99, 348, 114
-0.999517, 273, 125, 288, 140
-0.999517, 25, 129, 40, 144
-0.999518, 211, 177, 226, 192
-0.999519, 169, 79, 184, 94
-0.999519, 85, 65, 116, 320
-0.99952, 101, 147, 116, 162
-0.99952, 139, 167, 154, 182
-0.99952, 293, 109, 308, 124
-0.999521, 7, 125, 22, 140
-0.999522, 159, 169, 174, 184
-0.999524, 297, 89, 312, 104
-0.999524, 345, 101, 360, 116
-0.999524, 143, 119, 158, 134
-0.999527, 165, 103, 180, 118
-0.999527, 99, 137, 114, 152
-0.999528, 285, 87, 300, 102
-0.999528, 327, 117, 342, 132
-0.999528, 273, 131, 288, 146
-0.999529, 181, 121, 196, 136
-0.999529, 33, 117, 48, 132
-0.99953, 251, 129, 266, 144
-0.99953, 125, 125, 140, 140
-0.99953, 339, 99, 354, 114
-0.999531, 171, 101, 186, 116
-0.999532, 131, 123, 146, 138
-0.999533, 129, 165, 144, 180
-0.999533, 279, 143, 294, 158
-0.999534, 169, 33, 184, 160
-0.999535, 1, 119, 16, 134
-0.999536, 273, 149, 288, 164
-0.999536, 107, 127, 122, 142
-0.999538, 211, 155, 226, 170
-0.999538, 255, 155, 270, 170
-0.999538, 271, 85, 286, 100
-0.99954, 251, 83, 266, 98
-0.999541, 245, 129, 260, 144
-0.999544, 225, 205, 352, 236
-0.999544, 341, 129, 356, 256
-0.999545, 157, 145, 172, 272
-0.999546, 19, 119, 34, 134
-0.999548, 279, 85, 294, 100
-0.999549, 39, 121, 54, 136
-0.999551, 185, 77, 200, 92
-0.999551, 161, 225, 288, 288
-0.999551, 33, 123, 48, 138
-0.999551, 249, 161, 264, 288
-0.999552, 221, 171, 236, 186
-0.999553, 27, 117, 42, 132
-0.999555, 33, 33, 64, 160
-0.999556, 47, 123, 62, 138
-0.999556, 307, 89, 322, 104
-0.999558, 193, 79, 208, 94
-0.999558, 231, 81, 246, 96
-0.999558, 353, 101, 368, 116
-0.999559, 103, 157, 118, 172
-0.999559, 323, 111, 338, 126
-0.99956, 137, 121, 152, 136
-0.99956, 295, 113, 310, 240
-0.99956, 39, 127, 54, 142
-0.999561, 245, 85, 260, 100
-0.999562, 225, 81, 240, 96
-0.999563, 219, 83, 234, 98
-0.999563, 241, 233, 368, 296
-0.999567, 97, 155, 112, 170
-0.999567, 9, 129, 40, 192
-0.999569, 101, 131, 116, 146
-0.999569, 239, 85, 254, 100
-0.99957, 193, 17, 208, 144
-0.99957, 257, 83, 272, 98
-0.999571, 363, 81, 378, 208
-0.999572, 15, 81, 30, 208
-0.999574, 175, 95, 190, 110
-0.999574, 173, 73, 188, 88
-0.999575, 267, 149, 282, 164
-0.999576, 175, 83, 190, 98
-0.999576, 205, 85, 220, 100
-0.999576, 319, 103, 334, 118
-0.999578, 327, 99, 342, 114
-0.999583, 291, 87, 306, 102
-0.999583, 211, 83, 226, 98
-0.999591, 185, 83, 200, 98
-0.999596, 359, 101, 374, 116
-0.999596, 171, 67, 186, 82
-0.999598, 181, 91, 196, 106
-0.9996, 335, 129, 350, 256
-0.999602, 199, 85, 214, 100
-0.999602, 7, 119, 22, 134
-0.999603, 263, 83, 278, 98
-0.999604, 39, 115, 54, 130
-0.999605, 219, 75, 234, 90
-0.999606, 183, 67, 198, 82
-0.999609, 91, 129, 106, 256
-0.999609, 13, 119, 28, 134
-0.99961, 109, 143, 124, 158
-0.999611, 233, 33, 248, 160
-0.999611, 261, 151, 276, 166
-0.999613, 289, 129, 304, 256
-0.999613, 311, 95, 326, 110
-0.999613, 211, 17, 226, 144
-0.99962, 1, 225, 128, 256
-0.999623, 317, 97, 332, 112
-0.999626, 191, 85, 206, 100
-0.999627, 289, 225, 416, 288
-0.999631, 99, 81, 114, 208
-0.999631, 285, 177, 300, 304
-0.999632, 47, 115, 62, 130
-0.999634, 217, 17, 232, 144
-0.999634, 205, 17, 220, 144
-0.999638, 177, 65, 192, 80
-0.999638, 1, 101, 128, 132
-0.999645, 347, 129, 362, 256
-0.999649, 223, 17, 238, 144
-0.999651, 287, 33, 302, 160
-0.999653, 91, 81, 106, 208
-0.999658, 241, 193, 368, 224
-0.999663, 239, 17, 254, 144
-0.999671, 297, 83, 312, 98
-0.999672, 225, 75, 240, 90
-0.999676, 133, 161, 148, 288
-0.99968, 245, 17, 260, 144
-0.999682, 291, 177, 306, 304
-0.999682, 163, 49, 178, 176
-0.999683, 55, 81, 70, 208
-0.999685, 187, 17, 202, 144
-0.999688, 301, 113, 316, 240
-0.99969, 199, 17, 214, 144
-0.99969, 231, 75, 246, 90
-0.999694, 237, 77, 252, 92
-0.999701, 303, 83, 318, 98
-0.999706, 345, 33, 360, 160
-0.999708, 313, 33, 328, 160
-0.999715, 261, 77, 276, 92
-0.999716, 361, 129, 376, 256
-0.99972, 251, 17, 266, 144
-0.999727, 181, 1, 196, 128
-0.999728, 297, 177, 312, 304
-0.999728, 49, 217, 176, 248
-0.99973, 243, 77, 258, 92
-0.999731, 339, 33, 354, 160
-0.999733, 303, 17, 318, 144
-0.999734, 9, 81, 24, 208
-0.999738, 285, 81, 300, 96
-0.99974, 269, 79, 284, 94
-0.999741, 313, 129, 328, 256
-0.999741, 327, 129, 342, 256
-0.999743, 57, 81, 120, 144
-0.999745, 255, 77, 270, 92
-0.999746, 319, 113, 334, 240
-0.999751, 355, 33, 370, 160
-0.999753, 249, 77, 264, 92
-0.999753, 353, 129, 368, 256
-0.999753, 275, 79, 290, 94
-0.999759, 291, 81, 306, 96
-0.999776, 65, 185, 192, 216
-0.999788, 303, 177, 318, 304
-0.999791, 157, 49, 172, 176
-0.999797, 139, 49, 154, 176
-0.999798, 33, 129, 48, 256
-0.999798, 123, 49, 138, 176
-0.9998, 43, 129, 58, 256
-0.999806, 353, 257, 416, 320
-0.999807, 307, 129, 322, 256
-0.999808, 113, 201, 240, 232
-0.999809, 49, 49, 64, 176
-0.999824, 17, 169, 144, 200
-0.999862, 305, 265, 432, 296
-0.999919, 1, 201, 128, 232
-0.99992, 97, 217, 224, 248
-0.999955, 97, 209, 352, 272
-0.999965, 109, 169, 140, 232
-0.999987, 257, 57, 384, 88
-0.999997, 5, 81, 36, 144
-1.00001, 289, 193, 416, 224
-1.00003, 357, 129, 388, 256
-1.00004, 257, 269, 384, 300
-1.00004, 1, 189, 128, 220
-1.00004, 33, 1, 96, 320
-1.00005, 177, 217, 304, 248
-1.00006, 65, 49, 192, 80
-1.00009, 49, 57, 176, 120
-1.00011, 305, 281, 432, 312
-1.00012, 361, 1, 424, 320
-1.00015, 41, 65, 104, 320
-1.00016, 193, 193, 320, 224
-1.00018, 65, 229, 192, 260
-1.00018, 193, 57, 320, 88
-1.00021, 225, 229, 352, 260
-1.00022, 1, 193, 64, 256
-1.00024, 1, 1, 64, 320
-1.00026, 73, 65, 104, 320
-1.00028, 289, 253, 416, 284
-1.00029, 113, 233, 240, 296
-1.00031, 225, 217, 352, 248
-1.00032, 337, 145, 368, 208
-1.00034, 1, 85, 128, 116
-1.00035, 17, 33, 48, 160
-1.00038, 49, 61, 176, 92
-1.00038, 273, 205, 400, 236
-1.00039, 145, 233, 272, 264
-1.00042, 161, 233, 416, 296
-1.00043, 241, 257, 368, 320
-1.00048, 257, 281, 384, 312
-1.00048, 1, 73, 128, 104
-1.00049, 173, 33, 204, 96
-1.00049, 273, 221, 400, 252
-1.00051, 293, 177, 324, 240
-1.00052, 241, 257, 368, 288
-1.00053, 361, 121, 392, 184
-1.00055, 1, 57, 128, 120
-1.00055, 49, 193, 112, 320
-1.00059, 305, 61, 432, 92
-1.0006, 1, 57, 128, 88
-1.00062, 365, 33, 396, 288
-1.00064, 281, 201, 344, 264
-1.00067, 1, 237, 128, 268
-1.00067, 193, 245, 320, 276
-1.00069, 145, 41, 272, 72
-1.00069, 149, 57, 180, 120
-1.00069, 41, 65, 72, 320
-1.00071, 249, 209, 280, 272
-1.00071, 193, 209, 432, 272
-1.00071, 305, 193, 432, 320
-1.00072, 193, 257, 432, 320
-1.00072, 1, 285, 128, 316
-1.00072, 273, 233, 400, 264
-1.00073, 97, 253, 224, 284
-1.00074, 305, 21, 432, 52
-1.00074, 193, 261, 320, 292
-1.00074, 1, 13, 128, 44
-1.00074, 1, 29, 128, 60
-1.00075, 325, 177, 356, 304
-1.00075, 61, 65, 92, 320
-1.00076, 161, 41, 192, 104
-1.00076, 1, 1, 128, 32
-1.00076, 1, 65, 32, 320
-1.00078, 225, 17, 352, 48
-1.00078, 305, 169, 336, 232
-1.00079, 305, 1, 432, 32
-1.00079, 1, 41, 128, 72
-1.00079, 305, 37, 432, 68
-1.0008, 65, 241, 192, 272
-1.0008, 257, 1, 384, 32
-1.00082, 145, 245, 272, 276
-1.00082, 329, 177, 392, 240
-1.00084, 49, 261, 176, 292
-1.00084, 257, 37, 384, 68
-1.00084, 33, 233, 288, 296
-1.00085, 13, 65, 44, 320
-1.00085, 145, 29, 272, 60
-1.00086, 241, 245, 368, 276
-1.00086, 1, 273, 128, 304
-1.00087, 65, 281, 192, 312
-1.00087, 305, 49, 432, 80
-1.00089, 1, 49, 432, 112
-1.00089, 1, 253, 128, 284
-1.0009, 145, 17, 272, 48
-1.00091, 209, 1, 336, 32
-1.00091, 209, 45, 336, 76
-1.00091, 145, 257, 272, 288
-1.00092, 193, 29, 320, 60
-1.00093, 257, 1, 384, 64
-1.00093, 97, 37, 224, 68
-1.00093, 97, 265, 224, 296
-1.00093, 29, 65, 60, 320
-1.00093, 49, 29, 176, 60
-1.00094, 145, 1, 272, 32
-1.00095, 49, 1, 176, 32
-1.00095, 129, 289, 256, 320
-1.00099, 97, 1, 224, 32
-1.00099, 161, 277, 288, 308
-1.00102, 97, 17, 224, 48
-1.00103, 121, 201, 184, 264
-1.00107, 229, 177, 260, 240
-1.0011, 73, 193, 136, 256
-1.0011, 161, 201, 224, 264
-1.00111, 1, 201, 432, 264
-1.00114, 1, 1, 128, 64
-1.00115, 249, 169, 280, 232
-1.00116, 377, 1, 408, 256
-1.00117, 253, 193, 284, 320
-1.00119, 129, 33, 384, 96
-1.0012, 209, 33, 336, 96
-1.00121, 401, 1, 432, 256
-1.00123, 305, 177, 336, 304
-1.00127, 345, 145, 408, 272
-1.00128, 369, 65, 400, 192
-1.00131, 357, 73, 388, 136
-1.00132, 41, 177, 104, 240
-1.00135, 389, 33, 420, 288
-1.00135, 1, 25, 128, 88
-1.00136, 1, 137, 64, 200
-1.00137, 261, 201, 292, 264
-1.00139, 17, 241, 144, 304
-1.00143, 1, 33, 32, 160
-1.00147, 53, 33, 84, 160
-1.00156, 1, 217, 64, 280
-1.00156, 333, 17, 364, 144
-1.00157, 145, 9, 272, 72
-1.0016, 69, 193, 100, 256
-1.00163, 1, 1, 256, 64
-1.00164, 65, 241, 192, 304
-1.00165, 97, 257, 352, 320
-1.00169, 369, 105, 432, 168
-1.00173, 65, 17, 192, 80
-1.00173, 33, 33, 288, 96
-1.00174, 193, 1, 432, 64
-1.00176, 329, 257, 392, 320
-1.00177, 369, 153, 432, 216
-1.00189, 193, 1, 320, 64
-1.0019, 97, 9, 352, 72
-1.00193, 197, 193, 228, 320
-1.00194, 1, 257, 256, 320
-1.00195, 305, 193, 368, 256
-1.00196, 113, 257, 240, 320
-1.00205, 49, 33, 112, 160
-1.00206, 305, 1, 432, 64
-1.00208, 329, 193, 392, 320
-1.00213, 161, 249, 288, 312
-1.0022, 181, 185, 212, 248
-1.0022, 1, 225, 432, 288
-1.00228, 273, 17, 304, 144
-1.00233, 69, 177, 100, 304
-1.00235, 357, 33, 388, 160
-1.00241, 325, 145, 356, 208
-1.00259, 369, 89, 400, 152
-1.00271, 5, 129, 36, 256
-1.00274, 97, 177, 128, 304
-1.00276, 81, 73, 144, 136
-1.00279, 157, 1, 188, 128
-1.00281, 85, 177, 116, 240
-1.00281, 57, 225, 120, 288
-1.00285, 97, 201, 160, 264
-1.00287, 325, 177, 356, 240
-1.00288, 297, 225, 360, 288
-1.00288, 1, 249, 432, 312
-1.00292, 1, 65, 64, 320
-1.00292, 189, 33, 220, 96
-1.00302, 305, 33, 432, 96
-1.00302, 1, 161, 64, 288
-1.00302, 121, 73, 152, 136
-1.00304, 49, 217, 80, 280
-1.00309, 41, 145, 72, 272
-1.00309, 1, 1, 432, 64
-1.00315, 157, 185, 188, 248
-1.00316, 145, 177, 176, 240
-1.00326, 369, 113, 400, 240
-1.00333, 369, 1, 432, 256
-1.00334, 1, 25, 432, 88
-1.00335, 145, 1, 208, 128
-1.00341, 185, 209, 248, 272
-1.00358, 81, 177, 112, 304
-1.00362, 209, 193, 240, 320
-1.0037, 365, 257, 396, 320
-1.00371, 37, 217, 68, 280
-1.00375, 69, 113, 100, 176
-1.00375, 381, 257, 412, 320
-1.00377, 233, 185, 296, 248
-1.0038, 209, 233, 272, 296
-1.0039, 65, 81, 96, 208
-1.00398, 33, 153, 96, 216
-1.00399, 89, 81, 120, 144
-1.00401, 257, 233, 320, 296
-1.00401, 197, 193, 228, 256
-1.00408, 33, 193, 64, 256
-1.0041, 345, 1, 408, 128
-1.00412, 353, 185, 416, 248
-1.00419, 1, 225, 32, 288
-1.00427, 337, 177, 368, 304
-1.00428, 373, 145, 404, 208
-1.00432, 169, 193, 200, 256
-1.00433, 97, 225, 160, 288
-1.00433, 65, 129, 96, 256
-1.0044, 185, 233, 248, 296
-1.00443, 381, 113, 412, 240
-1.00447, 233, 233, 296, 296
-1.00454, 353, 57, 416, 120
-1.00456, 41, 193, 72, 320
-1.00465, 53, 129, 84, 256
-1.00469, 297, 257, 360, 320
-1.0047, 161, 225, 224, 288
-1.00473, 1, 177, 32, 304
-1.00474, 153, 193, 216, 320
-1.00477, 313, 49, 376, 112
-1.00483, 57, 193, 88, 320
-1.00488, 185, 193, 216, 320
-1.00489, 349, 193, 380, 320
-1.0049, 337, 233, 400, 296
-1.00494, 165, 193, 196, 320
-1.00499, 393, 113, 424, 240
-1.00515, 21, 177, 52, 304
-1.0052, 329, 201, 392, 264
-1.00533, 1, 65, 64, 128
-1.00546, 137, 225, 200, 288
-1.0055, 393, 49, 424, 176
-1.00557, 85, 33, 116, 160
-1.00559, 381, 65, 412, 192
-1.00562, 121, 193, 184, 320
-1.00564, 1, 9, 64, 72
-1.00592, 9, 1, 72, 128
-1.00593, 129, 193, 160, 320
-1.00597, 25, 177, 88, 304
-1.00598, 1, 169, 64, 232
-1.00621, 117, 193, 148, 320
-1.00631, 361, 233, 424, 296
-1.00639, 361, 177, 392, 304
-1.00639, 129, 17, 192, 80
-1.00647, 153, 193, 184, 320
-1.00647, 289, 1, 352, 64
-1.00661, 9, 241, 72, 304
-1.00666, 361, 33, 424, 96
-1.00666, 273, 257, 336, 320
-1.00677, 1, 33, 64, 96
-1.00682, 373, 161, 404, 288
-1.00682, 81, 249, 144, 312
-1.00691, 25, 49, 88, 112
-1.00707, 33, 241, 96, 304
-1.00715, 69, 33, 100, 160
-1.00728, 141, 193, 172, 320
-1.00733, 33, 1, 96, 64
-1.00733, 401, 1, 432, 128
-1.00737, 369, 145, 432, 272
-1.00739, 65, 49, 128, 112
-1.00744, 249, 9, 312, 72
-1.00751, 201, 33, 264, 96
-1.00754, 137, 249, 200, 312
-1.00757, 161, 9, 224, 72
-1.00763, 329, 1, 392, 64
-1.00767, 353, 209, 416, 272
-1.00773, 1, 1, 128, 128
-1.00784, 201, 1, 264, 64
-1.00787, 381, 17, 412, 144
-1.0079, 113, 257, 176, 320
-1.00798, 153, 33, 216, 96
-1.00803, 289, 25, 352, 88
-1.00805, 401, 193, 432, 320
-1.00811, 97, 49, 160, 112
-1.00817, 369, 1, 400, 128
-1.00821, 389, 161, 420, 288
-1.00825, 353, 1, 416, 64
-1.00827, 145, 1, 176, 128
-1.00836, 321, 25, 384, 88
-1.00844, 57, 1, 120, 64
-1.00853, 217, 257, 280, 320
-1.00922, 97, 1, 128, 128
-1.00988, 89, 17, 152, 144
-1.01051, 109, 1, 140, 128
-1.01081, 353, 193, 416, 320
-1.01106, 133, 1, 164, 128
-1.01132, 121, 1, 152, 128
-1.01139, 369, 1, 432, 128
-1.01151, 49, 1, 176, 128
