1891
-0.461277, 225, 1, 480, 332
-0.508222, 1, 65, 500, 320
-0.57133, 1, 1, 500, 332
-0.622782, 225, 65, 480, 320
-0.696352, 129, 1, 384, 332
-0.746975, 33, 1, 288, 332
-0.78778, 97, 65, 352, 320
-0.86164, 273, 1, 400, 332
-0.86776, 257, 33, 384, 288
-0.880442, 305, 65, 432, 320
-0.880707, 193, 65, 320, 320
-0.887697, 353, 1, 480, 332
-0.889419, 225, 129, 480, 256
-0.89769, 209, 1, 336, 332
-0.903596, 193, 81, 448, 208
-0.906322, 353, 65, 480, 320
-0.921014, 161, 1, 288, 332
-0.922953, 361, 113, 424, 240
-0.923398, 1, 113, 500, 240
-0.925076, 337, 129, 464, 256
-0.93391, 145, 65, 272, 320
-0.935405, 241, 113, 368, 240
-0.936201, 1, 65, 500, 192
-0.93835, 1, 1, 256, 256
-0.938912, 401, 145, 464, 272
-0.939306, 209, 65, 336, 192
-0.941672, 1, 193, 500, 320
-0.9421, 289, 161, 416, 288
-0.942315, 129, 129, 384, 256
-0.942394, 193, 33, 448, 160
-0.943329, 273, 65, 400, 192
-0.947207, 265, 129, 328, 256
-0.94724, 97, 81, 352, 208
-0.947845, 289, 113, 416, 240
-0.947904, 217, 65, 280, 192
-0.948392, 393, 193, 456, 320
-0.948898, 225, 193, 480, 320
-0.949267, 249, 81, 312, 208
-0.953041, 265, 193, 328, 320
-0.954371, 1, 1, 500, 128
-0.955248, 345, 161, 408, 288
-0.955311, 393, 217, 456, 280
-0.956561, 353, 193, 480, 320
-0.956587, 241, 1, 368, 128
-0.956839, 369, 129, 432, 192
-0.958024, 337, 113, 400, 240
-0.958133, 377, 193, 440, 256
-0.958562, 161, 129, 288, 256
-0.95964, 209, 129, 272, 256
-0.960867, 417, 193, 480, 320
-0.961175, 305, 145, 368, 272
-0.961229, 257, 217, 320, 280
-0.961986, 113, 1, 240, 332
-0.962562, 225, 161, 352, 288
-0.962895, 345, 169, 408, 232
-0.96303, 313, 169, 376, 232
-0.963216, 369, 193, 432, 320
-0.96448, 241, 209, 368, 332
-0.964681, 129, 209, 384, 332
-0.964714, 297, 49, 360, 176
-0.964873, 417, 169, 480, 232
-0.964936, 377, 241, 440, 304
-0.966064, 161, 65, 288, 192
-0.966244, 305, 97, 368, 224
-0.96686, 33, 129, 288, 256
-0.967022, 65, 1, 192, 332
-0.967296, 337, 137, 464, 200
-0.967315, 321, 129, 384, 192
-0.967357, 241, 209, 304, 332
-0.967782, 1, 1, 128, 332
-0.968071, 345, 129, 408, 192
-0.968107, 353, 193, 416, 256
-0.968131, 289, 193, 352, 320
-0.96854, 369, 113, 400, 240
-0.969782, 297, 145, 360, 208
-0.96995, 289, 185, 416, 248
-0.970098, 97, 1, 224, 256
-0.970206, 265, 137, 328, 200
-0.970248, 297, 193, 360, 256
-0.970264, 265, 193, 328, 256
-0.970445, 417, 201, 480, 264
-0.970518, 233, 89, 296, 152
-0.970716, 1, 1, 128, 256
-0.970814, 385, 97, 448, 224
-0.971279, 33, 33, 288, 160
-0.971391, 209, 121, 272, 184
-0.971534, 257, 65, 320, 320
-0.971918, 233, 161, 296, 288
-0.972652, 393, 137, 456, 200
-0.972766, 209, 81, 272, 144
-0.972766, 273, 97, 336, 160
-0.972988, 305, 105, 368, 168
-0.973426, 241, 161, 368, 224
-0.973567, 425, 145, 488, 272
-0.973639, 413, 129, 444, 256
-0.973938, 429, 145, 460, 272
-0.973992, 393, 161, 456, 224
-0.974522, 353, 217, 416, 280
-0.974962, 241, 241, 304, 304
-0.975026, 369, 65, 432, 320
-0.975135, 337, 81, 464, 208
-0.975153, 321, 193, 384, 320
-0.975198, 289, 209, 416, 332
-0.975299, 385, 113, 416, 240
-0.975316, 393, 201, 424, 264
-0.975341, 257, 169, 320, 232
-0.975391, 273, 49, 336, 176
-0.975874, 369, 121, 400, 184
-0.975954, 241, 193, 304, 256
-0.976031, 193, 209, 320, 332
-0.976043, 281, 217, 344, 280
-0.97613, 349, 129, 380, 192
-0.97624, 281, 1, 344, 128
-0.976305, 249, 33, 312, 160
-0.976862, 225, 65, 256, 192
-0.977154, 221, 81, 252, 144
-0.977411, 193, 89, 320, 152
-0.977689, 321, 193, 384, 256
-0.977703, 353, 185, 480, 248
-0.977821, 241, 129, 304, 192
-0.977886, 353, 161, 480, 224
-0.978068, 233, 217, 296, 280
-0.978085, 329, 65, 392, 192
-0.978091, 193, 17, 320, 144
-0.978118, 193, 81, 256, 208
-0.978144, 405, 209, 436, 332
-0.978277, 417, 225, 480, 288
-0.978298, 269, 201, 300, 264
-0.978476, 297, 65, 360, 128
-0.978486, 361, 105, 424, 168
-0.978491, 353, 169, 384, 232
-0.97853, 289, 161, 416, 224
-0.978657, 381, 193, 412, 256
-0.978696, 281, 169, 344, 232
-0.978798, 409, 129, 440, 192
-0.978838, 249, 65, 280, 192
-0.978881, 309, 185, 340, 248
-0.978893, 357, 113, 388, 240
-0.979175, 345, 209, 408, 332
-0.979451, 305, 1, 368, 256
-0.979624, 297, 41, 360, 104
-0.979644, 289, 129, 416, 192
-0.979654, 353, 217, 480, 280
-0.979737, 241, 209, 368, 272
-0.979808, 241, 185, 368, 248
-0.979819, 337, 169, 368, 232
-0.979889, 409, 209, 440, 272
-0.980129, 401, 129, 432, 256
-0.980198, 289, 209, 320, 332
-0.980217, 209, 137, 336, 200
-0.980221, 233, 65, 296, 320
-0.98024, 429, 153, 460, 216
-0.980256, 209, 113, 336, 176
-0.98026, 417, 145, 480, 208
-0.980282, 269, 193, 300, 320
-0.980648, 321, 17, 448, 144
-0.981035, 421, 201, 452, 264
-0.981061, 273, 105, 400, 168
-0.981076, 361, 65, 424, 192
-0.981133, 309, 129, 340, 256
-0.981176, 273, 225, 304, 288
-0.981337, 209, 65, 272, 320
-0.981995, 217, 145, 280, 208
-0.982056, 237, 65, 268, 192
-0.982077, 393, 65, 456, 320
-0.982093, 441, 161, 472, 288
-0.982156, 313, 161, 344, 224
-0.982162, 257, 1, 320, 332
-0.982224, 297, 9, 360, 72
-0.982347, 393, 193, 424, 320
-0.982364, 353, 161, 384, 288
-0.982522, 421, 193, 452, 320
-0.982702, 273, 57, 336, 120
-0.982883, 265, 265, 328, 328
-0.983119, 289, 209, 416, 272
-0.983334, 385, 241, 416, 304
-0.98352, 289, 129, 320, 256
-0.983547, 289, 209, 320, 272
-0.983615, 241, 81, 272, 144
-0.983622, 225, 113, 256, 176
-0.983651, 345, 65, 408, 320
-0.983662, 49, 1, 176, 256
-0.983887, 329, 25, 392, 88
-0.984035, 193, 193, 320, 256
-0.984119, 225, 169, 288, 232
-0.984131, 329, 105, 392, 168
-0.984141, 177, 105, 240, 168
-0.984208, 369, 161, 400, 288
-0.984334, 241, 73, 368, 136
-0.984383, 337, 113, 368, 240
-0.984407, 257, 241, 288, 304
-0.984546, 1, 81, 256, 208
-0.984588, 381, 177, 412, 304
-0.984633, 337, 1, 400, 128
-0.984679, 353, 257, 416, 320
-0.98479, 325, 169, 356, 232
-0.98479, 281, 1, 344, 256
-0.984885, 381, 121, 412, 184
-0.98502, 337, 145, 368, 208
-0.985031, 305, 129, 336, 192
-0.985043, 273, 249, 304, 312
-0.985249, 285, 81, 316, 208
-0.985279, 233, 113, 264, 240
-0.985438, 161, 137, 288, 200
-0.985469, 261, 81, 292, 208
-0.985576, 397, 129, 428, 192
-0.985579, 421, 225, 452, 288
-0.985776, 217, 193, 280, 256
-0.985939, 297, 1, 360, 332
-0.986044, 337, 113, 464, 176
-0.986095, 369, 1, 432, 332
-0.986182, 209, 17, 272, 144
-0.986276, 301, 65, 332, 192
-0.986452, 277, 129, 308, 256
-0.98646, 113, 49, 240, 176
-0.986661, 417, 249, 480, 312
-0.986771, 441, 177, 472, 240
-0.986824, 329, 33, 360, 160
-0.986843, 433, 209, 464, 332
-0.986867, 321, 249, 448, 312
-0.986907, 185, 73, 248, 136
-0.987047, 321, 1, 384, 64
-0.987098, 313, 1, 344, 128
-0.98714, 365, 161, 396, 224
-0.987164, 33, 209, 160, 332
-0.987201, 273, 241, 336, 304
-0.987212, 193, 169, 320, 232
-0.987212, 193, 225, 320, 288
-0.987441, 409, 233, 440, 296
-0.987515, 293, 105, 324, 168
-0.987543, 241, 49, 368, 112
-0.987695, 257, 217, 288, 280
-0.987721, 393, 273, 456, 332
-0.987724, 185, 129, 248, 192
-0.987778, 397, 233, 428, 296
-0.987826, 269, 89, 300, 152
-0.987841, 253, 161, 284, 288
-0.987857, 237, 129, 268, 192
-0.987865, 213, 65, 244, 192
-0.9881, 301, 177, 332, 304
-0.988166, 145, 113, 272, 176
-0.988177, 409, 185, 440, 248
-0.988279, 425, 121, 488, 184
-0.988298, 233, 65, 296, 128
-0.988307, 265, 33, 296, 160
-0.988385, 241, 249, 368, 312
-0.988471, 409, 97, 472, 224
-0.988478, 361, 129, 424, 160
-0.988633, 349, 105, 380, 168
-0.98865, 305, 1, 368, 128
-0.988665, 193, 121, 448, 184
-0.988704, 273, 81, 304, 208
-0.988721, 341, 161, 372, 288
-0.988725, 353, 65, 384, 192
-0.988732, 273, 1, 336, 64
-0.988751, 193, 249, 320, 312
-0.988808, 257, 209, 288, 332
-0.988823, 421, 265, 452, 328
-0.988846, 217, 1, 280, 332
-0.988853, 345, 1, 408, 332
-0.988872, 253, 81, 284, 144
-0.988926, 285, 1, 316, 128
-0.988998, 73, 209, 136, 332
-0.98903, 369, 185, 400, 248
-0.989094, 321, 161, 352, 288
-0.9891, 209, 57, 272, 120
-0.989106, 373, 217, 404, 280
-0.989214, 253, 145, 284, 208
-0.989214, 433, 225, 464, 288
-0.989219, 353, 273, 480, 332
-0.989275, 193, 65, 320, 128
-0.989299, 421, 129, 452, 192
-0.989337, 321, 1, 384, 332
-0.98936, 325, 193, 356, 256
-0.989383, 225, 153, 480, 216
-0.989603, 381, 169, 412, 232
-0.989665, 169, 65, 232, 192
-0.989703, 393, 217, 456, 248
-0.989759, 369, 161, 432, 224
-0.989769, 209, 81, 272, 112
-0.989853, 321, 41, 352, 104
-0.989922, 393, 1, 456, 332
-0.989941, 145, 81, 272, 144
-0.990197, 257, 221, 320, 252
-0.990202, 301, 153, 332, 216
-0.99026, 305, 173, 368, 204
-0.990322, 361, 193, 424, 224
-0.990338, 257, 1, 384, 64
-0.99035, 1, 209, 256, 332
-0.990401, 249, 121, 280, 184
-0.990401, 369, 249, 496, 312
-0.990425, 233, 85, 296, 116
-0.990425, 385, 205, 448, 236
-0.990476, 281, 185, 312, 248
-0.990489, 457, 185, 488, 248
-0.990521, 385, 133, 448, 164
-0.99057, 369, 209, 400, 332
-0.99057, 273, 205, 336, 236
-0.990575, 305, 193, 368, 224
-0.990638, 209, 129, 272, 160
-0.990644, 321, 145, 384, 176
-0.990654, 185, 129, 248, 256
-0.990684, 305, 125, 368, 156
-0.990742, 249, 137, 312, 168
-0.990757, 393, 229, 456, 260
-0.990853, 281, 97, 312, 160
-0.990857, 417, 181, 480, 212
-0.990929, 265, 193, 328, 224
-0.990944, 253, 169, 284, 232
-0.990969, 209, 141, 272, 172
-0.991029, 297, 1, 328, 128
-0.991063, 373, 65, 404, 192
-0.991104, 249, 193, 280, 256
-0.991119, 353, 193, 384, 256
-0.991119, 345, 169, 408, 200
-0.991143, 429, 177, 460, 240
-0.991158, 329, 181, 392, 212
-0.99116, 361, 205, 424, 236
-0.991207, 417, 225, 480, 256
-0.991213, 213, 113, 244, 240
-0.991217, 377, 241, 440, 272
-0.991222, 337, 17, 368, 80
-0.991235, 297, 205, 360, 236
-0.991237, 241, 205, 304, 236
-0.991256, 453, 177, 484, 304
-0.991328, 81, 209, 208, 332
-0.99136, 305, 161, 368, 192
-0.991381, 417, 205, 480, 236
-0.991384, 241, 265, 304, 328
-0.991398, 393, 149, 456, 180
-0.991403, 425, 193, 488, 224
-0.991409, 329, 49, 392, 112
-0.991415, 385, 185, 448, 216
-0.991435, 417, 169, 480, 200
-0.991451, 337, 129, 400, 160
-0.991602, 297, 137, 360, 168
-0.991656, 225, 185, 480, 248
-0.991679, 49, 293, 112, 324
-0.991684, 89, 293, 152, 324
-0.991693, 209, 93, 272, 124
-0.991702, 217, 241, 280, 304
-0.99174, 337, 193, 368, 256
-0.99175, 441, 201, 472, 264
-0.991804, 257, 93, 320, 124
-0.991807, 337, 193, 400, 224
-0.991834, 273, 125, 336, 156
-0.99187, 281, 217, 344, 248
-0.99188, 273, 181, 336, 212
-0.991911, 297, 53, 360, 84
-0.991921, 273, 157, 336, 188
-0.991938, 233, 189, 296, 220
-0.991955, 369, 217, 432, 248
-0.991959, 209, 117, 272, 148
-0.991973, 257, 233, 320, 264
-0.991978, 233, 217, 296, 248
-0.991983, 333, 97, 364, 160
-0.991997, 305, 113, 368, 144
-0.992001, 397, 81, 428, 208
-0.992016, 361, 153, 424, 184
-0.99203, 297, 17, 360, 48
-0.992069, 161, 89, 416, 152
-0.992069, 329, 157, 392, 188
-0.992084, 289, 49, 416, 112
-0.992087, 345, 117, 408, 148
-0.992091, 241, 245, 304, 276
-0.992095, 265, 25, 328, 88
-0.992096, 305, 73, 368, 104
-0.992104, 185, 129, 248, 160
-0.992113, 377, 253, 440, 284
-0.992132, 265, 113, 328, 144
-0.992134, 425, 133, 488, 164
-0.992146, 417, 153, 480, 184
-0.992159, 269, 113, 300, 176
-0.992187, 17, 273, 144, 332
-0.992196, 249, 257, 312, 288
-0.992198, 217, 1, 280, 64
-0.9922, 401, 113, 464, 176
-0.992277, 373, 241, 404, 304
-0.9923, 385, 173, 448, 204
-0.992304, 273, 145, 336, 176
-0.992327, 377, 269, 440, 300
-0.992355, 345, 1, 408, 64
-0.992368, 369, 129, 400, 160
-0.99237, 297, 185, 328, 248
-0.992372, 305, 97, 368, 128
-0.992377, 305, 37, 368, 68
-0.992379, 249, 149, 312, 180
-0.992387, 233, 233, 296, 264
-0.992411, 321, 121, 352, 184
-0.992414, 417, 269, 480, 300
-0.99242, 265, 73, 328, 104
-0.992434, 345, 237, 408, 268
-0.992441, 241, 125, 304, 156
-0.992455, 281, 101, 344, 132
-0.992461, 129, 297, 192, 328
-0.992497, 345, 221, 408, 252
-0.9925, 361, 97, 392, 160
-0.992507, 417, 237, 480, 268
-0.992514, 361, 141, 424, 172
-0.992515, 393, 209, 424, 240
-0.99253, 265, 5, 328, 36
-0.992539, 349, 133, 380, 164
-0.992544, 241, 1, 304, 64
-0.992546, 221, 81, 252, 112
-0.992565, 381, 189, 412, 220
-0.992568, 321, 205, 384, 236
-0.992571, 209, 69, 272, 100
-0.992582, 273, 245, 336, 276
-0.992585, 1, 1, 128, 128
-0.9926, 209, 1, 336, 64
-0.992618, 209, 105, 272, 136
-0.992622, 305, 85, 368, 116
-0.99264, 397, 105, 428, 168
-0.992644, 409, 225, 440, 256
-0.992658, 281, 33, 344, 64
-0.992664, 209, 153, 272, 184
-0.992666, 297, 1, 360, 32
-0.992672, 249, 277, 312, 308
-0.992681, 321, 17, 384, 48
-0.992682, 273, 269, 336, 300
-0.992696, 281, 85, 344, 116
-0.992718, 369, 229, 432, 260
-0.992727, 269, 209, 300, 240
-0.99273, 393, 177, 424, 240
-0.992738, 353, 169, 384, 200
-0.992739, 237, 105, 268, 168
-0.992741, 297, 149, 360, 180
-0.992752, 177, 297, 240, 328
-0.992755, 177, 117, 240, 148
-0.992756, 273, 21, 336, 52
-0.992759, 421, 209, 452, 240
-0.992762, 241, 173, 304, 204
-0.992775, 409, 133, 440, 164
-0.992788, 325, 145, 356, 208
-0.992794, 177, 105, 240, 136
-0.992805, 233, 113, 296, 144
-0.992817, 417, 1, 480, 332
-0.992818, 309, 193, 340, 224
-0.99283, 233, 97, 296, 128
-0.992837, 265, 169, 328, 200
-0.992839, 389, 129, 420, 160
-0.992839, 429, 153, 460, 184
-0.992844, 317, 17, 348, 80
-0.992847, 241, 81, 272, 112
-0.992848, 217, 205, 280, 236
-0.992848, 265, 229, 296, 260
-0.992874, 257, 25, 384, 88
-0.992877, 177, 93, 240, 124
-0.992886, 225, 125, 256, 156
-0.992891, 333, 177, 364, 208
-0.992891, 289, 213, 320, 244
-0.992909, 413, 197, 444, 228
-0.992922, 241, 73, 304, 104
-0.992925, 353, 181, 416, 212
-0.992931, 265, 89, 296, 120
-0.992932, 393, 233, 424, 264
-0.992932, 349, 145, 380, 176
-0.992936, 309, 161, 340, 192
-0.992939, 249, 113, 280, 240
-0.992945, 429, 165, 460, 196
-0.992946, 341, 1, 372, 128
-0.99295, 345, 249, 408, 280
-0.99296, 273, 241, 304, 272
-0.992963, 221, 105, 252, 136
-0.992968, 241, 161, 304, 192
-0.992971, 229, 57, 260, 120
-0.992976, 221, 93, 252, 124
-0.992994, 185, 77, 248, 108
-0.992998, 385, 281, 448, 312
-0.993004, 213, 113, 244, 176
-0.993005, 241, 1, 304, 32
-0.993008, 369, 1, 432, 64
-0.993013, 337, 189, 368, 220
-0.993017, 341, 121, 372, 152
-0.99302, 421, 141, 452, 172
-0.993027, 281, 201, 312, 232
-0.993029, 385, 245, 416, 276
-0.993052, 433, 249, 464, 312
-0.993056, 337, 133, 464, 164
-0.993061, 265, 145, 296, 272
-0.993067, 253, 85, 284, 116
-0.993076, 301, 205, 332, 236
-0.99308, 421, 269, 452, 300
-0.99308, 393, 197, 424, 228
-0.993083, 421, 221, 452, 252
-0.993091, 185, 141, 248, 172
-0.993096, 261, 245, 292, 276
-0.9931, 281, 257, 344, 288
-0.993101, 241, 273, 368, 332
-0.993105, 309, 181, 340, 212
-0.993106, 337, 1, 400, 32
-0.993108, 77, 289, 108, 320
-0.993115, 281, 97, 312, 128
-0.993119, 305, 141, 336, 172
-0.993128, 225, 137, 256, 168
-0.993135, 405, 213, 436, 244
-0.993143, 385, 65, 416, 192
-0.993145, 269, 257, 300, 288
-0.993146, 217, 209, 280, 332
-0.99315, 257, 217, 288, 248
-0.993159, 321, 177, 352, 208
-0.993168, 325, 65, 356, 96
-0.993171, 329, 49, 392, 80
-0.993201, 321, 189, 352, 220
-0.993203, 421, 233, 452, 264
-0.993207, 369, 193, 400, 224
-0.993209, 409, 121, 472, 152
-0.99321, 261, 185, 292, 216
-0.993211, 237, 137, 268, 168
-0.993212, 293, 113, 324, 144
-0.993213, 417, 257, 480, 288
-0.993218, 329, 29, 392, 60
-0.993218, 353, 113, 384, 144
-0.993222, 277, 269, 308, 300
-0.993223, 57, 289, 88, 320
-0.993225, 385, 121, 448, 152
-0.993232, 393, 221, 424, 252
-0.993239, 25, 301, 88, 332
-0.993242, 337, 165, 368, 196
-0.993243, 417, 65, 480, 320
-0.993245, 441, 173, 472, 204
-0.993256, 373, 245, 404, 276
-0.993262, 281, 225, 312, 256
-0.993262, 253, 137, 284, 168
-0.993268, 321, 37, 352, 68
-0.99327, 381, 205, 412, 236
-0.993277, 301, 125, 332, 156
-0.993283, 381, 225, 412, 256
-0.993283, 429, 193, 460, 224
-0.993285, 393, 161, 456, 192
-0.993288, 25, 289, 88, 320
-0.993294, 253, 169, 284, 200
-0.993297, 445, 185, 476, 216
-0.993302, 357, 181, 388, 212
-0.993307, 237, 93, 268, 124
-0.993314, 321, 53, 352, 84
-0.993318, 289, 189, 320, 220
-0.99332, 253, 201, 284, 232
-0.993321, 441, 225, 472, 256
-0.993326, 333, 105, 364, 136
-0.993327, 429, 181, 460, 212
-0.993327, 325, 201, 356, 232
-0.993333, 281, 257, 312, 288
-0.993335, 441, 209, 472, 240
-0.993346, 237, 125, 268, 156
-0.993347, 281, 5, 312, 36
-0.993362, 337, 61, 400, 92
-0.993368, 281, 133, 312, 164
-0.993369, 281, 229, 344, 260
-0.993369, 273, 57, 336, 88
-0.993372, 357, 197, 388, 228
-0.993372, 353, 269, 416, 300
-0.993373, 89, 293, 120, 324
-0.993377, 277, 273, 308, 332
-0.993378, 293, 1, 324, 32
-0.993386, 361, 153, 392, 184
-0.993392, 57, 301, 88, 332
-0.993399, 205, 129, 236, 160
-0.993399, 377, 117, 408, 148
-0.993408, 321, 157, 352, 188
-0.993416, 409, 185, 440, 216
-0.993416, 273, 281, 304, 312
-0.993418, 217, 165, 280, 196
-0.993424, 301, 21, 332, 52
-0.993427, 249, 229, 280, 260
-0.993428, 237, 149, 268, 180
-0.993431, 205, 113, 236, 144
-0.993437, 209, 185, 272, 216
-0.993443, 153, 301, 216, 332
-0.993451, 337, 25, 368, 56
-0.993451, 37, 293, 68, 324
-0.993452, 225, 69, 256, 100
-0.993452, 317, 21, 348, 52
-0.993453, 237, 69, 268, 100
-0.993454, 437, 133, 468, 164
-0.993455, 317, 125, 348, 156
-0.993455, 461, 193, 492, 224
-0.993459, 289, 145, 320, 176
-0.993463, 253, 157, 284, 188
-0.993467, 209, 77, 240, 108
-0.993469, 349, 157, 380, 188
-0.993472, 341, 53, 372, 84
-0.993478, 409, 281, 472, 312
-0.993486, 333, 137, 364, 168
-0.99349, 329, 117, 360, 148
-0.99349, 293, 101, 324, 132
-0.993496, 409, 273, 440, 304
-0.993498, 233, 109, 264, 140
-0.993498, 213, 141, 244, 172
-0.993502, 217, 1, 280, 32
-0.993512, 241, 185, 272, 216
-0.993513, 201, 93, 232, 124
-0.993514, 421, 257, 452, 288
-0.993516, 309, 33, 340, 64
-0.99352, 257, 73, 288, 104
-0.993521, 393, 117, 424, 148
-0.993523, 433, 261, 464, 292
-0.993523, 305, 109, 336, 140
-0.993526, 381, 257, 412, 288
-0.993534, 317, 49, 348, 176
-0.993536, 457, 205, 488, 236
-0.993537, 317, 145, 348, 176
-0.993538, 269, 125, 300, 156
-0.993542, 261, 277, 292, 308
-0.993568, 289, 81, 416, 144
-0.993724, 321, 97, 352, 224
-0.99385, 97, 273, 224, 332
-0.993873, 433, 97, 496, 224
-0.993875, 301, 209, 332, 272
-0.993904, 293, 1, 324, 64
-0.993969, 289, 161, 320, 224
-0.993995, 337, 65, 368, 128
-0.994014, 377, 265, 408, 328
-0.994019, 245, 57, 276, 120
-0.994083, 121, 273, 184, 332
-0.994141, 129, 153, 384, 216
-0.994173, 129, 1, 256, 128
-0.994194, 341, 41, 372, 104
-0.994214, 265, 177, 296, 240
-0.99422, 145, 57, 272, 120
-0.994226, 289, 189, 416, 220
-0.994248, 145, 273, 272, 332
-0.994261, 337, 145, 464, 176
-0.994261, 333, 121, 364, 184
-0.994262, 321, 25, 448, 88
-0.994284, 413, 81, 444, 208
-0.99429, 57, 273, 120, 332
-0.99435, 357, 209, 388, 332
-0.994384, 241, 169, 368, 200
-0.994395, 429, 97, 460, 224
-0.994401, 417, 273, 480, 332
-0.994431, 97, 129, 352, 192
-0.994451, 193, 1, 256, 332
-0.994458, 363, 129, 378, 192
-0.994508, 305, 105, 336, 168
-0.994514, 289, 273, 416, 332
-0.994519, 373, 129, 388, 192
-0.99456, 209, 81, 240, 144
-0.994653, 297, 65, 328, 128
-0.994681, 253, 17, 284, 144
-0.994764, 305, 1, 432, 64
-0.994782, 399, 193, 414, 256
-0.994795, 113, 97, 240, 224
-0.994801, 273, 201, 400, 232
-0.994837, 193, 97, 320, 128
-0.994844, 241, 17, 272, 144
-0.994859, 325, 65, 356, 128
-0.994923, 169, 17, 232, 144
-0.994933, 209, 25, 336, 88
-0.994967, 285, 129, 316, 192
-0.99497, 241, 181, 368, 212
-0.994979, 277, 65, 308, 128
-0.994998, 225, 137, 256, 200
-0.995055, 391, 185, 406, 248
-0.995081, 261, 265, 292, 328
-0.995087, 225, 209, 480, 272
-0.995103, 333, 209, 364, 332
-0.99514, 89, 265, 152, 328
-0.99517, 145, 209, 272, 332
-0.995172, 435, 217, 450, 280
-0.995242, 433, 145, 448, 208
-0.995269, 337, 165, 464, 196
-0.995281, 273, 117, 400, 148
-0.995304, 329, 265, 392, 328
-0.995344, 273, 137, 400, 168
-0.995351, 289, 265, 352, 328
-0.995355, 417, 129, 432, 192
-0.995385, 289, 161, 416, 192
-0.995408, 271, 217, 286, 280
-0.995457, 351, 169, 366, 232
-0.995513, 409, 153, 440, 216
-0.995517, 193, 85, 320, 116
-0.995536, 409, 105, 440, 168
-0.995537, 193, 117, 320, 148
-0.995548, 225, 81, 240, 144
-0.995556, 97, 185, 352, 248
-0.995559, 241, 157, 368, 188
-0.995568, 331, 177, 346, 240
-0.995594, 441, 153, 472, 216
-0.995594, 193, 273, 320, 332
-0.995601, 169, 273, 232, 332
-0.995628, 209, 129, 336, 160
-0.995637, 359, 169, 374, 232
-0.995653, 383, 121, 398, 184
-0.995672, 405, 201, 420, 264
-0.995688, 289, 149, 416, 180
-0.995696, 237, 153, 268, 216
-0.995723, 355, 137, 370, 200
-0.995727, 387, 241, 402, 304
-0.995735, 453, 129, 484, 256
-0.995812, 185, 33, 248, 288
-0.995838, 425, 137, 440, 200
-0.995849, 105, 209, 168, 332
-0.995853, 411, 209, 426, 272
-0.995855, 429, 209, 444, 272
-0.995866, 293, 217, 308, 280
-0.995877, 225, 141, 352, 172
-0.995879, 337, 89, 464, 152
-0.995883, 145, 161, 272, 224
-0.995892, 239, 113, 254, 176
-0.995903, 239, 81, 254, 144
-0.995935, 289, 177, 416, 208
-0.995952, 337, 193, 464, 224
-0.995955, 411, 129, 426, 192
-0.995972, 297, 25, 328, 88
-0.996025, 273, 185, 288, 248
-0.996028, 241, 177, 272, 304
-0.996066, 369, 33, 496, 160
-0.996069, 369, 181, 496, 212
-0.99607, 247, 81, 262, 144
-0.996108, 329, 217, 392, 280
-0.996129, 397, 217, 412, 280
-0.99614, 279, 201, 294, 264
-0.996141, 129, 209, 192, 332
-0.996143, 405, 129, 420, 192
-0.996144, 305, 1, 336, 64
-0.996146, 209, 193, 336, 224
-0.996147, 229, 17, 260, 144
-0.996175, 409, 273, 440, 332
-0.996178, 241, 213, 368, 244
-0.996201, 257, 73, 384, 104
-0.99622, 201, 105, 232, 168
-0.996287, 337, 81, 400, 144
-0.99632, 423, 233, 438, 296
-0.996334, 323, 161, 338, 224
-0.99634, 241, 89, 368, 120
-0.996373, 367, 153, 382, 216
-0.996377, 193, 65, 448, 128
-0.996417, 383, 185, 398, 248
-0.996419, 283, 225, 298, 288
-0.996421, 353, 217, 480, 248
-0.996443, 399, 129, 414, 192
-0.996462, 313, 137, 328, 200
-0.996464, 453, 177, 468, 240
-0.996469, 433, 273, 464, 332
-0.996482, 417, 217, 432, 280
-0.9965, 245, 137, 260, 200
-0.996514, 277, 249, 292, 312
-0.996527, 225, 265, 480, 328
-0.996536, 389, 121, 404, 184
-0.996545, 271, 249, 286, 312
-0.996551, 369, 1, 496, 64
-0.996563, 289, 213, 416, 244
-0.996564, 439, 153, 454, 216
-0.996578, 353, 105, 368, 168
-0.99658, 273, 65, 304, 320
-0.996597, 445, 161, 460, 224
-0.996616, 313, 185, 328, 248
-0.996644, 257, 97, 500, 160
-0.996648, 385, 217, 400, 280
-0.996713, 341, 65, 372, 192
-0.996729, 17, 249, 144, 312
-0.996739, 337, 205, 464, 236
-0.996741, 339, 169, 354, 232
-0.996765, 161, 137, 288, 168
-0.99678, 391, 209, 406, 272
-0.996814, 401, 1, 464, 64
-0.99684, 261, 201, 276, 264
-0.996847, 231, 81, 246, 144
-0.996873, 343, 65, 358, 128
-0.996877, 325, 185, 340, 248
-0.996879, 385, 65, 416, 320
-0.996879, 385, 97, 416, 160
-0.996884, 347, 145, 362, 208
-0.996885, 33, 293, 160, 324
-0.996891, 305, 169, 320, 232
-0.996892, 161, 1, 288, 64
-0.996899, 413, 65, 444, 320
-0.996901, 299, 105, 314, 168
-0.996923, 459, 185, 474, 248
-0.996942, 303, 209, 318, 272
-0.996948, 317, 161, 332, 224
-0.996979, 257, 57, 288, 120
-0.996983, 253, 65, 284, 320
-0.996984, 347, 105, 362, 168
-0.996988, 1, 113, 500, 176
-0.996991, 329, 25, 344, 88
-0.997037, 283, 249, 298, 312
-0.997042, 277, 225, 292, 288
-0.997051, 307, 121, 322, 184
-0.997055, 229, 113, 244, 176
-0.997071, 265, 225, 280, 288
-0.997081, 33, 105, 288, 168
-0.997101, 289, 257, 320, 320
-0.997103, 423, 201, 438, 264
-0.997107, 291, 97, 306, 160
-0.997114, 241, 61, 368, 92
-0.997117, 337, 49, 464, 112
-0.99713, 193, 205, 320, 236
-0.997132, 353, 245, 480, 276
-0.997134, 265, 1, 296, 64
-0.997176, 433, 249, 448, 312
-0.997179, 393, 241, 408, 304
-0.997179, 353, 233, 480, 264
-0.997182, 453, 209, 484, 272
-0.997182, 161, 149, 288, 180
-0.99719, 25, 273, 88, 332
-0.997204, 321, 97, 352, 160
-0.997206, 371, 129, 386, 160
-0.997244, 337, 41, 352, 104
-0.997244, 377, 185, 392, 248
-0.997301, 433, 169, 448, 232
-0.997302, 381, 249, 396, 312
-0.997312, 169, 1, 232, 332
-0.997321, 283, 89, 298, 152
-0.997322, 145, 185, 272, 248
-0.997341, 341, 193, 356, 256
-0.997387, 371, 105, 386, 168
-0.997396, 267, 81, 282, 144
-0.997415, 267, 193, 282, 256
-0.997435, 441, 113, 472, 240
-0.997441, 277, 1, 308, 64
-0.997443, 245, 105, 260, 168
-0.997468, 221, 121, 236, 184
-0.99747, 373, 161, 388, 224
-0.997482, 285, 65, 316, 320
-0.997491, 405, 225, 420, 288
-0.997514, 353, 1, 384, 256
-0.997517, 193, 217, 320, 248
-0.997535, 345, 169, 360, 232
-0.997548, 277, 89, 292, 152
-0.997554, 81, 293, 208, 324
-0.997561, 337, 121, 464, 152
-0.997566, 201, 65, 232, 192
-0.997567, 285, 185, 300, 248
-0.99757, 401, 65, 432, 320
-0.997579, 241, 37, 368, 68
-0.997588, 465, 193, 496, 320
-0.997588, 373, 65, 404, 320
-0.997613, 365, 265, 396, 328
-0.997614, 363, 105, 378, 168
-0.997624, 129, 209, 384, 272
-0.997632, 257, 101, 384, 132
-0.997643, 361, 133, 376, 164
-0.997643, 417, 133, 432, 164
-0.997647, 353, 257, 480, 288
-0.997652, 405, 105, 420, 168
-0.997653, 431, 141, 446, 172
-0.99766, 331, 153, 346, 216
-0.997663, 241, 65, 272, 320
-0.997664, 353, 193, 368, 256
-0.997688, 17, 25, 144, 88
-0.997693, 269, 225, 284, 256
-0.9977, 427, 257, 442, 320
-0.997704, 209, 73, 336, 104
-0.997716, 33, 73, 288, 136
-0.99772, 353, 1, 384, 64
-0.997722, 241, 225, 368, 256
-0.997722, 209, 217, 272, 280
-0.997758, 193, 245, 320, 276
-0.997763, 273, 213, 288, 244
-0.997772, 217, 273, 280, 332
-0.997773, 307, 97, 322, 160
-0.997778, 423, 113, 438, 176
-0.997787, 321, 113, 336, 176
-0.997797, 145, 125, 272, 156
-0.997798, 411, 185, 426, 248
-0.997801, 395, 105, 410, 168
-0.997801, 257, 1, 384, 32
-0.997802, 407, 205, 422, 236
-0.997807, 457, 153, 488, 216
-0.997809, 259, 81, 274, 144
-0.997809, 277, 245, 292, 276
-0.997831, 337, 65, 352, 128
-0.99784, 401, 129, 416, 160
-0.997842, 251, 129, 266, 192
-0.997843, 145, 81, 272, 112
-0.997847, 415, 105, 430, 168
-0.997849, 445, 201, 460, 264
-0.99785, 161, 1, 416, 64
-0.99786, 365, 185, 380, 248
-0.997861, 217, 81, 232, 144
-0.997873, 387, 241, 402, 272
-0.997876, 413, 213, 428, 244
-0.997882, 257, 161, 272, 224
-0.997884, 225, 33, 256, 288
-0.997889, 315, 113, 330, 176
-0.99789, 401, 169, 416, 232
-0.997892, 161, 25, 416, 88
-0.997897, 299, 137, 314, 200
-0.997898, 305, 1, 320, 64
-0.997899, 427, 177, 442, 240
-0.997899, 389, 161, 404, 224
-0.9979, 41, 209, 104, 332
-0.997903, 431, 121, 446, 184
-0.997911, 331, 177, 346, 208
-0.99792, 401, 197, 416, 228
-0.997928, 399, 241, 414, 304
-0.997928, 383, 273, 398, 332
-0.99793, 253, 81, 268, 144
-0.99793, 169, 209, 232, 332
-0.99793, 359, 193, 374, 256
-0.997934, 335, 201, 350, 264
-0.997936, 201, 169, 264, 232
-0.997941, 177, 181, 304, 212
-0.997948, 313, 73, 344, 136
-0.997953, 281, 229, 296, 260
-0.997954, 341, 1, 356, 64
-0.997954, 241, 49, 368, 80
-0.997955, 161, 161, 288, 192
-0.997966, 395, 129, 410, 160
-0.99797, 465, 185, 480, 248
-0.99798, 209, 1, 336, 32
-0.99798, 347, 41, 362, 104
-0.997983, 289, 257, 304, 320
-0.997985, 145, 241, 272, 304
-0.997995, 391, 265, 406, 328
-0.997996, 265, 169, 280, 232
-0.997998, 241, 249, 368, 280
-0.997998, 433, 273, 448, 332
-0.998011, 231, 57, 246, 120
-0.998031, 237, 177, 268, 240
-0.998042, 249, 57, 264, 120
-0.998043, 357, 169, 372, 200
-0.998043, 355, 133, 370, 164
-0.998045, 257, 137, 272, 200
-0.998046, 319, 185, 334, 248
-0.998049, 265, 249, 280, 312
-0.99806, 425, 137, 440, 168
-0.998083, 429, 209, 444, 240
-0.99809, 1, 209, 500, 272
-0.998091, 435, 221, 450, 252
-0.998094, 391, 189, 406, 220
-0.998099, 33, 153, 288, 216
-0.998103, 347, 17, 362, 80
-0.998107, 383, 189, 398, 220
-0.998108, 341, 145, 356, 208
-0.998109, 443, 225, 458, 288
-0.998113, 291, 217, 306, 248
-0.998115, 383, 125, 398, 156
-0.998126, 389, 129, 404, 160
-0.998127, 321, 57, 448, 88
-0.998132, 237, 125, 252, 156
-0.998136, 239, 97, 254, 128
-0.998139, 393, 233, 408, 264
-0.998159, 303, 209, 318, 240
-0.998159, 227, 77, 242, 108
-0.998162, 325, 173, 340, 204
-0.998165, 437, 149, 452, 180
-0.99817, 365, 145, 380, 176
-0.998192, 217, 57, 248, 120
-0.998193, 337, 33, 368, 288
-0.998193, 411, 133, 426, 164
-0.998194, 257, 81, 272, 112
-0.998201, 351, 121, 366, 152
-0.998212, 145, 93, 272, 124
-0.998223, 239, 81, 254, 112
-0.998238, 305, 69, 432, 100
-0.998239, 285, 257, 300, 288
-0.998242, 353, 277, 480, 308
-0.99825, 235, 109, 250, 140
-0.998253, 113, 113, 240, 144
-0.998254, 345, 137, 360, 168
-0.998261, 273, 89, 288, 120
-0.998276, 89, 293, 104, 324
-0.99828, 193, 233, 320, 264
-0.998283, 97, 185, 224, 248
-0.998287, 161, 193, 288, 224
-0.998296, 429, 265, 444, 296
-0.998298, 367, 165, 382, 196
-0.9983, 1, 249, 500, 312
-0.998301, 317, 209, 348, 332
-0.998304, 97, 105, 224, 168
-0.998305, 331, 189, 346, 220
-0.998313, 365, 165, 396, 180
-0.998313, 337, 33, 368, 48
-0.998314, 17, 281, 144, 312
-0.998314, 321, 51, 352, 66
-0.998314, 441, 231, 472, 246
-0.998315, 257, 187, 288, 202
-0.998315, 353, 155, 384, 170
-0.998316, 237, 129, 268, 144
-0.998316, 229, 77, 260, 92
-0.998317, 377, 241, 408, 256
-0.998317, 317, 39, 348, 54
-0.998318, 337, 41, 368, 56
-0.998318, 305, 127, 336, 142
-0.99832, 317, 179, 348, 194
-0.99832, 381, 211, 412, 226
-0.99832, 337, 117, 368, 132
-0.99832, 341, 129, 372, 144
-0.99832, 429, 197, 460, 212
-0.998321, 329, 167, 360, 182
-0.998321, 437, 139, 468, 154
-0.998321, 329, 73, 360, 88
-0.998322, 281, 99, 312, 114
-0.998323, 277, 263, 308, 278
-0.998323, 53, 305, 84, 320
-0.998324, 297, 135, 328, 150
-0.998325, 269, 97, 300, 112
-0.998325, 381, 197, 412, 212
-0.998326, 429, 181, 460, 196
-0.998326, 225, 123, 256, 138
-0.998327, 285, 115, 316, 130
-0.998328, 257, 237, 288, 252
-0.99833, 243, 117, 258, 148
-0.99833, 281, 269, 312, 284
-0.998331, 341, 191, 372, 206
-0.998332, 351, 185, 366, 216
-0.998334, 257, 247, 288, 262
-0.998334, 421, 279, 452, 294
-0.998335, 441, 225, 472, 240
-0.998335, 437, 215, 468, 230
-0.998335, 213, 141, 244, 156
-0.998336, 409, 197, 440, 212
-0.998338, 325, 201, 356, 216
-0.998339, 301, 119, 332, 134
-0.99834, 73, 289, 104, 304
-0.99834, 333, 141, 364, 156
-0.998341, 289, 221, 320, 236
-0.998341, 297, 21, 328, 36
-0.998343, 353, 123, 384, 138
-0.998345, 289, 129, 320, 144
-0.998346, 445, 183, 476, 198
-0.998346, 261, 197, 292, 212
-0.998347, 263, 85, 278, 116
-0.998348, 385, 49, 448, 176
-0.998348, 433, 207, 464, 222
-0.998348, 377, 129, 392, 160
-0.998349, 279, 265, 294, 296
-0.998349, 429, 267, 460, 282
-0.99835, 233, 147, 264, 162
-0.99835, 353, 149, 384, 164
-0.99835, 249, 81, 264, 112
-0.998351, 305, 157, 336, 172
-0.998351, 221, 103, 252, 118
-0.998351, 213, 135, 244, 150
-0.998351, 37, 307, 68, 322
-0.998352, 321, 185, 352, 200
-0.998352, 349, 175, 380, 190
-0.998353, 61, 289, 92, 304
-0.998353, 393, 225, 424, 240
-0.998353, 301, 141, 332, 156
-0.998354, 401, 213, 416, 244
-0.998356, 443, 161, 458, 192
-0.998358, 389, 203, 420, 218
-0.998359, 241, 91, 272, 106
-0.998359, 309, 185, 340, 200
-0.998359, 109, 293, 124, 324
-0.99836, 309, 1, 340, 256
-0.99836, 277, 277, 308, 292
-0.998361, 357, 121, 372, 152
-0.998363, 381, 253, 412, 268
-0.998364, 253, 137, 284, 152
-0.998365, 421, 139, 452, 154
-0.998368, 297, 213, 312, 244
-0.998368, 333, 173, 364, 188
-0.998369, 221, 117, 252, 132
-0.99837, 269, 135, 300, 150
-0.998371, 177, 49, 240, 112
-0.998378, 221, 95, 252, 110
-0.998379, 423, 273, 438, 304
-0.998379, 293, 215, 324, 230
-0.99838, 261, 91, 292, 106
-0.99838, 305, 163, 336, 178
-0.998381, 217, 81, 248, 96
-0.998383, 313, 189, 328, 220
-0.998384, 237, 135, 268, 150
-0.998387, 385, 247, 416, 262
-0.998387, 341, 69, 356, 100
-0.998389, 257, 237, 384, 268
-0.998391, 425, 233, 456, 248
-0.998392, 277, 209, 308, 224
-0.998393, 353, 169, 384, 184
-0.998393, 393, 231, 424, 246
-0.998394, 325, 67, 356, 82
-0.998395, 273, 257, 304, 272
-0.998395, 309, 197, 340, 212
-0.998395, 269, 245, 300, 260
-0.998396, 389, 241, 420, 256
-0.998397, 241, 25, 368, 56
-0.998397, 225, 135, 256, 150
-0.998397, 309, 173, 340, 188
-0.998398, 275, 233, 290, 264
-0.998401, 393, 211, 424, 226
-0.998402, 425, 227, 456, 242
-0.998402, 329, 193, 360, 208
-0.998404, 421, 145, 452, 160
-0.998407, 433, 173, 464, 188
-0.998408, 421, 273, 452, 288
-0.998408, 301, 209, 332, 224
-0.998408, 225, 129, 256, 144
-0.998408, 419, 217, 434, 248
-0.99841, 279, 93, 294, 124
-0.99841, 329, 179, 360, 194
-0.998412, 429, 161, 460, 176
-0.998414, 245, 137, 260, 168
-0.998414, 409, 203, 440, 218
-0.998415, 409, 225, 440, 240
-0.998415, 425, 155, 456, 170
-0.998415, 301, 147, 332, 162
-0.998416, 49, 185, 176, 248
-0.998416, 417, 215, 448, 230
-0.998417, 429, 167, 460, 182
-0.998419, 273, 251, 304, 266
-0.99842, 269, 221, 300, 236
-0.998423, 389, 131, 420, 146
-0.998425, 401, 217, 432, 232
-0.998425, 269, 239, 300, 254
-0.998427, 279, 205, 294, 236
-0.998429, 221, 109, 252, 124
-0.998437, 227, 129, 242, 160
-0.998443, 337, 185, 368, 200
-0.998443, 265, 229, 296, 244
-0.998446, 309, 191, 340, 206
-0.998448, 309, 203, 340, 218
-0.998449, 361, 133, 392, 148
-0.998451, 361, 131, 424, 146
-0.998454, 241, 83, 272, 98
-0.998455, 315, 157, 330, 188
-0.998455, 273, 193, 288, 224
-0.998455, 121, 293, 136, 324
-0.998458, 425, 65, 456, 320
-0.99846, 221, 89, 252, 104
-0.998461, 409, 137, 440, 152
-0.998469, 297, 65, 328, 320
-0.99847, 225, 141, 256, 156
-0.998471, 421, 221, 452, 236
-0.998476, 413, 209, 444, 224
-0.998476, 409, 231, 440, 246
-0.998477, 273, 215, 304, 230
-0.998477, 349, 135, 380, 150
-0.998477, 381, 191, 412, 206
-0.998478, 423, 205, 438, 236
-0.99848, 309, 141, 324, 172
-0.99848, 451, 173, 466, 204
-0.998484, 1, 153, 500, 216
-0.998486, 345, 105, 360, 136
-0.998487, 373, 129, 404, 144
-0.998492, 433, 173, 448, 204
-0.998498, 407, 229, 422, 260
-0.998501, 253, 85, 284, 100
-0.998506, 221, 77, 236, 108
-0.99851, 209, 281, 336, 312
-0.998512, 401, 225, 464, 240
-0.998515, 209, 135, 272, 150
-0.998517, 349, 143, 380, 158
-0.998522, 229, 83, 260, 98
-0.99853, 209, 83, 272, 98
-0.998532, 435, 233, 450, 264
-0.998533, 287, 97, 302, 128
-0.998537, 289, 233, 320, 296
-0.998537, 97, 293, 112, 324
-0.998538, 387, 221, 402, 252
-0.99854, 305, 245, 432, 276
-0.998541, 335, 57, 350, 88
-0.998543, 257, 219, 320, 234
-0.998543, 115, 289, 130, 320
-0.998547, 273, 199, 336, 214
-0.998548, 345, 169, 360, 200
-0.99855, 373, 113, 388, 240
-0.998552, 433, 129, 464, 192
-0.998555, 129, 33, 256, 96
-0.998556, 297, 193, 360, 208
-0.998556, 385, 213, 448, 228
-0.998557, 241, 25, 304, 88
-0.998557, 233, 87, 296, 102
-0.998557, 193, 261, 320, 292
-0.998559, 395, 209, 410, 240
-0.998559, 345, 191, 408, 206
-0.998561, 273, 205, 336, 220
-0.998561, 345, 125, 360, 156
-0.998562, 305, 179, 368, 194
-0.998563, 265, 213, 328, 228
-0.998566, 249, 137, 312, 152
-0.998569, 417, 185, 480, 200
-0.998571, 257, 225, 320, 240
-0.998571, 265, 131, 328, 146
-0.998573, 345, 209, 376, 332
-0.998573, 459, 185, 474, 216
-0.998574, 393, 233, 456, 248
-0.998574, 295, 5, 310, 36
-0.998575, 289, 85, 416, 116
-0.998576, 341, 193, 356, 224
-0.998578, 297, 199, 360, 214
-0.998578, 131, 293, 146, 324
-0.998579, 465, 189, 480, 220
-0.998579, 209, 143, 272, 158
-0.99858, 401, 207, 464, 222
-0.998581, 329, 147, 392, 162
-0.998581, 217, 129, 280, 144
-0.998583, 321, 141, 384, 156
-0.998586, 1, 185, 128, 248
-0.998586, 309, 201, 324, 232
-0.998589, 67, 293, 82, 324
-0.99859, 305, 187, 368, 202
-0.99859, 385, 135, 448, 150
-0.998591, 377, 225, 440, 240
-0.998591, 393, 219, 456, 234
-0.998591, 273, 13, 400, 44
-0.998592, 305, 173, 368, 188
-0.998592, 361, 203, 424, 218
-0.998592, 377, 241, 440, 256
-0.998593, 273, 193, 336, 208
-0.998595, 385, 201, 448, 216
-0.998598, 1, 49, 128, 112
-0.998598, 129, 273, 384, 332
-0.998598, 233, 93, 296, 108
-0.9986, 417, 191, 480, 206
-0.9986, 225, 101, 240, 132
-0.998603, 297, 205, 360, 220
-0.998603, 49, 305, 112, 320
-0.998604, 289, 215, 352, 230
-0.998607, 385, 189, 448, 204
-0.998608, 385, 253, 400, 284
-0.998608, 305, 133, 368, 148
-0.998614, 321, 159, 384, 174
-0.998614, 289, 145, 352, 160
-0.998616, 361, 197, 424, 212
-0.998618, 309, 41, 340, 104
-0.998622, 265, 205, 280, 236
-0.998623, 249, 147, 312, 162
-0.998623, 257, 231, 320, 246
-0.998623, 409, 213, 472, 228
-0.998623, 353, 17, 384, 144
-0.998625, 423, 229, 438, 260
-0.998625, 417, 197, 480, 212
-0.998626, 377, 247, 440, 262
-0.998626, 417, 141, 480, 156
-0.998626, 321, 195, 384, 210
-0.998626, 417, 179, 480, 194
-0.998627, 209, 97, 272, 112
-0.998627, 307, 129, 322, 160
-0.998628, 393, 151, 456, 166
-0.998629, 137, 307, 200, 322
-0.998632, 297, 151, 360, 166
-0.998633, 345, 169, 408, 184
-0.998634, 305, 127, 368, 142
-0.998638, 325, 193, 340, 224
-0.998638, 249, 207, 312, 222
-0.998639, 337, 185, 400, 200
-0.998639, 361, 145, 424, 160
-0.998639, 425, 207, 488, 222
-0.99864, 305, 167, 368, 182
-0.998641, 393, 145, 456, 160
-0.998642, 417, 231, 480, 246
-0.998642, 265, 187, 328, 202
-0.998645, 321, 153, 384, 168
-0.998647, 209, 91, 272, 106
-0.998647, 435, 265, 450, 296
-0.998647, 361, 211, 424, 226
-0.998648, 257, 153, 320, 168
-0.998648, 281, 223, 344, 238
-0.998649, 25, 309, 88, 324
-0.99865, 241, 213, 304, 228
-0.99865, 257, 237, 320, 252
-0.99865, 265, 241, 280, 272
-0.99865, 257, 241, 500, 304
-0.998651, 249, 1, 280, 64
-0.998652, 257, 17, 500, 80
-0.998652, 297, 63, 360, 78
-0.998653, 329, 123, 392, 138
-0.998653, 209, 149, 272, 164
-0.998657, 265, 97, 328, 112
-0.998657, 433, 225, 496, 240
-0.998658, 233, 221, 296, 236
-0.998658, 185, 135, 248, 150
-0.998658, 233, 229, 296, 244
-0.998658, 305, 117, 368, 132
-0.998659, 317, 121, 332, 152
-0.998661, 73, 307, 136, 322
-0.998661, 345, 137, 408, 152
-0.998662, 401, 157, 464, 172
-0.998662, 417, 173, 480, 188
-0.998662, 271, 245, 286, 276
-0.998663, 273, 119, 336, 134
-0.998663, 361, 163, 424, 178
-0.998664, 361, 231, 424, 246
-0.998664, 385, 195, 448, 210
-0.998666, 283, 241, 298, 272
-0.998666, 241, 125, 304, 140
-0.998667, 275, 277, 290, 308
-0.998667, 241, 131, 304, 146
-0.998668, 417, 219, 480, 234
-0.99867, 233, 197, 296, 212
-0.99867, 257, 245, 320, 260
-0.998671, 361, 217, 424, 232
-0.998671, 273, 159, 336, 174
-0.998671, 401, 165, 464, 180
-0.998673, 399, 225, 414, 256
-0.998673, 193, 127, 256, 142
-0.998675, 265, 83, 328, 98
-0.998675, 377, 253, 440, 268
-0.998676, 249, 261, 312, 276
-0.998677, 337, 201, 400, 216
-0.998677, 265, 255, 328, 270
-0.998678, 297, 69, 360, 84
-0.998678, 227, 141, 242, 172
-0.99868, 289, 139, 352, 154
-0.99868, 285, 273, 300, 304
-0.99868, 185, 141, 248, 156
-0.99868, 389, 265, 420, 328
-0.99868, 233, 235, 296, 250
-0.99868, 417, 147, 480, 162
-0.99868, 305, 1, 432, 32
-0.998684, 361, 153, 424, 168
-0.998685, 409, 277, 472, 292
-0.998685, 417, 133, 480, 148
-0.998686, 209, 77, 272, 92
-0.998686, 289, 23, 352, 38
-0.998687, 209, 113, 272, 128
-0.998687, 297, 17, 360, 32
-0.998688, 337, 175, 400, 190
-0.998688, 233, 77, 248, 108
-0.998688, 281, 125, 344, 140
-0.998688, 305, 111, 368, 126
-0.99869, 353, 241, 416, 256
-0.99869, 385, 183, 448, 198
-0.998691, 113, 309, 176, 324
-0.998691, 41, 299, 104, 314
-0.998692, 1, 185, 500, 248
-0.998692, 345, 223, 408, 238
-0.998694, 289, 37, 416, 68
-0.998694, 161, 307, 224, 322
-0.998694, 209, 119, 272, 134
-0.998694, 337, 131, 400, 146
-0.998695, 265, 181, 328, 196
-0.998695, 417, 237, 480, 252
-0.998695, 297, 161, 360, 176
-0.998695, 373, 153, 388, 184
-0.998704, 81, 33, 208, 96
-0.998707, 399, 241, 414, 272
-0.998707, 435, 277, 450, 308
-0.998717, 81, 233, 208, 296
-0.998722, 273, 265, 288, 296
-0.998724, 351, 173, 366, 204
-0.998724, 309, 113, 324, 144
-0.998726, 81, 209, 112, 332
-0.998727, 305, 225, 432, 256
-0.998729, 113, 137, 240, 200
-0.998731, 389, 117, 404, 148
-0.99874, 103, 289, 118, 320
-0.998742, 249, 93, 264, 124
-0.998742, 245, 105, 260, 136
-0.998744, 229, 117, 244, 148
-0.998746, 315, 145, 330, 176
-0.998746, 433, 253, 448, 284
-0.998751, 221, 89, 236, 120
-0.998752, 233, 89, 248, 120
-0.998753, 217, 117, 232, 148
-0.998757, 321, 1, 352, 256
-0.998762, 397, 185, 412, 216
-0.998768, 425, 125, 440, 156
-0.998772, 413, 121, 428, 152
-0.998776, 433, 193, 448, 224
-0.998779, 335, 37, 350, 68
-0.998779, 145, 265, 208, 328
-0.998781, 375, 197, 390, 228
-0.998781, 57, 293, 72, 324
-0.998783, 213, 65, 244, 320
-0.998796, 33, 1, 160, 64
-0.998811, 257, 273, 384, 304
-0.998814, 367, 129, 382, 256
-0.998842, 65, 1, 320, 64
-0.998858, 403, 113, 418, 240
-0.998861, 225, 65, 240, 192
-0.998861, 379, 113, 394, 240
-0.998879, 201, 57, 232, 120
-0.998901, 415, 129, 430, 256
-0.998926, 397, 113, 412, 240
-0.998931, 387, 113, 402, 240
-0.998936, 435, 129, 450, 256
-0.998939, 1, 273, 256, 332
-0.998957, 97, 281, 224, 312
-0.998963, 425, 129, 440, 256
-0.99897, 241, 261, 368, 292
-0.998972, 235, 65, 250, 192
-0.998976, 245, 65, 260, 192
-0.999009, 433, 193, 448, 320
-0.999015, 61, 209, 92, 332
-0.999044, 311, 129, 326, 256
-0.999066, 409, 129, 424, 256
-0.99907, 369, 1, 496, 32
-0.999085, 271, 177, 286, 304
-0.999094, 113, 209, 144, 332
-0.999116, 289, 25, 416, 56
-0.999119, 329, 241, 392, 304
-0.999124, 443, 145, 458, 272
-0.999128, 49, 129, 176, 192
-0.999128, 301, 145, 316, 272
-0.999129, 419, 209, 434, 332
-0.99914, 289, 289, 416, 320
-0.999141, 255, 65, 270, 192
-0.999145, 193, 17, 320, 48
-0.999152, 113, 137, 240, 168
-0.999153, 293, 209, 308, 332
-0.999154, 97, 9, 224, 72
-0.999161, 369, 1, 400, 64
-0.99917, 357, 161, 372, 288
-0.999174, 279, 209, 294, 332
-0.999174, 421, 105, 452, 168
-0.999183, 321, 105, 448, 136
-0.999193, 449, 161, 464, 288
-0.999205, 305, 257, 432, 288
-0.999207, 33, 49, 288, 112
-0.999212, 161, 293, 288, 324
-0.999212, 245, 113, 260, 240
-0.999225, 193, 273, 256, 332
-0.999226, 355, 113, 370, 240
-0.999233, 97, 249, 352, 312
-0.999235, 129, 69, 256, 100
-0.999236, 287, 209, 302, 332
-0.999252, 405, 193, 420, 320
-0.999267, 395, 177, 410, 304
-0.999267, 437, 65, 468, 320
-0.999275, 361, 113, 376, 240
-0.999283, 287, 81, 302, 208
-0.999283, 363, 177, 378, 304
-0.999289, 281, 81, 296, 208
-0.99929, 425, 193, 440, 320
-0.999291, 373, 161, 388, 288
-0.999293, 389, 177, 404, 304
-0.999296, 299, 209, 314, 332
-0.999297, 383, 177, 398, 304
-0.999303, 293, 81, 308, 208
-0.999304, 413, 209, 428, 332
-0.999305, 309, 177, 324, 304
-0.999305, 209, 293, 336, 324
-0.999312, 49, 161, 176, 224
-0.999312, 57, 273, 88, 332
-0.999317, 261, 65, 276, 192
-0.999324, 137, 169, 200, 232
-0.999326, 1, 209, 128, 272
-0.999326, 349, 113, 364, 240
-0.999335, 1, 89, 500, 152
-0.999336, 319, 1, 334, 128
-0.999356, 339, 49, 354, 176
-0.999358, 283, 129, 298, 256
-0.999364, 275, 81, 290, 208
-0.999365, 49, 105, 176, 168
-0.999365, 305, 49, 320, 176
-0.999369, 335, 161, 350, 288
-0.999375, 1, 129, 256, 192
-0.999376, 361, 1, 424, 128
-0.999378, 129, 1, 256, 32
-0.999385, 265, 209, 280, 332
-0.999388, 17, 209, 80, 332
-0.999391, 299, 97, 314, 224
-0.999405, 261, 161, 276, 288
-0.999407, 443, 193, 458, 320
-0.999408, 239, 113, 254, 240
-0.999412, 321, 145, 336, 272
-0.999413, 353, 289, 480, 320
-0.999418, 49, 65, 176, 128
-0.99942, 345, 65, 360, 192
-0.999432, 245, 217, 276, 280
-0.999439, 231, 113, 246, 240
-0.999444, 97, 209, 224, 272
-0.999452, 347, 1, 362, 128
-0.999454, 269, 81, 284, 208
-0.999455, 213, 145, 244, 208
-0.999462, 291, 129, 306, 256
-0.999476, 329, 161, 344, 288
-0.999478, 305, 97, 320, 224
-0.999481, 225, 129, 240, 256
-0.999481, 219, 81, 234, 208
-0.999486, 161, 277, 288, 308
-0.999486, 237, 1, 268, 64
-0.999489, 373, 65, 388, 192
-0.999489, 455, 161, 470, 288
-0.999492, 281, 33, 296, 160
-0.999494, 311, 81, 326, 208
-0.999502, 329, 1, 344, 128
-0.999502, 271, 33, 286, 160
-0.999509, 251, 129, 266, 256
-0.999513, 313, 1, 328, 128
-0.999515, 193, 29, 320, 60
-0.999517, 1, 57, 500, 120
-0.999517, 287, 1, 302, 128
-0.999518, 405, 239, 420, 254
-0.999519, 433, 263, 448, 278
-0.999519, 325, 171, 340, 186
-0.999519, 409, 231, 424, 246
-0.999519, 329, 199, 344, 214
-0.999519, 95, 307, 110, 322
-0.99952, 227, 115, 242, 130
-0.99952, 457, 185, 472, 200
-0.999521, 111, 297, 126, 312
-0.999522, 401, 227, 416, 242
-0.999522, 265, 137, 280, 152
-0.999523, 297, 1, 312, 16
-0.999523, 275, 283, 290, 298
-0.999523, 325, 97, 340, 224
-0.999523, 435, 235, 450, 250
-0.999524, 221, 135, 236, 150
-0.999524, 41, 307, 56, 322
-0.999524, 433, 181, 448, 196
-0.999525, 403, 213, 418, 228
-0.999525, 37, 289, 52, 304
-0.999525, 47, 307, 62, 322
-0.999526, 321, 191, 336, 206
-0.999527, 403, 207, 418, 222
-0.999527, 309, 121, 324, 136
-0.999528, 351, 161, 366, 288
-0.999528, 245, 147, 260, 162
-0.999528, 447, 171, 462, 186
-0.999529, 369, 165, 384, 180
-0.99953, 235, 117, 250, 132
-0.999531, 237, 137, 252, 152
-0.999531, 315, 119, 330, 134
-0.999531, 397, 193, 412, 208
-0.999531, 429, 275, 444, 290
-0.999532, 347, 111, 362, 126
-0.999533, 439, 159, 454, 174
-0.999533, 365, 149, 380, 164
-0.999534, 243, 125, 258, 140
-0.999534, 227, 127, 242, 142
-0.999534, 463, 189, 478, 204
-0.999535, 283, 227, 298, 242
-0.999535, 337, 57, 352, 72
-0.999536, 69, 305, 84, 320
-0.999536, 53, 307, 68, 322
-0.999537, 247, 91, 262, 106
-0.999537, 265, 17, 280, 144
-0.999537, 425, 207, 440, 222
-0.999538, 105, 307, 120, 322
-0.999539, 451, 177, 466, 192
-0.999539, 373, 209, 388, 332
-0.99954, 283, 271, 298, 286
-0.99954, 231, 87, 246, 102
-0.99954, 273, 217, 288, 232
-0.999542, 75, 307, 90, 322
-0.999542, 329, 183, 344, 198
-0.999543, 85, 305, 100, 320
-0.999543, 117, 307, 132, 322
-0.999543, 443, 165, 458, 180
-0.999543, 435, 223, 450, 238
-0.999544, 341, 201, 356, 216
-0.999545, 193, 57, 320, 88
-0.999545, 279, 93, 294, 108
-0.999545, 431, 215, 446, 230
-0.999545, 223, 109, 238, 124
-0.999546, 351, 143, 366, 158
-0.999546, 415, 215, 430, 230
-0.999548, 247, 137, 262, 152
-0.999548, 305, 269, 432, 300
-0.999549, 299, 1, 314, 128
-0.999551, 345, 179, 360, 194
-0.999551, 417, 227, 432, 242
-0.999552, 97, 291, 112, 306
-0.999554, 353, 131, 368, 146
-0.999554, 363, 169, 378, 184
-0.999554, 127, 289, 142, 304
-0.999554, 277, 211, 292, 226
-0.999554, 283, 243, 298, 258
-0.999556, 319, 49, 334, 176
-0.999556, 307, 209, 322, 224
-0.999556, 393, 131, 408, 146
-0.999558, 387, 251, 402, 266
-0.999559, 265, 87, 280, 102
-0.99956, 327, 33, 342, 48
-0.999561, 399, 65, 414, 192
-0.999561, 269, 235, 284, 250
-0.999562, 427, 81, 442, 208
-0.999563, 389, 65, 404, 192
-0.999564, 383, 191, 398, 206
-0.999565, 271, 89, 286, 104
-0.999565, 321, 13, 448, 44
-0.999566, 289, 223, 304, 238
-0.999566, 343, 113, 358, 240
-0.999567, 277, 161, 292, 288
-0.99957, 117, 291, 132, 306
-0.999571, 363, 143, 378, 158
-0.999571, 271, 223, 286, 238
-0.999572, 241, 105, 256, 120
-0.999573, 397, 233, 412, 248
-0.999574, 423, 275, 438, 290
-0.999574, 269, 229, 284, 244
-0.999575, 435, 153, 450, 168
-0.999576, 347, 117, 362, 132
-0.999578, 335, 181, 350, 196
-0.999578, 453, 209, 468, 332
-0.999579, 409, 81, 424, 208
-0.99958, 253, 83, 268, 98
-0.999581, 329, 177, 344, 192
-0.999582, 145, 209, 272, 272
-0.999583, 279, 277, 294, 292
-0.999584, 279, 255, 294, 270
-0.999585, 225, 87, 240, 102
-0.999587, 295, 217, 310, 232
-0.999587, 363, 65, 378, 192
-0.999588, 401, 201, 416, 216
-0.999589, 235, 81, 250, 96
-0.999589, 331, 191, 346, 206
-0.999591, 375, 129, 390, 144
-0.999591, 409, 211, 424, 226
-0.999591, 407, 133, 422, 148
-0.999593, 433, 269, 448, 284
-0.999593, 337, 67, 352, 82
-0.999594, 341, 73, 356, 88
-0.999594, 249, 17, 264, 144
-0.999594, 469, 193, 484, 320
-0.999596, 387, 129, 402, 144
-0.999597, 33, 1, 96, 332
-0.999597, 413, 135, 428, 150
-0.999597, 1, 45, 128, 76
-0.999598, 399, 131, 414, 146
-0.999599, 33, 41, 96, 104
-0.9996, 237, 111, 252, 126
-0.999601, 1, 49, 128, 176
-0.999602, 271, 241, 286, 256
-0.999602, 259, 85, 274, 100
-0.999602, 227, 135, 242, 150
-0.999605, 353, 173, 368, 188
-0.999606, 313, 201, 328, 216
-0.999606, 393, 239, 408, 254
-0.999606, 281, 25, 312, 88
-0.99961, 299, 49, 314, 176
-0.99961, 379, 65, 394, 192
-0.999611, 239, 131, 254, 146
-0.999614, 227, 141, 242, 156
-0.999616, 317, 97, 332, 224
-0.999619, 415, 221, 430, 236
-0.999621, 409, 217, 424, 232
-0.999622, 415, 81, 430, 208
-0.999622, 301, 213, 316, 228
-0.999623, 389, 245, 404, 260
-0.999624, 389, 191, 404, 206
-0.999625, 355, 33, 370, 160
-0.999626, 381, 129, 396, 144
-0.999627, 431, 147, 446, 162
-0.999633, 225, 81, 240, 96
-0.999634, 255, 177, 270, 304
-0.999635, 423, 137, 438, 152
-0.999635, 341, 1, 356, 128
-0.999637, 335, 113, 350, 240
-0.99964, 293, 17, 308, 144
-0.999644, 257, 17, 272, 144
-0.999646, 275, 247, 290, 262
-0.999647, 335, 1, 350, 128
-0.999652, 243, 83, 258, 98
-0.999659, 345, 141, 360, 156
-0.99966, 269, 129, 284, 256
-0.99967, 463, 193, 478, 320
-0.999675, 261, 113, 276, 240
-0.999675, 421, 81, 436, 208
-0.999678, 429, 141, 444, 156
-0.99968, 235, 17, 250, 144
-0.999688, 17, 269, 144, 300
-0.999693, 367, 133, 382, 148
-0.9997, 341, 193, 356, 320
-0.999702, 439, 81, 454, 208
-0.999715, 325, 49, 340, 176
-0.999725, 315, 177, 330, 304
-0.999728, 357, 137, 372, 152
-0.999729, 333, 209, 348, 332
-0.99973, 93, 209, 124, 332
-0.999732, 241, 17, 256, 144
-0.999733, 477, 193, 492, 320
-0.999734, 161, 41, 288, 72
-0.999744, 347, 209, 362, 332
-0.99975, 355, 209, 370, 332
-0.999755, 333, 65, 348, 192
-0.999765, 305, 1, 320, 128
-0.999765, 219, 129, 234, 256
-0.999772, 449, 113, 464, 240
-0.999775, 1, 273, 64, 332
-0.999776, 1, 1, 128, 32
-0.999779, 121, 209, 136, 332
-0.99978, 65, 25, 320, 88
-0.99978, 127, 209, 142, 332
-0.999788, 361, 233, 392, 296
-0.999794, 463, 129, 478, 256
-0.999803, 101, 209, 116, 332
-0.999813, 373, 97, 404, 160
-0.999814, 483, 193, 498, 320
-0.999815, 433, 81, 448, 208
-0.999817, 87, 209, 102, 332
-0.999819, 215, 33, 230, 160
-0.999828, 229, 17, 244, 144
-0.999837, 71, 209, 86, 332
-0.999838, 205, 17, 236, 144
-0.999841, 107, 209, 122, 332
-0.999844, 77, 209, 92, 332
-0.999845, 337, 37, 464, 68
-0.999856, 17, 57, 144, 88
-0.999864, 297, 241, 360, 304
-0.999871, 337, 89, 464, 120
-0.999883, 337, 25, 464, 56
-0.9999, 81, 265, 112, 328
-0.999944, 1, 13, 128, 44
-0.999965, 313, 209, 344, 272
-0.999967, 145, 13, 272, 44
-0.99997, 81, 49, 208, 80
-0.99997, 369, 13, 496, 44
-0.999984, 257, 41, 500, 104
-0.999986, 1, 73, 128, 136
-0.999986, 1, 105, 128, 168
-1.00001, 305, 301, 432, 332
-1.00001, 145, 241, 272, 272
-1.00002, 1, 193, 128, 224
-1.00004, 17, 73, 144, 104
-1.00006, 25, 249, 88, 312
-1.00006, 145, 213, 272, 244
-1.00006, 369, 301, 496, 332
-1.00007, 97, 201, 224, 232
-1.00008, 97, 161, 224, 224
-1.00008, 49, 209, 176, 272
-1.00008, 49, 129, 176, 160
-1.00011, 113, 149, 240, 180
-1.00012, 453, 65, 484, 320
-1.00013, 65, 105, 192, 136
-1.00013, 65, 65, 192, 96
-1.00014, 89, 1, 152, 332
-1.00015, 369, 109, 496, 140
-1.00015, 1, 33, 500, 96
-1.00015, 81, 1, 208, 32
-1.00017, 353, 25, 416, 88
-1.00019, 97, 13, 224, 44
-1.00019, 65, 185, 192, 216
-1.0002, 129, 177, 256, 208
-1.00021, 1, 249, 128, 280
-1.00022, 145, 25, 272, 56
-1.00024, 81, 257, 208, 288
-1.00025, 145, 1, 208, 332
-1.00025, 65, 145, 192, 176
-1.00026, 257, 301, 384, 332
-1.00027, 97, 125, 224, 156
-1.00027, 113, 169, 176, 232
-1.00028, 97, 33, 224, 64
-1.00029, 1, 249, 256, 312
-1.00029, 97, 269, 224, 300
-1.00029, 49, 197, 176, 228
-1.0003, 1, 33, 128, 64
-1.0003, 369, 25, 496, 88
-1.00032, 33, 89, 160, 120
-1.00033, 201, 1, 232, 256
-1.00033, 49, 37, 176, 68
-1.00034, 81, 233, 208, 264
-1.00039, 1, 1, 64, 128
-1.00041, 153, 113, 216, 176
-1.00044, 9, 1, 72, 332
-1.0005, 201, 113, 232, 240
-1.00055, 97, 57, 224, 120
-1.00059, 1, 161, 128, 224
-1.00064, 1, 273, 500, 332
-1.00064, 49, 233, 112, 296
-1.00066, 145, 1, 208, 64
-1.00068, 49, 1, 176, 128
-1.0007, 133, 209, 164, 332
-1.00075, 157, 1, 188, 256
-1.00075, 173, 209, 204, 332
-1.00076, 1, 209, 256, 272
-1.00078, 97, 81, 224, 144
-1.00079, 65, 65, 96, 320
-1.0008, 465, 65, 496, 320
-1.00082, 1, 185, 256, 248
-1.00082, 401, 89, 464, 152
-1.00082, 185, 1, 248, 64
-1.00085, 161, 209, 192, 332
-1.00096, 133, 1, 164, 256
-1.00096, 1, 73, 64, 136
-1.00097, 33, 1, 64, 256
-1.00099, 1, 129, 128, 192
-1.001, 145, 1, 176, 256
-1.00101, 81, 65, 112, 320
-1.00105, 137, 145, 200, 208
-1.00106, 121, 1, 184, 332
-1.00111, 53, 65, 84, 320
-1.00112, 217, 1, 248, 128
-1.00117, 181, 65, 212, 320
-1.00117, 137, 25, 200, 88
-1.00119, 93, 65, 124, 320
-1.00122, 1, 1, 32, 256
-1.00123, 17, 1, 48, 256
-1.00125, 169, 1, 200, 256
-1.00126, 1, 1, 500, 64
-1.00128, 121, 1, 152, 256
-1.00134, 109, 1, 140, 256
-1.00138, 161, 185, 224, 248
-1.0014, 1, 33, 64, 96
-1.00144, 57, 17, 120, 80
-1.00149, 161, 153, 224, 216
-1.00156, 121, 1, 184, 64
-1.00158, 193, 249, 256, 312
-1.00158, 41, 65, 104, 128
-1.00163, 113, 193, 176, 256
-1.00165, 17, 9, 80, 72
-1.00173, 37, 209, 68, 332
-1.00177, 113, 25, 176, 88
-1.00177, 17, 185, 80, 248
-1.00199, 169, 249, 232, 312
-1.00207, 465, 145, 496, 272
-1.0021, 57, 1, 120, 332
-1.00216, 213, 209, 244, 332
-1.00228, 21, 1, 52, 128
-1.00228, 113, 113, 176, 176
-1.0023, 89, 25, 152, 88
-1.00232, 73, 185, 136, 248
-1.00234, 365, 17, 396, 144
-1.00238, 193, 209, 256, 332
-1.00241, 137, 57, 200, 120
-1.00242, 209, 33, 272, 96
-1.00246, 137, 193, 200, 256
-1.00248, 161, 25, 224, 88
-1.0025, 437, 1, 468, 128
-1.00262, 225, 209, 256, 332
-1.00276, 185, 193, 248, 256
-1.00277, 49, 113, 176, 240
-1.00278, 113, 145, 176, 208
-1.00278, 113, 49, 176, 112
-1.00281, 189, 209, 220, 332
-1.00283, 161, 209, 224, 272
-1.00287, 1, 241, 64, 304
-1.00293, 81, 161, 208, 288
-1.00294, 425, 1, 488, 64
-1.00306, 225, 161, 256, 288
-1.00306, 65, 49, 192, 176
-1.00308, 49, 209, 80, 332
-1.00315, 161, 1, 224, 256
-1.00315, 9, 209, 72, 272
-1.00318, 25, 1, 88, 256
-1.00318, 113, 249, 176, 312
-1.00322, 49, 1, 80, 128
-1.00322, 137, 89, 200, 152
-1.00325, 193, 17, 224, 144
-1.00325, 145, 113, 176, 240
-1.00337, 137, 1, 200, 128
-1.00338, 145, 49, 208, 176
-1.0034, 137, 1, 200, 256
-1.00345, 49, 209, 112, 272
-1.00352, 145, 209, 176, 332
-1.0036, 121, 113, 184, 240
-1.0037, 41, 1, 104, 128
-1.00372, 201, 209, 232, 332
-1.00373, 37, 33, 68, 160
-1.00383, 17, 209, 48, 332
-1.00393, 113, 17, 176, 144
-1.00395, 1, 1, 32, 128
-1.00397, 169, 49, 200, 176
-1.00406, 69, 17, 100, 144
-1.00412, 65, 17, 128, 144
-1.00413, 25, 49, 56, 176
-1.00421, 425, 1, 456, 128
-1.00428, 145, 97, 208, 224
-1.00431, 469, 97, 500, 224
-1.00448, 165, 1, 196, 128
-1.00449, 81, 17, 112, 144
-1.00449, 153, 49, 184, 176
-1.0045, 405, 33, 436, 160
-1.0045, 153, 161, 184, 288
-1.00451, 105, 1, 168, 256
-1.00451, 177, 1, 208, 128
-1.00452, 205, 161, 236, 288
-1.0046, 5, 209, 36, 332
-1.00464, 89, 65, 120, 192
-1.00475, 457, 1, 488, 128
-1.00481, 9, 49, 72, 176
-1.00489, 157, 113, 188, 240
-1.00489, 9, 81, 40, 208
-1.00493, 417, 49, 480, 176
-1.00506, 117, 33, 148, 160
-1.00508, 141, 161, 172, 288
-1.00518, 73, 65, 104, 192
-1.00522, 57, 65, 120, 320
-1.00523, 101, 65, 132, 192
-1.00524, 145, 1, 176, 128
-1.00528, 1, 161, 128, 288
-1.0053, 1, 1, 64, 256
-1.00532, 169, 161, 200, 288
-1.00535, 57, 49, 88, 176
-1.00535, 125, 113, 156, 240
-1.00535, 185, 113, 216, 240
-1.00536, 417, 1, 480, 128
-1.00538, 377, 17, 408, 144
-1.00539, 181, 49, 212, 176
-1.00539, 89, 17, 152, 144
-1.00543, 93, 17, 124, 144
-1.00562, 129, 33, 160, 160
-1.00584, 457, 81, 488, 208
-1.00584, 33, 49, 96, 176
-1.00585, 173, 113, 204, 240
-1.0059, 121, 161, 184, 288
-1.00591, 441, 65, 472, 192
-1.00597, 125, 161, 156, 288
-1.00598, 73, 65, 136, 192
-1.00602, 469, 1, 500, 128
-1.00624, 97, 65, 160, 192
-1.00632, 161, 161, 224, 288
-1.00639, 1, 113, 128, 240
-1.00659, 81, 1, 144, 256
-1.00711, 65, 113, 128, 240
-1.00783, 97, 113, 160, 240
-1.00827, 57, 161, 120, 288
-1.00885, 97, 161, 160, 288
-1.00899, 121, 65, 184, 192
-1.00935, 33, 97, 96, 224
-1.00954, 33, 145, 96, 272
-1.01039, 9, 97, 72, 224
-1.0111, 393, 1, 456, 128
-1.01129, 1, 161, 64, 288
