1966
-0.43301, 65, 1, 320, 376
-0.462199, 1, 1, 500, 256
-0.487079, 1, 97, 500, 352
-0.545871, 33, 65, 288, 320
-0.606592, 129, 97, 384, 352
-0.6231, 1, 1, 500, 376
-0.686476, 161, 1, 416, 376
-0.753913, 129, 1, 384, 256
-0.762375, 257, 1, 500, 376
-0.79585, 225, 97, 480, 352
-0.830903, 225, 1, 480, 256
-0.843799, 225, 97, 352, 352
-0.872652, 49, 129, 176, 376
-0.875325, 177, 129, 304, 376
-0.875885, 113, 1, 240, 376
-0.881827, 97, 1, 224, 256
-0.886896, 1, 129, 128, 376
-0.890969, 33, 1, 160, 376
-0.892842, 161, 1, 288, 256
-0.895153, 113, 97, 240, 352
-0.895572, 289, 129, 416, 376
-0.89895, 289, 1, 416, 376
-0.901552, 1, 257, 500, 376
-0.902353, 241, 1, 368, 376
-0.903309, 49, 1, 176, 256
-0.906635, 193, 1, 320, 376
-0.907084, 1, 65, 500, 192
-0.907189, 1, 209, 500, 336
-0.913795, 225, 1, 352, 256
-0.920513, 337, 97, 464, 352
-0.92121, 1, 33, 128, 288
-0.924001, 353, 1, 480, 376
-0.924315, 305, 1, 432, 256
-0.925134, 1, 161, 500, 288
-0.927166, 33, 81, 288, 208
-0.928492, 1, 17, 500, 144
-0.928659, 129, 129, 384, 256
-0.92952, 369, 1, 496, 256
-0.930648, 33, 1, 288, 128
-0.931512, 1, 177, 256, 304
-0.935076, 65, 257, 320, 376
-0.936774, 161, 225, 416, 352
-0.937783, 17, 161, 144, 288
-0.93834, 57, 145, 120, 272
-0.940427, 177, 257, 304, 376
-0.941812, 129, 33, 384, 160
-0.942183, 1, 129, 256, 256
-0.942883, 177, 65, 304, 192
-0.945677, 129, 81, 384, 208
-0.94574, 257, 225, 384, 352
-0.950172, 249, 65, 312, 192
-0.951252, 289, 241, 352, 368
-0.951282, 161, 1, 224, 128
-0.951943, 321, 241, 448, 368
-0.952204, 33, 145, 96, 272
-0.952848, 1, 113, 500, 240
-0.95441, 209, 145, 336, 272
-0.954592, 129, 177, 384, 304
-0.954616, 25, 193, 88, 320
-0.955137, 81, 225, 208, 352
-0.955173, 289, 177, 416, 304
-0.95595, 1, 1, 64, 128
-0.956669, 1, 241, 128, 368
-0.956897, 265, 113, 328, 240
-0.957957, 225, 81, 352, 208
-0.958388, 289, 233, 352, 296
-0.958499, 97, 113, 224, 240
-0.958513, 49, 113, 176, 240
-0.958703, 193, 49, 256, 176
-0.958868, 281, 193, 344, 320
-0.958947, 1, 209, 64, 336
-0.959621, 57, 153, 120, 216
-0.960048, 41, 241, 104, 368
-0.960207, 209, 257, 272, 376
-0.960359, 97, 1, 224, 128
-0.960366, 49, 97, 112, 224
-0.960537, 257, 241, 500, 368
-0.960844, 225, 81, 480, 208
-0.961215, 185, 177, 248, 304
-0.961516, 65, 177, 192, 304
-0.961638, 209, 193, 336, 320
-0.961642, 129, 65, 256, 192
-0.96229, 225, 161, 480, 288
-0.962645, 249, 257, 312, 376
-0.962765, 25, 153, 88, 216
-0.963012, 289, 209, 352, 272
-0.963544, 17, 233, 80, 296
-0.963573, 129, 225, 256, 352
-0.963678, 65, 193, 128, 320
-0.964495, 145, 17, 272, 144
-0.965316, 369, 257, 432, 376
-0.965932, 49, 265, 112, 328
-0.96603, 225, 129, 288, 256
-0.966538, 161, 241, 224, 368
-0.966904, 97, 209, 160, 336
-0.966939, 345, 257, 408, 376
-0.967032, 217, 257, 280, 320
-0.967061, 209, 17, 336, 144
-0.967394, 65, 49, 192, 176
-0.967436, 241, 89, 304, 152
-0.967775, 73, 81, 136, 208
-0.967807, 41, 121, 104, 184
-0.967871, 225, 17, 480, 144
-0.968107, 369, 241, 496, 368
-0.968117, 281, 297, 344, 360
-0.968438, 65, 177, 128, 240
-0.968902, 225, 137, 288, 200
-0.969202, 225, 81, 288, 208
-0.96962, 113, 177, 240, 304
-0.96975, 105, 1, 168, 128
-0.969785, 97, 145, 160, 272
-0.9699, 289, 257, 352, 320
-0.970117, 273, 65, 336, 192
-0.970307, 249, 241, 312, 304
-0.970342, 25, 257, 88, 320
-0.970686, 305, 193, 368, 320
-0.971061, 137, 225, 200, 352
-0.971081, 185, 233, 248, 296
-0.971208, 9, 257, 72, 376
-0.971243, 273, 17, 336, 144
-0.971365, 185, 257, 248, 376
-0.971384, 185, 177, 248, 240
-0.971449, 297, 65, 360, 192
-0.971456, 257, 273, 320, 336
-0.97181, 393, 257, 456, 376
-0.971956, 33, 177, 96, 240
-0.971964, 289, 113, 416, 240
-0.97233, 185, 1, 248, 64
-0.97238, 113, 1, 176, 64
-0.972479, 1, 273, 64, 336
-0.972584, 201, 41, 264, 104
-0.972594, 241, 305, 304, 368
-0.972612, 273, 89, 336, 152
-0.972781, 17, 209, 80, 272
-0.972843, 1, 113, 128, 240
-0.972955, 321, 185, 384, 248
-0.972983, 49, 129, 112, 376
-0.973273, 321, 289, 384, 352
-0.973512, 177, 273, 240, 336
-0.973527, 257, 113, 320, 176
-0.973529, 169, 49, 232, 176
-0.973858, 41, 289, 104, 352
-0.973883, 153, 209, 216, 272
-0.974047, 337, 193, 400, 320
-0.974111, 161, 41, 224, 104
-0.97412, 17, 169, 144, 232
-0.974253, 257, 33, 384, 160
-0.9744, 185, 1, 248, 128
-0.974405, 313, 217, 376, 280
-0.974562, 317, 217, 348, 280
-0.97473, 369, 265, 432, 328
-0.974773, 377, 233, 440, 296
-0.974927, 97, 161, 160, 224
-0.975029, 161, 1, 224, 64
-0.975032, 17, 65, 144, 192
-0.975079, 73, 257, 136, 320
-0.975209, 129, 1, 192, 128
-0.975212, 41, 217, 104, 280
-0.975273, 89, 137, 152, 200
-0.975606, 145, 65, 208, 192
-0.975662, 369, 193, 432, 320
-0.97579, 201, 305, 264, 368
-0.9758, 297, 129, 360, 376
-0.975856, 209, 249, 336, 312
-0.975926, 49, 145, 80, 272
-0.976025, 1, 33, 64, 96
-0.976028, 81, 17, 144, 144
-0.976292, 241, 209, 304, 336
-0.976371, 313, 241, 376, 368
-0.976489, 409, 249, 472, 312
-0.976675, 209, 161, 272, 224
-0.97669, 161, 177, 288, 304
-0.976898, 297, 17, 360, 144
-0.976989, 325, 193, 356, 256
-0.977086, 185, 65, 248, 128
-0.977193, 121, 313, 184, 376
-0.97726, 89, 257, 152, 376
-0.977273, 113, 49, 176, 176
-0.977317, 1, 1, 128, 128
-0.977452, 241, 65, 304, 128
-0.977469, 49, 1, 176, 128
-0.97748, 177, 105, 304, 168
-0.977517, 305, 233, 432, 296
-0.977577, 297, 225, 328, 288
-0.977633, 189, 17, 220, 144
-0.977714, 257, 97, 320, 352
-0.977744, 81, 1, 144, 256
-0.977753, 81, 305, 144, 368
-0.977773, 289, 185, 352, 248
-0.977854, 137, 17, 200, 80
-0.978004, 369, 1, 496, 128
-0.978013, 9, 305, 72, 368
-0.978185, 81, 153, 112, 216
-0.978274, 113, 233, 240, 296
-0.978318, 145, 305, 208, 368
-0.978462, 425, 25, 488, 88
-0.978557, 105, 25, 168, 88
-0.97857, 185, 129, 248, 376
-0.978673, 113, 257, 176, 376
-0.978743, 33, 49, 96, 176
-0.978789, 249, 137, 312, 200
-0.978839, 345, 265, 408, 328
-0.97885, 177, 273, 304, 336
-0.978921, 25, 97, 88, 224
-0.978943, 201, 281, 264, 344
-0.979049, 97, 185, 160, 248
-0.979114, 49, 193, 176, 256
-0.979212, 337, 177, 464, 304
-0.979231, 113, 225, 176, 288
-0.979306, 257, 281, 384, 344
-0.979314, 49, 153, 80, 216
-0.979353, 105, 1, 168, 256
-0.979401, 425, 17, 488, 144
-0.97946, 129, 57, 192, 120
-0.979566, 161, 129, 288, 256
-0.979673, 209, 145, 336, 208
-0.979723, 393, 313, 456, 376
-0.979874, 65, 81, 128, 144
-0.979912, 257, 233, 384, 296
-0.979927, 185, 201, 216, 264
-0.979967, 161, 241, 224, 304
-0.979977, 297, 81, 360, 144
-0.980005, 417, 241, 480, 368
-0.980263, 65, 113, 128, 176
-0.980322, 249, 17, 312, 144
-0.980363, 33, 57, 96, 120
-0.980367, 121, 177, 184, 304
-0.9804, 305, 161, 336, 288
-0.980693, 313, 113, 376, 240
-0.980699, 241, 313, 272, 376
-0.980762, 97, 57, 224, 120
-0.980767, 153, 273, 216, 336
-0.980945, 249, 161, 312, 288
-0.980956, 297, 209, 328, 336
-0.980982, 33, 257, 160, 320
-0.980984, 177, 49, 304, 112
-0.981099, 105, 57, 168, 120
-0.981142, 213, 169, 244, 232
-0.981203, 1, 233, 128, 296
-0.981361, 41, 241, 72, 304
-0.98138, 297, 249, 328, 312
-0.981423, 417, 313, 480, 376
-0.981545, 145, 313, 176, 376
-0.981585, 145, 33, 208, 288
-0.981593, 225, 201, 352, 264
-0.981607, 65, 313, 192, 376
-0.981651, 1, 1, 32, 128
-0.98167, 289, 161, 352, 224
-0.981717, 129, 113, 192, 240
-0.981806, 369, 297, 432, 360
-0.981832, 29, 209, 60, 336
-0.981846, 313, 257, 376, 320
-0.981846, 1, 161, 64, 288
-0.98185, 97, 97, 160, 224
-0.981876, 129, 1, 256, 64
-0.981879, 289, 257, 416, 320
-0.981975, 225, 81, 352, 144
-0.982025, 97, 185, 224, 248
-0.982026, 65, 97, 96, 224
-0.982046, 49, 241, 112, 304
-0.982058, 313, 177, 344, 240
-0.982061, 201, 185, 232, 248
-0.982161, 289, 113, 352, 240
-0.982162, 65, 57, 128, 120
-0.982241, 49, 225, 80, 352
-0.982253, 177, 73, 304, 136
-0.98227, 5, 241, 36, 304
-0.982317, 209, 1, 272, 128
-0.982341, 345, 297, 408, 360
-0.982348, 17, 145, 144, 208
-0.982378, 225, 257, 256, 376
-0.982382, 193, 97, 256, 224
-0.982552, 57, 249, 88, 312
-0.982559, 73, 97, 136, 352
-0.982672, 209, 1, 240, 64
-0.982698, 197, 33, 228, 96
-0.982716, 49, 81, 176, 144
-0.982734, 145, 97, 208, 160
-0.982743, 61, 137, 92, 200
-0.982774, 285, 241, 316, 368
-0.982804, 65, 241, 128, 368
-0.982822, 369, 313, 496, 376
-0.982851, 121, 1, 152, 64
-0.982873, 209, 65, 272, 128
-0.982878, 305, 209, 432, 272
-0.982916, 185, 209, 248, 272
-0.982963, 233, 97, 296, 352
-0.982988, 285, 265, 316, 328
-0.983035, 33, 169, 64, 232
-0.983119, 177, 1, 304, 64
-0.983128, 25, 33, 88, 288
-0.983151, 305, 201, 336, 264
-0.983204, 317, 177, 348, 304
-0.983217, 1, 289, 128, 352
-0.98323, 97, 161, 224, 224
-0.983243, 225, 1, 288, 256
-0.983249, 353, 241, 480, 304
-0.983322, 169, 225, 200, 352
-0.98336, 177, 201, 304, 264
-0.983394, 265, 257, 296, 376
-0.983406, 329, 1, 392, 128
-0.98346, 225, 233, 288, 296
-0.983491, 193, 169, 320, 232
-0.983532, 321, 289, 448, 352
-0.983537, 161, 161, 224, 224
-0.983584, 209, 225, 336, 288
-0.983591, 225, 313, 352, 376
-0.983592, 161, 249, 288, 312
-0.983665, 137, 249, 200, 312
-0.983721, 257, 1, 320, 256
-0.983756, 185, 1, 216, 64
-0.983758, 25, 265, 56, 328
-0.983776, 181, 193, 212, 320
-0.983784, 457, 25, 488, 88
-0.983819, 401, 1, 464, 128
-0.983957, 305, 33, 432, 160
-0.983981, 253, 65, 284, 192
-0.983988, 145, 297, 272, 360
-0.983991, 209, 1, 272, 64
-0.98402, 161, 113, 224, 240
-0.984059, 65, 201, 128, 264
-0.984092, 217, 209, 280, 336
-0.984129, 417, 233, 448, 296
-0.984134, 33, 217, 64, 280
-0.984148, 241, 105, 368, 168
-0.984169, 1, 193, 128, 256
-0.984228, 97, 33, 224, 96
-0.984242, 273, 65, 336, 128
-0.98429, 225, 305, 256, 368
-0.984349, 177, 273, 208, 336
-0.984381, 1, 9, 64, 72
-0.984386, 45, 217, 76, 280
-0.984405, 289, 313, 416, 376
-0.984437, 121, 281, 184, 344
-0.984462, 321, 241, 352, 368
-0.984495, 129, 193, 192, 256
-0.984507, 233, 281, 296, 344
-0.98453, 185, 137, 248, 200
-0.984531, 285, 73, 316, 136
-0.984576, 73, 233, 136, 296
-0.984662, 97, 209, 224, 272
-0.984684, 225, 249, 256, 312
-0.984741, 113, 1, 144, 128
-0.984781, 85, 161, 116, 288
-0.984798, 113, 137, 240, 200
-0.984842, 25, 129, 88, 376
-0.984898, 97, 105, 224, 168
-0.984944, 81, 17, 144, 80
-0.98498, 65, 193, 96, 320
-0.984994, 393, 281, 456, 344
-0.985012, 209, 113, 272, 176
-0.985073, 249, 209, 312, 272
-0.9851, 97, 1, 160, 376
-0.985172, 201, 17, 232, 144
-0.985227, 309, 225, 340, 352
-0.98529, 253, 137, 284, 200
-0.985309, 409, 217, 472, 280
-0.985328, 97, 273, 224, 336
-0.985337, 169, 33, 232, 288
-0.985457, 193, 233, 224, 296
-0.985481, 173, 209, 204, 272
-0.985488, 181, 241, 212, 368
-0.985547, 1, 137, 64, 200
-0.985713, 265, 81, 296, 208
-0.985724, 289, 169, 416, 232
-0.985763, 177, 313, 240, 376
-0.985773, 1, 185, 64, 248
-0.985781, 161, 193, 224, 320
-0.9858, 41, 1, 104, 128
-0.985893, 113, 25, 144, 88
-0.985898, 209, 161, 240, 288
-0.985914, 209, 41, 240, 104
-0.985921, 1, 113, 64, 240
-0.985992, 413, 225, 444, 352
-0.986057, 49, 217, 176, 280
-0.986087, 337, 225, 400, 288
-0.986099, 157, 297, 188, 360
-0.986105, 49, 113, 176, 176
-0.98611, 329, 217, 360, 280
-0.986146, 337, 81, 464, 208
-0.986166, 73, 257, 104, 320
-0.986178, 89, 81, 152, 144
-0.986187, 269, 129, 300, 192
-0.986191, 93, 305, 124, 368
-0.986292, 293, 289, 324, 352
-0.9863, 197, 65, 228, 192
-0.986332, 49, 25, 176, 88
-0.986332, 289, 97, 320, 224
-0.986472, 281, 113, 344, 176
-0.98652, 285, 33, 316, 160
-0.986524, 37, 145, 68, 272
-0.98653, 233, 41, 296, 104
-0.986531, 197, 177, 228, 304
-0.986551, 313, 161, 376, 224
-0.986597, 337, 265, 464, 328
-0.986614, 409, 193, 472, 320
-0.986647, 89, 209, 152, 272
-0.986649, 261, 273, 292, 336
-0.986672, 45, 265, 76, 328
-0.986685, 61, 241, 92, 368
-0.986717, 197, 1, 228, 64
-0.986726, 49, 1, 112, 256
-0.986759, 389, 233, 420, 296
-0.986773, 317, 241, 348, 304
-0.98679, 273, 137, 336, 200
-0.986821, 337, 289, 368, 352
-0.986823, 5, 273, 36, 336
-0.986828, 101, 193, 132, 320
-0.986929, 125, 33, 156, 160
-0.987024, 285, 113, 316, 176
-0.987027, 337, 145, 400, 272
-0.987095, 277, 97, 308, 224
-0.987096, 253, 113, 284, 176
-0.987149, 257, 1, 320, 376
-0.987211, 25, 97, 88, 160
-0.987336, 97, 97, 160, 352
-0.987339, 281, 1, 344, 256
-0.98734, 245, 241, 276, 368
-0.987443, 169, 17, 200, 144
-0.987486, 209, 265, 240, 328
-0.987513, 265, 105, 296, 168
-0.987576, 101, 1, 132, 128
-0.98764, 461, 17, 492, 144
-0.987644, 257, 129, 384, 192
-0.987697, 309, 273, 340, 336
-0.987718, 225, 49, 256, 112
-0.98774, 1, 129, 64, 376
-0.987761, 321, 313, 384, 376
-0.987772, 253, 305, 284, 368
-0.987786, 213, 313, 244, 376
-0.987788, 241, 177, 368, 240
-0.987796, 337, 209, 368, 336
-0.987818, 429, 241, 460, 304
-0.987877, 77, 97, 108, 224
-0.987884, 21, 201, 52, 264
-0.987938, 89, 57, 120, 120
-0.987943, 73, 1, 136, 376
-0.987996, 17, 49, 144, 112
-0.988018, 5, 241, 36, 368
-0.98804, 121, 177, 152, 304
-0.988089, 257, 161, 320, 224
-0.988122, 69, 145, 100, 272
-0.98814, 321, 129, 384, 376
-0.988155, 277, 241, 308, 304
-0.988259, 173, 25, 204, 88
-0.988326, 225, 41, 352, 104
-0.988346, 265, 297, 296, 360
-0.988352, 289, 145, 320, 272
-0.988404, 65, 137, 192, 200
-0.988425, 193, 89, 256, 152
-0.988447, 97, 257, 160, 320
-0.988516, 73, 257, 104, 376
-0.988578, 121, 105, 184, 168
-0.98863, 85, 257, 116, 376
-0.988639, 161, 73, 224, 136
-0.988645, 425, 241, 456, 368
-0.988651, 161, 129, 224, 376
-0.988662, 449, 17, 480, 144
-0.988662, 305, 33, 368, 288
-0.988664, 161, 225, 288, 288
-0.98868, 109, 1, 140, 64
-0.988688, 433, 1, 496, 256
-0.988704, 105, 305, 136, 368
-0.988773, 305, 81, 336, 144
-0.988779, 69, 113, 100, 176
-0.988818, 193, 1, 256, 376
-0.988823, 209, 97, 272, 352
-0.988829, 25, 289, 56, 352
-0.988857, 137, 1, 200, 376
-0.988872, 49, 121, 80, 184
-0.988877, 37, 137, 68, 200
-0.988877, 33, 257, 64, 376
-0.988892, 345, 201, 408, 264
-0.988915, 177, 233, 208, 296
-0.988929, 149, 241, 180, 368
-0.988938, 17, 1, 48, 128
-0.989025, 333, 257, 364, 376
-0.98906, 129, 153, 192, 216
-0.989084, 177, 25, 304, 88
-0.98909, 401, 273, 432, 336
-0.989156, 69, 169, 100, 232
-0.989247, 373, 257, 404, 376
-0.989257, 157, 273, 188, 336
-0.989262, 253, 129, 284, 256
-0.989489, 265, 41, 328, 104
-0.989508, 1, 1, 64, 376
-0.989516, 45, 177, 76, 240
-0.98954, 241, 257, 272, 320
-0.989555, 213, 17, 244, 144
-0.989561, 333, 265, 364, 328
-0.98957, 233, 81, 264, 208
-0.989575, 121, 185, 152, 248
-0.98958, 397, 257, 428, 376
-0.989597, 313, 137, 376, 200
-0.989599, 17, 241, 80, 272
-0.989656, 149, 49, 180, 176
-0.989703, 297, 1, 360, 376
-0.989732, 21, 233, 52, 296
-0.989755, 257, 73, 288, 136
-0.989767, 401, 249, 432, 312
-0.989782, 89, 113, 152, 176
-0.989813, 197, 145, 228, 208
-0.989817, 301, 113, 332, 240
-0.989825, 305, 153, 336, 216
-0.989828, 49, 1, 112, 376
-0.989851, 129, 129, 192, 376
-0.989856, 41, 257, 104, 288
-0.989872, 265, 185, 328, 248
-0.989879, 145, 17, 176, 80
-0.989897, 161, 129, 288, 192
-0.989927, 225, 17, 352, 80
-0.98998, 297, 257, 328, 376
-0.989996, 101, 57, 132, 120
-0.990039, 161, 185, 224, 248
-0.990051, 313, 297, 344, 360
-0.990052, 433, 49, 496, 112
-0.990101, 241, 129, 272, 192
-0.99012, 289, 41, 352, 104
-0.99012, 49, 153, 112, 184
-0.990142, 65, 173, 128, 204
-0.990192, 5, 33, 36, 96
-0.990202, 133, 9, 164, 72
-0.990224, 129, 81, 256, 144
-0.990235, 41, 289, 104, 320
-0.990238, 289, 9, 352, 72
-0.990242, 417, 313, 448, 376
-0.990244, 169, 297, 200, 360
-0.990252, 413, 257, 444, 320
-0.990286, 185, 57, 216, 120
-0.990344, 293, 193, 324, 256
-0.990419, 25, 189, 88, 220
-0.990424, 33, 1, 160, 64
-0.990428, 249, 133, 312, 164
-0.990443, 241, 105, 304, 136
-0.990444, 225, 145, 288, 176
-0.990464, 213, 241, 244, 368
-0.990466, 61, 225, 92, 288
-0.99047, 201, 1, 264, 256
-0.990491, 25, 161, 56, 288
-0.990501, 161, 41, 192, 104
-0.990502, 229, 281, 260, 344
-0.990507, 217, 257, 280, 288
-0.990536, 377, 209, 440, 272
-0.990542, 81, 289, 112, 352
-0.990543, 289, 233, 352, 264
-0.990553, 233, 17, 296, 80
-0.990582, 17, 313, 144, 376
-0.990613, 297, 281, 360, 312
-0.990623, 161, 1, 224, 376
-0.990629, 189, 177, 220, 240
-0.99063, 297, 221, 360, 252
-0.990646, 57, 49, 88, 176
-0.99072, 145, 169, 272, 232
-0.990723, 49, 97, 80, 224
-0.990737, 257, 281, 320, 312
-0.990748, 257, 249, 320, 280
-0.99076, 17, 209, 48, 336
-0.990763, 369, 25, 496, 88
-0.990786, 1, 277, 64, 308
-0.990797, 209, 169, 272, 200
-0.990806, 225, 333, 288, 364
-0.990822, 241, 317, 304, 348
-0.990828, 233, 77, 296, 108
-0.990832, 205, 233, 236, 296
-0.990833, 89, 265, 120, 328
-0.99084, 113, 5, 176, 36
-0.990864, 185, 113, 248, 176
-0.99087, 25, 173, 88, 204
-0.990873, 153, 341, 216, 372
-0.990884, 129, 329, 192, 360
-0.99089, 33, 269, 96, 300
-0.990904, 49, 141, 112, 172
-0.990916, 301, 65, 332, 192
-0.990965, 289, 73, 416, 136
-0.990969, 137, 33, 168, 160
-0.990975, 297, 209, 360, 240
-0.99098, 381, 265, 412, 328
-0.990992, 289, 249, 352, 280
-0.990995, 273, 89, 336, 120
-0.99103, 1, 25, 128, 88
-0.991031, 133, 97, 164, 224
-0.991042, 97, 185, 160, 216
-0.991044, 1, 1, 64, 256
-0.991051, 89, 149, 152, 180
-0.991072, 145, 221, 208, 252
-0.991075, 185, 49, 248, 80
-0.991075, 73, 257, 136, 288
-0.991077, 257, 269, 320, 300
-0.991081, 1, 253, 64, 284
-0.991105, 201, 333, 264, 364
-0.991106, 277, 209, 308, 272
-0.991108, 273, 297, 336, 328
-0.991121, 1, 37, 64, 68
-0.991142, 17, 229, 80, 260
-0.991156, 433, 25, 496, 56
-0.991188, 185, 281, 248, 312
-0.991195, 65, 185, 128, 216
-0.991212, 25, 33, 56, 96
-0.991215, 169, 233, 232, 264
-0.991227, 217, 321, 280, 352
-0.991233, 1, 169, 256, 232
-0.991246, 321, 293, 384, 324
-0.991255, 325, 289, 356, 352
-0.991257, 289, 261, 352, 292
-0.991257, 217, 269, 280, 300
-0.991257, 13, 9, 44, 72
-0.991263, 241, 117, 304, 148
-0.991273, 129, 21, 192, 52
-0.991278, 113, 317, 176, 348
-0.99129, 209, 345, 272, 376
-0.991291, 377, 249, 440, 280
-0.991296, 25, 157, 88, 188
-0.991308, 185, 157, 248, 188
-0.991328, 265, 33, 296, 160
-0.991345, 97, 65, 128, 192
-0.991377, 201, 65, 264, 96
-0.991385, 185, 173, 248, 204
-0.991393, 369, 237, 432, 268
-0.991403, 265, 129, 296, 256
-0.991406, 361, 269, 424, 300
-0.991416, 73, 161, 136, 192
-0.991428, 233, 1, 296, 376
-0.991439, 1, 161, 64, 224
-0.991448, 161, 13, 224, 44
-0.991458, 193, 241, 224, 368
-0.991461, 77, 81, 108, 144
-0.991467, 277, 193, 308, 320
-0.991473, 241, 93, 304, 124
-0.991475, 9, 265, 72, 296
-0.991477, 225, 161, 256, 224
-0.991483, 137, 45, 200, 76
-0.991494, 89, 177, 120, 240
-0.991532, 377, 1, 440, 376
-0.991535, 21, 257, 52, 376
-0.991542, 385, 225, 416, 352
-0.991542, 337, 1, 464, 64
-0.991545, 25, 33, 88, 96
-0.991556, 393, 261, 456, 292
-0.99156, 1, 217, 32, 280
-0.991576, 41, 225, 104, 256
-0.991585, 185, 345, 248, 376
-0.991605, 401, 229, 464, 260
-0.991616, 153, 249, 184, 312
-0.991619, 189, 129, 220, 256
-0.991623, 17, 213, 80, 244
-0.991632, 161, 49, 224, 80
-0.991644, 177, 333, 240, 364
-0.991654, 345, 129, 408, 376
-0.991676, 349, 289, 380, 352
-0.991695, 105, 49, 168, 80
-0.991718, 161, 281, 224, 312
-0.991744, 161, 181, 224, 212
-0.991745, 161, 293, 224, 324
-0.991758, 1, 121, 128, 184
-0.991781, 297, 185, 360, 216
-0.991793, 205, 65, 236, 128
-0.991794, 73, 245, 136, 276
-0.991843, 89, 173, 152, 204
-0.991847, 145, 233, 208, 264
-0.99186, 1, 49, 64, 80
-0.991863, 81, 301, 144, 332
-0.991863, 197, 209, 228, 272
-0.991865, 145, 41, 176, 104
-0.991866, 173, 1, 204, 64
-0.99187, 433, 225, 496, 288
-0.991872, 377, 97, 440, 352
-0.991888, 57, 129, 120, 160
-0.991894, 41, 245, 104, 276
-0.991898, 65, 269, 128, 300
-0.991898, 161, 321, 224, 352
-0.9919, 17, 289, 80, 320
-0.991901, 129, 57, 192, 88
-0.991901, 25, 129, 88, 160
-0.991903, 169, 213, 232, 244
-0.991908, 273, 105, 336, 136
-0.991911, 65, 197, 128, 228
-0.991914, 73, 81, 136, 112
-0.991918, 81, 333, 144, 364
-0.991918, 425, 325, 488, 356
-0.99192, 97, 145, 352, 208
-0.99192, 45, 49, 76, 176
-0.991923, 281, 197, 344, 228
-0.991923, 321, 201, 384, 232
-0.991935, 297, 293, 360, 324
-0.991937, 185, 261, 248, 292
-0.991947, 225, 157, 288, 188
-0.991963, 97, 29, 160, 60
-0.991964, 249, 329, 312, 360
-0.991971, 1, 201, 64, 232
-0.991971, 25, 201, 88, 232
-0.991973, 121, 33, 184, 64
-0.991973, 185, 193, 248, 224
-0.991978, 137, 197, 200, 228
-0.991985, 9, 329, 72, 360
-0.991985, 249, 301, 312, 332
-0.991991, 161, 29, 224, 60
-0.991998, 129, 301, 192, 332
-0.991999, 417, 273, 480, 336
-0.992005, 433, 341, 496, 372
-0.992007, 433, 65, 496, 192
-0.992013, 217, 133, 280, 164
-0.992028, 77, 57, 108, 120
-0.992031, 249, 145, 312, 176
-0.992037, 105, 341, 168, 372
-0.992046, 249, 237, 312, 268
-0.992047, 129, 281, 192, 312
-0.99206, 145, 105, 208, 136
-0.992064, 273, 77, 336, 108
-0.992067, 225, 293, 288, 324
-0.992074, 301, 105, 332, 168
-0.992083, 401, 321, 464, 352
-0.992089, 9, 49, 72, 176
-0.992091, 97, 161, 160, 192
-0.99212, 81, 17, 144, 48
-0.992124, 345, 265, 376, 328
-0.992132, 345, 281, 408, 312
-0.99214, 13, 297, 44, 360
-0.992147, 221, 145, 252, 272
-0.992148, 49, 345, 112, 376
-0.992155, 65, 193, 96, 256
-0.992158, 273, 165, 336, 196
-0.99216, 425, 229, 488, 260
-0.992175, 281, 321, 344, 352
-0.99218, 329, 169, 360, 232
-0.992185, 273, 337, 336, 368
-0.992185, 417, 245, 480, 276
-0.992187, 273, 217, 336, 248
-0.99231, 237, 57, 268, 120
-0.992314, 65, 233, 320, 296
-0.992314, 33, 105, 288, 168
-0.992337, 193, 281, 224, 344
-0.99236, 381, 313, 412, 376
-0.992371, 353, 217, 480, 280
-0.992386, 113, 129, 144, 256
-0.992418, 153, 1, 184, 128
-0.992426, 369, 257, 400, 320
-0.992432, 433, 1, 496, 376
-0.992465, 113, 49, 144, 176
-0.992478, 37, 97, 68, 224
-0.992478, 101, 201, 132, 264
-0.992479, 289, 105, 416, 168
-0.992532, 213, 173, 244, 204
-0.992532, 1, 81, 128, 144
-0.992544, 469, 25, 500, 88
-0.992558, 297, 257, 328, 288
-0.992561, 253, 137, 284, 168
-0.992561, 241, 129, 272, 256
-0.992569, 309, 185, 340, 216
-0.992578, 225, 297, 480, 360
-0.992586, 245, 321, 276, 352
-0.992601, 81, 157, 112, 188
-0.992621, 69, 253, 100, 284
-0.992621, 305, 217, 336, 248
-0.992641, 205, 185, 236, 216
-0.992642, 409, 1, 472, 376
-0.992652, 193, 233, 224, 264
-0.992674, 321, 217, 352, 248
-0.992678, 225, 329, 256, 360
-0.992692, 165, 341, 196, 372
-0.992705, 185, 217, 216, 248
-0.99271, 193, 193, 224, 224
-0.992725, 329, 201, 360, 232
-0.992733, 117, 9, 148, 40
-0.992738, 5, 241, 36, 272
-0.992739, 37, 289, 68, 352
-0.992755, 57, 265, 88, 296
-0.99276, 177, 277, 208, 308
-0.99276, 425, 245, 456, 276
-0.992761, 225, 257, 480, 320
-0.992772, 141, 49, 172, 80
-0.992775, 89, 113, 120, 240
-0.992778, 53, 129, 84, 160
-0.992783, 217, 345, 248, 376
-0.9928, 153, 45, 184, 76
-0.992803, 369, 289, 496, 352
-0.992816, 229, 317, 260, 348
-0.992817, 37, 269, 68, 300
-0.992823, 33, 49, 288, 112
-0.992828, 293, 245, 324, 276
-0.992852, 225, 161, 256, 192
-0.992852, 197, 49, 228, 80
-0.992853, 237, 337, 268, 368
-0.992855, 57, 249, 88, 280
-0.992869, 413, 233, 444, 264
-0.992889, 341, 289, 372, 320
-0.992896, 457, 25, 488, 56
-0.992897, 329, 161, 360, 288
-0.992899, 281, 285, 312, 316
-0.992899, 185, 205, 216, 236
-0.992907, 121, 29, 152, 60
-0.992907, 173, 221, 204, 252
-0.992918, 185, 13, 216, 44
-0.99292, 225, 253, 256, 284
-0.992925, 57, 153, 88, 184
-0.992946, 41, 241, 72, 272
-0.992948, 149, 333, 180, 364
-0.992951, 249, 149, 280, 180
-0.992955, 45, 221, 76, 252
-0.992963, 137, 225, 168, 352
-0.992963, 25, 1, 88, 376
-0.99298, 293, 193, 324, 224
-0.992984, 45, 141, 76, 172
-0.992987, 25, 237, 56, 268
-0.992989, 69, 141, 100, 172
-0.99299, 269, 297, 300, 328
-0.992994, 429, 229, 460, 260
-0.992997, 5, 277, 36, 308
-0.992998, 29, 285, 60, 316
-0.992999, 133, 25, 164, 56
-0.993008, 153, 33, 184, 64
-0.993013, 321, 185, 352, 216
-0.993017, 305, 137, 432, 200
-0.993027, 301, 229, 332, 260
-0.99303, 317, 245, 348, 276
-0.993036, 409, 257, 440, 288
-0.99304, 137, 317, 168, 348
-0.99304, 213, 161, 244, 192
-0.993042, 309, 201, 340, 232
-0.993047, 281, 93, 312, 124
-0.99305, 309, 173, 340, 204
-0.993058, 193, 181, 224, 212
-0.993061, 101, 305, 132, 336
-0.993063, 153, 21, 184, 52
-0.993071, 89, 261, 120, 292
-0.993074, 13, 37, 44, 68
-0.993076, 17, 261, 48, 292
-0.993077, 321, 1, 384, 376
-0.99308, 105, 73, 136, 104
-0.993082, 165, 277, 196, 308
-0.993084, 265, 281, 296, 312
-0.993085, 49, 281, 80, 312
-0.993085, 277, 237, 308, 268
-0.993089, 81, 33, 112, 160
-0.993089, 409, 1, 472, 256
-0.99309, 289, 41, 416, 104
-0.993096, 65, 285, 96, 316
-0.993096, 85, 293, 116, 324
-0.993112, 69, 269, 100, 300
-0.993113, 33, 177, 64, 208
-0.993115, 289, 297, 320, 328
-0.993116, 41, 161, 72, 192
-0.993123, 253, 309, 284, 340
-0.993125, 289, 229, 320, 260
-0.99313, 297, 269, 328, 300
-0.993131, 153, 345, 184, 376
-0.993131, 173, 41, 204, 72
-0.993131, 173, 289, 204, 320
-0.993131, 253, 125, 284, 156
-0.993134, 29, 209, 60, 240
-0.993134, 177, 233, 208, 264
-0.993138, 53, 165, 84, 196
-0.993138, 309, 261, 340, 292
-0.993142, 17, 281, 48, 312
-0.993142, 213, 333, 244, 364
-0.993145, 1, 53, 32, 84
-0.993146, 249, 333, 280, 364
-0.99315, 129, 13, 160, 44
-0.993151, 285, 81, 316, 112
-0.993151, 81, 249, 112, 280
-0.993152, 173, 329, 204, 360
-0.993156, 25, 297, 56, 328
-0.993158, 125, 53, 156, 84
-0.993158, 141, 37, 172, 68
-0.993162, 213, 273, 244, 304
-0.993165, 1, 257, 32, 288
-0.993165, 121, 313, 152, 344
-0.993166, 269, 309, 300, 340
-0.993169, 21, 317, 52, 348
-0.993176, 285, 117, 316, 148
-0.993177, 285, 273, 316, 304
-0.993179, 217, 61, 248, 92
-0.993179, 13, 53, 44, 84
-0.993182, 157, 301, 188, 332
-0.993183, 113, 257, 144, 376
-0.99319, 29, 57, 60, 88
-0.993191, 261, 325, 292, 356
-0.993193, 161, 321, 192, 352
-0.993194, 333, 225, 364, 256
-0.993195, 173, 205, 204, 236
-0.993196, 217, 49, 248, 80
-0.993199, 117, 41, 148, 72
-0.993207, 313, 329, 344, 360
-0.99321, 49, 209, 80, 240
-0.99321, 105, 321, 136, 352
-0.99321, 1, 37, 32, 68
-0.993213, 197, 333, 228, 364
-0.993214, 313, 301, 344, 332
-0.993214, 189, 29, 220, 60
-0.993216, 33, 225, 64, 256
-0.993216, 457, 333, 488, 364
-0.993243, 1, 209, 256, 272
-0.993358, 305, 17, 336, 144
-0.993371, 317, 113, 348, 240
-0.993418, 273, 17, 400, 80
-0.993565, 129, 193, 384, 256
-0.993594, 65, 257, 320, 320
-0.993821, 225, 233, 480, 296
-0.993845, 129, 49, 384, 112
-0.993871, 1, 265, 500, 328
-0.99389, 353, 1, 416, 376
-0.993936, 177, 65, 208, 192
-0.99399, 1, 129, 256, 192
-0.994044, 433, 193, 496, 320
-0.994107, 337, 105, 464, 168
-0.994119, 97, 241, 128, 368
-0.994134, 1, 65, 500, 128
-0.994136, 233, 209, 264, 336
-0.994175, 29, 1, 60, 128
-0.994239, 333, 1, 364, 128
-0.994301, 209, 65, 240, 192
-0.994314, 331, 201, 346, 264
-0.994339, 209, 253, 336, 284
-0.994378, 345, 257, 376, 376
-0.994398, 161, 169, 416, 232
-0.994412, 233, 17, 264, 144
-0.994459, 1, 241, 500, 304
-0.994475, 337, 81, 400, 208
-0.994493, 65, 281, 320, 344
-0.994525, 33, 81, 288, 144
-0.994533, 369, 1, 432, 256
-0.994574, 17, 193, 144, 224
-0.994597, 81, 1, 208, 64
-0.994618, 369, 145, 432, 272
-0.994642, 69, 49, 100, 176
-0.994674, 49, 137, 64, 200
-0.994694, 249, 313, 264, 376
-0.994741, 195, 201, 210, 264
-0.99476, 425, 193, 456, 320
-0.99486, 325, 209, 340, 272
-0.99491, 437, 17, 468, 144
-0.994966, 337, 73, 464, 136
-0.994976, 299, 233, 314, 296
-0.994982, 97, 1, 352, 64
-0.994994, 17, 173, 144, 204
-0.995017, 209, 265, 336, 296
-0.995044, 397, 209, 428, 336
-0.995049, 1, 305, 500, 368
-0.995086, 7, 233, 22, 296
-0.995126, 345, 33, 408, 288
-0.995152, 453, 65, 484, 192
-0.995154, 129, 49, 256, 80
-0.995164, 289, 253, 416, 284
-0.995178, 189, 201, 204, 264
-0.995206, 129, 313, 384, 376
-0.995332, 33, 261, 160, 292
-0.995336, 81, 333, 208, 364
-0.995343, 257, 293, 384, 324
-0.995355, 361, 17, 424, 144
-0.995384, 193, 105, 448, 168
-0.995407, 201, 193, 216, 256
-0.995414, 277, 145, 308, 272
-0.995439, 201, 1, 216, 64
-0.995442, 425, 97, 488, 352
-0.995535, 49, 281, 176, 344
-0.995559, 119, 1, 134, 64
-0.995597, 195, 233, 210, 296
-0.995605, 209, 177, 224, 240
-0.995617, 265, 209, 296, 336
-0.99562, 33, 161, 160, 192
-0.995644, 37, 169, 52, 232
-0.995657, 33, 25, 288, 88
-0.995671, 97, 225, 224, 256
-0.995688, 337, 237, 464, 268
-0.995692, 145, 97, 176, 224
-0.995699, 337, 193, 352, 256
-0.9957, 209, 277, 336, 308
-0.995702, 337, 161, 464, 224
-0.995704, 217, 169, 232, 232
-0.995755, 255, 305, 270, 368
-0.995779, 421, 249, 436, 312
-0.995783, 193, 325, 320, 356
-0.995813, 289, 233, 416, 264
-0.995818, 39, 265, 54, 328
-0.995838, 1, 9, 500, 72
-0.995848, 353, 177, 384, 304
-0.995863, 129, 81, 384, 144
-0.99587, 151, 313, 166, 376
-0.99587, 429, 233, 444, 296
-0.995876, 341, 145, 372, 272
-0.995899, 319, 217, 334, 280
-0.995918, 157, 193, 188, 320
-0.995934, 329, 177, 344, 240
-0.995943, 257, 265, 384, 296
-0.995977, 43, 145, 58, 208
-0.99598, 1, 241, 128, 272
-0.995995, 33, 201, 48, 264
-0.996004, 43, 177, 58, 240
-0.996006, 97, 197, 224, 228
-0.996012, 257, 281, 384, 312
-0.996029, 93, 145, 108, 208
-0.996035, 177, 129, 304, 160
-0.996038, 1, 217, 500, 280
-0.996064, 225, 193, 352, 224
-0.996067, 279, 281, 294, 344
-0.996071, 353, 249, 480, 280
-0.996078, 419, 225, 434, 288
-0.996081, 85, 209, 116, 336
-0.996087, 193, 129, 448, 192
-0.996112, 97, 185, 224, 216
-0.996115, 209, 81, 336, 112
-0.996121, 305, 181, 432, 212
-0.996145, 209, 173, 336, 204
-0.996165, 321, 305, 336, 368
-0.99617, 305, 185, 320, 248
-0.996176, 1, 241, 16, 304
-0.996181, 161, 209, 288, 240
-0.996189, 41, 209, 56, 272
-0.996192, 201, 113, 232, 240
-0.996197, 81, 313, 208, 344
-0.996207, 33, 273, 48, 336
-0.996216, 193, 17, 448, 80
-0.99622, 123, 25, 138, 88
-0.99622, 241, 241, 368, 272
-0.996222, 211, 1, 226, 64
-0.99624, 65, 233, 80, 296
-0.996241, 17, 233, 32, 296
-0.996242, 145, 93, 272, 124
-0.996244, 145, 325, 272, 356
-0.996248, 59, 121, 74, 184
-0.996248, 311, 209, 326, 272
-0.996255, 257, 305, 384, 336
-0.996258, 409, 177, 440, 304
-0.996261, 337, 185, 464, 248
-0.996264, 177, 109, 304, 140
-0.996272, 305, 129, 336, 376
-0.996273, 357, 241, 388, 368
-0.996284, 225, 161, 240, 224
-0.996287, 337, 129, 464, 256
-0.996292, 177, 145, 304, 176
-0.9963, 209, 41, 224, 104
-0.996302, 161, 269, 288, 300
-0.996305, 319, 185, 334, 248
-0.996314, 33, 149, 160, 180
-0.996325, 411, 265, 426, 328
-0.996334, 369, 341, 496, 372
-0.996342, 339, 217, 354, 280
-0.996355, 67, 257, 82, 320
-0.996355, 101, 169, 116, 232
-0.996356, 183, 201, 198, 264
-0.996358, 113, 169, 240, 200
-0.996367, 71, 177, 86, 240
-0.996369, 1, 325, 128, 356
-0.996377, 273, 221, 400, 252
-0.996377, 305, 257, 320, 320
-0.996382, 225, 109, 352, 140
-0.996389, 129, 237, 256, 268
-0.996397, 17, 229, 144, 260
-0.996401, 305, 205, 432, 236
-0.996404, 225, 217, 352, 248
-0.996414, 1, 297, 128, 328
-0.996415, 229, 249, 244, 312
-0.996416, 195, 177, 210, 240
-0.996426, 125, 1, 140, 64
-0.996434, 1, 41, 500, 104
-0.996436, 33, 137, 160, 168
-0.996445, 65, 173, 192, 204
-0.996449, 97, 213, 224, 244
-0.996469, 435, 233, 450, 296
-0.996476, 325, 233, 340, 296
-0.996498, 81, 161, 96, 224
-0.996499, 49, 241, 64, 304
-0.996505, 161, 257, 288, 288
-0.996514, 101, 313, 116, 376
-0.996522, 129, 17, 256, 48
-0.996529, 343, 193, 358, 256
-0.996537, 279, 105, 294, 168
-0.99656, 113, 1, 144, 256
-0.996561, 159, 313, 174, 376
-0.996561, 261, 145, 276, 208
-0.996563, 107, 305, 122, 368
-0.996576, 415, 289, 430, 352
-0.996576, 101, 145, 132, 272
-0.996579, 373, 193, 404, 320
-0.996595, 145, 281, 272, 312
-0.996598, 55, 241, 70, 304
-0.996607, 369, 321, 496, 352
-0.996612, 69, 145, 84, 208
-0.996622, 189, 273, 204, 336
-0.996633, 311, 241, 326, 304
-0.996636, 269, 129, 284, 192
-0.996648, 39, 289, 54, 352
-0.996659, 97, 61, 224, 92
-0.996666, 315, 265, 330, 328
-0.99667, 75, 249, 90, 312
-0.996671, 221, 41, 236, 104
-0.996671, 97, 1, 224, 32
-0.996673, 329, 297, 344, 360
-0.996688, 97, 37, 224, 68
-0.996691, 47, 217, 62, 280
-0.9967, 65, 77, 192, 108
-0.996704, 17, 209, 144, 240
-0.99671, 225, 345, 352, 376
-0.996713, 61, 257, 76, 320
-0.996729, 1, 285, 128, 316
-0.996749, 209, 293, 336, 324
-0.996751, 315, 153, 330, 216
-0.996754, 65, 345, 192, 376
-0.996769, 311, 185, 326, 248
-0.996782, 335, 289, 350, 352
-0.996787, 473, 25, 488, 88
-0.996791, 177, 49, 304, 80
-0.996817, 331, 225, 346, 288
-0.996819, 225, 129, 352, 160
-0.996821, 113, 249, 240, 280
-0.996822, 209, 229, 336, 260
-0.996824, 43, 241, 58, 304
-0.996825, 225, 73, 480, 136
-0.996831, 177, 113, 208, 240
-0.996835, 225, 149, 352, 180
-0.996837, 113, 57, 128, 120
-0.99684, 437, 241, 468, 368
-0.996856, 241, 313, 256, 376
-0.996868, 369, 137, 496, 200
-0.996872, 305, 105, 320, 168
-0.996877, 233, 49, 248, 112
-0.99688, 63, 153, 78, 216
-0.996885, 69, 129, 100, 376
-0.996886, 91, 265, 106, 328
-0.99689, 145, 341, 272, 372
-0.996899, 317, 65, 348, 192
-0.996907, 25, 97, 56, 224
-0.996916, 223, 265, 238, 328
-0.996921, 235, 249, 250, 312
-0.996929, 241, 205, 368, 236
-0.996945, 27, 273, 42, 336
-0.996954, 81, 277, 208, 308
-0.996955, 321, 269, 448, 300
-0.996971, 225, 97, 352, 128
-0.996974, 93, 289, 108, 352
-0.99699, 17, 49, 144, 80
-0.997006, 463, 17, 478, 80
-0.997007, 305, 297, 432, 328
-0.997017, 87, 153, 102, 216
-0.997031, 275, 129, 290, 192
-0.997034, 441, 233, 456, 296
-0.997044, 49, 101, 176, 132
-0.99706, 49, 117, 176, 148
-0.99706, 161, 65, 288, 96
-0.997062, 45, 289, 60, 352
-0.997065, 45, 265, 60, 328
-0.997067, 225, 161, 352, 192
-0.997072, 1, 313, 256, 376
-0.997079, 201, 25, 216, 88
-0.997092, 253, 105, 268, 168
-0.997092, 97, 109, 224, 140
-0.997093, 225, 209, 480, 272
-0.997096, 343, 289, 358, 352
-0.997097, 23, 249, 38, 312
-0.997113, 305, 297, 320, 360
-0.997114, 215, 41, 230, 104
-0.997114, 343, 265, 358, 328
-0.99712, 189, 233, 204, 296
-0.997122, 191, 1, 206, 64
-0.997133, 65, 25, 192, 56
-0.997133, 41, 129, 72, 376
-0.997136, 259, 257, 274, 320
-0.997138, 203, 169, 218, 232
-0.997143, 261, 113, 276, 176
-0.997147, 253, 17, 284, 144
-0.997159, 7, 257, 22, 320
-0.99716, 273, 193, 400, 224
-0.997162, 179, 273, 194, 336
-0.997162, 1, 273, 128, 304
-0.997166, 453, 25, 468, 88
-0.997169, 145, 313, 160, 376
-0.99717, 81, 49, 208, 80
-0.997187, 321, 317, 448, 348
-0.997188, 345, 1, 376, 128
-0.997189, 305, 285, 432, 316
-0.997197, 219, 1, 234, 64
-0.997211, 115, 209, 130, 272
-0.997215, 221, 65, 252, 192
-0.997222, 421, 281, 436, 344
-0.997222, 49, 249, 176, 280
-0.997222, 133, 113, 148, 176
-0.997227, 297, 273, 312, 336
-0.997231, 65, 89, 192, 120
-0.997233, 177, 17, 304, 48
-0.997242, 187, 217, 202, 248
-0.997249, 413, 241, 428, 304
-0.997265, 95, 313, 110, 376
-0.997278, 65, 121, 80, 184
-0.997282, 37, 233, 52, 296
-0.997283, 247, 73, 262, 136
-0.997286, 273, 273, 288, 336
-0.997291, 227, 313, 242, 376
-0.997296, 299, 185, 314, 248
-0.997298, 81, 301, 208, 332
-0.997301, 291, 265, 306, 328
-0.997312, 105, 57, 120, 120
-0.997319, 129, 25, 144, 88
-0.997321, 43, 157, 58, 188
-0.997334, 17, 341, 144, 372
-0.99734, 17, 61, 144, 92
-0.997347, 17, 17, 144, 48
-0.997349, 1, 193, 500, 256
-0.997355, 209, 69, 336, 100
-0.99736, 289, 329, 416, 360
-0.997366, 97, 133, 224, 164
-0.997377, 429, 237, 444, 268
-0.997394, 1, 1, 256, 64
-0.997397, 305, 169, 432, 200
-0.997398, 369, 261, 496, 292
-0.997418, 193, 209, 208, 240
-0.997422, 369, 49, 496, 112
-0.997424, 177, 185, 304, 216
-0.99743, 205, 185, 220, 216
-0.997443, 161, 293, 288, 324
-0.997461, 57, 33, 88, 288
-0.997469, 195, 229, 210, 260
-0.997473, 1, 161, 500, 224
-0.997474, 141, 145, 172, 272
-0.997484, 133, 1, 164, 256
-0.997487, 1, 89, 500, 152
-0.997501, 241, 317, 368, 348
-0.997511, 329, 205, 344, 236
-0.997514, 113, 153, 240, 184
-0.997524, 289, 345, 416, 376
-0.997525, 325, 189, 340, 220
-0.997527, 145, 5, 272, 36
-0.99753, 225, 161, 240, 192
-0.997539, 211, 177, 226, 208
-0.997541, 255, 137, 270, 168
-0.997546, 201, 33, 232, 288
-0.997551, 425, 249, 440, 280
-0.997554, 197, 197, 212, 228
-0.997557, 435, 237, 450, 268
-0.997561, 145, 313, 272, 344
-0.99757, 49, 141, 64, 172
-0.997572, 161, 77, 288, 108
-0.997574, 33, 313, 160, 344
-0.997575, 161, 345, 176, 376
-0.997576, 13, 145, 44, 272
-0.997585, 93, 149, 108, 180
-0.99759, 7, 245, 22, 276
-0.997591, 253, 317, 268, 348
-0.99762, 65, 13, 192, 44
-0.997629, 209, 305, 336, 336
-0.997633, 219, 169, 234, 200
-0.997634, 321, 221, 448, 252
-0.997634, 97, 313, 112, 344
-0.997647, 81, 97, 112, 352
-0.997652, 325, 221, 340, 252
-0.997655, 241, 333, 368, 364
-0.997657, 385, 65, 448, 192
-0.997668, 65, 289, 192, 320
-0.997668, 257, 169, 500, 232
-0.997675, 257, 77, 384, 108
-0.99773, 237, 337, 252, 368
-0.99774, 293, 97, 324, 352
-0.99775, 15, 241, 30, 272
-0.997754, 335, 217, 350, 248
-0.997758, 97, 301, 112, 332
-0.997759, 261, 1, 292, 256
-0.997764, 209, 37, 336, 68
-0.997771, 145, 33, 272, 64
-0.997783, 435, 249, 450, 280
-0.997785, 81, 261, 208, 292
-0.997785, 97, 121, 224, 152
-0.997802, 201, 229, 216, 260
-0.997823, 183, 205, 198, 236
-0.997828, 325, 129, 356, 376
-0.99784, 265, 133, 280, 164
-0.997841, 165, 41, 180, 72
-0.997851, 257, 129, 288, 376
-0.99786, 289, 149, 416, 180
-0.997864, 341, 201, 356, 232
-0.997865, 241, 25, 368, 56
-0.997866, 305, 189, 320, 220
-0.997876, 209, 129, 240, 376
-0.997877, 1, 37, 128, 68
-0.997877, 73, 253, 88, 284
-0.997883, 331, 185, 346, 216
-0.997885, 183, 277, 198, 308
-0.997894, 225, 13, 352, 44
-0.997895, 199, 185, 214, 216
-0.997899, 189, 1, 220, 256
-0.99791, 231, 161, 246, 192
-0.99791, 161, 221, 288, 252
-0.997924, 167, 341, 182, 372
-0.997926, 319, 189, 334, 220
-0.997934, 369, 225, 496, 256
-0.997955, 177, 157, 304, 188
-0.997957, 203, 197, 218, 228
-0.997959, 313, 249, 328, 280
-0.997965, 423, 237, 438, 268
-0.997972, 181, 129, 212, 376
-0.997973, 37, 281, 52, 312
-0.997976, 441, 233, 456, 264
-0.997981, 81, 1, 112, 256
-0.997986, 21, 241, 36, 272
-0.997988, 143, 41, 158, 72
-0.997989, 67, 249, 82, 280
-0.997991, 1, 193, 32, 320
-0.997991, 153, 313, 168, 344
-0.997992, 435, 225, 450, 256
-0.997999, 241, 325, 256, 356
-0.998002, 1, 101, 128, 132
-0.998005, 11, 273, 26, 304
-0.998005, 299, 229, 314, 260
-0.998012, 261, 149, 276, 180
-0.998017, 81, 253, 96, 284
-0.998017, 309, 261, 324, 292
-0.998022, 101, 1, 132, 256
-0.998027, 57, 129, 88, 376
-0.998035, 247, 321, 262, 352
-0.998039, 201, 13, 216, 44
-0.998045, 119, 25, 134, 56
-0.998057, 1, 129, 500, 192
-0.99806, 231, 253, 246, 284
-0.998077, 165, 329, 180, 360
-0.998084, 121, 1, 136, 32
-0.998086, 175, 281, 190, 312
-0.998093, 97, 329, 112, 360
-0.998098, 309, 33, 340, 288
-0.998101, 57, 245, 72, 276
-0.998102, 191, 197, 206, 228
-0.998105, 321, 177, 336, 208
-0.998109, 181, 229, 196, 260
-0.998112, 353, 33, 480, 64
-0.998112, 141, 53, 156, 84
-0.998115, 341, 213, 356, 244
-0.998136, 353, 297, 480, 328
-0.998139, 55, 137, 70, 168
-0.998141, 233, 321, 248, 352
-0.998141, 29, 285, 44, 316
-0.998145, 409, 81, 472, 208
-0.998145, 269, 97, 300, 352
-0.998147, 277, 281, 292, 312
-0.99815, 43, 229, 58, 260
-0.998155, 271, 137, 286, 168
-0.998157, 201, 29, 216, 60
-0.998159, 335, 205, 350, 236
-0.99816, 1, 49, 32, 176
-0.998172, 51, 285, 66, 316
-0.998172, 83, 161, 98, 192
-0.998172, 1, 237, 16, 268
-0.998175, 189, 273, 204, 304
-0.998175, 289, 137, 416, 168
-0.998178, 161, 1, 192, 256
-0.998186, 113, 77, 128, 108
-0.998186, 59, 261, 74, 292
-0.99819, 81, 265, 96, 296
-0.998191, 449, 1, 480, 256
-0.998196, 103, 305, 118, 336
-0.998196, 17, 89, 144, 120
-0.998197, 309, 217, 324, 248
-0.998206, 233, 1, 264, 256
-0.998211, 37, 293, 52, 324
-0.998218, 45, 33, 76, 288
-0.998223, 257, 173, 384, 204
-0.998227, 227, 329, 242, 360
-0.998229, 339, 229, 354, 260
-0.998231, 157, 97, 188, 224
-0.998237, 429, 225, 444, 256
-0.998239, 221, 341, 236, 372
-0.998246, 161, 197, 288, 228
-0.998249, 251, 333, 266, 364
-0.99825, 419, 249, 434, 280
-0.998253, 281, 301, 296, 332
-0.998254, 157, 41, 172, 72
-0.998257, 321, 209, 336, 240
-0.998257, 125, 29, 140, 60
-0.998259, 217, 65, 232, 96
-0.998265, 73, 177, 88, 208
-0.998279, 189, 229, 204, 260
-0.99828, 29, 1, 60, 256
-0.998282, 31, 237, 46, 268
-0.998283, 299, 249, 314, 280
-0.998285, 461, 21, 476, 52
-0.998289, 255, 149, 270, 180
-0.99829, 3, 273, 18, 304
-0.998291, 465, 65, 496, 192
-0.998296, 67, 265, 82, 296
-0.998296, 421, 277, 436, 308
-0.9983, 217, 181, 232, 212
-0.998304, 209, 49, 224, 80
-0.998307, 269, 289, 284, 320
-0.998314, 441, 245, 456, 276
-0.998327, 309, 149, 324, 180
-0.998328, 141, 25, 156, 56
-0.998329, 23, 281, 38, 312
-0.998329, 307, 285, 322, 316
-0.998331, 25, 297, 40, 328
-0.998333, 93, 97, 124, 352
-0.998334, 1, 253, 16, 284
-0.998339, 41, 209, 56, 240
-0.998341, 209, 337, 224, 368
-0.998343, 87, 293, 102, 324
-0.998343, 171, 41, 186, 72
-0.998344, 49, 273, 64, 304
-0.998346, 225, 173, 240, 204
-0.99835, 289, 117, 304, 148
-0.998351, 95, 261, 110, 292
-0.998353, 193, 9, 208, 40
-0.998353, 353, 289, 368, 320
-0.998355, 315, 265, 330, 296
-0.998366, 157, 333, 172, 364
-0.998371, 29, 299, 60, 314
-0.998372, 65, 155, 96, 170
-0.998372, 281, 117, 312, 132
-0.998373, 205, 9, 236, 24
-0.998374, 461, 1, 492, 256
-0.998374, 161, 281, 192, 296
-0.998375, 141, 327, 172, 342
-0.998375, 225, 259, 256, 274
-0.998376, 9, 251, 40, 266
-0.998376, 61, 249, 92, 264
-0.998376, 249, 335, 280, 350
-0.998377, 193, 49, 224, 64
-0.998378, 45, 245, 76, 260
-0.998378, 129, 27, 160, 42
-0.998379, 53, 139, 84, 154
-0.998379, 133, 361, 164, 376
-0.99838, 285, 107, 316, 122
-0.99838, 285, 291, 316, 306
-0.99838, 121, 3, 152, 18
-0.998381, 313, 197, 344, 212
-0.998382, 321, 33, 352, 288
-0.998383, 217, 347, 248, 362
-0.998383, 33, 161, 64, 176
-0.998383, 1, 257, 32, 272
-0.998383, 233, 349, 264, 364
-0.998383, 265, 285, 296, 300
-0.998383, 189, 11, 220, 26
-0.998384, 45, 147, 76, 162
-0.998384, 189, 281, 220, 296
-0.998384, 97, 361, 128, 376
-0.998384, 193, 185, 224, 200
-0.998385, 285, 81, 316, 96
-0.998385, 57, 133, 88, 148
-0.998386, 233, 315, 264, 330
-0.998387, 253, 315, 284, 330
-0.998387, 225, 335, 256, 350
-0.998387, 313, 183, 344, 198
-0.998388, 429, 237, 460, 252
-0.998388, 201, 173, 232, 188
-0.998389, 325, 195, 356, 210
-0.99839, 149, 333, 180, 348
-0.998392, 253, 151, 284, 166
-0.998392, 233, 321, 264, 336
-0.998392, 385, 235, 416, 250
-0.998392, 297, 275, 328, 290
-0.998392, 209, 167, 240, 182
-0.998394, 317, 259, 348, 274
-0.998394, 121, 19, 152, 34
-0.998394, 281, 285, 312, 300
-0.998395, 189, 17, 220, 32
-0.998395, 41, 233, 72, 248
-0.998397, 185, 225, 216, 240
-0.998397, 249, 323, 280, 338
-0.998397, 189, 201, 220, 216
-0.998398, 5, 239, 36, 254
-0.998399, 221, 163, 252, 178
-0.998402, 201, 195, 232, 210
-0.998402, 305, 225, 336, 240
-0.998402, 225, 341, 256, 356
-0.998402, 173, 213, 204, 228
-0.998403, 177, 287, 208, 302
-0.998404, 21, 285, 52, 300
-0.998405, 37, 277, 68, 292
-0.998405, 173, 337, 204, 352
-0.998405, 33, 179, 64, 194
-0.998406, 413, 247, 444, 262
-0.998406, 297, 249, 328, 264
-0.998408, 229, 253, 260, 268
-0.998408, 325, 209, 356, 224
-0.998408, 77, 253, 108, 268
-0.998409, 69, 149, 100, 164
-0.998409, 161, 327, 192, 342
-0.99841, 265, 277, 296, 292
-0.998411, 141, 317, 172, 332
-0.998412, 185, 207, 216, 222
-0.998412, 161, 349, 192, 364
-0.998414, 105, 71, 136, 86
-0.998414, 421, 229, 452, 244
-0.998416, 49, 253, 80, 268
-0.998416, 217, 65, 248, 80
-0.998416, 65, 291, 96, 306
-0.998418, 285, 297, 316, 312
-0.998418, 57, 267, 88, 282
-0.99842, 141, 45, 172, 60
-0.998422, 153, 45, 184, 60
-0.998424, 205, 189, 236, 204
-0.998425, 141, 53, 172, 68
-0.998426, 241, 13, 272, 28
-0.998427, 245, 329, 276, 344
-0.998427, 217, 353, 248, 368
-0.998428, 85, 261, 116, 276
-0.998429, 297, 267, 328, 282
-0.99843, 177, 235, 208, 250
-0.998433, 237, 339, 268, 354
-0.998433, 309, 219, 340, 234
-0.998436, 301, 193, 332, 208
-0.998437, 341, 293, 372, 308
-0.998439, 81, 161, 112, 176
-0.99844, 325, 215, 356, 230
-0.99844, 9, 245, 40, 260
-0.998442, 65, 285, 96, 300
-0.998443, 301, 231, 332, 246
-0.998444, 249, 1, 280, 256
-0.998445, 209, 183, 240, 198
-0.998445, 57, 261, 88, 276
-0.998446, 297, 255, 328, 270
-0.998447, 321, 17, 352, 144
-0.998447, 165, 343, 196, 358
-0.998448, 197, 179, 228, 194
-0.998449, 29, 293, 60, 308
-0.99845, 413, 235, 444, 250
-0.998451, 117, 13, 148, 28
-0.998453, 325, 225, 356, 240
-0.998453, 241, 97, 272, 352
-0.998457, 457, 27, 488, 42
-0.99846, 173, 33, 204, 288
-0.998462, 229, 329, 260, 344
-0.998465, 213, 177, 244, 192
-0.998467, 105, 309, 136, 324
-0.998469, 153, 359, 184, 374
-0.99847, 193, 237, 224, 252
-0.99847, 25, 239, 56, 254
-0.998471, 173, 279, 204, 294
-0.998474, 117, 29, 148, 44
-0.998477, 221, 169, 252, 184
-0.998483, 313, 189, 344, 204
-0.998486, 45, 287, 76, 302
-0.998486, 421, 253, 452, 268
-0.998489, 49, 261, 112, 276
-0.998492, 81, 167, 112, 182
-0.998492, 281, 1, 312, 256
-0.998503, 41, 291, 104, 306
-0.99851, 281, 97, 312, 352
-0.998511, 29, 129, 60, 376
-0.998517, 153, 53, 184, 68
-0.998518, 297, 261, 328, 276
-0.99852, 1, 277, 32, 292
-0.998523, 1, 279, 64, 294
-0.998532, 249, 139, 312, 154
-0.998537, 289, 233, 352, 248
-0.998538, 17, 251, 80, 266
-0.998539, 73, 261, 104, 276
-0.998539, 73, 259, 136, 274
-0.998539, 49, 157, 112, 172
-0.99854, 201, 13, 264, 28
-0.998548, 17, 243, 80, 258
-0.998551, 225, 41, 480, 104
-0.998552, 189, 231, 220, 246
-0.998553, 65, 179, 128, 194
-0.998553, 1, 237, 64, 252
-0.998555, 65, 173, 128, 188
-0.998555, 241, 107, 304, 122
-0.998562, 57, 151, 120, 166
-0.998563, 49, 163, 112, 178
-0.998565, 65, 255, 96, 270
-0.998566, 65, 187, 128, 202
-0.998568, 217, 259, 280, 274
-0.998568, 217, 267, 280, 282
-0.998569, 49, 255, 112, 270
-0.99857, 73, 265, 136, 280
-0.99857, 25, 285, 88, 300
-0.998572, 209, 353, 272, 368
-0.998573, 297, 281, 360, 296
-0.998575, 253, 141, 284, 156
-0.998575, 185, 165, 248, 180
-0.998577, 289, 263, 352, 278
-0.99858, 41, 267, 104, 282
-0.998581, 25, 191, 88, 206
-0.998582, 329, 297, 392, 312
-0.998584, 25, 179, 88, 194
-0.998585, 297, 223, 360, 238
-0.998585, 161, 281, 224, 296
-0.998586, 113, 19, 176, 34
-0.998587, 273, 279, 336, 294
-0.998587, 33, 233, 96, 248
-0.998588, 273, 305, 336, 320
-0.998588, 241, 333, 304, 348
-0.998589, 281, 257, 344, 272
-0.998589, 249, 145, 312, 160
-0.998589, 145, 327, 208, 342
-0.998589, 297, 295, 360, 310
-0.998591, 257, 257, 320, 272
-0.998591, 217, 331, 280, 346
-0.998593, 145, 237, 208, 252
-0.998593, 185, 235, 248, 250
-0.998595, 297, 287, 360, 302
-0.998595, 257, 285, 320, 300
-0.998595, 161, 231, 224, 246
-0.998595, 265, 95, 328, 110
-0.998596, 401, 233, 464, 248
-0.998596, 289, 193, 352, 208
-0.998597, 185, 287, 248, 302
-0.998599, 121, 333, 184, 348
-0.998599, 145, 1, 176, 256
-0.998599, 97, 185, 160, 200
-0.9986, 241, 113, 304, 128
-0.9986, 169, 347, 232, 362
-0.998604, 241, 327, 304, 342
-0.998604, 25, 201, 88, 216
-0.998604, 129, 27, 192, 42
-0.998605, 257, 271, 320, 286
-0.998605, 225, 253, 288, 268
-0.998607, 1, 37, 64, 52
-0.998607, 241, 121, 304, 136
-0.998609, 249, 251, 312, 266
-0.99861, 81, 161, 144, 176
-0.998612, 217, 325, 280, 340
-0.998612, 249, 263, 312, 278
-0.998612, 209, 169, 272, 184
-0.998613, 289, 251, 352, 266
-0.998613, 273, 297, 336, 312
-0.998614, 209, 347, 272, 362
-0.998614, 225, 145, 288, 160
-0.998614, 177, 275, 240, 290
-0.998615, 145, 53, 208, 68
-0.998616, 113, 5, 176, 20
-0.998616, 33, 173, 96, 188
-0.998617, 25, 279, 88, 294
-0.998617, 97, 191, 160, 206
-0.998618, 169, 241, 232, 256
-0.998618, 73, 167, 136, 182
-0.998619, 185, 171, 248, 186
-0.998619, 273, 107, 336, 122
-0.99862, 409, 253, 472, 268
-0.998621, 121, 53, 184, 68
-0.998621, 1, 273, 64, 288
-0.998621, 73, 253, 136, 268
-0.998622, 233, 101, 296, 116
-0.998622, 249, 277, 312, 292
-0.998622, 217, 275, 280, 290
-0.998622, 193, 129, 224, 376
-0.998623, 81, 311, 144, 326
-0.998625, 201, 177, 264, 192
-0.998625, 185, 281, 248, 296
-0.998627, 89, 151, 152, 166
-0.998627, 185, 51, 248, 66
-0.998629, 257, 291, 320, 306
-0.998629, 265, 89, 328, 104
-0.99863, 169, 337, 232, 352
-0.99863, 241, 77, 304, 92
-0.998631, 113, 321, 176, 336
-0.998632, 113, 315, 176, 330
-0.998632, 241, 339, 304, 354
-0.998632, 137, 361, 200, 376
-0.998633, 25, 185, 88, 200
-0.998633, 1, 51, 64, 66
-0.998634, 145, 333, 208, 348
-0.998634, 57, 145, 120, 160
-0.998635, 377, 253, 440, 268
-0.998635, 209, 65, 272, 80
-0.998635, 65, 193, 128, 208
-0.998636, 113, 65, 176, 80
-0.998636, 185, 355, 248, 370
-0.998637, 97, 177, 160, 192
-0.998637, 209, 339, 272, 354
-0.998637, 385, 227, 448, 242
-0.998638, 25, 259, 88, 274
-0.998638, 1, 287, 64, 302
-0.998639, 225, 13, 288, 28
-0.998641, 225, 359, 288, 374
-0.998641, 105, 11, 168, 26
-0.998642, 17, 147, 80, 162
-0.998642, 401, 261, 464, 276
-0.998642, 41, 297, 104, 312
-0.998642, 113, 359, 176, 374
-0.998644, 25, 165, 88, 180
-0.998644, 289, 243, 352, 258
-0.998645, 241, 127, 304, 142
-0.998645, 145, 47, 208, 62
-0.998646, 233, 95, 296, 110
-0.998647, 297, 217, 360, 232
-0.998648, 161, 21, 224, 36
-0.998658, 361, 65, 424, 192
-0.998667, 141, 97, 172, 352
-0.998679, 409, 145, 472, 272
-0.998712, 229, 129, 260, 376
-0.998746, 125, 129, 156, 376
-0.998762, 169, 177, 200, 304
-0.998796, 199, 1, 214, 128
-0.998995, 1, 1, 32, 256
-0.998998, 113, 97, 144, 352
-0.999029, 43, 161, 58, 288
-0.999033, 421, 225, 436, 352
-0.999042, 61, 113, 76, 240
-0.999044, 115, 1, 130, 128
-0.999048, 69, 1, 100, 256
-0.99906, 299, 209, 314, 336
-0.999077, 337, 129, 368, 376
-0.999081, 309, 177, 324, 304
-0.999091, 317, 161, 332, 288
-0.999094, 71, 113, 86, 240
-0.999095, 5, 1, 20, 128
-0.999105, 195, 193, 210, 320
-0.999117, 205, 17, 220, 144
-0.999134, 189, 193, 204, 320
-0.999139, 349, 65, 380, 320
-0.999152, 37, 209, 52, 336
-0.999157, 183, 193, 198, 320
-0.999164, 401, 97, 464, 352
-0.999171, 337, 225, 352, 352
-0.999175, 189, 241, 204, 368
-0.999179, 437, 1, 468, 256
-0.999191, 373, 1, 404, 256
-0.999197, 305, 225, 320, 352
-0.999202, 255, 65, 270, 192
-0.999207, 67, 193, 82, 320
-0.999214, 177, 225, 192, 352
-0.999215, 125, 17, 140, 144
-0.999223, 229, 241, 244, 368
-0.999226, 235, 241, 250, 368
-0.99923, 53, 145, 68, 272
-0.99923, 77, 97, 92, 224
-0.999235, 463, 17, 478, 144
-0.999236, 37, 161, 52, 288
-0.999238, 329, 193, 344, 320
-0.999247, 309, 129, 324, 256
-0.999248, 277, 257, 292, 376
-0.99926, 303, 145, 318, 272
-0.999266, 261, 65, 276, 192
-0.99927, 103, 177, 118, 304
-0.999283, 43, 209, 58, 336
-0.999288, 267, 129, 282, 256
-0.999299, 255, 113, 270, 240
-0.999302, 253, 257, 268, 376
-0.999303, 181, 1, 196, 128
-0.999303, 429, 241, 444, 368
-0.999317, 17, 129, 48, 376
-0.999318, 319, 225, 334, 352
-0.999318, 243, 241, 258, 368
-0.999334, 11, 1, 26, 128
-0.999334, 457, 17, 472, 144
-0.999336, 293, 257, 308, 376
-0.999341, 73, 177, 88, 304
-0.999343, 115, 209, 130, 336
-0.999343, 51, 225, 66, 352
-0.999344, 303, 97, 318, 224
-0.999344, 109, 193, 124, 320
-0.99936, 93, 145, 108, 272
-0.999367, 83, 81, 98, 208
-0.999368, 415, 225, 430, 352
-0.999374, 31, 193, 46, 320
-0.999377, 469, 17, 484, 144
-0.999378, 439, 241, 454, 368
-0.999379, 97, 257, 112, 376
-0.999387, 171, 241, 186, 368
-0.999387, 247, 65, 262, 192
-0.999388, 279, 97, 294, 224
-0.999389, 61, 209, 76, 336
-0.99939, 203, 193, 218, 320
-0.999393, 261, 145, 276, 272
-0.999396, 9, 241, 24, 368
-0.999404, 187, 1, 202, 128
-0.999411, 157, 97, 188, 352
-0.999416, 211, 33, 226, 160
-0.999416, 289, 65, 304, 192
-0.999417, 17, 33, 48, 288
-0.999419, 21, 1, 36, 128
-0.999422, 167, 1, 182, 128
-0.999425, 345, 209, 360, 336
-0.999428, 335, 177, 350, 304
-0.999429, 211, 145, 226, 272
-0.999429, 87, 257, 102, 376
-0.999432, 137, 33, 152, 160
-0.999434, 311, 225, 326, 352
-0.999435, 271, 81, 286, 208
-0.999437, 217, 17, 232, 144
-0.99944, 1, 257, 16, 376
-0.99944, 309, 65, 324, 192
-0.999446, 83, 145, 98, 272
-0.999448, 143, 33, 158, 160
-0.999448, 65, 65, 80, 192
-0.999451, 219, 257, 234, 376
-0.999454, 45, 257, 60, 376
-0.999455, 391, 225, 406, 352
-0.999456, 73, 49, 88, 176
-0.999459, 199, 129, 214, 256
-0.99946, 407, 257, 422, 376
-0.999461, 91, 81, 106, 208
-0.999463, 249, 113, 264, 240
-0.999466, 171, 49, 186, 176
-0.999467, 383, 257, 398, 376
-0.999468, 343, 257, 358, 376
-0.99947, 161, 241, 176, 368
-0.999474, 59, 161, 74, 288
-0.999474, 201, 65, 216, 192
-0.99948, 475, 17, 490, 144
-0.99948, 323, 177, 338, 304
-0.999482, 193, 33, 208, 160
-0.999486, 51, 97, 66, 224
-0.999489, 309, 17, 324, 144
-0.999489, 327, 241, 342, 368
-0.99949, 71, 241, 86, 368
-0.99949, 263, 257, 278, 376
-0.999491, 451, 17, 466, 144
-0.999492, 159, 49, 174, 176
-0.999493, 35, 257, 50, 376
-0.999493, 131, 1, 146, 128
-0.999494, 103, 257, 118, 376
-0.999496, 297, 161, 312, 288
-0.999499, 107, 81, 122, 208
-0.999499, 143, 209, 158, 336
-0.999499, 287, 209, 302, 336
-0.999502, 349, 257, 364, 376
-0.999504, 183, 241, 198, 368
-0.999508, 27, 1, 42, 128
-0.999509, 37, 113, 52, 240
-0.999511, 165, 49, 180, 176
-0.999512, 195, 257, 210, 376
-0.999512, 139, 129, 154, 256
-0.999513, 299, 257, 314, 376
-0.999517, 295, 65, 310, 192
-0.99952, 119, 65, 134, 192
-0.999521, 153, 49, 168, 176
-0.999527, 397, 257, 412, 376
-0.999532, 27, 257, 42, 376
-0.999532, 225, 17, 240, 144
-0.999534, 297, 113, 312, 240
-0.999535, 339, 1, 354, 128
-0.999535, 429, 193, 444, 320
-0.999578, 173, 281, 188, 296
-0.999578, 243, 13, 258, 28
-0.999579, 233, 165, 248, 180
-0.999579, 203, 237, 218, 252
-0.99958, 171, 341, 186, 356
-0.999581, 1, 279, 16, 294
-0.999581, 441, 239, 456, 254
-0.999581, 273, 135, 288, 150
-0.999582, 303, 277, 318, 292
-0.999583, 41, 169, 56, 184
-0.999583, 33, 293, 48, 308
-0.999584, 165, 43, 180, 58
-0.999584, 163, 347, 178, 362
-0.999584, 13, 249, 28, 264
-0.999584, 329, 229, 344, 244
-0.999585, 97, 319, 112, 334
-0.999585, 49, 139, 64, 154
-0.999585, 175, 297, 190, 312
-0.999585, 91, 159, 106, 174
-0.999586, 311, 193, 326, 208
-0.999586, 147, 317, 162, 332
-0.999587, 251, 335, 266, 350
-0.999587, 401, 97, 432, 352
-0.999587, 419, 233, 434, 248
-0.999588, 317, 191, 332, 206
-0.999588, 235, 255, 250, 270
-0.999589, 77, 253, 92, 268
-0.999589, 29, 285, 44, 300
-0.99959, 263, 135, 278, 150
-0.999591, 261, 145, 276, 160
-0.999592, 97, 325, 112, 340
-0.999592, 219, 347, 234, 362
-0.999593, 117, 69, 132, 84
-0.999593, 437, 233, 452, 248
-0.999594, 49, 147, 64, 162
-0.999595, 145, 45, 160, 60
-0.999596, 101, 361, 116, 376
-0.999597, 313, 257, 328, 272
-0.999597, 39, 297, 54, 312
-0.999599, 255, 313, 270, 328
-0.999599, 121, 9, 136, 24
-0.9996, 167, 53, 182, 68
-0.9996, 441, 249, 456, 264
-0.999602, 201, 17, 216, 32
-0.999602, 229, 257, 244, 272
-0.999602, 207, 193, 222, 208
-0.999602, 155, 51, 170, 66
-0.999603, 435, 243, 450, 258
-0.999603, 185, 231, 200, 246
-0.999604, 219, 65, 234, 80
-0.999604, 245, 329, 260, 344
-0.999606, 155, 323, 170, 338
-0.999607, 109, 75, 124, 90
-0.999609, 45, 157, 60, 172
-0.999609, 25, 301, 40, 316
-0.99961, 5, 255, 20, 270
-0.99961, 153, 317, 168, 332
-0.999611, 89, 257, 104, 272
-0.999611, 37, 285, 52, 300
-0.999612, 97, 263, 112, 278
-0.999612, 341, 213, 356, 228
-0.999613, 339, 223, 354, 238
-0.999613, 299, 255, 314, 270
-0.999615, 329, 215, 344, 230
-0.999615, 201, 23, 216, 38
-0.999616, 31, 239, 46, 254
-0.999616, 185, 275, 200, 290
-0.999616, 187, 287, 202, 302
-0.999617, 417, 279, 432, 294
-0.999619, 153, 357, 168, 372
-0.99962, 325, 183, 340, 198
-0.99962, 437, 255, 452, 270
-0.999621, 429, 243, 444, 258
-0.999622, 179, 227, 194, 242
-0.999622, 335, 203, 350, 218
-0.999622, 329, 209, 344, 224
-0.999623, 157, 351, 172, 366
-0.999623, 463, 23, 478, 38
-0.999624, 319, 217, 334, 232
-0.999624, 311, 263, 326, 278
-0.999626, 325, 223, 340, 238
-0.999626, 205, 187, 220, 202
-0.999627, 65, 259, 80, 274
-0.999627, 373, 97, 404, 352
-0.999628, 123, 29, 138, 44
-0.999628, 253, 327, 268, 342
-0.999628, 181, 289, 196, 304
-0.999632, 199, 193, 214, 208
-0.999632, 333, 33, 364, 288
-0.999632, 143, 55, 158, 70
-0.999632, 193, 199, 208, 214
-0.999633, 21, 243, 36, 258
-0.999634, 7, 275, 22, 290
-0.999638, 39, 291, 54, 306
-0.999638, 185, 213, 200, 228
-0.99964, 201, 199, 216, 214
-0.999642, 425, 229, 440, 244
-0.999643, 251, 321, 266, 336
-0.999644, 429, 237, 444, 252
-0.999645, 191, 213, 206, 228
-0.999646, 201, 231, 216, 246
-0.999646, 337, 231, 352, 246
-0.999647, 435, 227, 450, 242
-0.999647, 305, 193, 320, 208
-0.999649, 165, 341, 180, 356
-0.99965, 81, 259, 96, 274
-0.999651, 215, 175, 230, 190
-0.999651, 189, 223, 204, 238
-0.999652, 197, 205, 212, 220
-0.999652, 97, 313, 112, 328
-0.999653, 431, 255, 446, 270
-0.999655, 209, 181, 224, 196
-0.999655, 341, 203, 356, 218
-0.999656, 7, 247, 22, 262
-0.999656, 331, 193, 346, 208
-0.999659, 333, 223, 348, 238
-0.999661, 179, 279, 194, 294
-0.999661, 221, 169, 236, 184
-0.999661, 43, 163, 58, 178
-0.999663, 73, 261, 88, 276
-0.99967, 227, 163, 242, 178
-0.999671, 189, 281, 204, 296
-0.999672, 93, 153, 108, 168
-0.999676, 71, 255, 86, 270
-0.999679, 85, 265, 100, 280
-0.999679, 189, 205, 204, 220
-0.999681, 15, 241, 30, 256
-0.999681, 65, 253, 80, 268
-0.999694, 421, 97, 452, 352
-0.999707, 425, 251, 440, 266
-0.999712, 385, 1, 416, 256
-0.999719, 435, 249, 450, 264
-0.999721, 255, 143, 270, 158
-0.999722, 325, 189, 340, 204
-0.999742, 195, 233, 210, 248
-0.999801, 441, 97, 472, 352
-0.999826, 385, 97, 416, 352
-0.999872, 5, 129, 36, 376
-0.999922, 221, 1, 252, 256
-0.999987, 361, 97, 392, 352
-1.00003, 421, 1, 452, 256
-1.00019, 409, 1, 440, 256
-1.00026, 169, 129, 200, 376
-1.00027, 469, 97, 500, 352
-1.0003, 361, 1, 392, 256
-1.00031, 453, 97, 484, 352
-1.00038, 397, 1, 428, 256
-1.00052, 293, 1, 324, 256
-1.00375, 433, 145, 496, 272
