1961
-0.306035, 1, 97, 500, 352
-0.458712, 225, 97, 480, 352
-0.485447, 1, 1, 500, 375
-0.499279, 33, 1, 288, 375
-0.52489, 1, 1, 500, 256
-0.557559, 225, 1, 480, 375
-0.617481, 129, 1, 384, 375
-0.646321, 33, 97, 288, 352
-0.654183, 129, 129, 384, 375
-0.773016, 193, 1, 448, 256
-0.776267, 33, 1, 288, 256
-0.832383, 321, 97, 448, 352
-0.836318, 273, 97, 400, 352
-0.846384, 225, 65, 352, 320
-0.864549, 177, 129, 304, 375
-0.86739, 1, 65, 128, 320
-0.870282, 1, 241, 500, 368
-0.873424, 369, 129, 496, 375
-0.874312, 1, 193, 500, 320
-0.875715, 225, 1, 352, 375
-0.88147, 1, 81, 500, 208
-0.884418, 1, 1, 128, 375
-0.889896, 321, 1, 448, 375
-0.89158, 49, 97, 176, 352
-0.893226, 113, 97, 240, 352
-0.899404, 273, 1, 400, 375
-0.900363, 49, 1, 176, 375
-0.903216, 1, 129, 500, 256
-0.903718, 193, 177, 448, 304
-0.904606, 177, 1, 304, 375
-0.906142, 129, 1, 256, 375
-0.906146, 257, 113, 500, 240
-0.908009, 161, 241, 416, 368
-0.912388, 305, 1, 432, 256
-0.912779, 369, 1, 496, 375
-0.914494, 33, 225, 288, 352
-0.915787, 257, 225, 500, 352
-0.919137, 1, 81, 256, 208
-0.919434, 161, 97, 416, 224
-0.923958, 177, 33, 304, 288
-0.924678, 1, 129, 256, 256
-0.924883, 33, 177, 288, 304
-0.928027, 337, 225, 464, 352
-0.928581, 177, 209, 304, 336
-0.928718, 369, 33, 496, 288
-0.929597, 369, 225, 432, 352
-0.931351, 49, 1, 176, 256
-0.932641, 289, 97, 352, 224
-0.932907, 257, 177, 384, 304
-0.934724, 225, 225, 288, 352
-0.935222, 225, 225, 352, 352
-0.935303, 433, 129, 496, 256
-0.936182, 273, 241, 336, 368
-0.936416, 209, 97, 336, 224
-0.936568, 321, 177, 448, 304
-0.937218, 233, 81, 296, 208
-0.937344, 201, 241, 264, 368
-0.938199, 305, 113, 432, 240
-0.938375, 273, 241, 400, 368
-0.938384, 393, 129, 456, 256
-0.938846, 345, 225, 408, 352
-0.938998, 145, 209, 208, 336
-0.939166, 1, 33, 500, 160
-0.93935, 257, 97, 384, 224
-0.939489, 369, 129, 496, 256
-0.941258, 161, 161, 288, 288
-0.941387, 393, 177, 456, 304
-0.941988, 17, 145, 80, 272
-0.942149, 1, 65, 64, 192
-0.942266, 185, 177, 248, 304
-0.943718, 33, 81, 160, 208
-0.943995, 369, 113, 432, 240
-0.944239, 129, 241, 256, 368
-0.94511, 313, 97, 376, 224
-0.945128, 49, 225, 112, 352
-0.94612, 417, 177, 480, 304
-0.947586, 209, 161, 336, 288
-0.947625, 281, 257, 344, 320
-0.94764, 49, 225, 176, 352
-0.947871, 97, 1, 224, 256
-0.948586, 393, 241, 456, 304
-0.948673, 369, 177, 496, 304
-0.948936, 321, 257, 384, 320
-0.949628, 401, 225, 464, 352
-0.949761, 361, 177, 424, 304
-0.950398, 337, 113, 400, 240
-0.950424, 305, 177, 368, 304
-0.95069, 297, 241, 360, 368
-0.950847, 129, 49, 384, 176
-0.951285, 345, 249, 408, 312
-0.951555, 41, 145, 104, 272
-0.952017, 233, 129, 296, 256
-0.952108, 81, 209, 144, 336
-0.952332, 129, 97, 256, 224
-0.952819, 209, 97, 272, 224
-0.952957, 321, 241, 384, 368
-0.953496, 177, 241, 240, 368
-0.95407, 1, 161, 128, 288
-0.954567, 113, 193, 240, 320
-0.954687, 73, 233, 136, 296
-0.954758, 265, 81, 328, 208
-0.955093, 369, 241, 432, 304
-0.955425, 49, 249, 112, 312
-0.955538, 289, 105, 352, 168
-0.955581, 249, 225, 312, 352
-0.955777, 1, 81, 64, 144
-0.95594, 33, 33, 288, 160
-0.956078, 329, 177, 392, 304
-0.956713, 393, 217, 456, 280
-0.956731, 273, 161, 336, 288
-0.957632, 249, 89, 312, 152
-0.958054, 209, 177, 272, 304
-0.958302, 113, 145, 240, 272
-0.958987, 73, 81, 136, 208
-0.959071, 65, 177, 192, 304
-0.95956, 257, 65, 500, 192
-0.959636, 1, 193, 64, 320
-0.959785, 17, 129, 80, 192
-0.959918, 113, 225, 176, 352
-0.960059, 1, 225, 128, 352
-0.960381, 17, 161, 80, 224
-0.960474, 417, 217, 480, 280
-0.96056, 249, 177, 312, 304
-0.960838, 241, 233, 304, 296
-0.96121, 25, 209, 88, 336
-0.961849, 177, 129, 240, 256
-0.961881, 273, 281, 336, 344
-0.962347, 289, 97, 352, 352
-0.962608, 41, 97, 104, 224
-0.962623, 225, 305, 288, 368
-0.962673, 121, 257, 184, 320
-0.96316, 393, 193, 456, 256
-0.963188, 417, 145, 480, 208
-0.963412, 193, 249, 256, 312
-0.964141, 329, 281, 392, 344
-0.964164, 81, 81, 208, 208
-0.964175, 377, 273, 440, 336
-0.964195, 425, 185, 488, 248
-0.964969, 225, 49, 352, 176
-0.964987, 145, 241, 208, 304
-0.965047, 369, 97, 432, 352
-0.965222, 201, 281, 264, 344
-0.965433, 353, 273, 416, 336
-0.965562, 241, 273, 304, 336
-0.965767, 313, 97, 376, 352
-0.965822, 305, 281, 368, 344
-0.965885, 201, 49, 264, 176
-0.966261, 25, 209, 88, 272
-0.966283, 233, 121, 296, 184
-0.966825, 73, 273, 136, 336
-0.966957, 273, 177, 336, 240
-0.967249, 297, 177, 360, 240
-0.967427, 305, 265, 432, 328
-0.96769, 41, 161, 104, 224
-0.967779, 177, 49, 304, 176
-0.967829, 201, 129, 264, 192
-0.967832, 393, 137, 456, 200
-0.968082, 249, 297, 312, 360
-0.968611, 41, 129, 104, 192
-0.968664, 193, 89, 256, 152
-0.969, 225, 97, 288, 160
-0.969282, 169, 249, 232, 312
-0.969366, 369, 129, 432, 192
-0.969528, 209, 129, 272, 375
-0.969539, 1, 185, 64, 248
-0.969636, 225, 33, 288, 160
-0.969814, 113, 233, 176, 296
-0.970014, 185, 161, 248, 224
-0.970016, 233, 97, 296, 352
-0.970031, 49, 273, 112, 336
-0.970278, 129, 81, 192, 208
-0.970326, 1, 33, 128, 160
-0.970466, 337, 97, 400, 352
-0.970551, 1, 17, 64, 144
-0.970585, 17, 97, 80, 352
-0.970609, 405, 193, 436, 320
-0.970802, 257, 257, 384, 320
-0.970831, 417, 249, 480, 312
-0.970881, 97, 273, 160, 336
-0.971169, 129, 161, 192, 288
-0.971252, 185, 185, 248, 248
-0.971299, 105, 177, 168, 304
-0.971466, 265, 97, 328, 352
-0.971596, 417, 177, 448, 304
-0.971647, 353, 81, 480, 208
-0.971667, 353, 257, 384, 320
-0.971681, 273, 153, 336, 216
-0.971699, 41, 97, 104, 352
-0.971775, 409, 233, 440, 296
-0.971784, 145, 281, 208, 344
-0.971802, 17, 105, 80, 168
-0.971852, 169, 81, 232, 208
-0.971867, 357, 193, 388, 320
-0.971999, 177, 281, 240, 344
-0.972088, 193, 241, 320, 304
-0.972179, 73, 161, 136, 288
-0.972189, 381, 241, 412, 304
-0.972393, 293, 81, 324, 208
-0.972655, 265, 201, 328, 264
-0.972662, 417, 129, 448, 256
-0.972664, 233, 145, 296, 208
-0.97267, 353, 241, 480, 304
-0.972686, 377, 225, 408, 352
-0.972701, 233, 225, 264, 352
-0.972731, 49, 225, 112, 288
-0.972748, 25, 249, 88, 312
-0.97279, 265, 209, 296, 336
-0.972854, 337, 257, 368, 320
-0.972937, 313, 105, 376, 168
-0.972998, 233, 169, 296, 232
-0.973438, 289, 49, 352, 176
-0.973451, 49, 129, 176, 256
-0.973533, 97, 297, 160, 360
-0.973542, 217, 241, 280, 304
-0.973545, 65, 129, 128, 192
-0.973546, 393, 81, 456, 208
-0.973551, 369, 249, 400, 312
-0.973561, 345, 121, 408, 184
-0.97357, 425, 217, 456, 280
-0.973675, 57, 241, 88, 304
-0.973729, 393, 97, 456, 352
-0.973969, 397, 233, 428, 296
-0.974042, 321, 257, 352, 320
-0.974067, 361, 209, 424, 272
-0.974148, 81, 257, 208, 320
-0.974231, 169, 217, 232, 280
-0.974325, 241, 289, 368, 352
-0.974364, 425, 241, 456, 304
-0.974433, 49, 105, 112, 168
-0.97446, 113, 209, 176, 272
-0.974544, 273, 81, 336, 144
-0.974579, 137, 313, 200, 375
-0.974701, 397, 113, 428, 240
-0.974793, 305, 241, 432, 304
-0.974811, 129, 49, 256, 176
-0.974991, 385, 113, 416, 240
-0.97502, 425, 225, 456, 352
-0.975072, 273, 49, 400, 176
-0.975083, 293, 97, 324, 160
-0.975162, 369, 185, 432, 248
-0.975193, 293, 241, 324, 368
-0.975209, 41, 33, 104, 160
-0.975242, 293, 249, 324, 312
-0.975357, 201, 313, 264, 375
-0.975494, 453, 129, 484, 256
-0.975691, 25, 185, 88, 248
-0.975744, 89, 89, 152, 152
-0.975764, 129, 281, 256, 344
-0.975853, 433, 129, 464, 256
-0.976083, 369, 177, 400, 304
-0.97622, 221, 97, 252, 224
-0.976342, 213, 177, 244, 304
-0.976378, 205, 241, 236, 368
-0.97651, 353, 273, 480, 336
-0.976525, 241, 97, 368, 160
-0.976582, 57, 225, 88, 352
-0.976597, 249, 33, 312, 160
-0.976622, 365, 113, 396, 240
-0.976623, 145, 217, 208, 280
-0.976636, 193, 185, 320, 248
-0.976668, 209, 161, 272, 224
-0.976728, 265, 81, 296, 208
-0.976751, 369, 185, 496, 248
-0.976772, 33, 97, 160, 160
-0.976791, 217, 201, 280, 264
-0.976804, 1, 209, 64, 272
-0.976842, 345, 193, 376, 320
-0.976859, 297, 233, 360, 296
-0.976955, 253, 225, 284, 352
-0.976975, 325, 97, 356, 224
-0.977112, 1, 1, 64, 256
-0.977141, 389, 177, 420, 304
-0.977143, 257, 185, 384, 248
-0.977197, 65, 233, 192, 296
-0.977264, 369, 137, 496, 200
-0.977351, 285, 161, 316, 288
-0.977432, 65, 97, 128, 352
-0.977473, 417, 193, 448, 256
-0.977532, 41, 161, 72, 224
-0.977555, 393, 169, 456, 232
-0.977569, 337, 209, 464, 272
-0.977571, 469, 169, 500, 232
-0.977728, 169, 313, 232, 375
-0.977869, 233, 145, 264, 272
-0.977879, 41, 145, 72, 272
-0.977919, 1, 49, 32, 176
-0.977962, 233, 97, 264, 224
-0.978039, 345, 241, 376, 368
-0.978054, 169, 225, 200, 352
-0.978096, 121, 281, 184, 344
-0.978104, 61, 145, 92, 208
-0.978169, 397, 209, 428, 272
-0.978269, 453, 185, 484, 248
-0.978356, 337, 65, 400, 192
-0.978379, 5, 169, 36, 232
-0.97841, 241, 97, 272, 160
-0.978424, 353, 113, 384, 240
-0.978426, 365, 241, 396, 368
-0.978433, 417, 81, 480, 208
-0.978586, 313, 97, 344, 224
-0.97863, 265, 89, 296, 152
-0.978805, 433, 129, 496, 375
-0.978863, 29, 81, 60, 144
-0.978898, 441, 177, 472, 304
-0.978942, 237, 273, 268, 336
-0.97897, 389, 265, 420, 328
-0.978988, 469, 145, 500, 272
-0.978989, 429, 177, 460, 304
-0.979047, 129, 249, 256, 312
-0.979075, 249, 1, 312, 256
-0.979075, 361, 177, 392, 240
-0.979094, 113, 217, 240, 280
-0.979115, 221, 225, 252, 352
-0.979205, 193, 273, 320, 336
-0.97924, 193, 209, 256, 272
-0.97928, 105, 81, 168, 208
-0.979294, 49, 281, 176, 344
-0.979325, 341, 97, 372, 224
-0.979377, 193, 161, 320, 224
-0.979381, 257, 209, 384, 272
-0.979381, 9, 145, 40, 272
-0.979397, 89, 209, 152, 272
-0.979407, 361, 161, 424, 224
-0.979415, 289, 289, 416, 352
-0.979427, 449, 153, 480, 216
-0.979439, 33, 257, 160, 320
-0.97948, 317, 289, 348, 352
-0.979496, 69, 249, 100, 312
-0.979554, 101, 233, 132, 296
-0.979587, 405, 257, 436, 320
-0.979614, 381, 209, 412, 272
-0.979652, 409, 273, 472, 336
-0.979658, 177, 129, 240, 375
-0.979753, 21, 137, 52, 200
-0.979767, 29, 65, 60, 192
-0.97978, 61, 145, 92, 272
-0.979907, 321, 241, 352, 368
-0.979997, 221, 121, 252, 184
-0.980031, 73, 153, 136, 216
-0.980057, 193, 297, 320, 360
-0.980188, 221, 49, 252, 176
-0.980265, 17, 89, 48, 152
-0.980299, 461, 145, 492, 208
-0.98032, 113, 89, 176, 152
-0.98034, 193, 241, 224, 368
-0.980424, 321, 177, 384, 240
-0.980446, 41, 73, 104, 136
-0.980472, 49, 201, 112, 264
-0.980474, 289, 113, 416, 176
-0.980526, 21, 177, 52, 240
-0.980531, 245, 81, 276, 208
-0.98057, 273, 129, 336, 192
-0.980597, 309, 265, 340, 328
-0.980608, 49, 33, 176, 160
-0.980672, 389, 225, 420, 352
-0.980759, 149, 209, 180, 336
-0.980778, 321, 185, 448, 248
-0.980792, 1, 161, 128, 224
-0.980806, 233, 305, 264, 368
-0.980838, 1, 81, 32, 144
-0.980864, 281, 241, 312, 368
-0.980957, 333, 281, 364, 344
-0.981142, 313, 81, 376, 144
-0.981145, 9, 129, 40, 192
-0.981282, 5, 97, 36, 224
-0.981334, 161, 209, 288, 272
-0.981361, 17, 65, 48, 192
-0.981408, 285, 169, 316, 232
-0.981415, 217, 177, 248, 240
-0.98143, 17, 185, 144, 248
-0.98149, 417, 137, 448, 200
-0.981505, 69, 225, 100, 352
-0.981506, 425, 121, 488, 184
-0.981528, 265, 225, 328, 288
-0.981559, 145, 185, 208, 248
-0.981604, 413, 241, 444, 368
-0.981666, 169, 249, 200, 312
-0.98167, 137, 81, 200, 144
-0.981673, 161, 89, 288, 152
-0.981724, 397, 129, 428, 192
-0.981771, 153, 161, 216, 288
-0.981777, 437, 145, 468, 208
-0.981881, 169, 89, 232, 152
-0.98192, 437, 193, 468, 256
-0.981925, 113, 273, 144, 336
-0.982001, 65, 209, 192, 272
-0.982023, 17, 273, 80, 336
-0.982035, 17, 233, 144, 296
-0.982066, 369, 281, 400, 344
-0.982089, 329, 225, 392, 288
-0.9821, 225, 89, 256, 152
-0.982109, 129, 257, 160, 320
-0.982149, 129, 313, 256, 375
-0.982173, 217, 281, 248, 344
-0.982181, 5, 193, 36, 256
-0.982256, 217, 249, 248, 312
-0.982268, 149, 217, 180, 280
-0.98232, 233, 249, 264, 312
-0.982428, 437, 225, 468, 288
-0.982434, 105, 129, 168, 256
-0.982469, 333, 241, 364, 368
-0.982477, 129, 153, 192, 216
-0.982551, 281, 81, 312, 208
-0.982595, 393, 105, 456, 168
-0.982602, 241, 233, 368, 296
-0.982638, 337, 153, 400, 216
-0.982662, 253, 89, 284, 152
-0.982708, 29, 145, 60, 272
-0.982769, 361, 65, 424, 192
-0.982838, 89, 129, 152, 375
-0.982851, 169, 177, 200, 304
-0.982857, 129, 161, 256, 224
-0.982925, 377, 121, 408, 184
-0.982964, 109, 209, 140, 336
-0.983014, 257, 289, 288, 352
-0.983071, 209, 137, 336, 200
-0.983072, 41, 129, 72, 192
-0.983158, 57, 265, 88, 328
-0.983163, 73, 105, 104, 168
-0.983173, 233, 65, 296, 128
-0.983197, 309, 161, 340, 288
-0.983246, 201, 177, 232, 304
-0.983267, 121, 233, 152, 296
-0.98332, 21, 201, 52, 264
-0.983323, 81, 233, 112, 296
-0.983351, 305, 241, 336, 368
-0.983353, 181, 241, 212, 368
-0.983404, 245, 241, 276, 304
-0.983454, 45, 249, 76, 312
-0.983471, 49, 81, 80, 208
-0.983515, 73, 145, 104, 272
-0.983518, 425, 225, 488, 352
-0.983522, 137, 217, 168, 280
-0.983541, 237, 137, 268, 200
-0.983545, 333, 177, 364, 304
-0.983646, 81, 313, 208, 375
-0.983659, 425, 265, 456, 328
-0.983676, 209, 113, 240, 240
-0.983677, 369, 97, 432, 160
-0.983719, 197, 249, 228, 312
-0.983735, 189, 177, 220, 304
-0.9838, 145, 137, 272, 200
-0.983885, 169, 225, 200, 288
-0.983895, 281, 97, 312, 160
-0.983899, 169, 281, 200, 344
-0.983914, 233, 161, 264, 224
-0.98392, 177, 137, 240, 200
-0.983988, 69, 97, 100, 224
-0.983995, 33, 193, 64, 320
-0.984088, 233, 1, 296, 375
-0.984117, 193, 1, 448, 128
-0.98422, 89, 185, 152, 248
-0.984276, 89, 121, 152, 184
-0.98428, 397, 177, 428, 240
-0.984298, 105, 161, 168, 224
-0.984338, 357, 201, 388, 264
-0.984341, 1, 233, 64, 296
-0.984352, 49, 145, 176, 208
-0.984415, 129, 193, 160, 320
-0.984418, 1, 1, 64, 375
-0.984419, 65, 297, 128, 360
-0.984435, 245, 313, 276, 375
-0.98444, 345, 185, 408, 248
-0.984529, 41, 1, 104, 256
-0.984589, 273, 1, 336, 375
-0.984623, 209, 65, 272, 128
-0.98463, 85, 225, 116, 352
-0.984644, 337, 89, 400, 152
-0.984689, 277, 209, 308, 272
-0.984873, 1, 57, 64, 120
-0.98496, 121, 241, 152, 368
-0.984997, 273, 305, 336, 368
-0.985056, 313, 49, 376, 176
-0.985082, 381, 185, 412, 248
-0.985094, 85, 209, 116, 272
-0.985194, 277, 281, 308, 344
-0.985219, 61, 121, 92, 184
-0.985277, 81, 145, 112, 208
-0.985285, 209, 145, 240, 208
-0.985443, 145, 249, 176, 312
-0.985457, 1, 105, 32, 168
-0.985489, 209, 73, 336, 136
-0.985507, 1, 281, 128, 344
-0.985552, 305, 161, 432, 224
-0.985555, 157, 281, 188, 344
-0.985578, 317, 105, 348, 168
-0.985586, 289, 1, 352, 256
-0.985635, 273, 161, 304, 288
-0.985782, 113, 129, 176, 375
-0.985792, 113, 89, 240, 152
-0.985802, 157, 249, 188, 312
-0.985837, 161, 161, 224, 224
-0.985899, 369, 161, 496, 224
-0.986003, 33, 217, 64, 280
-0.986094, 209, 209, 336, 272
-0.986133, 305, 1, 368, 375
-0.986225, 17, 209, 144, 272
-0.986227, 405, 281, 436, 344
-0.98623, 265, 225, 296, 288
-0.986268, 453, 177, 484, 304
-0.986301, 1, 137, 128, 200
-0.986323, 297, 153, 360, 216
-0.986328, 33, 73, 160, 136
-0.9864, 345, 177, 376, 240
-0.986412, 221, 305, 252, 368
-0.986502, 345, 113, 376, 176
-0.986601, 201, 281, 232, 344
-0.986684, 197, 169, 228, 232
-0.986686, 69, 225, 100, 288
-0.986832, 261, 313, 292, 375
-0.986926, 25, 1, 88, 375
-0.986989, 57, 1, 120, 375
-0.987036, 273, 121, 304, 184
-0.987041, 157, 161, 188, 288
-0.987161, 81, 273, 112, 336
-0.987183, 189, 273, 220, 336
-0.987229, 281, 257, 312, 320
-0.987251, 137, 241, 168, 368
-0.987285, 285, 145, 316, 208
-0.987315, 401, 241, 432, 368
-0.987315, 241, 209, 304, 272
-0.987332, 85, 81, 116, 208
-0.987352, 9, 57, 40, 120
-0.987362, 305, 97, 336, 160
-0.987403, 409, 169, 440, 232
-0.987463, 257, 161, 384, 224
-0.987523, 49, 105, 80, 168
-0.98754, 345, 281, 376, 344
-0.987623, 233, 209, 264, 272
-0.987653, 297, 305, 360, 368
-0.987733, 121, 177, 152, 240
-0.987742, 321, 161, 352, 288
-0.987817, 337, 1, 400, 256
-0.987822, 57, 217, 88, 280
-0.987834, 185, 249, 216, 312
-0.98785, 101, 257, 132, 320
-0.987867, 205, 305, 236, 368
-0.987874, 329, 105, 360, 168
-0.987875, 45, 209, 76, 336
-0.987996, 113, 297, 144, 360
-0.988069, 49, 121, 176, 184
-0.988079, 365, 121, 396, 184
-0.988102, 297, 193, 328, 320
-0.988106, 465, 193, 496, 256
-0.988124, 449, 129, 480, 192
-0.988148, 349, 233, 380, 296
-0.988176, 221, 153, 252, 216
-0.988192, 273, 145, 304, 208
-0.988193, 209, 33, 272, 288
-0.988378, 177, 33, 240, 288
-0.988433, 437, 225, 468, 352
-0.988459, 289, 89, 416, 152
-0.988477, 385, 241, 448, 272
-0.988549, 145, 113, 272, 176
-0.988553, 69, 273, 100, 336
-0.988664, 249, 297, 312, 328
-0.988688, 97, 185, 224, 248
-0.988713, 309, 177, 340, 240
-0.988756, 121, 209, 152, 272
-0.988773, 361, 249, 424, 280
-0.988774, 233, 49, 264, 176
-0.988825, 145, 185, 272, 248
-0.988847, 97, 209, 128, 272
-0.988848, 225, 257, 480, 320
-0.988902, 305, 265, 368, 296
-0.988914, 133, 81, 164, 208
-0.988947, 313, 281, 376, 312
-0.989019, 209, 1, 272, 375
-0.989066, 273, 281, 336, 312
-0.989083, 177, 277, 240, 308
-0.989093, 153, 97, 216, 352
-0.989135, 1, 85, 64, 116
-0.989162, 161, 65, 288, 128
-0.989278, 209, 1, 336, 128
-0.989305, 249, 97, 312, 128
-0.989343, 97, 33, 160, 160
-0.989358, 345, 261, 408, 292
-0.989372, 289, 105, 352, 136
-0.989403, 41, 297, 104, 360
-0.989413, 33, 305, 160, 368
-0.989419, 281, 269, 344, 300
-0.98947, 321, 33, 448, 160
-0.989471, 97, 81, 128, 208
-0.989532, 393, 257, 456, 288
-0.989547, 345, 277, 408, 308
-0.989611, 17, 133, 80, 164
-0.989611, 161, 265, 224, 296
-0.989674, 109, 161, 140, 288
-0.989688, 225, 301, 288, 332
-0.989712, 465, 97, 496, 224
-0.989717, 225, 281, 480, 344
-0.989721, 281, 257, 344, 288
-0.989726, 121, 129, 152, 256
-0.989727, 361, 1, 424, 256
-0.989756, 1, 113, 64, 144
-0.989772, 129, 273, 384, 336
-0.989784, 241, 313, 368, 375
-0.989801, 49, 273, 112, 304
-0.989808, 89, 281, 152, 312
-0.989824, 225, 281, 288, 312
-0.989824, 21, 193, 52, 320
-0.989838, 393, 229, 456, 260
-0.989855, 201, 285, 264, 316
-0.98987, 57, 241, 120, 272
-0.990003, 261, 129, 292, 256
-0.990024, 201, 273, 264, 304
-0.990036, 369, 261, 432, 292
-0.990086, 233, 137, 296, 168
-0.990089, 105, 65, 168, 128
-0.990105, 337, 113, 464, 176
-0.990124, 153, 281, 216, 312
-0.990179, 65, 285, 128, 316
-0.990223, 393, 269, 456, 300
-0.990238, 417, 33, 480, 288
-0.990309, 129, 285, 192, 316
-0.990321, 201, 301, 264, 332
-0.990327, 65, 253, 128, 284
-0.990328, 417, 229, 480, 260
-0.990341, 273, 181, 336, 212
-0.990345, 1, 97, 64, 128
-0.990362, 1, 241, 500, 304
-0.990388, 185, 257, 248, 288
-0.990398, 33, 161, 96, 192
-0.990442, 353, 297, 416, 360
-0.990446, 57, 153, 120, 184
-0.990458, 97, 65, 224, 128
-0.990462, 425, 217, 488, 248
-0.99049, 65, 177, 128, 240
-0.990508, 417, 145, 480, 176
-0.990516, 337, 1, 400, 375
-0.990524, 377, 281, 440, 312
-0.990525, 17, 17, 48, 144
-0.990562, 1, 185, 64, 216
-0.990567, 337, 297, 464, 360
-0.99059, 281, 293, 344, 324
-0.990596, 41, 129, 104, 160
-0.990614, 245, 177, 276, 304
-0.990652, 337, 249, 400, 280
-0.99066, 89, 241, 152, 272
-0.990708, 41, 89, 104, 120
-0.990711, 201, 93, 264, 124
-0.990739, 185, 169, 248, 200
-0.990759, 41, 253, 104, 284
-0.990769, 313, 113, 376, 144
-0.990772, 433, 185, 496, 216
-0.990783, 425, 197, 488, 228
-0.990785, 409, 241, 472, 272
-0.990789, 17, 173, 80, 204
-0.990808, 345, 289, 408, 320
-0.990819, 361, 237, 424, 268
-0.990826, 249, 237, 312, 268
-0.990839, 81, 97, 144, 128
-0.990844, 353, 189, 416, 220
-0.990866, 193, 113, 320, 176
-0.990866, 233, 121, 296, 152
-0.990878, 25, 113, 88, 144
-0.990879, 177, 309, 240, 340
-0.990881, 169, 65, 232, 128
-0.990888, 193, 189, 256, 220
-0.990896, 209, 145, 272, 176
-0.990925, 145, 81, 176, 208
-0.990956, 393, 137, 456, 168
-0.990987, 97, 301, 160, 332
-0.990988, 305, 185, 368, 216
-0.991002, 1, 205, 64, 236
-0.991024, 361, 1, 424, 375
-0.991048, 33, 145, 96, 176
-0.991048, 197, 81, 228, 208
-0.991064, 129, 93, 192, 124
-0.991065, 409, 1, 472, 375
-0.991066, 241, 269, 304, 300
-0.991077, 401, 217, 464, 248
-0.99108, 209, 133, 272, 164
-0.991086, 209, 161, 272, 192
-0.991102, 369, 129, 432, 160
-0.991155, 185, 153, 248, 184
-0.991181, 233, 205, 296, 236
-0.991232, 345, 121, 408, 152
-0.991242, 265, 221, 328, 252
-0.991273, 233, 313, 296, 344
-0.991295, 249, 281, 312, 312
-0.991318, 273, 169, 336, 200
-0.991337, 233, 149, 296, 180
-0.991341, 105, 93, 168, 124
-0.991343, 73, 225, 136, 256
-0.991349, 113, 241, 176, 272
-0.991354, 17, 245, 80, 276
-0.991358, 305, 301, 368, 332
-0.99136, 233, 177, 296, 208
-0.991361, 233, 109, 296, 140
-0.991363, 121, 257, 184, 288
-0.991365, 273, 33, 304, 160
-0.991389, 113, 273, 176, 304
-0.991398, 129, 233, 384, 296
-0.991406, 153, 253, 216, 284
-0.991414, 233, 193, 296, 224
-0.991429, 113, 33, 176, 288
-0.991441, 385, 193, 448, 224
-0.991442, 25, 217, 88, 248
-0.991444, 41, 101, 104, 132
-0.991454, 57, 141, 120, 172
-0.991461, 81, 269, 144, 300
-0.991464, 209, 173, 272, 204
-0.991465, 433, 157, 496, 188
-0.991495, 233, 85, 296, 116
-0.991506, 161, 93, 224, 124
-0.99151, 225, 121, 480, 184
-0.991512, 273, 121, 336, 152
-0.991513, 209, 253, 272, 284
-0.991517, 25, 205, 88, 236
-0.99152, 313, 1, 376, 256
-0.99154, 433, 81, 464, 208
-0.991598, 241, 249, 304, 280
-0.991608, 273, 93, 336, 124
-0.99162, 257, 313, 320, 344
-0.991628, 121, 121, 184, 184
-0.991638, 273, 193, 336, 224
-0.991639, 265, 209, 328, 240
-0.991655, 1, 89, 256, 152
-0.991657, 185, 209, 248, 240
-0.991683, 29, 17, 60, 144
-0.991692, 81, 153, 144, 184
-0.991707, 25, 185, 88, 216
-0.991718, 225, 97, 288, 128
-0.991755, 249, 161, 312, 192
-0.99176, 417, 81, 448, 208
-0.991794, 385, 177, 448, 208
-0.991814, 97, 89, 352, 152
-0.991826, 17, 261, 80, 292
-0.991833, 289, 313, 416, 375
-0.991837, 313, 253, 376, 284
-0.991849, 113, 213, 176, 244
-0.991849, 57, 209, 120, 240
-0.991852, 257, 185, 500, 248
-0.99186, 321, 201, 384, 264
-0.991865, 417, 269, 480, 300
-0.99189, 141, 161, 172, 288
-0.991909, 1, 161, 256, 224
-0.991949, 433, 173, 496, 204
-0.991961, 365, 65, 396, 192
-0.991977, 153, 309, 216, 340
-0.99199, 401, 281, 464, 312
-0.991991, 49, 113, 112, 144
-0.991999, 1, 249, 256, 312
-0.992007, 369, 217, 432, 248
-0.992041, 1, 265, 500, 328
-0.992065, 1, 97, 500, 160
-0.992087, 5, 193, 36, 320
-0.992106, 413, 233, 444, 264
-0.992134, 285, 33, 316, 160
-0.992136, 353, 65, 384, 192
-0.992162, 253, 33, 284, 160
-0.992188, 401, 241, 432, 272
-0.992191, 97, 177, 128, 304
-0.992205, 257, 297, 288, 328
-0.992219, 97, 153, 352, 216
-0.992229, 97, 1, 160, 375
-0.99223, 361, 269, 392, 300
-0.992308, 321, 137, 448, 200
-0.992312, 361, 201, 392, 232
-0.992319, 469, 157, 500, 188
-0.992342, 53, 249, 84, 280
-0.992344, 389, 241, 420, 272
-0.992349, 421, 245, 452, 276
-0.992376, 373, 261, 404, 292
-0.992378, 293, 101, 324, 132
-0.992385, 349, 277, 380, 308
-0.992385, 189, 265, 220, 296
-0.992417, 321, 285, 352, 316
-0.992454, 209, 173, 240, 204
-0.992459, 293, 253, 324, 284
-0.992473, 245, 301, 276, 332
-0.992473, 1, 113, 256, 176
-0.992487, 469, 177, 500, 208
-0.992499, 97, 241, 128, 368
-0.992514, 377, 201, 408, 232
-0.992551, 317, 269, 348, 300
-0.992556, 237, 285, 268, 316
-0.992567, 421, 221, 452, 252
-0.992569, 425, 233, 456, 264
-0.992569, 225, 125, 256, 156
-0.992572, 461, 141, 492, 172
-0.992578, 361, 189, 392, 220
-0.992584, 29, 101, 60, 132
-0.992584, 389, 253, 420, 284
-0.992593, 17, 85, 48, 116
-0.992599, 29, 85, 60, 116
-0.992599, 33, 49, 160, 112
-0.992615, 365, 249, 396, 280
-0.992619, 1, 85, 32, 116
-0.992622, 341, 261, 372, 292
-0.992639, 1, 133, 32, 164
-0.992648, 265, 233, 296, 264
-0.99265, 157, 281, 188, 312
-0.992651, 9, 185, 40, 216
-0.992654, 337, 281, 368, 312
-0.992655, 273, 269, 400, 300
-0.992657, 61, 149, 92, 180
-0.992664, 277, 281, 308, 312
-0.992669, 441, 221, 472, 252
-0.992676, 469, 193, 500, 224
-0.992677, 353, 257, 384, 288
-0.992679, 377, 277, 408, 308
-0.992684, 41, 165, 72, 196
-0.992705, 81, 277, 112, 308
-0.992712, 377, 249, 408, 280
-0.992714, 5, 173, 36, 204
-0.992728, 389, 269, 420, 300
-0.992746, 81, 237, 112, 268
-0.992751, 265, 93, 296, 124
-0.992757, 405, 253, 436, 284
-0.992762, 233, 305, 264, 336
-0.992762, 269, 293, 300, 324
-0.992768, 381, 189, 412, 220
-0.992771, 157, 81, 188, 208
-0.992781, 97, 193, 352, 256
-0.992781, 229, 97, 260, 128
-0.992782, 113, 301, 144, 332
-0.992791, 17, 133, 48, 164
-0.992792, 209, 273, 240, 304
-0.992795, 401, 229, 432, 260
-0.992804, 45, 133, 76, 164
-0.992804, 5, 97, 36, 128
-0.992806, 277, 213, 308, 244
-0.99281, 329, 265, 360, 296
-0.992811, 189, 277, 220, 308
-0.992814, 113, 281, 144, 312
-0.992814, 197, 305, 228, 336
-0.992816, 197, 129, 228, 256
-0.992821, 57, 261, 88, 292
-0.992831, 69, 273, 100, 304
-0.992835, 377, 65, 408, 192
-0.992836, 169, 277, 200, 308
-0.992841, 321, 305, 384, 368
-0.992855, 449, 153, 480, 184
-0.992858, 273, 121, 304, 152
-0.992858, 29, 113, 60, 144
-0.992859, 413, 193, 444, 224
-0.99286, 285, 181, 316, 212
-0.992862, 221, 169, 252, 200
-0.992863, 237, 141, 268, 172
-0.992868, 145, 281, 176, 312
-0.992872, 69, 133, 100, 164
-0.992883, 361, 281, 392, 312
-0.992886, 433, 197, 464, 228
-0.992889, 217, 301, 248, 332
-0.992893, 93, 281, 124, 312
-0.992902, 1, 121, 32, 152
-0.992906, 313, 109, 344, 140
-0.992909, 453, 217, 484, 248
-0.992912, 81, 145, 112, 176
-0.992913, 85, 97, 116, 128
-0.992916, 389, 65, 420, 192
-0.992918, 93, 241, 124, 272
-0.992919, 249, 97, 280, 128
-0.992924, 257, 145, 500, 208
-0.992933, 17, 113, 48, 144
-0.992934, 21, 185, 52, 216
-0.992934, 5, 197, 36, 228
-0.992935, 425, 265, 456, 296
-0.992937, 401, 265, 432, 296
-0.99294, 109, 241, 140, 272
-0.992941, 397, 193, 428, 224
-0.992945, 129, 305, 384, 368
-0.992945, 129, 281, 160, 312
-0.992952, 453, 193, 484, 224
-0.992954, 101, 221, 132, 252
-0.992957, 57, 273, 88, 304
-0.992958, 217, 285, 248, 316
-0.99296, 281, 101, 312, 132
-0.992963, 217, 189, 248, 220
-0.992966, 409, 217, 440, 248
-0.992968, 249, 281, 280, 312
-0.99297, 221, 157, 252, 188
-0.992996, 33, 125, 64, 156
-0.992997, 177, 129, 208, 256
-0.993002, 421, 209, 452, 240
-0.993002, 41, 245, 72, 276
-0.993004, 133, 93, 164, 124
-0.993006, 185, 309, 216, 340
-0.993009, 285, 113, 316, 144
-0.993014, 217, 93, 248, 124
-0.99302, 17, 97, 48, 128
-0.993021, 205, 257, 236, 288
-0.993024, 45, 261, 76, 292
-0.993026, 301, 277, 332, 308
-0.993028, 173, 257, 204, 288
-0.993038, 121, 81, 152, 208
-0.993039, 65, 249, 96, 280
-0.993046, 393, 133, 424, 164
-0.993049, 21, 169, 52, 200
-0.993049, 429, 145, 460, 176
-0.993049, 457, 165, 488, 196
-0.993051, 329, 113, 360, 144
-0.993056, 53, 161, 84, 192
-0.993057, 233, 273, 264, 304
-0.993058, 405, 281, 436, 312
-0.993061, 449, 141, 480, 172
-0.993062, 441, 233, 472, 264
-0.99307, 185, 1, 248, 375
-0.993109, 465, 193, 496, 320
-0.993133, 385, 1, 448, 375
-0.993138, 433, 1, 496, 375
-0.99329, 193, 97, 448, 160
-0.993302, 209, 49, 240, 176
-0.993316, 97, 137, 224, 200
-0.993341, 33, 225, 288, 288
-0.993397, 129, 1, 192, 375
-0.993409, 225, 305, 480, 368
-0.993412, 431, 209, 446, 272
-0.993438, 1, 121, 500, 184
-0.993464, 273, 281, 400, 312
-0.993467, 353, 249, 480, 280
-0.993467, 273, 257, 400, 288
-0.993523, 153, 137, 216, 200
-0.993527, 393, 297, 456, 360
-0.993582, 321, 261, 448, 292
-0.993661, 33, 273, 288, 336
-0.9937, 245, 129, 276, 256
-0.993707, 73, 1, 136, 256
-0.993725, 1, 289, 500, 352
-0.993726, 309, 33, 340, 160
-0.993781, 225, 233, 480, 296
-0.993801, 321, 281, 448, 312
-0.993858, 85, 177, 116, 304
-0.993941, 445, 81, 476, 208
-0.993943, 345, 257, 360, 320
-0.99397, 395, 241, 410, 304
-0.994029, 109, 81, 140, 208
-0.994035, 323, 265, 338, 328
-0.994107, 97, 285, 224, 316
-0.994138, 1, 137, 256, 200
-0.994142, 193, 209, 448, 272
-0.994149, 339, 257, 354, 320
-0.994153, 1, 241, 64, 368
-0.994189, 409, 233, 424, 296
-0.994192, 193, 301, 320, 332
-0.994201, 161, 277, 288, 308
-0.994273, 431, 233, 446, 296
-0.994275, 273, 297, 400, 328
-0.994281, 481, 169, 496, 232
-0.994298, 97, 113, 224, 176
-0.994334, 1, 161, 500, 224
-0.994367, 193, 245, 320, 276
-0.994385, 361, 249, 376, 312
-0.99441, 421, 217, 436, 280
-0.994414, 59, 241, 74, 304
-0.994456, 337, 213, 464, 244
-0.994457, 145, 1, 272, 128
-0.994475, 137, 33, 200, 160
-0.994515, 415, 185, 430, 248
-0.994532, 227, 177, 242, 240
-0.994535, 437, 217, 452, 280
-0.994542, 329, 49, 360, 176
-0.994569, 333, 265, 348, 328
-0.994605, 239, 89, 254, 152
-0.994615, 225, 101, 352, 132
-0.994628, 45, 81, 60, 144
-0.994681, 379, 249, 394, 312
-0.994696, 233, 177, 248, 240
-0.994706, 161, 1, 224, 375
-0.994715, 351, 257, 366, 320
-0.994738, 419, 241, 434, 304
-0.99475, 193, 265, 320, 296
-0.994758, 1, 185, 256, 248
-0.994793, 289, 153, 304, 216
-0.994795, 81, 93, 208, 124
-0.994801, 49, 241, 176, 272
-0.994801, 353, 89, 480, 152
-0.994812, 341, 49, 372, 176
-0.994848, 169, 33, 232, 160
-0.994853, 49, 285, 176, 316
-0.994891, 209, 181, 336, 212
-0.994897, 425, 241, 440, 304
-0.994899, 97, 129, 128, 256
-0.994907, 5, 129, 20, 192
-0.994917, 257, 57, 384, 120
-0.994918, 1, 217, 500, 280
-0.994933, 225, 289, 352, 320
-0.994933, 297, 33, 328, 160
-0.994936, 245, 97, 260, 160
-0.994965, 401, 265, 416, 328
-0.99497, 33, 297, 288, 360
-0.994985, 401, 65, 432, 192
-0.995007, 425, 193, 440, 256
-0.995016, 475, 169, 490, 232
-0.995019, 185, 81, 216, 208
-0.99503, 353, 237, 480, 268
-0.995051, 371, 249, 386, 312
-0.995077, 279, 89, 294, 152
-0.995114, 409, 209, 424, 272
-0.995115, 121, 273, 136, 336
-0.995119, 257, 185, 384, 216
-0.995124, 465, 145, 480, 208
-0.995137, 193, 193, 320, 224
-0.995149, 1, 93, 128, 124
-0.995156, 291, 257, 306, 320
-0.995175, 33, 253, 160, 284
-0.995177, 177, 221, 304, 252
-0.995194, 401, 241, 416, 304
-0.995219, 393, 1, 456, 256
-0.995228, 473, 145, 488, 208
-0.995233, 369, 273, 496, 304
-0.995248, 233, 121, 248, 184
-0.995257, 409, 97, 440, 352
-0.995259, 465, 185, 480, 248
-0.995263, 385, 241, 400, 304
-0.995266, 87, 249, 102, 312
-0.995274, 257, 209, 384, 240
-0.995282, 289, 97, 304, 160
-0.995287, 305, 245, 432, 276
-0.995291, 409, 257, 424, 320
-0.995293, 295, 97, 310, 160
-0.995296, 239, 113, 254, 176
-0.995311, 391, 265, 406, 328
-0.995317, 251, 97, 266, 160
-0.995321, 403, 193, 418, 256
-0.995325, 129, 93, 256, 124
-0.995329, 357, 97, 388, 352
-0.995336, 73, 33, 136, 160
-0.995338, 1, 185, 500, 248
-0.995347, 239, 137, 254, 200
-0.995349, 129, 309, 256, 340
-0.995351, 297, 145, 328, 272
-0.995357, 367, 177, 382, 240
-0.995378, 439, 193, 454, 256
-0.995378, 121, 233, 136, 296
-0.995379, 77, 249, 92, 312
-0.995385, 447, 193, 462, 256
-0.995391, 233, 209, 248, 272
-0.995402, 385, 97, 416, 352
-0.995409, 1, 81, 16, 144
-0.995414, 39, 169, 54, 232
-0.99542, 345, 97, 376, 352
-0.995434, 297, 65, 328, 320
-0.99549, 5, 169, 20, 232
-0.99549, 445, 225, 460, 288
-0.995496, 211, 249, 226, 312
-0.995498, 145, 169, 272, 200
-0.995498, 27, 177, 42, 240
-0.995512, 173, 249, 188, 312
-0.995513, 33, 153, 160, 184
-0.99553, 233, 153, 248, 216
-0.995574, 67, 241, 82, 304
-0.995582, 389, 121, 404, 184
-0.995618, 227, 225, 242, 288
-0.995621, 339, 281, 354, 344
-0.995624, 131, 257, 146, 320
-0.995627, 437, 241, 452, 304
-0.995633, 321, 289, 336, 352
-0.995644, 225, 277, 352, 308
-0.995646, 63, 145, 78, 208
-0.995646, 235, 249, 250, 312
-0.995648, 17, 177, 32, 240
-0.995675, 71, 129, 86, 192
-0.995678, 257, 137, 384, 200
-0.995682, 1, 65, 256, 128
-0.995684, 395, 201, 410, 264
-0.99569, 251, 273, 266, 336
-0.995709, 299, 249, 314, 312
-0.995721, 369, 273, 384, 336
-0.99574, 289, 117, 416, 148
-0.995753, 457, 193, 472, 256
-0.995757, 285, 273, 300, 336
-0.995758, 311, 257, 326, 320
-0.995765, 13, 89, 28, 152
-0.995772, 451, 145, 466, 208
-0.995773, 233, 1, 264, 128
-0.995777, 369, 137, 496, 168
-0.995777, 271, 217, 286, 280
-0.995782, 265, 281, 280, 344
-0.995783, 481, 145, 496, 208
-0.995799, 177, 93, 304, 124
-0.995805, 241, 273, 256, 336
-0.995808, 7, 193, 22, 256
-0.995814, 59, 265, 74, 328
-0.995817, 317, 265, 332, 328
-0.995822, 313, 97, 344, 352
-0.99583, 243, 241, 258, 304
-0.995831, 173, 81, 204, 208
-0.995839, 375, 273, 390, 336
-0.995844, 145, 153, 272, 184
-0.995848, 85, 225, 100, 288
-0.995854, 369, 97, 400, 352
-0.995859, 213, 281, 228, 344
-0.99587, 369, 193, 496, 224
-0.995879, 385, 265, 400, 328
-0.995892, 27, 201, 42, 264
-0.995895, 271, 289, 286, 352
-0.995898, 257, 281, 272, 344
-0.995903, 329, 289, 344, 352
-0.995905, 27, 81, 42, 144
-0.99591, 439, 137, 454, 200
-0.995914, 457, 153, 472, 216
-0.995915, 19, 81, 34, 144
-0.995919, 55, 161, 70, 224
-0.995928, 9, 57, 24, 120
-0.995931, 49, 301, 176, 332
-0.995936, 333, 97, 364, 352
-0.995944, 225, 313, 352, 344
-0.995947, 405, 129, 420, 192
-0.995948, 233, 89, 248, 152
-0.995952, 95, 217, 110, 280
-0.995954, 1, 313, 500, 375
-0.995955, 49, 129, 64, 192
-0.995958, 249, 241, 264, 304
-0.995969, 397, 129, 412, 192
-0.995971, 21, 129, 36, 192
-0.996013, 385, 177, 400, 240
-0.99602, 183, 249, 198, 312
-0.996021, 291, 129, 306, 192
-0.996021, 177, 205, 304, 236
-0.996026, 429, 137, 444, 200
-0.996036, 377, 201, 392, 264
-0.996057, 1, 181, 128, 212
-0.996064, 261, 305, 276, 368
-0.996067, 307, 97, 322, 160
-0.996101, 97, 297, 224, 328
-0.996104, 285, 65, 316, 320
-0.996108, 321, 189, 448, 220
-0.99612, 383, 121, 398, 184
-0.99612, 97, 1, 224, 128
-0.996126, 305, 249, 320, 312
-0.996139, 33, 105, 160, 136
-0.99615, 45, 161, 60, 224
-0.996155, 15, 129, 30, 192
-0.996155, 235, 273, 250, 336
-0.996159, 115, 233, 130, 296
-0.996171, 1, 125, 128, 156
-0.996189, 345, 281, 360, 344
-0.996189, 277, 297, 292, 360
-0.996193, 53, 249, 68, 312
-0.996219, 433, 185, 448, 248
-0.996226, 39, 137, 54, 200
-0.996233, 209, 165, 336, 196
-0.996243, 163, 233, 178, 296
-0.99625, 369, 225, 496, 256
-0.996256, 113, 257, 240, 288
-0.996268, 1, 169, 128, 200
-0.996299, 33, 273, 160, 304
-0.996363, 97, 129, 352, 192
-0.996396, 369, 261, 496, 292
-0.996428, 1, 33, 32, 288
-0.996463, 17, 221, 144, 252
-0.996476, 85, 129, 116, 256
-0.996477, 33, 81, 160, 112
-0.996483, 69, 129, 100, 375
-0.996514, 257, 197, 384, 228
-0.996528, 113, 221, 240, 252
-0.996538, 273, 129, 304, 375
-0.99654, 397, 97, 428, 352
-0.996546, 1, 205, 128, 236
-0.996592, 305, 65, 432, 128
-0.996611, 113, 273, 240, 304
-0.99663, 217, 129, 248, 375
-0.996652, 145, 141, 272, 172
-0.996652, 229, 129, 260, 375
-0.996699, 261, 65, 292, 320
-0.996774, 177, 317, 304, 348
-0.996782, 37, 97, 68, 352
-0.996791, 193, 137, 320, 168
-0.996801, 241, 113, 368, 144
-0.996808, 369, 169, 496, 200
-0.996817, 97, 209, 224, 240
-0.996827, 209, 233, 336, 264
-0.996832, 113, 237, 240, 268
-0.996849, 145, 185, 272, 216
-0.996864, 241, 97, 272, 352
-0.996867, 145, 289, 272, 320
-0.9969, 65, 221, 192, 252
-0.996933, 49, 129, 80, 375
-0.996939, 1, 137, 128, 168
-0.99694, 321, 129, 448, 160
-0.996942, 305, 173, 432, 204
-0.996981, 435, 241, 450, 272
-0.997004, 369, 157, 496, 188
-0.997021, 81, 153, 208, 184
-0.99704, 1, 237, 128, 268
-0.997074, 479, 157, 494, 188
-0.997088, 321, 293, 448, 324
-0.997113, 427, 229, 442, 260
-0.997117, 97, 65, 352, 128
-0.99712, 21, 65, 52, 320
-0.997141, 59, 245, 74, 276
-0.997187, 177, 81, 304, 112
-0.997197, 97, 173, 224, 204
-0.997205, 145, 129, 272, 160
-0.997215, 421, 233, 436, 264
-0.997219, 225, 125, 352, 156
-0.997242, 321, 225, 448, 256
-0.99725, 1, 285, 128, 316
-0.997274, 407, 237, 422, 268
-0.997286, 113, 321, 240, 352
-0.997316, 209, 153, 336, 184
-0.997323, 359, 273, 374, 304
-0.997326, 9, 129, 40, 375
-0.997345, 257, 233, 384, 264
-0.997345, 433, 97, 464, 352
-0.997351, 375, 249, 390, 280
-0.997351, 267, 293, 282, 324
-0.997363, 483, 193, 498, 224
-0.997367, 7, 189, 22, 220
-0.997368, 415, 233, 430, 264
-0.997371, 237, 289, 252, 320
-0.997374, 97, 185, 224, 216
-0.997378, 421, 129, 452, 375
-0.997379, 273, 225, 288, 256
-0.997379, 435, 225, 450, 256
-0.997388, 369, 345, 496, 375
-0.997389, 1, 189, 16, 220
-0.997393, 383, 245, 398, 276
-0.9974, 351, 277, 366, 308
-0.997402, 295, 101, 310, 132
-0.997416, 17, 193, 144, 224
-0.997441, 49, 121, 176, 152
-0.997445, 401, 241, 416, 272
-0.997453, 321, 289, 336, 320
-0.997454, 205, 97, 236, 352
-0.997462, 43, 85, 58, 116
-0.997474, 257, 221, 384, 252
-0.997485, 365, 269, 380, 300
-0.997496, 485, 157, 500, 188
-0.997498, 163, 281, 178, 312
-0.997507, 49, 141, 176, 172
-0.997515, 389, 241, 404, 272
-0.997517, 403, 193, 418, 224
-0.997547, 257, 173, 384, 204
-0.99755, 367, 253, 382, 284
-0.997553, 253, 301, 268, 332
-0.997554, 209, 269, 224, 300
-0.997554, 369, 285, 496, 316
-0.997556, 371, 265, 386, 296
-0.997559, 239, 121, 254, 152
-0.997564, 429, 241, 444, 272
-0.997565, 379, 261, 394, 292
-0.997572, 471, 145, 486, 176
-0.997591, 259, 297, 274, 328
-0.997591, 273, 293, 288, 324
-0.997596, 369, 189, 384, 220
-0.997605, 1, 85, 16, 116
-0.997616, 485, 177, 500, 208
-0.997623, 241, 97, 256, 128
-0.997623, 113, 81, 240, 112
-0.997648, 357, 257, 372, 288
-0.997648, 247, 105, 262, 136
-0.99765, 29, 85, 44, 116
-0.997652, 273, 33, 304, 288
-0.997653, 479, 169, 494, 200
-0.997657, 1, 73, 500, 136
-0.997664, 19, 85, 34, 116
-0.997665, 443, 221, 458, 252
-0.997672, 335, 285, 350, 316
-0.997676, 233, 177, 248, 208
-0.997682, 9, 85, 24, 116
-0.997682, 201, 265, 216, 296
-0.997701, 395, 241, 410, 272
-0.997712, 473, 169, 488, 200
-0.997713, 157, 281, 172, 312
-0.997719, 25, 101, 40, 132
-0.997722, 289, 101, 304, 132
-0.99774, 91, 277, 106, 308
-0.997748, 369, 181, 496, 212
-0.997758, 225, 89, 352, 120
-0.997759, 49, 205, 176, 236
-0.997759, 421, 245, 436, 276
-0.99776, 385, 257, 400, 288
-0.997763, 129, 197, 256, 228
-0.997765, 171, 277, 186, 308
-0.997765, 369, 33, 496, 160
-0.99777, 3, 133, 18, 164
-0.997774, 3, 117, 18, 148
-0.997779, 393, 253, 408, 284
-0.997784, 57, 257, 72, 288
-0.997794, 395, 201, 410, 232
-0.997797, 349, 261, 364, 292
-0.9978, 343, 281, 358, 312
-0.997809, 399, 269, 414, 300
-0.997812, 239, 305, 254, 336
-0.997818, 5, 177, 20, 208
-0.997828, 319, 273, 334, 304
-0.997832, 427, 193, 442, 224
-0.997835, 7, 201, 22, 232
-0.997837, 47, 113, 62, 144
-0.997838, 389, 277, 404, 308
-0.99784, 415, 193, 430, 224
-0.997843, 433, 205, 448, 236
-0.997848, 127, 281, 142, 312
-0.99785, 145, 105, 272, 136
-0.997861, 49, 169, 176, 200
-0.997864, 289, 149, 304, 180
-0.997865, 289, 169, 304, 200
-0.997868, 225, 33, 256, 288
-0.99788, 425, 209, 440, 240
-0.997882, 369, 281, 384, 312
-0.997882, 477, 197, 492, 228
-0.997883, 193, 97, 224, 352
-0.997885, 329, 289, 344, 320
-0.997885, 407, 249, 422, 280
-0.997886, 67, 249, 82, 280
-0.997887, 35, 97, 50, 128
-0.997898, 461, 153, 476, 184
-0.997898, 377, 201, 392, 232
-0.997898, 399, 253, 414, 284
-0.997902, 361, 201, 376, 232
-0.997906, 385, 189, 400, 220
-0.997907, 253, 97, 268, 128
-0.997908, 47, 97, 62, 128
-0.99791, 413, 245, 428, 276
-0.997914, 341, 265, 356, 296
-0.997918, 235, 93, 250, 124
-0.99792, 199, 309, 214, 340
-0.997921, 131, 293, 146, 324
-0.997927, 239, 277, 254, 308
-0.997929, 223, 189, 238, 220
-0.997929, 85, 277, 100, 308
-0.997932, 473, 181, 488, 212
-0.997944, 1, 97, 16, 128
-0.997945, 291, 257, 306, 288
-0.997951, 469, 193, 484, 224
-0.997958, 235, 165, 250, 196
-0.997962, 215, 273, 230, 304
-0.997966, 463, 137, 478, 168
-0.997967, 81, 65, 112, 320
-0.997971, 87, 233, 102, 264
-0.997978, 27, 113, 42, 144
-0.997978, 15, 181, 30, 212
-0.997981, 479, 181, 494, 212
-0.997982, 21, 113, 36, 144
-0.997999, 407, 265, 422, 296
-0.998001, 215, 305, 230, 336
-0.998017, 193, 265, 208, 296
-0.998018, 213, 257, 228, 288
-0.998019, 209, 281, 224, 312
-0.998022, 325, 269, 340, 300
-0.998023, 247, 301, 262, 332
-0.998023, 225, 241, 240, 272
-0.998024, 267, 229, 282, 260
-0.998026, 469, 157, 484, 188
-0.998028, 297, 253, 312, 284
-0.99803, 121, 269, 136, 300
-0.998032, 41, 169, 56, 200
-0.998032, 215, 169, 230, 200
-0.998035, 97, 277, 112, 308
-0.998038, 229, 189, 244, 220
-0.998048, 161, 233, 288, 264
-0.998116, 257, 73, 500, 136
-0.998161, 273, 309, 400, 340
-0.998166, 129, 129, 160, 375
-0.998166, 289, 89, 416, 120
-0.998171, 65, 313, 192, 344
-0.99819, 57, 1, 88, 256
-0.998194, 41, 1, 72, 256
-0.998199, 321, 101, 448, 132
-0.998215, 457, 97, 488, 352
-0.998229, 161, 117, 288, 148
-0.998243, 241, 245, 368, 276
-0.998288, 1, 297, 128, 328
-0.998298, 313, 1, 344, 256
-0.998308, 209, 49, 336, 112
-0.998387, 353, 113, 480, 144
-0.998412, 57, 283, 88, 298
-0.998413, 401, 233, 432, 248
-0.998413, 397, 135, 428, 150
-0.998414, 313, 263, 344, 278
-0.998417, 21, 101, 52, 116
-0.998418, 277, 287, 308, 302
-0.998418, 393, 241, 456, 256
-0.998418, 213, 181, 244, 196
-0.998419, 173, 257, 204, 272
-0.998419, 245, 99, 276, 114
-0.998419, 337, 117, 368, 132
-0.99842, 449, 227, 480, 242
-0.99842, 273, 121, 304, 136
-0.99842, 437, 197, 468, 212
-0.998421, 453, 195, 484, 210
-0.998421, 237, 281, 268, 296
-0.998422, 281, 307, 312, 322
-0.998422, 353, 285, 384, 300
-0.998423, 329, 285, 392, 300
-0.998423, 285, 183, 316, 198
-0.998424, 1, 97, 32, 112
-0.998424, 421, 219, 452, 234
-0.998424, 53, 265, 84, 280
-0.998424, 373, 127, 404, 142
-0.998425, 317, 269, 348, 284
-0.998425, 221, 95, 252, 110
-0.998426, 237, 307, 268, 322
-0.998428, 189, 271, 220, 286
-0.998428, 437, 233, 468, 248
-0.998429, 449, 151, 480, 166
-0.998429, 393, 213, 424, 228
-0.99843, 333, 265, 364, 280
-0.99843, 373, 269, 404, 284
-0.99843, 265, 301, 296, 316
-0.998431, 225, 135, 256, 150
-0.998431, 193, 257, 224, 272
-0.998432, 21, 175, 52, 190
-0.998432, 117, 253, 148, 268
-0.998434, 41, 169, 72, 184
-0.998435, 293, 263, 324, 278
-0.998437, 241, 299, 304, 314
-0.998437, 57, 275, 88, 290
-0.998439, 13, 219, 44, 234
-0.99844, 5, 173, 36, 188
-0.99844, 361, 253, 424, 268
-0.99844, 233, 97, 264, 112
-0.99844, 33, 111, 64, 126
-0.998441, 197, 171, 228, 186
-0.998441, 9, 85, 40, 100
-0.998442, 317, 111, 348, 126
-0.998443, 305, 107, 336, 122
-0.998444, 205, 257, 236, 272
-0.998444, 33, 131, 64, 146
-0.998444, 361, 253, 392, 268
-0.998446, 469, 151, 500, 166
-0.998446, 409, 261, 440, 276
-0.998447, 5, 179, 36, 194
-0.998447, 273, 293, 304, 308
-0.998448, 469, 175, 500, 190
-0.998449, 221, 169, 252, 184
-0.998449, 369, 247, 432, 262
-0.99845, 281, 263, 344, 278
-0.99845, 65, 253, 128, 268
-0.99845, 1, 215, 32, 230
-0.998451, 113, 283, 144, 298
-0.998451, 197, 307, 228, 322
-0.998452, 425, 353, 456, 368
-0.998453, 225, 251, 256, 266
-0.998453, 249, 99, 312, 114
-0.998453, 469, 157, 500, 172
-0.998453, 393, 249, 456, 264
-0.998454, 161, 281, 224, 296
-0.998458, 337, 1, 368, 256
-0.998458, 377, 259, 440, 274
-0.998459, 373, 281, 404, 296
-0.998459, 317, 293, 348, 308
-0.998462, 449, 221, 480, 236
-0.998462, 17, 135, 48, 150
-0.998466, 5, 195, 36, 210
-0.998467, 305, 269, 368, 284
-0.998467, 109, 277, 140, 292
-0.998468, 137, 287, 168, 302
-0.998469, 5, 185, 36, 200
-0.99847, 89, 281, 152, 296
-0.998471, 81, 155, 112, 170
-0.998472, 89, 99, 120, 114
-0.998474, 57, 157, 120, 172
-0.998474, 425, 225, 488, 240
-0.998474, 93, 283, 124, 298
-0.998475, 189, 281, 220, 296
-0.998475, 413, 229, 444, 244
-0.998477, 5, 201, 36, 216
-0.998477, 113, 303, 144, 318
-0.998479, 321, 161, 448, 192
-0.998479, 289, 107, 352, 122
-0.998479, 265, 97, 296, 112
-0.99848, 453, 141, 484, 156
-0.99848, 33, 101, 64, 116
-0.998482, 61, 159, 92, 174
-0.998482, 1, 129, 64, 144
-0.998484, 409, 249, 440, 264
-0.998485, 69, 275, 100, 290
-0.998486, 41, 251, 104, 266
-0.998486, 329, 263, 392, 278
-0.998487, 45, 253, 76, 268
-0.99849, 465, 189, 496, 204
-0.99849, 225, 129, 256, 144
-0.99849, 33, 87, 64, 102
-0.998491, 21, 129, 52, 144
-0.998491, 233, 301, 264, 316
-0.998494, 201, 281, 264, 296
-0.998495, 221, 301, 252, 316
-0.998496, 233, 295, 264, 310
-0.998496, 333, 287, 364, 302
-0.998497, 305, 289, 368, 304
-0.998497, 137, 285, 200, 300
-0.998499, 377, 211, 408, 226
-0.9985, 361, 213, 392, 228
-0.998503, 421, 255, 452, 270
-0.998506, 353, 279, 416, 294
-0.998506, 1, 87, 64, 102
-0.998507, 401, 261, 464, 276
-0.998507, 361, 267, 424, 282
-0.998508, 469, 165, 500, 180
-0.998508, 273, 287, 336, 302
-0.99851, 17, 135, 80, 150
-0.998511, 409, 233, 472, 248
-0.998513, 265, 293, 328, 308
-0.998515, 1, 129, 32, 144
-0.998515, 233, 145, 296, 160
-0.998515, 293, 103, 324, 118
-0.998516, 273, 269, 336, 284
-0.998516, 41, 277, 104, 292
-0.998516, 53, 259, 84, 274
-0.998516, 1, 135, 32, 150
-0.998517, 33, 173, 96, 188
-0.998518, 265, 237, 296, 252
-0.998518, 321, 201, 448, 232
-0.998518, 81, 99, 144, 114
-0.998518, 1, 113, 64, 128
-0.998519, 313, 279, 376, 294
-0.998519, 325, 1, 356, 256
-0.998519, 281, 281, 344, 296
-0.99852, 433, 221, 464, 236
-0.998521, 241, 293, 304, 308
-0.998524, 353, 259, 384, 274
-0.998525, 245, 299, 276, 314
-0.998525, 73, 253, 104, 268
-0.998525, 241, 305, 304, 320
-0.998525, 185, 171, 248, 186
-0.998526, 289, 257, 352, 272
-0.998526, 169, 281, 200, 296
-0.998526, 113, 285, 176, 300
-0.998528, 233, 139, 296, 154
-0.998528, 377, 263, 408, 278
-0.998528, 289, 113, 352, 128
-0.998529, 433, 143, 496, 158
-0.998529, 69, 153, 100, 168
-0.99853, 425, 237, 456, 252
-0.99853, 57, 147, 120, 162
-0.998534, 241, 279, 304, 294
-0.998534, 209, 175, 240, 190
-0.998538, 353, 259, 416, 274
-0.998539, 257, 295, 288, 310
-0.998539, 373, 249, 404, 264
-0.99854, 377, 203, 408, 218
-0.998541, 81, 275, 144, 290
-0.998542, 217, 297, 280, 312
-0.998542, 57, 283, 120, 298
-0.998544, 397, 239, 428, 254
-0.998547, 361, 271, 392, 286
-0.998548, 177, 257, 240, 272
-0.998549, 313, 117, 376, 132
-0.998549, 201, 303, 264, 318
-0.99855, 393, 269, 456, 284
-0.998551, 1, 201, 64, 216
-0.998551, 389, 257, 420, 272
-0.998551, 145, 259, 208, 274
-0.998552, 149, 283, 180, 298
-0.998552, 105, 129, 136, 375
-0.998553, 177, 287, 240, 302
-0.998553, 97, 305, 160, 320
-0.998554, 445, 129, 476, 375
-0.998557, 273, 275, 336, 290
-0.998558, 425, 249, 456, 264
-0.998559, 385, 235, 448, 250
-0.998562, 81, 279, 112, 294
-0.998563, 57, 163, 120, 178
-0.998564, 41, 95, 104, 110
-0.998567, 25, 215, 88, 230
-0.998568, 409, 143, 472, 158
-0.998568, 1, 181, 64, 196
-0.998568, 369, 241, 432, 256
-0.998568, 25, 129, 88, 144
-0.998569, 201, 275, 264, 290
-0.998569, 185, 165, 248, 180
-0.998569, 33, 165, 96, 180
-0.99857, 357, 203, 388, 218
-0.99857, 337, 273, 400, 288
-0.998571, 385, 355, 448, 370
-0.998571, 401, 227, 464, 242
-0.998571, 353, 277, 384, 292
-0.998572, 273, 299, 336, 314
-0.998574, 1, 207, 64, 222
-0.998575, 241, 317, 304, 332
-0.998577, 57, 141, 120, 156
-0.998578, 1, 107, 64, 122
-0.998579, 433, 231, 496, 246
-0.998579, 385, 243, 416, 258
-0.99858, 1, 101, 64, 116
-0.99858, 233, 127, 296, 142
-0.998581, 233, 207, 296, 222
-0.998581, 201, 313, 264, 328
-0.998582, 17, 221, 80, 236
-0.998582, 113, 97, 176, 112
-0.998583, 419, 177, 434, 304
-0.998585, 81, 245, 144, 260
-0.998585, 341, 281, 372, 296
-0.998585, 281, 185, 344, 200
-0.998585, 241, 273, 304, 288
-0.998586, 293, 257, 324, 272
-0.998586, 97, 253, 160, 268
-0.998587, 437, 227, 468, 242
-0.998587, 1, 123, 64, 138
-0.998587, 185, 95, 248, 110
-0.998588, 81, 151, 144, 166
-0.998588, 425, 353, 488, 368
-0.998589, 1, 215, 64, 230
-0.998589, 233, 197, 296, 212
-0.99859, 273, 203, 336, 218
-0.99859, 257, 237, 320, 252
-0.99859, 305, 263, 368, 278
-0.998591, 353, 127, 416, 142
-0.998592, 401, 255, 464, 270
-0.998593, 425, 149, 488, 164
-0.998594, 1, 195, 64, 210
-0.998596, 137, 279, 200, 294
-0.998596, 17, 145, 80, 160
-0.998596, 145, 219, 208, 234
-0.998596, 401, 219, 464, 234
-0.998597, 1, 173, 64, 188
-0.998598, 233, 133, 296, 148
-0.998599, 329, 257, 392, 272
-0.998599, 419, 129, 434, 256
-0.998601, 217, 289, 280, 304
-0.998601, 209, 97, 272, 112
-0.998601, 417, 239, 480, 254
-0.998604, 105, 291, 168, 306
-0.998604, 273, 101, 336, 116
-0.998606, 209, 167, 272, 182
-0.998606, 273, 179, 336, 194
-0.998607, 241, 285, 304, 300
-0.998607, 337, 121, 400, 136
-0.998608, 33, 159, 96, 174
-0.998608, 41, 105, 104, 120
-0.998608, 137, 95, 200, 110
-0.998608, 57, 243, 120, 258
-0.998609, 469, 129, 500, 375
-0.99861, 17, 249, 80, 264
-0.99861, 265, 257, 328, 272
-0.99861, 209, 143, 272, 158
-0.99861, 279, 81, 294, 208
-0.99861, 377, 287, 440, 302
-0.998611, 273, 195, 336, 210
-0.998611, 385, 275, 448, 290
-0.998616, 413, 235, 444, 250
-0.998622, 353, 1, 384, 256
-0.998624, 425, 229, 456, 244
-0.998631, 57, 251, 88, 266
-0.99864, 397, 251, 428, 266
-0.998649, 257, 1, 384, 128
-0.998662, 231, 177, 246, 304
-0.998662, 413, 243, 444, 258
-0.998668, 273, 101, 400, 132
-0.998669, 49, 181, 176, 212
-0.998672, 209, 341, 336, 372
-0.998677, 117, 129, 148, 375
-0.998715, 233, 97, 248, 224
-0.998726, 381, 209, 396, 336
-0.998734, 45, 65, 60, 192
-0.998738, 271, 209, 286, 336
-0.998747, 141, 97, 172, 352
-0.998751, 477, 145, 492, 272
-0.998752, 425, 129, 440, 256
-0.998761, 409, 193, 424, 320
-0.998762, 429, 177, 444, 304
-0.998766, 93, 65, 124, 320
-0.998767, 409, 113, 424, 240
-0.998767, 237, 145, 252, 272
-0.998782, 435, 193, 450, 320
-0.998813, 369, 1, 400, 256
-0.998817, 225, 161, 240, 288
-0.998819, 251, 225, 266, 352
-0.998822, 69, 33, 100, 288
-0.998824, 375, 209, 390, 336
-0.998824, 433, 129, 448, 256
-0.998824, 241, 225, 256, 352
-0.998825, 261, 225, 276, 352
-0.998827, 241, 329, 368, 360
-0.998831, 289, 97, 304, 224
-0.998835, 1, 17, 128, 80
-0.998844, 297, 81, 312, 208
-0.998846, 439, 129, 454, 256
-0.998847, 385, 1, 416, 256
-0.99885, 395, 113, 410, 240
-0.998853, 319, 97, 334, 224
-0.998857, 445, 129, 460, 256
-0.998858, 377, 113, 392, 240
-0.998872, 289, 321, 416, 352
-0.998875, 361, 225, 376, 352
-0.998875, 337, 309, 464, 340
-0.998881, 387, 177, 402, 304
-0.998883, 227, 225, 242, 352
-0.998885, 219, 177, 234, 304
-0.998886, 371, 113, 386, 240
-0.998891, 273, 161, 400, 192
-0.998895, 361, 113, 376, 240
-0.998895, 453, 129, 468, 256
-0.998899, 235, 225, 250, 352
-0.9989, 467, 129, 482, 256
-0.998904, 369, 177, 384, 304
-0.998905, 207, 241, 222, 368
-0.998906, 389, 225, 404, 352
-0.998915, 403, 177, 418, 304
-0.998918, 331, 97, 346, 224
-0.998921, 225, 113, 240, 240
-0.99893, 245, 1, 276, 256
-0.998932, 395, 193, 410, 320
-0.998932, 417, 225, 432, 352
-0.998936, 325, 97, 340, 224
-0.998936, 241, 97, 256, 224
-0.998937, 461, 129, 476, 256
-0.998939, 13, 49, 28, 176
-0.998943, 345, 97, 360, 224
-0.998943, 309, 241, 324, 368
-0.998946, 309, 97, 324, 224
-0.99895, 339, 97, 354, 224
-0.998951, 387, 113, 402, 240
-0.998953, 97, 141, 224, 172
-0.998963, 277, 209, 292, 336
-0.998964, 355, 225, 370, 352
-0.998965, 3, 81, 18, 208
-0.99897, 59, 209, 74, 336
-0.998971, 49, 333, 176, 364
-0.998972, 285, 145, 300, 272
-0.998977, 295, 241, 310, 368
-0.998984, 403, 113, 418, 240
-0.998984, 485, 145, 500, 272
-0.998984, 51, 97, 66, 224
-0.99899, 289, 241, 304, 368
-0.998994, 421, 33, 452, 288
-0.998995, 303, 81, 318, 208
-0.998999, 21, 81, 36, 208
-0.999009, 349, 241, 364, 368
-0.999021, 351, 97, 366, 224
-0.999021, 333, 241, 348, 368
-0.999022, 353, 177, 368, 304
-0.999037, 401, 1, 432, 256
-0.999039, 65, 145, 80, 272
-0.999039, 71, 113, 86, 240
-0.999044, 247, 97, 262, 224
-0.999044, 233, 49, 248, 176
-0.999044, 447, 177, 462, 304
-0.999045, 177, 177, 192, 304
-0.999053, 85, 225, 100, 352
-0.999054, 181, 225, 196, 352
-0.999055, 45, 113, 60, 240
-0.999056, 189, 209, 204, 336
-0.999057, 213, 177, 228, 304
-0.99906, 429, 225, 444, 352
-0.999063, 71, 225, 86, 352
-0.999065, 213, 241, 228, 368
-0.999066, 15, 145, 30, 272
-0.999072, 59, 161, 74, 288
-0.999073, 423, 225, 438, 352
-0.999075, 253, 81, 268, 208
-0.999082, 51, 145, 66, 272
-0.999086, 77, 225, 92, 352
-0.999088, 199, 241, 214, 368
-0.999091, 399, 241, 414, 368
-0.999094, 27, 145, 42, 272
-0.9991, 81, 105, 208, 136
-0.9991, 181, 65, 212, 320
-0.999102, 173, 225, 188, 352
-0.999106, 221, 241, 236, 368
-0.999106, 37, 65, 52, 192
-0.999108, 39, 145, 54, 272
-0.999112, 125, 33, 156, 288
-0.999112, 123, 209, 138, 336
-0.999116, 289, 333, 416, 364
-0.999129, 161, 345, 288, 375
-0.999129, 327, 241, 342, 368
-0.99914, 339, 241, 354, 368
-0.999141, 441, 177, 456, 304
-0.999143, 369, 225, 384, 352
-0.999148, 65, 345, 192, 375
-0.999158, 227, 49, 242, 176
-0.999163, 225, 77, 352, 108
-0.999171, 311, 161, 326, 288
-0.999174, 219, 129, 234, 256
-0.99919, 303, 241, 318, 368
-0.9992, 161, 225, 176, 352
-0.999203, 97, 333, 224, 364
-0.999208, 5, 129, 20, 256
-0.999208, 267, 81, 282, 208
-0.999214, 7, 33, 22, 160
-0.999215, 471, 177, 486, 304
-0.999219, 363, 177, 378, 304
-0.999219, 27, 65, 42, 192
-0.999223, 81, 161, 96, 288
-0.999223, 65, 209, 80, 336
-0.999223, 15, 97, 30, 224
-0.999225, 161, 329, 288, 360
-0.999228, 335, 161, 350, 288
-0.999229, 343, 193, 358, 320
-0.999233, 7, 177, 22, 304
-0.999238, 167, 225, 182, 352
-0.999241, 85, 81, 100, 208
-0.999244, 139, 241, 154, 368
-0.999247, 381, 161, 396, 288
-0.999247, 151, 225, 166, 352
-0.99925, 113, 117, 240, 148
-0.999255, 321, 241, 336, 368
-0.999258, 171, 177, 186, 304
-0.999264, 303, 161, 318, 288
-0.99927, 369, 125, 496, 156
-0.999271, 147, 81, 162, 208
-0.999275, 79, 97, 94, 224
-0.999276, 1, 41, 256, 104
-0.999277, 131, 225, 146, 352
-0.999361, 321, 345, 448, 375
-0.99941, 169, 129, 200, 375
-0.999439, 433, 33, 496, 160
-0.999453, 257, 33, 384, 96
-0.999484, 109, 33, 140, 288
-0.999488, 157, 129, 188, 375
-0.99951, 65, 17, 192, 80
-0.999553, 469, 33, 500, 288
-0.999572, 193, 49, 448, 112
-0.999617, 7, 193, 22, 208
-0.999618, 451, 141, 466, 156
-0.999618, 289, 101, 304, 116
-0.999618, 59, 295, 74, 310
-0.999619, 393, 211, 408, 226
-0.999619, 241, 119, 256, 134
-0.999619, 281, 99, 296, 114
-0.999619, 289, 161, 304, 176
-0.999619, 233, 183, 248, 198
-0.99962, 181, 279, 196, 294
-0.99962, 361, 211, 376, 226
-0.999621, 75, 273, 90, 288
-0.999621, 321, 273, 336, 288
-0.999621, 23, 111, 38, 126
-0.999622, 395, 125, 410, 140
-0.999622, 279, 293, 294, 308
-0.999622, 203, 309, 218, 324
-0.999623, 337, 285, 352, 300
-0.999623, 413, 203, 428, 218
-0.999623, 229, 191, 244, 206
-0.999624, 89, 101, 104, 116
-0.999624, 403, 207, 418, 222
-0.999624, 321, 293, 336, 308
-0.999625, 287, 183, 302, 198
-0.999625, 289, 149, 304, 164
-0.999625, 33, 129, 48, 144
-0.999627, 3, 117, 18, 132
-0.999627, 463, 143, 478, 158
-0.999627, 113, 303, 128, 318
-0.99963, 63, 263, 78, 278
-0.99963, 377, 203, 392, 218
-0.999632, 27, 129, 42, 144
-0.999633, 435, 251, 450, 266
-0.999633, 235, 293, 250, 308
-0.999633, 21, 135, 36, 150
-0.999635, 47, 131, 62, 146
-0.999635, 209, 281, 224, 296
-0.999636, 361, 199, 376, 214
-0.999637, 29, 111, 44, 126
-0.999637, 77, 279, 92, 294
-0.999637, 147, 285, 162, 300
-0.999637, 433, 223, 448, 238
-0.999638, 467, 195, 482, 210
-0.999638, 3, 135, 18, 150
-0.999639, 229, 251, 244, 266
-0.99964, 57, 261, 72, 276
-0.99964, 197, 257, 212, 272
-0.999641, 477, 201, 492, 216
-0.999641, 239, 287, 254, 302
-0.999641, 15, 181, 30, 196
-0.999642, 25, 103, 40, 118
-0.999642, 485, 175, 500, 190
-0.999642, 81, 253, 96, 268
-0.999643, 395, 203, 410, 218
-0.999644, 469, 169, 484, 184
-0.999644, 469, 143, 484, 158
-0.999645, 289, 155, 304, 170
-0.999645, 243, 99, 258, 114
-0.999647, 173, 281, 188, 296
-0.999647, 437, 353, 452, 368
-0.999648, 391, 245, 406, 260
-0.999649, 25, 219, 40, 234
-0.999649, 239, 303, 254, 318
-0.99965, 239, 125, 254, 140
-0.999651, 209, 1, 240, 256
-0.999651, 237, 97, 252, 112
-0.999652, 397, 255, 412, 270
-0.999654, 301, 255, 316, 270
-0.999655, 45, 87, 60, 102
-0.999656, 9, 81, 24, 96
-0.999656, 247, 301, 262, 316
-0.999656, 421, 253, 436, 268
-0.999657, 27, 201, 42, 216
-0.999657, 11, 129, 26, 144
-0.999658, 443, 229, 458, 244
-0.999659, 153, 285, 168, 300
-0.999659, 441, 223, 456, 238
-0.999659, 477, 161, 492, 176
-0.999662, 483, 195, 498, 210
-0.999663, 45, 101, 60, 116
-0.999668, 33, 101, 48, 116
-0.999669, 287, 255, 302, 270
-0.999669, 397, 243, 412, 258
-0.999669, 457, 143, 472, 158
-0.999671, 83, 153, 98, 168
-0.999672, 383, 263, 398, 278
-0.999673, 3, 127, 18, 142
-0.999673, 365, 273, 380, 288
-0.999675, 253, 299, 268, 314
-0.999675, 373, 265, 388, 280
-0.999676, 391, 255, 406, 270
-0.999676, 427, 249, 442, 264
-0.999677, 101, 283, 116, 298
-0.999678, 215, 173, 230, 188
-0.999678, 405, 251, 420, 266
-0.999678, 65, 249, 80, 264
-0.999681, 429, 229, 444, 244
-0.999683, 21, 129, 36, 144
-0.999684, 345, 281, 360, 296
-0.999686, 295, 103, 310, 118
-0.999689, 485, 161, 500, 176
-0.99969, 7, 187, 22, 202
-0.999695, 1, 87, 16, 102
-0.999696, 269, 237, 284, 252
-0.999698, 259, 297, 274, 312
-0.999699, 453, 225, 468, 240
-0.9997, 5, 177, 20, 192
-0.999701, 121, 275, 136, 290
-0.999704, 415, 235, 430, 250
-0.999704, 405, 239, 420, 254
-0.999705, 95, 281, 110, 296
-0.999706, 411, 247, 426, 262
-0.999706, 3, 199, 18, 214
-0.999706, 473, 151, 488, 166
-0.999712, 477, 171, 492, 186
-0.999713, 423, 231, 438, 246
-0.999713, 85, 277, 100, 292
-0.999714, 57, 255, 72, 270
-0.999723, 433, 235, 448, 250
-0.999724, 269, 293, 284, 308
-0.999727, 71, 251, 86, 266
-0.999729, 163, 283, 178, 298
-0.999741, 457, 1, 488, 256
-0.999742, 437, 229, 452, 244
-0.999742, 359, 277, 374, 292
-0.999743, 59, 249, 74, 264
-0.999747, 351, 281, 366, 296
-0.999749, 419, 243, 434, 258
-0.999757, 273, 231, 288, 246
-0.999773, 447, 223, 462, 238
-0.999777, 445, 33, 476, 288
-0.999795, 425, 239, 440, 254
-0.999811, 433, 245, 448, 260
-0.99984, 161, 41, 288, 104
-1.00003, 225, 9, 352, 72
-1.00008, 177, 17, 304, 80
-1.00009, 153, 33, 184, 288
-1.00014, 33, 17, 288, 80
-1.00017, 193, 1, 224, 256
-1.00029, 353, 33, 480, 96
-1.00034, 433, 1, 464, 256
-1.00035, 153, 1, 216, 256
-1.00038, 165, 33, 196, 288
-1.0006, 137, 1, 168, 256
-1.00074, 369, 57, 496, 120
-1.00083, 129, 9, 384, 72
-1.00106, 97, 41, 352, 104
-1.00119, 225, 1, 480, 64
-1.00119, 273, 1, 336, 128
-1.00137, 1, 49, 500, 112
-1.00144, 225, 25, 480, 88
-1.00146, 273, 9, 400, 72
-1.00151, 201, 1, 264, 128
-1.00176, 81, 41, 208, 104
-1.00202, 113, 17, 240, 80
-1.00207, 353, 9, 480, 72
-1.00216, 305, 33, 432, 96
-1.00217, 337, 17, 400, 144
-1.00242, 393, 33, 456, 160
-1.00244, 1, 17, 500, 80
-1.00976, 305, 1, 368, 128
-1.01184, 361, 17, 424, 144
