1710
-0.48311, 1, 1, 400, 299
-0.495884, 1, 1, 400, 256
-0.567749, 33, 1, 288, 299
-0.617655, 129, 1, 384, 299
-0.722495, 65, 1, 320, 256
-0.877349, 1, 97, 400, 224
-0.89643, 225, 1, 352, 299
-0.896651, 1, 161, 400, 288
-0.899353, 113, 1, 240, 299
-0.901475, 33, 1, 160, 299
-0.907813, 33, 33, 160, 288
-0.910133, 113, 1, 240, 256
-0.910508, 177, 1, 304, 299
-0.91173, 161, 1, 288, 256
-0.914886, 1, 49, 400, 176
-0.920937, 273, 33, 400, 288
-0.924906, 225, 33, 352, 288
-0.92564, 1, 129, 256, 256
-0.926955, 97, 97, 352, 224
-0.931454, 1, 65, 256, 192
-0.932161, 273, 1, 400, 299
-0.932771, 97, 177, 352, 299
-0.935315, 1, 177, 256, 299
-0.943739, 33, 113, 160, 240
-0.946228, 1, 1, 400, 128
-0.951639, 25, 65, 88, 192
-0.952079, 225, 97, 352, 224
-0.954883, 33, 17, 288, 144
-0.95551, 17, 65, 144, 192
-0.955866, 41, 129, 104, 256
-0.956172, 81, 177, 208, 299
-0.95636, 81, 129, 208, 256
-0.957002, 209, 177, 336, 299
-0.960312, 145, 145, 272, 272
-0.960893, 105, 129, 168, 256
-0.962178, 321, 113, 384, 240
-0.962369, 273, 113, 400, 240
-0.962682, 265, 97, 328, 224
-0.963331, 81, 129, 144, 256
-0.963501, 297, 97, 360, 224
-0.963883, 65, 49, 192, 176
-0.964031, 209, 177, 272, 299
-0.96505, 81, 177, 144, 299
-0.965328, 105, 177, 168, 299
-0.966449, 33, 177, 160, 299
-0.966786, 97, 49, 160, 176
-0.966871, 289, 97, 352, 160
-0.967052, 145, 97, 272, 224
-0.967446, 17, 73, 80, 136
-0.967814, 129, 129, 192, 256
-0.967915, 193, 1, 320, 128
-0.967951, 129, 1, 384, 128
-0.968075, 233, 113, 296, 240
-0.968122, 57, 49, 120, 176
-0.969149, 113, 49, 240, 176
-0.969312, 1, 97, 64, 224
-0.9706, 289, 49, 352, 176
-0.970967, 273, 65, 400, 192
-0.971116, 257, 89, 320, 152
-0.971222, 129, 177, 192, 299
-0.971437, 265, 137, 328, 200
-0.971584, 153, 145, 216, 272
-0.972145, 65, 97, 128, 160
-0.972355, 113, 177, 176, 240
-0.972687, 89, 185, 152, 248
-0.972738, 209, 49, 336, 176
-0.974312, 33, 105, 96, 168
-0.974787, 257, 49, 320, 176
-0.975284, 185, 145, 248, 272
-0.975316, 233, 177, 296, 299
-0.975379, 33, 137, 96, 200
-0.975482, 273, 161, 400, 288
-0.975583, 17, 1, 144, 128
-0.975904, 129, 49, 384, 176
-0.976, 97, 65, 160, 128
-0.976254, 297, 121, 360, 184
-0.976421, 201, 193, 264, 256
-0.976662, 209, 97, 272, 224
-0.976737, 297, 177, 360, 299
-0.977094, 225, 33, 288, 160
-0.977289, 321, 121, 384, 184
-0.977707, 129, 153, 192, 216
-0.977711, 113, 1, 240, 128
-0.978093, 265, 113, 328, 176
-0.978245, 193, 161, 256, 224
-0.978274, 9, 145, 72, 272
-0.978612, 233, 233, 296, 296
-0.978618, 337, 201, 400, 264
-0.978759, 49, 201, 112, 264
-0.978843, 265, 177, 328, 299
-0.979354, 225, 81, 352, 144
-0.979521, 297, 73, 360, 136
-0.979588, 337, 177, 400, 299
-0.979602, 201, 81, 264, 144
-0.979624, 97, 41, 160, 104
-0.979718, 313, 49, 376, 176
-0.980174, 9, 105, 72, 168
-0.980301, 129, 81, 192, 208
-0.980302, 65, 185, 192, 248
-0.980409, 225, 81, 288, 144
-0.98052, 121, 49, 184, 112
-0.980528, 33, 177, 96, 299
-0.980836, 273, 105, 400, 168
-0.981102, 313, 225, 376, 288
-0.981105, 289, 153, 352, 216
-0.981173, 41, 177, 104, 240
-0.981229, 33, 137, 160, 200
-0.981238, 1, 161, 64, 224
-0.981527, 129, 161, 256, 224
-0.981667, 65, 57, 128, 120
-0.981671, 37, 65, 68, 192
-0.981784, 97, 121, 160, 184
-0.98219, 17, 81, 144, 144
-0.982227, 241, 113, 304, 176
-0.982363, 321, 97, 384, 160
-0.982401, 97, 129, 128, 256
-0.982513, 169, 97, 232, 224
-0.982583, 209, 121, 336, 184
-0.982644, 65, 1, 192, 128
-0.982674, 57, 1, 120, 128
-0.982674, 161, 49, 288, 176
-0.982789, 249, 65, 312, 128
-0.982832, 209, 233, 336, 296
-0.982842, 309, 105, 340, 168
-0.983015, 225, 185, 288, 248
-0.983136, 297, 97, 328, 160
-0.983266, 193, 33, 256, 160
-0.983426, 225, 161, 288, 224
-0.983672, 17, 201, 144, 264
-0.9837, 25, 17, 88, 144
-0.983701, 153, 177, 216, 240
-0.983748, 89, 97, 152, 160
-0.983819, 337, 65, 400, 192
-0.983868, 25, 73, 56, 136
-0.983916, 285, 89, 316, 152
-0.984066, 161, 137, 224, 200
-0.98443, 41, 73, 104, 136
-0.984462, 17, 105, 144, 168
-0.984469, 137, 129, 168, 256
-0.984625, 21, 81, 52, 208
-0.984828, 241, 1, 368, 128
-0.984837, 33, 161, 160, 224
-0.984855, 81, 57, 208, 120
-0.984928, 209, 233, 272, 296
-0.985069, 69, 129, 100, 256
-0.985097, 45, 113, 76, 240
-0.985174, 117, 113, 148, 240
-0.985237, 41, 33, 104, 288
-0.985269, 225, 209, 288, 272
-0.985284, 185, 225, 248, 288
-0.985305, 209, 177, 336, 240
-0.98542, 57, 177, 120, 299
-0.985469, 129, 1, 192, 256
-0.985471, 17, 57, 144, 120
-0.985512, 273, 57, 336, 120
-0.985529, 217, 57, 280, 120
-0.985633, 257, 225, 320, 288
-0.985714, 129, 201, 256, 264
-0.985818, 177, 81, 304, 144
-0.98585, 257, 177, 320, 240
-0.985886, 117, 177, 148, 299
-0.9859, 129, 105, 192, 168
-0.985957, 125, 177, 156, 240
-0.986038, 129, 225, 256, 288
-0.986129, 257, 1, 320, 64
-0.986169, 337, 233, 400, 296
-0.986231, 25, 201, 88, 264
-0.986293, 273, 129, 400, 192
-0.986318, 169, 33, 232, 160
-0.986357, 289, 233, 352, 296
-0.98636, 193, 201, 320, 264
-0.986434, 1, 49, 64, 176
-0.986458, 57, 65, 88, 192
-0.98649, 1, 137, 64, 200
-0.986589, 297, 137, 328, 200
-0.986654, 217, 105, 280, 168
-0.986686, 257, 1, 320, 128
-0.986743, 81, 129, 208, 192
-0.986794, 81, 129, 112, 256
-0.986838, 337, 33, 400, 288
-0.986954, 213, 145, 244, 272
-0.98704, 217, 137, 280, 200
-0.987058, 109, 185, 140, 248
-0.987089, 369, 209, 400, 272
-0.987097, 257, 225, 384, 288
-0.987179, 297, 97, 328, 224
-0.987211, 121, 49, 152, 112
-0.98724, 149, 161, 180, 224
-0.987282, 233, 1, 296, 64
-0.98734, 225, 153, 352, 216
-0.987378, 41, 137, 72, 200
-0.987391, 65, 105, 192, 168
-0.987392, 85, 49, 116, 176
-0.987409, 105, 49, 136, 176
-0.987414, 85, 177, 116, 299
-0.987414, 105, 177, 136, 299
-0.987514, 209, 57, 336, 120
-0.987574, 69, 65, 100, 192
-0.987708, 81, 161, 208, 224
-0.987713, 277, 97, 308, 224
-0.987735, 249, 81, 280, 144
-0.987736, 145, 41, 208, 104
-0.987755, 225, 177, 256, 299
-0.987766, 129, 137, 256, 200
-0.987784, 129, 41, 256, 104
-0.987807, 21, 105, 52, 168
-0.987928, 201, 1, 264, 64
-0.987974, 193, 9, 320, 72
-0.988091, 93, 97, 124, 160
-0.988093, 97, 33, 160, 288
-0.988127, 265, 81, 296, 208
-0.988137, 97, 193, 128, 256
-0.988237, 137, 1, 200, 128
-0.98841, 269, 81, 300, 144
-0.988443, 177, 1, 240, 256
-0.988459, 273, 57, 400, 120
-0.988477, 273, 169, 400, 232
-0.988524, 57, 105, 88, 168
-0.988556, 109, 65, 140, 128
-0.988571, 65, 169, 128, 232
-0.988582, 217, 1, 280, 256
-0.988593, 321, 169, 384, 232
-0.988623, 213, 153, 244, 216
-0.988647, 121, 129, 184, 192
-0.988751, 297, 33, 360, 288
-0.988771, 193, 57, 256, 120
-0.988821, 153, 1, 216, 256
-0.988843, 153, 113, 184, 240
-0.988845, 321, 81, 352, 208
-0.988846, 225, 1, 288, 299
-0.988868, 185, 25, 248, 88
-0.98887, 161, 105, 288, 168
-0.989015, 309, 137, 340, 200
-0.989019, 177, 153, 304, 216
-0.989163, 233, 185, 264, 248
-0.989183, 89, 57, 120, 120
-0.98919, 285, 49, 316, 176
-0.989242, 281, 1, 344, 64
-0.989261, 65, 1, 128, 256
-0.98931, 73, 121, 136, 184
-0.989324, 133, 177, 164, 299
-0.989331, 281, 177, 344, 240
-0.989405, 41, 113, 72, 176
-0.989408, 81, 97, 112, 160
-0.989529, 81, 201, 112, 264
-0.989639, 337, 225, 368, 288
-0.98965, 249, 33, 312, 288
-0.989679, 41, 1, 104, 299
-0.989712, 281, 1, 344, 128
-0.989764, 113, 17, 176, 80
-0.989764, 73, 33, 136, 96
-0.9898, 117, 49, 148, 176
-0.989911, 57, 129, 88, 256
-0.989976, 129, 65, 256, 128
-0.990034, 33, 145, 64, 272
-0.990054, 253, 97, 284, 224
-0.990089, 25, 33, 56, 160
-0.990136, 145, 137, 176, 200
-0.990157, 301, 49, 332, 176
-0.990178, 289, 209, 352, 272
-0.990243, 321, 65, 384, 128
-0.990259, 73, 1, 136, 299
-0.990358, 237, 177, 268, 299
-0.990391, 217, 193, 248, 256
-0.990401, 81, 81, 208, 144
-0.99042, 241, 1, 368, 64
-0.990474, 113, 1, 176, 128
-0.990503, 305, 161, 336, 224
-0.99051, 337, 113, 368, 240
-0.990511, 237, 73, 268, 136
-0.990586, 113, 185, 176, 216
-0.990596, 257, 33, 320, 96
-0.9906, 321, 1, 384, 128
-0.990604, 321, 113, 352, 176
-0.990654, 285, 113, 316, 176
-0.99067, 225, 33, 352, 96
-0.990791, 37, 73, 68, 136
-0.9908, 157, 185, 188, 248
-0.990811, 257, 33, 288, 160
-0.990828, 289, 121, 352, 152
-0.990832, 145, 177, 176, 299
-0.990846, 105, 153, 168, 216
-0.990861, 305, 65, 336, 128
-0.990927, 49, 33, 176, 96
-0.99093, 329, 129, 392, 160
-0.990947, 33, 145, 96, 176
-0.990962, 217, 233, 248, 296
-0.991021, 101, 41, 132, 104
-0.991025, 113, 233, 176, 296
-0.991027, 237, 97, 268, 224
-0.991091, 157, 177, 188, 299
-0.991114, 81, 193, 144, 224
-0.991131, 89, 233, 152, 296
-0.991138, 33, 169, 64, 232
-0.991148, 97, 97, 352, 160
-0.991164, 97, 53, 160, 84
-0.991202, 169, 73, 232, 136
-0.991203, 217, 269, 280, 299
-0.991232, 249, 85, 312, 116
-0.991243, 201, 145, 232, 272
-0.991267, 17, 49, 80, 112
-0.991343, 41, 193, 104, 224
-0.991368, 65, 109, 128, 140
-0.991372, 201, 201, 232, 264
-0.99138, 129, 173, 192, 204
-0.991385, 289, 133, 352, 164
-0.991432, 217, 233, 280, 264
-0.991463, 97, 1, 160, 299
-0.991482, 297, 49, 360, 112
-0.991492, 153, 17, 216, 80
-0.991508, 289, 109, 352, 140
-0.991533, 289, 57, 320, 120
-0.991537, 289, 1, 320, 64
-0.991544, 361, 129, 392, 256
-0.991547, 201, 1, 264, 299
-0.991593, 65, 57, 128, 88
-0.991612, 201, 205, 264, 236
-0.991632, 249, 1, 312, 299
-0.991641, 17, 81, 80, 112
-0.991705, 313, 113, 376, 144
-0.991722, 225, 189, 288, 220
-0.99173, 53, 201, 84, 264
-0.991732, 89, 1, 152, 128
-0.991732, 269, 33, 300, 160
-0.991734, 337, 197, 400, 228
-0.99175, 49, 73, 80, 136
-0.991753, 69, 105, 100, 168
-0.991755, 73, 209, 136, 272
-0.991765, 317, 81, 348, 144
-0.991769, 133, 49, 164, 112
-0.991798, 49, 209, 112, 240
-0.991813, 113, 17, 240, 80
-0.991822, 249, 121, 312, 152
-0.991866, 41, 49, 104, 112
-0.991872, 265, 145, 328, 176
-0.991886, 361, 129, 392, 192
-0.991898, 137, 1, 200, 299
-0.99191, 217, 73, 248, 136
-0.991924, 241, 221, 304, 252
-0.992024, 273, 201, 400, 264
-0.992031, 289, 173, 352, 204
-0.992043, 269, 233, 300, 296
-0.992044, 305, 145, 368, 176
-0.99205, 273, 269, 336, 299
-0.992052, 49, 233, 176, 296
-0.992056, 41, 113, 104, 144
-0.992065, 89, 129, 152, 160
-0.99211, 9, 113, 72, 144
-0.992119, 1, 137, 256, 200
-0.992124, 281, 161, 344, 192
-0.992128, 329, 237, 392, 268
-0.992129, 217, 221, 280, 252
-0.99213, 313, 33, 344, 160
-0.992145, 201, 85, 264, 116
-0.992153, 225, 33, 288, 96
-0.992187, 105, 69, 168, 100
-0.992196, 285, 137, 316, 200
-0.992197, 289, 77, 352, 108
-0.992198, 249, 257, 312, 288
-0.992226, 233, 245, 296, 276
-0.992227, 121, 57, 184, 88
-0.992241, 137, 169, 168, 232
-0.992246, 113, 269, 176, 299
-0.992265, 33, 133, 96, 164
-0.992291, 65, 97, 128, 128
-0.992292, 201, 157, 264, 188
-0.992298, 253, 113, 284, 176
-0.992298, 73, 205, 136, 236
-0.992307, 209, 65, 240, 192
-0.992341, 273, 93, 336, 124
-0.99237, 1, 73, 256, 136
-0.992388, 273, 81, 400, 144
-0.992403, 57, 69, 120, 100
-0.992404, 1, 177, 256, 240
-0.992414, 217, 105, 280, 136
-0.992417, 25, 205, 88, 236
-0.992423, 69, 65, 100, 128
-0.992446, 17, 33, 80, 288
-0.99246, 89, 101, 152, 132
-0.992463, 137, 49, 168, 176
-0.992463, 337, 209, 400, 240
-0.992465, 153, 185, 216, 216
-0.992517, 45, 177, 76, 299
-0.992518, 121, 137, 184, 168
-0.99252, 145, 53, 208, 84
-0.992528, 1, 173, 64, 204
-0.992553, 265, 181, 328, 212
-0.992565, 9, 193, 72, 224
-0.992572, 1, 157, 64, 188
-0.99259, 305, 249, 368, 280
-0.992594, 169, 269, 232, 299
-0.992613, 305, 261, 368, 292
-0.992632, 161, 145, 224, 176
-0.992675, 41, 181, 104, 212
-0.992687, 57, 133, 120, 164
-0.992697, 17, 101, 80, 132
-0.992712, 225, 77, 288, 108
-0.992713, 145, 197, 208, 228
-0.992721, 225, 153, 288, 184
-0.99273, 273, 245, 336, 276
-0.992735, 13, 81, 44, 144
-0.992768, 193, 253, 256, 284
-0.992777, 249, 177, 280, 299
-0.992787, 329, 253, 392, 284
-0.992788, 281, 65, 344, 96
-0.992796, 257, 233, 320, 264
-0.992807, 321, 1, 384, 299
-0.992813, 97, 145, 352, 208
-0.99283, 169, 161, 232, 192
-0.992832, 25, 65, 88, 96
-0.992832, 201, 73, 264, 104
-0.992838, 217, 117, 280, 148
-0.992841, 225, 201, 288, 232
-0.992843, 201, 193, 264, 224
-0.992857, 1, 145, 64, 176
-0.992862, 305, 89, 368, 120
-0.992866, 137, 157, 200, 188
-0.992871, 305, 237, 368, 268
-0.992882, 237, 97, 268, 160
-0.992927, 65, 81, 128, 112
-0.992944, 225, 165, 288, 196
-0.992957, 25, 145, 56, 208
-0.992966, 33, 157, 96, 188
-0.992967, 105, 209, 168, 272
-0.992968, 65, 209, 192, 272
-0.992974, 257, 5, 320, 36
-0.992975, 313, 109, 344, 140
-0.992975, 305, 161, 336, 192
-0.992981, 129, 121, 192, 152
-0.992988, 265, 133, 328, 164
-0.992993, 105, 197, 168, 228
-0.992994, 177, 65, 240, 96
-0.993015, 273, 257, 336, 288
-0.993028, 89, 117, 152, 148
-0.993028, 153, 177, 184, 208
-0.993036, 41, 145, 72, 176
-0.993036, 89, 265, 152, 296
-0.993041, 85, 201, 116, 232
-0.993045, 349, 113, 380, 240
-0.993052, 169, 105, 232, 136
-0.993055, 185, 217, 248, 248
-0.993055, 301, 161, 332, 288
-0.993056, 121, 57, 152, 88
-0.993063, 229, 269, 260, 299
-0.99307, 329, 101, 392, 132
-0.993079, 65, 121, 128, 152
-0.99309, 105, 173, 168, 204
-0.993096, 201, 169, 264, 200
-0.993104, 89, 229, 152, 260
-0.993108, 81, 69, 144, 100
-0.993109, 153, 97, 216, 160
-0.99311, 361, 185, 392, 248
-0.993118, 313, 173, 376, 204
-0.993125, 113, 213, 176, 244
-0.993127, 17, 1, 80, 299
-0.993131, 109, 189, 140, 220
-0.993132, 193, 97, 256, 128
-0.993135, 365, 197, 396, 228
-0.993142, 89, 85, 120, 116
-0.993142, 297, 133, 328, 164
-0.993145, 281, 233, 344, 264
-0.993148, 321, 157, 384, 188
-0.993148, 169, 173, 232, 204
-0.993149, 21, 113, 52, 144
-0.99315, 73, 177, 136, 208
-0.993152, 97, 89, 160, 120
-0.993153, 145, 65, 208, 96
-0.993155, 105, 249, 168, 280
-0.993156, 225, 41, 288, 72
-0.993161, 41, 81, 104, 112
-0.993162, 65, 197, 96, 228
-0.993165, 129, 185, 160, 216
-0.993166, 293, 121, 324, 152
-0.993171, 281, 1, 344, 299
-0.993172, 193, 53, 256, 84
-0.993177, 193, 33, 256, 64
-0.993177, 41, 169, 104, 200
-0.993177, 185, 233, 248, 264
-0.993177, 21, 81, 52, 112
-0.993179, 161, 133, 224, 164
-0.99318, 169, 49, 232, 112
-0.99318, 169, 201, 232, 264
-0.993184, 309, 121, 340, 152
-0.993192, 153, 213, 216, 244
-0.993196, 97, 197, 128, 228
-0.993197, 213, 157, 244, 188
-0.993202, 353, 197, 384, 228
-0.993219, 1, 169, 400, 232
-0.993221, 225, 17, 288, 48
-0.993223, 81, 97, 112, 128
-0.993233, 249, 109, 312, 140
-0.993236, 201, 205, 232, 236
-0.993239, 225, 257, 288, 288
-0.993252, 257, 65, 320, 96
-0.993257, 233, 193, 264, 224
-0.993264, 193, 265, 256, 296
-0.993264, 153, 193, 184, 224
-0.993264, 309, 97, 340, 224
-0.993266, 97, 53, 128, 84
-0.993267, 369, 177, 400, 299
-0.993268, 1, 133, 64, 164
-0.99328, 369, 137, 400, 168
-0.993283, 301, 101, 332, 132
-0.993284, 225, 229, 256, 260
-0.993288, 201, 145, 264, 176
-0.993291, 309, 141, 340, 172
-0.993291, 41, 101, 104, 132
-0.993294, 201, 1, 264, 32
-0.993296, 221, 257, 252, 288
-0.993301, 97, 121, 352, 184
-0.993302, 89, 217, 152, 248
-0.993304, 89, 109, 120, 140
-0.993306, 137, 269, 200, 299
-0.993311, 273, 125, 304, 156
-0.993315, 97, 177, 352, 240
-0.993316, 317, 169, 348, 200
-0.993317, 325, 113, 356, 144
-0.993322, 281, 89, 312, 120
-0.993338, 253, 85, 284, 116
-0.993339, 73, 61, 104, 92
-0.993339, 45, 113, 76, 144
-0.993342, 357, 133, 388, 164
-0.993345, 369, 209, 400, 240
-0.993347, 73, 209, 104, 240
-0.993349, 141, 177, 172, 208
-0.993351, 337, 233, 368, 264
-0.993358, 261, 9, 292, 72
-0.993366, 217, 269, 248, 299
-0.993368, 73, 109, 104, 140
-0.993373, 57, 209, 88, 240
-0.993374, 329, 129, 360, 160
-0.993385, 133, 53, 164, 84
-0.993387, 205, 81, 236, 112
-0.993388, 45, 201, 76, 232
-0.99339, 45, 125, 76, 156
-0.993391, 305, 177, 336, 208
-0.993391, 217, 81, 248, 112
-0.993394, 329, 41, 392, 104
-0.993399, 93, 97, 124, 128
-0.993401, 109, 73, 140, 104
-0.993403, 61, 109, 92, 140
-0.993405, 257, 225, 288, 256
-0.993406, 101, 129, 132, 160
-0.993412, 145, 141, 176, 172
-0.993413, 33, 185, 64, 216
-0.993414, 321, 61, 352, 92
-0.993423, 245, 217, 276, 248
-0.993423, 221, 97, 252, 224
-0.99343, 145, 61, 176, 92
-0.99343, 165, 185, 196, 216
-0.993431, 109, 57, 140, 88
-0.993433, 137, 269, 168, 299
-0.993434, 241, 85, 272, 116
-0.993434, 129, 173, 160, 204
-0.993435, 237, 105, 268, 136
-0.993439, 149, 157, 180, 188
-0.993448, 329, 245, 360, 276
-0.993452, 221, 49, 252, 176
-0.993453, 357, 249, 388, 280
-0.993457, 213, 205, 244, 236
-0.993459, 293, 145, 324, 176
-0.993465, 141, 193, 172, 224
-0.993465, 317, 249, 348, 280
-0.993466, 85, 73, 116, 104
-0.993466, 237, 229, 268, 260
-0.993468, 289, 57, 320, 88
-0.993471, 345, 129, 376, 160
-0.993472, 305, 61, 336, 92
-0.993472, 265, 85, 296, 116
-0.993477, 369, 249, 400, 280
-0.993484, 85, 57, 116, 88
-0.993484, 205, 269, 236, 299
-0.993487, 281, 261, 312, 292
-0.993497, 273, 237, 304, 268
-0.9935, 349, 237, 380, 268
-0.9935, 297, 269, 328, 299
-0.993505, 369, 185, 400, 216
-0.993514, 297, 249, 328, 280
-0.993518, 25, 165, 56, 196
-0.99352, 133, 69, 164, 100
-0.993523, 233, 213, 264, 244
-0.993527, 229, 77, 260, 108
-0.993529, 53, 65, 84, 96
-0.993532, 213, 245, 244, 276
-0.993534, 149, 49, 180, 80
-0.993534, 261, 121, 292, 152
-0.993535, 281, 137, 312, 168
-0.993535, 245, 189, 276, 220
-0.993535, 121, 261, 152, 292
-0.993537, 121, 73, 152, 104
-0.993546, 33, 117, 64, 148
-0.993548, 117, 133, 148, 164
-0.993555, 337, 113, 368, 144
-0.993556, 77, 129, 108, 160
-0.993556, 257, 213, 288, 244
-0.993562, 109, 97, 140, 128
-0.993562, 125, 249, 156, 280
-0.993563, 65, 77, 96, 108
-0.993566, 293, 177, 324, 208
-0.993567, 25, 101, 56, 132
-0.993569, 49, 181, 80, 212
-0.993571, 201, 157, 232, 188
-0.993572, 213, 217, 244, 248
-0.993573, 97, 65, 128, 96
-0.993575, 221, 193, 252, 224
-0.993576, 249, 113, 280, 144
-0.993579, 261, 9, 292, 40
-0.99358, 209, 189, 240, 220
-0.993585, 5, 101, 36, 132
-0.993591, 205, 177, 236, 240
-0.993591, 269, 257, 300, 288
-0.993592, 189, 205, 220, 236
-0.993597, 249, 269, 280, 299
-0.993597, 21, 153, 52, 184
-0.993602, 233, 153, 264, 184
-0.993604, 233, 241, 264, 272
-0.993604, 177, 53, 208, 84
-0.993609, 137, 213, 168, 244
-0.993661, 205, 225, 236, 288
-0.993676, 273, 33, 336, 288
-0.993715, 233, 161, 264, 224
-0.993752, 81, 145, 144, 208
-0.993769, 1, 121, 400, 184
-0.993788, 241, 33, 272, 160
-0.993806, 249, 57, 280, 120
-0.993813, 245, 185, 276, 248
-0.993873, 1, 185, 64, 248
-0.993877, 281, 1, 312, 128
-0.993889, 105, 105, 136, 168
-0.993903, 333, 49, 364, 176
-0.993963, 105, 1, 136, 128
-0.993993, 273, 25, 400, 88
-0.994092, 241, 137, 304, 200
-0.994141, 145, 233, 208, 296
-0.994145, 9, 65, 40, 192
-0.994146, 265, 49, 296, 112
-0.994155, 325, 177, 356, 299
-0.994158, 245, 233, 276, 296
-0.994219, 193, 105, 256, 168
-0.994258, 317, 161, 348, 224
-0.994284, 337, 177, 368, 299
-0.994313, 289, 177, 320, 299
-0.994337, 1, 145, 400, 208
-0.99437, 265, 129, 296, 256
-0.994423, 125, 129, 156, 192
-0.994454, 313, 1, 376, 64
-0.994457, 113, 105, 240, 168
-0.994458, 129, 201, 192, 264
-0.994499, 69, 209, 100, 272
-0.994505, 1, 81, 400, 144
-0.994533, 73, 177, 104, 299
-0.994627, 257, 177, 288, 240
-0.994633, 145, 65, 208, 128
-0.994636, 357, 177, 388, 299
-0.994637, 277, 49, 308, 112
-0.994674, 73, 177, 104, 240
-0.994723, 85, 1, 116, 128
-0.994749, 65, 1, 192, 64
-0.994762, 33, 49, 288, 112
-0.994765, 281, 233, 312, 296
-0.994778, 121, 25, 152, 88
-0.994812, 281, 25, 344, 88
-0.994812, 313, 201, 376, 264
-0.994913, 65, 225, 320, 288
-0.994954, 325, 225, 356, 288
-0.995041, 277, 1, 308, 64
-0.995076, 145, 49, 176, 112
-0.995091, 313, 161, 344, 288
-0.995155, 169, 169, 200, 232
-0.995188, 97, 73, 352, 136
-0.995207, 1, 201, 256, 264
-0.995218, 169, 1, 232, 299
-0.995231, 177, 33, 304, 96
-0.995359, 65, 189, 192, 220
-0.995371, 293, 169, 324, 232
-0.995375, 41, 193, 72, 256
-0.99539, 337, 121, 368, 184
-0.9954, 337, 89, 368, 152
-0.995402, 137, 105, 168, 168
-0.995431, 245, 153, 276, 216
-0.995433, 205, 73, 236, 136
-0.995434, 185, 137, 248, 200
-0.995438, 201, 153, 232, 216
-0.99548, 313, 145, 376, 208
-0.995506, 301, 1, 332, 128
-0.995538, 57, 17, 88, 144
-0.99554, 273, 133, 400, 164
-0.995568, 273, 177, 304, 299
-0.995576, 257, 201, 320, 264
-0.995579, 321, 57, 352, 120
-0.99564, 65, 133, 192, 164
-0.995656, 157, 137, 188, 200
-0.995666, 257, 233, 288, 296
-0.995696, 269, 177, 300, 240
-0.995756, 349, 225, 380, 288
-0.995758, 1, 85, 128, 116
-0.995789, 193, 85, 320, 116
-0.995801, 173, 113, 204, 240
-0.995807, 1, 25, 128, 88
-0.995904, 177, 1, 240, 64
-0.995914, 349, 121, 380, 184
-0.99595, 309, 137, 324, 200
-0.995959, 205, 17, 236, 144
-0.995965, 225, 97, 352, 128
-0.995971, 209, 253, 336, 284
-0.995976, 265, 121, 296, 184
-0.996003, 217, 49, 248, 112
-0.996017, 53, 169, 84, 232
-0.996064, 49, 61, 176, 92
-0.996119, 25, 73, 40, 136
-0.99617, 125, 153, 156, 216
-0.996172, 321, 137, 352, 200
-0.996236, 57, 177, 88, 299
-0.996248, 225, 157, 352, 188
-0.99625, 125, 1, 156, 128
-0.996263, 305, 97, 320, 160
-0.996329, 145, 1, 176, 128
-0.996344, 197, 97, 228, 224
-0.996367, 45, 17, 76, 144
-0.996384, 299, 89, 314, 152
-0.99639, 273, 121, 400, 152
-0.996427, 129, 157, 256, 188
-0.996428, 311, 97, 326, 160
-0.996452, 217, 1, 248, 64
-0.996479, 305, 25, 368, 88
-0.996497, 153, 49, 184, 176
-0.99651, 309, 25, 340, 88
-0.996519, 361, 65, 392, 192
-0.996532, 161, 269, 288, 299
-0.99654, 385, 201, 400, 264
-0.996574, 303, 137, 318, 200
-0.996588, 1, 57, 400, 120
-0.996601, 289, 33, 320, 96
-0.996624, 241, 109, 368, 140
-0.996628, 1, 205, 128, 236
-0.996632, 149, 113, 180, 176
-0.996634, 361, 233, 392, 296
-0.996665, 49, 201, 176, 232
-0.996674, 1, 113, 256, 176
-0.996675, 129, 181, 256, 212
-0.996686, 49, 25, 112, 88
-0.996713, 209, 229, 336, 260
-0.996715, 225, 97, 256, 160
-0.996732, 301, 233, 332, 296
-0.996736, 225, 181, 352, 212
-0.996737, 103, 97, 118, 160
-0.99676, 31, 73, 46, 136
-0.996764, 273, 237, 400, 268
-0.996794, 189, 193, 220, 256
-0.996798, 1, 233, 128, 296
-0.996806, 43, 113, 58, 176
-0.996812, 1, 97, 128, 128
-0.996831, 85, 177, 116, 240
-0.996844, 1, 233, 400, 296
-0.996854, 17, 181, 144, 212
-0.996883, 205, 41, 236, 104
-0.996888, 319, 105, 334, 168
-0.996929, 123, 49, 138, 112
-0.996955, 17, 145, 144, 176
-0.996958, 233, 225, 264, 288
-0.996979, 125, 97, 156, 160
-0.996986, 293, 89, 308, 152
-0.996996, 225, 121, 352, 152
-0.996998, 193, 17, 224, 144
-0.99703, 209, 269, 336, 299
-0.99705, 129, 53, 256, 84
-0.997074, 65, 137, 96, 200
-0.997076, 1, 113, 128, 144
-0.997111, 235, 185, 250, 248
-0.997117, 129, 49, 144, 112
-0.997126, 45, 169, 60, 232
-0.997132, 257, 81, 272, 144
-0.997137, 81, 73, 208, 104
-0.997138, 251, 81, 266, 144
-0.997144, 161, 161, 176, 224
-0.99715, 169, 169, 184, 232
-0.997153, 329, 105, 344, 168
-0.997165, 299, 113, 314, 176
-0.997168, 135, 49, 150, 112
-0.997187, 97, 169, 128, 232
-0.997189, 73, 105, 88, 168
-0.997217, 111, 185, 126, 248
-0.997217, 365, 105, 396, 168
-0.997229, 33, 113, 48, 176
-0.99723, 219, 233, 234, 296
-0.997237, 209, 241, 336, 272
-0.997268, 263, 81, 278, 144
-0.997284, 127, 177, 142, 240
-0.997297, 89, 201, 104, 264
-0.997302, 141, 25, 172, 88
-0.997311, 139, 177, 154, 240
-0.997319, 185, 57, 216, 120
-0.997333, 81, 49, 208, 80
-0.997341, 37, 73, 52, 136
-0.997343, 287, 81, 302, 144
-0.997351, 119, 185, 134, 248
-0.997355, 141, 233, 172, 296
-0.997356, 1, 65, 128, 96
-0.99737, 205, 193, 220, 256
-0.997387, 67, 105, 82, 168
-0.997393, 113, 161, 144, 224
-0.997396, 317, 137, 332, 200
-0.9974, 129, 25, 384, 88
-0.997402, 273, 77, 400, 108
-0.997403, 69, 17, 100, 144
-0.997407, 177, 169, 304, 200
-0.997414, 49, 105, 176, 136
-0.997422, 121, 73, 184, 136
-0.997425, 129, 201, 384, 264
-0.997428, 43, 137, 58, 200
-0.997429, 209, 73, 336, 104
-0.997431, 97, 97, 112, 160
-0.997437, 129, 145, 256, 176
-0.997442, 379, 209, 394, 272
-0.997453, 167, 145, 182, 208
-0.997457, 313, 233, 344, 296
-0.997465, 225, 161, 240, 224
-0.997473, 129, 249, 256, 280
-0.997474, 281, 177, 312, 240
-0.997478, 257, 265, 384, 296
-0.997486, 145, 193, 176, 256
-0.997493, 79, 105, 94, 168
-0.997497, 39, 161, 54, 224
-0.997503, 33, 169, 160, 200
-0.997518, 129, 65, 256, 96
-0.997524, 129, 193, 256, 224
-0.997534, 93, 121, 124, 184
-0.997542, 237, 41, 268, 104
-0.997547, 129, 217, 256, 248
-0.99756, 245, 81, 260, 144
-0.997584, 49, 137, 64, 200
-0.997587, 109, 89, 124, 152
-0.997587, 95, 185, 110, 248
-0.997588, 21, 129, 52, 256
-0.997591, 313, 161, 328, 224
-0.9976, 117, 49, 132, 112
-0.997602, 269, 81, 284, 144
-0.997607, 245, 185, 260, 248
-0.997612, 161, 105, 288, 136
-0.997623, 281, 81, 296, 144
-0.997624, 273, 201, 400, 232
-0.997626, 217, 153, 232, 216
-0.99764, 323, 81, 338, 144
-0.99764, 89, 97, 104, 160
-0.997642, 105, 193, 120, 256
-0.997654, 149, 153, 164, 216
-0.997654, 57, 233, 120, 296
-0.997655, 1, 193, 128, 224
-0.997655, 59, 105, 74, 168
-0.997659, 25, 105, 40, 168
-0.997662, 293, 49, 308, 112
-0.997668, 49, 269, 176, 299
-0.997669, 227, 193, 242, 256
-0.997682, 343, 225, 358, 288
-0.997683, 297, 145, 312, 208
-0.997686, 101, 65, 116, 128
-0.99769, 239, 73, 254, 136
-0.997704, 19, 81, 34, 144
-0.997706, 273, 177, 400, 208
-0.997709, 235, 161, 250, 224
-0.997718, 133, 177, 148, 240
-0.99772, 253, 209, 284, 272
-0.997722, 273, 249, 400, 280
-0.997724, 65, 73, 80, 136
-0.997725, 193, 217, 320, 248
-0.997728, 209, 145, 336, 176
-0.997748, 49, 73, 64, 136
-0.997762, 333, 65, 364, 128
-0.997773, 217, 201, 232, 264
-0.997775, 307, 73, 322, 136
-0.997776, 209, 1, 224, 64
-0.997778, 109, 41, 124, 104
-0.99778, 375, 129, 390, 192
-0.997794, 145, 229, 272, 260
-0.9978, 59, 73, 74, 136
-0.997813, 81, 177, 208, 208
-0.997815, 275, 81, 290, 144
-0.997819, 1, 193, 400, 256
-0.997821, 143, 49, 158, 112
-0.997824, 17, 133, 144, 164
-0.997825, 259, 57, 274, 120
-0.997826, 33, 157, 160, 188
-0.997834, 163, 185, 178, 248
-0.997839, 81, 89, 208, 120
-0.997851, 129, 49, 384, 112
-0.997864, 283, 49, 298, 112
-0.997864, 293, 113, 308, 176
-0.997876, 349, 97, 380, 160
-0.997879, 65, 145, 192, 176
-0.997879, 51, 105, 66, 168
-0.997894, 209, 193, 336, 224
-0.997895, 149, 185, 164, 248
-0.997899, 139, 129, 154, 192
-0.9979, 43, 73, 58, 136
-0.9979, 323, 137, 338, 200
-0.997904, 259, 113, 274, 176
-0.997912, 225, 61, 352, 92
-0.997913, 145, 129, 272, 160
-0.99793, 281, 233, 296, 296
-0.997934, 83, 201, 98, 264
-0.997936, 257, 153, 288, 216
-0.997949, 285, 1, 300, 64
-0.99795, 237, 1, 268, 64
-0.997952, 227, 233, 242, 296
-0.997952, 357, 225, 372, 288
-0.997953, 109, 217, 140, 280
-0.997958, 193, 13, 320, 44
-0.997965, 173, 145, 204, 208
-0.99798, 337, 225, 352, 288
-0.997981, 49, 213, 176, 244
-0.998, 129, 169, 256, 200
-0.998003, 155, 129, 170, 192
-0.998029, 109, 129, 140, 192
-0.998031, 129, 81, 256, 112
-0.998033, 275, 233, 290, 296
-0.998034, 37, 137, 52, 200
-0.998042, 153, 33, 184, 288
-0.998044, 229, 81, 244, 144
-0.998046, 211, 193, 226, 256
-0.998049, 225, 169, 352, 200
-0.998103, 55, 201, 70, 264
-0.998112, 77, 209, 92, 272
-0.99812, 351, 225, 366, 288
-0.998125, 155, 161, 170, 224
-0.998136, 145, 205, 272, 236
-0.998143, 317, 73, 332, 136
-0.998146, 193, 1, 320, 32
-0.998148, 69, 201, 84, 264
-0.998152, 323, 169, 338, 200
-0.998154, 149, 129, 164, 192
-0.998165, 45, 33, 76, 288
-0.998178, 385, 177, 400, 240
-0.998182, 329, 81, 344, 144
-0.998186, 143, 153, 158, 216
-0.99819, 221, 73, 236, 136
-0.998194, 137, 25, 152, 88
-0.998195, 161, 97, 192, 160
-0.998197, 193, 25, 320, 56
-0.9982, 379, 197, 394, 228
-0.998201, 43, 145, 58, 176
-0.998204, 261, 177, 276, 240
-0.99822, 169, 177, 184, 208
-0.99822, 345, 49, 376, 176
-0.998227, 161, 137, 176, 200
-0.998239, 213, 225, 228, 288
-0.998243, 129, 41, 256, 72
-0.998248, 199, 193, 214, 256
-0.998251, 49, 193, 64, 256
-0.998253, 335, 105, 350, 168
-0.998258, 153, 53, 184, 68
-0.998258, 245, 191, 276, 206
-0.998259, 265, 125, 296, 140
-0.998259, 213, 207, 244, 222
-0.998259, 225, 279, 256, 294
-0.998259, 37, 81, 68, 96
-0.998259, 125, 75, 156, 90
-0.998259, 217, 17, 248, 32
-0.99826, 317, 165, 332, 196
-0.99826, 33, 191, 64, 206
-0.99826, 105, 199, 136, 214
-0.998261, 169, 187, 200, 202
-0.998261, 201, 159, 232, 174
-0.998261, 197, 283, 228, 298
-0.998262, 245, 235, 276, 250
-0.998262, 233, 103, 264, 118
-0.998263, 229, 201, 260, 216
-0.998264, 197, 277, 228, 292
-0.998264, 241, 275, 272, 290
-0.998264, 261, 241, 292, 256
-0.998265, 113, 269, 240, 299
-0.998265, 249, 225, 280, 240
-0.998266, 133, 69, 164, 84
-0.998266, 289, 151, 320, 166
-0.998266, 281, 145, 312, 160
-0.998267, 111, 65, 126, 128
-0.998268, 85, 61, 116, 76
-0.998269, 323, 57, 338, 120
-0.99827, 97, 59, 128, 74
-0.99827, 37, 115, 68, 130
-0.998271, 189, 209, 220, 224
-0.998271, 307, 169, 322, 232
-0.998272, 37, 199, 68, 214
-0.998272, 117, 133, 148, 148
-0.998272, 253, 217, 284, 232
-0.998274, 321, 67, 352, 82
-0.998274, 301, 161, 332, 176
-0.998275, 337, 17, 400, 80
-0.998276, 309, 105, 340, 120
-0.998276, 169, 283, 200, 298
-0.998276, 225, 85, 256, 100
-0.998277, 145, 169, 176, 184
-0.998277, 253, 185, 268, 248
-0.998278, 45, 137, 76, 152
-0.998279, 309, 151, 340, 166
-0.998279, 237, 109, 268, 124
-0.99828, 273, 165, 400, 196
-0.998281, 289, 181, 320, 196
-0.998281, 209, 213, 240, 228
-0.998281, 309, 267, 340, 282
-0.998282, 145, 1, 272, 32
-0.998283, 293, 123, 324, 138
-0.998283, 169, 193, 200, 208
-0.998283, 49, 193, 80, 208
-0.998283, 89, 111, 120, 126
-0.998285, 341, 131, 372, 146
-0.998288, 263, 233, 278, 296
-0.998288, 85, 81, 116, 96
-0.998288, 285, 65, 316, 80
-0.998289, 105, 77, 136, 92
-0.998289, 369, 143, 400, 158
-0.998289, 261, 17, 292, 32
-0.998291, 153, 279, 184, 294
-0.998291, 369, 213, 400, 228
-0.998292, 71, 73, 86, 136
-0.998292, 265, 279, 296, 294
-0.998292, 213, 273, 244, 288
-0.998292, 85, 177, 100, 240
-0.998294, 297, 63, 328, 78
-0.998294, 97, 193, 128, 208
-0.998294, 145, 69, 176, 84
-0.998295, 313, 169, 344, 184
-0.998295, 357, 253, 388, 268
-0.998295, 365, 193, 396, 208
-0.998296, 97, 69, 128, 84
-0.998298, 137, 281, 168, 296
-0.998299, 313, 139, 344, 154
-0.998299, 317, 127, 348, 142
-0.998301, 253, 277, 284, 292
-0.998301, 301, 69, 332, 84
-0.998302, 229, 79, 260, 94
-0.998302, 329, 131, 360, 146
-0.998302, 213, 165, 244, 180
-0.998304, 49, 209, 80, 224
-0.998305, 297, 103, 328, 118
-0.998309, 363, 129, 378, 192
-0.99831, 209, 201, 240, 216
-0.99831, 225, 271, 256, 286
-0.99831, 321, 181, 352, 196
-0.998311, 369, 249, 400, 264
-0.998312, 141, 193, 172, 208
-0.998312, 73, 61, 104, 76
-0.998313, 141, 57, 172, 72
-0.998313, 301, 179, 332, 194
-0.998313, 245, 87, 276, 102
-0.998313, 95, 73, 110, 136
-0.998314, 145, 63, 176, 78
-0.998315, 281, 275, 312, 290
-0.998316, 265, 113, 280, 176
-0.998316, 81, 105, 112, 120
-0.998317, 267, 177, 282, 240
-0.998318, 297, 271, 328, 286
-0.998318, 357, 205, 388, 220
-0.998319, 53, 199, 84, 214
-0.99832, 89, 97, 120, 112
-0.99832, 77, 209, 108, 224
-0.998321, 105, 133, 136, 148
-0.998326, 331, 217, 346, 280
-0.998326, 65, 213, 96, 228
-0.998327, 205, 83, 236, 98
-0.998327, 157, 189, 188, 204
-0.998329, 89, 89, 120, 104
-0.998329, 309, 133, 340, 148
-0.998334, 21, 83, 52, 98
-0.998334, 289, 97, 320, 112
-0.998335, 145, 179, 176, 194
-0.998335, 213, 159, 244, 174
-0.998336, 327, 109, 342, 140
-0.998336, 101, 53, 132, 68
-0.998336, 353, 133, 384, 148
-0.998337, 53, 115, 84, 130
-0.998337, 73, 111, 104, 126
-0.998339, 89, 205, 120, 220
-0.99834, 301, 145, 332, 160
-0.998341, 233, 193, 264, 208
-0.998343, 349, 199, 380, 214
-0.998344, 121, 57, 152, 72
-0.998344, 153, 197, 184, 212
-0.998345, 225, 285, 256, 299
-0.998345, 241, 217, 368, 248
-0.998347, 317, 111, 348, 126
-0.998348, 313, 175, 344, 190
-0.998352, 109, 191, 140, 206
-0.998355, 81, 121, 208, 152
-0.998357, 201, 207, 232, 222
-0.998359, 157, 179, 188, 194
-0.998361, 365, 137, 396, 152
-0.998363, 257, 87, 288, 102
-0.998364, 65, 203, 96, 218
-0.99837, 123, 57, 138, 88
-0.998372, 93, 199, 124, 214
-0.998383, 77, 197, 108, 212
-0.998383, 273, 89, 304, 104
-0.998386, 125, 187, 156, 202
-0.998387, 25, 117, 56, 132
-0.998388, 311, 145, 326, 176
-0.998392, 41, 145, 72, 160
-0.998407, 369, 199, 400, 214
-0.998408, 25, 81, 40, 112
-0.998413, 235, 193, 250, 224
-0.998426, 213, 279, 244, 294
-0.998429, 205, 205, 220, 236
-0.998432, 241, 5, 368, 36
-0.998437, 313, 105, 328, 136
-0.998442, 213, 285, 244, 299
-0.998443, 219, 269, 234, 299
-0.998443, 153, 285, 184, 299
-0.998444, 293, 137, 324, 152
-0.998453, 373, 197, 388, 228
-0.998464, 297, 121, 312, 152
-0.998474, 311, 161, 326, 192
-0.998485, 193, 205, 320, 236
-0.99849, 307, 101, 322, 132
-0.99849, 367, 197, 382, 228
-0.998503, 299, 133, 314, 164
-0.998513, 101, 89, 116, 120
-0.998521, 49, 253, 176, 284
-0.998562, 85, 209, 100, 240
-0.998565, 329, 133, 392, 148
-0.998567, 217, 157, 232, 188
-0.998569, 177, 117, 304, 148
-0.99857, 137, 1, 168, 256
-0.998571, 113, 189, 176, 204
-0.998574, 123, 185, 138, 216
-0.998576, 129, 1, 384, 64
-0.998578, 49, 199, 112, 214
-0.998583, 225, 277, 288, 292
-0.99859, 241, 89, 304, 104
-0.998591, 209, 283, 272, 298
-0.9986, 33, 145, 96, 160
-0.998605, 121, 285, 184, 299
-0.998611, 169, 285, 232, 299
-0.998613, 81, 157, 208, 188
-0.998617, 287, 125, 302, 156
-0.998617, 129, 179, 192, 194
-0.998618, 27, 113, 42, 144
-0.998619, 333, 113, 348, 144
-0.998619, 289, 137, 352, 152
-0.998621, 143, 53, 158, 84
-0.998622, 201, 83, 264, 98
-0.998622, 289, 179, 352, 194
-0.998623, 105, 57, 168, 72
-0.998624, 97, 135, 160, 150
-0.998625, 305, 133, 320, 164
-0.998625, 145, 285, 208, 299
-0.998625, 65, 111, 128, 126
-0.998633, 1, 17, 256, 80
-0.998633, 97, 33, 128, 288
-0.998634, 65, 205, 128, 220
-0.998639, 17, 83, 80, 98
-0.998639, 91, 205, 106, 236
-0.99864, 57, 145, 120, 208
-0.998644, 329, 245, 392, 260
-0.998644, 145, 65, 208, 80
-0.998645, 361, 193, 376, 224
-0.998645, 169, 279, 232, 294
-0.998647, 113, 65, 176, 80
-0.998648, 41, 211, 104, 226
-0.998648, 65, 59, 128, 74
-0.998649, 289, 125, 352, 140
-0.998652, 289, 143, 352, 158
-0.998657, 105, 195, 168, 210
-0.998657, 225, 249, 288, 264
-0.998659, 385, 197, 400, 228
-0.998659, 17, 117, 80, 132
-0.99866, 209, 271, 272, 286
-0.99866, 89, 201, 152, 216
-0.998661, 121, 279, 184, 294
-0.998664, 337, 139, 400, 154
-0.998664, 329, 199, 392, 214
-0.998667, 225, 133, 352, 164
-0.998668, 337, 211, 400, 226
-0.998669, 33, 205, 96, 220
-0.998669, 73, 193, 136, 208
-0.998671, 241, 17, 368, 48
-0.998671, 105, 73, 168, 88
-0.998671, 217, 235, 280, 250
-0.998673, 329, 173, 344, 204
-0.998673, 117, 189, 132, 220
-0.998674, 329, 205, 392, 220
-0.998674, 273, 273, 336, 288
-0.998675, 261, 33, 292, 288
-0.998676, 193, 209, 256, 224
-0.998676, 169, 189, 184, 220
-0.998676, 257, 95, 320, 110
-0.998677, 99, 197, 114, 228
-0.998677, 249, 277, 312, 292
-0.99868, 41, 113, 104, 128
-0.998681, 103, 109, 118, 140
-0.998682, 201, 159, 264, 174
-0.998682, 129, 185, 144, 216
-0.998682, 257, 125, 320, 140
-0.998684, 265, 139, 328, 154
-0.998684, 241, 225, 304, 240
-0.998685, 65, 99, 128, 114
-0.998686, 17, 1, 144, 64
-0.998687, 273, 103, 336, 118
-0.998687, 217, 115, 280, 130
-0.998688, 233, 189, 296, 204
-0.998689, 153, 189, 216, 204
-0.998689, 201, 165, 264, 180
-0.998689, 265, 183, 328, 198
-0.998689, 137, 59, 200, 74
-0.998691, 289, 111, 352, 126
-0.998692, 217, 241, 280, 256
-0.998694, 225, 195, 288, 210
-0.998694, 77, 197, 92, 228
-0.998694, 297, 267, 360, 282
-0.998695, 57, 139, 120, 154
-0.998695, 33, 151, 96, 166
-0.998696, 65, 105, 128, 120
-0.998698, 17, 107, 80, 122
-0.998699, 311, 121, 326, 152
-0.9987, 129, 195, 192, 210
-0.9987, 297, 173, 360, 188
-0.9987, 305, 131, 368, 146
-0.998702, 249, 267, 312, 282
-0.998703, 1, 157, 64, 172
-0.998703, 201, 99, 264, 114
-0.998704, 97, 107, 160, 122
-0.998704, 273, 163, 336, 178
-0.998704, 57, 77, 120, 92
-0.998704, 217, 89, 280, 104
-0.998704, 265, 145, 328, 160
-0.998705, 1, 177, 64, 192
-0.998708, 313, 125, 376, 140
-0.998708, 273, 65, 400, 96
-0.998709, 9, 201, 72, 216
-0.998709, 201, 277, 264, 292
-0.998709, 89, 129, 152, 144
-0.998709, 1, 171, 64, 186
-0.99871, 217, 107, 280, 122
-0.99871, 1, 165, 64, 180
-0.998711, 225, 219, 288, 234
-0.998711, 225, 159, 288, 174
-0.998711, 297, 149, 360, 164
-0.998711, 41, 189, 104, 204
-0.998713, 225, 121, 288, 136
-0.998713, 65, 129, 128, 144
-0.998714, 209, 229, 272, 244
-0.998714, 217, 15, 280, 30
-0.998714, 225, 201, 288, 216
-0.998715, 241, 235, 304, 250
-0.998716, 233, 83, 296, 98
-0.998717, 265, 247, 328, 262
-0.998717, 233, 95, 296, 110
-0.998717, 321, 105, 384, 120
-0.998717, 161, 155, 224, 170
-0.998717, 121, 141, 184, 156
-0.998717, 319, 109, 334, 140
-0.998718, 147, 173, 162, 204
-0.998718, 89, 65, 152, 80
-0.998719, 161, 77, 224, 92
-0.998719, 337, 253, 400, 268
-0.99872, 81, 53, 144, 68
-0.99872, 65, 65, 128, 80
-0.99872, 223, 157, 238, 188
-0.99872, 273, 261, 336, 276
-0.998721, 273, 157, 336, 172
-0.998721, 81, 211, 144, 226
-0.998721, 129, 71, 192, 86
-0.998721, 281, 85, 344, 100
-0.998721, 65, 93, 128, 108
-0.998721, 201, 265, 264, 280
-0.998721, 217, 77, 280, 92
-0.998722, 297, 91, 360, 106
-0.998723, 225, 255, 288, 270
-0.998723, 329, 117, 392, 132
-0.998723, 41, 175, 104, 190
-0.998724, 137, 53, 200, 68
-0.998724, 201, 217, 264, 232
-0.998725, 313, 261, 376, 276
-0.998725, 247, 217, 262, 248
-0.998725, 225, 167, 288, 182
-0.998725, 145, 279, 208, 294
-0.998725, 41, 183, 104, 198
-0.998725, 105, 101, 168, 116
-0.998725, 257, 115, 320, 130
-0.998726, 33, 163, 96, 178
-0.998726, 303, 121, 318, 152
-0.998726, 305, 117, 368, 132
-0.998726, 17, 195, 80, 210
-0.998727, 305, 235, 368, 250
-0.99873, 145, 93, 272, 124
-0.998731, 255, 85, 270, 116
-0.998734, 177, 37, 304, 68
-0.998739, 175, 181, 190, 212
-0.998749, 163, 173, 178, 204
-0.998755, 37, 161, 52, 192
-0.998756, 261, 177, 292, 299
-0.998758, 381, 141, 396, 172
-0.998759, 177, 53, 304, 84
-0.998761, 257, 217, 272, 248
-0.998765, 375, 137, 390, 168
-0.998768, 137, 57, 152, 88
-0.998772, 211, 157, 226, 188
-0.998773, 65, 225, 192, 256
-0.998777, 77, 109, 92, 140
-0.998777, 367, 133, 382, 164
-0.998785, 105, 197, 120, 228
-0.998788, 199, 205, 214, 236
-0.998789, 45, 185, 60, 216
-0.998791, 139, 185, 154, 216
-0.998793, 157, 193, 172, 224
-0.998797, 109, 97, 124, 128
-0.9988, 333, 129, 348, 160
-0.998805, 243, 269, 258, 299
-0.998806, 131, 57, 146, 88
-0.99881, 87, 193, 102, 224
-0.998818, 285, 89, 300, 120
-0.998819, 351, 237, 366, 268
-0.998823, 373, 209, 388, 240
-0.998823, 163, 193, 178, 224
-0.99883, 111, 49, 126, 80
-0.998838, 155, 181, 170, 212
-0.998839, 149, 61, 164, 92
-0.998852, 229, 253, 244, 284
-0.998867, 47, 113, 62, 144
-0.998868, 263, 121, 278, 152
-0.99887, 273, 33, 304, 288
-0.998871, 273, 189, 400, 220
-0.998871, 39, 117, 54, 148
-0.998877, 1, 1, 400, 64
-0.998878, 95, 57, 110, 88
-0.998878, 313, 177, 328, 208
-0.998878, 365, 33, 396, 288
-0.998879, 95, 97, 110, 128
-0.998883, 75, 57, 90, 88
-0.998884, 111, 193, 126, 224
-0.998885, 317, 149, 332, 180
-0.998886, 87, 97, 102, 128
-0.998887, 47, 125, 62, 156
-0.998887, 243, 85, 258, 116
-0.998887, 41, 173, 56, 204
-0.998889, 293, 93, 308, 124
-0.998889, 379, 213, 394, 244
-0.998895, 63, 201, 78, 232
-0.998897, 117, 33, 148, 288
-0.998897, 151, 193, 166, 224
-0.9989, 145, 13, 272, 44
-0.998904, 311, 249, 326, 280
-0.998905, 247, 229, 262, 260
-0.998907, 385, 245, 400, 276
-0.99891, 305, 157, 320, 188
-0.998913, 97, 109, 112, 140
-0.998914, 77, 213, 92, 244
-0.998916, 293, 261, 308, 292
-0.998917, 161, 269, 176, 299
-0.998926, 371, 249, 386, 280
-0.998929, 321, 125, 336, 156
-0.998932, 301, 97, 316, 128
-0.998934, 85, 33, 116, 288
-0.998937, 235, 261, 250, 292
-0.998939, 41, 133, 56, 164
-0.998943, 223, 81, 238, 112
-0.998943, 143, 65, 158, 96
-0.998944, 117, 57, 132, 88
-0.998944, 255, 109, 270, 140
-0.998951, 81, 93, 96, 124
-0.998953, 261, 85, 276, 116
-0.998955, 145, 185, 160, 216
-0.998962, 35, 149, 50, 180
-0.998974, 241, 225, 256, 256
-0.998978, 17, 101, 32, 132
-0.998979, 105, 121, 120, 152
-0.998983, 69, 193, 84, 224
-0.998985, 177, 157, 304, 188
-0.998985, 101, 57, 116, 88
-0.998989, 185, 1, 216, 256
-0.998989, 189, 145, 220, 272
-0.99899, 213, 269, 228, 299
-0.998993, 209, 81, 224, 112
-0.998993, 359, 129, 374, 160
-0.998999, 269, 125, 284, 156
-0.999, 31, 81, 46, 112
-0.999003, 243, 189, 258, 220
-0.999003, 285, 237, 300, 268
-0.999004, 317, 249, 332, 280
-0.999004, 157, 1, 188, 128
-0.999007, 249, 33, 280, 288
-0.999008, 97, 101, 224, 132
-0.999009, 339, 117, 354, 148
-0.99901, 155, 137, 170, 168
-0.999013, 55, 205, 70, 236
-0.999014, 293, 57, 308, 88
-0.999014, 303, 177, 318, 208
-0.999014, 273, 85, 288, 116
-0.999025, 165, 1, 196, 256
-0.999026, 81, 9, 144, 72
-0.999079, 73, 33, 104, 288
-0.999121, 97, 205, 224, 236
-0.999138, 129, 117, 256, 148
-0.999159, 29, 65, 44, 192
-0.999163, 21, 33, 52, 288
-0.999165, 1, 217, 128, 248
-0.999179, 33, 33, 64, 288
-0.999179, 45, 65, 60, 192
-0.99921, 33, 49, 160, 80
-0.999223, 217, 33, 248, 288
-0.99923, 35, 65, 50, 192
-0.999233, 273, 41, 400, 72
-0.999236, 135, 129, 150, 256
-0.999239, 201, 1, 232, 256
-0.999244, 113, 25, 240, 56
-0.999249, 273, 53, 400, 84
-0.99926, 97, 129, 112, 256
-0.999261, 119, 113, 134, 240
-0.999264, 257, 145, 384, 176
-0.999268, 237, 1, 268, 256
-0.999268, 127, 129, 142, 256
-0.999274, 59, 65, 74, 192
-0.999278, 65, 65, 80, 192
-0.999288, 89, 129, 104, 256
-0.999305, 81, 37, 208, 68
-0.999306, 45, 113, 60, 240
-0.999319, 107, 129, 122, 256
-0.99932, 79, 129, 94, 256
-0.999332, 101, 65, 116, 192
-0.999336, 297, 33, 328, 288
-0.999336, 241, 29, 368, 60
-0.999339, 51, 65, 66, 192
-0.999343, 143, 129, 158, 256
-0.999346, 71, 65, 86, 192
-0.999348, 273, 89, 400, 120
-0.999348, 61, 33, 92, 288
-0.999352, 263, 97, 278, 224
-0.999357, 149, 129, 164, 256
-0.99936, 51, 129, 66, 256
-0.999361, 239, 177, 254, 299
-0.999362, 1, 1, 64, 128
-0.999363, 225, 49, 352, 80
-0.999364, 215, 145, 230, 272
-0.999364, 73, 129, 88, 256
-0.999364, 137, 177, 152, 299
-0.999372, 279, 81, 294, 208
-0.999376, 43, 161, 58, 288
-0.999376, 293, 81, 308, 208
-0.999377, 79, 65, 94, 192
-0.999379, 299, 81, 314, 208
-0.999379, 117, 177, 132, 299
-0.999383, 385, 177, 400, 299
-0.999384, 65, 9, 192, 40
-0.999388, 131, 177, 146, 299
-0.999389, 113, 129, 128, 256
-0.99939, 155, 129, 170, 256
-0.999398, 331, 97, 346, 224
-0.999398, 85, 65, 100, 192
-0.999403, 269, 97, 284, 224
-0.999412, 125, 177, 140, 299
-0.999414, 161, 145, 176, 272
-0.999417, 111, 49, 126, 176
-0.999423, 87, 177, 102, 299
-0.999433, 93, 177, 108, 299
-0.999433, 23, 65, 38, 192
-0.999434, 285, 97, 300, 224
-0.99944, 385, 129, 400, 256
-0.99944, 245, 177, 260, 299
-0.999444, 323, 81, 338, 208
-0.999449, 35, 113, 50, 240
-0.99945, 283, 33, 298, 160
-0.999454, 97, 237, 224, 268
-0.999458, 95, 49, 110, 176
-0.999465, 261, 33, 276, 160
-0.999469, 57, 129, 72, 256
-0.999471, 309, 97, 324, 224
-0.999472, 233, 177, 248, 299
-0.999473, 99, 177, 114, 299
-0.999474, 309, 179, 324, 194
-0.999474, 331, 181, 346, 196
-0.999475, 111, 133, 126, 148
-0.999475, 361, 203, 376, 218
-0.999475, 35, 159, 50, 174
-0.999475, 147, 177, 162, 192
-0.999476, 331, 125, 346, 140
-0.999476, 39, 171, 54, 186
-0.999476, 365, 253, 380, 268
-0.999476, 113, 69, 128, 84
-0.999476, 161, 177, 176, 192
-0.999477, 69, 113, 84, 128
-0.999477, 103, 201, 118, 216
-0.999478, 97, 59, 112, 74
-0.999478, 109, 105, 124, 120
-0.999478, 37, 165, 52, 180
-0.999478, 103, 89, 118, 104
-0.999478, 323, 127, 338, 142
-0.999479, 79, 203, 94, 218
-0.999479, 227, 83, 242, 98
-0.999479, 223, 211, 238, 226
-0.99948, 155, 285, 170, 299
-0.99948, 323, 111, 338, 126
-0.99948, 113, 51, 128, 66
-0.99948, 249, 191, 264, 206
-0.99948, 253, 111, 268, 126
-0.999481, 77, 213, 92, 228
-0.999481, 177, 183, 192, 198
-0.999481, 55, 195, 70, 210
-0.999481, 333, 133, 348, 148
-0.999482, 243, 191, 258, 206
-0.999482, 237, 79, 252, 94
-0.999482, 305, 271, 320, 286
-0.999482, 299, 273, 314, 288
-0.999482, 107, 191, 122, 206
-0.999482, 137, 187, 152, 202
-0.999483, 83, 197, 98, 212
-0.999483, 263, 277, 278, 292
-0.999484, 147, 177, 162, 299
-0.999484, 255, 217, 270, 232
-0.999484, 247, 225, 262, 240
-0.999484, 63, 129, 78, 256
-0.999485, 293, 275, 308, 290
-0.999485, 373, 251, 388, 266
-0.999485, 315, 179, 330, 194
-0.999486, 251, 89, 266, 104
-0.999486, 57, 115, 72, 130
-0.999487, 113, 193, 128, 208
-0.999488, 299, 151, 314, 166
-0.999488, 219, 81, 234, 96
-0.999488, 227, 177, 242, 299
-0.999488, 149, 193, 164, 208
-0.999488, 95, 113, 110, 128
-0.999489, 165, 185, 180, 200
-0.99949, 283, 277, 298, 292
-0.99949, 63, 211, 78, 226
-0.99949, 29, 83, 44, 98
-0.99949, 229, 285, 244, 299
-0.999491, 57, 209, 72, 224
-0.999491, 71, 213, 86, 228
-0.999493, 241, 103, 256, 118
-0.999494, 245, 89, 260, 104
-0.999494, 211, 277, 226, 292
-0.999495, 123, 57, 138, 72
-0.999495, 209, 129, 224, 256
-0.999496, 61, 203, 76, 218
-0.999496, 321, 33, 352, 288
-0.999496, 361, 133, 376, 148
-0.999496, 267, 125, 282, 140
-0.999497, 223, 275, 238, 290
-0.999497, 101, 111, 116, 126
-0.999497, 325, 181, 340, 196
-0.999499, 309, 159, 324, 174
-0.999499, 171, 191, 186, 206
-0.9995, 161, 279, 176, 294
-0.9995, 139, 65, 154, 80
-0.999501, 215, 159, 230, 174
-0.999501, 47, 137, 62, 152
-0.999503, 315, 163, 330, 178
-0.999503, 155, 61, 170, 76
-0.999504, 27, 117, 42, 132
-0.999507, 319, 169, 334, 184
-0.999507, 337, 113, 352, 240
-0.999507, 259, 87, 274, 102
-0.999508, 47, 143, 62, 158
-0.99951, 131, 187, 146, 202
-0.99951, 289, 33, 304, 160
-0.99951, 125, 187, 140, 202
-0.999511, 101, 195, 116, 210
-0.999512, 303, 135, 318, 150
-0.999513, 357, 197, 372, 212
-0.999513, 103, 95, 118, 110
-0.999514, 159, 191, 174, 206
-0.999514, 139, 81, 154, 208
-0.999515, 329, 33, 344, 160
-0.999515, 49, 117, 64, 132
-0.999516, 209, 211, 224, 226
-0.999516, 75, 61, 90, 76
-0.999516, 381, 215, 396, 230
-0.999517, 315, 107, 330, 122
-0.999518, 307, 145, 322, 160
-0.999518, 89, 197, 104, 212
-0.999518, 83, 211, 98, 226
-0.999519, 271, 87, 286, 102
-0.99952, 301, 161, 316, 288
-0.99952, 373, 209, 388, 224
-0.999521, 291, 93, 306, 108
-0.999521, 167, 129, 182, 256
-0.999521, 49, 177, 64, 299
-0.999521, 367, 135, 382, 150
-0.999522, 269, 33, 284, 160
-0.999523, 221, 145, 236, 272
-0.999523, 149, 65, 164, 80
-0.999523, 39, 117, 54, 132
-0.999523, 251, 177, 266, 299
-0.999524, 155, 197, 170, 212
-0.999524, 331, 175, 346, 190
-0.999525, 279, 89, 294, 104
-0.999526, 367, 205, 382, 220
-0.999527, 97, 201, 112, 216
-0.999527, 301, 99, 316, 114
-0.999527, 375, 201, 390, 216
-0.999528, 77, 111, 92, 126
-0.999529, 255, 97, 270, 224
-0.999529, 265, 87, 280, 102
-0.99953, 297, 137, 312, 152
-0.999532, 309, 103, 324, 118
-0.999534, 275, 33, 290, 160
-0.999535, 165, 195, 180, 210
-0.999535, 329, 113, 344, 128
-0.999538, 119, 49, 134, 176
-0.999539, 237, 193, 252, 208
-0.999539, 119, 191, 134, 206
-0.99954, 383, 143, 398, 158
-0.99954, 285, 91, 300, 106
-0.99954, 111, 177, 126, 299
-0.999542, 89, 207, 104, 222
-0.999542, 23, 85, 38, 100
-0.999547, 369, 199, 384, 214
-0.999548, 373, 137, 388, 152
-0.999556, 241, 113, 256, 240
-0.999556, 215, 65, 230, 192
-0.999557, 41, 147, 56, 162
-0.999558, 379, 177, 394, 299
-0.999563, 223, 97, 238, 224
-0.999565, 17, 241, 144, 272
-0.999566, 325, 173, 340, 188
-0.999566, 363, 197, 378, 212
-0.999567, 209, 1, 224, 128
-0.999568, 297, 33, 312, 160
-0.999575, 247, 97, 262, 224
-0.999575, 145, 57, 160, 72
-0.999577, 169, 177, 184, 192
-0.999578, 335, 49, 350, 176
-0.999581, 217, 277, 232, 292
-0.999585, 153, 177, 168, 299
-0.999588, 379, 129, 394, 256
-0.999588, 317, 97, 332, 224
-0.999592, 221, 285, 236, 299
-0.999593, 323, 33, 338, 160
-0.999596, 161, 285, 176, 299
-0.999598, 293, 129, 308, 256
-0.999598, 145, 49, 160, 176
-0.999599, 127, 49, 142, 176
-0.999605, 203, 207, 218, 222
-0.99961, 133, 81, 148, 208
-0.99961, 229, 49, 244, 176
-0.999612, 373, 129, 388, 256
-0.999616, 221, 49, 236, 176
-0.99962, 105, 177, 120, 299
-0.999623, 309, 177, 324, 299
-0.999624, 357, 113, 372, 240
-0.999625, 233, 129, 248, 256
-0.999626, 255, 33, 270, 160
-0.999626, 203, 145, 218, 272
-0.999629, 367, 129, 382, 256
-0.99963, 303, 33, 318, 160
-0.999633, 209, 177, 224, 299
-0.999634, 313, 49, 328, 176
-0.999639, 109, 1, 124, 128
-0.99964, 31, 17, 46, 144
-0.999642, 351, 177, 366, 299
-0.99965, 339, 177, 354, 299
-0.999653, 341, 1, 372, 256
-0.999657, 341, 65, 356, 192
-0.999657, 333, 177, 348, 299
-0.999658, 347, 113, 362, 240
-0.999659, 275, 129, 290, 256
-0.999661, 167, 177, 182, 299
-0.999663, 137, 33, 152, 160
-0.999665, 365, 81, 380, 208
-0.999669, 239, 33, 254, 160
-0.99967, 101, 1, 116, 128
-0.999681, 357, 177, 372, 299
-0.999684, 289, 177, 304, 299
-0.999685, 37, 17, 52, 144
-0.999688, 75, 17, 90, 144
-0.999688, 161, 97, 176, 224
-0.999692, 209, 49, 224, 176
-0.9997, 203, 1, 218, 128
-0.999701, 95, 1, 110, 128
-0.999703, 373, 177, 388, 299
-0.999706, 295, 177, 310, 299
-0.999707, 81, 177, 96, 299
-0.999712, 215, 17, 230, 144
-0.999713, 45, 17, 60, 144
-0.999715, 61, 17, 76, 144
-0.999715, 257, 177, 272, 299
-0.999727, 1, 265, 128, 296
-0.99973, 285, 33, 316, 288
-0.999737, 5, 17, 36, 144
-0.999771, 1, 33, 400, 96
-0.999782, 229, 1, 260, 128
-0.999839, 65, 21, 192, 52
-0.999848, 177, 181, 304, 212
-0.999853, 309, 1, 340, 256
-0.999874, 1, 229, 128, 260
-0.999923, 17, 17, 144, 48
-0.999953, 1, 253, 128, 284
-0.999965, 353, 33, 384, 288
-1.00008, 1, 37, 128, 68
-1.00012, 169, 161, 200, 288
-1.00012, 17, 25, 80, 88
-1.00012, 181, 33, 212, 160
-1.00018, 17, 5, 144, 36
-1.00031, 1, 209, 64, 272
-1.00038, 9, 33, 40, 288
-1.00042, 325, 129, 356, 256
-1.00068, 49, 1, 112, 64
-1.00102, 165, 65, 196, 192
-1.00128, 17, 1, 80, 64
-1.00174, 325, 1, 356, 128
-1.00181, 185, 81, 216, 208
-1.00199, 353, 1, 384, 128
-1.00199, 217, 1, 248, 128
-1.00249, 341, 1, 372, 128
-1.00262, 33, 225, 96, 288
-1.00285, 1, 129, 32, 256
-1.00287, 9, 233, 72, 296
-1.00311, 337, 145, 400, 208
-1.00337, 169, 1, 200, 128
-1.00355, 1, 177, 32, 299
-1.00523, 13, 177, 44, 299
-1.00559, 369, 17, 400, 144
