1965
-0.502103, 1, 1, 500, 375
-0.523068, 1, 33, 500, 288
-0.601485, 129, 1, 384, 375
-0.634707, 1, 129, 500, 375
-0.675724, 1, 1, 256, 375
-0.704165, 225, 1, 480, 375
-0.709299, 97, 1, 352, 256
-0.846499, 193, 33, 448, 288
-0.862785, 1, 1, 256, 256
-0.868133, 97, 97, 352, 352
-0.898629, 177, 1, 304, 256
-0.910398, 129, 1, 256, 375
-0.912449, 129, 1, 256, 256
-0.913551, 225, 1, 352, 375
-0.916717, 1, 97, 256, 352
-0.917437, 81, 1, 208, 375
-0.917726, 193, 129, 448, 375
-0.927156, 129, 97, 256, 352
-0.927684, 1, 33, 500, 160
-0.929114, 289, 1, 416, 375
-0.929304, 241, 33, 368, 288
-0.929872, 97, 1, 352, 128
-0.930018, 177, 1, 304, 375
-0.931708, 177, 129, 304, 375
-0.938581, 81, 1, 208, 256
-0.94117, 1, 225, 500, 352
-0.942235, 1, 97, 500, 224
-0.942688, 225, 129, 352, 375
-0.945309, 161, 1, 288, 128
-0.946803, 305, 65, 432, 320
-0.947504, 17, 97, 144, 352
-0.954033, 1, 145, 500, 272
-0.955702, 1, 1, 128, 375
-0.956517, 337, 1, 464, 375
-0.956749, 97, 49, 352, 176
-0.956861, 81, 97, 208, 352
-0.957464, 217, 1, 280, 128
-0.958926, 161, 1, 224, 128
-0.961352, 97, 241, 352, 368
-0.962382, 225, 49, 480, 176
-0.963308, 193, 241, 448, 368
-0.963892, 353, 97, 480, 352
-0.966069, 113, 17, 240, 144
-0.967328, 97, 97, 352, 224
-0.967714, 185, 1, 248, 128
-0.968071, 137, 17, 200, 144
-0.970983, 209, 1, 336, 128
-0.971291, 129, 145, 384, 272
-0.972532, 1, 17, 256, 144
-0.97343, 161, 241, 288, 368
-0.973464, 97, 193, 352, 320
-0.973781, 193, 65, 256, 192
-0.974731, 241, 1, 304, 128
-0.974879, 113, 129, 240, 256
-0.975254, 1, 65, 256, 192
-0.9753, 193, 193, 448, 320
-0.975689, 1, 113, 256, 240
-0.975709, 33, 1, 160, 256
-0.976188, 273, 209, 400, 336
-0.976301, 209, 241, 336, 368
-0.97632, 145, 81, 272, 208
-0.976406, 113, 177, 240, 304
-0.976517, 193, 65, 320, 192
-0.976878, 1, 193, 256, 320
-0.977644, 1, 241, 256, 368
-0.977908, 257, 97, 500, 224
-0.978499, 225, 177, 352, 304
-0.978592, 145, 81, 208, 208
-0.978793, 193, 1, 448, 128
-0.979064, 81, 65, 208, 192
-0.979501, 297, 193, 360, 320
-0.979863, 161, 193, 224, 320
-0.979863, 201, 241, 264, 368
-0.980134, 225, 9, 288, 72
-0.980214, 185, 81, 248, 144
-0.980338, 145, 1, 208, 256
-0.980363, 161, 9, 224, 72
-0.980403, 369, 1, 496, 256
-0.980562, 161, 9, 288, 72
-0.980774, 129, 49, 192, 112
-0.981913, 265, 33, 328, 160
-0.982144, 113, 225, 240, 352
-0.982203, 177, 1, 240, 256
-0.982256, 225, 225, 288, 352
-0.982357, 289, 241, 352, 368
-0.982461, 185, 177, 248, 304
-0.98262, 185, 225, 248, 288
-0.982719, 257, 33, 384, 160
-0.982876, 145, 97, 208, 160
-0.983244, 145, 121, 208, 184
-0.983462, 137, 129, 200, 256
-0.983598, 169, 81, 232, 208
-0.983634, 289, 241, 352, 304
-0.983821, 273, 161, 400, 288
-0.983994, 249, 1, 312, 256
-0.984063, 177, 57, 240, 120
-0.984245, 213, 1, 244, 128
-0.984339, 225, 249, 288, 312
-0.984443, 177, 193, 304, 320
-0.984855, 185, 129, 248, 256
-0.984994, 193, 129, 320, 256
-0.985039, 49, 113, 176, 240
-0.985347, 169, 241, 232, 368
-0.98539, 169, 121, 232, 184
-0.985478, 257, 193, 320, 320
-0.985665, 121, 297, 184, 360
-0.985704, 217, 65, 280, 192
-0.985834, 193, 241, 320, 304
-0.985841, 233, 1, 264, 128
-0.986311, 145, 145, 208, 208
-0.986537, 169, 1, 200, 128
-0.986588, 113, 49, 176, 176
-0.986679, 161, 129, 224, 256
-0.986775, 321, 193, 384, 320
-0.986861, 105, 257, 168, 320
-0.987019, 129, 73, 192, 136
-0.9871, 209, 89, 272, 152
-0.987147, 193, 1, 224, 128
-0.987209, 113, 57, 240, 120
-0.987213, 65, 241, 192, 368
-0.987272, 185, 169, 248, 232
-0.987487, 249, 1, 280, 128
-0.987524, 105, 225, 168, 352
-0.987526, 177, 97, 304, 160
-0.987554, 265, 241, 328, 368
-0.98764, 181, 1, 212, 128
-0.987654, 273, 129, 336, 256
-0.987673, 321, 225, 448, 352
-0.987931, 185, 9, 248, 72
-0.987953, 289, 273, 352, 336
-0.987963, 145, 241, 272, 304
-0.988198, 121, 177, 184, 304
-0.988206, 177, 249, 240, 312
-0.988331, 201, 249, 264, 312
-0.988436, 129, 217, 256, 280
-0.9885, 273, 217, 336, 280
-0.988597, 33, 177, 160, 304
-0.988647, 225, 1, 288, 256
-0.988675, 185, 129, 248, 375
-0.988751, 129, 225, 192, 352
-0.988964, 97, 313, 224, 375
-0.989171, 313, 209, 376, 272
-0.989184, 305, 65, 432, 192
-0.989199, 313, 273, 376, 336
-0.989307, 161, 225, 224, 288
-0.989827, 153, 17, 184, 144
-0.989949, 137, 25, 200, 88
-0.990089, 241, 113, 368, 240
-0.990101, 129, 129, 256, 192
-0.990181, 249, 241, 312, 304
-0.990183, 233, 177, 296, 304
-0.990311, 185, 201, 248, 264
-0.990326, 305, 241, 432, 304
-0.990328, 129, 1, 192, 375
-0.990445, 201, 1, 264, 256
-0.990509, 145, 305, 208, 368
-0.990516, 173, 97, 204, 160
-0.990565, 129, 33, 256, 96
-0.990574, 225, 225, 288, 288
-0.990724, 273, 217, 400, 280
-0.990828, 169, 145, 232, 208
-0.990849, 257, 1, 320, 375
-0.990927, 249, 25, 312, 88
-0.990969, 173, 97, 204, 224
-0.990984, 225, 217, 352, 280
-0.990997, 177, 201, 304, 264
-0.991014, 153, 97, 216, 352
-0.991016, 129, 169, 192, 232
-0.991023, 129, 89, 256, 152
-0.991035, 289, 185, 352, 248
-0.991043, 49, 137, 176, 200
-0.991107, 193, 33, 320, 96
-0.991158, 209, 73, 336, 136
-0.991168, 129, 161, 256, 224
-0.991322, 173, 121, 204, 184
-0.991359, 129, 257, 192, 320
-0.991415, 217, 73, 248, 136
-0.991448, 177, 137, 304, 200
-0.991449, 225, 65, 288, 128
-0.991489, 161, 273, 288, 336
-0.99156, 185, 85, 248, 116
-0.991595, 145, 193, 208, 256
-0.991643, 209, 233, 240, 296
-0.991792, 97, 257, 224, 320
-0.991845, 233, 153, 296, 216
-0.991854, 145, 125, 208, 156
-0.991863, 265, 193, 328, 256
-0.991886, 289, 281, 416, 344
-0.991894, 185, 253, 248, 284
-0.991917, 209, 85, 272, 116
-0.991963, 209, 145, 272, 208
-0.992053, 225, 257, 288, 288
-0.992107, 217, 13, 280, 44
-0.992141, 129, 225, 192, 288
-0.992163, 345, 209, 408, 336
-0.992262, 273, 41, 336, 104
-0.992266, 353, 273, 416, 336
-0.992318, 113, 185, 240, 248
-0.992326, 261, 1, 292, 128
-0.992364, 249, 97, 312, 224
-0.992406, 161, 13, 224, 44
-0.992414, 209, 265, 336, 328
-0.99247, 273, 145, 336, 208
-0.99249, 137, 85, 200, 116
-0.992512, 177, 73, 240, 104
-0.99258, 177, 181, 240, 212
-0.992584, 249, 121, 312, 184
-0.992593, 137, 57, 200, 88
-0.992622, 81, 113, 208, 176
-0.992637, 225, 129, 288, 375
-0.992638, 201, 97, 264, 128
-0.992652, 105, 233, 168, 296
-0.992653, 169, 121, 232, 152
-0.99269, 97, 289, 224, 352
-0.99272, 177, 97, 240, 128
-0.99272, 289, 265, 352, 296
-0.992745, 265, 249, 328, 280
-0.992758, 137, 313, 200, 344
-0.992768, 161, 257, 224, 288
-0.992769, 273, 49, 400, 112
-0.99278, 225, 185, 352, 248
-0.992796, 185, 137, 248, 168
-0.992804, 161, 85, 224, 116
-0.992814, 225, 245, 288, 276
-0.992817, 241, 149, 304, 180
-0.992819, 289, 253, 352, 284
-0.992828, 105, 253, 168, 284
-0.992835, 201, 241, 264, 272
-0.992836, 193, 13, 256, 44
-0.992836, 161, 141, 224, 172
-0.992926, 137, 137, 200, 168
-0.992927, 313, 313, 376, 375
-0.992927, 225, 313, 352, 375
-0.992929, 153, 25, 216, 56
-0.99294, 145, 45, 208, 76
-0.992951, 217, 85, 248, 116
-0.992994, 289, 285, 352, 316
-0.992996, 273, 33, 336, 288
-0.992998, 225, 145, 480, 272
-0.993, 321, 161, 448, 288
-0.993005, 121, 117, 184, 148
-0.993027, 185, 273, 248, 304
-0.993039, 121, 297, 184, 328
-0.993081, 105, 309, 168, 340
-0.993085, 137, 97, 200, 128
-0.993094, 273, 297, 336, 360
-0.993096, 249, 137, 312, 168
-0.993096, 297, 205, 360, 236
-0.993104, 169, 197, 232, 228
-0.993107, 273, 153, 336, 184
-0.993116, 153, 1, 216, 375
-0.993123, 81, 89, 208, 152
-0.993134, 153, 249, 216, 312
-0.993137, 129, 69, 192, 100
-0.993151, 249, 41, 312, 72
-0.993156, 129, 177, 192, 208
-0.993156, 273, 297, 336, 328
-0.993164, 233, 1, 296, 375
-0.993169, 217, 129, 280, 256
-0.993169, 313, 273, 376, 304
-0.993181, 233, 81, 296, 112
-0.993206, 173, 121, 204, 152
-0.993213, 137, 165, 200, 196
-0.993213, 161, 237, 224, 268
-0.993215, 1, 161, 64, 224
-0.993234, 233, 29, 296, 60
-0.99325, 313, 285, 376, 316
-0.993261, 145, 113, 208, 144
-0.99327, 289, 233, 352, 264
-0.993281, 289, 217, 352, 248
-0.993283, 297, 193, 360, 224
-0.993286, 129, 245, 192, 276
-0.993286, 249, 9, 280, 72
-0.993291, 153, 325, 216, 356
-0.993304, 321, 345, 384, 375
-0.993309, 177, 333, 240, 364
-0.993311, 241, 241, 368, 304
-0.993321, 173, 13, 204, 44
-0.993322, 113, 321, 176, 352
-0.993329, 97, 17, 352, 80
-0.993348, 165, 9, 196, 72
-0.993349, 105, 345, 168, 375
-0.993353, 265, 237, 328, 268
-0.993367, 345, 337, 408, 368
-0.993367, 273, 53, 336, 84
-0.993371, 213, 253, 244, 284
-0.99338, 161, 273, 224, 304
-0.993391, 249, 261, 312, 292
-0.993395, 297, 241, 328, 368
-0.993399, 105, 233, 168, 264
-0.9934, 265, 221, 328, 252
-0.993429, 185, 109, 248, 140
-0.993444, 185, 273, 248, 336
-0.993455, 129, 257, 192, 288
-0.993456, 145, 205, 208, 236
-0.993461, 273, 205, 336, 236
-0.993463, 137, 193, 200, 224
-0.993469, 193, 161, 320, 224
-0.993469, 225, 97, 256, 128
-0.993474, 257, 17, 288, 48
-0.993476, 217, 149, 280, 180
-0.993479, 225, 97, 288, 128
-0.993497, 113, 9, 240, 72
-0.993499, 129, 229, 192, 260
-0.993503, 185, 229, 248, 260
-0.993513, 177, 185, 208, 216
-0.993515, 105, 265, 168, 296
-0.993523, 193, 113, 256, 176
-0.993523, 237, 249, 268, 280
-0.993526, 177, 201, 208, 232
-0.99353, 97, 289, 160, 352
-0.993531, 273, 141, 336, 172
-0.993533, 193, 193, 256, 224
-0.993533, 169, 81, 200, 112
-0.993533, 241, 13, 272, 44
-0.993533, 169, 153, 232, 184
-0.993534, 133, 301, 164, 332
-0.993534, 305, 313, 432, 375
-0.993535, 97, 293, 160, 324
-0.99354, 273, 33, 304, 160
-0.993541, 149, 45, 180, 76
-0.993545, 189, 185, 220, 216
-0.993555, 189, 173, 220, 204
-0.993556, 201, 181, 264, 212
-0.993559, 225, 329, 288, 360
-0.993562, 289, 345, 352, 375
-0.993565, 229, 13, 260, 44
-0.993566, 193, 125, 256, 156
-0.993567, 145, 153, 208, 184
-0.993569, 185, 169, 248, 200
-0.993569, 313, 261, 376, 292
-0.99357, 301, 273, 332, 304
-0.99357, 229, 85, 260, 116
-0.99357, 141, 33, 172, 160
-0.993575, 297, 261, 328, 292
-0.993576, 249, 161, 312, 192
-0.993577, 145, 293, 176, 324
-0.993578, 193, 265, 224, 296
-0.993581, 217, 269, 280, 300
-0.993585, 345, 325, 408, 356
-0.993588, 185, 141, 216, 172
-0.993591, 181, 185, 212, 248
-0.993593, 137, 217, 200, 248
-0.993594, 201, 13, 232, 44
-0.993597, 273, 41, 304, 72
-0.993602, 97, 73, 160, 104
-0.993603, 157, 313, 188, 344
-0.993603, 121, 33, 184, 288
-0.993606, 261, 145, 292, 176
-0.993607, 385, 325, 448, 356
-0.993609, 241, 17, 304, 48
-0.993613, 297, 249, 328, 280
-0.993614, 353, 273, 416, 304
-0.993617, 121, 313, 152, 344
-0.993621, 105, 333, 168, 364
-0.993621, 241, 49, 304, 176
-0.993622, 201, 73, 264, 104
-0.993622, 81, 333, 144, 364
-0.993623, 169, 317, 200, 348
-0.993623, 113, 281, 144, 312
-0.993624, 301, 285, 332, 316
-0.993627, 225, 269, 256, 300
-0.99363, 125, 257, 156, 288
-0.993631, 209, 277, 240, 308
-0.993632, 221, 65, 252, 192
-0.993633, 201, 205, 264, 236
-0.993636, 317, 261, 348, 292
-0.993642, 185, 13, 216, 44
-0.993643, 145, 121, 176, 152
-0.993644, 149, 133, 180, 164
-0.993645, 345, 309, 408, 340
-0.993647, 129, 289, 160, 320
-0.993647, 117, 301, 148, 332
-0.993649, 161, 21, 192, 52
-0.99365, 205, 97, 236, 128
-0.993653, 153, 181, 216, 212
-0.993653, 129, 273, 192, 304
-0.993654, 17, 165, 80, 196
-0.993654, 313, 197, 344, 228
-0.993655, 345, 285, 408, 316
-0.993656, 137, 65, 168, 96
-0.993659, 145, 309, 176, 340
-0.993662, 225, 237, 256, 268
-0.993663, 189, 253, 220, 284
-0.993663, 121, 29, 184, 60
-0.993664, 249, 313, 312, 344
-0.993665, 225, 233, 288, 264
-0.993666, 105, 277, 168, 308
-0.993667, 169, 93, 200, 124
-0.993667, 33, 305, 160, 368
-0.993668, 137, 53, 168, 84
-0.993669, 33, 153, 96, 184
-0.993673, 113, 265, 144, 296
-0.993675, 121, 341, 152, 372
-0.993676, 121, 325, 152, 356
-0.993676, 329, 217, 392, 248
-0.993677, 281, 157, 312, 188
-0.993677, 213, 13, 244, 44
-0.993677, 105, 141, 168, 172
-0.993681, 165, 133, 196, 164
-0.993681, 205, 241, 236, 272
-0.993682, 185, 1, 248, 32
-0.993685, 385, 273, 448, 304
-0.993686, 137, 249, 168, 280
-0.993689, 113, 201, 176, 232
-0.993691, 337, 273, 368, 304
-0.993691, 313, 249, 376, 312
-0.993692, 273, 29, 336, 60
-0.993692, 157, 81, 188, 112
-0.993695, 153, 33, 184, 64
-0.993696, 297, 193, 328, 320
-0.993697, 261, 29, 292, 60
-0.993697, 321, 201, 384, 232
-0.993701, 201, 181, 232, 212
-0.993702, 301, 233, 332, 264
-0.993703, 285, 269, 316, 300
-0.993704, 313, 273, 344, 304
-0.993704, 177, 329, 208, 360
-0.993705, 317, 285, 348, 316
-0.993705, 181, 237, 212, 268
-0.993707, 133, 313, 164, 344
-0.993707, 145, 301, 208, 332
-0.993708, 321, 229, 384, 260
-0.993708, 169, 225, 200, 256
-0.993708, 105, 221, 168, 252
-0.993708, 301, 205, 332, 236
-0.993708, 193, 221, 224, 252
-0.993711, 285, 253, 316, 284
-0.993712, 345, 305, 408, 368
-0.993712, 205, 85, 236, 116
-0.993713, 161, 145, 192, 176
-0.993713, 81, 221, 144, 252
-0.993713, 273, 309, 336, 340
-0.993715, 233, 69, 296, 100
-0.993715, 377, 293, 408, 324
-0.993717, 173, 153, 204, 184
-0.993718, 225, 137, 288, 168
-0.993719, 305, 301, 368, 332
-0.993721, 321, 345, 352, 375
-0.993726, 273, 193, 336, 224
-0.993728, 205, 265, 236, 296
-0.993729, 137, 329, 168, 360
-0.993733, 113, 245, 144, 276
-0.993733, 337, 261, 400, 292
-0.993741, 165, 245, 196, 276
-0.993742, 25, 65, 56, 96
-0.993742, 285, 213, 316, 244
-0.993742, 213, 201, 244, 232
-0.993744, 217, 1, 280, 32
-0.993746, 133, 341, 164, 372
-0.993746, 285, 49, 316, 80
-0.993747, 237, 97, 268, 128
-0.993747, 125, 245, 156, 276
-0.993748, 369, 293, 432, 324
-0.993751, 217, 165, 248, 196
-0.993751, 181, 77, 212, 108
-0.993752, 141, 101, 172, 132
-0.993754, 217, 1, 248, 32
-0.993756, 221, 189, 252, 220
-0.993757, 177, 209, 240, 240
-0.993757, 241, 81, 272, 112
-0.993757, 277, 141, 308, 172
-0.993758, 317, 249, 348, 280
-0.993759, 157, 233, 188, 264
-0.99376, 181, 225, 212, 256
-0.993761, 209, 9, 336, 72
-0.993762, 189, 197, 220, 228
-0.993762, 373, 241, 404, 272
-0.993763, 229, 233, 260, 296
-0.993764, 301, 217, 332, 248
-0.993765, 373, 305, 404, 336
-0.993767, 233, 197, 264, 228
-0.99377, 249, 257, 280, 288
-0.99377, 325, 193, 356, 224
-0.993771, 377, 253, 408, 284
-0.993772, 177, 109, 208, 140
-0.993773, 389, 309, 420, 340
-0.993774, 5, 229, 36, 260
-0.993775, 313, 233, 344, 264
-0.993777, 265, 257, 296, 288
-0.993778, 157, 297, 188, 328
-0.993779, 193, 121, 224, 152
-0.99378, 225, 249, 256, 280
-0.993782, 177, 9, 208, 72
-0.993782, 285, 201, 316, 232
-0.993782, 141, 165, 172, 196
-0.993783, 177, 173, 208, 204
-0.993784, 133, 273, 164, 304
-0.993786, 109, 345, 140, 375
-0.993791, 305, 309, 336, 340
-0.993791, 117, 217, 148, 248
-0.993793, 289, 281, 320, 312
-0.993794, 297, 193, 328, 224
-0.993794, 245, 1, 276, 32
-0.993796, 241, 149, 272, 180
-0.993796, 293, 297, 324, 328
-0.993798, 257, 133, 288, 164
-0.993799, 249, 241, 280, 272
-0.993801, 169, 213, 200, 244
-0.993839, 17, 161, 144, 224
-0.993873, 153, 73, 216, 136
-0.993961, 313, 1, 376, 375
-0.993984, 65, 57, 192, 120
-0.993997, 257, 1, 384, 64
-0.994038, 161, 81, 192, 144
-0.99408, 265, 265, 328, 328
-0.994101, 273, 193, 400, 256
-0.994209, 81, 217, 208, 280
-0.994269, 173, 209, 204, 336
-0.994294, 33, 145, 96, 208
-0.994314, 321, 209, 448, 272
-0.994335, 321, 113, 448, 240
-0.994353, 261, 17, 292, 80
-0.99437, 81, 241, 144, 368
-0.994386, 97, 65, 160, 128
-0.994489, 81, 33, 208, 96
-0.994583, 97, 41, 352, 104
-0.994607, 185, 177, 216, 304
-0.994612, 121, 97, 184, 160
-0.994614, 117, 289, 148, 352
-0.994633, 249, 97, 312, 352
-0.994651, 149, 241, 180, 368
-0.994654, 125, 225, 156, 352
-0.994657, 241, 105, 368, 168
-0.994666, 185, 97, 216, 224
-0.994679, 137, 49, 168, 112
-0.994712, 369, 273, 496, 336
-0.994722, 149, 49, 180, 112
-0.994725, 161, 297, 288, 360
-0.994762, 229, 225, 260, 352
-0.994765, 225, 129, 352, 192
-0.994773, 213, 241, 244, 368
-0.994792, 33, 185, 160, 248
-0.994815, 153, 305, 184, 368
-0.994816, 121, 193, 184, 256
-0.994816, 161, 65, 192, 192
-0.994822, 197, 241, 228, 368
-0.994862, 81, 249, 144, 312
-0.994886, 65, 17, 192, 144
-0.994896, 257, 25, 384, 88
-0.994905, 289, 1, 352, 375
-0.994912, 177, 305, 240, 368
-0.994932, 313, 49, 376, 176
-0.994967, 133, 289, 164, 352
-0.994967, 313, 177, 344, 304
-0.994979, 185, 1, 248, 375
-0.994993, 97, 97, 160, 224
-0.995014, 297, 145, 360, 272
-0.995048, 33, 65, 160, 192
-0.995125, 173, 49, 204, 176
-0.995139, 233, 81, 264, 144
-0.995147, 129, 129, 192, 375
-0.995173, 289, 81, 416, 144
-0.995187, 313, 185, 376, 248
-0.99519, 353, 249, 416, 312
-0.995213, 49, 249, 176, 312
-0.995255, 369, 161, 496, 288
-0.995271, 1, 73, 64, 136
-0.99529, 213, 193, 244, 320
-0.995345, 209, 177, 272, 304
-0.995358, 217, 9, 248, 72
-0.995372, 113, 193, 144, 320
-0.995404, 201, 9, 232, 72
-0.995438, 65, 161, 192, 224
-0.995455, 25, 145, 88, 272
-0.995468, 385, 249, 448, 312
-0.995482, 1, 129, 128, 256
-0.995504, 369, 297, 496, 360
-0.995512, 161, 273, 224, 336
-0.995532, 161, 65, 288, 128
-0.995545, 233, 9, 264, 72
-0.995555, 161, 169, 224, 232
-0.995557, 49, 281, 176, 344
-0.995614, 369, 209, 496, 336
-0.995621, 273, 169, 400, 232
-0.995638, 221, 97, 252, 160
-0.995661, 241, 289, 368, 352
-0.9957, 113, 241, 144, 368
-0.995815, 97, 137, 160, 200
-0.995846, 273, 129, 336, 375
-0.995849, 185, 225, 216, 288
-0.995872, 289, 81, 352, 208
-0.995901, 249, 217, 312, 280
-0.995941, 353, 249, 480, 312
-0.995969, 217, 193, 280, 256
-0.995974, 217, 257, 248, 320
-0.995986, 121, 313, 152, 375
-0.995994, 337, 225, 400, 288
-0.996079, 193, 161, 224, 224
-0.996086, 273, 33, 304, 96
-0.996087, 285, 33, 316, 160
-0.99611, 125, 249, 156, 312
-0.996133, 89, 313, 152, 375
-0.996164, 65, 1, 192, 64
-0.996205, 33, 225, 160, 288
-0.996218, 185, 129, 216, 192
-0.996219, 17, 73, 144, 136
-0.996266, 297, 241, 328, 304
-0.996292, 161, 13, 288, 44
-0.996316, 193, 241, 448, 304
-0.996343, 233, 313, 296, 375
-0.996363, 321, 169, 448, 232
-0.996397, 17, 17, 144, 144
-0.996408, 265, 1, 328, 64
-0.996411, 273, 105, 336, 168
-0.996419, 153, 25, 184, 88
-0.996419, 313, 193, 344, 256
-0.996433, 81, 217, 144, 280
-0.996473, 97, 249, 352, 312
-0.9965, 1, 65, 256, 128
-0.996511, 321, 65, 384, 128
-0.996554, 385, 273, 448, 336
-0.996564, 137, 225, 168, 352
-0.996641, 189, 9, 220, 72
-0.996651, 105, 1, 168, 375
-0.996684, 301, 265, 332, 328
-0.996721, 369, 217, 496, 280
-0.996731, 17, 49, 144, 112
-0.996734, 231, 81, 246, 144
-0.996757, 129, 65, 384, 128
-0.996758, 121, 121, 184, 184
-0.996778, 169, 145, 200, 208
-0.996797, 161, 121, 192, 184
-0.996813, 81, 193, 144, 320
-0.99682, 233, 65, 264, 192
-0.996834, 65, 89, 320, 152
-0.996838, 197, 201, 228, 264
-0.996872, 209, 81, 240, 208
-0.996922, 249, 49, 312, 112
-0.996934, 125, 65, 156, 192
-0.996937, 173, 73, 204, 136
-0.996946, 1, 209, 64, 272
-0.996957, 345, 1, 408, 375
-0.996964, 173, 145, 204, 272
-0.996969, 289, 33, 352, 160
-0.997024, 165, 305, 196, 368
-0.997039, 297, 217, 328, 280
-0.997043, 281, 161, 312, 288
-0.997043, 353, 65, 416, 192
-0.997056, 1, 1, 64, 375
-0.997057, 1, 49, 64, 112
-0.997102, 225, 81, 240, 144
-0.997115, 1, 137, 128, 200
-0.997117, 305, 105, 432, 168
-0.997117, 289, 145, 416, 208
-0.99714, 129, 113, 384, 176
-0.997181, 185, 241, 216, 368
-0.997183, 1, 313, 256, 375
-0.997198, 97, 153, 352, 216
-0.997202, 193, 209, 448, 272
-0.997208, 225, 297, 480, 360
-0.997225, 169, 201, 200, 264
-0.997245, 129, 273, 384, 336
-0.997287, 205, 81, 236, 144
-0.997398, 225, 265, 480, 328
-0.997412, 161, 129, 192, 256
-0.997422, 153, 281, 184, 344
-0.997422, 1, 25, 256, 88
-0.997431, 229, 257, 260, 320
-0.997432, 1, 249, 128, 312
-0.997452, 313, 241, 376, 368
-0.997453, 257, 169, 320, 232
-0.997456, 385, 241, 448, 368
-0.997462, 175, 81, 190, 144
-0.997498, 113, 265, 144, 328
-0.997498, 137, 265, 168, 328
-0.997503, 113, 233, 144, 296
-0.997506, 265, 225, 296, 352
-0.997517, 277, 121, 308, 184
-0.997523, 33, 129, 288, 192
-0.997544, 129, 249, 256, 280
-0.997558, 113, 9, 176, 72
-0.997569, 189, 1, 220, 256
-0.997607, 209, 257, 336, 288
-0.997617, 149, 81, 180, 208
-0.997637, 227, 249, 242, 312
-0.997655, 129, 85, 256, 116
-0.997667, 325, 177, 356, 304
-0.99767, 97, 225, 352, 288
-0.997679, 217, 145, 248, 272
-0.99768, 173, 1, 204, 256
-0.9977, 113, 73, 240, 104
-0.997704, 97, 113, 160, 176
-0.99771, 1, 65, 500, 128
-0.997713, 289, 261, 416, 292
-0.997723, 193, 89, 448, 152
-0.997735, 225, 209, 256, 272
-0.997747, 177, 25, 304, 56
-0.997766, 133, 313, 164, 375
-0.997768, 97, 313, 352, 375
-0.997776, 237, 81, 252, 144
-0.997783, 161, 33, 224, 96
-0.99779, 197, 177, 228, 304
-0.9978, 185, 193, 200, 256
-0.997808, 1, 41, 500, 104
-0.997815, 233, 89, 296, 152
-0.997859, 193, 89, 320, 120
-0.997884, 369, 1, 432, 375
-0.997887, 225, 113, 480, 176
-0.997889, 225, 121, 288, 184
-0.997903, 289, 277, 416, 308
-0.997905, 117, 209, 148, 272
-0.997907, 81, 313, 208, 344
-0.997909, 321, 145, 384, 272
-0.997919, 269, 1, 300, 256
-0.99792, 177, 121, 192, 184
-0.997922, 1, 153, 256, 216
-0.997935, 145, 97, 272, 128
-0.997936, 133, 161, 164, 288
-0.99794, 157, 297, 172, 360
-0.99794, 197, 249, 228, 312
-0.997943, 177, 133, 304, 164
-0.997955, 187, 113, 202, 176
-0.997962, 1, 25, 128, 88
-0.997982, 273, 73, 336, 136
-0.997985, 285, 209, 316, 336
-0.998005, 105, 129, 168, 375
-0.998007, 57, 121, 120, 184
-0.998019, 97, 133, 224, 164
-0.998019, 237, 177, 268, 304
-0.998022, 97, 177, 352, 240
-0.998032, 97, 177, 160, 240
-0.998041, 171, 121, 186, 184
-0.998044, 1, 193, 64, 320
-0.998047, 219, 73, 234, 136
-0.998049, 245, 241, 276, 368
-0.99805, 33, 105, 160, 168
-0.998056, 17, 225, 144, 352
-0.998066, 5, 1, 36, 128
-0.998072, 129, 53, 256, 84
-0.998088, 191, 185, 206, 248
-0.998096, 73, 273, 136, 336
-0.998097, 369, 137, 496, 200
-0.99811, 257, 1, 288, 256
-0.998118, 297, 97, 360, 352
-0.998119, 141, 57, 156, 120
-0.998123, 369, 65, 496, 128
-0.998126, 197, 65, 228, 192
-0.99813, 289, 289, 416, 320
-0.998132, 1, 105, 500, 168
-0.998133, 239, 241, 254, 304
-0.998138, 225, 65, 480, 128
-0.998145, 113, 181, 240, 212
-0.998151, 1, 209, 256, 272
-0.998152, 161, 237, 288, 268
-0.998162, 131, 313, 146, 375
-0.998163, 1, 233, 256, 296
-0.998165, 165, 17, 180, 80
-0.998166, 179, 9, 194, 72
-0.998166, 233, 9, 248, 72
-0.998168, 213, 233, 228, 296
-0.99818, 169, 73, 184, 136
-0.99818, 133, 289, 148, 352
-0.998181, 97, 121, 224, 152
-0.998184, 97, 325, 224, 356
-0.998191, 209, 269, 336, 300
-0.998192, 57, 145, 120, 208
-0.998208, 225, 245, 352, 276
-0.998213, 193, 123, 224, 138
-0.998213, 261, 155, 292, 170
-0.998213, 137, 315, 168, 330
-0.998214, 385, 297, 448, 360
-0.998214, 205, 93, 236, 108
-0.998214, 193, 229, 224, 244
-0.998214, 313, 359, 344, 374
-0.998214, 113, 245, 144, 260
-0.998214, 301, 297, 332, 312
-0.998215, 173, 227, 204, 242
-0.998215, 377, 277, 408, 292
-0.998216, 313, 219, 344, 234
-0.998216, 377, 265, 408, 280
-0.998216, 149, 123, 180, 138
-0.998216, 161, 319, 192, 334
-0.998217, 125, 267, 156, 282
-0.998217, 177, 249, 208, 264
-0.998217, 109, 351, 140, 366
-0.998217, 185, 17, 216, 32
-0.998218, 149, 293, 180, 308
-0.998218, 141, 63, 172, 78
-0.998218, 229, 199, 260, 214
-0.998218, 285, 279, 316, 294
-0.998219, 113, 283, 144, 298
-0.998219, 113, 291, 144, 306
-0.998219, 229, 275, 260, 290
-0.998219, 209, 13, 240, 28
-0.998219, 277, 147, 308, 162
-0.998219, 377, 287, 408, 302
-0.99822, 357, 275, 388, 290
-0.99822, 173, 235, 204, 250
-0.99822, 203, 9, 218, 72
-0.99822, 177, 179, 208, 194
-0.99822, 113, 297, 144, 312
-0.998221, 181, 131, 212, 146
-0.998221, 317, 269, 348, 284
-0.998221, 157, 89, 188, 104
-0.998222, 113, 201, 240, 232
-0.998222, 161, 39, 192, 54
-0.998223, 277, 159, 308, 174
-0.998223, 173, 201, 204, 216
-0.998223, 293, 235, 324, 250
-0.998224, 169, 207, 200, 222
-0.998224, 149, 137, 180, 152
-0.998224, 209, 85, 240, 100
-0.998224, 373, 209, 404, 336
-0.998225, 261, 33, 292, 48
-0.998225, 185, 141, 216, 156
-0.998225, 297, 261, 328, 276
-0.998225, 133, 335, 164, 350
-0.998225, 149, 247, 180, 262
-0.998226, 201, 241, 232, 256
-0.998226, 273, 45, 304, 60
-0.998226, 125, 301, 156, 316
-0.998227, 157, 1, 188, 256
-0.998227, 109, 305, 140, 320
-0.998228, 137, 69, 168, 84
-0.998228, 317, 275, 348, 290
-0.998229, 133, 341, 164, 356
-0.998229, 113, 261, 144, 276
-0.998229, 285, 217, 316, 232
-0.99823, 301, 291, 332, 306
-0.99823, 213, 233, 244, 248
-0.99823, 125, 315, 156, 330
-0.998231, 201, 183, 232, 198
-0.998231, 373, 311, 404, 326
-0.998232, 205, 99, 236, 114
-0.998232, 317, 285, 348, 300
-0.998232, 125, 249, 156, 264
-0.998232, 177, 185, 208, 200
-0.998233, 229, 57, 244, 120
-0.998233, 113, 235, 144, 250
-0.998233, 117, 335, 148, 350
-0.998233, 209, 1, 272, 375
-0.998234, 153, 313, 184, 328
-0.998234, 113, 273, 144, 288
-0.998234, 301, 227, 332, 242
-0.998234, 313, 227, 344, 242
-0.998234, 157, 241, 188, 256
-0.998235, 101, 361, 132, 375
-0.998235, 177, 147, 208, 162
-0.998235, 169, 137, 200, 152
-0.998236, 305, 209, 336, 224
-0.998236, 313, 255, 344, 270
-0.998237, 313, 235, 344, 250
-0.998237, 137, 253, 168, 268
-0.998237, 265, 39, 296, 54
-0.998237, 301, 217, 332, 232
-0.998237, 237, 95, 268, 110
-0.998238, 233, 269, 264, 284
-0.998238, 153, 47, 184, 62
-0.998239, 149, 53, 180, 68
-0.998239, 125, 261, 156, 276
-0.998239, 377, 299, 408, 314
-0.99824, 169, 131, 200, 146
-0.998242, 301, 251, 332, 266
-0.998242, 297, 267, 328, 282
-0.998243, 225, 15, 256, 30
-0.998243, 213, 275, 244, 290
-0.998243, 113, 311, 144, 326
-0.998244, 181, 209, 212, 224
-0.998244, 181, 87, 212, 102
-0.998244, 113, 255, 144, 270
-0.998244, 257, 23, 288, 38
-0.998245, 189, 257, 220, 272
-0.998245, 177, 119, 208, 134
-0.998247, 277, 153, 308, 216
-0.998248, 267, 17, 282, 80
-0.998249, 213, 251, 244, 266
-0.998249, 189, 269, 220, 284
-0.998249, 169, 95, 200, 110
-0.998251, 301, 285, 332, 300
-0.998253, 189, 185, 220, 200
-0.998254, 137, 293, 168, 308
-0.998255, 221, 241, 252, 256
-0.998255, 157, 83, 188, 98
-0.998256, 297, 243, 328, 258
-0.998257, 121, 343, 152, 358
-0.998257, 149, 131, 180, 146
-0.998258, 237, 255, 268, 270
-0.998259, 113, 267, 144, 282
-0.99826, 313, 245, 344, 260
-0.99826, 297, 279, 328, 294
-0.998263, 113, 357, 144, 372
-0.998263, 229, 249, 260, 264
-0.998264, 261, 149, 292, 164
-0.998265, 301, 273, 332, 288
-0.998268, 307, 217, 322, 280
-0.998269, 249, 17, 280, 32
-0.99827, 189, 179, 220, 194
-0.998271, 217, 99, 248, 114
-0.998271, 217, 259, 248, 274
-0.998276, 129, 37, 256, 68
-0.998282, 201, 305, 264, 368
-0.998282, 209, 269, 240, 284
-0.998287, 169, 89, 200, 104
-0.99829, 169, 83, 200, 98
-0.998291, 173, 17, 204, 32
-0.998292, 217, 93, 248, 108
-0.998298, 177, 121, 304, 152
-0.998301, 317, 225, 348, 352
-0.998302, 171, 9, 186, 72
-0.998302, 189, 9, 204, 72
-0.998305, 73, 145, 136, 272
-0.998311, 129, 261, 256, 292
-0.998312, 173, 125, 204, 140
-0.998316, 139, 289, 154, 352
-0.998326, 279, 33, 294, 96
-0.998332, 237, 13, 268, 28
-0.998336, 289, 337, 416, 368
-0.998338, 233, 233, 248, 296
-0.998341, 177, 145, 304, 176
-0.998345, 225, 233, 352, 264
-0.998348, 261, 9, 276, 72
-0.998352, 221, 87, 252, 102
-0.998353, 169, 305, 184, 368
-0.998366, 273, 221, 400, 252
-0.998369, 193, 41, 320, 72
-0.998371, 337, 201, 400, 264
-0.998382, 145, 273, 272, 304
-0.998385, 151, 49, 166, 112
-0.998387, 195, 9, 210, 72
-0.998405, 211, 9, 226, 72
-0.998408, 191, 225, 206, 288
-0.998413, 129, 25, 256, 56
-0.998414, 221, 241, 236, 304
-0.998416, 185, 145, 200, 208
-0.99842, 301, 257, 316, 320
-0.998421, 377, 209, 440, 272
-0.998421, 209, 273, 272, 336
-0.998431, 193, 185, 448, 248
-0.998432, 181, 89, 196, 152
-0.998432, 129, 153, 256, 184
-0.998436, 9, 65, 72, 192
-0.998438, 273, 249, 400, 280
-0.998451, 369, 193, 496, 256
-0.998452, 225, 1, 480, 64
-0.998462, 151, 297, 166, 360
-0.998467, 249, 9, 264, 72
-0.998471, 1, 265, 64, 328
-0.998472, 227, 9, 242, 72
-0.998477, 129, 249, 144, 312
-0.998482, 255, 9, 270, 72
-0.998486, 201, 57, 264, 120
-0.998499, 139, 313, 154, 375
-0.998508, 289, 301, 416, 332
-0.998513, 233, 85, 248, 116
-0.998528, 257, 53, 384, 84
-0.998529, 163, 289, 178, 352
-0.998531, 157, 41, 172, 104
-0.998539, 219, 9, 234, 72
-0.998541, 1, 185, 256, 248
-0.998549, 201, 1, 232, 256
-0.998556, 113, 165, 240, 196
-0.998563, 225, 193, 352, 224
-0.998564, 239, 9, 254, 72
-0.998573, 193, 137, 448, 200
-0.998578, 257, 29, 384, 60
-0.998587, 121, 289, 136, 352
-0.99859, 147, 273, 162, 336
-0.998591, 273, 237, 400, 268
-0.9986, 233, 257, 248, 320
-0.9986, 217, 1, 248, 256
-0.998604, 193, 73, 320, 104
-0.998604, 273, 209, 400, 240
-0.998605, 293, 113, 324, 240
-0.998609, 177, 209, 192, 272
-0.998616, 161, 225, 288, 256
-0.998618, 145, 305, 160, 368
-0.99862, 49, 145, 176, 176
-0.998635, 177, 93, 240, 108
-0.998636, 97, 201, 352, 264
-0.998639, 81, 225, 208, 256
-0.998644, 1, 273, 500, 336
-0.998645, 127, 289, 142, 352
-0.998646, 201, 87, 264, 102
-0.998651, 177, 109, 304, 140
-0.998657, 161, 131, 224, 146
-0.998663, 177, 87, 240, 102
-0.998663, 301, 289, 332, 352
-0.998663, 217, 15, 280, 30
-0.998665, 185, 169, 200, 232
-0.998667, 185, 257, 248, 272
-0.998669, 193, 121, 208, 184
-0.998669, 231, 209, 246, 272
-0.998673, 209, 93, 272, 108
-0.998674, 177, 99, 240, 114
-0.998677, 161, 125, 224, 140
-0.99868, 227, 85, 242, 116
-0.99868, 241, 249, 272, 312
-0.998681, 201, 251, 264, 266
-0.998683, 161, 17, 224, 32
-0.998683, 177, 81, 240, 96
-0.998685, 145, 137, 208, 152
-0.998685, 225, 255, 288, 270
-0.998685, 137, 91, 200, 106
-0.998685, 193, 263, 256, 278
-0.998686, 81, 213, 208, 244
-0.998688, 137, 83, 200, 98
-0.998692, 129, 217, 160, 280
-0.998693, 177, 235, 240, 250
-0.998694, 165, 121, 180, 184
-0.998697, 105, 259, 168, 274
-0.998699, 203, 161, 218, 224
-0.998703, 265, 253, 328, 268
-0.998704, 289, 273, 352, 288
-0.998706, 273, 25, 288, 88
-0.99871, 297, 263, 360, 278
-0.998711, 145, 145, 208, 160
-0.998711, 201, 99, 264, 114
-0.998714, 225, 261, 288, 276
-0.998715, 129, 313, 192, 328
-0.998716, 161, 257, 224, 272
-0.998718, 65, 305, 128, 368
-0.998719, 219, 97, 234, 160
-0.998719, 329, 275, 392, 290
-0.99872, 137, 99, 200, 114
-0.99872, 273, 113, 304, 240
-0.998721, 193, 161, 208, 224
-0.998721, 121, 137, 184, 152
-0.998722, 273, 261, 336, 276
-0.998723, 175, 57, 190, 120
-0.998723, 233, 153, 296, 168
-0.998724, 121, 253, 184, 268
-0.998724, 185, 141, 248, 156
-0.998724, 201, 269, 264, 284
-0.998724, 153, 43, 216, 58
-0.998725, 149, 129, 180, 192
-0.998726, 289, 255, 352, 270
-0.998727, 185, 229, 248, 244
-0.998728, 169, 273, 232, 288
-0.998728, 289, 219, 352, 234
-0.998729, 289, 245, 352, 260
-0.998729, 137, 131, 200, 146
-0.99873, 177, 181, 240, 196
-0.99873, 137, 125, 200, 140
-0.99873, 289, 281, 352, 296
-0.99873, 105, 265, 168, 280
-0.99873, 313, 269, 376, 284
-0.998731, 137, 63, 200, 78
-0.998732, 281, 303, 344, 318
-0.998732, 201, 245, 264, 260
-0.998733, 257, 153, 320, 168
-0.998733, 153, 29, 216, 44
-0.998734, 175, 81, 190, 112
-0.998735, 137, 57, 200, 72
-0.998735, 187, 89, 202, 152
-0.998737, 129, 73, 192, 88
-0.998737, 161, 205, 224, 220
-0.998738, 217, 161, 248, 224
-0.998738, 161, 181, 288, 212
-0.998739, 81, 361, 144, 375
-0.998739, 129, 259, 192, 274
-0.99874, 113, 323, 176, 338
-0.998742, 225, 21, 288, 36
-0.998742, 145, 49, 208, 64
-0.998742, 265, 245, 328, 260
-0.998742, 289, 281, 320, 344
-0.998742, 289, 225, 352, 240
-0.998743, 305, 235, 368, 250
-0.998743, 153, 233, 216, 248
-0.998743, 233, 35, 296, 50
-0.998744, 249, 147, 312, 162
-0.998744, 193, 13, 256, 28
-0.998744, 313, 257, 376, 272
-0.998744, 161, 241, 224, 256
-0.998744, 105, 295, 168, 310
-0.998745, 313, 359, 376, 374
-0.998745, 81, 61, 208, 92
-0.998745, 313, 281, 376, 296
-0.998746, 313, 219, 376, 234
-0.998746, 233, 95, 296, 110
-0.998746, 97, 251, 160, 266
-0.998746, 193, 207, 256, 222
-0.998746, 137, 321, 200, 336
-0.998746, 161, 265, 224, 280
-0.998747, 225, 269, 288, 284
-0.998747, 297, 205, 360, 220
-0.998748, 289, 359, 352, 374
-0.998748, 161, 119, 224, 134
-0.998748, 105, 311, 168, 326
-0.998748, 185, 127, 248, 142
-0.998749, 185, 135, 248, 150
-0.99875, 353, 265, 416, 280
-0.99875, 293, 185, 324, 248
-0.99875, 201, 275, 264, 290
-0.998751, 249, 261, 312, 276
-0.998751, 345, 339, 408, 354
-0.998751, 353, 273, 416, 288
-0.998752, 285, 129, 300, 192
-0.998752, 273, 209, 336, 224
-0.998753, 273, 235, 336, 250
-0.998753, 81, 1, 144, 375
-0.998754, 225, 249, 288, 264
-0.998754, 153, 35, 216, 50
-0.998755, 105, 243, 168, 258
-0.998755, 129, 179, 192, 194
-0.998755, 161, 23, 224, 38
-0.998756, 177, 75, 240, 90
-0.998756, 145, 251, 208, 266
-0.998756, 297, 213, 360, 228
-0.998757, 105, 357, 168, 372
-0.998757, 89, 271, 152, 286
-0.998758, 313, 351, 376, 366
-0.998758, 113, 329, 176, 344
-0.998758, 345, 287, 408, 302
-0.998758, 281, 293, 344, 308
-0.998759, 177, 249, 240, 264
-0.998759, 129, 267, 192, 282
-0.998759, 177, 205, 304, 236
-0.99876, 313, 287, 376, 302
-0.99876, 265, 29, 328, 44
-0.99876, 337, 259, 400, 274
-0.99876, 145, 327, 208, 342
-0.998761, 345, 327, 408, 342
-0.998761, 249, 45, 312, 60
-0.998761, 273, 147, 336, 162
-0.998762, 177, 105, 240, 120
-0.998762, 177, 147, 240, 162
-0.998762, 273, 203, 336, 218
-0.998762, 233, 89, 296, 104
-0.998762, 233, 29, 296, 44
-0.998762, 273, 159, 336, 174
-0.998763, 273, 309, 336, 324
-0.998763, 289, 287, 352, 302
-0.998763, 307, 193, 322, 256
-0.998763, 137, 227, 200, 242
-0.998763, 273, 267, 336, 282
-0.998763, 137, 287, 200, 302
-0.998763, 121, 301, 184, 316
-0.998764, 129, 115, 192, 130
-0.998764, 145, 151, 208, 166
-0.998764, 241, 159, 304, 174
-0.99877, 209, 173, 336, 204
-0.998773, 81, 241, 208, 272
-0.998773, 113, 345, 240, 375
-0.998776, 317, 201, 332, 264
-0.998778, 137, 249, 152, 312
-0.998782, 173, 121, 188, 152
-0.998782, 297, 49, 328, 176
-0.998785, 169, 97, 184, 160
-0.998785, 209, 169, 272, 232
-0.998791, 213, 169, 228, 232
-0.998794, 177, 313, 192, 375
-0.998796, 369, 97, 496, 160
-0.998797, 345, 177, 376, 304
-0.9988, 291, 153, 306, 216
-0.998802, 177, 313, 208, 375
-0.998805, 305, 317, 432, 348
-0.998811, 81, 261, 208, 292
-0.998814, 281, 233, 312, 296
-0.998815, 207, 241, 222, 304
-0.998817, 181, 57, 196, 120
-0.998819, 285, 41, 316, 104
-0.99882, 225, 221, 352, 252
-0.998824, 81, 297, 208, 328
-0.998825, 313, 273, 328, 336
-0.99883, 211, 265, 226, 328
-0.998837, 185, 233, 200, 296
-0.998849, 205, 265, 220, 328
-0.99886, 117, 313, 132, 375
-0.998862, 219, 85, 234, 116
-0.998871, 161, 225, 192, 352
-0.998878, 1, 241, 64, 304
-0.998879, 189, 185, 204, 216
-0.998885, 1, 313, 500, 375
-0.998891, 313, 313, 344, 375
-0.998891, 81, 285, 208, 316
-0.998894, 139, 161, 154, 224
-0.998897, 1, 185, 500, 248
-0.9989, 229, 257, 244, 288
-0.998901, 267, 249, 282, 312
-0.998904, 49, 169, 176, 200
-0.998905, 235, 57, 250, 120
-0.99891, 285, 41, 300, 104
-0.998912, 311, 241, 326, 304
-0.998915, 193, 41, 448, 104
-0.998918, 119, 209, 134, 272
-0.998918, 219, 209, 234, 272
-0.998918, 307, 265, 322, 328
-0.998919, 161, 305, 288, 336
-0.99893, 279, 121, 294, 184
-0.998932, 241, 313, 368, 344
-0.998935, 225, 205, 352, 236
-0.998935, 81, 93, 208, 124
-0.998939, 337, 329, 464, 360
-0.998941, 145, 105, 176, 168
-0.998942, 125, 193, 140, 256
-0.998944, 231, 269, 246, 300
-0.998945, 129, 109, 256, 140
-0.998955, 191, 173, 206, 204
-0.998957, 321, 245, 448, 276
-0.998966, 203, 13, 218, 44
-0.99897, 273, 121, 288, 184
-0.99897, 321, 225, 448, 256
-0.998972, 189, 13, 204, 44
-0.998973, 49, 125, 176, 156
-0.998976, 177, 337, 304, 368
-0.998981, 271, 21, 286, 52
-0.998994, 237, 177, 252, 240
-0.998994, 133, 225, 148, 288
-0.998995, 131, 297, 146, 328
-0.999002, 209, 161, 336, 192
-0.999004, 291, 41, 306, 104
-0.999008, 129, 293, 256, 324
-0.999009, 369, 305, 496, 336
-0.99901, 237, 97, 252, 128
-0.999013, 297, 281, 312, 344
-0.999022, 229, 13, 244, 44
-0.999024, 97, 273, 224, 304
-0.999025, 179, 145, 194, 208
-0.999025, 217, 273, 232, 336
-0.999026, 173, 313, 188, 344
-0.99903, 153, 265, 168, 328
-0.999031, 283, 161, 298, 224
-0.999031, 65, 37, 192, 68
-0.999034, 211, 13, 226, 44
-0.999034, 235, 13, 250, 44
-0.999037, 273, 233, 288, 296
-0.99904, 135, 65, 150, 128
-0.99904, 177, 241, 192, 304
-0.999043, 227, 97, 242, 128
-0.999046, 353, 81, 416, 144
-0.999046, 257, 41, 384, 72
-0.999046, 319, 289, 334, 352
-0.999049, 179, 185, 194, 248
-0.999051, 241, 9, 256, 40
-0.999053, 171, 17, 186, 48
-0.999056, 1, 165, 128, 196
-0.999059, 65, 109, 192, 140
-0.999066, 181, 193, 196, 224
-0.999066, 65, 73, 192, 104
-0.999069, 265, 17, 280, 48
-0.999072, 153, 49, 168, 80
-0.999075, 159, 309, 174, 340
-0.999076, 179, 13, 194, 44
-0.999083, 237, 241, 252, 272
-0.999083, 173, 145, 188, 208
-0.999085, 125, 313, 140, 375
-0.999085, 189, 329, 204, 360
-0.999088, 291, 121, 306, 184
-0.999088, 81, 49, 208, 80
-0.999089, 89, 41, 152, 104
-0.999089, 209, 13, 336, 44
-0.999092, 187, 121, 202, 152
-0.999092, 289, 265, 304, 328
-0.999094, 193, 61, 320, 92
-0.999094, 211, 145, 226, 208
-0.999096, 261, 241, 292, 304
-0.999103, 123, 265, 138, 328
-0.99911, 125, 225, 140, 288
-0.99911, 241, 341, 368, 372
-0.999111, 143, 57, 158, 88
-0.999112, 163, 265, 178, 328
-0.999113, 243, 81, 258, 144
-0.999113, 125, 65, 156, 128
-0.999115, 219, 161, 234, 224
-0.999118, 197, 217, 212, 280
-0.99912, 369, 293, 496, 324
-0.99912, 235, 257, 250, 288
-0.999121, 279, 37, 294, 68
-0.999121, 135, 313, 150, 344
-0.999122, 279, 225, 294, 288
-0.999124, 129, 261, 144, 292
-0.999124, 323, 313, 338, 375
-0.999128, 155, 297, 170, 328
-0.999128, 29, 57, 44, 120
-0.999134, 235, 189, 250, 220
-0.999137, 133, 341, 148, 372
-0.999137, 143, 329, 158, 360
-0.99914, 251, 13, 266, 44
-0.999142, 237, 209, 252, 272
-0.999142, 197, 17, 212, 48
-0.999144, 227, 273, 242, 336
-0.999144, 137, 169, 168, 232
-0.999145, 239, 85, 254, 116
-0.999145, 1, 269, 128, 300
-0.999149, 257, 65, 384, 96
-0.99915, 221, 13, 236, 44
-0.999152, 201, 253, 216, 284
-0.999153, 307, 233, 322, 264
-0.999153, 165, 25, 180, 56
-0.999155, 111, 305, 126, 368
-0.999158, 65, 25, 192, 56
-0.99916, 33, 73, 96, 136
-0.99916, 125, 309, 140, 340
-0.999161, 33, 189, 160, 220
-0.999161, 131, 185, 146, 248
-0.999162, 175, 229, 190, 260
-0.999162, 163, 313, 178, 375
-0.999162, 257, 13, 272, 44
-0.999168, 3, 233, 18, 296
-0.99917, 297, 225, 312, 288
-0.99917, 329, 313, 344, 375
-0.999171, 205, 265, 220, 296
-0.999171, 149, 297, 164, 328
-0.999173, 301, 273, 316, 304
-0.999174, 337, 265, 464, 296
-0.999174, 119, 233, 134, 296
-0.999176, 309, 249, 324, 280
-0.999178, 183, 181, 198, 212
-0.999178, 309, 261, 324, 292
-0.99918, 309, 201, 324, 232
-0.99918, 377, 193, 440, 320
-0.999181, 241, 1, 368, 32
-0.999182, 197, 185, 212, 248
-0.999183, 391, 305, 406, 368
-0.999185, 281, 33, 312, 288
-0.999186, 65, 345, 192, 375
-0.999186, 179, 217, 194, 248
-0.999186, 369, 317, 496, 348
-0.99919, 161, 193, 288, 224
-0.99919, 193, 133, 208, 164
-0.999194, 127, 249, 142, 280
-0.999194, 115, 345, 130, 375
-0.999199, 33, 301, 160, 332
-0.999199, 221, 97, 236, 128
-0.9992, 137, 297, 152, 328
-0.999204, 181, 117, 196, 148
-0.999204, 227, 1, 242, 128
-0.999206, 161, 321, 288, 352
-0.99921, 147, 309, 162, 340
-0.99921, 1, 233, 500, 296
-0.999213, 211, 277, 226, 308
-0.999216, 201, 181, 216, 212
-0.999218, 369, 281, 496, 312
-0.999219, 321, 65, 384, 320
-0.999223, 391, 293, 406, 324
-0.999224, 279, 153, 294, 184
-0.999225, 143, 293, 158, 324
-0.999225, 33, 333, 160, 364
-0.999225, 159, 41, 174, 72
-0.999228, 141, 309, 156, 340
-0.999228, 297, 105, 360, 168
-0.99923, 185, 205, 200, 236
-0.99923, 303, 285, 318, 316
-0.999231, 209, 173, 224, 204
-0.999231, 227, 245, 242, 276
-0.999231, 173, 97, 204, 352
-0.999233, 165, 281, 196, 344
-0.999237, 145, 1, 176, 256
-0.999241, 337, 341, 464, 372
-0.999243, 195, 185, 210, 216
-0.999244, 225, 325, 352, 356
-0.999246, 173, 1, 188, 128
-0.999247, 235, 1, 250, 128
-0.999247, 337, 265, 352, 296
-0.999251, 229, 201, 244, 232
-0.999251, 137, 65, 152, 96
-0.999252, 121, 341, 136, 372
-0.999255, 165, 309, 180, 340
-0.999258, 137, 253, 152, 284
-0.999258, 221, 277, 236, 308
-0.999258, 369, 169, 496, 232
-0.999259, 257, 329, 272, 360
-0.999259, 257, 13, 384, 44
-0.99926, 195, 253, 210, 284
-0.999262, 203, 337, 218, 368
-0.999264, 377, 273, 408, 336
-0.999265, 209, 245, 224, 276
-0.999268, 221, 1, 236, 128
-0.999268, 265, 137, 280, 168
-0.999269, 153, 309, 168, 340
-0.999271, 161, 1, 288, 32
-0.999272, 169, 81, 184, 112
-0.999276, 211, 261, 226, 292
-0.999281, 189, 229, 204, 260
-0.999282, 241, 121, 368, 152
-0.999282, 273, 197, 400, 228
-0.999282, 311, 281, 326, 312
-0.999287, 167, 237, 182, 268
-0.999289, 181, 321, 196, 352
-0.99929, 285, 141, 300, 172
-0.999294, 163, 129, 178, 160
-0.999295, 181, 77, 196, 108
-0.999295, 261, 121, 292, 184
-0.999296, 221, 257, 236, 288
-0.999297, 227, 73, 242, 104
-0.999298, 307, 213, 322, 244
-0.999298, 115, 333, 130, 364
-0.999298, 173, 213, 188, 244
-0.999298, 241, 137, 368, 168
-0.999299, 127, 285, 142, 316
-0.999299, 391, 305, 406, 336
-0.9993, 213, 1, 228, 128
-0.999302, 241, 1, 256, 128
-0.999302, 181, 89, 196, 120
-0.999302, 183, 237, 198, 268
-0.999303, 299, 257, 314, 288
-0.999303, 177, 105, 192, 136
-0.999304, 315, 193, 330, 224
-0.999306, 241, 193, 256, 224
-0.999307, 179, 153, 194, 184
-0.999307, 291, 157, 306, 188
-0.999308, 241, 285, 368, 316
-0.999313, 129, 213, 256, 244
-0.999313, 273, 133, 288, 164
-0.999321, 285, 41, 300, 72
-0.999322, 1, 273, 128, 336
-0.999324, 317, 217, 348, 280
-0.999328, 213, 97, 228, 128
-0.999329, 195, 333, 210, 364
-0.999331, 187, 145, 202, 176
-0.999331, 191, 201, 206, 232
-0.999335, 199, 217, 214, 248
-0.999336, 1, 1, 256, 64
-0.999337, 339, 277, 354, 308
-0.999337, 285, 161, 300, 192
-0.999339, 245, 1, 276, 256
-0.999339, 35, 73, 50, 104
-0.99934, 41, 73, 56, 104
-0.999342, 391, 281, 406, 312
-0.999343, 113, 13, 240, 44
-0.999343, 321, 273, 352, 336
-0.999344, 273, 33, 288, 64
-0.999344, 147, 281, 162, 312
-0.999346, 159, 29, 174, 60
-0.999346, 127, 233, 142, 264
-0.999347, 9, 225, 24, 256
-0.99935, 269, 149, 284, 180
-0.99935, 193, 161, 448, 224
-0.999355, 17, 201, 144, 232
-0.999357, 1, 257, 128, 288
-0.999358, 207, 1, 222, 128
-0.999362, 369, 249, 496, 280
-0.999365, 181, 1, 196, 128
-0.999365, 33, 317, 160, 348
-0.999376, 167, 1, 182, 128
-0.999378, 255, 1, 270, 128
-0.999381, 241, 301, 368, 332
-0.999383, 247, 1, 262, 128
-0.999383, 33, 289, 160, 320
-0.999384, 173, 65, 188, 192
-0.999389, 1, 1, 128, 64
-0.999391, 305, 93, 432, 124
-0.999396, 49, 157, 176, 188
-0.999403, 325, 313, 356, 375
-0.999404, 385, 129, 448, 375
-0.999407, 193, 1, 208, 128
-0.999417, 313, 241, 344, 304
-0.999421, 187, 1, 202, 128
-0.999422, 1, 213, 128, 244
-0.999433, 131, 335, 146, 350
-0.999433, 117, 227, 132, 242
-0.999434, 237, 245, 252, 260
-0.999434, 191, 141, 206, 156
-0.999434, 307, 231, 322, 246
-0.999434, 189, 211, 204, 226
-0.999435, 181, 99, 196, 114
-0.999435, 225, 229, 240, 244
-0.999435, 191, 263, 206, 278
-0.999435, 139, 253, 154, 268
-0.999435, 181, 157, 196, 172
-0.999435, 369, 49, 496, 176
-0.999435, 225, 203, 240, 218
-0.999435, 261, 1, 276, 128
-0.999435, 213, 97, 228, 112
-0.999435, 275, 31, 290, 46
-0.999435, 391, 299, 406, 314
-0.999436, 223, 13, 238, 28
-0.999436, 391, 335, 406, 350
-0.999436, 339, 275, 354, 290
-0.999436, 115, 261, 130, 276
-0.999436, 145, 341, 160, 356
-0.999436, 313, 197, 328, 212
-0.999436, 259, 335, 274, 350
-0.999436, 261, 151, 276, 166
-0.999436, 389, 265, 404, 280
-0.999436, 231, 201, 246, 216
-0.999437, 209, 183, 224, 198
-0.999437, 159, 245, 174, 260
-0.999437, 137, 313, 152, 328
-0.999437, 311, 275, 326, 290
-0.999438, 257, 15, 272, 30
-0.999438, 9, 161, 40, 288
-0.999438, 9, 169, 40, 232
-0.999439, 179, 225, 194, 240
-0.999439, 105, 357, 120, 372
-0.999439, 247, 333, 262, 348
-0.999439, 313, 287, 328, 302
-0.999439, 115, 349, 130, 364
-0.99944, 139, 345, 154, 360
-0.99944, 115, 277, 130, 292
-0.99944, 119, 303, 134, 318
-0.99944, 131, 249, 146, 264
-0.999441, 195, 17, 210, 32
-0.999441, 177, 151, 192, 166
-0.999441, 227, 101, 242, 116
-0.999441, 199, 219, 214, 234
-0.999441, 211, 265, 226, 280
-0.999442, 207, 13, 222, 28
-0.999442, 159, 45, 174, 60
-0.999442, 229, 253, 244, 268
-0.999442, 307, 215, 322, 230
-0.999442, 197, 227, 212, 242
-0.999442, 183, 243, 198, 258
-0.999442, 211, 177, 226, 192
-0.999443, 183, 217, 198, 232
-0.999443, 129, 299, 144, 314
-0.999443, 121, 345, 136, 360
-0.999443, 231, 241, 246, 256
-0.999443, 155, 293, 170, 308
-0.999443, 303, 277, 318, 292
-0.999443, 115, 359, 130, 374
-0.999443, 137, 331, 152, 346
-0.999443, 183, 121, 198, 136
-0.999444, 181, 87, 196, 102
-0.999444, 199, 1, 214, 128
-0.999444, 139, 295, 154, 310
-0.999444, 119, 219, 134, 234
-0.999445, 215, 279, 230, 294
-0.999445, 391, 309, 406, 324
-0.999445, 169, 315, 184, 330
-0.999445, 147, 55, 162, 70
-0.999446, 211, 241, 226, 256
-0.999446, 217, 89, 232, 104
-0.999447, 269, 257, 284, 272
-0.999447, 185, 147, 200, 162
-0.999447, 185, 185, 200, 200
-0.999447, 195, 257, 210, 272
-0.999447, 131, 307, 146, 322
-0.999447, 217, 235, 232, 250
-0.999448, 285, 257, 316, 320
-0.999449, 271, 25, 286, 40
-0.999449, 175, 213, 190, 228
-0.999449, 223, 251, 238, 266
-0.99945, 173, 17, 188, 32
-0.99945, 239, 99, 254, 114
-0.999451, 309, 265, 324, 280
-0.999451, 185, 195, 200, 210
-0.999452, 181, 93, 196, 108
-0.999452, 121, 355, 136, 370
-0.999452, 189, 17, 204, 32
-0.999453, 217, 271, 232, 286
-0.999454, 237, 87, 252, 102
-0.999454, 237, 267, 252, 282
-0.999454, 307, 239, 322, 254
-0.999454, 285, 43, 300, 58
-0.999455, 127, 265, 142, 280
-0.999456, 251, 13, 266, 28
-0.999456, 131, 315, 146, 330
-0.999457, 123, 311, 138, 326
-0.999457, 189, 129, 220, 375
-0.999457, 233, 93, 248, 108
-0.999457, 263, 17, 278, 32
-0.999459, 307, 255, 322, 270
-0.999459, 277, 39, 292, 54
-0.999459, 201, 267, 216, 282
-0.99946, 143, 65, 158, 80
-0.999461, 307, 221, 322, 236
-0.999462, 223, 277, 238, 292
-0.999462, 189, 131, 204, 146
-0.999462, 229, 15, 244, 30
-0.999463, 197, 185, 212, 200
-0.999463, 261, 323, 276, 338
-0.999464, 219, 95, 234, 110
-0.999466, 191, 235, 206, 250
-0.999466, 229, 261, 244, 276
-0.999466, 177, 203, 192, 218
-0.999467, 209, 275, 224, 290
-0.999467, 203, 179, 218, 194
-0.999468, 221, 97, 252, 352
-0.999468, 253, 329, 268, 344
-0.999469, 307, 245, 322, 260
-0.99947, 179, 15, 194, 30
-0.999471, 133, 343, 148, 358
-0.999472, 237, 13, 252, 28
-0.999472, 25, 1, 88, 375
-0.999473, 183, 209, 198, 224
-0.999474, 191, 179, 206, 194
-0.999476, 191, 187, 206, 202
-0.999477, 153, 51, 168, 66
-0.999478, 177, 123, 192, 138
-0.99948, 231, 85, 246, 100
-0.999481, 243, 13, 258, 28
-0.999481, 1, 265, 256, 328
-0.999482, 145, 295, 160, 310
-0.999483, 175, 89, 190, 104
-0.999489, 231, 273, 246, 288
-0.999489, 225, 85, 240, 100
-0.999491, 1, 289, 256, 352
-0.999492, 225, 101, 352, 132
-0.999493, 171, 127, 186, 142
-0.999495, 17, 77, 144, 108
-0.999496, 305, 105, 432, 136
-0.999508, 267, 1, 282, 128
-0.999521, 321, 201, 448, 232
-0.999527, 289, 177, 416, 208
-0.999533, 173, 83, 188, 98
-0.999537, 305, 125, 432, 156
-0.999539, 227, 49, 242, 176
-0.999545, 33, 61, 160, 92
-0.999548, 249, 225, 280, 288
-0.999551, 187, 97, 202, 224
-0.999556, 33, 177, 96, 240
-0.999584, 309, 193, 324, 320
-0.999591, 1, 89, 128, 120
-0.999595, 283, 33, 298, 160
-0.999607, 161, 169, 288, 200
-0.999608, 161, 17, 176, 144
-0.999612, 223, 193, 238, 320
-0.999613, 261, 97, 292, 352
-0.999613, 233, 65, 248, 192
-0.999614, 149, 33, 164, 160
-0.999617, 233, 129, 264, 375
-0.999618, 129, 225, 144, 352
-0.999619, 273, 17, 288, 144
-0.999621, 297, 57, 360, 120
-0.999621, 187, 177, 202, 304
-0.999628, 321, 213, 448, 244
-0.999632, 401, 1, 464, 375
-0.999636, 369, 221, 496, 252
-0.99964, 215, 225, 230, 352
-0.999646, 227, 241, 242, 368
-0.999648, 127, 177, 142, 304
-0.999654, 241, 145, 272, 208
-0.999654, 287, 113, 302, 240
-0.999655, 33, 245, 160, 276
-0.99966, 179, 81, 194, 208
-0.99966, 17, 345, 144, 375
-0.999661, 289, 81, 416, 112
-0.999664, 193, 161, 208, 288
-0.999664, 97, 89, 160, 152
-0.999664, 49, 273, 176, 304
-0.999667, 161, 241, 176, 368
-0.999669, 119, 193, 134, 320
-0.99967, 235, 193, 250, 320
-0.999673, 171, 241, 186, 368
-0.999674, 155, 241, 170, 368
-0.999675, 137, 113, 168, 240
-0.999677, 181, 129, 196, 256
-0.999679, 141, 49, 156, 176
-0.99968, 281, 113, 296, 240
-0.999682, 229, 1, 260, 256
-0.999686, 193, 97, 208, 224
-0.999687, 135, 241, 150, 368
-0.999687, 173, 113, 188, 240
-0.999687, 205, 241, 220, 368
-0.999695, 225, 97, 240, 224
-0.999697, 155, 33, 170, 160
-0.999699, 183, 225, 198, 352
-0.999703, 291, 33, 306, 160
-0.999717, 309, 65, 340, 320
-0.999718, 219, 65, 234, 192
-0.999719, 321, 57, 448, 120
-0.99972, 261, 241, 276, 368
-0.999722, 299, 241, 314, 368
-0.999725, 269, 241, 284, 368
-0.999727, 199, 193, 214, 320
-0.999729, 209, 193, 224, 320
-0.99973, 209, 129, 240, 375
-0.999737, 167, 65, 182, 192
-0.999742, 133, 177, 148, 304
-0.999744, 293, 33, 324, 288
-0.999745, 331, 177, 346, 304
-0.999747, 377, 241, 408, 304
-0.999752, 325, 177, 340, 304
-0.999756, 283, 241, 298, 368
-0.999761, 221, 241, 236, 368
-0.999763, 149, 241, 164, 368
-0.999765, 229, 193, 244, 320
-0.999767, 195, 241, 210, 368
-0.999768, 249, 97, 280, 352
-0.999768, 1, 145, 500, 208
-0.99977, 299, 193, 314, 320
-0.99977, 275, 225, 290, 352
-0.999771, 317, 209, 332, 336
-0.999772, 177, 289, 208, 352
-0.999772, 167, 113, 182, 240
-0.999774, 337, 193, 352, 320
-0.999778, 177, 241, 192, 368
-0.999779, 141, 241, 156, 368
-0.999781, 233, 241, 248, 368
-0.999782, 189, 225, 204, 352
-0.999783, 241, 225, 256, 352
-0.999784, 289, 161, 304, 288
-0.999784, 135, 65, 150, 192
-0.999785, 225, 145, 240, 272
-0.999788, 293, 113, 308, 240
-0.999794, 139, 145, 154, 272
-0.999798, 177, 193, 192, 320
-0.999804, 119, 241, 134, 368
-0.999804, 297, 33, 312, 160
-0.999805, 255, 241, 270, 368
-0.999805, 241, 177, 256, 304
-0.999809, 293, 241, 308, 368
-0.999811, 239, 49, 254, 176
-0.999812, 311, 49, 326, 176
-0.999813, 339, 241, 354, 368
-0.999813, 307, 241, 322, 368
-0.999814, 11, 1, 26, 128
-0.999815, 375, 209, 390, 336
-0.999824, 241, 129, 256, 256
-0.999826, 217, 177, 232, 304
-0.999831, 317, 161, 332, 288
-0.999832, 145, 113, 160, 240
-0.999833, 231, 129, 246, 256
-0.999833, 317, 49, 332, 176
-0.999835, 365, 209, 380, 336
-0.999838, 213, 81, 228, 208
-0.999838, 165, 225, 196, 288
-0.999841, 391, 241, 406, 368
-0.999844, 5, 1, 20, 128
-0.999848, 385, 177, 400, 304
-0.999849, 353, 193, 368, 320
-0.99985, 17, 1, 32, 128
-0.99985, 205, 169, 236, 232
-0.99985, 33, 145, 48, 272
-0.999851, 251, 161, 266, 288
-0.999855, 25, 33, 40, 160
-0.999856, 151, 81, 166, 208
-0.999859, 185, 49, 200, 176
-0.99986, 249, 241, 264, 368
-0.999861, 285, 129, 316, 375
-0.999862, 1, 209, 500, 272
-0.999865, 17, 161, 32, 288
-0.999865, 149, 249, 180, 312
-0.999865, 249, 161, 280, 288
-0.999867, 5, 161, 20, 288
-0.999868, 279, 161, 294, 288
-0.99987, 253, 97, 284, 224
-0.999874, 275, 97, 290, 224
-0.999874, 11, 161, 26, 288
-0.999874, 299, 113, 314, 240
-0.999877, 1, 241, 16, 368
-0.999879, 251, 113, 266, 240
-0.999882, 305, 33, 320, 160
-0.999883, 215, 129, 230, 256
-0.999884, 343, 177, 358, 304
-0.999884, 353, 65, 416, 320
-0.999886, 199, 129, 214, 256
-0.999888, 171, 193, 186, 320
-0.999889, 23, 161, 38, 288
-0.999896, 161, 193, 176, 320
-0.999899, 385, 225, 400, 352
-0.999901, 33, 65, 48, 192
-0.999902, 263, 81, 278, 208
-0.999903, 209, 145, 224, 272
-0.999915, 121, 185, 152, 248
-0.999918, 273, 129, 304, 375
-0.999927, 305, 129, 336, 256
-0.999943, 137, 129, 168, 375
-0.999963, 293, 121, 324, 184
-0.999964, 361, 209, 392, 336
-0.999966, 9, 1, 40, 256
-0.999983, 161, 129, 192, 375
-1.00001, 21, 49, 52, 112
-1.00003, 25, 129, 88, 375
-1.00003, 121, 65, 152, 320
-1.00005, 193, 81, 224, 144
-1.00009, 133, 33, 164, 288
-1.00014, 325, 33, 356, 288
-1.00014, 297, 1, 360, 256
-1.00014, 237, 57, 268, 120
-1.00015, 285, 209, 316, 272
-1.00015, 217, 49, 248, 112
-1.00019, 21, 145, 52, 272
-1.00019, 389, 65, 420, 320
-1.00022, 345, 265, 376, 328
-1.00025, 229, 113, 260, 240
-1.00025, 297, 129, 328, 375
-1.00025, 1, 145, 64, 272
-1.00026, 365, 65, 396, 320
-1.00029, 345, 177, 408, 240
-1.0003, 49, 1, 112, 375
-1.00031, 1, 1, 64, 256
-1.00031, 185, 105, 216, 168
-1.00034, 341, 33, 372, 288
-1.00035, 97, 33, 160, 288
-1.00035, 321, 129, 352, 375
-1.00036, 49, 129, 112, 256
-1.00038, 265, 145, 296, 208
-1.00038, 321, 33, 448, 96
-1.00039, 1, 17, 500, 80
-1.00043, 1, 233, 32, 296
-1.00046, 373, 209, 404, 272
-1.00046, 17, 129, 48, 375
-1.00049, 25, 33, 56, 288
-1.00051, 109, 129, 140, 375
-1.00051, 369, 113, 496, 240
-1.00052, 373, 297, 404, 360
-1.00053, 197, 129, 228, 256
-1.00053, 1, 129, 32, 375
-1.00054, 41, 153, 72, 216
-1.00055, 353, 65, 384, 320
-1.00057, 377, 97, 408, 352
-1.00057, 61, 97, 92, 352
-1.00057, 149, 129, 180, 375
-1.00058, 97, 1, 160, 128
-1.00058, 37, 97, 68, 352
-1.00059, 73, 97, 104, 352
-1.00059, 341, 129, 372, 375
-1.00061, 93, 65, 124, 320
-1.00061, 249, 289, 312, 352
-1.00062, 433, 1, 496, 375
-1.00063, 405, 129, 436, 375
-1.00063, 25, 161, 56, 224
-1.00065, 1, 209, 32, 336
-1.00066, 205, 273, 236, 336
-1.00071, 25, 81, 56, 144
-1.00072, 9, 57, 40, 120
-1.00072, 293, 97, 324, 160
-1.00073, 149, 81, 180, 144
-1.00076, 125, 113, 156, 240
-1.00077, 229, 153, 260, 216
-1.00077, 137, 1, 200, 64
-1.00077, 73, 185, 136, 248
-1.00078, 185, 249, 216, 312
-1.0008, 297, 129, 360, 192
-1.00081, 205, 57, 236, 120
-1.00083, 341, 201, 372, 264
-1.00084, 213, 201, 244, 264
-1.00084, 325, 129, 356, 256
-1.00086, 241, 193, 304, 256
-1.00086, 1, 25, 64, 88
-1.00087, 345, 289, 376, 352
-1.00092, 137, 241, 168, 304
-1.00093, 425, 97, 456, 352
-1.00094, 1, 129, 64, 375
-1.00094, 33, 145, 64, 272
-1.00095, 293, 153, 324, 216
-1.00096, 105, 33, 136, 288
-1.00097, 17, 17, 48, 144
-1.00098, 97, 313, 128, 375
-1.00098, 237, 193, 268, 256
-1.00098, 197, 225, 228, 288
-1.00098, 17, 289, 80, 352
-1.00101, 361, 129, 424, 192
-1.00101, 329, 193, 360, 256
-1.00103, 41, 1, 72, 256
-1.00105, 401, 1, 432, 256
-1.00105, 413, 33, 444, 288
-1.00107, 377, 1, 408, 256
-1.00107, 169, 177, 200, 240
-1.00108, 445, 97, 476, 352
-1.00109, 241, 169, 272, 232
-1.0011, 49, 129, 80, 375
-1.0011, 361, 265, 392, 328
-1.00111, 77, 1, 108, 256
-1.00116, 313, 49, 344, 176
-1.00119, 305, 113, 336, 176
-1.0012, 197, 113, 228, 176
-1.0012, 129, 129, 160, 192
-1.0012, 393, 233, 424, 296
-1.00121, 385, 209, 416, 336
-1.00121, 169, 49, 200, 112
-1.00121, 57, 137, 88, 200
-1.00123, 57, 1, 88, 256
-1.00125, 465, 65, 496, 320
-1.00127, 257, 313, 288, 375
-1.00128, 73, 97, 136, 160
-1.0013, 241, 113, 272, 240
-1.00132, 345, 161, 408, 288
-1.00132, 289, 17, 352, 80
-1.00133, 361, 105, 424, 168
-1.00135, 181, 161, 212, 224
-1.00135, 41, 273, 104, 336
-1.00135, 385, 305, 416, 368
-1.00141, 89, 49, 152, 176
-1.00141, 369, 41, 496, 104
-1.00141, 217, 137, 248, 200
-1.00141, 429, 1, 460, 256
-1.00141, 165, 249, 196, 312
-1.00141, 189, 297, 220, 360
-1.00145, 369, 161, 400, 288
-1.00146, 157, 177, 188, 304
-1.00151, 445, 1, 476, 256
-1.00151, 101, 209, 132, 336
-1.0016, 297, 161, 360, 224
-1.00162, 329, 225, 360, 352
-1.00169, 57, 129, 88, 256
-1.00174, 393, 105, 456, 168
-1.00175, 149, 129, 180, 256
-1.00177, 73, 65, 136, 128
-1.00183, 377, 185, 440, 248
-1.00186, 329, 153, 392, 216
-1.00188, 25, 81, 56, 208
-1.00188, 85, 65, 116, 192
-1.00195, 269, 161, 300, 288
-1.00198, 305, 17, 432, 144
-1.00199, 13, 209, 44, 336
-1.00202, 73, 65, 136, 320
-1.00211, 369, 129, 432, 256
-1.00213, 1, 81, 32, 208
-1.00215, 97, 145, 128, 272
-1.00217, 185, 49, 216, 176
-1.00229, 341, 129, 372, 256
-1.0023, 341, 225, 372, 352
-1.00231, 13, 81, 44, 208
-1.00231, 45, 129, 76, 256
-1.00233, 389, 97, 420, 224
-1.00239, 325, 49, 356, 176
-1.0024, 1, 17, 64, 144
-1.00243, 113, 129, 144, 256
-1.00251, 305, 9, 432, 72
-1.00256, 97, 145, 160, 272
-1.00265, 1, 241, 64, 368
-1.00269, 69, 97, 100, 224
-1.00285, 381, 161, 412, 288
-1.00287, 369, 17, 496, 80
-1.0029, 353, 49, 384, 176
-1.00294, 357, 161, 388, 288
-1.00309, 377, 81, 408, 208
-1.00318, 365, 65, 396, 192
-1.00323, 297, 1, 328, 128
-1.00326, 249, 49, 280, 176
-1.00329, 401, 241, 432, 368
-1.00355, 341, 49, 372, 176
-1.0036, 65, 65, 128, 192
-1.00363, 117, 17, 148, 144
-1.00375, 353, 1, 480, 128
-1.00379, 25, 193, 56, 320
-1.00381, 105, 65, 136, 192
-1.00382, 397, 193, 428, 320
-1.00386, 25, 1, 88, 256
-1.00388, 393, 145, 424, 272
-1.00389, 393, 113, 456, 240
-1.00409, 145, 177, 176, 304
-1.00416, 129, 1, 160, 128
-1.00416, 405, 129, 436, 256
-1.00422, 49, 97, 112, 352
-1.00431, 393, 65, 456, 192
-1.00435, 313, 1, 376, 128
-1.00438, 85, 129, 116, 256
-1.00441, 409, 225, 472, 352
-1.00446, 37, 65, 68, 192
-1.00447, 417, 241, 448, 368
-1.0045, 33, 65, 96, 192
-1.00455, 261, 49, 292, 176
-1.00457, 313, 1, 344, 128
-1.00468, 377, 33, 440, 288
-1.0047, 409, 65, 440, 192
-1.00486, 29, 17, 60, 144
-1.00486, 461, 225, 492, 352
-1.0049, 33, 17, 96, 144
-1.005, 77, 177, 108, 304
-1.00503, 393, 49, 424, 176
-1.00506, 409, 129, 472, 375
-1.00506, 325, 1, 356, 128
-1.00515, 417, 129, 448, 256
-1.00519, 429, 113, 460, 240
-1.00524, 45, 177, 76, 304
-1.00529, 433, 97, 496, 352
-1.00529, 409, 193, 440, 320
-1.00532, 421, 193, 452, 320
-1.00537, 449, 129, 480, 256
-1.00539, 377, 17, 408, 144
-1.00541, 329, 97, 392, 224
-1.0055, 345, 1, 376, 128
-1.0055, 365, 17, 396, 144
-1.00578, 25, 193, 88, 320
-1.00595, 401, 33, 464, 288
-1.00604, 337, 17, 400, 144
-1.00665, 361, 17, 424, 144
-1.00672, 25, 241, 88, 368
-1.00675, 425, 113, 488, 240
-1.00688, 49, 241, 112, 368
-1.00707, 401, 177, 464, 304
-1.00736, 57, 193, 120, 320
-1.0075, 49, 1, 112, 256
-1.00771, 433, 1, 496, 256
-1.00785, 433, 225, 496, 352
-1.00863, 385, 17, 448, 144
-1.00886, 425, 161, 488, 288
-1.00961, 433, 65, 496, 192
-1.01081, 73, 1, 136, 128
-1.01331, 425, 17, 488, 144
