1957
-0.323909, 1, 1, 500, 375
-0.437833, 1, 1, 500, 256
-0.442741, 1, 97, 500, 352
-0.513577, 1, 1, 256, 375
-0.588131, 257, 1, 500, 375
-0.629297, 97, 1, 352, 375
-0.725841, 1, 65, 256, 320
-0.733368, 97, 129, 352, 375
-0.776811, 193, 129, 448, 375
-0.826708, 225, 33, 480, 288
-0.871951, 369, 1, 496, 375
-0.874841, 321, 1, 448, 375
-0.876569, 33, 65, 160, 320
-0.883981, 1, 225, 500, 352
-0.884294, 33, 1, 160, 375
-0.885029, 81, 1, 208, 375
-0.888757, 81, 65, 208, 320
-0.895308, 97, 33, 352, 288
-0.897151, 273, 1, 400, 375
-0.90484, 369, 33, 496, 288
-0.905967, 1, 49, 500, 176
-0.906184, 1, 129, 500, 256
-0.907369, 1, 1, 500, 128
-0.909362, 1, 177, 500, 304
-0.909384, 321, 65, 448, 320
-0.910088, 225, 1, 352, 375
-0.91458, 257, 1, 384, 256
-0.920586, 1, 33, 256, 160
-0.920641, 129, 241, 384, 368
-0.920789, 257, 225, 500, 352
-0.924602, 273, 129, 400, 375
-0.925295, 161, 129, 288, 375
-0.928718, 369, 129, 496, 375
-0.929904, 129, 1, 256, 375
-0.930275, 161, 33, 288, 288
-0.932388, 1, 241, 256, 368
-0.935361, 209, 129, 336, 375
-0.935557, 193, 1, 448, 128
-0.938433, 1, 17, 64, 144
-0.938497, 17, 1, 144, 128
-0.941284, 33, 17, 96, 144
-0.941903, 33, 193, 160, 320
-0.94218, 41, 145, 104, 272
-0.943096, 257, 177, 500, 304
-0.943723, 113, 241, 240, 368
-0.944322, 33, 177, 288, 304
-0.946507, 177, 1, 304, 375
-0.947165, 209, 33, 336, 288
-0.94925, 401, 1, 464, 128
-0.950228, 161, 193, 416, 320
-0.951138, 65, 241, 192, 368
-0.951212, 129, 241, 192, 368
-0.951702, 425, 177, 488, 304
-0.952018, 65, 1, 192, 128
-0.952042, 97, 1, 352, 128
-0.952195, 1, 129, 256, 256
-0.954499, 377, 1, 440, 128
-0.954499, 193, 241, 256, 368
-0.9555, 377, 209, 440, 336
-0.956132, 33, 145, 160, 272
-0.95636, 97, 49, 352, 176
-0.956435, 281, 241, 344, 368
-0.95678, 353, 17, 416, 144
-0.957021, 337, 177, 464, 304
-0.957455, 65, 209, 128, 336
-0.957687, 257, 1, 384, 128
-0.958093, 17, 241, 144, 368
-0.95819, 225, 49, 480, 176
-0.958271, 193, 225, 320, 352
-0.958525, 33, 209, 96, 336
-0.958537, 17, 65, 80, 192
-0.958978, 97, 1, 160, 128
-0.959286, 401, 193, 464, 320
-0.959923, 337, 225, 464, 352
-0.960908, 305, 1, 432, 128
-0.960931, 41, 65, 104, 128
-0.961051, 241, 241, 368, 368
-0.961066, 49, 65, 112, 192
-0.961181, 17, 25, 80, 88
-0.961367, 417, 265, 480, 328
-0.961408, 1, 81, 256, 208
-0.961655, 33, 1, 96, 64
-0.961791, 113, 233, 176, 296
-0.962048, 409, 241, 472, 304
-0.962472, 57, 1, 120, 128
-0.962752, 433, 241, 496, 304
-0.962787, 385, 49, 448, 176
-0.962925, 393, 145, 456, 272
-0.962931, 129, 257, 192, 320
-0.96299, 249, 241, 312, 368
-0.963181, 433, 241, 496, 368
-0.963251, 169, 241, 232, 368
-0.963254, 369, 1, 496, 128
-0.963296, 33, 97, 160, 224
-0.963423, 113, 193, 240, 320
-0.963506, 257, 1, 320, 128
-0.963517, 89, 209, 152, 336
-0.963519, 177, 249, 240, 312
-0.96359, 377, 217, 440, 280
-0.963736, 417, 289, 480, 352
-0.963753, 121, 17, 184, 80
-0.964164, 273, 177, 400, 304
-0.964245, 1, 49, 64, 112
-0.96425, 281, 1, 344, 128
-0.964548, 217, 225, 280, 352
-0.964618, 409, 241, 472, 368
-0.964808, 409, 201, 472, 264
-0.964825, 81, 49, 208, 176
-0.96496, 257, 113, 500, 240
-0.964966, 97, 129, 352, 256
-0.965092, 433, 201, 496, 264
-0.965315, 33, 145, 96, 208
-0.965499, 33, 49, 160, 176
-0.96599, 145, 1, 208, 128
-0.966082, 57, 217, 120, 280
-0.966191, 121, 1, 184, 128
-0.966271, 273, 265, 336, 328
-0.966508, 353, 209, 416, 336
-0.967106, 41, 1, 104, 256
-0.967115, 89, 249, 152, 312
-0.967145, 17, 161, 80, 288
-0.967211, 153, 233, 216, 296
-0.967277, 113, 1, 240, 128
-0.967322, 121, 281, 184, 344
-0.967393, 209, 233, 272, 296
-0.967559, 89, 209, 152, 272
-0.96777, 121, 193, 184, 320
-0.967961, 169, 193, 232, 320
-0.96806, 209, 1, 336, 128
-0.968236, 9, 1, 72, 64
-0.968327, 313, 225, 376, 352
-0.968493, 41, 177, 104, 240
-0.968584, 369, 161, 432, 288
-0.96864, 73, 81, 136, 208
-0.968708, 113, 49, 176, 176
-0.969067, 65, 145, 128, 272
-0.969076, 41, 41, 104, 104
-0.969167, 9, 73, 72, 136
-0.969797, 289, 193, 352, 320
-0.969853, 433, 129, 496, 256
-0.970007, 305, 65, 432, 192
-0.970021, 177, 217, 240, 280
-0.970147, 377, 193, 440, 256
-0.970259, 185, 273, 248, 336
-0.970435, 105, 49, 168, 112
-0.970516, 145, 41, 208, 104
-0.971285, 249, 257, 312, 320
-0.971495, 65, 1, 128, 64
-0.971586, 193, 177, 320, 304
-0.971691, 97, 161, 160, 288
-0.97191, 153, 257, 216, 320
-0.971928, 369, 49, 496, 176
-0.971983, 241, 193, 304, 320
-0.972232, 321, 65, 384, 192
-0.972267, 425, 1, 488, 128
-0.972306, 385, 41, 448, 104
-0.972412, 65, 73, 128, 136
-0.972556, 417, 313, 480, 375
-0.97261, 145, 193, 208, 320
-0.972809, 81, 41, 144, 104
-0.973005, 257, 1, 320, 64
-0.973124, 321, 177, 384, 304
-0.973232, 29, 1, 60, 128
-0.973326, 1, 177, 64, 240
-0.97346, 449, 281, 480, 344
-0.973465, 305, 129, 432, 256
-0.973626, 353, 201, 416, 264
-0.973681, 353, 177, 416, 240
-0.973694, 385, 73, 448, 136
-0.97383, 217, 265, 280, 328
-0.973839, 141, 249, 172, 312
-0.974065, 345, 41, 408, 104
-0.974346, 113, 249, 240, 312
-0.974431, 129, 209, 192, 272
-0.974441, 281, 241, 344, 304
-0.974488, 97, 185, 160, 248
-0.974491, 369, 1, 432, 64
-0.974617, 33, 249, 160, 312
-0.97468, 385, 241, 448, 304
-0.974691, 281, 129, 344, 256
-0.974752, 9, 209, 72, 336
-0.97493, 177, 297, 240, 360
-0.975051, 329, 185, 392, 248
-0.975247, 97, 273, 224, 336
-0.97536, 13, 17, 44, 144
-0.975376, 281, 297, 344, 360
-0.975387, 305, 249, 368, 312
-0.97544, 1, 1, 128, 64
-0.975487, 249, 281, 312, 344
-0.975811, 81, 145, 208, 272
-0.975928, 369, 129, 496, 256
-0.976022, 89, 281, 152, 344
-0.976023, 313, 1, 376, 128
-0.976135, 33, 73, 160, 136
-0.976158, 297, 49, 360, 176
-0.976239, 409, 1, 472, 64
-0.976254, 145, 49, 208, 176
-0.976309, 393, 161, 456, 224
-0.976347, 9, 97, 72, 160
-0.976374, 17, 65, 80, 320
-0.976392, 41, 17, 72, 144
-0.976433, 201, 297, 264, 360
-0.976522, 1, 33, 128, 96
-0.976528, 81, 225, 208, 288
-0.976618, 25, 201, 88, 264
-0.97674, 257, 49, 384, 176
-0.976754, 321, 161, 384, 224
-0.976758, 417, 49, 480, 176
-0.976812, 177, 193, 240, 256
-0.976889, 193, 177, 256, 304
-0.976939, 433, 241, 464, 304
-0.977116, 393, 265, 456, 328
-0.977269, 73, 1, 104, 64
-0.977323, 137, 145, 200, 272
-0.977342, 393, 289, 456, 352
-0.97735, 361, 65, 424, 192
-0.977481, 413, 209, 444, 336
-0.977482, 153, 313, 216, 375
-0.977525, 437, 273, 468, 336
-0.977614, 297, 25, 360, 88
-0.977684, 233, 233, 296, 296
-0.977743, 273, 217, 336, 280
-0.977788, 125, 233, 156, 296
-0.977804, 49, 129, 112, 375
-0.977864, 345, 129, 408, 256
-0.977911, 433, 137, 496, 200
-0.977921, 33, 209, 160, 272
-0.978164, 273, 145, 336, 208
-0.978192, 193, 233, 320, 296
-0.978337, 73, 185, 136, 248
-0.978365, 281, 265, 312, 328
-0.978464, 33, 281, 160, 344
-0.9785, 469, 241, 500, 368
-0.978507, 305, 1, 368, 64
-0.978586, 469, 265, 500, 328
-0.978635, 69, 145, 100, 272
-0.978653, 33, 89, 96, 152
-0.978673, 265, 193, 328, 320
-0.978685, 241, 265, 368, 328
-0.97875, 169, 233, 200, 296
-0.978792, 89, 305, 152, 368
-0.978806, 445, 249, 476, 312
-0.978878, 65, 1, 96, 128
-0.978925, 417, 169, 480, 232
-0.978999, 409, 73, 472, 136
-0.979016, 401, 65, 464, 320
-0.979108, 433, 129, 496, 375
-0.979114, 37, 1, 68, 64
-0.979135, 153, 1, 216, 64
-0.979139, 49, 129, 80, 256
-0.979214, 97, 49, 224, 112
-0.979216, 53, 17, 84, 144
-0.979257, 129, 49, 256, 176
-0.979326, 17, 113, 80, 240
-0.979404, 297, 209, 360, 272
-0.979503, 65, 9, 192, 72
-0.979554, 429, 225, 460, 352
-0.979595, 49, 41, 176, 104
-0.979599, 97, 1, 128, 128
-0.979609, 17, 1, 48, 64
-0.97966, 305, 289, 368, 352
-0.979669, 289, 1, 416, 64
-0.979715, 129, 225, 256, 288
-0.979774, 429, 177, 460, 304
-0.979796, 69, 193, 100, 320
-0.97992, 129, 145, 256, 272
-0.979922, 133, 241, 164, 368
-0.97996, 85, 73, 116, 136
-0.979986, 441, 209, 472, 336
-0.980004, 41, 65, 72, 128
-0.980013, 345, 153, 408, 216
-0.980031, 57, 97, 120, 160
-0.980035, 193, 49, 320, 176
-0.980113, 249, 313, 312, 375
-0.980146, 225, 297, 288, 360
-0.980167, 457, 201, 488, 264
-0.980174, 153, 249, 184, 312
-0.980176, 69, 201, 100, 264
-0.980196, 321, 49, 384, 112
-0.980205, 49, 1, 80, 64
-0.980215, 129, 257, 160, 320
-0.98028, 465, 193, 496, 320
-0.980296, 205, 249, 236, 312
-0.980368, 421, 225, 452, 288
-0.980399, 1, 153, 64, 216
-0.980435, 33, 65, 64, 192
-0.980555, 5, 49, 36, 112
-0.980567, 273, 25, 336, 88
-0.980591, 81, 1, 144, 256
-0.980638, 289, 241, 416, 368
-0.980712, 361, 81, 424, 144
-0.980797, 141, 17, 172, 80
-0.980984, 89, 73, 152, 136
-0.980989, 137, 185, 200, 248
-0.980996, 21, 73, 52, 136
-0.981108, 17, 25, 48, 88
-0.981116, 217, 233, 248, 296
-0.981129, 17, 161, 144, 224
-0.981166, 329, 17, 392, 80
-0.981185, 273, 49, 336, 176
-0.981253, 433, 49, 496, 112
-0.981271, 125, 1, 156, 128
-0.981317, 297, 185, 360, 248
-0.981326, 193, 129, 320, 256
-0.981367, 329, 217, 392, 280
-0.981395, 457, 241, 488, 304
-0.981409, 417, 1, 448, 128
-0.981414, 133, 209, 164, 272
-0.981435, 65, 161, 128, 224
-0.981486, 169, 1, 232, 128
-0.981547, 109, 249, 140, 312
-0.981568, 337, 1, 464, 64
-0.981601, 337, 201, 464, 264
-0.981609, 329, 73, 392, 136
-0.981623, 257, 129, 384, 256
-0.981649, 81, 185, 208, 248
-0.981715, 181, 233, 212, 296
-0.981727, 113, 217, 144, 280
-0.981773, 49, 305, 112, 368
-0.981775, 393, 33, 424, 96
-0.981824, 209, 193, 272, 256
-0.981847, 77, 81, 108, 208
-0.981851, 177, 257, 304, 320
-0.981862, 281, 49, 344, 112
-0.981896, 169, 153, 232, 216
-0.982023, 337, 241, 464, 304
-0.982057, 157, 33, 188, 96
-0.982061, 5, 1, 36, 64
-0.982118, 125, 193, 156, 320
-0.982169, 285, 241, 316, 368
-0.982239, 265, 249, 296, 312
-0.98227, 169, 25, 232, 88
-0.98231, 113, 241, 144, 368
-0.982317, 305, 129, 368, 256
-0.982328, 33, 121, 96, 184
-0.982365, 413, 161, 444, 288
-0.982491, 369, 161, 496, 224
-0.982545, 49, 241, 112, 304
-0.982559, 145, 1, 176, 128
-0.982653, 369, 273, 496, 336
-0.982684, 297, 161, 360, 224
-0.982737, 329, 273, 392, 336
-0.982738, 97, 297, 224, 360
-0.982767, 49, 65, 80, 192
-0.982815, 161, 1, 288, 128
-0.982863, 129, 281, 160, 344
-0.982941, 353, 225, 416, 288
-0.982974, 377, 1, 440, 375
-0.983006, 249, 201, 312, 264
-0.983016, 49, 25, 80, 88
-0.98303, 17, 225, 80, 288
-0.983037, 329, 1, 392, 256
-0.983087, 353, 289, 416, 352
-0.983095, 461, 289, 492, 352
-0.983117, 161, 145, 224, 272
-0.98312, 77, 1, 108, 128
-0.98314, 453, 209, 484, 336
-0.983199, 293, 257, 324, 320
-0.983201, 77, 41, 108, 104
-0.983348, 81, 97, 208, 224
-0.983352, 409, 113, 472, 176
-0.983402, 121, 33, 152, 96
-0.983466, 289, 25, 416, 88
-0.983473, 281, 1, 344, 64
-0.983495, 369, 57, 496, 120
-0.983509, 313, 137, 376, 200
-0.983514, 217, 177, 280, 304
-0.983527, 305, 17, 336, 144
-0.983542, 177, 281, 304, 344
-0.983556, 425, 25, 488, 88
-0.98356, 285, 193, 316, 320
-0.983569, 205, 241, 236, 368
-0.983576, 33, 305, 160, 368
-0.983602, 89, 9, 152, 72
-0.983634, 129, 313, 192, 375
-0.983638, 41, 201, 72, 264
-0.983661, 409, 193, 440, 256
-0.983732, 385, 1, 416, 128
-0.983732, 157, 241, 188, 368
-0.983738, 145, 281, 208, 344
-0.983748, 305, 73, 368, 136
-0.98375, 385, 57, 416, 120
-0.983914, 257, 217, 384, 280
-0.983926, 73, 97, 136, 352
-0.983934, 193, 313, 320, 375
-0.98399, 17, 185, 144, 248
-0.983999, 217, 241, 248, 368
-0.984067, 97, 49, 128, 112
-0.984073, 65, 273, 128, 336
-0.984073, 305, 313, 368, 375
-0.984111, 129, 201, 256, 264
-0.984164, 305, 177, 432, 240
-0.984168, 33, 105, 160, 168
-0.984264, 405, 25, 436, 88
-0.984342, 421, 249, 452, 312
-0.984353, 97, 113, 160, 240
-0.984413, 81, 209, 112, 272
-0.984475, 93, 25, 124, 88
-0.984481, 229, 233, 260, 296
-0.984515, 217, 257, 248, 320
-0.984557, 353, 33, 480, 96
-0.984562, 177, 129, 240, 375
-0.984591, 369, 153, 432, 216
-0.984596, 269, 241, 300, 368
-0.984677, 145, 129, 208, 375
-0.984735, 145, 1, 208, 256
-0.984743, 113, 1, 144, 128
-0.984759, 49, 193, 80, 320
-0.984773, 369, 305, 496, 368
-0.984807, 145, 313, 272, 375
-0.984823, 369, 41, 400, 104
-0.984845, 409, 49, 472, 112
-0.984852, 369, 1, 432, 256
-0.984864, 293, 1, 324, 128
-0.984867, 429, 1, 460, 128
-0.984941, 25, 1, 88, 375
-0.984941, 393, 313, 456, 375
-0.984946, 21, 65, 52, 192
-0.984964, 269, 281, 300, 344
-0.985027, 257, 297, 384, 360
-0.98505, 305, 241, 336, 368
-0.985138, 437, 217, 468, 280
-0.985173, 353, 265, 416, 328
-0.985177, 277, 1, 308, 128
-0.985263, 425, 289, 456, 352
-0.985285, 165, 257, 196, 320
-0.985294, 17, 273, 80, 336
-0.985309, 273, 1, 336, 256
-0.985322, 425, 1, 488, 375
-0.985333, 29, 49, 60, 112
-0.98536, 109, 185, 140, 248
-0.985368, 137, 65, 200, 128
-0.985401, 381, 33, 412, 96
-0.985405, 277, 241, 308, 304
-0.985408, 1, 201, 64, 264
-0.985454, 425, 33, 488, 288
-0.985457, 61, 17, 92, 80
-0.985461, 97, 241, 128, 368
-0.985543, 277, 1, 308, 64
-0.985638, 121, 129, 184, 375
-0.985649, 369, 33, 400, 160
-0.985657, 305, 49, 432, 112
-0.985658, 329, 289, 360, 352
-0.985682, 177, 313, 208, 375
-0.985719, 81, 161, 112, 288
-0.985777, 289, 257, 416, 320
-0.985788, 321, 153, 448, 216
-0.985819, 137, 193, 168, 320
-0.98588, 189, 273, 220, 336
-0.985893, 469, 193, 500, 256
-0.985967, 161, 17, 192, 144
-0.985969, 377, 193, 408, 256
-0.985972, 337, 265, 368, 328
-0.985984, 193, 249, 224, 312
-0.985988, 241, 1, 368, 64
-0.98601, 145, 241, 176, 368
-0.986029, 113, 17, 240, 80
-0.986031, 445, 177, 476, 240
-0.986099, 273, 193, 304, 320
-0.986101, 361, 185, 392, 248
-0.986153, 401, 177, 432, 304
-0.986211, 425, 153, 456, 216
-0.986245, 145, 41, 272, 104
-0.986261, 97, 201, 128, 264
-0.986271, 409, 225, 440, 288
-0.986321, 229, 257, 260, 320
-0.986355, 397, 201, 428, 264
-0.986388, 69, 177, 100, 240
-0.986423, 169, 41, 200, 104
-0.986465, 117, 281, 148, 344
-0.986465, 193, 9, 320, 72
-0.986473, 81, 209, 112, 336
-0.986486, 105, 1, 168, 375
-0.986488, 97, 73, 128, 136
-0.986518, 1, 1, 32, 128
-0.986546, 145, 41, 176, 104
-0.986574, 177, 169, 208, 232
-0.98661, 369, 137, 496, 200
-0.986623, 161, 209, 192, 272
-0.986627, 173, 241, 204, 368
-0.986649, 37, 153, 68, 216
-0.986666, 177, 273, 208, 336
-0.986738, 49, 1, 112, 375
-0.986762, 385, 129, 448, 192
-0.986779, 297, 129, 360, 375
-0.986779, 233, 1, 296, 128
-0.986786, 1, 25, 32, 88
-0.986788, 253, 257, 284, 320
-0.986818, 469, 241, 500, 304
-0.986891, 153, 209, 216, 272
-0.9869, 61, 225, 92, 288
-0.986914, 17, 305, 80, 368
-0.986924, 413, 49, 444, 112
-0.986943, 17, 137, 144, 200
-0.987024, 193, 241, 224, 368
-0.987039, 33, 89, 64, 152
-0.987099, 85, 1, 116, 64
-0.98713, 449, 305, 480, 368
-0.987135, 17, 49, 48, 112
-0.98714, 365, 161, 396, 224
-0.987174, 37, 145, 68, 272
-0.98718, 397, 57, 428, 120
-0.987187, 229, 241, 260, 368
-0.987196, 133, 41, 164, 104
-0.987247, 49, 241, 80, 368
-0.9873, 29, 193, 60, 256
-0.987305, 397, 1, 428, 128
-0.987311, 305, 289, 432, 352
-0.987325, 257, 193, 384, 256
-0.987374, 233, 297, 264, 360
-0.987382, 317, 1, 348, 128
-0.987541, 321, 1, 384, 375
-0.987547, 97, 161, 224, 224
-0.987548, 297, 193, 328, 320
-0.987569, 113, 193, 144, 320
-0.987587, 57, 201, 88, 264
-0.987615, 169, 97, 232, 224
-0.987631, 401, 1, 432, 64
-0.987658, 365, 209, 396, 272
-0.98766, 185, 209, 216, 272
-0.987687, 205, 273, 236, 336
-0.98772, 305, 73, 432, 136
-0.987728, 429, 185, 460, 248
-0.987742, 369, 97, 432, 352
-0.987779, 145, 225, 176, 288
-0.987819, 281, 289, 312, 352
-0.987838, 249, 241, 280, 368
-0.987876, 81, 73, 208, 136
-0.987924, 349, 177, 380, 304
-0.987942, 349, 1, 380, 128
-0.987945, 305, 121, 432, 184
-0.987958, 305, 1, 368, 256
-0.987958, 1, 1, 64, 375
-0.987973, 469, 217, 500, 280
-0.987976, 353, 81, 480, 144
-0.987979, 309, 25, 340, 88
-0.988073, 61, 65, 92, 192
-0.988085, 177, 17, 208, 144
-0.988102, 169, 49, 232, 176
-0.988104, 377, 161, 408, 224
-0.988124, 241, 241, 368, 304
-0.988133, 257, 49, 384, 112
-0.988167, 257, 113, 320, 240
-0.988219, 425, 129, 456, 256
-0.988221, 317, 249, 348, 312
-0.988255, 177, 193, 304, 256
-0.988334, 37, 193, 68, 320
-0.988336, 25, 169, 56, 232
-0.988367, 81, 129, 208, 192
-0.988373, 337, 225, 368, 352
-0.988377, 449, 161, 480, 288
-0.988385, 81, 169, 112, 232
-0.988402, 49, 233, 80, 296
-0.988415, 69, 73, 100, 136
-0.988504, 145, 49, 176, 176
-0.988514, 293, 49, 324, 176
-0.988547, 241, 233, 272, 296
-0.988587, 393, 97, 456, 224
-0.988601, 345, 1, 408, 375
-0.988626, 413, 1, 444, 64
-0.988628, 397, 225, 428, 288
-0.98864, 221, 297, 252, 360
-0.988642, 273, 1, 336, 375
-0.988678, 113, 305, 144, 368
-0.988704, 465, 169, 496, 232
-0.988712, 401, 1, 464, 375
-0.988721, 353, 1, 384, 64
-0.988731, 37, 25, 68, 88
-0.988802, 1, 81, 32, 144
-0.988843, 81, 1, 144, 375
-0.98886, 173, 193, 204, 256
-0.988874, 377, 217, 408, 280
-0.988893, 141, 273, 172, 336
-0.989001, 149, 161, 180, 288
-0.989013, 157, 161, 188, 224
-0.989089, 337, 1, 368, 128
-0.989161, 101, 161, 132, 288
-0.989204, 469, 145, 500, 272
-0.989255, 205, 217, 236, 280
-0.989285, 65, 213, 128, 244
-0.989322, 365, 17, 396, 80
-0.989323, 41, 89, 104, 120
-0.989332, 337, 97, 400, 352
-0.989346, 397, 49, 428, 176
-0.989348, 377, 193, 408, 320
-0.989432, 41, 213, 104, 244
-0.989436, 273, 145, 400, 208
-0.989474, 325, 65, 356, 192
-0.989531, 213, 193, 244, 320
-0.989664, 429, 65, 460, 192
-0.989723, 169, 193, 200, 320
-0.989792, 305, 313, 432, 375
-0.989827, 369, 113, 496, 176
-0.989839, 89, 209, 152, 240
-0.989846, 201, 237, 264, 268
-0.989888, 209, 33, 336, 96
-0.989914, 113, 45, 176, 76
-0.989958, 385, 237, 448, 268
-0.989974, 145, 257, 208, 288
-0.990039, 401, 225, 464, 256
-0.99004, 321, 177, 352, 304
-0.99004, 273, 269, 336, 300
-0.990077, 1, 65, 64, 96
-0.99009, 121, 33, 184, 288
-0.990097, 33, 73, 96, 104
-0.990114, 97, 129, 160, 375
-0.990131, 33, 169, 96, 200
-0.990188, 121, 257, 184, 288
-0.990209, 433, 273, 496, 304
-0.990217, 1, 81, 64, 112
-0.990267, 9, 37, 72, 68
-0.990278, 425, 241, 488, 272
-0.990317, 145, 97, 272, 224
-0.99033, 189, 193, 220, 320
-0.990355, 25, 17, 88, 48
-0.990401, 385, 57, 448, 88
-0.990406, 33, 5, 96, 36
-0.990444, 193, 1, 256, 128
-0.990452, 417, 297, 480, 328
-0.990491, 389, 193, 420, 320
-0.990516, 385, 73, 448, 104
-0.990528, 57, 1, 120, 32
-0.990558, 185, 225, 248, 256
-0.990559, 49, 225, 112, 256
-0.990581, 65, 85, 128, 116
-0.990591, 137, 97, 200, 224
-0.990605, 1, 1, 64, 32
-0.990607, 97, 257, 160, 288
-0.990608, 33, 197, 96, 228
-0.990616, 297, 1, 360, 375
-0.990621, 361, 57, 424, 88
-0.990625, 81, 73, 144, 104
-0.990635, 177, 257, 240, 288
-0.99064, 137, 37, 200, 68
-0.990649, 417, 49, 448, 176
-0.990671, 169, 1, 232, 256
-0.990681, 433, 221, 496, 252
-0.990713, 57, 201, 120, 232
-0.990729, 433, 253, 496, 284
-0.990733, 417, 309, 480, 340
-0.990744, 97, 61, 160, 92
-0.990754, 97, 225, 160, 256
-0.990818, 9, 101, 72, 132
-0.990822, 97, 241, 160, 272
-0.99083, 425, 65, 488, 96
-0.990832, 129, 257, 384, 320
-0.990861, 401, 45, 464, 76
-0.990872, 409, 265, 472, 296
-0.990878, 105, 21, 168, 52
-0.990917, 377, 221, 440, 252
-0.990921, 169, 245, 232, 276
-0.99094, 409, 213, 472, 244
-0.99096, 25, 153, 88, 184
-0.990966, 361, 37, 424, 68
-0.990968, 305, 97, 432, 160
-0.990968, 161, 169, 288, 232
-0.990983, 49, 53, 112, 84
-0.990983, 57, 73, 120, 104
-0.990995, 1, 281, 500, 344
-0.991017, 33, 37, 96, 68
-0.991021, 73, 41, 136, 72
-0.991078, 461, 33, 492, 160
-0.991095, 121, 273, 184, 304
-0.9911, 121, 245, 184, 276
-0.991115, 257, 169, 384, 232
-0.991123, 433, 209, 496, 240
-0.99113, 1, 49, 32, 176
-0.991173, 393, 201, 456, 232
-0.991176, 137, 25, 200, 56
-0.991177, 445, 113, 476, 240
-0.991178, 121, 229, 184, 260
-0.991179, 449, 49, 480, 176
-0.991202, 33, 185, 96, 216
-0.991202, 233, 265, 296, 296
-0.991205, 305, 257, 368, 288
-0.991211, 369, 209, 432, 240
-0.99122, 137, 217, 200, 248
-0.991221, 409, 277, 472, 308
-0.991221, 145, 9, 208, 40
-0.991226, 73, 225, 136, 256
-0.991253, 25, 161, 56, 288
-0.991253, 401, 225, 432, 352
-0.991259, 361, 233, 424, 264
-0.99126, 49, 113, 112, 144
-0.991263, 1, 25, 64, 56
-0.991291, 433, 193, 496, 224
-0.991298, 369, 189, 432, 220
-0.991303, 313, 301, 376, 332
-0.991322, 65, 29, 128, 60
-0.991322, 69, 241, 100, 368
-0.991323, 153, 53, 216, 84
-0.991332, 1, 53, 64, 84
-0.991362, 313, 1, 376, 32
-0.991372, 337, 173, 400, 204
-0.991377, 201, 253, 264, 284
-0.991401, 361, 129, 392, 256
-0.991409, 65, 233, 320, 296
-0.991413, 409, 185, 472, 216
-0.991419, 233, 229, 296, 260
-0.991422, 25, 225, 88, 256
-0.991429, 73, 253, 136, 284
-0.991448, 121, 57, 184, 88
-0.991448, 49, 237, 112, 268
-0.991453, 361, 69, 424, 100
-0.991457, 121, 293, 184, 324
-0.991469, 161, 229, 224, 260
-0.991504, 385, 17, 448, 48
-0.991525, 337, 113, 368, 240
-0.99154, 377, 169, 440, 200
-0.991548, 89, 273, 152, 304
-0.991552, 241, 1, 304, 32
-0.991558, 265, 249, 328, 280
-0.991598, 273, 281, 336, 312
-0.991599, 249, 277, 312, 308
-0.991611, 65, 165, 128, 196
-0.991614, 1, 193, 64, 224
-0.991628, 133, 49, 164, 176
-0.991628, 9, 213, 72, 244
-0.991631, 97, 197, 160, 228
-0.991631, 145, 245, 208, 276
-0.991635, 401, 253, 464, 284
-0.991641, 249, 49, 312, 176
-0.99166, 81, 297, 144, 328
-0.991661, 401, 173, 464, 204
-0.991665, 73, 61, 136, 92
-0.991673, 297, 245, 360, 276
-0.991684, 41, 101, 104, 132
-0.991702, 241, 113, 368, 176
-0.991718, 345, 305, 408, 336
-0.991723, 257, 273, 500, 336
-0.991723, 1, 181, 64, 212
-0.991733, 161, 21, 224, 52
-0.991754, 273, 225, 336, 256
-0.991757, 353, 25, 416, 56
-0.99178, 433, 145, 496, 176
-0.991781, 1, 13, 64, 44
-0.991784, 381, 49, 412, 176
-0.991785, 57, 13, 120, 44
-0.991788, 321, 197, 384, 228
-0.991799, 177, 297, 240, 328
-0.991809, 305, 269, 368, 300
-0.991819, 81, 309, 144, 340
-0.991842, 241, 249, 304, 280
-0.991843, 317, 225, 348, 352
-0.99185, 345, 193, 408, 224
-0.991857, 49, 133, 112, 164
-0.991862, 297, 213, 360, 244
-0.991874, 241, 289, 304, 320
-0.991875, 409, 153, 472, 184
-0.991882, 145, 121, 272, 184
-0.991884, 33, 309, 96, 340
-0.991902, 425, 53, 488, 84
-0.991908, 153, 133, 216, 164
-0.991921, 297, 201, 360, 232
-0.991972, 257, 305, 500, 368
-0.991993, 265, 1, 296, 128
-0.992066, 1, 1, 500, 64
-0.992076, 257, 241, 500, 304
-0.992147, 289, 145, 320, 272
-0.992175, 193, 129, 256, 256
-0.992188, 1, 49, 256, 112
-0.992194, 353, 49, 384, 176
-0.992213, 209, 129, 272, 375
-0.992245, 365, 225, 396, 352
-0.992285, 305, 129, 336, 256
-0.992339, 89, 65, 120, 192
-0.992414, 389, 145, 420, 272
-0.992437, 69, 209, 100, 240
-0.992508, 285, 269, 316, 300
-0.992525, 433, 245, 464, 276
-0.992529, 85, 205, 116, 236
-0.99253, 193, 129, 320, 192
-0.992532, 305, 65, 336, 192
-0.992561, 441, 281, 472, 312
-0.992562, 421, 229, 452, 260
-0.992569, 169, 145, 200, 272
-0.99259, 445, 297, 476, 328
-0.992596, 453, 273, 484, 304
-0.992634, 161, 45, 192, 76
-0.992636, 249, 129, 312, 375
-0.992637, 369, 113, 432, 240
-0.992638, 337, 177, 368, 304
-0.992642, 465, 225, 496, 256
-0.992649, 393, 49, 424, 80
-0.992652, 5, 61, 36, 92
-0.9927, 409, 37, 440, 68
-0.992704, 41, 69, 72, 100
-0.992715, 61, 1, 92, 32
-0.992727, 29, 69, 60, 100
-0.992738, 445, 261, 476, 292
-0.992741, 193, 89, 320, 152
-0.992745, 1, 1, 32, 32
-0.992751, 13, 1, 44, 32
-0.992759, 169, 33, 200, 64
-0.992759, 461, 285, 492, 316
-0.99276, 33, 13, 64, 44
-0.992762, 277, 281, 308, 312
-0.992779, 45, 89, 76, 120
-0.992794, 393, 65, 424, 96
-0.992798, 201, 193, 232, 320
-0.992802, 153, 57, 184, 88
-0.992803, 161, 261, 192, 292
-0.992805, 81, 105, 208, 168
-0.992812, 421, 253, 452, 284
-0.992813, 49, 9, 80, 40
-0.992822, 17, 61, 48, 92
-0.992825, 121, 253, 152, 284
-0.992827, 65, 281, 320, 344
-0.992828, 21, 21, 52, 52
-0.992842, 465, 241, 496, 272
-0.992842, 297, 269, 328, 300
-0.992846, 409, 69, 440, 100
-0.99285, 469, 269, 500, 300
-0.99285, 401, 237, 432, 268
-0.992856, 49, 213, 80, 244
-0.992859, 397, 33, 428, 64
-0.99286, 465, 213, 496, 244
-0.992861, 33, 1, 64, 32
-0.992868, 225, 237, 256, 268
-0.99288, 309, 177, 340, 304
-0.992887, 49, 21, 80, 52
-0.99289, 69, 225, 100, 256
-0.992893, 409, 57, 440, 88
-0.992895, 81, 89, 112, 120
-0.9929, 69, 81, 100, 112
-0.992901, 89, 73, 120, 104
-0.992903, 29, 181, 60, 212
-0.992907, 157, 189, 188, 220
-0.992908, 433, 269, 464, 300
-0.992911, 173, 177, 204, 208
-0.992923, 441, 229, 472, 260
-0.992924, 233, 193, 264, 320
-0.992926, 29, 57, 60, 88
-0.992928, 109, 241, 140, 272
-0.992937, 381, 49, 412, 80
-0.992939, 189, 145, 220, 272
-0.992941, 377, 65, 408, 96
-0.992945, 409, 217, 440, 248
-0.992946, 165, 57, 196, 88
-0.992951, 129, 221, 160, 252
-0.992957, 465, 253, 496, 284
-0.992957, 297, 49, 328, 80
-0.992958, 213, 241, 244, 272
-0.992962, 469, 297, 500, 328
-0.992966, 401, 17, 432, 48
-0.992973, 25, 81, 56, 112
-0.992979, 141, 249, 172, 280
-0.992981, 209, 225, 240, 256
-0.992984, 85, 193, 116, 224
-0.992986, 9, 49, 40, 80
-0.992986, 53, 77, 84, 108
-0.992989, 185, 257, 216, 288
-0.992991, 313, 61, 344, 92
-0.992991, 265, 277, 296, 308
-0.992995, 405, 197, 436, 228
-0.992998, 397, 221, 428, 252
-0.993, 197, 257, 228, 288
-0.993001, 85, 217, 116, 248
-0.993001, 433, 257, 464, 288
-0.993002, 1, 25, 256, 88
-0.993003, 89, 17, 120, 48
-0.993004, 405, 185, 436, 216
-0.993005, 433, 309, 464, 340
-0.993009, 37, 157, 68, 188
-0.993011, 97, 209, 128, 240
-0.993015, 101, 49, 132, 80
-0.99302, 101, 257, 132, 288
-0.993021, 13, 85, 44, 116
-0.993023, 73, 169, 104, 200
-0.993025, 173, 45, 204, 76
-0.993026, 133, 273, 164, 304
-0.993031, 421, 241, 452, 272
-0.993035, 121, 265, 152, 296
-0.993037, 61, 17, 92, 48
-0.993039, 173, 253, 204, 284
-0.99304, 141, 25, 172, 56
-0.993042, 153, 249, 184, 280
-0.993046, 17, 33, 48, 64
-0.993046, 33, 101, 64, 132
-0.993047, 109, 17, 140, 48
-0.993047, 125, 21, 156, 52
-0.993048, 469, 201, 500, 232
-0.993049, 5, 25, 36, 56
-0.993049, 129, 285, 160, 316
-0.99305, 417, 185, 448, 216
-0.993058, 273, 265, 304, 296
-0.993062, 65, 293, 96, 324
-0.993065, 117, 37, 148, 68
-0.993069, 101, 33, 132, 64
-0.993069, 449, 309, 480, 340
-0.99307, 121, 241, 152, 272
-0.99307, 77, 9, 108, 40
-0.993074, 53, 305, 84, 336
-0.993078, 37, 25, 68, 56
-0.993078, 105, 189, 136, 220
-0.993079, 189, 233, 220, 264
-0.993086, 85, 61, 116, 92
-0.993086, 453, 205, 484, 236
-0.993087, 137, 261, 168, 292
-0.993094, 149, 37, 180, 68
-0.993095, 329, 297, 360, 328
-0.993097, 125, 53, 156, 84
-0.993099, 161, 233, 416, 296
-0.993101, 41, 185, 72, 216
-0.993104, 237, 237, 268, 268
-0.993105, 73, 53, 104, 84
-0.993109, 445, 161, 476, 192
-0.99311, 109, 301, 140, 332
-0.993112, 445, 241, 476, 272
-0.993113, 53, 37, 84, 68
-0.993116, 201, 237, 232, 268
-0.993116, 377, 33, 408, 64
-0.993132, 145, 1, 208, 375
-0.993248, 273, 129, 336, 375
-0.99326, 349, 129, 380, 256
-0.993279, 361, 177, 392, 304
-0.99339, 445, 1, 476, 128
-0.993399, 33, 257, 288, 320
-0.993457, 173, 65, 204, 192
-0.99353, 1, 209, 256, 272
-0.993595, 1, 169, 500, 232
-0.993625, 1, 25, 500, 88
-0.993692, 257, 209, 500, 272
-0.993717, 193, 65, 320, 128
-0.993803, 241, 1, 304, 375
-0.99387, 1, 257, 500, 320
-0.993874, 65, 305, 320, 368
-0.99392, 125, 145, 156, 272
-0.993954, 249, 1, 312, 256
-0.993956, 145, 145, 272, 208
-0.993964, 1, 153, 256, 216
-0.99397, 241, 89, 368, 152
-0.994, 465, 273, 480, 336
-0.994005, 209, 169, 336, 232
-0.99401, 377, 145, 408, 272
-0.994135, 1, 57, 500, 120
-0.994174, 1, 69, 128, 100
-0.994176, 261, 193, 292, 320
-0.994177, 121, 49, 152, 176
-0.994269, 169, 1, 232, 375
-0.994282, 149, 249, 164, 312
-0.994335, 161, 281, 416, 344
-0.994355, 349, 241, 380, 368
-0.994441, 441, 241, 456, 304
-0.99447, 479, 209, 494, 272
-0.994499, 1, 73, 256, 136
-0.9945, 109, 49, 140, 176
-0.994523, 33, 185, 288, 248
-0.994562, 161, 65, 192, 192
-0.994579, 161, 209, 416, 272
-0.994582, 155, 249, 170, 312
-0.994591, 141, 249, 156, 312
-0.994616, 145, 97, 272, 160
-0.994672, 33, 265, 160, 296
-0.994679, 337, 49, 368, 176
-0.994791, 183, 233, 198, 296
-0.994805, 289, 257, 304, 320
-0.994812, 281, 49, 312, 176
-0.994818, 257, 25, 500, 88
-0.994849, 43, 65, 58, 128
-0.994863, 1, 1, 256, 64
-0.994868, 65, 1, 80, 64
-0.994902, 449, 249, 464, 312
-0.994916, 483, 233, 498, 296
-0.994919, 161, 305, 416, 368
-0.994927, 97, 1, 352, 64
-0.995011, 129, 25, 384, 88
-0.995019, 399, 41, 414, 104
-0.995026, 33, 221, 160, 252
-0.995058, 87, 1, 102, 64
-0.995076, 443, 265, 458, 328
-0.995094, 459, 265, 474, 328
-0.995125, 65, 293, 192, 324
-0.995138, 1, 5, 128, 36
-0.99516, 137, 209, 152, 272
-0.995164, 337, 221, 464, 252
-0.995175, 317, 113, 348, 240
-0.995188, 97, 261, 224, 292
-0.995189, 453, 289, 468, 352
-0.995189, 145, 65, 272, 128
-0.995198, 1, 37, 128, 68
-0.995214, 33, 81, 160, 112
-0.995215, 193, 49, 256, 176
-0.995243, 225, 1, 480, 64
-0.995252, 81, 69, 208, 100
-0.995256, 289, 97, 320, 224
-0.995263, 55, 1, 70, 64
-0.995274, 17, 165, 144, 196
-0.995283, 17, 1, 32, 64
-0.995283, 89, 113, 120, 240
-0.995284, 1, 193, 500, 256
-0.995299, 193, 257, 320, 288
-0.995307, 33, 113, 288, 176
-0.995311, 1, 217, 500, 280
-0.995332, 135, 249, 150, 312
-0.995336, 163, 25, 178, 88
-0.995342, 33, 305, 160, 336
-0.99536, 113, 233, 240, 264
-0.995368, 419, 201, 434, 264
-0.995371, 9, 33, 24, 96
-0.995429, 1, 305, 500, 368
-0.995431, 257, 137, 500, 200
-0.995431, 157, 113, 188, 240
-0.995464, 81, 249, 208, 280
-0.995465, 129, 225, 144, 288
-0.995488, 405, 41, 420, 104
-0.995493, 177, 233, 192, 296
-0.995502, 473, 249, 488, 312
-0.995512, 429, 225, 444, 288
-0.99553, 279, 257, 294, 320
-0.995548, 33, 277, 160, 308
-0.99555, 91, 65, 106, 128
-0.995551, 227, 233, 242, 296
-0.995569, 209, 233, 224, 296
-0.99558, 97, 305, 224, 336
-0.995592, 25, 65, 40, 128
-0.995608, 473, 193, 488, 256
-0.995615, 161, 249, 176, 312
-0.995623, 113, 273, 240, 304
-0.995624, 485, 209, 500, 272
-0.995632, 385, 97, 416, 224
-0.995637, 33, 249, 160, 280
-0.995654, 257, 49, 500, 112
-0.995689, 457, 241, 472, 304
-0.995696, 93, 1, 108, 64
-0.995698, 35, 81, 50, 144
-0.995698, 149, 25, 164, 88
-0.9957, 469, 225, 484, 288
-0.995701, 353, 233, 480, 264
-0.995705, 19, 57, 34, 120
-0.995713, 81, 1, 208, 32
-0.995718, 171, 33, 186, 96
-0.995727, 201, 249, 216, 312
-0.995735, 369, 297, 496, 328
-0.995741, 81, 57, 208, 88
-0.995752, 157, 33, 172, 96
-0.995754, 51, 65, 66, 128
-0.995756, 81, 9, 96, 72
-0.995784, 33, 57, 160, 88
-0.995802, 439, 289, 454, 352
-0.995804, 353, 65, 480, 96
-0.995815, 139, 33, 154, 96
-0.995824, 71, 201, 86, 264
-0.995833, 85, 41, 100, 104
-0.995839, 435, 233, 450, 296
-0.995842, 89, 201, 104, 264
-0.995897, 219, 249, 234, 312
-0.9959, 305, 53, 432, 84
-0.995903, 175, 177, 190, 240
-0.995912, 23, 17, 38, 80
-0.995919, 409, 209, 424, 272
-0.995934, 193, 249, 208, 312
-0.995957, 99, 193, 114, 256
-0.995959, 43, 41, 58, 104
-0.995964, 1, 81, 500, 144
-0.995964, 33, 21, 160, 52
-0.995974, 17, 189, 144, 220
-0.995988, 133, 273, 148, 336
-0.995991, 419, 1, 434, 64
-0.996006, 97, 49, 352, 112
-0.996017, 201, 1, 264, 375
-0.996022, 63, 273, 78, 336
-0.996037, 411, 41, 426, 104
-0.996045, 17, 293, 144, 324
-0.996057, 459, 289, 474, 352
-0.996091, 17, 25, 32, 88
-0.996098, 189, 273, 204, 336
-0.996118, 37, 57, 52, 120
-0.996119, 129, 245, 256, 276
-0.996121, 31, 1, 46, 64
-0.996122, 387, 49, 402, 112
-0.996134, 91, 41, 106, 104
-0.996137, 167, 249, 182, 312
-0.996142, 337, 209, 464, 240
-0.996163, 305, 65, 432, 96
-0.996174, 183, 273, 198, 336
-0.996177, 133, 25, 148, 88
-0.996185, 49, 1, 80, 256
-0.996189, 233, 233, 248, 296
-0.996195, 369, 317, 496, 348
-0.9962, 61, 233, 76, 296
-0.996207, 121, 217, 136, 280
-0.996208, 149, 49, 164, 112
-0.996213, 257, 1, 384, 32
-0.996225, 231, 257, 246, 320
-0.996253, 75, 9, 90, 72
-0.996254, 337, 5, 464, 36
-0.996264, 7, 9, 22, 72
-0.996266, 413, 177, 428, 240
-0.996271, 65, 237, 192, 268
-0.996271, 13, 57, 28, 120
-0.996292, 241, 269, 368, 300
-0.996302, 43, 193, 58, 256
-0.996336, 147, 225, 162, 288
-0.996339, 405, 17, 420, 80
-0.996347, 369, 281, 496, 312
-0.996347, 281, 281, 296, 344
-0.996348, 33, 117, 160, 148
-0.996353, 63, 33, 78, 96
-0.996368, 295, 265, 310, 328
-0.996369, 1, 93, 128, 124
-0.996369, 129, 57, 256, 88
-0.996375, 435, 209, 450, 272
-0.996379, 399, 185, 414, 248
-0.99638, 465, 201, 480, 264
-0.996387, 103, 217, 118, 280
-0.9964, 193, 161, 448, 224
-0.996411, 377, 25, 392, 88
-0.996413, 1, 129, 500, 192
-0.996415, 369, 53, 496, 84
-0.996418, 165, 49, 180, 112
-0.99643, 17, 177, 144, 208
-0.996435, 177, 245, 304, 276
-0.996439, 129, 185, 384, 248
-0.996453, 435, 265, 450, 328
-0.996453, 1, 201, 128, 232
-0.996458, 337, 253, 464, 284
-0.996482, 99, 73, 114, 136
-0.996487, 389, 169, 404, 232
-0.996492, 337, 161, 464, 192
-0.996493, 289, 221, 416, 252
-0.996497, 113, 249, 128, 312
-0.996499, 145, 45, 272, 76
-0.996502, 423, 225, 438, 288
-0.996509, 41, 161, 56, 224
-0.996513, 41, 1, 56, 64
-0.996517, 303, 257, 318, 320
-0.996518, 465, 297, 480, 360
-0.99652, 381, 161, 396, 224
-0.996521, 125, 249, 140, 312
-0.996531, 35, 25, 50, 88
-0.996539, 33, 169, 48, 232
-0.996544, 173, 257, 188, 320
-0.996545, 67, 249, 82, 312
-0.996545, 195, 273, 210, 336
-0.996545, 415, 233, 430, 296
-0.996547, 257, 185, 500, 248
-0.996547, 255, 257, 270, 320
-0.996555, 283, 1, 298, 64
-0.996559, 373, 185, 388, 248
-0.996562, 79, 177, 94, 240
-0.996571, 409, 65, 424, 128
-0.99658, 249, 249, 264, 312
-0.996583, 257, 81, 500, 144
-0.996585, 1, 153, 128, 184
-0.99659, 209, 257, 224, 320
-0.996594, 381, 49, 396, 112
-0.9966, 125, 281, 140, 344
-0.996606, 33, 317, 160, 348
-0.996608, 65, 157, 192, 188
-0.996608, 479, 185, 494, 248
-0.996609, 257, 233, 272, 296
-0.996613, 425, 33, 440, 96
-0.996615, 441, 217, 456, 280
-0.996617, 391, 9, 406, 72
-0.996617, 369, 189, 496, 220
-0.99662, 175, 201, 190, 264
-0.996633, 85, 73, 100, 136
-0.996636, 65, 37, 192, 68
-0.996636, 241, 281, 368, 312
-0.996643, 425, 201, 440, 264
-0.996657, 321, 177, 448, 208
-0.996668, 289, 41, 416, 72
-0.996671, 257, 257, 384, 288
-0.996684, 193, 1, 320, 32
-0.996708, 209, 233, 336, 264
-0.996718, 145, 257, 272, 288
-0.996744, 113, 285, 240, 316
-0.996752, 273, 13, 400, 44
-0.996756, 81, 213, 208, 244
-0.996823, 177, 221, 304, 252
-0.996873, 321, 313, 448, 344
-0.99689, 321, 297, 448, 328
-0.996897, 113, 33, 240, 64
-0.996919, 321, 281, 448, 312
-0.996933, 337, 17, 464, 48
-0.997003, 81, 21, 208, 52
-0.997009, 273, 301, 400, 332
-0.997013, 353, 77, 480, 108
-0.997018, 161, 73, 416, 136
-0.997033, 321, 197, 448, 228
-0.997042, 257, 113, 500, 176
-0.997048, 409, 1, 440, 256
-0.997055, 337, 265, 464, 296
-0.997086, 161, 269, 288, 300
-0.997087, 145, 313, 272, 344
-0.997116, 305, 233, 432, 264
-0.997146, 233, 129, 296, 256
-0.997148, 421, 97, 452, 352
-0.997174, 225, 45, 352, 76
-0.997179, 289, 29, 416, 60
-0.997196, 129, 121, 384, 184
-0.997201, 405, 61, 420, 92
-0.997206, 257, 209, 384, 240
-0.997206, 177, 297, 304, 328
-0.997224, 465, 285, 480, 316
-0.997279, 193, 309, 320, 340
-0.997304, 399, 53, 414, 84
-0.997343, 273, 313, 400, 344
-0.997351, 25, 1, 56, 256
-0.997353, 257, 169, 384, 200
-0.997373, 81, 201, 208, 232
-0.997398, 41, 97, 72, 352
-0.997398, 353, 41, 480, 72
-0.997405, 17, 233, 144, 264
-0.99742, 225, 221, 352, 252
-0.997426, 97, 317, 224, 348
-0.997432, 169, 45, 184, 76
-0.997436, 289, 77, 416, 108
-0.997443, 479, 233, 494, 264
-0.997447, 439, 245, 454, 276
-0.997455, 209, 33, 336, 64
-0.99746, 179, 177, 194, 208
-0.997475, 225, 333, 352, 364
-0.997479, 209, 21, 336, 52
-0.997491, 477, 221, 492, 252
-0.997498, 449, 65, 480, 320
-0.997527, 33, 141, 160, 172
-0.997551, 81, 81, 208, 112
-0.997566, 257, 237, 384, 268
-0.997575, 257, 197, 384, 228
-0.997583, 273, 125, 400, 156
-0.997584, 289, 269, 304, 300
-0.997588, 241, 57, 368, 88
-0.997609, 463, 273, 478, 304
-0.997617, 289, 269, 416, 300
-0.997623, 85, 65, 116, 320
-0.997633, 87, 201, 102, 232
-0.997636, 97, 161, 352, 224
-0.997658, 399, 65, 414, 96
-0.997661, 175, 45, 190, 76
-0.997668, 177, 325, 304, 356
-0.997671, 35, 177, 50, 208
-0.997679, 369, 29, 496, 60
-0.997685, 1, 105, 500, 168
-0.997705, 99, 205, 114, 236
-0.99771, 193, 285, 320, 316
-0.997715, 81, 169, 208, 200
-0.997715, 13, 1, 44, 256
-0.997738, 21, 61, 36, 92
-0.997741, 93, 73, 108, 104
-0.997746, 161, 233, 288, 264
-0.997759, 81, 189, 208, 220
-0.997769, 67, 5, 82, 36
-0.997772, 281, 277, 296, 308
-0.997779, 393, 65, 408, 96
-0.99778, 45, 61, 60, 92
-0.997781, 177, 209, 304, 240
-0.997781, 413, 37, 428, 68
-0.997781, 185, 257, 200, 288
-0.997783, 33, 105, 160, 136
-0.997784, 31, 61, 46, 92
-0.997786, 3, 1, 18, 32
-0.997789, 161, 181, 288, 212
-0.997798, 405, 49, 420, 80
-0.997811, 483, 221, 498, 252
-0.997812, 53, 129, 84, 375
-0.997815, 241, 69, 368, 100
-0.997826, 457, 277, 472, 308
-0.997826, 449, 257, 464, 288
-0.997832, 171, 185, 186, 216
-0.997836, 411, 73, 426, 104
-0.997837, 369, 177, 496, 208
-0.997841, 273, 329, 400, 360
-0.997842, 75, 1, 90, 32
-0.997844, 441, 297, 456, 328
-0.997844, 73, 65, 104, 320
-0.997858, 143, 53, 158, 84
-0.99786, 415, 61, 430, 92
-0.997862, 113, 153, 240, 184
-0.997867, 421, 61, 436, 92
-0.99787, 19, 49, 34, 80
-0.997879, 419, 217, 434, 248
-0.99788, 425, 229, 440, 260
-0.997884, 161, 161, 288, 192
-0.997884, 213, 225, 228, 256
-0.997889, 129, 217, 256, 248
-0.997906, 117, 257, 132, 288
-0.997914, 431, 233, 446, 264
-0.997916, 51, 9, 66, 40
-0.997922, 153, 245, 168, 276
-0.997928, 349, 1, 380, 256
-0.997929, 105, 65, 120, 96
-0.997945, 167, 29, 182, 60
-0.997951, 449, 285, 464, 316
-0.997954, 37, 1, 68, 256
-0.997955, 241, 185, 368, 216
-0.997956, 369, 345, 496, 375
-0.997959, 139, 21, 154, 52
-0.997961, 113, 133, 240, 164
-0.997963, 61, 1, 92, 256
-0.997965, 233, 237, 248, 268
-0.997966, 81, 1, 96, 32
-0.997974, 145, 253, 160, 284
-0.997976, 329, 1, 360, 256
-0.997978, 427, 69, 442, 100
-0.997978, 17, 329, 144, 360
-0.997987, 93, 217, 108, 248
-0.997987, 141, 41, 156, 72
-0.997987, 9, 57, 24, 88
-0.997989, 469, 129, 500, 375
-0.99799, 483, 249, 498, 280
-0.997996, 167, 57, 182, 88
-0.998021, 129, 21, 256, 52
-0.998022, 211, 241, 226, 272
-0.998027, 157, 49, 172, 80
-0.998031, 79, 213, 94, 244
-0.998031, 321, 117, 448, 148
-0.998032, 403, 25, 418, 56
-0.998039, 33, 129, 160, 160
-0.998043, 411, 233, 426, 264
-0.998045, 9, 41, 24, 72
-0.998045, 15, 61, 30, 92
-0.99805, 111, 257, 126, 288
-0.998051, 199, 257, 214, 288
-0.998051, 405, 73, 420, 104
-0.998054, 39, 13, 54, 44
-0.998058, 201, 241, 216, 272
-0.998058, 369, 137, 496, 168
-0.998058, 93, 85, 108, 116
-0.998059, 443, 257, 458, 288
-0.99806, 75, 85, 90, 116
-0.998061, 205, 257, 220, 288
-0.998061, 419, 21, 434, 52
-0.998062, 365, 1, 396, 256
-0.998062, 133, 129, 164, 375
-0.998065, 9, 69, 24, 100
-0.998065, 299, 269, 314, 300
-0.998067, 485, 209, 500, 240
-0.998072, 283, 265, 298, 296
-0.998076, 133, 37, 148, 68
-0.998077, 225, 321, 352, 352
-0.998084, 25, 81, 40, 112
-0.998084, 485, 237, 500, 268
-0.998086, 89, 1, 104, 32
-0.998087, 161, 257, 176, 288
-0.998089, 87, 81, 102, 112
-0.998089, 387, 49, 402, 80
-0.99809, 61, 1, 76, 32
-0.998091, 99, 217, 114, 248
-0.998091, 211, 253, 226, 284
-0.998091, 303, 49, 318, 80
-0.998092, 95, 61, 110, 92
-0.998096, 149, 45, 164, 76
-0.9981, 161, 33, 192, 288
-0.998102, 43, 25, 58, 56
-0.998105, 117, 241, 132, 272
-0.99811, 147, 25, 162, 56
-0.998116, 393, 65, 424, 320
-0.998117, 433, 1, 448, 32
-0.99812, 419, 241, 434, 272
-0.998123, 177, 57, 192, 88
-0.998128, 321, 149, 448, 180
-0.99813, 179, 257, 194, 288
-0.99813, 467, 229, 482, 260
-0.998131, 39, 193, 54, 224
-0.99814, 417, 73, 432, 104
-0.998141, 29, 21, 44, 52
-0.998142, 55, 77, 70, 108
-0.998142, 169, 261, 184, 292
-0.998144, 223, 241, 238, 272
-0.998151, 53, 25, 68, 56
-0.998155, 307, 269, 322, 300
-0.998155, 99, 73, 114, 104
-0.998156, 123, 237, 138, 268
-0.998158, 241, 157, 368, 188
-0.998165, 321, 129, 448, 160
-0.998167, 33, 85, 48, 116
-0.998168, 65, 81, 80, 112
-0.998171, 71, 209, 86, 240
-0.998172, 133, 49, 148, 80
-0.998173, 63, 21, 78, 52
-0.998174, 111, 245, 126, 276
-0.998176, 191, 257, 206, 288
-0.998177, 145, 1, 272, 32
-0.998179, 137, 217, 152, 248
-0.998179, 433, 249, 448, 280
-0.99818, 47, 97, 62, 128
-0.99818, 69, 165, 84, 196
-0.998181, 171, 173, 186, 204
-0.998182, 69, 289, 84, 320
-0.998188, 393, 53, 408, 84
-0.998188, 401, 209, 416, 240
-0.998191, 129, 193, 256, 224
-0.998191, 107, 209, 122, 240
-0.998193, 289, 281, 304, 312
-0.998195, 423, 253, 438, 284
-0.998206, 71, 225, 86, 256
-0.998208, 75, 165, 90, 196
-0.998208, 41, 181, 56, 212
-0.998209, 181, 129, 212, 375
-0.99821, 433, 97, 464, 352
-0.998251, 1, 1, 32, 256
-0.998301, 217, 81, 280, 208
-0.998323, 201, 33, 264, 288
-0.998356, 101, 33, 132, 288
-0.998375, 377, 1, 408, 256
-0.998384, 169, 129, 200, 375
-0.998405, 269, 261, 300, 276
-0.998405, 157, 185, 188, 200
-0.998407, 409, 41, 440, 56
-0.998407, 125, 249, 156, 264
-0.998408, 61, 25, 92, 40
-0.998408, 53, 37, 84, 52
-0.998409, 265, 279, 296, 294
-0.998409, 109, 307, 140, 322
-0.998409, 393, 223, 424, 238
-0.998409, 97, 21, 128, 36
-0.998409, 233, 241, 264, 256
-0.99841, 437, 303, 468, 318
-0.99841, 57, 83, 88, 98
-0.99841, 93, 75, 124, 90
-0.998411, 181, 233, 212, 248
-0.998412, 49, 233, 80, 248
-0.998412, 369, 59, 400, 74
-0.998412, 397, 71, 428, 86
-0.998413, 465, 255, 496, 270
-0.998414, 117, 271, 148, 286
-0.998415, 97, 27, 128, 42
-0.998415, 41, 77, 72, 92
-0.998416, 381, 59, 412, 74
-0.998416, 141, 259, 172, 274
-0.998417, 49, 227, 80, 242
-0.998417, 205, 239, 236, 254
-0.998417, 65, 295, 96, 310
-0.998417, 69, 207, 100, 222
-0.998418, 441, 231, 472, 246
-0.998418, 441, 279, 472, 294
-0.998419, 1, 33, 32, 48
-0.99842, 137, 207, 168, 222
-0.99842, 393, 55, 424, 70
-0.99842, 469, 269, 500, 284
-0.998421, 49, 239, 80, 254
-0.998421, 77, 91, 108, 106
-0.998421, 385, 181, 416, 196
-0.998422, 289, 281, 320, 296
-0.998423, 129, 219, 160, 234
-0.998423, 61, 237, 92, 252
-0.998423, 97, 223, 128, 238
-0.998424, 61, 95, 92, 110
-0.998424, 25, 71, 56, 86
-0.998426, 61, 229, 92, 244
-0.998426, 85, 223, 116, 238
-0.998427, 109, 297, 140, 312
-0.998428, 49, 29, 80, 44
-0.998428, 413, 229, 444, 244
-0.998428, 129, 97, 384, 160
-0.998429, 133, 231, 164, 246
-0.998429, 5, 77, 36, 92
-0.99843, 297, 271, 328, 286
-0.998431, 181, 259, 212, 274
-0.998432, 5, 61, 36, 76
-0.998432, 57, 13, 88, 28
-0.998432, 465, 229, 496, 244
-0.998432, 177, 195, 208, 210
-0.998432, 45, 95, 76, 110
-0.998433, 161, 31, 192, 46
-0.998433, 405, 203, 436, 218
-0.998434, 145, 57, 176, 72
-0.998434, 461, 295, 492, 310
-0.998435, 469, 213, 500, 228
-0.998435, 409, 177, 440, 192
-0.998435, 21, 39, 52, 54
-0.998436, 393, 197, 424, 212
-0.998436, 441, 285, 472, 300
-0.998437, 77, 1, 108, 16
-0.998437, 465, 261, 496, 276
-0.998437, 181, 239, 212, 254
-0.998438, 1, 1, 32, 16
-0.998438, 401, 47, 432, 62
-0.998439, 285, 271, 316, 286
-0.998439, 445, 291, 476, 306
-0.99844, 129, 225, 160, 240
-0.99844, 133, 61, 164, 76
-0.998441, 93, 83, 124, 98
-0.998441, 413, 77, 444, 92
-0.998443, 161, 49, 192, 64
-0.998443, 37, 31, 68, 46
-0.998444, 377, 67, 408, 82
-0.998445, 49, 19, 80, 34
-0.998445, 69, 85, 100, 100
-0.998446, 433, 255, 464, 270
-0.998447, 49, 217, 80, 232
-0.998448, 465, 247, 496, 262
-0.998449, 109, 213, 140, 228
-0.998449, 57, 89, 88, 104
-0.998452, 113, 47, 144, 62
-0.998452, 157, 191, 188, 206
-0.998453, 445, 271, 476, 286
-0.998456, 401, 239, 432, 254
-0.998457, 465, 241, 496, 256
-0.998457, 69, 213, 100, 228
-0.998457, 37, 21, 68, 36
-0.998457, 97, 217, 128, 232
-0.998458, 429, 175, 460, 190
-0.998459, 117, 229, 148, 244
-0.99846, 137, 253, 168, 268
-0.99846, 21, 27, 52, 42
-0.99846, 93, 209, 124, 224
-0.998461, 381, 49, 412, 64
-0.998461, 433, 313, 464, 328
-0.998462, 449, 299, 480, 314
-0.998465, 141, 25, 172, 40
-0.998468, 453, 277, 484, 292
-0.998468, 425, 249, 456, 264
-0.998469, 41, 9, 72, 24
-0.998471, 21, 63, 52, 78
-0.998472, 85, 217, 116, 232
-0.998473, 153, 63, 184, 78
-0.998473, 457, 289, 488, 304
-0.998475, 69, 167, 100, 182
-0.998475, 113, 1, 144, 256
-0.998476, 41, 71, 72, 86
-0.998478, 65, 7, 96, 22
-0.998485, 397, 63, 428, 78
-0.998485, 421, 241, 452, 256
-0.998488, 81, 77, 112, 92
-0.998488, 33, 169, 96, 184
-0.99849, 21, 33, 52, 48
-0.99849, 57, 219, 120, 234
-0.998492, 409, 241, 472, 256
-0.998493, 277, 279, 308, 294
-0.998493, 177, 33, 208, 288
-0.998494, 29, 183, 60, 198
-0.998496, 441, 237, 472, 252
-0.998496, 21, 1, 52, 16
-0.998498, 453, 283, 484, 298
-0.998499, 417, 235, 448, 250
-0.9985, 165, 57, 196, 72
-0.9985, 81, 85, 112, 100
-0.9985, 41, 85, 104, 100
-0.998502, 17, 27, 80, 42
-0.998503, 449, 309, 480, 324
-0.998505, 41, 213, 104, 228
-0.998505, 417, 313, 480, 328
-0.998506, 5, 67, 36, 82
-0.998508, 285, 129, 316, 375
-0.998509, 409, 231, 472, 246
-0.998515, 41, 95, 104, 110
-0.998515, 437, 263, 468, 278
-0.998516, 433, 239, 496, 254
-0.998519, 113, 57, 176, 72
-0.99852, 385, 237, 448, 252
-0.998521, 409, 71, 440, 86
-0.998521, 41, 35, 104, 50
-0.998522, 361, 73, 424, 88
-0.998523, 49, 225, 112, 240
-0.998528, 193, 241, 256, 256
-0.998535, 49, 79, 112, 94
-0.998537, 9, 71, 72, 86
-0.998538, 433, 231, 496, 246
-0.998539, 433, 277, 496, 292
-0.998541, 25, 225, 88, 240
-0.998542, 41, 29, 104, 44
-0.998543, 137, 59, 200, 74
-0.998545, 17, 33, 80, 48
-0.998546, 17, 77, 80, 92
-0.998547, 273, 271, 336, 286
-0.998547, 169, 235, 232, 250
-0.998548, 65, 209, 128, 224
-0.998549, 401, 75, 464, 90
-0.998549, 33, 9, 96, 24
-0.99855, 97, 217, 160, 232
-0.998551, 361, 97, 392, 352
-0.998555, 153, 129, 184, 375
-0.998557, 33, 175, 96, 190
-0.998558, 137, 45, 200, 60
-0.998558, 433, 271, 496, 286
-0.998558, 153, 259, 216, 274
-0.998559, 193, 251, 256, 266
-0.998561, 121, 263, 184, 278
-0.998563, 425, 307, 488, 322
-0.998563, 17, 87, 80, 102
-0.998565, 89, 227, 152, 242
-0.998565, 369, 45, 432, 60
-0.998568, 25, 97, 56, 352
-0.998569, 121, 255, 184, 270
-0.998569, 17, 17, 80, 32
-0.998569, 49, 71, 112, 86
-0.998571, 361, 229, 424, 244
-0.998571, 89, 211, 152, 226
-0.998572, 385, 231, 448, 246
-0.998573, 9, 41, 72, 56
-0.998574, 65, 89, 128, 104
-0.998574, 65, 233, 128, 248
-0.998575, 97, 65, 160, 80
-0.998575, 433, 195, 496, 210
-0.998575, 17, 1, 80, 16
-0.998575, 369, 173, 432, 188
-0.998577, 385, 61, 448, 76
-0.998578, 433, 283, 496, 298
-0.998579, 409, 269, 472, 284
-0.998579, 89, 273, 152, 288
-0.998583, 25, 183, 88, 198
-0.998583, 361, 189, 424, 204
-0.998583, 81, 77, 144, 92
-0.998584, 73, 1, 136, 16
-0.998586, 113, 39, 176, 54
-0.998588, 377, 55, 440, 70
-0.998589, 265, 281, 328, 296
-0.998589, 129, 229, 192, 244
-0.998589, 121, 65, 184, 80
-0.998589, 65, 37, 128, 52
-0.998589, 409, 217, 472, 232
-0.99859, 41, 101, 104, 116
-0.998591, 425, 251, 488, 266
-0.998592, 425, 175, 488, 190
-0.998592, 289, 261, 352, 276
-0.998592, 9, 63, 72, 78
-0.998593, 65, 167, 128, 182
-0.998595, 81, 45, 144, 60
-0.998596, 1, 93, 64, 108
-0.998596, 113, 49, 176, 64
-0.998597, 113, 235, 176, 250
-0.998597, 97, 243, 160, 258
-0.998597, 153, 251, 216, 266
-0.998597, 249, 267, 312, 282
-0.998598, 25, 219, 88, 234
-0.998598, 97, 255, 160, 270
-0.998599, 97, 249, 160, 264
-0.998599, 41, 205, 104, 220
-0.998599, 385, 69, 448, 84
-0.9986, 393, 207, 456, 222
-0.9986, 137, 53, 200, 68
-0.9986, 33, 163, 96, 178
-0.998601, 321, 211, 384, 226
-0.998602, 153, 245, 216, 260
-0.998602, 401, 55, 464, 70
-0.998603, 305, 267, 368, 282
-0.998604, 9, 103, 72, 118
-0.998605, 353, 51, 416, 66
-0.998605, 433, 201, 496, 216
-0.998605, 9, 9, 72, 24
-0.998606, 9, 47, 72, 62
-0.998606, 401, 171, 464, 186
-0.998607, 121, 277, 184, 292
-0.998607, 369, 213, 432, 228
-0.998607, 377, 223, 440, 238
-0.998607, 81, 297, 144, 312
-0.998607, 393, 181, 456, 196
-0.998608, 121, 297, 184, 312
-0.998608, 361, 67, 424, 82
-0.998609, 425, 301, 488, 316
-0.998609, 177, 257, 240, 272
-0.998609, 433, 207, 496, 222
-0.99861, 145, 195, 208, 210
-0.998613, 409, 129, 440, 375
-0.998613, 417, 319, 480, 334
-0.998614, 385, 243, 448, 258
-0.998615, 409, 223, 472, 238
-0.998615, 25, 231, 88, 246
-0.998615, 217, 237, 280, 252
-0.998615, 145, 23, 208, 38
-0.998616, 353, 183, 416, 198
-0.998616, 177, 227, 240, 242
-0.998616, 121, 269, 184, 284
-0.998616, 401, 81, 464, 96
-0.998618, 361, 235, 424, 250
-0.998618, 433, 245, 496, 260
-0.998619, 33, 155, 96, 170
-0.998621, 137, 37, 200, 52
-0.998622, 369, 195, 432, 210
-0.998622, 81, 83, 144, 98
-0.998622, 313, 301, 376, 316
-0.998622, 345, 45, 408, 60
-0.998623, 433, 225, 496, 240
-0.998629, 421, 1, 452, 256
-0.998639, 113, 129, 144, 375
-0.998731, 469, 33, 500, 288
-0.998751, 43, 1, 58, 128
-0.998759, 29, 17, 44, 144
-0.998764, 349, 97, 380, 352
-0.998813, 317, 65, 348, 320
-0.998824, 437, 1, 468, 256
-0.998886, 141, 1, 156, 128
-0.998926, 421, 161, 436, 288
-0.99897, 129, 1, 144, 128
-0.998971, 421, 1, 436, 128
-0.998975, 439, 209, 454, 336
-0.998992, 301, 33, 332, 288
-0.998997, 11, 1, 26, 128
-0.999003, 381, 97, 412, 352
-0.999006, 427, 145, 442, 272
-0.999015, 415, 177, 430, 304
-0.999015, 121, 241, 136, 368
-0.99902, 37, 1, 52, 128
-0.999026, 193, 129, 224, 375
-0.999026, 111, 1, 126, 128
-0.999026, 425, 209, 440, 336
-0.999044, 133, 33, 164, 288
-0.999048, 71, 129, 86, 256
-0.999049, 137, 193, 152, 320
-0.999052, 47, 65, 62, 192
-0.999057, 21, 1, 36, 128
-0.999059, 135, 241, 150, 368
-0.999061, 291, 241, 306, 368
-0.999062, 427, 1, 442, 128
-0.999085, 431, 209, 446, 336
-0.999088, 65, 1, 80, 128
-0.999089, 73, 177, 88, 304
-0.999092, 101, 129, 132, 375
-0.999094, 473, 209, 488, 336
-0.999095, 261, 129, 292, 375
-0.999098, 215, 241, 230, 368
-0.999107, 53, 1, 68, 128
-0.999111, 289, 193, 304, 320
-0.999113, 149, 1, 180, 256
-0.999115, 273, 129, 304, 375
-0.999117, 93, 177, 108, 304
-0.999119, 63, 225, 78, 352
-0.999123, 293, 1, 308, 128
-0.999139, 299, 1, 314, 128
-0.999141, 77, 129, 92, 256
-0.999144, 307, 1, 322, 128
-0.999144, 127, 193, 142, 320
-0.999147, 41, 65, 56, 192
-0.999149, 83, 1, 98, 128
-0.999153, 485, 209, 500, 336
-0.999154, 389, 1, 404, 128
-0.999157, 99, 17, 114, 144
-0.999158, 229, 241, 244, 368
-0.999159, 403, 1, 418, 128
-0.99916, 83, 177, 98, 304
-0.999163, 159, 1, 174, 128
-0.999164, 147, 1, 162, 128
-0.999165, 329, 97, 360, 352
-0.999171, 209, 241, 224, 368
-0.999173, 297, 129, 328, 375
-0.999177, 89, 1, 104, 128
-0.999182, 175, 33, 190, 160
-0.999184, 65, 161, 80, 288
-0.99919, 57, 209, 72, 336
-0.999195, 223, 241, 238, 368
-0.999195, 117, 1, 132, 128
-0.999201, 479, 193, 494, 320
-0.999201, 107, 241, 122, 368
-0.999201, 77, 17, 92, 144
-0.999204, 147, 241, 162, 368
-0.999205, 51, 129, 66, 256
-0.99921, 153, 241, 168, 368
-0.99921, 289, 1, 320, 256
-0.999216, 463, 241, 478, 368
-0.999229, 409, 161, 424, 288
-0.999229, 465, 193, 480, 320
-0.999229, 237, 241, 252, 368
-0.99923, 283, 241, 298, 368
-0.99923, 165, 1, 180, 128
-0.999232, 453, 209, 468, 336
-0.999234, 297, 225, 312, 352
-0.999241, 153, 1, 168, 128
-0.999242, 305, 241, 320, 368
-0.999243, 215, 193, 230, 320
-0.999248, 271, 241, 286, 368
-0.99925, 159, 241, 174, 368
-0.99925, 415, 17, 430, 144
-0.999253, 445, 177, 460, 304
-0.999254, 167, 241, 182, 368
-0.999255, 53, 49, 68, 176
-0.999255, 403, 161, 418, 288
-0.999261, 173, 177, 188, 304
-0.999261, 99, 209, 114, 336
-0.999264, 71, 17, 86, 144
-0.999266, 135, 17, 150, 144
-0.999271, 141, 241, 156, 368
-0.999272, 83, 129, 98, 256
-0.999273, 383, 1, 398, 128
-0.999274, 317, 1, 332, 128
-0.999288, 173, 241, 188, 368
-0.999293, 43, 129, 58, 256
-0.999297, 59, 65, 74, 192
-0.999299, 127, 241, 142, 368
-0.999303, 9, 49, 24, 176
-0.999303, 283, 193, 298, 320
-0.999304, 77, 81, 92, 208
-0.999308, 435, 161, 450, 288
-0.999309, 35, 65, 50, 192
-0.99931, 445, 225, 460, 352
-0.999311, 221, 193, 236, 320
-0.999312, 317, 49, 332, 176
-0.999315, 327, 17, 342, 144
-0.999317, 179, 241, 194, 368
-0.999319, 143, 193, 158, 320
-0.999322, 89, 49, 104, 176
-0.999324, 427, 65, 442, 192
-0.999325, 433, 65, 448, 192
-0.999325, 435, 1, 450, 128
-0.999327, 395, 33, 410, 160
-0.999331, 83, 65, 98, 192
-0.999331, 339, 1, 354, 128
-0.999335, 19, 49, 34, 176
-0.999338, 123, 1, 138, 128
-0.999338, 373, 1, 388, 128
-0.999341, 243, 241, 258, 368
-0.999341, 479, 241, 494, 368
-0.999345, 409, 17, 424, 144
-0.999345, 279, 1, 294, 128
-0.999346, 361, 177, 376, 304
-0.999349, 191, 241, 206, 368
-0.999349, 253, 241, 268, 368
-0.999349, 59, 17, 74, 144
-0.99935, 167, 49, 182, 176
-0.999351, 405, 209, 420, 336
-0.999352, 203, 241, 218, 368
-0.999354, 303, 193, 318, 320
-0.999355, 321, 225, 336, 352
-0.999356, 115, 241, 130, 368
-0.999357, 185, 241, 200, 368
-0.99936, 49, 209, 64, 336
-0.99936, 277, 241, 292, 368
-0.999367, 383, 49, 398, 176
-0.999369, 285, 1, 300, 128
-0.999369, 481, 17, 496, 144
-0.999373, 25, 65, 40, 192
-0.999473, 221, 129, 252, 375
-0.99948, 13, 97, 44, 352
-0.999499, 205, 129, 236, 375
-0.999536, 241, 129, 272, 375
-0.999596, 183, 233, 198, 248
-0.999597, 169, 47, 184, 62
-0.999597, 45, 99, 60, 114
-0.999597, 53, 31, 68, 46
-0.999597, 421, 37, 436, 52
-0.999598, 15, 41, 30, 56
-0.999598, 439, 249, 454, 264
-0.999598, 397, 45, 412, 60
-0.999598, 59, 7, 74, 22
-0.999598, 479, 243, 494, 258
-0.999599, 83, 167, 98, 182
-0.999599, 143, 53, 158, 68
-0.999599, 135, 37, 150, 52
-0.999599, 95, 63, 110, 78
-0.999599, 51, 69, 66, 84
-0.9996, 75, 91, 90, 106
-0.9996, 485, 251, 500, 266
-0.9996, 465, 287, 480, 302
-0.999601, 3, 3, 18, 18
-0.999601, 149, 61, 164, 76
-0.999601, 137, 59, 152, 74
-0.999602, 153, 259, 168, 274
-0.999603, 171, 185, 186, 200
-0.999604, 201, 249, 216, 264
-0.999604, 143, 259, 158, 274
-0.999604, 137, 51, 152, 66
-0.999604, 95, 83, 110, 98
-0.999605, 203, 241, 218, 256
-0.999605, 125, 231, 140, 246
-0.999605, 55, 87, 70, 102
-0.999605, 77, 177, 92, 192
-0.999605, 143, 59, 158, 74
-0.999606, 51, 11, 66, 26
-0.999606, 61, 261, 76, 276
-0.999606, 63, 283, 78, 298
-0.999607, 483, 231, 498, 246
-0.999607, 69, 3, 84, 18
-0.999607, 9, 57, 24, 72
-0.999608, 53, 81, 68, 96
-0.999608, 153, 247, 168, 262
-0.999609, 393, 55, 408, 70
-0.999609, 423, 177, 438, 192
-0.999609, 65, 87, 80, 102
-0.99961, 159, 55, 174, 70
-0.99961, 289, 269, 304, 284
-0.999611, 409, 191, 424, 206
-0.999611, 479, 249, 494, 264
-0.999612, 443, 313, 458, 328
-0.999613, 123, 297, 138, 312
-0.999614, 403, 47, 418, 62
-0.999614, 69, 309, 84, 324
-0.999614, 69, 293, 84, 308
-0.999614, 93, 205, 108, 220
-0.999614, 39, 35, 54, 50
-0.999614, 107, 211, 122, 226
-0.999615, 65, 227, 80, 242
-0.999615, 175, 191, 190, 206
-0.999615, 7, 63, 22, 78
-0.999616, 29, 27, 44, 42
-0.999617, 159, 61, 174, 76
-0.999618, 61, 243, 76, 258
-0.999618, 387, 227, 402, 242
-0.999619, 137, 211, 152, 226
-0.999619, 135, 217, 150, 232
-0.999619, 31, 63, 46, 78
-0.999619, 143, 253, 158, 268
-0.999619, 177, 183, 192, 198
-0.99962, 425, 75, 440, 90
-0.99962, 399, 239, 414, 254
-0.999621, 75, 7, 90, 22
-0.999621, 175, 57, 190, 72
-0.999621, 485, 243, 500, 258
-0.999622, 175, 45, 190, 60
-0.999623, 145, 23, 160, 38
-0.999624, 91, 69, 106, 84
-0.999624, 485, 257, 500, 272
-0.999625, 91, 35, 106, 50
-0.999625, 81, 5, 96, 20
-0.999625, 467, 281, 482, 296
-0.999626, 29, 83, 44, 98
-0.999626, 389, 63, 404, 78
-0.999627, 213, 227, 228, 242
-0.999627, 381, 45, 396, 60
-0.999628, 441, 297, 456, 312
-0.999629, 101, 209, 116, 224
-0.99963, 201, 255, 216, 270
-0.999631, 419, 77, 434, 92
-0.999631, 219, 237, 234, 252
-0.999632, 399, 53, 414, 68
-0.999634, 91, 217, 106, 232
-0.999635, 417, 203, 432, 218
-0.999635, 433, 249, 448, 264
-0.999635, 459, 267, 474, 282
-0.999638, 409, 81, 424, 96
-0.999638, 391, 45, 406, 60
-0.999638, 395, 69, 410, 84
-0.999639, 83, 85, 98, 100
-0.99964, 405, 63, 420, 78
-0.999643, 451, 273, 466, 288
-0.999643, 45, 71, 60, 86
-0.999644, 95, 211, 110, 226
-0.999645, 447, 251, 462, 266
-0.999647, 131, 229, 146, 244
-0.999647, 387, 55, 402, 70
-0.999649, 89, 81, 104, 96
-0.999652, 189, 33, 220, 288
-0.999653, 415, 69, 430, 84
-0.999654, 475, 223, 490, 238
-0.999654, 45, 65, 60, 80
-0.999654, 443, 261, 458, 276
-0.999654, 459, 283, 474, 298
-0.99966, 101, 223, 116, 238
-0.999661, 413, 197, 428, 212
-0.999661, 463, 275, 478, 290
-0.999662, 169, 57, 184, 72
-0.999663, 281, 279, 296, 294
-0.999663, 439, 255, 454, 270
-0.999665, 149, 55, 164, 70
-0.999666, 153, 253, 168, 268
-0.999667, 399, 63, 414, 78
-0.999667, 39, 183, 54, 198
-0.999672, 97, 217, 112, 232
-0.999673, 479, 237, 494, 252
-0.999678, 277, 1, 308, 256
-0.999678, 21, 65, 36, 80
-0.999682, 95, 75, 110, 90
-0.999684, 405, 75, 420, 90
-0.999685, 439, 243, 454, 258
-0.999691, 411, 75, 426, 90
-0.999694, 405, 69, 420, 84
-0.999702, 103, 217, 118, 232
-0.999721, 465, 293, 480, 308
-0.999745, 1, 97, 32, 352
-0.99999, 201, 33, 232, 288
-1.00024, 261, 33, 292, 288
-1.00025, 213, 33, 244, 288
-1.00025, 225, 33, 256, 288
-1.00025, 225, 1, 288, 256
-1.0005, 249, 1, 280, 256
-1.00074, 237, 33, 268, 288
