1963
-0.58476, 1, 97, 500, 352
-0.604785, 1, 1, 500, 256
-0.690984, 1, 1, 500, 375
-0.740996, 1, 1, 256, 375
-0.744649, 129, 1, 384, 375
-0.816923, 97, 1, 352, 256
-0.829062, 257, 1, 500, 375
-0.866403, 1, 1, 256, 256
-0.868677, 97, 129, 352, 375
-0.903384, 113, 1, 240, 256
-0.90992, 1, 129, 500, 256
-0.913609, 113, 129, 240, 375
-0.915163, 225, 1, 480, 256
-0.918125, 1, 129, 256, 375
-0.925444, 129, 1, 256, 375
-0.92566, 33, 33, 160, 288
-0.92785, 193, 1, 320, 375
-0.928087, 193, 65, 320, 320
-0.938447, 1, 81, 500, 208
-0.94576, 17, 1, 144, 375
-0.945854, 1, 81, 256, 208
-0.946944, 257, 33, 384, 288
-0.94705, 241, 1, 368, 375
-0.947708, 353, 1, 480, 375
-0.950601, 129, 145, 256, 272
-0.952362, 81, 1, 208, 375
-0.955217, 65, 145, 320, 272
-0.957053, 193, 97, 448, 352
-0.958339, 177, 145, 304, 272
-0.958854, 305, 1, 432, 256
-0.959236, 1, 1, 500, 128
-0.959339, 185, 129, 248, 256
-0.959625, 113, 97, 240, 224
-0.959966, 65, 129, 192, 375
-0.960271, 289, 1, 416, 375
-0.960626, 129, 145, 192, 208
-0.961394, 145, 129, 208, 256
-0.961536, 161, 129, 416, 256
-0.962789, 241, 129, 368, 375
-0.962972, 185, 153, 248, 216
-0.963702, 105, 81, 168, 208
-0.9639, 1, 177, 500, 304
-0.963995, 161, 129, 224, 192
-0.964239, 49, 81, 176, 208
-0.966543, 369, 33, 496, 288
-0.967843, 97, 33, 352, 160
-0.967871, 97, 81, 352, 208
-0.968214, 129, 137, 256, 200
-0.969981, 81, 145, 208, 272
-0.970528, 209, 137, 272, 200
-0.970707, 289, 129, 416, 375
-0.971799, 97, 65, 160, 128
-0.97237, 369, 129, 496, 375
-0.972524, 193, 97, 320, 224
-0.972638, 161, 177, 224, 304
-0.973441, 137, 81, 200, 208
-0.973784, 113, 17, 240, 144
-0.973941, 161, 153, 224, 216
-0.974186, 193, 177, 256, 240
-0.974544, 121, 129, 184, 256
-0.974631, 257, 49, 500, 176
-0.9749, 273, 169, 336, 232
-0.975258, 217, 161, 280, 288
-0.975275, 1, 33, 256, 160
-0.975311, 217, 169, 280, 232
-0.975811, 1, 129, 128, 375
-0.976178, 161, 185, 224, 248
-0.977135, 257, 145, 320, 208
-0.977381, 209, 113, 272, 240
-0.977511, 185, 129, 248, 192
-0.977753, 121, 169, 184, 232
-0.977816, 225, 1, 480, 128
-0.978054, 217, 137, 248, 200
-0.9781, 305, 161, 368, 224
-0.978118, 161, 161, 288, 224
-0.978221, 161, 81, 224, 208
-0.978298, 205, 153, 236, 216
-0.978303, 161, 177, 416, 304
-0.978758, 197, 129, 228, 192
-0.978923, 81, 81, 144, 208
-0.979088, 145, 137, 176, 200
-0.979124, 113, 161, 240, 224
-0.979231, 105, 89, 168, 152
-0.979296, 201, 145, 232, 272
-0.979548, 125, 65, 156, 128
-0.980186, 177, 137, 304, 200
-0.980245, 393, 97, 456, 224
-0.980727, 73, 73, 136, 136
-0.980859, 97, 33, 160, 160
-0.980943, 193, 177, 256, 304
-0.980991, 297, 185, 360, 248
-0.981748, 105, 73, 136, 136
-0.982174, 1, 241, 500, 368
-0.982308, 209, 65, 272, 192
-0.982369, 241, 169, 304, 232
-0.982379, 385, 25, 448, 88
-0.982553, 169, 105, 232, 168
-0.982618, 137, 17, 200, 144
-0.982666, 65, 49, 128, 112
-0.982706, 177, 129, 208, 192
-0.982849, 385, 33, 448, 160
-0.982966, 369, 1, 432, 64
-0.982994, 121, 65, 184, 128
-0.983095, 189, 153, 220, 216
-0.983403, 257, 97, 500, 224
-0.983497, 257, 97, 320, 224
-0.983526, 9, 105, 72, 168
-0.983548, 157, 137, 188, 200
-0.983837, 209, 161, 336, 224
-0.983867, 97, 33, 160, 288
-0.983983, 225, 169, 256, 232
-0.984014, 133, 145, 164, 208
-0.984029, 281, 161, 344, 288
-0.984097, 409, 17, 472, 80
-0.984407, 433, 97, 496, 224
-0.984408, 17, 33, 144, 160
-0.984657, 189, 129, 220, 256
-0.984741, 153, 129, 184, 256
-0.984793, 97, 169, 160, 232
-0.984811, 225, 145, 352, 272
-0.984969, 369, 145, 432, 272
-0.98539, 361, 137, 424, 200
-0.985393, 241, 1, 368, 128
-0.985482, 241, 145, 304, 272
-0.9855, 93, 81, 124, 144
-0.985613, 305, 129, 368, 256
-0.985778, 369, 17, 496, 144
-0.985787, 301, 169, 332, 232
-0.985817, 65, 193, 320, 320
-0.985922, 361, 161, 424, 224
-0.986167, 65, 145, 192, 208
-0.986203, 1, 97, 128, 160
-0.986264, 245, 161, 276, 224
-0.986293, 385, 161, 448, 224
-0.986299, 385, 137, 448, 200
-0.9864, 105, 113, 168, 176
-0.986426, 133, 81, 164, 208
-0.986574, 177, 145, 208, 272
-0.986667, 369, 97, 496, 224
-0.986694, 185, 177, 216, 240
-0.986707, 65, 97, 128, 160
-0.986906, 137, 121, 200, 184
-0.987118, 197, 177, 228, 240
-0.987192, 409, 1, 472, 128
-0.987381, 125, 169, 156, 232
-0.987493, 145, 81, 176, 208
-0.987517, 161, 185, 288, 248
-0.987677, 213, 145, 244, 272
-0.987839, 65, 105, 192, 168
-0.98785, 165, 129, 196, 256
-0.987915, 289, 1, 416, 128
-0.988023, 185, 65, 248, 192
-0.988025, 161, 193, 288, 320
-0.988032, 113, 185, 240, 248
-0.988044, 5, 105, 36, 168
-0.988089, 49, 73, 112, 136
-0.988147, 177, 153, 208, 216
-0.988168, 129, 97, 192, 160
-0.988193, 129, 113, 256, 176
-0.988272, 65, 33, 128, 160
-0.988357, 121, 41, 184, 104
-0.988401, 257, 161, 500, 288
-0.988433, 177, 49, 304, 176
-0.988508, 209, 177, 240, 240
-0.988568, 401, 113, 464, 176
-0.988578, 105, 145, 168, 208
-0.988578, 113, 65, 144, 192
-0.988634, 97, 65, 224, 128
-0.98879, 33, 129, 160, 256
-0.988831, 313, 1, 376, 64
-0.988845, 201, 65, 264, 320
-0.988978, 141, 129, 172, 256
-0.989, 217, 113, 280, 176
-0.989056, 17, 73, 144, 136
-0.989158, 169, 137, 232, 168
-0.989211, 97, 41, 160, 104
-0.989288, 65, 177, 192, 240
-0.98929, 305, 137, 368, 200
-0.989292, 137, 177, 200, 304
-0.989383, 17, 81, 80, 208
-0.989456, 193, 73, 256, 136
-0.989462, 145, 1, 208, 256
-0.989767, 145, 141, 208, 172
-0.989796, 233, 145, 264, 208
-0.989887, 125, 41, 156, 104
-0.989913, 425, 113, 488, 176
-0.990059, 193, 1, 320, 128
-0.990117, 97, 73, 160, 104
-0.990123, 217, 193, 280, 256
-0.990145, 81, 145, 144, 208
-0.990237, 121, 173, 184, 204
-0.990364, 137, 97, 200, 352
-0.9905, 189, 177, 220, 304
-0.990579, 225, 1, 288, 128
-0.990611, 185, 177, 248, 208
-0.990612, 177, 97, 208, 224
-0.99074, 217, 169, 280, 200
-0.990746, 17, 81, 80, 144
-0.990762, 161, 181, 224, 212
-0.990865, 209, 113, 240, 176
-0.991004, 1, 81, 128, 208
-0.991033, 273, 177, 336, 208
-0.991066, 217, 65, 280, 128
-0.991067, 105, 85, 168, 116
-0.99109, 125, 89, 156, 152
-0.991098, 217, 81, 248, 208
-0.991134, 289, 1, 352, 64
-0.991158, 101, 49, 132, 112
-0.991162, 305, 1, 432, 64
-0.991188, 121, 161, 184, 192
-0.991258, 297, 173, 360, 204
-0.991258, 1, 129, 64, 192
-0.991293, 137, 185, 200, 216
-0.991387, 201, 145, 264, 176
-0.991436, 257, 161, 320, 192
-0.991458, 121, 1, 184, 256
-0.991473, 165, 113, 196, 176
-0.991482, 65, 145, 320, 208
-0.991513, 401, 121, 464, 152
-0.991523, 81, 73, 112, 136
-0.99156, 97, 173, 160, 204
-0.991563, 209, 113, 336, 176
-0.991609, 209, 193, 336, 320
-0.99162, 177, 1, 240, 128
-0.991628, 101, 65, 132, 192
-0.991685, 9, 113, 72, 144
-0.991717, 225, 137, 352, 200
-0.991729, 177, 153, 240, 184
-0.991755, 209, 185, 336, 248
-0.991784, 153, 169, 216, 200
-0.991786, 65, 73, 128, 104
-0.991788, 113, 41, 240, 104
-0.991802, 377, 21, 440, 52
-0.991908, 121, 145, 184, 176
-0.991908, 157, 161, 188, 224
-0.992042, 245, 145, 276, 272
-0.992068, 345, 81, 408, 208
-0.992068, 113, 185, 176, 216
-0.992071, 177, 165, 240, 196
-0.992084, 137, 129, 200, 160
-0.992085, 173, 185, 204, 248
-0.992143, 9, 101, 72, 132
-0.992181, 201, 157, 264, 188
-0.992185, 97, 137, 160, 168
-0.992187, 185, 189, 248, 220
-0.992193, 409, 25, 472, 56
-0.992278, 137, 89, 200, 120
-0.992289, 217, 133, 280, 164
-0.992312, 113, 169, 144, 232
-0.992329, 97, 129, 160, 256
-0.992348, 249, 177, 312, 208
-0.992359, 217, 181, 280, 212
-0.992361, 197, 141, 228, 172
-0.992364, 65, 61, 128, 92
-0.992383, 257, 169, 384, 232
-0.992402, 385, 177, 448, 208
-0.992425, 153, 153, 216, 184
-0.992466, 177, 125, 240, 156
-0.992467, 385, 157, 448, 188
-0.992471, 433, 117, 496, 148
-0.992475, 241, 97, 368, 224
-0.992488, 361, 173, 424, 204
-0.992518, 281, 189, 344, 220
-0.992544, 165, 141, 196, 172
-0.992551, 81, 85, 144, 116
-0.992554, 161, 193, 224, 224
-0.992613, 105, 61, 168, 92
-0.992623, 73, 97, 136, 128
-0.992624, 153, 141, 184, 172
-0.992627, 185, 137, 216, 168
-0.992632, 361, 157, 424, 188
-0.992635, 129, 77, 192, 108
-0.992652, 385, 145, 448, 176
-0.992678, 245, 165, 276, 196
-0.99268, 89, 161, 152, 192
-0.992706, 125, 173, 156, 204
-0.992707, 209, 141, 240, 172
-0.992719, 209, 73, 272, 104
-0.992733, 417, 17, 448, 80
-0.992745, 25, 97, 56, 160
-0.992773, 101, 77, 132, 108
-0.992782, 301, 173, 332, 204
-0.992786, 361, 145, 424, 176
-0.992807, 161, 97, 224, 352
-0.992833, 9, 129, 72, 160
-0.992855, 181, 185, 212, 216
-0.992888, 17, 137, 144, 200
-0.992894, 129, 161, 160, 192
-0.992904, 305, 193, 368, 224
-0.992918, 305, 161, 368, 192
-0.99292, 97, 169, 352, 232
-0.992922, 201, 177, 232, 208
-0.992934, 9, 113, 40, 144
-0.992939, 185, 69, 248, 100
-0.99296, 193, 105, 256, 168
-0.992964, 137, 181, 168, 212
-0.992994, 189, 173, 220, 204
-0.992997, 301, 185, 332, 216
-0.993003, 209, 153, 240, 184
-0.993007, 417, 13, 480, 44
-0.993008, 361, 185, 424, 216
-0.993011, 385, 37, 448, 68
-0.993019, 153, 113, 184, 176
-0.993019, 225, 145, 256, 272
-0.993025, 113, 173, 144, 204
-0.993038, 169, 177, 200, 208
-0.993046, 209, 193, 272, 224
-0.993047, 49, 85, 112, 116
-0.993051, 377, 193, 440, 256
-0.993054, 33, 49, 160, 112
-0.993055, 125, 73, 156, 104
-0.99306, 97, 97, 160, 128
-0.993067, 113, 73, 144, 104
-0.993069, 169, 129, 200, 160
-0.993076, 201, 97, 232, 224
-0.993084, 137, 149, 168, 180
-0.993096, 209, 165, 240, 196
-0.993106, 217, 61, 280, 92
-0.993108, 149, 173, 180, 204
-0.993121, 233, 173, 264, 204
-0.993147, 193, 201, 256, 264
-0.993148, 221, 145, 252, 176
-0.993149, 385, 133, 448, 164
-0.99315, 225, 157, 288, 188
-0.993153, 101, 89, 132, 120
-0.993154, 185, 201, 248, 232
-0.993156, 97, 109, 160, 140
-0.993173, 177, 89, 304, 152
-0.993183, 125, 89, 156, 120
-0.993201, 89, 73, 120, 104
-0.993213, 197, 129, 228, 160
-0.993221, 193, 189, 224, 220
-0.993223, 213, 177, 244, 208
-0.993227, 197, 157, 228, 188
-0.993237, 385, 189, 448, 220
-0.993248, 321, 1, 384, 128
-0.993254, 393, 109, 456, 140
-0.993267, 113, 17, 144, 144
-0.993278, 401, 145, 464, 272
-0.993297, 237, 97, 268, 224
-0.993298, 305, 161, 432, 288
-0.993303, 113, 89, 144, 120
-0.993318, 413, 21, 444, 52
-0.993326, 89, 85, 120, 116
-0.993335, 177, 149, 208, 180
-0.993338, 317, 177, 348, 208
-0.993343, 221, 161, 252, 192
-0.993348, 153, 185, 184, 216
-0.99335, 249, 177, 280, 208
-0.993353, 205, 189, 236, 220
-0.993356, 121, 185, 152, 216
-0.993364, 189, 81, 220, 208
-0.993366, 289, 173, 320, 204
-0.993368, 129, 137, 160, 168
-0.99337, 361, 133, 424, 164
-0.993372, 49, 97, 112, 128
-0.99338, 405, 17, 436, 80
-0.993381, 181, 125, 212, 156
-0.993398, 5, 129, 36, 160
-0.993418, 73, 49, 136, 80
-0.993421, 225, 69, 256, 100
-0.993421, 121, 105, 184, 136
-0.993422, 337, 1, 400, 64
-0.993425, 101, 61, 132, 92
-0.993428, 153, 129, 184, 160
-0.993437, 233, 161, 264, 192
-0.993441, 417, 117, 448, 148
-0.993446, 257, 165, 288, 196
-0.993448, 345, 1, 408, 32
-0.99345, 225, 185, 256, 216
-0.993451, 161, 165, 192, 196
-0.993459, 5, 101, 36, 132
-0.993464, 201, 121, 264, 152
-0.993465, 97, 45, 160, 76
-0.993475, 209, 129, 240, 160
-0.993479, 21, 113, 52, 144
-0.993487, 137, 77, 168, 108
-0.993488, 433, 121, 464, 152
-0.993491, 33, 109, 96, 140
-0.993495, 129, 145, 256, 176
-0.993497, 401, 1, 464, 32
-0.993501, 177, 165, 208, 196
-0.993506, 449, 117, 480, 148
-0.993512, 145, 89, 176, 120
-0.993514, 169, 189, 200, 220
-0.993519, 377, 9, 440, 40
-0.993529, 409, 37, 472, 68
-0.993529, 9, 89, 72, 120
-0.993531, 257, 161, 288, 224
-0.993534, 141, 161, 172, 192
-0.993535, 321, 177, 384, 208
-0.993536, 93, 101, 124, 132
-0.993536, 197, 201, 228, 232
-0.993539, 121, 37, 184, 68
-0.993548, 21, 101, 52, 132
-0.993551, 397, 125, 428, 156
-0.993553, 117, 161, 148, 192
-0.993559, 177, 57, 240, 88
-0.993568, 217, 197, 248, 228
-0.993569, 313, 193, 344, 224
-0.993569, 213, 69, 244, 100
-0.99357, 361, 1, 424, 128
-0.993571, 89, 149, 152, 180
-0.993572, 417, 105, 480, 136
-0.993576, 105, 197, 168, 228
-0.993583, 185, 201, 216, 232
-0.993584, 165, 153, 196, 184
-0.993589, 397, 29, 428, 60
-0.99359, 461, 113, 492, 144
-0.993594, 241, 189, 304, 220
-0.993599, 185, 81, 248, 112
-0.993609, 409, 41, 440, 72
-0.993611, 225, 133, 256, 164
-0.993611, 313, 165, 344, 196
-0.993615, 109, 185, 140, 216
-0.99362, 121, 61, 152, 92
-0.993634, 73, 109, 136, 140
-0.993639, 245, 153, 276, 184
-0.99364, 125, 105, 156, 136
-0.993643, 57, 133, 120, 164
-0.993648, 81, 61, 112, 92
-0.99365, 397, 169, 428, 200
-0.993651, 145, 161, 176, 224
-0.993653, 385, 181, 416, 212
-0.993661, 161, 93, 224, 124
-0.99367, 225, 145, 288, 176
-0.993671, 361, 121, 424, 152
-0.993672, 21, 125, 52, 156
-0.993674, 145, 105, 208, 136
-0.993686, 105, 161, 136, 192
-0.993694, 261, 177, 292, 208
-0.993696, 117, 149, 148, 180
-0.993698, 89, 185, 152, 216
-0.993698, 141, 125, 172, 156
-0.9937, 361, 197, 424, 228
-0.993703, 101, 49, 132, 80
-0.993705, 321, 1, 384, 32
-0.993708, 397, 181, 428, 212
-0.993711, 113, 125, 176, 156
-0.993712, 149, 77, 180, 108
-0.993713, 245, 189, 276, 220
-0.993721, 241, 61, 304, 92
-0.993721, 81, 97, 112, 128
-0.993721, 281, 241, 344, 272
-0.993725, 129, 41, 160, 72
-0.99373, 109, 101, 140, 132
-0.99373, 437, 109, 468, 140
-0.99373, 41, 73, 104, 104
-0.993736, 49, 81, 112, 208
-0.993742, 369, 1, 400, 32
-0.993747, 425, 29, 456, 60
-0.993749, 137, 61, 200, 92
-0.99375, 289, 185, 320, 216
-0.993754, 141, 137, 172, 168
-0.993757, 389, 197, 420, 228
-0.993765, 81, 97, 112, 160
-0.993767, 397, 157, 428, 188
-0.993773, 449, 105, 480, 136
-0.993775, 289, 161, 320, 192
-0.993777, 385, 161, 416, 192
-0.993781, 261, 153, 292, 184
-0.993781, 173, 89, 204, 120
-0.993781, 249, 149, 312, 180
-0.993785, 237, 65, 268, 96
-0.993786, 301, 161, 332, 192
-0.993786, 289, 41, 352, 72
-0.993787, 113, 45, 144, 76
-0.993789, 225, 81, 256, 112
-0.993794, 393, 9, 424, 40
-0.993802, 205, 57, 236, 88
-0.993803, 113, 193, 240, 320
-0.993806, 385, 145, 416, 176
-0.993809, 325, 189, 356, 220
-0.993809, 393, 109, 424, 140
-0.993815, 145, 117, 208, 148
-0.993816, 153, 153, 184, 184
-0.993817, 429, 13, 460, 44
-0.993817, 385, 133, 416, 164
-0.993817, 185, 109, 248, 140
-0.993818, 325, 41, 356, 72
-0.993821, 137, 109, 168, 140
-0.993822, 425, 1, 456, 32
-0.993823, 65, 57, 96, 88
-0.993828, 405, 113, 436, 144
-0.993833, 417, 105, 448, 136
-0.993841, 161, 205, 224, 236
-0.993846, 145, 29, 208, 60
-0.993847, 137, 1, 200, 375
-0.99388, 81, 125, 144, 156
-0.993885, 313, 41, 376, 72
-0.993888, 297, 5, 360, 36
-0.99389, 25, 61, 88, 92
-0.993894, 145, 65, 208, 128
-0.993895, 425, 1, 488, 32
-0.993903, 197, 105, 228, 168
-0.993904, 313, 177, 344, 240
-0.993918, 409, 177, 472, 208
-0.993928, 153, 73, 216, 104
-0.993934, 393, 1, 456, 375
-0.993937, 361, 33, 424, 64
-0.993938, 73, 173, 136, 204
-0.993945, 49, 121, 112, 152
-0.993948, 281, 209, 344, 240
-0.993948, 273, 53, 336, 84
-0.993952, 297, 253, 360, 284
-0.993956, 177, 29, 240, 60
-0.993958, 265, 13, 328, 44
-0.993967, 129, 49, 192, 80
-0.993981, 369, 109, 432, 140
-0.993994, 353, 17, 416, 48
-0.993997, 313, 209, 376, 240
-0.993997, 417, 165, 480, 196
-0.994, 209, 205, 272, 236
-0.994082, 321, 49, 448, 176
-0.994104, 305, 81, 368, 208
-0.994218, 297, 1, 360, 128
-0.994244, 137, 73, 168, 136
-0.994272, 33, 105, 96, 168
-0.994295, 133, 121, 164, 184
-0.994361, 317, 153, 348, 216
-0.994375, 157, 81, 188, 208
-0.994383, 209, 65, 336, 128
-0.994454, 125, 33, 156, 160
-0.994479, 273, 193, 336, 256
-0.994511, 1, 145, 500, 208
-0.994533, 257, 33, 320, 288
-0.99454, 177, 1, 240, 256
-0.994643, 193, 145, 448, 208
-0.994643, 257, 145, 288, 272
-0.994666, 137, 97, 168, 160
-0.994677, 305, 33, 368, 288
-0.994735, 129, 129, 160, 256
-0.99485, 161, 1, 224, 375
-0.994857, 161, 65, 288, 128
-0.99486, 113, 89, 240, 152
-0.994896, 177, 169, 304, 200
-0.994933, 73, 65, 136, 320
-0.995015, 305, 145, 432, 208
-0.99504, 219, 153, 234, 216
-0.995053, 1, 89, 256, 152
-0.995072, 177, 49, 240, 112
-0.995081, 311, 169, 326, 232
-0.995104, 97, 181, 224, 212
-0.995143, 161, 137, 176, 200
-0.995149, 193, 225, 448, 352
-0.995156, 165, 177, 196, 304
-0.995176, 219, 129, 234, 192
-0.99518, 65, 1, 192, 128
-0.995203, 113, 157, 240, 188
-0.995214, 309, 161, 340, 288
-0.995229, 393, 33, 456, 288
-0.995235, 207, 137, 222, 200
-0.995242, 369, 121, 496, 184
-0.995266, 121, 137, 152, 200
-0.995271, 245, 137, 276, 200
-0.995299, 93, 105, 124, 168
-0.995348, 185, 1, 248, 375
-0.995355, 305, 225, 432, 352
-0.995359, 209, 41, 336, 104
-0.995359, 213, 129, 228, 192
-0.995375, 257, 1, 384, 64
-0.995435, 321, 1, 352, 64
-0.995481, 345, 145, 408, 272
-0.995512, 221, 193, 252, 256
-0.995517, 369, 161, 496, 288
-0.995518, 305, 177, 432, 240
-0.995536, 329, 169, 392, 232
-0.995569, 153, 137, 168, 200
-0.995609, 413, 17, 444, 144
-0.995651, 393, 1, 424, 64
-0.99568, 449, 81, 480, 208
-0.99569, 193, 169, 448, 232
-0.995692, 353, 161, 480, 224
-0.995704, 419, 17, 434, 80
-0.995715, 385, 89, 448, 152
-0.995729, 161, 25, 288, 88
-0.995768, 273, 225, 336, 288
-0.99577, 231, 169, 246, 232
-0.995773, 213, 153, 228, 216
-0.995811, 289, 113, 416, 240
-0.995839, 337, 25, 464, 88
-0.995892, 345, 33, 408, 288
-0.99592, 17, 1, 80, 375
-0.995932, 113, 169, 240, 200
-0.995962, 195, 169, 210, 232
-0.995966, 397, 1, 428, 128
-0.995968, 207, 169, 222, 232
-0.996027, 189, 129, 204, 192
-0.996029, 105, 73, 120, 136
-0.996039, 1, 169, 256, 232
-0.996068, 1, 169, 500, 232
-0.996086, 245, 185, 276, 248
-0.996103, 201, 129, 216, 192
-0.996115, 167, 137, 182, 200
-0.996119, 225, 1, 288, 256
-0.996121, 105, 129, 168, 375
-0.996134, 201, 153, 216, 216
-0.996136, 139, 65, 154, 128
-0.99615, 129, 133, 256, 164
-0.996153, 65, 65, 320, 128
-0.996161, 345, 113, 408, 176
-0.996179, 137, 17, 200, 80
-0.996186, 161, 25, 224, 88
-0.996254, 97, 1, 160, 375
-0.99626, 241, 181, 368, 212
-0.996264, 225, 169, 240, 232
-0.996277, 161, 181, 288, 212
-0.996289, 125, 65, 140, 128
-0.996339, 17, 105, 32, 168
-0.996344, 119, 73, 134, 136
-0.996363, 225, 137, 240, 200
-0.99641, 113, 49, 144, 112
-0.996444, 183, 129, 198, 192
-0.996457, 425, 1, 456, 128
-0.996472, 297, 145, 328, 272
-0.996478, 135, 161, 150, 224
-0.99648, 195, 129, 210, 192
-0.996503, 129, 161, 144, 224
-0.996512, 225, 169, 352, 200
-0.996524, 273, 41, 400, 104
-0.996529, 173, 129, 188, 192
-0.996532, 401, 185, 464, 248
-0.996548, 257, 161, 272, 224
-0.996568, 181, 105, 212, 168
-0.996585, 257, 49, 384, 176
-0.996591, 141, 145, 156, 208
-0.996598, 111, 65, 126, 128
-0.996598, 147, 137, 162, 200
-0.996602, 305, 169, 320, 232
-0.996604, 385, 129, 448, 375
-0.996612, 99, 73, 114, 136
-0.996617, 409, 49, 472, 176
-0.996641, 105, 105, 136, 168
-0.996643, 185, 25, 248, 88
-0.996652, 209, 149, 336, 180
-0.996654, 297, 1, 360, 375
-0.996655, 257, 193, 384, 256
-0.996693, 433, 177, 496, 240
-0.996708, 369, 1, 496, 64
-0.996711, 353, 185, 416, 248
-0.99675, 231, 145, 246, 208
-0.996773, 17, 33, 80, 160
-0.996776, 193, 209, 320, 272
-0.996782, 361, 193, 424, 320
-0.996787, 189, 153, 204, 216
-0.996788, 1, 121, 256, 184
-0.996816, 317, 185, 332, 248
-0.996817, 305, 177, 368, 304
-0.996857, 353, 209, 480, 336
-0.996906, 329, 1, 360, 128
-0.996913, 65, 25, 192, 88
-0.996917, 161, 121, 416, 184
-0.996924, 131, 57, 146, 120
-0.99695, 221, 65, 252, 128
-0.996965, 81, 141, 208, 172
-0.99699, 239, 169, 254, 232
-0.996993, 257, 1, 500, 64
-0.997, 201, 177, 216, 240
-0.997014, 441, 105, 472, 168
-0.997027, 81, 1, 208, 64
-0.997028, 309, 169, 324, 200
-0.997066, 257, 217, 384, 280
-0.997105, 263, 169, 278, 232
-0.997133, 305, 297, 432, 360
-0.997141, 317, 161, 332, 224
-0.997168, 11, 97, 26, 160
-0.997172, 369, 225, 496, 288
-0.997183, 101, 17, 132, 144
-0.997197, 209, 9, 336, 72
-0.997239, 257, 1, 320, 375
-0.997243, 161, 157, 288, 188
-0.997246, 433, 1, 496, 64
-0.997258, 213, 141, 228, 172
-0.997275, 215, 177, 230, 240
-0.997276, 309, 145, 324, 208
-0.997277, 289, 265, 416, 328
-0.997309, 105, 77, 120, 108
-0.997317, 241, 193, 304, 256
-0.99733, 177, 137, 304, 168
-0.997331, 265, 137, 296, 200
-0.997342, 353, 185, 480, 248
-0.99735, 429, 1, 460, 64
-0.997351, 103, 97, 118, 160
-0.997351, 81, 129, 208, 160
-0.997351, 369, 1, 432, 375
-0.997378, 161, 113, 176, 176
-0.997385, 81, 89, 208, 120
-0.997404, 129, 173, 144, 204
-0.997407, 33, 73, 160, 104
-0.997435, 179, 153, 194, 216
-0.997435, 321, 225, 384, 352
-0.99744, 189, 185, 204, 248
-0.997449, 57, 1, 120, 375
-0.99746, 361, 129, 424, 375
-0.997467, 121, 113, 152, 176
-0.997473, 221, 193, 236, 256
-0.997493, 161, 185, 192, 248
-0.997505, 233, 1, 296, 375
-0.997514, 369, 281, 496, 344
-0.997543, 321, 193, 384, 256
-0.997546, 315, 177, 330, 208
-0.997549, 281, 1, 344, 256
-0.997563, 251, 161, 266, 224
-0.99759, 173, 153, 188, 216
-0.997596, 41, 129, 104, 192
-0.997597, 141, 89, 156, 152
-0.997598, 97, 193, 352, 256
-0.997603, 183, 141, 198, 172
-0.997609, 191, 137, 206, 168
-0.997617, 161, 161, 176, 224
-0.997627, 65, 41, 320, 104
-0.997629, 183, 177, 198, 240
-0.997635, 9, 81, 40, 144
-0.997645, 135, 89, 150, 152
-0.997649, 49, 173, 176, 204
-0.997656, 413, 17, 428, 80
-0.997661, 129, 209, 256, 272
-0.997668, 165, 141, 180, 172
-0.997679, 125, 41, 140, 104
-0.99768, 33, 89, 160, 120
-0.997681, 175, 137, 190, 168
-0.997683, 127, 137, 142, 200
-0.997686, 305, 201, 432, 264
-0.997688, 1, 109, 128, 140
-0.997694, 233, 145, 296, 208
-0.997699, 89, 65, 120, 192
-0.997707, 305, 49, 368, 112
-0.997707, 241, 65, 304, 128
-0.997708, 193, 181, 208, 212
-0.997727, 305, 241, 432, 304
-0.997728, 217, 153, 232, 184
-0.99773, 133, 161, 148, 192
-0.99773, 123, 169, 138, 232
-0.997733, 167, 169, 182, 232
-0.997733, 167, 113, 182, 176
-0.997733, 123, 173, 138, 204
-0.997734, 133, 137, 148, 200
-0.997757, 197, 137, 212, 168
-0.997758, 323, 185, 338, 248
-0.997761, 27, 97, 42, 160
-0.997763, 147, 113, 162, 176
-0.99777, 213, 193, 244, 320
-0.997782, 13, 109, 28, 140
-0.997784, 219, 141, 234, 172
-0.997788, 93, 73, 108, 136
-0.997804, 105, 145, 136, 208
-0.99782, 403, 137, 418, 200
-0.997821, 97, 73, 224, 104
-0.997822, 81, 49, 112, 112
-0.997825, 419, 21, 434, 52
-0.997831, 257, 65, 384, 128
-0.997836, 217, 89, 280, 152
-0.997842, 117, 41, 132, 104
-0.997847, 207, 141, 222, 172
-0.997856, 337, 97, 464, 160
-0.997857, 203, 177, 218, 208
-0.997858, 33, 1, 160, 64
-0.997859, 207, 113, 222, 176
-0.997883, 41, 49, 104, 112
-0.997884, 153, 169, 168, 232
-0.997886, 217, 41, 280, 104
-0.997907, 17, 161, 144, 224
-0.997909, 425, 17, 440, 80
-0.997915, 153, 113, 168, 176
-0.997951, 289, 169, 416, 200
-0.997958, 183, 129, 198, 160
-0.99797, 97, 97, 112, 160
-0.997982, 313, 25, 376, 88
-0.997983, 397, 161, 412, 224
-0.997984, 159, 141, 174, 172
-0.997987, 461, 97, 492, 224
-0.997987, 245, 161, 260, 224
-0.997989, 111, 89, 126, 152
-0.998007, 187, 177, 202, 208
-0.998024, 143, 169, 158, 232
-0.998029, 403, 169, 418, 232
-0.998036, 259, 165, 274, 196
-0.998057, 129, 193, 256, 224
-0.99806, 225, 145, 240, 176
-0.99806, 289, 177, 320, 240
-0.998062, 145, 17, 176, 144
-0.998066, 195, 193, 210, 256
-0.998077, 397, 137, 412, 200
-0.998084, 183, 105, 198, 168
-0.99809, 213, 165, 228, 196
-0.998096, 309, 185, 324, 216
-0.998106, 111, 81, 126, 112
-0.998117, 139, 181, 154, 212
-0.998122, 147, 73, 162, 136
-0.998123, 353, 305, 480, 368
-0.998128, 225, 113, 240, 176
-0.998132, 331, 1, 346, 64
-0.998142, 97, 89, 352, 152
-0.998156, 177, 197, 304, 228
-0.998161, 241, 241, 368, 368
-0.998168, 1, 121, 128, 152
-0.998175, 227, 193, 242, 256
-0.998182, 337, 1, 400, 375
-0.998189, 205, 201, 236, 264
-0.998195, 139, 73, 154, 104
-0.998199, 457, 113, 472, 176
-0.998204, 181, 177, 196, 208
-0.998205, 33, 161, 160, 192
-0.99821, 273, 1, 336, 128
-0.998218, 237, 145, 252, 208
-0.998219, 303, 173, 318, 204
-0.998228, 435, 105, 450, 168
-0.998229, 15, 121, 30, 152
-0.998231, 139, 161, 154, 192
-0.998232, 429, 105, 460, 168
-0.998235, 111, 41, 126, 104
-0.998241, 417, 129, 448, 144
-0.998241, 113, 169, 144, 184
-0.998242, 97, 111, 128, 126
-0.998243, 205, 73, 236, 88
-0.998243, 21, 121, 52, 136
-0.998243, 121, 103, 152, 118
-0.998243, 129, 85, 256, 116
-0.998244, 101, 173, 132, 188
-0.998245, 397, 175, 428, 190
-0.998246, 323, 161, 338, 224
-0.998248, 77, 93, 108, 108
-0.998248, 405, 117, 436, 132
-0.998249, 465, 123, 496, 138
-0.99825, 205, 137, 236, 152
-0.99825, 189, 201, 220, 216
-0.998251, 145, 81, 176, 96
-0.998251, 385, 189, 416, 204
-0.998251, 317, 195, 348, 210
-0.998251, 317, 193, 332, 224
-0.998255, 221, 79, 252, 94
-0.998255, 25, 105, 56, 120
-0.998255, 141, 139, 172, 154
-0.998256, 173, 177, 188, 240
-0.998257, 289, 185, 320, 200
-0.998258, 109, 101, 140, 116
-0.998261, 161, 137, 192, 152
-0.998261, 5, 81, 36, 208
-0.998262, 5, 133, 36, 148
-0.998263, 225, 197, 256, 212
-0.998263, 125, 67, 156, 82
-0.998265, 21, 113, 52, 128
-0.998268, 305, 169, 336, 184
-0.998269, 145, 181, 160, 212
-0.998269, 5, 127, 36, 142
-0.998271, 145, 49, 176, 112
-0.998272, 245, 181, 276, 196
-0.998273, 19, 109, 34, 140
-0.998274, 289, 145, 320, 208
-0.998276, 317, 169, 348, 184
-0.998277, 397, 25, 428, 40
-0.998278, 417, 117, 448, 132
-0.998278, 169, 73, 232, 136
-0.99828, 293, 173, 324, 188
-0.998284, 189, 171, 220, 186
-0.998284, 125, 93, 156, 108
-0.998285, 229, 165, 260, 180
-0.998286, 265, 171, 296, 186
-0.998289, 93, 105, 124, 120
-0.998289, 5, 107, 36, 122
-0.998289, 225, 191, 256, 206
-0.998292, 217, 141, 248, 156
-0.998296, 229, 141, 260, 156
-0.998297, 413, 31, 444, 46
-0.998298, 317, 175, 348, 190
-0.998298, 139, 41, 154, 104
-0.998298, 133, 151, 164, 166
-0.998298, 181, 177, 212, 192
-0.998298, 193, 135, 224, 150
-0.998299, 261, 177, 292, 192
-0.998299, 113, 95, 144, 110
-0.998299, 241, 129, 304, 375
-0.9983, 229, 179, 260, 194
-0.998301, 185, 195, 216, 210
-0.998301, 257, 137, 272, 200
-0.998301, 317, 189, 348, 204
-0.998303, 189, 105, 204, 168
-0.998303, 1, 121, 500, 184
-0.998304, 113, 189, 144, 204
-0.998304, 153, 141, 168, 172
-0.998307, 105, 65, 120, 96
-0.998307, 443, 113, 458, 176
-0.998309, 197, 165, 228, 180
-0.99831, 137, 93, 168, 108
-0.99831, 129, 81, 160, 96
-0.998311, 173, 135, 204, 150
-0.998312, 429, 117, 460, 132
-0.998314, 431, 1, 446, 64
-0.998314, 441, 117, 472, 132
-0.998315, 145, 87, 176, 102
-0.998316, 205, 181, 236, 196
-0.998318, 193, 169, 208, 200
-0.998318, 369, 121, 496, 152
-0.998318, 89, 97, 120, 112
-0.998319, 229, 147, 260, 162
-0.99832, 141, 145, 172, 160
-0.998321, 397, 127, 428, 142
-0.998321, 197, 149, 228, 164
-0.998321, 113, 177, 144, 192
-0.998321, 89, 73, 120, 88
-0.998322, 113, 67, 144, 82
-0.998335, 413, 25, 444, 40
-0.998335, 289, 179, 320, 194
-0.998335, 5, 97, 20, 160
-0.998336, 23, 121, 38, 184
-0.998337, 205, 199, 236, 214
-0.998337, 201, 173, 232, 188
-0.99834, 101, 95, 132, 110
-0.998342, 169, 179, 200, 194
-0.998343, 129, 167, 160, 182
-0.998344, 221, 71, 252, 86
-0.998345, 409, 41, 440, 104
-0.998346, 113, 81, 144, 96
-0.998348, 89, 91, 120, 106
-0.998351, 105, 49, 120, 112
-0.998353, 137, 157, 168, 172
-0.998353, 317, 183, 348, 198
-0.998354, 217, 163, 248, 178
-0.998356, 9, 121, 40, 136
-0.998358, 185, 153, 216, 168
-0.998361, 145, 177, 176, 192
-0.998362, 101, 69, 132, 84
-0.998364, 207, 153, 222, 184
-0.998364, 209, 1, 272, 375
-0.998366, 421, 123, 452, 138
-0.998366, 89, 81, 120, 96
-0.998371, 469, 117, 500, 132
-0.998371, 297, 129, 360, 375
-0.998371, 201, 193, 232, 208
-0.998373, 197, 155, 228, 170
-0.998373, 175, 177, 190, 208
-0.998375, 301, 191, 332, 206
-0.998375, 353, 49, 480, 112
-0.998377, 157, 185, 188, 200
-0.998381, 9, 113, 40, 128
-0.998382, 129, 87, 160, 102
-0.998383, 233, 173, 264, 188
-0.998383, 157, 177, 188, 192
-0.998386, 129, 75, 160, 90
-0.998388, 201, 187, 232, 202
-0.998389, 129, 183, 160, 198
-0.998389, 213, 171, 244, 186
-0.998389, 253, 165, 268, 196
-0.99839, 33, 137, 160, 168
-0.998392, 117, 87, 148, 102
-0.998394, 101, 75, 132, 90
-0.998394, 217, 177, 248, 192
-0.998399, 433, 123, 464, 138
-0.998399, 217, 153, 248, 168
-0.9984, 189, 141, 220, 156
-0.998402, 409, 123, 440, 138
-0.998402, 99, 81, 114, 112
-0.998404, 181, 183, 212, 198
-0.998406, 193, 179, 224, 194
-0.998407, 101, 89, 132, 104
-0.998408, 245, 175, 276, 190
-0.998408, 117, 73, 148, 88
-0.998412, 453, 119, 484, 134
-0.998416, 177, 143, 208, 158
-0.998417, 145, 185, 176, 200
-0.998417, 193, 73, 320, 104
-0.998419, 169, 187, 200, 202
-0.998427, 165, 151, 196, 166
-0.998427, 17, 81, 32, 144
-0.998429, 227, 69, 242, 100
-0.998434, 101, 81, 132, 96
-0.998435, 301, 185, 332, 200
-0.998437, 117, 183, 148, 198
-0.998438, 237, 169, 252, 200
-0.998438, 161, 1, 288, 64
-0.998446, 181, 189, 212, 204
-0.99845, 227, 57, 242, 120
-0.998455, 151, 173, 166, 204
-0.998459, 217, 147, 248, 162
-0.998459, 257, 193, 384, 320
-0.99846, 163, 173, 178, 204
-0.998461, 177, 143, 240, 158
-0.998463, 325, 1, 340, 64
-0.99847, 199, 189, 214, 220
-0.998471, 299, 161, 314, 224
-0.998475, 147, 149, 162, 180
-0.998475, 137, 65, 168, 320
-0.998479, 195, 105, 210, 168
-0.998482, 165, 143, 196, 158
-0.998488, 145, 151, 176, 166
-0.99849, 225, 173, 240, 204
-0.998491, 217, 105, 232, 168
-0.998492, 305, 217, 368, 280
-0.998493, 225, 257, 352, 320
-0.998494, 211, 177, 226, 208
-0.998497, 245, 169, 276, 184
-0.998499, 433, 1, 496, 375
-0.998503, 169, 129, 184, 160
-0.998504, 125, 175, 156, 190
-0.998511, 141, 85, 156, 116
-0.998511, 153, 143, 216, 158
-0.998512, 105, 75, 168, 90
-0.998514, 273, 33, 336, 96
-0.998515, 11, 121, 26, 184
-0.998517, 305, 175, 336, 190
-0.998517, 119, 105, 134, 168
-0.998519, 133, 33, 148, 96
-0.998521, 193, 193, 448, 256
-0.998523, 257, 175, 320, 190
-0.998526, 205, 143, 236, 158
-0.998526, 111, 93, 126, 124
-0.998528, 145, 73, 272, 104
-0.998532, 145, 151, 208, 166
-0.998536, 153, 145, 184, 160
-0.998537, 157, 173, 172, 204
-0.998539, 425, 121, 488, 136
-0.998545, 353, 249, 480, 312
-0.998545, 341, 1, 372, 128
-0.998549, 401, 123, 464, 138
-0.998557, 85, 73, 100, 136
-0.998559, 145, 187, 208, 202
-0.99856, 385, 169, 416, 232
-0.998561, 173, 105, 188, 168
-0.998562, 115, 69, 130, 100
-0.998564, 121, 177, 184, 192
-0.998565, 231, 173, 246, 204
-0.998567, 409, 41, 472, 104
-0.99858, 297, 173, 360, 188
-0.998581, 217, 173, 280, 188
-0.998583, 161, 179, 224, 194
-0.998584, 113, 185, 176, 200
-0.998585, 337, 273, 400, 336
-0.998585, 169, 153, 232, 168
-0.998585, 261, 181, 276, 212
-0.99859, 207, 193, 222, 256
-0.998594, 193, 179, 256, 194
-0.998596, 121, 171, 184, 186
-0.9986, 257, 25, 500, 88
-0.998606, 105, 85, 168, 100
-0.998611, 103, 97, 118, 128
-0.998612, 105, 91, 168, 106
-0.998612, 131, 89, 146, 120
-0.998613, 97, 69, 160, 84
-0.998615, 7, 117, 22, 148
-0.998616, 169, 181, 184, 212
-0.998616, 201, 147, 264, 162
-0.998617, 201, 153, 216, 184
-0.998618, 221, 65, 236, 128
-0.998619, 289, 179, 352, 194
-0.99862, 451, 105, 466, 168
-0.998623, 97, 105, 224, 136
-0.998624, 189, 125, 204, 156
-0.998625, 247, 169, 262, 200
-0.99863, 169, 187, 232, 202
-0.998631, 265, 65, 328, 128
-0.998635, 129, 157, 192, 172
-0.998636, 129, 89, 144, 152
-0.998636, 73, 71, 136, 86
-0.998637, 377, 25, 440, 40
-0.998638, 73, 79, 136, 94
-0.998638, 257, 181, 320, 196
-0.998639, 121, 147, 184, 162
-0.99864, 413, 21, 428, 52
-0.998641, 257, 169, 320, 184
-0.998645, 17, 25, 144, 88
-0.998649, 401, 27, 464, 42
-0.998651, 9, 113, 72, 128
-0.998652, 161, 9, 416, 72
-0.998654, 119, 145, 134, 208
-0.998657, 385, 175, 448, 190
-0.998657, 81, 85, 144, 100
-0.998658, 217, 179, 280, 194
-0.998662, 321, 121, 448, 184
-0.998665, 225, 133, 240, 164
-0.998666, 17, 121, 48, 184
-0.998666, 281, 189, 344, 204
-0.998667, 201, 185, 264, 200
-0.998668, 385, 161, 448, 176
-0.998669, 97, 103, 160, 118
-0.998669, 117, 177, 132, 208
-0.99867, 129, 91, 192, 106
-0.998671, 217, 71, 280, 86
-0.998671, 97, 179, 160, 194
-0.998673, 217, 167, 280, 182
-0.998673, 361, 181, 424, 196
-0.998674, 33, 57, 160, 88
-0.998675, 377, 33, 440, 48
-0.998677, 385, 153, 448, 168
-0.998678, 385, 167, 448, 182
-0.998678, 385, 181, 448, 196
-0.998679, 361, 161, 424, 176
-0.99868, 361, 175, 424, 190
-0.998681, 407, 1, 422, 64
-0.998681, 401, 117, 464, 132
-0.998682, 361, 169, 424, 184
-0.998682, 193, 173, 256, 188
-0.998683, 193, 153, 256, 168
-0.998683, 305, 193, 368, 208
-0.998684, 263, 145, 278, 208
-0.998684, 161, 137, 224, 152
-0.998685, 385, 129, 448, 144
-0.998686, 361, 153, 424, 168
-0.998687, 177, 193, 240, 208
-0.998688, 137, 85, 200, 100
-0.998688, 113, 113, 144, 240
-0.998689, 207, 165, 222, 196
-0.99869, 361, 187, 424, 202
-0.99869, 9, 107, 72, 122
-0.99869, 225, 143, 288, 158
-0.998692, 97, 65, 112, 96
-0.998693, 9, 119, 72, 134
-0.998693, 193, 71, 256, 86
-0.998694, 401, 33, 464, 48
-0.998694, 65, 95, 128, 110
-0.998694, 65, 105, 128, 120
-0.998694, 17, 127, 80, 142
-0.998695, 313, 187, 376, 202
-0.998695, 385, 187, 448, 202
-0.998695, 121, 165, 184, 180
-0.998697, 89, 97, 104, 160
-0.998697, 337, 1, 352, 64
-0.998699, 185, 137, 248, 152
-0.9987, 385, 143, 448, 158
-0.998701, 125, 33, 156, 288
-0.998702, 323, 185, 338, 216
-0.998703, 425, 113, 488, 128
-0.998704, 161, 171, 224, 186
-0.998706, 403, 173, 418, 204
-0.998707, 81, 173, 144, 188
-0.998709, 49, 105, 176, 136
-0.998711, 201, 161, 264, 176
-0.998712, 361, 147, 424, 162
-0.998712, 49, 89, 112, 104
-0.998713, 137, 111, 200, 126
-0.998713, 89, 97, 152, 112
-0.998714, 377, 123, 440, 138
-0.998715, 105, 153, 168, 168
-0.998715, 281, 195, 344, 210
-0.998716, 407, 125, 422, 156
-0.998716, 423, 33, 438, 64
-0.998717, 257, 163, 320, 178
-0.998718, 361, 25, 424, 88
-0.998718, 81, 111, 144, 126
-0.998718, 105, 141, 168, 156
-0.998719, 401, 21, 464, 36
-0.998721, 209, 77, 272, 92
-0.998722, 121, 105, 184, 120
-0.998723, 225, 149, 288, 164
-0.998725, 209, 137, 272, 152
-0.998726, 105, 111, 168, 126
-0.998726, 89, 165, 152, 180
-0.998726, 49, 75, 112, 90
-0.998726, 105, 191, 168, 206
-0.998727, 153, 193, 216, 208
-0.998728, 201, 197, 264, 212
-0.998728, 163, 185, 178, 216
-0.998728, 361, 193, 424, 208
-0.998729, 129, 75, 192, 90
-0.99873, 337, 1, 400, 16
-0.998731, 137, 135, 200, 150
-0.998731, 401, 39, 464, 54
-0.998731, 377, 117, 440, 132
-0.998731, 193, 167, 256, 182
-0.998733, 57, 65, 120, 80
-0.998733, 137, 97, 200, 112
-0.998734, 369, 19, 432, 34
-0.998734, 413, 41, 428, 104
-0.998734, 305, 9, 368, 24
-0.998734, 403, 157, 418, 188
-0.998734, 137, 69, 200, 84
-0.998735, 169, 201, 232, 216
-0.998737, 361, 141, 424, 156
-0.998741, 41, 111, 104, 126
-0.998743, 127, 73, 142, 104
-0.998743, 257, 185, 272, 248
-0.998745, 385, 193, 448, 208
-0.998747, 145, 169, 160, 200
-0.998749, 419, 41, 434, 104
-0.998751, 217, 191, 280, 206
-0.998752, 225, 65, 288, 80
-0.998754, 129, 141, 192, 156
-0.998754, 289, 181, 416, 212
-0.998754, 177, 87, 240, 102
-0.998755, 397, 1, 412, 64
-0.998755, 361, 135, 424, 150
-0.998755, 105, 159, 168, 174
-0.998756, 305, 45, 368, 60
-0.998757, 1, 133, 64, 148
-0.998757, 65, 201, 192, 264
-0.998758, 385, 137, 448, 152
-0.998758, 49, 81, 112, 96
-0.998758, 257, 189, 320, 204
-0.998759, 97, 63, 160, 78
-0.998759, 297, 167, 360, 182
-0.99876, 377, 39, 440, 54
-0.998761, 313, 181, 376, 196
-0.998761, 73, 179, 136, 194
-0.998773, 385, 145, 416, 208
-0.998774, 209, 189, 224, 220
-0.998781, 223, 193, 238, 224
-0.998781, 157, 185, 172, 216
-0.998781, 219, 165, 234, 196
-0.998784, 237, 157, 252, 188
-0.998784, 313, 113, 344, 240
-0.998785, 235, 65, 250, 128
-0.998787, 219, 177, 234, 208
-0.998787, 21, 121, 36, 152
-0.998797, 203, 129, 218, 160
-0.998799, 99, 49, 114, 112
-0.998801, 133, 73, 148, 104
-0.998802, 251, 137, 266, 200
-0.998804, 171, 149, 186, 180
-0.998806, 187, 189, 202, 220
-0.998809, 11, 97, 26, 128
-0.998812, 161, 129, 176, 160
-0.998815, 149, 49, 164, 112
-0.998819, 133, 185, 148, 216
-0.998821, 301, 193, 332, 256
-0.998827, 231, 161, 246, 192
-0.998828, 125, 89, 140, 120
-0.998828, 229, 185, 244, 216
-0.998836, 445, 121, 460, 152
-0.998837, 189, 149, 204, 180
-0.99884, 177, 193, 208, 320
-0.998843, 49, 45, 176, 76
-0.998843, 309, 157, 324, 188
-0.998843, 201, 201, 216, 232
-0.998845, 27, 113, 42, 144
-0.998847, 117, 177, 132, 240
-0.998848, 237, 1, 268, 128
-0.998851, 427, 21, 442, 52
-0.998855, 451, 113, 466, 144
-0.998856, 397, 173, 412, 204
-0.998857, 325, 173, 340, 204
-0.99886, 397, 137, 412, 168
-0.998861, 419, 117, 434, 148
-0.998862, 321, 1, 448, 32
-0.998865, 417, 37, 432, 68
-0.998868, 125, 185, 140, 216
-0.998868, 121, 73, 136, 104
-0.998874, 229, 113, 260, 176
-0.998875, 17, 97, 32, 128
-0.998876, 79, 97, 94, 160
-0.998877, 187, 165, 202, 196
-0.998877, 119, 93, 134, 124
-0.998884, 225, 193, 352, 224
-0.998887, 225, 161, 240, 192
-0.998887, 439, 117, 454, 148
-0.998888, 145, 73, 160, 104
-0.998893, 403, 145, 418, 176
-0.998893, 69, 73, 100, 136
-0.998909, 97, 93, 112, 124
-0.998916, 463, 113, 478, 144
-0.998916, 181, 189, 196, 220
-0.998921, 235, 73, 250, 104
-0.998922, 177, 149, 192, 180
-0.998924, 397, 157, 412, 188
-0.998926, 123, 161, 138, 192
-0.998928, 247, 157, 262, 188
-0.99893, 255, 177, 270, 208
-0.99893, 213, 65, 244, 320
-0.998931, 151, 185, 166, 216
-0.998936, 49, 185, 176, 216
-0.998937, 315, 165, 330, 196
-0.998938, 195, 125, 210, 156
-0.998941, 193, 233, 320, 296
-0.998944, 149, 1, 180, 256
-0.998945, 155, 129, 170, 160
-0.99895, 413, 121, 428, 152
-0.998964, 437, 113, 468, 240
-0.998981, 193, 97, 224, 352
-0.998988, 305, 137, 336, 200
-0.999012, 129, 29, 256, 60
-0.999016, 177, 125, 304, 156
-0.999021, 305, 73, 432, 136
-0.999044, 305, 25, 432, 56
-0.999056, 225, 17, 256, 144
-0.999057, 211, 129, 226, 256
-0.999058, 257, 97, 384, 160
-0.999062, 129, 121, 256, 152
-0.999069, 177, 93, 304, 124
-0.99908, 333, 1, 364, 64
-0.999082, 203, 113, 218, 240
-0.999094, 337, 109, 464, 140
-0.999105, 21, 81, 52, 208
-0.999107, 433, 153, 496, 216
-0.999138, 191, 145, 206, 272
-0.999138, 265, 89, 328, 152
-0.999156, 81, 117, 208, 148
-0.999169, 113, 61, 240, 92
-0.999171, 209, 61, 336, 92
-0.999182, 197, 145, 212, 272
-0.999185, 305, 281, 368, 344
-0.999192, 147, 81, 162, 208
-0.999199, 257, 97, 288, 224
-0.999202, 225, 33, 256, 288
-0.999211, 41, 33, 104, 160
-0.999212, 193, 97, 448, 160
-0.999225, 369, 321, 496, 352
-0.999231, 289, 1, 320, 128
-0.999236, 225, 193, 256, 320
-0.999248, 157, 129, 172, 256
-0.999253, 417, 217, 480, 280
-0.999264, 409, 161, 472, 224
-0.999282, 113, 41, 240, 72
-0.999285, 201, 193, 232, 320
-0.999285, 273, 209, 336, 336
-0.999294, 49, 1, 112, 256
-0.999297, 161, 65, 416, 128
-0.999297, 185, 145, 200, 272
-0.999297, 353, 73, 480, 136
-0.999299, 265, 9, 328, 72
-0.999299, 337, 25, 400, 88
-0.999307, 141, 25, 172, 88
-0.999312, 163, 129, 178, 256
-0.999313, 149, 129, 164, 256
-0.999318, 321, 321, 448, 352
-0.999322, 65, 17, 320, 80
-0.999325, 141, 81, 156, 208
-0.999327, 81, 197, 208, 228
-0.99933, 123, 49, 138, 176
-0.999333, 369, 305, 496, 336
-0.999334, 273, 5, 400, 36
-0.999338, 173, 1, 204, 256
-0.99934, 369, 25, 496, 56
-0.999342, 153, 97, 184, 352
-0.999342, 381, 129, 412, 256
-0.999343, 309, 1, 340, 64
-0.999353, 135, 65, 150, 192
-0.999354, 281, 129, 344, 192
-0.999359, 217, 113, 232, 240
-0.999362, 369, 1, 400, 64
-0.999367, 17, 193, 144, 256
-0.999372, 225, 217, 480, 280
-0.99938, 175, 129, 190, 256
-0.999385, 177, 97, 208, 352
-0.999388, 209, 17, 336, 48
-0.999391, 129, 65, 144, 192
-0.999409, 191, 97, 206, 224
-0.999422, 305, 273, 432, 304
-0.999427, 313, 161, 328, 288
-0.999429, 177, 209, 304, 240
-0.999432, 169, 129, 184, 256
-0.999436, 453, 113, 484, 176
-0.999441, 385, 1, 416, 128
-0.999443, 117, 65, 132, 192
-0.999444, 235, 145, 250, 272
-0.999444, 203, 161, 218, 288
-0.999447, 155, 81, 170, 208
-0.999449, 273, 157, 400, 188
-0.99945, 113, 33, 144, 288
-0.999461, 197, 97, 212, 224
-0.999471, 241, 41, 368, 72
-0.999477, 143, 129, 158, 256
-0.999482, 161, 81, 176, 208
-0.999485, 129, 201, 192, 264
-0.999486, 227, 145, 242, 272
-0.999489, 185, 97, 200, 224
-0.999494, 33, 149, 160, 180
-0.999511, 385, 241, 448, 368
-0.999512, 241, 205, 368, 236
-0.999519, 471, 113, 486, 128
-0.999519, 397, 169, 412, 184
-0.999519, 397, 181, 412, 196
-0.999519, 451, 115, 466, 130
-0.99952, 185, 151, 200, 166
-0.99952, 401, 125, 416, 140
-0.999522, 325, 191, 340, 206
-0.999523, 403, 161, 418, 176
-0.999524, 149, 175, 164, 190
-0.999525, 187, 135, 202, 150
-0.999525, 173, 151, 188, 166
-0.999526, 181, 179, 196, 194
-0.999526, 265, 173, 280, 188
-0.999526, 231, 169, 246, 184
-0.999526, 137, 175, 152, 190
-0.999526, 403, 175, 418, 190
-0.999526, 403, 167, 418, 182
-0.999526, 445, 115, 460, 130
-0.999528, 121, 85, 136, 100
-0.999529, 423, 33, 438, 48
-0.99953, 169, 185, 184, 200
-0.99953, 199, 141, 214, 156
-0.999531, 319, 181, 334, 196
-0.999531, 417, 31, 432, 46
-0.999533, 427, 117, 442, 132
-0.999533, 139, 161, 154, 176
-0.999534, 111, 65, 126, 192
-0.999537, 175, 177, 190, 192
-0.999537, 95, 95, 110, 110
-0.999537, 153, 143, 168, 158
-0.999538, 127, 85, 142, 100
-0.999539, 223, 139, 238, 154
-0.999541, 99, 71, 114, 86
-0.999542, 259, 145, 274, 272
-0.999542, 141, 93, 156, 108
-0.999545, 239, 179, 254, 194
-0.999545, 155, 177, 170, 192
-0.999545, 117, 79, 132, 94
-0.999547, 211, 169, 226, 184
-0.999547, 11, 111, 26, 126
-0.999548, 211, 157, 226, 172
-0.999548, 411, 121, 426, 136
-0.999549, 145, 87, 160, 102
-0.99955, 205, 141, 220, 156
-0.99955, 145, 155, 160, 170
-0.99955, 305, 37, 432, 68
-0.999551, 125, 91, 140, 106
-0.999552, 193, 143, 208, 158
-0.999552, 105, 97, 120, 112
-0.999552, 163, 185, 178, 200
-0.999555, 161, 177, 176, 192
-0.999556, 159, 151, 174, 166
-0.999556, 219, 159, 234, 174
-0.999557, 169, 177, 184, 192
-0.999558, 203, 155, 218, 170
-0.999558, 175, 187, 190, 202
-0.99956, 15, 127, 30, 142
-0.99956, 131, 167, 146, 182
-0.99956, 111, 87, 126, 102
-0.99956, 145, 185, 160, 200
-0.99956, 203, 185, 218, 200
-0.999562, 111, 97, 126, 112
-0.999563, 151, 185, 166, 200
-0.999565, 135, 73, 150, 88
-0.999567, 187, 179, 202, 194
-0.999569, 221, 65, 236, 192
-0.99957, 157, 185, 172, 200
-0.99957, 199, 191, 214, 206
-0.999571, 187, 187, 202, 202
-0.999571, 103, 105, 118, 120
-0.999571, 209, 177, 224, 304
-0.999572, 481, 117, 496, 132
-0.999572, 139, 183, 154, 198
-0.999575, 167, 151, 182, 166
-0.999575, 213, 163, 228, 178
-0.999575, 119, 179, 134, 194
-0.999576, 257, 175, 272, 190
-0.999576, 133, 87, 148, 102
-0.999577, 419, 25, 434, 40
-0.999577, 315, 171, 330, 186
-0.999577, 263, 179, 278, 194
-0.999578, 237, 33, 268, 288
-0.999579, 257, 277, 384, 308
-0.999582, 181, 187, 196, 202
-0.999582, 369, 5, 496, 36
-0.999584, 209, 175, 224, 190
-0.999585, 181, 143, 196, 158
-0.999586, 131, 183, 146, 198
-0.999586, 113, 71, 128, 86
-0.999587, 303, 175, 318, 190
-0.999587, 17, 111, 32, 126
-0.999587, 99, 79, 114, 94
-0.999589, 309, 169, 324, 184
-0.99959, 457, 119, 472, 134
-0.99959, 245, 173, 260, 188
-0.999591, 451, 121, 466, 136
-0.999592, 231, 177, 246, 192
-0.999593, 187, 143, 202, 158
-0.999593, 471, 119, 486, 134
-0.999597, 125, 183, 140, 198
-0.999598, 103, 91, 118, 106
-0.999598, 229, 71, 244, 86
-0.9996, 257, 169, 272, 184
-0.999601, 301, 1, 332, 128
-0.999601, 139, 87, 154, 102
-0.999604, 217, 153, 232, 168
-0.999607, 201, 17, 264, 144
-0.999608, 317, 193, 332, 208
-0.999608, 427, 123, 442, 138
-0.999608, 131, 173, 146, 188
-0.999608, 15, 121, 30, 136
-0.999608, 167, 81, 182, 208
-0.99961, 175, 143, 190, 158
-0.99961, 463, 81, 478, 208
-0.999612, 217, 171, 232, 186
-0.999612, 303, 181, 318, 196
-0.999613, 407, 127, 422, 142
-0.999616, 137, 129, 152, 256
-0.999618, 147, 149, 162, 164
-0.999619, 225, 133, 352, 164
-0.999619, 419, 1, 434, 128
-0.999619, 193, 183, 208, 198
-0.99962, 463, 119, 478, 134
-0.99962, 135, 17, 150, 144
-0.999621, 393, 241, 456, 304
-0.999621, 309, 187, 324, 202
-0.999621, 417, 123, 432, 138
-0.999622, 105, 69, 120, 84
-0.999623, 161, 105, 288, 136
-0.999624, 385, 281, 448, 344
-0.999624, 437, 121, 452, 136
-0.999626, 179, 177, 194, 304
-0.999628, 201, 179, 216, 194
-0.999628, 237, 173, 252, 188
-0.999629, 397, 145, 412, 272
-0.999629, 5, 129, 36, 192
-0.99963, 451, 97, 466, 224
-0.99963, 307, 145, 322, 272
-0.999632, 377, 113, 440, 176
-0.999635, 471, 97, 486, 224
-0.999636, 229, 17, 244, 144
-0.999636, 403, 145, 418, 272
-0.999637, 229, 147, 244, 162
-0.999642, 105, 65, 120, 192
-0.999645, 445, 121, 460, 136
-0.999645, 111, 81, 126, 96
-0.999645, 343, 1, 358, 128
-0.999648, 213, 145, 228, 160
-0.999648, 317, 187, 332, 202
-0.999655, 193, 189, 208, 204
-0.999655, 251, 145, 266, 272
-0.999655, 103, 85, 118, 100
-0.999656, 167, 143, 182, 158
-0.999658, 289, 197, 416, 228
-0.999659, 313, 65, 344, 320
-0.99966, 411, 1, 426, 128
-0.999661, 223, 151, 238, 166
-0.999661, 241, 145, 256, 272
-0.999665, 427, 1, 442, 128
-0.999666, 231, 65, 246, 192
-0.999667, 1, 97, 500, 160
-0.999669, 129, 265, 256, 328
-0.999671, 397, 169, 428, 232
-0.999671, 221, 177, 236, 304
-0.999672, 107, 17, 122, 144
-0.999673, 113, 17, 128, 144
-0.999673, 15, 81, 30, 208
-0.999675, 99, 65, 114, 192
-0.999678, 153, 149, 168, 164
-0.999682, 123, 97, 138, 224
-0.999683, 445, 97, 460, 224
-0.999685, 125, 175, 140, 190
-0.999687, 223, 145, 238, 160
-0.999687, 353, 37, 480, 68
-0.999696, 273, 65, 400, 96
-0.999697, 315, 113, 330, 240
-0.999703, 215, 65, 230, 192
-0.999707, 197, 193, 212, 320
-0.999708, 319, 161, 334, 288
-0.999709, 241, 217, 368, 248
-0.99971, 165, 97, 196, 352
-0.999712, 159, 145, 174, 160
-0.999714, 105, 77, 120, 92
-0.999714, 123, 1, 138, 128
-0.999714, 313, 181, 328, 196
-0.999718, 257, 49, 500, 112
-0.99972, 249, 97, 264, 224
-0.99972, 259, 97, 274, 224
-0.999721, 81, 233, 208, 296
-0.999721, 175, 81, 190, 208
-0.999724, 129, 17, 144, 144
-0.999731, 173, 177, 188, 304
-0.999732, 209, 81, 224, 208
-0.999733, 405, 97, 420, 224
-0.999734, 215, 177, 230, 304
-0.999738, 177, 29, 304, 60
-0.999745, 457, 81, 472, 208
-0.999745, 23, 81, 38, 208
-0.999748, 189, 193, 204, 320
-0.999749, 257, 289, 500, 352
-0.999756, 97, 217, 352, 280
-0.999765, 451, 49, 466, 176
-0.999766, 397, 97, 412, 224
-0.999769, 203, 65, 218, 192
-0.999769, 131, 129, 146, 256
-0.999772, 193, 1, 224, 256
-0.999779, 29, 81, 44, 208
-0.999782, 289, 113, 416, 144
-0.999782, 353, 193, 480, 224
-0.999783, 473, 49, 488, 176
-0.999786, 81, 17, 112, 144
-0.999788, 241, 289, 368, 352
-0.999788, 443, 49, 458, 176
-0.999792, 7, 97, 22, 224
-0.999796, 239, 97, 254, 224
-0.999797, 405, 1, 420, 128
-0.999801, 1, 25, 500, 88
-0.999801, 321, 125, 448, 156
-0.999803, 161, 1, 192, 256
-0.999803, 1, 193, 256, 256
-0.999803, 309, 175, 324, 190
-0.999806, 337, 217, 400, 280
-0.999808, 129, 205, 256, 236
-0.999809, 141, 33, 156, 160
-0.999811, 257, 253, 384, 284
-0.999812, 455, 1, 470, 128
-0.999814, 33, 29, 160, 60
-0.999818, 217, 1, 232, 128
-0.999824, 439, 97, 454, 224
-0.99983, 265, 145, 280, 272
-0.999831, 433, 1, 448, 128
-0.999832, 245, 129, 276, 375
-0.999833, 349, 1, 364, 128
-0.999834, 167, 177, 182, 304
-0.999835, 287, 1, 302, 128
-0.999835, 239, 17, 254, 144
-0.999838, 227, 193, 242, 320
-0.999838, 433, 145, 496, 272
-0.999841, 129, 241, 256, 304
-0.999843, 105, 177, 168, 304
-0.999849, 161, 1, 224, 64
-0.99985, 117, 113, 132, 240
-0.999852, 321, 305, 448, 336
-0.999856, 321, 285, 448, 316
-0.999857, 139, 177, 154, 304
-0.999858, 337, 1, 352, 128
-0.999858, 237, 193, 252, 320
-0.999859, 93, 65, 108, 192
-0.999859, 479, 113, 494, 240
-0.999861, 267, 97, 282, 224
-0.999864, 145, 177, 160, 304
-0.999865, 441, 1, 456, 128
-0.999865, 255, 1, 270, 128
-0.999867, 125, 129, 156, 375
-0.999868, 463, 33, 478, 160
-0.999871, 295, 1, 310, 128
-0.999872, 225, 85, 352, 116
-0.999874, 273, 121, 400, 184
-0.999876, 315, 1, 330, 128
-0.999879, 99, 17, 114, 144
-0.99988, 151, 177, 166, 304
-0.999882, 149, 17, 164, 144
-0.999882, 15, 33, 30, 160
-0.999884, 369, 209, 496, 240
-0.999885, 321, 113, 336, 240
-0.999885, 125, 145, 140, 272
-0.999889, 305, 97, 320, 224
-0.999889, 433, 33, 496, 160
-0.999892, 421, 49, 436, 176
-0.999894, 303, 1, 318, 128
-0.999896, 45, 81, 60, 208
-0.999897, 223, 17, 238, 144
-0.999898, 283, 65, 298, 192
-0.999902, 281, 1, 296, 128
-0.999902, 173, 1, 188, 128
-0.999902, 309, 1, 324, 128
-0.999909, 413, 49, 428, 176
-0.99991, 305, 53, 432, 84
-0.999911, 243, 193, 258, 320
-0.999913, 399, 1, 414, 128
-0.999913, 157, 177, 172, 304
-0.999914, 73, 49, 88, 176
-0.999916, 403, 49, 418, 176
-0.999917, 59, 49, 74, 176
-0.999918, 27, 33, 42, 160
-0.999922, 353, 257, 480, 288
-0.999925, 321, 245, 448, 276
-0.999931, 369, 281, 496, 312
-0.999935, 353, 229, 480, 260
-0.999954, 369, 333, 496, 364
-0.999964, 113, 9, 176, 72
-0.999967, 257, 265, 384, 296
-0.999969, 305, 261, 432, 292
-0.99997, 209, 257, 336, 288
-0.999973, 369, 165, 496, 196
-0.999982, 321, 13, 448, 44
-0.999984, 293, 65, 324, 320
-0.999989, 161, 61, 288, 92
-0.999992, 257, 129, 288, 375
-0.999992, 289, 209, 416, 240
-0.999996, 261, 33, 292, 288
-1.00001, 257, 17, 384, 48
-1.00001, 369, 293, 496, 324
-1.00002, 177, 1, 304, 32
-1.00002, 193, 241, 320, 272
-1.00003, 241, 29, 368, 60
-1.00003, 273, 289, 400, 320
-1.00004, 369, 181, 496, 212
-1.00004, 249, 1, 280, 256
-1.00005, 17, 65, 80, 320
-1.00005, 273, 81, 400, 112
-1.00005, 97, 17, 224, 48
-1.00005, 257, 73, 500, 136
-1.00007, 57, 65, 88, 128
-1.00007, 17, 1, 144, 32
-1.00007, 393, 193, 424, 256
-1.00008, 193, 49, 320, 80
-1.00008, 241, 233, 368, 264
-1.00008, 65, 1, 192, 32
-1.0001, 273, 129, 336, 375
-1.0001, 237, 73, 268, 136
-1.00012, 161, 17, 288, 48
-1.00012, 81, 29, 208, 60
-1.00012, 101, 33, 132, 288
-1.00013, 257, 53, 384, 84
-1.00013, 153, 177, 184, 304
-1.00013, 353, 153, 480, 184
-1.00013, 305, 337, 432, 368
-1.00013, 225, 101, 352, 132
-1.00013, 205, 73, 236, 136
-1.00015, 257, 313, 384, 375
-1.00015, 369, 269, 496, 300
-1.00015, 377, 217, 440, 280
-1.00015, 401, 1, 432, 256
-1.00016, 421, 1, 452, 256
-1.00016, 1, 173, 128, 204
-1.00017, 193, 229, 320, 260
-1.00018, 241, 325, 368, 356
-1.00018, 369, 97, 496, 128
-1.00019, 33, 197, 160, 228
-1.00019, 225, 5, 352, 36
-1.00022, 49, 33, 80, 288
-1.00022, 113, 217, 240, 248
-1.00022, 369, 49, 496, 80
-1.00022, 321, 77, 448, 108
-1.00022, 209, 269, 336, 300
-1.00023, 257, 145, 384, 176
-1.00024, 369, 241, 496, 272
-1.00024, 273, 133, 400, 164
-1.00025, 273, 249, 336, 312
-1.00025, 1, 1, 500, 64
-1.00025, 337, 141, 464, 172
-1.00026, 325, 1, 356, 256
-1.00028, 65, 273, 192, 336
-1.00029, 69, 97, 100, 160
-1.00029, 305, 225, 432, 256
-1.00031, 257, 241, 500, 304
-1.00031, 241, 113, 368, 144
-1.00032, 61, 49, 92, 176
-1.00034, 385, 49, 448, 112
-1.00035, 113, 129, 144, 375
-1.00037, 49, 305, 176, 368
-1.00038, 381, 1, 412, 256
-1.00038, 213, 1, 244, 128
-1.00039, 161, 41, 416, 104
-1.00041, 313, 241, 376, 304
-1.00041, 337, 65, 368, 320
-1.00041, 353, 1, 384, 64
-1.00042, 129, 241, 384, 304
-1.00042, 21, 33, 52, 288
-1.00042, 89, 65, 120, 320
-1.00043, 305, 105, 368, 168
-1.00043, 257, 265, 500, 328
-1.00044, 281, 1, 312, 256
-1.00045, 1, 193, 500, 256
-1.00047, 37, 65, 68, 320
-1.00049, 233, 193, 264, 256
-1.00051, 193, 201, 224, 264
-1.00052, 417, 105, 448, 168
-1.00054, 457, 1, 488, 256
-1.00054, 209, 17, 272, 80
-1.00054, 133, 177, 164, 304
-1.00057, 397, 145, 428, 208
-1.00057, 281, 65, 344, 192
-1.00057, 233, 97, 296, 224
-1.00057, 437, 49, 468, 176
-1.00059, 349, 33, 380, 288
-1.00059, 225, 129, 256, 375
-1.00059, 329, 81, 392, 144
-1.0006, 65, 25, 128, 88
-1.0006, 325, 97, 356, 352
-1.0006, 89, 17, 152, 80
-1.0006, 165, 1, 196, 128
-1.00061, 5, 65, 36, 320
-1.00061, 417, 89, 480, 152
-1.00062, 97, 193, 160, 256
-1.00063, 257, 121, 500, 184
-1.00063, 1, 57, 500, 120
-1.00063, 433, 1, 464, 256
-1.00067, 117, 161, 148, 288
-1.00069, 1, 297, 128, 360
-1.00071, 161, 289, 416, 352
-1.00071, 61, 33, 92, 288
-1.00074, 381, 1, 412, 64
-1.00074, 337, 145, 400, 208
-1.00074, 73, 1, 104, 256
-1.00074, 381, 97, 412, 352
-1.00075, 317, 201, 348, 264
-1.00076, 361, 65, 392, 320
-1.00077, 249, 65, 280, 128
-1.00077, 257, 313, 500, 375
-1.00078, 393, 129, 424, 375
-1.00079, 241, 113, 304, 176
-1.0008, 177, 257, 304, 320
-1.00082, 161, 313, 416, 375
-1.00083, 149, 73, 180, 136
-1.00083, 469, 1, 500, 256
-1.00084, 65, 121, 128, 184
-1.00085, 113, 289, 240, 352
-1.00088, 33, 313, 288, 375
-1.00089, 405, 97, 436, 352
-1.00091, 277, 97, 308, 352
-1.00091, 445, 33, 476, 288
-1.00093, 113, 25, 144, 88
-1.00093, 369, 241, 432, 304
-1.00093, 249, 1, 312, 128
-1.00095, 161, 313, 288, 375
-1.00097, 161, 265, 416, 328
-1.00098, 201, 17, 232, 144
-1.00099, 453, 129, 484, 375
-1.00099, 161, 289, 288, 352
-1.001, 257, 185, 288, 248
-1.001, 1, 217, 256, 280
-1.00102, 233, 17, 296, 80
-1.00103, 33, 241, 288, 304
-1.00103, 417, 97, 448, 352
-1.00104, 349, 129, 380, 375
-1.00105, 401, 49, 432, 176
-1.00107, 385, 193, 448, 320
-1.00107, 297, 225, 360, 352
-1.00107, 469, 129, 500, 375
-1.00108, 33, 225, 160, 288
-1.00109, 57, 89, 88, 152
-1.00111, 249, 1, 280, 128
-1.00111, 101, 129, 132, 375
-1.00115, 433, 129, 464, 375
-1.00117, 113, 313, 240, 375
-1.00119, 313, 305, 376, 368
-1.00121, 25, 129, 56, 375
-1.00121, 209, 313, 336, 375
-1.00122, 269, 81, 300, 208
-1.00123, 33, 273, 288, 336
-1.00125, 241, 49, 304, 176
-1.00125, 53, 129, 84, 375
-1.00126, 241, 233, 304, 296
-1.00126, 345, 297, 408, 360
-1.0013, 69, 49, 100, 112
-1.00131, 377, 305, 440, 368
-1.00132, 237, 49, 268, 112
-1.00133, 433, 241, 496, 304
-1.00133, 417, 1, 480, 256
-1.00133, 77, 97, 108, 352
-1.00135, 397, 129, 428, 256
-1.00136, 409, 137, 472, 200
-1.00139, 345, 169, 376, 232
-1.00143, 305, 41, 336, 104
-1.00144, 409, 265, 472, 328
-1.00147, 441, 129, 472, 192
-1.00147, 289, 73, 352, 136
-1.00149, 281, 273, 344, 336
-1.00151, 277, 1, 308, 128
-1.00152, 449, 17, 480, 144
-1.00156, 425, 297, 488, 360
-1.00156, 169, 209, 232, 272
-1.00158, 45, 81, 76, 208
-1.00158, 65, 129, 96, 375
-1.00158, 325, 177, 356, 240
-1.0016, 9, 129, 72, 256
-1.0016, 149, 185, 180, 248
-1.00161, 425, 113, 456, 240
-1.00164, 1, 241, 500, 304
-1.00165, 161, 25, 192, 88
-1.00166, 1, 249, 128, 312
-1.00168, 265, 1, 296, 128
-1.00169, 461, 49, 492, 176
-1.0018, 45, 89, 76, 152
-1.00181, 437, 1, 468, 128
-1.00183, 369, 1, 432, 256
-1.00184, 353, 49, 416, 112
-1.00186, 337, 249, 400, 312
-1.00188, 17, 273, 144, 336
-1.00189, 21, 73, 52, 136
-1.00191, 289, 97, 320, 224
-1.00193, 225, 89, 256, 152
-1.00194, 169, 89, 200, 152
-1.00194, 385, 177, 416, 304
-1.00196, 325, 281, 356, 344
-1.00197, 393, 25, 424, 88
-1.00199, 325, 41, 356, 104
-1.00202, 1, 281, 500, 344
-1.00204, 425, 49, 456, 176
-1.00205, 381, 193, 412, 256
-1.00205, 297, 193, 328, 320
-1.00207, 345, 241, 408, 368
-1.00207, 33, 81, 64, 208
-1.00212, 317, 129, 348, 192
-1.00218, 313, 1, 344, 128
-1.00218, 353, 17, 384, 144
-1.00219, 397, 121, 428, 184
-1.00219, 325, 145, 356, 272
-1.00223, 1, 217, 500, 280
-1.00225, 261, 89, 292, 152
-1.00226, 201, 49, 232, 112
-1.00228, 241, 193, 272, 320
-1.0023, 441, 193, 472, 256
-1.00231, 77, 65, 108, 192
-1.00231, 449, 129, 480, 256
-1.00235, 137, 185, 168, 248
-1.00236, 97, 241, 352, 368
-1.00239, 337, 33, 368, 96
-1.00242, 185, 25, 216, 88
-1.00243, 345, 273, 376, 336
-1.0025, 377, 81, 408, 208
-1.00256, 321, 241, 352, 304
-1.00257, 213, 41, 244, 104
-1.00259, 225, 41, 256, 104
-1.00259, 365, 177, 396, 240
-1.00261, 65, 129, 96, 192
-1.00264, 429, 129, 460, 192
-1.00264, 1, 305, 500, 368
-1.00266, 181, 1, 212, 128
-1.00269, 397, 177, 428, 304
-1.00273, 249, 49, 280, 176
-1.00284, 369, 1, 400, 128
-1.00285, 101, 113, 132, 240
-1.00287, 321, 241, 352, 368
-1.00288, 341, 65, 372, 192
-1.00293, 65, 97, 96, 224
-1.00298, 169, 49, 200, 176
-1.00301, 41, 1, 72, 128
-1.00304, 21, 33, 52, 160
-1.00309, 65, 129, 128, 256
-1.00313, 313, 65, 344, 192
-1.00318, 9, 33, 40, 160
-1.00318, 337, 193, 368, 320
-1.00338, 285, 209, 316, 336
-1.0034, 57, 1, 88, 128
-1.00342, 389, 49, 420, 176
-1.00344, 217, 209, 280, 336
-1.00357, 281, 49, 312, 176
-1.00361, 433, 129, 496, 375
-1.00362, 389, 241, 420, 368
-1.00365, 345, 145, 376, 272
-1.00366, 365, 49, 396, 176
-1.00368, 437, 225, 468, 352
-1.00369, 65, 225, 192, 352
-1.0037, 329, 65, 360, 192
-1.0037, 409, 193, 472, 320
-1.00376, 169, 241, 232, 368
-1.00377, 321, 193, 352, 320
-1.00387, 269, 129, 300, 256
-1.0039, 353, 65, 384, 192
-1.00393, 365, 113, 396, 240
-1.00395, 309, 209, 340, 336
-1.00409, 301, 65, 332, 192
-1.00411, 409, 113, 440, 240
-1.00416, 5, 129, 36, 256
-1.00417, 361, 161, 392, 288
-1.00421, 89, 129, 120, 256
-1.00427, 425, 161, 456, 288
-1.00436, 441, 177, 472, 304
-1.00445, 241, 193, 304, 320
-1.00446, 353, 241, 384, 368
-1.00452, 409, 209, 440, 336
-1.00456, 237, 49, 268, 176
-1.00462, 77, 113, 108, 240
-1.00464, 373, 209, 404, 336
-1.00464, 321, 129, 384, 375
-1.00466, 417, 241, 480, 368
-1.00473, 461, 145, 492, 272
-1.00473, 17, 225, 144, 352
-1.00478, 425, 225, 456, 352
-1.00486, 333, 241, 364, 368
-1.00491, 273, 225, 304, 352
-1.00495, 41, 97, 104, 352
-1.00495, 349, 193, 380, 320
-1.00504, 41, 129, 104, 256
-1.00526, 249, 241, 312, 368
-1.00539, 409, 129, 472, 375
-1.00557, 281, 113, 344, 240
-1.00558, 33, 177, 160, 304
-1.00595, 193, 241, 256, 368
-1.00604, 113, 241, 240, 368
-1.0062, 369, 97, 432, 224
-1.00663, 1, 241, 256, 368
-1.00675, 193, 241, 320, 368
-1.00782, 121, 225, 184, 352
-1.00802, 97, 225, 160, 352
-1.00805, 145, 225, 208, 352
-1.00809, 65, 225, 128, 352
-1.00843, 17, 241, 80, 368
-1.00951, 433, 193, 496, 320
-1.00968, 49, 177, 112, 304
-1.01195, 73, 177, 136, 304
-1.0124, 25, 177, 88, 304
-1.01334, 41, 225, 104, 352
-1.01377, 1, 193, 64, 320
