1989
-0.467621, 33, 1, 288, 398
-0.503058, 1, 65, 500, 320
-0.503552, 1, 1, 500, 398
-0.549552, 193, 1, 448, 398
-0.644896, 129, 129, 384, 384
-0.651797, 65, 33, 320, 288
-0.673367, 225, 129, 480, 384
-0.728788, 1, 129, 256, 384
-0.7836, 193, 33, 448, 288
-0.862564, 241, 129, 368, 384
-0.871523, 1, 129, 128, 384
-0.876313, 17, 1, 144, 398
-0.880968, 209, 1, 336, 398
-0.881166, 161, 129, 288, 384
-0.890266, 97, 97, 224, 352
-0.892635, 49, 97, 176, 352
-0.892734, 129, 1, 256, 398
-0.894554, 273, 1, 400, 398
-0.899052, 65, 1, 192, 398
-0.899242, 161, 33, 288, 288
-0.90102, 337, 129, 464, 384
-0.903292, 193, 177, 448, 304
-0.905431, 17, 1, 144, 256
-0.906049, 241, 33, 368, 288
-0.908784, 289, 33, 416, 288
-0.910848, 369, 1, 496, 398
-0.912467, 289, 129, 416, 384
-0.912736, 1, 145, 500, 272
-0.917696, 321, 1, 448, 398
-0.918512, 65, 145, 320, 272
-0.92267, 33, 193, 288, 320
-0.928272, 65, 1, 192, 256
-0.928841, 353, 33, 480, 288
-0.929018, 1, 193, 500, 320
-0.930724, 65, 241, 320, 368
-0.936569, 249, 161, 312, 288
-0.936691, 33, 145, 96, 272
-0.938003, 161, 225, 416, 352
-0.938497, 177, 193, 304, 320
-0.939122, 1, 97, 500, 224
-0.940037, 1, 241, 500, 368
-0.940357, 289, 193, 416, 320
-0.941333, 33, 161, 160, 288
-0.941964, 241, 161, 368, 288
-0.942968, 105, 225, 168, 352
-0.943132, 113, 225, 240, 352
-0.94567, 337, 193, 464, 320
-0.945893, 225, 161, 288, 288
-0.946393, 137, 241, 200, 368
-0.946533, 177, 225, 240, 352
-0.948574, 65, 177, 128, 304
-0.948833, 113, 1, 240, 256
-0.948988, 1, 1, 500, 128
-0.950359, 241, 209, 368, 336
-0.950994, 225, 129, 480, 256
-0.951435, 161, 273, 416, 398
-0.952599, 33, 209, 160, 336
-0.953319, 273, 177, 336, 304
-0.953576, 33, 161, 96, 224
-0.953636, 289, 145, 416, 272
-0.953893, 97, 97, 352, 224
-0.954004, 161, 241, 288, 368
-0.954249, 257, 225, 500, 352
-0.954275, 201, 193, 264, 320
-0.955404, 329, 177, 392, 304
-0.9556, 41, 209, 104, 336
-0.955865, 129, 145, 256, 272
-0.955896, 353, 193, 416, 320
-0.956148, 1, 161, 64, 288
-0.956887, 257, 177, 320, 240
-0.957225, 233, 169, 296, 232
-0.957319, 289, 129, 352, 256
-0.957928, 193, 273, 256, 398
-0.958211, 161, 233, 224, 296
-0.958334, 233, 225, 296, 352
-0.958647, 129, 177, 192, 304
-0.95896, 321, 193, 384, 256
-0.959983, 81, 241, 144, 368
-0.960126, 169, 161, 232, 288
-0.960223, 81, 145, 208, 272
-0.961429, 1, 97, 256, 224
-0.961703, 1, 257, 128, 384
-0.961781, 1, 113, 128, 240
-0.961789, 57, 257, 120, 384
-0.961896, 97, 273, 224, 398
-0.96193, 217, 265, 280, 328
-0.962146, 97, 49, 352, 176
-0.96229, 297, 193, 360, 320
-0.962475, 337, 241, 464, 368
-0.962684, 129, 233, 192, 296
-0.962714, 209, 273, 336, 398
-0.962964, 17, 209, 80, 336
-0.962969, 241, 113, 304, 240
-0.963008, 369, 145, 496, 272
-0.963138, 297, 169, 360, 232
-0.963281, 185, 241, 248, 304
-0.963627, 105, 233, 168, 296
-0.963683, 33, 257, 96, 384
-0.964108, 257, 273, 500, 398
-0.964426, 297, 193, 360, 256
-0.964448, 65, 97, 192, 224
-0.96449, 257, 201, 320, 264
-0.964579, 1, 49, 500, 176
-0.964973, 289, 273, 416, 398
-0.965514, 113, 273, 176, 398
-0.965633, 129, 257, 192, 320
-0.965841, 361, 209, 424, 272
-0.965943, 41, 217, 104, 280
-0.966189, 1, 33, 256, 160
-0.966207, 89, 177, 152, 304
-0.966394, 249, 281, 312, 344
-0.966715, 345, 185, 408, 248
-0.966753, 121, 281, 184, 344
-0.967111, 249, 225, 312, 288
-0.967254, 49, 241, 112, 304
-0.967275, 201, 297, 264, 360
-0.967478, 249, 273, 312, 398
-0.967645, 257, 153, 320, 216
-0.967665, 217, 273, 280, 398
-0.967917, 177, 145, 304, 272
-0.968046, 49, 257, 176, 384
-0.968282, 193, 65, 448, 192
-0.968308, 225, 193, 288, 256
-0.968664, 225, 241, 288, 304
-0.968832, 249, 129, 312, 384
-0.969192, 105, 305, 168, 368
-0.969467, 81, 281, 144, 344
-0.969851, 45, 145, 76, 272
-0.969931, 17, 209, 80, 272
-0.970098, 9, 273, 72, 398
-0.970142, 281, 217, 344, 280
-0.970206, 161, 273, 224, 336
-0.970282, 9, 1, 72, 128
-0.970303, 385, 177, 448, 304
-0.970404, 241, 113, 368, 240
-0.970524, 209, 217, 272, 280
-0.970547, 209, 185, 336, 248
-0.970716, 169, 273, 232, 398
-0.970784, 285, 185, 316, 248
-0.970791, 1, 1, 128, 128
-0.970862, 225, 17, 480, 144
-0.970877, 89, 257, 152, 320
-0.971092, 265, 113, 328, 240
-0.971264, 145, 129, 208, 256
-0.971285, 57, 129, 120, 256
-0.971396, 25, 329, 88, 392
-0.971471, 329, 217, 392, 280
-0.971495, 17, 97, 80, 224
-0.971495, 33, 305, 96, 368
-0.971777, 233, 305, 296, 368
-0.971813, 185, 217, 248, 280
-0.971866, 257, 225, 320, 352
-0.972067, 385, 217, 448, 280
-0.972231, 209, 161, 272, 224
-0.972349, 25, 129, 88, 384
-0.972445, 1, 129, 64, 192
-0.972457, 225, 129, 288, 384
-0.972803, 81, 241, 208, 304
-0.973041, 273, 193, 304, 256
-0.973091, 409, 289, 472, 352
-0.973092, 161, 97, 288, 224
-0.973215, 217, 113, 280, 240
-0.973444, 249, 161, 280, 288
-0.97353, 369, 185, 432, 248
-0.973545, 385, 337, 448, 398
-0.973663, 253, 169, 284, 232
-0.973681, 185, 265, 248, 328
-0.973767, 81, 129, 144, 256
-0.973827, 257, 305, 320, 368
-0.973842, 385, 225, 448, 352
-0.973851, 49, 129, 112, 384
-0.973882, 105, 129, 168, 256
-0.974009, 57, 305, 120, 368
-0.974213, 273, 193, 400, 256
-0.974457, 345, 185, 376, 248
-0.974477, 177, 113, 240, 240
-0.974506, 161, 49, 288, 176
-0.974592, 57, 145, 88, 272
-0.974595, 417, 225, 480, 352
-0.974624, 57, 281, 120, 344
-0.974633, 1, 169, 64, 232
-0.974871, 381, 209, 412, 272
-0.974909, 137, 305, 200, 368
-0.975235, 345, 129, 408, 256
-0.975351, 321, 97, 448, 224
-0.975416, 65, 217, 128, 280
-0.975538, 161, 233, 288, 296
-0.975823, 385, 273, 448, 398
-0.975839, 57, 81, 120, 208
-0.975855, 365, 201, 396, 264
-0.975951, 217, 329, 280, 392
-0.976075, 129, 233, 160, 296
-0.976144, 109, 241, 140, 368
-0.97624, 277, 161, 308, 288
-0.976248, 33, 265, 160, 328
-0.976275, 9, 257, 72, 320
-0.976378, 25, 1, 88, 256
-0.976442, 129, 225, 160, 352
-0.976448, 89, 209, 152, 272
-0.976473, 409, 313, 472, 376
-0.976609, 161, 265, 288, 328
-0.976777, 33, 17, 96, 144
-0.976804, 161, 305, 224, 368
-0.976855, 17, 217, 144, 280
-0.976884, 33, 281, 96, 344
-0.977162, 321, 209, 448, 272
-0.977163, 113, 265, 240, 328
-0.977339, 241, 225, 368, 288
-0.977382, 409, 233, 472, 296
-0.977422, 177, 329, 240, 392
-0.977444, 57, 169, 120, 232
-0.977462, 369, 257, 432, 320
-0.977518, 273, 169, 400, 232
-0.977636, 9, 17, 72, 80
-0.977644, 241, 241, 272, 368
-0.977644, 9, 297, 72, 360
-0.977663, 345, 177, 376, 304
-0.97775, 81, 313, 144, 376
-0.977994, 409, 257, 472, 320
-0.978108, 273, 273, 336, 336
-0.97814, 273, 49, 400, 176
-0.978182, 237, 177, 268, 304
-0.97821, 17, 169, 144, 232
-0.978325, 289, 161, 320, 288
-0.978363, 33, 25, 96, 88
-0.978367, 193, 233, 224, 296
-0.978379, 165, 233, 196, 296
-0.978526, 321, 225, 384, 352
-0.978567, 169, 225, 200, 352
-0.978711, 313, 273, 376, 336
-0.978722, 281, 241, 344, 368
-0.978739, 361, 273, 424, 398
-0.978783, 1, 49, 128, 176
-0.978853, 33, 145, 64, 272
-0.978924, 257, 233, 288, 296
-0.978932, 273, 129, 336, 384
-0.978949, 241, 265, 272, 328
-0.978965, 209, 137, 272, 200
-0.979104, 241, 297, 368, 360
-0.979223, 161, 209, 288, 272
-0.979241, 81, 297, 208, 360
-0.979327, 181, 209, 212, 336
-0.979369, 209, 65, 336, 192
-0.979415, 49, 217, 80, 280
-0.979426, 21, 161, 52, 288
-0.979481, 185, 161, 248, 224
-0.979564, 109, 241, 140, 304
-0.979583, 377, 305, 440, 368
-0.979639, 25, 137, 88, 200
-0.979685, 289, 313, 352, 376
-0.979722, 1, 337, 64, 398
-0.979828, 161, 161, 288, 224
-0.97986, 257, 225, 288, 352
-0.979872, 197, 225, 228, 352
-0.979904, 265, 337, 328, 398
-0.979922, 137, 209, 200, 272
-0.979924, 33, 289, 160, 352
-0.980024, 265, 169, 296, 232
-0.980053, 161, 297, 288, 360
-0.980089, 121, 129, 184, 384
-0.980266, 217, 65, 280, 192
-0.980396, 433, 289, 496, 352
-0.980429, 321, 17, 448, 144
-0.980436, 65, 193, 128, 256
-0.980439, 361, 233, 424, 296
-0.980517, 217, 73, 280, 136
-0.980535, 73, 145, 136, 208
-0.980638, 221, 273, 252, 336
-0.98064, 73, 161, 104, 288
-0.980693, 313, 129, 376, 256
-0.980717, 1, 233, 64, 296
-0.98077, 369, 97, 496, 224
-0.980777, 73, 97, 136, 352
-0.98078, 249, 81, 312, 144
-0.980782, 409, 337, 472, 398
-0.980849, 333, 185, 364, 248
-0.980861, 1, 129, 64, 384
-0.980888, 241, 329, 304, 392
-0.980993, 57, 337, 120, 398
-0.981064, 329, 241, 392, 304
-0.981088, 261, 201, 292, 264
-0.981222, 225, 161, 352, 224
-0.981251, 353, 129, 416, 384
-0.981332, 161, 209, 224, 272
-0.981401, 113, 65, 240, 192
-0.981416, 381, 185, 412, 248
-0.98146, 297, 249, 360, 312
-0.98146, 433, 265, 496, 328
-0.981501, 57, 209, 88, 336
-0.981521, 249, 257, 312, 320
-0.981573, 129, 81, 192, 208
-0.981683, 33, 313, 160, 376
-0.981834, 333, 177, 364, 304
-0.981884, 33, 241, 160, 304
-0.981935, 209, 321, 336, 384
-0.981949, 69, 217, 100, 280
-0.98197, 433, 233, 496, 296
-0.981978, 41, 161, 72, 224
-0.981978, 33, 193, 160, 256
-0.981987, 369, 1, 496, 128
-0.982011, 113, 265, 144, 328
-0.982012, 337, 257, 464, 320
-0.982021, 297, 337, 360, 398
-0.982026, 261, 161, 292, 288
-0.98203, 409, 177, 472, 304
-0.982056, 153, 329, 216, 392
-0.982133, 389, 193, 420, 320
-0.982147, 201, 129, 264, 384
-0.982212, 89, 249, 120, 312
-0.982222, 297, 185, 328, 248
-0.982278, 353, 161, 416, 224
-0.982293, 373, 177, 404, 304
-0.98231, 361, 281, 424, 344
-0.982353, 33, 185, 96, 248
-0.982353, 361, 337, 424, 398
-0.982454, 225, 177, 256, 304
-0.982463, 113, 217, 240, 280
-0.982639, 185, 65, 248, 192
-0.982683, 337, 273, 400, 398
-0.98271, 241, 273, 368, 336
-0.98277, 365, 225, 396, 288
-0.982784, 65, 89, 128, 152
-0.98283, 417, 225, 448, 288
-0.982913, 161, 97, 224, 352
-0.982913, 241, 177, 272, 240
-0.982953, 385, 281, 448, 344
-0.983044, 249, 33, 312, 288
-0.983088, 129, 329, 192, 392
-0.983105, 213, 193, 244, 320
-0.983292, 57, 121, 120, 184
-0.983334, 269, 209, 300, 336
-0.983413, 393, 193, 456, 256
-0.983464, 353, 209, 384, 272
-0.983514, 49, 33, 176, 160
-0.983515, 217, 33, 280, 288
-0.983542, 369, 305, 496, 368
-0.983565, 97, 257, 128, 384
-0.983589, 141, 225, 172, 352
-0.983609, 433, 81, 496, 144
-0.983646, 181, 233, 212, 296
-0.983654, 433, 177, 496, 304
-0.983656, 289, 81, 352, 208
-0.983739, 161, 337, 288, 398
-0.983744, 393, 209, 424, 272
-0.983788, 417, 209, 480, 272
-0.983789, 165, 265, 196, 328
-0.983806, 433, 337, 496, 398
-0.983817, 369, 49, 496, 176
-0.983856, 273, 225, 304, 288
-0.983947, 293, 209, 324, 272
-0.983958, 161, 137, 224, 200
-0.983979, 1, 1, 64, 256
-0.984031, 301, 177, 332, 304
-0.984031, 141, 241, 172, 304
-0.984114, 65, 217, 192, 280
-0.984139, 185, 257, 216, 384
-0.984153, 1, 49, 64, 176
-0.98416, 185, 193, 248, 256
-0.984163, 197, 257, 228, 320
-0.984179, 297, 145, 360, 208
-0.984318, 353, 185, 480, 248
-0.98439, 65, 1, 128, 256
-0.984407, 177, 257, 208, 320
-0.984493, 257, 33, 320, 160
-0.984512, 153, 257, 184, 320
-0.984515, 81, 297, 112, 360
-0.984524, 337, 233, 464, 296
-0.984585, 241, 249, 368, 312
-0.984643, 241, 297, 272, 360
-0.984669, 249, 57, 312, 120
-0.984684, 93, 273, 124, 336
-0.984756, 41, 209, 72, 336
-0.984812, 321, 313, 448, 376
-0.984815, 161, 185, 288, 248
-0.984825, 129, 265, 160, 328
-0.984837, 17, 145, 144, 208
-0.984839, 225, 1, 288, 398
-0.984969, 305, 225, 368, 288
-0.985007, 385, 129, 448, 256
-0.985045, 273, 241, 336, 304
-0.985151, 401, 65, 464, 192
-0.985169, 281, 161, 312, 224
-0.98531, 321, 129, 384, 384
-0.985313, 33, 1, 64, 128
-0.985345, 113, 209, 176, 272
-0.985365, 89, 121, 152, 184
-0.985379, 321, 289, 448, 352
-0.985426, 57, 161, 88, 224
-0.985432, 65, 145, 192, 208
-0.985476, 29, 161, 60, 224
-0.985497, 361, 177, 392, 304
-0.985533, 221, 273, 252, 398
-0.985537, 337, 329, 400, 392
-0.985637, 337, 281, 400, 344
-0.985656, 261, 281, 292, 344
-0.985772, 1, 121, 128, 184
-0.985774, 209, 241, 240, 304
-0.985776, 97, 321, 224, 384
-0.9858, 49, 121, 176, 184
-0.985807, 5, 113, 36, 240
-0.985875, 265, 1, 328, 398
-0.985903, 321, 209, 352, 336
-0.985925, 289, 33, 352, 288
-0.985926, 281, 33, 344, 160
-0.985958, 129, 177, 160, 304
-0.985972, 65, 241, 96, 304
-0.986017, 313, 273, 376, 398
-0.986048, 353, 305, 416, 368
-0.98605, 385, 129, 448, 384
-0.986054, 21, 113, 52, 240
-0.986056, 369, 337, 496, 398
-0.986122, 121, 105, 184, 168
-0.986172, 9, 161, 40, 288
-0.98621, 97, 97, 160, 352
-0.986273, 409, 129, 472, 256
-0.986273, 417, 273, 480, 398
-0.986307, 153, 233, 184, 296
-0.986338, 269, 113, 300, 240
-0.986381, 233, 145, 296, 208
-0.986387, 33, 113, 96, 176
-0.98643, 81, 81, 144, 208
-0.986454, 257, 273, 288, 398
-0.986498, 1, 337, 128, 398
-0.986527, 225, 305, 256, 368
-0.986545, 297, 161, 328, 224
-0.986647, 273, 337, 400, 398
-0.986678, 213, 217, 244, 280
-0.986723, 157, 225, 188, 352
-0.986755, 321, 337, 448, 398
-0.986783, 209, 49, 272, 112
-0.986798, 125, 273, 156, 398
-0.986818, 57, 33, 120, 96
-0.986819, 109, 177, 140, 304
-0.986826, 105, 329, 168, 392
-0.986851, 1, 105, 64, 168
-0.986872, 237, 241, 268, 304
-0.987115, 313, 313, 376, 376
-0.987121, 409, 105, 472, 168
-0.987219, 161, 305, 192, 368
-0.987253, 409, 1, 472, 128
-0.987286, 113, 193, 240, 256
-0.987312, 245, 321, 276, 384
-0.98734, 185, 161, 216, 288
-0.987342, 257, 129, 320, 192
-0.987396, 433, 105, 496, 168
-0.987432, 341, 209, 372, 272
-0.987438, 201, 1, 264, 398
-0.987443, 137, 137, 200, 200
-0.98749, 141, 217, 172, 280
-0.987509, 41, 1, 104, 398
-0.987547, 65, 169, 192, 232
-0.987567, 305, 209, 336, 272
-0.987575, 17, 97, 144, 160
-0.9876, 161, 161, 224, 224
-0.987605, 105, 81, 168, 208
-0.987626, 365, 177, 396, 240
-0.987647, 101, 297, 132, 360
-0.987766, 261, 305, 292, 368
-0.987792, 33, 49, 96, 112
-0.987807, 105, 153, 168, 216
-0.987824, 41, 97, 72, 224
-0.987836, 13, 161, 44, 224
-0.98785, 425, 129, 488, 384
-0.987867, 385, 233, 416, 296
-0.987875, 57, 97, 88, 224
-0.987922, 97, 177, 128, 304
-0.987997, 77, 225, 108, 352
-0.988053, 289, 233, 416, 296
-0.988055, 297, 129, 360, 384
-0.988108, 313, 161, 344, 288
-0.988114, 297, 337, 328, 398
-0.988125, 1, 25, 128, 88
-0.988178, 1, 129, 32, 192
-0.988193, 369, 209, 496, 272
-0.98824, 229, 129, 260, 256
-0.988254, 17, 1, 80, 398
-0.988304, 209, 137, 336, 200
-0.988321, 29, 209, 60, 272
-0.988379, 173, 129, 204, 256
-0.98838, 153, 81, 216, 208
-0.988407, 57, 25, 88, 88
-0.988425, 429, 233, 460, 296
-0.988426, 353, 129, 384, 256
-0.98846, 289, 113, 320, 240
-0.988537, 29, 137, 60, 200
-0.988551, 17, 137, 48, 200
-0.988553, 225, 57, 352, 120
-0.988563, 13, 1, 44, 128
-0.988578, 81, 217, 112, 280
-0.98858, 41, 129, 72, 192
-0.988591, 249, 181, 312, 212
-0.98863, 285, 233, 316, 296
-0.988638, 69, 169, 100, 232
-0.988682, 241, 169, 304, 200
-0.988685, 209, 17, 272, 144
-0.98869, 37, 297, 68, 360
-0.98871, 249, 113, 280, 240
-0.988721, 229, 329, 260, 392
-0.988734, 397, 185, 428, 248
-0.988764, 161, 273, 192, 398
-0.988858, 177, 289, 208, 352
-0.98886, 61, 305, 92, 368
-0.988912, 209, 17, 336, 144
-0.988939, 57, 273, 88, 398
-0.988959, 33, 165, 96, 196
-0.988968, 149, 289, 180, 352
-0.989005, 273, 145, 400, 208
-0.989029, 345, 33, 408, 288
-0.989034, 369, 281, 496, 344
-0.989056, 129, 305, 160, 368
-0.989116, 385, 241, 416, 368
-0.989222, 185, 33, 248, 288
-0.989267, 289, 1, 352, 398
-0.989291, 73, 1, 136, 398
-0.989307, 157, 177, 188, 304
-0.989307, 161, 81, 288, 144
-0.989339, 85, 177, 116, 304
-0.989357, 289, 265, 416, 328
-0.989384, 325, 161, 356, 224
-0.989394, 125, 329, 156, 392
-0.989437, 405, 257, 436, 384
-0.989438, 145, 137, 272, 200
-0.989452, 161, 241, 224, 272
-0.989485, 297, 185, 360, 216
-0.989493, 209, 97, 336, 160
-0.989508, 21, 185, 52, 248
-0.989527, 169, 177, 200, 304
-0.98954, 417, 329, 448, 392
-0.989565, 421, 225, 452, 352
-0.989575, 37, 17, 68, 80
-0.989628, 249, 201, 280, 264
-0.989689, 313, 33, 376, 288
-0.98973, 433, 81, 496, 208
-0.989767, 277, 337, 308, 398
-0.989783, 177, 1, 240, 398
-0.989802, 145, 177, 176, 304
-0.989808, 369, 121, 496, 184
-0.989813, 117, 217, 148, 280
-0.989854, 373, 225, 404, 352
-0.989882, 17, 17, 48, 80
-0.989903, 129, 253, 192, 284
-0.989918, 1, 17, 32, 144
-0.989927, 161, 57, 288, 120
-0.989934, 121, 1, 184, 398
-0.989948, 69, 97, 100, 224
-0.98996, 193, 217, 448, 280
-0.989985, 129, 33, 192, 288
-0.989989, 5, 321, 36, 384
-0.989996, 377, 1, 440, 128
-0.990001, 49, 337, 176, 398
-0.990014, 353, 225, 384, 352
-0.990078, 313, 185, 344, 248
-0.990081, 113, 161, 240, 224
-0.990108, 173, 273, 204, 398
-0.990116, 185, 261, 248, 292
-0.990117, 265, 193, 328, 224
-0.990124, 57, 249, 120, 280
-0.990126, 209, 305, 240, 368
-0.99014, 225, 201, 256, 264
-0.990141, 161, 105, 288, 168
-0.990157, 441, 249, 472, 312
-0.990166, 257, 281, 320, 312
-0.99018, 397, 145, 428, 272
-0.990183, 337, 185, 400, 216
-0.990208, 153, 261, 216, 292
-0.990213, 209, 241, 240, 368
-0.990221, 113, 289, 144, 352
-0.99025, 49, 257, 80, 320
-0.990251, 193, 293, 256, 324
-0.990256, 269, 145, 300, 208
-0.990267, 393, 329, 424, 392
-0.990271, 257, 81, 288, 144
-0.990279, 197, 177, 228, 304
-0.990281, 441, 225, 472, 352
-0.990288, 45, 1, 76, 128
-0.990302, 313, 1, 376, 398
-0.990306, 105, 257, 168, 288
-0.990334, 345, 205, 408, 236
-0.990357, 337, 161, 464, 224
-0.990361, 217, 169, 280, 200
-0.990363, 113, 89, 240, 152
-0.990364, 265, 225, 328, 256
-0.990377, 289, 209, 320, 336
-0.990384, 209, 249, 272, 280
-0.990401, 101, 321, 132, 384
-0.990471, 257, 145, 288, 208
-0.990474, 113, 17, 240, 144
-0.990493, 353, 221, 416, 252
-0.990542, 217, 273, 280, 304
-0.990569, 121, 241, 184, 272
-0.9906, 217, 261, 280, 292
-0.990619, 393, 305, 424, 368
-0.990653, 97, 241, 160, 272
-0.99068, 297, 173, 360, 204
-0.990697, 97, 1, 160, 256
-0.99071, 105, 293, 168, 324
-0.990717, 305, 209, 368, 240
-0.990732, 153, 301, 216, 332
-0.990743, 149, 313, 180, 376
-0.990745, 245, 57, 276, 120
-0.990752, 81, 261, 144, 292
-0.990753, 161, 129, 192, 256
-0.990768, 225, 181, 288, 212
-0.990786, 9, 337, 72, 368
-0.990802, 233, 293, 296, 324
-0.990803, 49, 193, 80, 256
-0.990816, 329, 217, 392, 248
-0.99083, 217, 353, 280, 384
-0.990832, 381, 305, 412, 368
-0.990837, 405, 313, 436, 376
-0.990843, 53, 137, 84, 200
-0.990853, 25, 237, 88, 268
-0.990873, 353, 161, 384, 224
-0.990879, 249, 265, 312, 296
-0.99088, 205, 329, 236, 392
-0.99088, 409, 1, 472, 398
-0.990882, 285, 289, 316, 352
-0.990885, 65, 277, 128, 308
-0.990888, 185, 245, 248, 276
-0.990895, 297, 197, 360, 228
-0.990903, 17, 313, 48, 376
-0.990916, 129, 265, 192, 296
-0.99092, 241, 245, 304, 276
-0.990925, 265, 209, 328, 240
-0.990937, 193, 365, 256, 396
-0.990968, 17, 217, 80, 248
-0.99097, 137, 229, 200, 260
-0.990973, 49, 237, 112, 268
-0.990986, 1, 129, 64, 160
-0.990998, 185, 273, 248, 304
-0.991004, 1, 289, 32, 352
-0.99104, 177, 345, 240, 376
-0.991041, 105, 281, 168, 312
-0.991044, 257, 293, 320, 324
-0.991064, 105, 269, 168, 300
-0.991064, 65, 193, 96, 256
-0.991074, 141, 273, 172, 398
-0.991075, 337, 1, 400, 398
-0.991088, 9, 313, 72, 344
-0.991088, 33, 349, 96, 380
-0.991094, 369, 209, 432, 240
-0.991095, 393, 273, 456, 304
-0.991106, 217, 305, 280, 336
-0.991107, 209, 237, 272, 268
-0.991111, 33, 253, 96, 284
-0.991115, 65, 161, 320, 224
-0.991122, 153, 341, 216, 372
-0.991128, 393, 233, 456, 264
-0.991132, 281, 273, 344, 304
-0.99115, 121, 305, 184, 336
-0.991162, 353, 249, 384, 312
-0.991163, 241, 153, 272, 216
-0.991186, 177, 229, 240, 260
-0.99119, 81, 293, 144, 324
-0.991193, 453, 281, 484, 344
-0.991202, 249, 361, 312, 392
-0.991207, 33, 265, 64, 328
-0.99121, 153, 285, 216, 316
-0.991224, 73, 161, 136, 192
-0.991236, 301, 129, 332, 256
-0.991249, 313, 65, 376, 192
-0.991254, 193, 185, 448, 248
-0.991258, 65, 201, 320, 264
-0.99127, 137, 321, 200, 352
-0.991294, 361, 273, 424, 304
-0.991314, 57, 17, 120, 144
-0.991315, 373, 265, 404, 328
-0.991315, 41, 329, 72, 392
-0.991343, 265, 165, 328, 196
-0.991344, 57, 329, 88, 392
-0.991351, 409, 329, 472, 360
-0.991376, 273, 181, 336, 212
-0.991382, 41, 221, 104, 252
-0.991385, 289, 301, 352, 332
-0.991392, 217, 205, 280, 236
-0.991392, 393, 261, 456, 292
-0.991393, 241, 229, 304, 260
-0.991408, 333, 297, 364, 360
-0.991414, 301, 225, 332, 352
-0.991431, 337, 305, 400, 336
-0.991437, 321, 197, 384, 228
-0.991447, 1, 293, 64, 324
-0.991451, 73, 233, 136, 264
-0.991467, 57, 293, 120, 324
-0.991491, 89, 305, 152, 336
-0.991491, 129, 281, 192, 312
-0.991494, 369, 289, 432, 320
-0.991496, 313, 257, 376, 288
-0.991502, 409, 285, 472, 316
-0.991505, 33, 337, 96, 368
-0.991514, 105, 217, 136, 280
-0.991518, 49, 281, 80, 344
-0.991522, 193, 313, 256, 344
-0.991525, 281, 353, 344, 384
-0.991535, 5, 233, 36, 296
-0.991543, 209, 265, 240, 328
-0.991572, 9, 325, 72, 356
-0.991581, 113, 313, 144, 376
-0.991583, 281, 289, 344, 320
-0.991585, 305, 273, 368, 304
-0.991585, 97, 1, 352, 128
-0.991587, 1, 257, 32, 384
-0.991595, 25, 297, 88, 328
-0.991602, 289, 225, 352, 256
-0.991607, 161, 329, 192, 392
-0.991626, 217, 329, 280, 360
-0.991627, 193, 333, 256, 364
-0.991627, 333, 129, 364, 256
-0.991646, 385, 221, 448, 252
-0.99165, 217, 217, 280, 248
-0.991652, 305, 285, 368, 316
-0.99167, 41, 265, 104, 296
-0.991684, 65, 305, 128, 336
-0.991692, 129, 293, 192, 324
-0.991697, 73, 341, 136, 372
-0.991719, 337, 321, 368, 384
-0.991721, 433, 33, 496, 288
-0.991723, 321, 129, 448, 192
-0.991729, 369, 361, 432, 392
-0.991733, 369, 305, 432, 336
-0.991733, 265, 237, 328, 268
-0.991741, 353, 317, 416, 348
-0.991742, 409, 209, 440, 336
-0.991749, 241, 217, 304, 248
-0.991755, 241, 85, 304, 116
-0.991757, 89, 317, 152, 348
-0.991759, 17, 369, 80, 398
-0.99176, 9, 353, 72, 384
-0.99176, 257, 257, 288, 320
-0.991762, 345, 293, 408, 324
-0.991768, 373, 129, 404, 256
-0.991773, 153, 353, 216, 384
-0.991788, 289, 257, 352, 288
-0.991793, 113, 349, 176, 380
-0.991794, 385, 337, 448, 368
-0.991796, 217, 365, 280, 396
-0.991801, 25, 285, 88, 316
-0.991806, 353, 261, 416, 292
-0.991806, 401, 317, 464, 348
-0.991811, 129, 369, 192, 398
-0.991815, 81, 153, 112, 216
-0.991822, 217, 317, 280, 348
-0.991828, 289, 341, 352, 372
-0.991849, 33, 33, 96, 64
-0.99185, 353, 349, 416, 380
-0.991853, 49, 325, 112, 356
-0.991859, 33, 177, 96, 208
-0.991868, 41, 197, 104, 228
-0.991925, 457, 225, 488, 352
-0.991939, 37, 257, 68, 384
-0.991949, 49, 33, 176, 96
-0.99201, 97, 233, 352, 296
-0.99209, 97, 1, 160, 398
-0.992104, 145, 1, 208, 398
-0.992154, 253, 169, 284, 200
-0.992282, 377, 1, 440, 398
-0.992285, 281, 181, 312, 212
-0.992316, 97, 121, 224, 184
-0.992318, 369, 97, 496, 160
-0.992414, 209, 145, 240, 272
-0.992419, 381, 217, 412, 248
-0.99245, 269, 169, 300, 200
-0.992502, 29, 209, 60, 336
-0.99251, 385, 145, 416, 272
-0.992512, 365, 273, 396, 398
-0.992518, 25, 65, 56, 192
-0.992542, 289, 193, 320, 224
-0.99255, 273, 217, 304, 248
-0.992585, 345, 185, 376, 216
-0.992646, 169, 17, 232, 144
-0.992647, 369, 209, 400, 240
-0.992665, 361, 221, 392, 252
-0.992666, 269, 181, 300, 212
-0.992687, 89, 273, 120, 304
-0.992689, 129, 241, 160, 272
-0.992691, 133, 253, 164, 284
-0.992697, 89, 257, 120, 288
-0.992702, 257, 89, 384, 152
-0.992707, 333, 185, 364, 216
-0.992713, 65, 97, 192, 160
-0.992756, 41, 161, 72, 192
-0.992777, 53, 161, 84, 192
-0.992798, 193, 241, 224, 272
-0.992804, 369, 33, 432, 288
-0.992807, 261, 233, 292, 264
-0.992808, 381, 205, 412, 236
-0.99283, 77, 273, 108, 398
-0.992833, 97, 97, 128, 224
-0.992847, 109, 249, 140, 280
-0.992864, 293, 177, 324, 208
-0.992867, 349, 209, 380, 240
-0.992875, 153, 261, 184, 292
-0.992889, 81, 241, 112, 272
-0.992899, 81, 65, 208, 128
-0.992905, 301, 189, 332, 220
-0.992907, 45, 217, 76, 248
-0.992908, 205, 253, 236, 284
-0.992915, 233, 261, 264, 292
-0.992925, 293, 217, 324, 248
-0.992926, 241, 169, 272, 200
-0.992932, 193, 261, 224, 292
-0.992933, 381, 229, 412, 260
-0.99294, 253, 185, 284, 216
-0.992949, 321, 301, 352, 332
-0.99295, 77, 161, 108, 192
-0.992954, 393, 213, 424, 244
-0.992956, 305, 269, 336, 300
-0.992956, 29, 169, 60, 200
-0.99296, 273, 229, 304, 260
-0.992965, 225, 357, 256, 388
-0.992965, 1, 233, 256, 296
-0.992971, 333, 201, 364, 232
-0.992976, 129, 265, 160, 296
-0.992984, 253, 245, 284, 276
-0.992988, 353, 197, 384, 228
-0.993007, 81, 313, 112, 344
-0.993007, 97, 309, 128, 340
-0.993025, 469, 241, 500, 368
-0.993038, 109, 269, 140, 300
-0.993045, 321, 285, 352, 316
-0.993055, 89, 285, 120, 316
-0.993056, 17, 129, 48, 160
-0.993064, 261, 281, 292, 312
-0.993068, 97, 345, 128, 376
-0.993069, 213, 365, 244, 396
-0.993071, 241, 273, 272, 304
-0.993072, 241, 293, 272, 324
-0.993073, 181, 341, 212, 372
-0.993076, 293, 229, 324, 260
-0.993079, 269, 205, 300, 236
-0.99308, 237, 81, 268, 208
-0.99308, 253, 157, 284, 188
-0.993084, 241, 305, 272, 336
-0.993086, 293, 205, 324, 236
-0.993087, 213, 241, 244, 272
-0.993089, 241, 181, 272, 212
-0.993094, 241, 357, 272, 388
-0.993099, 229, 173, 260, 204
-0.993101, 153, 245, 184, 276
-0.993102, 109, 285, 140, 316
-0.993102, 221, 285, 252, 316
-0.993102, 253, 81, 284, 112
-0.993105, 53, 317, 84, 348
-0.993106, 433, 177, 464, 304
-0.993111, 309, 205, 340, 236
-0.993115, 169, 265, 200, 296
-0.99312, 241, 245, 272, 276
-0.993125, 305, 281, 336, 312
-0.99313, 113, 301, 144, 332
-0.993134, 289, 281, 320, 312
-0.993137, 217, 273, 248, 304
-0.993138, 273, 365, 304, 396
-0.99314, 305, 297, 336, 328
-0.99314, 377, 189, 408, 220
-0.993141, 337, 301, 368, 332
-0.993141, 285, 353, 316, 384
-0.993141, 69, 233, 100, 264
-0.993142, 261, 297, 292, 328
-0.993144, 117, 237, 148, 268
-0.993144, 221, 297, 252, 328
-0.993145, 365, 317, 396, 348
-0.993149, 13, 161, 44, 192
-0.99315, 5, 125, 36, 156
-0.993153, 325, 273, 356, 304
-0.993153, 37, 333, 68, 364
-0.993155, 73, 297, 104, 328
-0.993158, 129, 293, 160, 324
-0.993158, 57, 329, 88, 360
-0.993166, 141, 241, 172, 272
-0.993167, 449, 277, 480, 308
-0.993167, 157, 301, 188, 332
-0.993168, 285, 273, 316, 398
-0.99317, 261, 261, 292, 292
-0.993174, 241, 337, 272, 368
-0.993176, 181, 261, 212, 292
-0.993178, 341, 313, 372, 344
-0.993178, 173, 245, 204, 276
-0.99318, 93, 245, 124, 276
-0.993182, 245, 321, 276, 352
-0.993183, 273, 193, 304, 224
-0.993183, 129, 281, 160, 312
-0.993187, 381, 357, 412, 388
-0.993188, 333, 217, 364, 248
-0.99319, 321, 189, 352, 220
-0.993191, 53, 301, 84, 332
-0.993192, 253, 197, 284, 228
-0.993193, 421, 229, 452, 260
-0.993195, 433, 265, 464, 296
-0.993199, 437, 293, 468, 324
-0.993199, 425, 277, 456, 308
-0.993202, 257, 213, 288, 244
-0.993204, 77, 273, 108, 304
-0.993206, 61, 221, 92, 252
-0.993206, 225, 309, 256, 340
-0.993208, 41, 297, 72, 328
-0.993208, 305, 177, 336, 208
-0.993209, 261, 357, 292, 388
-0.993214, 65, 165, 96, 196
-0.993217, 145, 305, 176, 336
-0.993219, 81, 329, 112, 360
-0.993219, 349, 225, 380, 256
-0.993219, 101, 321, 132, 352
-0.99322, 293, 341, 324, 372
-0.99322, 341, 337, 372, 368
-0.993228, 81, 113, 112, 240
-0.993258, 65, 305, 320, 368
-0.993267, 113, 97, 144, 224
-0.993319, 313, 113, 344, 240
-0.993425, 309, 273, 340, 398
-0.993437, 425, 129, 456, 256
-0.993487, 57, 17, 88, 144
-0.993487, 337, 273, 368, 398
-0.993499, 433, 1, 496, 398
-0.9935, 353, 1, 416, 128
-0.99351, 229, 225, 260, 352
-0.993551, 221, 49, 252, 176
-0.993573, 321, 105, 448, 168
-0.993652, 445, 97, 476, 224
-0.993666, 261, 161, 276, 224
-0.993674, 197, 273, 228, 398
-0.993741, 289, 217, 416, 248
-0.993741, 449, 273, 480, 398
-0.993758, 401, 33, 464, 288
-0.99376, 153, 81, 184, 208
-0.993792, 329, 17, 392, 144
-0.993822, 321, 257, 352, 384
-0.993847, 1, 209, 32, 336
-0.993884, 249, 49, 280, 176
-0.993906, 297, 185, 312, 248
-0.994018, 17, 73, 144, 136
-0.994044, 105, 33, 168, 160
-0.994082, 1, 169, 500, 232
-0.994125, 347, 185, 362, 248
-0.994128, 125, 97, 156, 224
-0.994234, 273, 57, 400, 120
-0.994241, 133, 233, 148, 296
-0.994248, 145, 33, 272, 96
-0.99425, 1, 49, 128, 112
-0.994271, 289, 189, 416, 220
-0.994274, 271, 177, 286, 240
-0.994299, 305, 81, 432, 144
-0.99435, 65, 257, 320, 320
-0.9944, 193, 161, 448, 224
-0.99441, 377, 65, 440, 192
-0.994445, 273, 113, 400, 176
-0.994472, 429, 273, 460, 398
-0.994475, 33, 137, 288, 200
-0.994541, 369, 65, 496, 128
-0.994561, 1, 209, 500, 272
-0.994584, 129, 249, 256, 280
-0.994604, 225, 289, 480, 352
-0.994627, 291, 185, 306, 248
-0.994633, 321, 57, 448, 120
-0.994646, 337, 213, 464, 244
-0.994654, 391, 201, 406, 264
-0.994705, 17, 165, 144, 196
-0.994713, 129, 261, 256, 292
-0.994739, 369, 9, 496, 72
-0.994757, 257, 205, 384, 236
-0.994783, 137, 33, 200, 160
-0.994803, 137, 129, 168, 256
-0.994862, 305, 17, 368, 144
-0.994882, 209, 197, 336, 228
-0.994885, 209, 209, 336, 240
-0.994887, 355, 185, 370, 248
-0.994901, 5, 65, 36, 192
-0.994931, 207, 241, 222, 304
-0.994939, 65, 329, 320, 392
-0.994961, 149, 129, 180, 256
-0.994963, 209, 177, 336, 208
-0.994974, 257, 33, 384, 96
-0.994979, 377, 201, 392, 264
-0.994996, 169, 241, 184, 304
-0.995056, 113, 237, 240, 268
-0.995115, 193, 321, 448, 384
-0.995204, 469, 193, 500, 320
-0.995217, 209, 269, 336, 300
-0.995228, 369, 33, 496, 96
-0.995229, 55, 209, 70, 272
-0.995264, 81, 257, 208, 288
-0.995268, 301, 209, 316, 272
-0.995274, 199, 233, 214, 296
-0.995277, 279, 193, 294, 256
-0.995285, 433, 1, 496, 128
-0.995286, 333, 225, 364, 352
-0.995303, 241, 285, 368, 316
-0.995344, 367, 193, 382, 256
-0.995404, 177, 361, 304, 392
-0.995415, 105, 257, 120, 320
-0.99544, 99, 233, 114, 296
-0.995463, 255, 161, 270, 224
-0.995487, 33, 281, 160, 312
-0.995494, 225, 241, 480, 304
-0.995512, 33, 169, 48, 232
-0.995512, 361, 217, 376, 280
-0.995517, 141, 233, 156, 296
-0.995539, 209, 297, 336, 328
-0.995578, 397, 193, 412, 256
-0.995582, 193, 233, 208, 296
-0.995592, 193, 249, 320, 280
-0.995604, 13, 257, 44, 384
-0.995606, 259, 233, 274, 296
-0.995609, 43, 161, 58, 224
-0.995624, 179, 233, 194, 296
-0.995629, 303, 185, 318, 248
-0.995635, 273, 1, 400, 128
-0.99564, 65, 281, 320, 344
-0.995652, 49, 241, 176, 272
-0.995655, 287, 209, 302, 272
-0.995656, 1, 301, 128, 332
-0.995656, 17, 209, 48, 336
-0.995658, 75, 217, 90, 280
-0.995668, 297, 273, 328, 398
-0.995673, 293, 33, 324, 160
-0.995673, 1, 233, 500, 296
-0.9957, 257, 177, 384, 208
-0.995742, 67, 217, 82, 280
-0.995747, 413, 161, 444, 288
-0.99575, 169, 81, 200, 208
-0.995752, 453, 161, 484, 288
-0.995802, 263, 201, 278, 264
-0.995819, 133, 257, 148, 320
-0.995826, 273, 257, 304, 384
-0.995833, 49, 1, 176, 64
-0.995873, 353, 273, 384, 398
-0.995894, 161, 313, 288, 344
-0.995908, 233, 33, 264, 160
-0.995912, 437, 49, 468, 176
-0.995918, 183, 257, 198, 320
-0.995919, 369, 305, 496, 336
-0.995923, 1, 1, 128, 64
-0.995931, 127, 233, 142, 296
-0.995956, 193, 33, 320, 96
-0.995967, 337, 281, 464, 312
-0.99597, 227, 265, 242, 328
-0.995972, 161, 265, 416, 328
-0.995981, 81, 297, 208, 328
-0.995984, 361, 185, 376, 248
-0.996, 161, 285, 288, 316
-0.99601, 433, 129, 496, 256
-0.996012, 337, 293, 464, 324
-0.99602, 257, 129, 288, 384
-0.996024, 33, 253, 160, 284
-0.996024, 327, 257, 342, 320
-0.99604, 321, 229, 448, 260
-0.996042, 161, 297, 288, 328
-0.996052, 235, 281, 250, 344
-0.996056, 177, 233, 304, 264
-0.996059, 233, 17, 296, 144
-0.996059, 225, 345, 352, 376
-0.996068, 47, 217, 62, 280
-0.996071, 355, 217, 370, 280
-0.996074, 189, 257, 204, 320
-0.996079, 61, 209, 76, 272
-0.996081, 385, 217, 400, 280
-0.996086, 395, 225, 410, 288
-0.996095, 269, 201, 284, 264
-0.996108, 17, 197, 144, 228
-0.996117, 81, 309, 208, 340
-0.996118, 65, 161, 192, 192
-0.99613, 17, 313, 144, 344
-0.996134, 241, 309, 368, 340
-0.996137, 241, 257, 368, 288
-0.996138, 295, 209, 310, 272
-0.99615, 241, 229, 368, 260
-0.99615, 1, 129, 16, 192
-0.996152, 71, 161, 86, 224
-0.996152, 309, 193, 324, 256
-0.99616, 163, 241, 178, 304
-0.996191, 285, 185, 300, 248
-0.996197, 225, 365, 352, 396
-0.996197, 157, 233, 172, 296
-0.996202, 57, 129, 88, 384
-0.996207, 257, 137, 500, 200
-0.99625, 1, 289, 500, 352
-0.996258, 1, 129, 128, 160
-0.996264, 161, 221, 288, 252
-0.99629, 433, 233, 448, 296
-0.996297, 385, 193, 400, 256
-0.996329, 107, 289, 122, 352
-0.996334, 73, 297, 88, 360
-0.99636, 39, 209, 54, 272
-0.996375, 321, 33, 448, 96
-0.996391, 273, 349, 400, 380
-0.996393, 237, 305, 252, 368
-0.996397, 33, 269, 160, 300
-0.996401, 81, 269, 208, 300
-0.996414, 353, 201, 480, 232
-0.996428, 275, 217, 290, 280
-0.996464, 273, 365, 400, 396
-0.996465, 213, 241, 228, 304
-0.996468, 27, 161, 42, 224
-0.996484, 159, 265, 174, 328
-0.996486, 145, 345, 272, 376
-0.996488, 269, 153, 284, 216
-0.996512, 63, 297, 78, 360
-0.996512, 33, 217, 160, 248
-0.996527, 161, 197, 288, 228
-0.996541, 167, 265, 182, 328
-0.996547, 341, 185, 356, 248
-0.996566, 299, 161, 314, 224
-0.996567, 337, 185, 464, 216
-0.996568, 49, 229, 176, 260
-0.996578, 1, 241, 128, 272
-0.996581, 161, 169, 288, 200
-0.996589, 17, 177, 144, 208
-0.996589, 151, 241, 166, 304
-0.996617, 33, 137, 48, 200
-0.996619, 129, 273, 256, 304
-0.996632, 257, 265, 500, 328
-0.996634, 245, 129, 276, 384
-0.996636, 369, 349, 496, 380
-0.996636, 187, 233, 202, 296
-0.996651, 49, 297, 64, 360
-0.996657, 85, 289, 100, 352
-0.996663, 379, 233, 394, 296
-0.996674, 289, 281, 416, 312
-0.996681, 349, 209, 364, 272
-0.996694, 279, 169, 294, 232
-0.996696, 195, 257, 210, 320
-0.996697, 81, 285, 208, 316
-0.996708, 55, 289, 70, 352
-0.996715, 419, 329, 434, 392
-0.996715, 129, 361, 256, 392
-0.996727, 447, 233, 462, 296
-0.996728, 269, 233, 284, 296
-0.996733, 209, 165, 336, 196
-0.996739, 277, 273, 292, 336
-0.996739, 149, 329, 164, 392
-0.996755, 63, 161, 78, 224
-0.996757, 101, 329, 116, 392
-0.996763, 371, 217, 386, 280
-0.996775, 77, 177, 92, 240
-0.996779, 353, 361, 480, 392
-0.996781, 427, 225, 442, 288
-0.996814, 219, 257, 234, 320
-0.996821, 79, 313, 94, 376
-0.996824, 255, 193, 270, 256
-0.996829, 289, 129, 320, 384
-0.996832, 133, 209, 148, 272
-0.996837, 111, 241, 126, 304
-0.996841, 193, 65, 448, 128
-0.996845, 201, 257, 216, 320
-0.996848, 167, 305, 182, 368
-0.996849, 81, 217, 96, 280
-0.99685, 97, 33, 224, 96
-0.996859, 55, 121, 70, 184
-0.996865, 1, 345, 128, 376
-0.996866, 251, 249, 266, 312
-0.996871, 265, 273, 280, 336
-0.996876, 131, 297, 146, 360
-0.996881, 173, 265, 188, 328
-0.99689, 409, 337, 424, 398
-0.996893, 289, 293, 416, 324
-0.996902, 161, 1, 224, 256
-0.996907, 289, 265, 416, 296
-0.996907, 349, 185, 364, 216
-0.99691, 9, 129, 24, 192
-0.996912, 229, 241, 244, 304
-0.996916, 377, 177, 392, 240
-0.996929, 33, 129, 64, 384
-0.996934, 81, 33, 144, 160
-0.996935, 65, 337, 192, 368
-0.996937, 369, 233, 496, 264
-0.996956, 321, 341, 448, 372
-0.996957, 25, 337, 40, 398
-0.99696, 161, 305, 176, 368
-0.996961, 1, 257, 500, 320
-0.996963, 147, 305, 162, 368
-0.996964, 283, 289, 298, 352
-0.996966, 249, 161, 264, 224
-0.996972, 97, 81, 352, 144
-0.996979, 29, 313, 44, 376
-0.996985, 121, 241, 136, 304
-0.996987, 49, 137, 64, 200
-0.997003, 321, 305, 448, 336
-0.997019, 113, 225, 240, 256
-0.997023, 347, 161, 362, 224
-0.997024, 71, 193, 86, 256
-0.997025, 33, 33, 288, 96
-0.997031, 413, 225, 428, 288
-0.99704, 177, 333, 304, 364
-0.997042, 11, 281, 26, 344
-0.997046, 317, 273, 332, 336
-0.997046, 293, 233, 308, 296
-0.997047, 81, 365, 208, 396
-0.99705, 321, 9, 448, 72
-0.997053, 15, 129, 30, 192
-0.997055, 211, 217, 226, 280
-0.997057, 295, 181, 310, 212
-0.997058, 95, 265, 110, 328
-0.997066, 205, 217, 220, 280
-0.997067, 21, 305, 36, 368
-0.997067, 207, 265, 222, 328
-0.997069, 55, 153, 70, 216
-0.997071, 31, 17, 46, 80
-0.997072, 17, 333, 144, 364
-0.997074, 309, 337, 324, 398
-0.997075, 9, 25, 24, 88
-0.997079, 385, 249, 400, 312
-0.997082, 17, 117, 144, 148
-0.997093, 161, 209, 288, 240
-0.997104, 69, 129, 100, 384
-0.99713, 391, 217, 406, 248
-0.997159, 45, 129, 76, 384
-0.997181, 97, 57, 352, 120
-0.997187, 289, 245, 416, 276
-0.997192, 81, 321, 208, 352
-0.997224, 321, 329, 448, 360
-0.997236, 257, 169, 272, 200
-0.997237, 161, 1, 288, 128
-0.997246, 385, 217, 400, 248
-0.99725, 225, 333, 352, 364
-0.997257, 49, 149, 176, 180
-0.997262, 257, 157, 384, 188
-0.997272, 337, 265, 464, 296
-0.997281, 225, 321, 352, 352
-0.997287, 263, 169, 278, 200
-0.997288, 65, 205, 192, 236
-0.997289, 289, 317, 416, 348
-0.99729, 53, 33, 84, 288
-0.997297, 277, 129, 308, 384
-0.997339, 369, 321, 496, 352
-0.997348, 305, 201, 432, 232
-0.997377, 81, 349, 208, 380
-0.997396, 373, 129, 404, 384
-0.997455, 65, 185, 192, 216
-0.997466, 129, 325, 256, 356
-0.99747, 291, 217, 306, 248
-0.997471, 65, 173, 192, 204
-0.997473, 21, 97, 52, 352
-0.99748, 33, 1, 64, 256
-0.997498, 33, 365, 160, 396
-0.997524, 337, 253, 464, 284
-0.997527, 273, 169, 288, 200
-0.997539, 269, 33, 300, 288
-0.997542, 1, 153, 128, 184
-0.997549, 1, 97, 256, 160
-0.997552, 241, 245, 368, 276
-0.99756, 357, 217, 372, 248
-0.997564, 1, 229, 128, 260
-0.99757, 129, 113, 384, 176
-0.997579, 251, 169, 266, 200
-0.997619, 369, 333, 496, 364
-0.99762, 301, 185, 316, 216
-0.997623, 245, 33, 276, 288
-0.997635, 1, 137, 500, 200
-0.997636, 133, 237, 148, 268
-0.997666, 113, 213, 240, 244
-0.997682, 233, 129, 264, 384
-0.997689, 369, 173, 496, 204
-0.99769, 193, 93, 320, 124
-0.997698, 269, 181, 284, 212
-0.997734, 379, 221, 394, 252
-0.997736, 69, 1, 100, 256
-0.997748, 49, 89, 176, 120
-0.997756, 161, 181, 288, 212
-0.99776, 343, 185, 358, 216
-0.997772, 101, 253, 116, 284
-0.997778, 379, 209, 394, 240
-0.997793, 273, 337, 400, 368
-0.997799, 241, 89, 368, 120
-0.997805, 263, 189, 278, 220
-0.997808, 353, 129, 384, 384
-0.99781, 113, 201, 240, 232
-0.997817, 177, 153, 304, 184
-0.997818, 113, 161, 240, 192
-0.997828, 391, 205, 406, 236
-0.997836, 33, 169, 48, 200
-0.997847, 201, 241, 216, 272
-0.997848, 289, 177, 304, 208
-0.997855, 39, 165, 54, 196
-0.997858, 365, 209, 380, 240
-0.997863, 193, 89, 448, 152
-0.997873, 1, 337, 500, 398
-0.997892, 257, 185, 272, 216
-0.997897, 153, 97, 184, 352
-0.997909, 191, 261, 206, 292
-0.99791, 133, 253, 148, 284
-0.997917, 33, 45, 160, 76
-0.997917, 235, 289, 250, 320
-0.997917, 13, 1, 44, 256
-0.997923, 207, 245, 222, 276
-0.997924, 303, 217, 318, 248
-0.997928, 153, 257, 168, 288
-0.997935, 363, 221, 378, 252
-0.997935, 255, 241, 270, 272
-0.997939, 105, 285, 120, 316
-0.99794, 277, 361, 292, 392
-0.99794, 295, 193, 310, 224
-0.997941, 297, 217, 312, 248
-0.997942, 241, 53, 368, 84
-0.997955, 201, 261, 216, 292
-0.997966, 59, 213, 74, 244
-0.997967, 133, 273, 148, 304
-0.997969, 285, 221, 300, 252
-0.997985, 139, 241, 154, 272
-0.997991, 305, 173, 432, 204
-0.997993, 369, 221, 384, 252
-0.997994, 69, 165, 84, 196
-0.997998, 265, 221, 280, 252
-0.998001, 9, 97, 40, 352
-0.998005, 129, 137, 384, 200
-0.998008, 289, 189, 304, 220
-0.99801, 335, 301, 350, 332
-0.99801, 97, 129, 128, 384
-0.998016, 211, 257, 226, 288
-0.998016, 385, 129, 416, 384
-0.998024, 161, 81, 288, 112
-0.998025, 97, 113, 224, 144
-0.998028, 317, 269, 332, 300
-0.998047, 165, 97, 196, 352
-0.998048, 261, 361, 276, 392
-0.998052, 235, 301, 250, 332
-0.998056, 33, 101, 160, 132
-0.99806, 247, 253, 262, 284
-0.998062, 351, 217, 366, 248
-0.998069, 97, 149, 224, 180
-0.998071, 95, 249, 110, 280
-0.998073, 51, 161, 66, 192
-0.998078, 245, 173, 260, 204
-0.998088, 293, 33, 324, 288
-0.998089, 257, 9, 384, 72
-0.998095, 357, 189, 372, 220
-0.998097, 107, 297, 122, 328
-0.9981, 275, 225, 290, 256
-0.998101, 251, 181, 266, 212
-0.998101, 103, 273, 118, 304
-0.998108, 71, 241, 86, 272
-0.99811, 1, 89, 500, 152
-0.998116, 349, 201, 364, 232
-0.998135, 229, 273, 244, 304
-0.998139, 371, 209, 386, 240
-0.99815, 65, 229, 80, 260
-0.998152, 389, 229, 404, 260
-0.998159, 1, 1, 32, 256
-0.99816, 279, 213, 294, 244
-0.998165, 263, 233, 278, 264
-0.998165, 73, 221, 88, 252
-0.998167, 225, 41, 480, 104
-0.998168, 303, 197, 318, 228
-0.998169, 81, 161, 96, 192
-0.998179, 255, 357, 270, 388
-0.998181, 283, 181, 298, 212
-0.998182, 127, 237, 142, 268
-0.998191, 437, 265, 452, 296
-0.998192, 45, 161, 60, 192
-0.998197, 321, 137, 448, 168
-0.9982, 1, 21, 128, 52
-0.998213, 305, 149, 432, 180
-0.998229, 25, 117, 40, 148
-0.998229, 171, 261, 186, 292
-0.998237, 279, 169, 294, 200
-0.998238, 369, 113, 496, 144
-0.99824, 185, 97, 216, 352
-0.998251, 209, 97, 240, 352
-0.998258, 109, 249, 124, 280
-0.998258, 109, 313, 124, 344
-0.998259, 151, 245, 166, 276
-0.998261, 341, 301, 356, 332
-0.998262, 141, 253, 156, 284
-0.998262, 263, 285, 278, 316
-0.998263, 53, 213, 68, 244
-0.998264, 227, 361, 242, 392
-0.998266, 25, 165, 40, 196
-0.99827, 293, 233, 308, 264
-0.998272, 341, 129, 372, 384
-0.998278, 235, 261, 250, 292
-0.998279, 301, 229, 316, 260
-0.99828, 81, 129, 112, 384
-0.998286, 401, 213, 416, 244
-0.998289, 241, 65, 368, 96
-0.998293, 159, 257, 174, 288
-0.998294, 343, 197, 358, 228
-0.998301, 69, 309, 84, 340
-0.998304, 385, 205, 400, 236
-0.998305, 47, 217, 62, 248
-0.99831, 101, 305, 116, 336
-0.998311, 263, 201, 278, 232
-0.998317, 277, 185, 292, 216
-0.998317, 177, 105, 304, 136
-0.998318, 255, 157, 270, 188
-0.998319, 161, 241, 176, 272
-0.99832, 321, 285, 336, 316
-0.998323, 101, 241, 116, 272
-0.998326, 253, 265, 268, 296
-0.998326, 109, 97, 140, 352
-0.998327, 295, 169, 310, 200
-0.99833, 353, 89, 480, 120
-0.998332, 95, 313, 110, 344
-0.998341, 379, 305, 394, 336
-0.998343, 185, 265, 200, 296
-0.998345, 15, 349, 30, 380
-0.998348, 245, 83, 276, 98
-0.998349, 317, 349, 348, 364
-0.998349, 359, 205, 374, 236
-0.998349, 173, 263, 204, 278
-0.998349, 65, 251, 96, 266
-0.99835, 21, 161, 52, 176
-0.99835, 145, 303, 176, 318
-0.998351, 373, 371, 404, 386
-0.998351, 229, 167, 260, 182
-0.998351, 253, 245, 284, 260
-0.998351, 45, 297, 60, 328
-0.998352, 381, 205, 412, 220
-0.998353, 221, 361, 252, 376
-0.998353, 233, 375, 264, 390
-0.998353, 145, 237, 160, 268
-0.998353, 161, 313, 192, 328
-0.998353, 121, 317, 152, 332
-0.998354, 293, 231, 324, 246
-0.998354, 59, 325, 74, 356
-0.998354, 357, 193, 388, 208
-0.998355, 185, 237, 216, 252
-0.998355, 241, 299, 272, 314
-0.998356, 129, 301, 160, 316
-0.998357, 81, 343, 112, 358
-0.998357, 321, 183, 352, 198
-0.998358, 413, 231, 444, 246
-0.998358, 275, 201, 290, 232
-0.998359, 285, 353, 316, 368
-0.998359, 101, 339, 132, 354
-0.998359, 253, 255, 284, 270
-0.998359, 213, 373, 244, 388
-0.99836, 53, 329, 84, 344
-0.99836, 241, 169, 272, 184
-0.99836, 237, 257, 268, 272
-0.99836, 225, 261, 256, 276
-0.99836, 213, 271, 244, 286
-0.998361, 393, 359, 424, 374
-0.998362, 141, 377, 172, 392
-0.998362, 261, 285, 292, 300
-0.998363, 77, 171, 108, 186
-0.998364, 205, 237, 236, 252
-0.998364, 297, 343, 328, 358
-0.998364, 263, 269, 278, 300
-0.998364, 113, 93, 240, 124
-0.998364, 333, 219, 364, 234
-0.998365, 293, 371, 324, 386
-0.998365, 289, 199, 320, 214
-0.998365, 273, 369, 304, 384
-0.998366, 257, 273, 288, 288
-0.998367, 269, 233, 284, 264
-0.998367, 121, 377, 152, 392
-0.998368, 293, 377, 324, 392
-0.998368, 289, 361, 320, 376
-0.998369, 327, 281, 342, 312
-0.998369, 385, 293, 400, 324
-0.99837, 125, 245, 156, 260
-0.99837, 241, 311, 272, 326
-0.998373, 357, 229, 372, 260
-0.998373, 213, 253, 244, 268
-0.998374, 93, 289, 124, 304
-0.998374, 281, 177, 312, 192
-0.998374, 361, 187, 392, 202
-0.998375, 1, 129, 32, 144
-0.998375, 203, 277, 218, 308
-0.998376, 269, 201, 300, 216
-0.998376, 257, 263, 288, 278
-0.998377, 281, 375, 312, 390
-0.998377, 221, 297, 252, 312
-0.998378, 21, 209, 52, 224
-0.998378, 89, 283, 120, 298
-0.998381, 383, 357, 398, 388
-0.998381, 129, 267, 160, 282
-0.998382, 113, 309, 144, 324
-0.998383, 333, 209, 364, 224
-0.998383, 273, 355, 304, 370
-0.998383, 61, 167, 92, 182
-0.998383, 245, 177, 276, 192
-0.998384, 21, 337, 36, 368
-0.998384, 149, 259, 180, 274
-0.998385, 485, 289, 500, 320
-0.998385, 329, 197, 360, 212
-0.998385, 23, 129, 38, 160
-0.998386, 201, 259, 232, 274
-0.998386, 113, 297, 144, 312
-0.998386, 269, 157, 284, 188
-0.998387, 237, 267, 268, 282
-0.998387, 261, 235, 292, 250
-0.998388, 309, 273, 324, 304
-0.998389, 63, 165, 78, 196
-0.998389, 241, 305, 272, 320
-0.998389, 57, 161, 72, 192
-0.99839, 265, 191, 296, 206
-0.99839, 237, 369, 268, 384
-0.998392, 89, 271, 120, 286
-0.998392, 241, 293, 272, 308
-0.998393, 109, 275, 140, 290
-0.998393, 261, 229, 292, 244
-0.998393, 193, 243, 224, 258
-0.998394, 257, 87, 288, 102
-0.998395, 353, 225, 384, 240
-0.998395, 109, 285, 140, 300
-0.998396, 253, 373, 284, 388
-0.998397, 401, 225, 432, 240
-0.998399, 293, 181, 324, 196
-0.9984, 81, 243, 112, 258
-0.998403, 293, 225, 324, 240
-0.998404, 321, 191, 352, 206
-0.998405, 89, 255, 120, 270
-0.998405, 113, 303, 144, 318
-0.998406, 89, 277, 120, 292
-0.998406, 269, 211, 300, 226
-0.998411, 393, 219, 424, 234
-0.998412, 277, 219, 308, 234
-0.998413, 277, 361, 308, 376
-0.998413, 241, 171, 304, 186
-0.998414, 105, 251, 136, 266
-0.998414, 141, 129, 172, 384
-0.998415, 37, 163, 68, 178
-0.998416, 161, 61, 288, 92
-0.998417, 353, 213, 384, 228
-0.998418, 277, 231, 308, 246
-0.99842, 85, 249, 116, 264
-0.998422, 161, 263, 192, 278
-0.998425, 253, 183, 284, 198
-0.998426, 257, 183, 320, 198
-0.998431, 77, 165, 108, 180
-0.998434, 289, 219, 320, 234
-0.998434, 345, 193, 376, 208
-0.998435, 1, 73, 256, 136
-0.998435, 185, 263, 216, 278
-0.998437, 301, 195, 332, 210
-0.998438, 17, 33, 144, 64
-0.998438, 129, 239, 160, 254
-0.998442, 277, 189, 308, 204
-0.998444, 21, 127, 52, 142
-0.998445, 381, 229, 412, 244
-0.998446, 45, 217, 76, 232
-0.998448, 277, 225, 308, 240
-0.998454, 297, 187, 360, 202
-0.998456, 233, 175, 264, 190
-0.998459, 125, 97, 156, 352
-0.998463, 381, 211, 412, 226
-0.998471, 369, 227, 400, 242
-0.998474, 301, 187, 332, 202
-0.998475, 33, 165, 96, 180
-0.998476, 241, 177, 304, 192
-0.998476, 81, 129, 208, 160
-0.99849, 401, 97, 432, 352
-0.998491, 353, 219, 384, 234
-0.998492, 369, 215, 400, 230
-0.998507, 353, 211, 416, 226
-0.998508, 49, 163, 80, 178
-0.998509, 129, 259, 192, 274
-0.998511, 257, 193, 320, 208
-0.998514, 289, 193, 320, 208
-0.998515, 257, 177, 288, 192
-0.998517, 133, 253, 164, 268
-0.998519, 337, 219, 400, 234
-0.998521, 369, 129, 496, 160
-0.998522, 329, 189, 392, 204
-0.998525, 313, 217, 376, 232
-0.998526, 257, 33, 288, 288
-0.998528, 269, 173, 300, 188
-0.998529, 209, 251, 272, 266
-0.99853, 297, 193, 360, 208
-0.998539, 305, 97, 336, 352
-0.998541, 265, 173, 328, 188
-0.998542, 233, 183, 296, 198
-0.998547, 97, 249, 160, 264
-0.99855, 281, 181, 344, 196
-0.998554, 281, 227, 344, 242
-0.998561, 209, 173, 272, 188
-0.998563, 225, 277, 288, 292
-0.998563, 269, 183, 300, 198
-0.998563, 225, 271, 288, 286
-0.998563, 49, 247, 112, 262
-0.998564, 177, 261, 240, 276
-0.998564, 369, 221, 432, 236
-0.998565, 225, 371, 288, 386
-0.998567, 353, 189, 416, 204
-0.998572, 357, 33, 388, 288
-0.998572, 369, 221, 400, 236
-0.998574, 305, 209, 368, 224
-0.998574, 105, 297, 168, 312
-0.998574, 233, 289, 296, 304
-0.998575, 273, 221, 336, 236
-0.998576, 105, 255, 168, 270
-0.998576, 65, 253, 128, 268
-0.998579, 89, 263, 152, 278
-0.998579, 257, 229, 320, 244
-0.99858, 257, 291, 320, 306
-0.998582, 193, 295, 256, 310
-0.998583, 41, 253, 104, 268
-0.998588, 381, 223, 412, 238
-0.998589, 169, 243, 232, 258
-0.998589, 201, 241, 264, 256
-0.998589, 241, 355, 304, 370
-0.99859, 257, 281, 320, 296
-0.99859, 153, 263, 216, 278
-0.998591, 281, 183, 312, 198
-0.998591, 381, 217, 412, 232
-0.998593, 145, 233, 208, 248
-0.998595, 353, 205, 416, 220
-0.998596, 73, 247, 136, 262
-0.998596, 33, 171, 96, 186
-0.998597, 305, 199, 368, 214
-0.998598, 341, 187, 372, 202
-0.998598, 233, 295, 296, 310
-0.998599, 209, 265, 272, 280
-0.998599, 233, 307, 296, 322
-0.9986, 65, 163, 128, 178
-0.9986, 329, 211, 392, 226
-0.998601, 265, 199, 328, 214
-0.998602, 281, 381, 344, 396
-0.998603, 185, 375, 248, 390
-0.998603, 169, 237, 232, 252
-0.998603, 89, 273, 152, 288
-0.998604, 41, 239, 104, 254
-0.998605, 97, 241, 160, 256
-0.998606, 401, 233, 464, 248
-0.998609, 185, 273, 248, 288
-0.99861, 25, 337, 88, 352
-0.99861, 1, 335, 64, 350
-0.998611, 105, 307, 168, 322
-0.998611, 105, 291, 168, 306
-0.998611, 129, 373, 192, 388
-0.998613, 17, 353, 80, 368
-0.998614, 377, 215, 440, 230
-0.998614, 193, 307, 256, 322
-0.998616, 65, 171, 128, 186
-0.998617, 129, 303, 192, 318
-0.998617, 257, 297, 320, 312
-0.998617, 217, 313, 280, 328
-0.998617, 329, 195, 392, 210
-0.998618, 209, 257, 272, 272
-0.998618, 249, 245, 312, 260
-0.998618, 121, 241, 184, 256
-0.998618, 345, 225, 408, 240
-0.998618, 217, 355, 280, 370
-0.998618, 257, 235, 320, 250
-0.998618, 25, 219, 88, 234
-0.998618, 177, 369, 240, 384
-0.998619, 209, 301, 272, 316
-0.998621, 425, 285, 488, 300
-0.998621, 177, 229, 240, 244
-0.998622, 65, 295, 128, 310
-0.998623, 353, 101, 480, 132
-0.998624, 385, 363, 448, 378
-0.998625, 121, 275, 184, 290
-0.998625, 217, 361, 280, 376
-0.998625, 65, 287, 128, 302
-0.998626, 257, 363, 320, 378
-0.998627, 209, 331, 272, 346
-0.998627, 81, 309, 144, 324
-0.998628, 345, 183, 408, 198
-0.998629, 233, 377, 296, 392
-0.99863, 97, 285, 160, 300
-0.998631, 241, 201, 304, 216
-0.998633, 41, 375, 104, 390
-0.998633, 105, 367, 168, 382
-0.998634, 193, 361, 256, 376
-0.998635, 177, 353, 240, 368
-0.998635, 281, 207, 344, 222
-0.998635, 193, 339, 256, 354
-0.998635, 177, 345, 240, 360
-0.998636, 305, 381, 368, 396
-0.998637, 49, 349, 112, 364
-0.998637, 305, 223, 368, 238
-0.998638, 65, 315, 128, 330
-0.998638, 305, 181, 368, 196
-0.998639, 145, 343, 208, 358
-0.998639, 273, 275, 336, 290
-0.998639, 49, 331, 112, 346
-0.998639, 161, 375, 224, 390
-0.998639, 153, 253, 216, 268
-0.998639, 377, 331, 440, 346
-0.998639, 33, 213, 96, 228
-0.998639, 233, 301, 296, 316
-0.99864, 225, 87, 288, 102
-0.99864, 65, 343, 128, 358
-0.99864, 209, 179, 272, 194
-0.998641, 265, 215, 328, 230
-0.998641, 65, 237, 128, 252
-0.998641, 193, 279, 256, 294
-0.998642, 145, 337, 208, 352
-0.998642, 233, 283, 296, 298
-0.998642, 209, 285, 272, 300
-0.998642, 129, 265, 192, 280
-0.998642, 249, 267, 312, 282
-0.998642, 145, 351, 208, 366
-0.998642, 65, 273, 128, 288
-0.998642, 145, 133, 272, 164
-0.998664, 253, 169, 284, 184
-0.998672, 65, 145, 80, 272
-0.998674, 73, 161, 88, 288
-0.998677, 241, 101, 368, 132
-0.998691, 225, 145, 352, 176
-0.998727, 229, 33, 260, 288
-0.998744, 289, 161, 304, 288
-0.998779, 59, 145, 74, 272
-0.998783, 47, 145, 62, 272
-0.998816, 337, 33, 368, 288
-0.998818, 33, 9, 288, 72
-0.998821, 373, 1, 404, 256
-0.998834, 81, 33, 112, 288
-0.998851, 413, 97, 444, 352
-0.998863, 133, 225, 148, 352
-0.998869, 297, 161, 312, 288
-0.998877, 197, 65, 228, 320
-0.998897, 349, 177, 364, 304
-0.998904, 53, 145, 68, 272
-0.998915, 1, 313, 500, 376
-0.998917, 41, 145, 56, 272
-0.998919, 79, 161, 94, 288
-0.998934, 137, 33, 168, 288
-0.99894, 265, 161, 280, 288
-0.99895, 203, 225, 218, 352
-0.998965, 221, 129, 252, 384
-0.998974, 193, 241, 208, 368
-0.998982, 391, 177, 406, 304
-0.998984, 253, 177, 268, 304
-0.99899, 465, 97, 496, 352
-0.999012, 105, 1, 136, 256
-0.999014, 33, 161, 48, 288
-0.999016, 283, 177, 298, 304
-0.999016, 263, 225, 278, 352
-0.99902, 259, 161, 274, 288
-0.999028, 281, 33, 312, 288
-0.999039, 75, 209, 90, 336
-0.999043, 1, 9, 500, 72
-0.999045, 321, 33, 352, 288
-0.999049, 355, 177, 370, 304
-0.999063, 67, 209, 82, 336
-0.999072, 365, 177, 380, 304
-0.999075, 247, 177, 262, 304
-0.999076, 179, 225, 194, 352
-0.999078, 107, 257, 122, 384
-0.999078, 185, 209, 200, 336
-0.999084, 127, 209, 142, 336
-0.99909, 375, 177, 390, 304
-0.9991, 393, 1, 424, 256
-0.999108, 227, 193, 242, 320
-0.999112, 297, 209, 312, 336
-0.999114, 429, 129, 460, 384
-0.99912, 273, 177, 288, 304
-0.999138, 141, 209, 156, 336
-0.999164, 321, 129, 352, 384
-0.999164, 27, 161, 42, 288
-0.999171, 165, 1, 196, 256
-0.999172, 85, 161, 100, 288
-0.999176, 173, 225, 188, 352
-0.999176, 53, 209, 68, 336
-0.999177, 193, 177, 208, 304
-0.999184, 239, 177, 254, 304
-0.999189, 151, 209, 166, 336
-0.999194, 305, 1, 336, 256
-0.999195, 385, 177, 400, 304
-0.999197, 133, 177, 148, 304
-0.999198, 19, 161, 34, 288
-0.999198, 453, 97, 484, 352
-0.999199, 33, 113, 48, 240
-0.999199, 121, 241, 136, 368
-0.999201, 441, 97, 472, 352
-0.999202, 127, 257, 142, 384
-0.999202, 307, 209, 322, 336
-0.999207, 393, 225, 408, 352
-0.999211, 341, 161, 356, 288
-0.999218, 399, 209, 414, 336
-0.999222, 19, 113, 34, 240
-0.999224, 47, 1, 62, 128
-0.999224, 45, 209, 60, 336
-0.999243, 113, 225, 128, 352
-0.999243, 61, 193, 76, 320
-0.999244, 165, 225, 180, 352
-0.999252, 289, 113, 304, 240
-0.999254, 101, 241, 116, 368
-0.999257, 253, 241, 268, 368
-0.99926, 29, 1, 44, 128
-0.999269, 277, 129, 292, 256
-0.999272, 129, 33, 384, 96
-0.999273, 93, 1, 124, 256
-0.999281, 333, 177, 348, 304
-0.999292, 187, 257, 202, 384
-0.999293, 247, 113, 262, 240
-0.999293, 311, 161, 326, 288
-0.999304, 71, 113, 86, 240
-0.999307, 41, 97, 56, 224
-0.999308, 235, 273, 250, 398
-0.999314, 1, 17, 16, 144
-0.999325, 39, 193, 54, 320
-0.999329, 179, 177, 194, 304
-0.999329, 229, 241, 244, 368
-0.999332, 303, 129, 318, 256
-0.999334, 359, 225, 374, 352
-0.99934, 1, 145, 16, 272
-0.999342, 383, 225, 398, 352
-0.999347, 215, 209, 230, 336
-0.999348, 57, 97, 72, 224
-0.999349, 199, 177, 214, 304
-0.999349, 27, 113, 42, 240
-0.999356, 17, 17, 32, 144
-0.999361, 13, 273, 28, 398
-0.999367, 291, 209, 306, 336
-0.999369, 329, 241, 344, 368
-0.999371, 209, 209, 224, 336
-0.999371, 221, 193, 236, 320
-0.999374, 11, 145, 26, 272
-0.999375, 9, 17, 24, 144
-0.999375, 339, 209, 354, 336
-0.99938, 245, 241, 260, 368
-0.999384, 63, 81, 78, 208
-0.99939, 139, 257, 154, 384
-0.999395, 159, 225, 174, 352
-0.999397, 39, 1, 54, 128
-0.999399, 23, 17, 38, 144
-0.9994, 263, 113, 278, 240
-0.999407, 111, 177, 126, 304
-0.999414, 93, 161, 108, 288
-0.999416, 185, 145, 200, 272
-0.999416, 123, 161, 138, 288
-0.999419, 257, 113, 272, 240
-0.999419, 223, 241, 238, 368
-0.999423, 271, 129, 286, 256
-0.999424, 237, 113, 252, 240
-0.999425, 401, 145, 416, 272
-0.999427, 423, 209, 438, 336
-0.999427, 473, 225, 488, 352
-0.99943, 101, 193, 116, 320
-0.999431, 81, 209, 96, 336
-0.999433, 171, 177, 186, 304
-0.999435, 287, 257, 302, 384
-0.999438, 225, 113, 480, 176
-0.999439, 233, 193, 248, 320
-0.99944, 435, 225, 450, 352
-0.99944, 53, 1, 68, 128
-0.999441, 67, 273, 82, 398
-0.999443, 227, 145, 242, 272
-0.999445, 165, 177, 180, 304
-0.999445, 51, 97, 66, 224
-0.999446, 259, 273, 274, 398
-0.999447, 283, 113, 298, 240
-0.999447, 87, 273, 102, 398
-0.999448, 297, 113, 312, 240
-0.999454, 321, 209, 336, 336
-0.999454, 353, 129, 368, 256
-0.999455, 411, 225, 426, 352
-0.999458, 447, 225, 462, 352
-0.999459, 79, 113, 94, 240
-0.999465, 485, 209, 500, 336
-0.999466, 117, 177, 132, 304
-0.999479, 1, 113, 500, 176
-0.999559, 321, 285, 336, 300
-0.999559, 279, 199, 294, 214
-0.999559, 311, 227, 326, 242
-0.999559, 331, 381, 346, 396
-0.99956, 35, 209, 50, 224
-0.99956, 167, 313, 182, 328
-0.99956, 201, 261, 216, 276
-0.99956, 431, 233, 446, 248
-0.99956, 253, 181, 268, 196
-0.999561, 103, 281, 118, 296
-0.999561, 61, 165, 76, 180
-0.999562, 409, 359, 424, 374
-0.999563, 479, 381, 494, 396
-0.999563, 183, 265, 198, 280
-0.999563, 101, 269, 116, 284
-0.999563, 291, 217, 306, 232
-0.999563, 399, 229, 414, 244
-0.999563, 107, 253, 122, 268
-0.999564, 273, 203, 288, 218
-0.999565, 231, 373, 246, 388
-0.999565, 259, 261, 274, 276
-0.999566, 313, 219, 328, 234
-0.999567, 271, 217, 286, 232
-0.999567, 255, 255, 270, 270
-0.999568, 281, 375, 296, 390
-0.999568, 371, 215, 386, 230
-0.999568, 425, 231, 440, 246
-0.999569, 99, 341, 114, 356
-0.999569, 323, 375, 338, 390
-0.99957, 385, 371, 400, 386
-0.99957, 73, 169, 88, 184
-0.999571, 107, 297, 122, 312
-0.999571, 149, 257, 164, 272
-0.999572, 279, 221, 294, 236
-0.999573, 271, 87, 286, 102
-0.999573, 47, 209, 62, 224
-0.999573, 95, 255, 110, 270
-0.999574, 131, 275, 146, 290
-0.999574, 217, 253, 232, 268
-0.999575, 217, 1, 248, 256
-0.999575, 227, 275, 242, 290
-0.999575, 63, 219, 78, 234
-0.999575, 321, 349, 336, 364
-0.999576, 225, 375, 240, 390
-0.999577, 391, 371, 406, 386
-0.999577, 105, 259, 120, 274
-0.999577, 207, 245, 222, 260
-0.99958, 247, 259, 262, 274
-0.999581, 79, 165, 94, 180
-0.999581, 367, 227, 382, 242
-0.999581, 227, 359, 242, 374
-0.999581, 97, 247, 112, 262
-0.999581, 249, 249, 264, 264
-0.999583, 289, 365, 304, 380
-0.999584, 399, 217, 414, 232
-0.999584, 425, 33, 456, 288
-0.999584, 307, 183, 322, 198
-0.999585, 303, 215, 318, 230
-0.999586, 303, 231, 318, 246
-0.999588, 223, 269, 238, 284
-0.999588, 285, 219, 300, 234
-0.999589, 163, 261, 178, 276
-0.999589, 51, 215, 66, 230
-0.999589, 255, 247, 270, 262
-0.99959, 31, 125, 46, 140
-0.99959, 345, 193, 360, 208
-0.999591, 321, 381, 336, 396
-0.999591, 341, 187, 356, 202
-0.999591, 201, 241, 216, 256
-0.999594, 37, 169, 52, 184
-0.999594, 297, 223, 312, 238
-0.999595, 383, 229, 398, 244
-0.999596, 395, 223, 410, 238
-0.999597, 263, 235, 278, 250
-0.999599, 265, 229, 280, 244
-0.999601, 281, 355, 296, 370
-0.999601, 43, 165, 58, 180
-0.999601, 25, 127, 40, 142
-0.999601, 361, 213, 376, 228
-0.999602, 27, 177, 42, 192
-0.999602, 257, 187, 272, 202
-0.999602, 133, 237, 148, 252
-0.999602, 171, 263, 186, 278
-0.999604, 53, 163, 68, 178
-0.999604, 281, 363, 296, 378
-0.999605, 277, 227, 292, 242
-0.999605, 287, 185, 302, 200
-0.999608, 357, 191, 372, 206
-0.999608, 301, 187, 316, 202
-0.999609, 267, 183, 282, 198
-0.99961, 287, 375, 302, 390
-0.999611, 293, 195, 308, 210
-0.999611, 133, 253, 148, 268
-0.999611, 289, 359, 304, 374
-0.999612, 297, 231, 312, 246
-0.999613, 287, 191, 302, 206
-0.999615, 375, 229, 390, 244
-0.99962, 291, 227, 306, 242
-0.99962, 341, 199, 356, 214
-0.999621, 303, 225, 318, 240
-0.999625, 389, 229, 404, 244
-0.999626, 189, 263, 204, 278
-0.999627, 155, 259, 170, 274
-0.999629, 67, 165, 82, 180
-0.99963, 279, 175, 294, 190
-0.999631, 101, 253, 116, 268
-0.999631, 349, 217, 364, 232
-0.999637, 225, 17, 480, 80
-0.999641, 249, 171, 264, 186
-0.999642, 361, 225, 376, 240
-0.999643, 355, 225, 370, 240
-0.999644, 271, 171, 286, 186
-0.999645, 383, 215, 398, 230
-0.999645, 265, 171, 280, 186
-0.999645, 247, 177, 262, 192
-0.999649, 273, 185, 288, 200
-0.99965, 57, 217, 72, 232
-0.999652, 393, 207, 408, 222
-0.999655, 289, 179, 304, 194
-0.999658, 285, 229, 300, 244
-0.999667, 339, 193, 354, 208
-0.999668, 355, 215, 370, 230
-0.999669, 181, 1, 212, 256
-0.999673, 255, 169, 270, 184
-0.999687, 281, 181, 296, 196
-0.999707, 271, 177, 286, 192
-0.99971, 125, 1, 156, 256
-0.999711, 389, 223, 404, 238
-0.999712, 301, 193, 316, 208
-0.999716, 1, 65, 500, 128
-0.999717, 371, 221, 386, 236
-0.999737, 295, 183, 310, 198
-0.999738, 379, 221, 394, 236
-0.999754, 177, 9, 304, 72
-0.999764, 361, 219, 376, 234
-0.999784, 97, 9, 224, 72
-0.999796, 347, 187, 362, 202
-0.999797, 1, 41, 500, 104
-0.999809, 389, 217, 404, 232
-0.999862, 149, 1, 180, 256
-0.999967, 413, 1, 444, 256
-1.00002, 461, 1, 492, 256
-1.00029, 441, 1, 472, 256
-1.00041, 353, 49, 416, 176
-1.00096, 129, 9, 384, 72
