1954
-0.227143, 1, 1, 500, 375
-0.372446, 1, 33, 500, 288
-0.401441, 161, 1, 416, 375
-0.460402, 65, 1, 320, 375
-0.468712, 1, 129, 500, 375
-0.523577, 257, 1, 500, 375
-0.615655, 225, 33, 480, 288
-0.64054, 65, 33, 320, 288
-0.664655, 225, 129, 480, 375
-0.713831, 65, 129, 320, 375
-0.840557, 321, 1, 448, 256
-0.850239, 193, 1, 320, 375
-0.853833, 145, 1, 272, 375
-0.855496, 241, 1, 368, 375
-0.860107, 369, 129, 496, 375
-0.863998, 225, 33, 352, 288
-0.869604, 369, 1, 496, 256
-0.874014, 97, 1, 224, 375
-0.874421, 97, 33, 224, 288
-0.877588, 177, 33, 304, 288
-0.879067, 353, 1, 480, 375
-0.886781, 321, 97, 448, 352
-0.887451, 305, 1, 432, 375
-0.887727, 1, 1, 128, 375
-0.888528, 241, 129, 368, 375
-0.890451, 49, 1, 176, 375
-0.896265, 273, 33, 400, 288
-0.89791, 145, 129, 272, 375
-0.898568, 1, 49, 500, 176
-0.898735, 49, 33, 176, 288
-0.905969, 1, 33, 128, 288
-0.906245, 1, 113, 500, 240
-0.909335, 193, 129, 320, 375
-0.91305, 161, 65, 416, 192
-0.915277, 65, 129, 192, 375
-0.923658, 1, 129, 128, 375
-0.924846, 225, 113, 480, 240
-0.929738, 257, 49, 500, 176
-0.931331, 65, 65, 320, 192
-0.931665, 1, 209, 500, 336
-0.934377, 1, 161, 500, 288
-0.936283, 225, 1, 480, 128
-0.936587, 337, 97, 464, 224
-0.938009, 433, 49, 496, 176
-0.938328, 201, 65, 264, 192
-0.939972, 161, 65, 288, 192
-0.940338, 321, 49, 448, 176
-0.942653, 369, 49, 496, 176
-0.943299, 1, 1, 500, 128
-0.943859, 241, 65, 368, 192
-0.944368, 65, 113, 320, 240
-0.945165, 161, 225, 416, 352
-0.946541, 225, 177, 480, 304
-0.946804, 65, 209, 320, 336
-0.947073, 337, 1, 464, 128
-0.94713, 393, 1, 456, 128
-0.947169, 393, 113, 456, 240
-0.948389, 369, 145, 496, 272
-0.948935, 409, 49, 472, 176
-0.949423, 433, 1, 496, 128
-0.949938, 241, 65, 304, 192
-0.950228, 433, 97, 496, 224
-0.950916, 361, 65, 424, 192
-0.951886, 385, 49, 448, 176
-0.952402, 361, 1, 424, 128
-0.953125, 161, 129, 288, 256
-0.954793, 193, 209, 320, 336
-0.954874, 1, 161, 256, 288
-0.954898, 161, 49, 224, 176
-0.955203, 313, 49, 376, 176
-0.955217, 97, 65, 224, 192
-0.957676, 337, 49, 400, 176
-0.957957, 145, 209, 272, 336
-0.958285, 201, 57, 264, 120
-0.958365, 433, 105, 496, 168
-0.958719, 321, 145, 448, 272
-0.959318, 337, 1, 400, 128
-0.95938, 393, 137, 456, 200
-0.959484, 273, 65, 336, 192
-0.959531, 209, 209, 272, 336
-0.959848, 369, 129, 432, 256
-0.959852, 97, 177, 224, 304
-0.960489, 433, 137, 496, 200
-0.960824, 241, 209, 368, 336
-0.961586, 241, 113, 368, 240
-0.961698, 169, 145, 232, 272
-0.96222, 129, 161, 384, 288
-0.962366, 393, 113, 456, 176
-0.962461, 401, 161, 464, 288
-0.96282, 49, 49, 176, 176
-0.96321, 65, 17, 320, 144
-0.963643, 209, 121, 272, 184
-0.96376, 241, 161, 368, 288
-0.964084, 329, 145, 392, 272
-0.964614, 161, 97, 224, 224
-0.96464, 113, 113, 240, 240
-0.964784, 113, 161, 176, 288
-0.964957, 393, 169, 456, 232
-0.965039, 1, 49, 128, 176
-0.965859, 209, 113, 272, 240
-0.966331, 289, 1, 416, 128
-0.966502, 433, 65, 496, 128
-0.966869, 177, 225, 240, 352
-0.966982, 433, 1, 496, 256
-0.96707, 137, 65, 200, 192
-0.96707, 137, 177, 200, 304
-0.967082, 97, 49, 160, 176
-0.967261, 313, 97, 376, 224
-0.967414, 369, 161, 432, 224
-0.967454, 201, 97, 264, 160
-0.96806, 49, 161, 176, 288
-0.968132, 209, 241, 272, 304
-0.968474, 433, 145, 496, 272
-0.968478, 209, 265, 272, 328
-0.968834, 369, 209, 496, 336
-0.968955, 49, 65, 112, 192
-0.969064, 377, 1, 440, 256
-0.9691, 257, 225, 500, 352
-0.969107, 249, 209, 312, 336
-0.96951, 369, 137, 432, 200
-0.969541, 201, 17, 264, 144
-0.969665, 225, 17, 352, 144
-0.969755, 241, 113, 304, 240
-0.970211, 145, 17, 272, 144
-0.970219, 209, 33, 272, 288
-0.970353, 409, 1, 472, 256
-0.97048, 421, 97, 452, 224
-0.970525, 73, 49, 136, 176
-0.97072, 241, 121, 304, 184
-0.97073, 137, 113, 200, 240
-0.970908, 1, 209, 128, 336
-0.971178, 73, 145, 136, 272
-0.971211, 337, 1, 400, 256
-0.97175, 49, 225, 176, 352
-0.971852, 369, 57, 432, 120
-0.971969, 241, 65, 304, 128
-0.972013, 209, 161, 272, 288
-0.972538, 369, 105, 432, 168
-0.972793, 409, 57, 472, 120
-0.972817, 289, 209, 416, 336
-0.972839, 289, 97, 416, 224
-0.97298, 297, 161, 360, 224
-0.973247, 145, 225, 208, 352
-0.973364, 337, 137, 464, 200
-0.973467, 393, 89, 456, 152
-0.973585, 305, 209, 368, 336
-0.973907, 25, 209, 88, 336
-0.973909, 417, 105, 448, 168
-0.973954, 89, 161, 152, 224
-0.973959, 433, 161, 496, 224
-0.973961, 369, 161, 496, 224
-0.974012, 337, 169, 400, 232
-0.974052, 297, 33, 360, 288
-0.974118, 369, 265, 432, 328
-0.974121, 393, 129, 456, 375
-0.974173, 369, 209, 432, 336
-0.974383, 209, 209, 272, 272
-0.9745, 281, 161, 344, 288
-0.974721, 1, 49, 64, 176
-0.974988, 369, 105, 496, 168
-0.975265, 329, 145, 392, 208
-0.975334, 65, 113, 192, 240
-0.97548, 241, 33, 304, 288
-0.975573, 421, 129, 452, 192
-0.975662, 289, 113, 352, 240
-0.975697, 169, 57, 232, 120
-0.975917, 273, 137, 336, 200
-0.975936, 121, 185, 184, 248
-0.975941, 169, 33, 232, 288
-0.976133, 1, 225, 64, 352
-0.976275, 169, 161, 232, 224
-0.9763, 169, 129, 232, 375
-0.976343, 209, 153, 272, 216
-0.976523, 461, 1, 492, 128
-0.976546, 337, 97, 400, 224
-0.976573, 469, 49, 500, 176
-0.976707, 409, 209, 472, 336
-0.976726, 169, 201, 232, 264
-0.976832, 177, 273, 240, 336
-0.976962, 273, 33, 336, 288
-0.977029, 329, 209, 392, 336
-0.977075, 97, 17, 224, 144
-0.977108, 121, 225, 184, 352
-0.977145, 241, 17, 304, 144
-0.97722, 273, 209, 336, 336
-0.977249, 197, 65, 228, 192
-0.977278, 233, 273, 296, 336
-0.977285, 249, 65, 280, 192
-0.977372, 433, 97, 496, 352
-0.977387, 1, 145, 128, 272
-0.977431, 193, 57, 320, 120
-0.977453, 337, 57, 400, 120
-0.977483, 97, 225, 224, 352
-0.977602, 433, 209, 496, 336
-0.977632, 329, 121, 392, 184
-0.977661, 57, 225, 120, 352
-0.977704, 177, 233, 240, 296
-0.97775, 421, 49, 452, 176
-0.977837, 297, 129, 360, 375
-0.977924, 97, 97, 160, 224
-0.978031, 369, 65, 496, 128
-0.978173, 193, 121, 320, 184
-0.978191, 425, 1, 456, 128
-0.978256, 25, 49, 88, 176
-0.97839, 137, 33, 200, 288
-0.978487, 209, 1, 272, 375
-0.978517, 409, 265, 472, 328
-0.978529, 1, 97, 128, 224
-0.978532, 361, 193, 424, 256
-0.978613, 81, 209, 144, 336
-0.978665, 441, 49, 472, 176
-0.978687, 193, 265, 320, 328
-0.978901, 409, 297, 472, 360
-0.97907, 297, 137, 360, 200
-0.979274, 209, 177, 272, 240
-0.97958, 81, 33, 144, 288
-0.979714, 145, 57, 272, 120
-0.979735, 169, 121, 232, 184
-0.979869, 113, 33, 176, 288
-0.9799, 405, 49, 436, 176
-0.980025, 413, 1, 444, 128
-0.98008, 241, 129, 368, 192
-0.98011, 369, 1, 400, 128
-0.980449, 393, 193, 456, 256
-0.980452, 73, 65, 136, 128
-0.980477, 169, 97, 232, 160
-0.980635, 241, 145, 304, 208
-0.980678, 337, 193, 400, 256
-0.980707, 321, 169, 448, 232
-0.980773, 49, 161, 112, 288
-0.980809, 209, 129, 272, 375
-0.980854, 381, 1, 412, 128
-0.980955, 193, 241, 320, 304
-0.980965, 369, 185, 496, 248
-0.980969, 313, 1, 376, 128
-0.981121, 217, 49, 248, 176
-0.981133, 313, 273, 376, 336
-0.981155, 193, 209, 320, 272
-0.981397, 401, 1, 432, 128
-0.98142, 313, 57, 376, 120
-0.981479, 409, 97, 440, 224
-0.981614, 193, 145, 320, 208
-0.981655, 145, 265, 272, 328
-0.981673, 281, 57, 344, 120
-0.981735, 41, 145, 104, 208
-0.981736, 353, 49, 384, 176
-0.981738, 365, 49, 396, 176
-0.981751, 369, 129, 432, 375
-0.981864, 233, 161, 296, 288
-0.982011, 217, 57, 248, 120
-0.982081, 433, 1, 496, 375
-0.982139, 433, 185, 496, 248
-0.982158, 241, 161, 368, 224
-0.98218, 65, 185, 128, 248
-0.982245, 73, 209, 136, 272
-0.982258, 441, 1, 472, 128
-0.982259, 169, 1, 232, 375
-0.982286, 81, 281, 144, 344
-0.982473, 321, 81, 448, 144
-0.982505, 241, 241, 304, 304
-0.982531, 321, 113, 448, 176
-0.98254, 317, 49, 348, 176
-0.982576, 137, 161, 200, 224
-0.982578, 357, 1, 388, 128
-0.982597, 297, 49, 328, 176
-0.982639, 465, 57, 496, 120
-0.982795, 273, 17, 336, 144
-0.982858, 385, 297, 448, 360
-0.982863, 321, 129, 384, 375
-0.982962, 33, 65, 96, 128
-0.983, 265, 113, 328, 240
-0.983001, 229, 49, 260, 176
-0.983009, 97, 57, 160, 120
-0.983049, 241, 97, 304, 160
-0.983125, 333, 49, 364, 176
-0.983151, 261, 65, 292, 192
-0.983178, 433, 225, 496, 288
-0.983256, 369, 81, 432, 144
-0.983275, 425, 161, 456, 288
-0.9833, 153, 281, 216, 344
-0.983322, 137, 17, 200, 144
-0.983342, 145, 121, 272, 184
-0.983374, 161, 97, 288, 160
-0.983438, 113, 185, 240, 248
-0.98344, 113, 241, 240, 304
-0.983473, 145, 57, 208, 120
-0.983505, 385, 49, 416, 176
-0.983539, 241, 1, 304, 375
-0.983581, 421, 177, 452, 240
-0.98359, 65, 161, 128, 224
-0.983599, 305, 57, 432, 120
-0.983672, 249, 121, 280, 184
-0.983675, 241, 57, 368, 120
-0.983714, 145, 209, 272, 272
-0.983726, 345, 265, 408, 328
-0.983745, 433, 265, 496, 328
-0.983832, 181, 65, 212, 192
-0.983834, 113, 153, 176, 216
-0.983845, 413, 161, 444, 288
-0.983854, 401, 169, 432, 232
-0.983882, 273, 65, 304, 192
-0.983909, 241, 209, 304, 272
-0.983912, 1, 65, 64, 128
-0.983945, 81, 161, 208, 224
-0.983976, 113, 209, 176, 272
-0.983978, 401, 145, 432, 272
-0.984016, 257, 265, 320, 328
-0.984051, 305, 185, 368, 248
-0.984089, 197, 113, 228, 240
-0.984134, 145, 153, 272, 216
-0.984141, 121, 57, 184, 120
-0.984254, 273, 129, 336, 375
-0.984272, 201, 265, 232, 328
-0.984314, 57, 281, 120, 344
-0.984319, 241, 273, 368, 336
-0.984345, 465, 105, 496, 168
-0.984364, 241, 185, 368, 248
-0.984496, 413, 153, 444, 216
-0.984521, 169, 65, 200, 192
-0.984583, 33, 217, 96, 280
-0.98465, 409, 1, 472, 375
-0.984681, 425, 17, 488, 80
-0.984694, 233, 41, 296, 104
-0.9848, 161, 185, 288, 248
-0.98483, 385, 233, 448, 296
-0.984921, 197, 65, 228, 128
-0.985029, 229, 57, 260, 120
-0.985065, 273, 161, 336, 224
-0.985078, 285, 65, 316, 192
-0.985086, 305, 161, 368, 288
-0.985161, 313, 209, 376, 272
-0.985211, 289, 273, 352, 336
-0.985271, 453, 49, 484, 176
-0.985287, 297, 233, 360, 296
-0.985491, 81, 137, 144, 200
-0.985601, 197, 129, 228, 192
-0.98572, 297, 1, 360, 375
-0.985851, 257, 161, 320, 288
-0.985879, 97, 1, 160, 375
-0.985971, 145, 217, 208, 280
-0.985984, 157, 65, 188, 192
-0.986022, 145, 49, 176, 176
-0.986027, 245, 57, 276, 120
-0.986029, 241, 241, 368, 304
-0.986084, 433, 41, 496, 104
-0.986137, 353, 265, 480, 328
-0.98617, 101, 49, 132, 176
-0.986221, 409, 233, 472, 296
-0.986284, 417, 65, 448, 128
-0.986329, 73, 241, 136, 304
-0.986332, 241, 105, 368, 168
-0.986354, 273, 193, 336, 256
-0.986389, 105, 281, 168, 344
-0.986394, 289, 273, 416, 336
-0.986432, 129, 281, 192, 344
-0.986442, 209, 305, 272, 368
-0.986444, 73, 97, 136, 224
-0.986475, 97, 57, 224, 120
-0.986548, 25, 1, 88, 375
-0.98657, 169, 1, 232, 128
-0.986571, 41, 33, 104, 288
-0.986582, 197, 177, 228, 304
-0.986594, 401, 17, 464, 80
-0.986676, 125, 49, 156, 176
-0.986737, 121, 241, 184, 304
-0.986741, 289, 145, 416, 208
-0.986762, 349, 97, 380, 224
-0.986769, 65, 185, 192, 248
-0.986821, 425, 153, 456, 216
-0.986837, 241, 209, 368, 272
-0.987016, 273, 1, 336, 375
-0.987021, 81, 65, 112, 192
-0.987055, 329, 1, 392, 375
-0.987092, 389, 57, 420, 120
-0.987154, 337, 233, 400, 296
-0.987157, 345, 129, 408, 375
-0.987161, 49, 281, 176, 344
-0.987176, 345, 17, 408, 80
-0.987228, 49, 1, 112, 375
-0.987264, 121, 1, 184, 375
-0.987304, 329, 161, 360, 224
-0.987343, 153, 249, 216, 312
-0.987368, 249, 169, 312, 232
-0.987382, 365, 113, 396, 240
-0.987443, 33, 273, 96, 336
-0.987497, 369, 17, 432, 80
-0.987501, 401, 105, 432, 168
-0.987517, 361, 57, 392, 120
-0.987552, 17, 65, 144, 128
-0.987564, 317, 97, 348, 224
-0.987711, 341, 1, 372, 128
-0.987739, 33, 1, 160, 128
-0.987766, 269, 121, 300, 184
-0.987783, 249, 273, 280, 336
-0.98784, 197, 161, 228, 224
-0.98788, 289, 193, 416, 256
-0.987904, 145, 1, 208, 375
-0.98799, 73, 1, 136, 375
-0.987994, 405, 193, 436, 256
-0.988021, 41, 49, 72, 176
-0.988095, 69, 49, 100, 176
-0.988116, 201, 241, 232, 304
-0.988171, 341, 145, 372, 272
-0.988199, 465, 129, 496, 192
-0.988217, 353, 145, 384, 272
-0.988268, 145, 185, 208, 248
-0.988294, 185, 113, 216, 240
-0.988305, 365, 169, 396, 232
-0.988344, 401, 145, 432, 208
-0.988408, 329, 97, 360, 224
-0.988457, 81, 129, 144, 375
-0.988468, 97, 281, 224, 344
-0.988474, 241, 129, 304, 375
-0.988499, 465, 145, 496, 272
-0.988515, 145, 137, 208, 200
-0.988546, 1, 217, 64, 280
-0.988553, 317, 121, 348, 184
-0.98861, 149, 113, 180, 240
-0.988629, 369, 1, 432, 375
-0.988634, 345, 169, 376, 232
-0.988653, 225, 81, 352, 144
-0.988664, 273, 105, 336, 168
-0.988696, 201, 241, 232, 368
-0.988744, 17, 161, 144, 224
-0.9888, 165, 177, 196, 304
-0.988874, 369, 225, 496, 288
-0.988877, 317, 161, 348, 224
-0.988957, 89, 185, 152, 248
-0.988994, 1, 281, 128, 344
-0.989046, 201, 217, 232, 280
-0.989047, 17, 249, 80, 312
-0.98907, 49, 209, 176, 272
-0.989121, 33, 121, 96, 184
-0.989134, 217, 209, 248, 336
-0.98916, 97, 217, 224, 280
-0.989219, 437, 65, 468, 128
-0.98925, 85, 145, 116, 208
-0.989317, 1, 289, 64, 352
-0.989318, 249, 241, 280, 368
-0.989322, 433, 121, 496, 152
-0.989326, 369, 41, 496, 104
-0.989356, 381, 97, 412, 224
-0.98936, 373, 57, 404, 120
-0.989368, 1, 33, 64, 288
-0.989452, 57, 49, 88, 176
-0.989457, 1, 1, 64, 375
-0.989484, 17, 49, 48, 176
-0.989535, 201, 33, 264, 96
-0.989556, 353, 145, 384, 208
-0.989563, 273, 217, 336, 280
-0.989575, 161, 289, 288, 352
-0.989578, 113, 129, 176, 375
-0.98958, 393, 113, 456, 144
-0.989736, 401, 57, 432, 120
-0.989741, 465, 209, 496, 336
-0.989755, 65, 241, 192, 304
-0.989777, 433, 137, 496, 168
-0.98978, 157, 225, 188, 352
-0.98979, 249, 113, 280, 240
-0.989824, 353, 1, 480, 64
-0.989842, 41, 113, 104, 240
-0.989861, 201, 121, 264, 152
-0.989875, 97, 241, 160, 304
-0.989906, 405, 81, 436, 144
-0.989929, 393, 125, 456, 156
-0.989949, 265, 241, 328, 304
-0.989951, 393, 145, 456, 176
-0.990022, 49, 17, 112, 144
-0.990023, 297, 137, 328, 200
-0.990027, 429, 105, 460, 168
-0.990035, 113, 81, 240, 144
-0.990041, 213, 273, 244, 336
-0.990046, 289, 233, 416, 296
-0.990047, 1, 137, 128, 200
-0.990064, 433, 149, 496, 180
-0.990068, 433, 105, 496, 136
-0.990074, 1, 49, 32, 176
-0.990093, 197, 193, 228, 256
-0.99012, 257, 41, 320, 104
-0.990123, 465, 97, 496, 224
-0.99013, 73, 145, 104, 208
-0.990151, 113, 49, 144, 176
-0.990153, 393, 157, 456, 188
-0.990181, 169, 129, 232, 160
-0.990185, 185, 297, 248, 360
-0.990196, 201, 65, 264, 96
-0.990202, 217, 233, 248, 296
-0.990227, 249, 17, 280, 144
-0.990249, 361, 233, 424, 296
-0.990255, 149, 177, 180, 240
-0.990292, 49, 241, 112, 304
-0.990295, 145, 129, 208, 160
-0.990302, 41, 169, 104, 232
-0.990341, 453, 57, 484, 120
-0.99037, 393, 169, 456, 200
-0.990409, 29, 49, 60, 176
-0.990412, 381, 201, 412, 264
-0.990458, 105, 129, 168, 160
-0.990477, 425, 273, 456, 336
-0.990478, 265, 209, 296, 336
-0.990481, 169, 33, 232, 96
-0.990511, 209, 269, 272, 300
-0.990513, 329, 121, 360, 184
-0.990543, 433, 161, 496, 192
-0.990543, 369, 137, 432, 168
-0.990553, 393, 181, 456, 212
-0.990589, 433, 113, 464, 240
-0.99063, 413, 273, 444, 336
-0.990632, 109, 209, 140, 336
-0.990641, 241, 129, 304, 160
-0.990669, 197, 17, 228, 144
-0.990703, 169, 225, 200, 352
-0.990711, 25, 209, 56, 336
-0.990712, 345, 121, 376, 184
-0.99073, 277, 113, 308, 240
-0.990739, 317, 225, 348, 352
-0.990743, 369, 161, 432, 192
-0.990789, 209, 137, 272, 168
-0.990793, 333, 57, 364, 120
-0.990807, 305, 97, 336, 224
-0.990824, 153, 161, 184, 288
-0.990827, 313, 129, 376, 160
-0.990839, 273, 57, 304, 120
-0.990867, 305, 225, 336, 352
-0.990882, 385, 177, 416, 240
-0.990949, 437, 153, 468, 216
-0.990962, 17, 145, 80, 272
-0.990981, 201, 97, 264, 128
-0.991019, 441, 121, 472, 184
-0.991036, 169, 117, 232, 148
-0.991071, 197, 97, 228, 160
-0.991085, 57, 129, 120, 375
-0.991093, 81, 133, 144, 164
-0.991127, 201, 149, 264, 180
-0.991143, 237, 265, 268, 328
-0.991153, 369, 149, 432, 180
-0.991157, 201, 109, 264, 140
-0.991166, 201, 197, 264, 228
-0.991185, 209, 241, 272, 272
-0.991186, 385, 153, 416, 216
-0.99122, 97, 137, 224, 200
-0.991234, 201, 85, 264, 116
-0.991241, 89, 113, 120, 240
-0.99126, 225, 33, 352, 96
-0.991309, 209, 225, 272, 256
-0.991335, 177, 213, 240, 244
-0.991365, 465, 153, 496, 216
-0.991365, 209, 257, 272, 288
-0.991379, 209, 209, 272, 240
-0.991381, 137, 129, 200, 375
-0.991394, 425, 173, 488, 204
-0.991396, 281, 129, 344, 160
-0.991403, 117, 161, 148, 224
-0.991423, 293, 225, 324, 352
-0.991427, 73, 181, 136, 212
-0.991427, 101, 65, 132, 128
-0.99143, 305, 17, 432, 80
-0.991436, 329, 273, 360, 336
-0.991445, 1, 209, 128, 272
-0.991445, 377, 69, 440, 100
-0.991446, 13, 65, 44, 128
-0.991446, 17, 257, 144, 320
-0.991497, 265, 113, 296, 240
-0.991517, 361, 125, 424, 156
-0.991518, 425, 269, 488, 300
-0.991518, 85, 65, 116, 128
-0.991518, 249, 145, 280, 208
-0.991524, 393, 101, 456, 132
-0.991566, 301, 57, 332, 120
-0.991611, 89, 165, 152, 196
-0.991624, 465, 185, 496, 248
-0.991643, 165, 57, 196, 120
-0.991656, 209, 161, 272, 192
-0.991672, 337, 173, 400, 204
-0.991687, 125, 161, 156, 288
-0.991694, 57, 225, 88, 352
-0.991697, 169, 281, 232, 312
-0.991719, 169, 65, 232, 96
-0.991724, 177, 241, 240, 272
-0.991729, 313, 169, 376, 200
-0.991735, 369, 269, 432, 300
-0.991756, 369, 173, 432, 204
-0.991776, 17, 1, 80, 128
-0.99179, 233, 305, 296, 368
-0.991814, 225, 129, 480, 192
-0.991816, 433, 61, 496, 92
-0.991823, 129, 181, 192, 212
-0.991832, 169, 201, 232, 232
-0.991845, 297, 105, 360, 168
-0.991851, 169, 141, 232, 172
-0.991872, 49, 153, 112, 184
-0.991877, 285, 137, 316, 200
-0.991904, 353, 297, 416, 360
-0.991925, 241, 141, 304, 172
-0.991925, 313, 273, 376, 304
-0.991927, 233, 61, 296, 92
-0.991937, 345, 57, 376, 120
-0.991952, 261, 57, 292, 120
-0.991959, 433, 193, 496, 224
-0.991988, 97, 117, 160, 148
-0.991997, 413, 233, 444, 296
-0.992002, 249, 273, 312, 304
-0.992006, 209, 185, 272, 216
-0.992022, 145, 117, 208, 148
-0.992024, 73, 153, 136, 184
-0.992028, 237, 241, 268, 368
-0.992036, 169, 169, 232, 200
-0.992042, 337, 129, 400, 160
-0.992044, 377, 205, 440, 236
-0.992055, 261, 265, 292, 328
-0.992055, 297, 181, 360, 212
-0.992056, 369, 97, 432, 128
-0.992059, 321, 57, 352, 120
-0.992063, 393, 193, 456, 224
-0.992064, 401, 61, 464, 92
-0.992065, 393, 269, 456, 300
-0.992067, 121, 121, 184, 184
-0.992076, 341, 145, 372, 208
-0.99209, 41, 289, 104, 320
-0.992112, 317, 145, 348, 272
-0.992133, 329, 69, 392, 100
-0.992143, 177, 225, 240, 256
-0.99215, 401, 265, 432, 328
-0.992156, 241, 73, 304, 104
-0.992158, 33, 305, 96, 368
-0.99216, 345, 81, 408, 144
-0.992167, 121, 117, 184, 148
-0.992187, 273, 273, 336, 304
-0.992195, 113, 33, 240, 96
-0.992197, 241, 193, 304, 224
-0.992198, 241, 117, 304, 148
-0.9922, 145, 153, 176, 216
-0.992206, 169, 97, 232, 128
-0.992206, 169, 153, 232, 184
-0.99221, 365, 137, 396, 200
-0.992217, 381, 265, 412, 328
-0.992218, 345, 269, 408, 300
-0.992219, 329, 141, 392, 172
-0.992221, 89, 193, 152, 224
-0.992229, 73, 1, 136, 128
-0.992238, 1, 233, 128, 296
-0.992255, 9, 293, 72, 324
-0.992256, 393, 89, 456, 120
-0.99226, 233, 205, 296, 236
-0.992262, 369, 81, 432, 112
-0.992262, 337, 193, 400, 224
-0.992265, 81, 289, 144, 320
-0.992267, 105, 217, 136, 280
-0.992271, 369, 109, 432, 140
-0.992279, 237, 121, 268, 184
-0.992288, 409, 301, 472, 332
-0.992292, 209, 97, 240, 224
-0.992298, 417, 89, 480, 120
-0.992298, 169, 181, 232, 212
-0.992299, 209, 281, 272, 312
-0.992309, 313, 33, 376, 96
-0.99231, 385, 301, 448, 332
-0.992317, 181, 281, 212, 344
-0.99232, 65, 65, 96, 128
-0.992327, 121, 285, 184, 316
-0.992352, 433, 209, 496, 240
-0.992353, 361, 193, 392, 256
-0.992362, 273, 169, 336, 200
-0.992377, 281, 33, 344, 96
-0.99238, 49, 121, 112, 152
-0.99241, 161, 33, 288, 96
-0.992411, 177, 269, 240, 300
-0.992412, 421, 109, 452, 140
-0.992413, 93, 121, 124, 184
-0.992415, 225, 297, 352, 360
-0.992418, 281, 117, 344, 148
-0.992424, 353, 213, 416, 244
-0.992426, 353, 61, 416, 92
-0.992426, 421, 121, 452, 152
-0.992428, 469, 81, 500, 144
-0.992434, 1, 185, 128, 248
-0.992438, 161, 65, 416, 128
-0.992439, 89, 281, 120, 344
-0.992443, 397, 97, 428, 224
-0.99246, 121, 213, 184, 244
-0.992462, 433, 229, 496, 260
-0.992463, 177, 253, 240, 284
-0.992473, 113, 165, 176, 196
-0.992478, 41, 65, 72, 128
-0.992486, 241, 237, 304, 268
-0.992494, 17, 41, 80, 104
-0.992503, 289, 61, 352, 92
-0.992509, 285, 57, 316, 120
-0.992523, 169, 85, 232, 116
-0.992538, 57, 169, 120, 200
-0.992539, 289, 233, 352, 264
-0.992546, 329, 205, 392, 236
-0.99255, 289, 297, 416, 360
-0.992552, 57, 197, 120, 228
-0.992556, 409, 329, 472, 360
-0.992565, 233, 169, 296, 200
-0.992568, 41, 225, 72, 352
-0.992571, 369, 185, 432, 216
-0.992573, 301, 161, 332, 224
-0.992588, 69, 225, 100, 352
-0.992589, 257, 61, 320, 92
-0.992596, 77, 145, 108, 272
-0.992596, 381, 209, 412, 336
-0.992596, 145, 65, 208, 96
-0.992602, 9, 157, 72, 188
-0.992608, 433, 73, 496, 104
-0.992609, 353, 225, 416, 256
-0.992619, 401, 217, 464, 248
-0.99262, 105, 65, 168, 96
-0.992622, 65, 241, 128, 272
-0.992627, 145, 281, 208, 312
-0.992629, 145, 165, 208, 196
-0.992633, 177, 57, 208, 120
-0.992647, 361, 225, 392, 352
-0.992677, 445, 209, 476, 336
-0.992679, 121, 57, 152, 120
-0.992696, 1, 65, 32, 128
-0.992704, 93, 133, 124, 164
-0.99272, 317, 129, 348, 160
-0.992731, 197, 129, 228, 160
-0.992734, 409, 109, 440, 140
-0.992738, 225, 201, 480, 264
-0.992739, 217, 193, 248, 256
-0.992744, 161, 161, 416, 224
-0.992746, 145, 129, 176, 160
-0.992755, 253, 241, 284, 304
-0.992778, 157, 125, 188, 156
-0.992783, 117, 129, 148, 160
-0.992803, 277, 209, 308, 336
-0.992806, 421, 133, 452, 164
-0.992824, 17, 41, 144, 104
-0.992834, 149, 57, 180, 120
-0.992847, 337, 193, 368, 256
-0.992851, 421, 145, 452, 176
-0.992852, 329, 129, 360, 160
-0.992874, 101, 281, 132, 344
-0.992884, 453, 105, 484, 168
-0.992889, 129, 129, 160, 160
-0.992891, 173, 129, 204, 160
-0.992897, 349, 209, 380, 336
-0.992918, 317, 273, 348, 336
-0.992929, 249, 129, 280, 160
-0.992971, 421, 157, 452, 188
-0.992976, 405, 173, 436, 204
-0.992977, 185, 129, 216, 160
-0.99298, 201, 277, 232, 308
-0.992988, 249, 161, 280, 288
-0.992997, 105, 129, 136, 160
-0.993001, 469, 105, 500, 136
-0.993003, 65, 65, 320, 128
-0.993007, 421, 169, 452, 200
-0.993012, 13, 225, 44, 352
-0.993018, 409, 129, 440, 160
-0.993033, 225, 61, 256, 92
-0.993035, 389, 105, 420, 168
-0.993038, 217, 161, 248, 288
-0.99304, 465, 137, 496, 168
-0.993053, 425, 181, 456, 212
-0.993066, 25, 65, 56, 128
-0.993073, 213, 61, 244, 92
-0.993077, 137, 97, 168, 224
-0.993078, 425, 269, 456, 300
-0.993079, 405, 97, 436, 128
-0.993086, 417, 97, 448, 128
-0.993089, 301, 161, 332, 288
-0.993092, 389, 145, 420, 272
-0.993098, 401, 145, 432, 176
-0.993098, 369, 121, 496, 152
-0.993117, 385, 69, 416, 100
-0.993121, 433, 113, 464, 144
-0.993124, 465, 117, 496, 148
-0.993131, 413, 297, 444, 360
-0.993131, 413, 269, 444, 300
-0.993132, 405, 161, 436, 192
-0.993133, 197, 65, 228, 96
-0.993135, 201, 241, 232, 272
-0.993142, 197, 117, 228, 148
-0.993149, 169, 129, 200, 256
-0.993154, 469, 61, 500, 92
-0.993158, 233, 97, 264, 224
-0.99316, 1, 305, 128, 368
-0.993161, 341, 129, 372, 160
-0.993178, 269, 129, 300, 160
-0.993182, 197, 201, 228, 232
-0.993183, 385, 81, 416, 112
-0.993184, 57, 41, 120, 104
-0.993189, 25, 129, 88, 375
-0.993191, 469, 265, 500, 296
-0.993195, 73, 281, 104, 344
-0.993209, 353, 5, 384, 36
-0.99322, 197, 189, 228, 220
-0.993225, 201, 265, 232, 296
-0.993229, 357, 129, 388, 160
-0.993232, 405, 61, 436, 92
-0.993232, 405, 77, 436, 108
-0.993236, 413, 185, 444, 216
-0.993237, 289, 113, 320, 240
-0.993243, 253, 277, 284, 308
-0.993251, 425, 297, 456, 360
-0.993254, 197, 169, 228, 200
-0.993254, 245, 61, 276, 92
-0.993255, 297, 129, 328, 160
-0.993256, 337, 169, 368, 200
-0.993258, 165, 217, 196, 248
-0.993268, 465, 149, 496, 180
-0.993275, 373, 189, 404, 220
-0.993275, 25, 289, 56, 320
-0.993283, 393, 101, 424, 132
-0.993285, 73, 149, 104, 180
-0.993287, 145, 117, 176, 148
-0.993288, 317, 169, 348, 200
-0.993292, 365, 61, 396, 92
-0.993296, 109, 117, 140, 148
-0.993296, 101, 161, 132, 224
-0.993297, 345, 273, 376, 304
-0.993299, 353, 173, 384, 204
-0.993301, 417, 1, 448, 64
-0.993302, 461, 17, 492, 80
-0.993303, 201, 229, 232, 260
-0.993304, 85, 165, 116, 196
-0.993307, 265, 17, 296, 144
-0.993311, 469, 233, 500, 296
-0.993311, 441, 133, 472, 164
-0.993314, 85, 145, 116, 176
-0.993316, 45, 289, 76, 320
-0.993317, 365, 173, 396, 204
-0.993318, 385, 205, 416, 236
-0.993319, 381, 145, 412, 176
-0.99332, 249, 141, 280, 172
-0.993321, 361, 273, 392, 304
-0.993322, 125, 117, 156, 148
-0.993324, 169, 17, 200, 144
-0.993325, 201, 217, 232, 248
-0.993325, 73, 121, 104, 184
-0.993329, 385, 173, 416, 204
-0.99333, 433, 169, 464, 200
-0.993331, 437, 265, 468, 296
-0.993336, 145, 165, 176, 196
-0.993338, 197, 141, 228, 172
-0.993341, 217, 237, 248, 268
-0.993343, 417, 61, 448, 92
-0.993345, 401, 269, 432, 300
-0.993347, 157, 137, 188, 168
-0.99335, 181, 117, 212, 148
-0.993352, 373, 129, 404, 160
-0.993357, 201, 253, 232, 284
-0.993363, 437, 1, 468, 64
-0.993365, 169, 117, 200, 148
-0.993366, 149, 181, 180, 212
-0.993366, 389, 193, 420, 224
-0.993369, 217, 269, 248, 300
-0.99337, 397, 113, 428, 144
-0.993375, 337, 209, 368, 240
-0.993376, 413, 225, 444, 352
-0.993377, 245, 73, 276, 104
-0.993377, 321, 181, 352, 212
-0.993379, 213, 121, 244, 152
-0.99338, 425, 1, 456, 32
-0.993383, 197, 157, 228, 188
-0.993385, 333, 273, 364, 304
-0.993387, 13, 293, 44, 324
-0.993388, 217, 257, 248, 288
-0.993391, 461, 5, 492, 36
-0.993392, 133, 57, 164, 120
-0.993393, 397, 133, 428, 164
-0.993395, 97, 1, 160, 128
-0.993399, 289, 61, 320, 92
-0.993402, 197, 77, 228, 108
-0.993403, 285, 273, 316, 304
-0.993404, 229, 121, 260, 152
-0.993405, 253, 265, 284, 296
-0.993407, 401, 185, 432, 216
-0.993413, 165, 281, 196, 344
-0.993416, 189, 277, 220, 308
-0.993416, 381, 129, 412, 192
-0.993418, 201, 289, 232, 320
-0.993422, 129, 285, 160, 316
-0.993426, 217, 225, 248, 256
-0.993427, 441, 149, 472, 180
-0.993429, 117, 165, 148, 196
-0.993429, 269, 277, 300, 308
-0.99343, 425, 257, 456, 288
-0.993433, 105, 289, 136, 320
-0.993435, 421, 329, 452, 360
-0.993435, 213, 105, 244, 168
-0.993438, 117, 285, 148, 316
-0.99344, 249, 213, 280, 244
-0.993441, 85, 181, 116, 212
-0.993442, 449, 265, 480, 296
-0.993442, 337, 61, 368, 92
-0.993489, 161, 273, 416, 336
-0.993497, 165, 209, 196, 272
-0.993533, 169, 161, 200, 224
-0.993595, 121, 209, 152, 336
-0.993622, 53, 65, 84, 128
-0.993692, 369, 177, 400, 304
-0.993711, 65, 121, 320, 184
-0.993732, 425, 233, 456, 296
-0.993733, 65, 161, 320, 224
-0.993743, 433, 241, 464, 368
-0.993753, 153, 281, 184, 344
-0.993827, 285, 273, 316, 336
-0.993837, 65, 209, 320, 272
-0.993845, 353, 297, 480, 360
-0.993863, 137, 281, 168, 344
-0.993936, 101, 113, 132, 240
-0.993944, 157, 17, 188, 144
-0.993962, 433, 177, 464, 240
-0.993972, 469, 257, 500, 320
-0.99398, 273, 273, 304, 336
-0.993995, 161, 105, 416, 168
-0.994004, 81, 305, 208, 368
-0.99405, 49, 137, 176, 200
-0.994051, 329, 225, 360, 352
-0.994079, 393, 81, 424, 144
-0.994181, 289, 161, 320, 224
-0.994183, 433, 105, 448, 168
-0.994184, 433, 209, 464, 272
-0.994184, 305, 273, 336, 336
-0.994207, 65, 273, 320, 336
-0.994216, 1, 137, 500, 200
-0.994218, 353, 133, 480, 164
-0.994222, 105, 161, 136, 288
-0.994261, 161, 121, 288, 152
-0.994281, 145, 209, 176, 336
-0.994284, 181, 225, 212, 352
-0.9943, 225, 233, 480, 296
-0.994367, 137, 161, 168, 288
-0.994373, 285, 17, 316, 144
-0.994426, 257, 169, 500, 232
-0.994498, 85, 225, 116, 352
-0.994568, 273, 161, 304, 288
-0.994582, 65, 185, 320, 248
-0.994631, 113, 129, 240, 160
-0.994663, 353, 161, 480, 192
-0.99467, 1, 273, 500, 336
-0.994744, 65, 241, 320, 304
-0.994794, 329, 145, 360, 272
-0.994852, 185, 17, 216, 144
-0.994861, 117, 113, 148, 240
-0.994873, 475, 105, 490, 168
-0.994933, 353, 145, 480, 176
-0.99494, 257, 57, 500, 120
-0.995002, 369, 181, 496, 212
-0.995014, 285, 161, 316, 288
-0.995022, 369, 109, 496, 140
-0.995049, 193, 273, 320, 304
-0.995081, 89, 17, 120, 144
-0.99514, 401, 193, 432, 320
-0.995199, 241, 129, 368, 160
-0.995202, 89, 145, 104, 208
-0.995208, 257, 81, 500, 144
-0.995279, 257, 265, 500, 328
-0.995305, 213, 1, 244, 128
-0.995368, 1, 129, 64, 375
-0.995399, 423, 121, 438, 184
-0.995426, 321, 121, 448, 152
-0.995429, 433, 145, 448, 208
-0.995457, 417, 1, 448, 256
-0.995508, 185, 161, 216, 288
-0.995512, 65, 33, 192, 96
-0.995514, 1, 105, 128, 168
-0.995694, 421, 97, 452, 352
-0.995713, 97, 209, 128, 336
-0.995748, 469, 105, 484, 168
-0.995768, 145, 241, 272, 272
-0.995779, 217, 57, 232, 120
-0.995787, 409, 57, 424, 120
-0.995801, 89, 161, 120, 288
-0.995809, 161, 209, 288, 240
-0.995815, 485, 57, 500, 120
-0.995821, 113, 185, 240, 216
-0.995847, 193, 237, 320, 268
-0.995867, 65, 89, 320, 152
-0.995928, 253, 121, 268, 184
-0.99594, 145, 65, 272, 96
-0.995949, 369, 69, 496, 100
-0.996014, 1, 57, 500, 120
-0.996035, 161, 133, 288, 164
-0.996052, 305, 133, 432, 164
-0.996086, 193, 65, 320, 96
-0.996096, 215, 265, 230, 328
-0.996097, 369, 81, 496, 112
-0.996144, 417, 105, 432, 168
-0.996152, 427, 97, 442, 160
-0.996168, 399, 57, 414, 120
-0.996182, 161, 193, 288, 224
-0.996189, 65, 113, 192, 176
-0.996244, 1, 161, 500, 224
-0.996253, 321, 173, 448, 204
-0.99627, 441, 1, 472, 256
-0.996274, 65, 81, 192, 144
-0.996278, 239, 57, 254, 120
-0.99629, 161, 157, 288, 188
-0.996319, 401, 1, 432, 256
-0.996321, 481, 105, 496, 168
-0.996328, 145, 273, 272, 304
-0.996347, 325, 33, 356, 288
-0.99636, 427, 177, 442, 240
-0.996363, 415, 169, 430, 232
-0.996365, 193, 261, 320, 292
-0.99639, 211, 57, 226, 120
-0.996396, 273, 81, 400, 144
-0.996419, 161, 41, 416, 104
-0.996448, 225, 141, 352, 172
-0.996455, 65, 129, 192, 160
-0.996467, 193, 225, 320, 256
-0.996475, 259, 121, 274, 184
-0.996482, 289, 69, 416, 100
-0.996485, 197, 33, 228, 288
-0.996494, 209, 169, 336, 200
-0.996502, 81, 165, 208, 196
-0.996511, 145, 229, 272, 260
-0.996512, 145, 285, 272, 316
-0.996535, 435, 169, 450, 232
-0.99654, 255, 273, 270, 336
-0.996583, 193, 97, 320, 128
-0.996595, 477, 57, 492, 120
-0.9966, 245, 57, 260, 120
-0.996611, 469, 1, 500, 256
-0.996613, 419, 81, 434, 144
-0.996614, 65, 41, 320, 104
-0.996639, 349, 1, 380, 256
-0.996653, 421, 57, 436, 120
-0.996658, 223, 57, 238, 120
-0.996681, 65, 189, 192, 220
-0.996685, 389, 57, 404, 120
-0.996687, 161, 181, 288, 212
-0.996691, 343, 161, 358, 224
-0.996692, 369, 193, 496, 224
-0.996696, 17, 289, 144, 320
-0.99675, 209, 189, 336, 220
-0.99676, 251, 57, 266, 120
-0.996764, 265, 121, 280, 184
-0.996785, 161, 169, 288, 200
-0.996791, 439, 105, 454, 168
-0.996791, 271, 121, 286, 184
-0.996795, 309, 33, 340, 288
-0.996799, 241, 201, 368, 232
-0.9968, 281, 121, 296, 184
-0.996818, 377, 57, 392, 120
-0.996824, 411, 105, 426, 168
-0.996825, 349, 169, 364, 232
-0.99683, 475, 129, 490, 192
-0.996846, 331, 161, 346, 224
-0.996857, 321, 273, 448, 304
-0.996858, 241, 229, 368, 260
-0.996871, 97, 285, 224, 316
-0.996884, 421, 145, 436, 208
-0.996891, 429, 109, 444, 140
-0.9969, 209, 137, 224, 200
-0.996903, 211, 169, 226, 232
-0.996904, 257, 273, 384, 304
-0.996915, 369, 209, 496, 240
-0.996916, 315, 137, 330, 200
-0.99692, 369, 93, 496, 124
-0.99693, 193, 85, 320, 116
-0.996934, 427, 273, 442, 336
-0.996935, 321, 109, 448, 140
-0.996951, 193, 109, 320, 140
-0.996961, 429, 1, 460, 256
-0.996962, 257, 105, 500, 168
-0.996966, 475, 81, 490, 144
-0.996971, 113, 253, 240, 284
-0.996983, 421, 177, 436, 240
-0.996986, 161, 145, 288, 176
-0.996989, 287, 121, 302, 184
-0.997014, 297, 33, 328, 288
-0.997024, 413, 81, 428, 144
-0.997031, 369, 57, 496, 88
-0.997045, 435, 109, 450, 140
-0.997046, 213, 233, 228, 296
-0.997052, 257, 1, 384, 64
-0.997052, 337, 1, 464, 32
-0.997059, 253, 145, 268, 208
-0.997069, 429, 57, 444, 120
-0.997073, 369, 269, 496, 300
-0.997073, 113, 117, 240, 148
-0.997076, 339, 137, 354, 200
-0.997082, 211, 193, 226, 256
-0.997088, 471, 57, 486, 120
-0.997106, 249, 33, 280, 288
-0.997122, 337, 33, 368, 288
-0.997128, 337, 161, 352, 224
-0.99713, 197, 129, 228, 375
-0.997134, 379, 161, 394, 224
-0.997138, 365, 1, 396, 256
-0.997143, 461, 57, 476, 120
-0.997149, 329, 137, 344, 200
-0.997174, 209, 213, 336, 244
-0.997181, 113, 141, 240, 172
-0.997187, 241, 61, 368, 92
-0.997188, 423, 109, 438, 140
-0.99719, 113, 201, 240, 232
-0.997205, 1, 201, 500, 264
-0.997218, 225, 153, 352, 184
-0.997223, 409, 129, 440, 375
-0.997225, 485, 81, 500, 144
-0.997226, 321, 81, 448, 112
-0.997233, 257, 189, 384, 220
-0.997234, 417, 265, 432, 328
-0.997238, 217, 33, 248, 288
-0.997242, 441, 57, 456, 120
-0.997245, 427, 121, 442, 152
-0.997254, 83, 137, 98, 200
-0.99726, 365, 169, 380, 232
-0.997261, 193, 289, 320, 320
-0.997268, 185, 33, 216, 288
-0.997271, 367, 57, 382, 120
-0.997283, 351, 121, 366, 184
-0.997284, 361, 57, 376, 120
-0.997284, 229, 57, 244, 120
-0.997292, 349, 57, 364, 120
-0.997294, 273, 169, 400, 200
-0.997298, 345, 121, 360, 184
-0.997299, 87, 185, 102, 248
-0.997302, 383, 57, 398, 120
-0.997307, 323, 145, 338, 208
-0.997312, 305, 149, 432, 180
-0.997336, 333, 129, 364, 375
-0.997347, 427, 297, 442, 360
-0.997359, 113, 213, 240, 244
-0.997359, 369, 145, 384, 208
-0.997363, 147, 161, 162, 224
-0.997368, 333, 57, 348, 120
-0.99737, 285, 33, 316, 288
-0.997374, 485, 129, 500, 192
-0.997379, 97, 33, 128, 288
-0.997392, 435, 265, 450, 328
-0.997393, 453, 57, 468, 120
-0.997396, 439, 145, 454, 208
-0.997398, 411, 137, 426, 200
-0.9974, 145, 89, 272, 120
-0.997407, 273, 57, 288, 120
-0.997408, 303, 161, 318, 224
-0.997412, 369, 221, 496, 252
-0.99742, 259, 57, 274, 120
-0.997423, 265, 57, 280, 120
-0.997428, 415, 57, 430, 120
-0.997429, 113, 65, 128, 128
-0.997433, 313, 161, 328, 224
-0.997433, 317, 129, 348, 375
-0.997437, 95, 129, 110, 192
-0.997438, 323, 57, 338, 120
-0.997441, 125, 33, 156, 288
-0.997447, 293, 129, 308, 192
-0.997451, 405, 177, 420, 240
-0.997453, 107, 65, 122, 128
-0.997453, 165, 33, 196, 288
-0.997457, 257, 17, 500, 80
-0.997465, 435, 57, 450, 120
-0.997467, 193, 249, 320, 280
-0.997475, 249, 273, 264, 336
-0.997476, 381, 1, 412, 256
-0.997477, 315, 57, 330, 120
-0.997479, 411, 201, 426, 264
-0.997487, 309, 137, 324, 200
-0.997499, 97, 65, 112, 128
-0.997499, 145, 77, 272, 108
-0.997499, 109, 33, 140, 288
-0.997505, 209, 105, 224, 168
-0.997507, 205, 57, 220, 120
-0.997513, 241, 117, 368, 148
-0.997517, 355, 57, 370, 120
-0.997518, 137, 161, 152, 224
-0.99752, 279, 57, 294, 120
-0.997522, 17, 181, 144, 212
-0.997526, 285, 57, 300, 120
-0.997527, 321, 97, 448, 128
-0.99753, 371, 169, 386, 232
-0.99754, 261, 33, 292, 288
-0.997541, 343, 57, 358, 120
-0.997545, 349, 145, 364, 208
-0.997546, 83, 161, 98, 224
-0.997548, 451, 1, 466, 64
-0.997551, 19, 65, 34, 128
-0.997556, 321, 121, 336, 184
-0.99756, 339, 185, 354, 248
-0.997564, 329, 129, 344, 160
-0.997566, 81, 241, 208, 272
-0.997572, 65, 217, 192, 248
-0.997576, 387, 201, 402, 264
-0.997578, 417, 113, 432, 144
-0.997582, 465, 97, 496, 352
-0.997585, 419, 1, 434, 64
-0.997593, 405, 153, 420, 216
-0.997595, 433, 125, 448, 156
-0.997596, 17, 65, 144, 96
-0.997596, 109, 161, 124, 224
-0.997605, 295, 57, 310, 120
-0.997605, 87, 65, 102, 128
-0.997609, 173, 57, 188, 120
-0.997611, 199, 57, 214, 120
-0.997612, 161, 161, 176, 224
-0.997614, 309, 57, 324, 120
-0.997615, 261, 273, 276, 336
-0.997616, 169, 161, 184, 224
-0.997618, 303, 57, 318, 120
-0.997624, 359, 145, 374, 208
-0.997627, 11, 65, 26, 128
-0.997629, 121, 57, 136, 120
-0.997629, 97, 65, 224, 96
-0.997633, 241, 73, 368, 104
-0.997634, 273, 33, 304, 288
-0.997636, 453, 1, 484, 256
-0.997642, 483, 1, 498, 64
-0.997652, 145, 33, 176, 288
-0.997659, 475, 109, 490, 140
-0.997662, 233, 33, 264, 288
-0.997671, 321, 193, 448, 224
-0.997677, 193, 297, 448, 360
-0.997684, 241, 241, 368, 272
-0.99771, 145, 105, 272, 136
-0.99773, 17, 129, 144, 160
-0.997745, 321, 57, 448, 88
-0.997766, 469, 105, 484, 136
-0.99778, 145, 129, 160, 160
-0.997808, 33, 237, 160, 268
-0.997809, 157, 125, 172, 156
-0.997828, 129, 129, 144, 160
-0.997858, 419, 129, 434, 160
-0.997882, 323, 129, 338, 160
-0.997886, 123, 129, 138, 160
-0.997903, 139, 129, 154, 160
-0.997906, 241, 285, 368, 316
-0.997918, 305, 129, 336, 375
-0.997926, 113, 153, 240, 184
-0.997931, 65, 117, 192, 148
-0.997934, 89, 157, 104, 188
-0.997947, 241, 261, 368, 292
-0.997965, 117, 129, 132, 160
-0.997967, 151, 129, 166, 160
-0.997968, 163, 125, 178, 156
-0.997979, 73, 33, 104, 288
-0.997987, 289, 213, 416, 244
-0.998003, 181, 129, 196, 160
-0.998011, 33, 297, 288, 360
-0.998019, 33, 201, 160, 232
-0.998026, 193, 305, 320, 336
-0.998029, 433, 129, 464, 375
-0.998034, 1, 153, 128, 184
-0.998044, 253, 129, 268, 160
-0.998045, 199, 129, 214, 160
-0.998051, 97, 273, 224, 304
-0.998055, 85, 33, 116, 288
-0.99807, 93, 137, 108, 168
-0.998072, 335, 129, 350, 160
-0.998083, 171, 125, 186, 156
-0.998094, 189, 129, 204, 160
-0.998096, 397, 69, 412, 100
-0.998097, 17, 117, 144, 148
-0.998104, 1, 249, 500, 312
-0.998105, 65, 177, 192, 208
-0.998115, 409, 69, 424, 100
-0.998131, 481, 105, 496, 136
-0.998134, 485, 61, 500, 92
-0.998164, 213, 277, 228, 308
-0.998182, 345, 129, 376, 375
-0.998199, 209, 125, 224, 156
-0.998205, 177, 313, 304, 375
-0.998213, 107, 129, 122, 160
-0.998218, 217, 65, 232, 96
-0.998225, 305, 225, 432, 256
-0.998229, 101, 129, 116, 160
-0.998242, 413, 97, 428, 128
-0.998258, 419, 97, 434, 128
-0.998259, 1, 113, 500, 176
-0.99826, 283, 129, 298, 160
-0.998266, 265, 129, 280, 160
-0.998266, 49, 277, 176, 308
-0.998267, 435, 141, 450, 172
-0.998269, 369, 233, 496, 264
-0.998278, 87, 169, 102, 200
-0.998282, 385, 65, 400, 96
-0.998294, 435, 161, 450, 192
-0.998304, 385, 77, 400, 108
-0.998308, 369, 189, 400, 204
-0.998309, 73, 151, 104, 166
-0.99831, 93, 289, 124, 304
-0.99831, 389, 113, 420, 128
-0.998311, 125, 127, 156, 142
-0.998311, 393, 95, 424, 110
-0.998311, 197, 145, 228, 160
-0.998312, 329, 141, 360, 156
-0.998312, 1, 225, 128, 256
-0.998313, 57, 291, 88, 306
-0.998313, 353, 11, 384, 26
-0.998314, 413, 129, 428, 160
-0.998316, 85, 161, 116, 176
-0.998317, 197, 163, 228, 178
-0.998317, 321, 21, 448, 52
-0.998317, 381, 189, 412, 204
-0.998317, 353, 257, 480, 288
-0.998317, 321, 183, 352, 198
-0.998317, 109, 137, 140, 152
-0.998317, 197, 201, 228, 216
-0.998317, 201, 233, 232, 248
-0.998318, 409, 97, 440, 112
-0.998319, 433, 179, 464, 194
-0.99832, 325, 277, 356, 292
-0.99832, 201, 215, 232, 230
-0.99832, 97, 127, 128, 142
-0.998322, 425, 277, 456, 292
-0.998323, 337, 209, 368, 224
-0.998323, 9, 293, 40, 308
-0.998323, 81, 289, 112, 304
-0.998323, 197, 189, 228, 204
-0.998323, 337, 277, 368, 292
-0.998323, 401, 139, 432, 154
-0.998324, 469, 133, 500, 148
-0.998324, 145, 137, 176, 152
-0.998325, 197, 207, 228, 222
-0.998326, 435, 269, 450, 300
-0.998326, 369, 197, 400, 212
-0.998326, 401, 145, 432, 160
-0.998327, 185, 169, 216, 184
-0.998328, 435, 177, 450, 208
-0.998329, 45, 291, 76, 306
-0.99833, 165, 221, 196, 236
-0.99833, 313, 277, 344, 292
-0.998331, 185, 139, 216, 154
-0.998332, 137, 287, 168, 302
-0.998332, 33, 291, 64, 306
-0.998332, 373, 275, 404, 290
-0.998333, 441, 139, 472, 154
-0.998333, 401, 197, 432, 212
-0.998333, 217, 129, 248, 375
-0.998334, 401, 153, 432, 168
-0.998334, 301, 279, 332, 294
-0.998334, 181, 285, 212, 300
-0.998335, 401, 167, 432, 182
-0.998336, 421, 169, 452, 184
-0.998337, 475, 133, 490, 164
-0.998337, 149, 285, 180, 300
-0.998339, 433, 113, 464, 128
-0.998339, 453, 111, 484, 126
-0.99834, 201, 255, 232, 270
-0.998341, 201, 249, 232, 264
-0.998341, 211, 189, 226, 220
-0.998343, 465, 145, 496, 160
-0.998344, 121, 287, 152, 302
-0.998344, 85, 169, 116, 184
-0.998347, 317, 141, 348, 156
-0.998348, 403, 85, 418, 116
-0.998348, 209, 129, 240, 144
-0.998348, 465, 155, 496, 170
-0.998348, 273, 279, 304, 294
-0.998348, 421, 105, 452, 120
-0.998348, 201, 239, 232, 254
-0.998349, 401, 123, 432, 138
-0.998351, 201, 277, 232, 292
-0.998351, 441, 113, 456, 144
-0.998352, 289, 279, 320, 294
-0.998352, 401, 159, 432, 174
-0.998356, 449, 269, 480, 284
-0.998356, 169, 285, 200, 300
-0.998356, 361, 275, 392, 290
-0.998357, 381, 195, 412, 210
-0.998359, 401, 173, 432, 188
-0.998361, 385, 273, 416, 288
-0.998364, 139, 117, 154, 148
-0.998365, 145, 183, 176, 198
-0.998366, 197, 169, 228, 184
-0.998367, 349, 275, 380, 290
-0.998367, 405, 179, 436, 194
-0.998368, 417, 157, 448, 172
-0.998368, 417, 151, 448, 166
-0.998369, 197, 195, 228, 210
-0.998369, 433, 119, 464, 134
-0.99837, 373, 135, 404, 150
-0.99837, 85, 129, 116, 375
-0.99837, 197, 127, 228, 142
-0.998373, 437, 271, 468, 286
-0.998374, 475, 121, 490, 152
-0.998376, 347, 129, 362, 160
-0.998376, 429, 125, 460, 140
-0.998379, 469, 139, 500, 154
-0.998381, 253, 281, 284, 296
-0.998381, 285, 135, 316, 150
-0.998382, 401, 103, 432, 118
-0.998383, 145, 297, 272, 328
-0.998383, 469, 267, 500, 282
-0.998384, 381, 83, 412, 98
-0.998385, 259, 129, 274, 160
-0.998388, 1, 249, 128, 280
-0.998388, 213, 65, 244, 80
-0.998391, 225, 65, 256, 80
-0.998393, 201, 283, 232, 298
-0.998395, 405, 273, 436, 288
-0.998397, 249, 139, 280, 154
-0.9984, 421, 139, 452, 154
-0.9984, 417, 163, 448, 178
-0.9984, 261, 133, 292, 148
-0.998402, 341, 129, 356, 160
-0.998404, 85, 133, 116, 148
-0.998404, 481, 1, 496, 32
-0.998407, 417, 175, 448, 190
-0.998409, 427, 173, 442, 204
-0.998409, 421, 183, 452, 198
-0.998412, 17, 141, 144, 172
-0.998413, 87, 145, 102, 176
-0.998413, 409, 111, 440, 126
-0.998415, 211, 201, 226, 232
-0.998416, 297, 133, 328, 148
-0.998421, 197, 139, 228, 154
-0.998421, 465, 117, 496, 132
-0.998422, 425, 271, 456, 286
-0.998428, 475, 97, 490, 128
-0.998431, 125, 133, 156, 148
-0.998431, 173, 131, 204, 146
-0.998432, 429, 97, 444, 128
-0.998433, 161, 129, 192, 144
-0.998435, 211, 65, 226, 96
-0.998435, 249, 133, 280, 148
-0.998435, 465, 105, 496, 120
-0.998437, 305, 261, 432, 292
-0.99844, 271, 129, 286, 160
-0.998441, 421, 145, 452, 160
-0.998446, 93, 139, 124, 154
-0.998447, 337, 135, 368, 150
-0.998448, 361, 135, 392, 150
-0.998449, 193, 53, 320, 84
-0.998452, 43, 289, 58, 320
-0.998453, 409, 117, 440, 132
-0.998455, 415, 181, 430, 212
-0.998459, 359, 129, 374, 160
-0.998463, 239, 61, 254, 92
-0.998464, 349, 135, 380, 150
-0.998464, 417, 133, 448, 148
-0.998464, 113, 131, 144, 146
-0.998465, 397, 97, 428, 352
-0.998469, 277, 129, 292, 160
-0.99847, 483, 265, 498, 296
-0.99847, 145, 131, 176, 146
-0.998471, 273, 133, 304, 148
-0.998471, 419, 269, 434, 300
-0.998473, 411, 81, 426, 112
-0.998478, 289, 129, 304, 160
-0.99848, 315, 129, 330, 160
-0.998482, 465, 111, 496, 126
-0.998483, 433, 139, 496, 154
-0.998494, 289, 241, 416, 272
-0.998495, 317, 133, 348, 148
-0.998498, 313, 135, 376, 150
-0.998499, 393, 113, 456, 128
-0.998499, 467, 117, 482, 148
-0.9985, 433, 111, 496, 126
-0.998501, 393, 159, 456, 174
-0.998504, 1, 277, 128, 308
-0.998506, 421, 119, 452, 134
-0.998509, 197, 133, 228, 148
-0.998509, 185, 133, 216, 148
-0.998513, 393, 129, 456, 144
-0.998514, 169, 133, 232, 148
-0.998514, 201, 129, 264, 144
-0.998516, 425, 269, 440, 300
-0.998517, 393, 119, 456, 134
-0.998518, 469, 137, 484, 168
-0.998518, 255, 277, 270, 308
-0.998518, 393, 165, 456, 180
-0.998519, 223, 61, 238, 92
-0.998524, 303, 169, 318, 200
-0.998524, 145, 131, 208, 146
-0.998524, 481, 117, 496, 148
-0.998525, 433, 153, 496, 168
-0.998525, 97, 133, 128, 148
-0.998526, 393, 171, 456, 186
-0.998526, 417, 127, 448, 142
-0.998527, 433, 121, 496, 136
-0.998527, 393, 135, 456, 150
-0.998528, 89, 131, 152, 146
-0.99853, 213, 265, 228, 296
-0.998531, 213, 245, 228, 276
-0.998533, 211, 173, 226, 204
-0.998534, 409, 143, 472, 158
-0.998536, 241, 133, 304, 148
-0.998536, 151, 117, 166, 148
-0.998546, 335, 169, 350, 200
-0.998547, 1, 77, 128, 108
-0.998549, 353, 129, 368, 160
-0.998549, 407, 141, 422, 172
-0.99855, 249, 129, 280, 375
-0.99855, 411, 109, 426, 140
-0.998552, 185, 129, 216, 375
-0.998553, 433, 165, 496, 180
-0.998557, 369, 149, 432, 164
-0.998557, 113, 131, 176, 146
-0.998558, 367, 173, 382, 204
-0.998559, 361, 133, 424, 148
-0.99856, 393, 149, 456, 164
-0.998561, 393, 181, 456, 196
-0.998562, 433, 147, 496, 162
-0.998562, 169, 139, 232, 154
-0.998563, 51, 289, 66, 320
-0.998563, 433, 173, 496, 188
-0.998563, 361, 5, 376, 36
-0.998563, 421, 111, 452, 126
-0.998564, 359, 273, 374, 304
-0.998566, 209, 275, 272, 290
-0.998569, 433, 159, 496, 174
-0.998572, 209, 241, 272, 256
-0.998572, 273, 135, 336, 150
-0.998572, 483, 133, 498, 164
-0.998574, 201, 67, 264, 82
-0.998575, 425, 127, 488, 142
-0.998575, 147, 165, 162, 196
-0.998577, 201, 103, 264, 118
-0.998579, 201, 135, 264, 150
-0.99858, 409, 271, 472, 286
-0.998581, 433, 133, 496, 148
-0.998582, 369, 159, 432, 174
-0.998584, 201, 97, 264, 112
-0.998585, 37, 289, 52, 320
-0.998585, 201, 145, 264, 160
-0.998585, 209, 209, 272, 224
-0.998585, 81, 181, 96, 212
-0.998586, 343, 169, 358, 200
-0.998586, 433, 269, 496, 284
-0.998586, 209, 137, 224, 168
-0.998587, 201, 109, 264, 124
-0.998587, 241, 139, 304, 154
-0.998588, 337, 135, 400, 150
-0.998588, 421, 161, 436, 192
-0.99859, 85, 133, 100, 164
-0.998591, 453, 97, 484, 352
-0.998593, 369, 273, 432, 288
-0.998593, 61, 33, 92, 288
-0.998593, 201, 91, 264, 106
-0.998593, 369, 171, 432, 186
-0.998595, 365, 129, 380, 160
-0.998595, 425, 179, 488, 194
-0.998595, 201, 115, 264, 130
-0.998597, 209, 281, 272, 296
-0.998597, 169, 283, 232, 298
-0.998597, 369, 165, 432, 180
-0.998597, 447, 1, 462, 32
-0.998598, 249, 279, 312, 294
-0.998598, 201, 159, 264, 174
-0.998599, 369, 143, 432, 158
-0.998599, 337, 275, 400, 290
-0.998602, 201, 123, 264, 138
-0.998605, 201, 151, 264, 166
-0.998605, 177, 215, 240, 230
-0.998607, 479, 61, 494, 92
-0.998609, 87, 189, 102, 220
-0.998609, 201, 85, 264, 100
-0.99861, 157, 137, 172, 168
-0.998612, 209, 165, 272, 180
-0.998614, 427, 333, 442, 364
-0.998614, 129, 189, 192, 204
-0.998615, 129, 117, 144, 148
-0.998616, 329, 141, 392, 156
-0.998616, 315, 169, 330, 200
-0.998618, 325, 169, 340, 200
-0.998618, 305, 277, 368, 292
-0.998619, 419, 141, 434, 172
-0.99862, 375, 129, 390, 160
-0.998622, 81, 229, 208, 260
-0.998622, 169, 197, 232, 212
-0.998622, 145, 285, 208, 300
-0.998622, 211, 161, 226, 192
-0.998623, 409, 107, 472, 122
-0.998624, 81, 169, 144, 184
-0.998626, 209, 197, 272, 212
-0.998626, 209, 247, 272, 262
-0.998626, 419, 61, 434, 92
-0.998627, 177, 249, 240, 264
-0.998628, 209, 233, 272, 248
-0.99863, 433, 97, 448, 224
-0.99863, 145, 117, 160, 148
-0.99863, 113, 287, 176, 302
-0.99863, 65, 253, 192, 284
-0.998631, 1, 301, 128, 332
-0.998631, 65, 289, 128, 304
-0.998632, 209, 269, 272, 284
-0.998632, 365, 273, 380, 304
-0.998632, 273, 279, 336, 294
-0.998632, 385, 103, 448, 118
-0.998632, 25, 291, 88, 306
-0.998633, 95, 149, 110, 180
-0.998635, 169, 127, 232, 142
-0.998635, 209, 189, 272, 204
-0.998635, 433, 105, 496, 120
-0.998636, 377, 69, 392, 100
-0.998636, 405, 101, 420, 132
-0.998637, 369, 21, 496, 52
-0.998638, 209, 253, 272, 268
-0.998638, 251, 61, 266, 92
-0.998638, 421, 181, 436, 212
-0.998639, 81, 137, 144, 152
-0.998642, 441, 1, 456, 32
-0.998643, 201, 203, 264, 218
-0.998644, 361, 197, 424, 212
-0.998645, 169, 169, 232, 184
-0.998645, 377, 81, 440, 96
-0.998646, 201, 79, 264, 94
-0.998646, 241, 127, 304, 142
-0.998646, 433, 195, 496, 210
-0.998647, 177, 243, 240, 258
-0.998648, 89, 193, 152, 208
-0.998649, 369, 127, 432, 142
-0.99865, 57, 133, 120, 148
-0.998651, 369, 179, 432, 194
-0.998653, 49, 159, 112, 174
-0.998653, 97, 297, 224, 328
-0.998655, 177, 209, 240, 224
-0.998655, 169, 121, 232, 136
-0.998657, 201, 73, 264, 88
-0.998657, 209, 227, 272, 242
-0.998659, 415, 169, 430, 200
-0.998659, 393, 187, 456, 202
-0.998659, 433, 185, 496, 200
-0.99866, 369, 113, 432, 128
-0.99866, 383, 121, 398, 152
-0.998662, 393, 97, 456, 112
-0.998663, 207, 277, 222, 308
-0.998663, 217, 215, 280, 230
-0.998664, 177, 277, 240, 292
-0.998664, 113, 137, 176, 152
-0.998665, 297, 141, 360, 156
-0.998665, 49, 153, 112, 168
-0.998665, 177, 229, 240, 244
-0.998666, 337, 195, 400, 210
-0.998666, 217, 259, 280, 274
-0.998666, 89, 287, 152, 302
-0.998667, 1, 291, 64, 306
-0.998668, 73, 187, 136, 202
-0.998669, 177, 237, 240, 252
-0.99867, 313, 129, 376, 144
-0.99867, 169, 107, 232, 122
-0.99867, 177, 223, 240, 238
-0.998672, 385, 305, 448, 320
-0.998672, 393, 195, 456, 210
-0.998673, 233, 61, 248, 92
-0.998673, 475, 145, 490, 176
-0.998673, 281, 129, 344, 144
-0.998674, 169, 149, 232, 164
-0.998675, 433, 203, 496, 218
-0.998675, 393, 205, 456, 220
-0.998676, 433, 209, 496, 224
-0.998677, 241, 197, 304, 212
-0.998678, 257, 1, 384, 32
-0.998678, 217, 221, 280, 236
-0.998678, 443, 133, 458, 164
-0.998678, 73, 161, 136, 176
-0.998679, 95, 125, 110, 156
-0.998727, 117, 129, 148, 375
-0.998739, 145, 309, 272, 340
-0.998756, 241, 85, 368, 116
-0.998761, 49, 33, 80, 288
-0.998763, 169, 129, 200, 375
-0.998779, 241, 97, 368, 128
-0.998786, 129, 313, 256, 375
-0.998793, 241, 305, 368, 336
-0.998794, 17, 169, 144, 200
-0.998804, 423, 97, 438, 224
-0.99882, 97, 77, 224, 108
-0.998831, 49, 77, 176, 108
-0.998834, 145, 53, 272, 84
-0.998864, 471, 1, 486, 128
-0.998868, 479, 1, 494, 128
-0.998874, 427, 49, 442, 176
-0.998883, 37, 33, 68, 288
-0.998887, 289, 285, 416, 316
-0.998889, 433, 49, 448, 176
-0.998894, 457, 1, 472, 128
-0.998901, 209, 65, 224, 192
-0.998904, 81, 309, 208, 340
-0.998909, 395, 1, 410, 128
-0.998911, 485, 1, 500, 128
-0.998924, 447, 1, 462, 128
-0.998926, 381, 129, 412, 375
-0.998926, 13, 33, 44, 288
-0.998939, 443, 49, 458, 176
-0.998946, 1, 33, 32, 288
-0.998951, 289, 129, 320, 375
-0.998953, 105, 129, 136, 375
-0.998955, 437, 1, 452, 128
-0.998969, 405, 1, 420, 128
-0.998975, 413, 1, 428, 128
-0.998978, 483, 49, 498, 176
-0.998978, 463, 1, 478, 128
-0.998984, 475, 49, 490, 176
-0.998986, 381, 1, 396, 128
-0.998999, 365, 129, 396, 375
-0.999014, 217, 49, 232, 176
-0.999016, 371, 1, 386, 128
-0.999025, 273, 13, 400, 44
-0.999026, 289, 305, 416, 336
-0.999026, 387, 1, 402, 128
-0.999026, 371, 49, 386, 176
-0.999033, 355, 1, 370, 128
-0.999037, 421, 49, 436, 176
-0.999038, 419, 1, 434, 128
-0.999039, 251, 65, 266, 192
-0.99904, 417, 113, 432, 240
-0.999045, 383, 49, 398, 176
-0.999053, 427, 1, 442, 128
-0.999063, 369, 301, 496, 332
-0.999063, 145, 129, 176, 375
-0.999064, 411, 49, 426, 176
-0.999069, 469, 49, 484, 176
-0.999071, 25, 33, 56, 288
-0.999071, 319, 49, 334, 176
-0.999072, 1, 225, 500, 288
-0.999092, 395, 49, 410, 176
-0.999105, 263, 65, 278, 192
-0.999113, 197, 65, 212, 192
-0.999113, 277, 65, 292, 192
-0.999119, 345, 49, 360, 176
-0.999119, 269, 65, 284, 192
-0.999127, 191, 65, 206, 192
-0.999144, 283, 65, 298, 192
-0.999145, 73, 129, 104, 375
-0.999145, 361, 49, 376, 176
-0.999146, 337, 49, 352, 176
-0.999153, 329, 49, 344, 176
-0.999154, 351, 49, 366, 176
-0.999166, 241, 49, 256, 176
-0.999177, 459, 49, 474, 176
-0.999181, 185, 65, 200, 192
-0.999182, 129, 129, 160, 375
-0.999183, 365, 1, 380, 128
-0.999186, 377, 49, 392, 176
-0.999189, 277, 129, 308, 375
-0.999192, 257, 65, 272, 192
-0.999193, 401, 49, 416, 176
-0.999197, 233, 129, 264, 375
-0.999215, 301, 49, 316, 176
-0.999217, 91, 129, 106, 256
-0.999217, 167, 65, 182, 192
-0.999226, 313, 49, 328, 176
-0.999235, 145, 65, 160, 192
-0.999239, 173, 65, 188, 192
-0.999244, 289, 65, 304, 192
-0.999247, 155, 49, 170, 176
-0.999263, 93, 49, 108, 176
-0.999263, 427, 161, 442, 288
-0.999264, 389, 49, 404, 176
-0.999265, 211, 177, 226, 304
-0.999273, 135, 65, 150, 192
-0.999274, 203, 49, 218, 176
-0.999283, 179, 65, 194, 192
-0.999286, 101, 49, 116, 176
-0.99929, 161, 49, 176, 176
-0.999293, 211, 129, 226, 256
-0.999307, 87, 49, 102, 176
-0.99931, 435, 161, 450, 288
-0.999317, 359, 97, 374, 224
-0.999318, 65, 49, 80, 176
-0.999321, 215, 241, 230, 368
-0.999329, 417, 161, 432, 288
-0.999333, 55, 49, 70, 176
-0.999336, 411, 113, 426, 240
-0.999339, 449, 49, 464, 176
-0.999346, 109, 49, 124, 176
-0.999346, 17, 97, 80, 224
-0.999347, 377, 113, 392, 240
-0.999349, 353, 97, 368, 224
-0.999349, 119, 49, 134, 176
-0.999349, 307, 49, 322, 176
-0.999355, 441, 129, 456, 256
-0.999357, 367, 113, 382, 240
-0.999357, 261, 129, 292, 375
-0.999362, 201, 113, 216, 240
-0.999363, 321, 97, 336, 224
-0.999366, 311, 113, 326, 240
-0.99937, 125, 49, 140, 176
-0.99937, 351, 145, 366, 272
-0.999372, 171, 161, 186, 288
-0.99938, 343, 97, 358, 224
-0.999386, 81, 49, 96, 176
-0.999387, 295, 49, 310, 176
-0.999401, 9, 49, 24, 176
-0.999402, 167, 209, 182, 336
-0.999408, 85, 145, 100, 272
-0.99941, 255, 241, 270, 368
-0.999411, 73, 49, 88, 176
-0.999412, 253, 113, 268, 240
-0.999414, 349, 1, 364, 128
-0.999415, 361, 145, 376, 272
-0.999424, 3, 49, 18, 176
-0.999428, 481, 129, 496, 256
-0.999429, 19, 49, 34, 176
-0.999435, 177, 145, 192, 272
-0.99944, 45, 129, 76, 375
-0.999446, 405, 145, 420, 272
-0.999447, 251, 17, 266, 144
-0.999455, 21, 129, 52, 375
-0.999456, 41, 49, 56, 176
-0.999457, 49, 49, 64, 176
-0.99946, 223, 49, 238, 176
-0.999461, 333, 97, 348, 224
-0.999463, 31, 49, 46, 176
-0.999467, 345, 145, 360, 272
-0.999468, 25, 49, 40, 176
-0.999475, 235, 49, 250, 176
-0.999481, 177, 193, 192, 320
-0.999483, 275, 209, 290, 336
-0.99949, 319, 225, 334, 352
-0.999495, 249, 241, 264, 368
-0.999496, 161, 209, 176, 336
-0.999499, 123, 209, 138, 336
-0.999502, 405, 97, 420, 224
-0.999505, 303, 161, 318, 288
-0.99951, 161, 97, 176, 224
-0.999513, 289, 113, 304, 240
-0.999513, 275, 113, 290, 240
-0.999518, 229, 49, 244, 176
-0.999521, 165, 161, 180, 288
-0.99953, 263, 281, 278, 296
-0.99953, 183, 285, 198, 300
-0.99953, 211, 211, 226, 226
-0.999531, 201, 195, 216, 210
-0.999531, 357, 275, 372, 290
-0.999531, 201, 169, 216, 184
-0.999532, 295, 279, 310, 294
-0.999532, 285, 279, 300, 294
-0.999532, 443, 139, 458, 154
-0.999533, 13, 293, 28, 308
-0.999533, 147, 287, 162, 302
-0.999533, 451, 1, 466, 16
-0.999534, 405, 195, 420, 210
-0.999534, 131, 137, 146, 152
-0.999534, 91, 145, 106, 160
-0.999534, 421, 177, 436, 192
-0.999535, 301, 279, 316, 294
-0.999535, 393, 273, 408, 288
-0.999535, 399, 273, 414, 288
-0.999535, 213, 255, 228, 270
-0.999536, 425, 183, 440, 198
-0.999536, 413, 273, 428, 288
-0.999536, 319, 141, 334, 156
-0.999537, 409, 107, 424, 122
-0.999537, 211, 205, 226, 220
-0.999537, 215, 275, 230, 290
-0.999537, 435, 173, 450, 188
-0.999539, 435, 165, 450, 180
-0.99954, 7, 293, 22, 308
-0.99954, 91, 139, 106, 154
-0.999541, 211, 175, 226, 190
-0.999541, 467, 121, 482, 136
-0.999541, 417, 95, 432, 110
-0.999542, 339, 277, 354, 292
-0.999542, 475, 137, 490, 152
-0.999543, 419, 145, 434, 160
-0.999544, 435, 139, 450, 154
-0.999544, 407, 273, 422, 288
-0.999544, 223, 65, 238, 80
-0.999545, 85, 143, 100, 158
-0.999546, 403, 103, 418, 118
-0.999547, 211, 197, 226, 212
-0.99955, 429, 271, 444, 286
-0.99955, 411, 113, 426, 128
-0.999551, 445, 271, 460, 286
-0.999551, 365, 275, 380, 290
-0.999552, 293, 135, 308, 150
-0.999553, 211, 167, 226, 182
-0.999553, 427, 351, 442, 366
-0.999554, 211, 185, 226, 200
-0.999554, 85, 195, 100, 210
-0.999554, 239, 65, 254, 80
-0.999555, 435, 159, 450, 174
-0.999555, 375, 275, 390, 290
-0.999556, 437, 181, 452, 196
-0.999558, 441, 1, 456, 16
-0.999558, 483, 267, 498, 282
-0.999559, 481, 1, 496, 16
-0.99956, 407, 95, 422, 110
-0.99956, 89, 151, 104, 166
-0.999561, 375, 195, 390, 210
-0.999562, 167, 129, 182, 144
-0.999562, 409, 101, 424, 116
-0.999562, 439, 125, 454, 140
-0.999564, 419, 273, 434, 288
-0.999566, 481, 117, 496, 132
-0.999567, 255, 279, 270, 294
-0.999569, 469, 103, 484, 118
-0.999572, 415, 119, 430, 134
-0.999573, 89, 169, 104, 184
-0.999573, 431, 183, 446, 198
-0.999574, 209, 137, 224, 152
-0.999575, 215, 281, 230, 296
-0.999578, 217, 65, 232, 80
-0.999579, 311, 135, 326, 150
-0.999581, 467, 139, 482, 154
-0.999582, 251, 139, 266, 154
-0.999582, 475, 105, 490, 120
-0.999586, 211, 191, 226, 206
-0.999587, 173, 133, 188, 148
-0.999589, 259, 133, 274, 148
-0.99959, 437, 271, 452, 286
-0.999592, 481, 111, 496, 126
-0.999593, 435, 145, 450, 160
-0.999596, 439, 113, 454, 128
-0.999597, 265, 133, 280, 148
-0.9996, 375, 135, 390, 150
-0.999605, 385, 81, 400, 96
-0.999606, 97, 139, 112, 154
-0.999609, 161, 131, 176, 146
-0.99961, 1, 129, 32, 375
-0.999611, 331, 131, 346, 146
-0.999615, 253, 133, 268, 148
-0.999617, 181, 131, 196, 146
-0.999617, 89, 161, 104, 176
-0.999618, 209, 131, 224, 146
-0.999619, 119, 131, 134, 146
-0.99962, 91, 133, 106, 148
-0.999621, 427, 109, 442, 124
-0.999622, 109, 133, 124, 148
-0.999624, 139, 131, 154, 146
-0.999624, 271, 133, 286, 148
-0.999625, 349, 135, 364, 150
-0.999626, 193, 133, 208, 148
-0.99963, 187, 133, 202, 148
-0.999631, 277, 133, 292, 148
-0.999632, 361, 135, 376, 150
-0.999633, 57, 129, 88, 375
-0.999634, 129, 131, 144, 146
-0.999636, 355, 135, 370, 150
-0.999641, 155, 131, 170, 146
-0.999642, 469, 115, 484, 130
-0.999642, 341, 135, 356, 150
-0.999643, 287, 133, 302, 148
-0.999644, 145, 131, 160, 146
-0.999647, 417, 113, 432, 128
-0.999648, 367, 133, 382, 148
-0.999655, 321, 133, 336, 148
-0.999658, 103, 133, 118, 148
-0.999658, 475, 117, 490, 132
-0.999659, 419, 129, 434, 144
-0.999668, 421, 121, 436, 136
-0.999674, 433, 131, 448, 146
-0.999678, 199, 133, 214, 148
-0.999685, 433, 111, 448, 126
-0.999708, 469, 109, 484, 124
-0.999709, 427, 115, 442, 130
-0.999714, 97, 133, 112, 148
-0.999722, 33, 129, 64, 375
-0.999727, 475, 111, 490, 126
-0.999731, 157, 129, 188, 375
-0.999735, 433, 125, 448, 140
-0.99974, 161, 1, 416, 64
-0.999746, 435, 119, 450, 134
-0.999757, 427, 125, 442, 140
-0.999857, 1, 297, 500, 360
-1.00028, 1, 81, 500, 144
-1.0005, 1, 33, 500, 96
-1.00138, 1, 1, 500, 64
-1.00172, 65, 17, 320, 80
-1.00313, 81, 1, 208, 64
-1.00317, 1, 1, 128, 64
-1.00339, 177, 1, 304, 64
-1.0044, 129, 1, 256, 64
