1967
-0.385391, 1, 1, 500, 375
-0.388785, 161, 1, 416, 375
-0.419872, 1, 33, 500, 288
-0.481267, 1, 129, 500, 375
-0.529956, 65, 1, 320, 375
-0.547648, 161, 33, 416, 288
-0.574689, 257, 1, 500, 375
-0.601869, 1, 1, 256, 256
-0.685024, 97, 129, 352, 375
-0.695897, 257, 97, 500, 352
-0.778492, 1, 97, 256, 352
-0.8162, 193, 1, 320, 375
-0.829899, 193, 33, 320, 288
-0.847381, 257, 1, 500, 256
-0.850526, 17, 1, 144, 256
-0.855246, 1, 1, 128, 375
-0.860329, 241, 1, 368, 375
-0.8645, 241, 33, 368, 288
-0.870883, 113, 65, 240, 320
-0.872806, 289, 129, 416, 375
-0.874705, 305, 1, 432, 375
-0.876712, 145, 1, 272, 375
-0.883137, 33, 129, 160, 375
-0.884602, 241, 129, 368, 375
-0.885841, 1, 97, 500, 224
-0.889688, 65, 1, 192, 256
-0.890345, 49, 1, 176, 375
-0.890392, 1, 161, 500, 288
-0.89651, 161, 81, 416, 208
-0.897009, 1, 49, 500, 176
-0.902043, 177, 129, 304, 375
-0.903869, 1, 1, 256, 128
-0.90624, 97, 1, 224, 375
-0.907778, 305, 33, 432, 288
-0.914765, 353, 129, 480, 375
-0.917209, 129, 129, 384, 256
-0.921739, 1, 1, 500, 128
-0.9237, 257, 145, 500, 272
-0.928194, 193, 33, 320, 160
-0.928888, 129, 177, 384, 304
-0.92891, 1, 49, 256, 176
-0.928922, 1, 113, 256, 240
-0.930356, 161, 33, 416, 160
-0.930598, 281, 145, 344, 272
-0.933599, 225, 113, 352, 240
-0.934117, 369, 1, 496, 375
-0.937915, 273, 145, 400, 272
-0.940073, 97, 145, 224, 272
-0.941202, 209, 33, 272, 160
-0.94271, 33, 161, 288, 288
-0.944178, 17, 1, 144, 128
-0.944518, 193, 225, 448, 352
-0.944525, 225, 177, 352, 304
-0.945292, 177, 81, 240, 208
-0.945367, 353, 241, 480, 368
-0.945568, 369, 1, 496, 256
-0.94578, 273, 193, 400, 320
-0.946414, 273, 97, 336, 224
-0.946538, 113, 97, 240, 224
-0.946721, 65, 1, 128, 128
-0.9469, 257, 49, 500, 176
-0.947232, 161, 81, 288, 208
-0.947285, 1, 209, 500, 336
-0.948532, 257, 177, 320, 304
-0.948641, 25, 49, 88, 176
-0.950333, 145, 97, 208, 224
-0.950391, 233, 33, 296, 160
-0.950683, 145, 161, 272, 288
-0.951928, 281, 185, 344, 248
-0.952118, 1, 49, 128, 176
-0.952416, 33, 145, 160, 272
-0.953036, 361, 241, 424, 368
-0.953631, 305, 129, 368, 256
-0.953722, 281, 129, 344, 192
-0.954643, 233, 177, 296, 304
-0.95557, 97, 145, 160, 272
-0.955866, 1, 65, 64, 192
-0.957002, 297, 193, 360, 320
-0.957018, 257, 49, 320, 176
-0.95835, 281, 33, 344, 160
-0.958391, 409, 305, 472, 368
-0.958473, 33, 97, 160, 224
-0.959621, 217, 41, 280, 104
-0.959785, 169, 97, 232, 160
-0.960216, 257, 97, 500, 224
-0.960502, 281, 153, 344, 216
-0.961066, 337, 193, 400, 320
-0.961082, 241, 33, 368, 160
-0.961737, 145, 145, 208, 272
-0.961844, 361, 297, 424, 360
-0.962311, 369, 193, 496, 320
-0.96236, 385, 225, 448, 352
-0.962391, 321, 193, 448, 320
-0.96243, 97, 193, 160, 320
-0.962468, 25, 1, 88, 128
-0.96285, 321, 129, 448, 256
-0.963104, 289, 49, 416, 176
-0.963708, 145, 113, 208, 176
-0.9638, 145, 33, 272, 160
-0.963973, 281, 105, 344, 168
-0.964072, 273, 225, 336, 352
-0.964354, 273, 97, 400, 224
-0.964901, 137, 137, 200, 200
-0.96503, 249, 193, 312, 256
-0.966076, 113, 97, 176, 224
-0.966172, 297, 81, 360, 208
-0.966207, 1, 17, 64, 144
-0.966247, 97, 225, 352, 352
-0.966296, 385, 297, 448, 360
-0.966307, 273, 65, 336, 320
-0.96642, 281, 233, 344, 296
-0.966635, 233, 33, 296, 288
-0.96719, 225, 225, 352, 352
-0.967198, 313, 137, 376, 200
-0.967218, 369, 129, 496, 256
-0.96736, 97, 265, 160, 328
-0.967489, 241, 49, 304, 112
-0.967489, 9, 65, 72, 128
-0.968179, 193, 49, 320, 112
-0.968631, 257, 1, 500, 128
-0.96885, 409, 241, 472, 368
-0.968917, 33, 9, 96, 72
-0.968936, 97, 161, 160, 224
-0.96899, 49, 113, 112, 240
-0.969588, 353, 273, 416, 336
-0.969802, 137, 49, 200, 176
-0.969882, 193, 33, 256, 288
-0.969921, 89, 1, 152, 128
-0.969959, 353, 297, 480, 360
-0.970099, 65, 17, 128, 80
-0.970181, 289, 209, 352, 272
-0.970203, 241, 129, 304, 256
-0.97021, 297, 129, 360, 375
-0.970336, 273, 241, 400, 368
-0.970395, 281, 73, 344, 136
-0.970399, 57, 1, 120, 256
-0.970442, 201, 73, 264, 136
-0.970528, 309, 121, 340, 184
-0.970609, 33, 41, 96, 104
-0.970856, 33, 193, 160, 320
-0.971041, 257, 217, 320, 280
-0.971079, 65, 1, 192, 128
-0.971152, 201, 161, 264, 288
-0.971232, 169, 129, 232, 256
-0.971239, 9, 17, 72, 80
-0.971351, 97, 129, 160, 375
-0.971586, 361, 193, 424, 320
-0.971923, 177, 105, 208, 168
-0.972046, 49, 49, 112, 176
-0.972102, 309, 113, 340, 240
-0.972464, 1, 33, 64, 288
-0.972552, 97, 217, 160, 280
-0.97262, 97, 209, 224, 336
-0.972755, 73, 145, 136, 272
-0.972797, 433, 209, 496, 336
-0.972879, 257, 1, 320, 128
-0.973089, 89, 241, 152, 368
-0.973101, 65, 49, 192, 176
-0.973199, 257, 161, 320, 224
-0.973374, 177, 97, 208, 224
-0.973542, 281, 33, 344, 96
-0.97379, 153, 161, 216, 224
-0.974126, 409, 281, 472, 344
-0.974238, 317, 177, 348, 304
-0.97429, 321, 81, 384, 208
-0.97494, 177, 153, 240, 216
-0.975067, 297, 241, 360, 368
-0.975135, 49, 105, 112, 168
-0.97515, 113, 137, 176, 200
-0.975187, 1, 89, 64, 152
-0.975298, 257, 177, 384, 240
-0.975493, 377, 273, 440, 336
-0.975538, 97, 161, 224, 224
-0.975552, 321, 241, 384, 368
-0.975612, 305, 177, 336, 304
-0.975637, 33, 1, 96, 256
-0.975661, 337, 297, 400, 360
-0.975724, 169, 65, 232, 320
-0.975737, 225, 185, 288, 248
-0.975783, 257, 73, 320, 136
-0.97579, 97, 241, 160, 304
-0.975846, 89, 1, 152, 64
-0.975864, 361, 297, 392, 360
-0.975979, 185, 33, 248, 160
-0.97613, 9, 41, 72, 104
-0.976198, 113, 241, 176, 368
-0.97634, 305, 185, 368, 248
-0.976386, 305, 233, 368, 296
-0.976411, 321, 161, 384, 224
-0.976492, 193, 73, 320, 136
-0.97659, 313, 209, 376, 272
-0.976672, 121, 145, 184, 272
-0.976842, 25, 113, 88, 240
-0.976938, 189, 97, 220, 224
-0.977066, 161, 33, 224, 160
-0.977094, 401, 113, 464, 240
-0.977333, 269, 193, 300, 256
-0.977337, 273, 201, 400, 264
-0.977352, 73, 169, 136, 232
-0.977402, 329, 129, 392, 256
-0.977491, 1, 225, 256, 352
-0.977495, 305, 153, 432, 216
-0.977786, 169, 73, 232, 136
-0.977893, 293, 145, 324, 272
-0.977901, 137, 65, 200, 320
-0.978028, 89, 289, 152, 352
-0.978193, 53, 49, 84, 176
-0.978388, 437, 305, 468, 368
-0.978411, 409, 121, 472, 184
-0.978554, 265, 33, 296, 160
-0.978556, 273, 177, 304, 304
-0.978713, 1, 17, 128, 80
-0.978736, 257, 105, 320, 168
-0.978764, 265, 1, 328, 375
-0.978799, 385, 217, 448, 280
-0.978864, 193, 193, 320, 256
-0.978877, 217, 33, 248, 160
-0.978925, 97, 185, 160, 248
-0.978939, 33, 49, 64, 176
-0.978974, 209, 1, 272, 375
-0.979009, 289, 97, 320, 224
-0.979099, 209, 161, 336, 224
-0.979116, 73, 97, 136, 224
-0.979159, 161, 97, 288, 160
-0.979185, 361, 209, 424, 272
-0.979294, 137, 89, 200, 152
-0.979553, 233, 1, 296, 375
-0.979558, 33, 41, 160, 104
-0.979659, 309, 145, 340, 208
-0.979732, 361, 145, 424, 272
-0.979755, 89, 1, 120, 128
-0.97981, 165, 97, 196, 224
-0.979819, 201, 193, 264, 256
-0.97983, 241, 129, 368, 192
-0.980143, 89, 313, 152, 375
-0.980149, 193, 49, 256, 112
-0.980255, 217, 49, 248, 112
-0.980298, 241, 33, 272, 160
-0.980418, 409, 193, 472, 320
-0.980427, 49, 1, 176, 64
-0.98044, 305, 65, 336, 192
-0.980471, 37, 1, 68, 128
-0.980501, 57, 33, 88, 96
-0.980605, 185, 1, 248, 375
-0.9808, 265, 9, 328, 72
-0.980808, 105, 265, 136, 328
-0.980847, 321, 113, 384, 176
-0.980863, 65, 9, 96, 72
-0.980865, 317, 177, 348, 240
-0.980913, 293, 209, 324, 272
-0.981029, 97, 129, 224, 192
-0.98104, 177, 185, 240, 248
-0.981082, 65, 1, 96, 128
-0.981113, 49, 161, 112, 224
-0.981166, 77, 17, 108, 80
-0.981211, 233, 153, 296, 216
-0.981277, 217, 113, 280, 240
-0.981298, 261, 177, 292, 304
-0.981334, 33, 57, 64, 120
-0.981456, 433, 265, 496, 328
-0.981535, 169, 137, 200, 200
-0.981559, 313, 33, 376, 160
-0.981626, 313, 233, 344, 296
-0.981644, 101, 145, 132, 272
-0.98166, 33, 161, 160, 224
-0.981679, 145, 177, 272, 240
-0.981728, 277, 49, 308, 176
-0.98176, 129, 169, 192, 232
-0.981828, 177, 121, 240, 184
-0.981842, 21, 73, 52, 136
-0.981853, 289, 129, 416, 192
-0.981857, 177, 177, 240, 304
-0.981889, 257, 137, 320, 200
-0.982153, 9, 81, 40, 144
-0.982177, 313, 273, 376, 336
-0.98222, 337, 209, 400, 272
-0.982235, 293, 33, 324, 160
-0.982306, 301, 233, 332, 296
-0.982339, 229, 33, 260, 160
-0.982343, 77, 1, 108, 128
-0.98247, 33, 129, 160, 192
-0.982522, 177, 137, 304, 200
-0.982523, 113, 89, 240, 152
-0.982552, 121, 265, 152, 328
-0.982554, 321, 129, 384, 375
-0.982623, 401, 297, 432, 360
-0.982683, 285, 193, 316, 320
-0.982792, 321, 209, 448, 272
-0.982796, 13, 65, 44, 192
-0.98286, 205, 49, 236, 176
-0.982997, 57, 193, 120, 256
-0.983066, 93, 1, 124, 64
-0.983081, 269, 49, 300, 112
-0.983092, 241, 129, 304, 375
-0.98317, 1, 65, 128, 128
-0.983186, 49, 241, 176, 368
-0.983236, 289, 105, 416, 168
-0.983249, 241, 41, 272, 104
-0.98338, 101, 169, 132, 232
-0.983434, 321, 129, 352, 256
-0.983463, 305, 89, 368, 152
-0.983547, 201, 169, 264, 232
-0.983557, 225, 97, 352, 160
-0.9837, 441, 241, 472, 368
-0.983764, 369, 129, 496, 192
-0.983766, 241, 25, 304, 88
-0.983804, 281, 209, 312, 272
-0.98386, 389, 297, 420, 360
-0.983945, 45, 49, 76, 112
-0.983973, 409, 209, 472, 272
-0.983988, 17, 17, 48, 144
-0.984065, 13, 33, 44, 96
-0.984092, 225, 233, 352, 296
-0.984154, 1, 193, 128, 256
-0.984164, 369, 193, 496, 256
-0.984168, 369, 217, 496, 280
-0.984189, 365, 241, 396, 368
-0.984215, 65, 113, 96, 240
-0.984227, 313, 33, 376, 288
-0.984283, 137, 233, 200, 296
-0.984344, 369, 153, 432, 216
-0.984394, 305, 57, 368, 120
-0.984497, 377, 129, 440, 192
-0.984506, 253, 33, 284, 160
-0.98459, 285, 233, 316, 296
-0.984594, 65, 193, 128, 320
-0.984603, 305, 177, 432, 240
-0.984619, 257, 153, 384, 216
-0.984637, 9, 1, 72, 375
-0.984658, 189, 113, 220, 176
-0.984658, 305, 297, 432, 360
-0.984695, 113, 65, 240, 128
-0.98471, 273, 65, 400, 128
-0.984724, 1, 89, 128, 152
-0.984737, 33, 65, 96, 128
-0.984759, 193, 97, 256, 160
-0.984759, 329, 145, 360, 208
-0.984787, 105, 1, 136, 64
-0.984798, 241, 33, 368, 96
-0.984838, 369, 249, 432, 312
-0.984876, 25, 105, 88, 168
-0.984896, 49, 1, 80, 128
-0.98495, 353, 273, 480, 336
-0.984953, 281, 185, 312, 248
-0.984996, 337, 249, 400, 312
-0.985012, 65, 129, 128, 192
-0.985034, 353, 65, 480, 192
-0.985045, 409, 129, 472, 375
-0.985064, 421, 281, 452, 344
-0.9851, 301, 225, 332, 352
-0.985149, 229, 41, 260, 104
-0.985156, 121, 193, 184, 320
-0.985234, 1, 81, 32, 208
-0.985287, 273, 129, 304, 256
-0.985321, 253, 41, 284, 104
-0.985334, 65, 105, 192, 168
-0.985337, 233, 81, 296, 144
-0.985386, 345, 145, 408, 208
-0.985401, 313, 225, 344, 352
-0.985479, 417, 145, 480, 208
-0.985484, 293, 153, 324, 216
-0.985491, 337, 185, 400, 248
-0.98553, 293, 41, 324, 104
-0.985542, 177, 145, 208, 272
-0.985565, 65, 297, 128, 360
-0.985637, 301, 89, 332, 152
-0.985652, 49, 209, 176, 272
-0.985693, 81, 1, 144, 256
-0.985862, 293, 121, 324, 184
-0.985865, 433, 161, 496, 288
-0.985977, 109, 225, 140, 352
-0.986023, 97, 113, 160, 176
-0.986046, 181, 145, 212, 208
-0.986054, 33, 129, 96, 192
-0.986144, 217, 17, 280, 80
-0.986185, 393, 209, 424, 272
-0.986193, 57, 41, 120, 104
-0.986213, 1, 113, 64, 240
-0.986247, 81, 273, 208, 336
-0.986258, 237, 177, 268, 304
-0.986268, 97, 185, 224, 248
-0.986315, 5, 17, 36, 144
-0.986328, 157, 113, 188, 176
-0.986379, 257, 241, 320, 304
-0.986382, 433, 289, 496, 352
-0.986404, 73, 105, 136, 168
-0.986429, 45, 25, 76, 88
-0.986439, 177, 209, 304, 336
-0.986472, 33, 1, 96, 375
-0.986543, 433, 193, 496, 256
-0.986574, 281, 57, 312, 120
-0.986693, 137, 113, 168, 240
-0.986835, 257, 193, 288, 256
-0.986858, 249, 177, 280, 304
-0.986878, 289, 1, 352, 375
-0.986901, 113, 145, 144, 272
-0.98692, 125, 193, 156, 320
-0.98695, 401, 209, 432, 336
-0.987028, 25, 177, 88, 240
-0.987032, 289, 257, 352, 320
-0.987054, 185, 49, 216, 176
-0.987096, 113, 161, 144, 224
-0.987182, 273, 273, 400, 336
-0.987221, 57, 1, 120, 375
-0.987228, 209, 129, 272, 375
-0.987246, 389, 193, 420, 320
-0.987294, 121, 113, 184, 176
-0.987317, 273, 153, 304, 216
-0.98732, 293, 177, 324, 240
-0.987324, 313, 1, 376, 375
-0.987393, 73, 249, 136, 312
-0.987411, 313, 297, 376, 360
-0.987469, 113, 33, 240, 96
-0.987492, 305, 233, 432, 296
-0.987511, 113, 249, 240, 312
-0.987621, 69, 105, 100, 168
-0.987702, 245, 185, 276, 248
-0.987736, 329, 193, 360, 320
-0.987766, 393, 249, 456, 312
-0.987786, 41, 1, 72, 64
-0.987789, 25, 161, 88, 288
-0.987854, 121, 257, 184, 320
-0.987899, 53, 1, 84, 64
-0.987917, 329, 81, 360, 208
-0.987927, 177, 81, 208, 144
-0.987963, 369, 273, 400, 336
-0.987989, 5, 57, 36, 120
-0.988021, 433, 169, 496, 232
-0.988027, 433, 313, 496, 375
-0.988029, 97, 289, 128, 352
-0.98812, 193, 25, 320, 88
-0.988158, 197, 89, 228, 152
-0.988292, 417, 241, 448, 368
-0.9883, 289, 81, 320, 144
-0.988444, 225, 177, 256, 304
-0.988489, 389, 241, 420, 368
-0.988503, 9, 137, 72, 200
-0.988506, 369, 241, 496, 304
-0.988525, 137, 193, 200, 256
-0.988544, 97, 217, 224, 280
-0.988568, 169, 33, 232, 96
-0.988653, 345, 129, 408, 375
-0.988657, 433, 225, 496, 288
-0.98868, 381, 273, 412, 336
-0.9887, 305, 185, 336, 248
-0.988704, 49, 97, 80, 224
-0.988853, 321, 209, 352, 272
-0.988933, 377, 97, 440, 224
-0.988955, 385, 145, 416, 208
-0.988958, 373, 297, 404, 360
-0.988969, 161, 113, 416, 176
-0.988989, 137, 153, 168, 216
-0.989003, 201, 97, 232, 224
-0.989025, 361, 185, 424, 248
-0.989049, 205, 57, 236, 120
-0.989073, 65, 241, 128, 368
-0.989078, 353, 153, 480, 216
-0.989102, 153, 89, 184, 152
-0.989141, 281, 153, 344, 184
-0.989142, 281, 129, 344, 160
-0.989152, 65, 81, 192, 144
-0.989154, 169, 109, 232, 140
-0.98917, 129, 241, 160, 368
-0.989187, 441, 281, 472, 344
-0.989208, 105, 241, 136, 304
-0.98922, 377, 129, 440, 375
-0.989249, 145, 161, 176, 288
-0.989257, 137, 65, 200, 128
-0.989303, 433, 121, 496, 184
-0.989322, 353, 193, 384, 320
-0.989334, 281, 189, 344, 220
-0.989383, 125, 129, 156, 256
-0.989415, 93, 241, 124, 368
-0.98944, 137, 1, 200, 375
-0.989446, 1, 193, 64, 256
-0.989513, 249, 225, 312, 352
-0.989584, 433, 129, 496, 375
-0.989588, 129, 297, 192, 360
-0.989596, 289, 41, 416, 104
-0.989665, 97, 1, 224, 64
-0.989709, 297, 17, 328, 80
-0.989763, 161, 137, 416, 200
-0.989785, 261, 129, 292, 256
-0.989796, 409, 265, 440, 328
-0.989806, 301, 65, 332, 128
-0.989845, 453, 209, 484, 336
-0.989875, 25, 25, 56, 88
-0.989908, 361, 297, 424, 328
-0.989948, 1, 57, 256, 120
-0.989955, 281, 141, 344, 172
-0.989977, 193, 153, 224, 216
-0.989977, 49, 249, 176, 312
-0.990018, 65, 129, 128, 375
-0.990055, 249, 193, 312, 224
-0.990068, 49, 185, 176, 248
-0.990081, 377, 225, 408, 352
-0.990106, 225, 45, 288, 76
-0.990113, 9, 41, 72, 72
-0.990122, 197, 185, 228, 248
-0.990155, 89, 161, 120, 288
-0.990168, 417, 309, 480, 340
-0.990174, 457, 313, 488, 375
-0.990178, 161, 57, 416, 120
-0.990192, 1, 177, 64, 304
-0.990216, 421, 305, 452, 368
-0.990221, 33, 273, 160, 336
-0.990239, 337, 1, 400, 375
-0.990259, 333, 129, 364, 256
-0.990277, 305, 1, 432, 128
-0.990323, 69, 41, 100, 104
-0.990346, 137, 133, 200, 164
-0.990355, 369, 33, 432, 96
-0.990389, 201, 93, 264, 124
-0.990391, 129, 121, 192, 152
-0.990465, 9, 81, 72, 112
-0.990483, 177, 217, 304, 280
-0.990486, 245, 113, 276, 240
-0.990498, 281, 177, 344, 208
-0.990501, 97, 273, 160, 304
-0.990535, 281, 165, 344, 196
-0.990547, 349, 289, 380, 352
-0.990575, 369, 17, 496, 144
-0.990608, 305, 145, 368, 176
-0.990624, 97, 169, 160, 200
-0.990629, 113, 97, 144, 224
-0.99063, 169, 121, 232, 152
-0.990652, 233, 185, 264, 248
-0.990661, 369, 33, 432, 160
-0.990664, 281, 85, 344, 116
-0.990686, 333, 209, 364, 272
-0.990732, 153, 177, 216, 208
-0.990735, 145, 109, 208, 140
-0.990737, 241, 9, 368, 72
-0.990743, 281, 201, 344, 232
-0.990762, 449, 153, 480, 216
-0.990772, 161, 81, 416, 144
-0.990772, 261, 161, 292, 224
-0.990781, 361, 325, 424, 356
-0.990789, 281, 129, 312, 192
-0.990822, 49, 17, 112, 48
-0.990829, 109, 305, 140, 368
-0.990831, 61, 161, 92, 224
-0.990833, 49, 313, 176, 375
-0.990837, 193, 1, 320, 64
-0.990856, 297, 229, 360, 260
-0.990862, 273, 237, 336, 268
-0.990867, 401, 185, 464, 248
-0.990886, 97, 1, 160, 32
-0.990899, 193, 17, 256, 80
-0.990911, 73, 5, 136, 36
-0.990916, 313, 169, 376, 200
-0.990918, 53, 105, 84, 168
-0.990938, 49, 49, 112, 80
-0.990953, 25, 57, 88, 88
-0.990962, 313, 133, 376, 164
-0.990965, 269, 217, 300, 280
-0.990973, 33, 37, 96, 68
-0.990978, 161, 97, 224, 128
-0.990978, 281, 117, 344, 148
-0.990984, 373, 129, 404, 256
-0.991001, 353, 285, 416, 316
-0.991016, 449, 129, 480, 256
-0.991018, 245, 81, 276, 144
-0.991018, 97, 261, 160, 292
-0.99104, 385, 297, 448, 328
-0.991081, 93, 265, 124, 328
-0.991082, 49, 1, 112, 32
-0.991085, 1, 33, 256, 96
-0.991105, 25, 25, 88, 56
-0.991127, 289, 9, 352, 72
-0.991149, 233, 105, 296, 168
-0.991152, 213, 177, 244, 304
-0.991153, 425, 113, 488, 240
-0.99116, 41, 97, 104, 352
-0.991171, 113, 89, 176, 152
-0.991176, 57, 37, 120, 68
-0.991182, 73, 25, 136, 56
-0.991236, 125, 209, 156, 272
-0.991239, 89, 285, 152, 316
-0.991253, 385, 129, 416, 256
-0.991266, 25, 69, 88, 100
-0.991274, 365, 193, 396, 320
-0.991293, 145, 145, 208, 176
-0.991297, 201, 177, 232, 304
-0.991304, 241, 89, 304, 120
-0.991306, 113, 33, 176, 288
-0.991323, 189, 65, 220, 128
-0.991346, 9, 93, 72, 124
-0.991358, 81, 341, 144, 372
-0.99137, 1, 105, 32, 168
-0.991384, 133, 249, 164, 312
-0.991396, 281, 101, 344, 132
-0.991397, 341, 241, 372, 368
-0.991416, 225, 185, 288, 216
-0.991422, 281, 249, 344, 280
-0.991454, 313, 157, 376, 188
-0.991455, 201, 53, 264, 84
-0.991469, 377, 285, 440, 316
-0.991471, 97, 217, 160, 248
-0.991473, 409, 289, 472, 320
-0.991497, 1, 69, 64, 100
-0.991518, 281, 1, 312, 128
-0.991519, 145, 157, 208, 188
-0.99152, 273, 213, 336, 244
-0.991533, 361, 313, 424, 344
-0.991533, 121, 165, 184, 196
-0.991541, 161, 1, 224, 375
-0.991545, 225, 209, 288, 272
-0.991552, 445, 129, 476, 192
-0.99156, 305, 189, 368, 220
-0.991568, 241, 205, 304, 236
-0.991571, 177, 169, 208, 232
-0.991577, 1, 113, 500, 176
-0.991581, 397, 273, 428, 336
-0.991587, 221, 169, 252, 232
-0.991588, 25, 1, 88, 32
-0.991597, 1, 113, 256, 176
-0.991609, 49, 185, 112, 216
-0.991614, 361, 337, 424, 368
-0.991621, 201, 77, 264, 108
-0.991629, 313, 217, 376, 248
-0.991631, 209, 185, 240, 248
-0.991634, 305, 33, 368, 96
-0.991639, 65, 113, 128, 144
-0.991651, 273, 41, 336, 72
-0.991655, 201, 189, 264, 220
-0.991657, 461, 289, 492, 352
-0.991666, 281, 73, 344, 104
-0.991708, 265, 225, 328, 256
-0.991731, 89, 297, 152, 328
-0.99174, 81, 193, 112, 256
-0.991741, 89, 193, 152, 224
-0.991742, 225, 177, 480, 240
-0.991749, 73, 165, 136, 196
-0.991784, 97, 193, 352, 256
-0.991789, 177, 177, 240, 208
-0.991795, 257, 141, 320, 172
-0.991799, 153, 113, 184, 240
-0.991811, 281, 53, 344, 84
-0.991816, 121, 241, 152, 304
-0.991822, 117, 1, 148, 64
-0.991843, 257, 157, 320, 188
-0.991866, 89, 313, 120, 375
-0.991875, 249, 49, 312, 80
-0.991877, 209, 81, 240, 144
-0.991922, 337, 297, 400, 328
-0.991928, 97, 249, 160, 280
-0.991932, 249, 101, 312, 132
-0.991939, 145, 177, 176, 240
-0.991942, 81, 105, 112, 168
-0.991947, 249, 73, 312, 104
-0.991953, 321, 313, 384, 344
-0.991965, 417, 145, 480, 176
-0.991966, 129, 181, 192, 212
-0.99197, 409, 125, 472, 156
-0.991974, 309, 129, 340, 160
-0.991978, 305, 209, 336, 272
-0.992003, 57, 345, 120, 375
-0.992004, 157, 49, 188, 176
-0.992013, 177, 145, 240, 176
-0.992018, 369, 217, 432, 248
-0.992051, 89, 97, 120, 224
-0.99206, 201, 105, 264, 136
-0.992061, 373, 145, 404, 208
-0.992084, 337, 33, 464, 96
-0.992084, 185, 165, 248, 196
-0.992092, 129, 97, 192, 128
-0.992094, 177, 189, 240, 220
-0.992108, 409, 25, 472, 88
-0.99211, 1, 57, 64, 88
-0.992113, 321, 81, 352, 144
-0.992116, 81, 1, 144, 375
-0.992119, 177, 133, 240, 164
-0.99212, 217, 201, 280, 232
-0.992122, 433, 293, 496, 324
-0.992126, 201, 65, 264, 96
-0.992134, 337, 205, 400, 236
-0.992138, 365, 201, 396, 264
-0.992144, 97, 205, 160, 236
-0.992148, 89, 329, 152, 360
-0.992167, 337, 169, 368, 232
-0.992182, 417, 193, 448, 320
-0.992187, 177, 109, 208, 140
-0.992195, 33, 113, 96, 144
-0.9922, 241, 221, 304, 252
-0.992202, 229, 17, 260, 80
-0.99222, 1, 105, 64, 136
-0.992231, 313, 293, 376, 324
-0.992231, 129, 265, 192, 296
-0.992235, 305, 65, 368, 96
-0.992236, 241, 17, 272, 80
-0.992237, 257, 181, 320, 212
-0.992243, 113, 153, 176, 184
-0.992247, 305, 241, 368, 272
-0.99225, 337, 333, 400, 364
-0.992258, 29, 1, 60, 64
-0.992264, 137, 241, 200, 368
-0.992268, 337, 153, 400, 184
-0.992285, 97, 229, 160, 260
-0.99229, 89, 181, 152, 212
-0.9923, 33, 125, 96, 156
-0.992328, 385, 229, 448, 260
-0.992354, 249, 37, 312, 68
-0.992359, 81, 49, 144, 176
-0.992359, 145, 193, 208, 320
-0.992365, 129, 161, 384, 224
-0.992372, 121, 109, 184, 140
-0.992385, 321, 121, 384, 152
-0.992388, 313, 265, 376, 296
-0.992393, 409, 341, 472, 372
-0.992394, 345, 65, 408, 192
-0.992402, 201, 177, 264, 208
-0.992406, 97, 13, 160, 44
-0.992411, 25, 13, 88, 44
-0.992424, 417, 321, 480, 352
-0.992536, 65, 49, 96, 176
-0.992544, 317, 65, 348, 192
-0.992554, 325, 241, 356, 304
-0.992566, 309, 141, 340, 172
-0.992601, 257, 145, 500, 208
-0.992602, 73, 225, 136, 288
-0.992604, 157, 169, 188, 232
-0.992606, 137, 65, 168, 192
-0.992612, 337, 49, 400, 112
-0.992645, 77, 29, 108, 60
-0.992661, 309, 157, 340, 188
-0.99268, 309, 229, 340, 260
-0.992682, 33, 65, 64, 96
-0.992701, 273, 201, 304, 232
-0.992729, 293, 225, 324, 256
-0.99273, 77, 313, 108, 375
-0.992742, 105, 269, 136, 300
-0.992749, 325, 169, 356, 200
-0.992758, 345, 265, 376, 328
-0.992763, 441, 309, 472, 340
-0.992773, 317, 189, 348, 220
-0.992789, 157, 121, 188, 152
-0.992795, 93, 17, 124, 48
-0.992828, 361, 293, 392, 324
-0.992832, 109, 165, 140, 196
-0.992833, 53, 53, 84, 84
-0.992836, 105, 5, 136, 36
-0.992845, 329, 149, 360, 180
-0.992848, 389, 289, 420, 320
-0.99286, 257, 297, 384, 360
-0.992865, 373, 225, 404, 288
-0.992871, 285, 213, 316, 244
-0.992876, 13, 85, 44, 116
-0.992877, 73, 345, 104, 375
-0.992879, 69, 13, 100, 44
-0.992884, 61, 41, 92, 72
-0.992892, 41, 53, 72, 84
-0.992903, 401, 297, 432, 328
-0.992914, 1, 93, 32, 124
-0.992928, 261, 197, 292, 228
-0.992929, 285, 185, 316, 216
-0.992947, 1, 209, 32, 272
-0.992951, 105, 281, 136, 312
-0.992953, 165, 145, 196, 272
-0.992957, 65, 129, 96, 192
-0.992964, 145, 9, 272, 72
-0.992966, 217, 53, 248, 84
-0.992968, 13, 33, 44, 64
-0.992973, 265, 49, 296, 80
-0.992977, 57, 1, 88, 32
-0.992977, 277, 149, 308, 180
-0.99298, 373, 297, 404, 328
-0.992986, 293, 141, 324, 172
-0.992996, 361, 321, 392, 352
-0.993002, 93, 5, 124, 36
-0.993003, 361, 1, 424, 375
-0.993009, 113, 297, 240, 360
-0.993009, 121, 269, 152, 300
-0.99301, 21, 73, 52, 104
-0.993016, 241, 189, 272, 220
-0.99302, 1, 77, 32, 108
-0.993023, 309, 117, 340, 148
-0.993023, 97, 193, 128, 256
-0.993028, 93, 289, 124, 320
-0.993028, 289, 153, 320, 184
-0.993032, 313, 177, 344, 208
-0.993039, 77, 1, 108, 32
-0.993043, 373, 153, 404, 184
-0.993058, 57, 25, 88, 56
-0.993067, 189, 97, 220, 128
-0.993072, 189, 145, 220, 272
-0.993074, 285, 85, 316, 116
-0.99308, 289, 201, 320, 232
-0.993081, 177, 121, 208, 152
-0.993082, 169, 141, 200, 172
-0.993082, 429, 241, 460, 368
-0.993084, 245, 45, 276, 76
-0.993086, 321, 249, 352, 280
-0.993087, 45, 65, 76, 96
-0.993088, 301, 89, 332, 120
-0.993088, 97, 169, 128, 200
-0.993092, 73, 41, 104, 72
-0.993095, 369, 105, 496, 168
-0.9931, 297, 77, 328, 108
-0.993105, 89, 337, 120, 368
-0.993105, 297, 237, 328, 268
-0.993107, 321, 129, 352, 160
-0.993114, 81, 17, 112, 48
-0.993115, 305, 1, 432, 64
-0.993117, 41, 37, 72, 68
-0.99312, 229, 49, 260, 80
-0.993126, 321, 217, 352, 248
-0.993133, 417, 289, 448, 320
-0.993137, 33, 77, 64, 108
-0.99314, 229, 185, 260, 216
-0.993141, 69, 109, 100, 140
-0.993156, 173, 177, 204, 208
-0.993157, 273, 189, 304, 220
-0.993161, 301, 249, 332, 280
-0.993162, 253, 17, 284, 80
-0.993171, 393, 213, 424, 244
-0.993181, 401, 285, 432, 316
-0.993181, 297, 125, 328, 156
-0.993182, 125, 257, 156, 288
-0.993186, 189, 109, 220, 140
-0.993191, 373, 285, 404, 316
-0.993191, 157, 181, 188, 212
-0.993192, 293, 49, 324, 80
-0.993193, 345, 293, 376, 324
-0.993195, 389, 301, 420, 332
-0.993199, 249, 89, 280, 120
-0.9932, 317, 201, 348, 232
-0.993203, 37, 113, 68, 240
-0.993206, 361, 305, 392, 336
-0.993206, 117, 1, 148, 32
-0.993209, 65, 125, 96, 156
-0.993212, 365, 333, 396, 364
-0.993227, 257, 209, 500, 272
-0.993229, 185, 145, 216, 176
-0.99323, 165, 105, 196, 136
-0.993231, 277, 53, 308, 84
-0.993237, 413, 301, 444, 332
-0.993238, 245, 105, 276, 136
-0.99324, 189, 173, 220, 204
-0.993245, 297, 185, 328, 216
-0.993247, 257, 305, 500, 368
-0.993249, 137, 129, 168, 192
-0.99325, 121, 281, 152, 312
-0.993251, 265, 25, 296, 88
-0.993252, 109, 325, 140, 356
-0.99326, 449, 145, 480, 176
-0.993263, 101, 213, 132, 244
-0.993265, 33, 169, 288, 232
-0.993266, 241, 201, 272, 232
-0.993269, 301, 201, 332, 232
-0.99327, 385, 157, 416, 188
-0.993272, 105, 257, 136, 288
-0.993275, 145, 177, 176, 208
-0.993277, 41, 9, 72, 40
-0.993278, 205, 89, 236, 120
-0.993278, 105, 341, 136, 372
-0.99328, 233, 93, 264, 124
-0.993281, 5, 213, 36, 244
-0.993282, 285, 97, 316, 128
-0.993283, 121, 333, 152, 364
-0.993285, 189, 161, 220, 192
-0.993287, 297, 33, 328, 64
-0.993288, 289, 109, 320, 140
-0.99329, 97, 217, 352, 280
-0.993291, 153, 101, 184, 132
-0.993292, 277, 17, 308, 80
-0.993293, 209, 193, 240, 224
-0.993293, 53, 113, 84, 144
-0.993295, 97, 197, 128, 228
-0.993296, 337, 213, 368, 244
-0.9933, 105, 1, 168, 375
-0.993303, 45, 129, 76, 160
-0.993304, 29, 53, 60, 84
-0.993306, 297, 21, 328, 52
-0.993306, 337, 201, 368, 232
-0.993307, 121, 169, 152, 200
-0.993364, 305, 17, 336, 144
-0.993375, 345, 313, 376, 375
-0.993381, 437, 193, 468, 320
-0.993407, 325, 121, 356, 184
-0.993434, 1, 113, 64, 176
-0.993434, 89, 137, 152, 200
-0.993439, 353, 301, 480, 332
-0.993539, 1, 89, 256, 152
-0.993591, 225, 257, 352, 320
-0.993613, 345, 121, 408, 184
-0.993621, 193, 61, 320, 92
-0.993656, 181, 97, 196, 160
-0.993668, 33, 9, 288, 72
-0.993709, 205, 1, 236, 128
-0.993795, 105, 1, 136, 128
-0.993854, 193, 49, 320, 80
-0.993891, 217, 129, 248, 256
-0.993913, 409, 49, 472, 176
-0.993924, 341, 193, 372, 320
-0.99408, 257, 121, 500, 184
-0.994101, 1, 217, 128, 280
-0.994136, 1, 137, 500, 200
-0.994225, 337, 57, 464, 120
-0.994268, 193, 85, 320, 116
-0.994288, 229, 129, 260, 256
-0.994352, 125, 1, 156, 128
-0.994354, 225, 185, 352, 216
-0.994365, 1, 177, 500, 240
-0.99442, 321, 121, 336, 184
-0.994432, 409, 33, 472, 288
-0.994448, 81, 169, 208, 200
-0.994461, 1, 249, 128, 312
-0.994515, 1, 9, 500, 72
-0.994533, 409, 1, 472, 375
-0.994604, 1, 89, 500, 152
-0.994618, 273, 209, 400, 240
-0.994621, 1, 137, 256, 200
-0.994653, 385, 161, 448, 288
-0.994664, 125, 81, 156, 208
-0.994686, 141, 209, 172, 336
-0.994745, 77, 113, 108, 240
-0.994751, 367, 289, 382, 352
-0.994784, 345, 145, 376, 272
-0.994792, 257, 65, 500, 128
-0.994801, 61, 161, 92, 288
-0.994832, 181, 137, 196, 200
-0.994842, 187, 105, 202, 168
-0.994866, 97, 157, 224, 188
-0.994931, 193, 1, 224, 128
-0.994957, 1, 33, 500, 96
-0.995014, 225, 33, 480, 96
-0.995023, 241, 133, 368, 164
-0.995048, 241, 149, 368, 180
-0.995065, 1, 241, 128, 368
-0.995132, 257, 197, 384, 228
-0.995155, 129, 241, 384, 304
-0.995164, 193, 73, 320, 104
-0.995274, 313, 97, 344, 352
-0.995277, 1, 297, 128, 360
-0.995311, 1, 57, 500, 120
-0.99532, 437, 113, 468, 240
-0.995352, 33, 169, 160, 200
-0.995361, 73, 1, 88, 64
-0.995372, 281, 193, 296, 256
-0.995412, 49, 57, 64, 120
-0.995415, 57, 49, 72, 112
-0.995431, 67, 41, 82, 104
-0.99548, 1, 29, 128, 60
-0.995487, 305, 157, 432, 188
-0.995502, 369, 9, 496, 72
-0.995511, 353, 333, 480, 364
-0.995553, 85, 25, 100, 88
-0.995585, 225, 161, 352, 192
-0.995596, 177, 193, 304, 224
-0.995621, 65, 17, 80, 80
-0.995622, 41, 65, 56, 128
-0.995668, 75, 33, 90, 96
-0.995708, 385, 1, 448, 375
-0.995713, 173, 33, 204, 160
-0.995742, 113, 181, 240, 212
-0.995764, 17, 1, 144, 32
-0.995764, 81, 117, 208, 148
-0.99577, 193, 281, 448, 344
-0.995782, 453, 305, 468, 368
-0.995803, 257, 97, 500, 160
-0.995815, 405, 289, 420, 352
-0.99584, 289, 221, 416, 252
-0.995847, 193, 105, 320, 136
-0.995861, 109, 257, 124, 320
-0.995868, 291, 185, 306, 248
-0.995898, 257, 33, 288, 288
-0.995905, 415, 297, 430, 360
-0.995909, 161, 145, 288, 176
-0.995913, 329, 169, 344, 232
-0.995924, 175, 97, 190, 160
-0.995941, 291, 217, 306, 280
-0.995945, 273, 185, 400, 216
-0.995991, 57, 25, 72, 88
-0.995997, 377, 177, 408, 304
-0.995998, 97, 145, 224, 176
-0.996004, 313, 233, 328, 296
-0.996013, 5, 193, 36, 320
-0.996016, 79, 1, 94, 64
-0.996023, 33, 53, 160, 84
-0.996025, 193, 113, 208, 176
-0.996029, 1, 81, 16, 144
-0.996044, 93, 17, 108, 80
-0.996048, 145, 105, 272, 136
-0.996068, 287, 57, 302, 120
-0.99607, 113, 161, 128, 224
-0.996073, 257, 233, 500, 296
-0.996088, 1, 41, 128, 72
-0.996091, 49, 33, 64, 96
-0.996099, 101, 1, 116, 64
-0.996099, 281, 49, 296, 112
-0.996132, 305, 169, 432, 200
-0.996134, 297, 209, 312, 272
-0.996135, 353, 289, 480, 320
-0.996146, 31, 65, 46, 128
-0.996163, 113, 93, 240, 124
-0.996173, 49, 1, 80, 256
-0.996178, 369, 217, 496, 248
-0.99618, 253, 41, 268, 104
-0.996182, 113, 73, 240, 104
-0.996185, 269, 33, 300, 288
-0.996186, 289, 145, 416, 176
-0.996194, 17, 89, 32, 152
-0.996198, 25, 73, 40, 136
-0.996201, 107, 281, 122, 344
-0.996237, 301, 97, 332, 352
-0.996255, 225, 33, 256, 288
-0.996262, 293, 65, 308, 128
-0.996267, 353, 345, 480, 375
-0.996271, 9, 89, 24, 152
-0.996299, 321, 233, 336, 296
-0.996302, 313, 121, 328, 184
-0.996303, 107, 1, 122, 64
-0.996312, 241, 121, 368, 152
-0.996314, 133, 265, 148, 328
-0.996328, 129, 193, 256, 224
-0.99633, 275, 193, 290, 256
-0.996336, 307, 113, 322, 176
-0.996357, 221, 49, 236, 112
-0.996362, 259, 41, 274, 104
-0.996363, 353, 321, 480, 352
-0.996375, 81, 133, 208, 164
-0.996391, 17, 13, 144, 44
-0.9964, 307, 241, 322, 304
-0.996422, 19, 33, 34, 96
-0.996433, 187, 145, 202, 208
-0.996435, 1, 77, 128, 108
-0.996436, 145, 169, 272, 200
-0.996445, 421, 297, 436, 360
-0.996474, 49, 29, 176, 60
-0.99648, 177, 157, 304, 188
-0.996486, 213, 33, 244, 288
-0.996486, 69, 1, 100, 256
-0.996487, 247, 41, 262, 104
-0.996497, 81, 1, 208, 32
-0.99651, 41, 41, 56, 104
-0.996512, 101, 81, 132, 208
-0.996513, 225, 173, 352, 204
-0.996515, 245, 33, 276, 288
-0.996521, 49, 145, 80, 272
-0.996539, 305, 133, 432, 164
-0.996554, 241, 41, 256, 104
-0.996561, 433, 1, 496, 375
-0.996564, 399, 297, 414, 360
-0.996573, 391, 297, 406, 360
-0.996579, 269, 193, 284, 256
-0.996579, 257, 45, 384, 76
-0.996579, 9, 1, 40, 256
-0.996592, 377, 297, 392, 360
-0.996592, 287, 161, 302, 224
-0.996595, 121, 265, 136, 328
-0.996606, 327, 129, 342, 192
-0.996606, 329, 193, 344, 256
-0.996609, 1, 193, 256, 256
-0.996615, 307, 217, 322, 280
-0.996623, 285, 33, 316, 288
-0.99663, 233, 41, 248, 104
-0.996642, 289, 117, 416, 148
-0.996642, 59, 1, 74, 64
-0.996643, 81, 13, 208, 44
-0.996652, 429, 273, 444, 336
-0.996669, 225, 209, 352, 240
-0.996674, 323, 129, 338, 160
-0.996677, 145, 117, 272, 148
-0.996679, 225, 237, 352, 268
-0.996686, 317, 89, 332, 152
-0.996701, 27, 41, 42, 104
-0.996705, 161, 181, 288, 212
-0.996709, 1, 93, 128, 124
-0.996709, 401, 161, 432, 288
-0.996715, 447, 305, 462, 368
-0.996723, 383, 297, 398, 360
-0.996723, 33, 153, 160, 184
-0.996739, 267, 41, 282, 104
-0.996741, 115, 257, 130, 320
-0.996763, 301, 233, 316, 296
-0.996765, 369, 313, 384, 375
-0.996772, 175, 129, 190, 192
-0.996776, 227, 41, 242, 104
-0.996779, 105, 169, 120, 232
-0.996783, 323, 161, 338, 224
-0.996789, 113, 49, 176, 176
-0.996795, 197, 65, 228, 320
-0.996803, 275, 41, 290, 104
-0.996804, 49, 9, 64, 72
-0.996813, 357, 297, 372, 360
-0.996815, 177, 249, 304, 312
-0.996818, 369, 145, 496, 176
-0.996822, 305, 289, 432, 320
-0.996832, 1, 105, 16, 168
-0.996848, 9, 129, 72, 375
-0.996856, 49, 41, 176, 72
-0.996857, 27, 1, 42, 64
-0.996858, 33, 113, 160, 144
-0.996859, 273, 57, 400, 88
-0.996865, 81, 105, 208, 136
-0.996884, 273, 233, 400, 264
-0.996891, 391, 273, 406, 336
-0.996898, 273, 81, 400, 112
-0.996902, 257, 81, 272, 144
-0.996917, 77, 161, 108, 288
-0.996925, 209, 221, 336, 252
-0.996938, 215, 57, 230, 120
-0.99694, 305, 301, 432, 332
-0.99694, 127, 273, 142, 336
-0.996959, 81, 277, 208, 308
-0.996964, 459, 129, 474, 192
-0.996965, 279, 153, 294, 216
-0.996969, 443, 281, 458, 344
-0.996975, 101, 129, 132, 375
-0.996976, 97, 289, 112, 352
-0.996988, 35, 41, 50, 104
-0.996989, 313, 145, 328, 208
-0.996992, 13, 65, 28, 128
-0.996992, 75, 105, 90, 168
-0.996993, 305, 197, 432, 228
-0.996994, 81, 1, 112, 256
-0.996995, 177, 65, 208, 320
-0.996996, 33, 65, 160, 96
-0.997, 273, 97, 400, 128
-0.997002, 461, 313, 476, 375
-0.997003, 33, 181, 160, 212
-0.99701, 37, 1, 68, 256
-0.997011, 129, 273, 256, 336
-0.997019, 317, 1, 348, 128
-0.997026, 161, 133, 288, 164
-0.997027, 385, 1, 448, 256
-0.997027, 1, 209, 128, 240
-0.997036, 1, 209, 500, 272
-0.997061, 369, 205, 496, 236
-0.997064, 387, 145, 402, 208
-0.997077, 103, 257, 118, 320
-0.997079, 113, 61, 240, 92
-0.997097, 193, 145, 208, 208
-0.997108, 335, 193, 350, 256
-0.997119, 285, 217, 300, 280
-0.997131, 381, 273, 396, 336
-0.997134, 437, 297, 452, 360
-0.997139, 461, 145, 492, 272
-0.997152, 19, 57, 34, 120
-0.997164, 97, 33, 352, 96
-0.997171, 179, 105, 194, 136
-0.99718, 337, 33, 400, 288
-0.997185, 207, 89, 222, 152
-0.997187, 1, 289, 256, 352
-0.997222, 17, 197, 144, 228
-0.997228, 453, 121, 468, 184
-0.997229, 465, 289, 480, 352
-0.997238, 137, 241, 152, 304
-0.997253, 69, 105, 84, 168
-0.997257, 293, 153, 308, 216
-0.997264, 323, 97, 338, 160
-0.99728, 47, 65, 62, 96
-0.997282, 113, 129, 144, 375
-0.997292, 327, 233, 342, 296
-0.997293, 251, 177, 266, 240
-0.997293, 387, 217, 402, 280
-0.997307, 33, 133, 160, 164
-0.997307, 81, 225, 112, 352
-0.997311, 325, 97, 356, 352
-0.997347, 305, 317, 432, 348
-0.997352, 89, 297, 104, 360
-0.99736, 49, 209, 176, 240
-0.997363, 157, 169, 172, 232
-0.997363, 369, 229, 496, 260
-0.997365, 415, 273, 430, 336
-0.997366, 91, 177, 106, 240
-0.997369, 81, 313, 96, 375
-0.997383, 141, 209, 156, 272
-0.997394, 273, 69, 400, 100
-0.997398, 225, 249, 352, 280
-0.997399, 199, 113, 214, 176
-0.997418, 405, 257, 420, 320
-0.99742, 369, 161, 496, 192
-0.997422, 299, 161, 314, 224
-0.997423, 435, 273, 450, 336
-0.997424, 213, 185, 228, 248
-0.997428, 143, 241, 158, 304
-0.997429, 65, 265, 320, 328
-0.997445, 113, 165, 128, 196
-0.997458, 97, 221, 224, 252
-0.997468, 119, 161, 134, 224
-0.99747, 33, 313, 288, 375
-0.997496, 259, 201, 274, 264
-0.997509, 369, 241, 496, 272
-0.997513, 49, 225, 176, 256
-0.997522, 1, 273, 500, 336
-0.997523, 69, 41, 84, 72
-0.997531, 49, 345, 176, 375
-0.997541, 369, 125, 496, 156
-0.997547, 91, 21, 106, 52
-0.997568, 321, 209, 448, 240
-0.997568, 241, 109, 368, 140
-0.997581, 55, 53, 70, 84
-0.997582, 311, 237, 326, 268
-0.997592, 83, 29, 98, 60
-0.9976, 417, 113, 448, 240
-0.997632, 361, 145, 392, 272
-0.997636, 321, 241, 448, 272
-0.997637, 469, 225, 500, 352
-0.997642, 33, 273, 160, 304
-0.997644, 75, 37, 90, 68
-0.997664, 41, 65, 56, 96
-0.997697, 125, 129, 156, 375
-0.997708, 129, 241, 256, 272
-0.997712, 61, 53, 76, 84
-0.997713, 107, 1, 122, 32
-0.997725, 225, 33, 352, 64
-0.997726, 25, 113, 56, 240
-0.997741, 29, 77, 44, 108
-0.997744, 97, 17, 112, 48
-0.997754, 329, 33, 360, 160
-0.997757, 279, 197, 294, 228
-0.997758, 25, 33, 56, 288
-0.997779, 145, 49, 272, 80
-0.997797, 315, 129, 330, 160
-0.997803, 17, 33, 32, 64
-0.997812, 273, 249, 400, 280
-0.997815, 287, 193, 302, 224
-0.997852, 1, 297, 500, 360
-0.997857, 365, 293, 380, 324
-0.997874, 313, 225, 328, 256
-0.997904, 109, 265, 124, 296
-0.997905, 105, 281, 120, 312
-0.99791, 97, 209, 224, 240
-0.997911, 65, 293, 192, 324
-0.997924, 137, 261, 152, 292
-0.997937, 85, 345, 100, 375
-0.997956, 301, 1, 332, 256
-0.997963, 367, 325, 382, 356
-0.99797, 257, 257, 500, 320
-0.997971, 305, 329, 432, 360
-0.99799, 35, 69, 50, 100
-0.99799, 101, 5, 116, 36
-0.997995, 289, 277, 416, 308
-0.997998, 405, 289, 420, 320
-0.998, 97, 289, 352, 352
-0.99801, 385, 153, 400, 184
-0.998012, 113, 265, 240, 296
-0.998012, 23, 85, 38, 116
-0.99802, 329, 169, 344, 200
-0.99803, 455, 309, 470, 340
-0.998038, 181, 141, 196, 172
-0.998048, 81, 197, 208, 228
-0.998049, 81, 49, 112, 176
-0.998053, 273, 33, 400, 64
-0.998076, 225, 5, 352, 36
-0.998089, 81, 237, 208, 268
-0.998091, 289, 129, 320, 375
-0.998094, 257, 289, 384, 320
-0.998106, 15, 93, 30, 124
-0.998109, 113, 1, 128, 32
-0.99811, 369, 189, 496, 220
-0.998115, 365, 309, 380, 340
-0.998123, 265, 129, 296, 375
-0.998136, 303, 229, 318, 260
-0.998139, 289, 205, 304, 236
-0.998143, 49, 325, 176, 356
-0.998148, 327, 181, 342, 212
-0.998163, 171, 117, 186, 148
-0.998168, 305, 45, 432, 76
-0.998174, 415, 297, 430, 328
-0.998187, 321, 253, 448, 284
-0.998194, 387, 289, 402, 320
-0.998196, 307, 189, 322, 220
-0.998203, 119, 165, 134, 196
-0.998204, 3, 105, 18, 136
-0.998205, 305, 265, 432, 296
-0.998206, 289, 153, 304, 184
-0.998207, 233, 129, 264, 375
-0.998211, 165, 65, 196, 320
-0.998211, 177, 205, 304, 236
-0.998214, 5, 89, 20, 120
-0.998218, 317, 237, 332, 268
-0.998219, 115, 273, 130, 304
-0.99822, 395, 289, 410, 320
-0.998221, 293, 89, 308, 120
-0.998234, 57, 37, 72, 68
-0.998237, 369, 277, 496, 308
-0.998249, 355, 297, 370, 328
-0.99825, 69, 25, 84, 56
-0.998259, 319, 185, 334, 216
-0.998261, 33, 261, 160, 292
-0.998263, 369, 253, 496, 284
-0.998265, 121, 277, 136, 308
-0.998266, 287, 89, 302, 120
-0.998266, 295, 201, 310, 232
-0.998285, 129, 37, 256, 68
-0.998287, 97, 253, 224, 284
-0.99829, 95, 341, 110, 372
-0.998298, 107, 165, 122, 196
-0.998299, 193, 117, 320, 148
-0.9983, 257, 193, 272, 224
-0.998306, 189, 109, 204, 140
-0.998309, 51, 41, 66, 72
-0.998313, 99, 289, 114, 320
-0.998323, 305, 137, 320, 168
-0.99833, 331, 145, 346, 176
-0.998336, 457, 121, 472, 152
-0.998339, 249, 189, 264, 220
-0.998345, 283, 53, 298, 84
-0.998348, 325, 249, 340, 280
-0.998352, 109, 293, 124, 324
-0.998353, 75, 13, 90, 44
-0.998356, 277, 49, 292, 80
-0.998357, 373, 151, 404, 166
-0.998357, 33, 313, 160, 344
-0.998357, 337, 205, 368, 220
-0.998358, 257, 301, 384, 332
-0.998361, 361, 307, 392, 322
-0.998361, 157, 115, 188, 130
-0.998362, 109, 343, 140, 358
-0.998362, 65, 53, 96, 68
-0.998363, 293, 127, 324, 142
-0.998363, 313, 235, 344, 250
-0.998364, 225, 51, 256, 66
-0.998364, 69, 113, 100, 128
-0.998365, 131, 269, 146, 300
-0.998365, 173, 183, 204, 198
-0.998366, 9, 41, 40, 56
-0.998366, 463, 321, 478, 352
-0.998367, 189, 113, 220, 128
-0.998367, 341, 297, 372, 312
-0.998367, 281, 93, 312, 108
-0.998367, 441, 125, 472, 140
-0.998368, 81, 5, 112, 20
-0.998369, 29, 65, 44, 96
-0.998369, 233, 193, 264, 208
-0.99837, 373, 301, 404, 316
-0.99837, 17, 33, 48, 48
-0.99837, 233, 107, 264, 122
-0.998371, 317, 227, 348, 242
-0.998371, 57, 31, 88, 46
-0.998371, 329, 193, 344, 224
-0.998371, 69, 21, 100, 36
-0.998371, 329, 135, 360, 150
-0.998372, 277, 217, 308, 232
-0.998372, 297, 219, 328, 234
-0.998372, 297, 83, 328, 98
-0.998372, 181, 133, 212, 148
-0.998373, 289, 211, 320, 226
-0.998373, 169, 143, 200, 158
-0.998373, 365, 335, 396, 350
-0.998373, 13, 79, 44, 94
-0.998374, 361, 323, 392, 338
-0.998375, 245, 129, 276, 375
-0.998375, 397, 161, 428, 176
-0.998376, 21, 71, 52, 86
-0.998376, 177, 127, 208, 142
-0.998377, 73, 31, 104, 46
-0.998377, 53, 43, 84, 58
-0.998378, 285, 87, 316, 102
-0.998379, 285, 223, 316, 238
-0.998379, 49, 53, 64, 84
-0.998379, 49, 1, 80, 16
-0.998379, 253, 199, 284, 214
-0.998379, 55, 65, 70, 96
-0.998379, 175, 133, 190, 164
-0.99838, 389, 301, 420, 316
-0.99838, 329, 147, 360, 162
-0.998383, 389, 217, 420, 232
-0.998384, 305, 175, 336, 190
-0.998385, 265, 51, 296, 66
-0.998386, 361, 329, 392, 344
-0.998387, 301, 89, 332, 104
-0.998387, 325, 159, 356, 174
-0.998387, 293, 147, 324, 162
-0.998388, 373, 289, 404, 304
-0.998389, 189, 105, 220, 120
-0.998393, 309, 125, 340, 140
-0.998393, 65, 41, 96, 56
-0.998394, 157, 183, 188, 198
-0.998394, 317, 197, 348, 212
-0.998395, 1, 217, 256, 280
-0.998397, 385, 151, 416, 166
-0.998397, 17, 93, 48, 108
-0.998401, 317, 249, 348, 264
-0.998402, 313, 141, 328, 172
-0.998402, 161, 135, 192, 150
-0.998403, 45, 51, 76, 66
-0.998403, 157, 125, 188, 140
-0.998404, 309, 169, 340, 184
-0.998404, 273, 205, 304, 220
-0.998406, 369, 355, 400, 370
-0.998408, 305, 181, 336, 196
-0.998408, 281, 159, 312, 174
-0.998408, 97, 167, 128, 182
-0.99841, 57, 7, 88, 22
-0.998412, 1, 85, 32, 100
-0.998414, 297, 201, 328, 216
-0.998415, 325, 165, 356, 180
-0.998416, 177, 121, 208, 136
-0.998416, 293, 153, 324, 168
-0.998417, 273, 211, 304, 226
-0.998417, 329, 153, 360, 168
-0.998419, 325, 173, 356, 188
-0.998419, 97, 291, 128, 306
-0.998422, 9, 101, 24, 132
-0.998422, 77, 13, 108, 28
-0.998424, 33, 65, 64, 80
-0.998426, 231, 49, 246, 80
-0.998426, 41, 57, 72, 72
-0.998427, 245, 193, 276, 208
-0.998428, 325, 117, 340, 148
-0.998428, 373, 157, 404, 172
-0.998432, 393, 293, 424, 308
-0.998432, 313, 1, 344, 256
-0.998433, 101, 17, 132, 32
-0.998433, 81, 349, 112, 364
-0.998434, 285, 197, 316, 212
-0.998434, 441, 311, 472, 326
-0.998434, 283, 149, 298, 180
-0.998436, 297, 237, 328, 252
-0.998438, 325, 179, 356, 194
-0.998438, 291, 61, 306, 92
-0.998438, 63, 41, 78, 72
-0.998439, 191, 145, 206, 176
-0.99844, 121, 273, 152, 288
-0.998441, 101, 9, 132, 24
-0.998441, 1, 93, 32, 108
-0.998442, 385, 161, 416, 176
-0.998444, 161, 109, 224, 124
-0.998444, 313, 191, 344, 206
-0.998444, 245, 107, 276, 122
-0.998446, 361, 293, 392, 308
-0.998447, 265, 199, 296, 214
-0.998448, 25, 85, 56, 100
-0.99845, 295, 189, 310, 220
-0.998451, 295, 141, 310, 172
-0.998452, 445, 129, 476, 375
-0.998453, 401, 301, 432, 316
-0.998456, 109, 277, 140, 292
-0.998458, 105, 271, 136, 286
-0.998458, 459, 333, 474, 364
-0.998458, 309, 157, 340, 172
-0.99846, 295, 153, 310, 184
-0.998463, 281, 157, 344, 172
-0.998463, 287, 217, 302, 248
-0.998466, 109, 1, 140, 16
-0.998467, 89, 25, 120, 40
-0.998468, 225, 17, 352, 48
-0.998468, 89, 19, 120, 34
-0.998469, 281, 149, 344, 164
-0.998469, 319, 141, 334, 172
-0.998473, 277, 153, 308, 168
-0.998474, 157, 1, 188, 128
-0.998475, 73, 1, 88, 32
-0.998475, 383, 205, 398, 236
-0.998476, 93, 1, 124, 256
-0.998477, 45, 63, 76, 78
-0.998477, 405, 301, 420, 332
-0.998481, 105, 283, 136, 298
-0.998481, 285, 205, 316, 220
-0.998481, 109, 253, 124, 284
-0.998481, 293, 229, 324, 244
-0.998482, 13, 81, 28, 112
-0.998484, 309, 163, 340, 178
-0.998485, 459, 149, 474, 180
-0.998485, 427, 289, 442, 320
-0.998485, 177, 115, 208, 130
-0.998487, 309, 147, 340, 162
-0.998488, 41, 53, 56, 84
-0.998489, 37, 71, 68, 86
-0.99849, 353, 299, 416, 314
-0.998491, 85, 31, 116, 46
-0.998493, 365, 65, 396, 192
-0.998496, 281, 163, 344, 178
-0.998497, 361, 299, 392, 314
-0.998498, 321, 225, 336, 256
-0.998499, 137, 141, 200, 156
-0.998501, 305, 229, 336, 244
-0.998501, 1, 97, 32, 352
-0.998503, 77, 37, 108, 52
-0.998503, 73, 355, 104, 370
-0.998504, 65, 47, 96, 62
-0.998506, 381, 295, 412, 310
-0.998507, 289, 141, 304, 172
-0.998512, 161, 115, 224, 130
-0.998512, 69, 109, 84, 140
-0.998513, 297, 77, 312, 108
-0.998515, 245, 45, 260, 76
-0.998521, 289, 135, 352, 150
-0.998522, 155, 169, 170, 200
-0.998523, 113, 153, 128, 184
-0.998524, 317, 117, 332, 148
-0.998524, 241, 197, 304, 212
-0.998526, 281, 143, 344, 158
-0.998527, 53, 57, 84, 72
-0.998528, 433, 297, 448, 328
-0.998528, 399, 301, 414, 332
-0.998529, 281, 189, 344, 204
-0.998533, 353, 293, 416, 308
-0.998533, 121, 1, 136, 32
-0.998534, 379, 153, 394, 184
-0.998535, 153, 183, 216, 198
-0.998535, 129, 115, 192, 130
-0.998535, 281, 169, 344, 184
-0.998537, 451, 129, 466, 160
-0.998539, 1, 345, 128, 375
-0.99854, 313, 141, 344, 156
-0.998541, 259, 45, 274, 76
-0.998541, 223, 53, 238, 84
-0.998541, 237, 49, 252, 80
-0.998542, 97, 169, 160, 184
-0.998544, 273, 345, 400, 375
-0.998544, 113, 321, 240, 352
-0.998545, 225, 49, 288, 64
-0.998547, 279, 209, 294, 240
-0.998548, 377, 301, 440, 316
-0.99855, 373, 297, 388, 328
-0.998551, 281, 129, 344, 144
-0.998551, 329, 129, 344, 160
-0.998552, 361, 331, 424, 346
-0.998553, 277, 153, 292, 184
-0.998556, 241, 105, 304, 120
-0.998557, 309, 125, 324, 156
-0.998559, 169, 121, 232, 136
-0.998559, 313, 155, 376, 170
-0.998559, 281, 235, 344, 250
-0.99856, 281, 89, 344, 104
-0.998561, 33, 77, 64, 92
-0.998565, 123, 261, 138, 292
-0.998565, 17, 53, 80, 68
-0.998567, 273, 13, 400, 44
-0.998568, 443, 309, 458, 340
-0.998569, 191, 173, 206, 204
-0.99857, 97, 273, 160, 288
-0.998572, 281, 177, 344, 192
-0.998572, 369, 29, 496, 60
-0.998573, 273, 217, 336, 232
-0.998573, 125, 169, 140, 200
-0.998574, 409, 309, 472, 324
-0.998574, 145, 97, 176, 352
-0.998574, 17, 59, 80, 74
-0.998575, 73, 9, 136, 24
-0.998576, 289, 207, 352, 222
-0.998577, 129, 123, 192, 138
-0.998577, 109, 169, 140, 184
-0.998578, 461, 161, 476, 192
-0.99858, 1, 83, 64, 98
-0.99858, 11, 213, 26, 244
-0.99858, 201, 101, 264, 116
-0.99858, 57, 361, 120, 375
-0.998581, 281, 183, 344, 198
-0.998582, 289, 201, 352, 216
-0.998583, 257, 203, 320, 218
-0.998583, 97, 279, 160, 294
-0.998583, 173, 109, 204, 124
-0.998584, 385, 293, 448, 308
-0.998585, 57, 15, 120, 30
-0.998585, 257, 157, 320, 172
-0.998587, 137, 129, 200, 144
-0.99859, 297, 229, 360, 244
-0.998592, 225, 191, 288, 206
-0.998592, 25, 41, 88, 56
-0.998592, 313, 171, 376, 186
-0.998592, 65, 93, 192, 124
-0.998593, 113, 1, 144, 256
-0.998593, 57, 47, 120, 62
-0.998595, 49, 55, 112, 70
-0.998596, 281, 101, 344, 116
-0.998597, 313, 179, 376, 194
-0.998598, 9, 97, 72, 112
-0.998598, 201, 107, 264, 122
-0.998598, 105, 1, 168, 16
-0.998599, 305, 149, 368, 164
-0.998599, 1, 89, 64, 104
-0.9986, 73, 169, 136, 184
-0.9986, 161, 103, 224, 118
-0.998601, 17, 47, 80, 62
-0.998602, 65, 39, 128, 54
-0.998603, 41, 35, 104, 50
-0.998604, 201, 93, 264, 108
-0.998604, 97, 267, 160, 282
-0.998604, 265, 209, 328, 224
-0.998605, 97, 287, 160, 302
-0.998605, 65, 355, 128, 370
-0.998605, 193, 195, 256, 210
-0.998606, 361, 325, 424, 340
-0.998609, 281, 123, 344, 138
-0.998609, 309, 131, 340, 146
-0.998609, 73, 33, 136, 48
-0.99861, 41, 63, 104, 78
-0.99861, 273, 195, 336, 210
-0.99861, 129, 109, 192, 124
-0.99861, 137, 135, 200, 150
-0.99861, 49, 29, 112, 44
-0.998611, 9, 65, 72, 80
-0.998611, 273, 51, 336, 66
-0.998612, 281, 95, 344, 110
-0.998612, 25, 79, 88, 94
-0.998613, 97, 175, 160, 190
-0.998614, 97, 7, 160, 22
-0.998614, 73, 3, 136, 18
-0.998617, 313, 165, 376, 180
-0.998617, 25, 361, 88, 375
-0.998617, 369, 173, 496, 204
-0.998617, 169, 133, 232, 148
-0.998619, 73, 349, 136, 364
-0.998619, 179, 97, 194, 224
-0.998622, 273, 229, 336, 244
-0.998622, 249, 89, 312, 104
-0.998623, 81, 27, 144, 42
-0.998623, 25, 73, 88, 88
-0.998624, 153, 147, 216, 162
-0.998625, 145, 177, 208, 192
-0.998625, 257, 151, 320, 166
-0.998626, 201, 87, 264, 102
-0.998626, 1, 73, 64, 88
-0.998627, 49, 7, 112, 22
-0.998627, 201, 189, 264, 204
-0.998628, 57, 21, 120, 36
-0.99863, 89, 19, 152, 34
-0.99863, 297, 195, 360, 210
-0.99863, 81, 305, 208, 336
-0.99863, 281, 107, 344, 122
-0.99863, 49, 113, 112, 128
-0.99863, 145, 159, 208, 174
-0.998631, 169, 127, 232, 142
-0.998631, 273, 45, 336, 60
-0.998632, 209, 55, 272, 70
-0.998633, 329, 1, 360, 256
-0.998634, 305, 141, 368, 156
-0.998635, 361, 313, 424, 328
-0.998636, 345, 287, 408, 302
-0.998637, 1, 103, 64, 118
-0.998639, 145, 169, 208, 184
-0.99864, 217, 197, 280, 212
-0.998641, 49, 187, 112, 202
-0.998641, 377, 163, 440, 178
-0.998642, 289, 83, 352, 98
-0.998642, 297, 219, 360, 234
-0.998644, 281, 117, 344, 132
-0.998644, 313, 185, 376, 200
-0.998644, 353, 337, 416, 352
-0.998644, 9, 35, 72, 50
-0.998644, 113, 163, 176, 178
-0.998644, 273, 223, 336, 238
-0.998645, 417, 129, 448, 375
-0.998646, 361, 359, 424, 374
-0.998648, 89, 295, 152, 310
-0.998649, 209, 61, 272, 76
-0.998649, 187, 97, 202, 224
-0.99865, 97, 221, 160, 236
-0.99865, 409, 297, 472, 312
-0.99865, 177, 139, 240, 154
-0.998654, 13, 97, 44, 352
-0.998713, 33, 241, 288, 304
-0.998736, 321, 97, 336, 224
-0.998746, 193, 9, 448, 72
-0.998753, 277, 129, 308, 375
-0.998763, 461, 97, 492, 224
-0.998804, 337, 129, 368, 375
-0.998811, 47, 1, 62, 128
-0.998826, 193, 97, 208, 224
-0.998832, 43, 49, 58, 176
-0.998892, 327, 129, 342, 256
-0.9989, 273, 225, 304, 352
-0.99891, 5, 129, 36, 256
-0.998918, 401, 113, 432, 240
-0.998942, 75, 1, 90, 128
-0.998947, 321, 161, 336, 288
-0.998954, 93, 1, 108, 128
-0.998966, 57, 33, 72, 160
-0.99899, 133, 33, 164, 288
-0.998997, 17, 17, 32, 144
-0.999003, 251, 33, 266, 160
-0.999009, 401, 129, 432, 375
-0.99901, 283, 33, 298, 160
-0.999011, 257, 33, 272, 160
-0.999015, 327, 177, 342, 304
-0.999025, 221, 129, 252, 375
-0.999028, 309, 177, 324, 304
-0.999031, 361, 129, 392, 375
-0.999041, 113, 145, 128, 272
-0.999046, 315, 81, 330, 208
-0.999051, 293, 49, 308, 176
-0.999053, 353, 49, 384, 176
-0.999059, 161, 313, 416, 375
-0.999059, 281, 177, 296, 304
-0.999072, 245, 33, 260, 160
-0.999091, 11, 81, 26, 208
-0.999097, 313, 129, 328, 256
-0.999099, 263, 33, 278, 160
-0.999105, 297, 97, 312, 224
-0.999111, 33, 1, 48, 128
-0.999115, 353, 241, 384, 368
-0.999118, 303, 97, 318, 224
-0.999119, 239, 33, 254, 160
-0.999123, 25, 65, 40, 192
-0.999123, 271, 177, 286, 304
-0.99914, 67, 1, 82, 128
-0.99914, 377, 129, 408, 375
-0.999143, 37, 49, 52, 176
-0.999154, 29, 177, 60, 304
-0.999155, 99, 1, 114, 128
-0.999155, 51, 49, 66, 176
-0.999162, 297, 145, 312, 272
-0.999175, 215, 49, 230, 176
-0.999175, 223, 33, 238, 160
-0.999177, 389, 81, 420, 208
-0.999177, 349, 129, 380, 375
-0.999186, 229, 33, 244, 160
-0.999192, 277, 33, 292, 160
-0.999197, 173, 97, 188, 224
-0.999201, 289, 177, 304, 304
-0.999202, 183, 145, 198, 272
-0.999205, 269, 33, 284, 160
-0.999207, 265, 177, 280, 304
-0.999213, 305, 225, 320, 352
-0.999213, 81, 17, 96, 144
-0.999216, 313, 225, 328, 352
-0.999221, 5, 81, 20, 208
-0.999222, 451, 241, 466, 368
-0.999225, 199, 97, 214, 224
-0.999226, 209, 129, 240, 375
-0.999229, 333, 177, 348, 304
-0.999231, 17, 177, 48, 304
-0.999236, 87, 1, 102, 128
-0.999236, 319, 209, 334, 336
-0.999255, 103, 241, 118, 368
-0.999259, 27, 1, 42, 128
-0.999273, 303, 161, 318, 288
-0.999275, 41, 1, 56, 128
-0.999291, 281, 129, 296, 256
-0.999296, 111, 225, 126, 352
-0.999297, 107, 129, 122, 256
-0.999301, 243, 177, 258, 304
-0.999302, 153, 1, 184, 256
-0.999303, 409, 209, 424, 336
-0.999306, 309, 33, 324, 160
-0.99931, 297, 193, 312, 320
-0.999311, 63, 49, 78, 176
-0.999321, 19, 65, 34, 192
-0.999325, 367, 241, 382, 368
-0.999325, 259, 177, 274, 304
-0.999327, 457, 129, 488, 375
-0.999327, 67, 113, 82, 240
-0.999331, 69, 49, 84, 176
-0.999332, 31, 49, 46, 176
-0.999335, 437, 225, 452, 352
-0.999336, 183, 49, 198, 176
-0.999339, 151, 161, 166, 288
-0.999344, 11, 33, 26, 160
-0.999351, 147, 81, 162, 208
-0.999354, 49, 97, 80, 352
-0.999356, 287, 97, 302, 224
-0.999357, 107, 177, 122, 304
-0.999365, 275, 129, 290, 256
-0.999367, 209, 49, 224, 176
-0.999371, 137, 193, 152, 320
-0.999385, 205, 97, 220, 224
-0.999391, 249, 177, 264, 304
-0.999392, 451, 113, 466, 240
-0.999394, 73, 97, 88, 224
-0.999397, 299, 33, 314, 160
-0.999399, 233, 161, 248, 288
-0.999405, 321, 81, 448, 144
-0.999408, 321, 49, 336, 176
-0.999411, 385, 129, 400, 256
-0.999418, 217, 1, 232, 128
-0.999419, 403, 241, 418, 368
-0.999422, 381, 209, 396, 336
-0.999423, 119, 129, 134, 256
-0.999428, 387, 209, 402, 336
-0.999438, 101, 177, 116, 304
-0.999438, 339, 193, 354, 320
-0.999441, 133, 145, 148, 272
-0.999444, 105, 1, 120, 128
-0.999444, 85, 129, 116, 375
-0.999446, 427, 241, 442, 368
-0.999453, 443, 209, 458, 336
-0.999457, 189, 49, 204, 176
-0.999458, 189, 145, 204, 272
-0.999458, 417, 209, 432, 336
-0.999462, 217, 177, 232, 304
-0.999466, 309, 81, 324, 208
-0.999467, 331, 81, 346, 208
-0.999476, 409, 1, 472, 128
-0.999477, 45, 113, 60, 240
-0.999478, 117, 241, 132, 368
-0.999479, 329, 225, 344, 352
-0.999485, 293, 1, 308, 128
-0.999488, 361, 193, 376, 320
-0.999491, 375, 193, 390, 320
-0.999499, 393, 193, 408, 320
-0.999503, 403, 193, 418, 320
-0.999503, 227, 161, 242, 288
-0.999505, 395, 241, 410, 368
-0.99951, 211, 177, 226, 304
-0.999512, 131, 241, 146, 368
-0.999514, 433, 97, 464, 352
-0.999514, 141, 129, 156, 256
-0.999516, 211, 1, 226, 128
-0.99952, 355, 241, 370, 368
-0.999523, 121, 193, 136, 320
-0.999527, 177, 145, 192, 272
-0.999528, 203, 49, 218, 176
-0.999528, 267, 129, 282, 256
-0.999528, 101, 113, 116, 240
-0.99953, 61, 129, 92, 375
-0.999532, 113, 97, 128, 224
-0.999533, 459, 129, 474, 256
-0.999533, 143, 241, 158, 368
-0.999555, 77, 351, 92, 366
-0.999556, 279, 51, 294, 66
-0.999557, 289, 103, 304, 118
-0.999558, 13, 41, 28, 56
-0.999559, 365, 333, 380, 348
-0.999559, 9, 91, 24, 106
-0.999559, 355, 297, 370, 312
-0.999559, 33, 85, 48, 100
-0.999559, 305, 237, 320, 252
-0.99956, 453, 135, 468, 150
-0.999561, 365, 305, 380, 320
-0.999561, 295, 211, 310, 226
-0.999562, 113, 289, 128, 304
-0.999562, 311, 201, 326, 216
-0.999563, 305, 229, 320, 244
-0.999563, 459, 129, 474, 144
-0.999563, 1, 101, 16, 116
-0.999564, 95, 351, 110, 366
-0.999564, 45, 61, 60, 76
-0.999565, 275, 153, 290, 168
-0.999565, 29, 69, 44, 84
-0.999565, 87, 35, 102, 50
-0.999565, 47, 79, 62, 94
-0.999566, 295, 101, 310, 116
-0.999566, 411, 301, 426, 316
-0.999567, 99, 293, 114, 308
-0.999567, 293, 95, 308, 110
-0.999567, 297, 199, 312, 214
-0.999568, 321, 229, 336, 244
-0.999568, 113, 273, 128, 288
-0.999568, 327, 183, 342, 198
-0.999568, 459, 321, 474, 336
-0.99957, 287, 195, 302, 210
-0.99957, 289, 221, 304, 236
-0.99957, 385, 165, 400, 180
-0.999572, 51, 55, 66, 70
-0.999572, 293, 87, 308, 102
-0.999572, 171, 125, 186, 140
-0.999572, 173, 133, 188, 148
-0.999573, 379, 157, 394, 172
-0.999573, 327, 177, 342, 192
-0.999573, 177, 115, 192, 130
-0.999573, 393, 299, 408, 314
-0.999574, 453, 129, 468, 144
-0.999575, 409, 161, 424, 176
-0.999577, 3, 109, 18, 124
-0.999577, 39, 67, 54, 82
-0.999579, 365, 313, 380, 328
-0.999579, 323, 249, 338, 264
-0.99958, 331, 155, 346, 170
-0.999581, 331, 149, 346, 164
-0.999582, 3, 95, 18, 110
-0.999582, 107, 167, 122, 182
-0.999582, 373, 353, 388, 368
-0.999582, 395, 161, 410, 176
-0.999583, 109, 267, 124, 282
-0.999585, 135, 271, 150, 286
-0.999585, 77, 47, 92, 62
-0.999586, 305, 201, 320, 216
-0.999586, 279, 199, 294, 214
-0.999587, 109, 1, 124, 16
-0.999587, 91, 29, 106, 44
-0.999588, 329, 171, 344, 186
-0.99959, 325, 189, 340, 204
-0.99959, 321, 181, 336, 196
-0.99959, 181, 141, 196, 156
-0.999593, 317, 125, 332, 140
-0.999593, 287, 159, 302, 174
-0.999594, 283, 215, 298, 230
-0.999597, 1, 89, 16, 104
-0.999598, 127, 275, 142, 290
-0.999599, 79, 41, 94, 56
-0.999599, 297, 205, 312, 220
-0.999604, 293, 157, 308, 172
-0.999606, 245, 107, 260, 122
-0.999606, 9, 103, 24, 118
-0.999607, 107, 283, 122, 298
-0.999609, 453, 311, 468, 326
-0.99961, 389, 129, 420, 375
-0.999615, 257, 81, 288, 208
-0.999616, 323, 143, 338, 158
-0.999616, 37, 97, 68, 352
-0.999616, 365, 321, 380, 336
-0.999617, 457, 123, 472, 138
-0.999618, 289, 211, 304, 226
-0.999621, 253, 107, 268, 122
-0.999623, 315, 137, 330, 152
-0.999624, 15, 97, 30, 112
-0.999624, 387, 295, 402, 310
-0.999624, 365, 297, 380, 312
-0.999627, 281, 153, 296, 168
-0.999627, 417, 301, 432, 316
-0.999627, 137, 265, 152, 280
-0.999629, 119, 169, 134, 184
-0.99963, 105, 9, 120, 24
-0.999631, 313, 237, 328, 252
-0.999639, 75, 35, 90, 50
-0.999641, 99, 15, 114, 30
-0.999642, 325, 137, 340, 152
-0.999644, 387, 151, 402, 166
-0.999644, 287, 151, 302, 166
-0.999645, 105, 289, 120, 304
-0.999646, 69, 51, 84, 66
-0.999646, 365, 327, 380, 342
-0.99965, 39, 79, 54, 94
-0.99965, 289, 205, 304, 220
-0.999651, 21, 91, 36, 106
-0.999651, 393, 293, 408, 308
-0.999651, 85, 347, 100, 362
-0.999655, 385, 159, 400, 174
-0.999658, 97, 21, 112, 36
-0.999658, 115, 1, 130, 16
-0.999665, 317, 131, 332, 146
-0.999666, 63, 57, 78, 72
-0.999667, 91, 23, 106, 38
-0.999669, 85, 29, 100, 44
-0.999674, 51, 67, 66, 82
-0.999675, 57, 61, 72, 76
-0.999676, 67, 45, 82, 60
-0.999686, 27, 85, 42, 100
-0.999699, 397, 1, 428, 256
-0.999712, 179, 107, 194, 122
-0.999713, 73, 41, 88, 56
-0.999715, 81, 35, 96, 50
-0.99973, 57, 55, 72, 70
-0.999731, 33, 79, 48, 94
-0.999734, 311, 229, 326, 244
-0.999741, 63, 51, 78, 66
-0.999741, 51, 61, 66, 76
-0.999752, 113, 167, 128, 182
-0.99976, 323, 131, 338, 146
-0.999761, 177, 281, 304, 344
-0.999763, 45, 73, 60, 88
-0.999786, 45, 67, 60, 82
-0.999811, 39, 73, 54, 88
-0.999839, 409, 1, 440, 256
-0.999871, 341, 33, 372, 288
-0.999889, 437, 1, 468, 256
-0.999916, 453, 33, 484, 288
-0.999995, 369, 81, 496, 144
-1.00002, 421, 33, 452, 288
-1.00006, 385, 33, 416, 288
-1.0001, 201, 225, 264, 352
-1.00017, 1, 249, 500, 312
-1.00022, 469, 97, 500, 352
-1.00023, 73, 129, 104, 375
-1.00055, 25, 129, 56, 375
-1.00069, 353, 33, 384, 288
-1.00081, 345, 17, 408, 144
-1.00083, 433, 49, 496, 176
-1.00087, 373, 33, 404, 288
-1.00098, 209, 313, 336, 375
-1.00103, 361, 1, 424, 256
-1.00105, 137, 1, 200, 128
-1.00106, 465, 1, 496, 256
-1.00109, 113, 1, 176, 128
-1.00133, 161, 313, 288, 375
-1.00263, 433, 1, 496, 256
-1.00344, 225, 225, 288, 352
-1.0037, 433, 1, 496, 128
-1.00554, 41, 209, 104, 336
-1.00616, 9, 225, 72, 352
-1.00668, 161, 241, 224, 368
