1959
-0.220544, 1, 1, 500, 375
-0.250964, 1, 65, 500, 320
-0.470226, 257, 1, 500, 375
-0.497233, 129, 1, 384, 375
-0.534676, 33, 1, 288, 375
-0.654759, 193, 1, 448, 256
-0.659804, 33, 65, 288, 320
-0.665135, 257, 97, 500, 352
-0.779053, 161, 97, 416, 352
-0.849136, 353, 1, 480, 256
-0.867967, 305, 129, 432, 375
-0.870105, 209, 1, 336, 375
-0.872445, 305, 1, 432, 256
-0.872753, 1, 65, 500, 192
-0.874985, 369, 1, 496, 375
-0.87679, 257, 65, 384, 320
-0.877238, 161, 1, 288, 375
-0.880016, 1, 113, 500, 240
-0.884324, 289, 1, 416, 375
-0.884688, 1, 177, 500, 304
-0.885139, 113, 1, 240, 375
-0.88806, 353, 97, 480, 352
-0.895607, 1, 97, 128, 352
-0.89836, 65, 1, 192, 375
-0.901977, 193, 65, 320, 320
-0.908576, 49, 65, 176, 320
-0.912222, 1, 225, 500, 352
-0.922415, 17, 1, 144, 375
-0.923049, 97, 129, 224, 375
-0.924686, 145, 33, 272, 288
-0.927384, 257, 33, 500, 160
-0.927666, 193, 193, 448, 320
-0.928131, 1, 17, 500, 144
-0.928532, 145, 129, 272, 375
-0.930295, 225, 97, 480, 224
-0.931007, 97, 33, 224, 288
-0.935122, 257, 145, 500, 272
-0.939164, 129, 49, 384, 176
-0.939216, 33, 65, 288, 192
-0.940678, 65, 177, 320, 304
-0.94073, 321, 113, 448, 240
-0.943687, 417, 65, 480, 192
-0.945503, 337, 33, 464, 160
-0.945662, 377, 97, 440, 224
-0.947028, 289, 177, 416, 304
-0.948602, 289, 17, 416, 144
-0.949048, 97, 225, 352, 352
-0.949396, 425, 81, 488, 144
-0.949855, 369, 81, 496, 208
-0.951199, 209, 209, 336, 336
-0.951824, 129, 97, 384, 224
-0.951978, 273, 97, 400, 224
-0.952392, 353, 113, 416, 240
-0.953769, 401, 97, 464, 160
-0.954093, 225, 33, 352, 160
-0.955329, 417, 1, 480, 128
-0.955661, 1, 129, 256, 256
-0.956195, 1, 225, 256, 352
-0.956661, 393, 33, 456, 160
-0.957324, 145, 225, 272, 352
-0.957494, 9, 129, 72, 256
-0.95752, 313, 113, 376, 240
-0.958912, 337, 161, 464, 288
-0.959639, 49, 65, 176, 192
-0.961086, 241, 161, 368, 288
-0.961222, 81, 209, 208, 336
-0.961253, 1, 113, 128, 240
-0.96233, 193, 241, 448, 368
-0.962344, 49, 81, 112, 208
-0.962685, 361, 33, 424, 160
-0.962878, 353, 161, 416, 288
-0.963373, 377, 105, 440, 168
-0.963385, 97, 49, 224, 176
-0.963527, 281, 193, 344, 320
-0.964014, 265, 17, 328, 144
-0.964163, 209, 225, 272, 352
-0.964225, 233, 49, 296, 112
-0.964271, 369, 137, 432, 200
-0.964366, 353, 97, 416, 160
-0.964593, 401, 113, 464, 240
-0.964697, 169, 273, 232, 336
-0.965582, 305, 193, 368, 320
-0.965659, 281, 65, 344, 192
-0.966296, 377, 145, 440, 272
-0.966492, 169, 241, 232, 368
-0.966517, 257, 193, 320, 320
-0.966839, 361, 1, 424, 256
-0.967007, 209, 241, 272, 304
-0.967246, 177, 49, 304, 176
-0.967588, 257, 73, 320, 136
-0.967771, 233, 209, 296, 272
-0.967973, 313, 1, 376, 128
-0.968031, 329, 97, 392, 160
-0.968533, 233, 177, 296, 304
-0.968769, 33, 193, 160, 320
-0.96881, 417, 121, 480, 184
-0.969082, 409, 1, 472, 256
-0.969307, 121, 225, 184, 352
-0.969391, 161, 1, 416, 128
-0.969428, 345, 129, 408, 192
-0.969832, 257, 41, 320, 104
-0.96993, 73, 65, 136, 192
-0.969951, 281, 145, 344, 272
-0.970021, 257, 225, 384, 352
-0.970033, 337, 17, 400, 144
-0.970265, 225, 81, 352, 208
-0.97067, 329, 177, 392, 304
-0.970891, 289, 17, 352, 144
-0.971206, 1, 1, 128, 256
-0.97121, 409, 41, 472, 104
-0.971465, 145, 273, 208, 336
-0.971487, 297, 201, 360, 264
-0.971519, 129, 49, 192, 176
-0.971669, 41, 97, 104, 160
-0.971738, 321, 65, 384, 320
-0.971794, 289, 97, 352, 160
-0.972008, 33, 241, 160, 368
-0.972044, 297, 297, 360, 360
-0.972076, 169, 49, 232, 176
-0.972097, 73, 241, 136, 368
-0.972128, 433, 49, 496, 112
-0.972609, 369, 41, 432, 104
-0.972757, 397, 113, 428, 240
-0.972905, 257, 185, 320, 248
-0.973051, 345, 169, 408, 232
-0.973233, 209, 65, 272, 128
-0.973294, 337, 65, 400, 192
-0.97345, 385, 1, 448, 256
-0.973586, 297, 1, 360, 64
-0.973595, 353, 105, 480, 168
-0.973789, 193, 161, 320, 288
-0.974044, 273, 209, 336, 272
-0.974055, 401, 73, 464, 136
-0.974315, 49, 249, 112, 312
-0.974513, 345, 97, 408, 352
-0.974675, 49, 225, 112, 352
-0.974786, 321, 185, 384, 248
-0.974791, 73, 193, 136, 320
-0.974858, 65, 1, 320, 128
-0.975054, 433, 1, 496, 256
-0.975131, 377, 65, 440, 128
-0.975288, 97, 225, 160, 352
-0.975397, 353, 1, 416, 64
-0.975435, 73, 257, 136, 320
-0.975515, 25, 81, 88, 208
-0.975614, 233, 73, 296, 136
-0.975678, 241, 65, 304, 320
-0.975728, 405, 105, 436, 168
-0.97574, 185, 241, 248, 304
-0.975872, 193, 49, 256, 176
-0.975989, 161, 145, 416, 272
-0.976123, 241, 17, 304, 144
-0.976219, 297, 177, 360, 240
-0.976275, 321, 161, 384, 224
-0.976449, 25, 121, 88, 184
-0.976515, 313, 49, 376, 176
-0.976526, 393, 129, 456, 192
-0.976681, 73, 73, 136, 136
-0.976752, 305, 121, 432, 184
-0.976816, 1, 177, 64, 304
-0.976819, 145, 209, 208, 336
-0.976994, 417, 81, 448, 208
-0.977026, 401, 1, 464, 64
-0.97713, 433, 73, 464, 136
-0.977249, 385, 113, 416, 240
-0.977714, 377, 161, 440, 224
-0.977754, 393, 137, 424, 200
-0.977764, 209, 73, 336, 136
-0.977796, 281, 73, 344, 136
-0.978095, 49, 177, 112, 304
-0.978116, 389, 113, 420, 176
-0.978292, 225, 209, 352, 272
-0.978311, 401, 97, 464, 352
-0.97836, 345, 33, 408, 96
-0.978382, 321, 169, 448, 232
-0.978419, 177, 1, 304, 128
-0.978454, 297, 65, 360, 320
-0.978507, 465, 1, 496, 128
-0.978614, 273, 1, 336, 256
-0.979031, 321, 121, 384, 184
-0.979059, 421, 81, 452, 144
-0.979078, 365, 97, 396, 160
-0.979291, 405, 65, 436, 192
-0.979667, 161, 249, 224, 312
-0.979781, 425, 33, 456, 160
-0.979838, 273, 97, 400, 160
-0.979868, 281, 25, 344, 88
-0.980123, 377, 97, 440, 352
-0.98018, 81, 273, 208, 336
-0.980198, 429, 41, 460, 104
-0.980252, 369, 81, 496, 144
-0.98027, 321, 25, 384, 88
-0.980286, 273, 193, 400, 256
-0.980398, 33, 121, 64, 184
-0.980417, 353, 41, 480, 104
-0.980459, 121, 281, 184, 344
-0.980517, 185, 57, 248, 120
-0.980758, 437, 33, 468, 160
-0.980789, 65, 73, 192, 136
-0.980817, 105, 65, 168, 192
-0.980994, 217, 241, 248, 304
-0.981057, 161, 281, 288, 344
-0.981081, 257, 145, 320, 272
-0.981246, 209, 217, 272, 280
-0.981327, 441, 41, 472, 104
-0.981377, 413, 49, 444, 112
-0.981431, 161, 65, 288, 128
-0.981892, 377, 1, 440, 64
-0.981904, 25, 177, 88, 304
-0.982031, 429, 81, 460, 208
-0.982038, 177, 273, 208, 336
-0.982088, 9, 169, 72, 232
-0.982116, 137, 65, 200, 128
-0.982159, 357, 1, 388, 128
-0.982194, 89, 281, 152, 344
-0.982279, 245, 49, 276, 112
-0.982352, 209, 161, 272, 288
-0.982374, 209, 41, 272, 104
-0.982452, 433, 1, 496, 64
-0.98255, 449, 33, 480, 160
-0.982553, 297, 153, 360, 216
-0.982561, 265, 209, 296, 272
-0.98262, 353, 9, 480, 72
-0.982633, 253, 209, 284, 272
-0.982646, 257, 17, 320, 80
-0.9827, 225, 41, 352, 104
-0.982706, 165, 273, 196, 336
-0.982728, 161, 241, 288, 304
-0.982749, 273, 161, 336, 224
-0.982792, 273, 33, 400, 96
-0.982832, 113, 249, 240, 312
-0.982892, 341, 113, 372, 240
-0.983131, 33, 129, 96, 256
-0.983141, 445, 73, 476, 136
-0.983145, 257, 49, 288, 112
-0.98316, 369, 145, 496, 208
-0.983167, 321, 65, 448, 128
-0.983186, 137, 305, 200, 368
-0.983193, 293, 17, 324, 144
-0.983286, 353, 97, 384, 160
-0.98343, 329, 1, 392, 64
-0.983479, 305, 241, 432, 368
-0.983586, 413, 1, 444, 128
-0.983595, 181, 241, 212, 368
-0.983699, 113, 97, 240, 224
-0.983704, 373, 113, 404, 240
-0.983732, 381, 137, 412, 200
-0.983796, 369, 209, 496, 336
-0.983851, 233, 241, 296, 304
-0.983854, 169, 89, 232, 152
-0.98389, 273, 153, 400, 216
-0.983919, 461, 73, 492, 136
-0.984034, 469, 1, 500, 64
-0.984042, 41, 97, 104, 352
-0.984127, 17, 105, 144, 168
-0.984149, 17, 97, 80, 352
-0.984235, 417, 105, 448, 168
-0.984237, 225, 225, 256, 352
-0.984237, 257, 81, 320, 208
-0.984272, 225, 177, 352, 240
-0.984322, 409, 145, 440, 208
-0.984353, 409, 1, 472, 375
-0.984427, 213, 225, 244, 352
-0.984477, 41, 225, 104, 288
-0.984484, 53, 81, 84, 208
-0.984617, 269, 65, 300, 128
-0.984684, 197, 241, 228, 304
-0.984694, 457, 17, 488, 80
-0.984906, 53, 97, 84, 160
-0.984919, 453, 49, 484, 112
-0.985001, 329, 97, 360, 224
-0.985036, 65, 65, 128, 320
-0.985115, 1, 193, 64, 256
-0.985126, 345, 121, 376, 184
-0.985155, 105, 249, 168, 312
-0.985215, 465, 49, 496, 112
-0.985275, 325, 97, 356, 160
-0.985347, 425, 113, 488, 240
-0.985352, 25, 225, 88, 352
-0.985374, 129, 177, 256, 304
-0.985411, 193, 265, 256, 328
-0.985451, 377, 105, 408, 168
-0.985522, 313, 73, 376, 136
-0.985545, 233, 1, 296, 375
-0.985597, 369, 1, 400, 128
-0.985649, 289, 209, 320, 336
-0.985656, 281, 33, 312, 96
-0.985667, 281, 73, 312, 136
-0.98571, 209, 249, 336, 312
-0.985742, 233, 217, 264, 280
-0.985755, 1, 249, 128, 312
-0.985829, 1, 129, 64, 192
-0.985837, 433, 97, 464, 160
-0.985865, 49, 145, 176, 272
-0.985903, 321, 193, 352, 320
-0.985911, 341, 97, 372, 160
-0.985925, 49, 241, 176, 304
-0.986019, 257, 1, 320, 375
-0.986142, 189, 49, 220, 176
-0.986144, 321, 265, 384, 328
-0.986238, 113, 57, 240, 120
-0.986239, 281, 17, 312, 144
-0.986268, 161, 113, 288, 240
-0.986268, 357, 113, 388, 240
-0.986279, 461, 49, 492, 176
-0.986294, 49, 17, 176, 144
-0.9863, 269, 177, 300, 304
-0.986336, 289, 1, 416, 64
-0.98641, 97, 73, 160, 136
-0.986424, 1, 177, 128, 240
-0.986448, 305, 241, 368, 368
-0.986457, 401, 161, 464, 288
-0.986469, 357, 1, 388, 64
-0.986485, 225, 97, 352, 160
-0.986515, 85, 257, 116, 320
-0.986624, 153, 281, 184, 344
-0.986627, 461, 113, 492, 176
-0.986673, 177, 49, 208, 176
-0.986689, 161, 305, 224, 368
-0.986697, 197, 265, 228, 328
-0.986697, 161, 57, 224, 120
-0.986723, 301, 65, 332, 192
-0.986751, 169, 305, 200, 368
-0.986817, 369, 137, 400, 200
-0.986826, 37, 97, 68, 224
-0.986858, 161, 41, 288, 104
-0.986898, 433, 25, 496, 88
-0.986914, 345, 177, 376, 240
-0.986931, 301, 81, 332, 144
-0.986961, 201, 225, 232, 352
-0.986977, 217, 65, 280, 320
-0.986982, 409, 73, 440, 136
-0.987053, 357, 161, 388, 288
-0.987084, 353, 1, 416, 375
-0.987223, 289, 185, 320, 248
-0.987272, 233, 225, 296, 352
-0.987289, 177, 1, 240, 375
-0.987302, 409, 129, 440, 256
-0.987316, 225, 65, 256, 128
-0.987317, 313, 17, 344, 144
-0.987461, 321, 145, 448, 208
-0.987464, 393, 33, 424, 160
-0.987554, 345, 1, 376, 128
-0.987563, 321, 193, 448, 256
-0.987608, 313, 89, 344, 152
-0.987685, 257, 177, 288, 304
-0.987729, 297, 257, 360, 320
-0.9878, 433, 1, 496, 375
-0.987801, 169, 193, 232, 320
-0.987905, 229, 241, 260, 304
-0.987956, 337, 177, 368, 304
-0.987956, 309, 209, 340, 336
-0.987976, 73, 17, 136, 144
-0.987983, 105, 177, 168, 304
-0.98799, 33, 273, 160, 336
-0.988023, 273, 97, 336, 352
-0.98804, 169, 241, 200, 368
-0.988058, 381, 161, 412, 224
-0.988077, 377, 161, 408, 288
-0.988117, 25, 257, 88, 320
-0.988129, 25, 193, 88, 256
-0.988189, 1, 65, 128, 192
-0.988261, 233, 185, 296, 248
-0.988261, 393, 41, 424, 104
-0.988295, 313, 1, 344, 64
-0.988332, 49, 73, 112, 136
-0.988342, 377, 193, 440, 320
-0.988352, 177, 217, 304, 280
-0.988371, 313, 97, 344, 224
-0.988401, 97, 241, 128, 368
-0.988407, 17, 225, 80, 288
-0.988424, 281, 1, 344, 375
-0.988444, 201, 1, 264, 375
-0.988448, 145, 89, 272, 152
-0.98846, 381, 49, 412, 176
-0.988475, 65, 249, 96, 312
-0.988501, 269, 41, 300, 104
-0.988501, 17, 129, 48, 256
-0.988513, 421, 1, 452, 64
-0.988519, 77, 65, 108, 192
-0.988602, 201, 49, 232, 176
-0.988706, 269, 17, 300, 144
-0.988718, 97, 297, 224, 360
-0.988783, 137, 1, 200, 375
-0.98879, 193, 129, 256, 375
-0.988806, 129, 105, 192, 168
-0.988825, 345, 109, 408, 140
-0.988856, 445, 81, 476, 208
-0.988894, 385, 1, 448, 375
-0.98891, 1, 129, 128, 192
-0.98891, 17, 217, 144, 280
-0.988941, 97, 265, 128, 328
-0.989018, 273, 57, 400, 120
-0.989049, 157, 49, 188, 176
-0.989055, 153, 225, 184, 352
-0.989148, 17, 153, 144, 216
-0.989217, 217, 49, 280, 176
-0.989268, 105, 129, 168, 375
-0.989286, 293, 25, 324, 88
-0.989292, 65, 281, 128, 344
-0.989323, 385, 109, 448, 140
-0.989353, 409, 153, 472, 216
-0.989357, 357, 153, 388, 216
-0.989363, 265, 97, 328, 160
-0.989425, 265, 185, 296, 248
-0.989467, 369, 169, 496, 232
-0.989486, 397, 161, 428, 224
-0.989506, 297, 161, 328, 288
-0.989539, 57, 177, 120, 240
-0.989559, 17, 81, 144, 144
-0.989606, 377, 33, 408, 96
-0.989662, 425, 41, 488, 72
-0.989679, 241, 1, 368, 64
-0.989701, 81, 1, 144, 375
-0.989712, 305, 201, 336, 264
-0.989749, 257, 233, 320, 296
-0.989769, 273, 217, 400, 280
-0.989794, 289, 49, 352, 112
-0.98981, 377, 141, 440, 172
-0.989846, 385, 49, 448, 80
-0.989855, 41, 97, 72, 160
-0.989869, 357, 177, 388, 240
-0.989879, 273, 289, 400, 352
-0.989934, 385, 125, 448, 156
-0.989973, 25, 33, 88, 160
-0.990032, 1, 97, 64, 160
-0.990037, 333, 169, 364, 232
-0.990039, 137, 241, 200, 304
-0.990074, 169, 129, 232, 375
-0.990112, 249, 77, 312, 108
-0.990133, 201, 241, 264, 272
-0.990149, 249, 73, 280, 136
-0.990149, 281, 217, 312, 280
-0.990155, 409, 101, 472, 132
-0.990172, 245, 177, 276, 304
-0.990173, 233, 229, 296, 260
-0.990202, 329, 33, 360, 160
-0.990202, 317, 145, 348, 272
-0.990207, 309, 177, 340, 240
-0.990221, 273, 265, 400, 328
-0.990228, 273, 265, 336, 328
-0.990251, 469, 97, 500, 224
-0.990275, 77, 225, 108, 352
-0.990294, 357, 121, 388, 184
-0.990352, 49, 1, 112, 375
-0.990354, 409, 61, 472, 92
-0.990358, 377, 241, 440, 368
-0.990359, 321, 97, 384, 128
-0.990404, 169, 277, 232, 308
-0.990483, 97, 1, 224, 128
-0.990489, 129, 121, 256, 184
-0.990505, 377, 1, 408, 64
-0.990507, 385, 1, 448, 32
-0.990546, 425, 77, 488, 108
-0.990584, 153, 113, 216, 176
-0.990613, 333, 121, 364, 184
-0.990638, 433, 93, 496, 124
-0.990638, 285, 161, 316, 288
-0.990639, 33, 145, 96, 208
-0.990647, 73, 81, 104, 144
-0.990655, 49, 193, 176, 256
-0.99069, 9, 193, 40, 256
-0.990694, 73, 233, 136, 296
-0.990734, 353, 133, 416, 164
-0.990741, 65, 217, 192, 280
-0.990754, 65, 81, 96, 208
-0.990769, 325, 1, 356, 64
-0.990772, 209, 273, 336, 336
-0.990779, 389, 161, 420, 288
-0.990784, 225, 73, 288, 104
-0.990812, 237, 73, 268, 136
-0.990828, 377, 161, 440, 192
-0.990841, 425, 125, 488, 156
-0.990861, 233, 25, 296, 88
-0.990907, 241, 213, 304, 244
-0.99092, 97, 193, 128, 320
-0.990939, 321, 1, 384, 375
-0.990961, 257, 33, 288, 160
-0.990969, 377, 97, 440, 128
-0.990984, 345, 121, 408, 152
-0.991013, 273, 93, 336, 124
-0.991041, 97, 97, 224, 160
-0.991042, 277, 193, 308, 256
-0.991046, 161, 225, 224, 288
-0.991063, 9, 73, 72, 136
-0.991088, 265, 37, 328, 68
-0.991114, 65, 269, 128, 300
-0.991123, 441, 121, 472, 184
-0.991124, 209, 193, 272, 256
-0.991141, 265, 217, 328, 248
-0.991155, 185, 241, 216, 304
-0.991159, 193, 89, 256, 152
-0.991173, 297, 105, 360, 136
-0.991176, 177, 265, 240, 296
-0.991183, 429, 121, 460, 184
-0.991206, 321, 117, 384, 148
-0.991223, 321, 217, 448, 280
-0.991232, 265, 201, 328, 232
-0.991235, 333, 193, 364, 256
-0.991244, 57, 129, 120, 256
-0.99125, 417, 113, 480, 144
-0.991263, 161, 97, 224, 224
-0.991265, 353, 73, 416, 136
-0.991274, 17, 145, 48, 208
-0.991279, 49, 33, 112, 160
-0.991292, 433, 29, 496, 60
-0.991305, 25, 125, 88, 156
-0.991317, 49, 249, 112, 280
-0.991317, 345, 153, 376, 216
-0.991339, 345, 1, 408, 32
-0.991343, 361, 49, 424, 80
-0.991354, 121, 49, 152, 176
-0.991359, 145, 277, 208, 308
-0.991389, 213, 49, 244, 176
-0.991404, 273, 81, 336, 112
-0.991428, 433, 193, 496, 320
-0.991445, 217, 61, 280, 92
-0.991445, 81, 77, 144, 108
-0.991458, 425, 1, 488, 32
-0.991481, 145, 305, 272, 368
-0.991494, 353, 25, 384, 88
-0.991503, 353, 169, 416, 200
-0.991513, 377, 37, 440, 68
-0.991521, 425, 97, 488, 352
-0.991536, 281, 185, 344, 216
-0.991538, 353, 157, 416, 188
-0.991568, 369, 169, 400, 232
-0.991584, 385, 73, 448, 104
-0.991603, 345, 37, 408, 68
-0.991633, 49, 121, 80, 184
-0.991641, 49, 105, 112, 136
-0.991645, 113, 1, 176, 375
-0.991662, 101, 65, 132, 192
-0.991664, 401, 149, 464, 180
-0.99169, 177, 193, 304, 256
-0.991716, 289, 29, 352, 60
-0.99175, 417, 137, 480, 168
-0.991753, 25, 137, 88, 168
-0.991758, 433, 65, 496, 96
-0.991763, 73, 281, 136, 312
-0.991791, 249, 61, 312, 92
-0.991815, 321, 189, 384, 220
-0.991815, 1, 197, 64, 228
-0.991816, 297, 85, 360, 116
-0.991824, 409, 89, 472, 120
-0.991826, 345, 181, 408, 212
-0.991861, 249, 49, 312, 80
-0.991867, 225, 41, 288, 72
-0.991877, 213, 65, 244, 128
-0.991899, 293, 57, 324, 120
-0.991903, 321, 169, 384, 200
-0.991904, 257, 229, 320, 260
-0.991912, 133, 49, 164, 176
-0.991922, 305, 205, 368, 236
-0.991939, 161, 305, 224, 336
-0.991954, 293, 209, 324, 272
-0.991958, 365, 33, 396, 96
-0.991963, 1, 145, 32, 272
-0.992009, 385, 257, 448, 320
-0.992024, 65, 65, 320, 128
-0.992037, 225, 105, 480, 168
-0.992045, 209, 229, 272, 260
-0.99206, 321, 273, 448, 336
-0.99206, 257, 41, 500, 104
-0.992063, 361, 61, 424, 92
-0.992069, 401, 37, 464, 68
-0.99209, 17, 113, 80, 144
-0.992113, 41, 237, 104, 268
-0.992141, 133, 225, 164, 352
-0.992158, 137, 305, 200, 336
-0.992163, 1, 121, 500, 184
-0.992171, 33, 261, 96, 292
-0.992187, 89, 33, 152, 288
-0.99219, 49, 117, 112, 148
-0.992193, 169, 253, 232, 284
-0.992208, 97, 17, 160, 144
-0.992211, 289, 217, 352, 248
-0.992214, 385, 85, 448, 116
-0.992219, 289, 301, 352, 332
-0.992252, 113, 225, 144, 352
-0.992264, 233, 249, 296, 280
-0.992278, 313, 25, 376, 56
-0.992308, 121, 69, 184, 100
-0.992309, 321, 37, 384, 68
-0.99231, 193, 277, 256, 308
-0.992319, 201, 253, 264, 284
-0.992327, 385, 61, 448, 92
-0.992337, 453, 121, 484, 152
-0.992339, 13, 169, 44, 232
-0.992369, 413, 105, 444, 136
-0.992373, 329, 297, 392, 360
-0.992381, 233, 201, 296, 232
-0.992383, 249, 89, 312, 120
-0.992393, 237, 225, 268, 352
-0.992398, 113, 277, 176, 308
-0.992401, 53, 241, 84, 304
-0.992415, 297, 285, 360, 316
-0.99243, 273, 69, 336, 100
-0.992437, 265, 173, 328, 204
-0.992439, 381, 113, 412, 144
-0.992447, 185, 57, 216, 120
-0.992453, 185, 61, 248, 92
-0.992453, 345, 97, 408, 128
-0.992453, 49, 85, 112, 116
-0.992456, 49, 297, 176, 360
-0.992466, 153, 265, 216, 296
-0.992498, 257, 25, 288, 88
-0.9925, 441, 9, 472, 72
-0.992507, 401, 145, 432, 176
-0.992513, 181, 297, 212, 360
-0.992519, 321, 185, 352, 248
-0.992526, 201, 57, 232, 120
-0.992526, 21, 121, 52, 184
-0.992531, 145, 317, 208, 348
-0.992536, 9, 185, 72, 216
-0.992545, 433, 53, 496, 84
-0.992551, 101, 73, 132, 136
-0.992554, 17, 249, 80, 280
-0.992569, 137, 289, 200, 320
-0.992595, 201, 265, 264, 296
-0.992596, 1, 129, 64, 160
-0.992596, 261, 217, 292, 248
-0.9926, 437, 37, 468, 68
-0.992602, 9, 149, 72, 180
-0.992604, 397, 117, 428, 148
-0.992613, 369, 109, 400, 140
-0.992613, 409, 17, 472, 48
-0.992624, 201, 73, 264, 104
-0.992637, 433, 13, 496, 44
-0.99264, 249, 25, 312, 56
-0.992658, 221, 241, 252, 272
-0.992678, 17, 229, 80, 260
-0.992685, 41, 273, 104, 304
-0.992687, 289, 321, 352, 352
-0.992698, 129, 209, 256, 272
-0.992699, 165, 277, 196, 308
-0.992703, 33, 125, 64, 156
-0.992705, 249, 217, 280, 248
-0.992709, 453, 33, 484, 64
-0.992714, 377, 173, 440, 204
-0.992722, 57, 101, 88, 132
-0.992724, 389, 141, 420, 172
-0.992727, 337, 105, 368, 136
-0.992728, 129, 129, 192, 375
-0.992734, 281, 77, 312, 108
-0.992735, 441, 121, 472, 152
-0.99274, 153, 65, 216, 96
-0.992744, 357, 105, 388, 136
-0.992745, 129, 33, 192, 288
-0.992752, 297, 269, 360, 300
-0.992753, 73, 257, 136, 288
-0.992763, 185, 261, 216, 292
-0.992769, 429, 89, 460, 120
-0.992772, 437, 65, 468, 96
-0.992779, 329, 153, 392, 184
-0.992794, 213, 217, 244, 280
-0.992797, 25, 101, 88, 132
-0.992798, 217, 217, 280, 248
-0.992808, 289, 1, 352, 32
-0.992811, 337, 25, 400, 56
-0.992813, 381, 1, 412, 128
-0.992815, 297, 257, 360, 288
-0.992816, 265, 73, 296, 104
-0.992818, 225, 85, 288, 116
-0.992831, 297, 117, 360, 148
-0.992836, 265, 305, 328, 336
-0.992839, 401, 161, 464, 192
-0.992847, 469, 117, 500, 148
-0.992849, 413, 129, 444, 160
-0.992871, 469, 93, 500, 124
-0.992873, 421, 49, 452, 80
-0.992879, 425, 77, 456, 108
-0.992885, 153, 113, 216, 144
-0.992886, 305, 241, 432, 304
-0.992886, 385, 125, 416, 156
-0.992895, 321, 1, 384, 32
-0.992902, 277, 169, 308, 232
-0.992906, 177, 273, 208, 304
-0.992911, 17, 217, 80, 248
-0.992912, 293, 81, 324, 112
-0.992912, 217, 97, 280, 224
-0.992915, 401, 129, 432, 160
-0.992915, 1, 201, 32, 232
-0.992925, 153, 285, 184, 316
-0.992929, 201, 269, 232, 300
-0.992933, 445, 77, 476, 108
-0.992937, 253, 41, 284, 72
-0.99294, 441, 133, 472, 164
-0.992957, 413, 149, 444, 180
-0.99296, 113, 293, 176, 324
-0.992962, 209, 241, 240, 272
-0.992967, 453, 109, 484, 140
-0.99297, 33, 233, 288, 296
-0.99297, 353, 113, 480, 144
-0.992973, 169, 305, 200, 336
-0.992975, 177, 241, 240, 272
-0.992977, 77, 273, 108, 304
-0.99298, 73, 145, 136, 208
-0.992991, 469, 81, 500, 112
-0.992995, 425, 61, 456, 92
-0.993, 405, 53, 436, 84
-0.993, 429, 117, 460, 148
-0.993003, 377, 137, 408, 168
-0.993007, 325, 113, 356, 144
-0.993007, 413, 1, 444, 32
-0.993009, 425, 137, 456, 168
-0.993012, 237, 229, 268, 260
-0.993024, 309, 89, 340, 120
-0.993027, 249, 65, 280, 96
-0.993027, 385, 157, 416, 188
-0.993029, 385, 1, 416, 32
-0.993033, 393, 49, 424, 80
-0.993035, 269, 205, 300, 236
-0.993039, 325, 101, 356, 132
-0.993041, 281, 201, 312, 232
-0.993046, 457, 1, 488, 32
-0.993049, 369, 1, 400, 32
-0.993055, 469, 41, 500, 72
-0.993059, 313, 105, 344, 136
-0.993059, 357, 117, 388, 148
-0.993061, 257, 65, 500, 128
-0.993061, 397, 161, 428, 192
-0.993062, 145, 49, 176, 176
-0.993072, 297, 305, 328, 336
-0.993072, 257, 205, 288, 236
-0.993074, 457, 77, 488, 108
-0.993082, 369, 165, 400, 196
-0.993085, 457, 49, 488, 80
-0.993094, 397, 105, 428, 136
-0.993096, 261, 53, 292, 84
-0.993096, 33, 177, 64, 304
-0.993098, 433, 105, 464, 136
-0.993099, 413, 93, 444, 124
-0.9931, 209, 265, 240, 328
-0.993109, 377, 41, 408, 72
-0.993113, 401, 1, 432, 32
-0.993117, 273, 217, 304, 248
-0.993119, 413, 69, 444, 100
-0.993123, 237, 245, 268, 276
-0.993126, 97, 281, 128, 312
-0.993131, 65, 209, 128, 272
-0.993133, 237, 69, 268, 100
-0.993134, 105, 49, 168, 112
-0.993141, 41, 237, 72, 268
-0.993155, 453, 133, 484, 164
-0.993156, 105, 73, 136, 104
-0.993161, 197, 257, 228, 288
-0.99317, 465, 13, 496, 44
-0.993171, 281, 81, 312, 208
-0.993171, 21, 133, 52, 164
-0.993175, 89, 65, 120, 192
-0.993178, 41, 113, 72, 144
-0.993182, 173, 261, 204, 292
-0.993186, 353, 169, 384, 200
-0.993188, 441, 25, 472, 56
-0.993189, 253, 185, 284, 248
-0.993189, 185, 209, 248, 272
-0.993197, 281, 37, 312, 68
-0.9932, 293, 93, 324, 124
-0.993202, 309, 293, 340, 324
-0.993209, 381, 169, 412, 200
-0.993213, 265, 85, 296, 116
-0.993213, 197, 281, 228, 312
-0.993222, 129, 69, 160, 100
-0.993226, 409, 117, 440, 148
-0.993228, 33, 137, 64, 168
-0.993231, 69, 89, 100, 120
-0.993233, 337, 117, 368, 148
-0.993235, 445, 49, 476, 80
-0.993235, 453, 21, 484, 52
-0.993236, 365, 133, 396, 164
-0.993237, 165, 317, 196, 348
-0.993238, 317, 185, 348, 216
-0.993241, 85, 73, 116, 136
-0.993246, 305, 189, 336, 220
-0.99325, 365, 37, 396, 68
-0.993251, 469, 105, 500, 136
-0.993251, 469, 53, 500, 84
-0.993251, 261, 229, 292, 260
-0.993254, 65, 257, 96, 288
-0.993256, 21, 149, 52, 180
-0.993261, 81, 81, 112, 112
-0.993261, 365, 177, 396, 208
-0.993262, 369, 121, 400, 152
-0.993269, 93, 77, 124, 108
-0.99327, 53, 113, 84, 144
-0.993275, 265, 41, 296, 72
-0.993277, 253, 77, 284, 108
-0.993278, 353, 209, 416, 336
-0.993279, 333, 257, 364, 288
-0.993281, 353, 129, 384, 160
-0.993284, 157, 305, 188, 368
-0.993286, 265, 29, 296, 60
-0.993288, 157, 305, 188, 336
-0.993292, 297, 25, 328, 56
-0.993297, 349, 185, 380, 216
-0.9933, 85, 261, 116, 292
-0.993308, 45, 101, 76, 132
-0.993316, 57, 193, 88, 320
-0.99333, 161, 65, 192, 128
-0.993333, 1, 97, 256, 160
-0.993358, 349, 49, 380, 176
-0.993377, 121, 65, 152, 128
-0.993435, 245, 233, 276, 296
-0.993465, 273, 241, 336, 368
-0.993466, 1, 73, 500, 136
-0.993478, 25, 1, 88, 375
-0.993533, 325, 257, 356, 320
-0.993554, 161, 81, 416, 144
-0.993576, 329, 217, 392, 280
-0.99367, 225, 129, 480, 192
-0.993674, 181, 97, 212, 160
-0.993736, 409, 209, 472, 336
-0.993755, 273, 289, 336, 352
-0.993822, 421, 129, 452, 256
-0.993822, 337, 241, 368, 368
-0.993833, 353, 289, 416, 352
-0.993836, 1, 169, 500, 232
-0.993872, 257, 193, 500, 256
-0.993879, 305, 225, 368, 288
-0.993904, 177, 121, 240, 184
-0.993905, 389, 89, 420, 152
-0.993906, 321, 305, 448, 368
-0.994024, 249, 161, 312, 224
-0.994029, 433, 73, 448, 136
-0.994098, 305, 25, 336, 88
-0.994144, 217, 1, 280, 128
-0.994227, 29, 217, 60, 280
-0.994257, 225, 153, 352, 216
-0.994272, 297, 305, 328, 368
-0.994274, 329, 225, 392, 352
-0.994278, 401, 9, 432, 72
-0.994285, 309, 289, 340, 352
-0.994285, 1, 193, 500, 256
-0.994312, 33, 209, 288, 272
-0.994325, 193, 233, 448, 296
-0.994339, 345, 1, 376, 64
-0.994356, 53, 265, 84, 328
-0.994358, 1, 233, 500, 296
-0.99437, 1, 49, 64, 176
-0.994372, 193, 289, 256, 352
-0.994387, 233, 177, 264, 304
-0.99441, 361, 49, 392, 176
-0.994476, 433, 193, 496, 256
-0.994594, 253, 225, 284, 352
-0.994596, 369, 101, 496, 132
-0.994618, 369, 201, 496, 264
-0.994631, 153, 1, 216, 128
-0.994632, 333, 145, 364, 208
-0.994647, 193, 77, 320, 108
-0.994658, 141, 65, 172, 128
-0.994677, 113, 281, 144, 344
-0.994688, 273, 313, 400, 375
-0.994753, 77, 177, 108, 304
-0.994804, 173, 249, 204, 312
-0.994819, 225, 297, 352, 360
-0.994822, 427, 89, 442, 152
-0.994832, 177, 17, 304, 80
-0.994833, 369, 265, 496, 328
-0.994833, 337, 73, 368, 136
-0.994854, 485, 73, 500, 136
-0.994867, 397, 65, 428, 128
-0.994869, 413, 105, 428, 168
-0.99491, 469, 25, 500, 88
-0.994938, 1, 169, 32, 232
-0.99494, 421, 145, 452, 208
-0.995, 257, 169, 500, 232
-0.995, 369, 125, 496, 156
-0.995003, 399, 137, 414, 200
-0.995005, 81, 145, 144, 272
-0.995024, 257, 121, 384, 184
-0.99503, 475, 73, 490, 136
-0.995053, 1, 17, 128, 144
-0.995074, 1, 145, 500, 208
-0.995079, 97, 137, 160, 200
-0.995088, 257, 9, 500, 72
-0.995097, 1, 49, 128, 112
-0.995097, 257, 241, 384, 304
-0.995117, 321, 101, 448, 132
-0.995141, 273, 37, 400, 68
-0.995175, 161, 161, 416, 224
-0.995184, 1, 265, 500, 328
-0.995203, 277, 225, 308, 352
-0.995218, 403, 113, 418, 176
-0.995222, 443, 41, 458, 104
-0.995237, 401, 225, 464, 288
-0.995276, 89, 209, 152, 272
-0.995293, 177, 153, 304, 216
-0.995298, 193, 245, 320, 276
-0.995326, 249, 281, 312, 344
-0.995341, 33, 169, 96, 232
-0.995345, 177, 1, 240, 128
-0.995366, 1, 97, 500, 160
-0.995372, 345, 241, 408, 304
-0.99539, 161, 41, 416, 104
-0.995402, 129, 105, 384, 168
-0.995409, 433, 1, 464, 256
-0.995411, 97, 257, 352, 320
-0.995413, 407, 137, 422, 200
-0.995453, 305, 113, 432, 144
-0.995462, 161, 65, 288, 96
-0.995489, 419, 105, 434, 168
-0.995505, 413, 137, 428, 200
-0.995517, 177, 273, 192, 336
-0.995527, 451, 41, 466, 104
-0.995537, 129, 1, 192, 128
-0.995545, 177, 113, 304, 176
-0.995559, 259, 209, 274, 272
-0.995559, 171, 273, 186, 336
-0.995579, 13, 177, 44, 304
-0.995602, 161, 209, 416, 272
-0.995622, 1, 121, 256, 184
-0.995626, 65, 97, 128, 160
-0.995629, 361, 265, 424, 328
-0.995629, 447, 73, 462, 136
-0.995637, 81, 121, 208, 184
-0.995643, 45, 177, 76, 304
-0.995645, 41, 1, 104, 256
-0.995663, 241, 213, 368, 244
-0.995667, 353, 241, 480, 304
-0.995711, 393, 1, 424, 256
-0.995722, 369, 1, 496, 32
-0.99573, 173, 193, 204, 320
-0.995749, 217, 241, 232, 304
-0.99575, 421, 1, 452, 256
-0.995753, 421, 65, 436, 128
-0.995778, 475, 113, 490, 176
-0.995778, 257, 41, 272, 104
-0.99578, 177, 297, 192, 360
-0.995797, 209, 241, 224, 304
-0.995843, 129, 41, 192, 104
-0.99585, 433, 129, 464, 256
-0.99586, 129, 277, 256, 308
-0.995865, 161, 33, 224, 288
-0.995875, 469, 49, 484, 112
-0.99588, 365, 97, 380, 160
-0.995889, 321, 141, 448, 172
-0.99589, 321, 241, 352, 368
-0.9959, 57, 33, 88, 160
-0.995913, 1, 273, 256, 336
-0.995942, 185, 97, 248, 224
-0.995954, 65, 169, 192, 232
-0.995954, 217, 153, 280, 216
-0.995963, 265, 209, 280, 272
-0.995996, 437, 41, 452, 104
-0.996, 201, 113, 264, 176
-0.996004, 185, 273, 200, 336
-0.996013, 477, 9, 492, 72
-0.996022, 345, 193, 408, 256
-0.996025, 231, 233, 246, 296
-0.996032, 49, 41, 176, 104
-0.996036, 439, 73, 454, 136
-0.996037, 105, 97, 168, 160
-0.99606, 283, 201, 298, 264
-0.99606, 353, 97, 368, 160
-0.996067, 257, 105, 384, 136
-0.996077, 369, 45, 496, 76
-0.996083, 273, 313, 336, 375
-0.996093, 257, 173, 384, 204
-0.996105, 245, 17, 276, 144
-0.996122, 221, 177, 252, 304
-0.996126, 359, 121, 374, 184
-0.996138, 209, 17, 272, 80
-0.996139, 365, 1, 396, 256
-0.996156, 35, 121, 50, 184
-0.996183, 401, 185, 464, 248
-0.996184, 475, 49, 490, 112
-0.996196, 33, 49, 64, 176
-0.996205, 209, 265, 224, 328
-0.996208, 239, 241, 254, 304
-0.996223, 457, 41, 472, 104
-0.996279, 323, 177, 338, 240
-0.996281, 17, 121, 144, 152
-0.996285, 329, 89, 344, 152
-0.996306, 113, 33, 240, 96
-0.996312, 359, 97, 374, 160
-0.996323, 203, 257, 218, 320
-0.996327, 393, 129, 408, 192
-0.996338, 65, 145, 192, 208
-0.996361, 295, 73, 310, 136
-0.996364, 429, 41, 444, 104
-0.996392, 225, 225, 352, 256
-0.996398, 271, 41, 286, 104
-0.996403, 321, 1, 448, 32
-0.996413, 289, 157, 416, 188
-0.996427, 435, 105, 450, 168
-0.996447, 129, 281, 384, 344
-0.99645, 241, 201, 368, 232
-0.996458, 343, 97, 358, 160
-0.996464, 163, 281, 178, 344
-0.996467, 383, 129, 398, 192
-0.996467, 281, 65, 296, 128
-0.996477, 241, 65, 256, 128
-0.996487, 225, 233, 240, 296
-0.996487, 471, 17, 486, 80
-0.99649, 335, 97, 350, 160
-0.996496, 241, 93, 368, 124
-0.996507, 225, 49, 256, 176
-0.996517, 391, 105, 406, 168
-0.996524, 249, 57, 264, 120
-0.99653, 97, 265, 224, 296
-0.996571, 465, 1, 480, 64
-0.996582, 249, 217, 264, 280
-0.996586, 263, 33, 278, 96
-0.996591, 1, 1, 64, 256
-0.996596, 429, 113, 444, 176
-0.996613, 419, 129, 434, 192
-0.996619, 369, 33, 496, 64
-0.996628, 303, 185, 318, 248
-0.996645, 341, 65, 372, 320
-0.996649, 321, 173, 448, 204
-0.996659, 469, 73, 484, 136
-0.996673, 371, 105, 386, 168
-0.996687, 369, 165, 496, 196
-0.996707, 301, 73, 316, 136
-0.996712, 415, 41, 430, 104
-0.996713, 271, 209, 286, 272
-0.996713, 171, 297, 186, 360
-0.996713, 193, 33, 256, 288
-0.996714, 191, 257, 206, 320
-0.996734, 485, 49, 500, 112
-0.996736, 97, 69, 224, 100
-0.996738, 353, 61, 480, 92
-0.996762, 193, 281, 208, 344
-0.996764, 321, 45, 448, 76
-0.996767, 79, 249, 94, 312
-0.996771, 485, 105, 500, 168
-0.996773, 427, 65, 442, 128
-0.996785, 451, 1, 466, 64
-0.996786, 457, 97, 488, 224
-0.996786, 61, 241, 92, 368
-0.996788, 381, 97, 396, 160
-0.996789, 89, 257, 104, 320
-0.996795, 275, 65, 290, 128
-0.996801, 59, 97, 74, 160
-0.996817, 399, 41, 414, 104
-0.996818, 49, 101, 176, 132
-0.996821, 353, 65, 384, 320
-0.996838, 325, 65, 356, 320
-0.996843, 321, 129, 448, 160
-0.996849, 289, 193, 304, 256
-0.996879, 329, 177, 344, 240
-0.996884, 289, 193, 416, 224
-0.996886, 393, 161, 408, 224
-0.996897, 315, 89, 330, 152
-0.996912, 235, 65, 250, 128
-0.996913, 161, 185, 416, 248
-0.996916, 367, 161, 382, 224
-0.996917, 347, 121, 362, 184
-0.996921, 435, 81, 450, 112
-0.996929, 321, 89, 448, 120
-0.996932, 369, 145, 496, 176
-0.996935, 445, 1, 476, 256
-0.996935, 469, 1, 500, 256
-0.99694, 45, 113, 60, 176
-0.996952, 361, 177, 376, 240
-0.996955, 405, 1, 436, 256
-0.996979, 483, 1, 498, 64
-0.996979, 441, 97, 456, 160
-0.996982, 269, 129, 300, 256
-0.996985, 209, 57, 336, 88
-0.996987, 65, 81, 192, 112
-0.996988, 369, 81, 496, 112
-0.996989, 455, 121, 470, 152
-0.996992, 183, 297, 198, 360
-0.996995, 241, 189, 368, 220
-0.996998, 273, 25, 400, 56
-0.997009, 57, 233, 72, 296
-0.997012, 243, 217, 258, 280
-0.997024, 279, 41, 294, 104
-0.997055, 189, 193, 220, 320
-0.997057, 367, 129, 382, 192
-0.997066, 245, 249, 260, 312
-0.997069, 377, 1, 408, 256
-0.997077, 33, 185, 288, 248
-0.997085, 177, 269, 304, 300
-0.997086, 29, 129, 44, 192
-0.997088, 289, 33, 304, 96
-0.997088, 405, 97, 436, 352
-0.9971, 237, 217, 252, 280
-0.997103, 273, 1, 400, 32
-0.997108, 101, 265, 116, 328
-0.997109, 1, 49, 500, 112
-0.997115, 201, 281, 216, 344
-0.997124, 375, 137, 390, 200
-0.997125, 67, 241, 82, 304
-0.997138, 265, 65, 296, 320
-0.997144, 287, 65, 302, 128
-0.997151, 355, 185, 370, 248
-0.997159, 229, 65, 244, 128
-0.997159, 403, 161, 418, 224
-0.997175, 327, 1, 342, 64
-0.997183, 347, 169, 362, 232
-0.997189, 301, 297, 316, 360
-0.997203, 185, 249, 200, 312
-0.997205, 323, 89, 338, 152
-0.997209, 395, 1, 410, 64
-0.997217, 427, 97, 442, 128
-0.997219, 1, 157, 128, 188
-0.99722, 127, 65, 142, 128
-0.997226, 53, 105, 68, 168
-0.997227, 353, 121, 368, 184
-0.997234, 277, 201, 292, 264
-0.997239, 469, 113, 484, 176
-0.997251, 241, 237, 368, 268
-0.997257, 297, 193, 312, 256
-0.997259, 265, 225, 296, 352
-0.997261, 359, 1, 374, 64
-0.997265, 269, 65, 284, 128
-0.997266, 193, 257, 448, 320
-0.997269, 453, 113, 468, 176
-0.997273, 461, 73, 476, 136
-0.997279, 441, 9, 456, 72
-0.997279, 465, 25, 480, 88
-0.997301, 81, 277, 208, 308
-0.997306, 1, 261, 128, 292
-0.997325, 97, 289, 224, 320
-0.997327, 65, 97, 80, 160
-0.997333, 11, 169, 26, 232
-0.997334, 423, 1, 438, 64
-0.997338, 1, 193, 32, 320
-0.99735, 225, 41, 352, 72
-0.997353, 17, 137, 144, 168
-0.997363, 65, 41, 320, 104
-0.997374, 177, 257, 304, 288
-0.997393, 241, 69, 368, 100
-0.997395, 1, 161, 256, 224
-0.997397, 373, 97, 404, 352
-0.997401, 337, 185, 464, 216
-0.997425, 201, 177, 232, 304
-0.997427, 145, 245, 272, 276
-0.997465, 1, 245, 128, 276
-0.997467, 289, 205, 416, 236
-0.997492, 193, 213, 320, 244
-0.9975, 413, 145, 428, 176
-0.997522, 145, 289, 272, 320
-0.997523, 81, 301, 208, 332
-0.99756, 427, 109, 442, 140
-0.997562, 477, 113, 492, 144
-0.997567, 259, 41, 274, 72
-0.997575, 109, 17, 140, 144
-0.99758, 391, 121, 406, 152
-0.997593, 385, 97, 416, 352
-0.997593, 17, 277, 144, 308
-0.997601, 403, 141, 418, 172
-0.997611, 193, 89, 320, 120
-0.997628, 399, 125, 414, 156
-0.997633, 415, 105, 430, 136
-0.997662, 17, 185, 144, 216
-0.997664, 53, 65, 84, 320
-0.997682, 409, 177, 440, 304
-0.997687, 337, 101, 352, 132
-0.997696, 1, 197, 128, 228
-0.997701, 33, 225, 64, 352
-0.997724, 313, 65, 344, 320
-0.99773, 241, 81, 368, 112
-0.997734, 337, 13, 464, 44
-0.997737, 57, 101, 72, 132
-0.997746, 237, 241, 252, 272
-0.997753, 277, 217, 292, 248
-0.997755, 145, 305, 272, 336
-0.99777, 177, 301, 192, 332
-0.997778, 301, 305, 316, 336
-0.99781, 389, 1, 404, 32
-0.997814, 405, 241, 436, 368
-0.997828, 465, 121, 480, 152
-0.997833, 33, 133, 48, 164
-0.997834, 425, 133, 440, 164
-0.997845, 391, 157, 406, 188
-0.997848, 263, 213, 278, 244
-0.997867, 49, 241, 176, 272
-0.997871, 459, 69, 474, 100
-0.997871, 49, 229, 176, 260
-0.997872, 265, 41, 280, 72
-0.997877, 435, 45, 450, 76
-0.997882, 249, 65, 280, 320
-0.99789, 255, 217, 270, 248
-0.997892, 369, 105, 384, 136
-0.997898, 419, 145, 434, 176
-0.9979, 383, 161, 398, 192
-0.9979, 375, 109, 390, 140
-0.997904, 309, 85, 324, 116
-0.997904, 273, 205, 288, 236
-0.997909, 49, 257, 176, 288
-0.997914, 433, 101, 448, 132
-0.997928, 209, 97, 240, 224
-0.997933, 457, 29, 472, 60
-0.997936, 347, 105, 362, 136
-0.997937, 299, 81, 314, 112
-0.997968, 279, 73, 294, 104
-0.997982, 485, 101, 500, 132
-0.997985, 49, 241, 80, 368
-0.997986, 187, 265, 202, 296
-0.997989, 109, 177, 140, 304
-0.997993, 415, 1, 430, 32
-0.997993, 257, 117, 384, 148
-0.998, 227, 241, 242, 272
-0.998001, 421, 105, 436, 136
-0.998007, 321, 33, 448, 64
-0.998008, 433, 97, 464, 352
-0.998014, 423, 1, 438, 32
-0.998017, 353, 105, 368, 136
-0.99803, 145, 229, 272, 260
-0.998033, 479, 81, 494, 112
-0.998043, 457, 1, 488, 256
-0.998045, 271, 73, 286, 104
-0.998049, 113, 113, 176, 240
-0.99805, 383, 109, 398, 140
-0.998053, 305, 285, 432, 316
-0.998063, 293, 77, 308, 108
-0.998071, 451, 133, 466, 164
-0.998081, 471, 121, 486, 152
-0.998083, 199, 261, 214, 292
-0.998083, 445, 33, 460, 64
-0.998084, 325, 93, 340, 124
-0.998092, 1, 217, 128, 248
-0.998096, 307, 301, 322, 332
-0.998097, 417, 97, 448, 352
-0.998104, 483, 113, 498, 144
-0.998112, 473, 1, 488, 32
-0.998113, 11, 197, 26, 228
-0.998119, 485, 85, 500, 116
-0.998121, 73, 269, 88, 300
-0.998123, 1, 229, 128, 260
-0.998126, 265, 73, 280, 104
-0.998128, 37, 121, 52, 152
-0.998135, 3, 197, 18, 228
-0.998138, 363, 105, 378, 136
-0.998142, 397, 141, 412, 172
-0.998147, 181, 269, 196, 300
-0.998154, 467, 1, 482, 32
-0.998158, 439, 97, 454, 128
-0.998159, 119, 73, 134, 104
-0.998165, 367, 117, 382, 148
-0.998168, 145, 97, 272, 128
-0.998173, 261, 61, 276, 92
-0.998177, 467, 21, 482, 52
-0.998182, 161, 53, 288, 84
-0.998186, 331, 101, 346, 132
-0.998188, 447, 81, 462, 112
-0.998195, 397, 113, 412, 144
-0.998197, 273, 309, 400, 340
-0.998199, 67, 253, 82, 284
-0.998205, 1, 297, 128, 360
-0.998207, 389, 109, 404, 140
-0.998211, 451, 29, 466, 60
-0.998214, 209, 249, 224, 280
-0.998214, 343, 257, 358, 288
-0.998226, 113, 145, 240, 208
-0.998227, 97, 313, 224, 344
-0.998229, 193, 201, 320, 232
-0.998231, 415, 53, 430, 84
-0.998234, 79, 261, 94, 292
-0.998235, 397, 161, 412, 192
-0.998236, 405, 49, 420, 80
-0.998239, 315, 89, 330, 120
-0.998239, 185, 97, 216, 224
-0.998242, 257, 57, 384, 88
-0.998243, 289, 297, 416, 328
-0.998247, 419, 129, 434, 160
-0.99825, 465, 73, 480, 104
-0.998251, 421, 93, 436, 124
-0.998254, 425, 145, 440, 176
-0.998259, 253, 65, 268, 96
-0.998264, 371, 165, 386, 196
-0.998265, 225, 29, 352, 60
-0.998266, 55, 245, 70, 276
-0.998269, 405, 117, 420, 148
-0.998273, 227, 229, 242, 260
-0.998276, 285, 77, 300, 108
-0.998276, 469, 177, 500, 304
-0.998277, 171, 305, 186, 336
-0.998279, 47, 109, 62, 140
-0.998282, 451, 65, 466, 96
-0.998285, 395, 1, 410, 32
-0.998287, 43, 125, 58, 156
-0.998292, 177, 37, 304, 68
-0.998292, 207, 269, 222, 300
-0.998293, 369, 289, 496, 352
-0.998295, 443, 65, 458, 96
-0.998297, 429, 1, 444, 32
-0.998305, 433, 133, 448, 164
-0.99831, 321, 73, 448, 104
-0.998311, 391, 141, 406, 172
-0.998311, 127, 81, 142, 112
-0.998314, 481, 41, 496, 72
-0.998322, 429, 77, 444, 108
-0.998326, 17, 169, 144, 200
-0.998328, 289, 217, 416, 248
-0.998332, 433, 113, 448, 144
-0.998333, 449, 121, 464, 152
-0.998334, 17, 129, 48, 375
-0.998341, 331, 113, 346, 144
-0.998346, 89, 273, 104, 304
-0.998351, 341, 263, 372, 278
-0.998352, 61, 267, 92, 282
-0.998352, 457, 7, 488, 22
-0.998353, 421, 77, 452, 92
-0.998353, 289, 37, 320, 52
-0.998353, 29, 141, 60, 156
-0.998353, 53, 115, 84, 130
-0.998354, 205, 239, 236, 254
-0.998354, 329, 267, 360, 282
-0.998355, 253, 49, 284, 64
-0.998355, 353, 107, 384, 122
-0.998355, 233, 247, 264, 262
-0.998356, 269, 37, 300, 52
-0.998358, 445, 67, 476, 82
-0.998358, 445, 29, 476, 44
-0.998358, 417, 3, 448, 18
-0.99836, 389, 109, 420, 124
-0.99836, 309, 189, 340, 204
-0.998361, 469, 111, 500, 126
-0.998361, 433, 119, 464, 134
-0.998361, 1, 289, 500, 352
-0.998361, 273, 225, 304, 240
-0.998361, 349, 127, 380, 142
-0.998362, 229, 69, 260, 84
-0.998362, 247, 233, 262, 264
-0.998362, 197, 283, 228, 298
-0.998363, 469, 11, 500, 26
-0.998364, 193, 261, 208, 292
-0.998365, 221, 241, 236, 272
-0.998366, 257, 231, 288, 246
-0.998366, 249, 221, 264, 252
-0.998367, 441, 37, 472, 52
-0.998367, 237, 65, 268, 320
-0.998368, 469, 89, 500, 104
-0.998369, 257, 241, 288, 256
-0.998369, 413, 115, 444, 130
-0.998369, 349, 1, 380, 16
-0.998369, 423, 73, 438, 104
-0.99837, 53, 259, 84, 274
-0.998371, 357, 171, 388, 186
-0.998372, 185, 263, 216, 278
-0.998374, 297, 307, 328, 322
-0.998375, 413, 139, 444, 154
-0.998375, 13, 199, 44, 214
-0.998375, 309, 31, 340, 46
-0.998376, 305, 103, 336, 118
-0.998376, 337, 265, 352, 296
-0.998377, 61, 99, 92, 114
-0.998378, 241, 79, 272, 94
-0.998378, 373, 55, 404, 70
-0.998378, 33, 123, 64, 138
-0.998378, 23, 149, 38, 180
-0.998379, 297, 31, 328, 46
-0.998379, 285, 201, 300, 232
-0.99838, 405, 57, 436, 72
-0.99838, 369, 135, 400, 150
-0.99838, 197, 281, 212, 312
-0.998381, 425, 141, 456, 156
-0.998382, 313, 109, 344, 124
-0.998382, 397, 131, 428, 146
-0.998383, 37, 237, 68, 252
-0.998385, 165, 279, 196, 294
-0.998385, 393, 137, 424, 152
-0.998386, 465, 109, 480, 140
-0.998387, 361, 39, 392, 54
-0.998387, 237, 65, 268, 192
-0.998387, 449, 79, 480, 94
-0.998388, 433, 107, 464, 122
-0.998388, 69, 273, 100, 288
-0.99839, 469, 1, 500, 16
-0.998391, 337, 121, 368, 136
-0.998391, 325, 115, 356, 130
-0.998392, 389, 115, 420, 130
-0.998392, 85, 83, 116, 98
-0.998393, 49, 121, 64, 152
-0.998394, 381, 47, 412, 62
-0.998394, 417, 147, 448, 162
-0.998394, 393, 1, 424, 16
-0.998396, 253, 81, 284, 96
-0.998396, 267, 57, 282, 88
-0.998397, 63, 97, 78, 128
-0.998397, 361, 3, 392, 18
-0.998397, 433, 133, 464, 148
-0.998397, 225, 269, 352, 300
-0.998398, 55, 113, 70, 144
-0.998398, 245, 239, 276, 254
-0.998399, 409, 155, 440, 170
-0.998399, 469, 97, 500, 112
-0.9984, 129, 305, 384, 368
-0.9984, 421, 125, 452, 140
-0.9984, 269, 217, 300, 232
-0.998403, 405, 1, 436, 16
-0.998404, 479, 97, 494, 128
-0.998405, 427, 49, 442, 80
-0.998406, 285, 81, 316, 96
-0.998407, 389, 159, 420, 174
-0.998407, 449, 47, 480, 62
-0.998408, 105, 75, 136, 90
-0.99841, 61, 257, 76, 288
-0.99841, 209, 105, 336, 136
-0.99841, 469, 123, 500, 138
-0.998411, 393, 51, 424, 66
-0.998412, 173, 271, 204, 286
-0.998412, 469, 103, 500, 118
-0.998413, 353, 117, 384, 132
-0.998414, 479, 9, 494, 40
-0.998415, 305, 89, 336, 104
-0.998417, 77, 279, 108, 294
-0.998419, 429, 85, 460, 100
-0.99842, 453, 35, 484, 50
-0.998421, 401, 125, 432, 140
-0.998422, 253, 75, 284, 90
-0.998423, 197, 273, 228, 288
-0.998426, 241, 67, 272, 82
-0.998427, 457, 119, 488, 134
-0.998432, 305, 301, 336, 316
-0.998435, 381, 133, 412, 148
-0.998436, 457, 41, 488, 56
-0.998437, 381, 121, 412, 136
-0.998437, 469, 117, 500, 132
-0.998438, 169, 309, 200, 324
-0.998439, 421, 51, 452, 66
-0.99844, 365, 111, 396, 126
-0.998443, 449, 131, 480, 146
-0.998446, 353, 121, 416, 136
-0.998448, 457, 73, 488, 88
-0.998449, 469, 83, 500, 98
-0.998451, 265, 75, 296, 90
-0.998454, 401, 113, 432, 128
-0.998455, 253, 221, 284, 236
-0.998457, 313, 95, 344, 110
-0.998457, 29, 135, 60, 150
-0.998461, 421, 101, 452, 116
-0.998462, 429, 91, 460, 106
-0.998462, 373, 165, 404, 180
-0.998466, 329, 105, 360, 120
-0.998468, 29, 129, 60, 144
-0.998468, 53, 105, 84, 120
-0.99847, 393, 143, 424, 158
-0.998481, 381, 139, 412, 154
-0.998482, 277, 65, 308, 320
-0.998482, 305, 273, 432, 304
-0.998488, 377, 113, 408, 128
-0.998489, 225, 281, 480, 344
-0.99849, 129, 1, 384, 64
-0.99849, 1, 1, 500, 64
-0.99849, 241, 73, 272, 88
-0.998491, 469, 45, 500, 60
-0.998493, 49, 217, 176, 248
-0.998493, 321, 107, 384, 122
-0.998493, 177, 1, 208, 128
-0.998494, 201, 245, 264, 260
-0.998496, 401, 119, 432, 134
-0.998497, 405, 147, 436, 162
-0.998498, 97, 137, 352, 200
-0.998499, 257, 43, 288, 58
-0.998502, 1, 1, 64, 375
-0.998503, 1, 201, 32, 216
-0.998504, 433, 127, 464, 142
-0.998506, 177, 279, 208, 294
-0.998506, 1, 225, 64, 352
-0.998507, 249, 217, 312, 232
-0.998508, 425, 47, 488, 62
-0.998509, 425, 125, 488, 140
-0.998514, 369, 1, 432, 16
-0.998514, 385, 129, 448, 144
-0.998527, 377, 1, 408, 16
-0.998527, 437, 43, 468, 58
-0.998532, 217, 243, 248, 258
-0.998533, 345, 115, 408, 130
-0.998545, 169, 273, 232, 288
-0.998547, 425, 71, 488, 86
-0.998547, 241, 223, 304, 238
-0.998549, 257, 77, 320, 92
-0.998554, 161, 279, 224, 294
-0.998555, 377, 51, 440, 66
-0.998558, 233, 73, 296, 88
-0.99856, 433, 99, 496, 114
-0.998562, 385, 111, 448, 126
-0.998563, 345, 1, 408, 16
-0.998565, 385, 117, 448, 132
-0.998566, 41, 97, 72, 352
-0.998568, 369, 163, 432, 178
-0.99857, 409, 63, 472, 78
-0.99857, 413, 109, 444, 124
-0.998571, 425, 81, 488, 96
-0.998573, 393, 57, 456, 72
-0.998576, 145, 117, 272, 148
-0.998579, 257, 215, 288, 230
-0.998579, 409, 1, 472, 16
-0.998581, 401, 45, 464, 60
-0.998581, 1, 105, 128, 136
-0.998582, 417, 131, 480, 146
-0.998584, 377, 149, 440, 164
-0.998585, 17, 89, 144, 120
-0.998586, 69, 65, 100, 320
-0.998587, 417, 87, 480, 102
-0.998588, 385, 135, 448, 150
-0.998589, 449, 125, 480, 140
-0.998591, 313, 101, 376, 116
-0.998594, 361, 139, 424, 154
-0.998594, 97, 253, 224, 284
-0.998594, 361, 127, 424, 142
-0.998596, 425, 53, 488, 68
-0.9986, 409, 107, 472, 122
-0.9986, 233, 239, 296, 254
-0.998601, 209, 73, 272, 88
-0.998602, 337, 167, 400, 182
-0.998602, 289, 307, 352, 322
-0.998605, 385, 143, 448, 158
-0.998608, 249, 41, 312, 56
-0.998608, 225, 215, 288, 230
-0.998609, 433, 93, 496, 108
-0.998609, 305, 187, 368, 202
-0.998609, 225, 229, 288, 244
-0.998611, 289, 33, 352, 48
-0.998612, 433, 105, 496, 120
-0.998612, 281, 87, 344, 102
-0.998613, 393, 123, 456, 138
-0.998613, 201, 251, 264, 266
-0.998614, 41, 253, 104, 268
-0.998616, 169, 263, 232, 278
-0.998616, 73, 285, 136, 300
-0.998618, 233, 247, 296, 262
-0.998618, 345, 133, 408, 148
-0.998619, 241, 161, 368, 192
-0.99862, 225, 79, 288, 94
-0.998621, 433, 41, 496, 56
-0.998622, 89, 81, 152, 96
-0.998622, 297, 95, 360, 110
-0.998623, 401, 101, 464, 116
-0.998623, 313, 1, 376, 16
-0.998623, 57, 263, 120, 278
-0.998626, 385, 157, 448, 172
-0.998627, 361, 45, 424, 60
-0.998627, 345, 109, 408, 124
-0.998628, 377, 105, 440, 120
-0.998628, 1, 201, 64, 216
-0.998629, 329, 37, 392, 52
-0.99863, 289, 193, 352, 208
-0.998632, 273, 217, 336, 232
-0.998634, 433, 7, 496, 22
-0.998634, 161, 309, 224, 324
-0.998635, 265, 223, 328, 238
-0.998636, 193, 275, 256, 290
-0.998636, 137, 309, 200, 324
-0.998637, 49, 105, 112, 120
-0.998637, 225, 67, 288, 82
-0.998637, 65, 279, 128, 294
-0.998638, 361, 157, 424, 172
-0.998642, 281, 101, 344, 116
-0.998643, 249, 211, 312, 226
-0.998643, 241, 85, 304, 100
-0.998644, 313, 123, 376, 138
-0.998644, 361, 7, 424, 22
-0.998645, 409, 139, 472, 154
-0.998648, 281, 109, 344, 124
-0.998648, 249, 33, 312, 48
-0.998648, 289, 1, 352, 16
-0.998649, 185, 281, 248, 296
-0.99865, 217, 221, 280, 236
-0.998651, 289, 39, 352, 54
-0.998651, 41, 247, 104, 262
-0.998651, 297, 115, 360, 130
-0.998651, 25, 125, 88, 140
-0.998652, 321, 175, 384, 190
-0.998653, 393, 95, 456, 110
-0.998654, 225, 43, 288, 58
-0.998655, 385, 7, 448, 22
-0.998655, 65, 271, 128, 286
-0.998656, 33, 289, 160, 320
-0.998658, 1, 133, 64, 148
-0.998659, 273, 211, 336, 226
-0.998659, 209, 239, 272, 254
-0.998661, 25, 239, 88, 254
-0.998663, 193, 65, 256, 80
-0.998663, 89, 75, 152, 90
-0.998663, 433, 35, 496, 50
-0.998664, 249, 231, 312, 246
-0.998664, 377, 169, 440, 184
-0.998665, 145, 317, 208, 332
-0.998665, 145, 273, 208, 288
-0.998666, 289, 301, 352, 316
-0.998667, 289, 325, 352, 340
-0.998668, 153, 285, 216, 300
-0.998669, 321, 181, 384, 196
-0.998669, 25, 145, 88, 160
-0.998669, 329, 7, 392, 22
-0.99867, 417, 145, 480, 160
-0.99867, 49, 97, 112, 112
-0.998671, 273, 199, 336, 214
-0.998671, 25, 131, 88, 146
-0.998671, 393, 241, 424, 368
-0.998675, 73, 291, 136, 306
-0.998675, 409, 7, 472, 22
-0.998676, 401, 51, 464, 66
-0.998677, 305, 27, 368, 42
-0.998677, 433, 13, 496, 28
-0.998677, 369, 57, 432, 72
-0.998677, 393, 163, 456, 178
-0.998678, 337, 43, 400, 58
-0.998679, 409, 151, 472, 166
-0.99868, 97, 109, 224, 140
-0.99868, 273, 93, 336, 108
-0.998694, 399, 113, 414, 240
-0.998747, 193, 129, 224, 375
-0.998785, 369, 269, 496, 300
-0.998793, 137, 97, 200, 224
-0.998798, 273, 129, 400, 160
-0.998802, 97, 241, 224, 272
-0.998826, 421, 97, 436, 224
-0.998833, 411, 113, 426, 240
-0.998849, 193, 157, 320, 188
-0.998853, 81, 141, 208, 172
-0.998869, 5, 129, 36, 375
-0.998878, 49, 205, 176, 236
-0.998879, 301, 97, 332, 352
-0.998895, 433, 193, 464, 320
-0.998901, 289, 1, 320, 256
-0.99891, 321, 329, 448, 360
-0.998913, 81, 97, 112, 352
-0.99892, 113, 129, 240, 160
-0.998927, 225, 257, 352, 288
-0.99893, 29, 97, 60, 352
-0.998945, 273, 321, 400, 352
-0.998948, 467, 1, 482, 128
-0.998952, 301, 1, 332, 256
-0.998954, 369, 285, 496, 316
-0.998956, 405, 113, 420, 240
-0.998957, 1, 297, 256, 360
-0.998957, 193, 177, 320, 208
-0.998962, 85, 17, 116, 144
-0.998962, 97, 17, 128, 144
-0.998963, 393, 113, 408, 240
-0.998979, 145, 205, 272, 236
-0.99898, 101, 97, 132, 352
-0.998987, 447, 1, 462, 128
-0.998987, 113, 129, 144, 375
-0.998993, 257, 313, 500, 375
-0.998999, 209, 297, 336, 328
-0.999001, 439, 33, 454, 160
-0.999009, 421, 225, 452, 352
-0.999012, 1, 65, 128, 96
-0.999023, 289, 129, 320, 375
-0.999026, 209, 129, 240, 375
-0.999027, 409, 65, 424, 192
-0.99903, 209, 281, 336, 312
-0.999032, 363, 1, 378, 128
-0.999047, 305, 257, 432, 288
-0.999047, 337, 301, 464, 332
-0.999047, 305, 341, 432, 372
-0.999067, 473, 1, 488, 128
-0.999078, 221, 129, 252, 375
-0.999084, 427, 49, 442, 176
-0.999091, 17, 77, 144, 108
-0.999092, 357, 1, 372, 128
-0.999092, 433, 49, 448, 176
-0.999114, 419, 49, 434, 176
-0.999115, 181, 129, 212, 375
-0.999119, 373, 1, 388, 128
-0.99912, 453, 1, 468, 128
-0.99912, 457, 177, 488, 304
-0.999142, 299, 17, 314, 144
-0.999146, 423, 1, 438, 128
-0.999151, 81, 193, 208, 224
-0.999153, 289, 13, 416, 44
-0.999158, 257, 285, 384, 316
-0.999159, 305, 17, 320, 144
-0.99916, 125, 129, 156, 375
-0.999161, 429, 1, 444, 128
-0.999165, 137, 33, 168, 288
-0.999175, 113, 57, 240, 88
-0.999176, 117, 33, 148, 288
-0.999181, 401, 65, 416, 192
-0.99919, 161, 177, 192, 304
-0.999194, 345, 113, 360, 240
-0.999194, 293, 17, 308, 144
-0.999194, 189, 1, 220, 128
-0.999215, 353, 113, 368, 240
-0.999218, 337, 313, 464, 344
-0.99922, 311, 17, 326, 144
-0.99923, 175, 241, 190, 368
-0.999231, 353, 201, 480, 232
-0.999231, 361, 113, 376, 240
-0.99924, 439, 81, 454, 208
-0.999242, 113, 177, 240, 240
-0.999243, 221, 33, 252, 288
-0.999244, 263, 193, 278, 320
-0.999248, 337, 97, 352, 224
-0.99925, 331, 97, 346, 224
-0.999251, 53, 97, 68, 224
-0.999253, 481, 1, 496, 128
-0.999253, 321, 229, 448, 260
-0.999255, 387, 113, 402, 240
-0.999257, 379, 113, 394, 240
-0.999257, 225, 225, 240, 352
-0.999267, 481, 65, 496, 192
-0.999268, 333, 193, 348, 320
-0.999269, 195, 49, 210, 176
-0.999276, 325, 177, 340, 304
-0.999278, 321, 97, 336, 224
-0.999281, 427, 113, 442, 240
-0.999282, 461, 49, 476, 176
-0.999284, 57, 145, 88, 272
-0.999284, 287, 17, 302, 144
-0.999288, 49, 153, 176, 184
-0.999295, 309, 65, 324, 192
-0.9993, 281, 177, 296, 304
-0.999303, 317, 17, 332, 144
-0.999305, 237, 225, 252, 352
-0.999311, 225, 325, 352, 356
-0.999312, 217, 209, 232, 336
-0.999317, 205, 49, 220, 176
-0.999323, 287, 177, 302, 304
-0.999326, 337, 213, 464, 244
-0.999327, 181, 49, 196, 176
-0.999329, 445, 97, 476, 352
-0.99933, 59, 81, 74, 208
-0.999333, 101, 241, 116, 368
-0.999333, 181, 241, 196, 368
-0.999334, 363, 161, 378, 288
-0.999334, 467, 65, 482, 192
-0.999335, 271, 177, 286, 304
-0.999338, 301, 209, 316, 336
-0.999341, 187, 49, 202, 176
-0.999341, 165, 129, 196, 375
-0.999349, 369, 145, 384, 272
-0.999357, 187, 225, 202, 352
-0.999357, 447, 65, 462, 192
-0.999363, 145, 317, 272, 348
-0.999369, 343, 193, 358, 320
-0.999371, 379, 1, 394, 128
-0.999372, 317, 193, 332, 320
-0.999375, 67, 81, 82, 208
-0.999378, 377, 161, 392, 288
-0.999379, 173, 49, 188, 176
-0.999381, 125, 65, 140, 192
-0.999384, 403, 17, 418, 144
-0.999386, 461, 1, 476, 128
-0.999391, 293, 209, 308, 336
-0.999392, 231, 225, 246, 352
-0.999397, 391, 65, 406, 192
-0.999398, 347, 33, 362, 160
-0.999403, 433, 97, 448, 224
-0.999404, 311, 209, 326, 336
-0.999407, 47, 113, 62, 240
-0.999415, 337, 241, 352, 368
-0.999416, 315, 97, 330, 224
-0.999419, 145, 77, 272, 108
-0.999419, 201, 225, 216, 352
-0.99942, 353, 177, 368, 304
-0.99942, 163, 225, 178, 352
-0.999423, 393, 161, 408, 288
-0.999424, 207, 225, 222, 352
-0.999425, 65, 181, 192, 212
-0.999427, 77, 81, 92, 208
-0.999429, 137, 129, 168, 375
-0.99943, 417, 1, 432, 128
-0.999435, 389, 1, 404, 128
-0.999438, 473, 113, 488, 240
-0.999439, 245, 193, 260, 320
-0.99944, 387, 161, 402, 288
-0.999448, 115, 65, 130, 192
-0.999448, 411, 17, 426, 144
-0.99945, 331, 145, 346, 272
-0.999453, 475, 49, 490, 176
-0.999454, 65, 57, 192, 88
-0.999455, 281, 17, 296, 144
-0.999456, 169, 241, 184, 368
-0.99946, 455, 49, 470, 176
-0.999467, 397, 1, 412, 128
-0.99947, 165, 49, 180, 176
-0.999478, 367, 97, 382, 224
-0.999479, 315, 145, 330, 272
-0.999481, 275, 17, 290, 144
-0.999482, 303, 65, 318, 192
-0.999482, 341, 33, 356, 160
-0.999484, 101, 65, 116, 192
-0.999488, 253, 209, 268, 336
-0.999489, 89, 225, 104, 352
-0.999491, 85, 65, 100, 192
-0.999493, 211, 49, 226, 176
-0.999498, 91, 65, 106, 192
-0.999499, 159, 49, 174, 176
-0.9995, 135, 49, 150, 176
-0.999502, 115, 241, 130, 368
-0.999509, 297, 161, 312, 288
-0.999512, 307, 161, 322, 288
-0.999513, 125, 225, 140, 352
-0.999514, 31, 113, 46, 240
-0.999518, 107, 241, 122, 368
-0.999521, 23, 129, 38, 256
-0.999523, 323, 49, 338, 176
-0.999525, 61, 177, 76, 304
-0.999534, 101, 193, 116, 320
-0.999535, 217, 49, 232, 176
-0.999538, 95, 241, 110, 368
-0.999542, 53, 177, 68, 304
-0.999543, 297, 65, 312, 192
-0.999543, 193, 225, 208, 352
-0.999547, 165, 1, 196, 128
-0.999577, 287, 201, 302, 216
-0.999578, 323, 185, 338, 200
-0.999578, 473, 187, 488, 202
-0.999578, 421, 1, 436, 16
-0.99958, 465, 23, 480, 38
-0.99958, 451, 31, 466, 46
-0.999581, 449, 83, 464, 98
-0.999581, 177, 307, 192, 322
-0.999581, 415, 113, 430, 128
-0.999581, 275, 229, 290, 244
-0.999582, 461, 29, 476, 44
-0.999582, 295, 197, 310, 212
-0.999583, 331, 105, 346, 120
-0.999583, 57, 255, 72, 270
-0.999583, 325, 97, 340, 112
-0.999583, 405, 157, 420, 172
-0.999584, 239, 73, 254, 88
-0.999585, 271, 75, 286, 90
-0.999585, 49, 247, 64, 262
-0.999585, 67, 267, 82, 282
-0.999585, 435, 131, 450, 146
-0.999586, 393, 141, 408, 156
-0.999587, 299, 83, 314, 98
-0.999587, 427, 51, 442, 66
-0.999588, 457, 79, 472, 94
-0.999589, 449, 37, 464, 52
-0.999589, 197, 253, 212, 268
-0.999589, 29, 1, 60, 256
-0.99959, 199, 135, 214, 150
-0.999591, 251, 223, 266, 238
-0.999591, 79, 269, 94, 284
-0.999592, 183, 271, 198, 286
-0.999593, 475, 75, 490, 90
-0.999593, 259, 47, 274, 62
-0.999593, 343, 263, 358, 278
-0.999594, 439, 105, 454, 120
-0.999595, 485, 11, 500, 26
-0.999595, 407, 143, 422, 158
-0.999595, 45, 125, 60, 140
-0.999595, 55, 115, 70, 130
-0.999596, 461, 125, 476, 140
-0.999596, 197, 281, 212, 296
-0.999597, 129, 79, 144, 94
-0.999598, 55, 107, 70, 122
-0.9996, 415, 1, 430, 16
-0.9996, 445, 129, 460, 144
-0.999601, 161, 283, 176, 298
-0.999601, 237, 251, 252, 266
-0.999602, 305, 193, 320, 208
-0.999602, 429, 77, 444, 92
-0.999603, 19, 165, 34, 180
-0.999603, 429, 147, 444, 162
-0.999604, 423, 143, 438, 158
-0.999605, 467, 69, 482, 84
-0.999605, 435, 53, 450, 68
-0.999605, 73, 273, 88, 288
-0.999605, 233, 67, 248, 82
-0.999605, 369, 107, 384, 122
-0.999606, 449, 135, 464, 150
-0.999607, 485, 93, 500, 108
-0.999608, 31, 139, 46, 154
-0.999608, 265, 75, 280, 90
-0.999609, 401, 143, 416, 158
-0.999609, 485, 111, 500, 126
-0.99961, 245, 219, 260, 234
-0.99961, 437, 99, 452, 114
-0.99961, 375, 167, 390, 182
-0.999611, 55, 121, 70, 136
-0.999612, 415, 147, 430, 162
-0.999612, 315, 189, 330, 204
-0.999614, 485, 105, 500, 120
-0.999615, 473, 45, 488, 60
-0.999616, 421, 107, 436, 122
-0.999616, 381, 1, 396, 16
-0.999617, 331, 115, 346, 130
-0.999617, 255, 217, 270, 232
-0.999618, 323, 109, 338, 124
-0.999618, 397, 159, 412, 174
-0.999619, 267, 43, 282, 58
-0.999619, 435, 45, 450, 60
-0.999621, 61, 101, 76, 116
-0.999621, 185, 263, 200, 278
-0.999622, 251, 73, 266, 88
-0.999622, 173, 271, 188, 286
-0.999622, 239, 259, 254, 274
-0.999623, 257, 73, 272, 88
-0.999624, 381, 165, 396, 180
-0.999625, 275, 215, 290, 230
-0.999625, 425, 127, 440, 142
-0.999626, 479, 83, 494, 98
-0.999626, 473, 121, 488, 136
-0.999627, 189, 271, 204, 286
-0.999628, 455, 39, 470, 54
-0.999629, 33, 129, 48, 144
-0.99963, 403, 119, 418, 134
-0.999631, 427, 111, 442, 126
-0.999633, 485, 49, 500, 64
-0.999634, 467, 123, 482, 138
-0.999634, 263, 211, 278, 226
-0.999634, 443, 41, 458, 56
-0.999639, 391, 161, 406, 176
-0.999639, 273, 207, 288, 222
-0.99964, 433, 107, 448, 122
-0.999641, 245, 69, 260, 84
-0.999641, 377, 111, 392, 126
-0.999643, 391, 135, 406, 150
-0.999644, 399, 135, 414, 150
-0.999647, 423, 149, 438, 164
-0.999648, 461, 71, 476, 86
-0.99965, 479, 47, 494, 62
-0.99965, 387, 1, 402, 16
-0.999651, 269, 81, 300, 208
-0.999652, 167, 277, 182, 292
-0.999656, 261, 217, 276, 232
-0.999657, 435, 83, 450, 98
-0.999662, 383, 113, 398, 128
-0.999662, 269, 213, 284, 228
-0.999663, 479, 115, 494, 130
-0.999665, 227, 243, 242, 258
-0.999666, 153, 33, 184, 288
-0.999668, 3, 201, 18, 216
-0.999672, 307, 303, 322, 318
-0.999673, 485, 83, 500, 98
-0.999674, 415, 107, 430, 122
-0.999675, 237, 245, 252, 260
-0.999675, 445, 129, 476, 256
-0.999681, 469, 75, 484, 90
-0.999681, 259, 39, 274, 54
-0.999691, 389, 115, 404, 130
-0.999694, 9, 199, 24, 214
-0.999697, 301, 307, 316, 322
-0.999706, 395, 117, 410, 132
-0.999722, 149, 129, 180, 375
-0.999734, 455, 125, 470, 140
-0.999746, 427, 101, 442, 116
-0.999779, 105, 1, 136, 256
-0.999851, 197, 97, 228, 224
-0.999861, 201, 33, 232, 288
-0.999875, 457, 97, 488, 352
-0.999887, 469, 97, 500, 352
-0.999922, 173, 33, 204, 288
-0.999927, 185, 33, 216, 288
-0.999932, 149, 1, 180, 128
-0.999954, 85, 1, 116, 256
-0.999979, 173, 97, 204, 224
-1.00001, 1, 33, 32, 288
-1.00003, 1, 25, 500, 88
-1.00003, 17, 33, 48, 288
-1.00009, 349, 209, 380, 336
-1.00009, 369, 313, 496, 375
-1.00017, 33, 17, 288, 80
-1.0003, 225, 97, 256, 224
-1.00034, 45, 33, 76, 160
-1.00045, 1, 313, 500, 375
-1.00046, 185, 145, 248, 272
-1.00047, 41, 1, 72, 256
-1.00137, 129, 161, 192, 288
-1.00153, 33, 1, 160, 64
-1.00168, 129, 1, 256, 64
-1.00274, 1, 25, 128, 88
-1.00276, 433, 241, 496, 368
-1.00291, 81, 1, 208, 64
-1.00621, 153, 145, 216, 272
-1.01359, 1, 1, 64, 128
