1981
-0.273763, 1, 1, 375, 500
-0.34061, 1, 129, 375, 384
-0.405286, 97, 1, 352, 500
-0.460487, 1, 33, 375, 288
-0.480256, 1, 225, 375, 480
-0.499803, 1, 1, 256, 500
-0.617673, 97, 97, 352, 352
-0.670388, 1, 65, 256, 320
-0.730582, 97, 1, 352, 256
-0.741855, 97, 225, 352, 480
-0.771255, 1, 257, 256, 500
-0.783184, 1, 161, 256, 416
-0.839296, 1, 1, 128, 500
-0.849259, 193, 1, 320, 500
-0.854778, 1, 129, 128, 384
-0.860003, 81, 1, 208, 500
-0.860914, 193, 161, 320, 416
-0.873221, 81, 65, 208, 320
-0.874377, 1, 257, 128, 500
-0.875125, 129, 1, 256, 500
-0.87605, 241, 1, 368, 500
-0.880892, 1, 337, 375, 464
-0.884439, 1, 161, 375, 288
-0.887747, 1, 33, 128, 288
-0.890464, 145, 97, 272, 352
-0.890928, 241, 1, 368, 256
-0.892595, 193, 33, 320, 288
-0.893402, 81, 193, 208, 448
-0.896207, 209, 257, 336, 500
-0.900001, 241, 161, 368, 416
-0.903993, 145, 1, 272, 256
-0.907607, 1, 97, 375, 224
-0.913138, 1, 289, 375, 416
-0.916467, 33, 97, 288, 224
-0.916866, 1, 129, 128, 256
-0.918061, 97, 353, 352, 480
-0.922591, 1, 321, 256, 448
-0.92664, 1, 49, 375, 176
-0.928753, 1, 241, 375, 368
-0.92943, 81, 81, 208, 208
-0.931207, 1, 337, 64, 464
-0.931484, 97, 161, 352, 288
-0.933049, 9, 129, 72, 256
-0.93325, 49, 129, 112, 256
-0.933336, 209, 337, 336, 464
-0.934028, 33, 321, 160, 448
-0.939333, 129, 289, 375, 416
-0.939534, 161, 257, 288, 500
-0.942623, 1, 273, 128, 400
-0.944625, 1, 289, 64, 416
-0.944722, 49, 129, 176, 256
-0.944846, 265, 177, 328, 304
-0.945094, 1, 145, 256, 272
-0.946005, 305, 193, 368, 320
-0.947035, 241, 177, 368, 304
-0.947158, 9, 353, 72, 416
-0.947517, 281, 337, 344, 464
-0.948035, 25, 337, 88, 464
-0.948187, 1, 369, 256, 496
-0.94852, 129, 353, 256, 480
-0.950356, 89, 113, 152, 240
-0.950476, 1, 369, 128, 496
-0.950524, 313, 353, 375, 480
-0.951321, 193, 161, 320, 288
-0.951751, 129, 33, 375, 160
-0.951774, 305, 369, 368, 432
-0.952824, 1, 1, 375, 128
-0.95298, 305, 265, 368, 328
-0.953057, 49, 321, 112, 448
-0.953953, 305, 257, 368, 384
-0.954564, 169, 337, 232, 464
-0.954933, 1, 81, 64, 208
-0.955023, 41, 137, 104, 200
-0.955135, 129, 161, 256, 288
-0.955299, 121, 97, 184, 224
-0.955873, 289, 345, 352, 408
-0.955899, 9, 177, 72, 240
-0.956252, 305, 225, 368, 288
-0.956887, 17, 81, 144, 208
-0.95699, 9, 137, 72, 200
-0.95796, 153, 121, 216, 184
-0.959433, 305, 145, 368, 272
-0.959652, 185, 153, 248, 216
-0.960324, 137, 161, 200, 288
-0.96039, 97, 241, 352, 368
-0.960441, 241, 97, 368, 224
-0.960692, 169, 97, 232, 224
-0.960693, 305, 201, 368, 264
-0.96077, 121, 425, 184, 488
-0.961446, 257, 337, 320, 464
-0.961516, 49, 321, 112, 384
-0.96168, 161, 153, 224, 216
-0.962125, 281, 289, 344, 416
-0.962172, 121, 121, 184, 184
-0.962764, 41, 273, 104, 400
-0.962834, 145, 97, 208, 224
-0.963012, 129, 97, 256, 224
-0.963012, 1, 177, 128, 304
-0.963055, 9, 377, 72, 440
-0.963412, 1, 177, 64, 304
-0.964043, 49, 169, 112, 232
-0.964376, 257, 345, 320, 408
-0.964541, 217, 145, 280, 272
-0.964711, 9, 329, 72, 392
-0.965232, 137, 161, 200, 224
-0.965292, 209, 161, 272, 224
-0.965325, 49, 353, 112, 416
-0.965668, 1, 137, 128, 200
-0.965694, 129, 353, 192, 480
-0.96599, 81, 305, 144, 432
-0.966156, 137, 33, 200, 160
-0.966389, 105, 81, 168, 144
-0.966409, 281, 321, 344, 384
-0.966476, 13, 113, 44, 240
-0.966937, 21, 353, 52, 416
-0.967111, 81, 425, 144, 488
-0.967211, 265, 177, 328, 240
-0.967324, 81, 305, 208, 432
-0.967406, 193, 289, 320, 416
-0.967726, 89, 137, 152, 200
-0.967763, 37, 337, 68, 464
-0.967946, 313, 161, 375, 224
-0.968004, 49, 177, 176, 304
-0.968208, 241, 289, 368, 416
-0.968271, 17, 337, 48, 464
-0.96849, 129, 81, 192, 144
-0.968677, 81, 177, 144, 304
-0.968801, 81, 121, 208, 184
-0.968995, 265, 369, 328, 432
-0.969027, 81, 369, 208, 496
-0.96932, 241, 1, 368, 128
-0.969524, 313, 49, 375, 176
-0.969625, 1, 33, 128, 160
-0.969631, 1, 273, 64, 336
-0.969734, 161, 161, 224, 288
-0.969761, 153, 97, 216, 160
-0.969888, 17, 169, 48, 232
-0.969986, 241, 145, 304, 272
-0.970006, 9, 401, 72, 464
-0.970262, 37, 129, 68, 256
-0.970296, 241, 225, 368, 352
-0.970296, 1, 113, 64, 176
-0.970338, 217, 153, 248, 216
-0.970455, 129, 113, 375, 240
-0.970466, 161, 353, 224, 416
-0.970516, 129, 161, 256, 224
-0.970522, 1, 273, 256, 400
-0.970528, 313, 401, 375, 464
-0.97067, 281, 393, 344, 456
-0.970805, 161, 33, 288, 160
-0.970811, 1, 305, 64, 368
-0.970958, 1, 177, 128, 240
-0.970998, 113, 169, 176, 232
-0.971084, 81, 33, 208, 160
-0.971169, 313, 97, 375, 224
-0.971309, 313, 1, 375, 128
-0.971489, 1, 241, 64, 368
-0.971547, 1, 345, 32, 408
-0.971556, 205, 153, 236, 216
-0.971717, 209, 345, 336, 408
-0.971852, 5, 337, 36, 464
-0.971871, 193, 161, 256, 288
-0.971929, 105, 177, 168, 304
-0.972173, 25, 113, 56, 240
-0.972192, 257, 161, 320, 416
-0.972208, 241, 49, 368, 176
-0.972247, 345, 361, 375, 424
-0.972347, 81, 161, 144, 224
-0.972455, 65, 425, 192, 488
-0.972904, 81, 65, 208, 128
-0.972942, 313, 345, 375, 408
-0.973018, 81, 153, 208, 216
-0.97316, 5, 169, 36, 232
-0.97322, 277, 345, 308, 408
-0.973359, 25, 81, 88, 208
-0.973397, 177, 177, 240, 240
-0.973477, 145, 57, 208, 120
-0.973547, 177, 129, 240, 192
-0.973598, 33, 393, 96, 456
-0.973888, 13, 137, 44, 200
-0.973926, 65, 129, 96, 256
-0.973944, 49, 433, 112, 496
-0.973967, 17, 377, 48, 440
-0.973987, 209, 369, 272, 496
-0.973989, 1, 129, 64, 384
-0.974042, 37, 345, 68, 408
-0.974087, 273, 233, 336, 296
-0.974291, 1, 353, 128, 416
-0.974308, 29, 169, 60, 232
-0.974371, 33, 49, 288, 176
-0.974414, 289, 1, 352, 128
-0.974562, 1, 321, 128, 384
-0.974671, 225, 409, 288, 472
-0.974726, 289, 177, 352, 240
-0.974831, 281, 257, 344, 500
-0.975096, 89, 185, 152, 248
-0.975188, 281, 225, 344, 352
-0.975235, 73, 257, 136, 384
-0.975384, 113, 145, 176, 208
-0.975644, 193, 113, 320, 240
-0.975832, 193, 113, 256, 240
-0.97586, 305, 305, 368, 432
-0.975948, 65, 137, 96, 200
-0.97611, 33, 393, 64, 456
-0.976121, 281, 257, 344, 320
-0.976132, 49, 129, 112, 384
-0.976191, 41, 369, 72, 432
-0.976678, 289, 177, 320, 304
-0.976696, 177, 161, 304, 224
-0.976748, 301, 321, 332, 448
-0.976763, 113, 33, 176, 160
-0.976806, 313, 161, 375, 416
-0.97685, 177, 121, 208, 184
-0.976964, 161, 153, 192, 216
-0.97698, 313, 57, 375, 120
-0.977027, 73, 161, 136, 416
-0.977068, 185, 153, 216, 216
-0.977227, 1, 193, 32, 320
-0.977227, 41, 177, 72, 240
-0.977281, 289, 345, 320, 408
-0.977301, 241, 393, 368, 456
-0.977304, 209, 185, 336, 248
-0.977399, 49, 129, 80, 256
-0.977503, 289, 417, 352, 480
-0.977515, 165, 121, 196, 184
-0.977539, 325, 369, 356, 496
-0.977628, 81, 65, 144, 192
-0.977948, 305, 257, 336, 320
-0.978009, 113, 81, 144, 144
-0.978025, 149, 121, 180, 184
-0.978033, 81, 89, 208, 152
-0.978055, 105, 369, 168, 496
-0.978086, 345, 393, 375, 456
-0.978131, 341, 353, 372, 480
-0.978169, 145, 433, 176, 496
-0.978188, 129, 137, 256, 200
-0.978464, 169, 65, 232, 128
-0.978493, 149, 153, 180, 216
-0.978567, 241, 433, 304, 496
-0.9786, 313, 361, 344, 424
-0.978689, 145, 417, 208, 480
-0.978702, 1, 393, 128, 456
-0.978825, 177, 97, 240, 160
-0.978865, 241, 369, 368, 432
-0.978879, 49, 225, 112, 480
-0.978913, 161, 33, 224, 160
-0.978955, 173, 153, 204, 216
-0.979034, 21, 289, 52, 416
-0.979124, 197, 129, 228, 192
-0.979142, 81, 329, 144, 392
-0.979178, 305, 289, 368, 352
-0.979179, 5, 385, 36, 448
-0.979351, 193, 81, 224, 144
-0.979372, 1, 89, 64, 152
-0.979466, 37, 137, 68, 200
-0.97948, 65, 33, 128, 288
-0.979546, 121, 105, 152, 168
-0.97968, 1, 145, 32, 272
-0.979689, 25, 281, 88, 344
-0.979815, 289, 321, 320, 448
-0.979874, 133, 121, 164, 184
-0.979914, 73, 113, 136, 176
-0.979934, 309, 241, 340, 368
-0.979975, 309, 233, 340, 296
-0.98016, 305, 257, 368, 500
-0.980172, 145, 185, 208, 248
-0.980194, 9, 257, 40, 384
-0.980204, 121, 57, 184, 120
-0.980245, 25, 177, 88, 304
-0.980314, 209, 1, 272, 256
-0.980472, 81, 257, 208, 384
-0.980499, 57, 321, 88, 384
-0.980542, 265, 129, 328, 256
-0.980653, 9, 65, 40, 192
-0.980677, 113, 425, 240, 488
-0.980743, 189, 105, 220, 168
-0.980789, 1, 1, 256, 128
-0.980804, 49, 337, 176, 400
-0.980828, 25, 129, 88, 384
-0.980936, 121, 97, 152, 224
-0.980944, 233, 161, 296, 224
-0.980959, 129, 425, 160, 488
-0.981032, 169, 65, 232, 320
-0.981129, 97, 97, 160, 352
-0.981199, 185, 33, 248, 160
-0.981207, 233, 353, 296, 480
-0.981238, 1, 297, 128, 360
-0.981287, 185, 385, 248, 448
-0.981301, 289, 177, 320, 240
-0.981329, 81, 177, 208, 240
-0.981479, 193, 97, 224, 224
-0.981487, 129, 353, 256, 416
-0.981529, 217, 185, 280, 248
-0.981651, 241, 225, 368, 288
-0.981657, 33, 97, 160, 160
-0.981674, 25, 257, 88, 500
-0.981729, 113, 425, 144, 488
-0.981737, 325, 369, 356, 432
-0.981771, 313, 137, 375, 200
-0.981776, 33, 289, 64, 416
-0.981899, 313, 425, 375, 488
-0.981931, 1, 417, 128, 480
-0.981973, 169, 409, 232, 472
-0.981987, 209, 385, 272, 448
-0.982017, 133, 65, 164, 128
-0.982054, 81, 257, 144, 500
-0.982081, 313, 89, 375, 152
-0.982085, 229, 161, 260, 224
-0.982116, 105, 321, 168, 448
-0.982147, 5, 193, 36, 256
-0.98216, 301, 361, 332, 424
-0.982204, 177, 97, 208, 224
-0.982268, 209, 129, 272, 384
-0.982277, 245, 145, 276, 272
-0.982322, 205, 129, 236, 256
-0.982381, 145, 393, 272, 456
-0.982406, 233, 337, 296, 400
-0.982437, 257, 1, 320, 500
-0.982449, 329, 401, 360, 464
-0.982526, 241, 417, 368, 480
-0.982591, 265, 297, 328, 360
-0.982626, 137, 161, 168, 224
-0.982633, 249, 33, 312, 288
-0.982636, 49, 337, 80, 464
-0.982718, 241, 249, 368, 312
-0.98276, 321, 265, 352, 328
-0.982774, 337, 257, 368, 320
-0.982774, 265, 337, 296, 400
-0.98282, 313, 113, 375, 176
-0.982867, 301, 337, 332, 400
-0.98287, 121, 1, 184, 500
-0.982873, 37, 321, 68, 384
-0.982934, 57, 289, 120, 352
-0.982975, 277, 337, 308, 464
-0.98301, 193, 1, 256, 500
-0.983037, 1, 425, 64, 488
-0.983068, 25, 137, 56, 200
-0.983111, 9, 1, 72, 500
-0.98314, 113, 1, 176, 256
-0.983209, 129, 393, 192, 456
-0.983276, 1, 201, 64, 264
-0.983329, 241, 185, 304, 248
-0.98336, 297, 1, 360, 500
-0.983361, 345, 417, 375, 480
-0.983436, 1, 257, 64, 500
-0.983441, 9, 321, 40, 384
-0.983463, 297, 65, 360, 320
-0.983547, 221, 401, 252, 464
-0.983551, 5, 97, 36, 160
-0.983567, 333, 193, 364, 320
-0.983571, 165, 97, 196, 224
-0.983636, 193, 369, 320, 432
-0.983685, 177, 97, 208, 160
-0.983725, 281, 161, 344, 416
-0.983772, 241, 145, 368, 208
-0.983842, 25, 305, 88, 368
-0.983889, 25, 97, 88, 160
-0.98393, 77, 433, 108, 496
-0.983931, 1, 33, 64, 288
-0.983953, 25, 65, 56, 192
-0.983981, 161, 353, 192, 480
-0.984045, 301, 393, 332, 456
-0.984061, 161, 161, 192, 288
-0.984089, 153, 81, 184, 144
-0.984127, 49, 369, 112, 496
-0.984395, 337, 185, 368, 248
-0.984487, 185, 353, 248, 416
-0.984557, 17, 409, 48, 472
-0.984577, 289, 49, 352, 176
-0.984592, 241, 321, 368, 384
-0.984622, 1, 273, 32, 336
-0.984666, 257, 153, 320, 216
-0.984682, 25, 1, 88, 256
-0.984694, 217, 145, 248, 272
-0.98474, 289, 49, 352, 112
-0.984741, 281, 369, 312, 432
-0.984774, 309, 193, 340, 320
-0.984813, 161, 177, 192, 240
-0.984965, 49, 345, 80, 408
-0.984991, 97, 1, 160, 500
-0.985115, 329, 345, 360, 408
-0.985145, 201, 353, 232, 480
-0.985261, 53, 137, 84, 200
-0.985301, 105, 113, 136, 240
-0.985301, 13, 73, 44, 136
-0.985354, 49, 81, 112, 208
-0.985376, 217, 1, 280, 500
-0.985385, 241, 97, 304, 224
-0.985433, 29, 273, 60, 336
-0.98549, 37, 81, 68, 208
-0.985507, 165, 425, 196, 488
-0.985529, 289, 25, 352, 88
-0.985534, 97, 433, 128, 496
-0.985553, 313, 401, 344, 464
-0.985579, 13, 265, 44, 328
-0.985635, 289, 321, 320, 384
-0.985659, 161, 81, 288, 144
-0.985709, 49, 177, 112, 304
-0.985745, 93, 289, 124, 416
-0.985781, 197, 345, 228, 408
-0.985851, 33, 1, 96, 500
-0.985854, 201, 409, 264, 472
-0.985869, 105, 305, 136, 432
-0.985884, 97, 105, 160, 168
-0.98592, 173, 337, 204, 464
-0.985961, 137, 1, 200, 256
-0.985961, 69, 161, 100, 224
-0.985986, 1, 65, 128, 128
-0.986036, 177, 137, 304, 200
-0.986085, 121, 57, 152, 120
-0.986178, 333, 217, 364, 280
-0.986185, 149, 97, 180, 224
-0.98623, 97, 57, 160, 120
-0.986311, 149, 177, 180, 240
-0.986327, 89, 177, 120, 304
-0.986332, 1, 225, 128, 352
-0.986359, 213, 177, 244, 240
-0.986369, 209, 321, 272, 448
-0.986403, 153, 1, 216, 500
-0.986447, 117, 33, 148, 160
-0.986472, 137, 97, 168, 160
-0.986555, 257, 321, 320, 384
-0.986563, 293, 369, 324, 496
-0.98657, 65, 1, 128, 500
-0.986614, 149, 369, 180, 496
-0.986619, 177, 73, 208, 136
-0.986641, 17, 113, 48, 176
-0.98666, 105, 185, 136, 248
-0.986673, 149, 161, 180, 288
-0.986695, 233, 129, 296, 384
-0.986731, 25, 305, 56, 368
-0.98676, 61, 305, 92, 432
-0.986775, 121, 353, 184, 416
-0.98678, 85, 161, 116, 224
-0.986784, 129, 105, 256, 168
-0.986824, 337, 241, 368, 368
-0.986891, 201, 121, 264, 184
-0.986976, 73, 273, 104, 400
-0.987001, 17, 177, 48, 304
-0.987029, 313, 337, 344, 464
-0.987048, 73, 369, 136, 496
-0.987059, 165, 97, 196, 160
-0.987086, 85, 321, 116, 384
-0.987109, 309, 209, 340, 272
-0.987154, 25, 433, 88, 496
-0.987181, 1, 225, 256, 352
-0.987242, 329, 425, 360, 488
-0.987339, 257, 241, 320, 368
-0.987341, 125, 145, 156, 208
-0.987381, 89, 1, 152, 256
-0.987398, 1, 249, 64, 312
-0.987407, 133, 97, 164, 224
-0.987414, 161, 417, 288, 480
-0.987483, 117, 185, 148, 248
-0.987583, 77, 129, 108, 256
-0.987587, 313, 25, 375, 88
-0.987625, 201, 177, 232, 240
-0.987632, 241, 161, 272, 224
-0.987684, 265, 177, 296, 304
-0.987752, 241, 273, 368, 336
-0.987759, 265, 33, 328, 160
-0.987763, 109, 177, 140, 304
-0.987852, 305, 313, 368, 376
-0.987856, 9, 353, 72, 384
-0.987856, 1, 273, 128, 336
-0.987857, 173, 177, 204, 240
-0.987897, 165, 33, 196, 160
-0.987918, 265, 209, 328, 272
-0.987927, 289, 97, 352, 224
-0.987953, 217, 97, 280, 224
-0.987981, 193, 321, 320, 384
-0.988145, 121, 177, 152, 304
-0.988153, 145, 409, 176, 472
-0.988178, 337, 161, 368, 224
-0.98821, 9, 377, 72, 408
-0.988232, 33, 137, 288, 200
-0.988251, 241, 121, 368, 184
-0.988261, 165, 353, 196, 416
-0.988324, 137, 161, 168, 288
-0.988325, 313, 185, 344, 248
-0.988346, 9, 389, 72, 420
-0.988357, 105, 193, 168, 448
-0.988417, 277, 177, 308, 304
-0.988455, 177, 33, 208, 160
-0.988566, 45, 393, 76, 456
-0.988574, 129, 305, 256, 432
-0.988623, 217, 377, 248, 440
-0.988641, 89, 401, 152, 464
-0.988672, 25, 329, 56, 392
-0.988682, 209, 297, 336, 360
-0.988702, 337, 145, 368, 272
-0.988712, 157, 401, 188, 464
-0.988724, 17, 365, 80, 396
-0.98873, 209, 33, 272, 160
-0.988778, 9, 177, 72, 208
-0.988786, 209, 345, 272, 408
-0.98879, 233, 145, 264, 272
-0.988805, 153, 33, 184, 160
-0.988807, 289, 249, 320, 312
-0.988828, 129, 185, 256, 248
-0.988874, 321, 233, 352, 296
-0.98893, 33, 161, 288, 224
-0.988965, 45, 281, 76, 344
-0.98899, 273, 345, 336, 376
-0.988993, 257, 289, 320, 416
-0.989012, 133, 33, 164, 160
-0.989049, 297, 277, 360, 308
-0.989069, 129, 353, 375, 416
-0.989103, 265, 33, 328, 96
-0.989122, 25, 193, 56, 256
-0.98913, 49, 361, 176, 424
-0.989142, 73, 321, 104, 384
-0.989181, 241, 49, 368, 112
-0.989273, 81, 313, 208, 376
-0.989316, 321, 209, 352, 336
-0.989326, 241, 409, 272, 472
-0.98936, 153, 329, 216, 392
-0.989362, 1, 145, 64, 176
-0.989369, 113, 437, 176, 468
-0.989377, 49, 177, 112, 208
-0.98942, 65, 385, 192, 448
-0.989429, 89, 17, 152, 144
-0.98946, 205, 81, 236, 208
-0.989473, 1, 145, 32, 208
-0.989475, 241, 25, 368, 88
-0.989482, 61, 353, 92, 416
-0.989513, 85, 185, 116, 248
-0.989556, 5, 409, 36, 472
-0.989569, 305, 237, 368, 268
-0.98957, 341, 65, 372, 192
-0.989573, 89, 441, 152, 472
-0.989573, 73, 353, 136, 416
-0.989574, 1, 197, 64, 228
-0.989587, 173, 161, 204, 288
-0.989616, 29, 105, 60, 168
-0.989638, 121, 449, 184, 480
-0.989671, 281, 357, 344, 388
-0.989688, 305, 313, 336, 376
-0.989707, 1, 41, 128, 104
-0.989756, 217, 353, 248, 480
-0.989756, 41, 145, 104, 176
-0.989762, 185, 337, 216, 464
-0.98979, 265, 185, 328, 216
-0.989796, 305, 361, 368, 392
-0.989842, 161, 57, 288, 120
-0.989857, 53, 177, 84, 240
-0.989887, 153, 57, 184, 120
-0.989898, 97, 41, 224, 104
-0.989922, 65, 445, 128, 476
-0.989944, 109, 105, 140, 168
-0.989946, 325, 273, 356, 400
-0.989949, 277, 321, 308, 384
-0.989957, 177, 169, 240, 200
-0.989989, 17, 33, 80, 160
-0.989991, 341, 89, 372, 152
-0.989993, 289, 153, 352, 216
-0.990017, 273, 65, 336, 320
-0.99002, 49, 341, 112, 372
-0.990037, 305, 225, 368, 256
-0.990097, 185, 177, 216, 240
-0.99016, 145, 177, 208, 208
-0.990168, 1, 161, 375, 224
-0.990186, 41, 357, 104, 388
-0.990205, 81, 325, 144, 356
-0.990205, 305, 281, 336, 344
-0.990207, 313, 397, 375, 428
-0.990223, 281, 369, 344, 400
-0.990254, 29, 177, 60, 304
-0.990264, 305, 265, 368, 296
-0.990268, 81, 281, 144, 344
-0.990274, 121, 273, 184, 400
-0.990274, 49, 257, 112, 320
-0.99032, 313, 337, 344, 400
-0.990358, 217, 169, 280, 200
-0.990391, 153, 353, 184, 416
-0.990397, 297, 381, 360, 412
-0.990408, 241, 73, 368, 136
-0.990408, 65, 193, 128, 256
-0.990409, 93, 113, 124, 240
-0.990437, 189, 33, 220, 160
-0.990491, 189, 145, 220, 272
-0.990494, 313, 181, 375, 212
-0.990498, 305, 193, 368, 224
-0.990506, 169, 41, 232, 104
-0.990551, 41, 189, 104, 220
-0.990587, 241, 345, 304, 376
-0.990608, 293, 273, 324, 400
-0.990608, 5, 297, 36, 360
-0.990633, 313, 249, 375, 280
-0.990651, 169, 357, 232, 388
-0.990685, 9, 341, 72, 372
-0.990696, 89, 429, 152, 460
-0.990697, 153, 165, 216, 196
-0.990702, 81, 345, 112, 408
-0.990706, 305, 213, 368, 244
-0.990711, 241, 97, 368, 160
-0.990717, 113, 425, 176, 456
-0.990718, 177, 105, 304, 168
-0.99075, 145, 97, 208, 128
-0.990756, 105, 329, 168, 392
-0.990779, 97, 329, 128, 392
-0.990784, 105, 101, 168, 132
-0.99079, 57, 329, 120, 360
-0.990792, 33, 401, 96, 432
-0.990835, 137, 429, 200, 460
-0.990842, 129, 377, 375, 440
-0.990849, 297, 1, 360, 64
-0.990851, 81, 133, 144, 164
-0.990852, 81, 457, 144, 488
-0.99087, 297, 345, 360, 376
-0.990877, 129, 161, 375, 224
-0.990878, 193, 393, 320, 456
-0.990908, 345, 193, 375, 320
-0.99091, 81, 305, 144, 368
-0.990938, 1, 249, 128, 312
-0.99096, 193, 209, 320, 336
-0.990973, 113, 73, 176, 104
-0.990998, 209, 353, 272, 384
-0.991004, 313, 409, 375, 440
-0.991007, 1, 277, 64, 308
-0.991019, 169, 105, 232, 136
-0.991037, 137, 369, 168, 496
-0.991052, 325, 321, 356, 448
-0.991053, 241, 369, 304, 432
-0.991058, 121, 33, 184, 96
-0.991066, 81, 321, 112, 448
-0.991079, 105, 117, 168, 148
-0.99108, 129, 85, 192, 116
-0.99113, 121, 133, 184, 164
-0.991161, 9, 401, 72, 432
-0.991163, 81, 177, 144, 208
-0.991175, 121, 177, 184, 208
-0.991188, 169, 289, 232, 416
-0.991202, 1, 309, 64, 340
-0.991205, 185, 433, 248, 496
-0.991214, 145, 113, 208, 144
-0.991223, 257, 357, 320, 388
-0.991311, 81, 341, 144, 372
-0.991314, 241, 169, 304, 200
-0.991323, 1, 297, 64, 328
-0.991324, 121, 461, 184, 492
-0.99133, 33, 193, 96, 256
-0.991337, 209, 417, 272, 448
-0.991343, 209, 157, 272, 188
-0.991344, 281, 265, 344, 296
-0.991371, 25, 257, 88, 320
-0.99139, 273, 397, 336, 428
-0.991403, 17, 413, 80, 444
-0.991408, 305, 289, 368, 320
-0.991466, 33, 377, 96, 408
-0.991467, 305, 433, 368, 464
-0.991473, 105, 89, 168, 120
-0.991473, 25, 289, 88, 320
-0.991479, 49, 165, 112, 196
-0.991499, 153, 133, 216, 164
-0.9915, 57, 457, 120, 488
-0.991505, 65, 353, 128, 384
-0.991527, 313, 169, 375, 200
-0.99155, 313, 57, 375, 88
-0.991576, 57, 81, 88, 208
-0.991584, 201, 181, 264, 212
-0.991609, 257, 385, 320, 416
-0.991623, 65, 433, 128, 464
-0.991645, 1, 133, 64, 164
-0.991653, 169, 77, 232, 108
-0.991669, 81, 189, 144, 220
-0.991678, 265, 333, 328, 364
-0.991679, 45, 177, 76, 304
-0.99169, 49, 389, 112, 420
-0.991698, 169, 421, 232, 452
-0.991722, 265, 353, 296, 480
-0.991808, 1, 353, 256, 416
-0.991829, 169, 181, 232, 212
-0.99187, 317, 1, 348, 128
-0.991895, 185, 157, 248, 188
-0.991906, 257, 369, 320, 400
-0.991912, 37, 353, 68, 384
-0.991924, 289, 417, 352, 448
-0.991925, 209, 405, 272, 436
-0.991979, 41, 181, 72, 212
-0.992002, 21, 241, 52, 368
-0.992007, 129, 165, 192, 196
-0.992009, 49, 289, 80, 416
-0.992017, 49, 293, 112, 324
-0.992034, 49, 113, 112, 176
-0.992046, 1, 89, 64, 120
-0.992046, 1, 101, 64, 132
-0.992085, 225, 429, 288, 460
-0.992086, 137, 73, 200, 104
-0.992095, 169, 93, 232, 124
-0.992107, 265, 245, 328, 276
-0.992109, 289, 57, 352, 88
-0.992111, 81, 157, 144, 188
-0.992142, 169, 117, 232, 148
-0.992144, 17, 393, 48, 424
-0.992145, 225, 189, 288, 220
-0.992145, 313, 137, 375, 168
-0.992156, 169, 433, 232, 464
-0.992159, 129, 189, 192, 220
-0.99216, 145, 361, 208, 392
-0.992164, 37, 381, 68, 412
-0.992166, 1, 425, 64, 456
-0.992168, 25, 133, 88, 164
-0.992177, 313, 153, 375, 184
-0.99219, 97, 353, 160, 384
-0.992197, 21, 373, 52, 404
-0.992207, 153, 469, 216, 500
-0.992219, 33, 453, 96, 484
-0.99222, 105, 193, 168, 224
-0.992222, 21, 177, 52, 208
-0.992238, 73, 293, 136, 324
-0.992256, 193, 353, 320, 384
-0.99226, 89, 469, 152, 500
-0.992268, 17, 353, 48, 384
-0.992275, 25, 225, 88, 352
-0.99228, 169, 409, 232, 440
-0.99229, 313, 105, 375, 136
-0.992292, 37, 397, 68, 428
-0.992297, 89, 77, 152, 108
-0.992298, 281, 349, 312, 380
-0.99235, 309, 265, 340, 296
-0.992355, 281, 233, 344, 264
-0.992357, 145, 33, 208, 96
-0.992362, 1, 357, 32, 388
-0.992365, 1, 149, 128, 180
-0.99237, 177, 137, 240, 168
-0.992374, 81, 145, 144, 176
-0.992379, 313, 121, 375, 152
-0.992393, 145, 441, 208, 472
-0.992396, 193, 249, 320, 312
-0.992403, 37, 365, 68, 396
-0.992405, 209, 49, 272, 112
-0.99246, 257, 265, 320, 328
-0.99247, 121, 433, 152, 464
-0.992482, 65, 145, 96, 176
-0.992496, 225, 137, 288, 200
-0.992497, 129, 401, 375, 464
-0.992535, 121, 97, 184, 352
-0.992548, 293, 353, 324, 384
-0.992598, 301, 1, 332, 128
-0.992604, 229, 97, 260, 224
-0.992634, 141, 429, 172, 460
-0.992638, 149, 177, 180, 208
-0.992655, 101, 441, 132, 472
-0.992656, 309, 237, 340, 268
-0.992658, 113, 101, 144, 132
-0.992666, 293, 365, 324, 396
-0.992673, 333, 277, 364, 308
-0.99268, 1, 113, 256, 176
-0.992686, 289, 185, 320, 216
-0.992708, 9, 197, 40, 228
-0.992711, 193, 217, 320, 280
-0.992715, 5, 185, 36, 216
-0.992724, 9, 173, 40, 204
-0.992729, 69, 449, 100, 480
-0.992731, 245, 169, 276, 200
-0.992737, 89, 445, 120, 476
-0.99275, 341, 369, 372, 400
-0.992757, 309, 145, 340, 272
-0.992763, 321, 269, 352, 300
-0.992768, 305, 277, 336, 308
-0.99277, 345, 433, 375, 464
-0.992771, 1, 377, 32, 408
-0.992772, 229, 409, 260, 440
-0.992773, 113, 81, 144, 112
-0.992773, 289, 129, 320, 256
-0.992778, 9, 145, 40, 176
-0.992781, 1, 17, 32, 144
-0.992785, 161, 177, 192, 208
-0.992798, 121, 113, 152, 144
-0.992802, 213, 157, 244, 188
-0.992813, 309, 365, 340, 396
-0.992828, 301, 341, 332, 372
-0.992831, 185, 97, 216, 128
-0.992832, 149, 441, 180, 472
-0.992832, 201, 169, 232, 200
-0.992836, 181, 169, 212, 200
-0.992841, 105, 325, 136, 356
-0.992844, 13, 85, 44, 116
-0.99285, 149, 165, 180, 196
-0.99286, 213, 169, 244, 200
-0.992862, 177, 329, 240, 392
-0.992864, 161, 165, 192, 196
-0.992867, 1, 185, 375, 248
-0.992872, 89, 325, 120, 356
-0.992873, 53, 181, 84, 212
-0.992892, 129, 449, 160, 480
-0.992893, 137, 173, 168, 204
-0.992898, 229, 169, 260, 200
-0.992898, 285, 385, 316, 416
-0.9929, 301, 397, 332, 428
-0.992906, 297, 377, 328, 408
-0.992909, 29, 409, 60, 440
-0.992909, 65, 425, 320, 488
-0.992923, 5, 397, 36, 428
-0.992924, 321, 401, 352, 432
-0.992933, 109, 453, 140, 484
-0.992938, 121, 133, 152, 164
-0.992945, 1, 201, 128, 264
-0.992946, 333, 261, 364, 292
-0.992953, 281, 365, 312, 396
-0.992957, 57, 409, 120, 472
-0.992957, 89, 341, 120, 372
-0.992962, 21, 189, 52, 220
-0.992967, 161, 429, 192, 460
-0.992973, 325, 433, 356, 464
-0.992983, 321, 353, 352, 384
-0.992987, 193, 77, 224, 108
-0.992987, 57, 341, 88, 372
-0.992988, 229, 369, 260, 496
-0.992995, 77, 341, 108, 372
-0.992997, 69, 177, 100, 208
-0.992998, 109, 429, 140, 460
-0.993, 305, 353, 336, 384
-0.993001, 337, 201, 368, 232
-0.993003, 41, 193, 72, 224
-0.993004, 185, 113, 216, 144
-0.993005, 49, 41, 176, 104
-0.993008, 1, 277, 32, 308
-0.993015, 269, 345, 300, 376
-0.993021, 129, 73, 160, 104
-0.993021, 337, 213, 368, 244
-0.993024, 313, 417, 344, 448
-0.993031, 185, 133, 216, 164
-0.993044, 289, 333, 320, 364
-0.993044, 149, 97, 180, 128
-0.993046, 53, 357, 84, 388
-0.993047, 169, 97, 200, 128
-0.993048, 337, 189, 368, 220
-0.993052, 5, 157, 36, 188
-0.993059, 49, 393, 80, 424
-0.993059, 269, 357, 300, 388
-0.993061, 69, 325, 100, 356
-0.993069, 97, 429, 128, 460
-0.993069, 5, 345, 36, 376
-0.993071, 257, 345, 288, 376
-0.993071, 333, 357, 364, 388
-0.993074, 213, 353, 244, 384
-0.993075, 345, 273, 375, 304
-0.993091, 193, 73, 256, 136
-0.993093, 37, 341, 68, 372
-0.993098, 133, 113, 164, 144
-0.993099, 153, 85, 184, 116
-0.9931, 145, 133, 176, 164
-0.993101, 217, 193, 280, 320
-0.993102, 25, 309, 56, 340
-0.993112, 105, 341, 136, 372
-0.993114, 149, 469, 180, 500
-0.993117, 97, 457, 128, 488
-0.993119, 1, 181, 128, 212
-0.99312, 5, 101, 36, 132
-0.993124, 133, 133, 164, 164
-0.993127, 309, 381, 340, 412
-0.993131, 217, 405, 248, 436
-0.993136, 5, 297, 36, 328
-0.993138, 177, 85, 208, 116
-0.993141, 157, 361, 188, 392
-0.993143, 333, 413, 364, 444
-0.99315, 201, 177, 232, 304
-0.99315, 129, 85, 160, 116
-0.993151, 53, 145, 84, 176
-0.993152, 157, 133, 188, 164
-0.993152, 193, 357, 224, 388
-0.993152, 161, 417, 192, 448
-0.993156, 49, 377, 80, 408
-0.993157, 17, 341, 48, 372
-0.993157, 337, 177, 368, 208
-0.993158, 337, 225, 368, 256
-0.993159, 297, 261, 328, 292
-0.993161, 85, 181, 116, 212
-0.993162, 57, 453, 88, 484
-0.993162, 141, 73, 172, 104
-0.993198, 129, 169, 256, 200
-0.99322, 257, 393, 320, 456
-0.993241, 277, 129, 308, 256
-0.993253, 31, 169, 46, 232
-0.99326, 1, 137, 375, 200
-0.993276, 25, 73, 88, 136
-0.993292, 225, 257, 288, 500
-0.993314, 293, 345, 308, 408
-0.993328, 65, 173, 192, 204
-0.993334, 193, 33, 320, 96
-0.993353, 129, 329, 375, 392
-0.993359, 145, 33, 272, 96
-0.993376, 117, 321, 148, 448
-0.993393, 1, 329, 256, 392
-0.993482, 1, 73, 256, 136
-0.99349, 145, 329, 272, 392
-0.993492, 49, 281, 176, 344
-0.99352, 145, 97, 208, 352
-0.993544, 13, 353, 28, 416
-0.9936, 1, 185, 256, 248
-0.993626, 217, 433, 280, 496
-0.993631, 241, 1, 304, 128
-0.99367, 1, 385, 256, 448
-0.993712, 265, 433, 328, 496
-0.993714, 221, 153, 236, 216
-0.993728, 97, 185, 352, 248
-0.993737, 209, 97, 272, 160
-0.993744, 265, 57, 328, 120
-0.993762, 49, 361, 64, 424
-0.993802, 97, 73, 352, 136
-0.993818, 337, 289, 368, 416
-0.993857, 11, 169, 26, 232
-0.993878, 1, 345, 375, 408
-0.993906, 265, 113, 296, 240
-0.99399, 65, 449, 192, 480
-0.994131, 25, 345, 40, 408
-0.994142, 65, 437, 192, 468
-0.994193, 225, 1, 352, 64
-0.994203, 145, 193, 208, 448
-0.994232, 17, 353, 144, 384
-0.994256, 233, 305, 296, 432
-0.994301, 281, 337, 296, 400
-0.99436, 215, 153, 230, 216
-0.994373, 37, 345, 52, 408
-0.994387, 21, 169, 36, 232
-0.994467, 227, 153, 242, 216
-0.994472, 1, 161, 128, 192
-0.994482, 1, 193, 128, 224
-0.994485, 317, 49, 348, 176
-0.994515, 41, 377, 56, 440
-0.994544, 123, 81, 138, 144
-0.994551, 151, 121, 166, 184
-0.994552, 207, 153, 222, 216
-0.994569, 287, 337, 302, 400
-0.994572, 213, 33, 244, 160
-0.994574, 81, 97, 208, 128
-0.994576, 189, 121, 204, 184
-0.994583, 1, 433, 375, 496
-0.994612, 183, 121, 198, 184
-0.994612, 341, 17, 372, 144
-0.994618, 1, 377, 375, 440
-0.994671, 165, 153, 180, 216
-0.994681, 277, 289, 308, 416
-0.994707, 193, 273, 320, 336
-0.994718, 105, 257, 136, 384
-0.994739, 241, 345, 368, 376
-0.994739, 209, 381, 336, 412
-0.994752, 1, 337, 128, 368
-0.994758, 81, 85, 208, 116
-0.99477, 15, 385, 30, 448
-0.994782, 101, 33, 132, 160
-0.994785, 299, 353, 314, 416
-0.994791, 79, 137, 94, 200
-0.994798, 175, 153, 190, 216
-0.994817, 359, 361, 374, 424
-0.994831, 169, 121, 184, 184
-0.994838, 11, 137, 26, 200
-0.994857, 313, 225, 328, 288
-0.994859, 159, 153, 174, 216
-0.994874, 157, 121, 172, 184
-0.994875, 37, 169, 52, 232
-0.994886, 193, 185, 320, 216
-0.994891, 31, 345, 46, 408
-0.994898, 177, 121, 192, 184
-0.99491, 201, 81, 216, 144
-0.994914, 49, 337, 64, 400
-0.994918, 97, 257, 160, 384
-0.994945, 43, 337, 58, 400
-0.99496, 1, 137, 128, 168
-0.994961, 193, 365, 320, 396
-0.994968, 141, 121, 156, 184
-0.994983, 197, 153, 212, 216
-0.994992, 55, 361, 70, 424
-0.995013, 163, 121, 178, 184
-0.995014, 205, 129, 220, 192
-0.995062, 81, 133, 208, 164
-0.99507, 81, 73, 208, 104
-0.995075, 349, 361, 364, 424
-0.995086, 241, 357, 368, 388
-0.995092, 153, 153, 168, 216
-0.995107, 195, 121, 210, 184
-0.995173, 209, 393, 336, 424
-0.995188, 1, 381, 128, 412
-0.995193, 185, 153, 200, 216
-0.995201, 27, 129, 42, 192
-0.99521, 217, 97, 248, 224
-0.995231, 17, 137, 32, 200
-0.995258, 93, 337, 124, 464
-0.995262, 129, 49, 375, 112
-0.995278, 311, 249, 326, 312
-0.995287, 191, 153, 206, 216
-0.995296, 1, 397, 128, 428
-0.995303, 7, 345, 22, 408
-0.995305, 177, 173, 304, 204
-0.995308, 177, 257, 240, 500
-0.995315, 123, 105, 138, 168
-0.995318, 43, 169, 58, 232
-0.995338, 357, 401, 372, 464
-0.995356, 1, 73, 375, 136
-0.995374, 1, 401, 375, 464
-0.995401, 129, 181, 256, 212
-0.995421, 77, 177, 108, 304
-0.995441, 311, 369, 326, 432
-0.995443, 1, 321, 16, 384
-0.995488, 81, 109, 208, 140
-0.995501, 17, 325, 144, 356
-0.995504, 51, 169, 66, 232
-0.995507, 49, 185, 176, 216
-0.995507, 9, 393, 24, 456
-0.99551, 135, 121, 150, 184
-0.995511, 129, 361, 256, 392
-0.995527, 257, 257, 320, 500
-0.99558, 65, 349, 192, 380
-0.995588, 21, 385, 36, 448
-0.995589, 33, 369, 48, 432
-0.995598, 33, 137, 48, 200
-0.995612, 303, 177, 318, 240
-0.995626, 179, 97, 194, 160
-0.995641, 119, 57, 134, 120
-0.995641, 15, 329, 30, 392
-0.995643, 113, 97, 128, 160
-0.995644, 173, 97, 188, 160
-0.995653, 117, 369, 148, 496
-0.995669, 1, 321, 375, 384
-0.995672, 145, 289, 208, 416
-0.995672, 123, 425, 138, 488
-0.995692, 1, 273, 16, 336
-0.995712, 301, 329, 316, 392
-0.995735, 53, 137, 68, 200
-0.995744, 39, 137, 54, 200
-0.995753, 233, 161, 248, 224
-0.995773, 161, 425, 176, 488
-0.995796, 33, 125, 160, 156
-0.995798, 65, 1, 128, 128
-0.995814, 23, 81, 38, 144
-0.995841, 305, 353, 320, 416
-0.995846, 289, 161, 320, 416
-0.995846, 241, 425, 368, 456
-0.995858, 217, 305, 248, 432
-0.99586, 5, 161, 20, 224
-0.995862, 225, 409, 352, 440
-0.995866, 155, 65, 170, 128
-0.99587, 81, 121, 208, 152
-0.995883, 35, 393, 50, 456
-0.99589, 311, 273, 326, 336
-0.995894, 113, 429, 240, 460
-0.995895, 129, 105, 144, 168
-0.99591, 147, 153, 162, 216
-0.995924, 133, 65, 148, 128
-0.995932, 97, 113, 352, 176
-0.995941, 87, 433, 102, 496
-0.995945, 59, 321, 74, 384
-0.99595, 253, 97, 284, 224
-0.995952, 307, 329, 322, 392
-0.99596, 201, 105, 216, 168
-0.995968, 65, 461, 192, 492
-0.995981, 361, 425, 375, 488
-0.995981, 275, 337, 290, 400
-0.995984, 29, 409, 44, 472
-0.996004, 241, 185, 368, 216
-0.996019, 65, 161, 192, 192
-0.99603, 19, 353, 34, 416
-0.996053, 97, 305, 352, 368
-0.996069, 1, 421, 128, 452
-0.996072, 343, 361, 358, 424
-0.996095, 169, 425, 184, 488
-0.996101, 17, 445, 144, 476
-0.996117, 15, 81, 30, 144
-0.996121, 339, 393, 354, 456
-0.996126, 191, 97, 206, 160
-0.996143, 331, 385, 346, 448
-0.996166, 317, 257, 332, 320
-0.996173, 347, 265, 362, 328
-0.996187, 147, 433, 162, 496
-0.996188, 141, 145, 156, 208
-0.996201, 25, 105, 40, 168
-0.996208, 1, 365, 128, 396
-0.996212, 145, 97, 160, 160
-0.996212, 241, 369, 368, 400
-0.996214, 1, 353, 16, 416
-0.996215, 327, 361, 342, 424
-0.996225, 115, 425, 130, 488
-0.996225, 241, 237, 368, 268
-0.996235, 113, 73, 128, 136
-0.996238, 61, 137, 76, 200
-0.99624, 351, 401, 366, 464
-0.996248, 241, 193, 304, 320
-0.996248, 333, 265, 348, 328
-0.996251, 47, 137, 62, 200
-0.99626, 69, 81, 100, 208
-0.996262, 317, 353, 332, 416
-0.996264, 311, 393, 326, 456
-0.996277, 323, 233, 338, 296
-0.996283, 61, 257, 92, 384
-0.996284, 165, 177, 180, 240
-0.996307, 117, 121, 132, 184
-0.996316, 239, 161, 254, 224
-0.996334, 355, 249, 370, 312
-0.996342, 3, 393, 18, 456
-0.996346, 155, 97, 170, 160
-0.996347, 1, 113, 375, 176
-0.996352, 61, 353, 92, 480
-0.996356, 1, 217, 16, 280
-0.996384, 91, 321, 106, 384
-0.99639, 171, 177, 186, 240
-0.996401, 1, 309, 128, 340
-0.996409, 65, 145, 192, 176
-0.996412, 241, 281, 368, 312
-0.996414, 1, 281, 256, 344
-0.996431, 145, 65, 160, 128
-0.996444, 241, 249, 368, 280
-0.996448, 241, 169, 368, 200
-0.996459, 241, 261, 368, 292
-0.996468, 7, 321, 22, 384
-0.996469, 47, 181, 62, 212
-0.996482, 141, 169, 156, 232
-0.996489, 57, 177, 72, 240
-0.996493, 129, 425, 144, 488
-0.996495, 289, 225, 320, 352
-0.996523, 337, 369, 352, 432
-0.996526, 33, 193, 48, 256
-0.996567, 53, 181, 68, 212
-0.99657, 89, 161, 120, 416
-0.996624, 5, 129, 36, 384
-0.996641, 101, 161, 132, 416
-0.996708, 297, 257, 328, 500
-0.996747, 113, 449, 240, 480
-0.996749, 49, 377, 64, 408
-0.996751, 17, 457, 144, 488
-0.996754, 129, 373, 256, 404
-0.99678, 17, 293, 144, 324
-0.996787, 129, 137, 375, 200
-0.996808, 17, 77, 144, 108
-0.996863, 17, 433, 144, 464
-0.996872, 241, 157, 368, 188
-0.996897, 105, 369, 136, 496
-0.996905, 241, 97, 272, 224
-0.996916, 277, 161, 308, 416
-0.996929, 129, 257, 375, 320
-0.996932, 33, 101, 160, 132
-0.996965, 145, 469, 272, 500
-0.997001, 193, 341, 320, 372
-0.997047, 289, 17, 320, 144
-0.997052, 1, 281, 128, 312
-0.997065, 33, 89, 160, 120
-0.997069, 65, 325, 192, 356
-0.997093, 51, 353, 66, 384
-0.997098, 33, 113, 160, 144
-0.99711, 145, 417, 272, 448
-0.997161, 39, 381, 54, 412
-0.997181, 19, 353, 34, 384
-0.997188, 291, 353, 306, 384
-0.997194, 13, 1, 44, 128
-0.997197, 41, 181, 56, 212
-0.997199, 33, 353, 48, 384
-0.997204, 241, 225, 368, 256
-0.997216, 41, 393, 56, 424
-0.997216, 193, 161, 320, 192
-0.997217, 69, 129, 100, 384
-0.997218, 33, 177, 48, 208
-0.997228, 201, 33, 232, 160
-0.997243, 17, 409, 144, 440
-0.997261, 27, 357, 42, 388
-0.997296, 13, 357, 28, 388
-0.997313, 11, 185, 26, 216
-0.997343, 1, 257, 32, 500
-0.997351, 345, 257, 375, 500
-0.997354, 193, 65, 224, 320
-0.997367, 17, 173, 32, 204
-0.997383, 1, 265, 375, 328
-0.997388, 163, 437, 178, 468
-0.99741, 81, 257, 208, 320
-0.997412, 285, 353, 300, 384
-0.99742, 145, 397, 272, 428
-0.997423, 11, 173, 26, 204
-0.997432, 161, 429, 288, 460
-0.997434, 311, 265, 326, 296
-0.997442, 129, 385, 256, 416
-0.997455, 129, 157, 256, 188
-0.997456, 57, 129, 88, 384
-0.99746, 161, 97, 288, 128
-0.997462, 97, 337, 224, 368
-0.997468, 213, 1, 244, 256
-0.997476, 49, 389, 64, 420
-0.997485, 49, 373, 176, 404
-0.997506, 39, 365, 54, 396
-0.997507, 45, 129, 76, 384
-0.997511, 31, 369, 46, 400
-0.997512, 25, 257, 56, 500
-0.997545, 1, 297, 375, 360
-0.997545, 241, 201, 368, 232
-0.997551, 79, 145, 94, 176
-0.997562, 309, 257, 340, 500
-0.99758, 297, 349, 312, 380
-0.997589, 85, 241, 116, 368
-0.997589, 209, 465, 336, 496
-0.997599, 7, 353, 22, 384
-0.997604, 359, 369, 374, 400
-0.997605, 65, 425, 192, 456
-0.997605, 37, 257, 68, 500
-0.99761, 123, 81, 138, 112
-0.997616, 39, 353, 54, 384
-0.997628, 33, 129, 64, 384
-0.997629, 97, 193, 224, 224
-0.997634, 353, 365, 368, 396
-0.997639, 113, 65, 144, 320
-0.997652, 119, 125, 134, 156
-0.997663, 1, 49, 256, 112
-0.997682, 55, 365, 70, 396
-0.997687, 117, 77, 132, 108
-0.997688, 45, 353, 60, 384
-0.997709, 17, 469, 144, 500
-0.997711, 303, 345, 318, 376
-0.997713, 301, 377, 316, 408
-0.997716, 315, 405, 330, 436
-0.997717, 323, 269, 338, 300
-0.997721, 33, 381, 48, 412
-0.997724, 241, 129, 272, 384
-0.997733, 201, 81, 216, 112
-0.997733, 23, 377, 38, 408
-0.997735, 133, 437, 148, 468
-0.997742, 93, 257, 124, 500
-0.997751, 241, 437, 368, 468
-0.997755, 165, 177, 180, 208
-0.997761, 241, 133, 368, 164
-0.997762, 209, 329, 336, 360
-0.997766, 145, 349, 272, 380
-0.997766, 159, 177, 174, 208
-0.997767, 115, 437, 130, 468
-0.997779, 331, 273, 346, 304
-0.997793, 101, 65, 132, 320
-0.997797, 129, 113, 256, 144
-0.997804, 49, 385, 176, 416
-0.997805, 317, 265, 332, 296
-0.997808, 341, 277, 356, 308
-0.997809, 279, 361, 294, 392
-0.997811, 241, 213, 368, 244
-0.997821, 127, 433, 142, 464
-0.997822, 347, 277, 362, 308
-0.997829, 305, 185, 320, 216
-0.997833, 151, 177, 166, 208
-0.997834, 347, 361, 362, 392
-0.99784, 241, 145, 368, 176
-0.997841, 241, 61, 368, 92
-0.997846, 59, 181, 74, 212
-0.997847, 359, 433, 374, 464
-0.99785, 361, 385, 375, 416
-0.997856, 161, 81, 288, 112
-0.997877, 323, 417, 338, 448
-0.99788, 17, 397, 32, 428
-0.997886, 313, 233, 328, 264
-0.997891, 295, 365, 310, 396
-0.997891, 129, 137, 256, 168
-0.997891, 295, 381, 310, 412
-0.9979, 71, 453, 86, 484
-0.997901, 209, 301, 336, 332
-0.997902, 139, 433, 154, 464
-0.997912, 309, 401, 324, 432
-0.997916, 241, 369, 272, 496
-0.997919, 41, 405, 56, 436
-0.997922, 171, 177, 186, 208
-0.997924, 169, 165, 184, 196
-0.997931, 109, 441, 124, 472
-0.997933, 209, 313, 336, 344
-0.997935, 313, 349, 328, 380
-0.997945, 17, 381, 32, 412
-0.997946, 23, 177, 38, 208
-0.997953, 21, 129, 52, 384
-0.997956, 217, 157, 232, 188
-0.997957, 33, 393, 48, 424
-0.997965, 153, 165, 168, 196
-0.997966, 203, 125, 218, 156
-0.997974, 193, 449, 320, 480
-0.997975, 21, 365, 36, 396
-0.997984, 155, 429, 170, 460
-0.997985, 101, 445, 116, 476
-0.997987, 265, 289, 296, 416
-0.997993, 49, 405, 64, 436
-0.997997, 303, 361, 318, 392
-0.997998, 121, 437, 136, 468
-0.997998, 301, 393, 316, 424
-0.998004, 161, 165, 176, 196
-0.998014, 201, 97, 216, 128
-0.998016, 177, 177, 192, 208
-0.998034, 49, 365, 64, 396
-0.998034, 255, 173, 270, 204
-0.998043, 265, 161, 296, 416
-0.998046, 123, 69, 138, 100
-0.998048, 141, 173, 156, 204
-0.998052, 279, 345, 294, 376
-0.998059, 175, 165, 190, 196
-0.99806, 31, 305, 46, 336
-0.998062, 237, 33, 268, 288
-0.998065, 177, 1, 304, 64
-0.99807, 163, 425, 178, 456
-0.998071, 1, 281, 16, 312
-0.99808, 55, 393, 70, 424
-0.998081, 113, 89, 128, 120
-0.998082, 95, 445, 110, 476
-0.998083, 241, 109, 368, 140
-0.998084, 191, 97, 206, 128
-0.998085, 241, 37, 368, 68
-0.998086, 15, 85, 30, 116
-0.998088, 227, 169, 242, 200
-0.998092, 153, 97, 168, 128
-0.998093, 173, 433, 188, 464
-0.998093, 245, 169, 260, 200
-0.998095, 33, 413, 48, 444
-0.998095, 353, 437, 368, 468
-0.998105, 223, 157, 238, 188
-0.998106, 123, 105, 138, 136
-0.998108, 77, 449, 92, 480
-0.998111, 129, 1, 375, 64
-0.998112, 1, 345, 16, 376
-0.998112, 17, 185, 32, 216
-0.998113, 123, 453, 138, 484
-0.998115, 9, 153, 24, 184
-0.998116, 225, 1, 256, 256
-0.998118, 9, 401, 24, 432
-0.998122, 103, 321, 118, 352
-0.998124, 91, 325, 106, 356
-0.998125, 45, 193, 60, 224
-0.998125, 5, 169, 20, 200
-0.998132, 221, 177, 236, 208
-0.998136, 215, 169, 230, 200
-0.998144, 37, 1, 68, 256
-0.998144, 111, 321, 126, 352
-0.998144, 311, 277, 326, 308
-0.998147, 207, 169, 222, 200
-0.998148, 97, 217, 352, 280
-0.998161, 253, 161, 268, 192
-0.998169, 29, 129, 44, 160
-0.998178, 277, 257, 308, 500
-0.998178, 85, 185, 100, 216
-0.998185, 87, 341, 102, 372
-0.998186, 37, 309, 52, 340
-0.998188, 119, 325, 134, 356
-0.99819, 233, 169, 248, 200
-0.998191, 241, 97, 368, 128
-0.998192, 113, 121, 128, 152
-0.998203, 129, 281, 375, 344
-0.998208, 129, 25, 375, 88
-0.998226, 241, 121, 368, 152
-0.998228, 1, 49, 375, 112
-0.998229, 301, 49, 332, 176
-0.998229, 217, 129, 248, 384
-0.998231, 65, 361, 192, 392
-0.998243, 321, 161, 352, 288
-0.998243, 65, 1, 96, 256
-0.998264, 241, 73, 368, 104
-0.998266, 41, 241, 72, 368
-0.998267, 241, 85, 368, 116
-0.998278, 49, 337, 176, 368
-0.998288, 229, 129, 260, 384
-0.998288, 89, 33, 120, 288
-0.998292, 13, 257, 44, 500
-0.998299, 277, 33, 308, 288
-0.998312, 261, 33, 292, 288
-0.998317, 113, 161, 144, 416
-0.998344, 9, 377, 72, 392
-0.998345, 181, 1, 212, 256
-0.998372, 273, 355, 336, 370
-0.99838, 53, 1, 84, 256
-0.998398, 9, 397, 72, 412
-0.9984, 309, 161, 340, 416
-0.998407, 53, 189, 84, 204
-0.998408, 109, 347, 140, 362
-0.998408, 281, 369, 344, 384
-0.998409, 345, 403, 375, 418
-0.998409, 161, 425, 192, 440
-0.998409, 221, 409, 252, 424
-0.99841, 193, 83, 224, 98
-0.998411, 173, 109, 204, 124
-0.998411, 217, 175, 248, 190
-0.998411, 333, 267, 364, 282
-0.998412, 305, 345, 336, 360
-0.998413, 141, 87, 172, 102
-0.998415, 297, 401, 328, 416
-0.998416, 177, 169, 240, 184
-0.998416, 189, 359, 220, 374
-0.998416, 317, 401, 348, 416
-0.998418, 9, 355, 72, 370
-0.998418, 141, 437, 172, 452
-0.998419, 129, 111, 160, 126
-0.998419, 69, 329, 100, 344
-0.998419, 45, 385, 76, 400
-0.99842, 113, 95, 144, 110
-0.998421, 337, 431, 368, 446
-0.998422, 161, 83, 192, 98
-0.998423, 49, 397, 80, 412
-0.998423, 49, 355, 80, 370
-0.998423, 25, 313, 56, 328
-0.998424, 153, 363, 184, 378
-0.998424, 141, 77, 172, 92
-0.998424, 73, 451, 104, 466
-0.998426, 25, 1, 56, 256
-0.998426, 305, 267, 336, 282
-0.998427, 161, 77, 192, 92
-0.998428, 221, 355, 252, 370
-0.998428, 149, 483, 180, 498
-0.998429, 21, 189, 52, 204
-0.998431, 205, 163, 236, 178
-0.998431, 109, 433, 140, 448
-0.998431, 5, 193, 36, 208
-0.998432, 309, 377, 340, 392
-0.998433, 177, 125, 304, 156
-0.998433, 89, 293, 120, 308
-0.998434, 161, 69, 288, 100
-0.998437, 233, 353, 264, 368
-0.998437, 313, 377, 375, 392
-0.998438, 325, 413, 356, 428
-0.998438, 105, 443, 136, 458
-0.998439, 233, 353, 296, 368
-0.998439, 281, 365, 312, 380
-0.998439, 49, 189, 112, 204
-0.998439, 173, 77, 204, 92
-0.998441, 185, 111, 216, 126
-0.998441, 229, 173, 260, 188
-0.998442, 245, 173, 276, 188
-0.998446, 185, 103, 216, 118
-0.998446, 117, 441, 148, 456
-0.998446, 345, 367, 375, 382
-0.998447, 121, 83, 152, 98
-0.998447, 289, 187, 320, 202
-0.998448, 1, 277, 32, 292
-0.998449, 13, 93, 44, 108
-0.998452, 289, 1, 320, 256
-0.998453, 293, 375, 324, 390
-0.998454, 121, 431, 152, 446
-0.998454, 37, 409, 68, 424
-0.998454, 1, 383, 32, 398
-0.998455, 149, 449, 180, 464
-0.998455, 17, 307, 48, 322
-0.998455, 249, 351, 280, 366
-0.998456, 9, 391, 72, 406
-0.998457, 129, 73, 160, 88
-0.998459, 153, 89, 184, 104
-0.99846, 121, 105, 152, 120
-0.998461, 149, 177, 180, 192
-0.998462, 9, 199, 40, 214
-0.998463, 297, 381, 328, 396
-0.998464, 9, 147, 40, 162
-0.998464, 317, 271, 348, 286
-0.998466, 285, 345, 316, 360
-0.998467, 257, 349, 320, 364
-0.998468, 137, 431, 168, 446
-0.998468, 317, 371, 348, 386
-0.998469, 193, 237, 320, 268
-0.99847, 121, 137, 184, 152
-0.998471, 17, 183, 80, 198
-0.998473, 81, 413, 208, 444
-0.998473, 305, 277, 336, 292
-0.998473, 1, 365, 32, 380
-0.998473, 209, 165, 272, 180
-0.998476, 17, 369, 48, 384
-0.998477, 17, 365, 80, 380
-0.998478, 209, 357, 240, 372
-0.998479, 309, 241, 340, 256
-0.998479, 37, 373, 68, 388
-0.998482, 149, 429, 180, 444
-0.998483, 305, 233, 368, 248
-0.998483, 5, 173, 36, 188
-0.998483, 305, 365, 368, 380
-0.998483, 73, 327, 136, 342
-0.998484, 13, 87, 44, 102
-0.998484, 153, 137, 216, 152
-0.998486, 9, 383, 72, 398
-0.998486, 145, 169, 208, 184
-0.998487, 293, 367, 324, 382
-0.998487, 13, 99, 44, 114
-0.998488, 113, 115, 144, 130
-0.998489, 317, 407, 348, 422
-0.99849, 25, 181, 56, 196
-0.998492, 305, 277, 368, 292
-0.998492, 313, 403, 375, 418
-0.998494, 173, 169, 204, 184
-0.998495, 49, 181, 112, 196
-0.998495, 113, 439, 176, 454
-0.998495, 149, 183, 180, 198
-0.998495, 1, 199, 64, 214
-0.998496, 121, 257, 152, 384
-0.998498, 173, 137, 204, 152
-0.998498, 137, 111, 200, 126
-0.998498, 41, 147, 104, 162
-0.998498, 5, 1, 36, 256
-0.998499, 289, 381, 352, 396
-0.9985, 297, 359, 328, 374
-0.998503, 157, 137, 188, 152
-0.998503, 333, 277, 364, 292
-0.998505, 145, 185, 208, 200
-0.998506, 321, 257, 352, 500
-0.998506, 333, 375, 364, 390
-0.998507, 121, 451, 184, 466
-0.998507, 113, 77, 144, 92
-0.998507, 145, 137, 176, 152
-0.998509, 297, 283, 360, 298
-0.998511, 89, 327, 120, 342
-0.998513, 21, 387, 52, 402
-0.998514, 65, 145, 96, 160
-0.998514, 305, 239, 368, 254
-0.998514, 185, 169, 216, 184
-0.998514, 89, 445, 152, 460
-0.998516, 161, 183, 192, 198
-0.998516, 17, 371, 80, 386
-0.998518, 305, 271, 368, 286
-0.998519, 21, 399, 52, 414
-0.99852, 281, 363, 344, 378
-0.998521, 17, 191, 80, 206
-0.998522, 305, 397, 368, 412
-0.998523, 19, 337, 34, 464
-0.998525, 133, 137, 164, 152
-0.998526, 33, 387, 64, 402
-0.998526, 249, 1, 280, 256
-0.998526, 1, 147, 64, 162
-0.998527, 129, 433, 192, 448
-0.99853, 297, 351, 328, 366
-0.998533, 193, 249, 320, 280
-0.998533, 305, 371, 368, 386
-0.998534, 217, 169, 248, 184
-0.998534, 265, 189, 328, 204
-0.998535, 5, 357, 36, 372
-0.998535, 313, 187, 375, 202
-0.998535, 217, 173, 280, 188
-0.998535, 305, 367, 336, 382
-0.998536, 273, 347, 304, 362
-0.998537, 281, 347, 344, 362
-0.998538, 1, 269, 128, 300
-0.998538, 33, 355, 96, 370
-0.99854, 37, 365, 68, 380
-0.99854, 57, 225, 88, 480
-0.99854, 25, 337, 40, 464
-0.998541, 149, 171, 180, 186
-0.998542, 161, 171, 192, 186
-0.998543, 1, 25, 256, 88
-0.998544, 205, 129, 236, 384
-0.998544, 113, 73, 176, 88
-0.998545, 177, 175, 240, 190
-0.998545, 309, 235, 340, 250
-0.998545, 137, 175, 200, 190
-0.998547, 73, 451, 136, 466
-0.998548, 261, 349, 292, 364
-0.998548, 345, 439, 375, 454
-0.998548, 105, 109, 168, 124
-0.998549, 305, 227, 368, 242
-0.998549, 305, 257, 368, 272
-0.998549, 305, 193, 368, 208
-0.998549, 57, 351, 120, 366
-0.99855, 305, 247, 368, 262
-0.998552, 209, 355, 272, 370
-0.998553, 313, 409, 375, 424
-0.998553, 89, 433, 152, 448
-0.998556, 201, 169, 232, 184
-0.998557, 125, 1, 156, 256
-0.998558, 197, 305, 228, 432
-0.99856, 169, 357, 232, 372
-0.998561, 313, 263, 375, 278
-0.998561, 305, 199, 368, 214
-0.998562, 137, 77, 200, 92
-0.998563, 241, 49, 368, 80
-0.998564, 237, 167, 268, 182
-0.998565, 193, 77, 224, 92
-0.998565, 281, 375, 344, 390
-0.998568, 185, 137, 216, 152
-0.998568, 41, 189, 72, 204
-0.998568, 169, 77, 232, 92
-0.998568, 305, 207, 368, 222
-0.998569, 121, 137, 152, 152
-0.998569, 65, 293, 128, 308
-0.99857, 145, 105, 208, 120
-0.99857, 129, 427, 192, 442
-0.99857, 1, 277, 64, 292
-0.998571, 305, 213, 368, 228
-0.998575, 105, 327, 136, 342
-0.998575, 81, 141, 144, 156
-0.998575, 145, 83, 208, 98
-0.998577, 233, 347, 296, 362
-0.998579, 49, 175, 112, 190
-0.99858, 333, 257, 364, 500
-0.99858, 17, 173, 48, 188
-0.99858, 21, 377, 52, 392
-0.99858, 57, 357, 120, 372
-0.998581, 105, 89, 168, 104
-0.998581, 145, 193, 272, 224
-0.998581, 17, 357, 48, 372
-0.998581, 305, 219, 368, 234
-0.998582, 297, 289, 360, 304
-0.998583, 217, 163, 248, 178
-0.998588, 177, 137, 240, 152
-0.998588, 1, 309, 64, 324
-0.998588, 105, 79, 168, 94
-0.998589, 105, 115, 168, 130
-0.998589, 37, 393, 68, 408
-0.998591, 313, 61, 375, 76
-0.998592, 313, 439, 375, 454
-0.998593, 9, 349, 72, 364
-0.998593, 121, 465, 184, 480
-0.998594, 305, 359, 368, 374
-0.998596, 121, 187, 184, 202
-0.998597, 145, 89, 208, 104
-0.998597, 9, 175, 72, 190
-0.998597, 121, 475, 184, 490
-0.998599, 273, 401, 336, 416
-0.998601, 297, 389, 360, 404
-0.998601, 81, 189, 144, 204
-0.998602, 313, 181, 375, 196
-0.998602, 105, 103, 168, 118
-0.998603, 177, 183, 240, 198
-0.998604, 25, 407, 88, 422
-0.998605, 257, 363, 320, 378
-0.998607, 277, 17, 308, 144
-0.998607, 129, 95, 192, 110
-0.998609, 209, 417, 272, 432
-0.998609, 169, 109, 232, 124
-0.998614, 169, 427, 232, 442
-0.998614, 89, 459, 152, 474
-0.998614, 297, 353, 360, 368
-0.998614, 37, 379, 68, 394
-0.998615, 81, 351, 144, 366
-0.998617, 273, 341, 336, 356
-0.998618, 105, 95, 168, 110
-0.998618, 1, 403, 64, 418
-0.998618, 41, 403, 72, 418
-0.99862, 209, 185, 272, 200
-0.99862, 105, 131, 168, 146
-0.99862, 121, 481, 184, 496
-0.998621, 129, 117, 192, 132
-0.998622, 53, 129, 68, 256
-0.998622, 49, 329, 112, 344
-0.998623, 105, 121, 168, 136
-0.998623, 21, 393, 52, 408
-0.998624, 165, 1, 196, 256
-0.998624, 49, 453, 112, 468
-0.998625, 49, 439, 112, 454
-0.998625, 1, 65, 128, 96
-0.998627, 81, 333, 144, 348
-0.998628, 77, 1, 108, 256
-0.998629, 313, 415, 375, 430
-0.99863, 169, 89, 232, 104
-0.99863, 185, 163, 248, 178
-0.99863, 209, 423, 272, 438
-0.998631, 169, 433, 232, 448
-0.998631, 241, 183, 304, 198
-0.998632, 25, 413, 88, 428
-0.998634, 97, 327, 160, 342
-0.998634, 281, 355, 312, 370
-0.998634, 281, 267, 344, 282
-0.998635, 65, 461, 128, 476
-0.998638, 9, 337, 24, 464
-0.998649, 37, 355, 68, 370
-0.99865, 1, 241, 375, 304
-0.99865, 51, 337, 66, 464
-0.99866, 29, 113, 44, 240
-0.998662, 1, 305, 256, 368
-0.998676, 1, 193, 16, 320
-0.998677, 301, 97, 332, 224
-0.998691, 3, 321, 18, 448
-0.998692, 41, 183, 72, 198
-0.998695, 193, 281, 320, 312
-0.998721, 41, 113, 56, 240
-0.998732, 9, 145, 24, 272
-0.998735, 337, 97, 368, 352
-0.998736, 31, 337, 46, 464
-0.998746, 19, 113, 34, 240
-0.998751, 47, 129, 62, 256
-0.998751, 137, 33, 168, 288
-0.99876, 97, 313, 224, 344
-0.998764, 77, 225, 108, 480
-0.998775, 25, 1, 56, 128
-0.998778, 37, 321, 52, 448
-0.998779, 37, 33, 68, 160
-0.998801, 149, 1, 180, 256
-0.998807, 97, 9, 224, 72
-0.998811, 253, 129, 284, 384
-0.998833, 35, 129, 50, 256
-0.998843, 65, 289, 192, 320
-0.998863, 193, 225, 320, 256
-0.998877, 63, 129, 78, 256
-0.998879, 81, 61, 208, 92
-0.998885, 301, 1, 332, 256
-0.998901, 193, 149, 320, 180
-0.998905, 9, 289, 24, 416
-0.998936, 225, 5, 352, 36
-0.998937, 293, 321, 308, 448
-0.998941, 43, 321, 58, 448
-0.998941, 301, 321, 316, 448
-0.998949, 205, 113, 220, 240
-0.998964, 81, 129, 96, 256
-0.998966, 201, 257, 264, 500
-0.998966, 115, 113, 130, 240
-0.998972, 303, 177, 318, 304
-0.998974, 23, 65, 38, 192
-0.998976, 1, 205, 128, 236
-0.998986, 209, 25, 336, 56
-0.998996, 81, 397, 208, 428
-0.999005, 1, 1, 128, 64
-0.999013, 1, 369, 16, 496
-0.999021, 311, 241, 326, 368
-0.999064, 15, 289, 30, 416
-0.999069, 1, 257, 16, 384
-0.999078, 333, 369, 348, 496
-0.999079, 167, 353, 182, 480
-0.99909, 49, 201, 176, 264
-0.999091, 193, 49, 320, 80
-0.999092, 179, 97, 194, 224
-0.999092, 357, 209, 372, 336
-0.999095, 27, 289, 42, 416
-0.999097, 345, 353, 360, 480
-0.999099, 125, 161, 156, 416
-0.999101, 287, 321, 302, 448
-0.999101, 357, 369, 372, 496
-0.999108, 191, 97, 206, 224
-0.99912, 41, 1, 104, 128
-0.999123, 17, 65, 32, 192
-0.999123, 321, 161, 352, 416
-0.999133, 321, 353, 336, 480
-0.999137, 169, 97, 200, 352
-0.99914, 37, 369, 52, 496
-0.999157, 57, 321, 72, 448
-0.999159, 123, 49, 138, 176
-0.999172, 181, 97, 212, 352
-0.999181, 211, 97, 226, 224
-0.99919, 293, 369, 308, 496
-0.999195, 361, 33, 375, 160
-0.999195, 199, 33, 214, 160
-0.999208, 201, 257, 232, 500
-0.999209, 255, 145, 270, 272
-0.999212, 307, 321, 322, 448
-0.999212, 337, 1, 368, 256
-0.999213, 351, 353, 366, 480
-0.999217, 75, 129, 90, 256
-0.999217, 313, 193, 328, 320
-0.999225, 123, 97, 138, 224
-0.999226, 69, 129, 84, 256
-0.999229, 211, 353, 226, 480
-0.999233, 1, 209, 375, 272
-0.999236, 163, 81, 178, 208
-0.999237, 29, 65, 44, 192
-0.999238, 169, 161, 184, 288
-0.999239, 157, 33, 172, 160
-0.999241, 145, 337, 272, 368
-0.999243, 193, 37, 320, 68
-0.999243, 349, 209, 364, 336
-0.999246, 177, 337, 192, 464
-0.999247, 129, 125, 256, 156
-0.999248, 331, 209, 346, 336
-0.999252, 327, 337, 342, 464
-0.999253, 119, 305, 134, 432
-0.999253, 7, 193, 22, 320
-0.999253, 185, 97, 200, 224
-0.999258, 105, 257, 136, 500
-0.999259, 163, 161, 178, 288
-0.999259, 145, 33, 160, 160
-0.999259, 43, 369, 58, 496
-0.999261, 113, 289, 128, 416
-0.999265, 361, 113, 375, 240
-0.999265, 293, 177, 308, 304
-0.999266, 173, 97, 188, 224
-0.999266, 1, 257, 256, 320
-0.999268, 15, 177, 30, 304
-0.999269, 101, 289, 116, 416
-0.999273, 91, 177, 106, 304
-0.999282, 33, 257, 48, 384
-0.99929, 11, 81, 26, 208
-0.999297, 135, 33, 150, 160
-0.999298, 39, 273, 54, 400
-0.999302, 151, 97, 166, 224
-0.999302, 199, 97, 214, 224
-0.999303, 339, 353, 354, 480
-0.999311, 133, 97, 148, 224
-0.999311, 101, 177, 116, 304
-0.999312, 21, 257, 36, 384
-0.999312, 175, 161, 190, 288
-0.999312, 161, 353, 176, 480
-0.999314, 187, 33, 202, 160
-0.999315, 221, 145, 236, 272
-0.999316, 113, 177, 128, 304
-0.999317, 315, 321, 330, 448
-0.99932, 141, 97, 156, 224
-0.999325, 157, 81, 172, 208
-0.999325, 321, 193, 336, 320
-0.999328, 3, 145, 18, 272
-0.999329, 137, 161, 152, 288
-0.999331, 123, 177, 138, 304
-0.999336, 193, 197, 320, 228
-0.999337, 107, 177, 122, 304
-0.999343, 95, 289, 110, 416
-0.999343, 285, 369, 300, 496
-0.999344, 155, 161, 170, 288
-0.999353, 169, 33, 184, 160
-0.999357, 7, 241, 22, 368
-0.99936, 107, 289, 122, 416
-0.999361, 81, 273, 96, 400
-0.999362, 143, 161, 158, 288
-0.999365, 213, 161, 228, 288
-0.99937, 49, 197, 176, 228
-0.99937, 49, 17, 176, 80
-0.99937, 131, 177, 146, 304
-0.999372, 247, 129, 262, 256
-0.999375, 233, 177, 248, 304
-0.999376, 183, 161, 198, 288
-0.999377, 113, 65, 128, 192
-0.99938, 349, 273, 364, 400
-0.999382, 149, 161, 164, 288
-0.999383, 39, 177, 54, 304
-0.999385, 287, 177, 302, 304
-0.999388, 355, 273, 370, 400
-0.999389, 299, 369, 314, 496
-0.999392, 279, 353, 294, 480
-0.999393, 53, 81, 68, 208
-0.999396, 177, 137, 304, 168
-0.999396, 267, 177, 282, 304
-0.999398, 63, 305, 78, 432
-0.999401, 49, 289, 64, 416
-0.999405, 33, 177, 48, 304
-0.999408, 155, 369, 170, 496
-0.999411, 341, 257, 356, 384
-0.999412, 57, 369, 72, 496
-0.999413, 239, 177, 254, 304
-0.999415, 359, 161, 374, 288
-0.999425, 1, 1, 375, 64
-0.999431, 153, 97, 184, 352
-0.999486, 241, 449, 368, 480
-0.999495, 177, 109, 304, 140
-0.999541, 317, 65, 348, 320
-0.999611, 155, 89, 170, 104
-0.999611, 161, 77, 176, 92
-0.999613, 147, 187, 162, 202
-0.999613, 165, 89, 180, 104
-0.999613, 331, 433, 346, 448
-0.999614, 71, 455, 86, 470
-0.999614, 25, 393, 40, 408
-0.999615, 11, 183, 26, 198
-0.999616, 37, 143, 52, 158
-0.999618, 15, 147, 30, 162
-0.999618, 125, 133, 140, 148
-0.999618, 139, 479, 154, 494
-0.999618, 177, 109, 192, 124
-0.999619, 309, 371, 324, 386
-0.999619, 19, 367, 34, 382
-0.999619, 183, 109, 198, 124
-0.99962, 17, 85, 32, 100
-0.999621, 11, 351, 26, 366
-0.999621, 55, 403, 70, 418
-0.999621, 305, 187, 320, 202
-0.999622, 173, 433, 188, 448
-0.999623, 133, 73, 148, 88
-0.999623, 299, 381, 314, 396
-0.999625, 25, 303, 40, 318
-0.999625, 191, 169, 206, 184
-0.999626, 337, 439, 352, 454
-0.999627, 213, 357, 228, 372
-0.999628, 35, 183, 50, 198
-0.999628, 137, 431, 152, 446
-0.99963, 257, 167, 272, 182
-0.999631, 305, 365, 320, 380
-0.999631, 7, 365, 22, 380
-0.999631, 27, 387, 42, 402
-0.999631, 323, 371, 338, 386
-0.999631, 37, 311, 52, 326
-0.999632, 27, 371, 42, 386
-0.999633, 301, 359, 316, 374
-0.999634, 307, 399, 322, 414
-0.999635, 273, 347, 288, 362
-0.999635, 163, 441, 178, 456
-0.999636, 49, 383, 64, 398
-0.999636, 37, 189, 52, 204
-0.999637, 349, 375, 364, 390
-0.999638, 21, 101, 36, 116
-0.999647, 37, 369, 52, 384
-0.999647, 311, 275, 326, 290
-0.999648, 41, 183, 56, 198
-0.999648, 55, 189, 70, 204
-0.999648, 205, 169, 220, 184
-0.999649, 163, 183, 178, 198
-0.999651, 197, 169, 212, 184
-0.999651, 93, 327, 108, 342
-0.999651, 349, 439, 364, 454
-0.999651, 311, 405, 326, 420
-0.999651, 175, 183, 190, 198
-0.999652, 221, 257, 252, 500
-0.999653, 169, 183, 184, 198
-0.999653, 361, 439, 375, 454
-0.999653, 293, 353, 308, 368
-0.999654, 303, 351, 318, 366
-0.999654, 41, 379, 56, 394
-0.999654, 315, 355, 330, 370
-0.999659, 21, 173, 36, 188
-0.99966, 25, 365, 40, 380
-0.999661, 39, 397, 54, 412
-0.999661, 119, 73, 134, 88
-0.999662, 23, 109, 38, 124
-0.999662, 217, 163, 232, 178
-0.999662, 109, 327, 124, 342
-0.999663, 37, 355, 52, 370
-0.999665, 187, 137, 202, 152
-0.999665, 181, 137, 196, 152
-0.999666, 227, 171, 242, 186
-0.999667, 33, 377, 48, 392
-0.999667, 285, 355, 300, 370
-0.999668, 185, 169, 200, 184
-0.999668, 45, 355, 60, 370
-0.999669, 171, 137, 186, 152
-0.999669, 155, 137, 170, 152
-0.999669, 1, 363, 16, 378
-0.99967, 161, 137, 176, 152
-0.99967, 99, 327, 114, 342
-0.999672, 79, 145, 94, 160
-0.999672, 29, 139, 44, 154
-0.999673, 193, 137, 208, 152
-0.999674, 11, 175, 26, 190
-0.999676, 161, 171, 176, 186
-0.999676, 287, 347, 302, 362
-0.999677, 149, 137, 164, 152
-0.999678, 39, 385, 54, 400
-0.99968, 45, 403, 60, 418
-0.99968, 357, 369, 372, 384
-0.99968, 9, 191, 24, 206
-0.99968, 55, 373, 70, 388
-0.99968, 143, 137, 158, 152
-0.999681, 313, 233, 328, 248
-0.999683, 151, 171, 166, 186
-0.999683, 117, 327, 132, 342
-0.999684, 199, 79, 214, 94
-0.999684, 355, 439, 370, 454
-0.999687, 31, 307, 46, 322
-0.999688, 205, 133, 220, 148
-0.99969, 211, 169, 226, 184
-0.999691, 233, 167, 248, 182
-0.999691, 121, 79, 136, 94
-0.999692, 315, 365, 330, 380
-0.999692, 137, 137, 152, 152
-0.999692, 279, 355, 294, 370
-0.999693, 251, 167, 266, 182
-0.999694, 167, 171, 182, 186
-0.999695, 27, 357, 42, 372
-0.999697, 17, 357, 32, 372
-0.999697, 131, 139, 146, 154
-0.9997, 279, 349, 294, 364
-0.999701, 239, 167, 254, 182
-0.999701, 175, 171, 190, 186
-0.999702, 199, 137, 214, 152
-0.999709, 217, 169, 232, 184
-0.999713, 123, 139, 138, 154
-0.999715, 39, 391, 54, 406
-0.999716, 45, 191, 60, 206
-0.999719, 11, 357, 26, 372
-0.999721, 245, 167, 260, 182
-0.999724, 241, 49, 304, 176
-0.999733, 223, 165, 238, 180
-0.999734, 29, 173, 44, 188
-0.999735, 49, 393, 64, 408
-0.999736, 119, 133, 134, 148
-0.999745, 149, 193, 180, 448
-0.999759, 51, 355, 66, 370
-0.999785, 47, 183, 62, 198
-0.99979, 49, 377, 64, 392
-0.999798, 137, 161, 168, 416
-0.999801, 53, 183, 68, 198
-0.999812, 165, 193, 196, 448
-0.99985, 1, 25, 375, 88
-0.999853, 177, 193, 208, 448
-1.00003, 189, 225, 220, 480
-1.00022, 117, 257, 148, 500
-1.0003, 1, 1, 256, 64
-1.00041, 257, 257, 288, 500
-1.00043, 97, 281, 224, 344
-1.00054, 97, 217, 224, 280
-1.00056, 129, 257, 160, 500
-1.00061, 245, 257, 276, 500
-1.00065, 129, 249, 256, 312
-1.0007, 201, 273, 264, 400
-1.00074, 1, 233, 256, 296
-1.0008, 145, 305, 272, 368
-1.00109, 233, 257, 264, 500
-1.00111, 1, 209, 256, 272
-1.00122, 145, 217, 272, 280
-1.00125, 49, 233, 176, 296
-1.00142, 1, 225, 128, 288
-1.00207, 265, 81, 328, 208
-1.00217, 177, 161, 240, 416
-1.00291, 145, 273, 272, 336
-1.00458, 129, 257, 256, 384
-1.00496, 145, 209, 272, 336
-1.00598, 49, 225, 112, 352
-1.00739, 97, 209, 224, 336
-1.01048, 161, 225, 224, 352
-1.01149, 137, 209, 200, 336
-1.01156, 193, 209, 256, 336
-1.01368, 233, 257, 296, 384
