1964
-0.382492, 1, 1, 256, 375
-0.398111, 1, 1, 500, 375
-0.491879, 1, 1, 500, 256
-0.507359, 1, 97, 500, 352
-0.591994, 97, 1, 352, 375
-0.620627, 225, 1, 480, 375
-0.642781, 1, 129, 256, 375
-0.653894, 65, 1, 320, 256
-0.720733, 129, 129, 384, 375
-0.734024, 193, 1, 448, 256
-0.8167, 225, 97, 480, 352
-0.878422, 369, 1, 496, 375
-0.879758, 97, 1, 224, 375
-0.885581, 65, 65, 192, 320
-0.889933, 33, 1, 160, 375
-0.890266, 129, 1, 256, 256
-0.890994, 321, 1, 448, 375
-0.893052, 145, 1, 272, 375
-0.898616, 1, 209, 500, 336
-0.900711, 369, 1, 496, 256
-0.902882, 1, 1, 128, 256
-0.904252, 1, 49, 500, 176
-0.904474, 113, 129, 240, 375
-0.905969, 225, 129, 352, 375
-0.907425, 177, 129, 304, 375
-0.907783, 1, 161, 500, 288
-0.911576, 1, 97, 128, 352
-0.915616, 177, 1, 304, 256
-0.915721, 1, 1, 500, 128
-0.917443, 321, 33, 448, 288
-0.921452, 241, 1, 368, 256
-0.923433, 305, 129, 432, 375
-0.924233, 33, 129, 288, 256
-0.925314, 1, 113, 500, 240
-0.926098, 225, 1, 352, 375
-0.928659, 129, 65, 384, 192
-0.929089, 273, 1, 400, 375
-0.937019, 129, 241, 384, 368
-0.940559, 1, 33, 256, 160
-0.943171, 401, 1, 464, 128
-0.943305, 225, 17, 480, 144
-0.944693, 1, 81, 256, 208
-0.946764, 97, 33, 160, 160
-0.947281, 73, 81, 136, 208
-0.947684, 161, 145, 416, 272
-0.947753, 361, 225, 424, 352
-0.947975, 1, 193, 256, 320
-0.948026, 369, 1, 432, 128
-0.94825, 353, 129, 480, 375
-0.948799, 241, 241, 368, 368
-0.948804, 49, 65, 176, 192
-0.949905, 385, 209, 448, 272
-0.950258, 73, 17, 136, 144
-0.950344, 257, 81, 500, 208
-0.950345, 1, 81, 128, 208
-0.950659, 49, 113, 176, 240
-0.950887, 257, 209, 500, 336
-0.950941, 337, 1, 464, 128
-0.952127, 425, 33, 488, 160
-0.952867, 321, 241, 448, 368
-0.952989, 129, 81, 256, 208
-0.953589, 313, 225, 376, 352
-0.954847, 49, 1, 112, 128
-0.955024, 121, 1, 184, 128
-0.955339, 153, 1, 216, 128
-0.955616, 369, 49, 496, 176
-0.9557, 385, 209, 448, 336
-0.955735, 49, 65, 112, 192
-0.95608, 1, 209, 128, 336
-0.956123, 97, 33, 224, 160
-0.956461, 401, 57, 464, 120
-0.956722, 281, 225, 344, 352
-0.956967, 129, 81, 192, 208
-0.95701, 129, 193, 384, 320
-0.957807, 393, 49, 456, 176
-0.958479, 33, 193, 96, 320
-0.959032, 369, 33, 432, 96
-0.959238, 97, 105, 160, 168
-0.95937, 97, 81, 160, 208
-0.959725, 73, 81, 136, 144
-0.960319, 33, 17, 160, 144
-0.960823, 361, 49, 424, 176
-0.960833, 97, 193, 224, 320
-0.961384, 305, 177, 432, 304
-0.961398, 393, 33, 456, 96
-0.961626, 177, 241, 304, 368
-0.961748, 321, 49, 448, 176
-0.961824, 321, 265, 384, 328
-0.961894, 369, 57, 432, 120
-0.963422, 177, 17, 240, 144
-0.963498, 161, 145, 288, 272
-0.963552, 25, 49, 88, 176
-0.963838, 97, 17, 352, 144
-0.963968, 329, 289, 392, 352
-0.964066, 337, 1, 400, 128
-0.964409, 361, 249, 424, 312
-0.964505, 401, 1, 464, 64
-0.964842, 209, 129, 336, 256
-0.965446, 1, 81, 64, 208
-0.965855, 153, 49, 216, 176
-0.966251, 25, 97, 88, 224
-0.966307, 49, 113, 112, 240
-0.966457, 409, 225, 472, 352
-0.96658, 369, 225, 496, 352
-0.966715, 433, 25, 496, 88
-0.967028, 41, 209, 104, 272
-0.967091, 169, 161, 232, 288
-0.967113, 97, 145, 224, 272
-0.967264, 137, 105, 200, 168
-0.967328, 145, 17, 272, 144
-0.967443, 401, 233, 464, 296
-0.967586, 361, 177, 424, 304
-0.967779, 337, 49, 400, 176
-0.968079, 433, 1, 496, 64
-0.968376, 297, 233, 360, 296
-0.968385, 73, 57, 136, 120
-0.968553, 1, 161, 128, 288
-0.968705, 257, 129, 500, 256
-0.968818, 361, 201, 424, 264
-0.96895, 113, 81, 176, 144
-0.969013, 161, 193, 288, 320
-0.969153, 209, 81, 336, 208
-0.96932, 273, 65, 400, 192
-0.969404, 49, 161, 176, 288
-0.9702, 345, 225, 408, 288
-0.970278, 233, 113, 296, 240
-0.970659, 153, 265, 216, 328
-0.970678, 33, 241, 288, 368
-0.970942, 337, 209, 400, 336
-0.971164, 385, 161, 448, 288
-0.971263, 345, 57, 408, 120
-0.971344, 201, 97, 264, 224
-0.971449, 209, 161, 272, 288
-0.971654, 241, 281, 304, 344
-0.971762, 113, 129, 176, 192
-0.972142, 289, 265, 352, 328
-0.972244, 249, 137, 312, 200
-0.972261, 257, 129, 384, 256
-0.972354, 57, 177, 120, 304
-0.972519, 401, 81, 464, 144
-0.972639, 41, 65, 104, 128
-0.972676, 265, 129, 328, 256
-0.972755, 57, 121, 120, 184
-0.972947, 385, 265, 448, 328
-0.972981, 129, 129, 192, 256
-0.973026, 17, 113, 80, 176
-0.97315, 289, 1, 416, 128
-0.973227, 369, 1, 432, 64
-0.973254, 329, 225, 360, 352
-0.973484, 217, 153, 280, 216
-0.97351, 65, 17, 128, 80
-0.973876, 325, 257, 356, 320
-0.973962, 297, 289, 360, 352
-0.974209, 193, 33, 320, 160
-0.97433, 121, 1, 184, 64
-0.974389, 101, 49, 132, 176
-0.974534, 49, 89, 112, 152
-0.974734, 337, 265, 368, 328
-0.974825, 81, 1, 144, 256
-0.974865, 25, 9, 88, 72
-0.975044, 353, 57, 480, 120
-0.975044, 337, 33, 400, 96
-0.975188, 425, 81, 488, 208
-0.97534, 9, 1, 72, 128
-0.975527, 441, 1, 472, 64
-0.975543, 241, 161, 304, 224
-0.975654, 425, 73, 488, 136
-0.975696, 209, 193, 336, 320
-0.975758, 153, 65, 216, 128
-0.975867, 193, 225, 256, 352
-0.975883, 137, 137, 200, 200
-0.975915, 325, 289, 356, 352
-0.975934, 41, 41, 104, 104
-0.976004, 33, 97, 160, 160
-0.97608, 265, 257, 328, 320
-0.976083, 145, 41, 208, 104
-0.976198, 105, 129, 168, 256
-0.976262, 97, 41, 160, 104
-0.976302, 105, 97, 136, 160
-0.976415, 185, 169, 248, 232
-0.976419, 417, 209, 448, 272
-0.976481, 369, 25, 496, 88
-0.976496, 349, 265, 380, 328
-0.97654, 97, 57, 224, 120
-0.976547, 261, 265, 292, 328
-0.976597, 177, 57, 240, 120
-0.97665, 161, 1, 224, 64
-0.976701, 141, 113, 172, 176
-0.976763, 1, 129, 64, 256
-0.976893, 313, 49, 376, 176
-0.976912, 121, 121, 152, 184
-0.976967, 121, 1, 184, 256
-0.977003, 17, 217, 80, 280
-0.977045, 397, 65, 428, 128
-0.977103, 401, 1, 464, 256
-0.977357, 361, 1, 424, 256
-0.977529, 313, 225, 344, 288
-0.977566, 397, 201, 428, 264
-0.977686, 241, 161, 304, 288
-0.97776, 257, 257, 384, 320
-0.977782, 169, 113, 232, 240
-0.977839, 361, 81, 424, 144
-0.977882, 169, 225, 232, 352
-0.977964, 169, 145, 232, 208
-0.978013, 329, 313, 392, 375
-0.978055, 233, 65, 296, 192
-0.978103, 413, 193, 444, 320
-0.978247, 417, 57, 448, 120
-0.978299, 57, 65, 120, 320
-0.978447, 461, 33, 492, 96
-0.978476, 425, 49, 488, 112
-0.978535, 9, 209, 72, 336
-0.97858, 341, 289, 372, 352
-0.978582, 169, 241, 232, 304
-0.978622, 345, 1, 408, 64
-0.978658, 417, 1, 448, 128
-0.978701, 321, 241, 384, 304
-0.978875, 1, 17, 64, 80
-0.978951, 1, 121, 128, 184
-0.979125, 17, 89, 80, 152
-0.979129, 453, 33, 484, 160
-0.979138, 449, 41, 480, 104
-0.97917, 49, 209, 176, 336
-0.979221, 49, 73, 176, 136
-0.979264, 65, 209, 128, 272
-0.979336, 437, 1, 468, 128
-0.979395, 49, 121, 176, 184
-0.9794, 241, 17, 368, 144
-0.979413, 409, 177, 472, 304
-0.979435, 437, 25, 468, 88
-0.979707, 385, 57, 416, 120
-0.979841, 321, 225, 448, 288
-0.979894, 341, 241, 372, 368
-0.979939, 17, 57, 80, 120
-0.98002, 81, 129, 144, 192
-0.980068, 201, 129, 264, 192
-0.980096, 49, 185, 112, 248
-0.980104, 81, 97, 144, 352
-0.98013, 377, 201, 408, 264
-0.9802, 373, 17, 404, 144
-0.980203, 401, 177, 432, 304
-0.980344, 89, 89, 120, 152
-0.980449, 17, 217, 144, 280
-0.980525, 57, 225, 120, 352
-0.980641, 97, 49, 128, 112
-0.980696, 289, 313, 352, 375
-0.980742, 305, 201, 432, 264
-0.980916, 97, 33, 224, 96
-0.980923, 393, 233, 424, 296
-0.980969, 265, 161, 328, 224
-0.981039, 385, 185, 448, 248
-0.981042, 41, 201, 72, 264
-0.981101, 305, 241, 336, 368
-0.981186, 381, 25, 412, 88
-0.981228, 329, 233, 360, 296
-0.981261, 389, 33, 420, 160
-0.98128, 449, 65, 480, 128
-0.981299, 437, 49, 468, 112
-0.981395, 177, 33, 240, 96
-0.981401, 369, 177, 496, 304
-0.981407, 265, 81, 328, 208
-0.981577, 289, 113, 352, 240
-0.981702, 129, 249, 192, 312
-0.981728, 129, 105, 256, 168
-0.981773, 73, 129, 136, 256
-0.981775, 321, 265, 448, 328
-0.981797, 113, 97, 176, 352
-0.981816, 297, 49, 360, 112
-0.981828, 353, 273, 416, 336
-0.981832, 317, 209, 348, 336
-0.981852, 409, 209, 472, 272
-0.981857, 289, 297, 416, 360
-0.981885, 177, 65, 240, 192
-0.981896, 265, 241, 296, 368
-0.981925, 233, 241, 296, 368
-0.981995, 89, 17, 152, 80
-0.982048, 153, 97, 184, 160
-0.982061, 385, 209, 416, 336
-0.982073, 9, 65, 72, 320
-0.982093, 161, 1, 224, 256
-0.982136, 105, 121, 136, 184
-0.982193, 1, 57, 128, 120
-0.982199, 81, 1, 112, 128
-0.982304, 273, 273, 304, 336
-0.982335, 161, 169, 224, 232
-0.982351, 249, 313, 312, 375
-0.982406, 273, 113, 336, 176
-0.982448, 321, 33, 448, 96
-0.982449, 321, 209, 384, 272
-0.982483, 209, 49, 272, 176
-0.982557, 141, 97, 172, 224
-0.982567, 265, 289, 328, 352
-0.982616, 313, 177, 376, 304
-0.982658, 73, 57, 104, 120
-0.982679, 81, 97, 208, 160
-0.982687, 417, 25, 448, 88
-0.9827, 81, 65, 112, 192
-0.982704, 273, 177, 336, 304
-0.982709, 305, 1, 368, 128
-0.982751, 373, 57, 404, 120
-0.982777, 101, 97, 132, 224
-0.982805, 357, 289, 388, 352
-0.982811, 273, 49, 400, 112
-0.982815, 321, 97, 448, 224
-0.983, 65, 1, 192, 64
-0.983024, 121, 1, 152, 128
-0.983317, 241, 281, 368, 344
-0.983327, 129, 217, 256, 280
-0.983411, 145, 57, 272, 120
-0.983413, 25, 145, 88, 272
-0.983578, 249, 161, 280, 224
-0.983642, 73, 81, 104, 144
-0.983651, 177, 265, 304, 328
-0.983654, 161, 145, 288, 208
-0.983683, 273, 129, 336, 375
-0.983701, 181, 57, 212, 120
-0.983721, 101, 73, 132, 136
-0.983733, 273, 49, 336, 112
-0.983779, 289, 145, 352, 208
-0.983801, 153, 1, 216, 375
-0.983874, 337, 1, 464, 64
-0.98388, 289, 65, 352, 192
-0.983882, 393, 25, 424, 88
-0.983888, 469, 57, 500, 120
-0.983911, 429, 49, 460, 176
-0.983924, 137, 241, 200, 368
-0.983944, 121, 113, 152, 240
-0.983944, 405, 241, 436, 368
-0.983958, 405, 33, 436, 160
-0.983992, 433, 1, 496, 256
-0.983993, 57, 233, 120, 296
-0.984031, 145, 169, 272, 232
-0.984048, 217, 281, 280, 344
-0.984074, 113, 1, 240, 64
-0.984094, 137, 97, 200, 352
-0.984112, 225, 129, 288, 192
-0.984136, 57, 121, 88, 184
-0.984167, 401, 97, 464, 224
-0.984199, 161, 217, 224, 280
-0.984248, 33, 97, 96, 352
-0.984301, 405, 257, 436, 320
-0.984349, 377, 225, 408, 288
-0.984397, 49, 49, 176, 112
-0.984405, 69, 65, 100, 192
-0.98443, 409, 185, 472, 248
-0.984477, 161, 121, 224, 184
-0.984518, 129, 81, 256, 144
-0.984541, 161, 129, 224, 375
-0.98458, 57, 161, 88, 288
-0.984588, 81, 225, 112, 288
-0.984624, 101, 1, 132, 128
-0.984634, 353, 201, 480, 264
-0.984657, 469, 33, 500, 160
-0.98471, 129, 241, 256, 368
-0.984752, 461, 9, 492, 72
-0.984755, 201, 1, 264, 128
-0.984758, 1, 241, 128, 304
-0.984765, 25, 137, 88, 200
-0.98479, 337, 97, 400, 352
-0.984887, 405, 233, 436, 296
-0.984931, 157, 1, 188, 128
-0.984935, 437, 73, 468, 136
-0.984979, 193, 313, 256, 375
-0.984988, 277, 313, 308, 375
-0.985, 337, 289, 464, 352
-0.98503, 225, 153, 352, 216
-0.98511, 177, 289, 304, 352
-0.985113, 117, 97, 148, 160
-0.98524, 97, 1, 160, 375
-0.985403, 129, 97, 160, 160
-0.985408, 297, 121, 360, 184
-0.985461, 369, 1, 432, 375
-0.985493, 261, 289, 292, 352
-0.985655, 17, 25, 144, 88
-0.985685, 361, 129, 424, 256
-0.985687, 241, 233, 368, 296
-0.985699, 257, 241, 320, 368
-0.985706, 173, 49, 204, 176
-0.985715, 141, 137, 172, 200
-0.985733, 241, 57, 304, 120
-0.985733, 201, 233, 264, 296
-0.985743, 1, 241, 64, 304
-0.985766, 313, 257, 344, 320
-0.985806, 225, 1, 288, 256
-0.985818, 209, 129, 336, 192
-0.985855, 17, 1, 144, 64
-0.985864, 185, 65, 248, 320
-0.985897, 325, 313, 356, 375
-0.985956, 369, 193, 400, 320
-0.985963, 417, 233, 448, 296
-0.985975, 177, 1, 240, 375
-0.985984, 85, 57, 116, 120
-0.986063, 77, 121, 108, 184
-0.98613, 409, 1, 472, 375
-0.986171, 81, 209, 144, 336
-0.986175, 89, 233, 152, 296
-0.98626, 41, 193, 72, 320
-0.986261, 117, 9, 148, 72
-0.986295, 81, 225, 208, 288
-0.986313, 273, 233, 336, 296
-0.986352, 337, 81, 464, 144
-0.986375, 209, 97, 272, 352
-0.98638, 289, 313, 320, 375
-0.986419, 165, 49, 196, 112
-0.986435, 377, 289, 440, 352
-0.98644, 61, 209, 92, 272
-0.986532, 289, 73, 416, 136
-0.986537, 81, 33, 112, 96
-0.986561, 369, 97, 496, 224
-0.986565, 57, 49, 88, 176
-0.986574, 265, 137, 296, 200
-0.986576, 153, 97, 184, 224
-0.986661, 381, 1, 412, 64
-0.98669, 97, 1, 128, 64
-0.9867, 257, 193, 384, 320
-0.986732, 17, 193, 80, 256
-0.986739, 73, 193, 104, 320
-0.986773, 165, 73, 196, 136
-0.98688, 441, 49, 472, 176
-0.986883, 193, 49, 224, 112
-0.986886, 217, 89, 280, 152
-0.986915, 57, 113, 88, 240
-0.98692, 97, 273, 224, 336
-0.987004, 225, 185, 288, 248
-0.98701, 121, 193, 184, 320
-0.987014, 185, 17, 216, 144
-0.987019, 201, 33, 264, 96
-0.987082, 97, 129, 224, 192
-0.987097, 145, 177, 208, 304
-0.987115, 137, 161, 200, 224
-0.987132, 409, 81, 440, 144
-0.987176, 177, 33, 304, 96
-0.987191, 81, 113, 112, 240
-0.987272, 161, 89, 224, 152
-0.987309, 145, 241, 272, 304
-0.987329, 393, 257, 424, 320
-0.98735, 409, 281, 472, 344
-0.987362, 417, 49, 448, 176
-0.987396, 65, 201, 192, 264
-0.987415, 405, 41, 436, 104
-0.987428, 193, 313, 320, 375
-0.987484, 157, 121, 188, 184
-0.987536, 1, 129, 32, 192
-0.987549, 233, 17, 296, 144
-0.987565, 13, 113, 44, 176
-0.987569, 133, 49, 164, 176
-0.987572, 193, 1, 256, 64
-0.987651, 249, 113, 312, 176
-0.987686, 57, 1, 120, 375
-0.987693, 429, 1, 460, 64
-0.987719, 173, 1, 204, 128
-0.987732, 121, 1, 184, 375
-0.987781, 353, 241, 384, 368
-0.987825, 257, 25, 320, 88
-0.987838, 93, 121, 124, 184
-0.987857, 425, 81, 456, 144
-0.987939, 245, 137, 276, 200
-0.98795, 193, 257, 256, 320
-0.987962, 265, 33, 328, 160
-0.987965, 305, 17, 368, 80
-0.987967, 369, 289, 400, 352
-0.987995, 193, 241, 320, 304
-0.987996, 309, 313, 340, 375
-0.988001, 121, 57, 184, 120
-0.988014, 257, 81, 320, 144
-0.988025, 153, 241, 184, 304
-0.988036, 225, 257, 288, 320
-0.988036, 409, 257, 472, 320
-0.988043, 153, 49, 184, 176
-0.988106, 377, 65, 408, 192
-0.98813, 173, 25, 204, 88
-0.988147, 81, 1, 112, 64
-0.988157, 149, 1, 180, 64
-0.988183, 385, 97, 448, 352
-0.988203, 425, 97, 488, 160
-0.988298, 361, 177, 424, 240
-0.988317, 185, 289, 248, 352
-0.98833, 161, 273, 192, 336
-0.988342, 121, 49, 152, 176
-0.988348, 161, 193, 288, 256
-0.988361, 353, 297, 416, 360
-0.988382, 337, 81, 400, 144
-0.9884, 97, 209, 160, 272
-0.988471, 337, 161, 400, 288
-0.988514, 385, 161, 416, 288
-0.988518, 17, 1, 80, 375
-0.988521, 197, 241, 228, 368
-0.988537, 189, 153, 220, 216
-0.988563, 241, 305, 368, 368
-0.988567, 1, 193, 128, 256
-0.988589, 217, 65, 280, 128
-0.988589, 297, 1, 360, 256
-0.988595, 21, 1, 52, 128
-0.988626, 377, 213, 440, 244
-0.988632, 205, 161, 236, 288
-0.988632, 237, 161, 268, 224
-0.98874, 369, 69, 432, 100
-0.98875, 313, 81, 376, 144
-0.988763, 33, 241, 96, 304
-0.988796, 61, 1, 92, 64
-0.988798, 365, 201, 396, 264
-0.988858, 57, 161, 120, 224
-0.988862, 61, 1, 92, 128
-0.988887, 97, 121, 160, 152
-0.988905, 357, 1, 388, 128
-0.988953, 381, 249, 412, 312
-0.989009, 49, 97, 80, 160
-0.989027, 409, 61, 472, 92
-0.98903, 61, 177, 92, 240
-0.989057, 221, 145, 252, 272
-0.989059, 241, 113, 272, 240
-0.98908, 361, 73, 392, 136
-0.989099, 245, 273, 276, 336
-0.989122, 233, 129, 296, 375
-0.989144, 165, 1, 196, 64
-0.989148, 305, 289, 336, 352
-0.989173, 425, 209, 456, 336
-0.9892, 169, 209, 200, 272
-0.989203, 225, 41, 352, 104
-0.989329, 417, 273, 448, 336
-0.989338, 153, 289, 216, 352
-0.989346, 369, 233, 496, 296
-0.989358, 161, 9, 288, 72
-0.989391, 369, 201, 432, 232
-0.989454, 101, 25, 132, 88
-0.989473, 417, 1, 448, 64
-0.989509, 257, 129, 384, 192
-0.989584, 401, 73, 464, 104
-0.989585, 181, 1, 212, 64
-0.989588, 141, 89, 172, 152
-0.9896, 257, 1, 320, 375
-0.989604, 385, 225, 448, 256
-0.989623, 165, 177, 196, 240
-0.989645, 121, 125, 184, 156
-0.989653, 133, 1, 164, 128
-0.989674, 225, 33, 288, 96
-0.989674, 177, 193, 240, 256
-0.989677, 313, 277, 376, 308
-0.98975, 233, 161, 264, 288
-0.989753, 345, 1, 408, 375
-0.989772, 313, 129, 376, 256
-0.989831, 289, 1, 416, 64
-0.989833, 329, 293, 392, 324
-0.989846, 33, 1, 96, 256
-0.989847, 49, 145, 176, 208
-0.989862, 69, 129, 100, 256
-0.989878, 417, 45, 480, 76
-0.989894, 129, 1, 160, 64
-0.989949, 73, 89, 136, 120
-0.989971, 185, 105, 248, 168
-0.989976, 77, 201, 108, 264
-0.989977, 377, 237, 440, 268
-0.989989, 273, 25, 400, 88
-0.989997, 49, 177, 176, 240
-0.990004, 301, 249, 332, 312
-0.990012, 401, 81, 432, 208
-0.990017, 209, 209, 336, 272
-0.990033, 37, 105, 68, 168
-0.990041, 369, 81, 432, 112
-0.990046, 209, 105, 336, 168
-0.990054, 49, 1, 80, 128
-0.990083, 261, 161, 292, 224
-0.990089, 197, 33, 228, 160
-0.990098, 181, 177, 212, 304
-0.99012, 409, 85, 472, 116
-0.990171, 41, 73, 72, 136
-0.99019, 253, 129, 284, 256
-0.990197, 433, 73, 496, 104
-0.990224, 181, 177, 212, 240
-0.990251, 97, 153, 224, 216
-0.990251, 49, 249, 176, 312
-0.99028, 425, 29, 488, 60
-0.990318, 357, 49, 388, 176
-0.99033, 313, 265, 376, 296
-0.990359, 241, 73, 368, 136
-0.990366, 105, 109, 168, 140
-0.990389, 21, 81, 52, 144
-0.990407, 369, 53, 432, 84
-0.990408, 469, 81, 500, 144
-0.99047, 25, 105, 56, 168
-0.990489, 397, 89, 428, 152
-0.990492, 393, 45, 456, 76
-0.990513, 61, 49, 92, 112
-0.990556, 369, 41, 432, 72
-0.990557, 161, 145, 192, 272
-0.990561, 369, 265, 496, 328
-0.990576, 433, 13, 496, 44
-0.990582, 45, 81, 76, 208
-0.990586, 89, 133, 152, 164
-0.990599, 393, 277, 456, 308
-0.990612, 45, 129, 76, 256
-0.990617, 321, 57, 384, 120
-0.990627, 217, 209, 280, 272
-0.990636, 117, 33, 148, 96
-0.990641, 273, 97, 400, 160
-0.990647, 73, 61, 136, 92
-0.990673, 297, 41, 328, 104
-0.99069, 85, 209, 116, 336
-0.990696, 81, 109, 144, 140
-0.990697, 73, 77, 136, 108
-0.990699, 241, 165, 304, 196
-0.990702, 117, 57, 148, 120
-0.990755, 57, 221, 120, 252
-0.990771, 393, 25, 456, 56
-0.990822, 137, 113, 200, 144
-0.99085, 297, 249, 360, 280
-0.990856, 273, 33, 336, 288
-0.990859, 337, 105, 400, 168
-0.990861, 185, 25, 216, 88
-0.990867, 57, 1, 120, 32
-0.990871, 37, 33, 68, 160
-0.990888, 113, 97, 176, 128
-0.990895, 33, 213, 96, 244
-0.990897, 337, 97, 400, 224
-0.990918, 361, 273, 424, 304
-0.99092, 361, 261, 424, 292
-0.990922, 49, 57, 112, 88
-0.99094, 369, 25, 400, 88
-0.990942, 153, 33, 184, 96
-0.990947, 337, 273, 400, 304
-0.990959, 65, 129, 128, 160
-0.991031, 121, 13, 184, 44
-0.991076, 153, 269, 216, 300
-0.991098, 337, 69, 400, 100
-0.991102, 49, 73, 112, 104
-0.991104, 201, 169, 264, 200
-0.99113, 5, 65, 36, 192
-0.991156, 113, 137, 176, 168
-0.991166, 361, 289, 424, 320
-0.991167, 305, 233, 368, 264
-0.991179, 145, 125, 208, 156
-0.991183, 209, 225, 240, 288
-0.991204, 121, 1, 184, 32
-0.991209, 193, 81, 320, 144
-0.991215, 153, 73, 184, 136
-0.991248, 369, 29, 432, 60
-0.991261, 409, 229, 472, 260
-0.991264, 129, 261, 192, 292
-0.991271, 329, 305, 392, 336
-0.991271, 393, 177, 424, 240
-0.991273, 265, 97, 296, 224
-0.991281, 401, 249, 464, 280
-0.991282, 425, 1, 488, 32
-0.99129, 189, 113, 220, 240
-0.991298, 113, 85, 176, 116
-0.991306, 25, 57, 88, 88
-0.991316, 33, 237, 96, 268
-0.99133, 153, 1, 216, 32
-0.99135, 401, 1, 464, 32
-0.991365, 241, 285, 304, 316
-0.991366, 273, 265, 336, 296
-0.991373, 153, 49, 216, 80
-0.99139, 273, 321, 336, 352
-0.991412, 145, 1, 176, 128
-0.991418, 73, 37, 136, 68
-0.991423, 273, 281, 336, 312
-0.991448, 329, 317, 392, 348
-0.991454, 385, 289, 448, 320
-0.99146, 153, 77, 216, 108
-0.99148, 49, 201, 112, 232
-0.991481, 81, 17, 144, 48
-0.991484, 185, 65, 248, 96
-0.991494, 241, 269, 304, 300
-0.991499, 17, 113, 80, 144
-0.991518, 41, 117, 104, 148
-0.991528, 161, 65, 224, 96
-0.991535, 369, 1, 432, 32
-0.99154, 345, 49, 408, 80
-0.991549, 49, 85, 112, 116
-0.99156, 41, 97, 104, 128
-0.99156, 57, 233, 120, 264
-0.991572, 217, 81, 248, 208
-0.99159, 17, 77, 80, 108
-0.9916, 297, 309, 360, 340
-0.991607, 289, 333, 352, 364
-0.991607, 177, 145, 208, 208
-0.991608, 401, 13, 464, 44
-0.991615, 337, 85, 400, 116
-0.991622, 345, 221, 408, 252
-0.991639, 97, 73, 160, 104
-0.991647, 97, 1, 160, 32
-0.991653, 113, 53, 176, 84
-0.991689, 153, 21, 216, 52
-0.991689, 169, 161, 232, 192
-0.991691, 21, 41, 52, 104
-0.991691, 173, 265, 204, 328
-0.991693, 73, 49, 136, 80
-0.991695, 1, 133, 64, 164
-0.991696, 353, 249, 416, 280
-0.991707, 401, 205, 464, 236
-0.991715, 321, 213, 384, 244
-0.991724, 393, 265, 456, 296
-0.991741, 289, 297, 352, 328
-0.991746, 153, 253, 216, 284
-0.991749, 369, 177, 496, 240
-0.991765, 145, 97, 208, 128
-0.991777, 345, 33, 408, 64
-0.991782, 185, 53, 248, 84
-0.991787, 385, 97, 448, 128
-0.991787, 433, 85, 496, 116
-0.991788, 297, 49, 360, 80
-0.991814, 433, 57, 496, 88
-0.991838, 201, 1, 264, 375
-0.991841, 9, 101, 72, 132
-0.991845, 337, 1, 400, 256
-0.991875, 373, 241, 404, 368
-0.991882, 345, 205, 408, 236
-0.991889, 257, 145, 320, 176
-0.991889, 61, 89, 92, 152
-0.991894, 169, 181, 232, 212
-0.991906, 33, 225, 96, 256
-0.99191, 409, 217, 472, 248
-0.991916, 257, 109, 320, 140
-0.991923, 41, 17, 72, 80
-0.991924, 137, 125, 168, 156
-0.991927, 349, 89, 380, 152
-0.991941, 209, 145, 272, 176
-0.991948, 177, 37, 240, 68
-0.991957, 273, 45, 336, 76
-0.991966, 321, 1, 384, 375
-0.991978, 145, 137, 208, 168
-0.992031, 113, 25, 176, 56
-0.99205, 225, 177, 288, 208
-0.992054, 17, 13, 80, 44
-0.992055, 229, 97, 260, 224
-0.99206, 41, 21, 104, 52
-0.992066, 41, 41, 104, 72
-0.992067, 137, 65, 200, 96
-0.992067, 305, 321, 368, 352
-0.99207, 249, 305, 312, 336
-0.992101, 265, 161, 328, 192
-0.992142, 281, 233, 344, 264
-0.99216, 125, 125, 156, 156
-0.992245, 165, 97, 196, 224
-0.992253, 457, 45, 488, 76
-0.99226, 185, 65, 216, 192
-0.992295, 1, 113, 256, 176
-0.992352, 313, 229, 344, 260
-0.992392, 345, 297, 376, 328
-0.992403, 393, 81, 424, 112
-0.992429, 109, 121, 140, 152
-0.992465, 397, 65, 428, 96
-0.99247, 409, 65, 440, 96
-0.992481, 381, 65, 412, 96
-0.992495, 437, 33, 468, 64
-0.992516, 393, 237, 424, 268
-0.992516, 409, 273, 440, 304
-0.992534, 265, 269, 296, 300
-0.99255, 265, 289, 296, 320
-0.992556, 145, 109, 176, 140
-0.992565, 393, 53, 424, 84
-0.992581, 329, 289, 360, 320
-0.992586, 405, 81, 436, 112
-0.99259, 329, 253, 360, 284
-0.992607, 357, 297, 388, 328
-0.992617, 409, 205, 440, 236
-0.992619, 393, 201, 424, 232
-0.992635, 281, 321, 312, 352
-0.992637, 321, 317, 352, 348
-0.992644, 317, 257, 348, 288
-0.992648, 321, 269, 352, 300
-0.992655, 381, 37, 412, 68
-0.992664, 417, 229, 448, 260
-0.99267, 397, 217, 428, 248
-0.992672, 289, 49, 320, 176
-0.992681, 253, 161, 284, 192
-0.992692, 381, 77, 412, 108
-0.992699, 421, 217, 452, 248
-0.992708, 373, 201, 404, 232
-0.99271, 425, 77, 456, 108
-0.992717, 349, 281, 380, 312
-0.992723, 437, 45, 468, 76
-0.992743, 281, 113, 312, 240
-0.992745, 381, 49, 412, 80
-0.992756, 325, 305, 356, 336
-0.992778, 449, 17, 480, 48
-0.992782, 281, 309, 312, 340
-0.992783, 333, 265, 364, 296
-0.992787, 433, 65, 464, 96
-0.99279, 341, 33, 372, 160
-0.992798, 401, 261, 432, 292
-0.992798, 345, 269, 376, 300
-0.992798, 457, 57, 488, 88
-0.992819, 189, 69, 220, 100
-0.99283, 129, 289, 384, 352
-0.992836, 369, 81, 400, 112
-0.992837, 137, 137, 168, 168
-0.992844, 337, 313, 464, 375
-0.992844, 121, 113, 152, 144
-0.992849, 225, 177, 352, 240
-0.99285, 193, 161, 224, 288
-0.992854, 153, 121, 184, 152
-0.992858, 377, 221, 408, 252
-0.992866, 469, 37, 500, 68
-0.992871, 161, 265, 416, 328
-0.992872, 425, 53, 456, 84
-0.992874, 133, 113, 164, 144
-0.992875, 449, 29, 480, 60
-0.992875, 369, 297, 400, 328
-0.992881, 253, 281, 284, 312
-0.99289, 77, 77, 108, 108
-0.992893, 101, 77, 132, 108
-0.992893, 445, 57, 476, 88
-0.992898, 429, 17, 460, 48
-0.992902, 421, 281, 452, 312
-0.992902, 321, 105, 448, 168
-0.992902, 401, 249, 432, 280
-0.992905, 285, 241, 316, 368
-0.992911, 117, 137, 148, 168
-0.992912, 89, 113, 120, 144
-0.992913, 325, 241, 356, 272
-0.992919, 405, 237, 436, 268
-0.992924, 453, 77, 484, 108
-0.992926, 309, 325, 340, 356
-0.992929, 177, 69, 208, 100
-0.99293, 369, 65, 400, 96
-0.992931, 469, 49, 500, 80
-0.992935, 365, 285, 396, 316
-0.992953, 405, 33, 436, 64
-0.992953, 105, 97, 136, 128
-0.992953, 365, 309, 396, 340
-0.992955, 269, 305, 300, 336
-0.992984, 101, 57, 132, 88
-0.992988, 109, 109, 140, 140
-0.99299, 41, 217, 72, 248
-0.992994, 273, 177, 400, 240
-0.993003, 33, 137, 288, 200
-0.993007, 153, 93, 184, 124
-0.993017, 393, 33, 424, 64
-0.993018, 417, 29, 448, 60
-0.99302, 85, 89, 116, 120
-0.993022, 437, 5, 468, 36
-0.993026, 161, 61, 192, 92
-0.993027, 61, 213, 92, 244
-0.993027, 181, 53, 212, 84
-0.993029, 417, 89, 448, 120
-0.993042, 325, 329, 356, 360
-0.993045, 413, 249, 444, 280
-0.993045, 313, 241, 344, 272
-0.993046, 405, 53, 436, 84
-0.993054, 1, 57, 256, 120
-0.993062, 125, 17, 156, 48
-0.993063, 345, 313, 376, 344
-0.993067, 253, 177, 284, 208
-0.993075, 293, 333, 324, 364
-0.993077, 97, 125, 128, 156
-0.993078, 85, 225, 116, 256
-0.993083, 97, 41, 128, 72
-0.993091, 381, 233, 412, 264
-0.993093, 233, 165, 264, 196
-0.993111, 161, 257, 192, 288
-0.993113, 81, 129, 112, 160
-0.993118, 197, 57, 228, 88
-0.993119, 389, 257, 420, 288
-0.99312, 153, 233, 184, 264
-0.993126, 153, 133, 184, 164
-0.993127, 153, 1, 184, 32
-0.993133, 85, 57, 116, 88
-0.993135, 57, 49, 88, 80
-0.99314, 357, 77, 388, 108
-0.993148, 469, 61, 500, 92
-0.99315, 1, 133, 32, 164
-0.993155, 69, 125, 100, 156
-0.993159, 269, 161, 300, 192
-0.993161, 117, 29, 148, 60
-0.993167, 69, 61, 100, 92
-0.993171, 149, 81, 180, 112
-0.993172, 389, 273, 420, 304
-0.993173, 249, 1, 312, 256
-0.993173, 101, 17, 132, 48
-0.993175, 433, 1, 496, 375
-0.993181, 185, 17, 216, 48
-0.993181, 441, 81, 472, 112
-0.993182, 269, 321, 300, 352
-0.993183, 317, 281, 348, 312
-0.993183, 337, 325, 368, 356
-0.993183, 449, 5, 480, 36
-0.993184, 313, 97, 376, 352
-0.993188, 257, 309, 288, 340
-0.99319, 381, 89, 412, 120
-0.993292, 205, 81, 236, 208
-0.9933, 1, 89, 256, 152
-0.993301, 209, 209, 240, 336
-0.993364, 317, 161, 348, 288
-0.993491, 293, 97, 324, 224
-0.993561, 97, 249, 224, 312
-0.993576, 241, 65, 272, 192
-0.99359, 33, 169, 288, 232
-0.993676, 113, 193, 240, 256
-0.993743, 281, 1, 344, 375
-0.99375, 53, 209, 84, 336
-0.993751, 413, 145, 444, 272
-0.993766, 1, 73, 500, 136
-0.993788, 253, 241, 284, 368
-0.99381, 225, 57, 480, 120
-0.99381, 1, 217, 256, 280
-0.99385, 289, 153, 416, 216
-0.993854, 17, 49, 48, 176
-0.993862, 225, 17, 352, 80
-0.993868, 1, 169, 128, 232
-0.993871, 447, 17, 462, 80
-0.993918, 337, 249, 352, 312
-0.993978, 253, 81, 284, 208
-0.99398, 33, 81, 64, 208
-0.99401, 97, 113, 352, 176
-0.99412, 29, 209, 60, 336
-0.994154, 353, 69, 480, 100
-0.994155, 245, 177, 276, 304
-0.994195, 1, 145, 128, 208
-0.994224, 9, 113, 40, 240
-0.994228, 225, 33, 480, 96
-0.994288, 1, 225, 500, 288
-0.994296, 473, 33, 488, 96
-0.994316, 443, 41, 458, 104
-0.994323, 113, 97, 128, 160
-0.99433, 321, 237, 448, 268
-0.994353, 413, 57, 428, 120
-0.994395, 265, 145, 296, 272
-0.994415, 327, 257, 342, 320
-0.994423, 257, 297, 500, 360
-0.994484, 353, 57, 480, 88
-0.994489, 151, 105, 166, 168
-0.9945, 97, 313, 224, 375
-0.994583, 129, 137, 384, 200
-0.994601, 193, 201, 448, 264
-0.994622, 437, 57, 452, 120
-0.994629, 225, 1, 288, 375
-0.994634, 351, 265, 366, 328
-0.994688, 395, 41, 410, 104
-0.994719, 401, 129, 432, 256
-0.99472, 1, 33, 500, 96
-0.99472, 305, 81, 336, 208
-0.994737, 453, 1, 468, 64
-0.99474, 331, 281, 346, 344
-0.994799, 33, 1, 288, 64
-0.994812, 129, 73, 384, 136
-0.994826, 1, 121, 128, 152
-0.994834, 403, 57, 418, 120
-0.994835, 167, 249, 182, 312
-0.994845, 369, 113, 496, 176
-0.994846, 161, 313, 416, 375
-0.994846, 469, 81, 500, 208
-0.994904, 129, 161, 384, 224
-0.994914, 331, 225, 346, 288
-0.994983, 459, 41, 474, 104
-0.995004, 361, 129, 424, 375
-0.995054, 257, 265, 500, 328
-0.995076, 425, 161, 456, 288
-0.995088, 277, 273, 292, 336
-0.995169, 345, 257, 360, 320
-0.995174, 343, 289, 358, 352
-0.995202, 1, 17, 32, 144
-0.995215, 269, 281, 284, 344
-0.995218, 393, 225, 408, 288
-0.995227, 97, 69, 224, 100
-0.995235, 383, 201, 398, 264
-0.995259, 145, 105, 160, 168
-0.995272, 319, 225, 334, 288
-0.995278, 33, 25, 288, 88
-0.995296, 403, 33, 418, 96
-0.9953, 225, 233, 480, 296
-0.995304, 129, 233, 384, 296
-0.995305, 367, 281, 382, 344
-0.995318, 337, 81, 464, 112
-0.99532, 97, 57, 112, 120
-0.995329, 359, 273, 374, 336
-0.995335, 293, 145, 324, 272
-0.995339, 353, 93, 480, 124
-0.995343, 257, 301, 384, 332
-0.995399, 261, 153, 276, 216
-0.995403, 261, 273, 276, 336
-0.995414, 369, 1, 496, 32
-0.995419, 389, 41, 404, 104
-0.995433, 49, 109, 176, 140
-0.995454, 125, 113, 140, 176
-0.99547, 133, 145, 164, 272
-0.995483, 149, 145, 180, 272
-0.995488, 157, 113, 172, 176
-0.99549, 413, 249, 428, 312
-0.995498, 369, 41, 496, 72
-0.995501, 101, 97, 116, 160
-0.995505, 467, 33, 482, 96
-0.995533, 177, 305, 304, 336
-0.995536, 149, 129, 164, 192
-0.995543, 257, 81, 500, 144
-0.995572, 177, 129, 208, 256
-0.995583, 49, 125, 176, 156
-0.995585, 97, 209, 352, 272
-0.99559, 411, 201, 426, 264
-0.995616, 1, 241, 32, 368
-0.995635, 241, 289, 368, 320
-0.995637, 305, 129, 432, 192
-0.995656, 369, 153, 496, 216
-0.995657, 1, 241, 256, 304
-0.995661, 305, 193, 336, 320
-0.995672, 241, 321, 368, 352
-0.995682, 395, 65, 410, 128
-0.995717, 383, 25, 398, 88
-0.99573, 49, 77, 176, 108
-0.995731, 1, 177, 500, 240
-0.99574, 119, 97, 134, 160
-0.995743, 449, 65, 464, 128
-0.995758, 475, 57, 490, 120
-0.995797, 419, 225, 434, 288
-0.995799, 95, 225, 110, 288
-0.995808, 479, 25, 494, 88
-0.995816, 173, 225, 204, 352
-0.995844, 439, 1, 454, 64
-0.995851, 129, 49, 384, 112
-0.995865, 295, 313, 310, 375
-0.995876, 309, 33, 340, 160
-0.995879, 177, 281, 304, 312
-0.995883, 287, 305, 302, 368
-0.995892, 113, 129, 240, 160
-0.995893, 429, 217, 444, 280
-0.995903, 453, 33, 468, 96
-0.995946, 179, 49, 194, 112
-0.995952, 33, 129, 64, 256
-0.995962, 1, 265, 500, 328
-0.995986, 97, 53, 224, 84
-0.995996, 17, 89, 144, 120
-0.996, 431, 33, 446, 96
-0.996014, 109, 49, 124, 112
-0.996017, 109, 73, 124, 136
-0.996018, 305, 217, 432, 248
-0.996023, 485, 1, 500, 64
-0.996025, 417, 97, 480, 352
-0.996029, 137, 121, 152, 184
-0.996048, 75, 49, 90, 112
-0.996083, 419, 57, 434, 120
-0.996086, 399, 233, 414, 296
-0.996101, 17, 65, 144, 96
-0.996104, 289, 269, 416, 300
-0.996115, 389, 193, 404, 256
-0.996119, 353, 205, 480, 236
-0.996119, 1, 249, 128, 280
-0.99613, 321, 293, 448, 324
-0.996142, 71, 97, 86, 160
-0.996147, 411, 81, 426, 144
-0.99616, 145, 217, 272, 248
-0.99617, 459, 1, 474, 64
-0.99617, 443, 65, 458, 128
-0.996174, 81, 213, 208, 244
-0.996175, 257, 209, 384, 272
-0.996193, 319, 289, 334, 352
-0.996194, 407, 241, 422, 304
-0.996203, 421, 201, 436, 264
-0.996207, 383, 57, 398, 120
-0.996212, 81, 21, 208, 52
-0.996218, 183, 209, 198, 272
-0.99623, 85, 41, 100, 104
-0.996232, 337, 305, 352, 368
-0.996243, 419, 273, 434, 336
-0.996252, 225, 177, 480, 240
-0.996253, 109, 17, 124, 80
-0.99626, 403, 81, 418, 144
-0.996263, 91, 65, 106, 128
-0.996268, 95, 89, 110, 152
-0.996274, 117, 1, 132, 64
-0.996276, 285, 281, 300, 344
-0.99628, 97, 81, 224, 112
-0.996285, 433, 193, 496, 320
-0.996292, 17, 233, 144, 264
-0.996323, 251, 153, 266, 216
-0.996325, 67, 73, 82, 136
-0.996334, 267, 257, 282, 320
-0.996337, 413, 225, 428, 288
-0.99634, 305, 33, 432, 64
-0.996346, 97, 1, 224, 32
-0.996361, 161, 173, 288, 204
-0.996372, 321, 249, 448, 280
-0.996378, 151, 81, 166, 144
-0.99638, 225, 161, 352, 192
-0.99638, 305, 53, 432, 84
-0.996384, 417, 97, 448, 224
-0.996388, 225, 145, 480, 208
-0.99639, 387, 225, 402, 288
-0.996404, 419, 33, 434, 96
-0.996414, 1, 105, 500, 168
-0.996419, 373, 289, 388, 352
-0.996429, 179, 177, 194, 240
-0.996439, 173, 57, 188, 120
-0.996442, 257, 9, 500, 72
-0.996443, 17, 221, 144, 252
-0.996451, 145, 69, 272, 100
-0.996464, 465, 9, 480, 72
-0.996464, 13, 241, 44, 368
-0.996477, 477, 1, 492, 64
-0.996479, 105, 1, 136, 256
-0.996485, 157, 89, 172, 152
-0.996489, 21, 161, 52, 288
-0.996494, 345, 81, 376, 208
-0.996502, 321, 249, 336, 312
-0.996505, 17, 13, 144, 44
-0.996509, 395, 201, 410, 264
-0.996515, 129, 117, 256, 148
-0.996531, 397, 1, 412, 64
-0.99655, 97, 41, 224, 72
-0.996555, 321, 177, 448, 240
-0.996588, 145, 313, 272, 375
-0.996591, 129, 25, 384, 88
-0.996606, 377, 57, 392, 120
-0.996606, 173, 217, 188, 280
-0.996621, 131, 121, 146, 184
-0.996626, 305, 65, 432, 96
-0.99663, 189, 65, 204, 128
-0.996657, 483, 49, 498, 112
-0.996665, 93, 161, 124, 288
-0.996666, 437, 25, 452, 88
-0.996672, 353, 289, 368, 352
-0.996676, 377, 1, 408, 256
-0.996678, 17, 33, 144, 64
-0.996694, 161, 193, 192, 320
-0.996699, 67, 121, 82, 184
-0.996704, 241, 253, 368, 284
-0.996715, 353, 281, 480, 312
-0.996718, 177, 293, 304, 324
-0.996719, 65, 209, 80, 272
-0.996721, 469, 65, 484, 128
-0.996725, 321, 309, 448, 340
-0.99673, 89, 217, 104, 280
-0.996737, 129, 93, 256, 124
-0.996751, 123, 1, 138, 64
-0.996751, 455, 65, 470, 128
-0.996752, 1, 9, 500, 72
-0.99676, 371, 73, 386, 136
-0.996765, 273, 333, 400, 364
-0.996765, 413, 33, 428, 96
-0.996765, 177, 161, 304, 192
-0.996766, 289, 77, 416, 108
-0.996767, 397, 257, 412, 320
-0.996771, 369, 29, 496, 60
-0.996776, 191, 177, 206, 240
-0.996785, 175, 1, 190, 64
-0.996792, 265, 193, 296, 320
-0.996792, 321, 1, 448, 32
-0.996799, 369, 13, 496, 44
-0.996803, 17, 1, 144, 32
-0.996807, 49, 53, 176, 84
-0.996811, 95, 1, 110, 64
-0.996815, 81, 225, 208, 256
-0.996833, 21, 113, 52, 240
-0.99684, 375, 201, 390, 264
-0.996851, 403, 209, 418, 272
-0.996855, 279, 297, 294, 360
-0.99686, 209, 33, 240, 160
-0.996861, 425, 57, 440, 120
-0.996862, 129, 1, 144, 64
-0.996865, 11, 129, 26, 192
-0.996886, 171, 33, 186, 96
-0.996888, 389, 17, 404, 80
-0.996889, 241, 49, 368, 80
-0.99689, 55, 97, 70, 160
-0.996892, 377, 33, 392, 96
-0.996911, 85, 81, 100, 144
-0.996912, 429, 241, 444, 304
-0.996926, 1, 137, 16, 200
-0.996934, 143, 121, 158, 152
-0.99694, 337, 269, 464, 300
-0.996941, 107, 113, 122, 176
-0.996946, 431, 57, 446, 120
-0.996964, 241, 269, 368, 300
-0.996974, 241, 241, 272, 368
-0.996988, 289, 281, 416, 312
-0.997, 81, 93, 208, 124
-0.997003, 33, 273, 288, 336
-0.997047, 145, 149, 272, 180
-0.997047, 457, 81, 488, 208
-0.997067, 177, 269, 304, 300
-0.997072, 397, 77, 412, 108
-0.997073, 85, 1, 116, 256
-0.997102, 127, 125, 142, 156
-0.997105, 177, 57, 304, 88
-0.997117, 277, 33, 308, 160
-0.99714, 151, 109, 166, 140
-0.997149, 229, 33, 260, 160
-0.997151, 369, 237, 496, 268
-0.99717, 305, 205, 432, 236
-0.99722, 437, 225, 468, 352
-0.997225, 411, 81, 426, 112
-0.99723, 1, 105, 128, 136
-0.997233, 353, 225, 480, 256
-0.997251, 469, 1, 500, 256
-0.997257, 209, 237, 336, 268
-0.997261, 65, 141, 192, 172
-0.997263, 161, 21, 288, 52
-0.997273, 177, 317, 304, 348
-0.997279, 129, 105, 256, 136
-0.99728, 289, 321, 416, 352
-0.997287, 1, 193, 256, 256
-0.997292, 447, 37, 462, 68
-0.997297, 405, 69, 420, 100
-0.997302, 1, 201, 500, 264
-0.997347, 115, 113, 130, 144
-0.997351, 441, 53, 456, 84
-0.997353, 149, 65, 180, 320
-0.997371, 305, 129, 336, 256
-0.997378, 193, 149, 320, 180
-0.997381, 193, 345, 320, 375
-0.997388, 1, 289, 500, 352
-0.997403, 269, 285, 284, 316
-0.997414, 289, 101, 416, 132
-0.997421, 397, 49, 412, 80
-0.997425, 241, 17, 272, 144
-0.997432, 273, 233, 400, 264
-0.997436, 457, 49, 472, 80
-0.997439, 321, 13, 448, 44
-0.997439, 1, 129, 500, 192
-0.997445, 321, 253, 336, 284
-0.997459, 341, 305, 356, 336
-0.99746, 161, 1, 192, 256
-0.997461, 481, 53, 496, 84
-0.997463, 1, 77, 128, 108
-0.997467, 453, 1, 484, 256
-0.997479, 337, 269, 352, 300
-0.997484, 277, 269, 292, 300
-0.997495, 393, 1, 424, 256
-0.997497, 145, 205, 272, 236
-0.99751, 391, 225, 406, 256
-0.997516, 453, 33, 468, 64
-0.997521, 441, 37, 456, 68
-0.997522, 137, 125, 152, 156
-0.997523, 405, 81, 420, 112
-0.997523, 221, 193, 252, 320
-0.997529, 389, 53, 404, 84
-0.99753, 1, 209, 128, 240
-0.997539, 137, 129, 168, 375
-0.99754, 1, 133, 128, 164
-0.997549, 261, 33, 292, 160
-0.99755, 371, 293, 386, 324
-0.997556, 289, 89, 416, 120
-0.997565, 451, 21, 466, 52
-0.997566, 65, 237, 192, 268
-0.997571, 381, 69, 396, 100
-0.997584, 399, 65, 414, 96
-0.997588, 393, 37, 408, 68
-0.997597, 145, 37, 272, 68
-0.997604, 151, 133, 166, 164
-0.997608, 341, 321, 356, 352
-0.997611, 419, 77, 434, 108
-0.997617, 209, 65, 240, 320
-0.997622, 411, 261, 426, 292
-0.997622, 393, 65, 408, 96
-0.997632, 427, 77, 442, 108
-0.99764, 361, 297, 376, 328
-0.997687, 425, 1, 456, 256
-0.997689, 161, 1, 416, 64
-0.99769, 259, 273, 274, 304
-0.997693, 415, 65, 430, 96
-0.997696, 425, 213, 440, 244
-0.997697, 437, 69, 452, 100
-0.997698, 329, 177, 360, 304
-0.997706, 351, 265, 366, 296
-0.997708, 425, 129, 488, 256
-0.997712, 287, 309, 302, 340
-0.997713, 121, 125, 136, 156
-0.997722, 329, 241, 344, 272
-0.997723, 327, 273, 342, 304
-0.997727, 419, 205, 434, 236
-0.997731, 153, 97, 168, 128
-0.997737, 331, 257, 346, 288
-0.997737, 209, 133, 336, 164
-0.997758, 113, 165, 240, 196
-0.997761, 471, 41, 486, 72
-0.997775, 441, 21, 456, 52
-0.997782, 193, 41, 320, 72
-0.997785, 339, 249, 354, 280
-0.9978, 399, 241, 414, 272
-0.997802, 345, 285, 360, 316
-0.997805, 413, 1, 444, 256
-0.997806, 345, 257, 360, 288
-0.99781, 369, 249, 496, 280
-0.997814, 277, 297, 292, 328
-0.997817, 441, 1, 472, 256
-0.997829, 177, 1, 208, 256
-0.99783, 451, 65, 466, 96
-0.997833, 325, 225, 340, 256
-0.997833, 415, 225, 430, 256
-0.997839, 193, 113, 448, 176
-0.997842, 121, 97, 152, 352
-0.997844, 481, 41, 496, 72
-0.997847, 379, 201, 394, 232
-0.997849, 145, 81, 272, 112
-0.997849, 369, 193, 496, 224
-0.997852, 119, 21, 134, 52
-0.997855, 209, 173, 336, 204
-0.997855, 415, 237, 430, 268
-0.997859, 403, 53, 418, 84
-0.997861, 447, 49, 462, 80
-0.997871, 241, 145, 368, 176
-0.997872, 177, 329, 304, 360
-0.997875, 161, 185, 288, 216
-0.997907, 365, 281, 380, 312
-0.997911, 383, 57, 398, 88
-0.997918, 49, 153, 176, 184
-0.997922, 417, 269, 432, 300
-0.997926, 403, 41, 418, 72
-0.99793, 373, 77, 388, 108
-0.997934, 193, 225, 320, 256
-0.997936, 315, 233, 330, 264
-0.997943, 1, 45, 128, 76
-0.997944, 403, 273, 418, 304
-0.997949, 293, 325, 308, 356
-0.997951, 113, 125, 128, 156
-0.997953, 257, 161, 272, 192
-0.997962, 113, 273, 240, 304
-0.997963, 165, 261, 180, 292
-0.99797, 77, 97, 108, 352
-0.99797, 157, 121, 172, 152
-0.997975, 475, 61, 490, 92
-0.997981, 161, 137, 288, 168
-0.997982, 165, 249, 180, 280
-0.997985, 461, 37, 476, 68
-0.99799, 145, 109, 160, 140
-0.997991, 385, 217, 400, 248
-0.997994, 119, 1, 134, 32
-0.997997, 57, 65, 88, 320
-0.997997, 175, 217, 190, 248
-0.998, 69, 1, 100, 256
-0.998002, 377, 297, 392, 328
-0.998006, 209, 105, 336, 136
-0.998008, 431, 61, 446, 92
-0.99801, 391, 201, 406, 232
-0.998011, 97, 89, 112, 120
-0.998012, 171, 261, 186, 292
-0.998018, 387, 69, 402, 100
-0.998029, 179, 77, 194, 108
-0.998036, 177, 257, 304, 288
-0.998043, 447, 81, 462, 112
-0.998056, 177, 117, 304, 148
-0.998056, 103, 117, 118, 148
-0.998068, 99, 61, 114, 92
-0.998069, 303, 337, 318, 368
-0.998075, 451, 1, 466, 32
-0.998078, 189, 1, 220, 256
-0.998078, 155, 233, 170, 264
-0.998078, 399, 89, 414, 120
-0.99808, 367, 305, 382, 336
-0.998081, 405, 253, 420, 284
-0.998088, 111, 93, 126, 124
-0.998089, 409, 201, 424, 232
-0.998091, 111, 57, 126, 88
-0.998098, 379, 81, 394, 112
-0.998113, 431, 221, 446, 252
-0.998116, 145, 9, 272, 40
-0.99812, 387, 41, 402, 72
-0.99812, 77, 61, 92, 92
-0.998122, 457, 1, 472, 32
-0.998125, 355, 297, 370, 328
-0.998128, 161, 97, 192, 352
-0.998132, 409, 281, 424, 312
-0.998132, 425, 281, 440, 312
-0.998132, 177, 61, 192, 92
-0.998135, 193, 65, 208, 96
-0.998136, 405, 93, 420, 124
-0.998141, 305, 193, 432, 224
-0.998142, 279, 309, 294, 340
-0.998152, 1, 153, 500, 216
-0.998164, 97, 233, 112, 264
-0.998167, 393, 97, 424, 352
-0.998169, 1, 313, 256, 375
-0.998175, 97, 37, 112, 68
-0.998177, 145, 229, 272, 260
-0.998179, 415, 93, 430, 124
-0.998181, 129, 13, 144, 44
-0.998185, 289, 113, 416, 144
-0.998191, 337, 105, 464, 136
-0.998201, 265, 269, 280, 300
-0.998203, 369, 293, 496, 324
-0.998206, 435, 41, 450, 72
-0.998208, 331, 289, 346, 320
-0.998214, 335, 233, 350, 264
-0.998219, 119, 37, 134, 68
-0.998227, 409, 57, 424, 88
-0.998228, 459, 25, 474, 56
-0.99823, 389, 85, 404, 116
-0.998231, 247, 165, 262, 196
-0.998231, 99, 73, 114, 104
-0.998238, 437, 81, 452, 112
-0.998242, 155, 85, 170, 116
-0.998242, 175, 233, 190, 264
-0.998275, 257, 65, 384, 96
-0.998282, 241, 117, 368, 148
-0.998288, 65, 165, 192, 196
-0.998294, 37, 65, 68, 320
-0.998299, 65, 201, 192, 232
-0.998324, 1, 313, 500, 375
-0.998385, 113, 261, 240, 292
-0.998397, 273, 345, 400, 375
-0.9984, 365, 305, 396, 320
-0.998401, 421, 73, 452, 88
-0.998402, 81, 85, 112, 100
-0.998402, 289, 341, 320, 356
-0.998402, 393, 201, 424, 216
-0.998404, 405, 239, 436, 254
-0.998404, 289, 333, 320, 348
-0.998405, 425, 43, 456, 58
-0.998405, 129, 7, 160, 22
-0.998405, 101, 59, 132, 74
-0.998405, 109, 1, 140, 16
-0.998406, 261, 275, 292, 290
-0.998408, 365, 207, 396, 222
-0.998409, 105, 103, 136, 118
-0.998409, 381, 231, 412, 246
-0.99841, 341, 305, 372, 320
-0.998412, 417, 235, 448, 250
-0.998414, 389, 73, 420, 88
-0.998415, 325, 331, 356, 346
-0.998415, 425, 53, 456, 68
-0.998415, 429, 25, 460, 40
-0.998417, 377, 223, 408, 238
-0.998419, 329, 315, 360, 330
-0.998419, 117, 1, 148, 256
-0.99842, 449, 11, 480, 26
-0.99842, 381, 49, 412, 64
-0.998422, 93, 123, 124, 138
-0.998422, 97, 45, 128, 60
-0.998423, 97, 79, 128, 94
-0.998423, 265, 301, 296, 316
-0.998423, 401, 231, 432, 246
-0.998424, 381, 85, 412, 100
-0.998425, 325, 291, 356, 306
-0.998426, 313, 237, 344, 252
-0.998427, 437, 33, 468, 48
-0.998427, 449, 23, 480, 38
-0.998427, 345, 275, 376, 290
-0.998429, 253, 287, 284, 302
-0.998429, 249, 179, 280, 194
-0.99843, 417, 79, 448, 94
-0.998431, 469, 71, 500, 86
-0.998431, 329, 307, 360, 322
-0.998432, 417, 87, 448, 102
-0.998433, 365, 293, 396, 308
-0.998434, 401, 267, 432, 282
-0.998434, 377, 79, 408, 94
-0.998435, 149, 137, 180, 152
-0.998438, 413, 215, 444, 230
-0.998438, 341, 269, 372, 284
-0.998439, 449, 51, 480, 66
-0.998441, 101, 93, 132, 108
-0.998442, 89, 125, 152, 140
-0.998442, 73, 75, 104, 90
-0.998442, 433, 59, 464, 74
-0.998443, 405, 275, 436, 290
-0.998444, 281, 323, 312, 338
-0.998445, 457, 1, 488, 16
-0.998445, 253, 281, 284, 296
-0.998445, 405, 61, 436, 76
-0.998445, 453, 57, 484, 72
-0.998446, 393, 255, 424, 270
-0.998447, 181, 63, 212, 78
-0.998447, 397, 261, 428, 276
-0.998449, 389, 243, 420, 258
-0.998449, 245, 165, 276, 180
-0.99845, 433, 69, 464, 84
-0.998451, 409, 251, 440, 266
-0.998451, 369, 71, 432, 86
-0.998452, 449, 81, 480, 96
-0.998452, 321, 285, 352, 300
-0.998452, 421, 67, 452, 82
-0.998452, 137, 143, 168, 158
-0.998453, 365, 311, 396, 326
-0.998455, 109, 119, 140, 134
-0.998455, 325, 257, 356, 272
-0.998456, 437, 53, 468, 68
-0.998456, 209, 213, 336, 244
-0.998456, 197, 129, 228, 375
-0.998457, 449, 17, 480, 32
-0.998457, 233, 171, 264, 186
-0.998457, 325, 251, 356, 266
-0.998459, 377, 67, 408, 82
-0.998461, 405, 205, 436, 220
-0.998461, 105, 131, 168, 146
-0.998463, 385, 237, 416, 252
-0.998463, 369, 85, 400, 100
-0.998464, 113, 177, 240, 208
-0.998465, 417, 221, 448, 236
-0.998465, 377, 65, 440, 80
-0.998466, 385, 95, 416, 110
-0.998468, 409, 281, 440, 296
-0.998468, 409, 77, 472, 92
-0.998469, 449, 29, 480, 44
-0.998469, 461, 39, 492, 54
-0.99847, 221, 65, 252, 320
-0.998471, 421, 229, 452, 244
-0.998471, 393, 53, 424, 68
-0.998472, 393, 83, 456, 98
-0.998473, 437, 17, 468, 32
-0.998473, 189, 71, 220, 86
-0.998474, 377, 33, 408, 48
-0.998474, 105, 125, 136, 140
-0.998475, 125, 121, 156, 136
-0.998476, 385, 43, 416, 58
-0.998478, 377, 203, 408, 218
-0.998478, 261, 269, 292, 284
-0.998478, 441, 39, 472, 54
-0.998479, 49, 273, 176, 336
-0.99848, 145, 119, 176, 134
-0.99848, 313, 255, 344, 270
-0.99848, 273, 313, 304, 328
-0.998482, 393, 89, 456, 104
-0.998483, 385, 61, 416, 76
-0.998484, 329, 279, 360, 294
-0.998486, 321, 271, 352, 286
-0.998486, 337, 301, 400, 316
-0.998488, 369, 81, 432, 96
-0.998489, 265, 287, 296, 302
-0.99849, 369, 201, 432, 216
-0.998491, 385, 47, 448, 62
-0.998492, 445, 71, 476, 86
-0.998493, 329, 263, 360, 278
-0.998494, 365, 299, 396, 314
-0.998496, 453, 63, 484, 78
-0.998497, 73, 91, 136, 106
-0.998497, 137, 137, 168, 152
-0.998498, 317, 265, 348, 280
-0.9985, 377, 213, 440, 228
-0.9985, 349, 281, 380, 296
-0.998503, 369, 89, 432, 104
-0.998508, 57, 85, 120, 100
-0.998508, 377, 241, 440, 256
-0.998509, 289, 125, 416, 156
-0.99851, 433, 77, 464, 92
-0.998512, 117, 137, 148, 152
-0.998512, 461, 47, 492, 62
-0.998512, 325, 321, 356, 336
-0.998514, 113, 119, 176, 134
-0.998516, 409, 71, 472, 86
-0.998521, 409, 67, 440, 82
-0.998522, 425, 39, 488, 54
-0.998524, 445, 45, 476, 60
-0.998524, 377, 57, 440, 72
-0.998524, 405, 73, 436, 88
-0.998525, 73, 119, 136, 134
-0.998527, 33, 189, 160, 220
-0.998527, 313, 231, 344, 246
-0.998531, 113, 245, 240, 276
-0.998534, 105, 131, 136, 146
-0.998537, 137, 33, 168, 288
-0.998537, 433, 23, 496, 38
-0.998537, 409, 63, 472, 78
-0.998539, 433, 45, 496, 60
-0.998539, 129, 131, 160, 146
-0.99854, 393, 95, 456, 110
-0.99854, 313, 271, 376, 286
-0.998541, 401, 283, 464, 298
-0.998545, 313, 279, 376, 294
-0.998547, 397, 89, 428, 104
-0.998548, 129, 137, 192, 152
-0.998548, 417, 51, 480, 66
-0.99855, 369, 219, 432, 234
-0.998551, 457, 75, 488, 90
-0.998551, 105, 109, 168, 124
-0.998551, 97, 97, 128, 352
-0.998553, 385, 39, 448, 54
-0.998555, 349, 299, 380, 314
-0.998559, 365, 1, 396, 256
-0.998559, 73, 79, 136, 94
-0.99856, 385, 229, 448, 244
-0.998561, 137, 15, 200, 30
-0.998562, 81, 1, 144, 16
-0.998564, 153, 267, 216, 282
-0.998564, 73, 71, 136, 86
-0.998565, 97, 103, 160, 118
-0.998565, 313, 305, 376, 320
-0.998566, 369, 1, 432, 16
-0.998568, 209, 175, 272, 190
-0.99857, 329, 287, 392, 302
-0.998571, 1, 149, 128, 180
-0.998571, 105, 137, 168, 152
-0.998572, 369, 99, 432, 114
-0.998573, 389, 79, 420, 94
-0.998573, 369, 287, 432, 302
-0.998573, 241, 167, 304, 182
-0.998574, 433, 17, 496, 32
-0.998574, 129, 127, 192, 142
-0.998576, 401, 33, 464, 48
-0.998581, 401, 57, 464, 72
-0.998581, 353, 211, 416, 226
-0.998583, 405, 81, 436, 96
-0.998583, 377, 73, 408, 88
-0.998584, 17, 117, 80, 132
-0.998584, 393, 235, 456, 250
-0.998584, 389, 213, 420, 228
-0.998586, 73, 101, 136, 116
-0.998586, 393, 67, 424, 82
-0.998587, 105, 143, 168, 158
-0.998588, 305, 255, 368, 270
-0.99859, 329, 311, 392, 326
-0.99859, 361, 45, 424, 60
-0.998591, 353, 53, 416, 68
-0.998592, 49, 59, 112, 74
-0.998592, 161, 21, 224, 36
-0.998592, 113, 97, 176, 112
-0.998593, 49, 221, 112, 236
-0.998593, 433, 83, 496, 98
-0.998594, 1, 135, 64, 150
-0.998595, 377, 33, 440, 48
-0.998595, 73, 59, 136, 74
-0.998596, 409, 45, 472, 60
-0.998598, 153, 261, 216, 276
-0.998598, 377, 25, 440, 40
-0.998599, 145, 7, 208, 22
-0.998599, 137, 121, 200, 136
-0.9986, 433, 69, 496, 84
-0.9986, 409, 5, 472, 20
-0.998601, 49, 205, 112, 220
-0.998601, 345, 77, 408, 92
-0.998601, 57, 231, 120, 246
-0.998601, 377, 207, 440, 222
-0.998601, 237, 129, 268, 375
-0.998602, 73, 65, 136, 80
-0.998602, 161, 273, 224, 288
-0.998604, 33, 177, 160, 208
-0.998604, 305, 261, 368, 276
-0.998604, 113, 83, 176, 98
-0.998605, 81, 135, 144, 150
-0.998605, 9, 111, 72, 126
-0.998605, 409, 27, 472, 42
-0.998606, 361, 277, 424, 292
-0.998606, 361, 39, 424, 54
-0.998607, 345, 59, 408, 74
-0.998608, 441, 1, 456, 128
-0.998609, 297, 321, 360, 336
-0.998611, 297, 237, 360, 252
-0.998612, 105, 11, 168, 26
-0.998613, 369, 11, 432, 26
-0.998613, 49, 215, 112, 230
-0.998613, 385, 277, 448, 292
-0.998613, 313, 299, 376, 314
-0.998613, 121, 263, 184, 278
-0.998616, 433, 75, 496, 90
-0.998616, 81, 109, 144, 124
-0.998617, 117, 127, 148, 142
-0.998617, 49, 125, 112, 140
-0.998617, 33, 85, 96, 100
-0.998618, 337, 71, 400, 86
-0.998618, 145, 61, 208, 76
-0.998619, 273, 47, 336, 62
-0.998619, 21, 65, 52, 320
-0.998619, 49, 79, 112, 94
-0.998619, 385, 249, 448, 264
-0.99862, 49, 91, 112, 106
-0.998621, 185, 71, 248, 86
-0.998621, 377, 293, 440, 308
-0.998622, 345, 65, 408, 80
-0.998622, 297, 329, 360, 344
-0.998624, 145, 77, 208, 92
-0.998624, 137, 125, 168, 140
-0.998625, 425, 33, 488, 48
-0.998625, 345, 31, 408, 46
-0.998625, 401, 289, 464, 304
-0.998626, 353, 295, 416, 310
-0.998627, 185, 63, 248, 78
-0.998627, 145, 67, 208, 82
-0.998628, 337, 281, 400, 296
-0.998628, 409, 13, 472, 28
-0.998629, 193, 69, 320, 100
-0.998629, 425, 89, 488, 104
-0.99863, 121, 1, 184, 16
-0.99863, 297, 245, 360, 260
-0.99863, 97, 301, 224, 332
-0.998631, 329, 265, 392, 280
-0.998632, 297, 49, 360, 64
-0.998632, 57, 113, 120, 128
-0.998632, 57, 237, 120, 252
-0.998632, 241, 289, 304, 304
-0.998634, 305, 293, 368, 308
-0.998634, 321, 129, 352, 375
-0.998642, 209, 89, 336, 120
-0.99866, 9, 97, 40, 352
-0.998679, 209, 29, 336, 60
-0.998691, 225, 185, 352, 216
-0.998717, 365, 97, 396, 352
-0.998764, 245, 1, 276, 256
-0.998835, 327, 225, 342, 352
-0.998866, 397, 33, 412, 160
-0.99887, 449, 1, 464, 128
-0.998871, 253, 129, 284, 375
-0.998898, 185, 97, 216, 352
-0.998978, 435, 33, 450, 160
-0.998986, 95, 65, 110, 192
-0.998994, 459, 1, 474, 128
-0.999023, 413, 97, 444, 352
-0.999039, 409, 1, 424, 128
-0.999044, 377, 97, 408, 352
-0.999046, 109, 97, 140, 352
-0.999057, 409, 209, 424, 336
-0.999059, 9, 1, 40, 256
-0.999064, 341, 241, 356, 368
-0.999088, 383, 17, 398, 144
-0.999102, 441, 49, 456, 176
-0.999103, 73, 65, 88, 192
-0.999107, 153, 97, 168, 224
-0.999114, 485, 1, 500, 128
-0.999122, 173, 161, 188, 288
-0.999122, 265, 129, 296, 375
-0.999122, 101, 49, 116, 176
-0.999138, 417, 177, 432, 304
-0.999139, 107, 1, 122, 128
-0.999141, 469, 1, 484, 128
-0.999152, 317, 241, 332, 368
-0.999153, 179, 1, 194, 128
-0.999155, 481, 49, 496, 176
-0.999159, 89, 65, 104, 192
-0.999164, 113, 49, 128, 176
-0.999168, 395, 209, 410, 336
-0.999171, 101, 97, 116, 224
-0.999185, 147, 81, 162, 208
-0.99919, 421, 17, 436, 144
-0.999196, 423, 209, 438, 336
-0.999198, 83, 65, 98, 192
-0.9992, 475, 33, 490, 160
-0.999202, 95, 17, 110, 144
-0.999203, 277, 97, 308, 352
-0.999206, 403, 33, 418, 160
-0.999212, 121, 1, 136, 128
-0.999215, 173, 97, 204, 352
-0.999217, 79, 113, 94, 240
-0.99922, 391, 33, 406, 160
-0.999221, 265, 33, 296, 288
-0.999224, 415, 33, 430, 160
-0.999225, 457, 49, 472, 176
-0.99923, 169, 1, 184, 128
-0.999236, 157, 49, 172, 176
-0.999238, 71, 161, 86, 288
-0.999239, 127, 113, 142, 240
-0.99924, 183, 161, 198, 288
-0.999246, 403, 209, 418, 336
-0.99925, 333, 225, 348, 352
-0.999263, 429, 33, 444, 160
-0.999266, 349, 65, 380, 320
-0.999269, 185, 1, 200, 128
-0.999271, 389, 177, 404, 304
-0.999286, 277, 241, 292, 368
-0.999292, 135, 129, 150, 256
-0.999299, 59, 97, 74, 224
-0.9993, 203, 1, 218, 128
-0.999326, 421, 65, 436, 192
-0.999329, 417, 225, 432, 352
-0.999337, 193, 49, 208, 176
-0.999337, 355, 241, 370, 368
-0.999338, 67, 97, 82, 224
-0.99934, 377, 1, 392, 128
-0.999341, 61, 145, 76, 272
-0.999349, 197, 1, 212, 128
-0.99935, 319, 193, 334, 320
-0.999353, 173, 209, 188, 336
-0.999357, 297, 129, 328, 375
-0.999358, 117, 97, 132, 224
-0.999358, 211, 161, 226, 288
-0.999358, 55, 49, 70, 176
-0.999359, 89, 17, 104, 144
-0.999363, 141, 97, 156, 224
-0.999367, 83, 193, 98, 320
-0.999368, 177, 49, 192, 176
-0.999369, 379, 225, 394, 352
-0.999371, 449, 49, 464, 176
-0.999371, 349, 241, 364, 368
-0.999373, 163, 81, 178, 208
-0.999375, 33, 1, 48, 128
-0.999382, 263, 241, 278, 368
-0.999384, 95, 113, 110, 240
-0.999384, 429, 209, 444, 336
-0.999384, 301, 33, 332, 288
-0.999393, 77, 17, 92, 144
-0.999393, 269, 241, 284, 368
-0.999398, 179, 209, 194, 336
-0.999399, 85, 113, 100, 240
-0.9994, 107, 49, 122, 176
-0.999406, 83, 1, 98, 128
-0.999407, 241, 145, 256, 272
-0.999408, 93, 209, 108, 336
-0.999409, 201, 241, 216, 368
-0.999412, 77, 193, 92, 320
-0.999415, 311, 225, 326, 352
-0.999417, 409, 49, 424, 176
-0.999418, 65, 33, 80, 160
-0.999427, 9, 65, 24, 192
-0.999437, 313, 1, 344, 256
-0.99944, 137, 1, 152, 128
-0.999454, 371, 49, 386, 176
-0.999455, 171, 65, 186, 192
-0.999458, 157, 1, 172, 128
-0.99946, 253, 129, 268, 256
-0.99946, 235, 145, 250, 272
-0.999467, 233, 1, 264, 256
-0.999468, 123, 65, 138, 192
-0.99947, 243, 97, 258, 224
-0.99947, 17, 49, 32, 176
-0.999473, 401, 161, 416, 288
-0.999477, 151, 33, 166, 160
-0.999477, 51, 1, 66, 128
-0.999478, 45, 65, 60, 192
-0.999479, 407, 161, 422, 288
-0.999481, 39, 49, 54, 176
-0.999482, 163, 1, 178, 128
-0.999485, 261, 145, 276, 272
-0.999494, 333, 177, 348, 304
-0.999494, 165, 209, 180, 336
-0.999504, 357, 49, 372, 176
-0.999505, 463, 49, 478, 176
-0.999507, 221, 145, 236, 272
-0.99951, 431, 81, 446, 208
-0.999512, 415, 81, 430, 208
-0.999513, 469, 65, 484, 192
-0.999515, 41, 1, 56, 128
-0.999516, 365, 225, 380, 352
-0.999516, 231, 97, 246, 224
-0.999518, 205, 161, 220, 288
-0.999521, 199, 49, 214, 176
-0.999522, 3, 65, 18, 192
-0.999525, 337, 97, 368, 352
-0.999527, 23, 1, 38, 128
-0.999528, 25, 49, 40, 176
-0.999528, 295, 113, 310, 240
-0.999533, 131, 1, 146, 128
-0.999533, 247, 145, 262, 272
-0.999534, 3, 113, 18, 240
-0.999536, 53, 145, 68, 272
-0.999584, 289, 1, 320, 256
-0.999606, 319, 231, 334, 246
-0.999606, 411, 203, 426, 218
-0.999606, 415, 97, 430, 112
-0.999606, 97, 91, 112, 106
-0.999607, 383, 223, 398, 238
-0.999607, 401, 39, 416, 54
-0.999608, 379, 301, 394, 316
-0.999609, 175, 219, 190, 234
-0.999609, 333, 335, 348, 350
-0.99961, 127, 123, 142, 138
-0.99961, 449, 1, 464, 16
-0.999611, 437, 97, 468, 352
-0.999611, 403, 83, 418, 98
-0.999611, 113, 117, 128, 132
-0.999611, 345, 265, 360, 280
-0.999611, 259, 171, 274, 186
-0.999611, 127, 21, 142, 36
-0.999611, 403, 279, 418, 294
-0.999612, 151, 109, 166, 124
-0.999614, 445, 61, 460, 76
-0.999614, 479, 59, 494, 74
-0.999615, 473, 47, 488, 62
-0.999615, 387, 229, 402, 244
-0.999615, 123, 31, 138, 46
-0.999616, 311, 237, 326, 252
-0.999616, 155, 133, 170, 148
-0.999617, 327, 331, 342, 346
-0.999617, 341, 315, 356, 330
-0.999618, 441, 83, 456, 98
-0.999618, 197, 15, 212, 30
-0.999619, 471, 37, 486, 52
-0.999619, 407, 213, 422, 228
-0.999619, 335, 235, 350, 250
-0.99962, 479, 45, 494, 60
-0.99962, 413, 61, 428, 76
-0.99962, 459, 41, 474, 56
-0.999621, 105, 127, 120, 142
-0.999621, 391, 63, 406, 78
-0.999621, 437, 47, 452, 62
-0.999622, 409, 287, 424, 302
-0.999622, 407, 55, 422, 70
-0.999623, 391, 37, 406, 52
-0.999623, 455, 59, 470, 74
-0.999625, 129, 29, 144, 44
-0.999626, 341, 305, 356, 320
-0.999626, 417, 207, 432, 222
-0.999627, 389, 213, 404, 228
-0.999627, 389, 91, 404, 106
-0.999628, 439, 53, 454, 68
-0.999628, 407, 47, 422, 62
-0.99963, 429, 283, 444, 298
-0.999631, 119, 23, 134, 38
-0.999631, 145, 19, 160, 34
-0.999631, 413, 251, 428, 266
-0.999632, 451, 85, 466, 100
-0.999633, 191, 69, 206, 84
-0.999634, 421, 67, 436, 82
-0.999635, 425, 87, 440, 102
-0.999635, 459, 15, 474, 30
-0.999637, 319, 251, 334, 266
-0.999637, 369, 293, 384, 308
-0.999637, 477, 67, 492, 82
-0.99964, 455, 71, 470, 86
-0.99964, 277, 281, 292, 296
-0.99964, 181, 217, 196, 232
-0.99964, 455, 7, 470, 22
-0.999641, 451, 21, 466, 36
-0.999643, 375, 83, 390, 98
-0.999643, 393, 75, 408, 90
-0.999643, 333, 267, 348, 282
-0.999644, 129, 137, 144, 152
-0.999644, 461, 5, 476, 20
-0.999645, 149, 141, 164, 156
-0.999645, 135, 125, 150, 140
-0.999645, 449, 75, 464, 90
-0.999645, 449, 9, 464, 24
-0.999646, 397, 55, 412, 70
-0.999646, 407, 61, 422, 76
-0.999647, 143, 119, 158, 134
-0.99965, 113, 131, 128, 146
-0.999654, 259, 279, 274, 294
-0.999654, 439, 59, 454, 74
-0.999654, 403, 69, 418, 84
-0.999655, 341, 321, 356, 336
-0.999655, 439, 35, 454, 50
-0.999657, 401, 45, 416, 60
-0.999658, 367, 309, 382, 324
-0.999658, 331, 261, 346, 276
-0.999658, 165, 275, 180, 290
-0.999659, 399, 89, 414, 104
-0.999659, 455, 79, 470, 94
-0.99966, 463, 75, 478, 90
-0.999661, 145, 125, 160, 140
-0.999661, 469, 65, 484, 80
-0.999662, 413, 67, 428, 82
-0.999662, 149, 119, 164, 134
-0.999664, 383, 85, 398, 100
-0.999665, 385, 51, 400, 66
-0.999665, 397, 65, 412, 80
-0.999669, 451, 15, 466, 30
-0.999671, 357, 297, 372, 312
-0.999671, 419, 81, 434, 96
-0.999672, 151, 239, 166, 254
-0.999672, 287, 309, 302, 324
-0.999673, 185, 211, 200, 226
-0.999674, 267, 287, 282, 302
-0.999675, 453, 43, 468, 58
-0.999675, 439, 41, 454, 56
-0.999676, 409, 87, 424, 102
-0.999677, 395, 43, 410, 58
-0.999677, 425, 77, 440, 92
-0.999678, 461, 51, 476, 66
-0.99968, 465, 41, 480, 56
-0.999682, 161, 229, 176, 244
-0.999682, 469, 75, 484, 90
-0.999682, 409, 81, 424, 96
-0.999687, 449, 31, 464, 46
-0.999689, 383, 67, 398, 82
-0.99969, 447, 55, 462, 70
-0.99969, 405, 75, 420, 90
-0.999694, 327, 227, 342, 242
-0.999697, 483, 53, 498, 68
-0.999699, 395, 49, 410, 64
-0.999706, 155, 233, 170, 248
-0.999714, 397, 81, 412, 96
-0.999715, 123, 129, 138, 144
-0.999727, 415, 91, 430, 106
-0.999732, 389, 57, 404, 72
-0.999732, 425, 97, 456, 352
-0.999739, 405, 93, 420, 108
-0.999741, 447, 37, 462, 52
-0.999745, 129, 129, 144, 144
-0.999753, 333, 1, 364, 256
-0.999866, 309, 129, 340, 375
-1.00008, 1, 297, 128, 360
-1.0001, 277, 1, 308, 256
-1.00048, 449, 97, 480, 352
-1.00051, 461, 97, 492, 352
-1.0014, 1, 265, 128, 328
-1.0014, 49, 297, 176, 360
-1.00358, 433, 241, 496, 368
-1.00422, 113, 241, 176, 368
-1.0086, 33, 241, 96, 368
