1965
-0.361076, 1, 1, 500, 375
-0.369952, 1, 129, 500, 375
-0.413075, 1, 1, 500, 256
-0.421491, 257, 1, 500, 375
-0.555639, 225, 129, 480, 375
-0.566805, 161, 1, 416, 375
-0.632269, 1, 1, 256, 375
-0.707459, 257, 1, 500, 256
-0.709845, 129, 97, 384, 352
-0.791127, 1, 33, 256, 288
-0.814282, 1, 129, 256, 375
-0.848518, 161, 1, 416, 256
-0.853888, 353, 1, 480, 375
-0.863834, 273, 1, 400, 375
-0.869132, 273, 129, 400, 375
-0.872299, 321, 129, 448, 375
-0.875965, 369, 129, 496, 375
-0.876221, 321, 1, 448, 256
-0.878731, 209, 97, 336, 352
-0.88306, 17, 1, 144, 375
-0.885069, 273, 33, 400, 288
-0.892196, 1, 225, 500, 352
-0.896656, 1, 177, 500, 304
-0.897182, 1, 129, 500, 256
-0.903534, 17, 33, 144, 288
-0.907156, 209, 1, 336, 375
-0.907227, 369, 1, 496, 256
-0.907647, 257, 193, 500, 320
-0.909534, 65, 129, 192, 375
-0.910053, 1, 65, 500, 192
-0.915042, 129, 241, 384, 368
-0.917425, 113, 97, 240, 352
-0.919445, 1, 1, 500, 128
-0.920238, 161, 1, 288, 375
-0.920592, 161, 129, 288, 375
-0.923437, 97, 1, 224, 375
-0.928984, 225, 145, 480, 272
-0.929829, 257, 241, 500, 368
-0.931673, 321, 193, 448, 320
-0.931739, 1, 129, 128, 375
-0.932296, 97, 193, 352, 320
-0.934836, 65, 33, 192, 288
-0.937643, 225, 241, 352, 368
-0.938524, 161, 65, 416, 192
-0.941265, 233, 241, 296, 368
-0.942273, 193, 193, 320, 320
-0.942703, 177, 241, 304, 368
-0.94343, 257, 145, 384, 272
-0.943452, 257, 17, 500, 144
-0.944362, 65, 49, 320, 176
-0.94634, 161, 33, 288, 288
-0.946559, 193, 81, 320, 208
-0.946656, 361, 129, 424, 256
-0.947035, 273, 209, 400, 336
-0.947359, 337, 129, 464, 256
-0.947561, 129, 225, 256, 352
-0.947638, 377, 193, 440, 320
-0.947692, 401, 145, 464, 272
-0.948378, 161, 225, 224, 352
-0.948784, 257, 161, 320, 288
-0.948873, 1, 177, 256, 304
-0.949641, 369, 241, 496, 368
-0.949789, 401, 241, 464, 368
-0.94999, 297, 209, 360, 336
-0.950789, 1, 241, 256, 368
-0.951228, 209, 1, 336, 256
-0.953041, 113, 1, 240, 256
-0.954307, 33, 129, 288, 256
-0.955175, 161, 257, 224, 320
-0.955679, 257, 97, 384, 224
-0.95575, 129, 129, 384, 256
-0.955796, 289, 161, 352, 288
-0.955825, 369, 193, 496, 320
-0.956314, 425, 161, 488, 288
-0.956526, 193, 241, 256, 368
-0.95734, 313, 129, 376, 256
-0.957448, 209, 145, 336, 272
-0.958027, 257, 97, 500, 224
-0.958808, 273, 209, 336, 336
-0.959726, 321, 17, 448, 144
-0.960014, 217, 193, 280, 320
-0.960571, 337, 193, 400, 320
-0.960601, 241, 81, 304, 208
-0.962045, 193, 289, 256, 352
-0.962076, 49, 129, 176, 256
-0.962137, 1, 33, 128, 160
-0.962193, 145, 177, 272, 304
-0.962437, 289, 305, 352, 368
-0.962627, 241, 49, 368, 176
-0.964054, 129, 241, 192, 368
-0.964646, 297, 225, 360, 288
-0.964777, 225, 313, 288, 375
-0.964784, 425, 241, 488, 368
-0.964889, 41, 177, 104, 304
-0.965088, 337, 201, 400, 264
-0.965166, 81, 225, 208, 352
-0.965405, 233, 257, 296, 320
-0.965751, 401, 169, 464, 232
-0.966444, 249, 297, 312, 360
-0.966584, 65, 1, 320, 128
-0.967015, 153, 225, 216, 288
-0.967075, 265, 225, 328, 288
-0.967307, 241, 89, 304, 152
-0.967492, 385, 281, 448, 344
-0.967593, 417, 241, 480, 304
-0.967753, 33, 177, 160, 304
-0.967764, 185, 265, 248, 328
-0.96783, 321, 241, 448, 368
-0.968192, 377, 209, 440, 272
-0.968306, 161, 17, 416, 144
-0.968614, 361, 169, 424, 232
-0.968689, 113, 129, 240, 256
-0.968745, 81, 129, 144, 256
-0.968801, 217, 65, 280, 192
-0.969485, 193, 177, 256, 304
-0.969515, 281, 81, 344, 208
-0.969786, 217, 289, 280, 352
-0.969921, 73, 33, 136, 160
-0.970075, 305, 81, 432, 208
-0.970549, 225, 209, 288, 272
-0.9708, 201, 241, 264, 304
-0.970895, 321, 201, 448, 264
-0.971325, 161, 177, 224, 304
-0.971356, 49, 81, 176, 208
-0.971626, 377, 241, 440, 368
-0.971649, 337, 145, 400, 272
-0.971659, 313, 161, 376, 224
-0.971901, 57, 129, 120, 256
-0.971938, 417, 265, 480, 328
-0.972087, 265, 161, 328, 224
-0.972314, 113, 145, 176, 272
-0.972503, 177, 225, 240, 288
-0.97258, 73, 81, 136, 208
-0.972662, 401, 193, 464, 320
-0.973146, 1, 81, 128, 208
-0.973294, 97, 177, 224, 304
-0.973449, 249, 193, 312, 256
-0.973525, 369, 129, 432, 375
-0.973552, 217, 81, 280, 144
-0.973662, 369, 65, 496, 192
-0.973744, 385, 145, 448, 208
-0.97377, 193, 249, 320, 312
-0.974605, 289, 185, 352, 248
-0.974756, 81, 177, 144, 304
-0.975033, 129, 233, 192, 296
-0.975193, 33, 17, 96, 144
-0.975285, 289, 129, 352, 375
-0.975445, 9, 209, 72, 336
-0.975722, 241, 1, 368, 128
-0.975982, 337, 305, 400, 368
-0.975991, 49, 33, 176, 160
-0.976015, 41, 193, 104, 256
-0.976096, 409, 145, 472, 208
-0.976178, 225, 313, 352, 375
-0.97628, 337, 241, 400, 368
-0.976405, 281, 121, 344, 184
-0.976445, 321, 33, 384, 160
-0.976507, 1, 225, 128, 352
-0.976739, 169, 289, 232, 352
-0.976838, 145, 289, 272, 352
-0.976843, 257, 161, 384, 224
-0.976996, 353, 281, 416, 344
-0.977178, 405, 193, 436, 320
-0.977184, 249, 97, 312, 352
-0.977187, 193, 185, 256, 248
-0.977225, 49, 81, 112, 208
-0.9774, 257, 257, 320, 320
-0.977632, 249, 121, 312, 184
-0.977675, 209, 209, 336, 272
-0.977723, 321, 145, 448, 208
-0.977747, 417, 297, 480, 360
-0.977793, 393, 257, 456, 320
-0.977867, 353, 169, 480, 232
-0.978015, 361, 145, 424, 208
-0.978131, 81, 145, 144, 208
-0.978193, 393, 129, 424, 256
-0.978323, 241, 289, 368, 352
-0.97848, 237, 313, 268, 375
-0.978586, 97, 65, 224, 192
-0.978681, 129, 265, 256, 328
-0.978711, 201, 217, 264, 280
-0.978721, 241, 233, 304, 296
-0.978734, 225, 145, 288, 272
-0.97889, 425, 217, 488, 280
-0.978892, 273, 121, 400, 184
-0.978924, 369, 281, 496, 344
-0.978957, 425, 145, 456, 272
-0.978963, 161, 33, 288, 160
-0.978972, 257, 225, 384, 288
-0.978996, 281, 97, 344, 160
-0.979178, 121, 273, 184, 336
-0.979225, 345, 129, 408, 375
-0.979252, 329, 1, 392, 256
-0.979258, 169, 193, 232, 256
-0.979274, 225, 297, 256, 360
-0.979289, 273, 281, 336, 344
-0.979354, 313, 129, 376, 375
-0.979659, 161, 225, 288, 288
-0.979682, 321, 313, 448, 375
-0.979705, 401, 217, 464, 280
-0.979754, 393, 129, 456, 375
-0.979821, 121, 209, 184, 272
-0.979917, 281, 73, 344, 136
-0.979917, 145, 201, 208, 264
-0.979973, 145, 289, 208, 352
-0.980008, 193, 89, 320, 152
-0.980252, 205, 273, 236, 336
-0.980429, 193, 289, 320, 352
-0.980482, 425, 241, 456, 368
-0.980612, 361, 1, 424, 128
-0.980759, 321, 25, 384, 88
-0.980781, 257, 185, 384, 248
-0.980798, 97, 49, 160, 176
-0.980799, 241, 89, 368, 152
-0.980863, 49, 169, 112, 232
-0.98095, 113, 193, 176, 320
-0.980984, 73, 185, 136, 248
-0.981027, 321, 137, 384, 200
-0.981146, 225, 225, 256, 352
-0.981185, 433, 81, 496, 208
-0.981195, 57, 97, 120, 160
-0.981227, 321, 25, 448, 88
-0.981262, 405, 209, 436, 272
-0.981281, 301, 225, 332, 288
-0.981339, 97, 313, 160, 375
-0.981367, 161, 233, 192, 296
-0.981437, 277, 225, 308, 288
-0.981497, 161, 129, 288, 256
-0.981513, 225, 169, 288, 232
-0.981527, 81, 289, 208, 352
-0.981593, 177, 313, 304, 375
-0.981606, 401, 193, 464, 256
-0.98183, 265, 241, 296, 368
-0.981851, 413, 241, 444, 368
-0.98189, 113, 225, 240, 288
-0.981909, 177, 225, 208, 352
-0.982, 193, 121, 320, 184
-0.982084, 345, 121, 408, 184
-0.982127, 177, 185, 304, 248
-0.982135, 9, 49, 72, 176
-0.982151, 137, 145, 200, 272
-0.98223, 217, 105, 280, 168
-0.98223, 41, 305, 104, 368
-0.982233, 121, 297, 184, 360
-0.982316, 81, 57, 144, 120
-0.982338, 113, 177, 176, 240
-0.98238, 49, 1, 112, 256
-0.982449, 289, 257, 352, 320
-0.982641, 81, 209, 144, 272
-0.982872, 401, 97, 464, 224
-0.982898, 413, 129, 444, 256
-0.983023, 321, 1, 384, 375
-0.983045, 425, 193, 488, 256
-0.983061, 205, 241, 236, 368
-0.983102, 17, 41, 144, 104
-0.983106, 317, 161, 348, 288
-0.983117, 305, 161, 336, 288
-0.983129, 341, 193, 372, 320
-0.983188, 321, 289, 448, 352
-0.983234, 201, 313, 264, 375
-0.983262, 41, 225, 104, 352
-0.983276, 189, 209, 220, 336
-0.983312, 25, 217, 88, 280
-0.983332, 273, 97, 304, 224
-0.983411, 297, 209, 328, 336
-0.98345, 269, 89, 300, 152
-0.983477, 289, 33, 352, 288
-0.983485, 425, 257, 456, 320
-0.98353, 281, 161, 312, 288
-0.983658, 193, 257, 224, 320
-0.983677, 189, 225, 220, 288
-0.983711, 369, 305, 432, 368
-0.983738, 201, 161, 264, 224
-0.983747, 161, 225, 192, 352
-0.983761, 401, 1, 464, 375
-0.98389, 265, 305, 296, 368
-0.983905, 209, 265, 272, 328
-0.983951, 393, 1, 456, 256
-0.984005, 41, 241, 104, 304
-0.984036, 201, 129, 264, 256
-0.984145, 369, 17, 496, 144
-0.984175, 393, 305, 456, 368
-0.984176, 333, 129, 364, 256
-0.984181, 65, 225, 128, 352
-0.984187, 433, 129, 496, 192
-0.98421, 409, 177, 440, 240
-0.984222, 153, 313, 216, 375
-0.984244, 369, 241, 496, 304
-0.984293, 337, 81, 400, 208
-0.984308, 1, 233, 64, 296
-0.984328, 273, 33, 336, 160
-0.984469, 313, 81, 376, 144
-0.984685, 73, 33, 136, 288
-0.984766, 209, 153, 336, 216
-0.984811, 137, 193, 200, 320
-0.984906, 81, 249, 208, 312
-0.984943, 241, 57, 368, 120
-0.984972, 81, 121, 144, 184
-0.984993, 305, 169, 432, 232
-0.985035, 269, 177, 300, 304
-0.985076, 409, 289, 440, 352
-0.985087, 369, 217, 496, 280
-0.98509, 113, 193, 240, 256
-0.985136, 313, 305, 376, 368
-0.985201, 73, 313, 136, 375
-0.985233, 313, 81, 376, 208
-0.985262, 57, 145, 120, 208
-0.985271, 281, 297, 312, 360
-0.985297, 257, 249, 384, 312
-0.985361, 281, 241, 312, 368
-0.985428, 177, 257, 208, 320
-0.985464, 281, 201, 312, 264
-0.985505, 33, 177, 160, 240
-0.985531, 353, 1, 416, 256
-0.98555, 249, 65, 280, 192
-0.985594, 237, 289, 268, 352
-0.985622, 273, 313, 400, 375
-0.985652, 417, 129, 480, 375
-0.985668, 49, 89, 176, 152
-0.985721, 65, 209, 192, 272
-0.98573, 381, 129, 412, 256
-0.985741, 213, 241, 244, 304
-0.985756, 261, 241, 292, 304
-0.985776, 225, 129, 288, 192
-0.98579, 113, 97, 176, 224
-0.98587, 129, 313, 256, 375
-0.98589, 313, 113, 376, 176
-0.985942, 369, 193, 496, 256
-0.986104, 337, 177, 400, 240
-0.986163, 293, 129, 324, 256
-0.986172, 353, 193, 384, 320
-0.986178, 345, 1, 408, 375
-0.986191, 417, 145, 448, 208
-0.986211, 97, 161, 224, 224
-0.986245, 297, 1, 360, 375
-0.986309, 257, 193, 288, 256
-0.986321, 313, 201, 376, 264
-0.986336, 65, 33, 128, 96
-0.986345, 329, 209, 360, 336
-0.986406, 153, 129, 216, 375
-0.986432, 213, 193, 244, 320
-0.986523, 349, 201, 380, 264
-0.986561, 41, 281, 104, 344
-0.986644, 377, 233, 440, 296
-0.986792, 261, 81, 292, 208
-0.986924, 269, 185, 300, 248
-0.986926, 329, 273, 392, 336
-0.987019, 105, 153, 168, 216
-0.987067, 349, 113, 380, 240
-0.987101, 1, 129, 64, 256
-0.987126, 289, 145, 352, 208
-0.987219, 49, 97, 112, 352
-0.987328, 433, 153, 496, 216
-0.987332, 385, 1, 448, 128
-0.987419, 369, 145, 496, 208
-0.987484, 229, 209, 260, 272
-0.987568, 225, 65, 288, 320
-0.987589, 317, 305, 348, 368
-0.987599, 201, 129, 264, 375
-0.987737, 253, 81, 284, 144
-0.987761, 313, 57, 376, 120
-0.987805, 377, 1, 440, 375
-0.987828, 277, 265, 308, 328
-0.987921, 33, 305, 160, 368
-0.987924, 105, 49, 136, 176
-0.98795, 65, 233, 128, 296
-0.988038, 245, 193, 276, 320
-0.988044, 385, 281, 416, 344
-0.988114, 177, 225, 208, 288
-0.988129, 145, 153, 208, 216
-0.988174, 217, 273, 248, 336
-0.98818, 249, 305, 280, 368
-0.988193, 81, 81, 144, 144
-0.988199, 329, 33, 360, 96
-0.98823, 309, 209, 340, 336
-0.988237, 409, 33, 472, 160
-0.988262, 1, 113, 128, 176
-0.988326, 337, 313, 368, 375
-0.988346, 385, 17, 448, 80
-0.988346, 249, 1, 312, 375
-0.98835, 401, 145, 432, 208
-0.988358, 49, 153, 176, 216
-0.988431, 105, 49, 136, 112
-0.988507, 237, 241, 268, 368
-0.988571, 253, 241, 284, 368
-0.988614, 305, 281, 368, 344
-0.98864, 165, 257, 196, 320
-0.988641, 321, 241, 448, 304
-0.988651, 81, 289, 144, 352
-0.988658, 97, 1, 224, 128
-0.988682, 393, 121, 456, 184
-0.988719, 369, 169, 400, 232
-0.98875, 213, 209, 244, 272
-0.988756, 321, 121, 448, 184
-0.9888, 1, 89, 128, 152
-0.98884, 321, 225, 352, 288
-0.988902, 1, 129, 128, 256
-0.988903, 253, 217, 284, 280
-0.988907, 25, 1, 88, 256
-0.988941, 365, 193, 396, 320
-0.988965, 425, 233, 456, 296
-0.988989, 289, 161, 320, 224
-0.989007, 1, 201, 64, 264
-0.989135, 1, 225, 128, 288
-0.98914, 193, 297, 256, 328
-0.989183, 241, 81, 272, 144
-0.989245, 345, 17, 408, 80
-0.98926, 173, 201, 204, 264
-0.989279, 333, 17, 364, 144
-0.98928, 113, 97, 176, 352
-0.989328, 9, 273, 72, 336
-0.98936, 465, 241, 496, 368
-0.989366, 325, 137, 356, 200
-0.989392, 445, 209, 476, 336
-0.989399, 209, 17, 272, 144
-0.98945, 173, 177, 204, 304
-0.989477, 17, 201, 144, 264
-0.989515, 437, 153, 468, 216
-0.989518, 93, 33, 124, 160
-0.98958, 105, 97, 136, 224
-0.989585, 17, 1, 80, 375
-0.989608, 337, 205, 400, 236
-0.989609, 225, 209, 480, 272
-0.989615, 369, 129, 400, 256
-0.989655, 229, 249, 260, 312
-0.989669, 233, 345, 296, 375
-0.989681, 105, 57, 168, 120
-0.989705, 321, 265, 448, 328
-0.98977, 397, 185, 428, 248
-0.98982, 33, 33, 96, 96
-0.989823, 113, 137, 240, 200
-0.989834, 73, 1, 136, 375
-0.989835, 433, 105, 496, 168
-0.989854, 93, 129, 124, 256
-0.989888, 69, 81, 100, 208
-0.989904, 321, 113, 352, 240
-0.989931, 217, 329, 280, 360
-0.989939, 277, 153, 308, 216
-0.989945, 89, 129, 152, 375
-0.990008, 337, 201, 368, 264
-0.990037, 101, 177, 132, 240
-0.990042, 417, 193, 448, 320
-0.990044, 17, 281, 144, 344
-0.99007, 105, 81, 168, 144
-0.990111, 157, 209, 188, 272
-0.990126, 305, 313, 336, 375
-0.990183, 177, 129, 240, 375
-0.990189, 257, 237, 320, 268
-0.99019, 277, 129, 308, 192
-0.990201, 361, 201, 392, 264
-0.990237, 369, 305, 496, 368
-0.990271, 373, 281, 404, 344
-0.990327, 1, 313, 64, 375
-0.990335, 425, 201, 456, 264
-0.990358, 393, 193, 424, 320
-0.990376, 201, 253, 264, 284
-0.990403, 105, 137, 136, 200
-0.990406, 201, 233, 232, 296
-0.990415, 241, 305, 304, 336
-0.990422, 381, 129, 412, 192
-0.990432, 273, 345, 336, 375
-0.990478, 121, 121, 184, 184
-0.990479, 1, 257, 128, 320
-0.990503, 193, 285, 256, 316
-0.990553, 425, 1, 488, 375
-0.990578, 213, 145, 244, 272
-0.990586, 301, 185, 332, 248
-0.990592, 57, 73, 120, 136
-0.990624, 25, 209, 56, 336
-0.990634, 169, 237, 232, 268
-0.990636, 189, 193, 220, 256
-0.990657, 49, 113, 176, 176
-0.990658, 161, 261, 224, 292
-0.990671, 81, 81, 112, 208
-0.990673, 377, 213, 440, 244
-0.990704, 213, 297, 244, 360
-0.990724, 217, 1, 280, 375
-0.990733, 217, 293, 280, 324
-0.990736, 289, 229, 352, 260
-0.990747, 385, 241, 416, 368
-0.990764, 289, 97, 416, 160
-0.990774, 433, 289, 464, 352
-0.990779, 225, 85, 288, 116
-0.990781, 165, 289, 196, 352
-0.990788, 201, 309, 264, 340
-0.990804, 81, 57, 208, 120
-0.990812, 417, 33, 480, 288
-0.990831, 9, 105, 72, 168
-0.990843, 45, 177, 76, 304
-0.990852, 201, 129, 264, 192
-0.990857, 249, 329, 312, 360
-0.990865, 289, 309, 352, 340
-0.990913, 385, 285, 448, 316
-0.990913, 241, 209, 272, 272
-0.990947, 413, 257, 444, 320
-0.990952, 257, 249, 320, 280
-0.99096, 241, 33, 368, 96
-0.990961, 305, 65, 432, 128
-0.99099, 249, 317, 312, 348
-0.99103, 417, 269, 480, 300
-0.991092, 161, 65, 288, 128
-0.991096, 153, 285, 216, 316
-0.991119, 265, 297, 328, 328
-0.99113, 289, 333, 352, 364
-0.991133, 409, 173, 472, 204
-0.991136, 189, 161, 220, 288
-0.99115, 417, 257, 480, 288
-0.99116, 325, 65, 356, 192
-0.991196, 457, 161, 488, 288
-0.991211, 281, 105, 344, 136
-0.991243, 289, 225, 320, 288
-0.991245, 321, 161, 384, 192
-0.99126, 369, 257, 432, 320
-0.991262, 177, 289, 208, 352
-0.991263, 145, 221, 208, 252
-0.991264, 361, 197, 424, 228
-0.991275, 81, 313, 208, 375
-0.991276, 257, 225, 320, 256
-0.991282, 425, 169, 456, 232
-0.991291, 241, 109, 304, 140
-0.991303, 217, 81, 248, 208
-0.991316, 289, 321, 352, 352
-0.991352, 153, 301, 216, 332
-0.991363, 161, 145, 288, 208
-0.991375, 169, 97, 232, 224
-0.991381, 137, 177, 200, 240
-0.991398, 417, 281, 480, 312
-0.991401, 201, 241, 264, 272
-0.991405, 89, 241, 152, 368
-0.991406, 105, 25, 168, 88
-0.991408, 209, 341, 272, 372
-0.991427, 337, 313, 400, 344
-0.991429, 393, 149, 456, 180
-0.991433, 465, 113, 496, 240
-0.99145, 233, 245, 296, 276
-0.991461, 1, 33, 64, 288
-0.991475, 225, 229, 288, 260
-0.991495, 193, 89, 256, 152
-0.991511, 81, 145, 144, 176
-0.991531, 369, 113, 496, 176
-0.991536, 401, 193, 464, 224
-0.99156, 281, 117, 344, 148
-0.991571, 425, 245, 488, 276
-0.991573, 389, 305, 420, 368
-0.991576, 193, 81, 256, 208
-0.991578, 161, 313, 224, 344
-0.991587, 201, 177, 232, 304
-0.991591, 117, 145, 148, 272
-0.991607, 361, 185, 424, 216
-0.991617, 361, 145, 424, 176
-0.991632, 361, 173, 424, 204
-0.991633, 233, 257, 296, 288
-0.991634, 241, 9, 368, 72
-0.991634, 9, 81, 72, 144
-0.991641, 397, 281, 428, 344
-0.991648, 241, 209, 304, 240
-0.991672, 49, 329, 112, 360
-0.991672, 89, 177, 120, 240
-0.991672, 453, 297, 484, 360
-0.991688, 273, 161, 336, 192
-0.991691, 257, 161, 288, 288
-0.991724, 161, 273, 224, 304
-0.991731, 129, 237, 192, 268
-0.991756, 385, 297, 448, 328
-0.991778, 241, 197, 304, 228
-0.991782, 417, 213, 480, 244
-0.991784, 149, 241, 180, 368
-0.991785, 417, 229, 480, 260
-0.991793, 145, 249, 208, 280
-0.99186, 169, 225, 232, 256
-0.991867, 193, 289, 224, 352
-0.991872, 241, 121, 304, 152
-0.991903, 429, 193, 460, 320
-0.991906, 241, 289, 304, 320
-0.991929, 313, 309, 376, 340
-0.991947, 89, 321, 152, 352
-0.991953, 425, 297, 488, 328
-0.99196, 241, 97, 304, 128
-0.991972, 241, 33, 304, 160
-0.991996, 217, 57, 280, 120
-0.992001, 281, 89, 344, 120
-0.992013, 57, 181, 120, 212
-0.992014, 49, 185, 80, 248
-0.992042, 73, 89, 136, 120
-0.992045, 81, 17, 208, 80
-0.992053, 169, 213, 232, 244
-0.992054, 337, 145, 400, 176
-0.992054, 193, 177, 256, 208
-0.992058, 217, 209, 280, 240
-0.992062, 201, 221, 264, 252
-0.992079, 1, 137, 128, 200
-0.99208, 209, 97, 272, 128
-0.992086, 41, 1, 104, 375
-0.99209, 121, 169, 152, 232
-0.992093, 353, 129, 384, 192
-0.992093, 257, 185, 320, 216
-0.992096, 193, 329, 256, 360
-0.992115, 129, 289, 384, 352
-0.992116, 257, 173, 320, 204
-0.992117, 41, 193, 104, 224
-0.992124, 229, 177, 260, 240
-0.992127, 41, 121, 104, 184
-0.992143, 129, 313, 384, 375
-0.992156, 185, 273, 248, 304
-0.99219, 257, 261, 320, 292
-0.992192, 281, 129, 344, 160
-0.992193, 313, 113, 376, 144
-0.992197, 129, 297, 192, 328
-0.99221, 121, 281, 184, 312
-0.992211, 233, 145, 264, 272
-0.992219, 377, 81, 440, 208
-0.992223, 401, 313, 464, 344
-0.992231, 393, 273, 456, 304
-0.992232, 313, 101, 376, 132
-0.992241, 213, 169, 244, 232
-0.992256, 129, 257, 384, 320
-0.992263, 281, 177, 344, 208
-0.992265, 289, 149, 352, 180
-0.99227, 33, 217, 96, 248
-0.992275, 345, 133, 408, 164
-0.992278, 129, 233, 384, 296
-0.992288, 177, 201, 240, 232
-0.992289, 257, 241, 500, 304
-0.992295, 145, 209, 208, 240
-0.992299, 249, 161, 312, 192
-0.9923, 377, 193, 408, 320
-0.992308, 25, 229, 88, 260
-0.992327, 201, 201, 232, 264
-0.992329, 217, 281, 280, 312
-0.99233, 225, 265, 480, 328
-0.992335, 329, 65, 360, 128
-0.992337, 361, 317, 424, 348
-0.992341, 149, 289, 180, 352
-0.992343, 225, 177, 288, 208
-0.992356, 337, 301, 400, 332
-0.992358, 185, 189, 248, 220
-0.992358, 161, 89, 416, 152
-0.992364, 297, 217, 360, 248
-0.992369, 97, 181, 160, 212
-0.992372, 385, 177, 416, 240
-0.992383, 225, 317, 288, 348
-0.992393, 113, 313, 176, 344
-0.9924, 105, 341, 168, 372
-0.992408, 121, 221, 184, 252
-0.992413, 105, 313, 136, 375
-0.992418, 297, 197, 360, 228
-0.992421, 281, 257, 344, 288
-0.992425, 357, 177, 388, 240
-0.99243, 209, 125, 272, 156
-0.992445, 261, 345, 292, 375
-0.992447, 81, 77, 144, 108
-0.99245, 57, 341, 120, 372
-0.992462, 329, 217, 392, 248
-0.992462, 425, 161, 488, 192
-0.992463, 249, 105, 280, 168
-0.992488, 81, 265, 144, 328
-0.992491, 65, 197, 128, 228
-0.992505, 417, 149, 480, 180
-0.99251, 273, 209, 336, 240
-0.992512, 337, 193, 400, 224
-0.992516, 329, 25, 392, 56
-0.992523, 441, 249, 472, 312
-0.992532, 41, 37, 104, 68
-0.992546, 241, 345, 272, 375
-0.992564, 73, 145, 104, 272
-0.992567, 377, 161, 440, 192
-0.992575, 73, 213, 136, 244
-0.992577, 229, 293, 260, 324
-0.992584, 401, 245, 464, 276
-0.992586, 213, 89, 244, 152
-0.992595, 33, 317, 96, 348
-0.992597, 313, 321, 376, 352
-0.992613, 329, 337, 392, 368
-0.992626, 225, 313, 480, 375
-0.99263, 161, 185, 416, 248
-0.992635, 249, 141, 312, 172
-0.992637, 293, 289, 324, 352
-0.992638, 361, 301, 424, 332
-0.99266, 397, 241, 428, 368
-0.992662, 61, 185, 92, 248
-0.992678, 1, 65, 128, 128
-0.992682, 25, 129, 88, 375
-0.992707, 57, 161, 88, 288
-0.992712, 81, 201, 112, 264
-0.992714, 61, 97, 92, 160
-0.992724, 297, 257, 328, 320
-0.992737, 253, 329, 284, 360
-0.992739, 69, 297, 100, 360
-0.99275, 353, 201, 384, 232
-0.992764, 97, 113, 224, 176
-0.992776, 301, 225, 332, 256
-0.992787, 101, 105, 132, 168
-0.992796, 229, 309, 260, 340
-0.992801, 237, 65, 268, 192
-0.992803, 321, 1, 448, 64
-0.992812, 297, 17, 360, 144
-0.992814, 201, 293, 232, 324
-0.992859, 281, 221, 312, 252
-0.992865, 245, 301, 276, 332
-0.992869, 405, 213, 436, 244
-0.99288, 257, 185, 500, 248
-0.99289, 249, 257, 280, 320
-0.992895, 69, 241, 100, 368
-0.992903, 209, 277, 240, 308
-0.992907, 225, 329, 256, 360
-0.992911, 277, 297, 308, 328
-0.992915, 169, 217, 200, 248
-0.992923, 77, 169, 108, 232
-0.992942, 93, 73, 124, 136
-0.992947, 105, 1, 168, 128
-0.992958, 409, 41, 472, 104
-0.99296, 157, 233, 188, 264
-0.99296, 425, 273, 456, 304
-0.992967, 321, 313, 352, 344
-0.992998, 229, 81, 260, 144
-0.992999, 241, 321, 272, 352
-0.993002, 81, 313, 112, 375
-0.993013, 213, 241, 244, 272
-0.99302, 257, 249, 288, 280
-0.993021, 257, 85, 288, 116
-0.993046, 425, 237, 456, 268
-0.993058, 393, 285, 424, 316
-0.993058, 145, 97, 272, 160
-0.99308, 193, 229, 224, 260
-0.993085, 241, 333, 272, 364
-0.993089, 81, 33, 112, 160
-0.993091, 321, 209, 448, 240
-0.993094, 425, 257, 456, 288
-0.993094, 77, 193, 108, 320
-0.993095, 281, 345, 312, 375
-0.993097, 281, 333, 312, 364
-0.993098, 77, 81, 108, 144
-0.993101, 265, 317, 296, 348
-0.993108, 165, 253, 196, 284
-0.993112, 333, 161, 364, 224
-0.993113, 277, 241, 308, 272
-0.993121, 409, 285, 440, 316
-0.993128, 245, 209, 276, 240
-0.993129, 225, 281, 256, 312
-0.993143, 85, 337, 116, 368
-0.993144, 425, 225, 456, 256
-0.993158, 425, 149, 456, 180
-0.993158, 257, 197, 288, 228
-0.993168, 181, 305, 212, 336
-0.993171, 345, 241, 376, 368
-0.993184, 193, 257, 224, 288
-0.993203, 89, 145, 120, 208
-0.993204, 173, 241, 204, 272
-0.993206, 269, 97, 300, 128
-0.99321, 213, 293, 244, 324
-0.993213, 261, 221, 292, 252
-0.993213, 301, 341, 332, 372
-0.993222, 257, 305, 288, 336
-0.993224, 249, 237, 280, 268
-0.993224, 425, 213, 456, 244
-0.993227, 177, 257, 208, 288
-0.993237, 389, 145, 420, 176
-0.993245, 305, 161, 336, 192
-0.993253, 465, 265, 496, 328
-0.993257, 189, 201, 220, 232
-0.99326, 33, 129, 96, 256
-0.993262, 277, 153, 308, 184
-0.993265, 425, 285, 456, 316
-0.993267, 201, 177, 232, 240
-0.993271, 269, 193, 300, 224
-0.993272, 209, 253, 240, 284
-0.993275, 245, 81, 276, 112
-0.993275, 229, 345, 260, 375
-0.993276, 93, 189, 124, 220
-0.99328, 265, 265, 296, 328
-0.993283, 345, 309, 376, 340
-0.993286, 381, 289, 412, 320
-0.99329, 181, 221, 212, 252
-0.993291, 121, 173, 152, 204
-0.993298, 337, 149, 368, 180
-0.993298, 393, 213, 424, 244
-0.993298, 229, 213, 260, 244
-0.993299, 57, 17, 88, 144
-0.993299, 417, 177, 448, 208
-0.993304, 177, 197, 208, 228
-0.993308, 165, 281, 196, 312
-0.993311, 321, 229, 352, 260
-0.993314, 305, 185, 336, 216
-0.993317, 197, 185, 228, 216
-0.993317, 157, 221, 188, 252
-0.993317, 25, 225, 56, 288
-0.993319, 409, 197, 440, 228
-0.993319, 337, 213, 368, 244
-0.99332, 161, 301, 192, 332
-0.993321, 89, 177, 120, 208
-0.993324, 217, 213, 248, 244
-0.993325, 197, 273, 228, 304
-0.993329, 273, 109, 304, 140
-0.993331, 229, 197, 260, 228
-0.993331, 281, 49, 344, 112
-0.993335, 289, 177, 320, 208
-0.993336, 393, 201, 424, 232
-0.993336, 313, 337, 344, 368
-0.993336, 65, 325, 96, 356
-0.993344, 353, 149, 384, 180
-0.993345, 369, 193, 400, 224
-0.993352, 81, 89, 112, 120
-0.993354, 293, 313, 324, 344
-0.993354, 277, 265, 308, 296
-0.993355, 325, 97, 356, 128
-0.993358, 389, 309, 420, 340
-0.993358, 253, 169, 284, 232
-0.993358, 145, 257, 176, 320
-0.99336, 325, 161, 356, 192
-0.993361, 213, 229, 244, 260
-0.993362, 325, 141, 356, 172
-0.993366, 269, 209, 300, 240
-0.993367, 49, 193, 80, 224
-0.993371, 105, 97, 136, 128
-0.993372, 393, 209, 424, 272
-0.993374, 145, 285, 176, 316
-0.993374, 169, 229, 200, 260
-0.993375, 437, 161, 468, 192
-0.993375, 445, 293, 476, 324
-0.993376, 265, 261, 296, 292
-0.993378, 325, 345, 356, 375
-0.99338, 281, 209, 312, 240
-0.99338, 445, 281, 476, 312
-0.993382, 229, 249, 260, 280
-0.993383, 401, 301, 432, 332
-0.993385, 365, 205, 396, 236
-0.99339, 317, 325, 348, 356
-0.993393, 189, 241, 220, 272
-0.993396, 301, 325, 332, 356
-0.9934, 245, 257, 276, 288
-0.993402, 265, 237, 296, 268
-0.993406, 217, 345, 248, 375
-0.993406, 353, 189, 384, 220
-0.993407, 281, 189, 312, 220
-0.993408, 449, 65, 480, 192
-0.993413, 181, 293, 212, 324
-0.993413, 233, 237, 264, 268
-0.993416, 25, 229, 56, 260
-0.993417, 217, 305, 248, 336
-0.993417, 157, 209, 188, 240
-0.993428, 337, 321, 368, 352
-0.993431, 77, 325, 108, 356
-0.993433, 161, 265, 192, 296
-0.993433, 381, 133, 412, 164
-0.99344, 1, 209, 500, 272
-0.993442, 317, 213, 348, 244
-0.993442, 145, 221, 176, 252
-0.993442, 337, 333, 368, 364
-0.993454, 145, 193, 176, 256
-0.993455, 97, 81, 224, 144
-0.993471, 109, 209, 140, 272
-0.993495, 241, 65, 304, 128
-0.993504, 469, 305, 500, 368
-0.993541, 65, 81, 320, 144
-0.993555, 409, 233, 440, 296
-0.99356, 397, 1, 428, 128
-0.993641, 453, 273, 484, 336
-0.993672, 77, 233, 108, 296
-0.993713, 265, 161, 296, 224
-0.993748, 321, 161, 352, 224
-0.993758, 57, 241, 88, 368
-0.993796, 257, 289, 500, 352
-0.993827, 169, 137, 232, 200
-0.993835, 369, 113, 432, 176
-0.993855, 161, 113, 416, 176
-0.993867, 93, 81, 124, 208
-0.993931, 129, 209, 384, 272
-0.993972, 13, 225, 44, 352
-0.993976, 329, 89, 360, 152
-0.994011, 129, 193, 160, 256
-0.994069, 305, 161, 336, 224
-0.994076, 17, 17, 144, 80
-0.994078, 353, 49, 480, 112
-0.994104, 265, 217, 296, 280
-0.994121, 161, 177, 192, 304
-0.994232, 437, 129, 468, 256
-0.994252, 117, 65, 148, 192
-0.994259, 257, 161, 500, 224
-0.994294, 469, 129, 500, 192
-0.994382, 241, 233, 272, 296
-0.994393, 141, 193, 172, 320
-0.994396, 1, 249, 500, 312
-0.994399, 345, 17, 376, 144
-0.994442, 89, 177, 120, 304
-0.994448, 145, 81, 272, 208
-0.994473, 33, 289, 288, 352
-0.994484, 33, 177, 288, 240
-0.994488, 93, 313, 124, 375
-0.994578, 1, 185, 500, 248
-0.994608, 193, 245, 320, 276
-0.99463, 245, 145, 276, 272
-0.994633, 33, 313, 288, 375
-0.994674, 37, 193, 68, 256
-0.9947, 225, 337, 352, 368
-0.994707, 169, 1, 232, 375
-0.994755, 373, 201, 404, 264
-0.994761, 241, 313, 368, 344
-0.994776, 253, 281, 284, 344
-0.994868, 353, 81, 480, 144
-0.994931, 161, 161, 416, 224
-0.994955, 97, 137, 352, 200
-0.994968, 209, 301, 336, 332
-0.994979, 321, 317, 448, 348
-0.994995, 1, 265, 256, 328
-0.995046, 337, 65, 368, 192
-0.995053, 357, 241, 388, 368
-0.995064, 239, 289, 254, 352
-0.995091, 193, 257, 320, 288
-0.995111, 241, 325, 368, 356
-0.995149, 65, 49, 320, 112
-0.995157, 1, 153, 500, 216
-0.995182, 129, 161, 160, 288
-0.995229, 225, 137, 480, 200
-0.995308, 257, 81, 500, 144
-0.995324, 161, 309, 288, 340
-0.995334, 231, 289, 246, 352
-0.995397, 161, 57, 416, 120
-0.995421, 105, 161, 136, 288
-0.995426, 33, 201, 288, 264
-0.995438, 209, 225, 336, 256
-0.995454, 309, 113, 340, 240
-0.995468, 33, 241, 288, 304
-0.995469, 97, 1, 160, 375
-0.995506, 235, 313, 250, 375
-0.995535, 1, 129, 500, 192
-0.995545, 1, 305, 500, 368
-0.99556, 241, 205, 368, 236
-0.995572, 149, 145, 180, 272
-0.995573, 413, 177, 428, 240
-0.995609, 337, 197, 464, 228
-0.995622, 337, 153, 464, 184
-0.995625, 65, 105, 320, 168
-0.995628, 69, 17, 100, 144
-0.995649, 161, 33, 416, 96
-0.995655, 257, 193, 384, 224
-0.995656, 85, 241, 116, 368
-0.995676, 273, 1, 336, 375
-0.995684, 1, 153, 256, 216
-0.995714, 213, 249, 228, 312
-0.995725, 257, 113, 500, 176
-0.995726, 129, 289, 256, 320
-0.995727, 385, 1, 416, 128
-0.995761, 129, 237, 256, 268
-0.995797, 373, 241, 404, 368
-0.995815, 177, 193, 304, 224
-0.995822, 257, 57, 500, 120
-0.995829, 303, 225, 318, 288
-0.995842, 273, 161, 400, 192
-0.995871, 429, 249, 444, 312
-0.995921, 241, 105, 368, 136
-0.995926, 243, 313, 258, 375
-0.995929, 361, 1, 392, 128
-0.995996, 17, 49, 48, 176
-0.996007, 369, 277, 496, 308
-0.996009, 241, 245, 368, 276
-0.996042, 221, 281, 236, 344
-0.996056, 257, 225, 384, 256
-0.996076, 207, 257, 222, 320
-0.996115, 421, 209, 436, 272
-0.996125, 321, 25, 448, 56
-0.996147, 145, 253, 272, 284
-0.996159, 273, 149, 400, 180
-0.996174, 1, 81, 500, 144
-0.996186, 129, 277, 256, 308
-0.99622, 45, 17, 76, 144
-0.996283, 277, 225, 292, 288
-0.996294, 273, 305, 288, 368
-0.996305, 419, 177, 434, 240
-0.996315, 215, 273, 230, 336
-0.996328, 193, 89, 320, 120
-0.99634, 193, 209, 320, 240
-0.996345, 209, 289, 336, 320
-0.996347, 321, 221, 448, 252
-0.996349, 161, 41, 288, 104
-0.996352, 237, 217, 252, 280
-0.996375, 273, 133, 400, 164
-0.996379, 193, 181, 320, 212
-0.996394, 337, 185, 464, 216
-0.996401, 321, 165, 448, 196
-0.996411, 179, 217, 194, 280
-0.996424, 369, 301, 496, 332
-0.99643, 1, 273, 500, 336
-0.996433, 405, 81, 436, 208
-0.996436, 257, 301, 384, 332
-0.996454, 113, 201, 240, 232
-0.996481, 193, 125, 320, 156
-0.996496, 245, 289, 260, 352
-0.996499, 283, 97, 298, 160
-0.996503, 113, 1, 176, 256
-0.996551, 369, 289, 496, 320
-0.996553, 161, 17, 288, 80
-0.99657, 385, 129, 416, 375
-0.996577, 17, 41, 144, 72
-0.996584, 241, 93, 368, 124
-0.996603, 257, 1, 320, 256
-0.996604, 197, 265, 212, 328
-0.996605, 253, 81, 268, 144
-0.996625, 271, 233, 286, 296
-0.996634, 241, 117, 368, 148
-0.996637, 373, 169, 388, 232
-0.996638, 275, 185, 290, 248
-0.996656, 145, 321, 272, 352
-0.996663, 81, 245, 208, 276
-0.996672, 81, 217, 208, 248
-0.996679, 341, 313, 356, 375
-0.996693, 193, 325, 320, 356
-0.996706, 289, 113, 304, 176
-0.99671, 273, 177, 400, 208
-0.99671, 129, 265, 256, 296
-0.99675, 241, 77, 368, 108
-0.996755, 419, 145, 434, 208
-0.996757, 281, 97, 312, 352
-0.996759, 253, 305, 268, 368
-0.996771, 187, 233, 202, 296
-0.996776, 237, 17, 268, 144
-0.996787, 205, 225, 220, 288
-0.996788, 337, 265, 464, 296
-0.99679, 293, 289, 308, 352
-0.996802, 349, 201, 364, 264
-0.996806, 161, 1, 416, 64
-0.996816, 251, 201, 266, 264
-0.996823, 257, 25, 500, 88
-0.996839, 225, 157, 352, 188
-0.996852, 193, 101, 320, 132
-0.996855, 369, 25, 496, 88
-0.996863, 65, 313, 192, 344
-0.996866, 229, 313, 244, 375
-0.996888, 329, 313, 344, 375
-0.996892, 119, 57, 134, 120
-0.996892, 81, 233, 208, 264
-0.996923, 97, 301, 224, 332
-0.996934, 373, 129, 404, 375
-0.996937, 161, 221, 288, 252
-0.996942, 283, 297, 298, 360
-0.996946, 263, 81, 278, 144
-0.996952, 269, 193, 284, 256
-0.996955, 397, 281, 412, 344
-0.99696, 411, 281, 426, 344
-0.996961, 439, 273, 454, 336
-0.996963, 243, 209, 258, 272
-0.996964, 137, 97, 200, 224
-0.997009, 321, 289, 448, 320
-0.997012, 205, 289, 220, 352
-0.997032, 407, 193, 422, 256
-0.997036, 343, 209, 358, 272
-0.997039, 321, 305, 448, 336
-0.997045, 49, 97, 176, 128
-0.997046, 129, 1, 192, 375
-0.997064, 281, 257, 296, 320
-0.997075, 275, 89, 290, 152
-0.997076, 33, 197, 160, 228
-0.997081, 425, 145, 440, 208
-0.997086, 189, 257, 204, 320
-0.997087, 395, 129, 410, 192
-0.997091, 369, 217, 496, 248
-0.997098, 81, 257, 208, 288
-0.997102, 241, 65, 368, 96
-0.997129, 225, 169, 352, 200
-0.997134, 173, 233, 188, 296
-0.997135, 97, 185, 224, 216
-0.997136, 323, 225, 338, 288
-0.997143, 229, 209, 244, 272
-0.997158, 291, 265, 306, 328
-0.99717, 435, 145, 450, 208
-0.997175, 33, 185, 160, 216
-0.997206, 331, 225, 346, 288
-0.997216, 391, 281, 406, 344
-0.997219, 197, 225, 212, 288
-0.997225, 87, 185, 102, 248
-0.997246, 355, 201, 370, 264
-0.997255, 323, 313, 338, 375
-0.997268, 469, 265, 484, 328
-0.997279, 403, 281, 418, 344
-0.997284, 55, 185, 70, 248
-0.997284, 161, 289, 176, 352
-0.997286, 401, 129, 432, 375
-0.997292, 193, 113, 320, 144
-0.997294, 317, 313, 332, 375
-0.997306, 309, 225, 324, 288
-0.997309, 17, 53, 144, 84
-0.99731, 309, 185, 324, 248
-0.997316, 233, 265, 248, 328
-0.997321, 333, 129, 364, 375
-0.997325, 193, 1, 256, 375
-0.997329, 453, 113, 484, 240
-0.997331, 261, 193, 276, 256
-0.997335, 419, 289, 434, 352
-0.997343, 315, 225, 330, 288
-0.997349, 369, 253, 496, 284
-0.997353, 49, 173, 176, 204
-0.997359, 365, 193, 380, 256
-0.997361, 113, 173, 240, 204
-0.997371, 329, 73, 344, 136
-0.997374, 263, 313, 278, 375
-0.997377, 211, 193, 226, 256
-0.997388, 65, 325, 192, 356
-0.997389, 177, 337, 304, 368
-0.997393, 105, 1, 136, 128
-0.997393, 273, 281, 400, 312
-0.997395, 269, 33, 300, 160
-0.997404, 415, 209, 430, 272
-0.997405, 305, 305, 320, 368
-0.997406, 117, 185, 132, 248
-0.997407, 121, 49, 184, 176
-0.997408, 321, 329, 448, 360
-0.997411, 337, 217, 352, 280
-0.997422, 165, 225, 180, 288
-0.997423, 183, 257, 198, 320
-0.997439, 221, 257, 236, 320
-0.997442, 347, 305, 362, 368
-0.997444, 403, 145, 418, 208
-0.997447, 79, 217, 94, 280
-0.997448, 335, 129, 350, 192
-0.997454, 405, 305, 420, 368
-0.99746, 65, 17, 320, 80
-0.997465, 225, 141, 352, 172
-0.997473, 193, 273, 320, 304
-0.997479, 185, 193, 200, 256
-0.997485, 201, 113, 232, 240
-0.997486, 1, 41, 500, 104
-0.99749, 295, 161, 310, 224
-0.997491, 1, 129, 32, 256
-0.997495, 283, 177, 298, 240
-0.997496, 273, 269, 400, 300
-0.997506, 167, 289, 182, 352
-0.99752, 269, 169, 284, 232
-0.997521, 269, 81, 284, 144
-0.997527, 337, 141, 464, 172
-0.997531, 17, 329, 144, 360
-0.997531, 201, 185, 216, 248
-0.997532, 137, 241, 168, 368
-0.997532, 467, 297, 482, 360
-0.997539, 385, 281, 400, 344
-0.997539, 425, 289, 440, 352
-0.997541, 251, 225, 266, 288
-0.997554, 295, 201, 310, 264
-0.997556, 257, 257, 384, 288
-0.997566, 1, 105, 500, 168
-0.997568, 321, 129, 352, 375
-0.997575, 265, 225, 280, 288
-0.997577, 429, 225, 444, 288
-0.997585, 113, 161, 240, 192
-0.997585, 249, 17, 280, 144
-0.997597, 1, 17, 500, 80
-0.997599, 425, 177, 440, 240
-0.997605, 259, 225, 274, 288
-0.997606, 409, 153, 424, 216
-0.997609, 233, 309, 248, 340
-0.997627, 445, 289, 460, 352
-0.997639, 113, 97, 128, 160
-0.997639, 265, 249, 280, 312
-0.997641, 303, 193, 318, 256
-0.997648, 243, 345, 258, 375
-0.997652, 169, 49, 232, 176
-0.997654, 125, 153, 140, 216
-0.997658, 161, 129, 192, 256
-0.997667, 273, 345, 400, 375
-0.99767, 357, 129, 388, 375
-0.997693, 97, 313, 112, 375
-0.997696, 305, 225, 320, 256
-0.997697, 333, 41, 348, 104
-0.997708, 371, 193, 386, 256
-0.997711, 283, 145, 298, 208
-0.997714, 1, 309, 128, 340
-0.997717, 195, 193, 210, 256
-0.997721, 271, 345, 286, 375
-0.997731, 369, 173, 496, 204
-0.997733, 333, 1, 364, 256
-0.997739, 93, 145, 108, 208
-0.997752, 265, 65, 296, 320
-0.997757, 65, 273, 192, 304
-0.99776, 173, 209, 188, 272
-0.997762, 173, 297, 188, 360
-0.997778, 289, 137, 304, 200
-0.997782, 299, 305, 314, 368
-0.997785, 305, 161, 320, 224
-0.997785, 49, 193, 64, 256
-0.997788, 233, 293, 248, 324
-0.997791, 283, 225, 298, 288
-0.997795, 33, 341, 160, 372
-0.997796, 77, 1, 108, 256
-0.997804, 337, 233, 464, 264
-0.997809, 153, 233, 168, 296
-0.997811, 285, 81, 316, 208
-0.997816, 305, 97, 432, 128
-0.99782, 227, 241, 242, 304
-0.997821, 157, 257, 172, 320
-0.997833, 109, 49, 124, 112
-0.997836, 217, 97, 232, 160
-0.997837, 369, 129, 384, 192
-0.997856, 1, 129, 128, 160
-0.997859, 257, 329, 272, 360
-0.997864, 289, 121, 416, 152
-0.997869, 241, 53, 368, 84
-0.997883, 349, 1, 380, 256
-0.997888, 33, 149, 160, 180
-0.99789, 345, 129, 376, 375
-0.997894, 355, 201, 370, 232
-0.997915, 219, 281, 234, 312
-0.997932, 1, 241, 128, 272
-0.997933, 97, 33, 128, 288
-0.997937, 129, 333, 256, 364
-0.997938, 239, 297, 254, 328
-0.997941, 65, 285, 192, 316
-0.997963, 269, 249, 284, 280
-0.997968, 125, 225, 156, 352
-0.997977, 1, 225, 128, 256
-0.997978, 421, 213, 436, 244
-0.997978, 249, 341, 264, 372
-0.998002, 113, 209, 144, 336
-0.998003, 297, 129, 328, 375
-0.99801, 313, 65, 344, 192
-0.998027, 1, 109, 128, 140
-0.998047, 245, 297, 260, 328
-0.998049, 373, 1, 404, 256
-0.998078, 33, 161, 160, 192
-0.998082, 321, 33, 352, 288
-0.998106, 213, 277, 228, 308
-0.99811, 421, 129, 452, 375
-0.998112, 429, 257, 444, 288
-0.998129, 33, 209, 160, 240
-0.99813, 49, 109, 176, 140
-0.998132, 197, 301, 212, 332
-0.998139, 227, 289, 242, 320
-0.998161, 429, 269, 444, 300
-0.998163, 1, 81, 128, 112
-0.998164, 205, 129, 236, 375
-0.99817, 1, 293, 128, 324
-0.998171, 45, 241, 76, 368
-0.998178, 241, 37, 368, 68
-0.998179, 177, 165, 304, 196
-0.99818, 113, 141, 240, 172
-0.998185, 1, 93, 128, 124
-0.998206, 251, 325, 266, 356
-0.99822, 49, 113, 80, 240
-0.998235, 289, 237, 416, 268
-0.998237, 353, 65, 384, 192
-0.99824, 341, 217, 356, 248
-0.99824, 263, 333, 278, 364
-0.998254, 49, 121, 176, 152
-0.998256, 281, 345, 296, 375
-0.998267, 241, 21, 368, 52
-0.998267, 227, 317, 242, 348
-0.998274, 321, 253, 448, 284
-0.998292, 45, 1, 76, 256
-0.998295, 49, 85, 176, 116
-0.998302, 161, 141, 288, 172
-0.998304, 61, 1, 92, 256
-0.998309, 385, 293, 416, 308
-0.998309, 329, 227, 360, 242
-0.998309, 185, 253, 216, 268
-0.998309, 441, 167, 472, 182
-0.998309, 161, 289, 192, 304
-0.99831, 345, 215, 376, 230
-0.99831, 421, 177, 452, 192
-0.99831, 253, 353, 284, 368
-0.99831, 69, 329, 100, 344
-0.99831, 161, 217, 192, 232
-0.998311, 289, 307, 320, 322
-0.998311, 105, 145, 136, 160
-0.998312, 361, 151, 392, 166
-0.998312, 245, 309, 260, 340
-0.998312, 349, 147, 380, 162
-0.998313, 317, 223, 348, 238
-0.998313, 169, 317, 200, 332
-0.998313, 317, 307, 348, 322
-0.998314, 81, 185, 112, 200
-0.998314, 449, 297, 480, 312
-0.998314, 205, 263, 236, 278
-0.998314, 257, 91, 288, 106
-0.998315, 337, 311, 368, 326
-0.998315, 325, 351, 356, 366
-0.998316, 389, 323, 420, 338
-0.998317, 213, 231, 244, 246
-0.998318, 389, 207, 420, 222
-0.998318, 293, 361, 324, 375
-0.998319, 189, 319, 220, 334
-0.998322, 309, 349, 340, 364
-0.998322, 197, 273, 228, 288
-0.998323, 233, 329, 248, 360
-0.998324, 173, 223, 204, 238
-0.998324, 181, 295, 212, 310
-0.998324, 257, 333, 288, 348
-0.998324, 189, 227, 220, 242
-0.998325, 229, 215, 260, 230
-0.998325, 93, 179, 124, 194
-0.998325, 225, 251, 256, 266
-0.998326, 321, 339, 352, 354
-0.998327, 253, 205, 284, 220
-0.998327, 205, 293, 220, 324
-0.998327, 81, 33, 208, 64
-0.998328, 193, 259, 224, 274
-0.998328, 389, 149, 420, 164
-0.998329, 317, 231, 348, 246
-0.998329, 193, 199, 224, 214
-0.998329, 357, 157, 388, 172
-0.99833, 395, 137, 410, 168
-0.99833, 253, 299, 284, 314
-0.99833, 157, 249, 188, 264
-0.998331, 405, 209, 436, 224
-0.998331, 281, 257, 312, 272
-0.998332, 341, 221, 372, 236
-0.998332, 349, 313, 380, 328
-0.998332, 305, 309, 336, 324
-0.998333, 1, 129, 256, 192
-0.998333, 265, 305, 296, 320
-0.998333, 309, 129, 340, 375
-0.998333, 437, 49, 468, 176
-0.998334, 321, 329, 352, 344
-0.998334, 173, 261, 204, 276
-0.998337, 353, 199, 384, 214
-0.998337, 173, 241, 204, 256
-0.998337, 317, 357, 348, 372
-0.998337, 209, 281, 240, 296
-0.998338, 233, 243, 264, 258
-0.998338, 265, 223, 296, 238
-0.998339, 321, 323, 352, 338
-0.998339, 209, 287, 240, 302
-0.998339, 1, 257, 128, 288
-0.998341, 181, 199, 212, 214
-0.998342, 157, 231, 188, 246
-0.998343, 233, 257, 264, 272
-0.998345, 253, 315, 284, 330
-0.998346, 183, 221, 198, 252
-0.998346, 389, 213, 420, 228
-0.998346, 97, 337, 112, 368
-0.998347, 121, 179, 152, 194
-0.998347, 393, 299, 424, 314
-0.998348, 169, 231, 200, 246
-0.998348, 265, 353, 296, 368
-0.99835, 425, 221, 456, 236
-0.998351, 97, 197, 128, 212
-0.998352, 269, 195, 300, 210
-0.998353, 229, 309, 260, 324
-0.998354, 321, 277, 448, 308
-0.998355, 321, 37, 448, 68
-0.998356, 97, 191, 128, 206
-0.998357, 245, 261, 276, 276
-0.998358, 425, 283, 456, 298
-0.998358, 277, 241, 308, 256
-0.998358, 89, 341, 120, 356
-0.998358, 261, 229, 292, 244
-0.998358, 177, 241, 192, 272
-0.99836, 49, 133, 176, 164
-0.998361, 253, 85, 284, 100
-0.998364, 281, 223, 312, 238
-0.998368, 233, 319, 264, 334
-0.99837, 425, 267, 456, 282
-0.998372, 275, 241, 290, 272
-0.998372, 181, 313, 212, 328
-0.998374, 77, 335, 108, 350
-0.998375, 251, 301, 266, 332
-0.998376, 249, 359, 280, 374
-0.998378, 245, 211, 276, 226
-0.998379, 393, 287, 424, 302
-0.99838, 425, 273, 456, 288
-0.99838, 157, 237, 188, 252
-0.998381, 245, 335, 276, 350
-0.998382, 281, 357, 312, 372
-0.998382, 213, 249, 244, 264
-0.998382, 425, 227, 456, 242
-0.998382, 179, 257, 194, 288
-0.998382, 425, 241, 456, 256
-0.998383, 425, 255, 456, 270
-0.998383, 425, 247, 456, 262
-0.998384, 281, 299, 312, 314
-0.998384, 193, 233, 224, 248
-0.998385, 213, 243, 244, 258
-0.998387, 285, 349, 316, 364
-0.998387, 237, 357, 268, 372
-0.998388, 425, 235, 456, 250
-0.998389, 161, 255, 192, 270
-0.998389, 409, 289, 440, 304
-0.998389, 207, 257, 222, 288
-0.998391, 255, 345, 270, 375
-0.998393, 163, 225, 178, 256
-0.998393, 425, 261, 456, 276
-0.998394, 253, 253, 284, 268
-0.998396, 295, 333, 310, 364
-0.998396, 1, 281, 128, 312
-0.998396, 245, 309, 276, 324
-0.998398, 325, 313, 356, 328
-0.998401, 281, 229, 312, 244
-0.998401, 233, 345, 264, 360
-0.998402, 197, 313, 212, 344
-0.998404, 347, 209, 362, 240
-0.998404, 417, 17, 448, 144
-0.998405, 341, 325, 356, 356
-0.998407, 189, 267, 220, 282
-0.998409, 257, 259, 288, 274
-0.998411, 229, 339, 260, 354
-0.998415, 261, 359, 292, 374
-0.998415, 183, 241, 198, 272
-0.998415, 161, 77, 288, 108
-0.998432, 237, 341, 252, 372
-0.998432, 239, 309, 254, 340
-0.998434, 245, 329, 276, 344
-0.998438, 33, 33, 64, 160
-0.998439, 281, 235, 312, 250
-0.998443, 243, 333, 258, 364
-0.998443, 407, 213, 422, 244
-0.998444, 233, 301, 264, 316
-0.998448, 249, 209, 264, 240
-0.998453, 405, 217, 436, 232
-0.998456, 225, 331, 256, 346
-0.998461, 81, 73, 208, 104
-0.99847, 227, 277, 242, 308
-0.998471, 439, 281, 454, 312
-0.998474, 249, 65, 280, 320
-0.998474, 289, 133, 304, 164
-0.998475, 335, 225, 350, 256
-0.998475, 337, 207, 400, 222
-0.998476, 411, 285, 426, 316
-0.998481, 225, 301, 240, 332
-0.998484, 241, 351, 272, 366
-0.998485, 221, 289, 252, 304
-0.998486, 85, 329, 100, 360
-0.998493, 261, 347, 292, 362
-0.998499, 193, 297, 256, 312
-0.998502, 393, 285, 408, 316
-0.998504, 229, 295, 260, 310
-0.998505, 233, 349, 296, 364
-0.998508, 205, 295, 236, 310
-0.99851, 293, 293, 308, 324
-0.99851, 253, 341, 284, 356
-0.998511, 245, 321, 260, 352
-0.998511, 411, 197, 426, 228
-0.998513, 301, 229, 332, 244
-0.998515, 283, 101, 298, 132
-0.998517, 289, 231, 352, 246
-0.99852, 457, 97, 488, 352
-0.998522, 217, 333, 280, 348
-0.998526, 207, 233, 222, 264
-0.998526, 193, 129, 224, 375
-0.998528, 373, 1, 404, 128
-0.998529, 169, 129, 200, 375
-0.998529, 367, 201, 382, 232
-0.998529, 261, 257, 276, 288
-0.99853, 325, 229, 340, 260
-0.998535, 363, 189, 378, 220
-0.998537, 231, 209, 246, 240
-0.99854, 275, 301, 290, 332
-0.998543, 347, 313, 362, 344
-0.998546, 91, 333, 106, 364
-0.998548, 233, 359, 296, 374
-0.998551, 201, 261, 216, 292
-0.998551, 229, 241, 244, 272
-0.998551, 273, 353, 336, 368
-0.998555, 201, 257, 264, 272
-0.998556, 217, 299, 280, 314
-0.998557, 353, 205, 384, 220
-0.998558, 321, 17, 352, 144
-0.998558, 219, 293, 234, 324
-0.99856, 285, 297, 300, 328
-0.998564, 301, 337, 316, 368
-0.998565, 173, 301, 188, 332
-0.998566, 257, 253, 320, 268
-0.998568, 385, 1, 416, 256
-0.998568, 397, 1, 428, 256
-0.998569, 257, 245, 272, 276
-0.99857, 185, 261, 200, 292
-0.99857, 241, 343, 304, 358
-0.998571, 161, 265, 224, 280
-0.998575, 293, 217, 308, 248
-0.998575, 305, 109, 432, 140
-0.998576, 349, 141, 364, 172
-0.998577, 305, 311, 368, 326
-0.99858, 361, 199, 424, 214
-0.998582, 305, 49, 432, 80
-0.998583, 225, 87, 288, 102
-0.998583, 361, 1, 392, 256
-0.998583, 201, 251, 264, 266
-0.998583, 409, 283, 472, 298
-0.998583, 257, 237, 320, 252
-0.998586, 399, 285, 414, 316
-0.998587, 257, 245, 320, 260
-0.998587, 213, 249, 228, 280
-0.998588, 377, 215, 440, 230
-0.998588, 257, 227, 320, 242
-0.99859, 369, 333, 496, 364
-0.998592, 153, 291, 216, 306
-0.998593, 217, 327, 280, 342
-0.998594, 225, 305, 288, 320
-0.998594, 225, 241, 288, 256
-0.998595, 283, 229, 298, 260
-0.998596, 297, 325, 360, 340
-0.998596, 249, 301, 312, 316
-0.998597, 325, 313, 340, 344
-0.998598, 127, 169, 142, 200
-0.998598, 377, 287, 440, 302
-0.998598, 97, 57, 224, 88
-0.9986, 193, 197, 208, 228
-0.998601, 289, 345, 352, 360
-0.998602, 225, 311, 288, 326
-0.998602, 185, 235, 248, 250
-0.998602, 273, 359, 336, 374
-0.998605, 185, 303, 248, 318
-0.998607, 97, 89, 224, 120
-0.998609, 249, 325, 312, 340
-0.998609, 225, 259, 288, 274
-0.998609, 243, 213, 258, 244
-0.998611, 417, 271, 480, 286
-0.998611, 405, 285, 420, 316
-0.998612, 291, 273, 306, 304
-0.998612, 193, 225, 208, 256
-0.998612, 209, 349, 272, 364
-0.998613, 161, 235, 224, 250
-0.998614, 257, 259, 320, 274
-0.998615, 241, 207, 304, 222
-0.998616, 289, 339, 352, 354
-0.998616, 417, 265, 480, 280
-0.998617, 277, 93, 292, 124
-0.998618, 337, 315, 400, 330
-0.998619, 267, 197, 282, 228
-0.998622, 417, 289, 432, 320
-0.998622, 281, 109, 344, 124
-0.998623, 217, 339, 280, 354
-0.998623, 409, 277, 472, 292
-0.998624, 161, 315, 224, 330
-0.998624, 413, 1, 444, 256
-0.998625, 153, 259, 216, 274
-0.998625, 289, 223, 352, 238
-0.998626, 193, 309, 256, 324
-0.998626, 225, 251, 288, 266
-0.998626, 233, 231, 296, 246
-0.998627, 117, 101, 132, 132
-0.998628, 241, 317, 304, 332
-0.998628, 329, 161, 392, 176
-0.998629, 281, 119, 344, 134
-0.99863, 361, 151, 424, 166
-0.99863, 409, 177, 472, 192
-0.99863, 249, 331, 312, 346
-0.99863, 201, 291, 264, 306
-0.998631, 1, 269, 128, 300
-0.998633, 289, 331, 352, 346
-0.998633, 145, 225, 208, 240
-0.998634, 249, 337, 312, 352
-0.998634, 201, 243, 264, 258
-0.998634, 269, 301, 284, 332
-0.998636, 169, 297, 232, 312
-0.998637, 281, 103, 344, 118
-0.998638, 281, 163, 344, 178
-0.99864, 335, 345, 350, 375
-0.99864, 161, 273, 224, 288
-0.99864, 425, 227, 488, 242
-0.99864, 417, 259, 480, 274
-0.998642, 425, 233, 488, 248
-0.998642, 263, 85, 278, 116
-0.998643, 169, 243, 232, 258
-0.998643, 417, 221, 480, 236
-0.998644, 361, 209, 424, 224
-0.998645, 281, 129, 344, 144
-0.998645, 385, 315, 448, 330
-0.998645, 241, 295, 304, 310
-0.998646, 255, 81, 270, 112
-0.998647, 265, 309, 328, 324
-0.99865, 49, 335, 112, 350
-0.998651, 417, 245, 480, 260
-0.998652, 425, 239, 488, 254
-0.998653, 229, 345, 244, 375
-0.998653, 273, 301, 336, 316
-0.998655, 161, 153, 288, 184
-0.998655, 249, 121, 312, 136
-0.998655, 417, 251, 480, 266
-0.998655, 401, 151, 464, 166
-0.998655, 409, 183, 472, 198
-0.998655, 401, 209, 464, 224
-0.998656, 93, 177, 108, 208
-0.998657, 81, 225, 96, 256
-0.998658, 129, 255, 192, 270
-0.998658, 361, 189, 424, 204
-0.998659, 297, 317, 360, 332
-0.998659, 225, 329, 240, 360
-0.998659, 337, 145, 400, 160
-0.99866, 401, 289, 464, 304
-0.99866, 249, 199, 312, 214
-0.998661, 425, 303, 488, 318
-0.998661, 153, 305, 216, 320
-0.998663, 171, 237, 186, 268
-0.998663, 233, 225, 296, 240
-0.998663, 145, 241, 208, 256
-0.998663, 329, 337, 344, 368
-0.998664, 337, 213, 400, 228
-0.998665, 241, 111, 304, 126
-0.998665, 385, 299, 448, 314
-0.998666, 257, 221, 320, 236
-0.998666, 167, 301, 182, 332
-0.998667, 361, 181, 424, 196
-0.998668, 41, 329, 104, 344
-0.998668, 425, 215, 488, 230
-0.998669, 121, 295, 184, 310
-0.998669, 337, 309, 352, 340
-0.998669, 177, 259, 240, 274
-0.998669, 177, 283, 240, 298
-0.998669, 81, 147, 144, 162
-0.99867, 185, 229, 248, 244
-0.99867, 201, 317, 264, 332
-0.998671, 193, 331, 256, 346
-0.998672, 25, 231, 88, 246
-0.998672, 173, 217, 188, 248
-0.998673, 97, 341, 160, 356
-0.998673, 49, 39, 112, 54
-0.998673, 129, 249, 192, 264
-0.998674, 249, 265, 312, 280
-0.998674, 401, 321, 464, 336
-0.998675, 273, 95, 336, 110
-0.998675, 313, 115, 376, 130
-0.998675, 241, 105, 304, 120
-0.998675, 161, 321, 224, 336
-0.998675, 233, 95, 296, 110
-0.998675, 209, 209, 272, 224
-0.998675, 199, 193, 214, 224
-0.998676, 417, 295, 480, 310
-0.998676, 81, 331, 144, 346
-0.998676, 81, 323, 144, 338
-0.998677, 347, 153, 362, 184
-0.998678, 41, 197, 104, 212
-0.998678, 235, 233, 250, 264
-0.998678, 401, 189, 464, 204
-0.998679, 161, 249, 224, 264
-0.998679, 209, 355, 272, 370
-0.99868, 401, 195, 464, 210
-0.99868, 305, 69, 432, 100
-0.998684, 81, 341, 208, 372
-0.998685, 257, 205, 272, 236
-0.998689, 207, 273, 222, 304
-0.998689, 217, 233, 232, 264
-0.998698, 413, 213, 428, 244
-0.9987, 117, 181, 132, 212
-0.998702, 271, 89, 286, 120
-0.998709, 167, 281, 182, 312
-0.998711, 415, 181, 430, 212
-0.998717, 277, 213, 292, 244
-0.998724, 283, 209, 298, 240
-0.998729, 93, 193, 108, 224
-0.998733, 133, 97, 164, 224
-0.998734, 387, 289, 402, 320
-0.998738, 273, 333, 288, 364
-0.998746, 173, 253, 188, 284
-0.998751, 405, 201, 420, 232
-0.998759, 323, 345, 338, 375
-0.99876, 205, 189, 220, 220
-0.99876, 325, 113, 340, 144
-0.998762, 429, 245, 444, 276
-0.998766, 261, 345, 276, 375
-0.998768, 55, 325, 70, 356
-0.998778, 249, 81, 264, 112
-0.998779, 373, 205, 388, 236
-0.998847, 437, 33, 468, 288
-0.998858, 117, 97, 148, 352
-0.998959, 149, 129, 180, 375
-0.998971, 419, 129, 434, 256
-0.998976, 417, 81, 448, 208
-0.999006, 419, 193, 434, 320
-0.999013, 469, 97, 500, 352
-0.999031, 77, 97, 108, 352
-0.99905, 319, 161, 334, 288
-0.999061, 197, 241, 212, 368
-0.999076, 313, 161, 328, 288
-0.999076, 369, 1, 496, 64
-0.999079, 429, 241, 444, 368
-0.999091, 413, 145, 428, 272
-0.999101, 217, 97, 248, 352
-0.99911, 403, 129, 418, 256
-0.99912, 229, 129, 260, 375
-0.999145, 347, 193, 362, 320
-0.99915, 307, 161, 322, 288
-0.999168, 429, 129, 444, 256
-0.999171, 185, 209, 200, 336
-0.999179, 229, 193, 244, 320
-0.999184, 279, 81, 294, 208
-0.999189, 285, 241, 300, 368
-0.99919, 303, 209, 318, 336
-0.999192, 285, 97, 300, 224
-0.999203, 171, 241, 186, 368
-0.999206, 275, 161, 290, 288
-0.999216, 271, 241, 286, 368
-0.999223, 425, 1, 456, 256
-0.999229, 337, 209, 352, 336
-0.999236, 205, 241, 220, 368
-0.99924, 397, 129, 412, 256
-0.999245, 473, 241, 488, 368
-0.999248, 239, 209, 254, 336
-0.999261, 291, 209, 306, 336
-0.999266, 327, 161, 342, 288
-0.999266, 365, 193, 380, 320
-0.999267, 297, 81, 328, 208
-0.999269, 93, 129, 124, 375
-0.999275, 179, 209, 194, 336
-0.99928, 279, 241, 294, 368
-0.999286, 191, 225, 206, 352
-0.999291, 353, 193, 368, 320
-0.999306, 411, 193, 426, 320
-0.999308, 425, 193, 440, 320
-0.999312, 297, 145, 312, 272
-0.999312, 263, 65, 278, 192
-0.999317, 181, 129, 212, 375
-0.999331, 359, 193, 374, 320
-0.999334, 337, 129, 352, 256
-0.999335, 233, 241, 248, 368
-0.999337, 371, 145, 386, 272
-0.999342, 213, 241, 228, 368
-0.999344, 363, 129, 378, 256
-0.999346, 13, 65, 44, 320
-0.999347, 323, 209, 338, 336
-0.999347, 117, 49, 132, 176
-0.999352, 421, 241, 436, 368
-0.999354, 297, 225, 312, 352
-0.999355, 273, 81, 288, 208
-0.999357, 347, 129, 362, 256
-0.999364, 391, 113, 406, 240
-0.999374, 331, 209, 346, 336
-0.999379, 371, 193, 386, 320
-0.99938, 197, 193, 212, 320
-0.999386, 309, 209, 324, 336
-0.999387, 203, 193, 218, 320
-0.99939, 263, 177, 278, 304
-0.999396, 245, 193, 260, 320
-0.999408, 159, 241, 174, 368
-0.999409, 435, 161, 450, 288
-0.99941, 281, 177, 296, 304
-0.999415, 331, 65, 346, 192
-0.99942, 109, 33, 124, 160
-0.999424, 405, 193, 420, 320
-0.999431, 125, 145, 140, 272
-0.999432, 223, 209, 238, 336
-0.999433, 317, 209, 332, 336
-0.999434, 213, 193, 228, 320
-0.999434, 165, 225, 180, 352
-0.999444, 447, 193, 462, 320
-0.999446, 385, 129, 400, 256
-0.999448, 91, 129, 106, 256
-0.999448, 255, 65, 270, 192
-0.999449, 377, 129, 392, 256
-0.999463, 329, 113, 344, 240
-0.999467, 381, 193, 396, 320
-0.999468, 87, 65, 102, 192
-0.999472, 467, 241, 482, 368
-0.999475, 265, 241, 280, 368
-0.99948, 439, 241, 454, 368
-0.999484, 433, 129, 464, 375
-0.999487, 405, 241, 420, 368
-0.999488, 1, 177, 32, 304
-0.99949, 117, 161, 132, 288
-0.99949, 115, 113, 130, 240
-0.99949, 65, 97, 96, 352
-0.999502, 103, 33, 118, 160
-0.999503, 191, 177, 206, 304
-0.999506, 291, 113, 306, 240
-0.999506, 1, 129, 32, 375
-0.999509, 353, 113, 368, 240
-0.999512, 237, 145, 252, 272
-0.999513, 343, 241, 358, 368
-0.999514, 249, 241, 264, 368
-0.999515, 287, 213, 302, 228
-0.999515, 279, 223, 294, 238
-0.999515, 271, 235, 286, 250
-0.999515, 429, 253, 444, 268
-0.999515, 99, 343, 114, 358
-0.999515, 177, 237, 192, 252
-0.999515, 191, 317, 206, 332
-0.999515, 291, 285, 306, 300
-0.999515, 191, 199, 206, 214
-0.999515, 83, 337, 98, 352
-0.999517, 91, 193, 106, 208
-0.999518, 203, 269, 218, 284
-0.999518, 387, 193, 402, 320
-0.999518, 321, 307, 336, 322
-0.999518, 217, 245, 232, 260
-0.999518, 233, 349, 248, 364
-0.999518, 323, 113, 338, 240
-0.999519, 259, 309, 274, 324
-0.999519, 225, 323, 240, 338
-0.999519, 245, 361, 260, 375
-0.999519, 413, 289, 428, 304
-0.999519, 261, 257, 276, 272
-0.99952, 279, 99, 294, 114
-0.99952, 167, 235, 182, 250
-0.99952, 419, 183, 434, 198
-0.99952, 191, 265, 206, 280
-0.999521, 105, 129, 136, 375
-0.999521, 173, 253, 188, 268
-0.999522, 369, 201, 384, 216
-0.999522, 249, 65, 264, 192
-0.999522, 387, 289, 402, 304
-0.999522, 267, 359, 282, 374
-0.999523, 265, 243, 280, 258
-0.999524, 199, 319, 214, 334
-0.999524, 83, 331, 98, 346
-0.999524, 93, 179, 108, 194
-0.999524, 255, 339, 270, 354
-0.999524, 277, 343, 292, 358
-0.999525, 347, 319, 362, 334
-0.999525, 343, 327, 358, 342
-0.999525, 263, 85, 278, 100
-0.999526, 335, 351, 350, 366
-0.999526, 275, 229, 290, 244
-0.999526, 239, 215, 254, 230
-0.999526, 261, 203, 276, 218
-0.999526, 411, 217, 426, 232
-0.999527, 223, 301, 238, 316
-0.999527, 211, 293, 226, 308
-0.999528, 301, 307, 316, 322
-0.999528, 269, 197, 284, 212
-0.999529, 93, 187, 108, 202
-0.999529, 309, 33, 340, 288
-0.999529, 409, 209, 424, 224
-0.99953, 269, 177, 284, 304
-0.99953, 331, 231, 346, 246
-0.99953, 97, 81, 112, 208
-0.999531, 275, 243, 290, 258
-0.999531, 235, 293, 250, 308
-0.999531, 403, 209, 418, 224
-0.999531, 271, 249, 286, 264
-0.999532, 321, 231, 336, 246
-0.999532, 285, 299, 300, 314
-0.999532, 347, 215, 362, 230
-0.999532, 339, 223, 354, 238
-0.999533, 233, 359, 248, 374
-0.999533, 245, 309, 260, 324
-0.999533, 229, 145, 244, 272
-0.999534, 311, 229, 326, 244
-0.999535, 243, 331, 258, 346
-0.999535, 207, 261, 222, 276
-0.999536, 407, 299, 422, 314
-0.999536, 227, 241, 242, 256
-0.999536, 185, 261, 200, 276
-0.999537, 161, 231, 176, 246
-0.999537, 275, 359, 290, 374
-0.999537, 267, 307, 282, 322
-0.999538, 237, 33, 268, 288
-0.999538, 241, 221, 256, 236
-0.999539, 261, 359, 276, 374
-0.999539, 403, 215, 418, 230
-0.99954, 249, 259, 264, 274
-0.999541, 97, 129, 112, 256
-0.999541, 397, 287, 412, 302
-0.999542, 241, 297, 256, 312
-0.999542, 289, 135, 304, 150
-0.999543, 125, 175, 140, 190
-0.999543, 281, 235, 296, 250
-0.999544, 251, 347, 266, 362
-0.999544, 233, 343, 248, 358
-0.999544, 345, 17, 360, 144
-0.999546, 195, 227, 210, 242
-0.999546, 343, 311, 358, 326
-0.999546, 177, 243, 192, 258
-0.999546, 81, 17, 96, 144
-0.999546, 349, 155, 364, 170
-0.999547, 323, 359, 338, 374
-0.999547, 247, 325, 262, 340
-0.999547, 257, 263, 272, 278
-0.999547, 461, 241, 476, 368
-0.999547, 269, 89, 284, 104
-0.999547, 87, 193, 102, 320
-0.999548, 123, 65, 138, 192
-0.999548, 275, 93, 290, 108
-0.999549, 209, 275, 224, 290
-0.999549, 333, 17, 348, 144
-0.999549, 197, 267, 212, 282
-0.999551, 271, 339, 286, 354
-0.999551, 107, 129, 122, 256
-0.999551, 395, 193, 410, 320
-0.999552, 285, 349, 300, 364
-0.999554, 253, 327, 268, 342
-0.999554, 227, 331, 242, 346
-0.999555, 221, 145, 236, 272
-0.999555, 205, 295, 220, 310
-0.999556, 365, 207, 380, 222
-0.999557, 333, 309, 348, 324
-0.999558, 197, 199, 212, 214
-0.999558, 251, 193, 266, 320
-0.999559, 363, 199, 378, 214
-0.999559, 77, 225, 92, 352
-0.999561, 429, 259, 444, 274
-0.999563, 395, 143, 410, 158
-0.999563, 429, 271, 444, 286
-0.999564, 339, 65, 354, 192
-0.999565, 391, 241, 406, 368
-0.999566, 291, 295, 306, 310
-0.999566, 179, 257, 194, 272
-0.999566, 81, 81, 96, 208
-0.999567, 53, 177, 68, 304
-0.999568, 329, 355, 344, 370
-0.999569, 399, 241, 414, 368
-0.99957, 97, 337, 112, 352
-0.99957, 267, 257, 282, 272
-0.999573, 219, 295, 234, 310
-0.999573, 249, 337, 264, 352
-0.999573, 253, 305, 268, 320
-0.999573, 445, 129, 460, 256
-0.999577, 429, 265, 444, 280
-0.999577, 457, 161, 472, 288
-0.999578, 349, 241, 364, 368
-0.99958, 219, 283, 234, 298
-0.999581, 287, 161, 302, 288
-0.999582, 249, 209, 264, 224
-0.999582, 237, 331, 252, 346
-0.999583, 281, 355, 296, 370
-0.999585, 37, 209, 52, 336
-0.999585, 229, 293, 244, 308
-0.999586, 153, 241, 168, 368
-0.999586, 197, 313, 212, 328
-0.999587, 275, 349, 290, 364
-0.999587, 89, 335, 104, 350
-0.999588, 93, 33, 108, 160
-0.99959, 339, 17, 354, 144
-0.999592, 415, 241, 430, 368
-0.999597, 479, 241, 494, 368
-0.999598, 245, 347, 260, 362
-0.999598, 385, 241, 400, 368
-0.999598, 177, 161, 192, 288
-0.999599, 445, 241, 460, 368
-0.999599, 243, 337, 258, 352
-0.9996, 475, 129, 490, 256
-0.999602, 87, 17, 102, 144
-0.999605, 185, 161, 200, 288
-0.999607, 257, 193, 272, 320
-0.999608, 463, 97, 478, 224
-0.999609, 85, 129, 100, 256
-0.999614, 259, 331, 274, 346
-0.999614, 257, 353, 272, 368
-0.999614, 247, 301, 262, 316
-0.999616, 225, 287, 240, 302
-0.999619, 137, 129, 168, 375
-0.999621, 233, 309, 248, 324
-0.99964, 239, 355, 254, 370
-0.999642, 421, 217, 436, 232
-0.999645, 25, 33, 56, 288
-0.99965, 109, 1, 140, 256
-0.999654, 305, 227, 320, 242
-0.999656, 355, 205, 370, 220
-0.999666, 445, 129, 476, 375
-0.999705, 125, 17, 156, 144
-0.999711, 293, 33, 324, 288
-0.999723, 169, 33, 232, 288
-0.999756, 41, 129, 72, 375
-0.999812, 201, 33, 264, 288
-0.999817, 53, 129, 84, 375
-0.999846, 469, 65, 500, 192
-0.99988, 29, 161, 60, 288
-0.999925, 469, 193, 500, 320
-0.999994, 13, 161, 44, 288
-1.0001, 121, 1, 152, 256
-1.00013, 469, 1, 500, 256
-1.00022, 277, 1, 308, 256
-1.00023, 133, 33, 164, 288
-1.00025, 29, 129, 60, 375
-1.00042, 457, 1, 488, 256
-1.00044, 1, 225, 32, 352
-1.00045, 217, 1, 248, 256
-1.00048, 205, 33, 236, 288
-1.00058, 161, 33, 192, 288
-1.0007, 1, 1, 32, 256
-1.00072, 149, 33, 180, 288
-1.00081, 193, 33, 224, 288
-1.00087, 257, 1, 500, 64
-1.00111, 173, 33, 204, 288
-1.00123, 1, 129, 64, 375
-1.00187, 145, 33, 208, 288
-1.00194, 137, 1, 200, 128
-1.00287, 9, 1, 72, 128
-1.00532, 145, 49, 208, 176
-1.00626, 169, 1, 232, 128
-1.00666, 433, 33, 496, 160
