1853
-0.258766, 65, 1, 320, 333
-0.29505, 1, 1, 500, 333
-0.35083, 1, 1, 500, 256
-0.467447, 225, 1, 480, 333
-0.550595, 225, 33, 480, 288
-0.561532, 65, 1, 320, 256
-0.836212, 17, 33, 144, 288
-0.851117, 289, 33, 416, 288
-0.853615, 1, 65, 500, 192
-0.855598, 33, 1, 160, 333
-0.858025, 305, 1, 432, 333
-0.859009, 369, 33, 496, 288
-0.862268, 81, 1, 208, 256
-0.863359, 177, 1, 304, 333
-0.864721, 209, 65, 336, 320
-0.867008, 257, 1, 384, 333
-0.873299, 1, 145, 500, 272
-0.875117, 81, 1, 208, 333
-0.875868, 369, 1, 496, 333
-0.878192, 1, 17, 500, 144
-0.88484, 161, 1, 288, 256
-0.898679, 129, 1, 256, 333
-0.906867, 1, 209, 500, 333
-0.910399, 65, 209, 320, 333
-0.911227, 1, 129, 256, 256
-0.912155, 65, 17, 320, 144
-0.913795, 193, 177, 448, 304
-0.915113, 225, 81, 480, 208
-0.916578, 57, 65, 120, 192
-0.916681, 17, 65, 144, 192
-0.917016, 65, 65, 320, 192
-0.920225, 225, 1, 480, 128
-0.921653, 161, 129, 416, 256
-0.922862, 33, 33, 96, 160
-0.929672, 17, 17, 144, 144
-0.931518, 305, 97, 432, 224
-0.931703, 161, 209, 288, 333
-0.932077, 81, 129, 144, 256
-0.932998, 273, 193, 400, 320
-0.933237, 369, 81, 496, 208
-0.933313, 33, 81, 96, 208
-0.933329, 89, 49, 152, 176
-0.933812, 305, 33, 432, 160
-0.934234, 17, 129, 144, 256
-0.935147, 289, 145, 416, 272
-0.935485, 369, 129, 496, 256
-0.935664, 57, 145, 120, 272
-0.936635, 209, 209, 272, 333
-0.936866, 369, 33, 496, 160
-0.937319, 225, 129, 352, 256
-0.937526, 249, 193, 312, 320
-0.937983, 65, 81, 192, 208
-0.938276, 257, 129, 500, 256
-0.938746, 33, 145, 96, 272
-0.939013, 225, 177, 352, 304
-0.939599, 161, 129, 288, 256
-0.940075, 65, 161, 192, 288
-0.940234, 369, 33, 432, 160
-0.940265, 289, 193, 352, 320
-0.940696, 385, 97, 448, 224
-0.941298, 97, 1, 160, 128
-0.942278, 81, 1, 208, 128
-0.942533, 57, 97, 120, 160
-0.942689, 113, 161, 240, 288
-0.943759, 57, 1, 120, 128
-0.943822, 281, 193, 344, 256
-0.943834, 105, 97, 168, 224
-0.944108, 241, 1, 368, 128
-0.944177, 289, 145, 352, 272
-0.944528, 25, 73, 88, 136
-0.944926, 33, 209, 160, 333
-0.944987, 337, 193, 464, 320
-0.946107, 257, 217, 320, 280
-0.946176, 409, 81, 472, 208
-0.946514, 241, 65, 368, 192
-0.946673, 361, 97, 424, 224
-0.946861, 361, 105, 424, 168
-0.947385, 89, 73, 152, 136
-0.947524, 233, 129, 296, 256
-0.948283, 57, 145, 120, 208
-0.948826, 265, 65, 328, 192
-0.949245, 225, 225, 288, 288
-0.949393, 169, 161, 232, 288
-0.949614, 361, 177, 424, 304
-0.949822, 65, 49, 128, 112
-0.950036, 33, 145, 96, 208
-0.950738, 121, 1, 184, 128
-0.950837, 417, 17, 480, 144
-0.950972, 49, 193, 112, 320
-0.951303, 257, 185, 320, 248
-0.951676, 185, 209, 248, 333
-0.951725, 313, 193, 376, 320
-0.95226, 417, 209, 480, 333
-0.952514, 393, 33, 456, 160
-0.95278, 305, 17, 368, 144
-0.954058, 113, 177, 176, 304
-0.954564, 57, 185, 120, 248
-0.954837, 1, 65, 64, 192
-0.95529, 417, 129, 480, 256
-0.955535, 217, 33, 280, 160
-0.955858, 81, 129, 144, 192
-0.955989, 409, 1, 472, 64
-0.956155, 137, 161, 200, 288
-0.956266, 273, 153, 336, 216
-0.956386, 1, 113, 64, 240
-0.956407, 113, 81, 240, 208
-0.956409, 25, 193, 88, 320
-0.956783, 393, 145, 456, 272
-0.956848, 193, 161, 256, 288
-0.957193, 25, 25, 88, 88
-0.957231, 337, 209, 400, 333
-0.95728, 89, 209, 152, 333
-0.957579, 33, 97, 96, 160
-0.957944, 233, 201, 296, 264
-0.958003, 337, 161, 400, 288
-0.958525, 193, 81, 320, 208
-0.958999, 81, 169, 144, 232
-0.959153, 25, 121, 88, 184
-0.95916, 265, 145, 328, 272
-0.959332, 265, 241, 328, 304
-0.959367, 129, 249, 192, 312
-0.959753, 49, 257, 112, 320
-0.95996, 129, 65, 192, 192
-0.960053, 97, 49, 160, 112
-0.960272, 33, 49, 96, 112
-0.960492, 225, 81, 288, 208
-0.960595, 201, 217, 264, 280
-0.960635, 17, 185, 80, 248
-0.960653, 33, 33, 96, 288
-0.960752, 97, 17, 160, 80
-0.960891, 385, 97, 448, 160
-0.960991, 377, 273, 440, 333
-0.960999, 305, 257, 368, 320
-0.961258, 161, 17, 288, 144
-0.961717, 377, 73, 440, 136
-0.961758, 1, 193, 64, 320
-0.96176, 329, 1, 392, 64
-0.961836, 65, 81, 96, 208
-0.961846, 113, 209, 240, 333
-0.961884, 385, 1, 448, 64
-0.962141, 305, 41, 368, 104
-0.962199, 289, 225, 352, 288
-0.962428, 393, 193, 456, 320
-0.96247, 401, 241, 464, 304
-0.96252, 73, 249, 136, 312
-0.96253, 433, 25, 496, 88
-0.9626, 49, 121, 112, 184
-0.962663, 329, 265, 392, 328
-0.962789, 249, 161, 312, 224
-0.962934, 353, 241, 416, 304
-0.963116, 305, 97, 368, 224
-0.963145, 361, 161, 424, 224
-0.963209, 241, 249, 304, 312
-0.963212, 337, 113, 400, 240
-0.963247, 353, 273, 416, 333
-0.963359, 265, 65, 328, 128
-0.963373, 129, 113, 192, 240
-0.963463, 305, 201, 368, 264
-0.963516, 25, 257, 88, 320
-0.96358, 161, 209, 224, 333
-0.96372, 297, 145, 360, 208
-0.963859, 57, 73, 120, 136
-0.963991, 1, 121, 64, 184
-0.964455, 217, 249, 280, 312
-0.964829, 17, 65, 144, 128
-0.964858, 265, 265, 328, 328
-0.964865, 353, 1, 416, 64
-0.964959, 345, 49, 408, 176
-0.965198, 393, 25, 456, 88
-0.965726, 297, 169, 360, 232
-0.965858, 65, 33, 128, 288
-0.965948, 1, 97, 64, 160
-0.966296, 225, 73, 288, 136
-0.966319, 353, 137, 416, 200
-0.966384, 433, 65, 496, 192
-0.966468, 425, 209, 488, 272
-0.966573, 185, 249, 248, 312
-0.966632, 217, 41, 280, 104
-0.967015, 433, 145, 496, 208
-0.967086, 425, 49, 488, 112
-0.967095, 17, 33, 144, 96
-0.967136, 337, 169, 400, 232
-0.967149, 393, 145, 456, 208
-0.967161, 409, 105, 472, 168
-0.967506, 225, 177, 288, 240
-0.967571, 281, 193, 312, 256
-0.967721, 257, 17, 320, 144
-0.967779, 177, 217, 240, 280
-0.967819, 85, 137, 116, 200
-0.967822, 89, 97, 152, 160
-0.968004, 257, 41, 320, 104
-0.968406, 45, 121, 76, 184
-0.968726, 313, 145, 376, 272
-0.968869, 77, 81, 108, 208
-0.968871, 209, 1, 272, 64
-0.968871, 417, 265, 480, 328
-0.969054, 65, 97, 96, 160
-0.969062, 177, 113, 240, 240
-0.969109, 89, 129, 120, 256
-0.969187, 241, 217, 368, 280
-0.969552, 33, 97, 160, 160
-0.969582, 329, 137, 392, 200
-0.969641, 185, 161, 248, 224
-0.969646, 305, 41, 432, 104
-0.96969, 17, 153, 144, 216
-0.969699, 105, 257, 168, 320
-0.969883, 65, 25, 128, 88
-0.9699, 1, 265, 64, 328
-0.970017, 433, 1, 496, 64
-0.970214, 221, 209, 252, 333
-0.970246, 329, 209, 392, 272
-0.970389, 381, 113, 412, 240
-0.970552, 321, 1, 448, 64
-0.970706, 393, 81, 424, 208
-0.970718, 89, 1, 152, 256
-0.970729, 273, 217, 304, 280
-0.970756, 401, 73, 464, 136
-0.970807, 241, 9, 368, 72
-0.970842, 193, 201, 320, 264
-0.970943, 97, 65, 128, 192
-0.971081, 285, 217, 316, 280
-0.971134, 49, 97, 80, 224
-0.971184, 105, 1, 136, 128
-0.971198, 289, 113, 416, 176
-0.971293, 257, 121, 320, 184
-0.971313, 41, 217, 104, 280
-0.971328, 65, 1, 128, 64
-0.971335, 353, 113, 480, 176
-0.971436, 33, 129, 160, 192
-0.971442, 121, 153, 184, 216
-0.971471, 217, 137, 280, 200
-0.971512, 117, 57, 148, 120
-0.971619, 253, 225, 284, 288
-0.971661, 81, 145, 208, 208
-0.971688, 369, 185, 432, 248
-0.971749, 377, 249, 440, 312
-0.971997, 161, 225, 288, 288
-0.972038, 301, 145, 332, 272
-0.97207, 49, 1, 80, 128
-0.972242, 17, 1, 144, 64
-0.972247, 373, 105, 404, 168
-0.972361, 1, 1, 64, 128
-0.97237, 305, 17, 368, 80
-0.972537, 97, 121, 128, 184
-0.972569, 101, 65, 132, 128
-0.972622, 381, 161, 412, 224
-0.972624, 369, 25, 432, 88
-0.972649, 293, 185, 324, 248
-0.972779, 241, 41, 368, 104
-0.972788, 129, 73, 192, 136
-0.972831, 393, 177, 456, 240
-0.972907, 361, 137, 392, 200
-0.972945, 369, 137, 496, 200
-0.972977, 153, 137, 216, 200
-0.973163, 53, 145, 84, 272
-0.973184, 201, 113, 264, 240
-0.973288, 185, 193, 248, 256
-0.973292, 233, 193, 264, 320
-0.973341, 41, 49, 72, 176
-0.973351, 1, 185, 128, 248
-0.973464, 313, 233, 376, 296
-0.973514, 393, 1, 424, 64
-0.973597, 241, 65, 304, 320
-0.973677, 397, 81, 428, 144
-0.973689, 393, 33, 424, 160
-0.973718, 65, 145, 96, 208
-0.973938, 345, 25, 408, 88
-0.973938, 281, 193, 312, 320
-0.973984, 177, 129, 240, 192
-0.974029, 369, 25, 496, 88
-0.974044, 161, 161, 224, 224
-0.97409, 369, 1, 496, 64
-0.974091, 161, 249, 288, 312
-0.974141, 413, 89, 444, 152
-0.974325, 385, 161, 416, 288
-0.974384, 113, 65, 176, 320
-0.974513, 305, 121, 368, 184
-0.974525, 225, 273, 352, 333
-0.974546, 225, 217, 256, 280
-0.974562, 49, 1, 80, 64
-0.974587, 37, 97, 68, 160
-0.974589, 49, 153, 80, 216
-0.97473, 105, 161, 136, 224
-0.974791, 1, 17, 64, 80
-0.974859, 289, 137, 416, 200
-0.974887, 69, 161, 100, 288
-0.974918, 121, 177, 184, 240
-0.974962, 177, 153, 304, 216
-0.975068, 297, 161, 328, 224
-0.975076, 233, 273, 296, 333
-0.975088, 33, 257, 160, 320
-0.975166, 321, 1, 384, 256
-0.975235, 345, 1, 408, 128
-0.975251, 425, 233, 488, 296
-0.975344, 329, 113, 392, 176
-0.975416, 97, 233, 160, 296
-0.97548, 265, 97, 328, 160
-0.97548, 153, 249, 216, 312
-0.975483, 129, 153, 256, 216
-0.975495, 305, 241, 432, 304
-0.975524, 209, 177, 336, 240
-0.975663, 405, 97, 436, 224
-0.975785, 225, 241, 352, 304
-0.975793, 117, 113, 148, 240
-0.975855, 217, 1, 280, 256
-0.97601, 237, 225, 268, 288
-0.976219, 273, 185, 400, 248
-0.976231, 353, 249, 480, 312
-0.976245, 49, 81, 80, 144
-0.976251, 225, 153, 352, 216
-0.976295, 45, 265, 76, 328
-0.9763, 41, 57, 72, 120
-0.976352, 305, 201, 336, 264
-0.976355, 285, 241, 316, 304
-0.976372, 49, 185, 176, 248
-0.976451, 121, 49, 184, 112
-0.976481, 373, 161, 404, 288
-0.976483, 209, 209, 240, 333
-0.976495, 117, 65, 148, 192
-0.976544, 433, 121, 496, 184
-0.976605, 105, 121, 168, 184
-0.97664, 81, 273, 144, 333
-0.976671, 41, 1, 104, 64
-0.976699, 53, 49, 84, 176
-0.976715, 241, 73, 368, 136
-0.976733, 153, 225, 216, 288
-0.976761, 85, 161, 116, 224
-0.976827, 389, 105, 420, 168
-0.976828, 81, 57, 208, 120
-0.97694, 353, 49, 480, 112
-0.976961, 113, 249, 240, 312
-0.977096, 289, 273, 416, 333
-0.97713, 133, 73, 164, 136
-0.977229, 361, 65, 424, 320
-0.977322, 113, 89, 144, 152
-0.977359, 1, 73, 64, 136
-0.977363, 393, 1, 456, 256
-0.977364, 121, 17, 184, 80
-0.977411, 161, 9, 288, 72
-0.977423, 169, 161, 200, 288
-0.977425, 89, 193, 152, 256
-0.977432, 213, 217, 244, 280
-0.977439, 33, 1, 96, 333
-0.977505, 61, 185, 92, 248
-0.977516, 305, 161, 432, 224
-0.977564, 369, 81, 400, 208
-0.97771, 137, 209, 200, 333
-0.977726, 245, 49, 276, 112
-0.977728, 97, 177, 224, 240
-0.977772, 301, 265, 332, 328
-0.977833, 385, 209, 448, 272
-0.977836, 425, 169, 488, 232
-0.977855, 37, 145, 68, 208
-0.977985, 145, 185, 208, 248
-0.977987, 369, 49, 432, 112
-0.97801, 361, 145, 392, 272
-0.978093, 249, 209, 280, 333
-0.978145, 401, 105, 432, 168
-0.97815, 233, 249, 264, 312
-0.978184, 465, 1, 496, 128
-0.978282, 369, 89, 496, 152
-0.978308, 433, 1, 496, 256
-0.978331, 441, 1, 472, 64
-0.978399, 241, 113, 368, 176
-0.978466, 101, 113, 132, 240
-0.978477, 329, 25, 360, 88
-0.978553, 369, 209, 400, 333
-0.97859, 405, 17, 436, 144
-0.978604, 413, 1, 444, 64
-0.978625, 425, 73, 488, 136
-0.978627, 269, 193, 300, 256
-0.978657, 469, 145, 500, 208
-0.978712, 145, 177, 272, 240
-0.978713, 281, 1, 344, 128
-0.978733, 161, 249, 192, 312
-0.978764, 317, 265, 348, 328
-0.978925, 57, 257, 88, 320
-0.978999, 257, 249, 288, 312
-0.979003, 293, 193, 324, 320
-0.979012, 289, 73, 416, 136
-0.979025, 281, 33, 344, 288
-0.979065, 85, 97, 116, 160
-0.979137, 17, 225, 80, 288
-0.979216, 73, 249, 104, 312
-0.979269, 177, 129, 304, 192
-0.97927, 145, 1, 208, 128
-0.979304, 225, 113, 288, 176
-0.979317, 337, 81, 400, 144
-0.979344, 309, 145, 340, 208
-0.979379, 249, 201, 280, 264
-0.979382, 9, 161, 72, 224
-0.979429, 273, 169, 304, 232
-0.979581, 197, 161, 228, 288
-0.979584, 305, 193, 336, 320
-0.979682, 121, 97, 184, 160
-0.979717, 81, 17, 208, 80
-0.979748, 73, 169, 104, 232
-0.979801, 345, 177, 376, 304
-0.979842, 465, 257, 496, 320
-0.979861, 65, 209, 128, 272
-0.979883, 37, 113, 68, 240
-0.979894, 457, 25, 488, 88
-0.979894, 305, 217, 432, 280
-0.979911, 249, 9, 312, 72
-0.980004, 181, 161, 212, 288
-0.980014, 97, 121, 224, 184
-0.980035, 313, 33, 344, 160
-0.980059, 341, 273, 372, 333
-0.980145, 153, 113, 216, 240
-0.980176, 437, 265, 468, 328
-0.980246, 65, 33, 96, 160
-0.980332, 301, 225, 332, 288
-0.980371, 281, 9, 344, 72
-0.980397, 57, 1, 120, 333
-0.980422, 329, 1, 360, 128
-0.980428, 1, 1, 64, 256
-0.980476, 357, 161, 388, 224
-0.980532, 105, 161, 136, 288
-0.980538, 385, 73, 416, 136
-0.980607, 313, 41, 344, 104
-0.980648, 317, 193, 348, 256
-0.980693, 381, 273, 412, 333
-0.980707, 369, 161, 496, 224
-0.980853, 177, 73, 304, 136
-0.981, 233, 177, 264, 240
-0.981028, 89, 249, 120, 312
-0.981071, 449, 1, 480, 128
-0.981077, 321, 177, 352, 304
-0.981126, 425, 241, 456, 304
-0.98121, 413, 113, 444, 176
-0.981249, 369, 161, 400, 224
-0.981302, 81, 81, 208, 144
-0.981363, 261, 193, 292, 320
-0.981412, 193, 41, 320, 104
-0.981418, 289, 265, 320, 328
-0.98145, 53, 217, 84, 280
-0.981477, 217, 161, 248, 288
-0.981558, 245, 17, 276, 144
-0.981564, 429, 1, 460, 64
-0.981576, 381, 1, 412, 64
-0.981601, 437, 241, 468, 304
-0.981645, 401, 145, 432, 208
-0.981683, 337, 273, 464, 333
-0.981727, 345, 169, 376, 232
-0.981739, 237, 201, 268, 264
-0.981788, 125, 161, 156, 288
-0.981789, 425, 97, 456, 160
-0.981809, 65, 121, 96, 184
-0.981812, 469, 193, 500, 320
-0.982024, 81, 177, 112, 304
-0.982033, 269, 249, 300, 312
-0.982053, 329, 265, 360, 328
-0.982086, 245, 249, 276, 312
-0.982165, 353, 273, 384, 333
-0.982227, 133, 65, 164, 192
-0.982289, 405, 33, 436, 96
-0.982347, 33, 265, 64, 328
-0.982407, 1, 209, 128, 272
-0.982436, 117, 1, 148, 128
-0.982476, 65, 73, 96, 136
-0.982495, 393, 169, 424, 232
-0.982651, 333, 1, 364, 64
-0.982699, 149, 249, 180, 312
-0.982703, 93, 1, 124, 128
-0.982718, 213, 161, 244, 224
-0.982741, 33, 233, 160, 296
-0.982751, 113, 137, 144, 200
-0.982787, 417, 81, 448, 208
-0.982828, 465, 121, 496, 184
-0.982838, 213, 249, 244, 312
-0.98302, 97, 89, 128, 152
-0.983073, 437, 49, 468, 176
-0.983075, 253, 129, 284, 256
-0.983095, 457, 145, 488, 208
-0.983127, 49, 209, 80, 333
-0.983153, 397, 241, 428, 304
-0.983277, 469, 185, 500, 248
-0.98334, 389, 137, 420, 200
-0.983607, 113, 265, 144, 328
-0.983622, 101, 249, 132, 312
-0.983671, 237, 129, 268, 256
-0.983713, 125, 257, 156, 320
-0.983758, 249, 73, 280, 136
-0.983799, 373, 33, 404, 160
-0.983806, 465, 209, 496, 272
-0.983844, 289, 145, 320, 272
-0.983849, 113, 225, 240, 288
-0.983969, 269, 145, 300, 272
-0.983969, 449, 273, 480, 333
-0.984005, 149, 177, 180, 304
-0.984046, 253, 81, 284, 208
-0.984055, 137, 257, 168, 320
-0.984075, 245, 25, 276, 88
-0.984089, 49, 25, 80, 88
-0.984175, 185, 225, 216, 288
-0.984194, 177, 97, 304, 160
-0.98422, 37, 33, 68, 96
-0.984222, 237, 1, 268, 64
-0.984236, 461, 113, 492, 240
-0.984255, 145, 201, 272, 264
-0.984318, 425, 273, 456, 333
-0.984335, 81, 1, 144, 333
-0.984342, 349, 193, 380, 256
-0.984345, 469, 25, 500, 88
-0.984427, 53, 57, 84, 120
-0.984439, 101, 41, 132, 104
-0.984501, 417, 65, 448, 128
-0.984517, 389, 209, 420, 333
-0.984527, 385, 41, 416, 104
-0.984575, 189, 209, 220, 333
-0.984588, 61, 209, 92, 333
-0.984593, 369, 1, 432, 333
-0.984599, 37, 1, 68, 128
-0.984626, 309, 169, 340, 232
-0.984635, 329, 233, 360, 296
-0.984682, 33, 177, 64, 240
-0.984689, 449, 49, 480, 176
-0.984699, 461, 65, 492, 192
-0.984742, 325, 169, 356, 232
-0.984749, 437, 25, 468, 88
-0.984799, 425, 145, 456, 208
-0.984838, 181, 137, 212, 200
-0.98484, 193, 161, 224, 224
-0.984912, 357, 209, 388, 333
-0.984917, 173, 249, 204, 312
-0.984938, 353, 225, 480, 288
-0.984948, 125, 209, 156, 333
-0.984993, 113, 233, 144, 296
-0.985069, 81, 273, 208, 333
-0.985094, 413, 249, 444, 312
-0.985116, 449, 193, 480, 320
-0.98513, 281, 1, 344, 333
-0.985139, 161, 65, 224, 320
-0.985144, 225, 1, 288, 333
-0.985161, 313, 97, 344, 224
-0.985195, 137, 177, 168, 304
-0.985361, 333, 177, 364, 304
-0.985413, 93, 177, 124, 304
-0.985428, 177, 209, 208, 333
-0.985459, 129, 73, 256, 136
-0.98554, 1, 1, 64, 333
-0.985674, 97, 201, 224, 264
-0.985688, 321, 193, 448, 256
-0.985776, 185, 65, 248, 192
-0.985956, 429, 1, 460, 128
-0.98618, 137, 1, 168, 128
-0.986249, 1, 193, 32, 320
-0.986313, 433, 97, 464, 224
-0.986331, 417, 17, 448, 144
-0.986384, 137, 33, 200, 288
-0.986467, 349, 129, 380, 256
-0.986729, 249, 1, 312, 333
-0.986817, 321, 1, 384, 333
-0.986824, 177, 113, 208, 240
-0.986866, 405, 177, 436, 304
-0.986875, 137, 129, 168, 256
-0.986898, 449, 129, 480, 256
-0.986911, 29, 161, 60, 288
-0.987012, 409, 1, 472, 333
-0.987093, 109, 209, 140, 333
-0.987144, 49, 209, 176, 272
-0.987201, 129, 273, 256, 333
-0.987488, 97, 77, 160, 108
-0.987519, 185, 33, 248, 288
-0.987582, 185, 1, 248, 333
-0.987661, 177, 273, 304, 333
-0.987761, 25, 65, 88, 96
-0.987948, 25, 89, 88, 120
-0.987954, 437, 193, 468, 320
-0.988075, 289, 193, 352, 224
-0.988085, 57, 153, 120, 184
-0.988137, 165, 209, 196, 333
-0.988144, 57, 97, 120, 128
-0.988191, 41, 161, 72, 288
-0.98823, 57, 141, 120, 172
-0.988352, 97, 65, 160, 96
-0.988363, 129, 41, 256, 104
-0.988405, 149, 129, 180, 256
-0.988416, 437, 145, 468, 272
-0.988419, 421, 209, 452, 333
-0.988432, 25, 77, 88, 108
-0.988445, 433, 1, 496, 333
-0.988496, 1, 153, 256, 216
-0.988497, 345, 1, 408, 333
-0.988571, 37, 209, 68, 333
-0.988623, 29, 49, 60, 176
-0.988674, 385, 101, 448, 132
-0.988711, 149, 1, 180, 128
-0.988723, 33, 161, 96, 192
-0.988731, 129, 17, 384, 80
-0.988764, 325, 129, 356, 256
-0.988773, 209, 209, 272, 240
-0.988782, 273, 181, 336, 212
-0.988819, 57, 77, 120, 108
-0.988819, 273, 157, 336, 188
-0.988873, 89, 89, 152, 120
-0.988874, 225, 209, 480, 272
-0.988893, 153, 49, 216, 176
-0.988938, 57, 181, 120, 212
-0.988959, 81, 149, 144, 180
-0.989006, 65, 61, 128, 92
-0.989044, 121, 1, 184, 333
-0.989134, 233, 213, 296, 244
-0.989134, 33, 141, 96, 172
-0.989135, 33, 41, 96, 72
-0.989155, 225, 41, 480, 104
-0.989168, 185, 213, 248, 244
-0.98918, 361, 113, 424, 144
-0.989194, 81, 133, 144, 164
-0.98921, 393, 149, 456, 180
-0.989253, 225, 1, 480, 64
-0.989279, 33, 189, 96, 220
-0.989316, 369, 193, 496, 256
-0.989371, 393, 25, 456, 56
-0.989377, 265, 193, 328, 224
-0.989399, 57, 129, 120, 160
-0.989407, 33, 173, 96, 204
-0.989429, 25, 109, 88, 140
-0.989452, 81, 169, 144, 200
-0.989463, 57, 169, 120, 200
-0.989469, 305, 137, 368, 168
-0.989475, 257, 213, 320, 244
-0.989488, 25, 53, 88, 84
-0.989516, 313, 185, 376, 216
-0.989606, 393, 37, 456, 68
-0.989674, 433, 133, 496, 164
-0.989716, 97, 1, 160, 32
-0.98973, 97, 17, 160, 48
-0.989747, 289, 205, 352, 236
-0.989778, 401, 113, 464, 144
-0.989798, 65, 89, 320, 152
-0.989814, 1, 125, 64, 156
-0.989816, 417, 241, 480, 272
-0.989825, 249, 229, 312, 260
-0.98983, 41, 257, 104, 288
-0.989841, 369, 37, 432, 68
-0.989842, 65, 49, 128, 80
-0.98985, 265, 65, 328, 96
-0.989865, 217, 237, 280, 268
-0.989889, 193, 229, 256, 260
-0.98992, 349, 49, 380, 176
-0.989958, 273, 241, 336, 272
-0.989973, 57, 209, 120, 240
-0.990007, 353, 149, 416, 180
-0.990027, 233, 201, 296, 232
-0.990045, 273, 169, 336, 200
-0.990081, 97, 29, 160, 60
-0.990081, 377, 161, 440, 192
-0.990083, 57, 9, 120, 40
-0.990091, 169, 237, 232, 268
-0.99012, 33, 129, 96, 160
-0.990125, 433, 1, 496, 32
-0.990141, 417, 81, 480, 112
-0.990165, 313, 281, 376, 312
-0.990176, 225, 169, 288, 200
-0.990195, 225, 177, 480, 240
-0.990195, 281, 221, 344, 252
-0.990202, 33, 25, 96, 56
-0.990207, 97, 41, 160, 72
-0.990222, 25, 217, 88, 248
-0.990255, 129, 65, 192, 96
-0.990256, 297, 153, 360, 184
-0.990269, 249, 249, 312, 280
-0.990275, 417, 37, 480, 68
-0.990281, 409, 97, 472, 128
-0.99031, 313, 45, 376, 76
-0.990314, 225, 89, 480, 152
-0.990316, 353, 165, 416, 196
-0.990319, 249, 181, 312, 212
-0.990332, 433, 153, 496, 184
-0.990338, 425, 49, 488, 80
-0.990341, 65, 29, 128, 60
-0.990346, 121, 81, 184, 112
-0.990352, 249, 161, 312, 192
-0.990359, 17, 273, 80, 304
-0.990382, 265, 141, 328, 172
-0.990406, 97, 177, 352, 240
-0.990428, 225, 141, 288, 172
-0.99043, 225, 77, 288, 108
-0.990436, 169, 141, 232, 172
-0.990438, 297, 173, 360, 204
-0.990446, 361, 97, 424, 128
-0.990451, 361, 137, 424, 168
-0.990452, 185, 153, 248, 184
-0.990471, 193, 265, 448, 328
-0.990484, 409, 281, 472, 312
-0.990492, 305, 233, 368, 264
-0.990502, 129, 217, 384, 280
-0.990507, 1, 113, 64, 144
-0.990508, 153, 217, 216, 248
-0.990511, 321, 125, 384, 156
-0.990515, 393, 173, 456, 204
-0.990526, 393, 245, 456, 276
-0.990527, 401, 53, 464, 84
-0.990546, 301, 97, 332, 224
-0.990548, 97, 153, 352, 216
-0.990549, 329, 25, 392, 56
-0.990555, 409, 161, 472, 192
-0.99056, 73, 193, 136, 224
-0.990561, 417, 17, 480, 48
-0.990561, 97, 53, 160, 84
-0.990578, 129, 241, 384, 304
-0.99058, 17, 261, 80, 292
-0.990598, 409, 137, 472, 168
-0.99061, 57, 273, 120, 304
-0.990621, 189, 113, 220, 240
-0.990629, 81, 181, 144, 212
-0.990656, 305, 57, 368, 88
-0.990662, 1, 45, 64, 76
-0.990703, 177, 169, 240, 200
-0.990705, 1, 197, 64, 228
-0.990706, 385, 73, 448, 104
-0.990712, 65, 253, 128, 284
-0.990714, 257, 53, 320, 84
-0.990715, 377, 49, 440, 80
-0.990722, 193, 245, 256, 276
-0.99077, 213, 97, 244, 224
-0.990775, 13, 177, 44, 304
-0.99082, 217, 41, 280, 72
-0.990838, 425, 173, 488, 204
-0.990839, 301, 49, 332, 176
-0.990847, 265, 81, 328, 112
-0.990861, 217, 53, 280, 84
-0.990865, 49, 109, 112, 140
-0.990878, 169, 249, 232, 280
-0.990878, 369, 25, 432, 56
-0.99089, 313, 197, 376, 228
-0.990898, 337, 177, 400, 208
-0.9909, 33, 249, 288, 312
-0.990904, 217, 225, 280, 256
-0.990908, 385, 5, 448, 36
-0.99095, 1, 41, 500, 104
-0.991057, 425, 161, 456, 288
-0.991068, 1, 1, 500, 64
-0.991068, 325, 49, 356, 176
-0.991091, 65, 129, 320, 192
-0.991114, 225, 113, 480, 176
-0.99116, 161, 113, 192, 240
-0.991245, 65, 57, 320, 120
-0.991266, 237, 81, 268, 208
-0.991297, 257, 241, 500, 304
-0.991332, 1, 145, 32, 272
-0.9914, 77, 17, 108, 144
-0.991464, 17, 73, 144, 104
-0.99147, 1, 153, 500, 216
-0.991503, 337, 113, 368, 240
-0.99167, 225, 145, 480, 208
-0.991764, 1, 249, 500, 312
-0.991798, 1, 129, 500, 192
-0.9918, 1, 97, 500, 160
-0.991863, 305, 189, 336, 220
-0.991879, 85, 161, 116, 192
-0.991899, 397, 101, 428, 132
-0.991902, 117, 69, 148, 100
-0.991984, 201, 81, 232, 208
-0.99202, 101, 73, 132, 104
-0.992031, 41, 109, 72, 140
-0.992054, 49, 61, 176, 92
-0.992072, 225, 65, 480, 128
-0.992114, 17, 45, 144, 76
-0.99215, 277, 181, 308, 212
-0.99218, 129, 81, 160, 112
-0.992183, 85, 149, 116, 180
-0.992185, 69, 149, 100, 180
-0.992188, 381, 165, 412, 196
-0.992204, 41, 121, 72, 152
-0.992218, 117, 85, 148, 116
-0.992254, 413, 93, 444, 124
-0.992284, 65, 161, 96, 192
-0.992288, 21, 113, 52, 240
-0.992296, 49, 145, 80, 176
-0.992299, 269, 213, 300, 244
-0.992311, 45, 13, 76, 44
-0.992313, 49, 89, 80, 120
-0.992323, 237, 213, 268, 244
-0.992335, 97, 149, 128, 180
-0.992359, 253, 217, 284, 248
-0.99236, 289, 225, 320, 256
-0.99236, 61, 101, 92, 132
-0.992364, 225, 213, 256, 244
-0.992368, 225, 201, 256, 232
-0.992372, 89, 133, 120, 164
-0.992377, 145, 81, 176, 208
-0.992396, 369, 109, 400, 140
-0.99242, 293, 193, 324, 224
-0.992437, 313, 133, 344, 164
-0.992443, 101, 161, 132, 192
-0.992445, 369, 157, 400, 188
-0.992447, 293, 205, 324, 236
-0.99245, 281, 193, 312, 224
-0.992454, 389, 113, 420, 144
-0.992472, 37, 97, 68, 128
-0.992478, 281, 213, 312, 244
-0.99249, 469, 129, 500, 160
-0.992496, 389, 177, 420, 208
-0.992499, 53, 185, 84, 216
-0.992504, 129, 69, 160, 100
-0.992509, 69, 177, 100, 208
-0.992525, 129, 97, 256, 160
-0.992533, 105, 61, 136, 92
-0.992541, 101, 133, 132, 164
-0.992551, 209, 213, 240, 244
-0.992551, 81, 181, 112, 212
-0.992557, 287, 209, 302, 272
-0.992566, 237, 237, 268, 268
-0.992566, 305, 201, 336, 232
-0.992572, 293, 177, 324, 208
-0.992574, 325, 197, 356, 228
-0.992577, 209, 209, 336, 240
-0.992586, 269, 229, 300, 260
-0.992589, 41, 133, 72, 164
-0.992589, 409, 109, 440, 140
-0.992613, 269, 33, 300, 160
-0.992615, 305, 153, 336, 184
-0.992616, 101, 85, 132, 116
-0.992626, 385, 101, 416, 132
-0.99263, 37, 65, 68, 96
-0.992634, 89, 129, 104, 192
-0.992636, 53, 273, 84, 304
-0.992638, 405, 37, 436, 68
-0.992639, 405, 25, 436, 56
-0.992648, 193, 229, 224, 260
-0.992649, 401, 157, 432, 188
-0.99265, 257, 229, 288, 260
-0.992651, 69, 137, 100, 168
-0.992657, 241, 201, 272, 232
-0.992664, 45, 1, 76, 32
-0.992672, 217, 225, 248, 256
-0.992676, 409, 1, 440, 32
-0.99268, 37, 149, 68, 180
-0.992683, 41, 261, 72, 292
-0.992684, 77, 97, 108, 128
-0.992685, 113, 149, 144, 180
-0.992688, 53, 157, 84, 188
-0.9927, 329, 33, 360, 64
-0.992702, 37, 85, 68, 116
-0.992709, 229, 169, 260, 200
-0.992716, 53, 113, 84, 144
-0.992716, 325, 185, 356, 216
-0.992723, 101, 173, 132, 204
-0.992725, 213, 161, 244, 192
-0.992735, 389, 149, 420, 180
-0.992747, 393, 37, 424, 68
-0.992749, 433, 149, 464, 180
-0.992755, 301, 237, 332, 268
-0.992756, 357, 137, 388, 168
-0.992758, 401, 89, 432, 120
-0.992759, 93, 121, 124, 152
-0.992761, 297, 165, 328, 196
-0.992773, 53, 257, 84, 288
-0.992774, 1, 177, 256, 240
-0.992775, 445, 137, 476, 168
-0.99278, 357, 165, 388, 196
-0.992782, 61, 201, 92, 232
-0.992785, 433, 81, 464, 112
-0.992786, 313, 233, 344, 264
-0.992791, 53, 217, 84, 248
-0.992793, 381, 37, 412, 68
-0.992795, 385, 49, 416, 80
-0.992797, 425, 97, 456, 128
-0.992798, 421, 37, 452, 68
-0.992805, 229, 225, 260, 256
-0.992807, 197, 213, 228, 244
-0.99281, 305, 177, 336, 208
-0.992816, 469, 153, 500, 184
-0.992819, 45, 25, 76, 56
-0.992822, 325, 45, 356, 76
-0.992824, 449, 1, 480, 32
-0.992828, 37, 45, 68, 76
-0.992833, 33, 9, 288, 72
-0.992835, 197, 153, 228, 184
-0.992836, 181, 237, 212, 268
-0.992837, 377, 177, 408, 208
-0.992843, 65, 257, 96, 288
-0.992844, 437, 33, 468, 64
-0.992847, 305, 221, 336, 252
-0.99285, 109, 1, 140, 32
-0.992851, 65, 85, 96, 116
-0.992856, 457, 129, 488, 160
-0.992858, 49, 169, 80, 200
-0.992861, 469, 141, 500, 172
-0.992868, 277, 241, 308, 272
-0.992869, 257, 249, 288, 280
-0.99287, 301, 141, 332, 172
-0.99288, 421, 149, 452, 180
-0.992889, 205, 233, 236, 264
-0.992889, 317, 281, 348, 312
-0.992892, 261, 197, 292, 228
-0.992895, 417, 77, 448, 108
-0.992896, 417, 21, 448, 52
-0.992899, 345, 189, 376, 220
-0.9929, 1, 185, 500, 248
-0.9929, 441, 277, 472, 308
-0.9929, 113, 161, 144, 192
-0.992941, 161, 1, 224, 333
-0.992974, 385, 161, 400, 224
-0.99306, 295, 185, 310, 248
-0.993071, 285, 177, 300, 240
-0.993117, 225, 81, 256, 208
-0.993173, 33, 273, 288, 333
-0.993195, 17, 33, 144, 64
-0.993205, 17, 165, 144, 196
-0.993216, 17, 85, 144, 116
-0.993225, 193, 229, 320, 260
-0.993233, 137, 73, 152, 136
-0.993272, 67, 97, 82, 160
-0.993292, 289, 137, 416, 168
-0.993301, 353, 141, 480, 172
-0.99333, 309, 153, 324, 216
-0.993339, 1, 81, 32, 208
-0.993366, 305, 45, 432, 76
-0.993435, 53, 105, 68, 168
-0.993475, 241, 21, 368, 52
-0.993478, 225, 197, 352, 228
-0.99348, 361, 33, 392, 160
-0.993507, 263, 217, 278, 280
-0.993525, 321, 33, 448, 64
-0.993558, 277, 209, 292, 272
-0.993603, 17, 149, 144, 180
-0.993615, 299, 217, 314, 280
-0.993756, 33, 97, 160, 128
-0.993786, 415, 89, 430, 152
-0.993823, 131, 57, 146, 120
-0.993891, 255, 225, 270, 288
-0.993918, 289, 277, 416, 308
-0.993924, 161, 217, 288, 248
-0.99394, 81, 85, 208, 116
-0.993953, 307, 193, 322, 256
-0.993962, 97, 161, 224, 192
-0.993972, 241, 33, 368, 64
-0.993974, 17, 185, 144, 216
-0.994007, 305, 265, 320, 328
-0.994014, 271, 209, 286, 272
-0.994021, 369, 49, 496, 80
-0.994049, 61, 105, 76, 168
-0.994107, 17, 1, 144, 32
-0.994129, 303, 153, 318, 216
-0.994146, 125, 57, 140, 120
-0.99415, 289, 149, 416, 180
-0.994152, 89, 97, 104, 160
-0.994159, 415, 1, 430, 64
-0.994164, 49, 265, 64, 328
-0.994177, 241, 45, 368, 76
-0.994181, 1, 225, 500, 288
-0.994183, 369, 293, 496, 324
-0.994187, 1, 65, 500, 128
-0.994188, 289, 237, 416, 268
-0.994188, 63, 145, 78, 208
-0.994188, 247, 225, 262, 288
-0.994192, 241, 77, 368, 108
-0.994206, 273, 193, 400, 224
-0.994219, 33, 33, 288, 96
-0.994223, 209, 241, 336, 272
-0.994238, 285, 97, 316, 224
-0.994251, 481, 145, 496, 208
-0.994271, 405, 1, 420, 64
-0.994272, 315, 177, 330, 240
-0.994289, 103, 161, 118, 224
-0.99429, 353, 153, 480, 184
-0.994296, 1, 209, 256, 272
-0.994304, 353, 117, 480, 148
-0.994326, 33, 129, 160, 160
-0.994335, 129, 245, 256, 276
-0.994337, 57, 257, 72, 320
-0.994346, 367, 129, 382, 192
-0.994357, 17, 21, 144, 52
-0.994403, 87, 161, 102, 224
-0.994449, 373, 113, 388, 176
-0.99448, 475, 145, 490, 208
-0.994487, 65, 177, 192, 208
-0.994506, 145, 173, 272, 204
-0.994511, 227, 217, 242, 280
-0.994519, 237, 217, 252, 280
-0.994531, 81, 149, 208, 180
-0.994548, 1, 273, 500, 333
-0.99455, 269, 233, 284, 296
-0.994565, 65, 185, 80, 248
-0.994579, 177, 149, 304, 180
-0.994581, 57, 129, 72, 192
-0.994596, 369, 37, 496, 68
-0.994608, 241, 9, 368, 40
-0.994608, 51, 129, 66, 192
-0.99462, 33, 109, 160, 140
-0.994631, 255, 249, 270, 312
-0.994639, 127, 89, 142, 152
-0.994673, 289, 177, 416, 208
-0.994702, 315, 153, 330, 216
-0.994724, 315, 265, 330, 328
-0.994744, 293, 209, 308, 272
-0.994745, 161, 161, 288, 192
-0.994745, 311, 129, 326, 192
-0.994748, 241, 65, 368, 96
-0.99475, 249, 249, 264, 312
-0.994763, 279, 185, 294, 248
-0.994767, 103, 65, 118, 128
-0.994793, 41, 57, 56, 120
-0.9948, 119, 65, 134, 128
-0.994832, 41, 97, 56, 160
-0.994846, 403, 73, 418, 136
-0.994846, 65, 65, 96, 320
-0.99485, 109, 129, 124, 192
-0.994851, 161, 1, 192, 128
-0.994852, 65, 265, 80, 328
-0.994878, 301, 193, 316, 256
-0.994881, 277, 233, 292, 296
-0.994888, 233, 257, 248, 320
-0.994896, 247, 201, 262, 264
-0.994897, 289, 205, 416, 236
-0.994897, 255, 201, 270, 264
-0.994902, 461, 273, 476, 333
-0.994905, 225, 177, 352, 208
-0.994933, 69, 153, 84, 216
-0.994965, 301, 1, 332, 128
-0.994972, 69, 73, 84, 136
-0.99498, 225, 161, 352, 192
-0.994982, 1, 1, 32, 128
-0.994983, 129, 229, 256, 260
-0.994986, 97, 89, 112, 152
-0.994988, 393, 113, 408, 176
-0.994999, 305, 121, 432, 152
-0.994999, 241, 269, 368, 300
-0.995, 357, 169, 372, 232
-0.995022, 95, 137, 110, 200
-0.995023, 321, 185, 336, 248
-0.995024, 241, 221, 368, 252
-0.995032, 373, 145, 388, 208
-0.995038, 225, 285, 352, 316
-0.995038, 321, 21, 448, 52
-0.995039, 115, 129, 130, 192
-0.995041, 131, 257, 146, 320
-0.995057, 401, 161, 416, 224
-0.995064, 47, 105, 62, 168
-0.995079, 257, 33, 288, 160
-0.995085, 337, 49, 368, 176
-0.99512, 83, 97, 98, 160
-0.995137, 241, 137, 368, 168
-0.995141, 305, 57, 432, 88
-0.995167, 65, 25, 80, 88
-0.995186, 161, 249, 176, 312
-0.995194, 321, 265, 336, 328
-0.995199, 1, 61, 128, 92
-0.995202, 239, 257, 254, 320
-0.995249, 227, 177, 242, 240
-0.99525, 471, 265, 486, 328
-0.995256, 429, 97, 444, 160
-0.995261, 241, 89, 368, 120
-0.995264, 473, 121, 488, 184
-0.995268, 407, 41, 422, 104
-0.995275, 387, 1, 402, 64
-0.995276, 399, 97, 414, 160
-0.99528, 481, 121, 496, 184
-0.99529, 349, 1, 380, 128
-0.995307, 321, 265, 448, 296
-0.995314, 299, 241, 314, 304
-0.995324, 113, 73, 240, 104
-0.995329, 305, 161, 432, 192
-0.995329, 151, 257, 166, 320
-0.99533, 57, 161, 72, 224
-0.99533, 261, 241, 276, 304
-0.99533, 33, 261, 160, 292
-0.995339, 369, 169, 496, 200
-0.995352, 129, 145, 256, 176
-0.995355, 161, 205, 288, 236
-0.995355, 321, 5, 448, 36
-0.995355, 353, 181, 480, 212
-0.995372, 397, 273, 412, 333
-0.995373, 383, 113, 398, 176
-0.995385, 361, 137, 376, 200
-0.99539, 331, 9, 346, 72
-0.995398, 111, 49, 126, 112
-0.995404, 43, 129, 58, 192
-0.995409, 53, 81, 68, 144
-0.995413, 289, 109, 416, 140
-0.995417, 353, 105, 480, 136
-0.995418, 437, 233, 452, 296
-0.995425, 111, 161, 126, 224
-0.995429, 393, 81, 408, 144
-0.995441, 347, 273, 362, 333
-0.995452, 65, 193, 192, 224
-0.995463, 421, 89, 436, 152
-0.995477, 65, 73, 192, 104
-0.995479, 309, 241, 324, 304
-0.995481, 33, 285, 160, 316
-0.995496, 323, 49, 338, 112
-0.995517, 61, 81, 76, 144
-0.995531, 393, 1, 408, 64
-0.995535, 317, 113, 332, 176
-0.995536, 53, 1, 84, 256
-0.995538, 85, 65, 116, 320
-0.99554, 391, 177, 406, 240
-0.995547, 81, 237, 208, 268
-0.995553, 337, 245, 464, 276
-0.995558, 329, 265, 344, 328
-0.995574, 241, 113, 368, 144
-0.995578, 221, 161, 236, 224
-0.995589, 1, 197, 128, 228
-0.995593, 441, 1, 456, 64
-0.995598, 169, 249, 184, 312
-0.995601, 431, 241, 446, 304
-0.995611, 41, 1, 72, 256
-0.995619, 39, 33, 54, 96
-0.995621, 161, 81, 288, 112
-0.995632, 353, 257, 368, 320
-0.995639, 145, 285, 272, 316
-0.995645, 439, 273, 454, 333
-0.995658, 101, 129, 116, 192
-0.995663, 399, 1, 414, 64
-0.995668, 65, 225, 80, 288
-0.995669, 227, 257, 242, 320
-0.995669, 57, 185, 72, 248
-0.995672, 177, 193, 304, 224
-0.995676, 459, 25, 474, 88
-0.995691, 141, 257, 156, 320
-0.995696, 365, 169, 380, 232
-0.995718, 265, 81, 296, 208
-0.995726, 413, 113, 428, 176
-0.995729, 175, 249, 190, 312
-0.995731, 467, 145, 482, 208
-0.995738, 337, 81, 464, 112
-0.995739, 85, 249, 100, 312
-0.995761, 161, 29, 288, 60
-0.995762, 337, 9, 352, 72
-0.995767, 65, 49, 192, 80
-0.995828, 241, 101, 368, 132
-0.995869, 225, 125, 352, 156
-0.995897, 177, 137, 304, 168
-0.995907, 101, 33, 132, 288
-0.995909, 81, 137, 208, 168
-0.995912, 289, 297, 416, 328
-0.99592, 289, 89, 416, 120
-0.995939, 65, 249, 192, 280
-0.995981, 81, 1, 208, 32
-0.995986, 337, 225, 464, 256
-0.996048, 289, 217, 416, 248
-0.996066, 337, 197, 464, 228
-0.996088, 365, 65, 396, 320
-0.996116, 161, 1, 288, 32
-0.996122, 193, 253, 320, 284
-0.99614, 25, 209, 56, 333
-0.996169, 49, 273, 176, 304
-0.996184, 315, 185, 330, 216
-0.996185, 97, 293, 224, 324
-0.996215, 113, 217, 240, 248
-0.996239, 161, 17, 288, 48
-0.996243, 257, 257, 384, 288
-0.996249, 369, 265, 496, 296
-0.996267, 369, 25, 496, 56
-0.996279, 369, 65, 496, 96
-0.996305, 369, 277, 496, 308
-0.996306, 353, 129, 480, 160
-0.99632, 225, 149, 352, 180
-0.99632, 233, 1, 264, 128
-0.996337, 369, 1, 496, 32
-0.996341, 81, 37, 208, 68
-0.996354, 309, 153, 324, 184
-0.996379, 55, 109, 70, 140
-0.996416, 289, 69, 416, 100
-0.996427, 369, 93, 496, 124
-0.996433, 1, 217, 128, 248
-0.996464, 1, 273, 128, 304
-0.99647, 119, 73, 134, 104
-0.996472, 97, 205, 224, 236
-0.996525, 393, 1, 424, 256
-0.996556, 241, 297, 368, 328
-0.996584, 81, 21, 208, 52
-0.996599, 161, 65, 288, 96
-0.996611, 161, 93, 288, 124
-0.99662, 117, 33, 148, 288
-0.996622, 161, 41, 288, 72
-0.99663, 113, 193, 240, 224
-0.996638, 161, 53, 288, 84
-0.996659, 89, 133, 104, 164
-0.996665, 125, 69, 140, 100
-0.99677, 97, 61, 224, 92
-0.996795, 129, 133, 256, 164
-0.996802, 17, 249, 144, 280
-0.996803, 177, 17, 240, 144
-0.996807, 193, 273, 320, 304
-0.996837, 305, 193, 320, 224
-0.996846, 291, 181, 306, 212
-0.996847, 129, 81, 144, 112
-0.996864, 385, 165, 400, 196
-0.996881, 133, 65, 148, 96
-0.996899, 161, 297, 288, 328
-0.996902, 413, 97, 428, 128
-0.996912, 299, 193, 314, 224
-0.996933, 245, 1, 276, 256
-0.996939, 317, 33, 348, 288
-0.996961, 1, 297, 128, 328
-0.99699, 367, 133, 382, 164
-0.997001, 81, 125, 208, 156
-0.997009, 63, 149, 78, 180
-0.99701, 101, 161, 116, 192
-0.997016, 391, 157, 406, 188
-0.997018, 393, 109, 408, 140
-0.997029, 135, 81, 150, 112
-0.997033, 411, 29, 426, 60
-0.997042, 263, 217, 278, 248
-0.997071, 53, 1, 68, 32
-0.997071, 301, 205, 316, 236
-0.997084, 55, 121, 70, 152
-0.997085, 279, 213, 294, 244
-0.997086, 61, 97, 76, 128
-0.997095, 307, 141, 322, 172
-0.99712, 381, 33, 412, 288
-0.997129, 81, 261, 208, 292
-0.997132, 285, 213, 300, 244
-0.997143, 81, 97, 208, 128
-0.997146, 123, 85, 138, 116
-0.997163, 239, 217, 254, 248
-0.997182, 105, 173, 120, 204
-0.997202, 227, 213, 242, 244
-0.997208, 291, 209, 306, 240
-0.997226, 129, 65, 160, 320
-0.997245, 429, 97, 444, 128
-0.997247, 423, 93, 438, 124
-0.997265, 57, 209, 72, 240
-0.997268, 67, 101, 82, 132
-0.997272, 65, 205, 80, 236
-0.997293, 89, 149, 104, 180
-0.997298, 313, 197, 328, 228
-0.997302, 95, 165, 110, 196
-0.997303, 315, 153, 330, 184
-0.997305, 321, 185, 336, 216
-0.997307, 237, 201, 252, 232
-0.99731, 277, 229, 292, 260
-0.997323, 315, 173, 330, 204
-0.997343, 301, 65, 332, 320
-0.997347, 271, 217, 286, 248
-0.997353, 61, 113, 76, 144
-0.99736, 209, 229, 224, 260
-0.997363, 61, 165, 76, 196
-0.997366, 49, 125, 64, 156
-0.997381, 129, 93, 144, 124
-0.997384, 291, 225, 306, 256
-0.997388, 57, 141, 72, 172
-0.997391, 401, 37, 416, 68
-0.997391, 385, 177, 400, 208
-0.997396, 403, 101, 418, 132
-0.997397, 319, 197, 334, 228
-0.997401, 285, 181, 300, 212
-0.997407, 245, 221, 260, 252
-0.997408, 317, 133, 332, 164
-0.997426, 413, 17, 428, 48
-0.997427, 139, 69, 154, 100
-0.997428, 401, 173, 416, 204
-0.997442, 233, 213, 248, 244
-0.997445, 257, 217, 272, 248
-0.997449, 111, 161, 126, 192
-0.997457, 381, 101, 396, 132
-0.997463, 257, 233, 272, 264
-0.997464, 97, 149, 112, 180
-0.997472, 29, 1, 60, 256
-0.99748, 87, 161, 102, 192
-0.99749, 309, 181, 324, 212
-0.99749, 481, 129, 496, 160
-0.997492, 201, 229, 216, 260
-0.997499, 251, 221, 266, 252
-0.9975, 221, 213, 236, 244
-0.997506, 245, 209, 260, 240
-0.997513, 309, 221, 324, 252
-0.997531, 409, 41, 424, 72
-0.997537, 219, 225, 234, 256
-0.997554, 417, 1, 432, 32
-0.997559, 387, 105, 402, 136
-0.997569, 87, 173, 102, 204
-0.997579, 117, 85, 132, 116
-0.997585, 231, 201, 246, 232
-0.997591, 399, 49, 414, 80
-0.997592, 461, 1, 492, 256
-0.997602, 405, 1, 436, 256
-0.997606, 299, 225, 314, 256
-0.997614, 289, 193, 304, 224
-0.997617, 353, 33, 384, 288
-0.997618, 267, 229, 282, 260
-0.997632, 41, 57, 56, 88
-0.997632, 61, 125, 76, 156
-0.997633, 67, 181, 82, 212
-0.997636, 61, 257, 76, 288
-0.997639, 75, 213, 90, 244
-0.997646, 55, 93, 70, 124
-0.997648, 55, 273, 70, 304
-0.997649, 321, 49, 336, 80
-0.997666, 109, 61, 124, 92
-0.99767, 43, 129, 58, 160
-0.997672, 47, 105, 62, 136
-0.997674, 327, 193, 342, 224
-0.997681, 119, 61, 134, 92
-0.997684, 403, 25, 418, 56
-0.997713, 391, 169, 406, 200
-0.997716, 103, 77, 118, 108
-0.997717, 301, 153, 316, 184
-0.99772, 195, 229, 210, 260
-0.997721, 307, 165, 322, 196
-0.997732, 393, 185, 408, 216
-0.997735, 407, 53, 422, 84
-0.997741, 247, 237, 262, 268
-0.997746, 231, 169, 246, 200
-0.997748, 109, 125, 124, 156
-0.997752, 237, 169, 252, 200
-0.997753, 379, 197, 394, 228
-0.99776, 331, 37, 346, 68
-0.997765, 67, 161, 82, 192
-0.997767, 61, 273, 76, 304
-0.997769, 329, 1, 360, 256
-0.997771, 475, 129, 490, 160
-0.997773, 285, 229, 300, 260
-0.997786, 107, 149, 122, 180
-0.997798, 209, 217, 224, 248
-0.997799, 359, 173, 374, 204
-0.9978, 229, 225, 244, 256
-0.997802, 319, 233, 334, 264
-0.997802, 405, 149, 420, 180
-0.99781, 203, 217, 218, 248
-0.997813, 55, 181, 70, 212
-0.997817, 67, 89, 82, 120
-0.997818, 279, 177, 294, 208
-0.997937, 257, 33, 288, 288
-0.997955, 437, 33, 468, 288
-0.998042, 417, 33, 448, 288
-0.998165, 289, 33, 320, 288
-0.998344, 89, 81, 104, 208
-0.998345, 57, 143, 120, 158
-0.998352, 65, 163, 128, 178
-0.998364, 25, 69, 88, 84
-0.998373, 97, 71, 160, 86
-0.998373, 65, 151, 128, 166
-0.998389, 25, 97, 88, 112
-0.998389, 273, 191, 336, 206
-0.998389, 173, 65, 204, 320
-0.998394, 141, 33, 172, 288
-0.998399, 25, 81, 88, 96
-0.998399, 57, 157, 120, 172
-0.998405, 377, 107, 440, 122
-0.998407, 25, 91, 88, 106
-0.998408, 25, 63, 88, 78
-0.998411, 25, 75, 88, 90
-0.998412, 97, 77, 160, 92
-0.998415, 273, 197, 336, 212
-0.998425, 273, 183, 336, 198
-0.998426, 57, 77, 120, 92
-0.998435, 297, 191, 360, 206
-0.998436, 377, 113, 440, 128
-0.998438, 81, 169, 144, 184
-0.99844, 33, 145, 96, 160
-0.99844, 33, 45, 96, 60
-0.998441, 57, 87, 120, 102
-0.998446, 61, 129, 76, 256
-0.998446, 33, 157, 96, 172
-0.998446, 57, 187, 120, 202
-0.998447, 95, 81, 110, 208
-0.998448, 393, 101, 456, 116
-0.998448, 265, 157, 328, 172
-0.998451, 325, 43, 356, 58
-0.998451, 389, 123, 420, 138
-0.998451, 353, 183, 384, 198
-0.998451, 97, 139, 128, 154
-0.998452, 277, 227, 308, 242
-0.998452, 393, 175, 424, 190
-0.998453, 469, 61, 500, 76
-0.998453, 333, 33, 364, 48
-0.998453, 57, 137, 120, 152
-0.998453, 361, 159, 392, 174
-0.998453, 97, 177, 128, 192
-0.998453, 297, 177, 328, 192
-0.998453, 413, 29, 444, 44
-0.998454, 105, 7, 136, 22
-0.998455, 77, 99, 108, 114
-0.998455, 225, 205, 256, 220
-0.998455, 185, 233, 216, 248
-0.998455, 429, 151, 460, 166
-0.998456, 101, 183, 132, 198
-0.998456, 385, 103, 416, 118
-0.998456, 449, 33, 480, 288
-0.998457, 369, 173, 400, 188
-0.998458, 89, 89, 152, 104
-0.998459, 401, 151, 432, 166
-0.99846, 465, 133, 496, 148
-0.99846, 37, 63, 68, 78
-0.99846, 57, 71, 120, 86
-0.99846, 217, 215, 248, 230
-0.99846, 33, 51, 96, 66
-0.998464, 301, 207, 332, 222
-0.998464, 65, 41, 128, 56
-0.998464, 201, 219, 232, 234
-0.998465, 53, 217, 84, 232
-0.998465, 313, 197, 344, 212
-0.998465, 37, 137, 68, 152
-0.998465, 273, 227, 336, 242
-0.998465, 53, 43, 84, 58
-0.998465, 381, 59, 412, 74
-0.998466, 413, 51, 444, 66
-0.998466, 297, 223, 328, 238
-0.998466, 361, 119, 424, 134
-0.998467, 273, 163, 336, 178
-0.998467, 57, 99, 120, 114
-0.998467, 37, 93, 68, 108
-0.998468, 97, 191, 128, 206
-0.998468, 401, 111, 464, 126
-0.998468, 233, 209, 296, 224
-0.99847, 57, 169, 120, 184
-0.99847, 89, 95, 152, 110
-0.99847, 197, 231, 228, 246
-0.99847, 57, 63, 120, 78
-0.998471, 385, 117, 416, 132
-0.998471, 25, 105, 88, 120
-0.998472, 401, 57, 432, 72
-0.998472, 393, 29, 456, 44
-0.998473, 97, 1, 160, 16
-0.998473, 117, 101, 148, 116
-0.998473, 385, 289, 416, 304
-0.998473, 229, 173, 260, 188
-0.998474, 61, 101, 92, 116
-0.998475, 309, 145, 340, 160
-0.998476, 33, 139, 96, 154
-0.998477, 73, 153, 104, 168
-0.998478, 97, 65, 160, 80
-0.998478, 461, 143, 492, 158
-0.998479, 405, 35, 436, 50
-0.998479, 33, 151, 96, 166
-0.998479, 309, 235, 340, 250
-0.998481, 313, 47, 376, 62
-0.998482, 97, 23, 160, 38
-0.998482, 277, 215, 308, 230
-0.998482, 209, 213, 272, 228
-0.998482, 33, 163, 96, 178
-0.998482, 113, 79, 144, 94
-0.998483, 273, 175, 336, 190
-0.998484, 453, 135, 484, 150
-0.998484, 63, 81, 78, 208
-0.998485, 81, 175, 144, 190
-0.998485, 417, 21, 448, 36
-0.998486, 229, 33, 260, 288
-0.998486, 393, 151, 456, 166
-0.998487, 441, 139, 472, 154
-0.998488, 129, 71, 160, 86
-0.998489, 69, 141, 100, 156
-0.99849, 65, 93, 96, 108
-0.99849, 97, 15, 160, 30
-0.99849, 77, 187, 108, 202
-0.998491, 25, 57, 88, 72
-0.998491, 57, 93, 120, 108
-0.998491, 81, 181, 144, 196
-0.998492, 69, 171, 100, 186
-0.998492, 249, 219, 312, 234
-0.998492, 49, 189, 80, 204
-0.998493, 385, 41, 448, 56
-0.998494, 273, 213, 336, 228
-0.998494, 25, 113, 88, 128
-0.998494, 97, 29, 160, 44
-0.998495, 81, 141, 144, 156
-0.998495, 41, 181, 104, 196
-0.998495, 409, 87, 472, 102
-0.998495, 213, 227, 244, 242
-0.998495, 401, 95, 464, 110
-0.998495, 325, 49, 356, 64
-0.998495, 49, 149, 80, 164
-0.998495, 297, 153, 360, 168
-0.998496, 305, 137, 368, 152
-0.998496, 293, 241, 324, 256
-0.998496, 401, 169, 432, 184
-0.998498, 229, 215, 260, 230
-0.998498, 81, 135, 144, 150
-0.998498, 45, 25, 76, 40
-0.998499, 289, 211, 320, 226
-0.9985, 265, 231, 296, 246
-0.9985, 381, 177, 412, 192
-0.9985, 45, 143, 76, 158
-0.998501, 65, 57, 128, 72
-0.998503, 1, 131, 64, 146
-0.998503, 49, 127, 80, 142
-0.998503, 65, 47, 128, 62
-0.998504, 101, 81, 132, 96
-0.998504, 33, 39, 96, 54
-0.998505, 53, 159, 84, 174
-0.998505, 289, 237, 352, 252
-0.998505, 395, 97, 410, 224
-0.998506, 429, 89, 460, 104
-0.998506, 105, 63, 136, 78
-0.998507, 61, 177, 92, 192
-0.99851, 89, 163, 152, 178
-0.99851, 369, 99, 432, 114
-0.998511, 265, 67, 328, 82
-0.998511, 341, 33, 372, 288
-0.998511, 97, 9, 160, 24
-0.998511, 97, 39, 160, 54
-0.998511, 417, 285, 480, 300
-0.998512, 77, 165, 108, 180
-0.998512, 97, 83, 160, 98
-0.998512, 25, 119, 88, 134
-0.998513, 249, 189, 312, 204
-0.998515, 377, 35, 440, 50
-0.998516, 425, 149, 488, 164
-0.998516, 385, 165, 416, 180
-0.998517, 433, 133, 496, 148
-0.998518, 101, 147, 132, 162
-0.998518, 65, 35, 128, 50
-0.998518, 1, 119, 64, 134
-0.998519, 85, 139, 116, 154
-0.998519, 233, 177, 296, 192
-0.998519, 265, 73, 328, 88
-0.99852, 101, 165, 132, 180
-0.99852, 201, 205, 264, 220
-0.998521, 79, 81, 94, 208
-0.998523, 401, 117, 464, 132
-0.998524, 249, 233, 312, 248
-0.998524, 301, 155, 332, 170
-0.998525, 297, 207, 360, 222
-0.998526, 113, 91, 144, 106
-0.998526, 193, 173, 256, 188
-0.998526, 393, 39, 424, 54
-0.998527, 393, 169, 456, 184
-0.99853, 353, 167, 416, 182
-0.998531, 297, 217, 360, 232
-0.998531, 297, 159, 360, 174
-0.998531, 385, 53, 448, 68
-0.998533, 89, 151, 152, 166
-0.998533, 101, 75, 132, 90
-0.998534, 385, 161, 400, 288
-0.998534, 37, 105, 68, 120
-0.998534, 33, 221, 96, 236
-0.998535, 313, 197, 376, 212
-0.998536, 45, 5, 76, 20
-0.998537, 265, 169, 328, 184
-0.998537, 185, 217, 248, 232
-0.998537, 85, 151, 116, 166
-0.998537, 225, 221, 288, 236
-0.998538, 33, 169, 96, 184
-0.998538, 1, 137, 64, 152
-0.998539, 25, 195, 88, 210
-0.998539, 393, 177, 456, 192
-0.998539, 1, 125, 64, 140
-0.99854, 57, 111, 88, 126
-0.998541, 65, 185, 96, 200
-0.998541, 413, 41, 444, 56
-0.998542, 49, 273, 112, 288
-0.998546, 33, 187, 96, 202
-0.998546, 329, 33, 392, 48
-0.998546, 57, 259, 120, 274
-0.998546, 193, 229, 256, 244
-0.998546, 25, 275, 88, 290
-0.998546, 257, 61, 320, 76
-0.998547, 257, 81, 320, 96
-0.998548, 33, 33, 96, 48
-0.998549, 41, 129, 104, 144
-0.998549, 177, 247, 240, 262
-0.99855, 57, 5, 120, 20
-0.99855, 49, 183, 80, 198
-0.99855, 49, 175, 112, 190
-0.99855, 57, 17, 120, 32
-0.99855, 361, 43, 424, 58
-0.998551, 321, 143, 384, 158
-0.998552, 313, 137, 344, 152
-0.998552, 413, 113, 444, 128
-0.998552, 365, 165, 396, 180
-0.998553, 101, 65, 116, 192
-0.998553, 225, 79, 288, 94
-0.998554, 89, 133, 120, 148
-0.998554, 17, 211, 80, 226
-0.998556, 45, 19, 76, 34
-0.998556, 65, 165, 96, 180
-0.998556, 49, 101, 80, 116
-0.998559, 285, 197, 316, 212
-0.998562, 85, 145, 116, 160
-0.998564, 277, 183, 308, 198
-0.998565, 239, 209, 254, 333
-0.998568, 413, 91, 444, 106
-0.998571, 301, 201, 332, 216
-0.998576, 69, 147, 100, 162
-0.998582, 125, 81, 156, 96
-0.998582, 377, 109, 408, 124
-0.998583, 297, 177, 312, 304
-0.998585, 397, 117, 428, 132
-0.998596, 37, 131, 68, 146
-0.998599, 397, 101, 428, 116
-0.998602, 293, 187, 324, 202
-0.998605, 105, 69, 136, 84
-0.998605, 277, 191, 308, 206
-0.998608, 101, 87, 132, 102
-0.998609, 85, 181, 116, 196
-0.998612, 305, 189, 336, 204
-0.998618, 117, 67, 148, 82
-0.99862, 85, 157, 116, 172
-0.998622, 97, 171, 128, 186
-0.998624, 381, 171, 412, 186
-0.998624, 85, 175, 116, 190
-0.998625, 369, 115, 400, 130
-0.998626, 45, 13, 76, 28
-0.99863, 301, 195, 332, 210
-0.998638, 311, 145, 326, 272
-0.998639, 63, 17, 78, 144
-0.998645, 417, 97, 448, 112
-0.998645, 41, 111, 72, 126
-0.998653, 69, 159, 100, 174
-0.998653, 401, 107, 432, 122
-0.998654, 233, 209, 248, 333
-0.998662, 41, 33, 56, 160
-0.998662, 403, 33, 418, 160
-0.998672, 111, 1, 126, 128
-0.998684, 67, 145, 82, 272
-0.998691, 41, 121, 72, 136
-0.998695, 245, 209, 260, 333
-0.998697, 389, 111, 420, 126
-0.9987, 89, 129, 104, 256
-0.998717, 69, 81, 84, 208
-0.998729, 217, 33, 248, 288
-0.998732, 277, 65, 308, 320
-0.998747, 223, 209, 238, 333
-0.998749, 89, 165, 120, 180
-0.998755, 389, 113, 404, 240
-0.998755, 185, 65, 216, 320
-0.998756, 303, 177, 318, 304
-0.998757, 405, 97, 420, 224
-0.998757, 111, 129, 126, 256
-0.998767, 69, 33, 84, 160
-0.998767, 411, 97, 426, 224
-0.998772, 95, 129, 110, 256
-0.998782, 55, 113, 70, 240
-0.998801, 379, 161, 394, 288
-0.998807, 73, 161, 88, 288
-0.998813, 409, 17, 424, 144
-0.998813, 251, 209, 266, 333
-0.998832, 395, 161, 410, 288
-0.998834, 127, 49, 142, 176
-0.998869, 161, 65, 192, 320
-0.998874, 331, 1, 346, 128
-0.998882, 361, 145, 376, 272
-0.998887, 105, 113, 120, 240
-0.998895, 119, 65, 134, 192
-0.998904, 291, 193, 306, 320
-0.998908, 319, 49, 334, 176
-0.99891, 215, 209, 230, 333
-0.998911, 101, 161, 116, 288
-0.998928, 401, 161, 416, 288
-0.998928, 67, 209, 82, 333
-0.998928, 325, 33, 340, 160
-0.998936, 105, 1, 120, 128
-0.998938, 319, 177, 334, 304
-0.998938, 353, 177, 368, 304
-0.998943, 373, 161, 388, 288
-0.998949, 41, 113, 56, 240
-0.99895, 315, 97, 330, 224
-0.998954, 305, 129, 320, 256
-0.998955, 383, 113, 398, 240
-0.998955, 117, 129, 132, 256
-0.998972, 379, 209, 394, 333
-0.998978, 133, 49, 148, 176
-0.998992, 47, 129, 62, 256
-0.998996, 257, 209, 272, 333
-0.998999, 141, 177, 156, 304
-0.999009, 461, 209, 476, 333
-0.999014, 261, 33, 276, 160
-0.999016, 133, 1, 148, 128
-0.999021, 325, 177, 340, 304
-0.999022, 415, 1, 430, 128
-0.999039, 181, 161, 196, 288
-0.999041, 197, 65, 228, 320
-0.999048, 135, 97, 150, 224
-0.999048, 469, 1, 484, 128
-0.999049, 121, 193, 136, 320
-0.999054, 173, 161, 188, 288
-0.999055, 239, 129, 254, 256
-0.999055, 367, 145, 382, 272
-0.999057, 263, 209, 278, 333
-0.999058, 397, 49, 412, 176
-0.999064, 475, 1, 490, 128
-0.999066, 83, 161, 98, 288
-0.999069, 373, 209, 388, 333
-0.999072, 55, 161, 70, 288
-0.999079, 191, 161, 206, 288
-0.99908, 365, 209, 380, 333
-0.999081, 393, 209, 408, 333
-0.999083, 57, 49, 72, 176
-0.999096, 309, 193, 324, 320
-0.999099, 57, 209, 72, 333
-0.999107, 123, 1, 138, 128
-0.999117, 49, 65, 64, 192
-0.999122, 385, 209, 400, 333
-0.999123, 127, 129, 142, 256
-0.999124, 209, 209, 224, 333
-0.999125, 251, 161, 266, 288
-0.999129, 1, 1, 32, 256
-0.999132, 229, 161, 244, 288
-0.999134, 463, 1, 478, 128
-0.999137, 131, 193, 146, 320
-0.99914, 479, 161, 494, 288
-0.999142, 197, 161, 212, 288
-0.999142, 95, 193, 110, 320
-0.999144, 299, 129, 314, 256
-0.999145, 111, 49, 126, 176
-0.999146, 109, 177, 124, 304
-0.999149, 337, 209, 352, 333
-0.999151, 275, 193, 290, 320
-0.999152, 373, 97, 388, 224
-0.999153, 283, 193, 298, 320
-0.999157, 467, 193, 482, 320
-0.999157, 389, 33, 404, 160
-0.999159, 211, 161, 226, 288
-0.999165, 429, 81, 444, 208
-0.999166, 345, 209, 360, 333
-0.99917, 141, 129, 156, 256
-0.999177, 1, 193, 16, 320
-0.999177, 407, 193, 422, 320
-0.999178, 455, 129, 470, 256
-0.99918, 265, 81, 280, 208
-0.99918, 475, 209, 490, 333
-0.999181, 163, 161, 178, 288
-0.999184, 47, 1, 62, 128
-0.999184, 255, 1, 270, 128
-0.999184, 359, 193, 374, 320
-0.999184, 419, 81, 434, 208
-0.999197, 367, 97, 382, 224
-0.9992, 103, 209, 118, 333
-0.999212, 51, 209, 66, 333
-0.999213, 321, 97, 336, 224
-0.999214, 141, 65, 156, 192
-0.999215, 205, 161, 220, 288
-0.999223, 477, 113, 492, 240
-0.999223, 181, 209, 196, 333
-0.999224, 73, 209, 88, 333
-0.999228, 267, 129, 282, 256
-0.999228, 381, 65, 396, 192
-0.999641, 433, 89, 448, 104
-0.999641, 363, 153, 378, 168
-0.999641, 405, 67, 420, 82
-0.999642, 227, 215, 242, 230
-0.999643, 287, 229, 302, 244
-0.999643, 121, 199, 136, 214
-0.999643, 227, 207, 242, 222
-0.999644, 43, 133, 58, 148
-0.999645, 63, 151, 78, 166
-0.999646, 403, 101, 418, 116
-0.999646, 79, 163, 94, 178
-0.999646, 321, 199, 336, 214
-0.999648, 395, 191, 410, 206
-0.999648, 57, 13, 72, 28
-0.999649, 59, 167, 74, 182
-0.999649, 395, 177, 410, 192
-0.999649, 217, 227, 232, 242
-0.99965, 315, 173, 330, 188
-0.999651, 189, 181, 204, 196
-0.999653, 397, 119, 412, 134
-0.999655, 415, 91, 430, 106
-0.999656, 311, 239, 326, 254
-0.999657, 299, 241, 314, 256
-0.999657, 57, 159, 72, 174
-0.999658, 205, 231, 220, 246
-0.999659, 413, 117, 428, 132
-0.999659, 115, 171, 130, 186
-0.99966, 109, 161, 124, 176
-0.999661, 41, 61, 56, 76
-0.999661, 409, 31, 424, 46
-0.999661, 69, 185, 84, 200
-0.999662, 49, 111, 64, 126
-0.999664, 245, 213, 260, 228
-0.999664, 359, 165, 374, 180
-0.999665, 397, 105, 412, 120
-0.999665, 299, 203, 314, 218
-0.999665, 279, 231, 294, 246
-0.999665, 385, 157, 400, 172
-0.999666, 67, 217, 82, 232
-0.999666, 65, 169, 80, 184
-0.999668, 407, 189, 422, 204
-0.999669, 55, 185, 70, 200
-0.999669, 51, 13, 66, 28
-0.999671, 401, 183, 416, 198
-0.999673, 89, 147, 104, 162
-0.999673, 315, 183, 330, 198
-0.999673, 63, 103, 78, 118
-0.999674, 99, 185, 114, 200
-0.999675, 297, 211, 312, 226
-0.999675, 461, 143, 476, 158
-0.999676, 405, 51, 420, 66
-0.999677, 233, 215, 248, 230
-0.999679, 43, 127, 58, 142
-0.999679, 89, 175, 104, 190
-0.999679, 73, 103, 88, 118
-0.99968, 53, 105, 68, 120
-0.99968, 427, 95, 442, 110
-0.999682, 317, 145, 332, 160
-0.999683, 405, 113, 420, 128
-0.999683, 233, 173, 248, 188
-0.999686, 89, 167, 104, 182
-0.999687, 389, 199, 404, 214
-0.99969, 405, 57, 420, 72
-0.99969, 291, 239, 306, 254
-0.999691, 309, 187, 324, 202
-0.999693, 105, 181, 120, 196
-0.999694, 121, 75, 136, 90
-0.999694, 387, 175, 402, 190
-0.999696, 133, 69, 148, 84
-0.999697, 129, 81, 144, 96
-0.999698, 99, 161, 114, 176
-0.999698, 61, 115, 76, 130
-0.999699, 379, 113, 394, 128
-0.999699, 87, 181, 102, 196
-0.9997, 135, 101, 150, 116
-0.999702, 385, 167, 400, 182
-0.999702, 401, 173, 416, 188
-0.999703, 109, 65, 124, 80
-0.999703, 403, 41, 418, 56
-0.999705, 123, 89, 138, 104
-0.999705, 361, 173, 376, 188
-0.999705, 413, 23, 428, 38
-0.999705, 57, 215, 72, 230
-0.999706, 381, 107, 396, 122
-0.999706, 307, 147, 322, 162
-0.999706, 89, 161, 104, 176
-0.999708, 403, 107, 418, 122
-0.999708, 439, 115, 454, 130
-0.999709, 285, 241, 300, 256
-0.999709, 421, 91, 436, 106
-0.99971, 309, 167, 324, 182
-0.999711, 89, 155, 104, 170
-0.999716, 105, 175, 120, 190
-0.999716, 409, 41, 424, 56
-0.999718, 391, 159, 406, 174
-0.999722, 295, 187, 310, 202
-0.999723, 135, 83, 150, 98
-0.999723, 55, 7, 70, 22
-0.999723, 89, 141, 104, 156
-0.999724, 313, 151, 328, 166
-0.999724, 95, 179, 110, 194
-0.999726, 319, 189, 334, 204
-0.999726, 53, 127, 68, 142
-0.999726, 61, 185, 76, 200
-0.999728, 369, 135, 384, 150
-0.999728, 117, 87, 132, 102
-0.999735, 63, 109, 78, 124
-0.999735, 129, 91, 144, 106
-0.999736, 295, 193, 310, 208
-0.999739, 305, 201, 320, 216
-0.999743, 317, 135, 332, 150
-0.999744, 285, 189, 300, 204
-0.999745, 413, 107, 428, 122
-0.999745, 395, 169, 410, 184
-0.999746, 285, 183, 300, 198
-0.999756, 309, 161, 324, 176
-0.999767, 55, 111, 70, 126
-0.999767, 307, 193, 322, 208
-0.999775, 91, 133, 106, 148
-0.999781, 99, 171, 114, 186
-0.999787, 307, 153, 322, 168
-0.999788, 121, 67, 136, 82
-0.999799, 107, 167, 122, 182
-0.999799, 63, 157, 78, 172
-0.999816, 391, 111, 406, 126
-0.99982, 315, 197, 330, 212
-0.999821, 55, 121, 70, 136
-0.999823, 17, 33, 48, 288
-0.999827, 411, 99, 426, 114
-0.999834, 53, 1, 68, 16
-0.999855, 301, 195, 316, 210
